-7.420542e+00 4.349895e+00 -1.154089e+00 5.637594e+00 1.105308e+01 -1.616099e+00 5.118824e+00 -3.942543e+00 3.459825e+00 1.120214e+01 8.802381e+00 8.153207e+00 -1.052761e-01 -1.728130e-01 -4.431176e-01 -7.051288e-01 -5.088903e-01 6.317695e-01 1.763098e+00 1.409248e+00 9.358003e-01 5.103076e-01 -1.812955e+00 -1.787850e+00 -6.361929e-01 -2.978444e-04 
-6.888647e+00 4.553669e+00 -3.600758e+00 4.337584e+00 1.351161e+01 5.648246e+00 1.011684e+01 1.914063e+00 9.279895e+00 8.982615e+00 5.819098e+00 7.232731e+00 -1.044012e-01 -1.580303e-01 -3.006938e-01 -3.247172e-01 -8.473979e-01 -4.484976e-01 3.566893e-01 2.312088e-01 2.151752e-01 1.813009e-01 -2.930595e+00 -2.903657e+00 -3.197246e-02 1.895308e-03 
-8.550554e+00 2.032419e+00 -3.456399e+00 3.743148e+00 1.298266e+01 3.567216e+00 9.666059e+00 -2.191845e+00 3.101328e+00 3.247129e+00 1.354773e+00 5.432480e+00 -1.072028e-01 -2.675573e-01 1.921656e-01 3.964538e-01 -3.320742e-01 -7.353299e-01 -3.891238e-01 -4.608877e-01 -1.842991e-01 -7.107835e-01 -1.280990e+00 -1.315651e+00 -2.936012e-01 7.489145e-03 
-7.645687e+00 4.005163e+00 -1.626520e+00 2.347828e+00 7.845800e+00 -2.424311e+00 4.001251e+00 -3.742016e+00 4.545578e+00 5.266721e-01 -1.992100e+00 9.353707e+00 -9.483624e-02 -1.656776e-01 5.437280e-01 4.630007e-01 1.536265e-01 3.323555e-03 -4.970828e-01 -5.139313e-01 -2.653684e-01 -9.898125e-01 9.680676e-01 9.749111e-01 5.197060e-01 3.735745e-03 
-8.379808e+00 5.584975e+00 -1.589388e-01 4.972102e+00 1.020934e+01 4.745599e-01 5.872179e+00 -2.035999e+00 2.273066e+00 9.025162e+00 6.129724e+00 5.624712e+00 -7.261288e-02 4.105245e-01 7.377603e-01 1.914555e-01 2.578034e-02 2.904016e-01 9.750080e-01 1.379513e-01 1.578349e+00 1.571715e+00 1.274592e+00 1.431241e+00 9.920405e-02 2.751458e-03 
-7.802408e+00 5.496031e+00 -2.934484e+00 4.491240e+00 1.491489e+01 4.709160e+00 9.444120e+00 5.092977e-01 4.744963e+00 1.093394e+01 8.306178e+00 9.735145e+00 -1.030174e-01 2.178751e-01 -4.322862e-02 -3.768951e-01 5.451228e-02 6.596386e-01 7.725665e-01 5.911285e-01 1.784457e+00 1.639691e+00 8.939356e-01 4.289416e-01 -3.069768e-02 -1.979685e-03 
-6.419571e+00 4.975787e+00 -1.845140e+00 2.800344e+00 1.090012e+01 4.875521e+00 7.634380e+00 3.574245e+00 1.086021e+01 4.416456e+00 3.361839e+00 5.737782e+00 -8.935487e-02 2.542132e-01 -3.202019e-01 2.437904e-01 -2.300948e-01 4.004544e-01 1.377687e-01 -1.610894e+00 2.551773e+00 1.956506e+00 -1.620910e+00 -2.189940e+00 -7.095275e-01 8.257031e-03 
-7.536430e+00 4.093615e+00 -2.667896e+00 3.706268e+00 1.079860e+01 -7.619585e-01 6.075792e+00 2.375148e+00 8.450458e+00 7.300703e+00 1.536551e+00 9.143684e+00 -9.636366e-02 9.353132e-01 -3.776906e-01 -3.339573e-01 2.729774e-01 -3.465133e-01 -5.398014e-01 -2.089883e+00 1.068116e+00 6.808845e-01 -6.473187e-01 -2.330635e-01 1.521991e-01 1.643265e-02 
-7.241732e+00 4.685174e+00 9.267186e-01 4.214113e+00 1.426975e+01 3.898963e+00 -4.981256e-01 9.789941e+00 1.020285e+01 2.737230e+00 -1.435162e+00 2.372805e+00 -3.465462e-02 7.553799e-01 -4.736874e-01 -1.014784e+00 3.450769e-01 6.660352e-01 -1.099343e-02 -9.375906e-01 -3.166255e-01 3.026588e-02 6.601000e-01 1.296992e+00 5.911223e-01 6.870031e-03 
-2.714762e+00 3.752884e+00 -5.990200e+00 5.149242e+00 1.149751e+01 2.498432e+00 3.060959e+00 2.742029e+00 8.478068e+00 8.536956e+00 9.539360e+00 1.217863e+01 -4.820430e-02 3.753232e-01 2.011167e-01 -4.263681e-01 1.289898e-01 4.571935e-01 9.014677e-01 5.415913e-01 -6.429658e-01 2.889799e-01 6.100175e-01 1.498969e+00 1.228425e+00 -4.107309e-03 
-5.053506e+00 2.777715e+00 -5.257905e+00 3.804241e+00 1.388084e+01 3.190358e+00 4.453844e+00 1.807677e+00 1.099774e+01 7.098829e+00 5.845394e+00 7.175921e+00 -7.908440e-02 -5.101299e-01 -5.975020e-02 -5.608647e-01 -7.872678e-01 -6.345123e-01 -4.272884e-01 1.409259e+00 -1.255626e+00 -2.580020e-01 1.041573e+00 6.675979e-01 1.498345e+00 -1.803218e-02 
-6.753927e+00 6.052927e+00 -1.707424e+00 4.556153e+00 1.327903e+01 4.099682e+00 6.307765e+00 3.151451e+00 9.497913e+00 8.169991e+00 5.391116e+00 1.288425e+01 -9.468532e-02 -1.183586e+00 -4.902909e-02 8.285143e-01 -8.024858e-01 1.871372e-01 4.099464e-02 5.018416e-01 2.560580e-01 -4.025657e-02 -1.955395e-01 -1.541904e+00 -1.681073e+00 -1.063303e-02 
-7.772799e+00 3.236402e+00 -4.018993e+00 5.743184e-01 1.020643e+01 9.618963e-01 4.924768e+00 3.307098e+00 8.402916e+00 8.128579e+00 3.976950e+00 9.511720e+00 -1.015750e-01 -3.343748e-01 1.884461e-01 5.542729e-01 -9.180264e-01 -5.581597e-01 2.341320e-01 1.136001e+00 3.649599e-01 -2.360654e-01 -2.208085e-02 -1.030064e+00 -1.515855e+00 -6.040049e-03 
-7.273046e+00 3.278395e+00 -2.467084e+00 2.751774e+00 1.427040e+01 3.817636e+00 5.334705e+00 3.272608e+00 9.574196e+00 7.044384e+00 2.764062e+00 2.605363e+00 -9.012413e-02 9.990253e-02 1.148935e-01 -6.761799e-02 -4.843692e-01 -4.000716e-01 -2.825711e-01 -2.921062e-02 -1.282199e+00 -3.428450e-01 -1.040029e+00 -8.828552e-02 -1.576441e+00 -2.963781e-04 
-6.465820e+00 5.107212e+00 -2.106710e+00 1.162984e-01 1.059435e+01 4.502041e+00 1.062038e+01 3.571898e+00 9.779268e+00 7.551229e+00 2.008599e+00 4.736090e+00 -1.115652e-01 6.460108e-01 1.056613e+00 4.553217e-01 7.774387e-01 -2.205608e-01 -4.441447e-01 -7.214832e-03 -1.781889e+00 -6.730627e-01 -1.450116e+00 1.972070e-01 -1.794195e-01 1.583159e-03 
-6.907904e+00 5.691990e+00 -3.001656e+00 2.363317e+00 1.108471e+01 9.167547e-01 3.313907e+00 -3.391944e+00 7.095512e+00 3.258518e+00 5.933864e+00 7.389859e+00 -9.117210e-02 1.140111e+00 8.494121e-01 -1.510906e-02 7.036974e-01 -3.415410e-01 -4.134033e-01 5.502999e-01 -1.022279e+00 -1.153454e+00 -1.640655e+00 -3.729979e-01 8.114181e-01 2.480459e-03 
-4.725316e+00 7.312669e+00 -1.475099e+00 4.655740e+00 1.069648e+01 1.916138e-01 5.899093e+00 -2.270070e+00 6.276944e+00 2.770932e+00 3.378084e+00 6.222374e+00 -9.313524e-02 1.571843e+00 1.438403e-01 -9.259290e-01 -7.250235e-02 -1.010270e+00 7.190171e-01 1.530086e+00 2.081009e-01 -1.844922e+00 -1.314042e+00 -1.117650e-01 3.602032e-02 1.547623e-02 
-2.442743e+00 6.422728e+00 -2.858435e+00 4.000540e+00 1.251163e+01 3.905833e+00 1.044685e+01 1.082197e+00 5.558086e+00 1.231259e+00 2.143297e-01 5.919312e+00 -8.693683e-02 1.032817e+00 -5.014841e-01 -7.597431e-01 -7.332115e-01 -1.130221e+00 4.006190e-01 2.282043e+00 1.213333e+00 -2.496736e+00 -6.501774e-01 3.503846e-01 8.042289e-01 2.005310e-02 
-8.391876e-01 5.461044e+00 -6.807964e+00 -1.064825e+00 4.829540e+00 6.602587e+00 1.470434e+01 2.375332e+00 1.323370e+00 1.994647e+00 4.309541e+00 5.651466e+00 -3.630173e-02 4.311561e-01 -2.058494e+00 -1.649089e+00 -1.118309e+00 -1.270278e+00 -7.986355e-01 -5.129930e-01 -1.159589e-01 -9.269460e-01 -1.470439e-01 7.790449e-01 6.283112e-01 4.478424e-02 
-3.686881e+00 4.110382e+00 -4.133938e+00 1.557542e+00 8.367069e+00 -2.856367e-01 1.032150e+01 3.520211e-01 -2.911382e+00 3.957739e-01 7.220058e+00 1.169646e+01 -1.932335e-02 7.208891e-02 -2.586084e+00 -1.685516e+00 -7.909404e-01 -1.315136e+00 -2.316670e+00 -2.827253e+00 -1.585737e+00 3.242789e-01 1.757265e-01 6.065224e-01 3.514919e-01 1.049318e-01 
-1.947467e+00 -1.823629e+00 -9.082794e+00 2.856935e-01 6.417367e+00 -1.705829e+00 3.396801e+00 -2.484776e+00 5.876948e+00 2.453455e+00 3.770443e+00 6.475357e+00 9.697920e-02 1.483824e-01 -1.720762e+00 -8.560809e-01 2.639160e-01 2.789098e-01 -2.057160e+00 -3.228586e+00 -1.553225e+00 1.453516e+00 4.057340e-01 -3.932461e-01 2.869185e-01 4.987175e-02 
-1.528159e+00 -2.865354e+00 -1.014860e+01 -6.294206e-01 5.142041e+00 -3.523308e+00 1.964350e+00 -4.416432e+00 4.902692e+00 1.880487e+00 3.516490e+00 7.264826e+00 3.710817e-01 -1.572111e-01 1.303423e+00 9.187471e-01 1.723465e+00 4.753412e-01 -1.039283e-01 -2.245574e+00 -1.545404e+00 1.356268e+00 1.089117e+00 -1.186515e+00 -9.692839e-01 -7.676291e-03 
-1.176637e+00 3.451011e-01 -8.081039e+00 1.348236e+00 7.836603e+00 -2.064379e+00 2.739984e+00 -3.006568e+00 4.683914e+00 3.280960e+00 4.195095e+00 9.301874e+00 1.785451e-02 -5.446262e-02 2.467523e+00 5.128687e-01 1.949883e+00 8.244209e-01 5.768805e-01 4.375848e-01 -6.934344e-01 -9.003989e-01 -2.471942e-01 -1.538549e+00 -1.036993e+00 -4.567863e-02 
-4.858352e+00 9.543133e+00 -4.108036e-02 9.643597e+00 1.003416e+01 -6.260034e-01 -5.779581e-01 -7.114102e+00 4.466473e+00 5.427609e+00 1.075160e+00 5.436780e+00 -1.814246e-02 -2.843892e-01 8.364877e-01 5.246081e-01 1.017663e+00 -2.137029e+00 8.655593e-01 6.135316e-01 -6.842518e-01 -5.479466e-01 1.224951e+00 -1.260195e+00 -8.345606e-01 6.469441e-02 
-5.546837e-01 4.309743e+00 -1.157221e+01 4.898602e+00 8.093414e+00 -2.700788e-01 6.855879e+00 -4.603113e+00 1.593063e+00 -5.560765e-01 -2.701637e+00 2.204412e+00 6.319809e-02 2.575336e-01 -3.378711e-01 4.980294e-01 -5.635008e-01 -3.503616e+00 2.979233e-01 1.468990e+00 -4.842642e-01 2.363656e-01 2.405327e+00 -2.221781e-01 -1.106972e-01 2.133871e-01 
-3.261082e+00 -6.652365e-01 -5.779972e+00 2.683713e+00 -5.671512e+00 -9.266141e-02 2.974060e+00 -7.039418e+00 3.708384e+00 9.923761e+00 6.638815e-01 6.640754e+00 6.718819e-01 1.400023e+00 -1.032160e+00 1.484428e+00 -2.171334e+00 -2.098775e+00 1.260919e-01 1.939761e+00 8.427721e-01 -4.940939e-02 1.602265e+00 7.288493e-01 -7.946724e-01 1.925782e-01 
-6.876040e-01 3.759930e+00 -2.721446e+00 2.010674e+00 -1.828641e+00 -8.414332e-01 8.308923e+00 -5.465231e+00 6.244786e+00 1.305952e+01 3.289843e+00 8.146401e+00 7.397777e-01 9.763209e-01 2.003854e-01 5.003239e+00 1.003335e-01 1.147980e+00 5.849516e-01 4.819961e-01 1.683165e+00 -2.287197e-01 4.600335e-01 1.497195e+00 -1.176165e+00 1.070966e-01 
2.208222e+00 4.657239e+00 2.955680e+00 2.308927e-01 4.501307e+00 2.901333e-01 8.394325e+00 -2.469182e+00 1.893564e+00 6.631138e+00 1.723666e+00 -1.507576e+00 6.064584e-01 1.120527e+00 -8.455038e-01 3.930804e+00 2.124601e+00 3.997464e+00 8.091099e-01 7.506000e-01 2.661343e+00 -2.637072e-01 -1.536462e+00 1.041501e+00 -1.094929e+00 -1.445043e-02 
1.592269e+00 2.650432e+00 9.076159e+00 6.626680e+00 8.746905e+00 2.463282e+00 6.555727e+00 1.527594e+00 1.356874e+00 3.390403e+00 4.254447e+00 3.977504e-01 6.313927e-01 3.396377e-01 -2.908276e+00 2.729573e+00 3.229867e+00 2.762884e+00 4.330041e-02 2.476650e-01 2.886503e+00 6.000015e-01 -2.046336e+00 -2.581216e-01 -1.699799e-01 -1.062884e-02 
1.201614e+00 -4.338007e+00 7.975244e+00 1.099872e+01 9.028033e+00 2.300530e+00 7.603658e+00 2.770883e+00 4.833804e+00 7.076010e+00 5.389084e+00 5.040437e+00 6.538223e-01 -1.324867e-01 -2.748323e+00 6.734136e-01 3.751802e+00 2.458783e+00 -6.951338e-01 -4.361153e-03 1.651904e+00 1.081654e+00 -2.624193e+00 -1.612874e+00 1.547451e+00 -2.352059e-03 
1.513888e+00 -6.283825e+00 8.416636e+00 1.277610e+01 9.722418e+00 -1.630129e+00 9.942581e+00 6.347251e+00 7.774673e+00 2.605400e+00 1.665266e-01 4.022495e+00 6.629516e-01 8.984500e-01 -1.046733e+00 -2.613525e-01 1.173456e+00 3.518522e-01 -2.563384e+00 -1.422355e+00 1.133143e-01 -1.189413e-01 -1.673717e+00 -2.236283e+00 1.259240e+00 -2.897049e-02 
1.584979e+00 -4.617249e+00 6.652509e+00 1.591519e+01 1.630746e+01 -1.138830e+00 6.679092e+00 3.380511e+00 4.092934e+00 -6.097324e+00 -4.296741e+00 4.417306e+00 5.789187e-01 3.368205e+00 1.042861e+00 -3.536172e+00 -2.603871e+00 -1.198486e+00 -1.005687e+00 -3.943311e+00 -2.484864e+00 -1.539273e+00 -1.386222e+00 -2.379303e+00 -6.384009e-01 -1.851276e-02 
5.892837e+00 -2.443612e+00 8.430764e+00 1.003572e+01 6.866450e+00 -8.633958e+00 -9.376335e-02 1.789352e+00 1.132603e+00 1.608484e+00 -2.084054e+00 7.005516e+00 5.239921e-01 5.177799e+00 1.089568e+00 -7.258521e+00 -5.486162e+00 -1.818055e+00 1.393054e+00 -7.100514e+00 -3.501949e+00 -2.389434e+00 -4.372148e-01 6.325531e-03 -1.714010e+00 2.927670e-02 
1.585317e+01 -1.043808e+00 -9.712685e+00 -6.504468e-01 4.463589e+00 7.740115e-01 -7.094726e+00 -7.374485e+00 4.584761e-01 6.433601e-01 -5.382138e+00 3.569217e-01 6.307383e-01 5.269965e+00 6.418881e-01 -8.068277e+00 -6.415223e+00 -1.406713e+00 3.346774e+00 -7.662366e+00 -2.729471e+00 -7.778763e-01 6.675736e-01 1.462581e+00 -2.821711e+00 8.432553e-02 
2.026879e+01 -2.622706e+00 -1.969337e+01 -6.371889e+00 6.554083e+00 4.378720e+00 -1.867308e+01 -5.784998e+00 -2.355268e+00 -2.951015e+00 7.408526e-01 -2.517363e+00 7.834253e-01 3.292972e+00 -3.416222e-01 -6.964067e+00 -4.034720e+00 9.685179e-01 3.980601e+00 -6.742021e+00 -1.326644e+00 1.141094e+00 -6.543504e-01 1.468023e+00 -3.368810e+00 1.071668e-01 
2.074683e+01 -1.318262e+00 -1.962681e+01 -7.957118e+00 9.430081e+00 9.088697e+00 -2.234308e+01 -6.479666e+00 1.947488e+00 -4.797063e-01 1.603711e+00 -4.929808e+00 8.708297e-01 5.006712e-01 -1.381844e+00 -2.309310e+00 -1.867725e-01 5.528834e-01 8.617775e-01 -5.409257e+00 1.530158e+00 2.765207e+00 -7.900394e-01 9.530767e-01 -1.987423e+00 8.142960e-02 
1.991086e+01 -4.014496e+00 -2.143250e+01 -6.484545e+00 9.225794e+00 7.111706e+00 -2.617969e+01 -5.291278e+00 6.093565e+00 -1.101735e+00 1.763135e+00 -7.195169e+00 9.397802e-01 -1.148816e+00 -1.635754e+00 -1.006525e-01 2.183480e+00 -1.260391e+00 -1.538023e+00 -4.110179e+00 2.884118e+00 3.336229e+00 -1.049676e+00 -2.151726e+00 -1.171423e+00 5.193894e-02 
1.853549e+01 -7.257134e+00 -2.038967e+01 -1.527981e+00 5.892151e+00 3.716406e+00 -3.038771e+01 2.944410e-02 1.006009e+01 -4.231477e+00 -1.127896e+00 -7.241292e+00 9.597088e-01 -1.802007e+00 -1.892267e+00 1.244651e+00 3.353206e+00 -2.693837e+00 -3.547655e+00 -2.690615e+00 5.013106e+00 1.351692e+00 -1.805772e+00 -2.630326e+00 7.765098e-01 2.952269e-02 
1.563038e+01 -7.832041e+00 -1.981520e+01 1.330943e+00 2.021091e+00 -6.252515e-01 -3.520166e+01 5.381036e+00 1.026958e+01 -6.323508e+00 -8.651973e+00 -7.218734e+00 9.986805e-01 -2.004021e+00 -1.246623e+00 2.652426e+00 3.054568e+00 -3.875407e+00 -3.597796e+00 -6.764057e-01 5.471510e+00 -1.231918e+00 -2.271482e+00 -1.756976e+00 2.093617e+00 1.497238e-02 
1.387704e+01 -8.870825e+00 -1.421221e+01 4.901170e+00 -4.367514e-01 -4.781100e+00 -3.128517e+01 1.324971e+01 6.617941e+00 -6.897679e+00 -6.340364e+00 -1.035477e+00 9.889930e-01 -1.949065e+00 -9.068812e-01 3.355289e+00 1.897725e+00 -4.721304e+00 -3.045369e+00 1.386841e+00 3.799426e+00 -3.542358e+00 -2.093229e+00 2.001085e-02 1.560712e+00 6.035960e-03 
1.221998e+01 -9.440767e+00 -1.125911e+01 5.573718e+00 -6.986789e+00 -6.628522e+00 -2.911299e+01 1.545614e+01 1.655049e+00 -1.112605e+01 -4.415510e+00 1.700087e-01 1.000000e+00 -1.543631e+00 -8.328766e-01 3.826505e+00 6.094540e-01 -4.895183e+00 -2.095801e+00 3.102547e+00 1.129188e+00 -4.194454e+00 -2.192468e+00 2.781740e+00 -1.047093e-01 -4.914737e-03 
1.049536e+01 -1.098718e+01 -7.891273e+00 5.839257e+00 -1.321043e+01 -8.508802e+00 -2.649784e+01 1.398902e+01 -3.344436e+00 -1.229635e+01 -3.146073e+00 -3.132102e+00 9.892288e-01 -1.322618e+00 -3.345854e-01 3.582901e+00 -8.311236e-02 -4.335703e+00 -6.782151e-01 3.277669e+00 -9.044094e-01 -3.262967e+00 -1.203728e+00 3.159160e+00 -1.384257e+00 -4.642046e-03 
9.603062e+00 -1.093825e+01 -3.843144e+00 3.909169e+00 -1.606799e+01 -9.240404e+00 -2.208259e+01 1.065732e+01 -5.721505e+00 -1.458651e+01 3.659582e+00 -6.693968e+00 9.739889e-01 -1.308752e+00 2.692852e-01 3.237357e+00 -4.891998e-01 -2.968641e+00 2.195597e-01 3.331535e+00 -1.978578e+00 -2.050770e+00 9.879112e-03 3.026436e+00 -1.930311e+00 -6.782305e-03 
8.572405e+00 -9.795012e+00 -5.683303e-03 5.317883e+00 -1.757467e+01 -6.866235e+00 -1.841202e+01 1.112707e+01 -6.008615e+00 -1.118608e+01 5.417891e+00 -4.524774e+00 9.787884e-01 -1.081470e+00 4.764736e-01 2.811430e+00 -1.048111e+00 -1.902464e+00 8.447868e-01 2.860319e+00 -2.590268e+00 -1.100126e+00 4.943607e-01 1.987462e+00 -1.550356e+00 -4.161000e-03 
6.637701e+00 -8.690424e+00 9.848865e-01 3.388406e+00 -1.964787e+01 -6.352007e+00 -1.649822e+01 6.994228e+00 -7.266710e+00 -1.163178e+01 6.434689e+00 -8.785212e+00 9.713087e-01 -9.241596e-01 6.217702e-01 1.966189e+00 -1.180600e+00 -7.409693e-01 5.738881e-01 2.555011e+00 -2.740972e+00 -4.147223e-01 5.953229e-01 5.678540e-01 -1.185258e+00 -4.427797e-03 
6.570688e+00 -9.728721e+00 3.751861e+00 8.590845e-01 -2.093280e+01 -5.729066e+00 -1.498843e+01 2.869230e+00 -8.072464e+00 -1.130191e+01 5.403683e+00 -9.838260e+00 9.697639e-01 -7.020914e-01 3.801852e-01 1.499318e+00 -1.555112e+00 7.940521e-02 -1.507401e-01 2.171245e+00 -2.777619e+00 -5.657490e-01 1.369323e-01 3.082882e-01 -1.807354e+00 -4.099977e-03 
5.983122e+00 -7.862542e+00 4.109030e+00 2.355674e-01 -1.809377e+01 -6.939548e+00 -1.101933e+01 1.081379e+00 -6.763192e+00 -1.155198e+01 6.505957e+00 -9.963515e+00 9.563621e-01 -3.859979e-01 2.845550e-01 1.509412e+00 -1.395247e+00 9.451963e-01 -3.256787e-01 1.980882e+00 -1.507810e+00 -6.490077e-01 5.547169e-01 6.841147e-02 -1.070849e+00 -1.848656e-03 
5.389237e+00 -8.308026e+00 5.928833e+00 -8.812572e-01 -1.795470e+01 -7.326165e+00 -1.029524e+01 1.954020e-01 -9.089120e+00 -1.054132e+01 6.923697e+00 -1.297239e+01 9.657618e-01 -4.035244e-01 3.609671e-01 1.148932e+00 -9.896757e-01 9.686155e-01 -2.090794e-01 1.696024e+00 -1.217176e+00 -1.901434e-01 5.019306e-01 -5.483613e-02 -1.004465e+00 -1.054895e-03 
5.298437e+00 -7.977996e+00 7.443458e+00 -2.717658e+00 -1.641094e+01 -7.181851e+00 -8.940405e+00 7.920910e-01 -1.000342e+01 -9.238495e+00 6.016739e+00 -1.257239e+01 9.640665e-01 -4.609076e-01 4.312878e-01 1.238379e+00 -8.055246e-01 5.290083e-01 8.025478e-01 1.338877e+00 -1.191506e+00 4.777509e-01 5.820554e-01 -1.911938e-01 -4.967613e-01 5.465150e-05 
4.895409e+00 -7.866158e+00 7.829309e+00 -2.612682e+00 -1.693114e+01 -6.653311e+00 -7.547774e+00 -3.072004e+00 -7.403067e+00 -9.949005e+00 5.374111e+00 -1.355615e+01 9.606373e-01 -4.240297e-01 5.120865e-01 9.408728e-01 -6.911022e-01 3.094723e-01 8.886088e-01 1.064624e+00 -1.616866e+00 1.126906e+00 -1.412708e-01 -1.267038e-01 -3.237554e-01 -3.915310e-03 
3.925498e+00 -5.927037e+00 9.350684e+00 -2.926344e+00 -1.596050e+01 -3.263236e+00 -5.698683e+00 -3.242448e+00 -5.217464e+00 -8.937864e+00 6.324780e+00 -1.215544e+01 9.591976e-01 -5.342656e-01 4.045581e-01 6.674137e-01 -8.160458e-01 -3.598290e-02 8.120134e-01 2.806569e-01 -1.810591e+00 7.746776e-01 -5.174907e-01 -2.799441e-01 -8.700024e-01 -5.292296e-03 
3.955558e+00 -6.773073e+00 9.679584e+00 -4.232425e+00 -1.663256e+01 -4.842429e+00 -6.592981e+00 -5.871660e+00 -5.847569e+00 -1.139799e+01 6.136158e+00 -1.479964e+01 9.486197e-01 -2.703284e-01 4.013683e-01 7.063273e-01 -5.908377e-01 1.114384e-01 1.198125e+00 -1.330580e-01 -4.618074e-01 2.700672e-02 2.175427e-03 -2.123181e-01 -6.258515e-01 -7.858425e-03 
3.097034e+00 -6.501748e+00 9.855389e+00 -5.988015e+00 -1.674015e+01 -4.027225e+00 -8.014517e+00 -6.861035e+00 -6.907782e+00 -1.110146e+01 4.235995e+00 -1.630066e+01 9.436138e-01 1.950421e-02 2.677192e-01 4.352880e-01 -5.165947e-01 -1.142502e-03 1.123290e+00 -1.102557e+00 7.331668e-01 -1.258983e+00 7.230188e-01 -8.803331e-01 -4.812166e-01 -1.598208e-02 
3.957998e+00 -5.571961e+00 1.110859e+01 -4.036035e+00 -1.598412e+01 -2.806892e-01 -7.055147e+00 -3.571747e+00 -6.422874e+00 -8.856333e+00 5.356914e+00 -1.461280e+01 9.291371e-01 -1.749640e-02 3.615521e-01 2.603656e-01 -3.737462e-01 -2.298092e-01 1.178401e+00 -1.049933e+00 1.012682e+00 -2.024061e+00 1.626384e+00 -1.846117e+00 5.210945e-01 -1.901488e-02 
4.021799e+00 -5.188997e+00 1.081262e+01 -5.607512e+00 -1.629043e+01 7.234359e-02 -1.098038e+01 -7.265710e-01 -1.122473e+01 -6.593601e+00 2.312738e+00 -1.465495e+01 8.890285e-01 9.916877e-03 5.538229e-01 -3.152080e-01 -1.000764e-01 -7.307230e-01 4.410149e-01 -7.258770e-01 1.253513e-01 -1.983609e+00 9.232124e-01 -1.834611e+00 5.697605e-01 -2.637029e-02 
3.405694e+00 -5.621688e+00 1.050280e+01 -6.291407e+00 -1.800646e+01 -1.000206e+00 -1.035971e+01 -3.875481e+00 -1.380940e+01 -5.520000e+00 -2.132797e+00 -1.301702e+01 8.808379e-01 -1.720149e-01 6.912713e-01 -6.223258e-01 -9.704390e-01 -4.882082e-01 -4.695108e-01 -7.365425e-01 -9.891936e-01 -1.899287e+00 -6.695776e-02 -1.765542e+00 -3.555180e-01 -2.999895e-02 
3.422771e+00 -3.707770e+00 8.582247e+00 -5.360711e+00 -1.938260e+01 -1.462392e+00 -9.991619e+00 -6.082412e+00 -1.313256e+01 -8.153559e+00 -1.192207e+00 -1.424974e+01 8.359119e-01 -2.493764e-01 1.090108e+00 -2.521481e-01 -7.145818e-01 2.619980e-01 -1.655014e-01 7.948551e-02 -1.084633e+00 -4.148617e-01 -2.805300e-01 -6.648270e-01 -2.385378e-01 -2.117324e-02 
3.397438e+00 -2.856218e+00 9.112150e+00 -9.011631e+00 -1.687908e+01 -1.860875e+00 -1.123224e+01 -5.839795e+00 -1.496539e+01 -8.411142e+00 -1.718324e+00 -1.659299e+01 8.057006e-01 -4.457832e-01 1.098796e+00 1.524322e-01 -6.014081e-01 3.153892e-01 4.450047e-01 -9.051466e-02 -6.720124e-01 -1.996651e-01 3.634219e-01 -5.601615e-01 1.202362e-01 -6.625557e-03 
2.779045e+00 -1.121194e+00 1.024720e+01 -7.820310e+00 -1.554413e+01 -3.248287e-01 -1.014669e+01 -5.167580e+00 -1.272104e+01 -6.550680e+00 -1.218633e+00 -1.405965e+01 8.207310e-01 -6.681474e-01 1.177183e-01 5.186456e-01 -6.184257e-01 -4.178261e-01 2.356877e-01 -8.941755e-01 -8.314427e-01 -9.090500e-01 5.213901e-01 -1.244759e+00 1.193768e-01 6.040764e-03 
1.498641e+00 -1.420996e+00 1.043248e+01 -8.068647e+00 -1.834874e+01 6.560354e-01 -1.073475e+01 -7.692959e+00 -1.501349e+01 -4.504330e+00 -4.920391e+00 -1.251089e+01 8.553006e-01 -6.506742e-01 -1.024887e-01 5.930170e-01 -4.560117e-01 -6.662958e-01 -1.119737e-01 -7.584550e-01 -1.423299e+00 -7.517931e-01 5.086002e-01 -8.408703e-01 8.566208e-02 8.596355e-03 
1.031432e+00 -3.836790e+00 1.051531e+01 -8.924330e+00 -2.073689e+01 -1.542409e+00 -1.471124e+01 -9.313044e+00 -1.765377e+01 -7.500015e+00 -5.814971e+00 -1.569391e+01 8.413157e-01 -6.599278e-01 -1.730316e-01 6.479636e-01 -7.256652e-01 -3.447416e-01 -5.167227e-01 -7.819124e-01 -1.049046e+00 -1.018353e+00 6.235324e-01 -2.706930e-01 -4.149206e-01 3.175956e-03 
1.017874e+00 -2.010864e+00 1.194318e+01 -1.073968e+01 -1.761418e+01 -1.811954e+00 -1.274224e+01 -1.088356e+01 -1.625800e+01 -5.393473e+00 -3.624507e+00 -1.534755e+01 8.383900e-01 -6.354018e-01 3.814505e-01 5.166165e-01 -3.501534e-01 2.908753e-01 -6.413756e-01 -3.307537e-01 -3.214393e-01 -2.681606e-01 1.050001e+00 5.515993e-01 3.316336e-01 -5.127740e-03 
-2.802105e-01 -1.691419e+00 1.273167e+01 -1.011312e+01 -1.763512e+01 -1.674448e+00 -1.305251e+01 -8.817510e+00 -1.719055e+01 -2.988446e+00 -3.220040e+00 -1.471592e+01 8.450661e-01 -3.461842e-01 1.040286e+00 2.411481e-01 -2.617938e-01 9.465050e-01 -3.372658e-02 1.748802e-01 1.772900e-01 -2.017010e-01 2.142357e+00 4.034865e-01 1.063457e+00 -1.462758e-02 
-1.022547e+00 -5.864296e-01 1.190738e+01 -9.225019e+00 -1.844526e+01 -2.484823e+00 -1.321789e+01 -9.547922e+00 -1.658590e+01 -1.510110e+00 -3.459860e+00 -1.134171e+01 8.277867e-01 3.132486e-02 1.364722e+00 1.727352e-01 -5.828735e-01 6.896563e-01 6.443965e-01 8.148375e-01 2.346148e-01 -1.002687e+00 2.490280e+00 -1.916732e-01 1.778408e+00 -3.619475e-02 
3.207216e-01 6.524215e-01 1.173895e+01 -1.099063e+01 -1.558883e+01 -1.374607e+00 -1.359902e+01 -9.094411e+00 -1.849832e+01 1.270089e+00 -3.879862e+00 -1.237955e+01 7.734795e-01 3.545966e-01 1.713010e+00 8.747578e-02 -5.833203e-01 7.610515e-01 4.527752e-01 1.444876e+00 -1.921335e-01 -1.149931e+00 1.391375e+00 -1.139150e+00 2.383092e+00 -5.532781e-02 
8.740320e-01 3.640824e+00 1.330322e+01 -1.321529e+01 -1.518904e+01 1.260109e+00 -8.394800e+00 -9.572033e+00 -2.061755e+01 4.928658e+00 -4.252962e+00 -7.623701e+00 6.932095e-01 3.444147e-02 1.587937e+00 4.423181e-01 4.465599e-02 7.908043e-01 4.397837e-01 1.953951e+00 -9.821850e-01 -1.959189e+00 9.690449e-01 -7.886287e-01 1.877207e+00 -4.954491e-02 
5.444832e-01 4.760005e+00 1.247113e+01 -1.103459e+01 -1.545797e+01 -1.283037e+00 -8.239672e+00 -9.766122e+00 -2.092438e+01 7.490454e-01 -8.519240e+00 -4.659466e+00 6.357156e-01 -3.092941e-01 8.417743e-01 -7.397556e-03 6.909826e-01 -7.724138e-01 -1.279170e+00 2.308433e+00 -9.868904e-01 2.908083e-01 2.645612e-01 -1.968509e+00 1.420253e+00 -3.748496e-02 
-9.622202e-01 5.299465e+00 1.375288e+01 -8.979761e+00 -1.455666e+01 -3.316894e-01 -6.127806e+00 -1.412299e+01 -2.516881e+01 3.595637e+00 -5.083314e+00 -5.815720e+00 6.489441e-01 -2.563387e-01 -7.433262e-01 -1.088794e+00 1.099512e+00 -1.009244e+00 -1.823137e+00 1.098284e+00 -3.306085e-01 2.837281e+00 -6.614040e-01 -1.577556e+00 -1.342754e-02 -2.917823e-02 
-3.076229e-01 4.031973e+00 1.147713e+01 -9.653481e+00 -1.976709e+01 -6.974560e+00 -3.190352e+00 -1.175338e+01 -1.476865e+01 3.259406e+00 -1.330723e+01 -6.182272e+00 6.081874e-01 -3.963890e-01 -1.149839e+00 -1.268586e+00 7.279357e-01 3.477222e-01 -1.389051e+00 1.957305e+00 1.145343e+00 4.296456e+00 -6.745188e-01 5.460567e-02 -1.688887e-01 -2.665192e-02 
1.839161e-02 2.882087e-01 8.356251e+00 -8.408283e+00 -1.808070e+01 -5.009816e+00 -5.428037e+00 -1.023145e+01 -9.509009e+00 3.664577e-01 -9.746747e+00 -6.929436e+00 5.610825e-01 -1.465394e-01 -1.601584e+00 -2.066914e+00 2.780267e-01 1.191624e+00 -9.143428e-01 2.810156e+00 3.300642e+00 5.290873e+00 2.204667e-01 1.515903e+00 1.491174e+00 -3.841689e-02 
-1.927768e+00 1.516437e+00 8.826519e+00 -7.680646e+00 -1.195734e+01 -5.889231e+00 1.196969e+00 -5.985181e+00 -7.272005e+00 -1.008959e+00 -5.914495e+00 -4.947051e+00 5.463868e-01 -4.059645e-01 -1.622564e+00 -1.047861e+00 9.058520e-01 3.187571e+00 1.203493e+00 3.796085e+00 3.448980e+00 2.800130e+00 1.175812e+00 3.121024e+00 2.334839e+00 -2.115198e-02 
-8.848448e-01 -1.450689e+00 4.743618e+00 -8.576046e+00 -1.250342e+01 -5.446068e+00 5.729312e+00 -5.038855e-01 -2.462770e+00 6.832152e+00 -1.200167e+00 1.022542e+00 4.877599e-01 -2.144747e-01 -1.581451e+00 -4.289760e-01 1.032500e+00 3.070104e+00 2.079057e+00 4.454259e+00 3.380139e+00 1.652552e+00 1.431654e+00 2.831919e-01 2.210632e+00 -1.499451e-02 
-1.885827e+00 -3.211398e+00 8.044141e+00 -5.040340e+00 -6.617877e+00 -7.389677e-01 1.021140e+01 6.277343e-01 -4.291117e+00 5.905617e+00 -1.975401e+00 1.515936e+00 5.390887e-01 3.725227e-01 -1.833326e+00 -3.218101e-01 1.317772e+00 1.673921e+00 2.436182e+00 3.993200e+00 3.430487e+00 1.924979e+00 1.703793e+00 -2.005964e+00 3.170151e-01 -4.762185e-03 
-1.074952e+00 -5.255127e+00 6.602561e+00 -4.565936e+00 -5.399914e+00 2.810337e+00 1.233605e+01 3.362792e+00 -2.736694e+00 4.067440e+00 -1.030033e+01 8.922319e-01 4.897590e-01 4.525099e-02 -1.594239e+00 -4.828370e-01 1.672863e+00 1.999085e+00 6.793179e-01 2.106439e+00 2.283163e+00 -1.478432e-01 -1.445330e-01 -2.349267e+00 -6.512005e-01 -1.440935e-02 
2.989960e-02 -5.747973e+00 6.287998e+00 -3.096843e+00 -7.139485e+00 2.163477e+00 1.785960e+01 9.233914e+00 2.489853e+00 8.892365e+00 -1.139423e+01 -3.296821e+00 5.215764e-01 -1.577640e-01 -1.272485e+00 -1.549018e+00 6.559388e-01 1.874841e+00 -4.515888e-01 1.219765e+00 1.629514e+00 -6.295091e-01 -1.114934e+00 -4.480094e-01 4.994627e-01 -3.537376e-02 
-1.616453e+00 -8.153598e+00 3.207505e+00 -1.183477e+00 -2.247188e+00 -3.500700e+00 1.243740e+01 6.608839e+00 -6.592471e+00 4.616114e+00 -8.237084e+00 1.729174e-01 4.244694e-01 -1.746639e-01 -8.660040e-01 -1.587065e+00 7.537827e-01 2.615742e+00 -4.553681e-01 6.282539e-01 4.562352e-01 -1.112138e+00 -1.269938e+00 1.502863e+00 7.306717e-01 -3.847321e-02 
-2.403896e+00 -8.124587e+00 1.996577e+00 -3.451875e+00 1.179964e+00 1.586071e-01 1.625954e+01 7.152284e+00 -5.510774e+00 5.661106e-02 -5.247073e+00 4.372907e+00 3.948647e-01 2.024604e-01 -9.470426e-01 -2.187863e+00 2.191589e-01 2.434971e+00 2.963805e-01 1.557901e-01 -2.295641e-01 -4.208543e-01 -1.863116e+00 1.512063e+00 1.572948e+00 -4.540980e-02 
-7.313738e-01 -8.396840e+00 8.129472e-01 -6.195058e-01 3.519074e+00 1.535931e+00 1.627735e+01 6.684783e+00 -4.297069e+00 2.135628e+00 -5.859597e+00 7.107267e-01 3.607488e-01 6.446471e-01 -4.267282e-01 -2.004093e+00 3.295551e-01 1.751547e+00 1.945557e+00 1.295239e+00 -6.251969e-01 7.871917e-01 -2.424532e+00 -7.543580e-01 -8.550060e-02 -4.060135e-02 
5.996618e-01 -1.036157e+01 -3.454040e+00 -2.283034e+00 2.152237e+00 1.127064e+00 1.671858e+01 8.048121e+00 -7.621202e-01 8.170278e-01 -5.022659e+00 4.299016e+00 3.263877e-01 9.178640e-01 5.642055e-01 -1.588457e+00 8.021551e-01 7.112145e-01 1.049150e+00 9.973475e-01 -4.293069e-01 1.777810e+00 -1.773082e+00 -1.718935e+00 -1.304139e+00 -5.805900e-02 
1.050034e-01 -9.168750e+00 -4.087649e+00 -1.201218e-01 6.024410e+00 5.742858e+00 1.868408e+01 3.034935e+00 -5.030839e+00 -7.886753e+00 -1.212108e+01 -2.176404e-01 2.557011e-01 7.442168e-01 2.198457e+00 -1.316980e+00 -7.482944e-02 -6.475228e-01 3.416054e-01 -7.337512e-01 -2.557460e-01 2.446772e+00 -1.757547e+00 -9.532061e-01 -9.225092e-01 -7.822422e-02 
1.767235e+00 -4.917604e+00 -3.495412e+00 3.092086e-01 3.483369e+00 3.300895e+00 2.004292e+01 6.830674e+00 3.745162e+00 -3.797610e+00 -1.071101e+01 -1.683603e+00 1.570936e-01 5.684355e-01 3.343253e+00 -5.361026e-01 5.960909e-01 1.388890e-01 3.166406e-01 -2.153594e+00 2.207010e-01 2.667695e+00 -2.288990e-01 7.888964e-01 -8.465052e-02 -8.282077e-02 
2.405924e+00 -1.265359e-01 -5.751266e+00 -2.289774e+00 -3.841057e-01 2.157042e+00 1.094642e+01 6.014778e+00 5.683151e+00 -4.344788e+00 -7.781454e+00 -9.105096e-01 5.427474e-02 4.634688e-01 3.358413e+00 -3.434585e-01 1.346075e-01 -2.743770e-01 -5.524369e-01 -1.897361e+00 1.871255e+00 3.601387e+00 1.691165e+00 2.474368e+00 1.365517e+00 -6.794706e-02 
2.291379e+00 1.833590e+00 -5.302744e+00 1.782246e+00 6.050940e+00 4.503175e+00 9.819435e+00 7.661705e+00 7.219359e+00 -2.098450e+00 -3.247990e+00 4.222198e+00 1.299703e-02 -4.236810e-01 2.601179e+00 -3.250372e-01 -3.092391e-01 3.890628e-01 3.919849e-01 6.096386e-01 1.187949e+00 1.936724e-01 -4.973199e-01 6.357793e-01 2.275542e+00 -4.508736e-02 
2.160275e+00 4.247715e+00 -4.901275e+00 -1.836030e-01 3.368740e+00 2.379534e+00 1.430901e+01 1.197569e+01 1.123900e+01 -2.805066e-01 -3.480750e+00 3.657043e+00 -1.198590e-02 -1.810209e+00 2.421019e+00 1.987199e-01 3.453237e-01 1.711317e+00 1.260026e+00 1.917138e+00 1.340862e+00 6.467527e-01 -3.952652e-01 6.463526e-01 8.963631e-01 3.036237e-03 
-2.283459e-01 5.901167e+00 -5.545593e+00 -2.290072e+00 3.552260e+00 5.149574e+00 2.140981e+01 9.789962e+00 1.935600e+00 -8.316351e+00 -9.682462e+00 7.410331e+00 -3.521287e-02 -1.863838e+00 1.325712e+00 2.544605e-01 -2.521314e-01 4.182453e-01 2.259598e-02 -3.281421e-01 -9.517078e-01 2.633705e-02 1.572621e-01 2.066073e-01 -5.746480e-01 -7.324475e-03 
-5.385260e+00 9.944772e+00 -4.636242e+00 1.473003e+00 9.421818e+00 8.133971e+00 1.473693e+01 1.165496e+01 1.155879e+01 -3.212163e+00 -1.332455e+00 1.977240e+00 9.356087e-02 -1.103565e+00 5.061026e-01 3.592722e-01 4.216530e-01 1.870938e+00 -1.740085e-01 -2.198169e+00 -2.343335e+00 -7.747095e-01 6.333005e-01 1.415708e-01 -4.781470e-01 -2.265799e-02 
-3.255044e+00 5.613623e+00 -4.162959e+00 -3.067137e-01 5.115627e+00 1.738936e+00 7.964768e+00 3.063533e+00 7.191146e+00 1.536891e-01 -3.289101e+00 2.188860e+00 -7.639873e-02 -3.761534e-01 3.245187e-02 1.023828e+00 8.521193e-01 1.063394e+00 -9.372295e-01 -2.436759e+00 -1.600417e+00 1.283573e+00 2.564009e+00 9.615673e-01 -4.335563e-01 -3.276424e-02 
-1.844198e+00 6.922000e+00 -3.796231e+00 9.329827e-01 1.194175e+01 3.214810e+00 1.004069e+01 3.622234e+00 4.737678e+00 -1.349024e+00 -5.969577e+00 3.877043e+00 -1.046829e-01 7.607803e-02 -7.038029e-02 9.277689e-01 8.835964e-01 2.988083e-01 -6.588582e-01 -1.441324e+00 -2.187569e+00 -7.840934e-01 2.579652e-01 -3.316785e-01 3.726373e-01 -3.504527e-02 
-3.879643e+00 7.574812e+00 -8.464577e-01 2.240534e+00 7.609267e+00 2.923007e+00 1.157413e+01 5.804238e+00 1.176402e+01 3.572125e+00 -2.556064e+00 4.292648e+00 -9.991217e-02 -9.630588e-01 9.185060e-01 3.766324e-01 2.791538e-01 -4.898888e-01 7.635264e-01 -2.606138e+00 -1.910561e+00 -3.730359e-01 -1.297283e+00 9.851314e-01 -3.083272e-01 2.359525e-02 
-4.692570e+00 8.612276e+00 -1.655648e+00 4.617361e+00 9.669039e+00 4.247645e+00 5.725621e+00 -6.532401e-01 5.351888e+00 -3.631555e+00 -3.357366e+00 2.788532e+00 -6.990874e-02 -1.263350e+00 -1.955892e-01 1.388314e-01 -3.178127e-01 -1.400195e+00 -7.350210e-01 -3.292400e+00 -2.346772e+00 -5.155789e-01 5.365220e-01 2.317670e+00 -4.499456e-01 1.374686e-02 
-6.646152e+00 9.361015e+00 -3.350088e+00 -7.531339e-01 3.802536e+00 5.040151e+00 -2.908385e+00 -4.351533e+00 5.018862e+00 -5.191462e+00 3.304508e-01 1.191479e+00 2.419043e-02 -6.306146e-01 -3.355030e-01 2.353242e-01 4.603733e-01 9.316846e-01 -9.531574e-02 -1.365481e+00 -2.031861e+00 -1.736451e+00 1.478466e+00 1.834925e+00 5.620643e-01 4.626274e-04 
-6.777695e+00 5.050952e+00 -1.850259e+00 8.407530e-01 6.844134e+00 -1.518867e+00 8.199487e-01 -3.033741e+00 5.532365e+00 5.715380e+00 4.175518e+00 3.177899e+00 -9.799993e-02 -1.653793e-01 -1.721374e-01 -1.079996e-01 6.553934e-01 7.706946e-01 -7.608678e-01 1.080580e+00 5.257456e-01 7.899836e-01 2.839738e+00 3.904086e-01 4.513687e-01 -6.696427e-03 
-5.990154e+00 7.677958e+00 4.274690e-01 6.430705e+00 1.368014e+01 5.329684e+00 7.199565e+00 -3.164815e+00 2.991530e+00 6.290987e+00 2.852118e+00 6.908286e+00 -8.355343e-02 3.054783e-01 -4.505582e-01 -4.635723e-01 1.864403e+00 1.175122e+00 -1.329841e+00 2.332865e+00 2.955216e+00 7.916028e-01 5.409343e-01 -5.791700e-01 8.711538e-01 -6.835246e-03 
-5.847466e+00 8.593117e+00 -4.084424e+00 4.302409e+00 8.583709e+00 2.985394e-01 6.074547e+00 1.382129e+00 1.031547e+01 4.825913e+00 -2.666157e+00 2.186973e+00 -4.951894e-02 2.259077e-01 -6.792567e-01 -9.215428e-01 -1.458372e-01 -2.058849e-01 -7.964469e-01 5.492250e-01 2.266751e+00 1.579414e+00 -1.236575e+00 -7.885238e-01 1.672834e+00 4.739070e-03 
-5.583876e+00 5.337142e+00 -4.550867e+00 6.838051e+00 8.808361e+00 -2.517756e+00 6.128643e+00 8.216610e+00 6.585322e+00 -2.042058e+00 8.554380e-01 6.042711e+00 -3.422630e-02 2.829819e-02 -1.270062e+00 -1.007274e+00 -1.672645e+00 -1.307898e+00 -1.561523e+00 -1.302698e+00 -2.834343e-01 4.352458e-01 -1.282308e+00 4.583479e-01 1.126870e+00 -4.942918e-03 
-5.851295e+00 2.825078e+00 -3.968805e+00 -9.210610e-02 8.250601e+00 -1.577381e+00 4.101534e+00 2.609301e+00 1.163254e+01 3.699025e+00 1.231239e+00 1.197486e+01 -9.896815e-02 -1.007299e+00 -1.315898e+00 8.078068e-01 -1.042618e-01 -1.039260e-01 -7.623460e-01 -6.814467e-01 -2.116261e+00 -2.194938e+00 2.752554e-02 1.166217e+00 1.852287e+00 2.164565e-02 
-5.846748e+00 4.211670e+00 -4.666713e+00 2.647367e-01 7.307205e+00 -1.539969e+00 1.672582e+00 -5.195573e+00 4.509226e+00 4.428928e-01 3.195160e+00 7.648695e+00 -8.354342e-02 -6.870028e-01 -2.299079e-01 5.623061e-01 -2.461020e-01 6.835711e-03 7.411093e-01 4.424830e-01 -1.813237e+00 -5.116354e-01 2.102477e+00 1.504662e+00 2.040075e+00 1.392526e-02 
-1.075252e+01 2.576361e+00 1.253247e-02 7.067757e+00 8.814656e+00 -4.002084e+00 4.895345e+00 -2.493085e+00 3.788290e-01 3.721066e+00 1.995067e+00 1.064541e+01 8.336788e-02 -7.973480e-02 6.571329e-01 4.307465e-01 9.312707e-01 6.492800e-01 1.534740e+00 8.776487e-01 5.486523e-01 5.389858e-01 1.350476e+00 3.882137e-01 -6.912274e-01 8.576214e-03 
-6.568275e+00 4.311960e+00 -3.730005e+00 2.027609e+00 8.560512e+00 2.400142e+00 7.944153e+00 1.701616e+00 9.653999e+00 8.459305e+00 7.996836e+00 1.690781e+01 -5.576801e-02 3.659376e-01 4.456666e-01 7.905890e-01 5.814472e-01 9.016043e-01 2.110919e+00 1.489524e+00 2.521286e+00 2.105523e+00 7.219638e-01 4.138529e-01 -4.671920e-01 -1.794414e-02 
-5.889206e+00 6.060596e+00 -2.283427e+00 3.682811e+00 1.087035e+01 4.126264e+00 5.353992e+00 1.903968e+00 1.175508e+01 6.443199e+00 7.714696e-01 3.889162e+00 -6.997478e-02 1.014537e+00 7.463252e-01 4.949360e-01 -4.674048e-01 6.938378e-01 1.245258e+00 4.469498e-01 1.507289e-01 1.358709e+00 6.165266e-01 7.000579e-01 -1.546876e+00 -4.118400e-02 
-6.448719e+00 4.697885e+00 4.342119e-01 4.864446e+00 1.078738e+01 4.950455e+00 8.890879e+00 5.212329e+00 9.348713e+00 2.691645e+00 5.876224e+00 8.690861e+00 -9.659278e-02 -1.265635e-01 9.551769e-02 9.904477e-01 5.807296e-01 7.357494e-01 3.633800e-01 8.560904e-01 -8.776045e-01 -1.000722e+00 -1.420548e-01 5.048327e-01 -1.123890e+00 -9.735024e-03 
-5.739614e+00 6.115025e+00 4.051039e-01 3.312315e+00 1.117041e+01 9.490497e-01 6.656731e+00 -3.494797e+00 7.325018e+00 9.687529e+00 6.555663e+00 7.019506e+00 -1.021397e-01 -2.996637e-01 -2.746622e-01 -6.674508e-01 -3.807058e-02 -5.218530e-03 -2.261617e-01 -4.376817e-01 -2.218158e+00 -2.211509e+00 -7.908993e-01 7.009688e-01 1.992853e+00 -3.844452e-03 
-7.275888e+00 4.762335e+00 -1.220322e-01 5.116505e+00 1.208923e+01 5.805649e+00 1.157324e+01 1.297653e-02 6.865418e+00 6.126865e+00 7.628902e+00 9.723186e+00 -8.836067e-02 -2.284767e-01 -1.545613e-01 -1.730120e+00 -2.941920e-01 -2.165179e-01 -3.146383e-01 -1.896527e+00 -2.669130e+00 -2.020490e+00 -1.275754e+00 -8.108189e-01 1.561056e+00 1.538599e-03 
-6.973940e+00 4.655060e+00 -5.342559e+00 3.366429e+00 1.019333e+01 2.567859e+00 1.824405e+00 -6.587147e+00 1.939182e+00 7.710929e-01 3.399974e+00 1.333726e+01 -9.331310e-02 -2.166702e-01 -3.027202e-01 -1.671585e+00 -1.641849e-01 -3.850054e-01 -1.723766e-05 -1.941348e+00 -1.278482e+00 -1.569791e+00 -2.318864e+00 -1.054031e+00 1.624959e+00 1.270080e-03 
