-8.148142e+00 4.854262e+00 2.339811e+00 -2.369585e-01 6.631703e-01 -6.207628e+00 -7.807493e-02 7.713032e-01 8.850496e+00 3.831512e+00 5.362309e+00 8.624253e+00 -9.113240e-02 -1.821466e-01 -2.953629e-01 -1.004677e+00 2.125411e-01 1.652938e+00 2.369485e+00 8.550159e-01 3.914195e-01 -8.624565e-01 -2.926459e-02 -1.249263e+00 -5.655314e-01 8.242655e-03 
-9.661892e+00 4.540470e+00 6.498942e-01 -2.769001e-01 6.514262e+00 4.214826e+00 1.208445e+00 1.249444e+00 7.109811e+00 2.339600e+00 -3.500267e-01 5.613783e+00 -7.547688e-02 -8.457279e-02 -1.985599e-01 -8.686412e-01 2.312103e-01 1.048006e+00 1.775541e+00 6.149706e-01 -6.548151e-01 -1.202823e+00 1.699720e-01 -1.344900e+00 -4.557332e-01 5.218053e-03 
-8.302000e+00 3.534343e+00 -1.838616e+00 8.457178e-01 6.002312e+00 4.285678e-01 3.553745e+00 2.489331e+00 5.408556e+00 4.431145e+00 1.972163e+00 7.301831e+00 -5.774689e-02 -5.886278e-02 -1.542964e-01 -6.708552e-01 -3.421700e-01 -4.086173e-01 -6.337045e-01 -3.546998e-01 -7.608369e-01 -9.662668e-01 7.812082e-01 -2.518106e-01 1.936805e-01 6.363559e-03 
-8.494078e+00 4.521422e+00 8.581913e-02 3.777548e-01 3.233631e+00 -6.480225e-01 1.180868e+00 -3.361786e+00 4.557353e+00 4.381555e+00 3.328804e-01 7.006798e+00 -8.173490e-02 1.719790e-01 -4.483106e-02 3.412895e-01 -3.346684e-01 -1.392746e+00 -3.138539e+00 -1.826215e+00 -1.012488e+00 -6.879059e-01 1.785586e+00 1.329715e+00 5.121650e-01 -6.089032e-03 
-9.026363e+00 4.092304e+00 -7.324270e-01 -2.275136e+00 2.603993e-01 -6.944726e+00 -1.837785e+00 -7.272666e-01 5.295392e+00 6.716575e+00 3.761802e+00 8.896148e+00 -5.618560e-02 1.207227e-01 9.129915e-02 7.430150e-01 -5.944101e-01 -1.408493e+00 -2.028207e+00 -6.647208e-01 -7.742058e-01 -7.193077e-01 6.892330e-01 -1.002864e+00 -1.449463e+00 -9.563553e-03 
-8.439816e+00 4.037334e+00 1.803247e+00 -3.898152e-01 2.421488e+00 -7.791220e+00 -5.226865e+00 -2.204698e+00 3.726864e+00 1.012481e+01 5.403730e+00 7.377449e+00 -1.067027e-01 1.044052e-01 -7.514586e-02 4.779058e-01 4.125721e-01 -2.716207e-01 -9.958786e-01 3.709783e-01 2.083136e-01 -8.725160e-01 -1.203336e+00 -2.505279e+00 -2.090580e+00 -5.526436e-03 
-7.725518e+00 4.232882e+00 1.017745e+00 -1.742548e+00 -6.340804e-01 -6.140871e+00 3.434008e+00 -1.960243e+00 2.227262e+00 5.005681e+00 -5.577580e+00 -1.308098e-01 -9.308076e-02 9.637155e-02 9.984817e-02 2.613599e-01 5.441599e-01 6.216846e-01 9.869884e-01 1.595414e+00 6.236750e-01 -9.753358e-01 -2.717589e+00 -2.616324e+00 -1.229177e+00 -3.993690e-03 
-8.622475e+00 4.075403e+00 1.600262e+00 2.174322e+00 2.322767e+00 -6.029344e+00 3.998632e-01 -1.703730e+00 1.728837e+00 -7.796777e-01 -7.523822e+00 1.067376e+00 -9.091949e-02 -4.295540e-02 1.549236e-01 -3.268197e-01 -3.620123e-01 2.624090e-01 7.879291e-01 1.432458e+00 1.798539e-01 -5.117745e-01 -2.985217e+00 -1.406307e+00 4.370851e-02 2.363324e-03 
-8.453176e+00 4.572510e+00 6.758649e-01 -8.364047e-01 3.418182e+00 -2.890722e+00 3.325922e+00 2.140625e+00 1.417727e+00 -1.419124e+00 -2.856044e+00 5.905298e+00 -8.404565e-02 -3.192181e-01 -4.244653e-01 -6.774301e-01 -7.335254e-01 5.315359e-01 6.139408e-01 2.514225e-01 7.897019e-01 1.021896e+00 -1.467052e-01 1.586152e+00 1.884447e+00 1.131296e-03 
-8.290764e+00 4.642138e+00 3.400880e-01 -2.652948e+00 1.707402e+00 -5.476648e+00 1.989468e+00 -3.355862e+00 1.572759e+00 -1.588869e+00 -2.988571e+00 4.577938e+00 -9.940362e-02 -1.462574e-02 -2.401083e-01 -4.105344e-02 -1.672016e+00 -1.490152e+00 -2.981365e-02 1.514369e+00 -1.234816e-01 1.896622e-01 1.402627e+00 2.223746e+00 1.587996e+00 2.984059e-03 
-9.487463e+00 1.827188e+00 -1.739319e+00 -2.996540e+00 2.331282e+00 -3.347514e+00 3.896318e+00 2.814333e+00 7.414783e+00 4.676750e+00 8.555424e-02 7.536144e+00 -8.318222e-02 5.725062e-01 5.153422e-02 1.949878e-02 -5.478564e-01 -8.870848e-01 -2.325206e-01 -4.278569e-01 -1.499120e+00 -2.250091e-01 1.688730e+00 9.343511e-01 1.517945e-01 4.591405e-03 
-8.178459e+00 4.247523e+00 2.602587e+00 -5.105689e+00 -4.584540e+00 -5.950016e+00 7.686511e+00 -2.657992e+00 -3.213806e-01 3.185520e+00 2.124108e+00 8.191934e+00 -7.643092e-02 9.885294e-01 2.317574e-02 -1.139339e-01 -1.327205e-01 -7.186815e-01 -8.638113e-01 -2.244724e+00 -8.006679e-01 -1.167136e+00 4.760869e-01 -6.945987e-01 -7.615056e-01 7.339907e-03 
-5.646798e+00 5.027489e+00 -3.578905e-01 -2.349316e+00 2.128729e+00 -3.816642e+00 -1.661884e+00 -5.703913e+00 1.239751e+00 4.637332e+00 -7.406272e-01 4.857273e+00 -7.257497e-02 1.054336e+00 3.778496e-01 -2.483832e-01 3.229230e-01 -3.518299e-01 -6.184281e-01 -3.207002e+00 -1.474815e+00 -1.368440e+00 -7.386369e-01 -1.302840e+00 -1.730192e+00 6.447256e-03 
-5.268449e+00 3.157867e+00 -9.202955e-01 -3.640163e+00 -1.784729e+00 -9.561141e+00 -6.455049e+00 -3.100078e+00 -1.175404e+00 8.112749e-01 -6.048473e+00 2.109846e+00 -6.800771e-02 8.080029e-01 -2.144814e-02 -4.790360e-01 9.702678e-01 5.945346e-01 1.856766e-02 -2.971938e+00 -1.121965e+00 1.918883e-01 -7.404982e-01 -5.222253e-01 -3.995344e-01 6.580639e-03 
-5.670787e+00 4.261264e+00 -1.219794e+00 -2.114688e+00 -8.277731e-01 -4.634092e+00 -5.067914e+00 -4.338699e+00 9.995964e-01 2.170688e+00 -2.342355e+00 1.926228e+00 -5.515754e-02 1.328841e-01 -2.904845e-01 -2.304181e-01 5.436899e-01 4.297395e-02 -2.960865e-01 -5.556456e-01 -3.634200e-01 -8.489951e-01 -1.169163e-01 1.300662e+00 2.582065e-01 2.931535e-03 
-4.126450e+00 4.523395e+00 6.383581e-01 -3.716644e-01 -1.336155e-01 -5.448452e+00 -5.470164e+00 -8.950423e+00 7.581382e-01 7.163513e-01 3.138453e-01 7.659784e+00 -5.223644e-02 2.384846e-01 -5.456794e-01 -7.899997e-01 5.985343e-01 9.979975e-01 3.345715e-01 7.871578e-01 6.093677e-01 1.576142e-01 1.511071e+00 1.612795e+00 -1.801857e-01 -3.273487e-03 
-5.553377e+00 2.892303e+00 -2.289308e+00 -1.265116e+00 1.518042e+00 -7.353418e+00 -4.932555e+00 -4.595840e+00 -3.971996e+00 4.100213e+00 2.581525e+00 3.373336e+00 -6.580293e-02 -7.478333e-03 -1.292524e+00 -1.333658e+00 -4.690132e-01 -8.536448e-02 -1.215457e+00 -4.472698e-01 1.858117e+00 5.796390e-01 9.217114e-01 8.037474e-01 4.789894e-01 -3.659689e-03 
-4.134732e+00 1.113950e+00 -4.335537e+00 -1.072278e+00 2.032350e+00 -6.528620e+00 -2.586939e+00 7.533121e-02 2.098463e+00 7.401867e+00 -4.464374e-01 4.853630e-01 -7.905245e-02 -1.838070e-01 -1.137670e+00 -1.507597e+00 -5.763887e-01 -3.593747e-01 -7.989426e-01 5.336830e-01 2.039735e+00 4.904719e-01 -3.610342e-02 -4.393334e-02 1.366144e+00 3.214884e-03 
-5.704038e+00 -4.966344e-01 -5.401135e+00 -4.109447e+00 -2.337578e+00 -1.017129e+01 -8.745874e+00 4.390087e-01 3.227629e+00 3.436488e+00 2.056523e+00 7.908385e+00 -6.004798e-02 -1.471049e+00 6.062988e-01 -1.938554e+00 6.966109e-01 -1.018456e+00 5.400827e-01 1.618166e+00 1.438543e+00 9.249588e-01 -1.769914e+00 -4.289819e-02 2.618300e+00 8.090933e-02 
-4.970154e+00 5.295119e-01 -5.343711e+00 -1.831442e+00 -2.678871e-03 -8.034227e+00 -8.950887e-01 -1.269175e+00 -3.893147e-01 8.676968e-01 3.566793e-01 1.222298e+01 -3.903949e-02 -3.563789e+00 2.333518e+00 -1.511932e+00 1.285387e+00 -8.468924e-01 1.495502e+00 1.494498e+00 3.171423e-01 3.884404e-01 -1.473686e+00 1.347996e-01 1.537009e+00 1.699061e-01 
-1.249091e+01 6.216016e+00 -1.147799e+01 2.597521e+00 -2.556725e+00 -3.900201e+00 2.312352e+00 3.269129e+00 1.896687e+00 -1.482274e+00 1.965476e+00 1.059603e+01 3.187372e-01 -1.981767e+00 1.440840e+00 -1.318464e+00 2.360815e+00 3.218094e-01 1.691703e+00 2.343244e+00 9.934019e-01 6.957678e-01 5.585646e-01 -8.328937e-01 -1.872340e+00 1.078189e-01 
-1.856024e+01 9.425216e+00 -8.856772e+00 2.001172e+00 -2.092538e+00 -2.186654e+00 -6.435628e-01 2.459824e-01 4.706136e+00 2.492821e+00 2.730843e-01 6.826584e+00 5.810857e-01 -1.096659e+00 -2.561272e-01 1.212323e+00 9.886566e-01 -1.575749e+00 2.005356e+00 1.149586e-01 -1.643687e+00 8.812845e-01 7.784357e-02 1.443963e-01 -3.234123e+00 4.565097e-02 
-8.817829e+00 2.259714e+00 -1.023692e+01 5.778322e+00 3.163986e-01 -4.636564e+00 2.844581e+00 4.648440e+00 4.158743e+00 5.416749e+00 -2.066147e+00 1.244882e+00 1.689840e-01 1.590553e-01 -3.565391e+00 5.578464e+00 -8.184122e-01 -1.419951e+00 2.052739e+00 3.135344e-01 -3.524273e+00 -3.337409e-02 2.010990e-01 7.887748e-01 -1.805263e+00 -2.720373e-02 
-1.228999e+01 1.227027e+00 9.737116e-02 1.521440e+00 -9.317986e+00 2.360733e+00 -5.864100e-01 -1.017726e+01 2.886080e+00 -2.192597e+00 3.094472e+00 7.279365e-01 2.640920e-01 2.064362e+00 -3.524507e+00 4.575178e+00 -7.355198e-01 -8.697786e-01 1.057744e-01 -5.081248e-02 -2.052657e+00 -4.779904e-01 -1.526388e-01 1.176573e+00 -5.101897e-01 -9.336339e-02 
-1.483076e+01 -7.511844e+00 1.193726e+01 -1.254675e+00 -6.043756e+00 4.089800e+00 3.851448e+00 -9.140611e+00 2.639844e+00 1.865929e+00 4.498656e+00 4.619038e+00 3.412154e-01 1.653805e+00 -1.204911e+00 1.279057e+00 -1.217629e+00 7.462864e-02 -1.269244e+00 -3.557234e-01 -4.308007e-01 -1.384521e+00 -3.606657e-01 4.092929e-01 1.690357e+00 -6.960250e-02 
-5.231966e+00 -3.311540e+00 2.932024e+00 1.840071e+00 -3.261354e+00 -6.020965e+00 -1.401059e+00 -3.122778e+00 3.075633e+00 3.505036e+00 2.873545e+00 2.588558e+00 2.815300e-02 2.792358e+00 7.223443e-01 -2.523399e+00 -4.886503e-01 2.660846e+00 -2.543326e+00 -1.116758e-01 3.654321e+00 7.344449e-01 1.229863e+00 -8.850033e-01 1.352555e+00 -1.099128e-01 
-4.077817e+00 -1.495556e+00 -5.258967e+00 -4.691408e-01 -2.338774e+00 -6.791935e+00 1.473288e+00 -1.032807e+00 -2.858637e+00 7.646036e-01 9.078133e-02 8.766357e+00 -6.105900e-02 1.749135e+00 2.361779e+00 -3.642040e+00 -1.781884e-01 2.285641e+00 -2.022551e+00 -1.864905e+00 2.189589e+00 7.171397e-01 -7.546356e-01 -5.305818e-01 8.293274e-01 -9.469052e-02 
-3.704671e+00 1.830605e+00 -3.921508e+00 -1.314578e+00 2.133750e+00 -4.915031e+00 4.429054e-02 4.040439e+00 9.307545e+00 4.507381e+00 8.733937e-01 5.417053e+00 -8.433497e-02 -9.666194e-01 1.519565e+00 -1.052554e+00 -1.255307e+00 1.513906e+00 3.871810e-01 5.543852e-02 -8.993511e-02 3.524108e-01 -1.069176e+00 -5.898699e-01 4.587930e-01 -2.166452e-02 
-6.848732e+00 1.725977e+00 -2.846177e+00 -5.682920e-01 2.686896e+00 -6.575922e+00 -6.195753e+00 -1.774276e+00 3.109587e+00 -2.408422e+00 2.845823e+00 7.351427e+00 -7.599318e-02 -1.343163e+00 1.453138e+00 1.243101e+00 2.814588e-01 2.068662e+00 1.957002e+00 1.631900e+00 -9.012896e-01 1.030288e-02 -9.227624e-01 -6.856775e-01 -5.493942e-01 1.356757e-02 
-8.679605e+00 2.675517e+00 -3.537139e+00 -4.386888e+00 1.795339e+00 -4.193067e+00 2.710654e+00 -3.201719e+00 1.853575e+00 -2.543297e-01 -1.453325e+00 5.589988e+00 -7.270253e-02 -1.135845e+00 6.471003e-01 1.064844e+00 2.951905e-01 7.316584e-01 2.728939e+00 3.517828e+00 3.034639e-02 -7.971733e-01 -2.202076e-01 1.073495e-01 5.057980e-01 5.701947e-03 
-8.306168e+00 5.347679e+00 7.643517e-01 2.474308e+00 8.173741e+00 2.632092e+00 8.299606e+00 -1.918176e+00 9.198620e-01 -1.468353e+00 -2.174247e+00 5.932919e+00 9.626150e-04 -3.101028e-01 8.209215e-01 2.909029e-01 2.335161e-01 4.961007e-01 2.985486e+00 3.599912e+00 1.995066e+00 8.727988e-01 2.730553e+00 3.597797e-01 2.588250e-01 7.629335e-03 
-8.655180e+00 3.255256e+00 -4.025519e-01 -1.359926e+00 3.048619e+00 4.125656e+00 1.038575e+01 4.264121e+00 6.416541e+00 2.936309e+00 3.920176e+00 8.655297e+00 -9.430313e-02 1.721718e+00 3.898741e-01 -1.247401e+00 -1.180967e+00 -8.670506e-01 1.868730e+00 1.166522e+00 1.302574e+00 -6.611314e-02 2.375909e+00 1.376575e+00 -1.650369e-01 7.996976e-03 
-8.411459e+00 5.540716e+00 -2.958956e+00 -9.141923e-01 4.540759e+00 4.192148e+00 7.966260e+00 4.468137e+00 5.192098e+00 9.649024e+00 1.957971e+00 7.112898e+00 -2.704620e-02 3.131464e+00 -3.643534e-01 -2.306826e+00 -2.805591e+00 -2.020223e+00 -9.243543e-02 9.350842e-01 -7.010605e-01 -8.444855e-01 1.702837e+00 1.724177e+00 -9.930520e-01 2.095411e-02 
-1.837063e-02 4.528369e+00 -7.912491e+00 -8.597472e+00 -7.234235e-01 4.370555e+00 8.709938e+00 1.179967e-01 -6.131086e-01 6.066527e+00 3.363439e+00 4.174814e+00 -1.871324e-02 2.261915e+00 -2.653036e-01 -2.584323e-01 -4.294682e-01 -1.795935e+00 -9.270895e-01 1.197312e+00 -2.681612e+00 -4.956024e+00 -1.367527e+00 2.180534e-01 -1.658246e+00 2.699984e-02 
3.032744e+00 2.889355e+00 -7.014807e+00 -7.934873e+00 -4.135227e-02 2.047465e+00 1.381293e+01 -3.350416e+00 2.122598e-01 5.480723e+00 6.725008e+00 3.207901e+00 6.793821e-02 8.263708e-01 2.379620e-01 2.366421e+00 1.915787e+00 -8.681971e-01 -1.591572e+00 3.244848e-01 -2.711140e+00 -4.447125e+00 -4.073617e+00 -1.758344e+00 -3.454980e+00 1.214901e-02 
-3.067705e+00 3.254418e+00 3.332122e-01 3.073931e-03 -3.640001e+00 5.625500e-01 1.344897e+01 -5.234661e+00 -1.587366e+01 -1.817174e+00 2.626925e+00 2.316564e+00 -6.796122e-03 1.178480e+00 1.799089e+00 3.083282e+00 2.398334e+00 -3.362598e-01 -2.384275e+00 -1.186023e+00 -1.081589e+00 -3.474918e+00 -4.012298e+00 -2.968400e+00 -3.170390e+00 6.429421e-02 
-2.754938e+00 7.367501e+00 4.750297e+00 4.364471e+00 1.658063e+00 -1.861709e+00 7.219168e+00 -6.411236e+00 -9.413252e+00 -6.777213e+00 -6.465490e+00 -9.232880e+00 2.774030e-02 3.307023e+00 1.501594e+00 1.190888e+00 4.893943e-01 -1.868229e+00 -2.354541e+00 -1.710129e+00 -2.866439e-01 -3.440697e+00 -3.067324e+00 -1.904481e+00 -3.251647e+00 1.209774e-01 
8.767868e+00 1.128474e+01 1.621369e+00 -2.755475e+00 -3.254430e+00 -5.596232e+00 6.076704e+00 -3.759540e+00 -1.317494e+01 -7.865992e+00 -4.883309e+00 -5.456744e+00 3.228568e-01 4.760310e+00 4.578753e-01 -8.058567e-01 -9.966742e-01 -3.100939e+00 -2.368037e+00 -5.724922e-01 8.018551e-02 -1.162983e+00 -7.652128e-01 3.354008e-01 -1.705502e+00 1.649548e-01 
1.365007e+01 6.382162e+00 -1.704448e+00 -4.108626e+00 -9.575281e+00 -6.645847e+00 8.948423e+00 -5.521196e+00 -1.834058e+01 -6.831487e+00 9.577204e-01 -9.163679e+00 5.079987e-01 3.645518e+00 -5.384235e-01 -1.684630e+00 -1.862401e+00 -4.209659e+00 -1.083394e+00 -4.702369e-01 2.889444e-01 -1.369273e+00 8.518869e-01 2.889958e+00 2.724644e-01 1.528134e-01 
1.253134e+01 6.036464e+00 -4.686990e-01 -7.437486e-01 -1.352802e+01 -8.885564e+00 9.721882e+00 -5.278753e+00 -1.722491e+01 -5.616100e+00 5.923234e-01 -6.245545e+00 5.778486e-01 1.093828e+00 -1.453688e+00 -1.489782e+00 -1.796966e+00 -3.072406e+00 7.910637e-01 -2.186152e+00 9.867737e-01 1.881614e+00 4.342141e-02 1.205856e+00 4.940413e-01 1.015915e-01 
1.359092e+01 7.299523e+00 -2.627819e+00 -5.953397e+00 -1.425344e+01 -5.634016e+00 3.045394e+00 -4.206907e+00 -1.423463e+01 -3.642724e+00 5.246482e+00 -7.476157e+00 6.643114e-01 1.149381e-01 -1.218826e+00 -1.696891e+00 -3.205920e+00 -2.310834e+00 3.049773e+00 -3.383284e+00 2.730754e+00 3.461962e+00 -1.520128e+00 -6.469521e-01 1.160881e+00 7.868152e-02 
1.426659e+01 3.557623e+00 -5.365856e+00 -1.081792e+01 -1.627738e+01 -2.146829e+00 -1.902543e+00 5.171838e-01 -5.819846e+00 -9.243266e+00 -9.984083e-01 -3.830299e+00 7.526578e-01 -2.588701e-01 -1.947685e+00 -1.912520e+00 -3.834947e+00 -1.411091e+00 4.499762e+00 -3.943347e+00 2.975430e+00 3.280962e+00 -1.564552e+00 -9.937811e-01 3.401754e-01 5.992972e-02 
1.335714e+01 1.527450e+00 -7.740322e+00 -1.510114e+01 -1.975477e+01 5.233649e+00 -2.155786e+00 5.234604e+00 -6.733304e+00 -1.261854e+01 -1.481674e+00 -4.566895e+00 8.140017e-01 -8.869585e-01 -2.674274e+00 -1.338154e+00 -2.265047e+00 -3.865639e-01 4.763674e+00 -2.959783e+00 1.970046e+00 2.258144e+00 -4.167843e-02 -6.726815e-01 4.247781e-01 4.488244e-02 
1.135388e+01 -8.159247e-01 -7.475048e+00 -1.534461e+01 -1.783281e+01 8.179414e+00 -7.394266e+00 4.877638e+00 -4.570763e+00 -8.950949e+00 -1.012503e+00 -5.999299e+00 8.026521e-01 -9.538988e-01 -2.708217e+00 -3.054424e-01 -9.023398e-01 1.268411e+00 4.327069e+00 -1.877155e+00 5.022945e-01 7.461665e-01 3.173887e+00 6.677783e-01 2.983565e-02 3.594402e-02 
1.061248e+01 -3.885073e+00 -8.263993e+00 -1.501529e+01 -1.540854e+01 1.302123e+01 -9.007658e+00 3.463096e+00 -3.568454e+00 -3.997275e+00 1.890123e+00 -4.267767e+00 8.637264e-01 -6.439930e-01 -3.095345e+00 1.812564e-01 6.363125e-02 2.577285e+00 3.123698e+00 -1.215201e+00 -1.418118e+00 9.938788e-01 3.973514e+00 5.428846e-01 4.094968e-02 3.888199e-02 
1.086942e+01 -7.277199e+00 -6.631233e+00 -1.537255e+01 -1.210844e+01 1.559472e+01 -7.862381e+00 3.914410e+00 -3.671438e+00 2.315533e+00 6.545848e-01 -3.830685e+00 9.075155e-01 -5.771655e-01 -3.035633e+00 -7.230945e-02 6.267007e-01 2.309146e+00 2.545041e+00 -6.125025e-01 -2.333416e+00 7.452200e-01 2.222001e+00 3.838576e-01 -9.578524e-01 4.869494e-02 
1.037940e+01 -1.071864e+01 -7.255947e+00 -1.476902e+01 -9.730532e+00 1.714448e+01 -7.997733e+00 -1.374372e+00 -2.213572e+00 1.615784e+00 3.992046e-01 -5.446454e+00 9.559799e-01 -6.944661e-01 -2.271719e+00 3.330374e-02 1.153738e+00 1.899661e+00 1.377493e+00 -6.094661e-01 -2.729582e+00 1.626742e+00 -4.501210e-01 5.903780e-02 -1.841173e+00 2.944909e-02 
8.584589e+00 -1.257731e+01 -8.340618e+00 -1.233424e+01 -9.126089e+00 1.884299e+01 -1.096174e+01 -4.370705e+00 -1.522104e+00 -6.474720e-01 1.652244e+00 -1.019922e+01 1.000000e+00 -8.772203e-01 -1.332237e+00 -6.016579e-02 1.419911e+00 1.136594e+00 6.229620e-01 -9.171919e-01 -2.789812e+00 2.184618e+00 -2.199842e+00 -6.660549e-02 -2.054684e+00 7.553244e-03 
8.282565e+00 -1.259362e+01 -7.242782e+00 -1.076575e+01 -7.401410e+00 1.828456e+01 -1.050531e+01 -6.042256e+00 3.490591e+00 -4.766377e+00 1.686482e+00 -1.028937e+01 9.647297e-01 -7.989649e-01 -3.733810e-01 -1.788440e-01 1.763433e+00 5.572127e-01 2.745010e-01 -1.056374e+00 -1.658643e+00 2.250660e+00 -1.777445e+00 -4.270627e-01 -1.578786e+00 -6.287313e-03 
7.531739e+00 -1.300089e+01 -6.938644e+00 -1.027463e+01 -7.590032e+00 1.813949e+01 -1.119455e+01 -7.700706e+00 4.399572e+00 -5.492596e+00 -3.220814e-01 -1.168265e+01 9.409069e-01 -5.545939e-01 7.561779e-02 -2.455592e-01 1.774868e+00 1.042736e+00 -5.080481e-01 -9.395990e-01 -5.789445e-01 2.071897e+00 -2.867030e-01 -9.891817e-01 -3.688701e-01 -6.238299e-03 
6.911001e+00 -1.237375e+01 -8.851154e+00 -6.981658e+00 -7.712497e+00 1.886874e+01 -1.316320e+01 -8.002586e+00 6.078889e+00 -4.848878e+00 -7.489462e-01 -1.259867e+01 9.540899e-01 -5.490338e-01 1.274752e-01 -3.139413e-01 1.835031e+00 1.053705e+00 -1.143215e+00 -1.186221e+00 3.080339e-01 1.334325e+00 9.631630e-01 -1.190465e+00 -1.430677e-01 -8.229375e-04 
6.497401e+00 -1.230915e+01 -8.764228e+00 -5.351945e+00 -3.756863e+00 1.601066e+01 -1.433079e+01 -6.285262e+00 7.543230e+00 -2.039736e+00 -2.075951e+00 -1.088892e+01 9.741284e-01 -5.074232e-01 -3.416119e-02 4.363070e-02 1.659046e+00 1.200255e+00 -2.126876e+00 -1.056318e+00 8.827994e-01 1.126184e+00 1.291130e+00 -1.470303e+00 1.369604e-01 3.878057e-03 
6.054564e+00 -1.230211e+01 -7.899697e+00 -4.051934e+00 -4.049469e+00 1.363291e+01 -1.486829e+01 -5.209808e+00 8.590387e+00 -1.676992e+00 -3.388906e+00 -1.140157e+01 9.440042e-01 -4.033508e-01 -3.617232e-01 7.580987e-01 1.325506e+00 8.477123e-01 -2.858859e+00 -2.677065e-01 1.632743e+00 6.863102e-01 8.709944e-01 -1.640023e+00 4.481464e-01 -2.862823e-03 
5.422841e+00 -1.320752e+01 -7.196219e+00 -3.444260e+00 -3.420273e+00 1.012303e+01 -1.562359e+01 -4.683098e+00 8.774743e+00 -6.228913e-01 -6.353616e+00 -1.159639e+01 9.653400e-01 -3.453243e-01 -3.015491e-01 8.203272e-01 1.125047e+00 -2.836822e-01 -2.820498e+00 -7.809944e-02 2.834590e+00 -2.331257e-01 -2.671043e-01 -1.401379e+00 4.479065e-02 -4.681689e-03 
5.431527e+00 -1.373318e+01 -5.844665e+00 -1.307970e+00 -3.642231e+00 7.518263e+00 -1.385533e+01 -6.399558e-01 8.894684e+00 -1.202329e+00 -6.810231e+00 -1.000420e+01 9.441700e-01 -1.936400e-01 8.841038e-03 1.123345e+00 9.055427e-01 -6.350040e-01 -2.586713e+00 -6.089916e-02 4.060103e+00 -5.629787e-01 -1.094308e+00 -3.633699e-01 2.249282e-01 -1.468896e-02 
5.082298e+00 -1.310136e+01 -5.690108e+00 -1.098693e+00 -5.378893e+00 4.965494e+00 -1.522777e+01 5.602763e+00 6.225453e+00 -3.612589e+00 -7.372185e+00 -1.136365e+01 9.506370e-01 1.448387e-01 5.875675e-01 1.570131e+00 1.270348e+00 -1.746378e+00 -1.711263e+00 -1.076043e+00 5.164186e+00 -9.219922e-01 -1.669785e+00 9.965259e-01 4.638516e-01 -3.349878e-02 
5.256636e+00 -1.231099e+01 -3.036027e+00 -6.970041e-01 -6.245180e+00 3.278105e+00 -1.537070e+01 9.947780e+00 7.050139e+00 -5.653681e+00 -4.696471e+00 -1.039330e+01 8.779109e-01 6.276357e-01 1.240296e+00 2.728577e+00 1.585939e+00 -1.419169e+00 -2.486769e+00 -2.944220e-01 3.051253e+00 -1.758658e+00 -1.624717e+00 8.912697e-01 9.237062e-01 -6.247481e-02 
6.234480e+00 -1.098078e+01 -7.498823e-01 2.601995e+00 -1.085069e+01 3.686791e+00 -2.024612e+01 1.584397e+01 5.087054e+00 -6.746143e+00 -2.427866e+00 -9.082583e+00 8.309757e-01 1.081193e+00 1.595239e+00 3.714221e+00 1.361344e+00 -7.079655e-01 -3.215931e+00 2.100077e+00 -3.080240e-01 -3.236947e+00 -1.067557e+00 7.623095e-01 1.257875e+00 -7.459329e-02 
7.993615e+00 -8.591996e+00 5.328106e+00 4.771381e+00 -8.002180e+00 -4.276228e+00 -1.281826e+01 9.495704e+00 6.705904e-01 -7.759139e+00 -4.826043e+00 -6.526199e+00 6.916267e-01 1.260464e+00 1.489811e+00 3.735857e+00 5.297129e-01 -3.323174e-03 -3.424007e+00 3.848757e+00 -2.672515e+00 -3.601932e+00 -6.692755e-01 3.226947e-01 8.562614e-01 -6.136946e-02 
9.119774e+00 -6.984662e+00 8.698934e+00 2.973835e+00 -8.040220e+00 -7.336995e+00 -6.003604e+00 4.288682e+00 -6.769510e+00 -7.897646e+00 -3.495852e+00 -7.007829e+00 6.708127e-01 9.418718e-01 1.153185e+00 2.978097e+00 -5.904510e-01 8.941477e-01 -2.709787e+00 4.486010e+00 -3.812262e+00 -2.764876e+00 6.648769e-02 2.298268e-01 4.880503e-01 -4.289720e-02 
1.011631e+01 -6.859990e+00 1.091885e+01 1.765640e+00 -7.667030e+00 -8.330039e+00 -3.248175e+00 2.362845e+00 -5.031239e+00 -8.424306e+00 -2.549004e+00 -7.149372e+00 6.511451e-01 3.906798e-01 8.080543e-01 1.400516e+00 -8.127537e-01 4.802601e-01 -6.044846e-01 2.536898e+00 -2.596024e+00 -1.511716e+00 3.165368e-01 1.355682e+00 2.816661e-01 -1.795334e-02 
9.882492e+00 -6.080856e+00 1.134523e+01 1.152610e+00 -6.547526e+00 -7.835239e+00 -2.601120e+00 3.490872e-01 -5.886411e+00 -6.081120e+00 -2.417251e+00 -6.330746e+00 6.367304e-01 2.758097e-01 7.173712e-01 4.299030e-01 -2.761685e-01 1.102539e+00 1.944298e-01 8.261663e-01 -1.731772e+00 -5.306535e-01 2.955657e-01 1.372563e+00 1.351362e+00 -1.709547e-02 
9.565655e+00 -5.003627e+00 1.100754e+01 1.618225e+00 -6.347227e+00 -7.049529e+00 -1.835015e+00 -1.514617e+00 -7.329538e+00 -7.084717e+00 1.413069e+00 -5.456410e+00 6.189011e-01 1.565243e-01 1.033358e+00 1.916287e-01 4.374589e-01 9.355308e-01 1.579494e-01 1.722221e-02 -1.019423e+00 -1.066260e+00 7.201108e-01 1.070628e+00 1.733701e+00 -1.673081e-02 
1.077415e+01 -4.325987e+00 1.080410e+01 1.666700e+00 -3.187429e+00 -7.005101e+00 -2.579353e+00 -2.431447e+00 -8.273628e+00 -7.089612e+00 1.385928e+00 -1.097502e+00 6.014574e-01 3.915368e-01 9.627457e-01 8.302040e-02 7.010496e-01 4.917539e-01 2.499125e-01 2.367228e-01 -1.504085e-01 -8.201350e-01 1.740605e-01 3.444986e-02 1.923056e+00 -1.598545e-02 
1.045310e+01 -2.570635e+00 1.214756e+01 3.695889e+00 -4.669425e+00 -7.955361e+00 -3.172947e+00 -1.344000e+00 -9.168928e+00 -4.319507e+00 9.025470e-01 -1.097492e+00 5.851276e-01 3.657362e-01 1.134891e+00 -3.920506e-01 9.474827e-01 6.082321e-01 6.224760e-01 8.457816e-01 -8.304337e-01 -7.455492e-02 5.249923e-01 -1.683315e+00 1.221005e+00 -1.699548e-02 
1.139645e+01 -2.483624e+00 1.119032e+01 3.619026e+00 -4.927658e+00 -6.132761e+00 -7.485394e-01 -4.882636e-01 -9.067390e+00 -6.593423e+00 -1.989740e+00 1.105074e+00 5.736899e-01 1.632087e-01 1.675038e+00 -1.164456e+00 1.184183e+00 1.563647e+00 2.059669e+00 5.004591e-01 -1.932907e+00 8.159547e-01 7.883143e-01 -2.385072e+00 -4.739072e-01 -1.989757e-02 
1.108319e+01 -2.503534e-01 8.854177e+00 5.379476e+00 -2.435952e+00 -4.373319e+00 1.478487e+00 -6.638377e+00 -7.305431e+00 -4.707850e+00 -5.315671e+00 -4.526713e-01 5.478075e-01 8.130741e-03 2.074037e+00 -1.389587e+00 1.307252e+00 2.706147e+00 2.297913e+00 1.524621e-01 -2.344100e+00 6.770064e-01 7.685280e-02 -2.086576e+00 -5.223727e-01 -2.331472e-02 
1.127515e+01 2.889060e+00 6.628512e+00 6.745821e+00 3.514068e+00 1.502223e+00 -2.402774e+00 -9.448794e+00 -5.125603e+00 -2.953869e+00 -7.430323e+00 -3.789448e+00 5.206296e-01 -6.636382e-01 1.765604e+00 -3.732936e-01 2.181990e+00 2.786367e+00 1.429322e+00 -5.618839e-02 -1.401670e+00 7.059231e-02 -4.285375e-01 -1.723890e-01 -4.424554e-01 -3.110104e-02 
1.055441e+01 5.113210e+00 7.480527e+00 8.668752e+00 4.640449e+00 -2.832863e-01 -1.583519e+00 -8.584234e+00 -7.754791e+00 -5.755020e+00 -6.810039e+00 -1.262095e+00 4.950842e-01 -1.295354e+00 8.783051e-01 8.387038e-01 2.830059e+00 2.716949e+00 -3.892392e-01 -4.099296e-01 7.564036e-01 5.414507e-01 -2.427365e-01 7.729756e-01 -1.965419e-01 -4.198092e-02 
8.342650e+00 3.662615e+00 1.001068e+01 1.288434e+01 5.465979e+00 -1.031164e+00 5.015216e-01 -6.523686e+00 -8.489750e+00 -8.212525e+00 -2.104501e+00 -7.024915e-01 4.445464e-01 -1.703825e+00 -3.171488e-01 1.080399e+00 2.146640e+00 1.926375e+00 -1.392584e+00 4.569775e-01 1.712724e+00 1.813764e+00 1.558473e+00 1.888242e+00 2.743172e-01 -5.742472e-02 
6.072666e+00 3.754395e+00 1.135661e+01 1.646051e+01 1.017284e+01 -5.052821e+00 -2.023309e+00 -4.318913e+00 -2.916104e+00 -3.292204e+00 -4.113704e+00 -2.978859e+00 3.759444e-01 -1.747111e+00 -1.404895e+00 -7.405577e-02 1.246246e+00 2.248329e+00 -5.891260e-01 1.733087e-01 1.372017e+00 3.284525e+00 2.964867e+00 1.637656e+00 -1.918844e-01 -7.083807e-02 
4.996898e+00 1.982723e+00 1.009246e+01 1.358314e+01 1.037975e+01 -3.075929e+00 1.020079e-01 -3.017833e+00 1.523875e+00 3.607089e+00 6.627206e-01 -1.559480e+00 2.930759e-01 -1.745869e+00 -2.027900e+00 -1.503944e+00 -1.730806e-01 2.007984e+00 1.137699e+00 8.405741e-01 2.103864e+00 1.917154e+00 2.843354e+00 4.175203e-01 -5.667098e-01 -7.426763e-02 
3.491726e+00 -1.071317e+00 7.069357e+00 1.455058e+01 1.342521e+01 -2.206534e+00 -5.172191e-01 -3.477077e+00 3.661023e+00 3.159510e+00 -5.372047e-03 -1.793022e+00 2.166291e-01 -1.468341e+00 -2.027617e+00 -2.906993e+00 -1.870903e+00 6.090883e-01 1.230244e+00 1.147130e+00 1.727654e+00 7.801878e-02 1.772670e+00 1.736777e-01 -1.639521e+00 -6.776764e-02 
9.037728e-01 -4.064029e+00 4.634586e+00 1.297390e+01 1.387971e+01 3.234189e+00 3.951347e+00 3.574717e+00 -2.192544e+00 2.778386e+00 -2.071065e+00 -4.128959e+00 1.528659e-01 -1.365937e+00 -1.208228e+00 -2.771083e+00 -1.812366e+00 2.569050e-01 6.529319e-01 1.550077e+00 1.960038e+00 -1.130871e+00 4.544826e-01 2.896478e-01 -8.245470e-01 -5.137135e-02 
7.775249e-01 -3.360315e+00 -4.494127e-01 7.410617e+00 1.146830e+01 -2.056661e+00 1.787671e+00 1.023079e+00 -6.678009e-01 5.985498e+00 -1.878422e+00 -9.891724e+00 1.072112e-01 -1.247941e+00 -4.493249e-01 -1.857427e+00 -2.766671e+00 -1.514612e+00 -7.176360e-01 7.557709e-01 1.350393e+00 -4.906222e-01 3.312426e-01 1.332336e+00 9.272089e-01 -3.219607e-02 
-4.756837e-01 -2.913920e+00 -3.567815e-03 8.091292e+00 1.264273e+01 1.137940e-01 6.699947e+00 4.532279e+00 -1.966069e+00 4.466508e+00 3.047485e+00 -1.632864e+00 9.092808e-02 -9.472786e-01 2.478243e-01 -7.446503e-01 -1.696283e+00 -5.901737e-01 -1.470986e+00 2.204624e-01 -1.596518e-01 6.943221e-01 4.817118e-01 1.958821e+00 1.234110e+00 -1.334841e-02 
-2.058249e+00 -3.892996e+00 1.012986e-01 3.158532e+00 6.470640e+00 -4.234517e+00 1.887335e+00 2.796108e+00 1.094674e+00 3.971663e+00 4.097035e+00 1.594975e+00 8.661765e-02 -5.515014e-01 2.785392e-01 4.900611e-01 -4.270792e-02 4.107793e-01 -8.971626e-01 8.254083e-01 1.542773e+00 1.174806e+00 1.110578e+00 1.478645e+00 1.781952e+00 -4.530275e-03 
-2.414733e+00 -2.558566e+00 6.359792e-01 6.618529e+00 1.342768e+01 -3.031812e+00 5.003827e+00 1.889943e+00 3.978291e-01 6.193863e+00 4.735312e+00 -3.701757e+00 9.642065e-02 3.417573e-02 3.953176e-01 4.111655e-01 2.365642e-02 -1.625612e-01 -4.427525e-01 -4.674653e-01 5.822819e-01 1.426322e-01 -3.822140e-01 -1.358114e+00 -8.264636e-02 -9.793317e-03 
-1.010457e+00 -2.145296e+00 1.681120e+00 7.933460e+00 1.312972e+01 -4.969671e+00 6.762773e+00 1.005811e+01 4.024279e+00 1.067471e+01 4.670887e+00 5.248284e-02 8.181351e-02 -3.960500e-02 5.317265e-01 4.288162e-01 4.182622e-01 7.299352e-02 6.476226e-01 -3.297805e-01 1.344612e+00 9.048382e-01 2.885055e-01 -1.214359e+00 5.680585e-03 -1.842027e-02 
-8.287010e-01 -1.811182e+00 1.262349e+00 5.822111e+00 8.500381e+00 -1.732391e+00 1.924902e+00 3.812686e+00 -2.717710e+00 -7.960864e-01 -4.030012e+00 -1.274850e+00 4.436356e-02 6.935525e-02 1.003619e+00 5.436913e-01 -4.107912e-01 -1.225336e+00 1.416389e+00 6.342856e-01 1.347506e+00 6.797267e-01 -8.710283e-01 -1.138939e+00 1.353366e+00 -2.058849e-02 
-3.049290e+00 -1.608056e+00 1.932194e+00 5.648052e+00 9.299253e+00 -1.646114e+00 1.777894e+00 8.557798e+00 7.176635e+00 8.909164e+00 2.407900e+00 4.099243e-01 2.054483e-02 1.212468e-02 1.672313e+00 7.713165e-01 -2.662413e-01 -9.529157e-01 1.526642e+00 8.576864e-01 -1.197279e-01 -3.258657e-02 -1.960253e+00 -2.612286e-01 6.710319e-02 -1.335402e-02 
-1.048541e+00 2.190908e+00 3.228898e+00 5.707277e+00 9.216228e+00 2.388357e+00 1.066769e+01 9.377629e+00 2.220284e+00 2.721495e+00 1.721131e-01 2.886352e+00 2.411252e-02 7.812357e-02 1.692954e+00 1.120692e+00 1.109536e-01 4.097093e-01 1.380722e+00 1.255945e+00 -6.237817e-01 5.683950e-01 1.654060e-01 9.939464e-01 -7.842769e-02 -1.095647e-02 
-8.399138e-01 4.215224e+00 4.554428e+00 6.659670e+00 8.007218e+00 6.031646e-01 6.679809e+00 6.677001e+00 1.392348e+00 -8.853477e-01 1.263682e+00 -1.692602e+00 2.516896e-02 4.102664e-02 1.332265e+00 4.278665e-01 -4.199995e-01 2.872390e-01 3.822102e-01 -8.969404e-01 -1.854105e+00 -8.623277e-01 -8.725206e-01 -9.535007e-02 -2.578030e-01 -2.048652e-02 
-1.542771e+00 3.741948e+00 5.554695e+00 5.871070e+00 1.119495e+01 4.046580e+00 5.753672e+00 1.634176e+00 3.016408e+00 4.928200e+00 1.511829e+00 -6.157253e-01 -1.273084e-02 -5.750567e-01 8.002106e-01 -3.050390e-01 -1.325797e+00 1.726552e-01 -5.813097e-02 -1.821964e+00 -1.104795e+00 -5.712056e-01 -2.714482e-01 -4.297822e-01 -6.145443e-01 -2.386150e-02 
-2.597042e+00 4.277750e+00 2.908628e+00 3.466158e+00 9.746090e+00 -5.641746e-01 -2.497964e-01 3.159000e+00 2.466935e+00 3.443209e+00 1.261292e+00 8.719480e-01 -6.346607e-02 -4.733060e-01 5.142977e-01 -8.519062e-01 -1.251834e+00 -2.013049e-01 4.023326e-01 8.811487e-01 4.362326e-02 -5.880172e-01 1.288853e-01 1.638471e+00 1.406222e+00 -1.704373e-02 
-3.045260e+00 6.160698e+00 2.526603e+00 6.750487e-01 9.210068e+00 2.681372e+00 5.022677e+00 5.612653e+00 -1.173037e+00 -8.000246e-01 -1.975603e+00 -1.468644e+00 -5.087745e-02 -1.744058e-01 7.623043e-02 -1.271745e+00 -8.941706e-01 -2.031132e+00 3.107051e-01 2.852446e+00 1.132870e+00 -1.298443e+00 -1.078743e+00 2.658682e+00 1.974226e+00 -1.455426e-04 
-2.455200e+00 5.577338e+00 1.808943e+00 2.998513e+00 7.993133e+00 3.297432e+00 1.145105e+01 4.905879e+00 5.469847e-01 2.623191e+00 1.119976e+01 5.764968e+00 -4.097641e-02 -3.802131e-01 8.552063e-02 -3.581565e-01 5.490416e-01 -1.173972e+00 4.681490e-02 1.858392e+00 4.864777e-01 -5.575799e-01 -3.516017e-01 1.389404e+00 1.514633e+00 6.369161e-03 
-2.485721e+00 3.473306e+00 -2.541895e-01 1.634039e+00 1.915766e+00 3.669302e+00 1.416548e+01 6.425086e+00 -2.515833e+00 -5.550647e-02 9.836008e+00 6.808896e+00 -2.470338e-02 -1.047080e+00 -3.975997e-01 -4.374274e-01 7.782233e-01 -6.781379e-01 3.422036e-01 -3.344834e-01 -5.284105e-01 1.657419e-02 5.464893e-01 2.641965e-01 1.673847e+00 3.298604e-03 
-4.777876e+00 6.049049e+00 2.508242e+00 5.731871e+00 7.523378e+00 -8.240655e-01 4.470765e+00 5.185171e+00 3.504333e-01 1.312941e+00 2.302505e+00 4.306341e+00 -4.470730e-02 -1.077018e+00 9.244752e-03 -9.323149e-02 -5.177553e-01 -3.153973e-01 1.465699e-01 -9.400708e-01 -7.059104e-01 2.730239e-01 -1.032047e-01 -3.168527e+00 -1.883078e-01 -8.612037e-03 
-7.119320e+00 3.936844e+00 -1.018351e-02 3.199487e+00 6.054256e+00 6.453138e+00 6.840403e+00 2.830955e+00 -9.918900e-01 2.587547e+00 3.794005e+00 7.629903e+00 -3.251898e-02 -4.340996e-01 4.882850e-01 5.523804e-01 -3.606380e-01 8.142393e-01 3.112450e-01 -9.515451e-01 -9.284541e-01 1.651333e+00 6.764850e-01 -1.627367e+00 -5.562974e-01 -1.756586e-02 
-5.523491e+00 5.391793e+00 1.220782e+00 -3.729870e-01 4.346902e+00 2.638364e+00 1.041323e+01 3.173393e+00 1.150133e+00 7.856408e-01 -1.621880e+00 4.412926e+00 -8.012879e-02 1.094242e-01 4.618259e-01 6.712316e-01 -7.543733e-01 5.409771e-01 5.000313e-01 8.351198e-01 4.914182e-01 1.940010e+00 8.073006e-01 9.930525e-01 -8.870659e-02 -1.314021e-02 
-4.283412e+00 6.243360e+00 3.151443e+00 2.883278e+00 7.575201e+00 3.494313e+00 6.436518e+00 2.788705e+00 5.340983e+00 3.590569e+00 3.661366e+00 3.974117e+00 -9.482193e-02 8.842651e-01 -8.579578e-01 -1.107940e+00 -1.244503e+00 -4.653047e-01 -1.370433e-01 8.398223e-01 9.108666e-01 1.720867e+00 8.912714e-01 5.309954e-02 1.525700e-01 -3.574157e-03 
-5.648710e+00 7.204921e+00 4.283587e+00 2.118108e+00 9.467791e+00 3.155504e+00 8.848307e+00 7.663387e+00 6.884046e+00 4.847933e+00 7.334086e+00 5.690701e+00 -7.925689e-02 6.750698e-02 -1.496655e+00 -2.193023e+00 -1.384310e+00 -6.501189e-01 4.003963e-01 7.039577e-01 8.180092e-02 5.561827e-01 3.692100e-01 -3.916700e-01 6.405140e-01 8.365190e-03 
-2.635386e+00 -1.259510e+00 -7.081285e+00 -4.268575e+00 1.167288e+00 5.509352e+00 1.182198e+01 5.140290e+00 4.745489e+00 5.012758e+00 -4.184800e-01 7.753865e+00 -5.082572e-02 -3.814375e-01 -1.471179e+00 -2.447037e+00 -1.904049e+00 -1.171740e+00 7.543468e-02 1.199953e+00 -6.020982e-01 -4.879633e-01 -6.267282e-01 -1.927774e+00 3.537931e-01 8.799791e-03 
-6.009969e+00 1.659950e+00 -4.627967e+00 -3.718610e+00 4.300264e+00 3.632825e+00 1.124029e+01 2.406605e+00 4.228793e+00 1.920596e+00 -1.540307e+00 5.725622e+00 -6.030095e-02 -4.097102e-01 -8.170481e-01 -1.536979e+00 -1.112347e+00 -7.202078e-01 -9.218834e-02 4.202284e-01 -1.324725e+00 -5.827202e-01 -8.946835e-01 -1.887061e+00 -1.958403e-01 2.843666e-03 
