-4.784123e+00 4.862298e+00 2.029472e+00 -3.779838e+00 4.499152e+00 3.211849e+00 4.088504e+00 -9.286152e-01 -1.895122e+00 -1.198901e+00 1.048623e+00 6.568125e+00 -1.222849e-01 3.718368e-01 -6.017552e-02 -6.705163e-01 3.784596e-01 2.765593e-01 -6.660940e-02 -1.164935e+00 -1.701007e+00 -3.333282e-01 -4.771538e-02 -6.897644e-01 -2.304971e+00 -2.640617e-03 
-3.511377e+00 4.573879e+00 -1.044392e+00 -1.950893e+00 7.442953e+00 4.753338e+00 3.600238e+00 -4.388080e+00 8.148808e-01 1.410396e+00 -2.515496e+00 1.868987e-01 -1.428679e-01 1.422209e-01 -3.139527e-01 -5.864565e-01 -1.065814e-01 2.350368e-01 -3.488787e-01 -8.514236e-01 -1.345512e+00 -1.186260e+00 -6.703066e-01 -5.754578e-01 -1.420634e+00 -4.763699e-03 
-3.561313e+00 4.705629e+00 2.138223e-01 -2.802012e+00 4.410048e+00 2.108057e+00 -1.492038e+00 -7.703918e+00 -4.916765e+00 -2.742126e+00 -6.181386e-01 -1.766118e+00 -1.251965e-01 3.083787e-01 1.270394e-01 -7.236588e-03 4.399950e-01 3.944800e-02 -3.537953e-01 -6.354904e-01 -5.920125e-01 3.026908e-01 -3.749313e-02 5.795132e-01 2.063260e-01 -2.953351e-03 
-4.684424e+00 3.370868e+00 5.014002e-03 -4.801658e+00 5.718888e+00 2.019351e+00 2.621658e+00 -4.268522e+00 -6.315601e+00 -3.778821e+00 -9.952844e-01 3.632078e+00 -1.446476e-01 3.562907e-01 2.949367e-01 -6.149992e-02 2.238669e-01 -4.781325e-01 5.725164e-01 -1.094824e+00 2.242750e-01 6.518849e-01 5.868380e-01 1.235717e+00 2.648709e+00 1.317787e-02 
-2.655706e+00 6.099000e+00 1.468586e+00 -1.544802e-01 5.558425e+00 2.809865e+00 1.400343e+00 -3.948456e+00 3.183573e+00 1.208242e+00 3.186084e+00 5.877165e+00 -1.361618e-01 5.011835e-01 5.246354e-01 -1.767878e-01 4.003957e-01 1.081240e-02 3.849526e-01 -1.001610e+00 7.953359e-01 1.340332e+00 2.255620e+00 9.278771e-01 2.084799e+00 7.138002e-03 
-2.182727e+00 5.351877e+00 -1.979273e+00 -2.155324e+00 4.478103e+00 7.265017e+00 -3.320072e+00 -5.144435e+00 2.413642e-02 2.369402e+00 1.760978e+00 9.608804e+00 -7.149589e-02 2.045380e-01 4.236221e-01 -3.220786e-01 -1.774130e-01 -5.497500e-02 9.660594e-02 -7.697659e-01 1.725225e-01 5.068631e-01 2.939013e+00 8.166642e-01 2.034362e-01 5.821359e-03 
-2.306244e+00 6.338302e+00 3.220271e-01 -2.123200e+00 5.084503e+00 1.409988e+00 -3.529222e+00 -3.289281e+00 -1.384973e+00 5.461860e+00 2.643116e+00 5.669514e+00 -1.260823e-01 -5.280179e-01 -7.255617e-01 -2.504613e-01 -6.592242e-01 -5.317916e-01 -8.888723e-01 3.195390e-01 1.719868e+00 2.577878e-01 1.243776e+00 -4.093765e-01 -1.255680e+00 -1.673889e-03 
-3.836466e+00 5.369328e+00 -1.032100e+00 -4.704363e+00 5.680974e+00 3.202320e+00 1.237610e+00 -3.735497e+00 -1.497013e+00 8.789433e+00 3.359520e+00 4.753085e+00 -1.205806e-01 -5.776610e-01 -1.551694e+00 2.913639e-01 1.070913e+00 -3.327363e-01 -2.235024e+00 2.029898e+00 2.374805e+00 1.422204e+00 -1.144073e+00 -3.093732e-01 -5.396054e-01 1.010832e-02 
-4.468926e+00 2.462466e+00 -2.573073e-01 -2.176082e+00 2.298031e+00 3.968520e-01 7.191963e-01 3.946413e+00 5.233087e+00 4.217108e+00 3.399302e-01 2.026624e+00 -1.199889e-01 -5.786056e-02 -7.424393e-01 1.257562e-01 1.232023e+00 -3.774404e-01 -8.703228e-01 1.861547e+00 1.861875e+00 1.068000e+00 -1.996290e+00 -6.906196e-01 -1.447704e-01 1.409793e-02 
-3.989691e+00 -4.686725e-01 -2.327868e-01 3.225679e+00 4.207657e+00 -3.403535e+00 4.705212e+00 3.111744e+00 3.826126e+00 -2.728588e+00 1.365705e+00 8.732222e+00 -2.400100e-02 2.851016e-01 2.937242e-01 1.801419e-01 1.214603e+00 2.990614e-01 8.012466e-01 1.403207e+00 6.469303e-01 5.777583e-01 -1.508819e+00 -4.465685e-01 -3.262575e-01 4.325426e-03 
-2.518934e+00 5.545105e+00 5.511513e-01 7.189393e-02 3.933960e+00 3.613014e-01 4.044714e+00 2.596473e+00 1.293458e+00 1.239420e+00 1.869257e-01 2.956094e+00 -1.038824e-01 1.657944e-02 8.967345e-01 -2.565455e-01 -1.068508e+00 6.178951e-03 1.187133e+00 1.923934e-01 -2.167849e+00 -1.333611e+00 4.639325e-01 7.571398e-01 8.670975e-01 -9.347772e-03 
-3.385954e+00 5.296630e+00 -5.356199e-01 2.446642e-01 6.358316e+00 7.226329e+00 6.590885e+00 1.741246e-01 3.361593e+00 2.734179e+00 1.203180e+00 2.657063e+00 -1.070067e-01 -1.272513e-01 7.616875e-01 -5.250988e-01 -2.164890e+00 -5.519559e-01 4.889260e-01 -1.709699e+00 -2.587768e+00 -1.376651e+00 1.599459e+00 5.638019e-01 1.133912e+00 -2.316544e-02 
-4.687898e+00 4.063488e+00 -1.388618e+00 -6.028113e+00 1.253596e+00 1.017585e+00 7.383265e-01 -5.424023e+00 -1.202701e+00 3.805387e+00 4.206892e+00 9.399692e+00 -1.252249e-01 -2.312256e-01 -4.109230e-01 -3.587651e-01 -8.764221e-01 -8.762337e-01 -1.402151e+00 -2.181465e+00 -1.937746e+00 -7.448581e-01 2.209066e-01 6.845667e-02 9.087898e-01 -5.146384e-03 
-3.541466e+00 4.080574e+00 -1.888396e+00 -4.548769e+00 2.788059e+00 -1.287047e+00 -2.190091e+00 -5.816848e+00 -1.809048e+00 3.985724e+00 2.174732e+00 1.117998e+01 -1.291569e-01 3.623030e-01 -1.997509e-02 7.303774e-03 -7.568222e-01 -4.207792e-01 -1.937437e+00 -1.597500e+00 -8.894429e-02 -4.151459e-01 -1.881510e-01 -5.075090e-01 -8.921876e-01 -3.198528e-03 
-3.597306e+00 4.098518e+00 -5.662858e-01 -1.913500e+00 1.337920e+00 -2.392768e+00 -2.472125e+00 -4.096770e+00 1.544880e-01 1.718180e+00 4.343334e-02 3.238583e+00 -1.185392e-01 5.669044e-01 1.330316e-01 2.233535e-01 9.425335e-01 1.529953e+00 1.837966e-01 7.598513e-01 1.801503e+00 1.170326e-01 -2.227505e-01 -7.573617e-01 -2.415421e+00 -1.553988e-03 
-2.119735e+00 5.179239e+00 -9.102671e-01 -5.596754e+00 4.212258e+00 -7.556782e-01 2.086096e-01 -9.342234e-01 6.072693e-01 2.837027e+00 7.473646e-01 1.276679e+00 -1.263422e-01 1.622214e-01 -1.170013e-01 5.937871e-02 4.384168e-01 8.049101e-01 6.464507e-01 9.253689e-01 9.974197e-01 1.421646e-01 -8.800877e-01 3.127201e-01 -8.229788e-01 -3.460300e-03 
-2.564241e+00 4.179314e+00 -7.609152e-01 -7.914531e-01 8.191263e+00 1.670883e+00 3.338233e+00 1.142177e+00 -1.825697e+00 3.265983e+00 1.133767e+00 2.274240e+00 -1.344023e-01 6.931486e-02 -9.886766e-03 -6.547043e-01 -2.436438e-01 4.457516e-01 8.335853e-01 2.096553e-02 -3.695853e-01 1.678770e-01 9.659696e-02 2.155204e-01 3.658177e-01 -2.801144e-03 
-3.246891e+00 3.455170e+00 -1.494188e+00 -2.917708e+00 3.385938e+00 -8.661938e-02 -4.684253e-01 -3.449223e+00 -1.081325e-01 -1.188616e+00 3.193166e+00 7.547259e+00 -1.385269e-01 -4.542910e-01 -5.357237e-02 -1.097965e+00 -7.632070e-01 -6.506647e-01 3.378079e-01 -3.159854e-01 2.437398e-01 1.158570e+00 8.385774e-01 2.923268e-01 4.160253e-02 5.943573e-03 
-2.687154e+00 4.911119e+00 -3.547847e+00 -4.471242e+00 3.979838e+00 1.440629e+00 -2.028780e+00 -4.687197e+00 1.351574e+00 4.213986e+00 -1.018651e-01 1.932381e+00 -1.264526e-01 -1.365659e-01 2.199355e-01 -4.944474e-01 -8.752810e-01 -1.223634e+00 5.301245e-01 2.015176e-01 1.114188e+00 1.684615e+00 1.411467e+00 5.103772e-02 -5.104905e-01 1.057960e-02 
-4.329734e+00 4.545474e+00 -5.006626e+00 -7.572894e+00 3.064647e+00 1.048489e+00 1.312189e+00 3.199163e+00 4.811482e+00 6.555912e+00 2.826815e+00 1.655622e+00 -1.005992e-01 -1.246137e+00 -1.087267e+00 1.512959e+00 3.952641e-01 -2.147252e+00 3.400755e+00 -4.004168e-01 6.501346e-01 8.940132e-01 2.318484e-01 1.007837e+00 -6.963817e-01 9.268379e-02 
-2.705649e+00 4.733839e+00 -1.476933e+00 -2.840265e+00 2.233736e+00 3.753952e+00 3.455514e+00 3.388925e+00 4.137571e+00 6.451056e+00 1.572131e+00 2.667607e+00 -1.004682e-01 -3.862775e+00 -2.070223e+00 4.278231e+00 2.776044e+00 -4.169024e+00 1.130589e+00 1.316509e+00 9.955462e-01 -1.281795e+00 -2.512847e+00 2.669275e+00 1.714911e+00 1.887157e-01 
-9.468328e+00 -1.892524e+00 5.035149e+00 -1.756876e+00 -6.477272e+00 1.576049e+01 -5.212656e+00 -4.236611e+00 2.968935e+00 -1.147908e+00 7.395354e+00 3.697738e+00 3.118998e-01 -4.522094e+00 -2.028254e+00 3.486948e+00 4.635540e+00 -2.819533e+00 -2.604197e+00 -2.436960e-01 3.829196e+00 -1.849982e+00 -5.601224e+00 3.527894e+00 1.779650e+00 2.116288e-01 
-1.943174e+01 -2.220995e+00 1.282242e+01 6.500971e+00 -1.209432e+01 -2.624292e-01 7.816186e+00 4.008421e+00 -4.136129e+00 -4.498340e+00 1.096024e+01 9.485878e+00 6.108762e-01 -3.730535e+00 -2.701379e+00 3.843411e-01 4.614362e+00 1.337084e+00 -2.291716e+00 -3.302355e+00 1.114736e+00 3.827174e+00 -3.280879e+00 3.591081e-01 1.597230e+00 1.582206e-01 
-1.857716e+01 -2.118378e+00 5.278440e+00 1.093419e+01 -3.868988e+00 -9.964304e+00 -2.086627e+00 2.203540e+01 -3.015771e-01 -1.597551e+01 1.577223e+01 7.144737e+00 6.018728e-01 -2.937555e-01 -2.350623e+00 -3.418753e+00 2.771899e+00 4.675948e+00 2.859429e-01 -2.273439e+00 -3.776679e+00 3.500580e+00 2.453292e+00 -1.597856e+00 -4.763561e-01 1.661220e-02 
-1.680391e+01 -8.660131e+00 3.231267e-01 1.388601e+01 7.615013e+00 5.157770e+00 -1.461928e+01 -4.173397e+00 2.490870e+01 -2.539538e+00 -8.207690e-01 8.930259e+00 5.456483e-01 1.841513e+00 -1.910231e+00 -3.266670e+00 -1.079592e+00 4.450836e+00 3.894535e+00 -3.095623e+00 -8.674849e+00 2.161348e+00 5.379076e+00 -3.214101e+00 -2.391393e+00 -5.458208e-02 
-1.225102e+01 -1.042607e+01 -5.808971e+00 8.410095e+00 7.047803e+00 1.448011e+01 -5.362122e+00 -1.902910e+01 5.949421e+00 1.013915e+01 5.296579e+00 1.593767e+00 4.275748e-01 1.566710e+00 -6.920996e-02 -8.699104e-01 -3.471219e+00 2.054369e+00 4.415998e+00 3.741232e-01 -1.008170e+01 -2.281869e+00 5.376372e+00 -2.877670e+00 -2.822902e+00 -5.352604e-02 
-1.338724e+01 -7.618303e+00 2.032773e+00 2.365059e+00 4.701466e+00 6.988038e+00 -6.024182e+00 -1.883358e+01 3.545112e+00 9.339705e+00 1.275616e-01 3.043989e-01 4.251148e-01 1.157815e+00 2.738004e+00 1.161239e+00 -5.069776e+00 -1.819179e+00 -2.419076e-01 1.881004e+00 -3.078188e+00 -5.177676e+00 2.562517e-01 -4.233574e-01 -1.938078e+00 -4.902770e-02 
-1.245195e+01 -2.985342e+00 7.406533e-02 -6.614330e-01 7.859633e+00 1.120055e+01 -4.513558e+00 -2.104302e+01 -1.029132e+00 4.966730e+00 9.097192e-01 -2.656845e+00 3.945093e-01 6.618519e-01 3.173425e+00 2.378814e+00 -3.104930e+00 -3.011647e+00 -3.814386e+00 5.747795e-01 1.431028e+00 -1.057747e+00 -2.238218e+00 -1.971660e+00 -7.922590e-02 -4.957529e-02 
-1.091437e+01 1.309526e+00 3.187805e+00 -6.927104e+00 -1.886798e+00 5.588011e+00 -5.638539e+00 -1.855737e+01 2.509593e+00 1.327932e+00 -7.441260e-01 1.365173e+00 3.170425e-01 2.520249e+00 2.556383e+00 2.393198e-02 -1.498698e+00 -2.293252e+00 -3.231750e+00 7.310044e-01 3.231955e+00 -7.646940e-01 -1.473913e+00 -3.143875e-01 6.902657e-01 -1.208393e-01 
-1.017820e+01 9.771380e-01 5.507582e+00 -2.468475e+00 -4.716300e+00 -3.891806e+00 -2.681046e+00 -1.201206e+01 1.178447e+00 2.953952e+00 -4.125876e+00 6.672503e-01 2.337345e-01 2.722676e+00 1.774670e+00 -6.076488e-01 -4.939655e-01 -1.325472e+00 -2.722558e+00 1.034646e+00 4.919628e+00 5.327954e-01 1.142049e-01 4.582841e-01 7.666183e-01 -1.291373e-01 
-1.922871e+00 3.182373e+00 -5.643250e-01 -4.224908e+00 -4.768286e-01 -1.624533e+00 -3.285417e+00 -7.189282e+00 -1.382148e+00 2.976531e+00 1.073422e+00 2.093680e+00 -9.869421e-02 2.136217e+00 9.572276e-01 -1.602108e+00 5.072872e-01 7.222508e-01 -6.623845e-01 6.678605e-01 3.164763e+00 -5.961394e-01 -1.195807e-01 6.039600e-01 1.839547e-01 -9.768931e-02 
-3.334313e+00 4.951584e+00 -1.088114e+00 -4.482358e+00 5.272884e-01 1.194033e+00 -5.168886e-01 -2.128932e+00 3.580715e+00 4.713455e+00 2.292366e+00 8.119932e-01 -4.330885e-02 1.708259e+00 1.171356e+00 -2.397699e+00 -7.456673e-01 1.474471e-01 4.075119e-01 -1.007542e+00 3.208446e-01 -8.074101e-01 -2.179703e-01 9.232052e-01 3.404799e-01 -6.017437e-02 
-3.655224e+00 4.108441e+00 -1.524889e+00 -3.383726e+00 -8.973389e-01 -2.668314e-01 -3.381315e+00 -7.675123e+00 -1.672239e+00 -1.497238e-01 -9.334466e-01 2.212575e+00 -3.288233e-02 2.603692e-01 7.763644e-01 -4.717953e-01 6.826717e-01 6.645899e-01 2.613464e-01 -1.315718e+00 7.710247e-02 -5.484377e-01 -8.190544e-01 -4.152758e-01 4.274612e-01 -2.870917e-04 
-7.707272e-01 6.370886e+00 -6.000631e+00 -6.617403e+00 -3.768810e+00 -2.533097e+00 -7.670808e+00 -1.016492e+01 -2.713558e+00 3.427227e+00 1.493584e+00 2.310202e+00 -1.000433e-01 4.238990e-01 1.239643e-01 -1.754598e-01 6.410281e-01 5.557109e-01 3.505737e-01 -2.309055e-01 -4.664444e-01 -8.986319e-01 -7.714418e-01 1.075649e-01 1.466896e-01 -1.574378e-02 
-1.902818e+00 6.354545e+00 -4.670424e-01 2.559729e-01 4.994170e+00 1.545764e+00 -6.287048e+00 -2.785778e+00 -9.771996e-01 -4.756274e-01 -6.035663e-01 3.481882e+00 -7.176244e-02 -7.485990e-02 -6.776183e-01 2.705723e-01 4.512438e-01 1.289380e+00 9.130020e-01 2.210397e+00 1.664986e+00 1.645520e+00 1.125818e+00 4.245310e-01 9.898482e-02 -2.302411e-02 
-2.091022e+00 4.448354e+00 -2.494336e+00 -3.097067e+00 3.600883e-01 2.040604e+00 -2.185497e-01 -6.905826e+00 -1.259964e+00 1.019198e+00 2.665250e+00 9.107883e-01 -1.025877e-01 -7.705755e-01 -1.183112e+00 5.333141e-01 2.862484e-01 6.569970e-01 9.881652e-01 3.032248e+00 1.808314e+00 2.081053e+00 1.762103e+00 -2.542925e-01 4.983230e-01 -1.169494e-02 
-3.369376e+00 1.681615e+00 -1.925175e+00 -2.887674e+00 3.485113e+00 2.011328e+00 3.944540e+00 -9.797367e-01 5.828565e+00 6.683381e+00 6.033751e-01 3.407207e+00 -1.467307e-01 -8.445705e-01 4.519559e-01 -4.579589e-01 3.028454e-01 -7.720665e-01 1.124673e+00 1.166652e+00 9.435368e-01 1.731099e+00 1.946353e+00 -6.324903e-01 2.509698e-01 3.509980e-02 
-3.890326e+00 2.791792e+00 -2.604995e+00 -3.614337e+00 2.707038e-01 2.174947e+00 2.374640e+00 -2.026369e+00 4.288828e+00 8.658240e+00 -3.813492e-01 4.839155e+00 -1.210339e-01 -7.654800e-02 1.210852e+00 1.327740e-01 9.768054e-01 1.728677e-01 1.867030e+00 5.120249e-02 1.671003e+00 -1.954874e-01 -4.460600e-01 -1.326410e+00 5.644107e-01 4.475623e-02 
-5.226018e+00 9.442605e+00 -2.701508e+00 2.028835e+00 1.178530e+00 7.101959e+00 -1.750382e+00 -5.078222e-01 4.903901e+00 5.436617e+00 -2.242718e+00 2.772547e+00 1.129597e-01 -1.716700e-01 6.830553e-01 3.705280e-01 1.668633e+00 1.218334e+00 1.245862e-01 -1.478894e+00 -3.903252e-01 -1.975248e+00 -2.886230e+00 2.328674e-01 5.131766e-01 5.316125e-02 
-1.545441e+00 6.622121e+00 -1.442299e+00 -6.712947e-01 2.377718e+00 8.830437e+00 2.884923e+00 1.213230e+00 -1.775069e+00 -5.877202e-01 -2.543752e+00 4.050171e+00 -8.651733e-03 -2.030816e+00 -1.421664e+00 6.443271e-01 5.294364e-01 1.663303e+00 -2.923288e+00 -1.402408e+00 4.042367e-01 1.700724e+00 -3.120111e+00 2.337878e-01 3.098364e-01 1.167462e-01 
-5.400168e+00 3.181727e+00 -6.538827e-01 3.983967e+00 8.523274e+00 -6.934862e-01 -3.705070e+00 -4.551162e+00 -1.015724e+00 -3.124790e+00 2.848913e+00 6.367581e+00 6.288451e-02 -2.398751e+00 -3.804536e+00 -6.072510e-01 -2.197738e+00 2.128274e+00 -4.541452e+00 -1.317484e+00 8.339424e-01 2.260805e+00 -1.728239e+00 -2.272993e-01 5.257813e-01 1.331671e-01 
-1.395733e+01 -1.186087e+00 -4.071714e-01 -1.944721e+00 4.914848e+00 -8.543770e+00 -3.660056e+00 2.016485e+00 1.575226e+01 -2.661613e+00 -1.758226e+00 4.590820e+00 4.877346e-01 -1.584380e+00 -3.269007e+00 -2.342336e+00 -7.382628e-01 1.566450e+00 -4.527558e+00 -6.069548e-01 1.713080e+00 1.755546e+00 5.067025e-01 -5.968526e-01 5.728679e-01 1.013710e-01 
-1.101383e+01 -5.675972e+00 -6.255326e+00 -8.323143e+00 1.055134e+01 -6.918198e+00 -5.065310e+00 3.260262e+00 7.444262e+00 -2.167629e+00 -3.771977e+00 5.131130e+00 5.306021e-01 1.426991e+00 -7.889289e-01 -1.928297e+00 -2.429781e-01 -4.681240e-01 -1.528539e+00 2.314446e+00 3.339477e+00 -6.235628e-02 6.414970e-01 -6.706355e-01 3.534001e-01 -4.684205e-02 
-6.660508e+00 -5.294064e+00 -1.035326e+01 1.790946e+00 9.195936e+00 -1.069500e+01 5.302701e-01 5.872920e+00 2.772667e+00 1.467212e+00 -2.217570e+00 7.532736e+00 2.643447e-01 3.879859e+00 -9.288106e-02 -1.868172e+00 1.343371e+00 -1.605733e+00 1.376336e-01 2.290505e+00 1.565720e+00 -2.438424e+00 -5.883335e-01 7.764329e-01 -1.313268e-01 -1.455819e-01 
-1.913621e+00 1.291072e+00 -5.322327e+00 9.012427e-01 4.042111e+00 -7.260566e+00 5.771996e+00 1.021800e+01 5.162292e+00 -1.981718e+00 -2.745921e-01 6.663623e+00 -5.963075e-02 1.992551e+00 2.199445e-01 3.146420e-01 1.272604e+00 -2.835398e+00 1.886270e+00 2.787135e+00 1.382635e+00 -4.649626e-01 -4.168339e-01 1.982993e+00 -6.590803e-01 -7.624599e-02 
8.918629e-01 -5.134014e+00 -1.021453e+01 1.599429e-01 1.407976e-01 -7.684418e+00 2.373815e+00 6.366212e+00 4.701126e+00 -5.696237e+00 3.752457e-01 3.167939e+00 5.494136e-02 -7.601101e-01 1.161858e+00 1.983608e+00 1.856261e-01 -6.803458e-01 4.487494e+00 2.273112e+00 5.130752e-01 -3.631110e-01 -9.957969e-02 1.590270e+00 -7.811334e-01 8.207698e-02 
-4.827260e+00 -4.656274e+00 -4.751479e+00 -1.144622e+00 9.019132e-01 1.007860e+00 7.948593e+00 9.926788e+00 4.155219e+00 -6.700742e-01 4.846579e+00 4.018127e+00 2.540738e-01 -2.620135e+00 2.463035e+00 2.108891e+00 2.132996e+00 1.730332e+00 4.282737e+00 1.687233e+00 -7.136569e-02 -1.138751e+00 3.848414e-01 -1.531898e-01 -1.831371e+00 1.849294e-01 
-9.004239e+00 3.488900e+00 -7.206438e-01 3.742009e+00 7.364306e+00 7.608255e+00 1.080753e+01 8.583903e+00 1.460649e+00 3.134915e-01 3.173193e+00 4.949818e+00 5.178773e-01 -2.355550e+00 4.152066e+00 2.095587e+00 2.453220e+00 1.087416e+00 3.464931e+00 1.002753e+00 -8.619976e-02 -1.117497e+00 3.156530e-01 -8.871258e-01 -1.732065e+00 1.510890e-01 
-1.006625e+01 9.294790e+00 4.751825e-01 9.775190e+00 9.082018e+00 6.506780e+00 9.991302e+00 8.752330e+00 1.088777e+00 -3.062375e+00 -2.439515e+00 -3.384173e+00 6.335484e-01 -1.204553e+00 2.636791e+00 -2.455867e-01 2.016769e+00 -1.159384e+00 9.849032e-01 -2.263823e+00 -2.384666e+00 -1.122510e+00 -3.884146e-01 -1.570659e+00 -2.199413e+00 8.845470e-02 
-8.266395e+00 8.650783e+00 -2.349925e+00 6.966137e+00 1.487827e+00 6.890780e+00 6.366223e+00 6.522442e+00 6.468598e-01 -2.921822e+00 -4.173362e-01 -1.791237e+00 6.206492e-01 -7.617489e-01 -5.753946e-01 -2.443821e+00 -2.536923e-01 -2.865094e+00 1.840887e-01 -1.553598e+00 -1.937688e+00 -2.370427e-01 1.296796e+00 3.807537e-01 4.917761e-01 1.317407e-02 
-1.121895e+01 5.946737e+00 -5.164772e+00 7.327157e+00 -1.956769e+00 6.291113e+00 -1.149868e+00 -9.658086e-01 -1.050435e+00 -9.944906e-01 -1.211452e+00 -3.608411e+00 6.449614e-01 -1.167759e+00 -2.557023e+00 -2.677069e+00 -1.794418e+00 -2.661365e+00 7.837623e-01 -1.434335e+00 -1.121355e+00 -3.189173e-01 2.539948e+00 2.710860e+00 1.832105e+00 -1.759093e-02 
-1.223663e+01 2.285953e+00 -1.011977e+01 3.697564e+00 -1.441772e+00 8.636532e+00 8.610126e+00 3.754532e+00 1.345041e+00 5.763531e+00 4.462930e+00 7.520817e+00 5.780412e-01 -1.579050e+00 -2.413455e+00 -1.181053e+00 -9.201990e-01 -1.044091e+00 2.269640e-01 -1.132078e+00 -6.426462e-01 2.725076e-01 3.306521e+00 2.359004e+00 1.926609e+00 -1.610585e-02 
-1.391992e+01 -3.079100e-01 -9.025238e+00 2.437387e+00 -2.760008e+00 9.552715e+00 1.697673e+00 4.529511e+00 -8.549001e-01 5.294686e+00 8.674655e+00 1.120327e+00 5.668977e-01 -1.001513e+00 -1.912078e+00 -2.747524e-01 2.394166e-02 8.313301e-01 -8.589687e-02 -1.855643e-01 7.999852e-01 4.661413e-01 1.447877e+00 1.243471e+00 1.783519e+00 -1.927095e-02 
-1.481116e+01 -2.891712e-01 -6.324958e+00 4.810028e+00 -3.331006e+00 6.394799e+00 -7.179365e-01 5.615515e-01 1.911631e+00 1.046619e+01 6.434627e+00 5.477439e+00 5.791517e-01 -4.208321e-01 -3.256579e-01 -1.355160e-01 -2.010659e-01 1.603266e+00 -4.208609e-01 -8.155529e-01 3.262345e-01 9.793633e-01 -4.090577e-01 -3.964235e-01 -5.370937e-01 4.796326e-03 
-1.493925e+01 -2.326089e+00 -8.435942e+00 6.890634e+00 3.144498e+00 6.982495e+00 2.586342e+00 4.630608e+00 9.969771e-01 3.893562e+00 4.020053e+00 6.330873e+00 5.480514e-01 1.287163e-01 -4.181594e-01 -1.202723e+00 -1.423553e+00 1.815729e+00 -1.111198e+00 2.775334e-01 -1.119103e+00 8.492984e-01 -5.447814e-01 -1.679982e+00 -2.270589e-01 2.189814e-02 
-1.383113e+01 1.666753e+00 -1.109200e+01 4.656110e-01 3.622307e+00 7.817337e+00 4.088026e+00 5.335156e+00 5.315919e+00 4.418805e+00 4.808114e+00 2.230076e+00 6.114460e-01 8.261549e-01 -6.978136e-01 -1.466910e+00 -2.079274e+00 1.002493e-01 -2.141933e+00 -7.146847e-02 -4.289151e-01 -3.337918e-01 -8.854570e-01 -8.762390e-01 -7.591498e-01 2.915060e-02 
-1.376635e+01 -3.376669e+00 -1.265533e+01 -2.508173e+00 2.841980e+00 3.285455e+00 6.823587e-01 -3.452808e+00 1.689447e+00 5.594474e+00 1.088003e+00 1.608715e+00 6.602413e-01 1.665755e+00 -4.319247e-01 4.924102e-01 -1.431041e+00 -2.113916e+00 -2.757025e+00 -1.498246e+00 -1.826203e+00 -8.394285e-01 -2.030421e+00 -6.698390e-01 3.788241e-01 7.985902e-03 
-1.126683e+01 -3.252949e+00 -1.154981e+01 -8.869376e-01 -2.678500e+00 -2.466344e+00 -1.232872e-01 2.458684e+00 -1.035638e-01 5.188453e+00 3.519457e+00 4.042770e+00 6.688098e-01 5.833096e+00 -1.180191e-01 2.214447e+00 7.391540e-01 -4.268465e+00 -3.841292e+00 -2.733893e+00 -1.561146e+00 -1.967546e+00 -2.672579e+00 -2.200777e+00 -1.293530e+00 -2.174696e-02 
-7.892623e+00 -2.025861e+00 -5.744985e+00 4.117060e-01 -4.274677e+00 -1.660788e+00 -2.799230e+00 -3.062172e+00 -4.904242e-01 -6.643368e+00 1.315187e+00 7.318647e+00 5.592990e-01 7.900886e+00 -3.218987e-01 2.755054e+00 8.856605e-01 -5.515563e+00 -3.719731e+00 -3.134187e+00 2.135561e-01 -1.201034e+00 -2.509703e+00 -1.662366e+00 -3.481737e+00 2.126874e-02 
1.239748e+01 4.012532e-01 -3.474940e+00 2.701442e+00 -1.416169e+01 -8.916000e+00 -7.840647e+00 -2.665895e+00 -3.431874e+00 -2.825169e+00 -6.309361e+00 -7.092539e+00 5.531824e-01 6.739745e+00 -1.780859e+00 2.014900e+00 3.650730e-02 -4.893931e+00 -2.751560e+00 -2.281662e+00 3.168425e-01 -3.015093e-01 -1.753966e+00 -1.810197e+00 -5.341006e+00 7.056224e-02 
1.390592e+01 -6.813264e+00 -2.917498e+00 1.259401e-01 -1.899424e+01 -1.208837e+01 -1.112990e+01 1.772614e-01 -2.651569e+00 -2.947232e+00 -2.309416e+00 -1.023232e+01 8.243987e-01 3.541148e+00 -3.176458e+00 7.585035e-01 -1.301182e+00 -3.682204e+00 -2.010477e+00 -1.138405e+00 1.728922e+00 1.504430e-01 -2.474203e-01 -7.346275e-01 -5.208591e+00 1.073063e-01 
1.153262e+01 -9.763542e+00 -2.889057e+00 -5.615182e-01 -1.978837e+01 -1.101035e+01 -7.366263e+00 2.423180e+00 -5.305378e-01 -5.429444e+00 -3.719228e+00 -1.388678e+01 8.890711e-01 -8.663395e-01 -3.529288e+00 5.981284e-01 -2.252653e+00 -7.297123e-01 6.958600e-01 6.266438e-01 2.614584e+00 6.305938e-01 -6.732861e-01 8.761017e-01 -1.772971e+00 9.630478e-02 
1.024555e+01 -1.282576e+01 -2.245409e+00 -4.462723e+00 -1.987235e+01 -1.066599e+01 -8.728446e+00 3.037899e+00 -1.188877e+00 -6.578332e+00 -3.653018e+00 -1.532719e+01 9.278864e-01 -9.992979e-01 -2.240861e+00 6.284223e-01 -2.223422e+00 8.050925e-01 1.962074e+00 1.394926e+00 2.802849e+00 2.594450e-01 -7.128086e-01 1.956576e-01 -4.714309e-01 4.450939e-02 
9.895969e+00 -1.423894e+01 -8.203419e-01 -6.267489e+00 -1.737119e+01 -6.147889e+00 -5.908154e+00 8.976708e+00 -1.010251e+00 -4.376050e+00 -1.257052e+00 -1.340996e+01 9.829624e-01 -4.406776e-01 -1.401099e+00 7.546886e-01 -1.821985e+00 1.335434e+00 2.008691e+00 1.247237e+00 2.437635e+00 1.012442e-01 -6.273883e-01 3.353834e-02 7.536537e-01 2.679071e-02 
9.727754e+00 -1.577987e+01 -8.097442e-01 -8.138186e+00 -1.617737e+01 -4.709238e+00 -4.884321e+00 1.091474e+01 -1.114487e+00 -7.037973e+00 -2.562216e+00 -1.282788e+01 1.000000e+00 -4.058987e-01 -4.004816e-01 6.211362e-01 -9.437702e-01 1.250849e+00 1.755756e+00 1.553585e+00 1.855137e+00 2.928727e-01 -6.496677e-01 -3.835305e-01 5.734375e-01 9.182597e-03 
9.588129e+00 -1.529198e+01 1.665534e-01 -7.833709e+00 -1.495870e+01 -3.945279e+00 -3.052141e+00 1.067293e+01 -6.151175e-02 -8.336565e+00 -4.096937e+00 -1.136816e+01 9.869679e-01 -4.494684e-01 7.915573e-02 4.270309e-01 -4.134145e-01 5.747350e-01 9.098734e-01 9.088599e-01 8.195076e-01 -3.228223e-02 -7.415268e-01 -5.715109e-01 -4.547662e-01 -6.633663e-03 
8.369975e+00 -1.430164e+01 3.668238e-01 -8.398464e+00 -1.482436e+01 -2.988519e+00 -2.388526e+00 1.146547e+01 -1.988831e-01 -7.846413e+00 -4.150728e+00 -1.348090e+01 9.717966e-01 -1.995010e-01 5.000570e-01 6.276975e-01 -7.567497e-02 4.564566e-01 8.158756e-01 5.620688e-01 1.036680e+00 -4.411425e-01 7.367307e-01 -2.267964e-01 -4.241014e-01 -1.392223e-02 
8.327517e+00 -1.458227e+01 7.265285e-01 -8.204422e+00 -1.517402e+01 -2.458881e+00 -2.611752e+00 1.279888e+01 -1.629464e+00 -7.679464e+00 -3.320351e+00 -1.535728e+01 9.638958e-01 -8.796468e-02 4.939756e-01 3.032186e-01 4.556932e-02 2.649340e-01 2.062910e-01 -1.297143e-01 1.050813e+00 -5.728223e-01 1.081397e+00 -5.455742e-02 -2.033842e-01 -1.307263e-02 
9.360555e+00 -1.363444e+01 2.048756e+00 -8.331203e+00 -1.378742e+01 -1.373058e+00 -2.294172e+00 1.503517e+01 -2.536224e+00 -3.682870e+00 -4.084491e+00 -1.295383e+01 9.419249e-01 1.924293e-01 3.721164e-01 1.167984e-01 1.808772e-01 1.691906e-01 -3.486412e-01 -6.012384e-01 9.426416e-01 -6.211957e-01 1.124938e+00 -2.697842e-01 4.931499e-01 -1.233895e-02 
8.653015e+00 -1.315571e+01 8.416803e-01 -7.639492e+00 -1.415249e+01 -3.721554e+00 -3.747890e+00 1.414215e+01 -1.756953e+00 -5.011354e+00 -4.402843e+00 -1.264862e+01 9.365406e-01 1.494189e-01 4.539157e-01 -7.138856e-02 2.369969e-02 4.605251e-01 -7.101002e-01 -7.562895e-01 4.999270e-01 -6.383516e-01 1.033075e+00 -3.633767e-01 7.639696e-01 -1.453792e-02 
9.169372e+00 -1.315434e+01 8.932396e-01 -7.776543e+00 -1.448917e+01 -4.100388e+00 -4.826649e+00 1.550705e+01 -3.241117e+00 -3.555779e+00 -4.958403e+00 -1.236948e+01 9.237795e-01 4.035864e-01 2.006668e-01 1.302482e-01 1.882406e-01 7.565992e-01 -8.428515e-01 -1.209282e+00 3.364783e-01 -6.031286e-01 1.285713e+00 -1.500189e-01 6.864480e-01 -1.922936e-02 
9.170202e+00 -1.255274e+01 9.473437e-01 -8.363255e+00 -1.252053e+01 -4.645717e+00 -5.126961e+00 1.506258e+01 -4.468775e+00 -2.577636e+00 -4.700279e+00 -1.182961e+01 9.002789e-01 1.151154e+00 -6.805535e-02 8.602735e-01 2.090718e-01 1.346721e+00 -4.893195e-01 -1.769148e+00 -6.162376e-02 -8.034489e-01 2.041456e+00 -1.138657e-01 1.182507e+00 -3.336463e-02 
1.111989e+01 -1.293258e+01 2.647165e+00 -7.028120e+00 -1.082041e+01 -5.125234e+00 -7.651047e+00 1.625734e+01 -4.195955e+00 1.528835e+00 -4.685868e+00 -9.931095e+00 8.639089e-01 8.323585e-01 1.145682e+00 4.044138e-01 1.475011e+00 2.722374e+00 -1.541373e+00 -4.849784e-01 -3.264351e+00 1.560730e+00 9.878464e-01 7.873067e-01 1.557649e+00 -5.811871e-02 
1.343353e+01 -1.360686e+01 4.266085e+00 -6.968345e+00 -9.253265e+00 -5.655729e+00 -1.118143e+01 1.345888e+01 -5.296779e+00 2.653616e+00 -5.108438e+00 -7.955273e+00 7.996527e-01 -4.593240e-01 3.643137e+00 -6.004868e-01 2.851703e+00 3.915527e+00 -2.456321e+00 9.241017e-01 -5.664050e+00 2.572361e+00 3.016610e-01 1.348907e+00 1.484499e+00 -8.762654e-02 
1.119950e+01 -6.898872e+00 1.255938e+00 -1.098942e+00 -2.510927e+00 -1.130225e+01 -4.224307e+00 -1.286030e-02 4.976533e+00 -1.232173e+00 -8.177893e-01 -6.518402e+00 6.834990e-01 -5.805685e-01 3.903762e+00 -5.681230e-01 3.455217e+00 3.939170e+00 -1.195137e+00 1.338917e+00 -6.052254e+00 2.583644e+00 -4.222531e-01 9.853069e-01 1.256580e+00 -1.083540e-01 
6.833778e+00 2.646087e+00 -1.359476e+00 2.930669e+00 2.902367e+00 -1.383882e+01 -2.219822e+00 -5.122570e+00 3.806786e+00 3.111728e-01 1.102185e-01 -6.113462e+00 5.523511e-01 -5.337743e-01 3.062087e+00 -5.714907e-02 3.200430e+00 2.678741e+00 6.728843e-01 9.945828e-01 -3.778492e+00 1.316429e+00 1.600084e-01 1.501987e-01 8.726624e-01 -9.879117e-02 
1.151692e+01 -1.540249e+00 2.619331e+00 5.298457e+00 2.797621e+00 -7.009373e+00 -5.437263e+00 -4.713202e+00 4.170481e+00 5.887914e-01 -2.368662e+00 -4.569099e+00 4.457896e-01 4.901431e-01 6.077797e-01 6.880434e-01 1.798471e+00 4.576413e-01 1.928916e+00 -6.841646e-01 3.320866e-01 -1.005673e+00 4.651518e-01 -7.819808e-01 5.722642e-01 -5.981807e-02 
1.060594e+01 -9.757395e-01 3.298643e+00 5.835105e+00 1.486166e+00 -4.437745e+00 -5.602036e+00 -3.083411e+00 1.688391e+00 2.543176e+00 -3.582009e+00 -4.566612e+00 4.245515e-01 1.155923e+00 -1.698676e+00 1.365525e+00 4.757410e-01 -1.420465e+00 1.320975e+00 -7.555254e-01 1.484994e+00 -3.691652e-01 1.211738e-01 -5.656117e-01 3.684458e-01 -9.093839e-03 
1.176414e+01 -2.049061e+00 2.367095e+00 6.441193e+00 4.853802e-01 -6.358203e+00 -5.954023e+00 6.279932e-01 1.007366e+00 -2.241564e-02 -2.881579e+00 -4.430506e+00 4.483085e-01 7.221332e-01 -2.078157e+00 1.323000e+00 -7.444015e-01 -2.406858e+00 2.999163e-02 -8.249432e-01 1.857823e+00 1.995527e-01 -5.325829e-01 7.059175e-01 -4.340740e-01 3.522472e-02 
1.248979e+01 -5.592889e+00 5.594270e+00 4.738006e+00 -3.043836e+00 -7.559524e+00 -5.739069e+00 -3.681993e-01 3.542517e+00 1.222645e+00 -2.461381e+00 -4.340530e+00 5.056225e-01 1.173793e+00 -2.976223e+00 2.585740e+00 -1.232607e+00 -3.285091e+00 4.231557e-01 -1.440579e+00 9.335426e-01 1.483539e+00 -1.115524e+00 4.344093e-01 -6.217909e-03 5.477386e-02 
1.418567e+01 -9.622461e+00 8.086519e+00 2.124999e+00 -6.971667e+00 -5.298525e+00 -9.493463e+00 3.218308e+00 4.241181e+00 -1.413858e+00 6.006120e-01 -6.852510e+00 5.813777e-01 1.011919e+00 -2.286114e+00 3.178293e+00 -5.715227e-01 -3.424463e+00 7.882251e-01 -9.713193e-01 -5.376825e-01 1.606012e+00 -2.517352e-01 -9.721376e-01 3.941758e-01 4.091976e-02 
1.526414e+01 -1.207015e+01 1.336763e+01 1.830166e+00 -1.121077e+01 -2.851805e+00 -1.103521e+01 2.891451e-01 7.489181e+00 -2.338721e+00 -3.151058e+00 -3.386700e+00 6.318862e-01 9.654511e-01 4.780646e-01 1.388198e+00 2.820795e-01 -2.093758e+00 1.201344e-02 1.993824e+00 -1.500047e+00 -1.226486e+00 -7.281517e-01 -1.886785e+00 6.310146e-01 -6.113422e-03 
1.543655e+01 -1.024100e+01 1.437188e+01 5.037500e+00 -1.255347e+01 -4.770937e+00 -8.162549e+00 -2.389091e+00 7.064093e+00 4.995918e-01 -7.397429e+00 -2.936543e+00 5.897754e-01 7.434548e-01 2.752916e+00 -6.304740e-01 3.857526e-01 -7.768726e-02 -1.423071e+00 4.735651e+00 -1.968899e+00 -4.210279e+00 -6.024916e-01 -1.160383e+00 6.233695e-01 -3.122118e-02 
1.669160e+01 -2.893296e+00 9.392583e+00 4.692153e+00 -1.072173e+01 -7.763251e+00 3.564596e+00 -5.064736e+00 -4.001368e+00 -3.374838e+00 -7.896285e+00 -3.143441e+00 4.708565e-01 5.610981e-01 3.372422e+00 -2.164745e+00 5.046226e-01 1.568266e+00 -1.854262e+00 4.406453e+00 -8.606014e-01 -5.375042e+00 -3.509137e-01 5.026124e-01 -2.822036e-01 -3.709564e-02 
1.718921e+01 -4.463091e-01 6.921674e+00 2.622768e+00 -7.604624e+00 -9.958158e+00 6.884887e+00 -3.949247e+00 -1.106494e+01 -3.908257e+00 -2.828688e+00 -3.857293e+00 5.057867e-01 6.242129e-01 2.664576e+00 -2.131090e+00 3.774121e-01 2.009422e+00 -7.047507e-01 1.780513e+00 -7.691264e-02 -3.789287e+00 -7.149071e-01 1.846388e+00 -7.849674e-02 -2.340773e-02 
1.719330e+01 -1.053894e-01 6.269009e+00 5.560645e+00 -5.843858e+00 -9.529505e+00 3.473338e+00 -3.233784e+00 -1.032151e+01 -1.889365e+00 -2.922366e+00 -4.337343e+00 4.884024e-01 2.476744e-01 1.418719e+00 -7.219626e-01 9.695945e-02 1.871860e+00 6.582128e-01 -1.382169e+00 5.754754e-01 -6.519963e-01 -2.386937e-02 1.816124e+00 1.030826e-01 -9.873008e-03 
1.830676e+01 1.687926e+00 5.278214e+00 6.490315e+00 -4.945290e+00 -7.411563e+00 7.856455e-01 -3.689130e+00 -8.722267e+00 -3.817680e+00 -6.524462e-01 -2.732075e+00 4.639639e-01 -7.027817e-02 1.484798e+00 -6.641245e-02 5.578402e-01 1.366492e+00 8.782161e-01 -8.517243e-01 -4.366458e-01 2.639680e-01 7.058967e-01 1.131541e-01 3.074691e-01 -2.078152e-02 
1.737120e+01 3.133182e+00 6.604500e+00 3.243177e+00 -2.692091e+00 -5.745485e+00 -2.966294e-01 -2.317418e+00 -8.432683e+00 -3.539474e+00 9.621349e-02 -3.190637e+00 4.424029e-01 -4.196139e-01 1.974177e+00 4.091200e-01 2.269545e-01 1.300652e+00 1.017755e+00 9.642553e-01 -9.346806e-01 -5.953590e-01 2.240085e-01 -5.154527e-01 3.486621e-01 -2.227173e-02 
1.674887e+01 5.358396e+00 6.421866e+00 6.570703e+00 -2.348050e+00 -7.459089e+00 4.511249e+00 -6.590660e+00 -1.068951e+01 4.462798e-01 -3.772208e+00 -2.893300e+00 4.248788e-01 -1.338187e+00 1.538141e+00 9.854430e-01 1.556722e+00 1.959671e+00 1.569876e+00 2.022660e+00 -1.275625e+00 -7.716604e-01 -9.923059e-01 -1.801846e+00 4.242254e-01 -2.876008e-02 
1.587418e+01 7.930259e+00 7.742783e+00 6.655223e+00 -6.392198e-01 -4.416970e+00 6.431814e+00 -6.456422e+00 -1.231469e+01 -2.901303e+00 -3.939749e+00 -2.513420e+00 3.965862e-01 -2.139200e+00 9.067038e-01 1.221310e+00 2.193893e+00 2.230537e+00 1.753407e+00 2.259247e+00 -2.736827e-01 5.957603e-01 -9.390639e-01 -1.616446e+00 3.887241e-01 -4.741611e-02 
1.236434e+01 6.980093e+00 9.636288e+00 1.256790e+01 3.826631e+00 -2.264400e-01 7.534723e+00 -7.997750e+00 -1.063957e+01 -9.098295e+00 -7.643695e+00 -9.495567e-01 3.430718e-01 -2.641015e+00 1.380014e-01 1.103833e+00 1.373057e+00 2.175762e+00 3.225557e+00 2.367331e+00 8.080393e-01 5.910394e-01 -5.452003e-01 -6.045300e-01 -3.536091e-02 -7.357795e-02 
8.867465e+00 6.855852e+00 1.110384e+01 1.121404e+01 5.373254e+00 -5.947723e-01 9.487869e+00 -2.982286e+00 -5.478853e+00 -3.462506e+00 -6.050274e+00 -2.218888e+00 2.462258e-01 -2.536161e+00 -4.647647e-01 -2.729096e-01 1.836431e-01 1.754836e+00 1.304863e+00 9.447611e-01 1.700466e+00 1.883961e+00 5.210480e-01 2.268758e-01 3.567373e-01 -1.021755e-01 
7.047152e+00 6.585606e+00 1.026050e+01 1.115658e+01 5.524523e+00 6.757597e+00 1.481988e+01 -4.287532e+00 -1.115223e+01 -1.999120e+00 -5.739595e+00 -3.217371e+00 1.321692e-01 -2.109316e+00 -8.821535e-01 -2.432393e+00 -1.394087e+00 4.961265e-02 -6.901088e-02 1.250424e-01 2.518017e+00 1.794953e+00 1.042795e+00 1.241626e+00 7.319685e-01 -1.011883e-01 
5.851966e+00 5.803679e+00 6.066128e+00 8.279100e+00 7.286015e+00 -1.384672e+00 7.513042e+00 1.907964e-01 -2.638548e+00 -3.845650e+00 -3.757420e+00 4.041735e-01 -8.840203e-03 -1.978393e+00 -1.546741e+00 -3.600106e+00 -1.664643e+00 -3.285941e-01 -5.691334e-01 -1.727490e+00 1.461091e+00 5.881451e-01 -2.832648e-01 4.986932e-01 7.420931e-01 -7.265800e-02 
3.325508e+00 3.095412e+00 -6.820917e-03 7.064934e+00 3.118314e+00 -1.765447e-01 9.147348e+00 3.005795e+00 -3.084954e+00 -3.692747e+00 -2.581993e+00 1.398755e+00 -3.533685e-02 -1.880517e+00 -1.935944e+00 -3.355850e+00 -2.674404e+00 -3.565410e-01 -7.324876e-01 -1.825516e+00 1.343715e+00 1.869568e+00 -3.836521e-01 3.279541e-01 1.099143e+00 -4.027876e-02 
8.363209e-01 8.672453e-01 -1.763028e+00 4.936651e+00 4.933388e+00 2.663136e-02 3.686682e+00 6.765077e-01 -6.571767e+00 -4.032016e+00 -5.135609e+00 -8.164850e-01 -3.331113e-02 -1.312784e+00 -1.831027e+00 -2.063961e+00 -2.153782e+00 1.398882e-01 1.146503e+00 -4.635092e-01 -5.799783e-01 5.111257e-01 1.381418e+00 6.539435e-01 1.111202e+00 -1.545653e-02 
1.523895e-01 -6.258969e-01 -2.604169e+00 -5.442188e-01 4.918132e+00 2.389508e+00 7.605476e+00 2.188186e+00 1.622146e-01 -3.824197e+00 -3.410730e+00 2.888674e+00 -5.698907e-02 -3.212477e-01 -1.693543e+00 -8.062128e-01 -1.691076e+00 1.365113e+00 1.584210e+00 -1.217250e+00 -1.372130e+00 1.817522e+00 7.149679e-01 1.568145e+00 4.968408e-01 -7.303357e-04 
8.746052e-01 -1.490803e+00 -2.955003e+00 1.314765e+00 7.085547e+00 3.064819e+00 5.966433e+00 -2.300291e+00 -1.706504e+00 3.127165e+00 -7.333425e-02 5.215223e+00 -7.529676e-02 2.387383e-01 -5.191521e-01 1.709042e-01 -6.824325e-01 1.023845e+00 8.991580e-01 -1.461432e+00 -1.209471e+00 1.704362e+00 3.674125e-01 2.832404e+00 2.917993e-01 9.310246e-05 
1.700128e+00 -4.193280e+00 -3.441897e+00 4.204998e-01 8.867798e+00 6.225409e+00 1.921226e+00 -2.366454e+00 3.570025e+00 -3.697498e+00 2.727596e+00 8.671045e-01 -1.799572e-02 9.964085e-02 6.403309e-01 4.099342e-01 1.161179e-01 3.201400e-01 -5.873603e-01 -3.223445e+00 -8.234608e-01 -7.261916e-01 6.636224e-02 1.572100e+00 -8.419099e-01 -3.519916e-03 
1.256144e+00 5.517614e-02 -4.896423e-01 1.042129e+00 8.077780e+00 2.604471e+00 -7.783499e-01 -3.093530e+00 2.461363e-01 -2.258303e+00 5.957250e+00 1.653296e+00 -5.234230e-02 -4.962734e-01 8.824034e-01 7.984026e-01 -2.880894e-01 -3.582719e-01 -3.829668e-01 -1.169508e+00 7.497071e-01 -8.120758e-01 -6.826111e-01 1.874049e-01 -2.846644e-01 -7.105374e-03 
4.598246e-01 1.802768e+00 -1.787178e+00 1.726890e-01 6.022715e+00 -3.171196e-01 -5.139359e+00 -1.532499e+00 -4.445064e+00 -7.996519e-01 1.434478e+00 4.600881e-01 -8.606589e-02 -4.087801e-01 1.267564e+00 8.542129e-01 1.526778e-02 -8.696557e-01 -4.240846e-01 2.555279e-01 6.648922e-02 -1.504066e+00 1.249565e+00 -2.838088e-01 -8.633165e-02 -1.372795e-02 
-9.866104e-01 -7.681048e-02 2.096502e-01 -1.776457e-03 6.716729e+00 4.421249e+00 3.649184e+00 1.031267e+00 -1.759338e+00 -1.734813e+00 1.510249e+00 3.995409e+00 -7.678854e-02 -8.285675e-02 9.596236e-01 9.149664e-01 5.324563e-01 -1.505889e-01 1.036124e+00 1.687254e+00 6.593062e-01 -1.405118e-01 1.042371e+00 -7.318614e-01 -6.123969e-01 -8.897841e-03 
7.776041e-01 2.210533e+00 4.795208e-01 1.018791e+00 5.200045e+00 3.196597e+00 9.850979e-01 -4.096406e+00 -2.947566e+00 2.288584e+00 3.532053e+00 -7.356101e-01 -7.441235e-02 2.198658e-01 1.178391e+00 4.920802e-01 -5.104495e-01 -5.596659e-02 1.562025e+00 1.788572e+00 2.174100e-01 9.780365e-01 5.954930e-01 -1.621996e-02 -8.910069e-01 -3.059542e-03 
6.829700e-01 4.649412e+00 2.951840e+00 3.281359e+00 7.736171e+00 6.028231e+00 4.595692e+00 1.484954e+00 -1.205171e+00 1.409435e+00 1.249156e+00 -8.108391e-01 -1.026583e-01 -8.842592e-02 7.849057e-01 -2.659076e-01 -9.091886e-01 -8.082558e-01 -4.949321e-01 -1.860184e-01 3.899334e-02 3.354183e-01 -9.648159e-01 -1.541493e-01 -2.424181e-01 -5.656505e-03 
7.243633e-01 5.331614e+00 -6.978722e-01 -4.021126e+00 5.233161e+00 6.689513e+00 3.330245e+00 -6.722928e-01 1.680355e-01 6.056889e-01 1.483925e+00 -1.591823e+00 -8.842874e-02 -4.798284e-01 1.451270e-01 -5.226327e-01 -1.132927e+00 -6.017354e-01 -2.094630e-01 2.086822e-01 9.940450e-01 4.418686e-01 -2.068247e+00 -6.578559e-01 3.793752e-01 -7.942068e-03 
-1.402120e+00 2.287178e+00 -5.311912e-01 -2.027761e+00 2.658892e+00 2.001305e-01 1.546518e+00 -4.858230e-01 -1.640048e+00 -5.717445e+00 1.763566e+00 3.211425e+00 -9.806287e-02 -4.471043e-01 -1.334707e-01 -7.650712e-01 -1.244141e+00 -1.426376e+00 -9.922479e-01 -4.424582e-01 -6.223940e-01 -4.301070e-01 -3.839572e-01 8.059443e-01 1.221989e-01 -4.047382e-03 
-5.789928e-01 4.117285e+00 -3.921270e-01 -1.991282e+00 4.730008e+00 5.063332e+00 3.553096e+00 1.859208e+00 -5.207851e-01 -4.489211e+00 -1.443213e-02 -8.498660e-01 -1.164204e-01 -1.354304e-01 4.611040e-01 -3.554881e-01 -5.161586e-02 -2.322706e-01 -2.189022e-01 8.376335e-01 4.138921e-01 -1.460669e-01 9.766828e-01 -1.243185e-01 -2.287257e-01 -9.127247e-03 
-9.008732e-01 4.589223e+00 -1.026388e+00 -3.954268e+00 8.558650e-01 1.880082e+00 2.271976e+00 -2.892766e+00 -3.011296e+00 2.037098e+00 6.028056e+00 -5.708228e-01 -1.088994e-01 -1.794898e-01 8.434025e-01 -8.858204e-03 3.946658e-02 7.540783e-01 5.853244e-01 1.439711e+00 3.656539e-01 2.819586e-03 1.855260e+00 -3.399837e-02 2.228558e-02 -7.015490e-03 
-2.034121e-01 6.486111e+00 -2.227714e+00 -3.315952e+00 4.973322e+00 4.755026e+00 7.155684e+00 2.600639e+00 1.233251e-01 1.611831e+00 -1.269912e+00 -8.443271e-01 -1.286467e-01 -4.334071e-01 3.774043e-01 3.029443e-01 3.381090e-01 7.236524e-01 -7.280942e-02 -2.239781e-01 3.251402e-01 -2.102136e-01 1.152981e+00 8.970512e-01 1.024551e+00 -7.506716e-03 
-2.487359e+00 5.319777e+00 3.423113e-01 -1.168093e+00 6.307626e+00 3.280906e+00 6.943780e+00 9.717308e-01 -1.948005e+00 5.083357e-01 2.221314e+00 3.320083e+00 -1.270272e-01 -2.587264e-01 1.966490e-01 3.035453e-01 6.366608e-01 1.347328e-01 -2.885234e-01 -1.344511e+00 6.668034e-01 3.870119e-01 -2.232393e-01 1.605912e-01 8.277264e-01 -5.260587e-04 
-1.952785e+00 5.639029e+00 4.382447e-01 -1.693825e+00 5.622389e+00 3.998873e+00 9.730291e-02 1.552660e+00 -2.103499e+00 2.040077e+00 6.374195e+00 2.327436e+00 -1.448901e-01 -3.615432e-01 -2.837812e-01 6.742908e-01 1.471861e-01 -8.176405e-01 -8.415888e-01 -1.808921e+00 -1.299751e+00 4.571734e-02 8.364415e-01 1.017289e+00 4.721951e-01 3.244781e-03 
-1.319818e+00 5.996009e+00 -8.416413e-01 -1.582028e+00 1.204996e+00 8.155413e-01 -9.213901e-01 9.652401e-01 3.717518e-02 7.067792e-01 3.008958e+00 1.981927e+00 -1.034080e-01 -2.551716e-01 -6.807859e-02 1.110561e-01 2.648966e-01 1.415318e-01 -3.118703e-02 -5.458119e-01 -7.796806e-01 1.318167e+00 5.457542e-01 -9.182729e-01 -1.218775e+00 6.215894e-03 
-2.594898e+00 4.729089e+00 1.735716e+00 -2.373054e+00 3.436435e+00 1.779764e+00 2.043664e+00 -3.894870e+00 -6.406784e-01 5.694818e+00 3.422712e+00 2.185727e+00 -1.242324e-01 -2.831651e-01 1.320866e-01 5.389622e-02 1.092278e-01 1.062839e+00 3.013017e-02 1.082743e+00 -2.732992e-01 1.623713e+00 1.968102e-01 -1.185114e+00 3.851582e-01 3.688753e-03 
-3.442161e+00 5.434354e+00 2.488561e-01 4.960046e-01 8.108262e+00 4.234525e+00 3.241540e+00 -2.029072e-01 3.911419e+00 1.409737e+00 -8.943087e-01 -2.702936e+00 -1.062765e-01 -4.076939e-02 4.202442e-01 5.134303e-01 -2.433464e-01 1.377064e+00 1.313052e+00 8.155288e-01 1.885318e-01 1.703338e+00 1.090847e+00 -3.998000e-01 7.827757e-01 -4.238486e-03 
-2.307440e+00 6.580289e+00 1.624771e-01 -2.186702e+00 7.484951e+00 2.440032e+00 3.429551e+00 7.702380e-01 4.077947e+00 2.672649e+00 2.400258e+00 6.595659e+00 -1.250120e-01 2.949887e-01 4.993814e-01 9.184059e-01 -1.428966e-01 -3.573076e-01 4.671187e-01 -3.795442e-01 -4.034296e-02 4.943043e-01 -1.076994e-01 -7.054654e-01 8.785742e-01 -7.205463e-03 
-1.667395e+00 7.171630e+00 2.512130e+00 -2.891936e+00 6.066058e+00 7.050670e+00 2.463310e+00 -4.246547e-01 6.194551e+00 7.672099e+00 1.521186e+00 3.690839e+00 -1.242106e-01 3.169748e-01 1.623077e-01 1.492814e+00 -2.986007e-01 -1.568848e+00 -2.787225e-01 -8.307457e-01 -1.232156e+00 -9.832953e-01 5.832951e-02 -4.548727e-01 8.955343e-01 -1.163130e-02 
-2.007338e+00 6.357358e+00 5.196109e+00 -1.393567e+00 2.670999e+00 2.707286e+00 5.350580e-01 -3.985711e+00 6.892773e-01 2.025139e+00 -1.312362e+00 3.381710e+00 -1.512927e-01 2.602615e-02 -1.260133e-01 1.275124e+00 3.084640e-01 -1.302296e+00 -3.808877e-01 -7.717239e-01 -1.307295e+00 -1.228261e+00 -6.941980e-01 -1.025879e+00 -6.737028e-01 -7.964337e-03 
