-1.052794e+01 2.766813e+00 -5.222794e-01 -2.569537e+00 6.589344e+00 4.387757e-01 8.493281e+00 9.219996e+00 1.128410e+01 9.498823e+00 4.028776e+00 4.019003e+00 -1.512927e-01 5.274383e-01 6.950687e-01 -1.753691e+00 -3.426390e-02 -2.632860e-01 -4.590326e-01 -5.797828e-01 -8.169778e-01 -1.679253e+00 -3.236036e+00 -3.024881e+00 -1.409645e+00 1.677189e-02 
-1.004570e+01 8.429997e-01 -3.587631e+00 -4.495138e+00 7.065532e+00 -1.067981e+00 5.128155e+00 2.583788e+00 7.172883e+00 1.475179e+00 -2.799667e+00 7.137115e-01 -1.512927e-01 9.457113e-01 7.221127e-01 -2.789262e+00 -1.455423e+00 -1.487495e+00 -9.030794e-01 -1.257450e+00 -1.362352e+00 -2.548536e+00 -3.719649e+00 -2.625924e+00 -1.720151e+00 1.479559e-02 
-8.131874e+00 7.204064e+00 -7.758060e+00 -1.778056e+00 5.034820e+00 -1.103009e+00 7.276930e+00 8.453212e+00 4.943443e+00 -2.669533e+00 -7.681405e+00 -1.376577e+00 -6.743324e-02 1.898823e+00 8.531586e-01 -2.525362e+00 -1.664050e+00 -6.076951e-01 -6.329091e-01 -1.083870e+00 -6.537907e-01 -3.188862e+00 -3.871161e+00 -2.241205e+00 -2.971330e+00 3.204823e-03 
-6.997420e+00 4.158751e+00 -1.085070e+01 -1.024239e+01 -7.086849e-02 -3.305729e+00 2.814206e+00 2.791628e+00 1.711747e+00 -3.015244e+00 -3.245751e+00 -1.883961e+00 -1.192445e-01 2.221502e+00 8.542929e-01 -9.778797e-01 -9.129353e-01 -6.112756e-01 -4.330346e-01 3.507230e-01 8.502817e-01 -1.848659e+00 -2.245204e+00 1.652796e-01 -1.065523e+00 -4.784965e-03 
-2.557967e+00 5.374730e+00 -9.517555e+00 -8.016162e+00 7.119068e+00 -1.606896e+00 4.230906e+00 5.847123e+00 -1.929641e+00 -7.611772e+00 -6.954206e+00 -9.538810e+00 -1.512927e-01 1.557931e+00 -2.811764e-01 9.045749e-01 3.855250e-01 9.225817e-02 7.044053e-02 1.562723e+00 4.978325e-01 -7.994555e-01 -1.127357e+00 1.085655e+00 -1.979460e-01 -1.750236e-02 
-1.725141e+00 6.029131e+00 -7.597283e+00 -5.940761e+00 2.967030e+00 -2.981210e+00 8.404783e+00 8.138241e+00 1.366130e+00 -7.279724e+00 -2.336869e+00 -5.327877e-01 -1.332878e-01 5.154260e-01 -5.027024e-01 1.469866e+00 1.813574e+00 -1.931208e-01 -1.379408e-01 2.489574e+00 2.153853e+00 1.722347e+00 7.128997e-02 9.170998e-01 1.081244e+00 -3.445768e-03 
-2.978356e+00 4.862992e+00 -4.861895e+00 -2.001246e+00 3.977161e+00 -9.130657e-01 1.229525e+01 8.269068e+00 1.118974e+00 -6.174077e+00 -2.707570e+00 -3.041894e+00 -1.479234e-01 -9.116700e-01 -1.235345e+00 8.627640e-01 2.528598e-01 -9.942362e-01 -4.523798e-01 7.601171e-01 5.293534e-01 1.997444e+00 1.646490e+00 5.932422e-01 2.247404e+00 -4.870176e-04 
-4.210095e+00 1.901108e+00 -5.829201e+00 -4.181979e+00 5.344810e-01 -4.342348e+00 1.122990e+01 1.234992e+01 8.799177e+00 -3.377641e+00 -7.835698e-01 2.737992e-01 -1.381580e-01 -9.950792e-01 -5.408252e-01 8.488542e-01 6.394110e-02 1.904216e-01 -3.965787e-01 -8.265103e-01 -4.313754e-01 5.143661e-01 1.855151e+00 -1.723836e-01 5.096651e-01 -3.937912e-03 
-5.873840e+00 1.262019e+00 -6.087776e+00 -7.631253e+00 3.364162e+00 -3.188226e+00 6.618932e+00 6.388051e+00 4.341057e+00 -1.330366e+00 -4.764644e+00 1.294914e+00 -1.512927e-01 -9.884852e-01 5.365586e-01 8.301353e-01 3.702646e-02 1.016690e+00 -8.854809e-01 -2.211709e+00 -1.201295e+00 1.080161e+00 2.342004e+00 -2.328615e-01 -3.462263e-01 -1.987338e-03 
-5.252795e+00 5.125492e+00 -2.740071e+00 -2.806052e+00 4.225637e+00 -3.826524e+00 7.110394e+00 6.921872e+00 2.326920e+00 -4.258264e-01 -2.170249e+00 -1.528660e-01 -1.512927e-01 -1.001585e+00 8.668885e-01 7.639998e-01 2.319689e-01 1.531273e+00 -1.256186e-01 -2.456127e+00 -2.147106e+00 -3.827642e-01 2.428834e+00 1.178539e+00 -4.763509e-01 -2.626944e-03 
-7.399432e+00 5.933593e+00 -2.255783e+00 -2.504077e+00 7.215031e+00 -5.598382e+00 3.296462e+00 4.976618e+00 9.755910e+00 4.060037e+00 -3.178538e+00 -4.559692e+00 -1.512927e-01 -9.294888e-01 2.872507e-01 4.363553e-01 3.887629e-01 7.823123e-01 3.742035e-01 -7.780842e-01 -1.420276e+00 4.644728e-02 1.173066e+00 2.061181e+00 1.753556e-01 0.000000e+00 
-8.455223e+00 3.899764e+00 -3.925198e+00 -5.585723e+00 6.265413e+00 -3.765363e+00 6.104994e-01 2.320108e+00 4.177930e+00 6.071326e+00 4.316072e+00 8.193479e-01 -1.512927e-01 -1.021079e+00 -5.632061e-01 -2.700140e-01 -4.088634e-01 3.101264e-01 -3.500957e-01 -5.312256e-01 -2.358091e+00 -6.735910e-01 5.348492e-01 1.572544e+00 1.731703e+00 0.000000e+00 
-8.920071e+00 3.311136e+00 -3.313436e+00 -4.297603e+00 6.255836e+00 -1.347789e+00 5.978458e+00 1.587552e+00 3.647788e+00 1.286390e+00 2.298100e+00 1.685585e+00 -1.512927e-01 -7.649819e-01 -7.122265e-01 -7.894291e-01 1.782629e-01 -9.313172e-01 1.896550e-01 -2.401723e-01 -2.066945e+00 -2.296718e+00 -7.539128e-01 1.074907e+00 1.202113e+00 5.742049e-03 
-9.597872e+00 3.620689e+00 -3.561314e+00 -3.953606e+00 6.255867e+00 -7.702298e+00 3.113267e+00 -3.174048e+00 2.013025e+00 3.635243e+00 2.954152e+00 5.383008e+00 -1.512927e-01 -4.155073e-01 -6.439638e-01 -4.763378e-01 5.611048e-01 5.386475e-01 7.036217e-02 -4.749382e-01 -5.597972e-01 -1.886252e-01 -8.913761e-01 -1.407731e+00 -1.312751e+00 2.871025e-03 
-1.065302e+01 2.511998e+00 -6.384871e+00 -2.428821e+00 2.563219e+00 -2.681639e+00 8.442163e-01 -2.611029e+00 -6.452278e-01 1.508515e+00 2.876955e+00 -8.309568e-01 -1.225824e-01 3.604561e-01 -1.552214e-01 -3.082597e-01 7.617718e-01 1.611683e+00 9.369429e-01 -7.775275e-01 9.874413e-02 5.339225e-01 -3.945629e-01 -1.739230e+00 -1.857473e+00 0.000000e+00 
-9.666286e+00 1.079514e+00 -4.771170e+00 -3.714590e+00 1.080496e+01 -2.746627e+00 8.029294e-01 1.620412e+00 5.381312e+00 1.503383e+00 -3.012012e+00 -4.486138e+00 -1.512927e-01 1.365831e+00 7.347893e-01 -1.249918e-01 4.205574e-01 1.290218e+00 1.459487e+00 -6.307694e-01 8.877786e-01 1.435898e+00 -6.899309e-03 1.528644e-01 -3.694519e-01 -2.871025e-03 
-7.083582e+00 3.805617e+00 -4.249806e+00 -6.082520e-01 1.203970e+01 8.590896e-01 3.245989e+00 -3.159572e-01 4.633257e+00 3.795053e-01 -3.414967e+00 -2.667205e+00 -1.512927e-01 1.740048e+00 9.620014e-01 4.510488e-01 1.192453e-01 8.387613e-02 4.158625e-01 6.233860e-01 -1.428850e-01 -5.421756e-01 -6.709529e-01 5.745400e-01 4.154732e-01 4.481077e-04 
-4.553436e+00 6.647826e+00 -5.253805e+00 -2.761103e+00 7.968718e+00 -2.175228e+00 -1.241467e+00 1.173094e-01 6.553275e+00 4.165251e+00 6.864435e+00 4.453873e+00 -1.512927e-01 1.139304e+00 9.856296e-01 -1.283700e-02 -2.540994e-03 -6.400647e-01 9.729155e-01 3.946606e-01 -1.430159e-01 -2.171204e+00 -7.992888e-03 1.313722e+00 -7.652497e-01 2.373066e-02 
-4.509203e+00 4.537849e+00 -3.888309e+00 -2.309338e+00 4.400720e+00 -8.880262e-01 4.983345e+00 -2.573903e+00 -3.942087e+00 -3.177183e+00 8.114315e-01 -3.223596e+00 -1.203419e-01 -2.450800e-02 2.241388e-01 -1.450755e-01 1.455130e-01 -1.959124e-01 -5.767131e-01 -1.552214e-01 3.713661e-01 -2.950789e+00 -3.981203e-01 3.053869e-01 -7.995056e-01 5.084171e-02 
-5.256957e+00 5.641545e+00 -5.016104e+00 -2.876752e+00 1.142413e+01 2.991509e+00 1.907555e+00 2.034305e+00 -1.187037e+00 3.241763e+00 1.443401e+00 -8.034191e+00 -4.811478e-02 -1.441982e+00 -6.965941e-01 3.887365e-01 1.185740e+00 1.855007e-01 -7.771276e-01 1.391701e+00 7.639643e-01 -1.451830e+00 -1.097895e+00 -2.171158e+00 -7.989303e-01 9.090461e-02 
-6.854362e+00 5.429451e+00 -5.094035e+00 1.771374e-01 9.332436e+00 -4.607844e+00 8.953719e-01 5.823754e-01 -6.250534e+00 -1.149352e+00 8.224847e-01 -4.207005e-01 5.132693e-02 -2.190950e+00 -2.397768e+00 -4.772458e-01 4.545211e-01 -3.035619e-01 -1.411225e-01 1.477907e+00 2.208068e+00 1.291118e+00 -6.315993e-01 -8.970224e-01 5.549452e-01 1.171070e-01 
-1.059077e+01 2.719054e+00 -2.707260e+00 1.924358e+00 6.430364e+00 -4.200956e+00 7.761022e+00 2.358992e+00 4.483492e-01 -2.338138e+00 -3.996882e+00 -9.422269e-01 2.173960e-01 -2.451752e+00 -3.424570e+00 -8.532507e-01 -2.408655e-01 -1.615789e+00 4.481058e-02 1.396688e+00 1.112112e+00 1.336244e+00 -2.053652e+00 -9.150036e-01 1.930269e+00 1.238992e-01 
-1.279705e+01 -5.989746e+00 -7.428960e+00 -2.437287e+00 5.379791e+00 2.002594e+00 9.446146e+00 8.304095e+00 1.695809e+00 -3.545229e+00 -9.535390e-01 -3.994852e+00 3.324377e-01 -2.262980e+00 -2.643273e+00 -5.281719e-01 -9.424593e-01 -8.349751e-01 1.619346e+00 -6.101670e-02 5.696481e-01 2.631415e+00 -4.189400e-01 -9.106531e-01 7.098810e-01 1.176995e-01 
-1.454437e+01 -5.771704e+00 -8.114895e+00 -2.773867e+00 5.321502e+00 -8.965731e-02 4.615607e+00 3.734007e+00 1.521013e+00 -5.828560e+00 -2.243605e+00 3.404226e+00 4.308258e-01 -1.678113e+00 -8.330394e-01 8.727803e-02 -5.287067e-01 -1.457563e-01 1.158485e+00 -5.121155e-02 -5.523809e-01 1.495737e+00 3.867595e-01 3.453002e-01 1.622956e+00 1.014722e-01 
-1.619246e+01 -3.541534e+00 -5.031077e+00 -2.186047e+00 5.711991e+00 1.433236e+00 2.162996e+00 2.743109e+00 6.370208e+00 -1.498841e+00 -4.607419e+00 9.554780e-01 5.331094e-01 -6.559885e-01 1.549083e+00 1.940482e+00 1.357474e+00 1.070280e-01 -1.040082e-01 7.032005e-01 -1.875717e+00 4.408455e-01 3.179512e-01 9.607087e-02 -4.665468e-01 9.492855e-02 
-1.728363e+01 -2.670249e+00 -3.469811e+00 -8.447962e-01 5.535482e+00 1.876146e+00 1.114654e+01 2.377580e+00 5.589833e+00 -1.427535e+00 -4.434413e-01 4.697387e+00 6.244210e-01 1.363249e+00 1.965496e+00 2.091945e+00 1.425599e+00 1.690964e+00 -1.761026e-01 4.740338e-02 2.428114e-01 -6.410267e-01 3.878031e-02 5.027366e-03 -2.380840e+00 8.044206e-02 
-1.470736e+01 2.049400e-01 -4.909170e-02 3.385549e+00 5.807941e+00 4.996518e-01 9.696682e+00 -3.962752e-01 1.865626e+00 -4.155986e+00 -1.373267e+00 -6.974166e+00 7.102828e-01 3.880615e+00 2.184450e+00 2.125730e+00 1.119082e+00 1.359861e+00 6.205435e-02 -1.157495e+00 -2.337183e-01 -7.874382e-01 3.708002e-01 4.610658e-02 -1.856899e+00 3.592260e-02 
-8.470675e+00 2.182538e+00 -1.461616e-01 1.568331e+00 1.372835e+01 -5.033782e-01 1.085781e+00 6.517756e+00 5.681707e-01 -4.306086e+00 -3.835545e+00 -4.535152e+00 7.444494e-01 6.173012e+00 6.774824e-01 1.098524e+00 2.353193e-01 -2.940076e-01 -9.284598e-01 -3.503271e+00 -9.436819e-01 -8.338938e-01 1.019641e+00 1.080774e+00 -1.098775e+00 2.641385e-02 
-1.195857e+00 4.954322e+00 3.935750e+00 2.202800e+00 8.414864e+00 2.933270e+00 1.405900e+00 -4.955708e-01 4.943849e+00 1.794435e+00 -2.680835e+00 -3.712745e+00 6.527082e-01 5.865516e+00 -2.572930e-01 -6.992001e-01 -5.063111e-01 -1.337272e+00 -4.391944e-01 -3.463786e+00 -8.336746e-01 -1.458789e+00 1.376831e+00 2.856636e+00 6.084269e-01 8.640784e-03 
6.825683e+00 -1.657527e+00 3.038788e-02 9.231749e-01 2.761983e+00 -3.982962e+00 -2.224424e+00 -2.291182e+00 -1.187464e-01 6.954567e-01 5.614211e+00 -2.427199e+00 7.852775e-01 3.969014e+00 -3.936614e-01 -2.654195e+00 1.140249e+00 -3.041923e+00 -2.266829e-02 -1.167657e+00 -1.871942e+00 -2.410240e+00 5.084028e-01 3.181381e+00 9.678236e-01 -2.773271e-02 
6.972038e+00 8.385075e-01 -3.633367e+00 1.176572e+00 4.604761e+00 4.347157e-02 -5.967145e+00 -1.601793e-01 -5.084858e+00 2.273993e-01 8.185036e+00 -4.986008e+00 7.330726e-01 1.827513e+00 -2.114792e-01 -2.964250e+00 -7.820362e-01 -8.817312e-01 -9.229322e-02 -8.302636e-01 -1.175257e+00 -2.577480e+00 -2.091500e-01 4.038045e-01 1.823489e+00 -2.022425e-02 
7.290448e+00 2.272137e+00 -9.632579e+00 7.782689e+00 4.237833e-01 8.281797e-01 -1.065981e+00 -3.009650e+00 -6.468676e+00 -9.805540e-01 6.638423e+00 9.405971e-01 5.656036e-01 6.479105e-01 4.459643e-01 -1.796485e+00 -1.540905e+00 3.782456e-01 1.306049e+00 3.311390e-01 -1.441481e+00 -1.057953e+00 1.662803e-01 -1.891681e+00 1.790553e+00 -2.471945e-02 
7.709324e+00 1.932094e+00 -6.054017e+00 -5.137138e+00 5.175308e+00 6.623292e-02 -3.324640e+00 -6.012621e+00 -4.768587e+00 1.586691e+00 -1.173918e+00 3.720800e+00 6.614239e-01 1.573669e+00 -2.258803e-01 -1.198416e+00 -2.167234e+00 4.210545e-01 1.416220e+00 6.996631e-01 -2.423298e+00 4.346144e-01 1.208119e-01 -1.909169e+00 1.208756e+00 3.031439e-03 
9.696592e+00 2.550125e-02 -7.741711e+00 -3.624497e+00 4.367938e+00 2.535903e+00 -1.889982e+00 -6.572364e+00 -5.566645e+00 8.472124e-01 8.352834e-01 2.172164e+00 6.975047e-01 1.430085e+00 -4.108763e-01 -1.322336e-01 -3.193550e+00 8.408979e-01 1.661091e+00 8.457899e-03 -1.731203e+00 8.329002e-01 -8.537273e-01 -4.797636e-01 -1.571793e-01 2.981133e-02 
1.363731e+01 8.324243e-01 -1.057088e+01 -3.956007e+00 4.737956e+00 6.270713e+00 -2.056829e+00 -1.049531e+01 -3.362802e+00 -8.242452e-02 1.540759e+00 4.419905e-01 6.822793e-01 1.064288e+00 -1.928077e-01 -3.853028e-01 -1.515369e+00 3.902111e-01 1.323802e+00 2.533541e-02 -1.093062e+00 -4.859805e-01 -2.269179e-01 5.269020e-01 -7.931439e-01 1.667617e-02 
1.147688e+01 7.675908e-01 -8.035315e+00 -8.775628e+00 4.846949e+00 6.031396e+00 -1.657597e+00 -9.424317e+00 -3.007067e+00 -4.414633e+00 2.882267e+00 1.794105e+00 7.042326e-01 9.763756e-01 -1.385698e-01 -7.207457e-01 -1.103180e+00 8.309370e-01 5.805153e-01 -1.226767e+00 -1.389699e+00 1.362676e-01 2.736835e-01 -2.919154e-01 -5.342996e-01 2.469203e-02 
1.214062e+01 5.970103e-01 -7.833729e+00 -1.013842e+01 6.886858e+00 4.937496e+00 -3.314156e+00 -1.005196e+01 -8.478278e+00 3.083024e+00 4.370998e-01 -5.589008e-02 7.414408e-01 9.749392e-01 -4.625852e-01 -1.272791e+00 -1.986853e-01 1.627409e+00 -6.258225e-01 -1.384018e+00 -2.066799e+00 2.761532e-01 1.538574e+00 -2.724580e-01 -5.537403e-01 4.103416e-02 
1.532682e+01 -5.496405e-01 -1.271402e+01 -6.049192e+00 7.448172e+00 6.105088e+00 -7.395153e+00 -1.374254e+01 -2.327568e+00 6.329061e-01 -7.246374e-02 -2.503939e-01 7.913841e-01 1.605451e+00 -7.656155e-01 -2.206784e+00 1.776903e+00 1.262756e+00 -8.358678e-01 -1.555738e+00 -2.643947e+00 1.135194e+00 2.281234e+00 2.125050e-01 -8.119394e-01 4.504312e-02 
1.658704e+01 -8.218859e-01 -1.459549e+01 -6.312652e+00 1.157439e+01 3.104754e+00 -6.108139e+00 -1.867020e+01 -2.321785e+00 5.086676e+00 1.655834e+00 -1.304461e+00 8.438743e-01 1.003528e+00 -1.139901e+00 -1.521663e+00 2.397721e+00 6.671692e-01 -1.122441e+00 -1.606945e+00 -1.532977e+00 2.124092e+00 1.203553e+00 8.411843e-01 -4.593775e-01 4.123265e-02 
1.728092e+01 -2.351038e+00 -1.568836e+01 -1.803998e+00 8.816964e+00 2.768427e+00 -8.039297e+00 -1.833493e+01 -4.093457e-01 5.989712e+00 3.335424e+00 -1.641306e+00 8.782314e-01 9.886551e-02 -1.598656e+00 3.301275e-01 2.184145e+00 -4.654354e-01 -1.279768e+00 -1.817504e+00 6.138646e-01 1.704259e+00 1.047900e+00 5.956060e-01 -4.339324e-01 3.465865e-02 
1.618121e+01 -4.201795e+00 -1.395487e+01 -2.724071e-01 9.538309e+00 9.936196e-01 -1.102681e+01 -1.542064e+01 1.183070e+00 6.422384e+00 2.939077e+00 -1.657322e+00 9.041803e-01 -5.913620e-02 -2.299944e+00 1.476650e+00 3.005190e+00 -2.570800e+00 -7.538228e-01 -2.796647e+00 2.777860e+00 2.493209e+00 -8.837854e-01 3.536436e-01 -5.740699e-01 3.040938e-02 
1.602406e+01 -6.852968e+00 -1.138368e+01 1.851411e+00 6.139035e+00 7.618157e-01 -1.402334e+01 -1.229799e+01 4.441300e+00 5.204555e+00 2.263945e+00 -2.243626e+00 9.345244e-01 -1.413074e-01 -2.236415e+00 2.117617e+00 2.644541e+00 -3.442062e+00 -6.376822e-01 -2.696816e+00 3.268721e+00 2.691998e+00 -1.669657e+00 -3.829107e-01 -8.397325e-01 2.871906e-02 
1.691979e+01 -1.007064e+01 -9.364573e+00 6.885592e+00 5.935097e-02 3.389460e-01 -1.709935e+01 -7.799366e+00 7.718937e+00 1.060328e+00 3.959792e+00 -3.873651e+00 9.677747e-01 -7.352810e-02 -1.863943e+00 2.257760e+00 2.508468e+00 -4.425291e+00 -3.910193e-01 -2.097116e+00 3.190922e+00 2.285112e+00 -2.333172e+00 -2.914206e-01 -5.727338e-01 2.399732e-02 
1.620510e+01 -1.059869e+01 -7.395421e+00 7.839709e+00 -3.653869e+00 -9.264684e-02 -1.848710e+01 -5.801962e+00 9.782709e+00 3.224548e-01 9.105135e-01 -4.731804e+00 9.900295e-01 -8.408622e-02 -1.632711e+00 2.629467e+00 1.628800e+00 -4.215760e+00 -3.094677e-01 -1.535437e+00 3.412961e+00 6.964361e-01 -1.918880e+00 -5.916272e-01 4.790835e-01 1.595909e-02 
1.572305e+01 -1.164865e+01 -4.660209e+00 9.275784e+00 -7.691695e+00 -5.342456e-01 -1.928050e+01 -2.714050e+00 9.937926e+00 -2.802424e+00 2.158689e+00 -3.276901e+00 9.964144e-01 -4.576197e-01 -1.060665e+00 2.718295e+00 4.769281e-01 -3.419423e+00 -4.877987e-01 -4.972162e-01 3.373807e+00 -1.248262e+00 -3.708443e-01 -1.353641e+00 1.754786e+00 7.176906e-03 
1.620200e+01 -1.422752e+01 -5.885334e-01 8.800314e+00 -1.106424e+01 -3.489270e-01 -2.060995e+01 2.224156e+00 6.813987e+00 -2.458467e+00 2.063598e-01 -1.465830e-01 1.000000e+00 -7.126244e-01 -6.258005e-01 2.448371e+00 3.077181e-01 -3.011910e+00 -7.033032e-01 3.357481e-01 3.594926e+00 -2.857767e+00 8.122396e-01 -1.642233e+00 2.902708e+00 8.159459e-04 
1.463324e+01 -1.355955e+01 8.234577e-01 8.789930e+00 -1.333258e+01 -1.971908e+00 -1.852401e+01 5.056609e+00 2.961988e+00 5.965675e-01 -2.456335e+00 2.607667e+00 9.986740e-01 -9.700015e-01 2.645483e-02 1.992991e+00 4.624521e-01 -3.177049e+00 -1.638678e-01 1.061918e+00 2.548679e+00 -2.857864e+00 1.323744e+00 -1.670671e+00 2.805537e+00 -3.740573e-03 
1.318688e+01 -1.277224e+01 2.104604e+00 9.621225e+00 -1.589298e+01 -2.890332e+00 -1.718661e+01 8.287342e+00 -1.018156e+00 2.684157e+00 -4.993137e+00 6.839450e+00 9.929794e-01 -1.379950e+00 7.545311e-01 1.656099e+00 3.511659e-01 -2.618161e+00 -2.925938e-01 1.974848e+00 6.676542e-01 -1.706009e+00 6.517912e-01 -1.348322e+00 2.470103e+00 -5.406797e-03 
1.238060e+01 -1.224401e+01 3.958176e+00 1.117759e+01 -2.116257e+01 -8.288240e-02 -1.568258e+01 6.997754e+00 -4.353220e-01 1.244985e+00 -3.594918e+00 7.257766e+00 9.812218e-01 -1.126324e+00 6.867129e-01 1.989641e+00 2.433153e-01 -2.591425e+00 5.606409e-01 1.589465e+00 -4.677330e-01 -7.990547e-01 -4.413288e-01 -3.420253e-01 1.681477e+00 -7.410389e-03 
1.042856e+01 -1.111263e+01 6.124604e+00 9.362314e+00 -2.024005e+01 -2.756408e+00 -1.215642e+01 4.591855e+00 -1.740301e-02 4.762797e-01 -5.965956e+00 9.878881e+00 9.816921e-01 -8.587424e-01 8.828239e-01 2.098758e+00 -2.589315e-01 -1.767866e+00 5.146295e-01 1.623211e+00 -8.795090e-01 -8.276283e-01 -6.813820e-01 3.294466e-01 5.278999e-01 -1.332130e-02 
1.038078e+01 -1.095579e+01 8.761664e+00 1.013596e+01 -2.411617e+01 7.643356e-01 -1.309178e+01 4.565688e+00 -1.533661e+00 -5.061378e-01 -3.680052e+00 9.495337e+00 9.672657e-01 -7.640593e-01 8.728695e-01 2.167517e+00 -9.491647e-01 -3.956427e-01 1.804650e-01 1.258377e+00 -5.132097e-01 -1.583375e+00 -3.374904e-01 7.033852e-01 -3.060020e-01 -1.432814e-02 
9.893079e+00 -9.002232e+00 1.019665e+01 8.847382e+00 -2.325551e+01 -7.407933e-01 -1.036596e+01 5.105830e+00 -4.607127e+00 1.528088e-01 -3.303338e+00 8.360164e+00 9.333509e-01 -6.332390e-01 6.093324e-01 2.022540e+00 -8.984100e-01 -1.333404e-01 7.130386e-01 4.547710e-01 -3.619136e-01 -1.812670e+00 -5.252299e-01 1.351729e+00 -9.293085e-01 -1.109756e-02 
8.828049e+00 -8.934866e+00 1.275974e+01 6.689231e+00 -2.163306e+01 -1.883649e-01 -1.028593e+01 4.174717e+00 -6.057335e+00 -2.807308e-01 -1.409301e+00 6.487114e+00 9.337517e-01 -6.115670e-01 3.479330e-01 1.751730e+00 -8.586124e-01 2.023346e-01 3.986270e-01 6.179506e-01 -9.261900e-01 -1.306951e+00 -6.154965e-01 6.691570e-01 -5.205355e-01 -4.606557e-03 
8.038734e+00 -9.076435e+00 1.423827e+01 6.593630e+00 -2.214831e+01 1.285134e+00 -1.128549e+01 2.977772e+00 -6.818916e+00 -2.262573e+00 -3.426870e-01 6.736449e+00 9.429613e-01 -2.648741e-01 -1.953947e-01 1.787052e+00 -5.781244e-01 -2.436165e-01 4.493957e-01 5.825630e-01 -1.313961e+00 -8.508131e-01 -6.787421e-01 2.189233e-01 -7.856631e-02 4.093409e-04 
8.250116e+00 -9.179024e+00 1.549951e+01 6.969776e+00 -2.365810e+01 1.744506e+00 -9.542261e+00 9.987671e-01 -6.962523e+00 -2.375929e+00 -1.814592e+00 7.704516e+00 9.394277e-01 -1.642618e-02 -4.198513e-02 1.405778e+00 -2.764111e-01 -2.860249e-01 -4.306773e-02 1.070621e+00 -1.356609e+00 -6.291362e-01 -3.745838e-01 -1.733213e-01 -5.593805e-02 -6.510186e-03 
8.857675e+00 -9.857126e+00 1.776202e+01 5.816487e+00 -2.346107e+01 5.397494e-01 -7.824977e+00 1.240026e-01 -8.408599e+00 -2.193303e+00 -2.006075e+00 7.358631e+00 9.325596e-01 2.269248e-02 2.781879e-01 1.053547e+00 -3.699618e-01 1.671997e-01 -9.069190e-02 7.771806e-01 -7.482711e-01 -6.173151e-01 -6.545223e-02 -6.773300e-02 -6.198773e-01 -1.748279e-02 
8.336448e+00 -8.754446e+00 1.802675e+01 5.695748e+00 -2.240680e+01 -3.101104e-02 -6.663085e+00 -1.181441e+00 -8.408175e+00 -2.188285e+00 -1.444213e+00 5.896333e+00 9.064016e-01 -1.282206e-01 5.684850e-01 5.108688e-01 -1.979622e-01 4.867401e-01 5.425640e-01 -7.138634e-02 -3.955969e-01 -5.234699e-01 1.380388e-01 -1.298826e-01 -8.328212e-01 -2.377552e-02 
8.109032e+00 -7.897784e+00 1.824238e+01 5.380835e+00 -2.193796e+01 1.719434e+00 -8.839177e+00 3.265205e-01 -9.182666e+00 -2.683657e+00 -8.665414e-01 4.541154e+00 8.720604e-01 -2.976855e-01 1.034803e+00 -2.274210e-01 1.262096e-01 4.220148e-01 1.168466e+00 -1.830320e-01 -7.276061e-01 4.796829e-02 -5.720638e-02 -4.262699e-01 -5.848318e-01 -2.980197e-02 
7.983335e+00 -7.316270e+00 1.781367e+01 6.197791e+00 -2.198595e+01 3.867484e+00 -9.392093e+00 -1.080476e+00 -9.192839e+00 -1.440558e+00 -3.033772e+00 4.949148e+00 8.507997e-01 -2.048749e-01 1.505869e+00 -6.343724e-01 -2.516165e-02 5.500473e-01 1.019415e+00 3.447038e-01 -9.305696e-01 4.896156e-01 -2.932043e-01 -5.094495e-01 -3.975284e-01 -4.019579e-02 
7.545804e+00 -5.402201e+00 1.673146e+01 6.196514e+00 -2.156142e+01 4.432834e+00 -7.375633e+00 -3.564510e+00 -7.776425e+00 -2.853198e+00 -3.342645e+00 4.908064e+00 8.113507e-01 3.768593e-03 1.811513e+00 -1.394301e+00 6.812630e-01 6.504635e-01 -2.743235e-01 1.865034e+00 -9.041348e-01 1.596999e-01 2.009756e-01 -5.180608e-01 -2.362277e-01 -4.533479e-02 
7.593687e+00 -2.472892e+00 1.561035e+01 5.162100e+00 -1.984483e+01 3.709365e+00 -5.671338e+00 -3.888774e+00 -6.663217e+00 -3.569536e+00 -2.753408e+00 3.725236e+00 7.357776e-01 4.087149e-02 2.271032e+00 -1.503148e+00 7.871255e-01 1.544646e+00 -8.026232e-01 1.403183e+00 6.217642e-01 -1.194316e+00 2.597514e-01 1.257142e+00 -8.402700e-01 -5.712526e-02 
8.322699e+00 -1.261907e+00 1.237254e+01 9.304995e+00 -1.975620e+01 4.268755e-01 -1.374384e+00 -2.790005e+00 -9.648977e+00 -6.142899e-01 -3.597027e+00 3.971972e+00 7.028975e-01 -3.639750e-01 2.107051e+00 2.446191e-01 -3.534517e-01 2.164342e+00 -4.425945e-02 2.614013e-01 1.641141e+00 -9.176210e-01 5.941120e-01 1.198098e+00 -9.298282e-01 -6.538223e-02 
7.799245e+00 1.968742e+00 1.247739e+01 8.579178e+00 -1.516534e+01 1.857348e+00 -5.376804e+00 1.641092e+00 -1.422814e+01 -1.261255e+00 3.379131e+00 1.215844e+00 6.194000e-01 -1.143148e+00 2.076958e+00 2.500576e+00 -8.755056e-01 2.027929e+00 3.269882e-01 3.257639e-01 1.057688e+00 -2.839241e-02 7.557588e-01 8.272896e-01 -5.262381e-01 -7.650969e-02 
5.623149e+00 2.912239e+00 1.952103e+01 2.720716e+00 -1.307946e+01 5.137545e+00 -6.215894e+00 1.876260e+00 -8.582067e+00 -1.036778e+00 -4.184231e-01 1.513619e+00 5.426283e-01 -1.761418e+00 1.768332e+00 2.881109e+00 -1.235191e+00 2.764366e+00 8.475004e-01 2.435430e+00 1.576467e-01 5.365133e-02 -1.168248e-01 7.657509e-01 -3.044377e-01 -8.893187e-02 
3.227723e+00 5.824824e+00 2.453898e+01 4.076711e+00 -1.304356e+01 2.988971e+00 -1.621764e+00 -9.334668e-01 -7.338634e+00 4.205017e-01 -2.062623e-01 2.323221e+00 4.333637e-01 -2.211105e+00 4.620830e-01 1.268669e+00 -1.501905e+00 2.699843e+00 9.540243e-02 4.409716e+00 -9.725916e-02 9.581485e-01 4.481448e-01 2.599920e-01 -8.404635e-01 -7.616438e-02 
1.801369e+00 5.651710e+00 2.074729e+01 5.380271e+00 -6.995262e+00 4.098566e+00 8.925243e+00 -7.144924e-01 -1.282547e+01 -2.039292e+00 2.024424e+00 1.896095e+00 3.512564e-01 -2.451967e+00 -1.506025e+00 -2.517208e+00 -1.354908e+00 3.895679e+00 7.017136e-01 5.010812e+00 -2.254109e-01 2.691132e+00 7.747036e-01 2.003917e+00 -1.185880e+00 -5.069686e-02 
-1.345388e+00 2.909422e+00 1.820761e+01 -2.601266e-01 -4.708218e+00 2.853849e+00 9.101207e+00 2.450172e+00 -7.315696e+00 1.480726e+00 3.457668e+00 -3.177711e+00 3.342641e-01 -2.088020e+00 -2.968433e+00 -4.251570e+00 -3.598134e+00 1.935278e+00 4.004092e-02 1.373497e+00 -3.939755e-01 2.249486e+00 -2.641682e-01 2.122269e+00 -1.557043e+00 -3.961986e-02 
-4.350128e+00 -3.160184e+00 1.010068e+01 -1.885406e+00 2.231269e+00 8.713674e+00 1.347668e+01 -9.426144e-01 4.862125e+00 2.306628e+00 7.769197e+00 -1.665316e+00 3.386938e-01 -9.699124e-01 -2.385025e+00 -3.700624e+00 -3.118288e+00 -7.704115e-02 -2.003883e-01 -5.812352e-01 -1.367421e+00 2.566351e+00 3.412395e-01 1.406600e+00 -1.434719e+00 -4.291428e-02 
-4.136628e+00 -4.611394e+00 8.604437e+00 -1.028112e+01 -7.980435e+00 8.816218e-01 2.970000e+00 -2.789283e+00 -4.935005e+00 -3.073299e+00 7.532697e+00 -3.681289e+00 2.415457e-01 2.876893e-01 -9.366723e-01 -3.627037e+00 -1.478991e-01 -4.411415e-01 -5.797927e-01 2.462149e-02 -2.092252e+00 9.083272e-01 2.634087e-01 6.478294e-01 -7.488067e-01 -6.220714e-02 
-1.652573e+00 -2.513006e+00 7.045755e+00 -5.200671e+00 -5.744359e+00 4.082738e+00 9.084671e+00 -4.931870e+00 -1.184065e+00 1.943918e+00 7.019907e+00 -5.025708e+00 1.830441e-01 8.173910e-01 3.456439e-01 -3.108802e+00 9.942718e-01 -1.202564e+00 -2.333886e+00 -7.240967e-01 -2.563220e+00 -1.162750e+00 -2.688297e-01 -1.267750e+00 -3.821031e-01 -7.502197e-02 
-1.255719e+00 -2.097528e+00 1.599885e+00 6.580105e-01 -2.926111e+00 2.270354e+00 1.142032e+01 -6.016462e+00 2.490353e-01 2.979124e+00 7.071460e+00 -5.241548e+00 1.010532e-01 9.237700e-01 8.852590e-01 -3.400696e+00 1.857772e+00 1.787700e+00 -1.423146e+00 5.081016e-01 -1.525429e+00 8.257366e-01 3.563308e-01 -2.677988e+00 -3.394930e-01 -7.041855e-02 
-1.703627e+00 -2.688897e+00 -1.941057e+00 -2.383614e+00 -6.308713e+00 -3.650121e+00 5.631040e+00 -1.214512e+01 -3.543646e+00 -2.063732e+00 1.661066e+00 -2.795702e+00 3.383023e-02 5.670644e-01 9.790463e-01 -2.169102e+00 7.483697e-01 2.424297e+00 -1.673345e+00 -4.680002e-01 1.267897e+00 1.078942e+00 -4.980626e-01 -2.077369e+00 -2.697954e-01 -7.078584e-02 
5.077491e-01 -9.715343e-02 -3.905637e+00 -2.400789e+00 1.240241e+00 -2.367681e+00 7.237324e+00 -6.809801e+00 3.734685e-01 7.121797e-01 -3.177824e+00 -6.493757e+00 -3.594005e-02 5.085602e-01 1.400111e+00 -1.354671e+00 -4.138022e-01 3.230794e+00 -1.030666e+00 -8.148451e-01 3.767079e+00 1.144433e+00 -1.393970e+00 -2.305890e+00 2.886669e-01 -5.890034e-02 
3.010149e-01 1.382038e+00 -1.046994e+00 7.057714e-02 4.293950e+00 -1.964970e+00 8.836168e+00 1.804286e+00 4.148429e+00 5.870773e-01 1.757703e+00 -5.748581e+00 -1.023884e-01 -6.020389e-02 1.469562e+00 -1.107394e+00 2.983150e-01 3.346688e+00 -5.351325e-02 -1.841284e-01 4.630525e+00 1.938118e+00 -3.000595e-01 -8.592168e-01 4.483120e-01 -4.596449e-02 
2.847614e-01 2.867560e+00 -5.620503e+00 -2.638096e+00 7.926525e+00 -3.725553e+00 5.743531e+00 5.844229e+00 2.125162e+00 -5.316133e+00 -4.506307e+00 -2.321774e+00 -1.253392e-01 -1.177685e+00 1.688898e+00 2.748973e-01 -6.753365e-01 1.655645e+00 3.870277e-01 -8.253157e-02 2.204869e+00 1.156173e+00 -9.242819e-02 -2.970804e-01 1.168103e+00 -2.796096e-02 
-1.893153e+00 3.176555e+00 -6.620594e+00 -7.733850e-01 7.081584e+00 -3.238751e+00 5.457294e+00 4.680483e+00 5.271096e+00 -5.498734e-01 -1.970776e+00 -2.640134e+00 -1.512927e-01 -1.640861e+00 1.511828e+00 7.147908e-01 -1.159520e+00 9.859988e-01 1.270488e+00 4.478121e-01 1.733116e-01 1.884899e-01 1.239799e+00 -5.321897e-01 6.400897e-01 -1.237621e-02 
-4.283594e+00 7.450080e+00 2.556496e-01 -5.355490e+00 8.124649e+00 2.043486e-01 8.514103e+00 2.776445e+00 5.593002e+00 8.185140e-01 -2.798987e+00 -2.207467e+00 -1.512927e-01 -1.631603e+00 1.274551e+00 1.929728e+00 2.889260e-01 5.123101e-01 1.545976e+00 1.120528e+00 -1.192516e+00 -2.901867e-01 1.557163e+00 6.903862e-01 1.883255e-01 -5.190706e-03 
-5.619113e+00 6.649920e+00 -4.111167e-01 -4.368327e+00 9.124882e+00 2.422519e+00 9.689943e+00 4.204735e+00 3.356959e+00 3.718748e+00 -1.756906e+00 -2.605286e+00 -1.512927e-01 -1.409775e+00 3.985025e-01 8.677499e-01 2.663189e-01 3.190216e-01 1.360879e+00 1.648792e-01 -2.689171e-01 -7.205963e-02 -3.551712e-02 4.973072e-01 5.926539e-01 0.000000e+00 
-6.010273e+00 7.503630e+00 9.233978e-01 6.040049e-01 9.466427e+00 1.173692e+00 9.229845e+00 1.195241e-01 1.631298e+00 3.353734e-01 -1.161312e+00 -1.397570e+00 -1.512927e-01 -9.764558e-01 -1.531503e-01 -1.062432e+00 1.352950e-01 -1.357527e+00 4.814231e-02 -1.366129e+00 -2.941090e-01 -8.296983e-01 -3.924745e-01 7.524536e-01 1.041392e+00 8.931136e-03 
-8.078690e+00 5.142292e+00 -2.615719e+00 -2.421538e+00 8.005803e+00 3.080971e+00 5.923819e+00 4.664358e+00 6.891650e+00 -4.858887e-01 -3.030777e-01 -8.181262e-02 -1.512927e-01 -7.324313e-01 -2.790034e-01 -8.643078e-01 -7.862939e-01 -1.343694e+00 -1.293230e+00 -2.480027e+00 -1.068077e+00 -8.379901e-01 -9.158553e-01 4.069895e-01 3.912019e-01 4.465568e-03 
-7.936084e+00 7.438142e+00 -3.954207e+00 -5.652410e+00 1.896551e+00 1.158339e-01 3.566520e+00 1.076089e+00 -3.228353e-01 9.584597e-01 2.363675e-01 1.737755e+00 -1.066370e-01 -5.524238e-01 -4.187778e-01 -4.691358e-02 -6.262197e-01 -1.139005e-01 -1.438453e+00 -1.716833e+00 -1.416911e-01 3.784513e-01 -4.169593e-02 6.065040e-02 -7.157757e-01 0.000000e+00 
-8.318365e+00 5.287647e+00 -2.293854e+00 -5.171589e+00 6.191350e+00 -3.514704e+00 1.214714e-01 -1.613934e+00 1.440748e-01 -1.172072e+00 -4.207978e-01 -2.216939e+00 -1.512927e-01 -2.603764e-01 -5.570879e-01 7.244643e-01 9.576048e-01 1.502867e+00 -1.350968e+00 2.799988e-01 1.590042e-02 1.605667e-01 6.426812e-01 2.821110e-01 -2.732604e-01 -4.465568e-03 
-8.652555e+00 5.337064e+00 5.278971e-01 -1.152069e+00 9.804151e+00 -2.720735e+00 3.546852e+00 2.550215e+00 6.897342e+00 4.699854e-01 -7.991995e-01 -3.908885e+00 -1.512927e-01 -2.700813e-01 -8.355204e-01 9.836766e-01 1.152063e+00 1.720273e+00 -1.551116e-01 1.773834e+00 6.163399e-01 7.883496e-01 4.393283e-01 4.375797e-01 3.759845e-01 -8.931136e-03 
-9.022337e+00 3.407392e+00 -1.234450e+00 1.163154e-01 1.156634e+01 -2.255585e+00 7.333648e+00 4.006797e+00 4.084395e+00 2.971755e+00 1.625261e+00 1.375206e+00 -1.512927e-01 -2.546011e-01 -1.239944e-01 1.847091e-01 9.214001e-01 5.345545e-01 -8.317314e-02 4.383364e-01 2.231837e-01 -4.033431e-01 7.348355e-01 5.271082e-01 2.458727e-01 0.000000e+00 
-8.934505e+00 4.200668e+00 4.344747e-01 -2.536049e+00 7.810421e+00 -1.289284e+00 8.829603e+00 1.347423e+00 1.648753e+00 1.083188e+00 1.401237e+00 1.821605e+00 -1.512927e-01 -1.905655e-01 3.061200e-01 -1.870848e-02 -3.004618e-01 -4.631429e-01 9.141027e-01 -8.608818e-01 -1.135366e+00 -1.241434e+00 1.687517e-01 9.634668e-01 2.500015e-01 0.000000e+00 
-9.450396e+00 5.235873e+00 -1.323597e+00 1.274018e-01 9.860988e+00 -4.646295e+00 -3.282223e-01 1.033807e-01 7.516540e-01 2.195504e+00 1.114525e+00 -3.852821e+00 -1.512927e-01 1.575600e-01 8.073009e-01 6.407692e-01 3.394769e-01 -4.468401e-01 7.347493e-01 -1.545017e+00 -1.520564e+00 -9.435744e-01 -8.100383e-02 3.840458e-01 -9.548949e-01 0.000000e+00 
-9.391354e+00 5.953424e+00 4.789283e-01 -2.659921e+00 8.341112e+00 3.045134e+00 3.073378e+00 -1.174907e+00 2.356542e+00 1.701869e+00 4.273502e+00 -4.486454e-02 -1.512927e-01 4.983456e-01 7.139954e-01 1.437214e-01 -1.931045e-02 -4.945008e-01 2.007868e-01 -1.590256e+00 -1.319017e+00 -3.087092e-01 -5.195332e-01 -3.246998e-02 -5.528024e-01 0.000000e+00 
-8.006113e+00 6.567518e+00 1.947170e+00 1.875636e+00 9.066792e+00 -7.490471e-01 2.486675e+00 -2.334861e+00 -9.873714e-01 2.257395e+00 2.109357e+00 -2.466034e+00 -1.512927e-01 3.401327e-01 3.815912e-01 4.443390e-01 1.775763e-01 -6.269149e-01 -7.758752e-01 3.441642e-01 3.007011e-02 -7.709387e-01 -1.281967e+00 -6.074086e-01 8.286589e-01 0.000000e+00 
-7.164918e+00 7.104822e+00 -4.823017e-01 -3.506718e+00 5.735015e+00 -2.233973e+00 -5.291243e-01 -4.028543e+00 9.747192e-01 -1.545424e+00 7.414711e-01 -1.635800e+00 -1.512927e-01 5.954248e-01 2.465784e-01 -3.202148e-01 9.342809e-01 -5.645723e-02 -9.571956e-01 9.603745e-01 9.392667e-01 -1.353328e+00 -1.321564e+00 -9.645411e-01 1.215083e+00 0.000000e+00 
-8.862949e+00 6.568130e+00 1.378713e+00 1.438682e+00 8.029462e+00 -5.886117e+00 3.193850e+00 1.680549e+00 -2.412128e+00 -2.590685e+00 -1.565029e-01 1.085941e+00 -1.512927e-01 -5.421982e-02 -1.158615e-01 -9.467369e-01 -3.239543e-01 1.086328e-01 1.401713e-01 1.521885e+00 2.686849e-01 -9.643839e-01 -6.160486e-01 -5.779831e-01 -5.784659e-02 0.000000e+00 
-5.985811e+00 7.186010e+00 -8.379176e-01 2.229960e+00 8.577492e+00 8.276903e-01 7.521663e+00 1.513722e+00 -3.697721e+00 -2.481910e+00 5.837270e-01 4.254564e+00 -1.512927e-01 -1.430130e-01 -7.801643e-01 -1.926955e+00 -4.229299e-01 6.215302e-01 1.220861e+00 2.228421e+00 2.440133e+00 2.061087e+00 2.611806e+00 8.349692e-01 -5.601590e-01 0.000000e+00 
-8.866766e+00 5.947617e+00 -2.608707e+00 -2.612475e+00 8.188718e+00 -1.579023e+00 6.070704e+00 -3.762569e+00 -3.473071e+00 -3.546049e-01 -7.016869e-01 -5.700449e+00 -1.512927e-01 -1.527904e-01 -5.887259e-01 -1.584474e+00 -1.618801e+00 1.289388e+00 1.326697e+00 -1.967242e-01 1.435409e+00 3.074471e+00 2.349640e+00 1.890782e-01 -9.980268e-01 0.000000e+00 
-7.878075e+00 3.514257e+00 -8.123365e+00 -3.595789e+00 8.763038e+00 1.716787e+00 9.174554e+00 1.089368e+01 1.181063e+01 1.039557e+01 5.188910e+00 -1.043400e+00 -1.512927e-01 -5.203918e-01 -3.938507e-01 -4.418259e-01 -1.307479e+00 1.780719e+00 8.320975e-02 -1.696268e+00 1.323797e+00 2.648667e+00 1.347475e+00 -5.006876e-01 -6.574312e-01 0.000000e+00 
-8.680769e+00 5.460377e+00 -2.900934e+00 -3.742447e+00 1.438363e+01 3.028185e-01 1.383783e+00 4.167614e+00 5.206054e+00 2.718775e+00 -1.513703e+00 -1.255211e+00 -1.512927e-01 -4.306994e-02 9.716383e-02 4.637979e-01 -2.406603e-01 1.801042e+00 2.349714e-01 -1.716461e+00 9.134299e-01 1.075368e+00 -1.530033e-01 -8.326645e-01 8.678665e-01 0.000000e+00 
