2.330320e+00 5.117300e+00 -3.234517e+00 1.057668e+00 2.535355e+00 -1.074909e+00 1.993619e+00 -3.586240e+00 1.274884e+00 5.951520e-01 -6.640842e+00 6.124007e-01 -1.512927e-01 1.307823e-01 6.435754e-02 -1.314355e-01 4.812548e-01 6.922919e-02 6.165817e-01 4.708542e-01 -2.415515e-01 -4.912702e-01 -7.534726e-01 -1.648770e-01 -8.080923e-01 0.000000e+00 
2.759348e+00 5.817040e+00 -4.575576e+00 3.603588e+00 4.935587e+00 2.201895e-01 3.108484e+00 -2.206005e-01 5.138350e-02 -4.047969e+00 -6.774321e+00 2.013442e-01 -1.512927e-01 5.708580e-02 -2.415312e-01 -6.699215e-01 2.278863e-01 -5.425024e-01 -2.067541e-01 5.445547e-01 6.335613e-01 -4.395963e-02 -2.511667e-01 1.640486e+00 4.392055e-01 0.000000e+00 
2.769718e+00 5.089218e+00 -3.221165e+00 2.190982e+00 1.681385e+00 1.360451e+00 3.790458e+00 -6.476818e+00 -5.697166e-01 -8.506501e-01 -7.398488e+00 -3.222533e+00 -1.512927e-01 -3.173562e-01 -6.258008e-01 -6.004092e-01 -2.399809e-01 -1.693756e-01 -2.174801e-01 6.375836e-01 9.835790e-01 -2.611878e-02 8.055187e-01 1.813144e+00 5.560671e-01 0.000000e+00 
2.396050e+00 3.923686e+00 -6.590801e+00 1.630443e+00 2.498283e-01 -3.326359e+00 3.817974e+00 1.026855e+00 1.977386e+00 6.221932e-02 1.940410e+00 4.725895e+00 -1.512927e-01 -2.238073e-01 -4.274039e-02 2.166076e-01 -4.750414e-01 -9.336452e-01 -4.148563e-01 1.093241e+00 8.397120e-01 -7.872456e-02 1.524852e+00 1.541171e+00 -7.153396e-02 0.000000e+00 
9.251881e-01 2.934973e+00 -5.228951e+00 8.443363e-01 4.031357e+00 -3.890351e-01 4.826793e+00 7.079276e-01 1.812888e-01 2.567651e+00 -1.932489e+00 1.130461e+00 -1.512927e-01 -1.674233e-01 1.568460e-03 -1.223564e-03 -3.544427e-02 1.759862e-01 6.635578e-02 8.444992e-01 1.507510e+00 9.225407e-01 3.849127e-01 5.268315e-01 4.383461e-01 0.000000e+00 
2.562576e+00 6.680461e+00 -2.488645e+00 1.901704e+00 -9.076247e-01 -9.793488e-01 8.056520e+00 3.855869e-01 -7.177420e-01 1.867141e+00 -1.801467e+00 -2.332822e+00 -1.512927e-01 1.281542e-01 2.213101e-01 1.502853e+00 6.913255e-01 2.809362e-01 1.540727e+00 6.164109e-01 -9.955311e-02 1.275536e-01 7.452576e-01 -3.174948e-01 -6.570424e-02 0.000000e+00 
1.849339e+00 3.718673e+00 -5.278361e+00 1.878130e+00 3.140042e+00 5.187242e-01 5.893681e+00 1.381365e+00 5.390551e+00 1.714529e-01 -2.893392e+00 2.498557e+00 -1.512927e-01 4.907865e-01 1.208954e-01 8.614758e-01 1.013001e+00 -1.586347e-01 1.253587e+00 -1.884296e-01 -9.638869e-01 -2.326210e-01 -1.947331e-01 -1.921139e-01 2.775428e-01 0.000000e+00 
2.574746e+00 4.638387e+00 9.481707e-01 4.570173e+00 2.100166e+00 3.923394e+00 6.366584e+00 1.923705e-01 1.052356e-02 4.986607e+00 8.333869e-01 3.713326e+00 -1.512927e-01 4.868408e-01 -4.095500e-01 3.460525e-01 5.125391e-01 5.564342e-01 2.632012e-01 -1.091462e+00 -1.332207e+00 -4.683595e-01 1.345626e-01 -9.236360e-01 -6.569058e-01 0.000000e+00 
3.373035e+00 4.560488e+00 -2.639980e+00 4.575105e+00 1.734288e+00 3.427529e+00 4.729613e+00 -4.014899e+00 -1.345949e+00 3.425223e-02 -4.210485e+00 -5.048991e-01 -1.512927e-01 1.327247e-01 -5.812181e-01 -6.268261e-01 -4.034415e-01 -2.631134e-01 -7.315530e-01 2.310601e-01 -3.170830e-01 -1.747559e+00 -2.973891e-01 -2.221317e-01 -9.544556e-01 0.000000e+00 
4.234932e+00 4.211803e+00 -2.077573e+00 3.115912e+00 2.577423e+00 -1.117745e+00 3.181244e+00 -3.577317e+00 3.087106e-01 2.608554e+00 -5.761100e+00 -4.115623e+00 -1.512927e-01 -3.262323e-01 -3.986404e-01 -1.001080e+00 -1.301846e+00 -6.435601e-01 -1.426443e+00 7.143630e-01 5.603116e-01 -4.484739e-01 -4.048436e-01 7.577928e-01 -6.089924e-02 0.000000e+00 
1.682869e+00 1.025874e+00 -6.899620e+00 5.880535e-01 1.585847e+00 -6.184709e-01 8.641651e+00 1.680794e+00 -3.496340e+00 -1.264662e-01 -7.068064e-01 1.640753e+00 -1.512927e-01 -4.694914e-01 1.145481e-01 3.454416e-01 -8.571658e-01 -1.025244e-01 -2.824573e-01 -7.614961e-02 6.340612e-01 -2.253124e-01 9.553121e-01 1.815334e+00 8.609430e-01 0.000000e+00 
1.788668e+00 4.412491e+00 -1.927408e+00 5.447090e-02 -1.043414e+00 -1.185819e+00 7.982380e+00 1.460823e-01 -1.156650e+00 3.042747e+00 2.870511e+00 2.336004e+00 -1.512927e-01 -2.793730e-01 4.824404e-01 3.544921e-01 -1.105934e-02 -4.511339e-01 3.125688e-01 -3.918673e-01 2.566323e-02 -2.067607e-01 -2.881368e-01 1.529793e+00 1.101028e+00 0.000000e+00 
2.248711e+00 5.032884e+00 -9.878547e-01 1.819997e+00 3.032084e+00 2.049280e+00 1.948297e+00 -2.706292e+00 -1.739831e+00 4.593716e+00 5.503798e-01 5.740026e-01 -1.512927e-01 -8.578730e-02 7.101299e-01 8.546513e-01 8.689812e-01 -5.056546e-01 -3.072643e-01 -1.348660e+00 -3.958456e-01 1.901893e+00 6.145325e-01 -3.836243e-01 3.593330e-01 0.000000e+00 
2.555146e+00 4.620501e+00 -3.260994e+00 2.444644e+00 -4.013650e-01 -8.887764e-01 4.568585e+00 -1.255457e+00 -1.603348e+00 -1.192220e+00 1.259271e+00 1.922893e+00 -1.512927e-01 2.708468e-01 -2.124153e+00 -6.065031e-01 1.626486e+00 1.379551e+00 1.274230e+00 -1.447974e+00 -2.373744e-01 4.763407e-01 1.174367e-01 -7.405912e-01 1.232710e-01 0.000000e+00 
8.706932e-01 4.472518e+00 -1.959569e+00 3.737873e+00 -1.263451e+00 -2.303314e+00 3.605251e+00 4.023360e-01 6.236474e+00 5.063680e+00 -1.819308e+00 3.643973e+00 -1.512927e-01 4.129791e-01 -3.512728e+00 -1.132587e+00 1.294243e+00 1.918099e+00 2.074119e+00 -7.041554e-01 -4.371168e-01 -5.966917e-02 -4.217474e-01 -3.549538e-02 -3.568249e-01 0.000000e+00 
3.831910e+00 -5.928092e+00 -4.474066e+00 7.227963e+00 8.002109e+00 7.361625e+00 -8.596754e-02 -2.595103e+00 -2.763100e+00 3.394949e+00 3.523991e-01 1.417374e+00 -1.512927e-01 -2.076582e-01 -1.474761e+00 -5.389403e-01 -8.173313e-02 1.565524e+00 1.362584e+00 -2.869679e-01 -3.186677e-01 8.037575e-01 1.511185e+00 6.969989e-01 -5.052778e-01 0.000000e+00 
3.675224e+00 -7.256460e+00 -6.044254e+00 5.899550e+00 8.420843e+00 8.294672e+00 7.547960e-01 -4.222053e+00 -1.458301e+00 1.913942e-01 8.263388e-01 -9.573620e-01 -1.512927e-01 -2.341153e-01 5.606564e-01 2.301230e-01 -6.100190e-01 -1.640691e-01 -3.429844e-01 6.153612e-01 -3.047183e-01 -2.378941e-01 1.290165e-01 8.914979e-01 -5.302442e-01 0.000000e+00 
1.145897e-01 3.111187e+00 -3.913354e+00 9.551396e-01 2.584109e+00 6.251525e-01 4.558973e+00 -5.366018e-01 6.262827e+00 8.799849e+00 3.421442e+00 1.697172e+00 -1.512927e-01 -5.650862e-01 2.944803e+00 9.985093e-01 -8.536259e-01 -1.747274e+00 -2.712735e+00 1.571720e+00 6.337671e-01 9.796707e-02 -1.143880e+00 -4.319031e-01 3.630437e-01 0.000000e+00 
1.558777e+00 2.756161e+00 -1.089310e+00 3.824190e+00 6.252041e-01 -6.499999e-01 4.359586e+00 -2.150506e+00 5.340401e-01 3.006313e+00 1.103661e+00 8.528533e-01 -1.512927e-01 -2.131712e-01 2.234881e+00 1.104868e+00 -3.579872e-01 -1.922312e+00 -2.442727e+00 9.505842e-01 5.477033e-01 -1.105503e+00 -1.521573e+00 -3.993792e-01 8.318704e-01 0.000000e+00 
2.064703e+00 3.789614e+00 -1.958991e+00 3.997514e+00 3.163557e+00 -1.729715e+00 5.970239e+00 -4.620407e-01 -3.269434e+00 -3.731910e+00 -1.945777e+00 2.327484e+00 -1.512927e-01 -1.532769e+00 -1.423058e+00 8.877919e-01 1.728422e+00 5.206508e-01 6.854985e-01 -1.046496e+00 3.973870e-01 -3.183903e+00 -2.426039e+00 -1.646641e-01 -4.074752e-01 1.065087e-01 
1.634312e+00 3.578730e+00 -1.497096e+00 2.588427e+00 -1.480443e+00 -2.741526e+00 4.802084e+00 -1.520817e+00 -2.219686e+00 -1.150590e+00 1.513052e+00 2.886834e+00 -1.512927e-01 -2.967257e+00 -2.178095e+00 1.482448e+00 2.032629e+00 2.496867e+00 2.485790e+00 -1.666698e+00 1.036847e+00 -2.784166e+00 -4.834159e-01 1.004436e+00 -8.921093e-01 1.753053e-01 
-7.587021e+00 -4.415385e+00 7.294984e-01 1.021513e+01 6.240187e+00 5.098408e+00 -8.947535e-01 1.135488e+00 -8.279827e+00 -1.251897e+00 2.393425e+00 -1.357195e+00 3.812507e-01 -2.008378e+00 -6.264018e-01 1.591972e+00 7.677170e-01 1.051838e+00 2.959761e+00 -2.247654e+00 1.321913e+00 -4.599091e-01 1.835882e+00 9.286421e-01 -1.142492e+00 9.593881e-02 
-8.451645e+00 -4.031816e+00 4.978683e+00 1.087853e+01 1.157122e+01 8.364890e+00 -5.414052e-01 2.234963e+00 -1.088159e+01 -6.507729e-01 3.956239e+00 -1.765354e+00 4.589621e-01 -2.622152e-01 6.830286e-01 1.956235e+00 -7.322410e-01 -5.526811e-01 2.388327e+00 -9.539002e-01 -8.221877e-02 1.640058e+00 1.102310e+00 2.127394e-01 -1.380819e+00 -1.624416e-02 
-2.934210e+00 4.462878e+00 2.762981e+00 3.691049e+00 1.896915e+00 7.515883e+00 -2.596286e+00 4.269634e+00 -1.238025e+00 5.197590e+00 1.475840e+00 -1.058881e+00 2.327394e-02 1.039002e+00 2.587488e+00 6.910852e-01 -3.502883e+00 -2.577342e+00 -1.330495e+00 -1.035830e+00 -3.937962e-01 3.404369e+00 1.059538e+00 1.447929e-01 1.071496e+00 -1.233743e-01 
-2.003170e+00 2.554742e+00 7.267335e+00 2.189262e+00 -2.072214e+00 7.991370e+00 8.833494e-01 -3.498983e+00 2.459701e+00 1.136215e+00 3.035542e+00 -4.166417e+00 -5.352509e-02 3.729973e-01 8.331421e-01 -2.895102e-01 -2.326745e+00 -3.429538e+00 -1.363826e+00 -6.036285e-01 -1.388380e+00 2.690691e+00 7.406136e-01 -1.417764e+00 2.065557e+00 -8.662695e-02 
-5.616247e+00 5.228776e+00 3.040598e+00 -2.954656e+00 1.751938e-01 -1.367309e+00 -6.786283e+00 2.033481e+00 2.071369e+00 3.152298e+00 3.577738e+00 5.200817e+00 2.062303e-02 -1.087899e+00 -2.776707e+00 9.386541e-01 5.696253e-01 -1.565078e+00 -3.485873e+00 4.951279e-01 -9.517773e-01 -1.488824e+00 -2.010319e-01 -2.104072e+00 2.338110e+00 2.777709e-02 
-5.245640e+00 -2.490544e-01 3.392324e+00 2.567655e+00 -4.715609e+00 5.987355e+00 -1.464549e+00 -3.588862e+00 9.171615e-01 4.074942e+00 -4.183528e+00 5.432582e+00 2.715284e-02 -1.039398e+00 -4.581242e+00 2.249004e+00 2.568737e+00 2.004902e-01 -4.200051e+00 3.923022e-01 6.635503e-01 -3.926020e+00 -7.324001e-01 -2.329769e+00 1.132032e+00 7.615152e-02 
-6.752468e+00 -8.018759e+00 9.393758e+00 6.349979e+00 -4.606779e+00 -8.911471e+00 1.053302e+00 -4.443133e-01 -7.910873e+00 2.723067e+00 -5.434986e+00 5.832169e+00 1.218204e-01 1.137016e+00 -3.162501e+00 1.838601e+00 3.195333e+00 -2.154857e-01 -1.264010e+00 1.977325e+00 3.170969e-01 -2.095014e+00 -1.911735e+00 -4.967380e-01 -8.148922e-01 7.520807e-03 
-6.632048e+00 -1.372770e+01 1.533578e+01 1.038063e+01 1.321224e+00 -9.236804e+00 -1.074932e+00 1.057665e+00 -1.217928e+01 -2.311170e+00 -4.106939e+00 1.178069e+00 2.766338e-01 2.024483e+00 -5.238122e-01 5.811582e-01 7.487582e-01 6.361197e-01 9.210881e-01 4.883862e-01 4.908911e-01 1.410414e+00 -1.087978e+00 9.649132e-01 -1.733972e+00 -7.381403e-03 
7.620354e-01 -3.844407e+00 6.261877e+00 9.115520e+00 -3.920651e+00 -7.527825e-02 2.905532e+00 1.295702e+00 -1.855481e+00 -3.213322e+00 1.055754e+00 3.253613e+00 -6.651342e-02 2.589379e+00 1.629924e+00 -1.491670e+00 -1.051509e+00 1.642020e-01 4.460736e+00 -9.809572e-01 -1.294500e+00 4.608870e+00 1.298751e-01 4.547586e-01 -1.551173e+00 -3.893931e-02 
1.119526e+00 -4.955291e+00 7.864055e+00 4.928676e+00 -1.878074e+00 6.174699e+00 5.126762e-02 -2.004414e+00 4.941536e+00 1.603244e+00 -2.604332e+00 -1.947998e+00 8.441275e-02 1.238569e+00 2.914898e+00 -3.695822e+00 -1.876645e+00 3.345607e-01 2.631951e+00 -6.081240e-01 -3.962931e-01 3.293843e+00 1.504050e+00 -8.776665e-02 3.682995e-01 -5.942289e-02 
2.318640e+00 -4.255342e+00 5.671268e+00 3.818414e+00 -2.186120e+00 5.686458e+00 -4.414584e+00 -5.385774e+00 6.573071e+00 1.415236e+00 -3.912496e+00 -3.606639e-01 2.323443e-02 -1.395209e+00 1.048192e+00 -3.899609e+00 -1.312048e+00 1.882988e+00 3.105116e-02 -1.129863e+00 2.576952e+00 -1.172485e-02 1.771437e+00 -1.694641e-01 -4.268092e-01 4.149131e-02 
-1.217506e+00 1.052260e+00 -2.848029e+00 3.645958e+00 2.126761e+00 1.042085e+00 -4.554944e-01 2.416937e+00 7.566178e-02 2.894802e+00 -2.061647e+00 4.826705e+00 -6.535459e-02 -6.873514e-01 -1.641950e-01 -3.596687e+00 -2.632822e-01 1.274823e+00 -7.327862e-01 -1.819136e+00 1.072695e+00 -1.340573e-01 5.363658e-01 -1.054294e+00 -1.355777e+00 1.310321e-02 
-5.045494e+00 -1.607223e+00 -7.880124e+00 3.196641e+00 3.491873e+00 2.646284e+00 -2.490401e+00 1.196979e+01 5.188314e-01 4.998087e+00 -6.290865e-02 -2.267785e+00 2.158268e-01 6.789017e-01 -8.387044e-01 -2.073901e+00 1.206335e-01 1.505577e+00 -1.294853e+00 -1.268645e+00 -8.885387e-01 -2.653475e-01 6.620048e-01 2.855142e-01 -5.530279e-01 -3.973889e-03 
1.364836e+00 -7.100326e+00 -3.343683e+00 3.923151e+00 1.657045e+00 4.030855e+00 -1.000651e+01 -5.318721e+00 7.298369e+00 2.493648e+00 -9.800597e+00 -7.773321e+00 5.363262e-02 2.571595e+00 -3.006389e-01 1.845490e-01 -2.663759e-01 4.170305e-01 -1.269195e+00 -8.087160e-01 -3.252729e+00 -4.328431e-01 2.256393e-04 1.908555e-02 -1.115807e+00 -3.926663e-02 
4.421977e+00 -4.372571e+00 -4.450412e+00 4.282985e+00 5.576624e+00 -2.282192e+00 -5.982302e+00 -5.960638e+00 1.634981e+00 4.925837e+00 1.384550e+00 3.174210e+00 -5.612862e-02 1.801343e+00 1.252817e+00 1.317986e+00 -6.074640e-01 1.378681e+00 -1.446484e+00 6.649364e-01 -3.374192e+00 -2.853990e+00 -6.241661e-01 8.567469e-01 6.584371e-01 -5.613183e-02 
6.906735e+00 9.317397e-01 -3.640140e+00 1.770907e+00 3.169539e+00 -2.839654e+00 -2.753124e+00 -4.881497e+00 -2.646628e+00 2.932055e+00 -2.689949e+00 -3.473326e+00 -1.257100e-01 -1.095257e+00 2.388775e+00 1.620258e+00 -3.005369e+00 1.589011e+00 -1.251514e-01 2.346820e+00 1.364426e+00 -2.223875e+00 -2.000453e-01 1.273849e+00 1.292954e+00 4.904696e-02 
1.190271e+00 6.408293e-01 -1.141965e+00 1.235443e+00 9.629033e+00 -1.150880e+00 -2.792410e+00 -5.119784e+00 -8.778619e+00 1.658052e+00 6.655014e-01 -1.125597e+00 2.483898e-02 -3.217714e+00 1.191835e+00 1.385354e+00 -4.509334e+00 -4.283168e-01 9.902304e-01 1.706222e+00 2.726757e+00 1.578796e-01 -9.374285e-01 -9.155674e-01 -4.447742e-01 1.340370e-01 
-2.495596e+00 2.336849e+00 3.103383e+00 -9.579924e+00 7.575896e+00 2.839442e+00 1.326485e-01 1.082984e+00 1.385796e+00 3.127313e+00 -3.071829e+00 8.413539e-01 2.583836e-01 -4.431764e+00 9.291494e-02 9.464798e-01 -4.227637e+00 -1.124473e+00 9.999620e-01 6.298372e-01 1.664042e+00 7.331035e-01 -3.128626e-01 2.469261e-01 2.115313e-01 1.751206e-01 
-6.965429e+00 8.840485e-01 -8.954045e-01 -1.258827e+01 1.231861e+00 -1.705881e-01 1.105920e+00 4.690904e+00 4.081668e-01 1.410654e-01 -3.002348e+00 -1.207001e+00 4.220098e-01 -3.313159e+00 -1.194166e-01 2.012641e-01 -2.475680e+00 -1.928527e+00 3.922312e-01 -2.162160e-01 1.700354e+00 1.061419e+00 -5.533565e-01 8.610077e-01 -8.917583e-01 1.469999e-01 
-1.117423e+01 1.274705e+00 9.689791e-01 -1.245543e+01 1.745760e+00 1.670010e+00 -1.553103e+00 -1.466629e+00 -3.574504e+00 2.126236e+00 3.786061e-01 -2.374968e+00 5.513077e-01 -2.457756e+00 -7.083162e-01 -2.590942e-01 8.822820e-01 -4.730793e-01 4.749405e-03 -1.257530e+00 4.742519e-01 -8.428055e-01 -3.730037e-01 1.722348e+00 -8.783208e-01 9.596396e-02 
-1.103621e+01 5.748184e-01 9.315569e-01 -9.705205e+00 2.901466e+00 1.394992e+00 -3.030614e+00 4.656791e+00 -9.913763e-01 -6.081909e-01 3.245322e+00 -3.976228e+00 6.133765e-01 -1.520894e+00 -1.022725e+00 -2.868970e-01 1.157757e+00 2.798173e-01 6.194268e-01 -1.640445e-01 -6.495435e-01 -8.425067e-02 1.404062e-02 1.577356e+00 -1.759136e-01 5.668191e-02 
-1.274899e+01 -1.050117e+00 8.944308e-01 -6.610045e+00 4.375697e+00 2.080399e+00 -4.086736e+00 3.471301e+00 -2.128460e+00 1.636923e+00 2.416079e+00 -2.165637e+00 6.425201e-01 -4.242395e-01 -1.962497e-02 -4.556589e-02 1.375284e+00 -9.072592e-02 1.104458e+00 1.618648e+00 5.190606e-02 2.220573e-01 -9.983660e-01 1.813440e-01 -6.828309e-01 3.685691e-02 
-1.378252e+01 -3.067163e+00 -2.292615e+00 -9.722175e+00 1.315979e+00 2.721352e+00 1.552514e+00 -1.025778e+00 -7.361084e-01 4.559250e-01 3.865698e+00 -2.191235e+00 6.598131e-01 -7.282528e-01 3.659925e-01 -6.457536e-01 -3.669971e-01 -1.232199e+00 -1.386253e-01 1.436252e+00 -5.143450e-01 -3.022301e-01 -1.673256e+00 -7.253508e-02 -4.248041e-01 3.382419e-02 
-1.192227e+01 2.997571e+00 2.353236e+00 -5.570521e+00 2.084874e+00 6.529119e+00 4.248570e+00 1.634186e+00 -2.591851e+00 -3.397652e+00 9.751382e-01 -6.681619e+00 7.123739e-01 -4.386414e-01 1.261389e+00 -2.417993e-01 -2.103622e-01 -5.446624e-01 -5.760037e-01 1.143437e+00 3.192466e-01 1.616116e-01 -2.495256e+00 -6.239754e-01 -1.386090e-01 3.276918e-02 
-1.509083e+01 3.809369e-01 -3.026613e+00 -1.205995e+01 -2.114116e+00 -1.522495e+00 -1.700592e-02 3.003623e+00 -2.270831e+00 -6.457182e+00 3.603117e+00 -3.842257e+00 7.475705e-01 1.140911e+00 1.148801e+00 -7.430121e-01 3.083027e-01 -3.221565e-01 -1.232923e+00 -1.053629e+00 -3.317634e-01 -4.715053e-01 -1.512734e+00 -1.170253e+00 6.687652e-01 2.505804e-02 
-1.428804e+01 3.532777e+00 5.243349e-02 -6.492968e+00 3.367432e+00 1.322303e+00 2.415208e+00 3.052833e+00 -5.530408e-01 -7.382803e+00 -5.725079e-01 -2.033170e+00 7.624873e-01 2.611959e+00 -5.268574e-03 -1.612302e+00 -2.977502e-01 -4.534820e-01 -2.445709e+00 -1.105902e+00 -1.595827e+00 -1.308068e+00 -2.298268e-01 -9.574229e-01 1.503269e+00 1.617013e-02 
-6.895081e+00 2.409237e+00 -4.857275e+00 -7.719438e+00 -9.360833e-01 -8.398553e-01 -2.798948e+00 -3.393919e+00 -4.113040e+00 -5.115170e+00 -1.211744e+00 -1.171633e+00 7.600466e-01 2.511456e+00 8.176631e-01 -4.630533e-01 5.295428e-01 4.513859e-01 -1.427674e+00 -3.711603e-01 -8.683413e-01 -2.101874e+00 8.304869e-01 -4.065994e-01 8.420121e-01 1.819301e-02 
-2.960350e+00 1.957078e+00 -4.792943e+00 -9.229529e+00 -7.715526e-01 -6.040745e+00 1.100283e-01 -3.146177e+00 -8.211088e+00 -5.217792e+00 -1.404546e+00 -5.005848e-01 7.869865e-01 2.200222e-02 2.190302e-01 -2.703049e-01 -3.251692e-01 3.337409e-01 -1.590246e+00 -1.085590e+00 -1.726318e-01 -2.214257e+00 1.497077e-01 1.093930e+00 6.341589e-01 3.009083e-02 
-8.197393e+00 5.257102e+00 -2.919191e+00 -8.043958e+00 2.212306e+00 -4.979342e+00 -7.202177e-01 1.761422e+00 -8.951178e+00 -3.387253e+00 1.986139e+00 -3.984895e-01 8.262860e-01 -2.754056e+00 -6.321211e-02 1.302734e+00 -1.644936e-02 1.065910e+00 -1.790144e-01 -3.283733e-01 1.111795e+00 -1.096538e+00 -5.264560e-01 1.527890e+00 4.072808e-01 4.103542e-02 
-1.352687e+01 3.203996e+00 -2.268133e+00 -7.956553e+00 3.461942e+00 -4.559186e+00 -4.052105e+00 -3.879963e-01 -9.205256e+00 -7.498223e+00 3.298202e+00 7.510525e-01 8.798218e-01 -2.562128e+00 -5.981868e-01 6.562397e-01 -9.235096e-02 5.744967e-01 7.439908e-01 6.542897e-01 5.512286e-01 1.189157e+00 7.976662e-01 4.661838e-01 4.397476e-02 2.756764e-02 
-1.538210e+01 1.469718e+00 3.939877e-01 -8.438172e+00 2.276720e+00 -2.475707e+00 -2.359747e+00 7.859641e-01 -9.098645e+00 -6.607234e+00 4.076332e+00 2.389522e-01 9.188061e-01 1.655244e+00 -1.128941e+00 -5.678470e-01 8.930230e-01 -2.051699e-01 -1.464716e-01 7.348204e-01 -6.954988e-01 1.239276e+00 4.532264e-01 -1.489726e+00 -3.780091e-01 -9.287017e-03 
-1.217864e+01 8.598361e-01 -3.168334e+00 -9.494177e+00 2.068724e+00 -3.572609e+00 4.201241e+00 9.769499e-02 -2.191568e+00 3.805292e-01 -1.187236e-01 -5.994319e-01 8.785647e-01 6.209331e+00 2.417850e-01 1.923959e-01 2.667601e+00 -7.696196e-01 -1.438896e+00 5.417980e-01 -4.878616e-01 9.866734e-01 2.209088e+00 -1.935365e+00 -1.268566e+00 -5.551877e-02 
-5.952911e-01 7.844760e-01 -5.308326e+00 -2.810031e+00 1.883065e+00 -6.204989e+00 -1.172790e+00 -1.958917e+00 -6.261642e+00 -5.060497e+00 -3.754029e+00 -1.613293e+00 7.804794e-01 9.054229e+00 -1.923997e+00 1.448856e+00 3.703569e+00 -2.742022e+00 -1.305927e+00 -1.417316e+00 -1.092370e+00 1.224503e+00 2.208448e+00 -1.805697e+00 -3.837824e-01 -3.558890e-02 
1.012638e+01 4.755542e+00 1.545003e+00 2.567380e+00 -1.893284e-01 -9.889024e+00 -1.936594e+00 -1.454864e+00 -5.690391e+00 2.773849e+00 -2.463444e+00 -4.665657e+00 6.713912e-01 8.074180e+00 -3.756101e+00 2.481444e+00 3.674114e+00 -4.542299e+00 -1.013812e-01 -2.844932e+00 -1.098948e+00 1.442193e+00 1.294057e+00 -4.340376e-01 7.717394e-01 1.876372e-02 
1.873654e+01 -1.009812e+01 5.281597e+00 4.048896e+00 -1.030436e+01 -5.847132e+00 -6.377411e+00 -3.899608e+00 -1.226721e+00 3.238347e+00 -3.779795e+00 3.531525e-01 8.444483e-01 4.597805e+00 -4.539282e+00 2.041887e+00 1.890829e+00 -4.860572e+00 5.150549e-01 -1.661552e+00 -6.049155e-01 2.840254e+00 1.469975e+00 6.456407e-01 1.551742e+00 6.572334e-02 
1.852635e+01 -1.247937e+01 3.943926e+00 5.446930e+00 -1.454906e+01 -4.258443e+00 -7.421108e+00 -4.426702e+00 2.501937e+00 2.701392e+00 -2.276029e+00 2.276042e+00 9.403988e-01 1.567992e+00 -4.168705e+00 5.066060e-01 2.403737e-01 -3.666505e+00 6.002294e-01 -9.361280e-01 -7.036658e-02 3.040290e+00 -5.748436e-01 9.927667e-01 1.496145e+00 7.862451e-02 
1.819375e+01 -1.329448e+01 3.701649e+00 5.204342e+00 -1.523993e+01 -6.445004e+00 -6.738295e+00 -3.497576e+00 3.843465e+00 2.325603e+00 -6.195333e-01 2.674568e+00 9.745924e-01 -2.012197e-01 -1.122086e+00 -6.313286e-02 -1.720168e-01 -1.553231e+00 -1.008605e-01 1.031316e-01 9.706516e-01 2.453304e+00 -1.095322e+00 1.107268e+00 4.713387e-01 3.701464e-02 
1.823774e+01 -1.448980e+01 4.868008e+00 3.191526e+00 -1.605407e+01 -6.588940e+00 -6.436793e+00 -2.007712e+00 6.975968e+00 3.560019e-01 9.202585e-01 1.654359e+00 9.994417e-01 -3.231972e-01 -4.962517e-01 2.557239e-01 -4.453936e-01 -5.601605e-01 -1.943942e-01 1.323547e-01 1.254758e+00 2.123830e+00 -1.685050e+00 4.953091e-01 2.139845e-02 1.270430e-02 
1.787474e+01 -1.470333e+01 4.503892e+00 4.316514e+00 -1.731801e+01 -5.186186e+00 -6.353911e+00 -2.558445e-01 8.802784e+00 -1.065569e+00 1.584010e-01 3.020688e+00 1.000000e+00 -2.570105e-01 -2.410246e-01 3.491797e-01 -2.863865e-01 -2.135691e-01 3.268102e-01 -4.752932e-01 1.139335e+00 1.696577e+00 -1.675741e+00 -1.490974e-01 2.746606e-02 -1.571888e-03 
1.706986e+01 -1.425620e+01 4.821424e+00 3.663876e+00 -1.631082e+01 -5.859824e+00 -6.951526e+00 2.262201e-01 1.064143e+01 -4.028273e+00 -1.884508e-01 2.209975e+00 9.912165e-01 -1.089945e-01 2.046032e-02 3.352368e-01 -2.387194e-01 1.621340e-01 3.736699e-01 -1.027009e+00 1.071554e+00 9.011008e-01 -1.150562e+00 -2.886866e-01 -5.719803e-02 -1.217738e-02 
1.749263e+01 -1.461640e+01 5.470840e+00 3.536235e+00 -1.617940e+01 -5.175511e+00 -8.857395e+00 1.082135e+00 1.049362e+01 -3.860964e+00 -8.106658e-01 2.534091e+00 9.708456e-01 1.550024e-02 3.760594e-01 3.210840e-01 -6.147839e-01 3.333004e-01 -8.898973e-03 -7.432443e-01 9.889029e-01 4.849944e-01 -1.049399e+00 4.232412e-01 -5.065991e-01 -2.006474e-02 
1.788382e+01 -1.443097e+01 6.060718e+00 2.388069e+00 -1.581270e+01 -4.725927e+00 -1.032010e+01 2.681068e+00 1.063605e+01 -3.999108e+00 -3.864098e-02 1.611668e+00 9.531320e-01 3.270480e-01 2.620762e-01 2.564164e-01 -8.237332e-02 -5.507965e-01 3.212022e-01 -4.993079e-01 1.284548e+00 -2.880471e-01 -1.042083e+00 1.116578e+00 -3.844911e-01 -2.279347e-02 
1.754527e+01 -1.273565e+01 5.489665e+00 1.880498e+00 -1.590057e+01 -5.797629e+00 -8.385847e+00 3.461246e+00 1.123044e+01 -6.327147e+00 2.199702e+00 7.868454e-01 9.187185e-01 5.529230e-01 3.931288e-01 3.595691e-01 1.781534e-01 -5.370302e-01 -2.827641e-01 6.602917e-01 7.309563e-01 -3.200702e-01 -2.192082e+00 2.009572e+00 -6.390232e-01 -3.012528e-02 
1.867878e+01 -1.388620e+01 6.094093e+00 4.079877e+00 -1.920422e+01 -3.942754e+00 -9.683840e+00 5.459406e+00 8.832780e+00 -8.005597e+00 3.889254e+00 1.161142e+00 9.033127e-01 8.142555e-01 4.016069e-01 1.001699e+00 4.055809e-01 -4.201330e-01 -5.552437e-01 1.357130e+00 1.941310e-01 -9.930440e-01 -2.553419e+00 2.628194e+00 -1.291907e+00 -4.150313e-02 
1.985976e+01 -1.292314e+01 7.251997e+00 3.581098e+00 -1.716879e+01 -6.980919e+00 -5.874065e+00 3.347748e+00 9.794906e+00 -1.281813e+01 7.273246e+00 -4.357621e-01 8.451288e-01 7.158042e-01 6.254875e-01 1.574016e+00 7.688961e-01 6.748275e-02 -4.326867e-01 4.605983e-01 9.821324e-01 -2.464147e+00 -1.569429e+00 2.111982e+00 -1.432386e+00 -5.499328e-02 
2.079785e+01 -1.232919e+01 1.018805e+01 3.565674e+00 -1.727925e+01 -6.910501e+00 -4.790337e+00 3.708472e+00 6.388603e+00 -1.352071e+01 1.056556e+01 -4.236564e+00 7.824112e-01 -5.826024e-01 2.733017e+00 9.188606e-01 9.456356e-01 1.969114e+00 -1.275882e+00 6.806202e-02 6.989111e-01 -3.842575e+00 4.362975e-01 4.142047e-01 -1.393549e+00 -9.325169e-02 
2.006475e+01 -1.038672e+01 1.131277e+01 5.982080e+00 -1.652563e+01 -6.477189e+00 -8.529608e+00 9.247375e+00 1.317945e-01 -1.141673e+01 9.421462e+00 -3.676230e+00 7.042028e-01 -3.767152e+00 2.343817e+00 -9.576851e-01 3.930722e+00 6.934985e+00 -4.009624e-01 -1.884827e+00 1.058833e+00 -2.857293e+00 2.209084e+00 -1.297042e+00 1.228030e+00 -1.079757e-01 
1.566328e+01 -1.489321e+00 8.658011e+00 7.607564e+00 -9.680231e+00 -1.057403e+01 -8.015759e+00 6.004148e+00 -5.548542e+00 -6.524807e+00 4.886169e+00 -4.186369e+00 5.075172e-01 -4.235177e+00 2.662283e+00 -3.287791e+00 3.894976e+00 6.117000e+00 1.051495e+00 -7.300004e-01 5.897046e-01 -1.310000e+00 2.958971e+00 -2.266713e+00 2.706720e+00 -1.884770e-01 
3.591290e+00 -6.623993e+00 3.228590e+00 2.121376e+01 1.370662e+01 -7.153968e+00 -1.368549e+01 7.494073e+00 1.477012e+00 -5.270663e+00 3.627728e+00 5.679293e+00 4.426972e-01 -3.785545e+00 4.099242e+00 -2.962434e+00 1.327068e+00 4.874373e+00 1.222631e+00 7.100550e-01 -3.200579e+00 7.835722e-02 4.327611e+00 -1.231614e+00 2.043556e+00 -2.247729e-01 
7.858696e+00 -8.991349e-01 -2.208818e+00 1.542471e+01 -1.810381e+00 -1.314634e+00 -5.862398e+00 7.533646e+00 -8.340054e-01 -1.798896e+00 2.128856e+00 4.619277e+00 -2.922106e-02 -2.207774e+00 3.790043e+00 -2.066681e+00 -1.473544e+00 1.452907e+00 2.179157e+00 3.720982e+00 -2.143751e+00 1.560052e+00 4.129832e+00 5.329523e-02 2.327808e+00 -1.911610e-01 
5.039318e+00 9.814397e+00 1.934013e+00 8.708849e+00 3.911310e+00 -4.993727e+00 -6.056013e+00 -7.520269e+00 -1.833688e+00 7.858368e+00 4.642046e+00 2.138727e+00 -1.512927e-01 -3.896529e-01 2.834441e+00 -1.236671e+00 -3.161817e+00 -1.540895e+00 2.331052e-01 4.677303e+00 -9.593127e-01 1.192144e+00 2.315795e+00 2.411520e-01 6.798922e-01 -1.310051e-01 
3.900392e+00 9.241698e+00 -1.028105e+00 6.492303e+00 2.481959e+00 -7.583625e-01 6.774415e+00 2.792565e+00 3.907066e+00 7.559835e+00 4.645486e+00 9.222955e+00 -1.512927e-01 -1.263815e+00 -6.805074e-01 -3.948221e-01 -2.491170e-01 1.594187e+00 -4.974604e-03 2.693376e+00 1.656700e+00 1.252602e+00 1.413627e-01 -6.592555e-01 6.350049e-01 -2.441433e-02 
3.622178e+00 2.477794e+00 -3.545123e+00 9.870885e+00 3.855977e+00 -6.266578e+00 3.382620e+00 5.068050e+00 5.067197e+00 1.628948e+00 3.575172e+00 6.776915e+00 -1.512927e-01 -8.600984e-01 -2.143070e+00 -3.444456e-01 1.870859e-01 6.449187e-02 1.002986e+00 1.436366e+00 1.861050e+00 1.414231e-01 -9.212597e-01 -2.088023e+00 -1.148711e+00 0.000000e+00 
2.248192e+00 -6.333704e-01 -1.443360e+00 1.359811e+01 6.188219e+00 -7.030821e-01 2.885166e+00 9.522989e+00 1.978565e+00 2.022627e+00 -6.339850e-01 5.475208e+00 -1.512927e-01 1.841555e-02 -3.122800e+00 -2.713070e+00 -2.757239e+00 -7.460748e-01 8.272263e-01 -1.815630e+00 -1.529372e+00 -1.185871e+00 -9.776320e-01 -5.687529e-01 -3.296674e+00 7.906480e-02 
1.564926e+00 4.036582e+00 4.194130e-01 6.091376e+00 2.380639e+00 -6.438017e-03 3.070441e+00 -1.580228e+00 -1.623219e-01 6.020674e+00 -3.158333e+00 -1.730956e+00 -1.512927e-01 7.629976e-01 -2.391605e+00 -3.817694e+00 -4.568799e+00 -1.252735e+00 1.600433e+00 -1.836240e+00 -2.304231e+00 -8.899139e-01 -2.383045e-01 8.330576e-01 -3.310100e+00 1.602476e-01 
5.021095e+00 -7.151697e+00 -1.657572e+01 -5.404139e+00 -5.107460e-01 2.476992e-01 -2.147647e+00 -1.530155e+00 5.924722e-01 4.758124e-01 5.168474e+00 -3.006476e+00 2.440313e-01 8.593138e-01 -1.137303e+00 -1.588226e+00 -4.200534e+00 3.792512e-01 2.855893e-01 -1.882043e+00 -2.484749e+00 -1.680163e+00 -6.857743e-01 1.839131e+00 -1.966577e+00 1.470688e-01 
6.050714e+00 -6.221067e+00 -1.506741e+01 -3.471987e+00 9.417841e-01 1.260194e+00 -3.282176e+00 -9.265351e-01 1.310673e+00 1.210833e+00 4.839231e+00 -5.532741e+00 4.522833e-01 -4.016706e-01 -3.834397e-01 1.942100e+00 -2.162423e+00 7.154654e-01 1.049191e-01 -1.249914e+00 -1.962448e-01 -2.490915e+00 -2.455583e+00 1.118546e+00 3.354020e-01 1.252220e-01 
4.301867e+00 -1.191061e+00 -1.641080e+00 -2.622881e+00 8.803903e+00 9.154803e-02 -3.348741e+00 -3.227601e+00 -7.158748e+00 9.986761e-01 4.562886e+00 -2.456783e+00 2.822636e-01 -3.585440e+00 2.154749e+00 5.175538e+00 -9.267868e-01 1.357921e+00 8.988878e-01 -4.813810e-01 6.711006e-01 -7.715577e-01 -6.221021e-01 -1.569474e+00 -1.883051e-01 7.053693e-02 
-8.381271e-02 -8.609345e-01 2.662588e+00 -6.111366e+00 1.300642e+00 5.962332e-01 -2.578584e+00 -1.712729e+00 -8.741288e+00 -6.518674e+00 2.737189e+00 -3.287931e-01 4.557012e-01 -5.134539e+00 1.415761e+00 2.568285e+00 -1.435717e+00 1.731449e-01 5.658628e-01 6.244128e-01 1.350808e+00 -3.699427e-02 -4.278665e-01 -1.906759e+00 2.067649e-01 7.105024e-02 
-9.838840e+00 9.419810e-01 4.369664e-01 -8.718384e+00 6.099430e+00 5.074119e+00 -4.906349e+00 2.218445e+00 1.760664e+00 1.230055e+00 -1.627872e+00 -6.549975e+00 5.950069e-01 -4.408216e+00 3.017056e-01 -1.464545e+00 -1.569801e+00 -5.871713e-01 7.114927e-02 6.621823e-01 1.157209e+00 2.103758e+00 8.306688e-01 -2.027597e+00 -7.872606e-03 9.368858e-02 
-1.255163e+01 -2.087822e-01 -3.265004e+00 -7.602819e+00 3.159745e+00 1.598223e+00 6.186914e-01 3.104480e+00 -3.334004e+00 -1.044190e+00 -1.599186e+00 -2.452320e+00 6.511628e-01 -2.689349e+00 3.563887e-01 -1.273437e+00 -4.118173e-01 5.599071e-02 -7.136347e-01 3.056688e-02 7.410288e-03 1.587498e+00 2.126040e+00 -5.231580e-01 6.236331e-01 4.457382e-02 
-1.150530e+01 -8.609533e-03 -6.000010e+00 -9.726158e+00 4.938495e+00 -5.370048e-02 -1.636467e+00 1.498411e-01 6.564012e-01 2.414778e+00 -3.406914e+00 -1.434383e+00 6.529757e-01 -3.083721e-01 6.401711e-01 1.654025e-01 -1.854359e-01 -1.048537e+00 -5.078524e-01 4.572571e-01 -6.986526e-01 2.475195e-01 2.864366e-01 -1.826923e-02 1.553367e+00 7.688099e-03 
-1.269732e+01 1.396304e+00 -4.861067e-01 -7.666565e+00 2.161063e+00 -4.080306e-01 -4.060690e+00 -6.413756e-01 -2.516682e-01 3.519166e+00 1.010921e+00 2.315758e-01 6.495860e-01 -1.716158e-01 5.496360e-01 7.797427e-01 -7.263551e-01 -8.745049e-01 -3.979878e-01 -1.556677e+00 -1.292033e+00 6.321063e-01 2.919618e-01 3.514727e-01 5.885545e-01 -4.911208e-03 
-1.130785e+01 3.340293e+00 -1.254696e-01 -9.613690e+00 1.356088e+00 3.537984e+00 -2.803721e-01 5.981102e-01 1.457093e+00 3.805601e-01 -3.024271e+00 -1.250886e-01 6.342359e-01 -2.497576e-01 3.586203e-02 9.174743e-01 -5.067652e-01 -7.814602e-01 -4.017616e-01 -1.442797e+00 -2.266624e-01 2.707126e-01 -1.312432e-01 6.512903e-01 -5.839661e-01 -2.840734e-03 
-1.350843e+01 8.649462e-01 -2.303561e+00 -1.129083e+01 5.784242e-01 -2.187558e+00 -7.842741e+00 -3.579818e+00 -5.738187e-01 1.432728e+00 -3.314352e-02 -1.641940e-01 6.359767e-01 -8.392163e-02 -3.692815e-02 -6.247639e-02 -7.166630e-01 -2.682315e-01 -3.411517e-01 -2.637607e-01 -9.337608e-02 3.249612e-01 -3.754493e-01 2.286597e-01 -2.494039e-01 -1.219565e-03 
-1.234854e+01 4.363797e-01 -5.039120e-01 -1.044785e+01 1.822513e+00 -1.172745e+00 -6.959427e+00 4.857503e-01 2.171039e+00 2.801781e+00 3.715696e-01 -4.156329e+00 6.455767e-01 -2.183817e-01 -3.310816e-01 1.221146e-01 2.641802e-02 3.233846e-01 -6.361553e-01 1.118357e-01 7.625895e-01 -6.290166e-01 1.037755e-02 1.639452e+00 -5.459636e-01 3.768587e-03 
-1.259659e+01 2.663620e+00 -6.092675e-01 -1.083280e+01 5.866926e-01 2.415753e-01 -2.039967e+00 -1.052076e+00 1.016165e+00 4.313093e-01 4.562986e-01 1.000176e+00 6.378177e-01 2.732943e-01 8.878861e-02 7.285937e-01 5.835290e-01 1.648000e-01 5.579420e-01 1.827129e+00 1.250497e+00 -3.525512e-01 2.193302e-01 4.637533e-01 -2.970562e-02 -5.473846e-03 
-1.285568e+01 7.855482e-01 -3.620436e-01 -9.710615e+00 2.968877e+00 -8.573595e-01 -2.622581e+00 3.147187e+00 -2.482982e+00 9.331573e-01 4.928267e+00 -3.437091e+00 6.521583e-01 6.974907e-02 -2.829757e-01 -2.713937e-01 4.233729e-01 1.019933e-01 5.616674e-01 1.433406e+00 -4.062068e-01 -7.925655e-01 -1.510832e-02 -1.285713e-01 6.720818e-01 -1.425867e-02 
-1.188839e+01 1.134305e+00 1.268473e+00 -8.741802e+00 8.292422e-01 4.444591e-01 -8.755193e-01 1.341947e+00 -9.564161e-03 3.463691e+00 7.273912e-03 -6.723407e-01 6.053166e-01 3.967897e-01 -6.739522e-01 -3.587968e-02 3.293152e-01 5.649820e-02 1.268460e-01 -1.102731e+00 -2.900947e-01 2.252373e-01 -3.191517e-01 -1.275124e+00 -8.487644e-01 -1.746389e-02 
-1.235389e+01 -2.138412e-01 -2.799751e+00 -9.376486e+00 2.211205e+00 1.534150e+00 -3.746228e-01 -2.742295e+00 -1.278924e+00 1.210048e+00 -4.677439e-02 4.033935e-02 5.905339e-01 5.151424e-01 -1.377627e-01 2.198541e-01 -5.310450e-02 -1.786117e-01 1.036215e-01 -9.967893e-01 -5.947746e-01 4.522583e-01 -8.357641e-01 -1.789069e+00 -8.252760e-01 -1.141386e-02 
-1.086353e+01 -2.064457e-01 4.301876e-01 -9.353288e+00 1.248020e+00 -3.199496e-01 -8.677601e+00 4.421915e-01 1.540323e+00 -1.302895e+00 -3.431801e+00 -4.982361e+00 5.813105e-01 2.290415e-01 -2.245890e-01 -4.713297e-04 3.166943e-02 1.005135e+00 -2.301645e-01 -4.128838e-01 1.564908e-01 -6.774994e-01 -7.693067e-01 3.913935e-01 -3.556141e-01 -4.407406e-04 
-1.079239e+01 7.671101e-01 1.156370e+00 -9.670395e+00 1.866429e+00 4.295236e-02 -3.705487e+00 6.231920e-01 -9.966332e-01 -8.623700e-01 -2.297540e+00 -5.408461e+00 6.070920e-01 2.253551e-02 -1.614013e-01 7.033679e-01 3.295705e-01 6.093488e-01 7.130406e-01 7.589095e-01 4.277923e-01 -2.051244e-02 5.001895e-01 7.227742e-01 -2.753189e-01 -4.944754e-03 
-1.152393e+01 -4.791157e-01 -7.119439e-01 -8.436501e+00 6.027305e+00 3.923544e-02 -1.274507e+00 4.416580e-01 -3.538206e+00 6.533671e-01 3.089624e+00 2.739888e-01 5.948339e-01 -1.081617e-01 -3.803354e-01 7.804930e-02 4.583935e-01 -8.470527e-02 1.772824e+00 2.537173e+00 6.193258e-01 -1.228520e+00 2.358101e-01 9.463801e-01 7.350390e-02 -1.297365e-02 
-1.191102e+01 -8.845127e-01 1.288155e+00 -8.187027e+00 2.868306e+00 4.919761e+00 -2.816229e-01 -6.030669e-01 1.157779e+00 2.732865e+00 3.063841e-01 -3.964430e+00 5.590484e-01 2.507183e-01 -3.844262e-01 -6.104922e-01 -8.144668e-01 -1.331832e+00 1.761845e+00 8.958688e-01 2.519053e-01 -9.728142e-01 -4.906476e-01 -5.688677e-01 3.175972e-01 -1.452068e-02 
-1.084503e+01 -1.282311e+00 7.545415e-01 -7.803004e+00 3.235548e-01 6.105764e+00 2.296331e+00 4.151950e+00 -5.679482e+00 -1.921462e+00 -1.862288e-03 -5.336857e+00 5.404640e-01 3.945402e-01 -1.947021e-01 -2.862504e-01 -9.392563e-01 -1.800839e+00 4.117685e-01 3.646225e-01 1.456647e-01 2.881696e-01 -9.965135e-01 -1.607583e+00 -4.882913e-01 -1.052761e-02 
-9.878252e+00 -7.534230e-01 -2.629334e+00 -1.405948e+01 -1.940854e+00 5.818914e+00 -1.011561e+00 2.757239e-02 -4.790066e+00 -2.028193e+00 -3.596135e+00 -1.015052e+00 5.616735e-01 3.235886e-01 -1.488456e-01 -3.426630e-01 -7.269066e-01 -1.384411e+00 -8.315514e-01 -2.159190e-01 -1.079304e+00 -5.743603e-01 -1.687236e+00 -6.117654e-01 -2.550717e-01 -4.657120e-03 
-1.056761e+01 -1.518171e+00 -1.844511e-01 -1.019656e+01 -5.723128e-01 1.648501e+00 9.135752e-01 8.546621e-01 8.765638e-01 -1.948671e+00 -2.997032e+00 -3.642156e+00 5.408832e-01 4.825152e-01 -1.115955e-01 1.543162e-01 7.093267e-02 -1.114105e+00 -8.615583e-01 -7.939165e-01 -1.103476e+00 1.428933e+00 6.885770e-01 1.187639e+00 -4.591317e-01 -1.350790e-02 
-1.043179e+01 -1.510811e+00 4.433596e-02 -1.062478e+01 -3.605817e+00 2.990635e+00 -6.698403e-01 -4.350942e+00 -4.992045e+00 -5.689708e+00 -1.254858e+00 -6.087139e+00 5.355532e-01 5.135498e-01 -3.655395e-01 6.102834e-01 8.594033e-01 1.495138e-01 3.265253e-01 1.355442e-01 1.610535e-01 1.635524e+00 8.358221e-01 2.328029e+00 -1.226262e-01 -2.144938e-02 
-8.155689e+00 -1.461595e+00 1.892874e-01 -9.165688e+00 -4.414487e+00 3.212112e+00 -1.844112e+00 8.238291e-01 1.566174e+00 3.352180e+00 4.765694e+00 -5.096472e+00 4.859847e-01 6.936619e-01 1.617162e-01 7.511635e-01 1.584683e-01 3.321942e-01 9.013937e-01 -1.186930e-01 8.228201e-01 8.074816e-01 2.754146e-01 1.432012e+00 1.628204e+00 -2.424791e-02 
-8.516464e+00 -2.609409e+00 2.352135e-01 -1.027789e+01 7.278018e-01 6.669736e+00 1.045003e+00 8.482565e-01 3.042751e+00 -4.995084e-01 4.162648e+00 -9.010257e-01 4.818759e-01 4.084974e-01 -1.755261e-01 9.406559e-01 1.271656e-01 4.761637e-01 2.431783e-01 1.405587e-02 1.146850e+00 1.426116e+00 8.204507e-01 1.114513e-01 1.107354e+00 -3.090238e-02 
-8.056963e+00 -1.602910e-01 3.475928e+00 -9.577660e+00 -1.078151e+00 4.315920e+00 -5.373116e-01 2.369163e+00 8.965733e-01 -3.166698e+00 1.454275e+00 1.905808e+00 4.464824e-01 2.679281e-01 -3.263616e-01 9.164580e-01 3.277846e-01 3.025804e-01 2.145283e-01 -2.701415e-01 -2.942874e-01 5.303143e-01 -5.363008e-01 -8.720870e-02 1.380607e+00 -2.921134e-02 
-8.438662e+00 -3.039093e+00 3.104295e+00 -9.782969e+00 -2.893166e+00 3.654623e+00 -1.252961e+00 6.106427e-01 2.473336e+00 1.671985e+00 9.581079e-01 -4.051508e+00 4.007925e-01 1.833133e+00 -4.459806e-01 1.422303e+00 2.959077e+00 8.211824e-01 7.013492e-02 8.436707e-01 5.165533e-01 -6.482168e-02 -1.450361e+00 -4.876642e-01 7.590879e-01 -3.861095e-02 
-6.854950e+00 -2.878560e+00 3.337036e+00 -7.774227e+00 -1.091101e+00 5.792310e+00 -2.045837e+00 -5.288010e-01 4.502453e+00 -4.150701e-01 5.931920e+00 3.381803e+00 3.804697e-01 2.555708e+00 -6.707512e-01 2.155823e+00 2.969573e+00 3.279228e-02 5.920145e-01 2.207456e+00 -1.398311e-02 1.104936e+00 -1.098393e+00 -7.445799e-01 4.669794e-01 -5.065601e-02 
4.819298e-02 -3.480177e+00 7.416173e+00 3.615776e+00 4.840189e+00 6.282216e+00 6.017620e+00 4.880005e+00 9.157028e-01 -9.127129e+00 -5.144957e-01 2.156416e+00 3.218275e-01 3.059938e+00 5.268450e-02 2.161707e+00 2.253582e+00 -4.849760e-01 7.477741e-01 9.408349e-01 -1.465872e+00 3.629792e-01 -6.481699e-01 -1.092725e+00 1.445719e+00 -7.132839e-02 
4.781494e-01 -3.293505e+00 1.209910e+01 -1.429166e+00 -4.780867e+00 5.962196e+00 6.864678e+00 1.645664e-01 7.200070e+00 -3.259108e+00 -1.532323e+00 1.136743e+00 2.326848e-01 2.885101e+00 2.646855e-01 -5.784164e-02 1.587107e+00 -1.987064e+00 -6.136533e-01 -7.910126e-01 -3.288575e+00 -5.775550e-01 2.637746e-01 -1.778936e+00 -2.487397e-01 -1.078954e-01 
3.194479e+00 -2.568198e+00 9.531797e+00 -1.687587e+00 -3.473163e+00 7.308550e+00 -1.004045e+00 -7.065401e+00 2.939423e+00 -1.468462e-01 -7.733974e-01 4.299615e+00 1.180429e-01 1.478603e+00 7.821968e-01 -3.436309e+00 -2.008030e-01 -2.810127e+00 -1.303053e+00 -2.358062e+00 -3.433696e+00 -1.520184e+00 5.860184e-01 -2.396060e+00 -1.424000e+00 -1.150260e-01 
5.997411e+00 -2.011122e+00 1.990016e+00 2.812991e+00 -6.869745e+00 2.210876e+00 -2.490068e+00 -1.099897e+01 6.028180e-01 -3.586339e+00 -2.833309e+00 1.066505e+00 -5.711520e-02 1.340071e+00 1.115775e+00 -4.868517e+00 1.386690e+00 -2.611558e-01 -2.419054e+00 -1.321971e+00 -7.489521e-01 -3.061306e+00 1.821899e-03 -1.710933e+00 -2.439149e+00 -9.944002e-02 
4.681576e+00 -2.103846e-01 -4.710830e+00 4.906821e-01 -8.166008e+00 1.642608e+00 -1.095316e+00 -6.706704e+00 -3.386591e+00 -6.033421e+00 -1.184430e+01 -4.928467e+00 -1.084023e-01 1.079680e+00 1.480287e+00 -3.551314e+00 5.322772e-01 1.403737e+00 -1.387824e+00 1.107804e+00 1.061411e+00 -2.249703e+00 -5.815434e-03 -9.940177e-01 -1.390146e+00 -6.328487e-02 
6.434958e+00 1.106463e+00 -5.122169e+00 4.415148e+00 -3.740224e+00 -3.300104e+00 3.004584e-01 -3.759542e+00 -4.943450e+00 -3.067107e-01 -4.551533e+00 -6.444963e+00 -1.512927e-01 3.282712e-01 1.405954e+00 -8.084334e-01 -4.804355e-01 2.542999e+00 1.320126e+00 1.902098e+00 1.988456e+00 -9.139879e-01 7.425703e-01 1.080503e-01 8.770820e-01 -2.312454e-02 
8.374104e+00 3.274442e+00 -4.668680e+00 1.727195e-01 1.980762e+00 3.124923e+00 3.139709e+00 -5.378064e+00 -5.535957e+00 -1.815737e+00 -4.884374e+00 1.104617e+00 -1.512927e-01 2.533618e-01 1.574209e+00 7.993273e-01 2.170042e-01 2.579336e+00 1.547012e+00 1.721284e+00 1.862901e+00 1.075005e+00 6.929320e-01 1.235242e+00 1.627361e+00 -8.578086e-03 
5.792502e+00 3.276236e+00 -2.073226e+00 5.697947e-01 7.718651e-01 8.070349e+00 4.902907e+00 -1.721015e+00 -2.892438e+00 -1.982329e+00 -5.773023e+00 2.435373e+00 -1.512927e-01 -2.831083e-01 1.377745e+00 3.910540e-01 -6.236289e-01 1.162339e+00 5.901599e-01 1.723264e+00 1.153512e+00 1.464994e+00 -5.464180e-01 -3.894824e-01 3.408849e-01 0.000000e+00 
6.269612e+00 6.575776e+00 -2.238665e+00 3.498380e+00 2.474629e+00 3.692443e+00 5.209878e+00 1.588536e+00 9.629300e-01 -1.730952e+00 -5.057347e+00 -1.231832e+00 -1.512927e-01 -7.599747e-01 3.514692e-01 -8.080697e-02 1.224425e-01 4.763139e-02 -1.005393e+00 1.406493e+00 1.226926e+00 1.514257e+00 -3.116519e-01 2.931508e-01 -1.633265e+00 0.000000e+00 
6.071662e+00 6.344519e+00 -4.381907e+00 -3.658259e-01 1.824538e+00 -6.330649e-01 7.881693e+00 -1.475282e+00 -8.679223e-01 -3.081193e+00 -6.412458e+00 -3.572315e+00 -1.512927e-01 -5.692097e-01 6.175618e-01 -6.316427e-02 5.620586e-01 5.649313e-01 -1.522598e+00 4.719483e-01 7.525561e-01 6.320465e-01 -5.303795e-02 8.882285e-01 -6.624298e-01 0.000000e+00 
4.434651e+00 3.497647e+00 -3.918374e+00 1.252742e+00 1.692582e+00 2.449664e+00 8.682783e+00 6.337005e-01 1.023071e+00 -2.824564e+00 -3.098902e+00 -4.057867e+00 -1.512927e-01 -6.394560e-01 1.447726e-01 5.320795e-01 9.005518e-01 1.502896e-01 -8.225950e-01 3.261370e-01 3.491843e-01 3.107926e-01 1.401443e+00 1.253739e+00 3.707200e-01 0.000000e+00 
3.863935e+00 7.903110e+00 -1.549193e+00 4.502906e+00 3.987545e+00 1.078747e+00 5.526196e+00 2.519183e+00 2.377236e-01 -1.700712e+00 -2.311103e+00 5.362417e-01 -1.512927e-01 -2.149595e-01 4.141685e-01 6.203767e-01 1.958798e+00 -5.579527e-02 4.918610e-01 3.781908e-01 1.270674e+00 4.382463e-01 1.376408e+00 9.352821e-01 8.936885e-01 0.000000e+00 
4.176196e+00 6.520344e+00 -9.946242e-01 5.566773e+00 2.144574e+00 -1.276438e+00 8.018312e+00 1.337225e+00 1.964070e+00 4.586020e+00 -8.393323e-01 -1.432510e+00 -1.512927e-01 -5.984211e-02 6.177783e-01 5.391139e-01 1.337455e+00 3.867926e-02 3.032031e-01 -7.752761e-01 1.087543e-01 -3.578960e-01 7.272837e-01 -3.082344e-01 1.712774e+00 0.000000e+00 
5.126092e+00 6.904013e+00 -2.741898e+00 7.271148e+00 1.319566e+00 3.689291e+00 1.010488e+01 4.526328e+00 8.528101e-01 9.555334e-02 -2.865833e+00 -4.165506e-01 -1.512927e-01 -3.841212e-01 -2.658284e-01 4.223875e-01 7.842889e-02 6.957453e-01 1.814361e-01 -9.219458e-01 -7.913276e-01 -2.978621e-01 7.736633e-01 -3.747669e-01 5.424971e-01 0.000000e+00 
3.504362e+00 7.086087e+00 -6.264521e-01 6.555895e+00 3.219968e+00 2.660407e+00 2.517059e+00 1.738994e-01 -1.073952e+00 -8.627862e-02 -4.362709e+00 4.982398e+00 -1.512927e-01 -9.312867e-01 -4.753894e-01 5.721411e-01 -5.867290e-03 9.831017e-01 -4.585743e-03 -1.315706e+00 -4.105567e-01 -1.843916e-01 3.715685e-01 5.868188e-01 3.790181e-01 0.000000e+00 
2.279245e+00 6.291096e+00 3.786589e-01 4.400489e+00 6.928575e+00 1.750496e-02 3.667094e+00 -8.557920e-01 2.674243e-01 4.503754e+00 -2.423249e+00 4.127324e-02 -1.512927e-01 -8.351713e-01 -2.486546e-01 9.198140e-01 -2.083972e-01 5.442714e-01 -1.721494e+00 -1.205751e+00 -7.615668e-01 3.961973e-01 7.182593e-01 1.368961e+00 7.120418e-03 0.000000e+00 
9.431858e-01 4.449855e+00 3.058026e-01 6.972766e+00 4.255578e+00 5.365267e-01 4.658675e+00 1.975502e+00 1.334805e+00 4.239763e+00 1.873469e+00 2.336686e-01 -1.512927e-01 -3.072142e-01 -2.692111e-01 -1.118278e-01 -1.824566e-01 -4.207392e-01 -9.273704e-01 6.017362e-01 4.617428e-01 1.583122e-01 -7.263428e-01 1.560087e+00 -3.768843e-01 0.000000e+00 
2.230824e+00 6.978856e+00 1.391044e+00 6.020727e+00 3.523118e+00 -3.856240e+00 3.005318e+00 -1.823068e-01 1.629418e+00 1.523829e+00 8.608847e-01 1.993416e+00 -1.512927e-01 2.940292e-02 -2.896264e-01 -4.620880e-01 -2.568876e-01 -1.223925e+00 -4.429949e-01 -1.529141e-01 -1.053544e-01 -2.005786e-01 -1.636884e+00 6.613828e-01 1.107793e+00 0.000000e+00 
1.992502e+00 5.396152e+00 -1.691784e+00 4.833493e+00 2.819000e+00 -3.957286e-02 5.856628e+00 2.145871e+00 -9.633880e-01 -2.228030e+00 1.795660e+00 2.121905e+00 -1.512927e-01 -8.134289e-02 1.033705e-01 -3.792384e-01 -1.453028e+00 -7.063653e-01 3.852918e-01 -1.039091e+00 -1.141409e+00 -7.038735e-01 -6.089731e-01 -7.222565e-01 2.356725e-02 0.000000e+00 
1.901602e+00 4.369815e+00 -9.329879e-01 4.185687e+00 1.527241e+00 -1.909420e+00 2.303547e+00 -1.467748e+00 4.136277e-01 -4.467723e-01 9.225702e-01 4.636120e+00 -1.512927e-01 -1.999119e-01 -4.636482e-01 -5.805439e-01 -7.362416e-01 4.859943e-02 8.526643e-01 -2.743864e-02 -8.595514e-01 -1.458197e+00 9.173182e-01 -4.468399e-01 -1.975708e-01 0.000000e+00 
7.010822e-01 6.271227e+00 -4.283730e-01 6.251475e-01 1.721690e+00 1.489575e+00 -1.858974e-01 -3.088824e+00 -1.576668e+00 2.180198e+00 -1.768656e+00 -9.698472e-01 -1.512927e-01 -3.186470e-01 -7.881606e-02 -5.048195e-02 -6.439616e-01 4.368441e-01 -6.316559e-01 -5.960447e-01 -4.348735e-01 -7.334954e-01 1.577368e+00 8.914033e-01 8.754292e-01 0.000000e+00 
1.876974e+00 4.223077e+00 -2.143381e+00 4.443692e+00 4.314770e+00 -3.574929e-01 5.889387e+00 -1.862717e+00 -5.354927e+00 3.906306e+00 4.088430e-01 2.551438e+00 -1.512927e-01 1.184168e-01 2.326081e-02 -2.365750e-01 2.050417e-02 1.566353e+00 -5.575066e-01 6.224574e-01 6.321121e-01 2.082697e-01 6.783146e-01 1.066357e+00 3.768106e-01 0.000000e+00 
4.115810e-01 5.075440e+00 -1.338997e+00 1.484683e+00 3.609456e+00 -3.973816e+00 1.083485e+00 1.689874e-01 -1.746587e+00 3.482272e+00 6.509540e+00 7.541391e+00 -1.512927e-01 4.483083e-01 -8.864330e-02 -1.745965e-01 7.132624e-01 9.663717e-01 -3.635982e-01 1.149760e+00 1.586153e+00 1.378991e+00 6.825840e-01 1.511202e+00 7.702535e-01 0.000000e+00 
2.638436e+00 5.084013e+00 -1.660551e+00 3.858440e+00 8.415121e+00 -1.965257e+00 4.781143e+00 6.390691e-02 1.539936e+00 2.293763e+00 2.115259e+00 2.264555e+00 -1.512927e-01 1.610089e-01 5.309346e-02 4.567966e-01 2.696181e-01 -9.950404e-02 9.103460e-01 5.512993e-01 1.353009e+00 2.718990e+00 3.864160e-01 5.089855e-01 -6.066518e-02 0.000000e+00 
2.561893e+00 5.397543e+00 -1.542771e+00 4.484085e+00 4.503373e+00 4.754663e-01 6.117025e+00 3.878632e+00 1.870858e+00 6.399390e+00 4.934146e+00 3.024862e+00 -1.512927e-01 3.831034e-02 -3.946421e-01 5.643142e-01 1.212919e+00 -5.900242e-01 1.298789e+00 1.139038e+00 -7.194772e-02 1.469252e+00 5.501023e-01 -1.030978e+00 -8.924009e-01 0.000000e+00 
1.606863e+00 4.327493e+00 2.424889e-01 4.292081e+00 3.370292e+00 1.969597e+00 6.129114e+00 3.047506e+00 6.431298e+00 4.379827e+00 3.741467e+00 4.506377e+00 -1.512927e-01 -5.115125e-01 -1.521816e-01 7.598330e-01 3.953908e-01 -1.909183e+00 4.882318e-02 1.526897e-01 -5.728747e-01 1.065720e+00 6.312351e-01 -1.585769e-01 -6.723247e-02 0.000000e+00 
1.118919e+00 3.480490e+00 5.310540e-01 7.332455e+00 3.181749e+00 5.527045e-01 6.104689e+00 -1.682551e+00 3.153991e+00 5.189752e+00 5.415449e-01 1.958475e+00 -1.512927e-01 -3.211761e-01 2.026294e-01 5.177417e-01 1.824741e-01 -8.634071e-01 -6.791778e-01 -1.973134e-01 -1.003160e+00 4.710039e-01 7.361440e-02 -6.301491e-01 -4.072646e-01 0.000000e+00 
8.023605e-01 5.281631e+00 1.101702e+00 4.411210e+00 -4.699843e-01 -1.759760e+00 5.550759e+00 -1.987505e-02 6.226971e+00 6.054758e+00 3.518675e+00 2.461586e+00 -1.512927e-01 5.807903e-01 1.053094e+00 2.262442e-01 -1.383181e-01 -8.220951e-01 -4.969717e-01 -1.073631e+00 -6.481785e-01 -1.104413e+00 -1.166266e-01 -3.831317e-01 -3.020619e-01 0.000000e+00 
1.358263e+00 5.933621e+00 6.163313e-01 5.336892e+00 2.106475e+00 -1.055744e+00 5.419635e+00 3.965235e-01 4.328042e+00 5.929996e+00 1.894797e+00 2.010935e+00 -1.512927e-01 1.013323e+00 1.285659e+00 1.829403e-01 -5.281302e-01 -6.501155e-01 1.521238e-01 -1.444967e+00 -3.137932e-02 -1.156833e+00 -6.154546e-01 -1.154215e-01 2.530977e-01 0.000000e+00 
4.391143e+00 8.366400e+00 1.331071e+00 4.598272e+00 -2.025468e-01 2.889624e-01 1.103487e+00 -1.232923e+00 3.222082e-01 3.426572e+00 1.149183e+00 2.969837e+00 -1.512927e-01 1.021044e+00 8.602314e-01 1.173478e-01 -3.644938e-02 -1.774147e-01 5.442151e-01 -1.321069e+00 -4.055544e-01 -1.581536e+00 -7.759797e-01 -5.484596e-01 1.975405e-01 0.000000e+00 
