-1.341464e+01 7.760023e+00 2.156881e+00 2.044119e+00 2.921487e+00 -3.496319e+00 6.321766e-01 2.577501e+00 3.097744e+00 8.408001e+00 6.605694e+00 -5.990120e-01 -1.512927e-01 4.566679e-01 1.950042e-01 2.361008e-01 -9.182583e-01 2.176009e-01 9.368436e-01 -1.585756e-01 1.090907e-01 -1.911863e+00 3.209163e-01 -6.812037e-01 -9.574860e-01 0.000000e+00 
-1.269697e+01 9.342612e+00 6.240620e+00 -7.727075e-02 3.412762e+00 -2.965164e+00 4.940946e-01 5.223801e+00 2.039087e+00 8.867028e+00 5.417134e+00 -3.740029e+00 -1.512927e-01 4.070145e-01 -2.123823e-02 -2.808270e-01 -5.743993e-01 7.088437e-01 1.376196e+00 -9.195078e-01 1.751078e-01 -1.445148e+00 2.716556e-01 -5.395294e-01 8.415685e-02 0.000000e+00 
-1.149013e+01 7.943749e+00 1.295516e+00 -1.486478e+00 3.763854e+00 9.223211e-01 -9.166026e-02 1.799804e+00 -5.932240e+00 9.783069e+00 3.793956e+00 -3.815933e+00 -1.512927e-01 8.418198e-02 -3.278337e-01 -8.156292e-01 -5.095656e-01 1.297178e+00 6.778817e-01 -1.443282e+00 -6.817495e-01 -3.674600e-01 1.959030e-01 -1.710832e-02 1.596997e+00 0.000000e+00 
-1.234182e+01 7.561969e+00 1.183429e+00 9.374206e-01 6.044522e+00 1.175339e+00 -3.603444e+00 3.841888e+00 3.869946e-01 9.078745e+00 5.313916e+00 1.430233e+00 -1.512927e-01 -1.148457e-01 -4.931600e-01 -1.430910e+00 2.198871e-01 8.721963e-01 -1.017521e-01 -1.224606e+00 -1.166149e+00 9.840769e-01 -8.949028e-01 -3.397099e-01 1.201505e+00 0.000000e+00 
-1.317130e+01 7.011177e+00 6.073304e-01 -1.011055e+00 8.091497e+00 -2.177162e+00 -4.535461e+00 -1.402903e-01 2.086490e+00 9.281658e+00 6.571762e+00 4.800840e+00 -1.512927e-01 -2.821241e-01 -6.146970e-01 -7.460372e-01 -1.631980e-02 2.593756e-01 -8.263682e-01 -3.488107e-01 -5.704895e-01 1.009330e+00 -1.702218e+00 1.065416e+00 1.268666e+00 0.000000e+00 
-1.243061e+01 7.343099e+00 -5.698372e-01 7.844534e-01 5.609921e+00 -1.924183e+00 -3.407034e+00 3.631022e-01 2.950106e+00 4.643220e+00 2.329682e+00 -2.040892e+00 -1.512927e-01 -8.810234e-03 -2.345052e-01 -7.306234e-01 -1.219311e+00 -8.772802e-01 -1.060929e+00 1.057523e+00 -4.424976e-01 -2.370269e-01 -1.690260e+00 6.274728e-02 -3.287636e-01 0.000000e+00 
-1.285636e+01 4.979700e+00 -1.558037e+00 -1.491593e+00 5.278031e+00 -1.659759e+00 -1.933919e+00 6.867496e-01 -2.167147e+00 3.489742e+00 1.061316e+01 4.262958e+00 -1.512927e-01 9.898472e-02 5.164027e-02 -2.624547e-01 -5.045939e-01 -1.460723e+00 -4.585065e-01 9.408571e-01 8.637698e-01 -1.188203e+00 -2.094453e+00 1.135354e-01 2.420386e-01 0.000000e+00 
-1.254334e+01 7.405181e+00 -1.387005e+00 -4.918864e+00 3.064853e+00 -4.388006e+00 3.834012e-01 1.215881e+00 1.328679e+00 3.523403e+00 3.606956e+00 5.535626e-02 -1.512927e-01 -1.655153e-01 -2.544989e-01 -3.125180e-01 -6.070580e-01 -1.272682e+00 -9.490821e-01 1.506731e-02 -1.189508e-01 -7.064487e-01 -6.252595e-01 -4.650549e-01 2.283363e-01 0.000000e+00 
-1.262001e+01 7.238337e+00 -2.963592e-01 -6.823657e-01 2.060414e+00 -3.237782e+00 -1.726393e+00 3.752170e+00 -3.043811e+00 -6.306990e-01 6.500802e+00 4.962909e+00 -1.512927e-01 -1.129414e-01 -1.289642e-01 -3.475122e-01 -3.770991e-01 -9.497005e-01 -4.109190e-01 -8.358787e-01 -9.600787e-02 2.097704e-01 -8.385344e-01 -1.792025e+00 -1.034670e+00 0.000000e+00 
-1.337636e+01 4.941286e+00 -2.763266e+00 -2.655451e+00 8.553202e-01 -5.880581e+00 -3.435460e+00 -1.764362e+00 -1.438053e-01 3.577144e+00 2.060584e+00 -1.249187e+00 -1.512927e-01 -6.488208e-02 -2.690787e-02 -5.161362e-02 4.194372e-01 -2.862563e-01 2.878967e-01 7.348418e-03 -1.981566e-01 1.290037e-01 -6.053526e-02 -6.434500e-01 -1.038450e+00 0.000000e+00 
-1.300456e+01 5.566826e+00 -2.607467e+00 -4.508796e+00 1.634296e+00 -2.968066e+00 -4.203881e+00 1.696832e+00 -3.820533e-01 -7.298001e-01 2.426218e+00 -2.581191e-01 -1.512927e-01 -7.425518e-02 -4.736853e-02 -3.310387e-01 -1.640622e-01 -3.099451e-01 -2.141002e-01 1.365551e-01 -6.708550e-01 1.397560e-01 4.891766e-01 -1.233932e-01 -9.454913e-01 0.000000e+00 
-1.267548e+01 8.106398e+00 -4.895186e-01 -9.084637e-01 1.846631e+00 -3.083381e+00 1.658887e+00 1.252767e+00 6.428180e-01 3.270277e+00 2.426998e+00 -2.526381e+00 -1.512927e-01 1.368023e+00 -1.317395e+00 -1.635590e+00 -2.485411e+00 -1.948214e+00 9.926500e-02 3.486189e-01 1.550162e-01 -1.707617e-01 -2.343302e+00 -6.667447e-01 5.058290e-01 0.000000e+00 
-1.334173e+01 5.418938e+00 -3.088427e+00 -2.376170e+00 1.503301e-02 -5.706884e+00 -3.590791e+00 -1.110670e+00 -2.738343e+00 1.968617e+00 5.700629e+00 8.740499e-01 -1.512927e-01 2.541499e+00 -2.307661e+00 -2.450209e+00 -3.771533e+00 -2.402318e+00 6.500968e-01 7.258360e-01 -5.363470e-01 4.663882e-01 -3.884309e+00 -1.563163e+00 1.089220e+00 1.578958e-02 
-6.367657e+00 -1.571747e+00 -1.070074e+01 -1.614882e+01 -8.076119e+00 -4.014848e+00 -1.998910e+00 4.144700e-01 1.805310e-01 -9.488578e+00 -2.910346e+00 7.138736e-01 -1.512927e-01 1.345983e+00 -2.196604e+00 -2.406925e+00 -2.569625e+00 -3.123672e-01 2.087609e+00 -3.128115e-01 -1.195155e+00 9.190113e-01 -2.102768e+00 -1.020145e+00 1.954922e+00 7.894790e-03 
-3.450971e+00 -1.132405e+00 -9.752902e+00 -1.574628e+01 -5.415917e+00 7.481513e-01 1.254197e+00 -5.657554e-01 2.181031e+00 -1.377192e+01 -2.720927e+00 3.567856e+00 -7.234478e-02 -2.930537e-01 -1.484860e-01 -3.936936e-01 4.083839e-01 1.558269e+00 8.162506e-01 3.543273e-01 -4.416600e-01 4.412488e-01 1.801466e+00 -1.785272e-01 -7.237705e-01 0.000000e+00 
-1.089094e+01 3.990479e-01 -9.191909e+00 -7.071535e+00 3.000270e+00 4.127148e+00 -2.327664e+00 -4.995466e+00 2.778187e+00 6.267036e-01 1.537053e+00 5.901328e+00 -1.512927e-01 -2.222031e+00 -1.962737e-01 7.089304e-01 4.720433e+00 5.091870e+00 4.809957e-02 -2.054053e+00 -1.267815e+00 9.890257e-01 7.219450e+00 2.089379e+00 -1.434342e+00 -7.894790e-03 
-1.254535e+01 3.691111e+00 -5.811309e+00 -4.872891e+00 2.268184e+00 -5.696629e+00 -1.654778e+00 -6.140021e-01 -1.830927e+00 5.918307e+00 2.584294e+00 -5.338530e+00 -1.512927e-01 -1.948612e+00 4.834253e-01 1.612917e+00 4.353546e+00 3.987146e+00 -1.004456e+00 -1.936452e+00 8.321421e-01 1.448508e+00 6.683319e+00 1.897463e+00 -2.573032e+00 -1.578958e-02 
-1.293062e+01 -4.964873e+00 -9.126882e+00 2.016653e+00 1.354118e+01 -5.519599e-01 -1.081469e+01 -5.900484e+00 7.131639e+00 1.676356e+01 4.883939e+00 -2.004644e+00 -1.512927e-01 -5.892140e-01 9.763653e-01 2.079589e+00 1.439026e+00 2.405950e-01 -1.466368e+00 4.087253e-01 1.252011e+00 -4.418602e-01 2.073601e+00 8.459812e-01 -6.604974e-01 0.000000e+00 
-1.217419e+01 3.966682e+00 -1.720831e+00 1.477356e+00 9.249361e+00 -1.934576e+00 -4.184548e+00 4.047464e+00 7.246847e+00 1.157625e+01 5.092945e+00 -5.344316e+00 -1.512927e-01 -1.286543e-01 1.556241e+00 1.878193e+00 -7.358514e-01 -2.080008e+00 -5.179862e-01 1.686235e+00 1.003661e+00 -1.072562e+00 -8.225357e-01 4.716777e-02 1.116113e+00 0.000000e+00 
-1.402260e+01 5.143088e+00 -8.392028e-01 -3.051527e+00 7.126570e-01 -5.085719e+00 9.808468e-01 -1.066144e+00 -3.970001e+00 8.165740e+00 4.512633e+00 2.601734e+00 -1.512927e-01 -3.208490e-01 -1.038553e-01 2.183824e+00 -1.535378e+00 -3.699570e+00 -8.346651e-02 2.122212e+00 1.078305e-01 -4.542596e+00 -3.260764e+00 -6.640712e-01 7.205514e-01 4.212032e-02 
-1.264264e+01 6.418337e+00 -5.641814e-01 -6.018059e+00 -1.717594e+00 -6.019680e+00 8.786268e-01 1.987134e+00 -1.642918e+00 6.104538e+00 3.005785e+00 -2.061152e+00 -1.512927e-01 -5.120199e-01 -3.944657e+00 1.281531e+00 -3.697012e-01 -3.520201e+00 1.606718e+00 1.833191e+00 -1.534350e+00 -4.873320e+00 -3.021553e+00 -1.184856e-01 2.424788e-01 1.356775e-01 
-1.430064e+01 -6.709977e+00 1.213916e+00 -1.912528e+00 5.268095e-01 1.073259e+00 -2.735219e+00 -4.331167e+00 -1.113646e+01 3.195593e+00 2.607163e+00 -4.346895e-02 5.930889e-02 -1.747452e-01 -4.349628e+00 2.071905e+00 1.288565e+00 -3.017900e+00 3.194380e+00 3.481242e+00 5.175161e-01 -3.228112e+00 -3.285691e+00 1.110289e+00 -2.296169e-01 1.591272e-01 
-1.459527e+01 -9.830070e+00 3.660264e+00 -9.406497e-01 -8.258721e+00 3.019527e+00 6.839439e+00 -1.991776e+00 -1.353652e+01 -1.046440e+00 5.453252e+00 -2.809320e+00 4.217941e-01 2.714258e-01 -2.780174e+00 -1.049901e+00 3.108911e+00 1.723886e+00 1.888643e+00 3.654833e-01 2.211597e-01 -1.203484e+00 -8.409811e-01 -1.853437e-01 -4.511034e-01 8.276077e-02 
-1.392001e+01 -8.480851e+00 7.408100e+00 8.525925e-01 -1.110628e+01 6.366577e+00 1.540665e+01 3.510891e+00 -1.416376e+01 -4.687224e+00 8.840346e+00 1.827734e+00 3.577999e-01 7.974428e-01 2.307763e-01 -3.421886e+00 3.326573e+00 5.178861e+00 -8.117046e-02 -2.447259e+00 5.825134e-01 1.438122e+00 1.399353e+00 -1.587770e+00 -1.475888e+00 2.548102e-02 
-1.147583e+01 -6.597094e+00 -8.910780e+00 8.143935e+00 1.271838e+01 7.768750e-01 -6.364891e+00 -8.280964e-01 -6.146686e+00 5.841041e+00 -1.037524e+00 -5.252271e+00 1.132657e-01 1.053313e+00 1.302065e+00 -3.944397e+00 2.605696e+00 7.383852e+00 -1.362093e+00 -6.044720e+00 -5.984660e-01 3.426131e+00 3.687274e+00 -1.888445e+00 -1.379604e+00 -1.013068e-01 
-1.187315e+01 -7.172584e+00 -9.609993e+00 1.017804e+01 1.593256e+01 1.788733e+00 -8.369350e+00 -2.000440e+00 -7.640768e+00 6.748619e+00 -2.086301e+00 -6.201433e+00 3.409782e-01 7.907966e-01 2.850327e+00 -1.424698e+00 -1.331260e+00 2.489557e+00 -1.492538e+00 -3.877873e+00 -1.271788e+00 3.620604e+00 2.617721e+00 -9.960523e-01 -6.524684e-01 -1.207780e-01 
-1.035213e+01 -3.973876e+00 -7.552674e+00 7.425103e+00 1.514111e+01 -1.502015e+00 -1.149616e+01 -2.228441e+00 3.326380e-01 1.167201e+01 1.474349e+00 -5.692755e+00 -7.632923e-02 -4.328606e-01 1.875069e+00 4.137435e+00 -3.675631e+00 -3.897165e+00 1.664159e+00 -8.318081e-02 -1.344578e+00 4.048578e+00 3.143720e-01 7.367707e-01 1.551047e+00 -9.340649e-02 
-1.052787e+01 4.459172e+00 -3.944409e-01 -5.444293e+00 1.301365e-01 4.333317e-02 -1.417083e+00 -2.147879e+00 6.995988e-01 5.485896e+00 2.604148e+00 -1.214366e+00 -1.512927e-01 -3.971957e-01 2.440984e+00 4.040696e+00 -2.828637e+00 -3.852369e+00 8.916075e-01 1.414153e+00 -4.605356e-01 2.686227e+00 -1.405337e+00 1.593152e+00 3.094235e+00 -1.015844e-01 
-1.431277e+01 -3.037628e+00 7.168622e+00 -2.423049e+00 1.133770e+00 9.970370e+00 -1.025693e+01 -7.477264e+00 9.926021e+00 8.044263e+00 3.011054e-01 9.431601e-03 -1.076313e-01 -6.170391e-01 2.144349e+00 1.704439e+00 -1.501068e+00 -2.382746e+00 9.443666e-02 2.212006e+00 1.630457e-01 -6.649844e-01 -1.934183e+00 1.216627e+00 2.432191e+00 -1.499269e-02 
-1.187881e+01 4.564214e+00 3.232839e+00 9.589360e-01 3.674392e+00 5.105779e-01 -1.918201e+00 -1.678706e+00 9.936783e-01 1.535809e+00 6.466080e+00 6.418649e+00 -1.512927e-01 -2.398705e-01 1.365328e+00 -8.787085e-01 4.017429e-01 7.166605e-01 -2.119200e+00 7.550389e-01 1.034326e+00 -2.167698e+00 -5.043553e-01 8.850249e-01 1.372018e-01 -4.366136e-03 
-1.276186e+01 6.695347e+00 -8.441178e-01 -3.281850e+00 1.455255e+00 -1.263454e+00 -1.855689e-01 -1.647799e+00 -3.139324e+00 3.976138e+00 5.626518e+00 2.651693e+00 -1.512927e-01 1.539778e-01 2.237114e+00 -1.555289e+00 -7.865310e-03 8.975568e-02 -2.915248e+00 2.393855e+00 2.825758e+00 -3.473219e+00 -3.380222e-01 1.349877e+00 -6.963339e-01 -8.732271e-03 
-1.250268e+01 6.419323e+00 -7.816142e-01 -3.006179e+00 3.552697e+00 -4.935756e+00 -2.677569e+00 1.090204e-01 -3.606219e+00 4.998181e+00 4.366567e+00 -1.849488e+00 -1.512927e-01 6.181641e-02 8.573768e-01 -2.801574e-01 3.552880e-01 5.807998e-01 -3.526265e-01 5.484729e-01 1.154238e+00 -1.007849e-01 1.369582e+00 5.999506e-01 -1.243701e+00 0.000000e+00 
-1.323094e+01 7.220388e+00 1.399406e+00 -4.798181e-01 1.643396e+00 -1.882705e+00 2.092031e+00 5.757663e+00 -5.140128e+00 4.622965e+00 8.100246e+00 6.618307e-01 -1.512927e-01 7.901106e-01 8.057176e-01 7.212608e-01 1.314379e+00 1.024782e+00 4.288722e-01 8.221582e-01 7.672743e-01 5.200132e-01 -6.896118e-01 -1.823249e-01 -6.086998e-01 0.000000e+00 
-1.133518e+01 8.588577e+00 7.102907e-01 1.334360e+00 6.484320e+00 -9.429289e-01 -3.146368e-01 3.897562e-01 1.490156e+00 8.060307e+00 8.228970e+00 1.195076e+00 -1.512927e-01 1.191407e+00 9.285690e-01 7.414514e-01 7.844623e-01 2.801682e-01 9.404638e-01 7.574700e-01 4.580902e-01 1.532640e-02 -8.535150e-01 -8.518442e-01 -4.687154e-01 0.000000e+00 
-9.395053e+00 9.639309e+00 2.016234e+00 1.119778e+00 5.113355e+00 -1.115507e+00 2.743756e+00 2.048205e+00 -3.087445e+00 -1.002983e+00 2.783693e+00 -1.914087e+00 -1.512927e-01 1.800652e+00 7.676628e-01 1.155362e+00 1.087517e+00 -2.933770e-01 8.085050e-02 -7.523699e-01 -1.428032e-01 -5.935484e-01 -3.608515e-01 -1.088630e+00 -1.698068e+00 0.000000e+00 
-8.463592e+00 9.852707e+00 2.617229e+00 1.163349e-01 3.218559e+00 -6.170362e-01 7.839187e-01 4.254200e+00 -4.555928e+00 3.543581e+00 2.765622e+00 -2.905106e+00 -1.512927e-01 1.991920e+00 4.498695e-01 2.157683e+00 1.972007e+00 -3.107231e-01 -3.477730e-01 1.769804e-01 1.473793e+00 -1.418499e+00 -8.603784e-01 -5.220297e-01 -2.271291e+00 0.000000e+00 
-5.663480e+00 1.042664e+01 6.222746e+00 5.566778e+00 1.809392e+00 -1.641399e+00 -2.219097e+00 3.111424e+00 -5.084827e+00 5.077070e+00 5.388769e+00 -5.778419e+00 -1.512927e-01 2.640103e+00 1.748169e+00 3.345468e+00 2.772882e+00 8.150833e-01 -1.221772e+00 -2.129121e-01 6.864904e-01 -1.425574e+00 -5.138879e-01 -1.190405e-01 -2.096072e+00 3.391897e-02 
-3.241369e+00 1.044426e+01 9.395450e+00 8.970895e+00 6.582686e+00 -2.418848e+00 3.051692e+00 7.227109e+00 -4.603651e+00 7.183877e-01 4.316283e+00 -8.229214e+00 -1.512927e-01 4.083458e+00 2.028346e+00 3.045244e+00 2.931963e+00 4.172853e-01 -2.528819e+00 -4.853209e-01 -1.089257e+00 -8.927460e-01 -1.509263e+00 -8.800896e-01 -1.638713e+00 9.718197e-02 
1.194350e+00 1.808438e+01 1.535446e+01 1.055691e+01 7.506708e+00 -6.323461e+00 5.453095e-01 3.994202e+00 -1.019146e+01 -2.159826e+00 1.413160e+00 -9.732391e+00 1.830214e-02 4.534488e+00 8.376322e-02 9.332107e-01 1.057467e+00 -5.017152e-01 -1.936467e+00 2.665748e-01 -2.187730e+00 -1.649536e+00 -7.665384e-01 -1.760089e-01 -2.268166e+00 1.388053e-01 
8.524784e+00 1.616557e+01 1.327759e+01 1.228109e+01 2.456326e+00 -1.092010e+01 -3.024889e+00 -1.633474e+00 -6.466344e+00 -3.842862e-01 3.529793e-01 -9.121685e+00 2.498198e-01 4.064198e+00 -2.190039e+00 -1.291546e+00 7.303684e-01 -1.672841e+00 -2.554174e+00 4.392430e-01 -3.053630e+00 -2.205317e+00 7.482246e-01 4.416577e-01 -2.134983e+00 1.444936e-01 
1.112589e+01 7.984799e+00 8.947729e+00 9.199016e+00 1.363996e+00 -7.073110e+00 2.152068e+00 -3.396934e+00 -1.240116e+01 1.795715e+00 6.490376e+00 -1.667302e+01 3.421775e-01 2.758585e+00 -4.176149e+00 -2.353677e+00 2.980811e-01 -1.136853e+00 -1.874208e+00 7.810973e-01 -2.023225e+00 -1.478083e+00 1.216121e+00 3.323175e-01 -5.341659e-01 1.010293e-01 
1.211385e+01 4.543852e+00 6.141086e+00 1.330168e+01 1.289834e+00 -1.481489e+01 4.444528e+00 -4.345474e+00 -1.452538e+01 2.481740e+00 3.985963e+00 -1.543382e+01 4.092376e-01 1.171960e+00 -3.951846e+00 -1.298542e+00 8.022093e-01 -1.124737e+00 -1.308078e+00 1.477965e+00 -1.758462e+00 -1.141505e+00 8.287657e-01 -1.461883e-01 5.471356e-01 6.123550e-02 
1.319274e+01 3.014490e+00 7.154329e+00 1.153702e+01 2.405688e+00 -1.374710e+01 7.160878e-01 -4.765923e+00 -1.355235e+01 2.487765e+00 1.258255e+00 -9.247156e+00 4.437397e-01 5.146984e-01 -2.837915e+00 6.096182e-02 1.520113e+00 -1.262678e+00 -1.731133e+00 5.317518e-01 -1.522745e+00 -1.073308e-01 8.213817e-01 -8.539578e-01 1.614878e+00 5.164690e-02 
1.335116e+01 -1.108505e+00 7.681579e+00 1.512313e+01 -3.688204e+00 -1.412349e+01 5.082924e+00 -9.741289e+00 -1.159827e+01 3.413517e+00 2.238098e+00 -1.009894e+01 5.052161e-01 3.871883e-01 -2.601954e+00 5.859307e-01 1.426701e+00 -1.669772e+00 -8.220796e-02 6.235442e-02 -1.556875e+00 4.670312e-01 9.825738e-01 -5.042188e-01 1.223175e+00 4.506401e-02 
1.308072e+01 -3.378599e+00 8.482292e+00 1.588886e+01 -2.460375e+00 -1.607447e+01 4.491628e+00 -8.312753e+00 -1.440137e+01 5.436735e+00 3.094520e+00 -1.126606e+01 5.524226e-01 -1.277116e-01 -2.062436e+00 5.393943e-01 9.180645e-01 -3.826956e-01 -2.071447e-01 -5.211564e-01 -7.394720e-01 1.548948e-02 1.322626e+00 -6.379315e-02 -1.412291e-01 3.956937e-02 
1.410580e+01 -5.269375e+00 8.406758e+00 1.825927e+01 -4.625993e+00 -1.406225e+01 2.868530e+00 -1.035643e+01 -1.176572e+01 5.920124e+00 5.467364e-01 -8.308485e+00 5.802162e-01 -9.274605e-01 -1.028411e+00 -6.782424e-01 -1.810633e+00 2.348741e-01 1.923290e+00 -2.484770e+00 3.820011e-01 2.606833e+00 2.822380e-01 -2.933992e-01 1.189463e+00 3.960608e-02 
1.217686e+01 -5.217256e+00 9.488711e+00 1.455927e+01 9.611042e-01 -1.481345e+01 -7.824967e-01 -8.155709e+00 -1.339118e+01 7.847594e+00 1.784971e+00 -1.084853e+01 6.040865e-01 -1.282931e+00 -9.486793e-01 -2.376653e+00 -4.570781e+00 -6.838711e-01 4.480926e+00 -3.105238e+00 1.331960e+00 5.880743e+00 -1.581086e-01 -1.737009e+00 2.765790e+00 6.724279e-02 
9.165785e+00 -5.331231e+00 3.787157e+00 6.734758e+00 -4.224573e+00 -5.137557e+00 -4.703865e+00 -7.909805e+00 9.307961e-01 3.619278e+00 1.425877e+00 -4.360394e+00 6.774146e-01 -1.143989e+00 -1.582594e+00 -3.027921e+00 -5.930018e+00 -9.097890e-01 5.757989e+00 -2.679350e+00 2.763572e+00 6.065526e+00 -3.866779e-01 -2.625513e+00 3.153414e+00 9.190160e-02 
9.136079e+00 -8.091067e+00 -1.091173e+00 -1.202794e+00 -6.080441e+00 1.867813e+00 -7.248365e+00 -2.876270e+00 8.654084e+00 5.796615e+00 -6.030097e+00 5.888386e-01 8.400373e-01 -4.400513e-01 -2.026375e+00 -2.856700e+00 -5.130756e+00 -9.498003e-01 5.789423e+00 -1.631591e+00 3.019571e+00 4.875617e+00 -1.704526e+00 -2.098899e+00 2.793339e+00 9.360714e-02 
9.906248e+00 -1.174544e+01 -1.442906e+00 -3.509785e+00 -5.654165e+00 6.387067e+00 -7.295287e+00 8.217041e-01 7.539277e+00 5.012224e+00 -8.673294e+00 1.739902e+00 9.217488e-01 3.267291e-01 -1.877208e+00 -1.413748e+00 -3.467283e+00 5.769726e-01 3.920750e+00 -1.391838e-01 2.293848e+00 7.394778e-01 -1.723839e+00 -1.069337e+00 1.545780e+00 6.694983e-02 
9.606373e+00 -1.214203e+01 -2.179759e+00 -5.972238e+00 -3.073102e+00 8.371353e+00 -7.644739e+00 2.576389e+00 7.682661e+00 -1.371511e+00 -3.659939e+00 6.801891e-02 9.499552e-01 4.371944e-01 -1.052110e+00 -3.992727e-01 -2.573921e+00 1.121384e+00 2.424653e+00 1.406872e+00 -1.150190e-01 -1.169183e+00 -2.184204e+00 1.915421e-01 1.830861e+00 3.107929e-02 
1.056428e+01 -1.269179e+01 -2.737290e+00 -8.216936e+00 -2.843379e+00 1.121442e+01 -5.201597e+00 8.331047e-01 5.113897e+00 -1.415855e+00 -5.105886e+00 3.628916e+00 9.572048e-01 2.635258e-01 -3.519154e-02 -4.970433e-01 -2.312196e+00 7.991475e-01 1.822152e+00 1.829574e+00 -1.743802e+00 -5.697412e-01 -2.010661e+00 -9.316216e-02 3.106578e+00 1.528898e-02 
1.099303e+01 -1.287844e+01 -2.440345e+00 -1.171882e+01 -1.878914e+00 1.157740e+01 -1.260852e+00 -3.457065e+00 4.020857e+00 -1.910366e+00 -6.856091e+00 8.798639e+00 9.777058e-01 3.010754e-01 2.036089e-01 -4.863445e-01 -1.701868e+00 2.115488e-03 1.766503e+00 1.431625e+00 -1.647334e+00 -4.310578e-01 -1.140972e+00 -9.569783e-01 3.857769e+00 1.122042e-02 
1.053055e+01 -1.155319e+01 -3.797830e+00 -1.219747e+01 -2.255522e+00 1.389480e+01 -1.339360e+00 -4.880581e+00 6.521473e+00 -4.771654e+00 -7.541029e+00 1.290748e+01 9.843184e-01 1.238791e-01 7.096519e-01 -6.734494e-01 -1.099583e+00 -1.757816e-01 1.229222e+00 6.503182e-01 -7.524574e-01 1.068395e-01 -1.126784e+00 -8.633963e-01 3.107754e+00 6.706679e-03 
1.112862e+01 -1.169328e+01 -4.081212e+00 -1.249131e+01 -3.356453e+00 1.586368e+01 -2.417732e+00 -2.803437e+00 4.823584e+00 -5.398473e+00 -7.227259e+00 1.471758e+01 9.925005e-01 -1.732177e-01 1.112692e+00 -9.697945e-01 -1.058434e-01 -5.319059e-01 1.075666e+00 -3.410346e-01 5.923157e-01 -1.836517e-01 -7.771819e-01 -8.619865e-01 2.263216e+00 1.890695e-03 
1.111589e+01 -9.736112e+00 -5.284103e+00 -1.332861e+01 -2.983518e+00 1.521739e+01 -1.371566e+00 -3.255996e+00 5.246731e+00 -5.305720e+00 -9.237283e+00 1.620822e+01 9.833409e-01 -2.974993e-01 1.186697e+00 -9.781233e-01 8.296289e-02 -3.547134e-01 5.085398e-01 -3.595368e-01 9.705674e-01 -7.143644e-01 -6.470459e-01 -4.468842e-01 1.215831e+00 6.837189e-04 
9.834274e+00 -8.223518e+00 -6.546181e+00 -1.168247e+01 -4.174445e+00 1.629444e+01 -2.949922e+00 -1.307779e+00 3.739969e+00 -5.529243e+00 -1.031790e+01 1.846435e+01 9.876480e-01 -2.702913e-01 9.540995e-01 -9.248546e-01 2.304095e-01 -3.677014e-01 1.575779e-01 9.854031e-03 5.644826e-01 -2.444210e-01 -1.079785e+00 -5.386858e-02 7.624905e-01 1.148200e-03 
9.690222e+00 -7.354588e+00 -7.455962e+00 -1.218708e+01 -3.620093e+00 1.622212e+01 -2.870950e+00 -7.755735e-01 3.491458e+00 -7.941499e+00 -8.230131e+00 1.711325e+01 9.901632e-01 -1.237254e-02 3.092155e-01 -5.252641e-01 1.956508e-01 -3.417271e-01 -2.282772e-02 2.256267e-01 8.928631e-02 2.096646e-01 -1.507881e+00 4.398352e-01 6.564438e-01 3.664356e-03 
1.048999e+01 -8.113546e+00 -7.619556e+00 -1.191003e+01 -4.876673e+00 1.614920e+01 -1.618770e+00 -1.221236e+00 4.479115e+00 -9.479509e+00 -8.000177e+00 1.807751e+01 9.948303e-01 3.373263e-01 1.030331e-02 -4.213137e-01 1.886929e-01 -3.897062e-01 -2.483213e-01 5.362840e-01 -2.850777e-01 4.907872e-01 -1.263183e+00 3.833992e-01 4.822395e-01 2.423829e-03 
1.072616e+01 -8.245020e+00 -7.373736e+00 -1.223657e+01 -4.341040e+00 1.517587e+01 -9.090080e-01 -2.852836e+00 5.925481e+00 -1.086999e+01 -8.196966e+00 1.968385e+01 9.980715e-01 3.917296e-01 -1.485714e-01 -2.817160e-01 2.078214e-01 -3.499953e-01 -2.586262e-01 5.183667e-01 -4.591514e-01 5.712460e-01 -7.922678e-01 -4.142113e-02 7.800758e-01 2.065629e-03 
1.100293e+01 -7.726786e+00 -8.693862e+00 -1.071426e+01 -5.762503e+00 1.557596e+01 -1.249473e+00 -1.694536e+00 4.976894e+00 -1.038091e+01 -8.417482e+00 1.959024e+01 9.958130e-01 2.073310e-01 -1.840477e-02 -3.174353e-01 2.214286e-01 -1.275755e-01 -1.767111e-01 4.029071e-01 -4.969771e-01 6.201442e-01 -6.248498e-01 5.806542e-03 4.349436e-01 3.273547e-04 
1.139240e+01 -8.290825e+00 -8.327390e+00 -1.174585e+01 -4.927155e+00 1.521561e+01 -4.637647e-01 -2.834680e+00 6.098799e+00 -1.145214e+01 -8.228584e+00 2.025727e+01 1.000000e+00 6.302395e-02 -8.366728e-02 -2.028911e-01 1.031530e-01 -7.528515e-02 -6.258354e-02 3.388727e-01 -2.458844e-01 6.103104e-01 -4.759814e-01 5.560169e-02 1.292053e-01 -1.032412e-03 
1.119353e+01 -8.182668e+00 -8.729906e+00 -1.104825e+01 -5.221493e+00 1.524578e+01 1.731434e-01 -3.715199e+00 7.493177e+00 -1.231269e+01 -7.955336e+00 1.996553e+01 9.955028e-01 1.479373e-02 -2.875009e-01 9.876327e-02 -2.209542e-01 1.481817e-01 9.114552e-02 2.035283e-01 -9.545384e-02 4.080369e-01 -1.908987e-01 3.614168e-02 1.703703e-01 -7.442117e-04 
1.094599e+01 -8.435415e+00 -8.370170e+00 -1.155382e+01 -4.987970e+00 1.502804e+01 7.404745e-02 -3.071926e+00 7.718891e+00 -1.228401e+01 -8.150031e+00 2.014224e+01 9.930645e-01 -1.507420e-01 -7.732592e-02 -4.986324e-02 -1.255149e-01 2.196126e-01 -1.420786e-01 7.586734e-02 3.147669e-01 -2.870416e-01 4.883202e-01 -2.331011e-01 1.088865e-01 -2.662277e-03 
1.130011e+01 -9.091995e+00 -8.178656e+00 -1.191505e+01 -4.991186e+00 1.612547e+01 -5.007377e-01 -2.053182e+00 6.207032e+00 -1.091947e+01 -8.276051e+00 2.049961e+01 9.955597e-01 1.167150e-02 -2.303929e-01 4.708242e-02 -2.666666e-01 5.283965e-01 -3.818418e-01 1.657927e-01 4.059137e-01 -6.975621e-01 8.158604e-01 -1.770310e-01 -7.876129e-02 -3.842145e-03 
1.058540e+01 -8.222791e+00 -8.852331e+00 -1.194003e+01 -3.944245e+00 1.406537e+01 2.525126e-01 -2.091855e+00 5.306664e+00 -9.707146e+00 -9.233732e+00 2.053466e+01 9.866602e-01 4.807205e-02 -1.097828e-01 -2.006095e-01 8.332358e-02 6.025563e-01 -5.590321e-01 3.655204e-01 -9.575136e-02 -4.477552e-01 7.398012e-01 -5.998201e-02 -4.143065e-01 -5.973917e-03 
1.143218e+01 -9.440945e+00 -8.253413e+00 -1.218847e+01 -3.101373e+00 1.381790e+01 9.128742e-01 -2.175667e+00 5.211481e+00 -9.521817e+00 -8.298640e+00 1.937551e+01 9.794943e-01 -6.572437e-03 4.359150e-03 -4.847662e-01 5.052198e-01 5.598576e-01 -6.625267e-01 7.036079e-01 -9.142503e-01 3.513648e-01 3.030953e-01 1.115839e-01 -5.123852e-01 -4.913038e-03 
1.112031e+01 -8.809855e+00 -9.335838e+00 -1.100049e+01 -2.920095e+00 1.338667e+01 1.194844e+00 -3.489441e+00 5.977891e+00 -9.283831e+00 -8.438646e+00 1.863276e+01 9.712276e-01 7.395892e-02 -2.268012e-01 -4.126828e-01 5.979146e-01 6.912303e-01 -4.851840e-01 5.513525e-01 -1.393880e+00 8.869919e-01 -9.910917e-02 5.945381e-01 -9.756592e-01 -6.480813e-05 
1.099979e+01 -8.776668e+00 -1.036073e+01 -9.858721e+00 -2.703973e+00 1.315219e+01 2.546136e+00 -5.925640e+00 7.628242e+00 -9.615648e+00 -8.115674e+00 1.888863e+01 9.787108e-01 -2.525682e-02 -2.403920e-01 -3.610992e-01 5.444630e-01 1.084384e+00 -6.715293e-01 3.105654e-01 -1.688068e+00 1.199090e+00 -1.431956e-01 8.761824e-01 -1.572990e+00 -2.034009e-04 
1.117139e+01 -9.688935e+00 -9.862085e+00 -1.011533e+01 -6.867933e-01 1.197231e+01 2.192644e+00 -7.186266e+00 8.533242e+00 -1.015578e+01 -6.352525e+00 1.589980e+01 9.867279e-01 5.182295e-02 -6.660212e-01 5.805168e-02 4.063020e-01 1.216495e+00 -6.948446e-01 -3.341136e-01 -1.038445e+00 7.688872e-01 6.736943e-01 6.294446e-01 -2.506292e+00 -2.046412e-03 
1.128036e+01 -1.020336e+01 -9.795786e+00 -9.908737e+00 1.203897e+00 1.116743e+01 1.966801e+00 -8.767596e+00 9.929257e+00 -9.801823e+00 -4.960789e+00 1.287704e+01 9.707271e-01 -7.260466e-03 -8.386419e-01 2.631946e-01 7.870037e-01 8.843810e-01 -6.621805e-01 -1.074627e+00 -3.329576e-01 2.825047e-01 1.629349e+00 2.740123e-01 -3.228356e+00 -6.863767e-03 
1.123914e+01 -1.142661e+01 -9.328053e+00 -8.943969e+00 1.208445e+00 1.090482e+01 -1.860569e-01 -7.260688e+00 8.671820e+00 -5.822272e+00 -6.868866e+00 9.107097e+00 9.649874e-01 -8.297291e-02 -8.272415e-01 3.152282e-01 1.693948e+00 -2.255485e-01 -6.491760e-01 -1.021340e+00 -2.465405e-01 7.071074e-01 1.901423e+00 -9.315901e-02 -3.446873e+00 -1.364988e-02 
1.092961e+01 -1.210104e+01 -9.311776e+00 -6.509382e+00 7.703130e-01 1.037503e+01 -1.637647e+00 -7.553217e+00 8.971478e+00 -3.635654e+00 -6.487442e+00 6.143208e+00 9.552622e-01 -4.886298e-02 -8.749083e-01 5.543951e-01 2.577847e+00 -1.250046e+00 -1.111801e+00 -5.804408e-01 -2.111246e-01 1.438240e+00 1.175133e+00 6.504512e-02 -3.560982e+00 -1.754570e-02 
1.093190e+01 -1.287631e+01 -8.527949e+00 -3.345265e+00 -1.597744e+00 9.122631e+00 -1.111834e+00 -9.026158e+00 1.254767e+01 -3.731745e+00 -6.054994e+00 2.032351e+00 9.262110e-01 7.528110e-02 -9.456911e-01 1.129926e+00 2.620273e+00 -1.548848e+00 -1.676176e+00 -8.272302e-02 -3.837118e-02 2.249625e+00 -2.604953e-01 6.796649e-01 -3.194501e+00 -2.183565e-02 
1.118967e+01 -1.385306e+01 -7.423862e+00 1.811471e-01 -3.643238e+00 6.499523e+00 -4.725144e-01 -8.940484e+00 1.518253e+01 -4.971423e+00 -5.042500e+00 -1.390497e+00 9.023868e-01 -6.829529e-02 -7.379608e-01 1.669790e+00 2.055935e+00 -1.886532e+00 -1.894441e+00 1.205442e-01 1.085621e+00 2.087768e+00 -8.813553e-01 3.271914e-01 -2.282399e+00 -2.453123e-02 
1.148552e+01 -1.527906e+01 -4.622380e+00 8.121328e-01 -4.329017e+00 4.461697e+00 -1.182238e+00 -6.758910e+00 1.681441e+01 -6.456864e+00 -4.193013e+00 -3.098558e+00 8.822468e-01 -3.636507e-01 -3.194538e-01 2.108011e+00 1.087664e+00 -2.012656e+00 -1.767554e+00 1.977420e-03 2.641617e+00 6.877872e-01 -1.019978e+00 2.947598e-02 -8.648782e-01 -2.430208e-02 
1.031133e+01 -1.458947e+01 -2.915611e+00 1.691592e+00 -7.296709e+00 3.233293e+00 -9.997234e-01 -3.258736e+00 1.727694e+01 -6.679871e+00 -5.782476e+00 -2.703334e+00 8.545882e-01 -4.644663e-01 1.488113e-03 2.632362e+00 -1.701537e-01 -2.038917e+00 -1.522703e+00 -1.150572e-02 3.430418e+00 -8.252212e-01 -8.748000e-01 1.786059e-01 2.453583e-01 -2.450302e-02 
9.552814e+00 -1.410537e+01 -2.420171e-01 1.337832e+00 -9.834287e+00 1.917975e+00 -8.383424e-01 1.341053e+00 1.493940e+01 -7.977410e+00 -5.537626e+00 -1.635622e+00 8.285999e-01 -4.777845e-01 4.354271e-01 2.639076e+00 -5.533689e-01 -2.433537e+00 -8.715464e-01 -2.216516e-01 3.140874e+00 -1.762784e+00 -1.164234e+00 1.248156e+00 7.404486e-01 -2.302336e-02 
9.833689e+00 -1.443246e+01 3.547765e+00 -9.324713e-01 -1.108519e+01 1.578708e-01 -7.019908e-01 4.161627e+00 1.199393e+01 -8.585150e+00 -3.477164e+00 -8.951744e-01 8.066952e-01 -4.173276e-01 7.461567e-01 2.684019e+00 -7.613649e-01 -2.488513e+00 -1.944495e-01 -5.595242e-01 2.285353e+00 -2.850327e+00 -4.522947e-01 1.862410e+00 1.079667e+00 -2.095526e-02 
9.335418e+00 -1.318042e+01 5.341313e+00 -6.426799e-01 -1.460246e+01 1.641676e+00 -2.439363e+00 5.235277e+00 1.064200e+01 -1.132540e+01 8.951119e-01 -3.003951e-01 7.910765e-01 -1.693914e-01 9.816034e-01 2.309414e+00 -1.392348e-01 -2.468294e+00 3.285776e-01 -6.510165e-01 5.786435e-01 -2.483503e+00 -1.718914e-01 2.444041e+00 8.115114e-01 -2.321493e-02 
8.333385e+00 -1.132116e+01 7.712819e+00 -1.124976e+00 -1.735518e+01 2.399195e+00 -2.996834e+00 6.220918e+00 5.174006e+00 -7.267351e+00 3.132068e-01 2.027387e+00 7.685736e-01 4.566760e-02 1.490039e+00 1.896417e+00 -5.552080e-02 -1.255057e+00 4.915490e-02 -5.158504e-01 -3.876252e-01 -2.317645e+00 4.621515e-01 1.853628e+00 9.021212e-01 -3.817220e-02 
9.456009e+00 -1.075301e+01 9.222525e+00 7.379105e-01 -1.904076e+01 2.440201e+00 -2.946003e+00 3.204625e+00 5.931851e+00 -9.495767e+00 4.787396e+00 9.606545e-01 7.315861e-01 3.546629e-01 1.921299e+00 1.283348e+00 -2.775067e-01 1.670672e+00 -5.969820e-01 -7.058457e-01 -8.051947e-01 -2.061984e+00 1.884895e-01 1.547411e+00 7.555355e-01 -6.936058e-02 
1.000173e+01 -8.195974e+00 1.108924e+01 -1.900370e+00 -1.514132e+01 4.382968e-03 -3.027922e+00 3.238827e+00 2.760785e+00 -7.189207e+00 3.844834e+00 2.984907e+00 6.455793e-01 4.461252e-01 2.156880e+00 8.942266e-01 8.020257e-01 3.559103e+00 -1.737810e+00 -1.005497e-02 -1.785187e+00 -1.949966e+00 -2.440031e-01 1.784008e+00 -7.125697e-01 -9.111091e-02 
1.027456e+01 -5.136520e+00 1.006984e+01 -1.642516e+00 -7.356032e+00 -1.458281e-01 -5.953047e+00 2.700349e+00 1.538692e+00 -1.042202e+01 6.866354e+00 2.998523e+00 5.057707e-01 3.209330e-01 2.392344e+00 -2.390350e-01 2.093463e+00 4.235855e+00 -3.074030e+00 1.392085e+00 -1.855107e+00 -3.573470e+00 1.169268e+00 1.547529e+00 -2.661564e+00 -8.918834e-02 
1.015474e+01 -3.344998e+00 1.176029e+01 4.075366e+00 -5.402033e+00 -4.996842e+00 -1.543587e+00 -2.452878e+00 -2.379242e+00 -8.024240e+00 8.193769e+00 -2.554395e+00 4.259267e-01 3.062884e-01 1.752616e+00 -8.554510e-01 2.993748e+00 2.871820e+00 -2.953547e+00 1.937344e+00 -2.106745e+00 -3.482259e+00 1.343939e+00 1.782402e+00 -3.836551e+00 -6.376164e-02 
1.098417e+01 -1.216774e+00 7.691825e+00 8.217360e+00 -2.731128e+00 -1.042934e+01 3.272253e+00 -3.225057e+00 -9.365486e+00 -3.231912e+00 1.035058e+01 -9.577514e+00 3.954707e-01 2.314832e-01 1.210813e+00 -8.777906e-01 2.446345e+00 7.991711e-01 -2.462709e+00 2.197658e+00 -1.813774e+00 -2.633201e+00 1.347736e+00 1.350798e+00 -3.370576e+00 -3.022723e-02 
1.117837e+01 -1.392768e+00 8.000997e+00 8.138430e+00 -3.094673e+00 -9.621598e+00 2.046149e+00 -4.332196e+00 -9.198420e+00 -4.064568e+00 1.101473e+01 -9.909829e+00 3.819211e-01 4.949021e-02 9.146153e-01 -6.259385e-01 6.416562e-01 3.337893e-01 -1.169047e+00 4.545005e-01 5.153977e-01 -1.859579e+00 2.190859e-01 9.369834e-01 -1.723823e+00 -1.365978e-02 
1.092016e+01 -5.857086e-02 7.560537e+00 8.557678e+00 -4.513857e+00 -1.014700e+01 3.240376e+00 -5.428861e+00 -8.217727e+00 -5.663176e+00 1.220986e+01 -1.017664e+01 3.766373e-01 8.598466e-02 6.108807e-01 -3.112261e-01 4.960058e-01 -4.424195e-02 -3.952204e-01 -4.655653e-01 1.145595e+00 -1.018692e+00 5.721182e-01 1.979835e-01 -6.676327e-01 -1.215448e-02 
1.043419e+01 6.489770e-01 8.696244e+00 7.113487e+00 -2.841722e+00 -1.098325e+01 7.448540e-01 1.226013e+00 -1.225102e+01 -5.713178e+00 1.194904e+01 -1.087395e+01 3.670445e-01 -3.657889e-02 1.054122e+00 -4.783219e-01 6.853943e-01 3.336823e-01 -6.711205e-01 2.576655e-01 8.014908e-01 2.792339e-02 1.151174e+00 -9.948701e-01 3.269813e-01 -2.422239e-02 
1.178618e+01 8.167572e-01 5.788071e+00 1.120986e+01 -3.078813e+00 -1.172461e+01 1.595074e+00 -2.761868e-01 -1.293265e+01 4.529847e-01 1.087334e+01 -1.243362e+01 3.421366e-01 -4.755839e-01 1.591217e+00 2.240524e-02 4.857667e-01 1.149114e+00 -2.480408e-01 8.659171e-01 5.222971e-01 1.863158e-01 1.566208e+00 -1.432161e+00 1.165304e+00 -4.555421e-02 
1.056246e+01 3.440177e+00 6.495621e+00 1.023931e+01 -2.143783e+00 -1.218839e+01 4.157127e+00 -2.901079e+00 -6.701342e+00 -1.366777e+00 6.708644e+00 -7.146435e+00 2.780595e-01 -1.203699e+00 1.977250e+00 6.378546e-01 6.985776e-01 1.844703e+00 -1.004188e-01 9.867662e-01 -3.197909e-01 1.359349e+00 2.022116e+00 -1.996885e+00 7.959790e-01 -6.258087e-02 
8.478106e+00 6.501913e+00 8.772875e+00 9.423600e+00 8.827422e-01 -1.078463e+01 5.863825e+00 -7.538295e-01 -1.006098e+01 -5.337954e-03 7.669253e+00 -6.213878e+00 1.933588e-01 -1.920705e+00 1.711598e+00 9.109553e-01 3.590654e-01 2.684092e+00 7.914308e-01 1.149397e+00 2.673896e-01 1.488524e+00 1.532994e+00 -3.534440e+00 4.239243e-01 -6.682669e-02 
6.069736e+00 7.692650e+00 1.039312e+01 1.149951e+01 4.401017e+00 -1.195533e+01 3.544310e+00 -1.341206e-01 -6.890101e+00 4.626563e+00 3.566662e+00 -1.000392e+01 1.285291e-01 -1.935412e+00 1.054349e-01 -3.699747e-01 3.747807e-01 2.215011e+00 1.238243e+00 1.955357e+00 1.892492e+00 1.058328e+00 2.158020e+00 -2.033131e+00 -8.713058e-01 -6.341574e-02 
4.429020e+00 7.248510e+00 8.394099e+00 1.237509e+01 7.069246e+00 -7.883989e+00 7.648470e+00 -3.227178e-01 -5.395650e+00 5.121285e+00 -5.227871e+00 -8.885252e+00 8.276832e-02 -1.855062e+00 -1.182066e+00 -1.723240e+00 -1.821909e-01 5.896968e-01 1.950826e+00 2.646602e+00 1.283664e+00 1.154636e+00 7.180904e-01 -1.417510e+00 1.155264e-01 -6.104820e-02 
2.909945e+00 3.594054e+00 4.835135e+00 1.063747e+01 5.838021e+00 -7.447495e+00 1.304159e+01 6.345825e+00 -3.742368e+00 6.860008e+00 2.991549e+00 -1.016728e+01 1.627606e-02 -1.680488e+00 -1.717169e+00 -3.275021e+00 -2.294033e+00 -1.336512e+00 5.995206e-01 2.065538e+00 9.818730e-01 1.546144e-01 -6.678533e-01 1.548701e-01 1.389830e+00 -5.683904e-02 
7.826931e-01 2.640882e+00 2.935665e+00 8.943664e+00 3.112724e+00 -3.284419e+00 1.434819e+01 2.424518e+00 -5.861670e+00 2.468391e+00 8.692601e-01 -5.554569e+00 -5.575573e-02 -1.610930e+00 -1.578618e+00 -2.630365e+00 -2.250259e+00 -1.669459e+00 -5.616696e-01 5.145555e-01 8.380892e-01 -5.659682e-01 -9.665691e-01 4.217544e-01 6.661010e-01 -4.809682e-02 
-5.095415e-01 1.410619e+00 -3.252774e+00 1.745054e+00 -3.032837e-01 -1.125752e+01 1.052213e+01 3.401626e+00 -5.884019e+00 2.613743e+00 1.292447e+00 -4.720116e+00 -8.640409e-02 -1.206860e+00 -1.113797e+00 -2.136793e+00 -1.550200e+00 -1.315085e+00 -1.656614e+00 -1.723706e+00 -5.230538e-01 2.686284e-01 -9.215806e-01 -8.280748e-01 1.073967e+00 -3.230100e-02 
-1.915886e+00 4.471350e-01 -7.137711e-01 5.570003e+00 1.792601e+00 -8.787327e+00 1.148097e+01 5.339828e+00 -7.154665e+00 2.411572e+00 -2.269548e+00 -8.278328e+00 -1.063757e-01 -8.187380e-01 -4.666067e-01 -1.435629e+00 -8.561398e-01 -5.704417e-01 -1.543719e+00 -2.099793e+00 2.380041e-01 1.056987e+00 -2.803558e-03 -1.275506e+00 1.118918e-01 -2.054981e-02 
-1.775065e+00 -8.780575e-01 -4.024110e+00 4.573302e+00 -7.734346e-02 -1.297911e+01 5.856671e+00 2.272902e+00 -1.752728e+00 2.280515e+00 4.205799e-01 -3.435563e+00 -1.199189e-01 -2.122080e-01 5.993596e-01 -4.563141e-02 1.201373e+00 8.238799e-01 1.300679e+00 -1.290375e+00 7.124300e-01 2.009191e+00 1.439672e-01 -1.353615e+00 1.515719e-01 -1.651489e-02 
-2.678235e+00 1.452187e+00 -3.856812e+00 3.248842e+00 1.475458e-01 -1.014222e+01 6.181960e+00 4.178901e+00 -2.642380e+00 2.620987e+00 -5.072335e+00 -5.637386e+00 -1.417474e-01 4.023794e-01 1.723372e+00 3.660637e-01 1.359422e+00 1.113811e+00 1.500185e+00 -1.680939e+00 1.240170e+00 3.028970e+00 6.776469e-01 -1.068924e+00 -1.745479e-01 -1.212077e-02 
-1.189407e+00 3.904891e+00 -1.909411e+00 8.912501e+00 4.638644e+00 -4.076674e+00 6.719769e+00 7.544239e+00 1.905793e+00 3.228872e+00 -4.074236e+00 -5.282727e+00 -1.512927e-01 7.502203e-02 1.893667e+00 7.737679e-01 9.845605e-01 1.026999e+00 2.652358e+00 -1.300524e+00 1.984011e+00 9.271358e-01 -6.742320e-02 -9.902335e-01 -8.176090e-01 -7.229281e-03 
-1.968184e-01 6.672521e+00 5.919820e-02 1.019751e+01 5.003664e+00 -5.737621e+00 2.644728e+00 8.905008e+00 6.160922e+00 5.325629e+00 -5.366759e+00 -8.227486e+00 -1.512927e-01 -7.326822e-02 1.444778e+00 5.965980e-01 -5.324554e-01 2.285566e-01 8.585291e-01 -1.507347e+00 1.576317e+00 8.475472e-01 8.871496e-02 1.793544e-01 -1.385646e-01 -1.909065e-03 
-2.640664e+00 5.980109e+00 -2.113275e+00 6.021768e+00 2.629594e+00 -1.919618e+00 1.122669e+00 9.829905e+00 -1.518700e+00 5.910782e-01 -4.383376e+00 -6.228559e+00 -1.512927e-01 -6.730771e-01 1.089713e+00 2.292560e-01 -2.325117e+00 3.561277e-01 -1.954385e-01 -1.765350e+00 -4.451376e-01 -4.824521e-01 -8.975775e-01 -1.431960e-01 4.589234e-01 0.000000e+00 
-2.318948e+00 7.638467e+00 -7.718894e-01 2.031931e+00 2.294854e+00 -6.928101e+00 1.443774e+00 1.091765e+01 3.307603e+00 4.383459e+00 -4.020993e+00 -5.857293e+00 -1.512927e-01 -1.066254e+00 1.181483e+00 -1.715254e-01 -1.854397e+00 3.161288e-01 1.368335e+00 -6.645288e-01 -1.409086e+00 -2.128265e+00 -2.327817e+00 -6.938360e-01 5.295601e-02 0.000000e+00 
-3.493728e+00 8.870482e+00 -3.475869e-01 1.369710e+00 7.773687e+00 -4.458626e+00 -1.506503e+00 4.312229e+00 9.201922e-01 -7.879311e-01 -5.463099e+00 -4.173206e+00 -1.512927e-01 -1.134778e+00 1.558527e+00 2.394847e-01 -7.682045e-01 6.788810e-01 1.147653e+00 -4.349000e-01 -1.289286e+00 -7.110164e-01 -5.868978e-02 4.541880e-01 2.334658e-01 0.000000e+00 
-5.101555e+00 1.113475e+01 -1.681273e+00 3.251561e+00 4.012262e+00 2.373560e+00 6.366704e-01 4.618413e+00 -5.699851e+00 -5.623951e+00 -8.296077e+00 -8.990381e+00 -1.512927e-01 -1.321323e+00 9.718090e-01 -1.352264e-02 -3.035421e-01 1.749899e-01 2.674108e+00 -3.126088e-01 -1.214210e+00 -1.680500e+00 2.092544e-01 1.349375e+00 2.876689e-01 0.000000e+00 
-6.923250e+00 1.202460e+01 -4.611601e-01 1.570931e+00 5.165295e+00 -8.321844e-01 -6.482782e-01 6.533092e+00 -5.700552e-01 5.301334e+00 2.510655e-02 -3.494685e+00 -1.512927e-01 -8.515334e-01 4.484180e-01 8.374459e-01 -4.035702e-01 -7.138661e-01 6.144899e-01 4.057113e-01 5.891100e-01 3.343490e-01 1.853883e+00 1.919327e+00 4.145533e-01 0.000000e+00 
-7.210799e+00 1.092045e+01 -7.827160e-01 4.136100e-01 4.474000e+00 4.629219e+00 -5.483820e-01 3.736172e+00 -4.349775e+00 2.385098e+00 -1.822078e-02 -4.758209e+00 -1.512927e-01 -5.141150e-01 -8.035164e-02 1.803423e+00 -3.203353e-01 2.777527e-01 -1.044852e+00 1.374061e-01 8.508646e-01 1.414880e+00 1.635109e+00 2.389073e+00 1.098902e+00 0.000000e+00 
-6.696773e+00 1.121972e+01 3.390364e+00 7.708344e-01 3.973488e+00 -2.514006e+00 1.114579e+00 7.698899e+00 1.916899e+00 4.476958e+00 -5.392313e-03 -4.216526e+00 -1.512927e-01 -1.703749e-01 -1.990736e-01 5.708045e-01 -2.589905e-02 -2.338870e-01 -9.328920e-01 6.570061e-02 7.444158e-01 1.487709e+00 -1.269166e-02 2.719753e-02 2.136983e-01 0.000000e+00 
-7.785369e+00 1.113543e+01 5.410079e+00 2.049933e+00 5.996929e+00 -2.009789e+00 4.422718e-01 8.289833e+00 1.310720e-01 2.963783e+00 3.664538e+00 -3.134953e+00 -1.512927e-01 -2.858084e-01 2.686104e-01 2.941124e-01 2.149333e-01 -6.793742e-01 -7.521312e-01 1.419432e-02 4.621763e-02 6.027731e-01 7.634394e-01 -1.008355e-01 -1.697223e-01 0.000000e+00 
-7.487840e+00 1.092175e+01 -7.035350e-01 6.232741e-01 3.234396e+00 -2.177141e+00 -8.151021e-01 7.978341e+00 4.628065e+00 4.948534e+00 -1.680285e+00 -3.237822e+00 -1.512927e-01 -2.957472e-01 -3.888259e-01 -1.120878e+00 5.377905e-01 -3.091662e-01 4.947042e-01 -7.884840e-01 -1.328208e+00 -4.651924e-01 2.814052e-01 -6.341640e-01 -7.920805e-01 0.000000e+00 
-8.244308e+00 1.241249e+01 2.734796e+00 1.562057e+00 1.446675e+00 7.001297e-01 4.874303e-01 3.827539e+00 -2.691492e+00 5.966507e+00 3.150482e-01 -6.096173e+00 -1.512927e-01 -4.526071e-01 -9.783109e-01 -1.357283e+00 -1.467348e-01 -9.503187e-01 6.071326e-01 7.393690e-01 -8.257939e-01 3.604392e-01 1.027492e+00 -8.012670e-01 -1.173762e+00 0.000000e+00 
-7.946039e+00 8.637062e+00 -8.763857e-01 3.703725e+00 4.702785e+00 -1.395445e+00 -2.850420e+00 3.289006e+00 1.002219e+00 4.382622e+00 -1.501467e+00 -6.696318e+00 -1.512927e-01 -3.866650e-01 -9.638456e-01 1.969929e-02 -1.604216e-01 -3.545495e-01 -7.036948e-01 1.037098e+00 -3.886192e-01 -2.188422e-01 -4.784001e-01 -4.841105e-01 -3.658789e-01 0.000000e+00 
-9.819304e+00 7.386219e+00 -1.289910e+00 -2.239666e-01 5.111413e-01 6.350257e-01 5.156775e+00 6.505531e+00 3.746191e+00 8.384200e+00 -4.312056e-01 -7.274513e+00 -1.512927e-01 -5.429757e-01 -7.445803e-01 -2.063265e-02 -1.086974e+00 -1.799124e-01 -6.145931e-01 9.337165e-01 -6.078922e-01 -2.917334e-01 -1.330184e+00 1.399046e-01 1.214828e+00 0.000000e+00 
-8.633666e+00 8.615653e+00 1.407314e+00 7.141776e-01 1.929414e+00 -5.663063e+00 2.035713e+00 4.696249e+00 3.150122e-01 1.347687e+00 -3.727711e+00 -4.478046e+00 -1.512927e-01 -6.500027e-01 9.075670e-02 8.230795e-01 -7.623819e-01 2.335018e-01 -1.261418e+00 -1.503908e-01 -1.013234e+00 -1.379191e+00 -8.340628e-01 7.510583e-01 1.808913e+00 0.000000e+00 
-1.061537e+01 8.700294e+00 1.489782e+00 -2.378040e+00 1.933797e+00 -2.390268e-01 2.712946e+00 8.445680e-02 -3.806556e+00 8.330529e-01 2.127693e+00 -1.131172e+00 -1.512927e-01 -3.003479e-01 3.689358e-01 3.972858e-01 -3.490445e-01 6.512567e-01 -5.736266e-01 -2.101121e+00 -1.034468e+00 -1.010671e+00 9.411764e-03 -1.042079e+00 8.826262e-01 0.000000e+00 
-1.079802e+01 8.433807e+00 1.849166e+00 9.688520e-01 5.158966e+00 -7.265509e+00 -2.380459e+00 1.433372e+00 -2.117364e+00 3.987882e+00 9.743751e-01 -7.234254e-01 -1.512927e-01 -3.851578e-01 3.504852e-01 -7.025691e-02 3.155591e-01 2.908122e-01 1.084438e+00 -8.637871e-01 8.861133e-01 7.491263e-01 1.445925e+00 -3.569480e-01 -5.491437e-01 0.000000e+00 
-1.023887e+01 9.321821e+00 4.755931e-01 -2.096526e+00 2.152649e+00 -1.431884e+00 -3.140745e+00 2.964628e+00 -9.097433e-02 7.111161e+00 -7.992646e+00 -4.738692e+00 -1.512927e-01 1.367989e-01 2.290279e-01 1.914385e-01 1.171300e+00 2.694069e-01 8.590153e-01 -9.518077e-02 1.114765e+00 3.605064e-01 -3.250336e-01 -7.952709e-01 -4.711235e-01 0.000000e+00 
-1.074771e+01 1.005732e+01 1.563124e+00 2.151216e+00 3.274049e+00 3.555577e-01 6.436239e-01 7.686729e+00 2.202853e+00 5.438257e+00 -4.522811e-01 -5.420004e+00 -1.512927e-01 1.965304e-01 9.116034e-02 3.596062e-01 8.820656e-01 1.992893e-02 1.669945e+00 1.007667e+00 1.763440e-01 -8.166695e-01 -1.963883e+00 2.637896e-01 2.770044e-01 0.000000e+00 
-9.956533e+00 9.033680e+00 2.589996e+00 2.887278e+00 4.223290e+00 2.455158e-01 7.250008e-01 2.531604e+00 -4.164132e+00 -1.517303e+00 -1.135333e+00 -1.138500e+00 -1.512927e-01 1.355843e-01 -1.599917e-01 5.255677e-01 1.070367e+00 5.090522e-01 3.244758e-01 7.812870e-01 -6.021173e-01 -1.451330e+00 -2.421249e+00 1.303157e+00 1.148189e+00 0.000000e+00 
