-9.973389e+00 3.264939e+00 -2.197676e+00 -7.992377e-01 4.330037e+00 6.005750e-01 1.494686e+00 3.607194e+00 8.292174e-01 3.277712e+00 8.850741e+00 6.222936e+00 -1.351432e-01 3.371433e-01 7.929338e-01 -4.262264e-02 -6.297635e-01 4.339383e-02 1.044796e-01 -1.297881e-01 2.014271e-01 -1.352596e-01 -3.548006e-01 -8.816770e-01 -1.493069e+00 4.820824e-04 
-9.368340e+00 4.829803e+00 -1.524951e+00 -6.891242e-01 6.770519e+00 2.686654e-01 -6.604533e-01 2.137456e+00 4.440956e-01 5.654803e+00 9.320908e+00 2.440978e+00 -1.342467e-01 4.133804e-01 2.775518e-01 4.159146e-01 -1.230634e+00 -8.681827e-01 -1.650529e-01 -3.810416e-01 -2.385748e-01 -3.269606e-01 -5.032712e-01 -1.246304e+00 -1.506903e+00 -2.402163e-03 
-8.590197e+00 6.447175e+00 -2.747152e+00 -4.003112e+00 3.326766e+00 1.288928e+00 1.923316e+00 5.349198e+00 3.454804e-01 3.151641e-01 4.207273e+00 6.485687e-01 -1.331810e-01 1.054884e+00 -8.647148e-01 -6.883331e-01 -3.494689e+00 -1.836099e+00 1.613789e-01 -8.261023e-01 -9.154446e-01 -1.646220e-01 -6.662432e-01 -1.638964e+00 -1.100182e+00 1.791296e-02 
-8.598083e+00 3.061580e+00 1.566345e-01 -5.350473e+00 4.907598e-01 -5.688663e-01 -6.248360e-01 1.543318e+00 -5.637169e-01 2.242631e+00 4.940955e+00 1.475601e+00 -1.481351e-01 8.756205e-01 -7.838492e-01 -6.761918e-01 -2.395766e+00 -1.753774e+00 -6.523745e-01 -1.639310e+00 -7.067259e-01 3.275601e-01 -8.591846e-01 -3.277354e-01 7.112623e-01 7.212234e-03 
-5.084095e+00 -1.745235e-01 -6.480134e+00 -1.594201e+01 -1.710580e+00 1.826235e+00 -2.653633e+00 -6.729598e-01 5.100136e-01 1.652583e+00 2.845900e+00 1.204715e+00 -3.863418e-02 -1.553287e-01 -2.184500e-01 5.075426e-01 6.750574e-01 2.054040e-01 -1.006555e+00 -8.598915e-01 -6.698758e-01 7.517655e-01 1.122277e+00 1.847000e+00 8.400084e-01 -3.354728e-03 
-6.743289e+00 4.221406e+00 -3.039419e+00 -6.698504e+00 5.203214e-01 -3.261861e+00 -6.568532e+00 1.614906e+00 1.999629e+00 6.901706e-01 8.362917e+00 5.719216e+00 -1.454589e-01 -8.362169e-01 6.744729e-01 5.168588e-01 2.689017e+00 1.028881e+00 3.528223e-02 6.687820e-01 4.687441e-01 1.477381e+00 1.083367e+00 2.171621e+00 5.284909e-01 -1.189737e-02 
-1.029424e+01 4.775012e+00 1.388588e+00 4.619098e-02 4.339005e+00 -2.397352e+00 5.957061e-01 1.964025e+00 2.822635e+00 6.702777e+00 1.173129e+01 2.726803e+00 -1.512927e-01 -1.485970e+00 8.069824e-01 1.520412e+00 3.588751e+00 1.414600e+00 1.081296e+00 2.468246e+00 1.418023e+00 1.148696e+00 1.305718e+00 2.558369e+00 4.674230e-01 -2.311507e-02 
-1.017410e+01 3.959177e+00 -1.193433e+00 1.005106e-01 2.610372e+00 1.719339e+00 1.094404e+00 2.568546e+00 5.666878e+00 5.134368e+00 1.135637e+01 3.357012e+00 -1.512927e-01 -1.162838e+00 -2.809776e-01 3.706683e-01 6.817840e-01 5.932232e-01 1.677322e+00 2.669327e+00 2.072053e+00 1.782868e+00 1.026468e+00 5.869066e-01 7.267786e-01 1.282287e-03 
-1.079854e+01 3.991504e+00 1.989345e-01 -1.397761e+00 4.317397e+00 4.742115e+00 5.856129e+00 5.940337e+00 4.419868e+00 5.959076e+00 1.414102e+01 4.722932e+00 -1.512927e-01 -3.361434e-01 -6.104287e-01 -7.087752e-01 -7.371597e-01 4.542854e-01 1.294600e-01 1.133350e-01 1.894976e+00 8.148245e-01 -1.235791e+00 -1.395261e+00 1.102434e+00 1.224518e-03 
-1.230532e+01 3.208273e+00 -5.912506e-01 -2.567608e+00 3.497241e+00 1.555014e+00 4.147892e+00 9.987015e+00 1.011535e+01 6.194362e+00 1.009258e+01 8.355044e+00 -1.390475e-01 -2.581124e-01 -7.183690e-01 -4.808869e-02 -4.803603e-01 3.554130e-03 -1.078706e+00 -1.278434e+00 9.373367e-02 -7.893714e-01 -8.526915e-01 -2.297546e+00 -7.367097e-01 0.000000e+00 
-1.090934e+01 2.098320e+00 -2.456379e+00 -2.305548e+00 6.166997e+00 -1.667890e+00 -3.643625e-01 7.729673e+00 4.672519e+00 -6.177187e-03 5.386874e+00 5.739954e+00 -1.512927e-01 -1.670723e-01 -1.468539e+00 7.671061e-01 3.314733e-01 -1.856109e+00 -1.722856e-01 -4.820355e-01 -3.683045e+00 -3.313955e+00 4.375685e-01 -2.414492e+00 -3.332099e+00 3.025705e-02 
-1.140926e+01 1.313923e+00 -1.062192e-01 -1.847397e+00 1.703342e+00 -4.691875e-01 -2.187520e+00 2.142545e+00 1.593696e+00 3.853537e+00 4.245711e+00 -8.350481e-01 -1.512927e-01 7.732181e-02 -8.214701e-01 1.019060e+00 2.218786e-01 -1.972010e+00 3.448966e-01 8.870367e-01 -3.655051e+00 -3.811082e+00 8.406879e-01 -3.151608e-01 -3.248375e+00 2.190800e-02 
-1.208193e+01 -2.404015e+00 3.791949e+00 -1.005003e-01 -4.066199e+00 4.892787e+00 6.613657e+00 -8.552654e+00 -7.889077e+00 9.317331e+00 4.991999e+00 -7.342518e+00 6.115139e-03 2.918696e-01 8.450826e-01 4.268838e-01 -4.727651e-01 -4.165871e-01 1.858510e+00 1.027362e+00 -1.803017e+00 -1.728299e+00 9.540930e-01 1.172040e+00 -3.030831e-01 1.368027e-02 
-1.133242e+01 1.352090e+00 1.379887e+00 -2.560739e+00 -1.246209e+00 -8.418560e-04 5.094066e+00 -1.470747e-01 -2.659257e+00 5.736047e+00 8.714217e+00 -1.345593e+00 -1.082114e-01 5.599225e-01 1.156320e+00 -6.783407e-01 -7.931621e-01 2.097128e+00 1.134371e+00 -1.203596e-01 -9.589968e-01 -5.379038e-01 -1.254138e+00 1.209131e+00 1.614688e+00 -8.225447e-03 
-9.488413e+00 6.304650e+00 -1.065014e+00 -4.312703e+00 5.558837e+00 7.390486e+00 1.131655e+00 -1.406035e-01 -1.842503e+00 3.823032e+00 9.012819e+00 4.479811e+00 -1.044320e-01 1.196797e+00 1.359449e+00 -1.073495e+00 9.712899e-03 2.239447e+00 6.688930e-01 -1.485922e+00 1.017790e+00 6.780893e-01 -1.826745e+00 -6.893727e-01 7.856148e-01 -2.638870e-02 
-9.906406e+00 2.741193e+00 -1.069442e+00 -3.707107e+00 7.376464e+00 3.953820e+00 -4.831648e-02 -6.858464e+00 -4.119110e+00 3.299973e-01 8.280953e+00 1.327229e+00 -1.371464e-01 7.447242e-01 -6.114907e-01 -9.357215e-01 1.087626e+00 1.263950e+00 8.954965e-01 9.520698e-02 -4.855723e-01 -3.464391e-01 -1.240282e+00 -2.852333e+00 -1.369530e+00 -1.701164e-03 
-6.810957e+00 3.698679e+00 -3.508605e-01 5.212479e-01 2.819701e+00 6.259922e+00 1.755237e+00 -1.080103e-01 -3.768704e+00 2.886632e+00 1.761767e+00 -4.750855e+00 -1.113609e-01 3.302250e-01 -1.233268e+00 -6.368504e-01 1.209872e+00 -1.083894e+00 -8.108523e-01 7.977442e-01 -8.601181e-01 -1.448082e+00 -8.843920e-02 -1.542900e+00 -2.749881e+00 1.017940e-02 
-8.947525e+00 -4.023779e-01 -3.655797e+00 4.604182e-01 6.443108e+00 5.041923e+00 5.258309e+00 -2.591233e+00 -3.428351e+00 2.834558e-03 -1.921923e+00 -3.577908e+00 -1.132528e-01 6.964175e-01 3.018727e-01 7.421063e-01 1.040976e+00 -1.185330e+00 -9.795509e-02 4.428132e-01 -1.213353e-01 -9.716716e-01 1.510044e+00 -1.028810e+00 -3.552924e+00 2.818820e-02 
-8.316729e+00 1.710098e+00 -2.956087e+00 -3.471067e-01 6.060433e-01 2.792173e+00 2.467063e+00 -6.574810e+00 -9.428293e+00 3.544417e+00 6.399755e+00 -6.817027e+00 -6.548178e-02 2.950150e+00 1.987481e+00 1.589790e+00 -8.134720e-01 -1.551702e+00 -1.625629e+00 -1.132223e+00 -9.433972e-01 -4.925699e-01 5.140076e-01 -1.678221e+00 -3.168340e+00 8.937810e-02 
-5.671434e+00 5.244846e+00 3.943703e+00 1.931951e+00 2.556645e+00 5.197919e+00 1.809837e+00 -4.231740e+00 -6.147674e+00 7.551326e+00 8.179073e-01 -1.540430e+01 -1.914489e-02 5.855700e+00 1.590072e+00 2.522181e+00 -1.119898e+00 -4.457470e+00 -2.707375e+00 -2.479098e+00 -7.537236e-01 -1.369314e+00 1.319195e+00 -1.124143e+00 -2.498867e+00 1.851203e-01 
6.301744e+00 1.081247e+01 3.798338e+00 -4.281878e+00 -2.995576e+00 -1.946223e+00 -2.181640e+00 -4.004742e+00 -4.871893e+00 1.682425e+00 -7.999254e+00 -1.467936e+01 2.884757e-01 6.207981e+00 -3.411973e-01 1.777945e+00 -2.269123e+00 -5.214668e+00 -3.060004e+00 -2.027962e+00 1.016629e-01 -4.161631e-01 9.265478e-01 -6.642460e-01 -7.314029e-01 2.232905e-01 
1.302174e+01 2.996794e+00 5.577897e+00 -3.171685e+00 -1.404343e+01 -6.125753e+00 -4.812829e+00 -7.644885e+00 -1.255312e+01 7.529806e+00 -3.431344e-01 -1.214108e+01 6.353703e-01 4.334449e+00 -2.143952e+00 1.978250e-01 -3.148515e+00 -5.485239e+00 -1.827027e+00 -8.765045e-01 9.910271e-01 -9.121238e-01 1.115960e+00 7.143065e-01 6.930591e-01 1.993583e-01 
1.337659e+01 1.128138e+00 5.116543e+00 -9.140904e+00 -1.716726e+01 -6.846012e+00 -4.361413e+00 -4.359923e+00 -8.306386e+00 8.187916e+00 3.659046e+00 -1.210565e+01 7.237133e-01 1.378193e+00 -3.327811e+00 -5.375535e-01 -2.476202e+00 -3.502800e+00 1.071153e+00 1.254852e+00 2.121466e+00 -8.305804e-01 1.310859e+00 1.676171e-01 4.390481e-01 1.165320e-01 
1.246339e+01 -6.327456e-01 4.273726e+00 -1.138111e+01 -1.778371e+01 -1.487322e+00 -1.482799e+00 9.009852e-01 -8.991046e+00 9.878378e+00 -1.439710e+00 -1.322586e+01 7.600277e-01 2.855880e-01 -2.238010e+00 -1.976142e+00 -1.832513e+00 -1.645592e+00 4.010740e+00 2.304875e+00 2.588060e+00 8.012446e-01 -1.911467e+00 -1.788299e+00 7.299553e-01 5.466553e-02 
1.347189e+01 -4.011812e+00 1.762656e+00 -1.255818e+01 -1.863944e+01 1.090327e+00 2.427603e+00 2.329653e+00 -1.080583e+01 7.062435e+00 -6.612880e+00 -1.194173e+01 8.088070e-01 1.489873e-02 -2.175975e+00 -2.691329e+00 -5.746272e-01 -8.627920e-01 4.585479e+00 2.518631e+00 5.762674e-01 4.358436e-01 -4.483385e+00 -2.268102e+00 2.140533e+00 4.784463e-02 
1.440203e+01 -5.623284e+00 -2.625871e+00 -1.062561e+01 -2.153531e+01 9.959778e+00 3.317037e+00 1.950625e+00 -7.297174e+00 -1.464790e+00 -4.148667e+00 -8.573266e+00 8.661510e-01 -3.489519e-01 -1.853437e+00 -2.772167e+00 -1.992667e-01 5.436621e-01 3.231461e+00 1.626565e+00 -1.499678e+00 9.738582e-01 -6.047946e+00 -4.923847e-01 2.976953e+00 4.390258e-02 
1.248176e+01 -7.256466e+00 -4.890307e+00 -1.239179e+01 -1.960542e+01 1.035783e+01 5.831823e+00 -2.003406e+00 -6.974104e+00 -8.557424e+00 -6.326984e+00 -3.729285e+00 9.098747e-01 -7.514670e-01 -1.454188e+00 -2.023035e+00 2.461100e-02 2.482547e+00 2.620800e+00 2.185390e-01 -1.986432e+00 7.021319e-01 -4.111102e+00 1.976842e-01 3.581367e+00 3.556227e-02 
1.121369e+01 -8.277605e+00 -6.260627e+00 -1.246064e+01 -1.458241e+01 1.003623e+01 4.947915e+00 -4.430874e+00 -6.037619e+00 -1.255143e+01 -4.044582e+00 -2.447315e+00 9.290068e-01 -9.099184e-01 -1.345895e+00 -1.140731e+00 -5.073519e-02 3.968089e+00 8.502553e-01 -4.374251e-01 -2.243785e+00 -2.211323e-02 -1.624836e+00 -6.501369e-02 2.657755e+00 2.276678e-02 
1.130872e+01 -9.955593e+00 -6.535139e+00 -1.151761e+01 -9.703150e+00 1.415610e+01 2.704859e+00 -4.411756e+00 -7.924950e+00 -7.949755e+00 -5.676502e+00 2.902132e+00 9.551905e-01 -8.800026e-01 -9.060982e-01 -6.324099e-01 4.932157e-01 3.380035e+00 4.723147e-01 -1.312286e+00 -1.482590e+00 -1.073924e-01 3.184085e-01 -1.875149e-01 1.144244e+00 8.501160e-03 
1.043896e+01 -1.100320e+01 -7.507112e+00 -1.131638e+01 -6.646000e+00 1.231192e+01 2.693393e+00 -8.064123e+00 -6.932317e+00 -9.892804e+00 -4.798976e+00 1.399800e+00 9.573271e-01 -7.274016e-01 -5.328426e-01 -5.810733e-01 1.029600e+00 2.153768e+00 7.724608e-01 -1.735449e+00 -7.810212e-01 3.382853e-01 1.312132e+00 -3.443464e-01 -3.803258e-02 4.163248e-03 
8.469114e+00 -1.042416e+01 -7.429114e+00 -1.049784e+01 -6.673451e+00 1.158156e+01 3.976558e-01 -7.599732e+00 -7.063717e+00 -8.294692e+00 -6.887361e+00 6.837904e-02 9.382204e-01 -5.754765e-01 -6.382801e-01 -9.495710e-01 1.127574e+00 1.394402e+00 4.108925e-01 -2.419225e+00 -3.188197e-01 1.522078e-01 1.604839e+00 -4.282146e-01 -1.093334e+00 9.060001e-03 
8.996488e+00 -1.070753e+01 -8.719006e+00 -7.822522e+00 -5.328419e+00 1.518580e+01 -2.575727e+00 -6.741992e+00 -4.776809e+00 -5.818296e+00 -5.160884e+00 -1.220602e+00 9.583080e-01 -2.904562e-01 -7.707430e-01 -1.135550e+00 1.309226e+00 1.120286e+00 7.729939e-01 -2.442856e+00 1.600121e-01 5.078888e-01 1.930344e+00 -3.082229e-01 -1.241030e+00 1.359309e-02 
9.152576e+00 -1.329482e+01 -1.067705e+01 -7.626671e+00 -3.389932e+00 1.477362e+01 -6.756707e+00 -6.666920e+00 -8.241665e+00 -1.962813e+00 -7.636621e+00 -1.254337e+00 1.000000e+00 -1.068079e-01 -8.221353e-01 -9.041799e-01 9.959397e-01 1.110094e+00 3.176990e-01 -1.532680e+00 4.135182e-01 1.387036e+00 1.295604e+00 -6.509441e-01 -8.565462e-01 8.314026e-03 
8.644945e+00 -1.342158e+01 -1.156090e+01 -6.205836e+00 -2.686332e+00 1.458086e+01 -5.943707e+00 -7.730469e+00 -3.803899e+00 -3.407026e+00 -5.965461e+00 -4.143991e+00 9.944027e-01 -2.726037e-01 -6.409524e-01 -3.399358e-01 7.686552e-01 3.181432e-01 9.885025e-03 -1.136642e+00 1.124667e+00 2.138556e+00 7.262126e-01 -7.235937e-01 -1.129465e+00 -3.158194e-03 
8.110846e+00 -1.317782e+01 -1.052907e+01 -6.326485e+00 -2.444027e+00 1.347253e+01 -5.581754e+00 -5.037902e+00 -6.149926e-01 -3.022308e+00 -9.739794e+00 -2.752657e+00 9.617432e-01 -1.669824e-01 -2.649498e-02 -4.234714e-02 8.585564e-01 -1.471040e-01 -6.230224e-01 -2.241483e-01 1.485722e+00 3.136862e+00 3.920417e-01 -6.135295e-01 -6.171221e-01 -1.843640e-02 
8.154334e+00 -1.397080e+01 -1.049267e+01 -4.629340e+00 -4.210655e+00 1.588578e+01 -8.846415e+00 -1.933168e+00 2.102635e+00 -1.657487e+00 -7.727267e+00 -6.118766e+00 9.616455e-01 -3.371863e-01 5.440375e-01 -1.062773e-01 7.386178e-01 -1.283700e-01 -1.586384e+00 -2.624519e-01 1.662508e+00 3.102405e+00 5.388824e-01 -6.027511e-01 9.308386e-02 -2.211320e-02 
8.562970e+00 -1.315269e+01 -1.142289e+01 -4.122137e+00 -3.363290e+00 1.100605e+01 -6.426095e+00 -2.136963e+00 4.489380e+00 -8.773742e-01 -9.823366e+00 -3.352560e+00 9.241966e-01 -2.953933e-01 6.919752e-01 6.647577e-02 8.909549e-01 -1.879327e-01 -2.109677e+00 -4.864399e-01 1.831648e+00 2.983411e+00 3.333243e-01 2.548011e-01 3.478064e-02 -2.429185e-02 
6.732952e+00 -1.071395e+01 -1.164537e+01 -3.614921e+00 -2.868550e+00 7.882179e+00 -6.833797e+00 -8.684001e-01 9.155940e+00 -1.785080e+00 -8.937431e+00 -3.378621e+00 9.026100e-01 -1.966093e-01 8.530642e-01 2.532887e-01 1.163725e+00 -6.183055e-01 -2.649596e+00 2.013731e-01 2.290590e+00 2.771766e+00 -2.261879e-01 3.024773e-01 9.281521e-01 -2.752769e-02 
7.344571e+00 -1.134636e+01 -9.620341e+00 -2.378919e+00 -4.054743e+00 6.925942e+00 -9.020263e+00 3.587954e+00 1.077541e+01 -1.291889e+00 -7.860706e+00 -3.948827e+00 8.698016e-01 1.638608e-02 4.741249e-01 6.853417e-01 1.192810e+00 -9.358457e-01 -2.127920e+00 2.565350e-01 2.603421e+00 2.263362e+00 -5.295881e-01 6.397200e-01 8.226314e-01 -2.305800e-02 
7.780487e+00 -1.060864e+01 -1.012751e+01 3.176777e-01 -6.956456e+00 4.677850e+00 -6.542465e+00 6.657321e+00 1.281845e+01 -2.581168e+00 -7.196210e+00 -1.179872e+00 8.512045e-01 1.349566e-01 4.883782e-01 1.344642e+00 8.825283e-01 -1.010015e+00 -2.053574e+00 9.613850e-01 1.837188e+00 1.412305e+00 -9.364392e-01 9.012833e-01 1.225615e+00 -3.126177e-02 
8.121133e+00 -1.083472e+01 -8.755116e+00 -1.243880e-01 -5.998566e+00 1.968615e+00 -5.289085e+00 7.117280e+00 1.397494e+01 -3.127270e+00 -7.495376e+00 -3.387771e-01 8.346093e-01 -4.911997e-02 1.189328e+00 1.603206e+00 2.971665e-01 -2.696748e-01 -2.601786e+00 1.832478e+00 4.152297e-01 -1.350868e-01 -1.159179e+00 1.244713e+00 1.891660e+00 -3.933764e-02 
7.019454e+00 -8.527884e+00 -5.354773e+00 -3.295450e-01 -6.946716e+00 9.297466e-02 -3.892460e+00 6.552879e+00 1.461770e+01 -5.549585e+00 -4.613679e+00 9.444271e-01 7.638973e-01 -1.916502e-01 1.783723e+00 2.214711e+00 -2.004360e-01 6.755834e-01 -2.797724e+00 1.051973e+00 -3.813123e-01 -1.005352e+00 -1.033574e+00 1.524947e+00 2.068233e+00 -4.943600e-02 
7.479487e+00 -6.440101e+00 -3.990675e+00 -5.694752e-01 -5.407987e+00 -3.790550e+00 -1.182877e+00 5.716324e+00 9.200352e+00 -5.603575e+00 -2.928408e+00 4.447322e+00 7.167671e-01 -1.977272e-02 2.040894e+00 2.417972e+00 -9.755795e-02 8.847297e-01 -2.607776e+00 1.034913e-01 -3.153226e-01 -2.291133e+00 -5.361883e-01 2.439917e+00 1.746853e+00 -5.253381e-02 
7.143058e+00 -3.887337e+00 -1.436169e+00 -4.619586e-01 -3.873829e+00 -6.431186e+00 -3.335703e+00 5.451237e+00 1.017898e+01 -6.510886e+00 -1.854959e+00 6.768242e+00 6.629456e-01 3.947208e-01 1.925851e+00 1.904483e+00 5.558591e-01 1.025887e+00 -3.055614e+00 2.137353e-01 -5.892590e-01 -3.684531e+00 7.437368e-01 2.234923e+00 7.541612e-01 -4.423808e-02 
7.960467e+00 -2.950524e+00 1.375442e+00 -5.459709e-01 -3.111361e+00 -7.808185e+00 -5.050008e+00 6.091488e+00 4.738631e+00 -5.327561e+00 3.324850e+00 5.483582e+00 6.224161e-01 5.851480e-01 2.511723e+00 2.100159e+00 1.163716e+00 3.657710e-01 -2.721013e+00 2.072150e+00 -2.964813e+00 -3.329063e+00 2.248532e+00 1.062812e+00 5.146561e-02 -4.332147e-02 
8.752568e+00 -6.434170e-01 1.484585e+00 2.437999e+00 -2.965596e+00 -1.317628e+01 -8.902183e-01 3.419003e+00 -1.574093e+00 -1.968908e+00 3.434309e+00 4.197104e+00 5.898824e-01 6.832911e-01 2.589556e+00 2.369614e+00 6.627678e-01 -1.356442e-01 -2.039635e+00 3.341962e+00 -4.210486e+00 -3.199130e+00 3.431967e+00 6.825558e-01 9.409840e-02 -3.788418e-02 
9.600472e+00 4.496557e+00 5.049740e+00 3.799124e+00 -4.033248e+00 -1.402307e+01 7.955131e+00 -8.091625e+00 -1.568430e+00 3.368097e+00 -2.589827e-01 5.990220e+00 5.366914e-01 1.651012e-01 2.627483e+00 2.479063e+00 -1.521761e-01 3.794483e-01 -1.248116e+00 2.853311e+00 -4.466941e+00 -2.151960e+00 3.301038e+00 5.399674e-01 6.702217e-01 -3.187751e-02 
9.739511e+00 5.336901e+00 8.574751e+00 6.793332e-01 -4.091106e+00 -1.352192e+01 6.871540e+00 -8.509640e+00 -2.663138e+00 6.301121e+00 3.349736e+00 6.985415e+00 5.163871e-01 -2.827057e-01 2.029026e+00 2.247224e+00 -6.801608e-01 8.819710e-01 -2.464407e-01 9.615847e-01 -3.033573e+00 -8.408350e-01 2.034442e+00 9.609576e-01 6.765296e-01 -2.561374e-02 
8.292501e+00 7.196733e+00 1.022567e+01 -4.275188e-01 -6.513638e-01 -1.387595e+01 5.335668e+00 -1.027890e+01 -5.476648e+00 7.042614e+00 6.066973e+00 7.440535e+00 4.997762e-01 -4.688023e-01 1.150841e+00 1.042157e+00 -2.277060e-01 7.725946e-01 5.299565e-01 -8.018192e-01 -8.790212e-01 -5.959840e-01 3.794637e-01 1.337524e+00 -1.782913e-01 -1.830468e-02 
7.993025e+00 8.151624e+00 1.013274e+01 1.150516e+00 -2.466831e-01 -1.448204e+01 5.227436e+00 -1.065523e+01 -3.824159e+00 6.366042e+00 5.076119e+00 6.854594e+00 4.802712e-01 -3.898153e-01 1.050374e+00 3.539328e-01 7.371660e-01 1.453090e-01 6.631502e-01 -3.113767e-01 -3.148442e-01 -2.963184e-01 -2.554191e-01 1.579360e-01 -8.518211e-01 -1.958440e-02 
8.129704e+00 8.843399e+00 9.481530e+00 2.425002e+00 -2.092486e+00 -1.089322e+01 4.768086e+00 -1.141394e+01 -3.967840e+00 5.232955e+00 5.565445e+00 5.164174e+00 4.632259e-01 -1.685427e-01 8.265349e-01 -1.427245e-01 9.222293e-01 -2.304662e-01 8.331396e-01 2.905607e-01 7.443892e-01 -4.829252e-01 -5.455834e-01 -2.995973e-01 -5.610055e-01 -2.399306e-02 
7.871834e+00 9.765438e+00 1.071649e+01 2.938903e+00 -2.644000e+00 -1.169753e+01 5.598447e+00 -9.516340e+00 -4.899135e+00 5.928855e+00 4.390180e+00 3.864491e+00 4.367403e-01 -4.586626e-01 7.556844e-01 -2.220280e-01 1.027416e+00 8.473831e-01 9.844208e-03 -8.709755e-02 2.200159e+00 -1.070274e+00 -1.105061e+00 1.931454e-01 2.593496e-01 -2.759151e-02 
7.510384e+00 1.052250e+01 9.220176e+00 3.289434e+00 -6.050363e-01 -1.110250e+01 6.602965e+00 -7.126395e+00 -7.353786e+00 4.533290e+00 4.911955e+00 6.130559e+00 4.015764e-01 -6.008027e-01 9.415500e-01 -7.947750e-02 3.313600e-01 2.115377e+00 1.239958e-01 -8.331158e-01 3.188776e+00 -9.247572e-01 -1.869111e+00 -8.288282e-01 7.724802e-01 -2.806869e-02 
6.009373e+00 1.109050e+01 9.153277e+00 5.855378e+00 3.246507e+00 -1.432818e+01 3.874509e+00 -1.798205e+00 -7.482556e+00 1.190568e+00 6.368591e+00 7.668150e+00 3.731384e-01 -7.596737e-01 2.880356e-01 -1.694933e-01 8.566610e-01 2.657419e+00 1.704938e+00 2.736536e-01 2.690672e+00 -9.546114e-01 -1.687169e+00 -1.448768e+00 8.901634e-02 -2.395329e-02 
6.056921e+00 1.288862e+01 9.865746e+00 2.623564e+00 5.539144e+00 -8.957918e+00 1.464477e+00 6.708732e-01 -7.299915e+00 -1.743459e+00 4.320984e-01 7.124745e+00 3.546834e-01 -6.658376e-01 -6.210182e-01 -2.314558e-01 1.666432e+00 2.653690e+00 2.950073e+00 9.642798e-01 1.694077e+00 5.604814e-01 -2.066410e+00 -2.883680e+00 -1.514550e+00 -1.366459e-02 
4.800197e+00 1.002256e+01 9.546233e+00 7.555142e+00 7.571003e+00 -4.245131e+00 9.535959e+00 3.838444e-02 -9.699127e+00 6.313866e-01 -6.137300e-01 3.812479e+00 3.404203e-01 -5.559021e-01 -1.060460e+00 -7.369852e-02 1.537535e+00 1.406396e+00 3.248215e+00 1.324331e+00 4.131709e-01 1.582932e+00 -1.427508e+00 -3.019348e+00 -2.784562e+00 -7.998616e-03 
4.785784e+00 7.951378e+00 7.866419e+00 1.077171e+01 1.050116e+01 -1.393664e+00 8.593639e+00 4.256935e-01 -3.443094e+00 -5.519171e+00 -6.015285e+00 4.856423e-01 3.496125e-01 -6.993135e-01 -8.460075e-01 -7.566023e-02 1.637498e+00 5.909590e-01 1.396976e+00 7.809114e-01 1.590281e-01 1.279090e+00 -1.538692e+00 -1.120559e+00 -1.765293e+00 -1.135099e-02 
3.865431e+00 8.256817e+00 9.784449e+00 9.468982e+00 7.797475e+00 -1.869230e+00 6.931583e+00 3.902388e-01 -1.496307e+00 -4.059114e+00 -5.504457e+00 -2.935108e+00 3.356808e-01 -7.197034e-01 -5.458584e-02 3.587700e-01 9.932710e-01 -4.640993e-01 -3.764330e-01 -1.344461e+00 6.929748e-01 1.168552e+00 -2.088887e+00 -5.219020e-01 -6.164428e-01 -2.259962e-02 
3.027736e+00 9.541452e+00 9.368338e+00 9.854134e+00 8.380703e+00 -3.160991e+00 6.671222e+00 1.290087e+00 -5.005877e+00 -7.091669e+00 -2.725331e+00 1.672071e+00 3.002982e-01 -1.141476e+00 1.623584e-01 4.206716e-01 1.176455e+00 7.619178e-02 -5.286952e-01 -2.022177e+00 -1.076174e-01 -4.724503e-02 -5.841519e-01 -1.113131e-01 -2.822737e-01 -4.619462e-02 
2.080703e+00 8.954589e+00 1.058912e+01 1.298029e+01 6.310737e+00 -5.243633e+00 3.774865e+00 3.071062e+00 -3.074974e+00 -9.026798e+00 -4.868217e+00 1.370505e-01 2.520794e-01 -1.492744e+00 -6.283714e-01 -4.591538e-01 8.508781e-01 4.086113e-01 1.602120e-01 -1.643493e+00 3.075516e-01 1.030346e+00 4.966130e-01 -1.319341e-01 -2.257040e-01 -7.435694e-02 
-2.923393e-02 8.414284e+00 9.567439e+00 1.489833e+01 1.162549e+01 -2.349939e+00 6.111121e-02 -1.452805e+00 -2.889986e+00 -5.956087e+00 -6.889970e+00 -2.461805e+00 1.604401e-01 -1.737122e+00 -1.944969e+00 -1.660585e+00 -6.356306e-01 3.281792e-01 1.026188e+00 -9.908001e-01 1.390495e-01 1.831131e+00 1.400343e+00 -4.913216e-01 -9.295338e-01 -9.071697e-02 
-2.069804e+00 5.678545e+00 7.389129e+00 1.120127e+01 8.218137e+00 -1.473696e+00 2.019172e+00 3.299443e+00 2.597476e+00 -2.143840e+00 -4.081808e+00 -1.996690e+00 3.382510e-02 -2.439335e+00 -2.779598e+00 -2.290188e+00 -1.241453e+00 -3.505286e-01 1.224611e+00 -2.936266e-01 -1.649971e-01 1.299145e+00 2.780756e+00 2.035676e+00 6.778014e-01 -8.285283e-02 
-3.582618e+00 1.454631e+00 2.665408e+00 7.565488e+00 9.067899e+00 8.498120e-02 2.595068e+00 1.871144e+00 1.313550e+00 -3.531436e+00 -5.575143e+00 -1.908728e+00 -4.415953e-02 -2.117030e+00 -2.994434e+00 -2.033324e+00 -1.219568e+00 -1.299349e+00 -4.098945e-02 9.702240e-02 1.036439e+00 1.444289e+00 2.451408e+00 3.232215e+00 1.381268e+00 -5.031092e-02 
-8.339279e+00 -1.463576e+00 2.589197e+00 1.043944e+01 5.836890e+00 -3.380373e-01 1.039754e+00 5.841022e-01 1.318983e+00 3.664656e+00 4.652747e+00 3.249519e+00 -5.988491e-02 -1.431388e+00 -2.050928e+00 -1.536757e+00 -9.831770e-01 -1.531429e+00 -5.116218e-01 -1.121155e-01 1.073640e-01 -3.636169e-03 1.470008e+00 2.353441e+00 3.583767e-01 -1.962978e-02 
-7.479647e+00 -2.986825e+00 1.800787e+00 9.181409e+00 6.319369e+00 -3.122715e+00 1.035932e+00 5.087061e+00 4.970707e+00 3.396702e+00 4.903827e+00 1.821430e+00 -4.425943e-02 -4.865275e-01 -1.135994e+00 -7.576314e-01 5.081568e-02 -1.035708e+00 -6.298751e-01 -5.573052e-01 2.307283e-01 1.939377e-01 3.001074e-01 7.219920e-01 -4.037946e-01 3.674233e-03 
-7.278228e+00 -2.355367e+00 1.376546e-01 5.477427e+00 1.935255e+00 -2.427957e+00 2.238162e+00 2.228304e+00 7.507172e-01 1.742131e+00 2.445914e+00 -2.069886e+00 -6.427383e-02 3.408841e-01 -2.715038e-01 -6.173667e-01 -5.383928e-01 -4.990460e-01 7.650560e-01 -5.824610e-01 5.300473e-01 1.148871e+00 -8.600630e-01 -2.102866e+00 -1.146888e+00 6.929076e-03 
-6.545782e+00 -3.779442e+00 1.030225e-01 1.030057e+01 5.840178e+00 -2.019434e+00 -7.906625e-01 2.202685e+00 2.567372e+00 -1.069636e+00 -8.617663e-01 -1.267998e+00 -2.359390e-02 -8.473806e-02 -6.238515e-01 -5.164841e-01 4.622842e-01 2.500929e-01 9.151642e-01 -1.408891e+00 6.127825e-02 1.750265e+00 -3.365031e-01 -2.053487e+00 5.117001e-01 1.594155e-02 
-7.101792e+00 -2.424787e+00 3.512459e-01 7.187896e+00 3.581256e+00 2.935602e+00 -9.592535e-01 4.676527e+00 8.265007e+00 1.597510e+00 -2.978785e+00 -9.402074e-01 -3.557229e-02 -1.327009e-01 -5.649922e-01 -7.799084e-02 6.287838e-01 6.451087e-02 -8.118584e-01 -1.995906e+00 4.701777e-01 2.458915e+00 -6.589317e-01 -2.007853e+00 9.900678e-01 1.982067e-02 
-7.991556e+00 -6.071373e+00 -8.884290e-01 1.063760e+01 6.746833e+00 -1.228674e+00 -4.409815e+00 4.169341e+00 9.964890e+00 1.786497e+00 -2.651258e+00 3.815091e+00 2.109754e-02 -1.869007e-01 1.802134e-01 -3.544105e-01 -9.347073e-01 -2.302757e-01 -1.311397e+00 -6.881056e-01 -2.762979e-01 7.901201e-01 -1.254586e+00 -2.253891e+00 -8.427448e-01 -1.378924e-03 
-7.218846e+00 -4.034363e+00 2.434261e-01 8.452835e+00 1.804481e+00 -6.882628e+00 -5.931792e+00 3.595864e+00 9.346535e+00 -2.980594e+00 -6.698604e+00 3.389091e-01 1.248378e-02 -5.050526e-02 6.180432e-01 -4.563013e-01 -4.086201e-01 -6.156695e-02 -1.742768e+00 -7.335504e-01 -2.999303e-01 -1.169355e+00 -1.773813e+00 -1.216641e+00 -1.471589e+00 -1.360935e-02 
-7.421758e+00 -2.073587e+00 -1.615120e+00 4.994568e+00 5.577187e+00 -3.667301e+00 -1.744921e+00 1.361527e+00 5.977209e+00 -5.053514e+00 -1.027131e+01 -6.121281e+00 -5.451655e-02 -4.818351e-01 1.393257e+00 -2.458395e-01 -1.363147e+00 -5.194756e-01 -4.956610e-01 9.811316e-02 4.052576e-01 -1.541255e+00 -1.210096e+00 1.073729e+00 3.953304e-01 -3.167322e-02 
-7.639217e+00 -1.333464e+00 -1.566915e+00 7.966309e+00 3.858244e+00 -4.558926e+00 -5.959453e+00 4.580783e+00 4.412072e+00 -3.851547e+00 -5.251962e+00 -3.329969e+00 -6.581199e-02 -5.186958e-01 1.107440e+00 1.269654e-01 -8.343841e-01 1.119605e-01 1.250996e+00 3.162098e-01 7.181695e-01 -4.253793e-01 7.621783e-01 2.017548e+00 2.175524e+00 -2.698394e-02 
-1.019055e+01 -4.555373e-01 -1.212456e+00 4.065121e+00 3.122574e+00 -4.868831e+00 -3.905419e+00 5.703169e+00 4.725845e+00 -3.828509e+00 1.994064e+00 7.626182e+00 -9.812069e-02 -6.825471e-01 7.715460e-01 7.980726e-01 -5.137135e-01 3.808369e-01 9.458008e-02 -1.085613e+00 9.013728e-01 6.046875e-01 1.650627e+00 3.184959e+00 2.360937e+00 -1.838089e-02 
-8.427931e+00 6.938123e-01 6.769212e-01 4.745638e+00 3.591590e+00 -2.688551e-02 -3.270494e+00 5.015890e+00 7.845320e+00 2.177947e-01 -2.743553e+00 4.342799e+00 -1.006339e-01 -4.140689e-01 2.908939e-01 4.106679e-02 -1.412992e+00 8.901165e-01 2.958833e-01 3.637379e-01 -4.143082e-01 2.191932e-02 5.284020e-01 2.716817e-01 -1.289653e-01 -1.581823e-02 
-1.044014e+01 7.705050e-01 1.253325e+00 4.036336e+00 7.614698e+00 -5.460421e+00 -8.517468e+00 5.650837e+00 7.284022e+00 1.164950e+00 4.399281e+00 1.847021e+00 -1.290101e-01 1.817653e-01 8.823582e-01 -1.588883e-01 -6.297661e-01 1.286935e+00 4.562140e-01 -2.103402e-01 9.607730e-02 -3.910578e-01 5.659239e-01 -1.026612e-01 -1.518221e+00 -5.346918e-03 
-9.584766e+00 -4.920155e-01 -2.594472e+00 9.157410e-01 6.062765e+00 -2.783714e+00 -1.834738e+00 2.535408e+00 3.242581e+00 -3.706266e+00 -5.096162e+00 -1.085215e+00 -1.294584e-01 -5.199099e-02 8.814566e-01 -1.012756e+00 -1.060982e+00 7.356076e-01 2.822351e-01 -1.207143e-01 -8.255733e-01 -1.074660e+00 -1.065892e+00 3.850756e-01 -6.843470e-01 -2.651644e-03 
-8.703302e+00 4.549167e+00 -3.712009e-01 2.831239e+00 8.321661e+00 -1.209346e+00 -5.674998e+00 7.423797e+00 5.071926e+00 9.631408e-01 2.657063e+00 2.749085e+00 -1.104430e-01 1.472913e-01 7.266333e-01 -6.004239e-01 -5.709775e-01 -2.345575e-02 1.206174e+00 1.381524e+00 -4.338022e-01 -6.005023e-01 9.508641e-02 7.243313e-01 1.152132e-01 -3.569102e-03 
-9.556303e+00 3.211764e+00 -3.574594e+00 4.327583e-02 6.916147e+00 -7.412474e-01 -5.295300e+00 1.543999e-03 3.578070e+00 -5.010763e+00 5.293465e-02 4.700321e-01 -1.231756e-01 -2.938819e-01 6.607995e-01 7.290040e-01 -2.599149e-02 3.577255e-01 1.009916e+00 6.525946e-01 7.002961e-01 4.435039e-02 3.042024e-01 1.624762e+00 1.077731e+00 -5.604422e-03 
-9.717911e+00 2.551782e+00 -1.258733e+00 1.617681e+00 7.070728e+00 -4.507825e-01 1.204355e-01 4.748758e+00 4.113766e+00 2.292630e+00 5.446389e+00 1.645464e+00 -1.499970e-01 -4.677705e-01 -8.780739e-02 8.799940e-01 -1.528066e-01 1.871106e-01 8.819693e-01 1.223685e+00 7.274085e-01 -1.891684e-01 -5.465514e-01 -4.681129e-02 8.597546e-01 -6.904900e-03 
-1.054687e+01 3.810675e+00 1.494315e+00 1.392562e+00 8.476858e+00 1.886585e+00 -1.469482e+00 7.374408e+00 3.943413e+00 -2.849999e+00 1.632982e+00 4.855249e+00 -1.377035e-01 -2.810094e-01 2.456715e-01 1.289087e+00 2.473455e-01 4.527552e-01 7.593031e-01 6.061720e-01 1.737138e+00 5.603332e-02 -8.210997e-02 -6.533118e-02 1.198022e+00 -1.676238e-03 
