-1.504002e-01 1.527006e+00 1.706356e+00 -9.371213e-01 1.137004e+00 5.097000e+00 4.078198e+00 -6.818099e-01 4.900793e+00 4.650190e-01 3.313584e+00 9.738391e+00 -5.333042e-02 3.689623e-01 8.864775e-01 4.204149e-01 6.239013e-01 7.331703e-01 -1.303951e-01 -1.119462e+00 -5.506040e-01 -1.550698e+00 -3.578390e-01 -3.379359e-01 -1.857782e+00 2.414107e-03 
3.029243e+00 6.626850e+00 3.335189e+00 8.632496e-01 2.658540e+00 2.394534e+00 4.833230e-01 4.470232e-01 -1.564017e+00 -3.797422e+00 3.439904e+00 5.946635e+00 -4.472589e-02 2.777534e-01 4.470046e-01 2.441002e-01 4.321899e-01 4.308737e-01 -2.302670e-01 -7.939475e-01 5.344987e-02 -1.225740e+00 4.917303e-01 -5.318617e-01 -1.804097e+00 1.788318e-03 
1.045895e-01 3.409471e+00 2.994015e+00 1.282200e+00 4.042089e+00 5.796257e+00 2.783269e-01 -3.999247e+00 3.797092e-01 8.070445e-01 1.560745e+00 2.345361e+00 -4.556215e-02 -1.255583e-01 -2.517070e-01 -2.114964e-02 1.077933e-01 2.685526e-01 -1.551661e-01 1.254792e-01 -2.555608e-01 -7.729822e-01 5.201114e-01 -1.186695e+00 -1.071963e+00 1.118243e-03 
1.110872e+00 2.820796e+00 2.283028e+00 1.141677e-01 1.838831e+00 3.596035e+00 2.008397e+00 1.244158e+00 1.032634e+00 2.752658e+00 1.530695e+00 4.414419e+00 -4.827297e-02 -4.045864e-01 -8.174437e-01 -1.995110e-01 -4.585407e-01 -6.332798e-01 1.743115e-01 1.289920e+00 -6.650042e-01 -2.663552e-01 9.320915e-01 -1.770327e-01 1.486186e-01 -3.390753e-03 
1.809940e-01 2.171498e+00 2.126688e+00 -2.361363e-02 2.889622e+00 3.720418e+00 3.943058e+00 -2.358181e+00 -2.624431e-01 -2.094636e-01 -1.665285e+00 5.144683e+00 -4.596567e-02 1.377653e-01 -1.192390e-01 2.550512e-01 2.374056e-01 -1.089635e+00 -3.965919e-01 7.731082e-01 2.824306e-01 9.497728e-02 -4.198689e-02 -2.967395e-01 -6.462703e-01 -2.154672e-03 
9.681091e-01 3.158618e+00 2.771297e+00 -7.765470e-01 6.837392e-02 4.304011e+00 5.100560e+00 -3.698530e+00 -2.574717e+00 1.371290e+00 4.167756e+00 5.290067e+00 -6.147790e-02 9.858990e-02 -2.850498e-01 -2.663495e-01 2.479201e-01 -1.939596e-01 8.017721e-01 -2.049989e-01 -1.246203e+00 -2.653129e-01 2.645880e-01 -8.858548e-01 -1.492833e+00 9.185672e-04 
8.647976e-01 2.644365e+00 4.025136e+00 2.914586e+00 -5.208557e-01 3.459310e+00 2.597786e+00 -1.157496e-01 2.658271e+00 1.287794e+00 -1.241483e+00 -1.323814e+00 -4.973304e-02 3.041329e-01 1.697971e-01 -4.171430e-01 2.933805e-01 -1.851860e-01 -2.569267e-01 -9.061125e-01 1.440554e+00 8.844275e-01 5.931779e-01 -3.162655e-01 -5.706387e-01 4.906368e-03 
1.261920e+00 1.159113e+00 2.056837e-03 -1.153311e-01 2.574272e+00 7.735451e+00 1.656038e+00 -6.108073e+00 -1.754287e+00 3.326969e+00 -3.110480e+00 1.845003e-01 -4.179645e-02 2.956857e-01 7.142521e-01 -5.004066e-01 4.174806e-01 4.259149e-01 -5.375822e-02 -2.728663e-01 1.708933e+00 1.020811e+00 6.748059e-01 1.368242e-01 -5.615110e-02 1.001691e-02 
1.554753e+00 4.020236e+00 1.425594e+00 1.112681e+00 7.107431e-01 7.200644e-01 1.134757e+00 6.049360e+00 3.749480e+00 1.778586e+00 3.925047e-01 4.844273e+00 -3.127456e-02 5.586987e-02 6.773508e-01 -8.749092e-03 1.229612e-01 6.675249e-01 2.282712e-02 -3.818400e-01 9.818590e-01 1.805724e-01 8.764462e-01 2.492756e+00 5.099002e-01 5.537152e-04 
2.101560e+00 6.041943e+00 1.569035e+00 2.211809e+00 1.582149e+00 5.404842e+00 4.467743e+00 1.763577e+00 1.983732e+00 4.499924e+00 4.034883e+00 1.925268e+00 -2.062261e-02 -5.465784e-02 4.077943e-01 1.212786e+00 2.662491e-01 3.656028e-01 -5.811401e-01 9.655340e-02 9.632775e-01 -7.027297e-01 -4.879298e-02 2.097797e+00 -1.286015e-02 -7.277584e-03 
7.243271e-01 3.589704e+00 3.197902e+00 2.365822e+00 3.312830e+00 4.738750e+00 -7.172663e-01 8.577201e-01 1.692123e+00 5.083548e+00 7.649616e+00 3.553033e-01 -5.755138e-02 -3.814833e-01 -7.675294e-01 6.167063e-01 -5.192459e-01 8.327390e-01 5.279484e-01 -5.867394e-01 -1.400866e+00 -1.049748e+00 -5.877537e-01 -4.018763e-01 -1.525370e+00 -5.753541e-03 
1.403844e+00 3.413351e+00 5.179834e+00 5.893443e-01 3.101242e+00 2.820408e+00 3.064816e+00 1.304134e+00 -4.239257e+00 1.430523e+00 3.749951e+00 2.364684e+00 -6.504595e-02 -4.587486e-01 -9.218682e-01 -8.139954e-02 -8.828176e-01 -1.611619e-01 -2.456349e-01 -2.481327e-01 -1.123105e+00 -1.122835e+00 -9.492539e-01 -1.435398e+00 2.881532e-02 -6.010628e-03 
-3.805161e-03 1.496884e+00 2.703726e+00 -6.723164e-01 4.114892e+00 4.652023e+00 -1.097477e+00 -7.252498e-01 1.612236e+00 3.745177e-01 -1.474411e+00 -3.002286e+00 -3.783059e-02 -5.943003e-02 1.161610e-01 -7.196732e-01 -4.864019e-01 -9.979473e-01 2.191055e-01 6.257396e-01 4.432622e-01 2.969048e-01 -4.961670e-01 -2.183970e+00 3.422741e-01 1.082822e-02 
1.718826e-01 2.479012e+00 1.409126e+00 -6.832108e-01 3.753092e-01 4.220031e+00 3.417185e+00 -3.060465e+00 -3.590502e+00 2.108169e+00 1.419906e+00 3.748139e+00 -6.053615e-02 -2.183851e-01 -5.354133e-02 -2.917129e-01 3.687516e-01 -1.414020e+00 -3.828180e-01 -1.966921e-01 2.633302e-01 7.477328e-01 -1.491955e-01 -9.989101e-01 5.898916e-01 5.801380e-03 
1.043158e+00 4.637679e+00 1.484890e+00 5.700895e-01 -3.139396e-01 5.134466e+00 2.235247e+00 5.256331e+00 2.852270e+00 2.263890e+00 -2.105211e+00 1.374946e+00 -5.665183e-03 2.116220e-01 3.097035e-01 3.739527e-01 1.301558e-01 -1.304515e+00 -9.588571e-01 1.533620e-01 3.014959e-01 5.666834e-01 1.084150e+00 1.269255e-01 7.390065e-01 6.765127e-05 
-2.115631e-01 1.575247e+00 4.330687e+00 1.811899e+00 -1.754441e+00 6.650970e-01 4.149934e-01 -3.700051e-01 -1.120610e+00 -2.601404e-01 -9.291997e-01 3.125526e+00 -5.212176e-02 -5.053015e-02 1.031036e-01 8.472195e-01 3.329833e-01 2.212538e-01 -6.411650e-01 -1.673875e+00 -6.797644e-01 1.449168e+00 5.256041e-01 -3.372347e-02 -3.541375e-01 -3.770494e-03 
1.246028e+00 3.497285e+00 3.112709e+00 -1.269092e+00 -1.342809e+00 1.635205e+00 1.170429e+00 -5.630007e-01 3.210707e+00 6.979422e+00 3.347697e-01 1.004053e+00 -4.169953e-02 -2.556967e-01 -6.934328e-01 4.579270e-01 -1.999381e-01 -2.677206e-01 -3.557208e-01 -7.164201e-01 -1.503246e+00 1.937504e-01 3.610745e-01 3.044776e-02 -5.877542e-03 -1.048255e-02 
-1.822033e-01 3.564727e+00 4.831313e+00 1.901297e+00 1.996013e+00 2.763836e+00 -4.419784e+00 -3.549622e+00 3.476120e+00 2.378424e+00 3.129816e-02 2.162899e+00 -6.137145e-02 -9.566212e-03 -5.268142e-01 -3.860892e-01 -1.299805e-01 -1.897428e-01 1.083106e+00 6.325713e-01 -1.130839e-01 -1.563570e-01 7.586288e-02 -5.030119e-02 6.250280e-01 1.914978e-03 
-2.500057e-01 1.757748e-01 3.524212e+00 -4.743000e-01 -3.527770e+00 2.306492e+00 1.070535e+00 -6.700916e-01 1.522657e+00 2.749980e+00 -2.433222e+00 1.826872e+00 -5.345309e-02 -6.129732e-01 -1.071814e-01 -1.946977e+00 -5.723988e-01 -5.455545e-01 3.102699e+00 1.599090e+00 3.268796e-01 -5.436857e-01 -5.745558e-01 9.713182e-01 2.329803e+00 5.120856e-02 
4.886227e-01 6.019307e-01 2.194489e+00 7.646008e-01 -1.610674e+00 5.744982e+00 3.627796e+00 -8.818793e-01 -1.058370e+00 2.233895e+00 2.032900e-01 5.839257e+00 -3.667009e-02 -1.507176e+00 1.163617e+00 -3.523242e+00 -2.656293e+00 -1.423285e-01 3.806998e+00 2.176510e+00 1.090206e+00 -2.820810e-01 -1.073123e+00 1.956791e+00 2.903021e+00 1.200447e-01 
-2.154251e+00 4.442776e+00 -5.303763e+00 -3.562738e+00 -2.267238e+00 1.565813e+01 5.142088e+00 -2.624738e-01 2.759523e+00 4.178907e+00 5.105365e+00 1.081489e+01 2.019926e-01 -7.242088e-01 1.790787e+00 -1.683118e+00 -7.307318e-01 1.548956e+00 2.698617e+00 -4.058913e-02 -6.062007e-01 -6.716033e-01 -2.008421e+00 1.154926e+00 1.701599e+00 6.524576e-02 
-6.765963e+00 7.249313e+00 -8.370907e+00 -9.835952e+00 6.541048e-01 1.512301e+01 4.426992e+00 1.697601e+00 1.447281e+00 -3.701654e+00 6.045959e+00 1.218399e+01 4.111291e-01 1.390627e-01 4.050736e-01 5.741661e-01 -2.280740e-01 6.413127e-01 -9.498705e-01 -9.813396e-01 -1.248145e+00 -4.027668e-01 -9.967703e-01 -1.394612e+00 -1.506532e+00 -1.936514e-02 
-2.437572e-01 5.806018e+00 3.913226e-01 1.172317e+00 3.084619e+00 1.111056e+01 4.679917e-01 -4.990835e+00 -3.088185e+00 -4.324353e+00 4.200716e-01 7.162501e+00 4.887611e-02 1.826550e+00 -1.957146e+00 1.556753e+00 3.578080e-01 7.248424e-01 -1.970058e+00 -1.075563e+00 -1.922559e+00 -1.457917e+00 -2.797298e-01 -1.636054e+00 -2.362305e+00 -8.691234e-02 
2.286892e-01 1.945677e+00 2.217777e+00 -2.743297e+00 -1.080039e+00 3.269413e+00 1.058146e+00 -4.758426e+00 -1.483498e-01 1.501673e+00 -4.427125e+00 1.327897e-01 -5.693758e-02 2.780397e+00 -3.719949e+00 2.768196e-01 2.819032e-01 -7.946978e-01 6.774259e-01 -1.274067e+00 -2.794024e+00 -1.103222e+00 7.626009e-01 -7.202948e-01 -1.388178e+00 -5.726948e-02 
3.481175e+00 -2.691135e+00 -2.814341e+00 -5.320025e+00 2.224046e+00 1.173463e+01 1.448696e+00 -6.647258e+00 -3.732246e+00 1.785944e-01 2.161637e+00 5.028962e+00 1.464188e-03 6.091892e-01 -1.844545e+00 -1.441641e+00 -9.719758e-01 -6.289091e-01 1.450157e+00 -3.344124e-01 -1.838678e+00 -9.938583e-01 9.210371e-01 1.528786e+00 -3.037119e-02 1.185430e-02 
5.273554e+00 -7.101856e+00 -5.383977e+00 -5.180264e+00 -2.889098e+00 1.819810e+01 -2.433697e+00 -1.144431e+01 -3.746797e+00 -2.140123e+00 1.573703e+00 6.309876e+00 1.484876e-01 -5.070910e-01 4.327213e-01 -3.316946e-01 4.812861e-01 -7.850515e-01 -1.244471e-01 -6.400796e-01 -1.634044e-01 -1.198074e+00 -4.932698e-01 7.809626e-01 -5.449045e-01 1.013724e-02 
2.797565e-01 1.107060e+00 -3.016006e+00 -2.469078e+00 8.446021e-01 1.089700e+01 5.418514e-01 -1.084128e+01 -6.258254e+00 2.101730e+00 5.063588e+00 3.922102e+00 5.434990e-03 -1.246430e+00 1.854953e+00 1.330359e+00 1.595751e+00 -9.178944e-01 -4.124567e+00 -2.180184e-02 1.733328e+00 6.801069e-01 1.919529e-01 -5.867520e-01 -1.372411e+00 -2.414766e-02 
-7.060566e-01 2.210187e+00 6.601365e-01 -1.762340e+00 -4.315575e+00 3.065994e+00 -1.688830e+00 -3.478436e+00 -4.875713e+00 -1.926243e+00 -1.973287e+00 -2.038303e+00 -8.236766e-03 -1.044621e+00 1.541720e+00 1.713019e+00 1.122361e+00 -1.255379e-02 -4.325644e+00 9.614765e-01 2.565485e+00 1.472931e+00 3.434529e-01 -3.097095e-01 -5.723095e-01 -4.393920e-02 
2.388325e-01 1.927609e+00 8.153985e-01 9.497694e-01 -1.652188e+00 -1.322149e+00 9.672527e-01 -1.963553e+00 2.327468e-01 1.031419e+00 1.001372e+00 2.340998e+00 -4.091191e-02 -1.133862e-01 -4.115555e-01 1.203174e+00 7.140157e-01 1.967325e-02 -6.165140e-01 4.658789e-01 1.652691e+00 2.476836e+00 9.851537e-02 2.197289e-02 1.206248e+00 -5.944645e-03 
7.090950e-02 1.964681e-01 1.265415e+00 -1.277881e+00 -1.703472e+00 2.679451e+00 2.160985e+00 -3.055747e+00 3.723593e-01 1.122971e-01 2.056263e+00 4.238881e+00 -4.803491e-02 1.037235e-01 -6.872803e-01 6.072288e-01 6.960219e-01 5.742807e-01 1.428004e+00 6.721899e-01 4.948603e-02 1.584498e+00 8.436364e-01 9.376103e-01 2.295259e+00 2.538800e-04 
-6.756573e-01 5.614194e-02 2.697227e+00 8.587707e-01 -3.630831e-01 8.007702e+00 9.463387e-01 -2.789170e+00 3.501890e+00 1.575037e+00 3.158678e+00 6.814751e+00 -4.389167e-03 9.426250e-02 6.688182e-02 4.431145e-01 7.324442e-01 5.363745e-01 1.327334e+00 -1.109755e-01 7.646644e-01 9.661288e-01 4.099987e-02 -1.984617e-01 -3.290748e-01 2.074480e-03 
2.698059e-01 -2.904811e-01 2.755366e+00 1.763269e+00 -2.088723e+00 5.541088e+00 1.682577e+00 -2.818197e+00 1.412205e+00 2.020129e+00 1.636112e+00 7.201119e+00 -2.522874e-02 1.371231e-02 6.104495e-01 1.340728e-01 6.582330e-01 -1.925975e-02 -8.632182e-01 -1.126279e+00 2.697227e-01 7.719182e-01 -3.304267e-01 -8.864929e-01 -1.006671e+00 1.179337e-04 
6.106968e-01 2.505492e+00 2.285995e+00 3.091416e+00 1.222311e+00 3.883705e+00 6.515790e-01 1.740994e+00 4.543468e+00 2.825019e-01 2.191396e-01 -7.854949e-01 -4.194260e-02 -1.449751e-01 7.780206e-01 5.873154e-01 1.210241e-01 3.121603e-01 -2.324380e+00 -1.802712e+00 3.435799e-02 7.295344e-01 3.586875e-01 -8.119516e-02 -1.282334e+00 -7.173836e-03 
-5.037060e-01 2.024040e+00 2.141395e+00 8.969621e-01 -2.592467e+00 4.253583e-01 -3.323031e+00 -3.972215e+00 3.711161e+00 -8.935691e-01 -9.064326e-01 3.005647e+00 -2.866852e-02 -2.243291e+00 3.593030e-01 -1.343043e-02 -1.137218e+00 7.915791e-01 -6.982591e-01 -3.230997e-01 -1.243514e+00 9.109747e-01 4.858628e-01 -7.875617e-01 9.020704e-01 8.909979e-02 
-1.013777e+00 2.788984e+00 5.940789e+00 1.897045e+00 1.449590e+00 -1.056333e+00 -5.564419e+00 -2.040371e+00 6.000084e+00 4.825323e+00 4.023974e+00 2.500816e+00 -3.853846e-02 -3.273385e+00 -3.909778e-01 -3.598303e-01 -1.395734e+00 8.183204e-01 6.107548e-01 8.133559e-01 -2.688037e+00 3.081658e-01 5.659369e-01 -1.523651e+00 2.967763e+00 1.524973e-01 
-1.013441e+01 1.364288e+00 8.608172e-01 -3.325634e+00 1.755533e+00 4.519812e+00 3.175077e+00 -7.145083e+00 5.238770e+00 2.178033e+00 -4.204114e+00 1.006832e+01 4.185681e-01 -8.897535e-01 4.461787e-02 -1.740608e-01 -3.072229e-01 8.788055e-01 1.121432e+00 2.363658e+00 -3.651037e-01 -2.071881e-01 6.518853e-01 -8.943484e-01 1.778796e+00 5.813220e-02 
-1.094087e+01 8.804799e-01 1.127132e+00 -1.775954e+00 3.139913e+00 4.890252e+00 1.469304e+00 -1.011276e+01 5.320493e+00 1.576385e+00 -5.750272e+00 1.052198e+01 4.969254e-01 1.389263e+00 3.955103e-01 -1.166692e-01 9.908484e-01 1.479717e-01 1.377691e+00 1.490076e+00 9.639353e-01 -1.803460e+00 -3.106675e-01 -1.021421e+00 8.393756e-01 -3.396648e-02 
1.107407e-02 3.201382e+00 3.677919e+00 1.197347e+00 9.563996e-01 3.059225e+00 4.978398e+00 -1.761541e+00 3.015016e+00 3.990326e+00 -4.910517e-01 7.889041e+00 -5.739450e-03 3.251501e+00 4.953559e-01 7.056254e-01 1.448985e+00 4.400896e-01 3.298726e-01 -7.636647e-01 1.688794e+00 -2.321114e+00 6.503978e-02 1.391863e+00 -1.128115e+00 -1.434504e-01 
8.597927e-01 3.847988e+00 3.948893e+00 4.589796e+00 2.589015e+00 6.562413e+00 9.843028e-01 8.753371e-02 -1.905339e+00 2.365839e+00 -2.939660e+00 7.787331e+00 3.782928e-03 2.427393e+00 6.930119e-02 4.058534e-01 4.712264e-01 -1.520505e-02 -4.467498e-01 -6.937577e-01 1.456058e+00 -1.285345e+00 4.941216e-01 1.027831e+00 -1.298395e+00 -1.158729e-01 
2.227573e-01 2.357313e+00 2.978064e+00 7.364166e-01 4.231429e+00 5.333095e+00 -4.007454e-01 -3.801260e+00 -2.753883e+00 2.108505e+00 1.349896e+00 5.795069e+00 -5.211282e-02 5.037155e-02 -3.389161e-01 -2.204026e-01 -9.032699e-01 -4.785686e-01 -8.499171e-01 -1.361829e+00 3.314024e-01 3.583786e-01 8.148245e-01 5.935908e-01 -1.049708e+00 -1.098164e-02 
1.090254e+00 1.649020e+00 3.506327e+00 8.106425e-01 1.426372e+00 1.519568e+00 6.900882e-01 -1.812605e+00 1.778219e+00 4.987905e+00 -1.531593e+00 5.076996e+00 -5.925238e-02 1.823896e-01 -1.131711e-02 -9.177443e-02 -1.496711e+00 -1.298280e+00 -1.290997e+00 -5.789877e-01 8.333935e-01 1.757901e+00 7.094441e-01 8.363715e-01 -6.273966e-01 -8.443058e-03 
1.477013e-01 2.606285e+00 2.797189e+00 -1.429426e+00 -8.551223e-01 1.331061e+00 -1.683639e+00 8.455408e-01 2.965130e+00 6.753416e+00 1.772869e+00 3.995671e+00 -2.912998e-02 8.653330e-01 2.671360e-01 -1.676520e+00 -2.448467e+00 -3.146831e+00 -1.974959e+00 -1.590962e-01 2.116836e+00 2.063194e+00 1.684018e-01 -3.789828e-01 -9.023216e-01 6.950021e-03 
1.809269e+00 3.666917e+00 3.580458e+00 -1.810839e+00 -1.359110e+00 2.108445e+00 -1.269189e+00 1.931101e+00 4.024658e+00 3.590604e+00 1.030711e+00 5.550047e+00 -4.992378e-02 1.519292e+00 -7.260052e-01 -3.788829e+00 -2.536570e+00 -2.596484e+00 -1.419672e+00 1.632470e+00 2.618250e+00 1.186197e+00 -1.380723e-01 -1.236373e+00 -1.237301e+00 1.629593e-02 
4.189915e+00 2.684045e+00 -5.441602e+00 -1.019518e+01 -1.010998e+01 -4.836138e+00 -2.165880e-01 4.911065e+00 6.438868e+00 3.649163e+00 -1.826170e+00 1.046935e+00 -2.202702e-02 1.561963e+00 -2.862580e+00 -4.185469e+00 -6.805423e-01 4.495577e-01 1.014869e+00 2.541440e+00 8.831354e-01 -4.689206e-01 -1.093930e+00 -1.750515e+00 -1.227084e+00 2.955340e-02 
6.665608e+00 -2.019886e+00 -1.131842e+01 -7.489330e+00 -6.928616e+00 -2.495191e+00 8.118911e+00 9.245884e+00 5.972335e+00 5.849669e+00 -5.913940e+00 3.648621e-01 1.867580e-02 1.995153e-01 -3.427401e+00 -2.790296e+00 6.429971e-01 3.665051e+00 6.876915e-01 6.563281e-01 8.564148e-02 2.087655e-02 4.692936e-01 4.781510e-01 -2.376068e+00 6.699716e-02 
5.529346e+00 -8.863211e+00 -1.068071e+01 -1.992892e+00 4.177419e+00 8.707224e+00 6.329512e+00 1.603826e+00 -3.533111e-01 1.542339e-01 -3.507379e+00 4.528437e-01 8.433723e-02 -1.468925e+00 -2.567672e+00 -6.724586e-02 2.743939e+00 5.034144e+00 -1.393126e+00 -2.230406e+00 -6.229990e-01 -4.024332e-01 -1.116899e-01 1.702987e+00 -1.783033e+00 1.024332e-01 
2.137130e+00 -7.696457e+00 -7.751467e+00 -2.696998e+00 9.822441e+00 -1.224778e+00 -1.260598e+00 4.012927e+00 7.525130e+00 7.684537e+00 4.262071e+00 -6.033245e+00 2.318799e-01 -3.137089e+00 -3.748109e-01 2.028353e+00 2.268316e+00 1.729365e+00 -4.450190e+00 -3.114627e+00 -1.499217e+00 -7.203379e-01 4.241078e-01 2.788665e+00 -1.886904e-01 1.239233e-01 
-8.904705e-01 -7.316028e+00 -7.561310e+00 1.128350e+00 6.685210e+00 -1.243698e+01 -6.678864e+00 4.412548e+00 3.650304e+00 2.173280e+00 1.600760e+00 -4.669174e+00 3.835368e-01 -3.532029e+00 1.226718e+00 2.147409e+00 8.322328e-01 -2.040080e+00 -4.920389e+00 6.741532e-01 1.916667e-01 -5.655574e-01 7.912423e-01 1.414406e+00 -5.062454e-01 1.239229e-01 
-5.809931e+00 -4.667532e+00 -2.736362e+00 2.291626e+00 4.643147e-01 -1.417404e+01 -9.500384e-01 3.454366e-01 3.688378e-01 6.960686e+00 5.475313e+00 1.982419e+00 4.886923e-01 -3.181387e+00 7.982473e-01 1.716679e+00 2.884919e-01 -4.111245e+00 -8.780791e-01 4.257161e+00 -8.684006e-01 -1.910249e+00 -6.824237e-01 9.182753e-02 1.067358e+00 1.032093e-01 
-8.157267e+00 -4.244086e+00 -2.451222e+00 -3.260402e-01 -1.343916e+00 -9.420090e+00 9.544998e+00 4.395905e+00 3.970480e-01 4.472371e+00 2.958030e+00 -6.086215e+00 5.755454e-01 -2.307419e+00 1.526388e-01 1.028513e+00 -9.163639e-01 -2.738052e+00 1.725325e+00 4.525080e+00 -8.014073e-01 5.375748e-01 7.090381e-01 6.877847e-01 1.061942e+00 7.406358e-02 
-1.013641e+01 -5.241192e+00 -1.723117e+00 -5.273433e-01 -6.719223e+00 -7.123616e+00 1.191328e+01 -3.207543e-01 -3.994880e-01 3.122873e+00 4.042574e+00 1.206696e-02 6.519222e-01 -1.277388e+00 -4.762366e-01 -2.163034e-01 -1.650477e+00 -2.613655e-01 1.252092e+00 1.465497e+00 -4.453275e-02 1.470460e+00 4.476680e-01 -5.635397e-01 4.092378e-01 5.622507e-02 
-1.026433e+01 -6.266004e+00 -2.925365e+00 -2.043985e+00 -3.413280e+00 -7.335562e+00 9.514881e+00 7.386069e-01 6.722341e+00 7.637377e+00 5.756053e+00 1.625714e+00 6.722398e-01 -9.768065e-01 4.284439e-02 -1.257069e-01 -9.146454e-01 1.195721e+00 1.683695e+00 -5.367171e-01 -8.579283e-01 -1.702510e-01 9.281291e-01 -7.418672e-01 3.133919e-01 4.598358e-02 
-1.114334e+01 -6.037756e+00 -3.580808e+00 -5.101788e+00 1.921694e-01 -8.955843e+00 6.392507e+00 1.951422e+00 4.558490e+00 7.616523e+00 1.258603e+00 1.726434e-01 7.214705e-01 -8.739300e-01 1.263316e+00 7.377100e-02 -7.356811e-01 1.735979e+00 8.044639e-01 -1.524379e+00 -7.649280e-01 -1.359469e+00 3.940887e-02 -1.665133e+00 -1.379835e+00 4.624497e-02 
-1.253783e+01 -3.631582e+00 -2.150911e+00 -2.612045e+00 1.178995e+00 -8.550215e-02 9.621797e+00 -1.029825e+00 -2.933196e+00 6.866192e+00 6.406789e-01 -4.599544e+00 7.706892e-01 -9.760807e-01 1.365752e+00 -1.303409e-01 -1.439129e+00 5.899462e-01 8.974606e-01 -1.265589e+00 -1.375645e+00 -2.480281e+00 -1.579786e+00 -1.908236e+00 -9.729801e-01 4.273816e-02 
-1.336931e+01 -2.418233e-01 -1.741489e+00 -3.921719e+00 -3.354623e-01 -6.726327e+00 4.237924e+00 -3.261179e+00 -2.369064e+00 3.705510e+00 -1.725403e+00 -3.774478e+00 8.339224e-01 -1.032488e+00 9.268222e-01 -2.595767e-01 -8.690565e-01 8.643996e-01 1.173384e+00 -8.353554e-01 -1.247094e+00 -1.112395e+00 -1.656933e+00 -1.312507e+00 2.386167e-02 3.497323e-02 
-1.403175e+01 -2.335212e+00 -4.496729e+00 -9.829667e+00 -1.997333e-01 -3.963017e+00 4.264228e+00 -3.533318e+00 -2.215286e+00 1.693952e+00 -2.293126e+00 -1.265625e+00 8.297046e-01 -8.178509e-01 2.983611e-01 -4.343745e-01 -8.008884e-01 7.866310e-01 -6.380324e-01 -1.483545e+00 6.751105e-01 3.736822e-01 -1.208356e+00 -1.760720e+00 8.114675e-01 2.532208e-02 
-1.555882e+01 -2.051831e+00 -3.705783e+00 -5.838259e+00 5.203532e+00 -1.150163e+00 4.894514e+00 -3.032301e+00 -1.362438e+00 1.917976e+00 -3.837031e+00 -1.375008e+00 8.668289e-01 -7.518845e-01 -2.548884e-01 -7.031565e-01 5.785012e-02 2.080109e+00 7.713150e-01 8.722803e-01 1.964235e+00 1.160296e+00 1.001861e-01 -1.001609e+00 8.021615e-01 2.498073e-02 
-1.553233e+01 -1.234773e+00 -3.340637e+00 -5.658216e+00 2.342653e+00 -6.063745e+00 1.875777e+00 2.231289e+00 -1.568098e+00 1.718180e+00 -7.107109e+00 -1.741942e+00 8.808463e-01 -4.368366e-01 1.960782e-01 -6.212398e-01 1.236900e+00 1.365361e+00 -4.972775e-01 1.258144e+00 1.610150e+00 1.831927e+00 1.181333e-01 -4.315782e-01 8.442011e-01 2.995219e-02 
-1.637844e+01 -2.066484e+00 -5.835318e+00 -5.718193e+00 8.793889e+00 -1.819388e+00 9.793550e+00 3.677691e+00 3.108820e+00 4.194326e+00 -4.326457e+00 4.744875e-01 9.332552e-01 -8.322220e-02 4.254768e-01 -4.123489e-01 8.565210e-01 -1.879547e-01 -1.408252e+00 1.093288e+00 -1.890114e-01 1.193122e+00 -6.829612e-01 2.472004e-01 5.234916e-01 3.009742e-02 
-1.580612e+01 -1.347493e+00 -6.538161e+00 -3.705202e+00 4.831895e+00 -6.114792e+00 8.105431e+00 1.162435e+00 4.708718e+00 1.146443e+00 -4.206305e+00 2.030632e+00 9.462525e-01 9.592781e-02 8.101803e-01 -5.226383e-01 5.590436e-01 -7.416282e-02 -5.992171e-01 7.919183e-01 -1.275025e+00 8.180006e-01 -4.644530e-01 1.040046e+00 -5.201501e-01 2.464964e-02 
-1.583804e+01 1.319137e-01 -4.168765e+00 -2.532161e+00 3.019137e+00 -8.165899e+00 7.246125e+00 -3.442931e+00 1.464766e+00 -1.210962e+00 -4.051431e+00 -6.438369e-01 9.846129e-01 1.462238e-01 8.761784e-01 -2.747631e-02 3.646421e-01 -1.116966e+00 -2.071069e-01 -1.513348e+00 -1.271368e+00 -1.222278e-01 -8.137695e-01 -3.909309e-01 -1.075100e+00 5.003530e-03 
-1.532289e+01 1.716929e+00 -6.787105e+00 -4.456015e+00 4.859215e+00 -5.886575e+00 7.109081e+00 -5.835252e-01 3.343933e+00 2.098559e+00 -2.044392e+00 -3.783530e+00 9.784157e-01 7.723580e-02 4.768489e-01 -3.652243e-01 4.179575e-01 -7.979366e-01 1.250415e+00 -1.509594e+00 1.252451e-02 4.651667e-01 -1.297629e+00 -9.171670e-01 -1.256471e+00 6.507337e-03 
-1.588894e+01 7.821966e-01 -5.848228e+00 -3.519576e+00 3.195400e+00 -2.969031e+00 2.724986e+00 -1.806168e+00 3.180074e+00 -3.505797e-01 -7.362067e+00 -1.993933e+00 9.421912e-01 4.207939e-01 -3.770072e-02 -2.076646e-01 1.263172e+00 -9.194782e-01 1.625150e+00 -9.131224e-01 6.655511e-01 1.092530e+00 -1.933595e+00 -1.402606e+00 4.741476e-01 -5.932325e-03 
-1.539450e+01 7.116095e-01 -7.524551e+00 -1.121707e+00 7.540803e-01 -2.461153e+00 2.818032e+00 4.066758e-01 6.176897e+00 -5.771892e+00 -7.136821e+00 -3.576673e+00 1.000000e+00 7.448858e-01 -1.081634e+00 4.772724e-01 1.887079e+00 -1.830138e+00 1.578535e+00 -4.056028e-01 -1.827586e-02 -1.517103e-01 -1.486196e+00 -8.268641e-01 8.803295e-01 -1.853833e-02 
-1.369827e+01 4.460700e-01 -4.838365e+00 2.116546e+00 4.743128e-01 -1.752862e+00 4.826038e+00 -6.102760e-01 5.510932e+00 -6.943712e+00 -8.518245e+00 1.623473e+00 9.441592e-01 1.462731e+00 -1.912688e+00 5.694267e-01 2.321439e+00 -1.940909e+00 -5.476435e-01 5.155517e-01 4.982095e-02 -1.671744e+00 5.408056e-01 8.894110e-01 3.637650e-02 -3.971361e-02 
-1.269380e+01 -3.523177e+00 -4.905674e+00 2.161319e+00 -2.930933e+00 1.398017e+00 4.030541e+00 -1.272851e+00 1.419952e+00 -2.035857e+00 -5.600624e+00 -1.190585e+00 8.847401e-01 2.393230e+00 -2.269311e+00 8.417271e-01 1.578370e+00 -2.124688e+00 -2.818700e+00 4.645282e-01 5.185930e-01 -2.714617e+00 1.715917e+00 1.815942e+00 -1.066943e+00 -7.623310e-02 
-9.925631e+00 -6.663850e+00 -4.310533e+00 6.446105e+00 -4.666637e+00 -7.636833e+00 4.696489e+00 -7.173003e-01 -2.800175e+00 4.854310e-01 -3.683111e+00 -3.005094e+00 8.012531e-01 4.382124e+00 -7.310230e-01 1.210157e+00 1.289590e+00 -1.012518e-01 -2.567042e+00 -7.765985e-01 7.122940e-01 -1.881215e+00 1.003667e+00 2.263721e+00 -2.115401e+00 -1.155274e-01 
-5.314663e+00 -7.079984e+00 -3.579832e+00 4.605365e+00 -7.298882e+00 -1.361267e+01 5.205447e+00 3.053153e+00 -3.240632e+00 -9.068789e-01 -4.746797e-01 -6.597107e+00 6.902875e-01 7.645427e+00 2.396597e+00 2.415213e+00 6.888573e-01 2.153753e-01 -2.357437e+00 -2.944209e+00 -7.745854e-01 -5.087331e-01 -1.624434e+00 2.719783e+00 -7.199384e-01 -8.695720e-02 
4.522791e+00 -1.430641e+00 5.494995e-01 7.342474e+00 2.152029e+00 -7.082732e+00 3.555931e-01 7.881927e-01 -1.564849e+00 -2.489864e+00 2.373865e-01 -6.250271e+00 4.637485e-01 8.290977e+00 3.067413e+00 2.980170e+00 -3.825736e-01 -4.653123e-01 -6.029623e-01 -5.045331e+00 -1.984489e+00 1.977919e+00 -3.300678e+00 2.288959e+00 1.417564e+00 -1.405998e-02 
1.830913e+01 5.843206e+00 4.740376e+00 5.157420e+00 -5.263390e+00 -1.066622e+01 -8.520054e+00 -5.898524e+00 -1.741377e+00 -8.670378e+00 6.038040e+00 -3.167689e+00 6.187064e-01 6.692545e+00 1.887947e+00 2.861475e+00 -9.337763e-01 -2.538120e+00 1.431473e+00 -5.383483e+00 -3.736696e+00 4.011138e+00 -3.640795e+00 1.019749e+00 2.803275e+00 5.471651e-02 
1.971736e+01 2.211620e+00 6.430215e+00 4.257209e+00 -8.010945e+00 -1.212487e+01 -1.366741e+01 -6.163909e+00 6.339793e+00 -1.213621e+01 4.505322e+00 2.368014e+00 7.667438e-01 3.488403e+00 -4.004321e-01 2.112569e+00 -2.292006e+00 -5.193103e+00 2.694069e+00 -4.529795e+00 -2.419045e+00 3.905212e+00 -2.323996e+00 2.035494e-01 2.084002e+00 9.265386e-02 
2.055078e+01 5.386200e-01 7.787185e+00 1.479116e+00 -1.490800e+01 -3.934234e+00 -1.470047e+01 -1.215428e+01 1.286274e+01 -1.428768e+01 2.490099e+00 3.110126e+00 8.123723e-01 1.156261e-01 -2.583355e+00 1.733452e+00 -1.731346e+00 -2.951286e+00 2.757426e+00 -2.443827e+00 8.426719e-01 1.978579e+00 -6.180051e-01 -4.633432e-01 4.739855e-01 4.882196e-02 
2.084398e+01 -7.805086e-01 9.588940e+00 -2.278401e+00 -1.899118e+01 3.021623e+00 -1.920317e+01 -8.179157e+00 1.065915e+01 -1.130119e+01 3.029104e+00 1.030833e+00 8.301848e-01 -8.742421e-01 -2.406488e+00 1.411242e+00 -1.175148e+00 -5.630846e-01 5.762670e-01 -7.212788e-01 2.067334e+00 -6.550547e-01 -6.662866e-01 1.105957e+00 -1.745049e+00 2.061049e-02 
1.832395e+01 -5.577503e+00 1.182827e+01 -2.315054e-01 -1.452970e+01 -4.452333e+00 -1.797131e+01 -6.775401e-01 5.991840e+00 -1.217791e+01 4.459433e+00 -1.291706e-01 8.310957e-01 -1.314106e+00 -1.332643e+00 2.270990e-01 -8.921086e-01 2.689499e+00 -2.494082e+00 -6.518286e-01 2.753410e+00 -1.502780e+00 -1.523760e+00 2.281943e+00 -1.977604e+00 6.902569e-03 
1.645957e+01 -6.762760e+00 1.146588e+01 -7.632205e-01 -1.101552e+01 -8.984484e+00 -1.563839e+01 -1.565609e+00 6.499968e+00 -1.652253e+01 9.050442e+00 -4.737584e+00 8.604345e-01 -8.477108e-01 -1.592234e-01 -7.421054e-01 2.420192e-01 2.576565e+00 -2.876543e+00 -7.570112e-01 1.589048e+00 -1.061969e+00 -2.722783e+00 2.298583e+00 -1.498453e+00 -1.051979e-02 
1.617246e+01 -3.133470e+00 7.984210e+00 -3.739017e+00 -5.448335e+00 -1.040159e+01 -1.974200e+01 -1.694004e+00 7.428432e+00 -1.929582e+01 1.088914e+01 -3.893687e+00 8.317603e-01 4.443078e-01 9.186968e-01 -1.051496e+00 8.003983e-01 1.696976e+00 -1.791375e+00 -2.099123e+00 2.069138e+00 -1.445546e+00 -2.042730e+00 1.348786e+00 -3.166292e-01 -4.168645e-02 
1.768117e+01 -2.798642e+00 7.800445e+00 6.854501e-01 -1.064904e+01 -8.386465e+00 -2.210288e+01 2.743161e-01 4.631015e+00 -2.135615e+01 1.130716e+01 -4.579175e+00 7.772535e-01 4.337497e-02 7.111821e-01 -2.611091e-01 2.568694e+00 1.107092e+00 -1.726098e+00 -1.636265e+00 2.929452e+00 -2.924291e+00 -1.154550e+00 1.498852e-02 1.057601e-01 -6.301886e-02 
1.993468e+01 -2.966078e+00 8.403510e+00 3.046151e+00 -6.228059e+00 -1.370822e+01 -2.523467e+01 8.748188e+00 -3.014135e-01 -1.997475e+01 1.007500e+01 -1.791522e+00 6.642540e-01 -4.390646e-01 6.489164e-01 1.205320e+00 3.685123e+00 1.288987e+00 -2.435245e+00 -3.495966e-01 3.239162e+00 -3.743723e+00 -1.036090e+00 -7.545961e-01 8.742158e-02 -7.722811e-02 
1.479533e+01 -3.290545e+00 9.950686e+00 8.687665e+00 -5.090193e+00 -1.596166e+01 -2.107338e+01 7.860555e+00 -4.256567e+00 -2.195581e+01 9.532455e+00 -5.259867e+00 6.290934e-01 -2.233904e+00 -5.547047e-02 9.093077e-01 2.585541e+00 2.916813e+00 -2.656409e+00 3.654118e-02 3.476140e+00 -2.890780e+00 2.061260e-01 -2.187194e+00 9.700322e-01 -1.040185e-01 
1.542006e+01 3.570637e-01 1.293569e+01 1.068549e+01 -1.782827e+00 -1.879022e+01 -2.200474e+01 1.070869e+01 -6.846392e+00 -2.417644e+01 8.003519e+00 -3.116233e+00 5.196998e-01 -2.321445e+00 1.818064e+00 -3.724682e-01 1.181405e+00 1.294883e+00 3.805525e-01 4.024220e+00 -3.356094e-01 -1.801036e+00 2.028731e+00 -3.952161e+00 2.004997e+00 -1.527211e-01 
8.768965e+00 -4.737566e+00 1.008089e+01 9.793484e+00 1.712407e+00 -1.912751e+01 -2.353514e+01 1.667477e+01 -6.550395e+00 -1.822467e+01 1.406938e+00 9.333428e-01 3.294381e-01 -6.991290e-01 3.228701e+00 -9.461058e-01 4.423822e-01 4.056112e-01 1.952489e+00 5.938501e+00 -1.365692e+00 -2.559456e-01 2.928731e+00 -4.598958e+00 2.766693e+00 -1.497164e-01 
1.134064e+01 6.847751e+00 6.476065e+00 8.400264e+00 -3.154944e+00 -1.022253e+01 -3.882690e+00 2.663034e+00 -8.159679e+00 -1.169666e+01 -5.623045e+00 5.136861e+00 5.047590e-02 -1.707553e+00 2.841663e+00 -1.386221e+00 -7.696249e-01 5.547097e-01 5.426057e+00 7.079713e+00 -3.826118e+00 3.357128e-01 4.101787e+00 -2.867708e+00 5.491511e-01 -1.300023e-01 
1.333939e+01 9.607618e+00 8.449967e+00 1.204219e+01 -2.376079e+00 -1.048306e+01 -4.418960e-01 5.054922e+00 -4.879652e+00 -1.355204e+01 -6.649056e+00 4.447053e+00 1.151233e-01 -2.247179e+00 1.792319e+00 -1.083413e+00 -1.922490e+00 7.952136e-01 6.252434e+00 6.335760e+00 -4.391591e+00 1.132054e+00 3.978362e+00 4.208472e-01 -2.636378e-01 -7.989270e-02 
4.597076e+00 7.392786e+00 6.820045e+00 5.713015e+00 3.034965e+00 4.017841e+00 1.847200e+00 -2.611983e+00 -6.003200e+00 -6.003824e+00 -2.307024e+00 -2.127333e+00 -2.315414e-02 -3.372772e+00 -1.505236e+00 -8.778976e-01 -2.721462e+00 1.272556e+00 4.001183e+00 1.604441e+00 -1.854656e+00 1.781585e+00 4.247073e+00 2.403826e+00 -5.678321e-01 -3.269222e-02 
9.048538e-01 3.951510e+00 4.491841e+00 1.524659e+00 2.593521e+00 5.014470e+00 5.278713e+00 -2.645676e+00 -1.968365e+00 -1.179283e+00 1.853163e+00 3.247251e+00 -3.321040e-02 -2.942802e+00 -2.093077e+00 -1.361566e+00 -2.949710e+00 9.304104e-02 1.350138e+00 -6.777660e-01 -1.615606e+00 1.524678e+00 3.894683e+00 2.300287e+00 2.217226e-01 -4.049250e-02 
6.940479e-01 2.149627e+00 4.065639e+00 5.172020e-02 7.230376e-01 2.034622e+00 1.279211e+00 -2.759945e+00 -7.073960e-01 3.352326e+00 2.144978e+00 2.897601e+00 -3.881836e-02 1.040687e+00 -4.124901e+00 -2.716786e+00 -2.131128e+00 3.532297e-01 -1.740539e+00 -3.425247e+00 -2.537810e-01 1.189710e+00 9.008873e-01 7.295121e-01 -1.376915e+00 9.346612e-02 
5.768967e-01 1.763812e+00 3.019340e+00 1.242873e-01 -7.549098e-01 -2.740761e+00 -3.546731e+00 -2.949125e+00 9.583473e-02 1.243296e+00 2.626375e+00 3.043199e+00 -7.950711e-02 2.584092e+00 -4.262998e+00 -3.423193e+00 -1.082707e+00 1.537614e+00 -1.298243e+00 -4.727423e+00 -2.739645e-01 6.106061e-01 -5.632179e-01 2.311031e-01 -3.767216e+00 1.520602e-01 
9.964491e+00 -1.213787e+01 -6.027634e+00 -4.242438e+00 6.475328e+00 -8.072364e-01 -1.086631e+01 -3.729163e+00 -1.086749e+00 -2.710677e+00 9.539309e-01 -8.909883e+00 4.673248e-01 -3.689167e-01 -3.367162e+00 -3.003582e+00 4.336132e-01 3.209190e+00 -1.549572e+00 -4.153797e+00 6.924422e-01 1.098341e+00 1.761398e+00 8.969137e-01 -2.697696e+00 1.746443e-01 
9.190094e+00 -1.021973e+01 -7.577485e+00 -1.741796e+00 7.405447e+00 -5.581355e-02 -1.228564e+01 -3.530890e+00 1.274342e+00 -9.638706e-01 3.604202e+00 -9.685087e+00 4.740191e-01 -3.370686e+00 -2.007787e+00 -1.978430e+00 2.070179e+00 2.091944e+00 -1.176596e+00 -1.681738e+00 1.326900e+00 -5.948257e-01 3.231511e+00 -1.486754e-01 -2.234787e+00 1.705485e-01 
-5.457134e+00 -8.694410e+00 -5.653858e+00 3.152828e+00 1.268881e+01 -7.055710e+00 -1.512032e+01 9.931483e-01 4.195056e+00 1.326290e+01 6.140633e+00 -4.226736e+00 5.576398e-01 -5.584570e+00 2.991644e-01 -1.763115e-01 1.531959e+00 -1.517986e+00 -1.812178e+00 1.001714e+00 2.392766e+00 -1.415057e+00 3.151634e+00 -4.304215e-01 -4.778843e-02 7.562511e-02 
-8.565718e+00 -9.996853e+00 -7.059695e+00 6.777551e+00 6.598071e+00 -5.499505e+00 -9.828416e+00 1.324221e+00 -5.519197e+00 9.414064e+00 -7.103529e-01 -1.047231e+01 7.280780e-01 -4.137061e+00 -3.217683e-01 1.589267e-01 1.114416e-01 -3.147063e+00 -1.664860e+00 2.253745e+00 2.359785e+00 -1.604698e+00 7.587746e-01 -2.299429e+00 -1.171900e+00 6.964161e-02 
-9.080456e+00 -1.075349e+01 -7.168086e+00 -8.423190e-01 -7.109146e-01 -7.146282e+00 -7.086353e+00 5.807109e+00 -4.765267e+00 7.858526e+00 9.591007e-01 -8.755213e+00 7.184209e-01 -1.146005e+00 2.560769e-01 1.535193e-01 -1.493880e+00 -4.546339e+00 -8.895804e-01 2.663165e+00 8.422459e-01 -1.423895e+00 -2.454804e+00 -2.658466e+00 -5.714931e-01 3.621011e-02 
-9.683550e+00 -1.079904e+01 -6.025738e+00 8.129849e-01 -1.630006e+00 -8.334826e+00 -5.033901e+00 5.861055e+00 -2.268987e+00 5.532188e+00 -5.302179e+00 -1.328035e+01 7.418367e-01 -3.730000e-01 1.615369e+00 4.639268e-01 -2.263591e+00 -2.915676e+00 -2.151824e-01 1.678927e+00 -6.623523e-01 2.556695e-01 -6.924587e-01 -3.696664e-01 1.072932e+00 1.143491e-03 
-1.062824e+01 -7.012935e+00 -5.403240e+00 -1.334287e+00 -5.928850e+00 -1.008595e+01 -4.201755e+00 2.935961e+00 -4.549525e+00 2.929816e+00 -4.855785e+00 -5.680184e+00 7.318110e-01 -1.770851e-01 2.054760e+00 1.090376e-01 -1.067819e+00 -1.591052e+00 6.507173e-01 9.537136e-01 -1.592151e+00 -8.788835e-01 -5.927072e-01 -4.802065e-02 8.447706e-01 2.580523e-04 
-9.656824e+00 -3.790283e+00 -5.622484e+00 -4.294420e+00 -5.371340e+00 -5.105582e+00 -2.876079e+00 -5.519660e-01 -4.348720e+00 8.416125e+00 3.487582e-01 -6.645166e+00 7.271004e-01 -4.923096e-02 1.721471e+00 -2.537162e-01 -1.170599e+00 6.644269e-01 1.165260e+00 4.551930e-01 -1.005025e+00 -8.118740e-01 3.067368e-01 1.223373e+00 1.012535e+00 -6.233966e-03 
-9.979244e+00 -3.984062e+00 -6.824525e+00 -3.627712e+00 -6.795508e+00 -5.507318e+00 -3.396697e+00 1.052863e+00 -8.119818e+00 3.453022e+00 -2.106471e+00 -7.848950e+00 7.270793e-01 9.482384e-03 8.515471e-01 -3.096095e-01 -7.893025e-01 2.253008e+00 1.006900e+00 -1.056607e-01 -3.010743e-01 -1.162699e+00 1.913389e-01 1.000019e-01 6.051115e-01 -7.445908e-03 
-1.025420e+01 -3.706119e+00 -6.583676e+00 -3.893298e+00 2.125458e+00 -4.797845e+00 -3.160465e+00 1.777480e+00 -4.543211e+00 6.804270e+00 -5.599737e-01 -7.133291e+00 7.130327e-01 6.800501e-01 8.499867e-01 3.093400e-01 7.601522e-01 2.769493e+00 7.857572e-01 7.422170e-01 -7.763848e-01 -1.131461e+00 -3.054328e-01 5.040537e-02 1.047832e+00 -1.526561e-02 
-1.028214e+01 -2.797281e+00 -6.470692e+00 -5.481360e+00 1.587791e+00 -5.205318e+00 -4.587865e+00 2.658668e-01 -1.026577e+01 4.692439e+00 -3.901410e+00 -2.410564e+00 7.016153e-01 1.235459e+00 1.240250e+00 7.558492e-01 1.551561e+00 1.292304e+00 5.973968e-01 2.405176e+00 -1.171331e+00 -5.173929e-01 2.918380e-01 -3.620175e-01 1.946195e-01 -1.992312e-02 
-6.105125e+00 -1.337404e-01 -4.252701e+00 4.331654e-01 4.284474e+00 -1.327796e+00 1.430590e+00 -4.040392e+00 -8.933045e+00 6.269253e+00 1.498255e+00 -4.125199e+00 6.635043e-01 2.637791e+00 1.518422e+00 1.178811e+00 1.229020e+00 -1.630280e+00 7.932520e-02 4.399086e+00 4.084271e-01 -1.593672e+00 -7.276139e-01 -2.645933e-01 -9.098201e-01 -3.053055e-02 
-5.876488e+00 4.309977e-01 -4.210766e+00 1.966862e+00 -1.413498e+00 -4.255358e+00 6.333658e+00 -1.894855e+00 -8.511866e+00 5.179720e+00 -4.945673e+00 -8.379899e+00 6.522279e-01 2.895407e+00 3.595468e-01 4.493479e-01 1.175137e+00 -8.119805e-01 8.230133e-01 4.998641e+00 2.133310e+00 -7.809088e-01 -1.905766e+00 6.129900e-01 -2.774110e-01 -6.369080e-02 
7.319241e-01 2.271852e+00 -1.819585e+00 -1.472307e+00 -4.525295e+00 -4.876199e+00 1.337421e+01 4.899977e+00 -1.338852e+01 2.922559e+00 -1.360809e+00 -8.697724e+00 5.850737e-01 1.941195e+00 -1.734715e+00 -1.356625e+00 -5.854796e-01 7.264496e-01 1.740067e+00 2.658740e+00 3.387284e+00 1.566241e+00 -1.539178e+00 -1.062105e+00 -2.323536e-01 -9.846870e-02 
7.763710e-01 -2.202344e+00 -5.440510e+00 1.347062e+00 1.932774e+00 6.839492e-01 1.443353e+01 6.462234e+00 -1.194258e+01 -3.163042e+00 5.930719e-01 -1.511357e+00 4.223766e-01 1.973966e+00 -2.564198e+00 -1.755685e+00 -4.392429e-01 2.229378e+00 2.038079e+00 2.537726e-01 2.134912e+00 1.906667e+00 -1.667226e+00 -3.232501e-01 8.036215e-01 -1.286348e-01 
2.744179e-01 -7.490647e+00 -1.042095e+01 -2.184333e+00 6.243587e+00 4.902887e+00 1.067435e+01 8.717483e+00 6.135142e-01 2.744745e+00 -6.581643e+00 -8.721238e+00 2.860864e-01 1.353366e+00 -2.593547e+00 -1.722353e+00 6.570776e-02 2.070158e+00 9.810875e-01 -1.977088e+00 -6.429496e-01 1.769953e+00 -2.273108e-01 -2.725783e-01 -4.450381e-01 -1.251895e-01 
4.222095e+00 -7.508742e+00 -8.688510e+00 1.266600e-01 4.348954e+00 1.045492e+00 8.952448e+00 6.870949e+00 -5.979552e+00 -3.067503e+00 -3.951506e+00 -4.350034e+00 1.585474e-01 1.729810e+00 -1.770883e-01 -3.380040e-01 -7.244385e-01 -1.140886e+00 -5.250376e-01 -1.815839e+00 -1.585328e+00 9.196755e-01 -1.179798e-02 -1.640784e-01 -7.347761e-01 -1.030148e-01 
5.775893e+00 -8.042683e+00 -8.807352e+00 -5.335670e-01 4.617408e+00 -1.515334e-01 6.229305e+00 1.480871e+00 -7.520271e+00 1.738236e+00 -4.514117e-01 -9.503576e+00 9.104097e-02 1.842680e+00 2.391122e+00 1.298954e+00 -3.318028e-01 -1.611141e+00 -3.255937e-01 -1.022677e+00 -1.949852e+00 -4.796459e-01 -1.292620e+00 1.022965e+00 1.646400e+00 -7.603888e-02 
6.674685e+00 -2.811767e+00 -7.937330e+00 -3.100513e+00 -2.958569e+00 5.859711e-01 7.576858e+00 2.153901e+00 -3.277309e+00 -2.718777e+00 -3.292436e+00 -4.794068e+00 4.825175e-03 8.653637e-01 2.754757e+00 1.625183e+00 -1.180956e+00 -8.979417e-01 7.752398e-01 -1.321262e+00 -1.386744e+00 1.411578e+00 -2.302388e-01 1.018752e-01 6.401549e-01 -4.897392e-02 
8.261521e+00 2.116475e+00 -4.301775e+00 -2.229760e+00 1.841644e+00 3.504680e+00 6.248762e+00 1.326745e+00 -3.135837e+00 -3.892720e+00 -1.796352e+00 -2.672222e-01 -1.724684e-02 2.652321e-02 2.251822e+00 1.821227e+00 -2.387333e-01 1.050174e-01 1.954422e+00 -1.006645e+00 -5.095377e-01 1.053855e+00 -5.573756e-01 -1.133092e+00 7.788631e-01 -2.766122e-02 
7.306099e+00 1.185466e+00 -2.815384e+00 -4.930026e+00 1.247127e+00 3.093585e+00 2.336409e+00 1.429176e-02 -1.113879e+00 -1.403220e+00 -2.769660e+00 -5.767437e+00 -3.217828e-02 -5.794104e-01 1.059341e+00 1.347051e+00 4.780103e-01 6.586772e-01 8.166329e-01 -1.201127e+00 -1.790396e-01 3.549776e-01 1.093181e+00 -8.915687e-01 -5.327279e-01 -5.392062e-03 
5.592802e+00 1.217813e+00 -2.262188e+00 -8.124774e-01 3.039647e+00 8.366771e+00 3.816306e+00 2.987385e-03 -3.332710e+00 -1.706421e+00 -6.378262e+00 -5.122576e+00 -2.876341e-02 -1.136974e+00 4.030580e-01 7.287109e-01 6.564546e-01 4.818038e-01 7.925701e-01 -4.192802e-01 4.240975e-01 6.671525e-01 1.211875e+00 -7.477132e-01 -4.580717e-01 -4.583597e-04 
5.111992e+00 2.934269e+00 -2.221869e+00 -1.419104e+00 -2.641845e-01 2.238090e+00 2.787451e+00 1.920582e+00 -1.403984e+00 1.653980e+00 -5.459324e+00 -5.030031e+00 -1.637685e-02 -1.000461e+00 2.995156e-01 5.359164e-01 3.480720e-01 1.968510e-01 1.007819e+00 -4.304908e-02 7.324426e-02 6.031874e-01 1.122829e+00 3.519631e-01 4.274706e-01 -6.147623e-05 
3.673707e+00 3.257362e+00 -9.549775e-01 -7.029485e-01 5.006319e+00 7.895277e+00 3.926840e+00 2.494088e+00 3.449783e-01 6.380544e-01 -4.190086e+00 -2.926284e+00 -2.743936e-02 -7.687414e-01 1.564378e-01 1.061141e+00 -1.581805e-01 -5.519505e-01 -9.023257e-02 6.845329e-02 -1.013606e-01 1.244071e+00 1.378483e-01 1.805060e+00 1.774385e+00 -5.748272e-03 
3.263344e+00 1.663269e+00 -7.894073e-01 -3.244430e+00 1.248046e+00 8.368426e+00 2.065897e+00 -8.650372e-01 6.321406e-02 3.038689e+00 -2.103932e+00 -4.728230e+00 -3.314769e-02 -8.408535e-01 -1.062628e-01 6.685053e-01 6.343824e-01 6.878321e-01 3.887603e-01 3.681408e-01 -1.704731e-02 8.262271e-01 -8.012482e-01 1.733177e+00 2.242186e+00 -4.480279e-03 
2.673419e+00 2.635502e+00 2.327284e+00 -6.907164e-01 -4.762204e-01 4.850441e+00 4.519349e+00 8.889940e-01 2.154047e+00 -1.709533e+00 9.693413e-01 3.598447e+00 -4.911935e-02 -6.774880e-01 2.279826e-01 6.744071e-01 1.263079e+00 -1.431881e+00 -1.261644e+00 -7.111896e-01 -6.318873e-01 1.486362e-01 3.200139e-01 1.017416e+00 8.788055e-01 1.066322e-02 
1.407868e+00 2.713886e+00 -5.204735e-01 1.746692e+00 5.916245e+00 5.704310e+00 4.331900e+00 2.637892e+00 1.822617e+00 -1.178467e+00 6.268449e-01 2.918536e+00 -2.793825e-02 -3.909678e-01 5.853877e-01 -1.609716e-01 1.602848e+00 -1.225687e+00 -1.212319e+00 -8.273567e-01 5.804014e-03 -3.914415e-01 8.132035e-01 -2.682735e-01 3.325008e-01 2.514362e-02 
1.214005e+00 3.871967e+00 2.282591e+00 3.116884e+00 -4.487186e+00 2.919115e+00 -7.621095e-01 -2.416813e+00 2.084582e-01 4.346702e+00 -4.683933e-01 -2.355639e+00 2.327204e-02 -2.489230e-01 3.371486e-01 2.835247e-01 8.049530e-01 -4.766617e-02 -1.161481e-01 -3.233294e-01 1.597565e-01 -4.643938e-01 1.133753e+00 -9.062699e-01 -1.221971e+00 1.466187e-02 
2.038212e+00 3.971975e+00 -1.571919e+00 2.866008e+00 -2.874903e+00 3.272491e+00 5.698422e-01 8.168864e-01 -9.211990e-01 4.076590e+00 -2.726433e+00 -8.868337e-02 5.637473e-02 1.887684e-02 3.680436e-01 1.051283e+00 7.795063e-01 -1.651278e-01 6.087003e-01 1.321778e+00 1.505442e+00 4.592961e-01 3.276537e-01 -1.042983e+00 -3.931772e-01 5.030167e-03 
1.113632e+00 3.692201e+00 4.270630e+00 2.774391e+00 3.681023e+00 5.485610e+00 4.783731e+00 2.598279e+00 1.203986e+00 1.331702e+00 -1.885370e+00 -1.007800e+00 -1.796651e-02 -1.052809e-01 -4.018977e-02 1.146016e+00 -2.420519e-01 1.264394e+00 2.235676e-01 1.948921e+00 1.299780e+00 2.472218e-01 -6.418798e-01 -5.499207e-01 8.170174e-01 -1.926576e-02 
1.552439e+00 4.643987e+00 3.741922e+00 5.815471e+00 1.006502e+00 7.464564e+00 8.167871e+00 7.657557e+00 3.621333e+00 1.967302e+00 -3.879582e+00 2.787305e-01 1.783186e-02 -4.973986e-01 -3.761714e-02 1.306585e+00 -4.261237e-01 8.782911e-01 2.859322e-01 3.498073e-01 -3.555607e-01 -9.970801e-02 8.374557e-01 1.168851e+00 1.649594e+00 -2.287053e-02 
9.304867e-01 3.335012e+00 5.355753e+00 4.318928e-01 -1.059175e-01 1.940917e+00 5.183483e+00 6.617508e-01 -8.266987e-01 2.191947e+00 -2.641422e+00 1.545742e+00 -5.378532e-02 -1.147558e-01 1.971108e-01 2.082480e-02 -1.597083e-02 4.728103e-01 4.771810e-01 -1.620169e+00 -7.825900e-01 -3.998891e-01 1.159432e+00 1.983734e+00 2.149666e+00 -5.393857e-03 
-3.572083e-01 3.962484e+00 4.418443e+00 1.906638e+00 3.410023e+00 6.474499e+00 2.119003e+00 7.347345e-03 -4.043968e-01 7.833746e+00 3.495846e+00 6.882514e+00 -4.006851e-02 7.989731e-02 5.659652e-03 -9.438764e-01 -7.456537e-01 -3.324866e-02 3.021397e-01 -1.718986e+00 -2.720990e-01 -3.483974e-01 4.279324e-01 1.292367e+00 2.740572e-01 1.468360e-03 
1.494677e+00 5.018506e+00 4.036494e+00 4.648953e+00 4.843314e+00 8.366548e+00 -2.926812e-01 2.510434e+00 1.217406e+00 4.195642e+00 4.345586e+00 6.438637e+00 -1.598561e-02 6.458136e-01 1.632265e-01 -1.482922e+00 3.728744e-01 -6.913616e-01 5.913471e-01 -2.137677e-01 1.409068e+00 5.446360e-01 -3.492813e-01 -3.546499e-01 -2.005620e+00 1.316149e-02 
1.669830e+00 3.830538e+00 -3.178306e-01 -2.132797e-02 -1.634357e+00 5.762448e+00 2.311024e+00 5.372720e+00 8.572936e-01 3.105116e+00 -9.112496e-01 -7.974315e-01 6.273806e-03 4.481454e-01 -3.867964e-01 -4.309980e-01 -2.827735e-02 -1.012476e+00 -7.630381e-01 3.787255e-01 -1.127513e-01 1.393652e-02 -1.221016e+00 -6.634157e-01 -2.017149e+00 -3.447270e-03 
3.146035e+00 4.217117e+00 3.092813e-01 3.260248e+00 -1.040535e+00 5.253677e+00 4.018634e+00 5.024406e+00 1.265636e+00 2.809855e+00 -2.211123e+00 -4.642388e+00 -1.114905e-02 -1.823543e-01 -5.467704e-01 4.220949e-01 -5.274008e-01 -5.812975e-01 -1.469174e+00 -1.160930e-01 -8.905488e-01 -3.805259e-01 -9.024956e-01 -1.460584e+00 -6.603251e-01 -1.611913e-02 
1.057839e+00 2.429196e+00 4.127059e+00 2.459604e+00 1.289568e+00 4.215743e+00 1.856973e+00 -1.813396e+00 -3.588293e-01 2.421558e+00 3.457122e+00 2.337282e+00 -5.972314e-02 -4.164449e-01 -2.481993e-01 1.031196e+00 4.341205e-01 1.410134e+00 -5.307539e-01 -5.486487e-01 -1.350141e+00 -2.594426e-01 -1.272767e+00 -4.659435e-01 1.561568e+00 -1.802212e-02 
8.889008e-01 2.985325e+00 3.924523e+00 7.714828e-01 4.748641e-01 1.794030e+00 -6.461210e-01 1.650748e+00 -7.716250e-02 2.494264e-02 -5.141522e+00 1.569655e+00 -6.358278e-02 -6.842824e-01 -2.369823e-01 4.038360e-01 -2.479489e-01 7.518010e-01 -4.832916e-01 -7.843041e-01 -1.524922e+00 2.012115e-01 -1.099563e+00 -2.056980e-03 1.839839e+00 -6.268704e-03 
7.161732e-01 3.205438e+00 3.030527e+00 3.393657e+00 4.658615e+00 4.838502e+00 1.900158e+00 3.088446e-01 2.314796e-01 -1.866265e+00 -1.775768e+00 3.904387e+00 -5.761993e-02 -1.227207e-01 -5.598400e-02 -9.869496e-01 -4.887948e-01 5.791180e-01 4.120131e-01 1.643229e-02 -5.905448e-01 3.100572e-01 -5.454669e-02 2.612138e-01 1.264435e-01 5.325437e-03 
-1.045437e-01 2.644085e+00 2.876727e+00 1.553477e+00 1.033946e+00 2.525840e+00 7.552123e-02 -3.661325e+00 1.976539e+00 -5.440495e-01 3.950367e-01 3.773254e+00 -4.354417e-02 -1.058746e-01 2.047941e-01 -2.170368e-01 -6.887952e-01 1.032608e-02 1.169543e+00 6.393677e-01 -8.700578e-01 4.220495e-01 8.280512e-01 3.486302e-01 -5.798452e-01 7.731843e-03 
9.409580e-01 2.319896e+00 -2.837908e-01 -3.753672e-01 3.905617e+00 5.909904e+00 1.578313e+00 -2.110083e+00 1.646059e-01 2.433321e+00 1.994912e+00 1.867700e+00 -4.311526e-02 -2.230192e-01 2.564193e-01 1.447840e-01 -1.285278e+00 -8.248973e-01 -2.142808e-01 -1.069589e+00 -7.518287e-02 3.143131e-01 1.449802e+00 -3.038103e-01 -1.264945e+00 6.820345e-03 
2.471352e-01 4.452067e+00 4.496498e+00 -7.879812e-01 9.029933e-01 7.106045e+00 2.711640e+00 -1.490077e+00 2.066522e+00 2.015405e+00 -5.283711e+00 -3.112272e-01 -3.217590e-02 -2.456158e-01 3.142564e-01 3.364021e-01 -8.317595e-01 -4.174696e-01 -6.530596e-01 -1.602690e+00 5.974653e-01 1.156477e-01 1.096383e+00 -4.151321e-01 -1.054850e+00 4.259658e-03 
-5.747623e-01 3.583544e+00 2.944561e+00 -1.862002e+00 5.996046e-01 1.476996e+00 -4.765847e+00 -1.152694e+00 1.758054e+00 4.103018e+00 -4.554453e-01 -3.780977e-01 -2.920234e-02 -3.853338e-01 1.658772e-01 4.904768e-01 -4.047292e-01 -6.915413e-01 -1.449486e+00 -2.016581e+00 2.252162e-01 2.878428e-01 5.427007e-01 -7.244921e-03 -4.558466e-01 3.079939e-03 
