-9.499483e-01 4.018813e+00 2.085349e+00 1.413479e+00 7.241066e+00 6.037126e+00 6.634986e+00 6.006886e+00 3.100621e+00 4.333649e+00 1.167956e+00 1.562005e+00 7.650346e-02 -9.070282e-02 -2.945324e-01 -8.593209e-01 1.359709e-01 -7.939854e-01 -9.951412e-01 -6.046650e-01 -1.997909e+00 -8.231980e-01 8.850487e-01 -5.235606e-01 2.200601e-01 3.275579e-03 
-2.040036e+00 -8.187280e-01 -3.113662e+00 -1.548026e+00 4.094583e+00 2.664462e+00 2.519925e+00 -2.524359e+00 3.845888e-01 4.597052e+00 -1.244817e+00 2.438892e+00 6.483936e-02 4.071464e-02 5.764581e-01 -1.425402e-01 8.512090e-01 1.991106e-01 4.237384e-01 2.535640e-01 -3.965428e-01 1.222603e-01 1.783697e+00 7.391619e-03 -7.275936e-01 6.884903e-03 
-8.584185e-01 4.964922e+00 3.882494e-01 3.574087e+00 4.844379e+00 2.747751e+00 5.669191e+00 2.829630e-01 3.426471e-01 8.627192e+00 -2.434602e-01 2.223862e+00 9.871340e-02 3.517265e-02 6.688498e-01 3.818405e-01 5.085099e-01 8.643103e-01 1.401550e+00 1.612576e+00 9.769076e-01 3.887674e-01 7.355751e-01 9.383216e-02 -9.331619e-01 3.765488e-03 
-7.921400e-01 6.428049e+00 2.221197e+00 4.589221e+00 9.434961e+00 9.800505e+00 8.385703e+00 6.886134e+00 5.090910e+00 1.110537e+01 1.910622e+00 -2.406892e+00 9.982300e-02 -1.167026e-01 4.444831e-01 8.923355e-01 3.312953e-01 7.836183e-01 1.210260e+00 1.618342e+00 1.403652e+00 4.845316e-01 -3.697232e-01 -1.602292e-01 -3.615635e-01 1.453286e-03 
-1.398033e+00 3.739674e+00 1.327122e+00 8.874054e-01 8.892427e+00 9.476854e+00 1.176498e+01 6.186178e+00 2.691298e+00 4.757368e+00 5.939698e-02 -6.809132e-01 7.783908e-02 -2.784781e-01 -6.011950e-01 6.677437e-02 -6.184564e-02 6.592466e-01 4.730988e-02 5.449224e-01 -1.936064e-02 6.838274e-01 -2.001694e+00 -6.029496e-01 5.588797e-01 -4.001552e-03 
-2.353742e+00 2.016312e+00 8.785795e-01 1.451791e+00 5.988650e+00 5.351208e+00 7.563744e+00 1.542295e+00 1.632921e+00 4.683348e+00 -2.197392e+00 2.083462e+00 8.254296e-02 -3.623734e-01 -2.934318e-01 -6.568334e-01 -6.622380e-01 -6.833180e-01 -2.202582e+00 -6.136009e-01 -8.965185e-01 3.014916e-01 -1.599745e+00 -9.060314e-01 1.377504e+00 1.918221e-03 
-1.470008e+00 4.164816e+00 1.393430e+00 4.833573e+00 9.863768e+00 5.208949e+00 8.804783e+00 2.858080e+00 5.490778e+00 1.829729e+00 -1.204201e+00 2.773084e+00 8.734566e-02 -3.698524e-01 3.237264e-02 -3.082433e-01 -6.357809e-01 -2.282779e-01 -1.813494e+00 -1.357558e+00 -6.914896e-01 2.703854e-01 1.923604e-01 1.939172e-01 6.562728e-01 1.060963e-03 
-2.568020e+00 4.748319e+00 -1.096124e+00 -6.950533e-01 5.532701e+00 9.215496e-01 6.797795e+00 4.067592e+00 5.198628e+00 4.570461e+00 -1.987736e+00 2.753630e+00 1.046608e-01 1.363916e-02 1.465727e-01 -2.624574e-01 -4.220166e-01 3.336059e-01 6.328587e-02 -6.968082e-01 -4.331188e-01 -1.243391e-01 1.110359e+00 1.125944e+00 5.787573e-01 3.706551e-03 
-3.140156e+00 2.535533e+00 7.732571e-01 -1.218077e+00 7.979012e+00 2.624214e+00 5.360158e+00 1.466082e+00 2.260371e+00 5.775613e+00 9.241550e-01 2.265367e+00 7.208496e-02 -1.734962e-01 -6.176018e-01 -3.216445e-01 -5.721143e-01 -8.887619e-01 -3.278863e-01 -1.088824e+00 -1.677384e-01 1.065150e-01 1.536192e+00 8.515496e-01 1.368366e-01 -1.118970e-03 
-1.450472e+00 3.563817e+00 -1.236209e-01 2.367533e+00 8.599057e+00 6.960005e+00 5.802015e+00 7.269979e-02 2.626429e+00 8.262202e+00 2.368148e+00 5.231107e+00 1.087061e-01 -1.061558e-01 -7.589747e-01 -2.572155e-01 5.601060e-01 -3.302671e-01 -9.837133e-01 -1.298362e+00 -8.489763e-01 -7.896738e-02 2.573663e-01 8.069208e-01 -3.830320e-01 -6.545258e-03 
-2.896263e+00 1.669058e+00 -7.010440e-01 4.417088e-01 3.886780e+00 5.502902e-01 3.858551e+00 4.016833e+00 7.309453e+00 7.664820e+00 8.756053e-01 2.218528e+00 7.972819e-02 -2.059103e-01 -6.805738e-01 -7.311851e-01 -3.279350e-01 -8.960242e-01 -1.353641e+00 -9.498167e-01 -2.143341e-01 -2.269344e-01 -1.301545e+00 -6.664294e-01 -1.313850e+00 -4.573727e-03 
-3.220745e+00 1.386684e+00 -1.645051e+00 1.275584e+00 5.927482e+00 -2.960055e+00 1.056791e+00 -1.452666e+00 2.279250e+00 4.912689e+00 2.071143e+00 8.618897e-01 6.811291e-02 -5.738474e-01 -3.286988e-01 -1.722479e-01 -2.621399e-01 -4.762498e-01 -1.554494e+00 -8.849174e-01 -3.787752e-01 -8.439026e-01 -1.079199e+00 -8.672442e-01 -1.970002e+00 -4.454255e-03 
-3.284571e+00 2.212307e-01 -2.121954e+00 -2.311777e+00 4.834679e+00 8.160401e-01 2.983687e+00 1.157094e+00 1.299289e+00 9.426432e-01 -2.259489e+00 -2.119273e+00 6.951290e-02 -2.701750e-01 1.241208e-01 2.355553e-01 4.060741e-01 6.313199e-01 2.135468e-01 4.209033e-02 -1.015112e+00 -1.400188e+00 3.206751e-01 -3.087626e-01 -1.351881e+00 2.585816e-03 
-4.125555e+00 2.644237e+00 -2.744054e-01 2.433577e+00 5.743859e+00 -9.453385e-01 1.814860e+00 -3.913063e-01 1.411998e+00 6.227295e+00 -4.005258e-01 -2.450002e+00 9.154242e-02 3.657684e-02 5.850981e-01 2.646016e-01 -1.395136e-01 6.879783e-01 8.876162e-01 7.522581e-01 -4.126674e-01 8.847816e-02 1.595138e+00 -3.845650e-01 -3.886012e-01 1.671487e-03 
-3.794733e+00 1.660886e+00 -2.085903e-01 1.893083e+00 7.135191e+00 6.106662e-01 3.689968e+00 -1.589404e+00 7.421368e-01 8.610893e+00 5.676270e-01 -2.884929e+00 8.094251e-02 7.794323e-02 2.454814e-01 -3.307176e-01 -5.844832e-01 2.893282e-01 7.496560e-01 3.611312e-01 -1.433100e+00 6.832059e-02 1.204645e+00 1.176960e+00 1.604774e+00 -1.819670e-03 
-2.782780e+00 3.592347e+00 -1.278725e+00 -1.524414e+00 8.217117e+00 1.580713e+00 4.464940e+00 -2.142754e+00 3.000217e+00 9.054253e+00 -1.265240e+00 -6.982880e-01 7.075554e-02 2.557966e-01 -4.125858e-01 -6.778188e-01 -1.627063e+00 -2.480196e-01 5.222973e-01 1.977735e-01 -1.040590e+00 -3.926045e-01 -4.678621e-01 1.067041e+00 2.169778e+00 -5.282921e-03 
-3.566242e+00 9.745824e-01 -3.273382e+00 -3.255198e+00 5.044691e+00 3.301294e+00 3.464303e+00 -5.132682e+00 8.467823e-01 5.552392e+00 4.057668e+00 5.028743e+00 7.080799e-02 4.610119e-02 1.024845e-01 -4.080749e-01 -1.012312e+00 -5.346998e-01 -5.893101e-01 -1.033453e+00 2.887377e-01 -7.487860e-02 -1.463702e+00 -1.686110e-01 1.104300e+00 -1.661497e-03 
-2.960817e+00 9.244591e-01 -2.131104e+00 -3.127596e+00 5.549011e+00 3.208339e-01 2.916560e+00 -3.822619e+00 -6.033473e-01 5.417235e+00 3.189659e+00 4.442050e+00 7.019508e-02 -3.128689e-01 5.673895e-02 -1.135937e-01 -1.015313e+00 -1.306716e+00 -9.580158e-01 -1.375744e+00 1.367792e+00 4.009500e-01 -1.251056e+00 -1.261203e+00 -2.531851e-01 1.021588e-03 
-3.475208e+00 3.507252e+00 -1.822775e+00 -2.366886e+00 5.795745e+00 -1.705945e+00 -7.031069e-01 6.942170e-01 2.169526e+00 3.110890e+00 -2.502878e+00 6.640172e-02 7.291526e-02 4.422564e-01 -6.398929e-01 -6.609846e-01 -4.020058e-01 -1.047673e+00 -4.308001e-01 9.726181e-01 2.410323e+00 5.214925e-02 -7.822200e-01 -1.444021e+00 -1.162535e+00 6.471532e-03 
-4.392641e+00 2.609707e+00 -2.571996e+00 -7.045137e+00 1.308008e+00 -7.057467e-01 -3.300757e-01 1.782758e+00 4.343596e+00 4.019724e+00 -4.290984e+00 5.169572e-01 7.480985e-02 1.204707e+00 -2.750603e+00 -2.297999e+00 -1.152819e+00 -3.244016e+00 -1.462869e+00 2.074523e+00 7.394711e-01 -1.969909e+00 -8.667077e-01 -5.455512e-01 -7.863726e-01 7.651380e-02 
-6.390486e-01 -3.067506e+00 -6.357859e+00 -3.306456e+00 1.926827e+00 1.660584e+00 9.950710e+00 4.116242e+00 -1.365943e+00 2.340048e+00 5.778844e-01 1.178614e+00 1.008583e-01 -4.552366e-01 -1.183739e+00 -3.462861e+00 -1.219823e+00 -3.254678e+00 -1.932001e+00 2.007259e+00 -6.584422e-01 -2.427668e+00 -2.275195e-01 1.045891e+00 7.980665e-01 1.525775e-01 
1.644638e+00 -9.541177e+00 -1.135356e+01 -8.421907e+00 -8.736609e+00 -8.676779e+00 7.962269e+00 -1.836276e+00 -8.685159e+00 1.469118e+00 -1.078478e+00 -4.591906e-02 4.387926e-01 -3.348873e+00 1.740567e+00 -1.847641e+00 8.247113e-01 4.408614e-01 -7.892598e-01 -2.489086e-01 -1.338734e+00 -7.833362e-01 9.393339e-01 1.433976e+00 2.063109e-01 1.860806e-01 
-8.770031e+00 3.664001e+00 -1.474630e+01 -7.777617e+00 -5.455338e+00 -7.380435e+00 5.187016e+00 -7.884768e-01 -3.454439e+00 3.248596e+00 1.120323e+00 4.338172e+00 6.538115e-01 -2.375909e+00 2.451980e+00 7.562495e-01 1.252258e+00 2.728046e+00 1.066515e+00 -2.100145e+00 -1.661969e+00 8.941280e-01 1.661003e+00 1.018958e+00 2.933098e-01 2.801021e-02 
-1.707151e+01 7.946790e+00 -7.615982e+00 -6.860000e-01 7.203397e+00 -1.315361e-01 8.072286e-01 -2.458551e+00 1.471163e+00 8.262119e+00 2.607675e+00 -3.126717e-02 7.287361e-01 -5.207516e-01 1.770918e+00 2.846261e+00 2.600625e+00 4.158348e+00 3.107673e+00 -6.082388e-01 3.358489e-01 2.245058e+00 1.605923e+00 1.410367e+00 1.836101e-01 -1.260458e-01 
-3.160519e+00 4.484091e-01 -4.445399e+00 -9.131219e-01 7.597056e+00 2.720536e+00 3.027506e+00 -3.882467e+00 -1.973464e+00 7.248561e+00 3.829596e+00 2.637837e+00 9.593755e-02 2.025074e+00 -7.981197e-01 2.719659e+00 9.998080e-01 1.291116e+00 1.607714e+00 -4.824468e-01 -8.694067e-02 1.214844e+00 -7.916635e-01 3.928917e-01 1.167043e-01 -1.655073e-01 
-3.763876e+00 9.212060e-01 -2.272708e+00 1.148970e+00 5.528933e+00 1.811101e+00 6.000830e+00 1.389963e+00 1.799644e+00 7.498751e+00 4.618723e+00 1.722299e+00 8.750039e-02 2.319488e+00 -3.750855e-01 4.670672e-01 -4.773675e-01 -1.807597e+00 -6.539415e-01 2.610543e-01 -4.049314e-01 -8.676605e-01 -2.586570e+00 1.671574e-01 1.326219e+00 -1.103158e-01 
-5.298483e+00 3.186194e+00 -3.819641e+00 -3.696061e+00 1.837475e+00 -3.131843e-01 1.779819e-01 -3.147437e+00 2.455539e+00 -3.280371e-01 2.079258e+00 4.044910e+00 1.468925e-01 -7.941166e-01 -6.531430e-01 1.817588e+00 2.791095e-03 -1.408183e+00 2.174634e-01 5.784285e-01 -2.499585e-01 2.977264e-01 -8.804693e-01 -1.515992e+00 5.686041e-01 3.527921e-02 
-4.405092e+00 4.702470e+00 -5.593525e+00 -1.681368e+00 1.045201e+00 -1.884383e+00 3.537262e+00 -4.850723e+00 -5.081642e+00 -8.824306e-01 4.318631e+00 5.896293e+00 1.516794e-01 -5.659933e-01 -1.803994e+00 2.118124e+00 -1.236051e-01 -2.717975e-01 1.372354e+00 1.531600e+00 -1.263803e+00 5.480528e-02 -2.512425e-01 -2.363837e+00 1.970746e-01 3.063096e-02 
-6.810493e+00 -4.707938e+00 6.302952e+00 5.160022e-01 2.798008e+00 5.655596e+00 7.151433e+00 -2.011917e+00 2.955811e+00 7.036805e+00 -3.600317e+00 3.393860e+00 2.402441e-01 -9.473818e-01 -1.149550e+00 1.180640e+00 -4.226066e-01 9.857167e-01 3.510833e-01 8.401295e-01 5.746744e-02 5.818614e-01 -3.328250e-01 -2.446379e+00 -1.960130e+00 2.949228e-02 
-5.837837e+00 -4.151699e+00 3.256613e+00 -1.575087e+00 3.689678e+00 5.688480e+00 1.017210e+01 -5.496811e+00 1.823534e+00 2.560117e+00 -4.360673e+00 3.033196e+00 1.939794e-01 -1.115680e+00 2.105001e-01 -2.890406e-02 -4.826851e-01 1.976600e+00 -2.901158e-01 -1.227870e+00 8.655496e-01 1.338098e+00 -6.839398e-01 -5.192662e-01 -2.786559e+00 2.461154e-02 
-9.319019e+00 1.865528e+00 -2.341512e+00 -5.862234e+00 5.443820e+00 -2.344199e+00 1.061210e+00 -2.537056e+00 1.912258e+00 -3.713436e+00 -5.812984e+00 -4.324194e+00 2.732039e-01 1.619192e-01 8.104011e-01 -1.468304e+00 7.279561e-01 4.966784e-01 -2.563039e+00 -2.255189e+00 1.360514e+00 7.968251e-02 -9.044959e-01 1.477259e+00 -1.755054e+00 -1.727240e-02 
-8.729231e+00 2.468237e+00 -1.415813e+00 -9.056747e-01 9.605295e+00 6.649356e-01 4.430261e-01 -2.604048e-01 2.130624e+00 1.072991e+00 2.828633e+00 -4.177471e+00 2.582572e-01 6.107168e-01 -6.170656e-01 -5.889037e-01 1.641576e+00 -3.268589e-01 -2.048640e+00 -1.479116e+00 2.106315e+00 -2.534452e-02 1.575848e+00 1.614627e+00 -4.542240e-01 -3.034676e-02 
-4.555201e+00 -3.965900e+00 1.297645e+00 3.821076e+00 2.323592e+00 -4.647829e+00 7.400265e-01 2.172452e+00 3.200679e+00 3.257889e+00 1.913266e-01 -1.776078e+00 1.217432e-01 1.392143e+00 -8.618906e-01 -2.951369e-02 6.423835e-01 -1.566756e+00 -1.493731e-01 9.749597e-01 9.268286e-01 -3.374090e-01 2.588462e+00 1.165660e+00 1.142929e+00 -5.043198e-02 
-5.166162e+00 -4.321313e+00 -1.507484e+00 1.791138e+00 3.615498e+00 -3.402903e+00 2.937116e+00 2.680011e+00 1.052601e+00 6.953694e+00 7.103088e-01 -5.119812e-01 1.179760e-01 8.810987e-01 -3.924622e-02 -5.478815e-01 -4.666575e-01 -6.570524e-01 4.974501e-01 6.607527e-01 -8.614477e-01 -9.282866e-01 6.455008e-01 -4.726146e-01 9.126756e-01 -3.515332e-02 
-4.139839e+00 9.508499e-01 -2.443245e+00 -3.998723e+00 6.049399e-01 -1.057145e+00 4.688963e+00 6.268785e-01 7.642244e-01 6.288525e+00 1.074480e+00 -4.422946e-01 9.118462e-02 1.672140e-01 1.186436e+00 -6.899251e-01 -7.055475e-01 1.680995e+00 1.047278e+00 6.830416e-01 -9.088802e-01 -8.587214e-01 6.047641e-01 4.635676e-01 4.404985e-01 -9.349430e-03 
-4.531418e+00 -1.863688e-01 -2.284776e+00 6.709375e-01 7.179359e+00 1.356844e+00 1.772321e+00 -3.794857e+00 -1.292582e+00 2.785177e+00 2.398324e-02 -2.809854e-01 9.776992e-02 1.361610e-01 7.460397e-01 2.451792e-01 -9.865360e-02 8.771361e-01 8.066286e-01 2.151601e-01 -1.194628e-01 2.235131e-01 3.558156e-01 4.281351e-01 2.292629e-01 -4.016221e-03 
-4.036503e+00 -1.011927e-01 -1.763334e+00 8.534391e-01 8.946635e+00 -1.791311e+00 4.737631e+00 8.654842e-01 7.966375e-02 8.365968e+00 2.852327e+00 3.109162e-01 8.509910e-02 3.862991e-02 4.442523e-02 3.986827e-01 6.454082e-01 2.180190e-01 5.834939e-01 -2.932609e-01 7.387208e-01 -1.252513e-02 8.569850e-01 1.272236e+00 3.931924e-01 3.365934e-03 
-4.537025e+00 -6.509310e-02 -6.215430e-01 -1.128211e+00 3.830331e+00 9.973227e-01 3.988582e+00 1.963394e+00 2.512447e+00 7.694051e+00 1.962061e+00 2.577277e-01 1.009377e-01 -2.385712e-03 1.603599e-01 2.402276e-01 -2.103506e-01 -1.683353e+00 4.948596e-01 -3.677984e-01 6.840006e-01 -1.457107e-01 -1.842408e-01 6.035806e-01 3.647657e-01 7.189453e-03 
-3.943886e+00 1.112338e+00 -1.281448e+00 1.278918e-01 3.369549e+00 2.040085e+00 2.114528e+00 1.441357e+00 -1.200916e+00 8.119013e+00 6.466621e+00 1.254311e+00 1.064304e-01 -1.390047e-01 -9.236490e-03 3.672368e-01 -2.513730e-01 -1.470192e+00 1.205541e+00 -1.845871e+00 1.430720e-01 3.961847e-01 -1.047883e+00 -5.476465e-02 6.372094e-02 1.553664e-02 
-4.589655e+00 8.665264e-03 -1.324581e+00 -1.804185e-02 1.551136e+00 1.915444e+00 1.244880e+00 -6.627908e-01 -1.380846e+00 1.987450e+00 1.234739e+00 1.071146e+00 1.230515e-01 -3.436379e-01 2.608910e-01 -7.163481e-02 1.707983e-01 -9.188096e-01 8.367832e-01 -2.006675e+00 2.587784e-01 1.098085e+00 -1.036133e+00 1.687276e-01 4.625309e-01 2.982950e-02 
-4.705212e+00 -1.842543e-01 4.243686e-01 -9.585105e-01 2.735271e+00 3.777332e+00 -3.119874e+00 2.893936e+00 4.007234e+00 5.979855e+00 2.942165e+00 2.228118e-01 1.517254e-01 7.923508e-02 1.171029e-01 4.415911e-01 1.036123e+00 -1.613640e+00 1.318897e+00 -2.856209e-01 1.700839e+00 2.464682e+00 -1.668929e+00 -2.901092e-01 1.534474e-01 5.354535e-02 
-5.874552e+00 1.887658e+00 -1.832625e+00 2.689815e-01 -4.465785e-01 4.312615e+00 -3.427591e+00 2.530997e+00 5.398799e+00 3.582965e+00 4.567927e+00 3.086132e+00 2.274377e-01 2.119221e+00 1.445256e+00 9.673249e-01 2.197798e+00 -2.075743e+00 4.442887e-01 -4.968480e-01 9.477051e-01 1.611926e+00 -1.905499e+00 5.617952e-03 -1.065557e+00 9.146311e-02 
-2.905262e+00 7.583562e-01 1.180530e+00 5.164993e+00 -3.699794e+00 7.435982e+00 3.022660e+00 8.348660e+00 7.732673e+00 -1.023386e+00 3.349481e+00 1.014055e+00 3.219641e-01 4.757294e+00 -1.103897e+00 3.279769e-01 2.851192e+00 -4.302175e+00 -1.811609e+00 -2.095838e+00 -1.158839e+00 1.616379e+00 -3.003350e+00 -1.757889e+00 -1.915890e-01 1.738084e-01 
5.106475e+00 6.763640e+00 3.133963e+00 7.909198e+00 -5.610045e+00 2.307563e+00 -4.310627e+00 1.348373e+00 4.816067e+00 -4.038422e+00 1.059170e+00 -4.652262e+00 4.952477e-01 5.845316e+00 -2.608344e+00 3.746695e-01 2.291744e+00 -4.571956e+00 -3.227523e+00 -4.238197e+00 -1.464483e+00 2.338671e+00 -2.848615e+00 -1.683289e+00 6.174592e-01 1.942229e-01 
1.359075e+01 -8.141731e+00 -4.190410e-01 9.477341e+00 -1.619387e+01 -4.278188e+00 -1.315755e+01 -2.308945e+00 1.238049e+01 -5.226201e+00 -4.092901e+00 3.134063e+00 8.868624e-01 4.704093e+00 -2.268479e+00 3.555384e-02 2.432521e-01 -3.084275e+00 -4.084903e+00 -5.490573e+00 -7.518786e-01 1.412622e+00 -1.452143e+00 -1.145542e+00 1.472814e+00 1.585095e-01 
1.510403e+01 -6.704016e+00 8.405076e-01 9.571526e+00 -1.705932e+01 -5.967915e+00 -1.652847e+01 5.373850e-01 1.476825e+01 -8.558703e+00 -1.273270e-01 5.113423e+00 9.161030e-01 2.287160e+00 -2.048514e+00 5.846978e-01 -8.054240e-01 -2.456854e+00 -1.670365e+00 -3.093321e+00 1.162547e+00 8.914593e-01 -1.181125e+00 -1.833802e-01 2.172487e+00 9.305598e-02 
1.561643e+01 -3.850212e+00 2.505026e+00 5.550090e+00 -1.339653e+01 -8.850796e+00 -1.832128e+01 4.994761e+00 9.819693e+00 -6.023960e+00 -1.784982e+00 3.495281e+00 9.040838e-01 1.743027e-01 7.494295e-01 1.212378e+00 -6.530409e-01 -1.449711e+00 8.738081e-01 -1.027365e+00 1.939539e+00 -2.145019e+00 -5.878707e-01 8.994764e-01 8.985268e-01 2.189231e-02 
1.552944e+01 -5.624688e+00 4.595418e+00 5.845703e+00 -1.929299e+01 -3.757956e+00 -1.719536e+01 3.509254e+00 1.055376e+01 -9.545169e+00 -1.011690e+00 6.029563e+00 9.519169e-01 -1.211879e-01 -7.396598e-02 1.521849e+00 -1.000114e+00 -1.293218e+00 1.463156e+00 -1.075981e-01 5.858508e-01 -2.469902e+00 -7.789132e-01 9.659951e-01 8.686806e-01 2.399173e-02 
1.424955e+01 -4.934247e+00 3.765394e+00 8.075047e+00 -2.232559e+01 -1.014126e+00 -1.796093e+01 5.902814e+00 3.762639e+00 -7.672322e+00 8.466623e-01 7.168627e+00 9.784170e-01 -2.401413e-01 -4.212619e-01 1.703771e+00 -7.654243e-01 -9.960674e-01 1.269313e+00 6.122150e-02 -7.795262e-02 -2.593393e+00 -1.023499e+00 2.133986e+00 5.297238e-01 2.367311e-02 
1.518152e+01 -6.531828e+00 7.819567e+00 3.308476e+00 -1.906088e+01 -2.570469e+00 -1.724664e+01 3.012612e+00 5.447263e+00 -1.162909e+01 3.386826e+00 7.620153e+00 9.988950e-01 -4.795010e-01 3.413192e-01 1.717841e+00 -8.799332e-01 5.431627e-01 -1.473560e-02 -3.971075e-01 -4.170081e-01 -2.640507e+00 -1.012734e+00 2.462603e+00 -5.600808e-01 1.123080e-02 
1.458968e+01 -5.502952e+00 9.411805e+00 2.991582e+00 -1.849292e+01 -3.097977e+00 -1.798953e+01 4.853318e+00 -5.940228e-01 -1.009949e+01 6.685691e+00 5.348605e+00 9.989603e-01 -6.431814e-01 5.263621e-01 2.301834e+00 -4.404557e-01 6.423977e-01 -4.378901e-01 -6.794719e-02 -1.301001e+00 -1.976069e+00 -1.670001e+00 1.939171e+00 -9.922579e-01 4.207009e-03 
1.296187e+01 -3.633740e+00 1.036142e+01 3.987770e+00 -1.849351e+01 -2.789709e+00 -1.916660e+01 1.948961e+00 -4.704394e-01 -1.339525e+01 8.381814e+00 4.139171e+00 9.977992e-01 -9.687880e-01 1.101433e+00 2.097115e+00 1.068144e+00 -6.369459e-01 4.645995e-01 4.605671e-01 -1.873001e+00 -2.104464e+00 -1.453979e+00 6.489450e-01 -6.111873e-01 -5.528158e-03 
1.214347e+01 -3.751481e+00 1.400364e+01 5.533122e+00 -1.939729e+01 -3.093957e+00 -1.734068e+01 -7.036567e-02 -3.158855e+00 -1.513925e+01 8.045024e+00 3.947829e+00 1.000000e+00 -1.058896e+00 1.184782e+00 2.465963e+00 1.104267e+00 -1.163996e+00 1.360908e+00 1.233290e+00 -2.422267e+00 -1.404975e+00 -1.533754e+00 -4.628070e-01 -4.538452e-01 -1.308980e-02 
1.156068e+01 -1.900398e+00 1.600922e+01 7.378425e+00 -2.179343e+01 -2.494810e-01 -1.526823e+01 -3.890549e+00 -3.792640e+00 -1.637911e+01 5.951885e+00 5.264605e+00 9.707344e-01 -9.571177e-01 1.287342e+00 2.435404e+00 7.032177e-01 -9.039505e-01 1.342476e+00 1.525506e+00 -1.020330e+00 -1.860192e+00 -1.187795e+00 -2.178216e-01 -9.742349e-01 -2.314191e-02 
9.995787e+00 -4.457122e-01 1.891772e+01 6.817587e+00 -2.266295e+01 2.436450e+00 -1.377226e+01 -4.338264e+00 -5.957798e+00 -1.627633e+01 5.586620e+00 2.516662e+00 9.470437e-01 -8.321897e-01 1.738165e+00 2.197889e+00 -1.954946e-02 -8.377420e-01 2.034674e+00 4.782383e-01 -1.628509e-01 -9.423481e-01 -1.218955e+00 2.881464e-01 -1.500055e+00 -3.084599e-02 
9.250126e+00 1.150085e+00 2.008140e+01 6.861626e+00 -2.138043e+01 1.157470e+00 -1.332328e+01 -1.018741e+00 -8.371927e+00 -1.876568e+01 8.521908e+00 -1.642001e-02 9.085678e-01 -1.409557e+00 1.223483e+00 1.901015e+00 -6.366682e-02 4.512596e-03 1.193230e+00 2.306227e-01 -1.728427e-01 -5.149375e-01 -5.507463e-01 5.925862e-01 -2.845844e+00 -1.924059e-02 
9.137804e+00 3.414104e+00 2.295700e+01 5.693774e+00 -2.379250e+01 6.375937e+00 -1.592197e+01 -2.320524e+00 -5.580952e+00 -2.004073e+01 8.200745e+00 -9.119317e-01 8.768533e-01 -7.971559e-01 1.289031e+00 1.398858e+00 3.384495e-03 5.273901e-01 3.785571e-01 -3.588421e-01 1.633250e-01 -7.046337e-02 -5.434397e-01 2.461527e-01 -2.742582e+00 -3.260279e-02 
4.941889e+00 2.287108e+00 2.349466e+01 7.621997e+00 -2.120609e+01 3.746928e+00 -1.304026e+01 -5.763632e+00 -6.555750e+00 -1.725064e+01 7.607754e+00 -7.250317e+00 9.096267e-01 -2.797007e-01 1.300174e+00 1.053169e+00 -1.590481e-01 1.458076e+00 7.363844e-03 -1.139188e+00 1.989912e-01 7.055050e-01 -5.056953e-01 -5.569816e-01 -1.446832e+00 -4.368583e-02 
8.164125e+00 5.430933e+00 2.420538e+01 6.454324e+00 -2.011317e+01 3.034507e+00 -1.570798e+01 -1.149194e+00 -7.218204e+00 -1.975105e+01 7.274461e+00 -7.579299e+00 7.835003e-01 8.869500e-02 9.025009e-01 -1.568327e-01 1.531998e-01 2.643611e+00 -1.035973e+00 -2.836842e-01 2.009577e-01 5.701488e-01 -2.411489e-01 -1.576508e-01 -5.336820e-01 -6.425133e-02 
8.338461e+00 6.642542e+00 2.472305e+01 5.686110e+00 -1.592971e+01 2.865004e+00 -1.912621e+01 -6.094501e-01 -4.025776e+00 -2.143900e+01 6.200142e+00 -3.916898e+00 7.368152e-01 1.539445e-01 9.178070e-01 -2.191205e+00 -4.644017e-01 4.613795e+00 -1.142479e+00 1.161546e+00 -2.458021e-01 -1.111786e+00 -1.119041e+00 -8.762110e-01 7.917045e-01 -1.266910e-01 
7.882993e+00 5.748891e+00 2.155864e+01 7.427716e+00 -1.321263e+01 1.637035e+00 -1.429742e+01 -3.892827e+00 -3.995195e+00 -1.915230e+01 8.116297e+00 -5.247050e+00 6.420025e-01 -1.689099e+00 -1.768012e-01 -5.490604e+00 -1.199672e+00 6.636822e+00 -1.340473e+00 3.629391e+00 -2.091773e+00 -1.552219e+00 3.060459e+00 -2.711605e+00 1.081438e+00 -1.770016e-01 
5.852178e+00 6.717164e+00 1.386201e+01 4.813293e+00 -1.587381e+00 -1.266734e+00 -7.937815e+00 -5.620825e+00 -1.372618e+01 -2.314523e+01 2.805781e+00 -4.457918e+00 3.469205e-01 -2.144777e+00 -4.892200e-01 -6.375224e+00 -1.691215e+00 5.677668e+00 -1.479901e+00 3.449599e+00 -1.532332e+00 -1.153142e+00 4.981194e+00 -2.690897e+00 8.564562e-01 -1.819084e-01 
9.617720e-01 4.509615e+00 2.182880e+00 8.923733e-01 5.899777e+00 -1.601988e+00 -3.155222e+00 -9.102367e+00 -1.012910e+01 -3.595647e+00 -4.586384e+00 -1.901599e+00 9.343946e-02 -2.718859e-01 -7.646956e-02 -4.850056e+00 -5.687832e-01 3.575424e+00 -3.264835e+00 2.028095e+00 -4.030128e-01 -8.751554e-01 4.882457e+00 -2.858313e+00 6.336352e-01 -1.061583e-01 
1.075190e+00 4.816080e+00 2.534814e+00 4.977098e-01 2.902424e+00 -2.914988e+00 -7.449317e+00 -5.666341e+00 -6.724536e+00 -4.311358e+00 -9.030032e-01 -1.307343e+00 1.015546e-01 4.834098e-01 5.413289e-02 -1.781054e+00 1.062171e+00 1.167877e+00 -1.344225e+00 1.948673e+00 6.126351e-02 4.357411e-01 3.530001e+00 -2.468121e+00 -9.631850e-01 -2.893894e-02 
8.912058e+00 6.317085e+00 2.971954e+00 6.741591e+00 2.419591e+00 -1.386302e+01 -4.401193e+00 -5.885133e+00 -1.187180e+01 -4.156950e+00 -4.320875e+00 -3.654162e+00 2.338940e-01 -4.498893e-01 -7.490250e-01 -9.292183e-01 2.907541e-01 1.730316e-01 5.138090e-01 2.036162e+00 8.757004e-01 4.665472e-01 1.542962e+00 -1.338976e-01 1.677494e-02 1.167536e-03 
4.294084e+00 6.084093e+00 4.562196e+00 7.199537e+00 5.992096e+00 -1.857345e+00 2.428535e+00 -6.923125e+00 -1.067613e+01 -5.214571e+00 -9.667578e+00 -8.397561e+00 1.319986e-01 -1.941463e+00 -1.247635e+00 -1.425999e+00 -1.170087e+00 1.048058e+00 2.217651e+00 2.599011e+00 9.392718e-01 1.048128e+00 2.519432e+00 8.421721e-01 1.295302e+00 -2.145726e-02 
-2.897121e+00 1.304842e-01 -3.476902e+00 -1.004770e+00 5.220098e+00 4.382358e-01 2.086660e+00 -4.095474e+00 -5.820566e+00 4.570772e+00 -8.735850e-01 1.727384e+00 8.405513e-02 -3.023257e+00 -1.147152e+00 -1.259458e+00 -2.262058e+00 8.716906e-01 3.516512e+00 1.863994e+00 1.250863e+00 3.093310e+00 3.330684e+00 2.151375e+00 1.816286e+00 -3.724574e-02 
-2.727538e+00 1.671203e+00 -1.370751e+00 -1.479544e+00 6.742458e+00 1.022642e+00 2.301813e+00 -1.864811e+00 -4.509510e+00 3.921940e+00 1.584213e+00 2.478392e+00 6.918770e-02 -1.802351e+00 -6.607333e-01 -8.409201e-01 -1.895177e+00 -7.256215e-01 7.829073e-01 3.910446e-01 1.205734e+00 2.145407e+00 1.667335e+00 2.404130e+00 1.466273e+00 -1.070962e-02 
-2.693418e+00 2.787769e+00 -3.588624e-01 -2.291589e-01 6.402863e+00 2.279554e+00 4.982137e+00 -2.159975e+00 5.114428e-01 7.928215e+00 8.101029e-01 -1.070809e-02 7.907075e-02 -2.914546e-01 3.072813e-01 3.985479e-01 2.646124e-01 -2.994747e-01 3.065069e-01 -3.411855e-01 2.485597e-01 1.828195e+00 2.816964e-01 2.854910e-01 -4.653274e-01 1.456869e-03 
-4.819525e+00 1.451784e+00 -1.201423e+00 -2.664155e+00 1.772607e+00 1.136532e+00 2.936019e+00 -1.862203e+00 -3.115098e+00 1.443380e+00 1.511228e+00 -1.971508e-01 8.094269e-02 5.750642e-01 -1.385324e+00 3.170498e-01 -1.266134e+00 -1.789395e+00 -1.884037e+00 -1.664762e+00 -2.696471e-01 3.260619e-01 -1.406846e+00 -1.325164e+00 -1.457955e+00 1.303580e-01 
-3.308401e+00 1.776600e+00 -1.568826e+00 9.105976e-01 6.207651e+00 1.913825e+00 6.362963e-02 -2.853980e+00 2.623202e+00 7.218534e+00 5.903623e-01 7.385191e-01 8.546197e-02 3.808764e-01 -1.552566e+00 -4.939139e-02 -2.102403e+00 -2.383244e+00 -3.780774e+00 -2.833305e+00 -6.249841e-02 -1.383049e+00 -2.553061e+00 -1.741665e+00 -1.176463e+00 2.162917e-01 
4.552746e-01 -4.749830e+00 8.194798e-01 -8.380093e+00 -2.106912e+00 -8.214679e+00 -3.562742e+00 -2.866045e+00 -3.935080e+00 -2.757449e+00 -4.931736e+00 -5.185998e+00 7.177823e-01 -1.091506e+00 -9.246973e-01 9.443418e-01 -8.455173e-01 -1.431691e+00 -4.433774e+00 -2.148583e+00 1.440994e+00 -4.368531e-01 -1.263271e+00 -1.181348e+00 -7.240302e-01 2.061152e-01 
-3.426435e+00 -1.874256e+00 -1.616271e+00 -7.883204e+00 -3.573598e+00 -1.194871e+01 -5.935009e+00 -1.970546e+00 -5.993812e+00 -2.736677e+00 -4.676739e+00 -3.398599e+00 8.421097e-01 -2.275025e+00 -1.882030e+00 1.369714e+00 3.098211e-01 -9.628658e-01 -3.428087e+00 5.130843e-01 2.891188e+00 -1.617690e+00 -9.759254e-01 9.949423e-01 -3.531031e-01 1.020650e-01 
-1.021804e+01 -1.346274e+00 3.544008e+00 -2.494841e+00 -4.952254e-01 -1.410107e+01 -4.807579e+00 4.901052e+00 -9.908561e-01 1.046296e-01 -1.761964e+00 -1.748743e+00 7.331951e-01 -1.227987e+00 -2.465217e+00 4.153780e-01 3.495798e+00 1.408890e+00 -8.020352e-01 8.398244e-01 2.441804e+00 1.989833e+00 2.526003e+00 2.144060e+00 6.751528e-01 -8.732128e-02 
-9.346869e+00 -9.335328e+00 3.917483e+00 -4.829230e-01 5.874786e-01 -1.228341e+01 3.251470e+00 7.718412e+00 -6.937359e+00 9.078676e-01 3.980187e+00 -2.745624e+00 5.880805e-01 1.432604e+00 -2.162845e+00 -1.653715e+00 2.093729e+00 1.753702e+00 -2.817385e-01 4.221144e-01 -2.423690e-02 3.504773e+00 3.617967e+00 1.656184e-01 -6.559077e-01 -1.453625e-01 
-2.724445e+00 -1.334538e+01 1.294928e-01 5.398755e+00 2.856999e+00 -1.205750e+01 -3.956859e+00 4.498494e+00 6.485858e+00 8.050293e+00 1.460100e+00 -2.136722e+00 4.081904e-01 2.912413e+00 -2.279156e-01 -3.542306e+00 -3.476937e-01 9.414792e-01 1.202609e+00 1.865556e-01 -2.406661e+00 1.930321e+00 9.436699e-01 -1.771881e+00 -4.130541e-01 -1.532276e-01 
-1.021099e-02 -6.688931e+00 -8.177588e+00 -1.361360e+00 3.518799e+00 -1.437919e+01 -4.249796e+00 -1.890452e+00 7.791698e+00 1.138033e+01 -5.459679e+00 -6.484149e+00 2.777994e-01 2.429893e+00 2.061064e+00 -3.695893e+00 -2.535250e+00 -2.161585e-01 1.590318e+00 9.407320e-01 -1.920297e+00 1.096828e+00 -9.229635e-01 -2.858479e+00 -3.577981e-01 -1.155099e-01 
-3.243036e-01 -3.809051e+00 -8.119984e+00 -3.794091e+00 2.746510e+00 -7.040140e+00 -1.241674e-01 -2.327820e+00 1.296221e+00 -4.132518e-01 -5.901437e+00 -1.944751e+00 1.221977e-01 8.817874e-01 2.049701e+00 -2.002364e+00 -1.844758e+00 -6.161608e-01 2.614769e+00 2.193520e+00 7.133886e-01 -1.185307e+00 -3.365891e+00 -2.247470e+00 1.505750e-01 -7.000582e-02 
1.602528e+00 -3.798170e+00 -1.043724e+01 -8.562751e+00 -4.380693e-01 -6.840501e+00 6.038784e+00 1.530084e+00 1.141599e+00 5.248222e-01 -6.631439e+00 -4.630600e+00 1.535273e-01 1.631776e-01 1.092674e+00 6.105661e-02 8.393224e-02 3.640478e-02 2.800530e+00 1.797487e+00 2.186544e+00 -1.314171e+00 -2.703147e+00 -3.876108e-01 3.142560e-01 -3.396401e-02 
8.781223e-01 -4.542254e+00 -8.752502e+00 -2.243400e-01 1.754629e+00 -2.753001e+00 1.866451e+00 6.355169e+00 3.884371e+00 -3.351409e+00 -9.191372e+00 -2.310621e+00 1.202974e-01 -4.038448e-02 5.491987e-01 1.411372e-01 6.873304e-01 7.654458e-01 2.012439e+00 1.625769e+00 1.829419e+00 -2.269517e-01 5.036317e-01 9.725993e-01 4.443310e-01 -1.101404e-02 
2.044640e-01 -8.589621e-01 -7.556046e+00 -2.726574e+00 4.196764e+00 -2.520104e+00 3.742328e+00 4.700771e+00 -7.322991e-02 -6.663262e-01 -5.752765e+00 -4.729934e+00 1.089295e-01 -5.257362e-01 6.409907e-01 1.617222e-01 2.039664e-01 8.686408e-01 1.536579e+00 2.586086e-01 1.871088e-01 -1.613178e-01 6.559180e-01 1.003991e+00 1.486123e-02 -1.553628e-02 
1.728058e-01 -2.532662e+00 -8.854896e+00 -3.275527e+00 4.256322e+00 8.618590e-01 9.152905e+00 5.233930e+00 7.688771e-01 2.700481e+00 -1.477777e+00 3.265704e-01 8.942634e-02 -3.645709e-01 -8.570882e-02 -8.545803e-01 -1.650885e+00 4.408030e-01 1.555229e+00 5.161122e-01 -1.403075e+00 -8.680943e-01 3.197427e-01 5.789124e-01 2.447796e-03 -2.944052e-03 
-6.734953e-01 -1.598012e+00 -9.577435e+00 -6.017325e+00 2.654288e+00 -9.650350e-01 3.688600e+00 3.026248e+00 1.892757e+00 7.784671e-01 -5.468284e+00 -5.874890e+00 9.128141e-02 -2.384409e-01 -8.718843e-01 -1.453194e+00 -1.353960e+00 -2.968773e-01 1.625493e+00 2.127061e-02 -1.432435e+00 -8.501250e-01 1.530568e-01 8.314967e-02 1.445374e-01 4.294044e-03 
-5.057526e-01 -4.601273e+00 -1.201471e+01 -6.833387e+00 4.729882e+00 4.245608e+00 4.473876e+00 1.770589e-01 -1.439094e+00 -2.475092e+00 -6.439051e+00 -1.725904e+00 1.144012e-01 1.765718e-01 3.162675e-02 -5.357666e-01 -8.998764e-01 -4.431150e-02 8.578717e-01 -3.061307e-01 -6.807473e-01 -1.979959e-01 -1.128964e-01 3.694098e-01 3.346217e-02 5.994701e-03 
-6.484613e-01 -4.184078e+00 -1.324211e+01 -7.717446e+00 2.475597e+00 3.915485e+00 6.188196e+00 6.703210e-02 -3.219869e+00 2.686745e+00 -2.856380e+00 -2.981009e+00 1.179123e-01 5.115568e-01 5.018020e-01 4.561629e-01 1.799411e-01 7.411207e-01 1.842809e+00 1.687015e+00 -2.357574e-01 -5.398577e-01 4.526799e-01 6.802722e-01 3.009966e-01 2.198297e-03 
1.043148e+00 -1.081495e+00 -9.701391e+00 -6.924849e+00 4.124110e+00 2.710957e+00 6.372454e+00 3.309801e+00 2.335210e+00 1.181860e+00 -9.366806e-01 -9.530590e-01 1.060844e-01 5.165761e-01 1.270194e+00 1.399012e+00 7.665470e-01 8.049999e-01 3.848171e-01 1.083301e+00 1.352860e-01 1.078911e+00 8.897964e-01 -5.307140e-01 -1.158945e+00 -3.560334e-03 
1.109838e+00 -8.488911e-01 -8.453279e+00 -5.071889e+00 6.662778e+00 9.016338e+00 1.117439e+01 2.810898e-01 -2.693684e+00 1.213390e+00 -4.818108e+00 -4.756330e+00 1.064313e-01 1.947625e-01 9.946019e-01 1.602381e+00 9.740852e-01 6.762923e-01 3.958069e-01 9.503814e-01 1.173000e+00 1.412020e+00 3.152387e-01 -1.199592e+00 -8.051623e-01 -4.126596e-03 
1.197978e+00 8.210212e-02 -7.414067e+00 -4.323431e+00 6.661292e+00 3.619267e+00 7.397287e+00 7.464600e-01 3.692368e+00 2.710567e+00 -8.111756e+00 -6.632971e+00 1.023400e-01 -1.172344e-01 8.585240e-01 9.815321e-01 5.642121e-01 -1.232771e-01 -4.783149e-01 -9.474664e-01 -1.884693e-01 -6.811663e-01 5.228654e-01 -2.810719e-01 6.981174e-01 -3.272933e-03 
2.479362e-01 2.071331e-01 -6.373865e+00 -4.147729e+00 4.588468e+00 5.440364e+00 1.042769e+01 7.213703e+00 3.161651e+00 3.498585e+00 -5.266802e+00 -4.166864e+00 9.915149e-02 -1.584070e-01 3.603333e-01 3.945357e-01 4.851894e-02 4.610608e-01 -3.250490e-01 -1.717170e+00 -2.562418e-01 -5.638536e-01 6.714054e-02 1.010265e+00 1.798535e+00 -1.592791e-03 
8.879271e-01 2.683113e+00 -5.833438e+00 -4.565868e+00 4.544880e+00 2.107369e+00 2.008473e+00 -1.098852e+00 -3.998289e+00 2.653590e+00 -2.117693e+00 2.242795e+00 9.335965e-02 -1.241185e-01 1.439107e-01 1.998380e-01 -5.463197e-01 -2.152131e-01 -6.522413e-02 -3.183730e-01 2.606667e-01 -7.507255e-01 -3.643941e-01 1.130758e+00 2.157013e+00 -2.224058e-03 
4.728289e-01 -3.477301e-01 -7.270915e+00 -4.708076e+00 1.002629e+01 8.147042e+00 5.282942e+00 -7.746315e-02 -1.667624e+00 1.577582e+00 -2.763816e+00 -2.015389e-01 1.029575e-01 -1.267613e-01 -2.834476e-01 -2.296079e-01 -1.411319e-02 -3.242878e-01 -1.079244e+00 6.353313e-01 -2.248616e-01 8.089256e-02 -2.806161e-01 2.275234e-01 1.160814e+00 -3.015167e-03 
4.649391e-01 1.079087e+00 -5.966352e+00 -6.774856e+00 2.866316e+00 1.939808e+00 8.377794e+00 5.695376e+00 2.353378e+00 1.849098e+00 -3.709461e+00 2.169431e+00 8.931673e-02 -5.343277e-01 -1.138547e+00 -9.242290e-01 3.090793e-01 -1.084406e+00 -1.108329e+00 1.211098e+00 -1.810863e-01 9.951761e-01 3.900571e-01 5.149278e-01 4.118719e-01 4.634947e-03 
-1.743765e-01 -4.080919e-01 -7.455448e+00 -3.113801e+00 3.806311e+00 1.279242e-01 1.041968e+01 2.692281e+00 3.902801e-01 2.497750e+00 -3.333301e+00 1.673890e+00 8.609712e-02 -3.267718e-01 -1.312829e+00 2.717221e-01 6.905177e-01 -1.467967e+00 -6.114058e-01 -4.230152e-01 -1.680515e+00 -5.089781e-01 1.016820e+00 5.199109e-01 -1.950769e-01 1.232512e-02 
-1.460109e+00 -2.979442e+00 -1.036232e+01 -3.817609e+00 2.232841e+00 5.752816e-01 5.495593e+00 -3.389156e+00 -5.136001e-02 4.143792e+00 7.416885e-01 3.364440e+00 1.249646e-01 -1.694462e-01 -6.740997e-01 7.576411e-01 1.023220e+00 9.655025e-02 1.008412e+00 -5.358299e-01 -2.085594e+00 -1.694014e+00 -8.670198e-01 -7.068604e-01 -7.651431e-01 5.023652e-03 
-1.985064e-01 -4.882613e+00 -3.714322e+00 -2.734111e+00 3.003188e+00 5.772276e+00 4.608967e+00 -3.937770e+00 -3.010145e+00 5.514335e+00 -2.389836e+00 -1.774428e+00 1.467592e-01 -6.806902e-01 -8.112452e-02 1.281559e+00 1.886575e-01 2.451840e-01 1.310621e+00 -4.707340e-01 -3.859419e-01 -1.526438e+00 -1.187571e+00 -6.015636e-01 7.933640e-02 -4.401684e-04 
-3.702269e-01 -5.415094e-02 -4.048709e+00 -1.848603e+00 3.750629e+00 4.159692e+00 8.604002e+00 -1.417566e+00 -4.416481e+00 -3.994294e+00 -7.715495e+00 6.787419e-02 8.410394e-02 -4.052632e-01 1.100796e+00 1.667552e+00 1.098854e+00 3.369283e-01 -9.845933e-01 -4.845043e-01 6.002030e-01 -2.195988e-02 -2.420344e-01 -3.812680e-01 2.924979e-01 -1.275831e-02 
-4.122768e+00 -2.276360e+00 -4.204455e+00 -3.155017e+00 4.273337e+00 4.888825e+00 6.511807e+00 -2.232227e-01 -5.059352e+00 6.289359e-01 -2.112527e+00 3.718854e+00 1.043266e-01 -7.352468e-01 7.607585e-01 -1.582151e-01 7.094982e-01 2.345216e-01 -1.908468e+00 -1.695022e-01 7.395183e-01 8.786739e-01 5.603076e-01 1.269962e+00 4.111514e-01 -1.055964e-02 
-1.524294e+00 1.221409e+00 -1.779492e+00 1.887112e+00 3.282408e+00 -3.905960e+00 2.121651e+00 -2.245415e+00 8.634437e-01 5.376319e+00 -1.303306e+00 2.080288e+00 8.238935e-02 -3.581827e-01 5.637594e-02 3.747154e-01 4.521236e-01 -1.984797e-01 -1.579593e+00 -1.628297e+00 -8.262166e-01 4.333794e-01 1.956593e+00 1.932517e+00 -6.058846e-01 -2.304226e-03 
-3.297707e+00 -1.716600e+00 -5.640006e+00 -1.054477e+00 4.409906e+00 2.627612e-01 7.002631e+00 1.737452e-01 -1.256738e+00 3.630567e+00 7.538803e-01 -7.248781e-01 9.481829e-02 3.748291e-01 3.268389e-01 3.841101e-01 -2.161334e-01 -4.675851e-01 -3.309623e-01 -6.974578e-01 -9.702100e-01 6.831716e-01 6.141180e-01 1.218306e+00 -1.239573e+00 -3.544289e-03 
-2.573671e+00 -5.215132e-02 -1.457357e+00 -6.382546e-01 2.689945e+00 -1.425240e+00 2.171035e-01 -5.747133e+00 -4.150891e+00 4.287856e+00 5.138857e-01 -7.396824e-01 7.733697e-02 3.136827e-01 2.840627e-01 2.376693e-01 -3.797996e-01 4.690927e-01 1.836373e+00 3.444402e-01 1.429206e-01 -5.398170e-01 -1.790487e+00 -1.656963e-01 -1.059923e+00 -7.693350e-04 
-1.723934e+00 -5.385756e-03 -2.444973e+00 -2.973000e+00 2.231643e+00 1.993654e+00 3.976792e+00 -3.323413e+00 8.636736e-01 4.243758e+00 3.070409e+00 -1.069028e+00 8.913136e-02 6.940786e-01 8.843696e-01 6.171382e-01 5.589336e-01 8.641253e-01 1.413109e+00 1.847949e-01 6.052946e-01 -2.023174e-01 -2.319713e+00 -1.189180e+00 -6.952322e-01 -2.281511e-03 
-7.427664e-01 1.786115e+00 -2.188662e+00 9.473758e-01 6.717003e+00 4.410458e+00 5.356771e+00 2.177677e-01 -2.895847e+00 -3.882713e+00 -3.290052e+00 -3.047253e+00 8.138615e-02 4.642978e-01 5.468033e-01 -1.206300e-01 7.091637e-01 1.253948e+00 1.408820e+00 1.165932e+00 1.547098e+00 -1.249433e-01 -2.446761e+00 -1.396834e+00 -6.593367e-01 3.531575e-05 
