5.420357e+00 -1.013845e+01 -5.064591e+00 -7.030687e-01 -4.705949e+00 -1.330608e+00 -1.553877e+01 -1.273632e+00 5.136466e+00 4.144535e-01 -6.357963e+00 -2.667107e+00 6.422108e-02 7.210884e-01 9.196380e-01 1.759262e-01 -1.049197e+00 1.508995e+00 1.651203e+00 1.507635e+00 1.261332e+00 -5.308789e-01 -7.816544e-01 9.107213e-01 1.586409e-01 -9.499860e-03 
6.531217e+00 -7.676921e+00 -4.839112e+00 -2.063287e+00 1.643088e-01 3.051465e+00 -1.158424e+01 5.595139e+00 5.890748e+00 -6.394486e-01 -5.001069e+00 5.141711e-02 4.041594e-02 5.229725e-01 5.204226e-01 6.635941e-01 -2.137748e-01 2.140863e+00 2.169511e+00 2.536973e+00 1.750142e+00 -1.134267e+00 -9.962606e-01 1.292035e+00 -8.430301e-01 -4.674745e-03 
8.470369e+00 -6.771019e+00 -4.297700e+00 -5.268944e+00 4.038951e-01 4.734371e+00 -9.977867e+00 1.598643e+00 2.104930e+00 -2.966867e+00 -2.482804e+00 -3.233164e+00 2.862436e-02 4.677998e-01 2.130713e-01 9.039310e-01 -1.889412e-01 1.126662e+00 1.804445e+00 1.257225e+00 5.554155e-01 -2.057687e+00 -1.267679e+00 2.022748e+00 -4.632761e-01 -2.863306e-03 
6.510213e+00 -9.220048e+00 -2.130067e+00 5.109947e-01 3.443445e+00 6.484459e+00 -5.634364e+00 6.040943e+00 9.808969e-01 -2.876189e+00 -1.835366e+00 -6.599228e+00 5.864573e-02 6.812768e-02 -2.744179e-01 1.202667e+00 2.554015e-01 7.379530e-02 3.985114e-01 -3.312538e-01 -9.350216e-01 -1.308990e+00 -5.974532e-01 9.779084e-01 4.176353e-01 2.335310e-05 
7.769857e+00 -8.301527e+00 -1.899459e+00 -2.934916e+00 -7.122093e-01 5.975120e+00 -1.222759e+01 1.280544e+00 -2.697044e+00 -4.805573e+00 2.172928e+00 -1.658164e+00 4.078966e-02 -9.980593e-02 2.391479e-01 7.453722e-01 4.486837e-01 -5.251943e-01 -3.865263e-01 -9.732625e-01 1.078421e-01 2.601087e-01 -7.187910e-01 -1.861779e-01 1.981417e+00 -5.211019e-03 
7.222111e+00 -8.283757e+00 -2.489567e-02 -1.953294e+00 1.091338e+00 4.423647e+00 -1.211565e+01 1.079081e+00 1.746782e+00 -2.707362e+00 -2.439392e+00 1.352093e+00 3.445005e-02 2.246947e-02 9.527704e-01 2.873760e-01 4.643623e-01 -2.779324e-01 -7.092755e-01 -9.358136e-01 6.757076e-01 2.074958e+00 4.647831e-01 6.814947e-02 2.365108e+00 -1.356286e-02 
7.615390e+00 -6.043424e+00 -1.623425e+00 -1.793380e+00 -1.046023e+00 3.832146e+00 -1.160353e+01 4.618784e+00 3.022531e+00 -6.645236e+00 -3.111680e+00 2.698258e+00 1.466709e-02 -2.961621e-01 8.088112e-01 8.164835e-03 8.048311e-01 2.902190e-01 -1.071438e-02 2.685227e+00 2.117464e+00 1.588442e+00 6.059526e-01 -3.868738e-01 9.673438e-01 -2.247687e-02 
6.699794e+00 -5.585247e+00 -8.312039e-01 2.262039e+00 2.220690e+00 4.009569e+00 -1.062546e+01 7.750360e+00 8.495899e+00 3.675584e-01 1.147685e+00 3.048098e+00 3.892720e-03 -5.203304e-01 6.474893e-01 -5.898653e-01 4.504698e-01 -9.535831e-01 7.257112e-01 3.125383e+00 3.191020e-01 -8.586363e-01 -1.830384e-01 -6.922085e-01 -8.023897e-01 -2.784547e-02 
6.550205e+00 -5.606726e+00 -1.455481e+00 -1.018426e+00 1.742097e-01 6.128588e+00 4.534476e-01 8.532225e+00 1.870609e+00 -3.313270e+00 -1.554980e+00 2.330553e+00 -5.631602e-02 -5.327913e-01 2.471337e-01 -1.699936e-01 7.876108e-01 -4.914611e-01 2.233707e-01 2.828517e+00 -1.530289e+00 -2.354600e+00 -7.227738e-01 -1.480330e+00 -4.803153e-01 -2.439395e-02 
5.153051e+00 -5.264659e+00 -3.058194e+00 -8.842188e-02 -4.286694e+00 6.903983e+00 -2.517231e+00 7.178705e-01 -1.970438e+00 -5.288537e+00 -6.678785e+00 -2.476003e+00 -6.928575e-02 -1.505435e-01 1.073871e+00 -3.151946e-01 -5.645539e-01 -1.207558e+00 -3.639474e-02 2.472513e+00 -1.857345e+00 -3.535907e+00 -1.861200e+00 -6.144127e-01 6.349550e-01 -2.521631e-02 
5.724805e+00 -4.968050e+00 -1.359898e+00 3.319903e+00 -2.496362e-01 3.501792e+00 -1.515064e+00 4.835853e-01 -3.517303e+00 -7.431057e+00 -6.600093e+00 3.058733e+00 -7.071340e-02 -1.957629e-01 1.526790e+00 1.659492e-01 -2.871126e-01 -5.733138e-01 -9.991735e-01 -2.933396e-01 -1.918978e+00 -2.745174e+00 -2.373999e-01 1.858851e+00 6.772405e-01 -2.314458e-02 
6.359776e+00 -5.352315e-01 -2.454968e+00 -2.729896e+00 -3.605176e+00 5.140993e+00 2.721363e+00 2.487954e+00 -6.489677e+00 -6.879547e+00 5.981785e-01 5.858784e+00 -1.149901e-01 -4.289330e-01 2.004751e+00 6.655608e-01 -2.925843e-01 4.863722e-01 -1.831997e-01 5.469906e-01 -4.204135e-01 -1.187763e+00 1.254802e+00 1.870393e+00 4.858248e-01 -2.424872e-02 
4.968028e+00 -3.374916e-01 -9.273477e-01 -1.133252e+00 -3.033118e+00 2.014215e+00 -3.632547e+00 -1.947707e+00 -9.595644e+00 -3.704764e+00 4.100792e+00 1.549362e+00 -1.491867e-01 -1.233762e+00 1.579907e+00 4.153558e-01 -1.196534e+00 -9.538376e-01 8.989544e-02 -6.338102e-01 -8.477880e-01 -3.875157e-01 2.144292e+00 1.069409e+00 -8.861727e-01 -1.974611e-02 
3.386775e+00 2.443818e+00 5.333519e-02 6.752346e-01 -4.630914e-01 6.731773e+00 1.276464e+00 -1.685508e-01 -4.870083e+00 -8.776749e-01 -2.677264e+00 7.078067e-01 -1.512927e-01 -1.721041e+00 1.172485e+00 1.115856e+00 -2.047373e-01 3.094609e-01 6.512911e-01 -1.120142e-01 2.081749e-02 1.104279e+00 1.826529e+00 4.381981e-02 2.251643e-01 -7.471108e-03 
1.042497e+00 1.441960e+00 -5.372705e-01 -4.365332e+00 -6.589866e+00 3.155879e+00 -3.961665e+00 -2.427103e+00 -6.264678e+00 2.894685e-01 3.846716e-01 1.203358e+00 -1.512927e-01 -1.468725e+00 1.457145e+00 1.425016e+00 6.575449e-01 7.885051e-01 1.513262e+00 9.845350e-01 1.246248e+00 2.253981e+00 1.908977e+00 3.582102e-01 1.759893e+00 -4.211903e-04 
-2.826643e-01 4.437467e+00 2.929273e+00 -2.137542e+00 -2.794974e-01 7.826616e+00 2.325851e+00 2.831740e+00 -2.633767e+00 2.559801e-01 2.675338e+00 7.157608e+00 -1.512927e-01 -8.656494e-01 1.206649e+00 1.442029e+00 8.154762e-01 1.370791e-01 7.380711e-01 3.599938e-01 1.966619e+00 2.210017e+00 1.558458e+00 1.120032e+00 1.399950e+00 0.000000e+00 
-5.408792e-01 5.951412e+00 4.759765e+00 3.560860e+00 8.176103e-01 9.033104e+00 7.654345e-01 2.783390e+00 5.561050e-01 5.273291e+00 3.215542e+00 7.123929e+00 -1.512927e-01 8.818542e-01 6.378824e-01 6.505568e-01 2.178982e+00 7.713507e-01 -1.133132e-01 1.629105e+00 2.918948e+00 2.295788e+00 3.269741e-01 -1.358729e-01 1.572573e-01 4.782534e-03 
-1.497841e-01 6.222339e+00 4.614964e+00 7.895198e-01 -3.481434e+00 7.483517e+00 7.128828e-01 7.059296e+00 2.769611e+00 4.422702e+00 1.507462e+00 4.747272e+00 -1.512927e-01 1.320807e+00 -1.192437e+00 -3.636841e-01 9.113134e-01 -4.811307e-01 -2.772362e+00 3.341172e-01 1.318892e+00 3.945110e-01 3.017171e-01 2.176482e-01 -1.340394e+00 1.646450e-02 
5.385327e+00 3.738936e+00 1.872668e+00 5.066045e+00 -1.132145e+00 2.760863e+00 4.990343e+00 1.005386e+01 2.512573e+00 -1.590221e-01 2.892452e-01 3.194812e+00 -1.273800e-01 3.488617e-02 -1.958268e+00 3.706312e-01 -4.235752e-01 -7.547832e-02 -1.920709e+00 -3.632385e-01 -1.179352e+00 -7.105832e-01 -2.750884e-01 3.621693e-02 -2.099279e+00 5.373055e-02 
3.358265e+00 -4.184819e-01 2.554401e+00 1.666432e+00 -1.710273e+00 -2.899075e+00 1.883983e+00 5.790967e+00 -1.639446e+00 4.480722e+00 5.226727e+00 2.420196e+00 -8.092654e-02 -2.252701e+00 -8.600348e-01 1.009251e+00 -1.061386e+00 1.086396e+00 -7.799358e-01 -6.605725e-01 -2.191909e+00 -1.680412e-01 -4.425049e-05 -2.823808e-01 -9.599956e-01 1.084234e-01 
-2.120473e+00 -5.195190e-01 7.643203e+00 1.004528e+00 -4.453617e-01 4.620854e+00 -1.636308e+00 -2.479206e+00 -7.922826e-01 3.868839e+00 1.536994e+00 -2.208929e+00 8.217698e-02 -4.513848e+00 8.286200e-01 -3.613365e-01 -1.853950e+00 1.180551e+00 -7.850441e-01 2.452383e-01 -2.152263e+00 -3.063703e-01 3.907031e-01 -1.098078e+00 -5.890223e-01 1.521682e-01 
-7.660388e+00 4.051393e+00 6.775951e+00 -2.486649e+00 1.607156e+00 2.653842e+00 7.233458e-01 2.366284e+00 3.581833e+00 2.408551e+00 -5.283169e-01 2.649165e+00 2.860456e-01 -4.310706e+00 2.580285e+00 -1.889874e+00 -1.597425e+00 1.116823e+00 -1.146578e+00 1.213953e+00 -3.002482e-01 -9.368309e-01 -5.248656e-01 -2.046481e+00 -1.260927e-01 1.723638e-01 
-1.167459e+01 5.647099e+00 -2.044790e+00 -2.127165e+00 3.111897e+00 -3.940816e+00 6.796853e+00 1.004884e+00 -1.629918e+00 2.830579e+00 -2.323623e+00 1.352162e-01 4.499748e-01 -2.779819e+00 2.846424e+00 -3.752230e+00 -4.776591e-01 7.677899e-02 -3.356185e+00 1.162713e+00 -5.256463e-01 -1.281898e+00 -1.698246e+00 -2.440619e-01 1.237450e+00 1.642520e-01 
-1.341821e+01 9.399633e+00 -2.050970e+00 -4.754848e+00 2.095214e+00 -4.351128e+00 3.737166e+00 2.547681e+00 -5.904783e+00 2.375524e+00 -3.075370e+00 6.176597e-01 5.969933e-01 -1.389974e+00 2.302202e+00 -3.150400e+00 1.402154e+00 -5.186722e-01 -1.369452e+00 8.438607e-01 -1.877145e+00 -5.723998e-01 -1.541531e+00 8.375235e-01 2.870061e-01 1.316749e-01 
-1.314066e+01 1.103848e+01 -6.704488e+00 -2.496677e-01 -3.054959e-01 -8.657586e+00 2.670345e+00 -5.198136e+00 -2.458466e+00 -4.605878e+00 1.590211e+00 4.994076e+00 7.479632e-01 -8.970852e-01 1.418354e+00 -2.004632e+00 2.665663e+00 -1.046501e+00 1.325534e+00 2.483760e-01 -1.474019e+00 1.130321e+00 -1.436788e+00 1.587276e+00 5.188956e-01 1.090561e-01 
-1.387722e+01 1.286671e+01 -6.646199e+00 3.585373e+00 7.224914e-01 -1.835032e+00 7.005903e+00 -3.917930e+00 1.134108e+00 -1.580874e+00 1.702383e+00 1.654765e+00 7.954260e-01 -7.744118e-01 3.794059e-01 -1.031734e+00 3.023704e+00 -1.056471e+00 2.416729e+00 1.491185e+00 -6.573923e-01 1.675111e+00 -1.076456e+00 4.603465e-01 -3.648864e-01 7.643291e-02 
-1.593051e+01 1.100533e+01 -9.770332e+00 7.031038e+00 -1.434245e+00 1.428808e+00 6.404365e+00 -3.132407e+00 5.022432e-01 -2.375163e+00 3.223880e+00 2.211142e+00 8.960392e-01 -4.771557e-01 -3.050014e-01 -1.517916e-02 9.565962e-01 -1.266207e+00 2.508702e+00 1.017833e+00 2.290463e-01 4.743245e-01 6.667721e-01 -1.597948e-01 -5.741280e-01 3.309675e-02 
-1.589534e+01 1.131324e+01 -5.676718e+00 6.723320e+00 -2.622766e+00 2.689320e+00 9.326080e+00 -1.772145e+00 9.904151e-01 -4.122116e+00 -1.590472e+00 1.846946e-01 9.051199e-01 5.576725e-02 -7.903984e-01 3.435698e-01 -2.647352e-02 -8.745550e-01 1.062045e+00 -7.193060e-01 -4.448802e-01 -4.740104e-01 4.894466e-01 6.189118e-02 4.535421e-01 1.281865e-02 
-1.451738e+01 1.029021e+01 -7.265124e+00 2.964339e+00 -4.963902e+00 1.623747e+00 6.599419e+00 -5.125797e+00 -1.499748e-02 -1.396477e-03 2.437665e+00 2.858471e+00 8.586000e-01 2.492983e-01 -1.068379e+00 6.132990e-01 -7.268867e-01 1.280105e-01 4.014193e-01 -9.987658e-01 -5.502354e-01 -5.258455e-01 1.569381e+00 -1.064345e-01 -4.364293e-01 -1.058097e-02 
-1.430495e+01 9.272280e+00 -6.180954e+00 5.486354e+00 -1.885455e+00 3.377723e+00 3.311846e+00 -5.145636e+00 -9.773235e-01 -3.205244e-01 2.404947e+00 3.598812e+00 8.782389e-01 3.874634e-01 -1.481412e+00 4.867955e-01 -4.364463e-01 4.618948e-01 -1.443060e-01 -8.719143e-01 -1.135448e-01 3.846796e-01 2.635918e+00 -1.045137e-01 -8.944346e-01 -2.270153e-02 
-1.547921e+01 6.683914e+00 -6.451719e+00 4.015087e+00 -1.162848e+00 3.091703e+00 4.417653e+00 -4.196838e+00 -1.143115e+00 3.570946e+00 6.939983e-01 -1.678064e+00 8.565748e-01 6.967537e-01 -8.287128e-01 1.803669e+00 1.563890e-01 1.305117e+00 -1.622435e+00 4.428596e-01 -2.465267e-01 -6.076404e-01 -4.298677e-01 -1.675735e+00 -9.387770e-01 -2.073433e-02 
-1.347711e+01 5.709325e+00 -3.649443e+00 4.015715e+00 -2.213819e+00 1.233812e+00 6.057393e+00 -2.804348e+00 3.477872e+00 7.271304e+00 -1.241208e+00 -2.019212e+00 7.926248e-01 3.728970e+00 5.180069e-01 3.026391e+00 -1.042343e+00 -1.333810e-01 -4.544944e+00 -2.035333e+00 -1.722426e+00 -2.310546e+00 -1.763505e+00 -2.150716e+00 -2.005162e+00 -4.688145e-02 
-1.144753e+01 7.928123e+00 4.874644e-01 4.481604e+00 1.725868e+00 -5.416471e+00 7.440944e+00 -7.529074e+00 -5.280797e+00 -5.946649e+00 -4.117935e+00 9.735975e-01 7.977354e-01 6.556821e+00 -6.870149e-01 2.563756e+00 -4.343980e-01 -1.281548e+00 -6.052822e+00 -3.195648e+00 -3.233700e+00 -2.436165e+00 -2.378396e+00 -1.380490e+00 -1.224950e+00 -3.388657e-02 
2.324059e+00 1.124021e+01 5.481409e+00 4.138333e-02 -3.996717e+00 -1.509291e+01 -8.376467e+00 -1.209165e+01 -1.046121e+01 -4.379252e+00 -5.942668e+00 -7.752828e+00 6.732513e-01 6.867586e+00 -2.465377e+00 6.481172e-01 -7.028006e-01 -2.671462e+00 -6.190222e+00 -3.068745e+00 -3.154870e+00 -1.406516e+00 -1.725986e+00 -4.510904e-01 -1.026919e+00 1.244005e-02 
9.404311e+00 4.833970e-01 1.801634e+00 3.830263e+00 -6.679140e+00 -1.900904e+01 -4.343659e+00 -1.572169e+01 -6.354400e+00 -2.495757e+00 -3.857723e+00 -4.936005e+00 7.468287e-01 5.338785e+00 -4.258864e+00 -5.325575e-01 -8.493477e-01 -3.104416e+00 -3.484219e+00 -1.371279e+00 -3.067929e-01 1.655516e+00 1.083199e+00 7.258327e-02 -1.577412e-01 4.809601e-02 
1.043490e+01 -2.895197e+00 -1.065942e+00 8.273821e-01 -1.136863e+01 -2.292101e+01 -3.394029e+00 -1.448239e+01 -3.017909e+00 -3.084073e+00 -3.626766e+00 -4.199008e+00 8.802784e-01 1.722506e+00 -4.461712e+00 -8.050511e-01 -9.152379e-01 -1.774422e+00 -9.600931e-01 1.366271e+00 2.103162e+00 3.029106e+00 -7.111366e-02 4.640879e-02 4.306412e-01 7.175645e-02 
1.119097e+01 -6.298497e+00 1.098352e+00 -1.581340e-01 -1.011026e+01 -1.892352e+01 -1.906671e+00 -7.867667e+00 -7.248689e-01 -1.178246e+00 -4.912970e+00 -1.592019e+00 9.347019e-01 3.923763e-01 -2.224788e+00 6.287219e-01 -1.671337e+00 -5.326997e-01 7.455547e-01 1.113032e+00 3.804528e+00 2.740965e+00 -2.517844e-01 5.607446e-01 -5.470416e-01 4.932806e-02 
1.004326e+01 -7.677403e+00 1.807795e+00 -2.540608e+00 -1.115327e+01 -1.993614e+01 -2.763603e+00 -5.502847e+00 1.869552e+00 -5.393576e+00 -5.183001e+00 -7.271616e+00 9.380970e-01 2.303363e-01 -1.451556e+00 9.981390e-01 -1.229413e+00 3.381529e-01 1.090378e+00 1.696999e+00 3.352519e+00 2.224956e+00 1.291263e-01 1.007368e+00 -1.421334e-01 2.670125e-02 
1.156201e+01 -8.249443e+00 3.508376e+00 -2.842429e+00 -9.450317e+00 -1.677371e+01 9.062907e-01 -1.188819e+00 4.906696e+00 -2.599927e+00 -2.758825e-01 -6.134909e+00 9.645597e-01 1.341578e-01 -1.099482e+00 6.241318e-01 -8.977355e-01 -1.522720e-01 8.103153e-01 1.361210e+00 2.449220e+00 8.867679e-01 3.618468e-01 7.910506e-01 5.603962e-01 1.844732e-02 
1.140106e+01 -9.177505e+00 2.719742e+00 -3.977535e+00 -1.000783e+01 -1.854402e+01 3.684488e+00 -1.059218e+00 5.291089e+00 -1.727600e+00 -9.084705e-01 -2.638229e+00 9.988558e-01 -3.343280e-01 -7.575911e-01 9.713587e-01 -3.003726e-01 -9.065628e-02 1.579052e+00 1.017936e+00 2.250745e+00 -1.953456e-01 4.363448e-01 5.530976e-01 1.444122e+00 1.558054e-02 
1.118286e+01 -1.104586e+01 3.763038e+00 -3.928348e+00 -1.144434e+01 -1.556800e+01 1.675333e+00 2.156619e+00 1.998202e+00 -1.202000e+00 -3.094982e+00 -1.106731e+00 9.965591e-01 -1.259679e+00 -1.617434e-01 1.088435e+00 -1.791438e-01 -2.539456e-01 9.415224e-01 6.177012e-01 1.448264e+00 -7.030622e-01 -6.155697e-01 -1.224112e-01 6.294534e-01 7.190615e-03 
8.561194e+00 -1.006715e+01 6.537257e+00 -3.499511e+00 -1.060954e+01 -1.264374e+01 1.941555e+00 4.078161e+00 2.347071e+00 -3.910816e+00 -1.007963e+00 -2.565096e+00 1.000000e+00 -1.197127e+00 1.221329e+00 7.332805e-01 2.077807e-01 -2.283151e-01 9.199665e-01 1.130716e+00 5.938824e-01 1.841547e-01 -1.232257e+00 2.474073e-01 -5.921476e-01 -2.483377e-02 
6.683554e+00 -8.613337e+00 7.041791e+00 -3.977160e+00 -1.041919e+01 -1.501624e+01 4.866263e+00 3.483812e+00 2.863394e+00 -4.586168e+00 -8.381921e-01 -3.024209e+00 9.999407e-01 -2.974016e-01 2.174261e+00 -2.020385e-01 9.171898e-01 -1.141620e-01 4.585201e-01 2.036922e+00 -5.884897e-01 6.202028e-01 -1.947008e+00 3.373844e-01 -5.672507e-01 -6.551434e-02 
7.665079e+00 -4.287118e+00 4.746768e+00 -2.914225e+00 -1.166198e+01 -1.422007e+01 7.742604e+00 1.246598e+00 5.779266e+00 -6.196800e+00 -7.998289e-01 -4.640228e+00 8.729962e-01 3.378434e-01 2.149941e+00 -6.640534e-01 8.697727e-01 -7.379627e-02 -2.790300e-01 1.056635e+00 -1.183825e+00 -4.340711e-01 -1.379533e+00 1.208051e+00 2.063215e-02 -8.076263e-02 
1.014391e+01 -3.064569e+00 3.648090e+00 3.649577e-01 -1.148893e+01 -1.248723e+01 8.959419e+00 6.299525e-01 3.383118e+00 -9.794050e+00 -1.512128e+00 -2.905418e+00 7.324893e-01 2.005027e-01 1.328550e+00 -2.187610e-01 5.463690e-01 -4.202653e-01 -1.258572e+00 -4.699911e-01 4.994969e-02 -6.211286e-01 -3.596022e-01 2.543274e+00 2.574102e-01 -8.350118e-02 
8.520233e+00 -2.091832e+00 4.913840e+00 -1.321707e+00 -1.044365e+01 -1.530339e+01 5.178154e+00 -4.140348e-01 -8.314633e-02 -8.204542e+00 5.369258e+00 -2.521330e+00 7.299125e-01 -4.875273e-01 -2.738427e-01 1.351538e+00 2.842261e-01 -2.827052e-01 -1.874758e+00 -2.250538e+00 -4.961025e-01 -1.575757e+00 -2.873360e-01 2.939476e+00 3.795563e-01 -9.170832e-02 
7.258491e+00 -3.068229e+00 5.864450e+00 -2.041574e+00 -1.312968e+01 -2.076744e+01 3.798532e+00 4.563877e+00 2.688957e+00 -5.380308e+00 8.793634e+00 -2.796607e+00 6.539766e-01 -1.165201e+00 -1.120969e+00 2.345227e+00 3.227198e-01 3.186913e-01 -2.209901e+00 -2.326752e+00 -1.344269e+00 -1.687021e+00 -9.242638e-01 2.762766e+00 2.178137e-01 -6.017305e-02 
6.670153e+00 -5.654502e+00 1.039628e+01 -2.898282e-01 -1.225513e+01 -1.945375e+01 -9.296424e-01 -3.200877e+00 -1.752439e+00 -9.840351e+00 8.744667e+00 -2.796853e+00 4.537109e-01 -4.240103e-01 -3.656766e-01 1.600397e+00 1.685617e+00 8.051649e-01 9.342680e-01 -2.964608e+00 -9.857205e-01 -2.694508e+00 8.563441e-01 1.741606e+00 2.328201e+00 -1.403867e-01 
5.242946e+00 -6.888078e+00 1.263301e+01 1.462617e+00 -8.989733e+00 -2.146156e+01 3.795547e-01 -4.697970e+00 -4.217340e+00 -1.359746e+01 1.061400e+01 -1.678589e+00 5.697249e-01 -1.033185e+00 1.926845e+00 -1.726342e-01 1.533858e+00 2.206547e+00 4.230306e+00 -2.584584e+00 -7.971599e-02 -1.347313e+00 2.407474e+00 -1.494078e+00 2.299378e+00 -1.994144e-01 
7.407954e+00 -2.010291e+00 9.531549e+00 5.354281e+00 -8.487804e+00 -1.028499e+01 -7.935398e+00 -7.117136e-01 -1.010254e+01 1.857563e-01 1.316711e+01 8.560666e+00 7.010514e-02 -1.754111e+00 3.306837e+00 -2.178697e+00 2.212124e-01 2.729393e+00 6.178862e+00 -1.342580e+00 1.169502e+00 6.184978e-02 4.237368e+00 -1.569897e+00 1.644175e+00 -1.931025e-01 
1.723665e+00 4.743889e+00 5.433643e+00 2.805660e+00 -3.980611e+00 -4.200291e+00 -5.621508e+00 2.920715e+00 1.274402e-01 1.644007e+00 -8.879785e-01 3.021524e+00 -1.512927e-01 -2.166313e+00 2.649548e+00 -2.160977e+00 -1.311831e+00 2.139647e+00 6.865561e+00 4.810481e-02 8.931583e-01 1.509609e+00 3.814957e+00 -2.232317e+00 8.267998e-01 -1.663433e-01 
-3.407621e-01 5.063700e+00 3.102476e+00 1.447126e-01 -1.112723e+00 2.809922e+00 -4.642012e+00 -1.162708e+00 -3.615580e+00 3.725752e+00 6.646173e+00 3.073967e+00 -1.512927e-01 -2.504498e+00 5.372005e-01 -1.016254e+00 -1.125176e+00 1.773598e+00 3.811369e+00 2.099725e+00 3.643728e-01 1.521017e+00 6.264068e-01 -1.009513e+00 -2.590186e-01 -4.427956e-02 
-1.714261e+00 2.822668e+00 5.042662e+00 -2.491752e+00 -1.979037e+00 6.318795e+00 -1.026614e+00 -6.681323e-03 8.722830e-02 3.707320e+00 2.712881e+00 5.198760e+00 -1.512927e-01 -9.886376e-01 -8.323973e-01 -5.083333e-01 -4.699516e-01 8.209635e-01 1.322229e+00 1.351938e+00 1.088348e+00 8.746421e-01 -8.329610e-01 5.747515e-01 4.543457e-01 0.000000e+00 
-3.395570e+00 1.636323e+00 4.645771e+00 2.377106e+00 -6.206001e-01 3.512309e+00 2.657831e-01 2.573849e+00 -2.477347e+00 2.286134e+00 6.319113e+00 6.176955e+00 -1.512927e-01 1.409794e+00 -8.205940e-01 1.155802e+00 2.330113e+00 3.160983e-01 -2.107929e+00 -9.355356e-01 1.452616e+00 -1.431781e-01 -3.413644e+00 2.156693e-01 -1.835133e-01 1.579549e-02 
-1.692119e+00 2.295592e+00 2.120329e+00 -6.602951e-01 -1.218553e-01 2.059661e+00 -1.315713e+00 6.494178e+00 3.931534e+00 -1.800989e+00 2.149309e+00 3.741759e+00 -1.512927e-01 2.300779e+00 -1.755769e+00 2.610073e-01 2.456510e+00 1.036789e+00 -1.990389e+00 -2.754449e+00 -1.580532e+00 -1.788083e+00 -3.795146e+00 -8.593186e-01 -1.964234e+00 5.873907e-02 
6.697139e+00 1.224268e+00 1.034265e+01 1.087955e+01 -4.608232e-01 -5.600155e+00 -9.175140e+00 2.849943e+00 -6.253624e+00 -1.058831e+01 8.006306e+00 2.884902e+00 -7.231522e-02 1.429785e+00 -3.328200e+00 -1.821050e+00 8.133863e-01 2.659332e+00 3.495156e-01 -3.883242e-01 -1.243341e+00 1.059261e-01 -1.076229e+00 -2.072836e+00 -2.594484e+00 1.125580e-01 
4.743279e+00 -5.750151e+00 3.499257e+00 5.539576e+00 3.125021e+00 9.230795e-01 -1.007840e+01 -8.047391e+00 -6.965051e+00 -8.831188e+00 -2.427308e+00 -2.976383e+00 1.029139e-01 -1.031156e+00 -3.444481e+00 -2.909674e+00 -3.993584e-01 4.230829e+00 2.183436e-01 8.383359e-01 -4.404356e-01 6.194466e-01 3.003292e+00 -1.877494e+00 -1.643641e+00 1.582066e-01 
5.356560e-01 -1.098180e+01 -5.148943e+00 3.344102e+00 1.105262e+01 5.828177e+00 2.705504e+00 3.627926e+00 3.500576e+00 4.200859e-01 -1.756761e+00 -3.436394e+00 2.843941e-01 -3.655605e+00 -1.827608e+00 -3.327144e+00 -2.391352e+00 3.206767e+00 -4.249460e-01 1.990208e+00 8.182359e-01 3.252560e+00 5.711057e+00 -2.429065e+00 -1.243025e+00 1.841984e-01 
-3.767159e+00 -8.823776e+00 -4.682243e+00 1.110637e+00 1.527557e+01 -2.562787e+00 -3.064356e+00 3.903009e+00 2.151667e+00 7.711273e+00 -2.356629e+00 -1.315799e+00 4.613855e-01 -3.769110e+00 1.263917e+00 -8.593516e-01 -1.230425e+00 -1.521512e-01 -2.895752e+00 1.330933e+00 2.281126e+00 3.819487e+00 4.451960e+00 -5.043371e-01 9.368604e-01 1.728336e-01 
-7.325667e+00 -6.376960e+00 -2.202315e+00 1.137257e+00 9.497739e+00 -5.981952e+00 -2.731122e+00 9.659227e-01 5.450816e+00 9.695742e+00 -4.174360e+00 -4.160516e+00 6.694409e-01 -3.330865e+00 2.815187e+00 6.949169e-01 4.493624e-02 -3.098554e+00 -2.733959e+00 -1.710301e-01 -3.603543e-01 1.115296e+00 -3.261866e-02 -6.609275e-01 9.525584e-01 1.334568e-01 
-1.017161e+01 -1.732987e+00 -2.270815e+00 4.908748e-01 3.141706e+00 -7.650617e+00 -7.054205e-01 4.689238e+00 1.115726e+01 8.790783e+00 -3.740194e+00 2.069980e+00 7.745584e-01 -2.577833e+00 2.931513e+00 1.193424e-01 3.031246e-01 -3.844282e+00 -5.451543e-01 2.392783e+00 -5.328354e-01 -1.129810e-01 -2.671170e+00 -3.387253e-01 2.730554e-01 8.616547e-02 
-1.291644e+01 -4.512650e-01 -2.880073e+00 3.878664e+00 1.626784e+00 -5.297701e+00 6.708858e-01 1.433040e+00 4.574259e+00 -2.827623e-01 -4.369616e+00 -3.664920e-01 7.950916e-01 -1.705821e+00 2.770313e+00 1.256543e-01 1.251625e+00 -1.869566e+00 1.294546e+00 3.197525e+00 -1.071155e+00 -2.487267e+00 -3.111130e+00 7.102954e-01 7.927455e-01 4.030408e-02 
-1.386094e+01 2.870943e+00 -3.746653e+00 1.255556e+00 -1.036453e-02 -5.630684e+00 7.198555e+00 1.005273e+00 2.025041e+00 -6.553254e-01 -3.952628e+00 -1.847534e+00 8.293875e-01 -1.176893e+00 1.776244e+00 -7.968096e-02 7.513627e-01 -2.145791e-01 1.886701e+00 2.860520e+00 -1.302963e+00 -2.692411e+00 -1.066052e+00 4.908109e-01 4.480321e-02 2.226857e-02 
-1.401011e+01 5.172640e+00 -8.361249e-01 7.013040e+00 1.725945e+00 -5.191855e-01 9.304515e+00 -2.547871e+00 -2.419405e+00 -1.136855e+00 -5.166664e-01 1.761969e+00 8.435467e-01 -1.036568e+00 7.588325e-01 -3.026647e-01 -2.553819e-01 -1.528435e+00 -1.146268e+00 -2.304389e-01 -1.450636e+00 -1.169560e+00 -2.672014e-02 1.230902e+00 5.997292e-01 1.466467e-02 
-1.550924e+01 4.336281e+00 -3.691194e+00 2.680501e+00 2.019230e+00 -6.063714e-01 9.280363e+00 1.648780e-01 1.192041e+00 3.887567e+00 -3.212614e+00 1.229766e+00 8.616737e-01 -8.818390e-01 1.045062e-01 -3.050388e-01 3.023680e-01 -7.103757e-01 -1.701437e+00 -1.765450e+00 -1.179401e+00 -1.244908e+00 -1.373187e+00 -7.108536e-02 7.871645e-01 7.481015e-03 
-1.727513e+01 2.610229e+00 -4.421125e+00 1.889283e+00 -7.030188e+00 -1.354120e+01 -1.522213e+00 -5.399943e+00 -8.570408e-01 -2.687809e+00 1.414888e+00 1.093504e+00 8.522719e-01 -4.305719e-01 2.685919e-01 3.091535e-01 -7.620077e-02 -2.071598e-02 -8.603373e-01 1.632608e-01 6.052756e-01 -1.624546e+00 -2.382069e+00 -5.541609e-01 2.167693e-01 1.029217e-03 
-1.663762e+01 4.674680e+00 -3.479346e+00 5.329275e+00 8.158237e-01 -7.626863e+00 3.784667e+00 -3.465694e+00 -4.980681e+00 -6.745782e+00 -5.273832e+00 2.422521e+00 8.624300e-01 -1.188152e-01 -1.383275e-01 8.377402e-01 -4.440610e-02 4.042506e-01 1.667592e+00 2.749780e+00 1.922336e-01 -2.454798e+00 -1.549577e+00 1.677306e-01 -1.500617e-01 2.622968e-03 
-1.559878e+01 6.346400e+00 6.037188e-01 5.307649e+00 2.224069e+00 -1.310626e+00 1.286867e+01 2.293793e+00 -7.455776e+00 -7.730526e+00 -2.256862e+00 2.249438e+00 8.483146e-01 -3.055206e-01 -6.431952e-01 4.008663e-01 -1.022343e+00 7.300983e-01 2.811719e+00 3.959831e+00 1.820332e-01 -5.970888e-01 5.787953e-01 5.969784e-01 -1.452386e-01 1.422287e-02 
-1.694149e+01 1.776558e+00 -2.014915e+00 7.492871e-01 -5.866456e-01 1.616303e+00 1.583382e+01 -2.720822e+00 -7.782583e+00 -1.338960e+00 -5.380859e-01 -9.850901e-02 8.767672e-01 2.754944e-01 -7.983701e-01 4.361852e-01 -1.576763e+00 -7.856091e-01 9.054050e-01 1.055984e+00 -6.615131e-01 8.517342e-01 2.312786e+00 1.929424e+00 6.823806e-01 4.925430e-04 
-1.865080e+01 8.433140e-01 -3.149010e+00 -9.324385e-01 -2.678462e+00 -4.104185e+00 1.225236e+01 -4.862214e+00 -2.441534e+00 -2.497243e+00 2.031908e+00 1.627826e+00 9.162176e-01 1.818422e+00 -6.243987e-01 -7.923228e-01 -1.844126e+00 -2.869635e-01 -2.759012e-01 -1.069529e+00 -7.489223e-01 2.004905e+00 2.465875e+00 1.260062e+00 7.739166e-01 -1.167278e-02 
-1.373414e+01 3.434373e+00 5.779438e-01 5.655023e-01 -6.609565e-01 -1.703058e+00 9.372742e+00 -3.195256e+00 -3.229132e+00 2.201508e+00 2.228905e+00 6.145229e+00 8.309412e-01 2.121523e+00 7.368583e-01 3.602858e-01 -1.228481e+00 1.530248e+00 -8.720830e-01 -7.866529e-01 3.055815e-01 1.423624e+00 2.561793e-01 -1.329570e+00 9.369599e-01 -1.798875e-02 
-8.110347e+00 2.395499e+00 -4.654325e+00 -3.821090e+00 8.264068e-01 -1.030451e+00 1.075156e+01 -1.213601e+00 2.920254e-01 2.828614e+00 2.659950e+00 2.997152e+00 8.128637e-01 2.523816e+00 9.572239e-01 1.245200e+00 -1.065397e+00 2.134337e+00 -4.320068e-02 2.180092e-01 2.391504e+00 -1.432592e-01 -4.945908e-01 -2.283473e+00 -4.284152e-02 -3.914902e-02 
-1.160410e+01 4.684757e+00 5.391717e-01 -3.948791e+00 5.312158e+00 -4.280979e+00 1.265096e+01 -3.017221e+00 -2.031242e+00 -2.720992e+00 -7.499959e+00 3.901628e+00 8.385004e-01 2.113267e+00 -7.755134e-01 1.419493e+00 -5.150937e-01 1.873103e+00 -4.500405e-01 -6.903040e-01 2.214138e+00 -3.025461e-01 -9.223639e-01 -1.398510e+00 -1.079045e+00 -6.423090e-02 
-7.096736e+00 5.004241e+00 3.096374e+00 -4.002278e+00 5.006665e+00 -3.031228e+00 1.170330e+01 7.006290e+00 -3.756775e+00 -2.508947e+00 -4.521026e+00 2.535419e+00 7.166929e-01 2.277646e+00 -2.233541e+00 8.237402e-01 2.426264e-01 1.699943e+00 -4.856205e-03 -4.398027e+00 6.856163e-01 2.530376e-01 1.003541e+00 -8.488588e-02 -1.363950e+00 -1.012484e-01 
-3.674609e+00 -1.747565e+00 3.800061e+00 -1.919372e+00 6.614429e+00 -2.952872e+00 5.445353e+00 3.765486e+00 -2.717462e+00 2.584687e-01 -1.173156e+00 9.808728e-01 5.578721e-01 3.332322e+00 -3.458577e+00 -9.779326e-01 -4.319092e-01 2.469643e+00 2.555376e+00 -4.091374e+00 1.606698e+00 1.427053e+00 1.679632e+00 1.102231e+00 -1.853068e+00 -1.219520e-01 
-6.868639e-01 -5.556043e+00 -2.166068e+00 -3.622667e+00 8.674985e+00 -1.718785e+00 -7.635772e+00 -1.176874e+00 1.900324e+00 6.356589e+00 -9.278803e-01 -2.362223e+00 4.469358e-01 2.627898e+00 -3.093301e+00 -1.405436e+00 -8.454716e-01 2.666424e+00 2.508586e+00 -2.371999e+00 3.935739e-01 1.738474e+00 9.762162e-01 1.642470e-01 -5.052916e-01 -1.081466e-01 
1.852571e+00 -7.327986e+00 -1.719270e+00 -6.298142e+00 1.582621e+01 7.839678e+00 1.863625e+00 9.107849e+00 2.275473e+00 1.244401e+00 -3.785378e+00 -2.914893e+00 3.636189e-01 2.216272e+00 -1.614401e+00 -6.205637e-01 -1.615269e+00 8.060398e-01 1.908470e+00 -1.289829e-01 1.034755e+00 6.827129e-01 6.682785e-01 -1.113415e-01 8.830879e-02 -9.271993e-02 
3.279163e+00 -7.672052e+00 -1.171140e+00 -6.040251e+00 1.373289e+01 4.115425e+00 1.634167e+00 6.302978e+00 2.439128e+00 1.879168e+00 -2.393680e+00 1.956844e+00 2.730864e-01 1.836412e+00 -4.852171e-01 5.827774e-01 -1.962823e-01 -8.699522e-01 -3.938193e-02 -6.730206e-01 5.419611e-01 -1.853432e-01 -5.550507e-01 6.645964e-01 -9.182844e-02 -8.014072e-02 
5.423737e+00 -8.761568e+00 1.997781e-01 -8.786923e+00 8.115673e+00 3.672372e+00 1.654681e-01 5.199335e+00 4.267005e-01 5.838572e+00 -9.969643e-01 -7.371163e-01 1.811972e-01 1.172711e+00 -5.854025e-02 -7.014885e-02 7.075319e-01 -6.673337e-01 2.782248e-01 -2.326216e+00 4.518274e-01 -4.306813e-01 -5.918846e-01 7.471142e-01 -1.546551e+00 -6.278063e-02 
6.709614e+00 -7.265337e+00 -2.117052e-01 -3.359688e+00 8.180494e+00 1.679578e-01 -1.015180e+01 3.487189e+00 1.897994e+00 1.284250e+00 1.000895e+00 -3.910253e+00 1.374431e-01 5.588721e-01 1.920992e-01 -8.015491e-01 4.414644e-01 -7.304276e-01 2.139298e+00 -1.658621e+00 1.956444e+00 8.165194e-01 -5.767207e-01 7.688087e-01 -2.622021e+00 -5.654075e-02 
6.000899e+00 -7.824045e+00 -2.549731e+00 -4.100764e+00 1.526575e+01 1.120454e+01 -3.874471e+00 1.277488e+01 3.926331e-01 -1.417563e+00 -1.747095e+00 -7.714101e+00 1.175373e-01 1.746923e-01 5.975013e-01 -1.597374e+00 8.449768e-01 -5.984128e-01 1.705858e+00 -7.549859e-01 1.577057e+00 9.932536e-01 -1.314381e+00 -3.687577e-02 -7.087100e-01 -5.809681e-02 
5.784943e+00 -7.180317e+00 -3.804131e+00 -6.176009e+00 6.505720e+00 1.104583e+01 -4.638968e+00 1.229743e+01 6.538759e+00 2.623632e+00 1.825428e+00 -7.664771e+00 2.221256e-02 1.950103e-01 9.603950e-01 -9.702286e-01 1.238922e+00 -1.159405e+00 1.549613e+00 9.058483e-01 -8.701005e-02 7.439867e-01 4.348442e-02 -6.697541e-02 1.195757e+00 -5.640227e-02 
6.759534e+00 -5.816571e+00 -5.990880e+00 -3.153879e+00 5.960997e+00 6.762723e+00 -6.365876e+00 8.679503e+00 3.072587e+00 -1.403021e+00 -1.593610e+00 -2.403408e+00 -5.167162e-02 3.123749e-01 1.735255e+00 -1.896420e-01 1.790771e+00 -1.988176e+00 -1.080290e+00 -8.095072e-01 -4.193394e+00 -6.249102e-01 3.141599e-01 -6.451377e-01 1.804563e+00 -4.772738e-02 
7.305348e+00 -3.467099e+00 -3.342274e+00 2.361477e+00 7.035842e+00 1.013693e+01 -4.376853e+00 5.099827e+00 4.277951e+00 1.494402e+00 5.892751e-01 -5.868154e-01 -5.996382e-02 2.057863e-01 2.512099e+00 5.742582e-01 2.054141e+00 3.653711e-01 2.978291e-01 -1.305144e-01 -3.442823e+00 -1.174310e+00 4.566932e-02 -4.591096e-01 9.643846e-01 -2.729838e-02 
6.802571e+00 -1.004380e+00 -3.728869e+00 5.843465e-01 5.059803e+00 6.257537e+00 -8.053064e+00 -4.593289e+00 -1.601514e+00 7.178518e-01 -4.354707e+00 -2.230264e+00 -8.001137e-02 -4.132482e-01 2.139072e+00 7.636145e-01 4.063469e-01 -1.056347e-01 1.728626e+00 1.291702e+00 -1.793101e+00 -7.376317e-01 5.314728e-01 9.302988e-01 4.452198e-01 -2.256265e-02 
6.792356e+00 2.974080e+00 -2.063845e+00 2.225583e+00 8.783173e+00 1.278757e+01 -4.447946e+00 1.719705e+00 3.004258e+00 1.791542e+00 9.104290e-01 -2.929420e+00 -1.001095e-01 -4.342018e-01 1.872573e+00 5.180866e-01 -3.722209e-01 7.139385e-02 1.047414e+00 1.136748e+00 -2.142507e+00 -1.385054e+00 8.224026e-01 8.454849e-01 3.672915e-01 -2.141116e-02 
4.949789e+00 1.658199e+00 -2.812022e+00 -1.054198e+00 4.559158e+00 1.408053e+01 1.281793e-01 1.404059e+00 2.127457e-02 1.105773e+00 2.897307e+00 9.939935e-01 -1.444120e-01 -2.665214e-01 1.071722e+00 6.808146e-01 -1.286668e-01 -3.844247e-01 -9.687186e-04 1.070533e+00 -1.306545e+00 6.220034e-01 1.941321e+00 1.344012e+00 1.454535e+00 -1.772724e-02 
6.060730e+00 4.564479e+00 -1.210264e+00 1.319645e+00 7.643134e+00 1.146250e+01 -2.783733e+00 -8.611382e+00 -3.458715e+00 5.412454e+00 1.190693e+00 -3.624864e-01 -1.348193e-01 -3.347134e-01 -1.404381e-01 2.956459e-01 1.312632e-01 -1.048758e+00 -1.912055e+00 -2.182818e-01 -2.042434e+00 -5.708568e-01 1.454759e+00 2.127233e-01 1.254848e+00 -1.092471e-02 
5.835777e+00 3.559029e+00 -7.515869e-01 3.939814e-01 3.707699e+00 6.915228e+00 -3.532503e+00 -5.960471e+00 4.739990e+00 8.614002e+00 2.225224e+00 3.758947e+00 -1.512927e-01 -6.305054e-01 -3.756928e-01 8.969522e-02 -2.540201e-01 -6.718770e-01 -7.490627e-01 5.086998e-01 7.596374e-01 -5.769279e-02 9.950492e-01 1.725122e-01 -8.253236e-02 -3.023469e-03 
4.675795e+00 1.321474e+00 -1.615833e+00 2.157809e+00 3.965115e+00 6.809948e+00 -3.709013e+00 -4.810203e+00 -2.209384e+00 5.311220e+00 2.310087e+00 1.962343e+00 -1.512927e-01 -8.903295e-01 -8.369161e-01 -6.144641e-01 -1.580347e+00 -1.367053e+00 4.400345e-01 2.292379e+00 2.651049e+00 5.307334e-01 7.675737e-01 8.635569e-02 -7.338996e-02 -3.294683e-03 
2.489730e+00 1.401237e+00 -2.160762e+00 -2.743380e+00 3.038783e+00 1.266150e+01 3.134318e+00 3.301656e+00 -8.918548e-01 6.131636e+00 3.200171e+00 -5.810828e-01 -1.512927e-01 -2.943897e-01 -2.968017e-01 -4.922093e-01 -1.329222e+00 6.652518e-02 1.245201e+00 1.219660e+00 9.055986e-01 -1.389451e-01 -3.184868e-01 -1.314113e+00 -1.230874e+00 0.000000e+00 
3.282106e+00 1.458795e+00 -3.577997e+00 -5.013407e+00 1.142329e+00 1.078954e+01 5.344752e+00 1.280099e-02 2.010874e+00 1.049151e+01 1.134998e+00 1.440579e+00 -1.512927e-01 -3.984880e-02 5.886620e-01 3.060264e-01 -4.613145e-01 -3.906677e-02 6.085120e-01 3.219599e-01 -4.130397e-02 8.278545e-01 -4.187648e-01 -1.177900e+00 -1.150107e+00 0.000000e+00 
5.060673e+00 2.006360e+00 -2.231551e+00 -2.666523e+00 5.451717e+00 1.115144e+01 -1.961089e+00 -3.843979e+00 1.935135e+00 4.431426e+00 -3.757795e+00 -2.134542e+00 -1.512927e-01 2.271266e-01 8.465163e-01 5.966624e-01 1.429961e+00 6.276739e-01 -2.682090e-01 -1.209889e+00 -1.380947e+00 9.114070e-01 -1.862218e-01 -7.051758e-01 -2.402638e-01 0.000000e+00 
3.191079e+00 3.962223e+00 -5.030632e-02 -1.871918e-01 2.563313e+00 1.060754e+01 4.484894e-01 -1.443905e+00 5.163938e-01 4.067501e+00 -1.004305e-01 -3.011461e+00 -1.512927e-01 -1.007997e-01 3.833284e-01 5.929393e-01 1.321957e+00 1.894064e-01 -2.073944e-01 -1.530813e+00 -3.470005e-01 1.656337e+00 2.647375e-01 1.029385e+00 -1.178083e-01 0.000000e+00 
3.670877e+00 4.382104e+00 -9.412951e-01 1.993316e+00 5.466660e+00 1.141145e+01 -4.669955e-01 -2.874724e+00 4.412420e+00 8.412529e+00 2.920066e-01 4.436177e-01 -1.512927e-01 -2.414053e-01 1.188840e-01 2.622822e-01 5.236368e-01 -1.098593e+00 -6.412815e-01 -5.734914e-01 -6.522015e-01 -1.455361e-01 4.310425e-01 2.065160e+00 1.640136e+00 0.000000e+00 
3.473006e+00 2.187565e+00 -1.258429e+00 -7.335401e-01 2.081890e+00 9.622561e+00 -3.056358e+00 -2.206829e+00 9.053917e+00 9.824642e+00 4.257024e+00 -4.375427e-01 -1.512927e-01 2.465484e-01 -1.240595e-01 -7.652364e-02 2.076474e-01 -1.470850e+00 -1.074295e+00 -6.695757e-01 -1.294777e+00 -1.163263e+00 -1.069980e+00 4.163388e-01 9.678982e-01 0.000000e+00 
3.712683e+00 3.488109e+00 -3.160791e-01 2.248359e-01 1.994652e-01 8.437519e+00 -3.076122e+00 -6.723525e+00 -3.061307e+00 3.708067e+00 4.389277e+00 4.779180e+00 -1.512927e-01 -1.352532e-01 -8.068214e-02 6.224419e-01 7.537057e-02 -5.511960e-01 -1.205902e+00 -1.289379e+00 -5.331125e-01 -1.466781e+00 -1.597402e+00 -5.272454e-01 -5.159974e-01 0.000000e+00 
4.402918e+00 3.788923e+00 -7.455325e-01 1.735285e+00 -2.157337e+00 6.723029e+00 -1.594826e+00 -5.993390e+00 -1.563056e+00 1.069829e+00 -6.737185e-02 -3.397501e-01 -1.512927e-01 -4.028327e-01 1.959387e-01 6.197224e-01 5.193312e-01 1.183554e+00 3.522286e-01 4.595948e-01 1.051298e+00 -6.046002e-01 -4.146030e-01 -9.634077e-01 -1.036348e+00 0.000000e+00 
2.529655e+00 3.178015e+00 1.914466e+00 1.135756e+00 4.830294e+00 6.831708e+00 -7.644656e+00 -3.647007e+00 2.387003e+00 4.802924e+00 -1.820226e-01 -2.185266e+00 -1.512927e-01 -5.554021e-01 -6.042310e-02 2.844966e-01 -2.284940e-01 1.037937e+00 1.277748e+00 1.170357e+00 1.957352e+00 2.199660e+00 7.932731e-01 -8.875302e-01 -1.357300e+00 0.000000e+00 
2.050357e+00 3.322305e+00 7.249107e-01 1.407656e+00 5.684245e+00 1.218661e+01 1.525882e+00 1.511402e+00 3.306760e+00 7.204198e+00 1.725635e+00 -2.137063e+00 -1.512927e-01 -5.939331e-01 1.346562e-01 6.173415e-01 -5.186423e-01 4.844746e-01 1.158610e+00 1.008324e+00 1.373645e+00 1.192065e+00 1.605355e-01 -6.187304e-01 -2.329231e-01 0.000000e+00 
2.111953e+00 3.419302e+00 3.711824e-01 -7.538196e-01 1.468358e+00 1.209447e+01 1.215312e+00 -6.891580e-01 5.502084e+00 4.607248e+00 -9.448774e-01 -1.108663e+00 -1.512927e-01 -3.835965e-01 2.342146e-01 5.335010e-01 -5.438757e-01 -6.897148e-01 -3.357187e-01 2.150984e-02 -1.561082e-01 -9.619659e-01 -1.339524e+00 -5.460157e-02 2.375059e-01 0.000000e+00 
1.642103e+00 4.341560e+00 3.112817e+00 8.686125e-02 1.946003e+00 9.884697e+00 -9.831898e-01 -6.040883e-01 2.839727e+00 1.970345e+00 -2.779597e+00 -2.042667e+00 -1.512927e-01 -4.656202e-01 -6.972845e-02 5.237223e-01 -3.587540e-01 -1.136312e+00 -1.844108e+00 -1.314327e+00 -1.614238e-01 -1.629840e+00 -4.769548e-01 1.479941e+00 7.305695e-01 0.000000e+00 
8.157988e-01 3.839460e+00 3.388018e+00 -9.232253e-01 3.250840e+00 6.304070e+00 -6.282570e+00 -3.369802e+00 -2.189310e+00 7.222308e-01 1.797585e+00 -1.044934e+00 -1.512927e-01 -2.638025e-01 -3.093108e-01 1.958261e-01 -4.889395e-01 -1.421982e+00 -2.228237e+00 -5.169971e-01 4.654565e-01 -2.112554e+00 -9.204419e-01 9.241664e-01 -1.824042e-01 0.000000e+00 
3.703327e-01 2.763584e+00 1.835104e+00 -3.014112e-01 -8.885556e-01 5.861267e+00 -1.296811e+00 2.044605e+00 -9.967449e-01 6.761933e+00 7.754106e+00 1.483920e+00 -1.512927e-01 2.532329e-01 3.777228e-02 -3.458404e-01 -4.593862e-01 -1.425763e+00 -6.276247e-01 8.926541e-01 1.917024e-01 -1.193473e+00 -2.049046e-01 1.055069e+00 7.447752e-01 0.000000e+00 
1.428825e+00 2.661736e+00 1.989169e+00 -3.004381e+00 -4.224272e+00 2.965001e+00 -1.212863e+00 3.137780e-01 -3.142452e+00 -2.390756e+00 -1.590897e+00 -3.783978e+00 -1.512927e-01 5.803332e-01 4.915346e-01 -2.362023e-01 -1.360613e-01 -9.948888e-01 6.778919e-01 1.669763e+00 2.329004e-02 -2.577828e-01 -6.994488e-02 1.220686e-01 9.758140e-01 0.000000e+00 
2.601754e+00 5.119284e+00 2.083039e+00 -1.169492e+00 -1.445254e+00 8.416109e+00 9.452269e-01 -1.487367e+00 -2.651064e+00 2.502315e+00 4.189988e+00 3.050731e+00 -1.512927e-01 5.635772e-01 7.168947e-01 5.897398e-02 9.872889e-03 1.665621e-01 1.056079e+00 6.642166e-01 -8.865088e-01 -2.817250e-01 -3.626164e-01 -1.347352e-01 9.968330e-01 0.000000e+00 
