-9.256761e+00 5.937096e+00 1.728827e+00 -2.787185e+00 8.334489e-01 -9.876561e-01 -2.448522e+00 5.229208e+00 4.739896e+00 5.221297e-01 5.833333e+00 8.588870e+00 -1.512927e-01 2.222393e-01 -1.749521e-01 3.378612e-01 -5.098250e-02 2.844233e-01 1.764851e+00 -6.018173e-01 -7.050959e-01 -8.753198e-01 -2.236076e-01 7.561454e-01 -1.995554e+00 0.000000e+00 
-8.684876e+00 4.571589e+00 7.959673e-01 -2.380898e+00 1.574100e+00 3.211217e+00 -5.219614e+00 9.198060e-01 1.044639e+00 -3.194130e+00 7.139389e+00 3.664011e+00 -1.512927e-01 4.226557e-01 2.396727e-02 5.125335e-01 -7.381058e-03 -8.443549e-02 2.223413e+00 1.346171e+00 9.132873e-01 -1.213282e-01 -3.614152e-01 4.352315e-01 -4.822828e-01 0.000000e+00 
-8.431506e+00 5.745088e+00 3.884563e+00 -3.245240e+00 1.885240e+00 5.737160e+00 -4.072063e+00 3.858430e+00 2.210925e+00 1.262222e+00 8.961033e+00 1.073528e+00 -1.512927e-01 3.308771e-01 1.334763e-01 1.789812e-01 -2.242010e-01 -3.478156e-01 1.410683e+00 2.011519e+00 1.540732e+00 3.175207e-01 1.867540e-01 5.804785e-01 -3.397036e-03 0.000000e+00 
-7.556109e+00 6.152936e+00 3.213627e+00 -2.595062e+00 -1.146240e-01 6.767000e+00 5.094103e+00 1.048104e+01 5.397740e+00 -1.654992e+00 6.445641e+00 9.935126e+00 -1.512927e-01 2.490322e-01 3.431590e-01 1.074871e-01 -2.579734e-01 -2.544919e-01 -1.528684e-01 1.916065e+00 1.551540e+00 1.102664e+00 1.454249e+00 9.348019e-01 -1.205516e-02 0.000000e+00 
-8.166759e+00 5.813804e+00 1.414903e+00 -3.801108e+00 -6.126690e-02 4.287868e+00 2.452213e+00 8.152254e+00 4.150949e+00 6.863307e-01 9.082600e+00 5.436327e+00 -1.512927e-01 -1.684532e-01 1.569939e-03 -5.706024e-01 -3.151520e-01 -9.594289e-01 -1.156609e+00 1.091045e-01 -3.995481e-01 1.341073e+00 7.375461e-01 6.627618e-01 -3.927621e-01 0.000000e+00 
-7.572089e+00 6.253026e+00 2.568233e+00 -3.392832e+00 1.274894e+00 3.171521e+00 1.098575e+00 6.530593e+00 5.587947e+00 4.365061e+00 1.175261e+01 1.422336e+00 -1.512927e-01 -4.107290e-01 -2.509418e-01 -3.700441e-01 1.289255e-01 -4.246098e-01 -2.403916e-01 -8.548296e-01 -4.180682e-01 1.088633e+00 1.031512e+00 -1.857736e-01 -1.445086e+00 0.000000e+00 
-9.265782e+00 5.702892e+00 1.354249e+00 -4.422115e+00 -3.606664e+00 1.751853e+00 -1.528777e+00 3.835910e+00 8.821188e+00 1.939926e+00 9.621355e+00 3.366113e+00 -1.512927e-01 -3.229021e-01 -4.588397e-01 1.732436e-01 7.132734e-01 -4.508480e-02 5.640458e-01 -6.043771e-01 -2.311234e-01 8.129957e-01 1.124016e+00 -3.130642e-01 -3.579932e-01 0.000000e+00 
-9.060243e+00 4.953683e+00 1.393734e+00 -1.639931e+00 -4.649749e-01 6.833050e+00 2.810450e+00 1.054887e+01 8.505787e+00 2.875771e+00 5.247396e+00 3.744802e+00 -1.512927e-01 -4.469318e-02 -1.868696e-01 -1.176187e-01 2.645230e-01 4.969090e-01 2.961636e-01 1.406929e-01 -1.925001e-01 -5.940160e-01 7.929479e-01 -6.685137e-01 9.991440e-01 0.000000e+00 
-9.037192e+00 4.169277e+00 2.868370e+00 -1.111191e+00 5.832436e-01 5.277333e+00 -1.425610e+00 4.987501e+00 6.757008e+00 7.051055e+00 1.076989e+01 2.485128e+00 -1.512927e-01 4.667833e-01 2.152547e-01 3.004646e-01 2.647795e-01 1.517446e+00 -1.121228e-02 -4.120747e-01 -2.247092e-01 -9.228643e-01 8.216926e-01 -2.693592e-01 3.790125e-01 0.000000e+00 
-7.909850e+00 6.085486e+00 1.223078e+00 -3.725679e+00 1.664486e+00 2.889599e+00 1.750456e+00 4.992297e+00 3.649957e+00 5.774236e+00 7.835780e+00 6.858549e+00 -1.512927e-01 1.802958e-01 3.240942e-01 -2.019799e-02 -4.371058e-01 8.605416e-01 -8.635015e-01 -8.457276e-01 -3.910892e-01 -8.555859e-01 -5.003766e-01 5.707383e-01 2.620414e-01 0.000000e+00 
-7.507062e+00 6.213264e+00 2.941900e+00 -2.055344e+00 2.915838e+00 3.667518e+00 -3.059154e+00 5.490648e+00 6.634781e+00 4.599156e+00 6.980367e+00 3.704302e+00 -1.512927e-01 -7.533741e-02 4.206983e-01 2.912129e-02 -5.710605e-01 2.517576e-01 3.614816e-01 -2.366342e-01 4.537858e-01 -6.930231e-01 -1.463738e+00 -3.430274e-01 -6.867808e-02 0.000000e+00 
-8.923829e+00 5.552160e+00 1.255980e+00 -3.353384e+00 2.671436e+00 3.320451e+00 -6.014167e-01 8.341846e+00 4.288970e+00 1.599837e+00 9.995848e+00 4.445421e+00 -1.512927e-01 -5.499738e-01 3.610822e-01 3.134028e-01 -1.146058e+00 -2.580695e-01 1.036695e+00 6.376423e-01 6.775128e-01 -5.906692e-01 -1.664401e+00 -2.904278e-01 -3.324416e-01 0.000000e+00 
-8.906890e+00 6.539431e+00 2.997526e+00 -4.152642e+00 1.338556e+00 6.869315e+00 -1.432845e+00 5.581655e+00 2.972386e+00 1.819566e+00 7.974717e+00 3.348301e+00 -1.512927e-01 -6.451061e-01 4.184029e-02 1.531499e-01 -9.937116e-01 -4.806860e-01 -2.035945e-01 1.159059e+00 9.561837e-01 -2.403390e-01 -7.798475e-01 -9.954977e-03 1.002665e+00 0.000000e+00 
-9.959805e+00 7.727813e+00 2.762279e+00 -8.407319e+00 1.162779e+00 6.472173e+00 4.125513e+00 8.334358e+00 2.527809e+00 -1.157975e+00 5.886466e+00 5.374341e+00 -1.512927e-01 -2.424417e-01 7.783961e-02 3.726800e-01 -5.145305e-01 -1.506642e+00 -6.816288e-01 1.176352e+00 1.473790e+00 1.135219e+00 1.408972e-01 -3.727036e-01 1.213629e+00 0.000000e+00 
-1.021460e+01 5.334639e+00 2.954499e+00 -4.496934e+00 1.266737e+00 1.073684e+00 3.726770e-01 1.027531e+01 6.313667e+00 2.078825e+00 8.985283e+00 8.253165e+00 -1.512927e-01 -7.783451e-02 -4.900797e-01 -1.855680e-01 6.378229e-02 -4.968097e-01 -3.526999e-01 6.392857e-01 -2.054637e-01 1.714900e+00 9.989311e-01 2.236351e-01 1.536865e+00 0.000000e+00 
-9.482181e+00 6.543755e+00 3.140893e+00 -5.753890e+00 -4.825861e+00 2.810122e+00 4.377584e+00 1.336397e+01 8.294423e+00 2.174694e+00 7.627047e+00 8.061135e+00 -1.512927e-01 1.620049e-01 -5.408657e-01 -3.883620e-01 9.513461e-01 -5.666451e-01 -4.398966e-03 -7.362840e-01 -1.973879e+00 7.171985e-01 8.417390e-01 8.482547e-01 4.640049e-01 0.000000e+00 
-9.534875e+00 4.681062e+00 1.880379e+00 -5.160445e+00 1.848828e+00 6.936841e+00 1.637549e+00 2.039532e+00 8.663580e+00 5.147888e+00 8.222602e+00 9.689228e+00 -1.512927e-01 4.850256e-01 -8.154440e-03 -4.894826e-01 1.989436e-01 -5.644239e-01 8.121638e-01 -5.168141e-01 -1.338279e+00 3.212514e-01 1.711272e-01 7.262747e-01 -9.909037e-01 0.000000e+00 
-9.489646e+00 5.350273e+00 1.357529e+00 -3.318834e+00 -1.961493e+00 3.518599e+00 -1.883426e-01 2.582850e+00 4.938845e+00 1.516188e+00 1.050908e+01 6.976335e+00 -1.512927e-01 1.564126e-01 -2.642760e-01 -2.257555e-01 3.623717e-01 5.070200e-02 -4.452529e-01 -6.820766e-01 -9.258657e-01 -1.761613e-02 1.076094e-01 3.845614e-01 -8.225431e-01 0.000000e+00 
-7.785744e+00 5.890608e+00 1.398768e+00 -4.719744e+00 -2.987567e+00 4.780264e+00 7.156944e-02 8.974473e+00 9.597713e+00 3.263714e+00 1.117564e+01 3.841047e+00 -1.512927e-01 2.169182e-01 -1.602221e+00 -1.385484e+00 6.614905e-01 5.074774e-01 1.454977e+00 -2.064254e+00 -9.969090e-01 -1.139473e+00 -6.175783e-02 -1.824848e+00 -5.478199e-01 4.476770e-02 
-9.574683e+00 4.617602e+00 2.252921e+00 -4.162382e+00 -2.154153e+00 1.662146e+00 1.750191e+00 5.267168e+00 7.739275e+00 3.654828e+00 8.073334e+00 6.872510e+00 -1.512927e-01 1.960439e-01 -2.658656e+00 -2.189928e+00 7.329338e-01 2.613683e+00 3.525292e+00 -3.974535e+00 -3.011042e+00 -2.414190e+00 1.216535e+00 -3.775277e+00 7.486336e-01 1.136400e-01 
-8.407765e+00 -2.963706e+00 -5.494738e+00 -1.431218e+00 4.482545e+00 1.513995e+01 -9.652987e+00 -4.287172e+00 1.565999e+00 3.769779e+00 3.162355e-01 7.002041e+00 7.254583e-02 -6.634722e-02 -3.104001e+00 -1.764432e+00 -1.610647e-01 3.229808e+00 2.465677e+00 -3.864797e+00 -4.192787e+00 -1.342903e+00 1.426537e+00 -2.489408e+00 -1.033818e-01 9.416376e-02 
-8.198416e+00 -3.515851e+00 -6.145357e+00 -1.298428e+00 7.371864e+00 1.596522e+01 -1.519874e+01 -5.841539e+00 -3.116250e+00 7.345829e+00 -2.937605e+00 9.139006e+00 3.049878e-01 3.281128e-01 -2.845541e+00 -1.773257e+00 -2.473469e-01 1.486664e+00 1.743088e+00 -1.319364e+00 -2.697461e+00 1.142032e+00 2.193559e+00 9.077398e-01 -1.538618e+00 3.171010e-02 
-8.805614e+00 -5.562672e+00 -3.224253e+00 -6.957045e+00 8.398464e+00 9.957112e+00 -1.077795e+01 -6.435109e+00 8.310964e+00 8.550899e+00 4.234072e+00 2.190891e+00 9.138590e-02 4.474316e-02 8.331941e-01 1.077776e+00 -3.757054e-01 -9.222596e-01 -1.807545e+00 2.080817e+00 1.229395e+00 2.735345e+00 8.685926e-01 3.786762e+00 -2.214637e+00 -7.548270e-02 
-7.735195e+00 -8.310621e+00 -7.748609e+00 -2.636203e+00 3.321206e+00 1.296901e+01 -4.284147e+00 -7.146166e+00 1.007695e+01 1.223206e+01 1.065311e+01 1.584997e+00 -2.162218e-03 -5.023203e-01 5.560082e-01 2.978921e+00 -7.823437e-01 -1.967068e+00 -1.386099e+00 4.317225e+00 9.929703e-01 -2.436655e-01 1.238363e+00 3.058431e+00 -1.912690e+00 -7.895349e-02 
-8.415660e+00 3.599651e+00 6.957688e-01 -2.640857e+00 1.896577e+00 7.600330e+00 -4.706200e+00 2.512118e+00 8.646124e+00 5.669624e+00 1.245468e+01 -2.941384e-01 -1.512927e-01 -1.054614e+00 9.967689e-02 3.447886e+00 -4.107026e-01 -1.383135e+00 1.836537e-01 3.395198e+00 3.380556e-02 -4.478160e+00 2.621471e+00 8.705586e-01 -3.590395e-01 2.123141e-02 
-1.090499e+01 -5.316971e+00 6.789236e+00 -7.368240e+00 7.874691e-01 1.021311e+01 3.351512e+00 -5.350301e+00 -4.502158e+00 1.497828e+01 8.244244e+00 8.180695e-01 3.155965e-02 -9.744243e-02 1.540891e-01 2.379241e+00 1.137723e-01 -6.722327e-01 -5.340475e-01 1.572235e+00 -2.261362e-01 -2.666890e+00 2.393465e-02 -1.075233e+00 -8.930675e-02 1.399962e-02 
-1.249378e+01 -6.561113e+00 6.746253e+00 -6.644540e+00 2.749660e+00 1.225333e+01 2.380207e+00 -7.164014e+00 -6.790283e+00 2.028515e+01 9.791300e+00 7.791566e-01 1.806820e-01 1.624086e+00 -2.089308e+00 2.828947e-01 1.293387e+00 -8.419102e-01 7.683504e-01 1.577718e-01 -9.172112e-01 5.640982e-01 -8.404242e-01 -1.304639e+00 -2.282428e-02 3.580031e-02 
-6.183345e+00 -2.459795e+00 1.122353e+00 -6.550050e-02 -4.664993e-01 7.972270e+00 3.382432e-02 -3.438781e+00 4.460708e+00 5.043976e+00 6.608644e+00 6.018158e-01 -9.815145e-02 1.741989e+00 1.738482e+00 -7.908708e-01 2.187908e+00 2.919333e-01 6.923086e-01 -2.508885e+00 1.437890e+00 3.401868e+00 -3.740634e+00 -1.242906e-01 6.909256e-02 -2.366453e-02 
-2.656056e+00 -8.275478e+00 4.943684e+00 1.747065e-01 -1.685991e+00 1.256250e+01 -2.258497e+00 -3.029697e+00 6.985183e+00 6.434655e+00 6.749290e+00 -3.001330e-01 9.256440e-02 1.118428e+00 3.116474e+00 -4.216352e-01 1.328689e+00 7.001089e-01 6.639983e-01 -7.524378e-01 3.402231e+00 2.623420e+00 -5.501439e+00 -8.168964e-01 1.700033e-01 -5.747359e-02 
-7.113913e+00 4.232623e+00 3.736166e+00 1.616750e-01 4.464961e+00 1.352007e+01 -6.873559e+00 -2.280078e-01 5.619448e+00 3.200353e+00 9.143795e+00 1.703177e+00 -4.270422e-02 -3.018465e-01 3.341121e+00 5.752827e-01 5.073137e-01 9.179169e-01 -1.657251e+00 -3.962169e-01 2.045707e+00 5.487084e-04 -1.886202e+00 -1.770510e-01 7.189736e-01 -3.332564e-02 
-6.436360e+00 5.675049e+00 3.331170e+00 -1.146827e-01 3.784474e+00 1.279942e+01 2.071710e+00 8.241755e+00 5.747447e+00 -6.300239e+00 4.439242e+00 1.078492e+00 -1.344095e-01 -1.695148e-01 3.599946e+00 -1.499389e-01 5.955729e-01 6.370614e-01 -3.425249e+00 9.821038e-02 1.627360e+00 -8.561654e-01 -1.886238e+00 -6.667897e-01 6.464668e-02 -5.963026e-02 
-5.802425e+00 7.270546e+00 4.805024e+00 2.615763e+00 1.387853e+00 -4.324470e-01 -4.112363e+00 1.154024e+00 5.082319e+00 1.980415e+00 6.878413e+00 3.507371e+00 -1.512927e-01 7.488952e-01 1.001108e-01 -5.300466e-01 1.052290e+00 -5.842663e-01 -3.467363e+00 -1.026206e+00 -2.874227e-01 -5.661148e-01 -1.208506e+00 -1.770203e+00 -8.453058e-01 -1.584365e-02 
-4.159374e+00 8.205290e+00 3.659560e+00 1.925527e+00 3.037870e+00 2.412514e+00 -3.148043e+00 4.416086e+00 2.972920e+00 -2.386565e+00 4.548033e+00 -8.789966e-01 -1.512927e-01 6.783942e-01 -9.283465e-01 -4.338597e-01 1.440552e+00 1.757061e-02 -2.156005e+00 -7.917296e-01 -1.825315e+00 -1.217018e+00 3.592568e-02 -1.337845e+00 -2.107379e+00 9.691954e-03 
-4.507930e+00 3.468057e+00 9.217384e-01 4.403022e+00 1.916931e+00 1.376709e+00 -9.394715e+00 2.477133e-01 4.176138e+00 -4.799014e+00 2.383842e-01 -1.544608e+00 -1.134809e-01 6.998217e-01 -1.996621e+00 -1.037652e+00 5.888723e-01 4.389621e-01 -1.525967e+00 5.145432e-01 1.713232e-01 -2.290720e+00 -1.255649e+00 -2.121249e+00 -1.900987e+00 1.494353e-02 
-3.691637e+00 2.934562e+00 3.103514e+00 6.194446e+00 3.607788e+00 1.114820e+00 7.542374e-01 -4.316659e-01 1.154456e-01 -2.730897e+00 1.070032e+00 -6.932413e+00 -1.048557e-01 7.298167e-01 -2.160986e+00 -8.161497e-01 8.595572e-01 -9.631029e-01 -2.596505e+00 1.186553e+00 -5.881919e-01 -2.975095e+00 -5.492007e-01 -2.330126e+00 -1.869117e+00 2.697098e-02 
-2.537186e+00 -7.719541e-02 -1.052122e-01 3.425664e+00 3.297704e+00 -7.413437e+00 -3.490788e+00 4.434516e+00 -4.942543e+00 -4.125662e+00 -1.988833e+00 -2.970857e+00 -9.979355e-02 2.037821e+00 2.504809e-01 7.021400e-01 1.315472e+00 -9.454309e-01 -2.446100e+00 2.055375e+00 -1.047911e+00 -4.139909e+00 -5.371814e-02 -9.418926e-01 -1.447018e+00 5.111306e-02 
-1.495663e+00 -8.270144e-01 9.228706e-02 6.711992e+00 -2.468030e+00 -6.174937e+00 -1.672395e-01 -6.182747e-01 -7.343216e+00 -5.469244e+00 -5.988986e+00 -9.511457e+00 -2.328146e-02 4.010979e+00 1.913233e+00 5.151671e-01 5.705689e-01 -1.782284e+00 -3.075105e+00 -5.837710e-01 -2.619303e+00 -2.264981e+00 2.330060e-01 -3.245686e-01 -2.910608e-01 1.268019e-01 
4.583190e+00 6.601250e+00 5.938052e+00 1.072161e+01 2.276859e-01 -7.208911e+00 1.342898e+00 -4.898539e+00 -1.279408e+01 -3.698431e+00 -9.415698e-01 -7.490174e+00 1.012973e-01 4.525735e+00 1.789937e+00 1.379326e-01 -9.515419e-02 -1.516641e+00 -1.599531e+00 -4.902410e-03 -3.404853e+00 -2.343088e-01 4.934670e-01 1.759380e-01 3.570598e-01 1.640190e-01 
1.280307e+01 9.161503e+00 2.657717e+00 5.399319e+00 -3.768620e+00 -1.436297e+01 -4.581460e+00 -8.861657e+00 -7.283690e+00 -1.779483e+00 -1.076443e+00 -6.128058e+00 4.286086e-01 3.508614e+00 -2.087581e-01 -8.688024e-01 -1.069571e+00 -4.494508e-01 -2.119339e+00 9.803772e-05 -2.112710e+00 9.722419e-01 6.117030e-01 4.818757e-01 1.190641e+00 1.518794e-01 
1.294213e+01 3.878232e+00 -6.982646e-01 3.606230e+00 -3.635205e+00 -1.131708e+01 -1.308189e+00 -8.468060e+00 -6.143850e+00 -3.503208e+00 -3.565415e+00 -2.877258e+00 4.943565e-01 1.307163e+00 -2.624120e+00 -1.751095e+00 -9.114243e-01 -7.056082e-01 -1.912160e+00 7.313634e-01 -1.287096e+00 1.084994e+00 8.033513e-01 -8.922436e-01 2.948883e-01 1.071328e-01 
1.186794e+01 -5.092962e-01 -9.335673e-01 4.921823e+00 -2.783839e+00 -1.471755e+01 1.158794e+00 -9.397063e+00 -5.807121e+00 -2.508340e+00 -2.267685e+00 -5.864709e+00 5.395858e-01 -1.276067e-01 -2.868608e+00 -1.073821e+00 7.142530e-01 2.986847e-01 -1.482941e+00 2.024537e+00 -6.086588e-01 -3.669526e-01 1.017424e+00 -7.380821e-01 -4.384375e-01 4.279863e-02 
1.158657e+01 -1.683949e+00 -1.021780e+00 6.403234e+00 -3.792746e+00 -1.659242e+01 2.129588e+00 -1.106631e+01 -8.107391e+00 6.827551e-01 -4.807167e+00 -6.147408e+00 5.814725e-01 2.594585e-02 -1.220589e+00 -6.670648e-01 1.105827e+00 5.393583e-01 -2.365541e+00 1.476908e+00 -1.015152e+00 2.883663e-02 1.197798e+00 -2.839909e-01 -8.881525e-01 2.960113e-02 
1.284281e+01 -2.400447e+00 -2.549629e+00 7.572082e+00 -2.196426e+00 -1.914000e+01 3.822334e+00 -1.060582e+01 -8.136683e+00 1.214658e+00 -4.145977e+00 -6.685171e+00 5.990437e-01 4.327076e-01 -6.055329e-01 -3.667476e-01 7.203674e-01 3.836579e-01 -1.195542e+00 2.583092e-01 -3.706473e-01 6.127666e-01 7.798768e-01 -2.870969e-01 1.068678e-02 2.075804e-02 
1.258442e+01 -1.279137e+00 -3.225558e+00 7.810234e+00 -1.232120e+00 -2.093356e+01 4.744579e+00 -1.293944e+01 -4.834886e+00 6.242839e-01 -4.046223e+00 -6.907789e+00 6.126331e-01 -4.543414e-02 -1.180352e+00 -9.431362e-02 -1.802810e+00 9.070656e-01 1.544247e+00 -2.449800e+00 2.177247e+00 1.308965e+00 -1.221796e+00 3.344330e-01 7.432975e-01 3.067901e-02 
1.353255e+01 -3.739367e+00 -1.665416e+00 7.820160e+00 -2.145863e+00 -1.852469e+01 1.142845e+00 -1.031374e+01 -4.379541e+00 1.420279e+00 -4.083642e+00 -5.431084e+00 6.277957e-01 -7.404245e-01 -1.832320e+00 -9.951123e-01 -2.576663e+00 -8.660579e-03 3.178219e+00 -2.617515e+00 4.028251e+00 6.842770e-01 -1.932587e+00 1.700561e-01 1.070655e+00 6.387330e-02 
1.101453e+01 -6.916252e+00 -1.935455e+00 -2.734857e+00 7.173007e-01 -9.178839e+00 -8.779667e+00 -3.261232e-01 -3.441138e+00 -5.529034e+00 -3.166170e+00 -3.057964e+00 7.204916e-01 -9.429561e-01 -1.802304e+00 -2.577140e+00 -1.954379e+00 -5.313882e-01 2.529044e+00 -5.767124e-02 3.514315e+00 -5.679742e-01 -1.619699e+00 -6.833004e-01 7.330881e-01 7.913194e-02 
9.925635e+00 -8.743490e+00 -8.170242e+00 -3.869104e-02 -3.214439e+00 -9.126265e+00 -2.503119e+00 3.228772e+00 -5.412171e+00 -5.371617e+00 -3.735724e+00 -3.256807e+00 8.644810e-01 -9.512076e-01 -1.170606e+00 -3.166956e+00 -8.997638e-01 -4.514492e-01 9.384483e-01 2.694184e+00 1.616542e+00 -9.133892e-01 -8.147744e-01 -1.381439e+00 3.335208e-01 7.444428e-02 
9.673100e+00 -7.788597e+00 -1.285884e+01 1.967764e+00 -3.354772e+00 -1.298755e+01 6.279205e+00 -2.139121e+00 -7.158442e+00 -4.078266e+00 -7.636684e+00 -4.329487e+00 8.899502e-01 -5.126024e-01 -4.503196e-01 -2.632523e+00 5.699531e-01 -1.377654e-01 -8.724380e-01 3.872567e+00 -4.820378e-01 -1.177593e+00 9.243730e-01 -1.886159e+00 -1.355914e-01 4.888638e-02 
9.447230e+00 -9.156221e+00 -1.203850e+01 9.700308e-01 -2.367072e+00 -1.192809e+01 7.084327e+00 -1.324531e+00 -7.087835e+00 -3.378977e+00 -8.755581e+00 -3.127718e+00 9.152878e-01 -5.724835e-01 -3.049964e-01 -7.880366e-01 -6.856447e-01 1.260600e+00 -8.173572e-01 2.110109e+00 -1.136246e+00 -1.993805e-01 6.265228e-01 -1.329612e+00 -1.260454e-01 2.330957e-02 
8.690720e+00 -8.961483e+00 -1.316394e+01 -3.894529e-01 -3.952098e-01 -1.214012e+01 5.789447e+00 -4.596605e-01 -8.491270e+00 -1.903489e+00 -1.008703e+01 -3.800465e+00 9.395201e-01 -4.999630e-01 -4.874895e-01 3.855228e-01 -1.085246e+00 1.445436e+00 5.316172e-01 -1.452074e-01 6.242603e-01 -4.382677e-02 8.880440e-01 -4.176746e-01 2.550717e-01 1.929761e-02 
7.554408e+00 -9.682028e+00 -1.195788e+01 -2.288306e+00 1.608781e+00 -1.363677e+01 8.292305e+00 -3.292188e+00 -5.742659e+00 -3.326392e+00 -9.158607e+00 -4.151545e+00 9.562439e-01 -1.885394e-01 -6.006168e-01 6.415580e-01 -3.383009e-01 7.006755e-01 1.382481e+00 -5.220195e-01 6.903298e-01 4.641558e-01 9.933567e-01 2.373832e-01 3.411837e-01 1.582474e-02 
8.119697e+00 -9.963140e+00 -1.097154e+01 -1.829296e+00 1.884483e+00 -9.475128e+00 4.949178e+00 1.966010e+00 -8.050163e+00 3.356610e-01 -9.523544e+00 -2.542215e+00 9.659601e-01 -2.251952e-01 -6.891319e-01 8.916143e-01 -4.576993e-01 2.948300e-01 1.263719e+00 -6.700716e-01 5.608985e-01 4.995723e-01 7.532197e-01 1.601976e-01 3.590021e-01 1.247328e-02 
8.790046e+00 -1.165848e+01 -9.926912e+00 -1.552582e-03 -3.540754e-03 -6.348181e+00 4.894363e+00 9.142835e-01 -4.987609e+00 4.682315e-01 -7.850410e+00 -2.050925e+00 9.811915e-01 -1.513147e-01 -6.059123e-01 6.173064e-01 -1.928818e-01 -4.064807e-01 1.608916e+00 -1.652808e+00 9.928419e-01 -6.561337e-02 5.919999e-01 -1.154009e-01 2.773643e-01 9.976554e-03 
6.946924e+00 -1.141892e+01 -9.721350e+00 -3.821326e+00 1.885101e+00 -9.465815e+00 4.138060e+00 2.415965e-01 -6.370934e+00 -3.470176e-02 -9.940145e+00 -3.055765e+00 9.894127e-01 -2.668019e-01 -2.335150e-01 3.145931e-01 1.016531e-01 -4.479631e-01 1.008541e+00 -9.854292e-01 4.237043e-01 2.925808e-01 2.999372e-01 -1.854715e-01 2.925919e-01 8.128864e-03 
7.384220e+00 -1.198370e+01 -9.496443e+00 -2.256700e+00 -4.239321e-01 -5.596846e+00 4.338238e-01 2.534228e+00 -6.910341e+00 -1.812106e-01 -9.527311e+00 -2.507949e+00 9.944004e-01 -2.127150e-01 -8.462648e-02 3.272734e-02 8.594956e-02 -5.447110e-01 6.494826e-01 -1.028152e+00 1.859615e-01 1.011924e-01 -1.037118e-01 -6.791851e-01 4.529002e-01 3.606188e-03 
7.488600e+00 -1.096810e+01 -9.613812e+00 -1.934566e-01 -1.451375e-01 -4.808093e+00 2.252302e+00 3.274559e+00 -5.625894e+00 2.160068e+00 -9.612452e+00 -8.507440e-01 1.000000e+00 1.324989e-01 -3.914452e-01 -5.275641e-02 4.455391e-01 -6.226574e-01 1.494993e-01 -1.688410e-01 -6.247459e-01 6.009199e-01 -6.445861e-02 -6.003210e-01 6.292265e-01 1.451296e-03 
7.455633e+00 -1.230702e+01 -9.817044e+00 -1.385740e+00 -1.711977e+00 -5.429629e+00 6.964842e-01 3.276093e-01 -4.854167e+00 -1.147713e+00 -1.141018e+01 -8.889346e-01 9.939287e-01 1.097832e-01 -5.150836e-01 1.588651e-01 -4.840438e-02 -4.964010e-01 -9.271316e-02 -1.595548e-01 -7.304993e-01 4.868823e-01 -3.384357e-01 -5.404922e-01 2.031583e-01 -6.576300e-04 
7.573712e+00 -1.321449e+01 -9.824831e+00 -2.029111e+00 -5.841634e-01 -8.801926e+00 3.162524e+00 -1.778824e+00 -4.394421e+00 1.262562e-01 -1.200031e+01 -7.191396e-01 9.969050e-01 -5.123061e-03 -3.887218e-01 2.990135e-01 -3.144425e-01 -4.968519e-01 1.542214e-01 -8.551016e-01 -2.031121e-01 2.136006e-01 -2.874251e-01 -2.117689e-01 -2.617575e-01 -2.295709e-03 
7.890579e+00 -1.343593e+01 -8.596608e+00 -1.580894e+00 -2.686424e+00 -4.063495e+00 -8.190616e-01 1.408423e+00 -5.091666e+00 -8.564832e-01 -1.103584e+01 -1.557960e+00 9.926597e-01 8.102167e-02 1.615686e-01 1.047544e-02 4.454099e-01 -4.971853e-01 6.143296e-01 -5.350671e-01 3.657380e-01 4.862242e-02 3.045669e-01 6.655693e-03 -3.133369e-01 -2.479774e-03 
7.245511e+00 -1.234726e+01 -8.728963e+00 -1.668092e+00 -2.142173e+00 -4.720052e+00 -1.265433e+00 1.718592e+00 -4.439142e+00 5.773275e-01 -1.085847e+01 -1.825019e+00 9.891559e-01 8.374806e-02 7.105266e-01 -3.173322e-01 5.364316e-01 -1.934771e-01 6.392288e-03 3.728713e-01 -1.744672e-01 1.369146e-01 1.428712e-01 -2.270229e-01 -4.464121e-02 -6.112200e-03 
8.024841e+00 -1.193279e+01 -1.031260e+01 6.608000e-01 -3.418898e+00 -4.398918e+00 2.351277e-01 4.075913e-01 -4.588695e+00 1.495866e-01 -1.194783e+01 -1.902679e+00 9.854044e-01 9.519486e-02 9.927469e-01 -7.695400e-01 3.680141e-01 3.971354e-01 -1.750498e+00 2.098926e+00 -1.505361e+00 3.175984e-01 3.849453e-01 -8.125633e-01 6.528691e-01 -9.488851e-03 
7.925321e+00 -1.041342e+01 -1.055350e+01 -4.678004e-01 -1.185312e+00 -8.602253e+00 4.499786e+00 -2.150744e+00 -3.961333e+00 3.375770e-01 -1.267944e+01 -7.699857e-01 9.699717e-01 1.751136e-01 9.223946e-01 -3.992449e-01 9.368086e-02 2.151010e-01 -1.629096e+00 2.308234e+00 -1.927187e+00 9.860895e-01 -4.956631e-01 -8.113461e-01 1.145167e+00 -1.501722e-02 
8.026649e+00 -9.439110e+00 -1.153204e+01 -3.409696e-01 -1.179178e+00 -1.087488e+01 6.792957e+00 -4.183715e+00 -3.742578e+00 1.188118e+00 -1.418817e+01 1.178869e+00 9.548076e-01 -2.215501e-02 1.094029e+00 7.534599e-03 -3.314966e-01 9.217801e-02 -1.240656e+00 1.700618e+00 -1.455721e+00 1.302559e+00 -1.091014e+00 -1.521053e-01 1.091776e+00 -1.926622e-02 
8.120175e+00 -8.982122e+00 -1.011547e+01 -6.988027e-01 -2.186528e+00 -9.627552e+00 6.996823e+00 -5.621688e+00 6.824708e-02 -2.420254e+00 -1.379502e+01 2.360044e+00 9.293682e-01 3.809416e-02 8.391822e-01 5.527773e-01 -2.427603e-01 -4.478699e-01 3.892374e-02 2.657641e-01 -3.237490e-01 1.403152e+00 -1.737796e+00 3.780285e-01 1.121223e+00 -1.854885e-02 
7.816639e+00 -7.178293e+00 -1.049394e+01 -8.811820e-01 -2.457400e+00 -1.008955e+01 7.489701e+00 -5.135540e+00 -9.068918e-02 -3.926567e+00 -1.215056e+01 1.991186e+00 9.093750e-01 -1.246792e-01 7.345468e-01 1.170750e+00 -3.884309e-01 -8.642007e-01 8.265383e-01 -8.050117e-01 5.707123e-01 1.392836e+00 -2.517910e+00 1.347454e+00 3.069500e-01 -1.670549e-02 
8.220797e+00 -7.347921e+00 -8.308659e+00 -1.411496e+00 -2.785550e+00 -8.800303e+00 5.480235e+00 -3.293576e+00 1.228481e+00 -5.794060e+00 -1.180810e+01 4.429973e+00 8.999437e-01 -5.416312e-02 7.433614e-01 1.238706e+00 -3.352784e-01 -9.662170e-01 1.257653e+00 -1.533324e+00 1.328496e+00 6.759900e-01 -1.960515e+00 1.390065e+00 1.898862e-01 -1.606479e-02 
7.352942e+00 -6.583477e+00 -6.581695e+00 -1.926778e+00 -5.200670e+00 -7.155817e+00 3.526192e+00 -2.494209e+00 2.641486e+00 -9.714530e+00 -8.444366e+00 1.678655e+00 8.859924e-01 -6.084502e-02 6.084668e-01 1.427507e+00 -3.117019e-01 -1.258908e+00 1.897615e+00 -2.398049e+00 2.075953e+00 -1.235803e-01 -1.363744e+00 1.269141e+00 5.861583e-02 -1.872486e-02 
8.081209e+00 -5.562724e+00 -5.878062e+00 -1.852397e+00 -5.645978e+00 -4.806154e+00 1.311960e+00 -2.998710e-01 2.082109e+00 -9.328849e+00 -8.697794e+00 3.465741e+00 8.607355e-01 -1.532943e-01 7.673005e-01 1.085258e+00 -4.780524e-01 -8.876123e-01 1.390485e+00 -2.038970e+00 1.502656e+00 -6.288531e-01 -7.533162e-01 7.149871e-01 -2.212537e-01 -2.170929e-02 
7.582208e+00 -5.028557e+00 -4.571704e+00 -2.219241e+00 -7.321728e+00 -2.598547e+00 -2.416405e+00 3.747374e+00 -1.135405e+00 -8.977896e+00 -7.360006e+00 2.766382e+00 8.353548e-01 -2.096806e-01 7.713139e-01 1.065704e+00 -6.938661e-01 -1.260500e-01 5.507733e-01 -1.208601e+00 8.893719e-01 -4.958964e-01 -4.169810e-01 4.224604e-01 1.070797e-01 -2.265785e-02 
7.339692e+00 -4.288878e+00 -3.887363e+00 -3.655526e+00 -6.163083e+00 -4.126511e+00 -1.743316e+00 1.098913e+00 -2.733970e-02 -9.928959e+00 -8.775345e+00 2.779841e+00 8.167161e-01 -2.601452e-01 9.325275e-01 6.304795e-01 -1.909147e-01 -1.043796e-01 -1.699815e-01 -4.445803e-01 2.823208e-01 2.964680e-02 -1.067811e+00 8.799329e-01 -2.727174e-01 -2.008797e-02 
6.675298e+00 -3.363831e+00 -2.248524e+00 -4.494544e+00 -5.572368e+00 -4.741771e+00 -9.891754e-01 1.253258e+00 1.216729e+00 -1.149938e+01 -6.293290e+00 2.557003e+00 7.947129e-01 8.015305e-02 6.251184e-01 5.587939e-01 7.051711e-02 1.232180e-01 -2.143283e-01 -3.172548e-01 -2.160018e-01 4.970627e-01 -1.065496e+00 8.675340e-01 -4.756478e-01 -1.772919e-02 
7.233938e+00 -1.732450e+00 -3.887254e+00 -1.669319e+00 -7.042556e+00 -4.584449e+00 -1.624557e+00 2.358791e+00 1.054277e+00 -1.340716e+01 -4.831487e+00 2.206843e+00 7.806166e-01 5.194675e-01 -4.046903e-02 7.859662e-01 1.810091e-01 5.425652e-01 -6.990518e-02 -1.157513e+00 3.089702e-01 1.431113e-01 -2.163560e-01 5.585101e-01 -9.060720e-01 -1.729286e-02 
8.035851e+00 -3.181180e+00 -1.777788e+00 -2.859759e+00 -6.265902e+00 -3.441220e+00 -4.062058e+00 2.037426e+00 8.091002e-01 -1.256627e+01 -4.994264e+00 6.746420e-01 7.647586e-01 1.114715e+00 -3.809721e-01 5.013442e-01 1.529071e-01 1.525987e+00 3.839749e-01 -2.511169e+00 4.804373e-01 -6.274747e-01 1.103550e+00 7.075495e-01 -2.614172e+00 -2.630452e-02 
9.256753e+00 -4.582549e+00 -1.928999e-01 -3.567873e+00 -3.103490e+00 -5.126313e+00 -5.994442e+00 2.251680e+00 8.920312e-01 -1.047729e+01 -6.632307e+00 -8.093379e-01 7.452289e-01 1.122722e+00 1.004317e-01 1.022741e+00 1.214776e-01 2.270357e+00 6.707569e-01 -1.918761e+00 -1.103937e+00 -1.227496e+00 3.291899e+00 5.920694e-01 -3.222558e+00 -5.178319e-02 
1.123746e+01 -3.843641e+00 -1.588980e+00 -2.780731e+00 8.803320e-02 -2.550965e+00 -1.136008e+01 3.709000e+00 -1.839522e+00 -7.446563e+00 -1.855133e+00 -9.005768e+00 6.808841e-01 6.767017e-01 1.548487e+00 1.546906e+00 2.005990e+00 1.212994e+00 -9.752150e-02 4.444963e-01 -3.816608e+00 -1.425607e+00 4.764144e+00 1.890213e-01 -2.089561e+00 -6.412606e-02 
1.124674e+01 -8.990602e-01 1.132045e+00 -1.101445e+00 1.132263e+00 -1.675792e+00 -7.569348e+00 -3.996683e+00 -3.758893e+00 4.924800e-01 -3.440706e+00 -9.065745e+00 5.636379e-01 1.185763e-01 2.099541e+00 2.077153e+00 2.872546e+00 -2.808395e-01 -1.403345e-01 2.615187e+00 -4.433261e+00 -1.791873e+00 4.238923e+00 -1.400471e-01 -6.555401e-01 -6.370880e-02 
1.042437e+01 2.719511e+00 5.294271e+00 5.936974e+00 -2.318807e+00 -5.654088e+00 -1.052123e+00 -1.392143e+01 -3.993471e+00 5.769559e+00 -5.644958e+00 -5.644959e+00 5.349238e-01 -3.070523e-01 2.387408e+00 2.291825e+00 2.804344e+00 -8.685219e-02 -1.112003e-01 2.927698e+00 -3.826171e+00 -6.825197e-01 3.133709e+00 -1.306892e+00 1.374012e+00 -5.547715e-02 
1.025618e+01 2.633580e+00 6.751242e+00 6.436004e+00 -3.304268e+00 -4.276424e+00 1.927516e+00 -1.109941e+01 -6.990359e+00 4.109262e+00 -5.437629e+00 -5.767443e+00 4.996651e-01 -5.984915e-01 1.859043e+00 2.332687e+00 2.386964e+00 -3.773546e-03 4.618947e-01 2.843288e+00 -4.554186e-01 -4.514961e-01 4.672438e-01 -1.177770e+00 1.317521e+00 -4.744228e-02 
1.019748e+01 6.327081e+00 7.060544e+00 7.472265e+00 1.872038e+00 -1.806651e+00 -1.470021e+00 -1.187049e+01 -3.636388e+00 6.413593e+00 -7.391130e+00 -3.784860e+00 4.354848e-01 -9.118368e-01 1.035814e+00 2.285752e+00 1.255687e+00 1.487973e+00 1.627105e+00 1.219508e+00 1.410983e+00 2.498293e-02 -5.731491e-01 -1.565926e-01 3.106641e-01 -5.182417e-02 
8.367725e+00 6.592370e+00 1.191234e+01 1.006573e+01 -9.820271e-01 -1.290037e+00 6.856042e+00 -7.299244e+00 -6.194915e+00 2.506682e+00 -8.456470e+00 -3.408191e+00 3.761460e-01 -1.409153e+00 6.657109e-01 2.410467e+00 1.183218e+00 2.034974e+00 2.335436e+00 -4.638994e-01 1.623085e+00 6.935658e-02 -1.682256e+00 2.218334e-01 -5.205076e-01 -4.984776e-02 
6.809410e+00 5.919185e+00 1.414248e+01 1.040055e+01 3.959939e+00 9.882448e-01 2.581155e+00 -8.766600e+00 -4.266278e+00 3.705104e+00 -4.918500e+00 -5.271265e+00 3.375624e-01 -1.804641e+00 7.966769e-02 2.038722e+00 2.560371e-01 1.164599e+00 2.726035e+00 -1.113024e+00 1.682990e+00 1.230466e+00 -2.264891e+00 1.299929e+00 -1.798671e+00 -5.523146e-02 
4.904453e+00 6.166083e+00 1.526261e+01 1.088795e+01 5.826651e+00 6.003309e+00 -2.417569e+00 -4.535934e+00 -6.328631e+00 -2.947770e+00 -5.564777e+00 -7.626778e+00 2.993875e-01 -2.084613e+00 -2.562340e-01 -1.804306e-01 -1.494015e+00 1.346886e+00 2.709791e+00 -1.889003e+00 1.061267e+00 2.076658e+00 -1.627648e+00 1.304782e+00 -1.825509e+00 -7.402182e-02 
2.905911e+00 6.938563e+00 1.557902e+01 8.341337e+00 4.290693e+00 8.176847e+00 -2.398336e+00 -4.837196e+00 2.582802e+00 -2.183633e+00 -2.337329e+00 -1.066892e+01 1.977068e-01 -2.466909e+00 -9.406773e-01 -1.233927e+00 -2.698568e+00 -4.331340e-01 8.064674e-01 -6.067243e-01 5.279452e-01 1.514633e+00 -4.169204e-02 1.242056e+00 2.777035e-01 -8.495364e-02 
-1.035895e-01 4.801512e+00 1.029192e+01 3.625260e+00 5.587026e+00 8.664618e+00 -9.922791e-02 -3.957608e+00 7.638321e-01 -2.687189e+00 -3.223144e+00 -9.836908e+00 7.596475e-02 -2.614603e+00 -2.014549e+00 -2.381168e+00 -3.823135e+00 -2.140981e+00 -1.147020e+00 -3.417887e-01 1.947890e-01 1.173280e+00 1.526832e+00 2.093910e+00 2.986492e+00 -7.649236e-02 
-3.021113e+00 1.898085e+00 1.045819e+01 5.390553e-01 1.914082e+00 3.689927e+00 -1.611637e+00 -6.416037e+00 -2.393441e-01 3.366353e+00 1.209617e-01 -2.777682e+00 2.450562e-02 -2.095581e+00 -2.208826e+00 -2.832157e+00 -1.895052e+00 -1.694207e+00 -1.418994e+00 -9.909458e-01 2.603250e-01 -6.457539e-01 3.867580e-01 1.543882e+00 3.779778e+00 -4.972078e-02 
-5.205049e+00 -1.386424e+00 5.917182e+00 -4.326577e+00 -3.689950e+00 2.511668e+00 -4.519862e+00 -2.772569e+00 9.488420e-01 1.911398e+00 3.675625e+00 3.360063e+00 3.526211e-03 -1.166054e+00 -8.672068e-01 -1.277081e+00 -2.287073e-01 -9.840525e-01 -2.551914e-01 -9.322208e-01 -1.947696e-01 -2.379851e-01 4.430522e-01 1.319183e+00 1.775305e+00 -2.804568e-02 
-5.021263e+00 -1.011599e+00 3.605607e+00 2.841996e+00 4.581475e-01 4.158354e+00 -5.142748e+00 -4.128091e+00 -7.384725e-01 -2.549137e+00 1.932696e+00 1.631485e+00 -1.467788e-02 -1.558747e-01 1.945121e-01 -9.966676e-01 6.787294e-01 1.421670e-01 9.160843e-01 7.980403e-01 1.196756e+00 6.765622e-01 -4.829486e-01 8.301241e-01 -5.351690e-01 -2.445313e-02 
-4.933783e+00 1.920319e+00 7.332803e+00 1.330253e+00 1.394730e+00 7.154448e+00 -2.994776e+00 -6.075429e+00 -1.765294e-01 2.485817e+00 2.466902e+00 -3.164968e+00 -4.467189e-02 5.917512e-01 1.312574e+00 2.360821e-03 1.204472e+00 8.364093e-01 1.218117e+00 1.559798e+00 8.002880e-01 -2.884461e-01 1.118686e-01 -1.693158e-01 -2.015417e-01 -2.262866e-02 
-3.936120e+00 1.217274e+00 4.767040e+00 1.104288e+00 8.257723e-02 5.948958e+00 1.616022e+00 1.219171e+00 3.706153e+00 6.644005e-01 4.875944e+00 -2.191012e+00 -7.366097e-02 3.573422e-01 9.536777e-01 2.311580e-02 -5.438668e-01 -5.123486e-01 8.037992e-01 1.845077e+00 1.409774e+00 -1.531419e-01 -1.532987e-01 -7.846870e-02 1.606638e-01 -2.138089e-02 
-2.788864e+00 4.062011e+00 5.348270e+00 2.564635e+00 6.798811e-01 7.706949e+00 -1.002563e-01 -1.444760e+00 -2.715701e+00 8.639719e-01 1.357422e+00 4.263603e+00 -8.012557e-02 2.214098e-01 4.065439e-01 -3.923641e-01 5.019261e-01 3.719839e-01 2.291234e-01 8.974106e-01 1.133324e+00 -3.929994e-02 -1.445660e+00 -9.289802e-01 4.247858e-01 -2.275796e-02 
-4.307012e+00 2.685943e+00 4.713453e+00 -4.945290e-01 -1.746171e+00 7.901099e+00 2.635375e+00 6.054435e-01 -2.345963e-01 -2.504708e+00 2.095092e+00 -1.279481e+00 -1.038555e-01 -7.019472e-02 6.478573e-01 -1.576290e-01 3.163790e-01 8.876892e-01 2.785578e-01 3.366602e-01 -8.624288e-01 2.035217e-01 -1.948866e-01 2.941329e-01 5.794553e-01 -1.628892e-02 
-3.641288e+00 3.218704e+00 5.397777e+00 4.639292e+00 4.169024e+00 7.323995e+00 9.825998e-01 -1.019430e-01 1.597345e+00 -3.157927e+00 -7.875733e-01 -1.496804e+00 -1.433644e-01 -1.273486e-01 3.567228e-01 -3.225951e-01 1.707675e-01 6.039413e-01 -5.343237e-02 6.348167e-01 7.671258e-01 7.735410e-01 2.202300e-01 1.740113e+00 -6.406950e-01 -1.357639e-02 
-3.860882e+00 4.878214e+00 3.954142e+00 1.648854e+00 2.776452e+00 7.533225e+00 2.757895e+00 -3.764382e+00 2.567238e+00 1.700917e+00 7.419106e+00 3.586468e+00 -1.234862e-01 -1.192484e-02 6.228369e-01 -3.142776e-01 5.471835e-02 8.174397e-01 4.725516e-02 5.600694e-01 6.263695e-01 -2.488761e-01 5.040898e-01 9.716898e-01 -2.780437e-03 -8.546877e-03 
-3.648672e+00 4.749490e+00 4.114950e+00 2.346781e+00 1.438276e+00 7.623724e+00 3.012568e+00 4.575781e+00 -2.489133e-01 -1.376905e-01 7.395980e+00 -1.372847e+00 -1.381922e-01 -8.951706e-01 -4.578664e-02 -4.622830e-01 -1.445396e+00 -9.208215e-01 -3.886124e-01 3.193647e-01 1.073165e+00 -2.274857e-01 1.344437e+00 9.184026e-01 5.488787e-02 -4.154635e-03 
-4.362944e+00 5.034735e+00 3.783478e+00 9.253182e-01 3.706401e+00 7.987510e+00 4.420738e+00 1.398429e+00 -5.558476e-01 -1.494377e+00 2.861765e+00 -1.355362e+00 -1.491760e-01 -7.198400e-01 -2.591722e-01 -4.235041e-01 -5.704535e-01 -8.501608e-01 -1.162296e+00 -1.127362e+00 5.429637e-01 -1.345182e+00 1.093043e-01 -2.452839e-01 -1.696658e-01 -2.087963e-03 
-7.866110e+00 2.911510e+00 3.171693e+00 -2.225918e+00 -9.000580e-01 5.153790e+00 1.748001e+00 2.682477e+00 2.021460e+00 5.161906e+00 6.083110e+00 1.248550e+00 -1.512927e-01 -4.271399e-01 1.632446e-01 -4.680941e-01 -2.943923e-01 -6.112262e-01 -9.349268e-01 -1.035500e+00 -2.328771e-01 -6.366504e-01 5.572188e-01 4.901068e-01 1.248651e+00 6.085157e-03 
-5.351363e+00 4.501343e+00 2.308250e+00 1.082936e+00 -3.051848e-01 2.956712e+00 -2.246634e+00 -1.029115e-01 -5.293860e+00 -4.023595e-01 6.849122e+00 1.427440e+00 -1.273757e-01 7.279596e-02 7.660435e-01 -4.577664e-01 -4.930837e-01 -1.518215e+00 -1.246382e+00 -1.247382e+00 4.071653e-01 2.073931e-01 1.960382e-02 1.520449e-01 6.567650e-01 1.052484e-02 
-5.290162e+00 5.832409e+00 2.512094e+00 7.960110e-01 3.879380e-01 5.464489e+00 1.168754e+00 4.162066e+00 -1.063159e+00 2.102395e+00 7.852836e+00 3.479007e+00 -1.186665e-01 5.731834e-01 8.769573e-01 1.378821e-01 -2.297949e-01 6.035614e-03 -4.284585e-01 -2.864454e-01 2.850024e-01 5.781560e-02 -1.146384e+00 -1.312882e+00 -4.376774e-01 1.451087e-03 
-5.286938e+00 7.404504e+00 1.824446e+00 -3.051065e+00 -4.528673e+00 1.600251e+00 -1.526549e+00 2.694461e+00 2.023427e+00 1.333979e-01 2.737126e+00 8.132344e-01 -1.128649e-01 1.704664e-02 3.461478e-01 1.595280e-01 -6.582901e-01 3.299285e-01 1.389607e-01 9.600855e-01 1.274668e+00 1.215671e+00 -3.398269e-01 -1.565802e+00 -4.360559e-02 -6.953311e-03 
-5.032406e+00 5.844717e+00 4.103006e+00 -1.307892e+00 1.241864e+00 3.689728e+00 -4.426897e-02 2.708803e+00 -1.348106e+00 -8.378933e-01 1.574698e+00 -6.327338e-01 -1.512927e-01 -1.075359e-01 3.085482e-02 -1.451894e-01 -1.387074e-01 4.654242e-01 7.114922e-01 1.076209e+00 1.250620e+00 1.768688e+00 8.233943e-01 -2.040044e-01 -1.567891e-01 -6.598818e-03 
-5.395008e+00 6.225928e+00 2.310434e+00 -1.156563e+00 9.174948e-01 4.538896e+00 3.160305e+00 6.997062e+00 9.269693e-01 -6.313502e-01 2.159181e+00 3.265283e+00 -1.458292e-01 -3.647595e-01 -5.272085e-01 -2.410332e-01 7.634396e-01 1.754565e+00 1.751929e+00 1.300283e+00 1.236631e+00 1.367312e+00 1.113077e+00 1.027929e+00 2.108526e-03 -6.074143e-03 
-5.773807e+00 6.575971e+00 1.543152e+00 -8.447773e-01 -8.025169e-03 7.552628e+00 4.206372e+00 8.263865e+00 8.328511e+00 6.601740e+00 7.121786e+00 1.469037e+00 -1.351784e-01 -4.609168e-01 -1.453370e-01 3.312229e-01 2.364312e-01 8.246601e-01 6.107405e-01 6.453117e-01 1.046371e+00 9.697260e-01 -7.387149e-01 8.638927e-01 1.842363e-01 -5.463481e-04 
-6.740035e+00 4.402834e+00 1.899207e+00 5.345759e-01 4.869099e+00 8.428444e+00 2.849546e+00 6.100084e+00 4.021677e+00 1.978964e+00 5.103228e+00 -2.271082e-01 -1.512927e-01 -3.964116e-01 -2.282188e-01 7.782613e-01 2.156436e-01 6.424360e-01 -2.430614e-01 -7.480320e-01 -7.194217e-01 2.119400e-01 -1.015577e+00 4.327268e-01 2.061447e-01 -2.704120e-03 
-6.664476e+00 6.029578e+00 5.964734e+00 -9.713051e-01 3.389363e+00 4.798657e+00 3.337668e+00 8.389148e+00 1.953170e+00 -5.836625e+00 4.422138e+00 2.034643e+00 -1.512927e-01 -1.830711e-01 -3.564566e-02 9.164622e-02 -3.236215e-02 2.160696e-01 -1.034674e+00 -1.190678e+00 -8.451192e-01 -3.990104e-01 -1.556460e+00 4.842212e-01 5.895282e-01 -3.222847e-03 
-6.931731e+00 5.358030e+00 3.990950e+00 -1.508069e-02 2.430981e+00 4.700574e+00 -1.455039e-01 3.337313e+00 5.174340e+00 5.099472e-01 5.672639e+00 4.013203e+00 -1.512927e-01 8.241625e-02 5.392649e-01 -4.344389e-01 3.417396e-01 -2.956295e-01 -7.197027e-02 -1.120999e+00 -2.597466e-01 8.652747e-01 3.103490e-01 5.187412e-01 3.164957e-01 3.143883e-03 
-6.593314e+00 5.920145e+00 9.555120e-01 -7.317598e-01 2.291382e+00 4.243194e+00 -2.494944e-01 5.419655e+00 5.757128e+00 -4.460499e-01 9.258186e+00 2.296522e+00 -1.512927e-01 1.170079e-01 4.044439e-01 -9.225547e-01 8.328195e-01 2.610118e-01 1.074108e+00 -9.415430e-01 -1.257317e-01 1.025753e+00 1.366957e+00 1.319815e-01 -4.409196e-01 4.715824e-03 
-6.363535e+00 7.153875e+00 2.231623e+00 2.123501e+00 3.939942e+00 8.346324e+00 -9.618658e-01 6.286097e+00 6.446072e+00 8.354214e-01 5.278910e+00 1.224431e+00 -1.355733e-01 1.366172e-01 4.825421e-01 -2.242541e-01 7.132425e-01 4.666482e-01 1.139463e+00 -2.345095e-01 6.764010e-01 3.232407e-01 1.932420e-01 -4.766734e-01 -6.649634e-01 4.715824e-03 
