-7.294158e+00 7.118049e-01 -1.042542e+00 -5.754444e+00 1.558070e+00 7.205920e-01 5.118168e+00 -1.602349e-01 -3.026255e-01 2.057161e+00 1.755257e+00 -1.465317e+00 -4.459417e-02 -9.639482e-02 -4.140596e-02 9.813508e-02 1.916086e-01 -4.535376e-01 -6.999390e-01 -9.823065e-01 -9.057238e-01 -7.273205e-01 1.145934e-01 -4.966496e-01 9.328033e-01 6.599403e-03 
-6.994757e+00 1.397636e+00 -3.394482e-01 -6.034644e+00 1.950767e+00 -1.981136e+00 2.831819e+00 -5.884058e+00 -1.799244e+00 3.400311e+00 1.929745e+00 4.476369e+00 -2.036536e-02 -1.585286e-01 -1.683373e-01 -2.471036e-01 2.585623e-01 3.031954e-01 -7.318668e-02 -6.749805e-01 -1.108562e-01 2.918656e-01 -3.893097e-02 -1.488545e+00 1.253404e+00 3.335142e-03 
-7.925833e+00 1.618595e-01 -9.034130e-01 -4.656301e+00 -9.059674e-01 -1.428239e+00 1.349811e+00 -1.826942e+00 -3.190918e+00 1.958552e+00 -8.152340e-01 2.278566e-01 -2.371156e-02 -2.398041e-01 -7.248132e-02 -6.108539e-01 5.126134e-02 -2.903149e-01 6.318845e-01 -2.163254e-01 -1.059821e-01 5.926005e-01 6.499082e-02 -1.423566e+00 6.154818e-01 -4.452705e-04 
-7.770964e+00 1.450908e-01 -2.347624e+00 -5.010704e+00 4.306066e+00 1.429074e+00 3.627445e+00 1.188377e-01 2.600849e+00 1.911810e+00 -4.402223e+00 3.955119e+00 -3.835976e-02 -3.530404e-01 -1.901679e-01 -7.690743e-01 -3.341439e-01 -8.646023e-01 -7.052131e-01 -3.273073e-01 1.048219e+00 1.324052e+00 6.276874e-02 -4.740833e-02 4.315207e-02 -7.667661e-03 
-8.105076e+00 9.756708e-01 -3.092723e+00 -6.010107e+00 -1.071154e+00 2.174910e+00 3.638728e+00 -3.691593e+00 4.603305e-01 3.126366e+00 -2.196588e+00 1.872717e+00 -3.782332e-02 -4.107658e-01 -2.283354e-01 -1.067701e-01 -4.635660e-01 -6.154258e-01 -4.401928e-01 9.997499e-02 3.539343e-01 1.652194e+00 4.443327e-01 5.920854e-01 -7.673880e-01 -1.382065e-03 
-8.670338e+00 3.989077e-02 -3.090164e+00 -7.028460e+00 -2.289651e+00 -7.308776e+00 5.082321e-02 2.893644e-01 2.995389e+00 3.130249e+00 2.383380e+00 3.869699e+00 -5.164778e-02 -2.940947e-01 2.725783e-01 8.475772e-01 1.655333e-01 -9.526339e-01 -1.393496e+00 1.266860e-01 1.310325e+00 4.943679e-01 -8.236319e-01 1.270689e+00 -9.922396e-01 4.866600e-04 
-9.529976e+00 -9.272175e-01 -1.065993e+00 -5.965253e+00 -6.852382e-01 7.397220e-01 3.637996e+00 -1.425339e-01 4.872781e+00 3.570997e+00 -1.247609e+00 -3.566374e+00 -2.397788e-02 -2.334490e-02 -5.036574e-01 9.728161e-01 1.631518e+00 -2.259895e-01 -5.991256e-01 -5.397010e-02 1.102094e+00 1.003859e+00 -1.710332e+00 -2.246619e-01 -1.145812e+00 1.247616e-02 
-8.528988e+00 2.459426e+00 8.768970e-01 -4.205464e+00 -6.500617e-01 -4.820812e+00 4.261240e+00 4.895936e+00 2.866463e+00 -2.428665e+00 1.476734e+00 1.713466e+00 -4.284918e-02 1.289540e-01 -1.833458e+00 8.734822e-01 1.138516e+00 -1.072263e+00 1.063627e+00 6.054029e-01 -2.957387e-01 5.674765e-01 -9.826180e-01 -3.566910e-01 -1.381769e+00 3.065033e-02 
-8.292475e+00 -2.752384e+00 -2.121738e-01 7.359853e-01 -3.020895e+00 -2.064700e+00 1.263669e+00 -4.844103e-01 5.544091e+00 -2.645838e+00 -2.866574e+00 -2.778227e+00 2.015817e-02 9.565134e-02 -2.074371e+00 -3.701466e-01 5.693803e-01 -4.671717e-02 -3.142328e-01 -1.245341e-01 1.049413e+00 5.389134e-01 2.011284e-01 -1.949448e-01 -3.152385e-01 1.844841e-02 
-8.644318e+00 -8.214815e+00 8.503367e-01 -4.686500e+00 -6.483139e+00 -5.884286e-01 4.265001e+00 -1.018391e+00 5.497117e+00 1.325576e+00 1.409407e+00 -3.433217e+00 7.953584e-02 -3.374729e-02 -1.103949e+00 -1.366036e+00 1.447681e-01 1.437279e+00 3.329380e-01 3.566956e-01 -6.798629e-02 -3.514622e-01 1.709653e+00 -4.486009e-01 -4.313606e-01 4.763848e-03 
-8.994053e+00 -5.961952e+00 -2.903446e+00 -2.877833e+00 1.997715e+00 -2.947634e+00 3.013446e+00 8.061695e+00 6.252021e+00 2.699518e+00 -2.188669e+00 -2.569224e+00 7.071674e-03 -8.606625e-03 1.529040e+00 -7.371892e-01 -9.788141e-01 1.695418e+00 -5.858663e-01 1.419513e+00 -4.674611e-01 -1.166228e+00 2.110771e+00 1.267416e+00 1.674413e+00 -2.084857e-02 
-8.346935e+00 -1.455536e+00 -4.607646e+00 -1.674715e+00 4.027030e+00 -2.714656e+00 5.169830e+00 2.829514e-01 7.551866e-01 3.446923e+00 -1.105223e+00 -5.478382e-01 -1.248670e-02 -5.496298e-01 2.638768e+00 -1.061522e+00 -6.177912e-02 7.130229e-02 -4.991202e-01 6.292933e-01 3.065992e-01 -8.122166e-01 2.041807e+00 9.477825e-01 2.485167e+00 2.624601e-03 
-8.484200e+00 1.513179e+00 -1.169128e+00 -5.663978e+00 2.011111e-01 -3.930918e+00 7.908817e+00 -3.472387e+00 2.083915e+00 6.847346e+00 4.727824e+00 4.151148e+00 -3.807342e-02 -4.958328e-01 1.624347e+00 -4.285284e-01 -3.300792e-01 -1.653811e+00 -2.399370e-02 -1.791979e-01 -5.607184e-01 -6.463030e-01 8.519489e-01 1.117135e+00 1.746167e+00 2.138807e-02 
-1.164739e+01 1.241460e+00 -5.324432e+00 -3.602323e+00 -5.228325e+00 -2.592388e+00 4.963782e+00 6.281647e+00 3.520087e+00 9.460699e+00 2.690073e+00 5.632432e+00 1.152314e-01 -3.767767e-02 3.251104e-01 -1.377989e-01 -7.716477e-02 -8.173957e-01 -2.848446e-01 -1.711737e+00 7.569610e-01 -4.501058e-02 -3.073573e-01 2.036993e-01 6.697702e-01 1.091047e-02 
-9.822989e+00 8.112833e-01 -4.687696e+00 -3.564425e+00 -1.643660e+00 -3.128736e+00 2.220480e+00 2.258755e+00 1.638056e+00 3.952375e+00 1.499359e+00 3.071477e+00 5.015296e-02 6.698514e-01 1.207111e-02 -3.253710e-03 1.184631e-01 1.001643e+00 -9.444169e-02 -2.532790e+00 8.231168e-01 -1.037425e+00 -1.048630e+00 -9.602703e-01 -5.248384e-01 1.067733e-02 
-7.865929e+00 5.209634e-01 -3.537358e+00 -3.110315e+00 8.624372e-01 -4.539969e+00 -5.446877e-01 1.202185e+00 7.530633e-01 3.357622e+00 1.527506e+00 3.340848e+00 -2.047539e-03 7.174777e-01 -2.864087e-02 1.776212e+00 -3.061299e-01 3.649590e+00 -7.388247e-01 -1.840248e-02 4.110972e-01 -1.554008e+00 -5.010463e-01 6.516770e-01 -1.127595e+00 5.873722e-03 
-7.025675e+00 1.933783e+00 -2.078934e+00 -5.317667e+00 2.163943e+00 -3.429335e+00 -2.000899e+00 3.182927e+00 -1.719700e+00 4.655732e+00 5.077556e-01 2.672748e+00 7.395267e-02 2.113380e-01 -1.387845e+00 7.165019e-01 1.678770e-01 2.329690e+00 1.107739e+00 3.080072e-01 -4.738698e-01 -4.720425e-01 -3.062386e-02 1.521703e+00 9.397147e-02 9.975332e-03 
-9.458662e+00 5.370059e-01 2.252247e+00 -4.256352e+00 1.111583e+01 -6.136211e+00 6.982459e+00 7.875047e+00 -2.571074e+00 6.603788e+00 6.444260e+00 1.938225e-01 1.327001e-01 1.169951e-01 -1.317437e+00 1.252453e+00 2.807421e-01 1.307346e+00 2.304771e+00 -1.359862e-01 -1.965899e+00 1.306747e+00 -4.185217e-01 6.433454e-01 -1.212350e+00 1.650709e-02 
-7.969932e+00 -6.135962e+00 -3.999988e+00 -2.152022e+00 4.878095e+00 3.208080e+00 -3.057003e-03 -3.447024e+00 9.399120e-01 2.176172e+00 6.649497e+00 5.114848e+00 3.265578e-02 9.317293e-02 -6.121081e-01 1.063723e+00 -4.678866e-01 6.977382e-02 4.007672e+00 -1.087053e+00 -2.545145e+00 9.048751e-01 -1.560565e+00 -8.926367e-01 -1.725042e+00 3.343240e-02 
-6.808825e+00 -2.031352e+00 3.685434e+00 -3.289427e+00 6.042091e+00 3.665178e+00 -2.223540e+00 -5.312334e+00 5.956995e+00 2.504793e+00 1.673362e+00 -3.941949e+00 1.011364e-01 -3.989542e-01 -1.582577e-01 -6.321812e-01 -2.581469e+00 -1.292955e+00 5.119498e+00 -2.558128e+00 -2.493687e+00 -2.765951e-02 -1.530261e+00 -1.514585e+00 -8.662607e-01 1.283264e-01 
-7.884729e+00 1.574211e-01 2.523089e+00 -8.140562e+00 5.049679e+00 1.170833e+01 -2.833163e+00 -2.949106e+00 -1.459358e+00 -1.097596e+00 -1.569979e+00 -3.884578e+00 2.568966e-01 -4.954644e-01 7.555474e-01 -6.603771e-01 -3.066691e+00 -1.634669e+00 3.187842e+00 -1.973051e-01 -1.467018e+00 1.296327e+00 -6.543123e-01 -5.880257e-01 2.352121e-01 1.848746e-01 
-1.149603e+01 -3.400974e+00 -4.170198e+00 -1.416943e+01 4.565257e+00 1.521115e+01 -4.393128e+00 -4.842348e+00 -1.509737e+00 5.893688e-01 2.981072e+00 3.622317e-01 6.622117e-01 8.720746e-01 -1.031900e+00 -2.890431e+00 -1.367291e+00 -1.642940e+00 1.588404e+00 7.475828e-01 -1.739397e+00 1.177605e+00 -1.044237e+00 5.584186e-01 1.329551e+00 1.146070e-01 
-8.103649e+00 -1.673414e+00 -3.374058e+00 -1.204548e+01 -2.556835e+00 1.337430e+01 9.521151e-02 -1.101711e+01 1.115491e+01 -1.376772e-01 3.055513e+00 4.138818e+00 6.764911e-01 1.805629e+00 -7.803633e-01 -2.926752e+00 1.616340e+00 -1.161812e-01 -5.066994e-01 2.216985e+00 -1.995597e+00 2.193001e+00 6.272125e-01 7.930663e-01 7.161674e-01 1.151508e-02 
-2.338992e+00 -6.275436e+00 -7.818147e+00 -8.173424e+00 1.630648e+00 1.077421e+01 5.018711e-02 -9.975317e+00 5.537884e+00 -3.196354e+00 2.152709e+00 -1.305891e+00 4.643741e-01 1.885483e+00 2.123234e+00 1.249685e-02 4.138027e+00 5.616407e-01 -2.955124e+00 2.405818e+00 1.022554e+00 -4.814678e-01 -3.180047e-01 1.014435e+00 5.999093e-01 -1.027845e-01 
-3.435107e+00 -2.307164e+00 -1.028670e+01 -3.056866e+00 5.936078e+00 1.139330e+01 6.030104e+00 -1.036061e+01 5.981834e+00 3.931328e+00 2.809534e+00 5.303201e-01 4.133907e-01 3.450103e-01 2.740556e+00 3.176420e-01 3.307482e+00 7.659054e-01 -4.653545e+00 4.468488e-01 3.789904e+00 -2.697705e+00 -1.579832e+00 6.510731e-01 -2.128576e-01 -9.413693e-02 
-4.402889e+00 7.532072e+00 -6.513946e-01 2.026401e+00 3.127005e+00 1.426033e+00 4.668517e+00 -5.783041e-02 -1.330537e+00 -3.035157e+00 8.176235e+00 5.166027e+00 2.798396e-01 2.358466e-01 2.082575e+00 1.657920e+00 1.205333e+00 -1.078471e-01 -4.524372e+00 -4.026459e-01 4.986541e+00 -1.015115e+00 -1.845768e+00 -1.002412e+00 4.367818e-02 -8.013802e-02 
-5.346650e+00 5.125612e+00 -5.369224e+00 -6.079760e-01 5.245138e-01 -5.219336e+00 2.029037e-02 2.973668e+00 1.100598e+00 -8.117435e+00 3.299116e+00 -1.614290e-01 2.980738e-01 1.062548e+00 2.023834e-01 1.212132e+00 -4.677724e-01 -1.649107e-01 -2.793488e+00 -7.521254e-01 4.182714e+00 -7.592478e-01 -2.296158e+00 -2.155974e+00 -8.347200e-01 -8.643560e-02 
-2.039871e-01 4.210501e-01 -1.987281e+00 -3.371203e+00 3.797194e+00 -3.541331e+00 1.041864e+00 8.290250e+00 2.902928e+00 -6.400811e+00 -3.104141e+00 -7.416251e-01 1.213425e-01 9.263325e-01 -7.016689e-01 1.177529e+00 -6.022843e-01 9.957008e-01 6.210554e-01 1.166760e+00 1.380215e+00 1.231598e+00 1.161572e+00 -2.301004e+00 -9.231957e-01 -7.858832e-02 
-2.218151e-01 2.260264e+00 -3.558091e+00 -2.696927e+00 4.776430e+00 -9.045345e-02 4.082803e+00 6.378927e+00 6.886297e-02 -5.866637e+00 -2.330149e+00 -6.894536e-01 6.046122e-02 -1.989291e-01 5.238560e-01 2.562399e+00 4.178986e-01 1.375857e+00 2.534473e+00 2.719708e+00 -5.065497e-01 9.357240e-01 3.556460e+00 -2.910521e-01 8.985214e-01 -7.575600e-02 
-2.333643e+00 5.456402e+00 4.330684e+00 5.945444e-02 5.979551e+00 1.966868e+00 8.471063e+00 5.140618e+00 5.343319e+00 1.647303e+00 -5.141534e-01 8.140614e-01 5.704224e-03 -1.730482e+00 9.257618e-01 1.590042e+00 7.989072e-01 5.852231e-01 2.271882e+00 2.532353e+00 -1.190781e+00 1.416620e+00 5.013954e+00 2.016126e+00 1.432516e+00 -3.591735e-02 
-5.276467e+00 5.227217e+00 4.283790e+00 -2.338119e-01 6.312623e+00 4.698928e+00 9.904231e+00 2.015736e+00 4.559022e+00 5.640809e+00 5.488613e-01 3.553335e+00 -2.288711e-02 -2.072688e+00 -4.018926e-01 5.295661e-01 -5.008225e-01 -1.099290e+00 1.724422e-01 8.603871e-01 4.764972e-01 1.186511e+00 3.513887e+00 2.057396e+00 1.057903e+00 -2.110771e-02 
-6.329071e+00 3.566382e+00 2.041992e+00 -6.082244e-01 5.955213e+00 5.423388e+00 1.079292e+01 4.517942e+00 7.740948e+00 1.291524e+01 5.536986e+00 4.299561e+00 -1.657009e-02 -1.901917e+00 -1.325369e+00 -7.781823e-01 -1.738867e+00 -2.249278e+00 -1.701695e+00 -8.567474e-01 6.509187e-01 -3.329946e-01 1.214770e+00 1.256557e+00 4.352287e-01 -1.061791e-02 
-8.587542e+00 1.195811e+00 2.340855e-01 -4.867200e+00 -7.078491e-01 -9.565029e-01 7.223812e+00 9.072750e+00 4.802606e+00 6.068832e+00 4.931263e+00 2.857312e+00 -3.394020e-02 -1.041085e+00 -1.390567e+00 -1.495844e+00 -1.422453e+00 -2.050278e+00 -2.030873e+00 -1.265184e+00 1.639820e-01 -1.278641e+00 -1.153003e+00 -1.527189e-01 -4.724001e-01 -5.669916e-03 
-1.018769e+01 8.452616e-01 2.464625e+00 -6.318187e+00 -1.756601e+00 -3.713890e+00 5.527535e+00 4.866704e+00 3.556554e+00 7.507142e+00 3.577429e+00 3.338217e+00 -4.185879e-02 9.667025e-02 -1.570111e+00 -1.320160e+00 4.351304e-01 -2.712098e-01 -6.986934e-01 -1.376894e+00 -3.827227e+00 -5.481859e-01 -2.352446e+00 -1.947187e+00 -1.587968e+00 9.906443e-02 
-8.552580e+00 -3.650599e-01 -3.406749e+00 -4.491094e+00 -8.285844e-02 -8.867962e-01 6.211004e+00 2.661265e+00 2.580165e-01 2.579842e+00 7.650456e-01 1.672007e+00 -3.859234e-02 8.657201e-01 -1.372351e+00 -1.072900e+00 1.797831e+00 1.387778e+00 1.062168e+00 -1.193280e+00 -6.032226e+00 4.034746e-01 -1.172402e-01 -1.555068e+00 -1.982898e+00 2.262621e-01 
-5.863200e+00 -3.503735e+00 -2.738391e+00 1.379375e+00 4.286668e+00 1.895068e+00 4.414851e+00 -1.141245e+01 7.272313e+00 2.897501e+00 -2.115842e+00 -3.047625e+00 4.810781e-01 7.635997e-01 -1.226786e+00 3.535947e-01 7.776344e-01 -3.881234e-01 1.108955e+00 -1.415126e+00 -3.326741e+00 -7.213484e-01 1.121669e+00 6.297992e-01 -2.266696e+00 2.348780e-01 
-6.421186e+00 -3.491445e+00 -2.528908e+00 2.731757e-01 3.209404e+00 1.549856e+00 1.813756e+00 -1.294880e+01 4.962099e+00 7.787451e+00 2.560079e-03 -3.864258e+00 8.359021e-01 2.070324e+00 4.893664e-01 1.404087e+00 -1.600865e-01 -8.463197e-01 -5.020139e-01 -1.518454e+00 -5.647477e-01 -3.040519e+00 -3.281300e-01 1.406526e+00 5.945238e-01 1.640369e-01 
-7.435389e+00 -3.725475e+00 3.793678e+00 -4.812150e+00 -5.343349e+00 6.125598e-01 6.505303e-01 -3.961968e+00 -2.402229e+00 1.051168e+01 7.107668e+00 -5.227132e+00 6.952840e-01 4.331909e+00 1.221593e+00 -9.866837e-01 -4.730302e-01 -1.011733e+00 -8.704628e-01 -1.768553e+00 1.598779e+00 -3.603049e+00 -1.958631e+00 5.781246e-01 2.537075e+00 4.778385e-02 
2.585134e+00 2.192642e+00 3.476542e-01 -2.195764e+00 5.005524e-01 -2.755611e+00 5.008931e-01 -3.887713e+00 -1.010731e+01 -2.867898e+00 3.185920e+00 5.734379e+00 6.744891e-01 5.643292e+00 1.116919e+00 -3.715146e+00 6.514663e-01 -9.874637e-01 1.438708e+00 -2.893099e+00 3.677433e-01 -6.106637e-01 -3.455318e+00 -1.013923e+00 2.387529e+00 9.726596e-03 
1.129319e+01 -2.378161e-01 -9.110091e+00 2.486935e-01 5.824276e-01 -3.045121e-01 -3.771486e+00 -7.949095e+00 -3.208229e+00 -1.567979e+00 -8.168992e-01 4.838431e+00 8.007039e-01 6.198496e+00 3.642235e-01 -5.210454e+00 5.676614e-01 -9.056196e-02 3.691622e+00 -3.246556e+00 -2.540293e+00 1.729547e+00 -1.857122e+00 -2.312373e+00 8.996751e-01 4.619759e-02 
1.243099e+01 3.493226e-01 -1.465275e+01 1.000085e+00 -4.690803e+00 9.201934e+00 -1.044073e+01 -9.116521e+00 2.311780e+00 -3.449310e+00 -1.104773e+00 3.040605e+00 8.318251e-01 4.065905e+00 -3.727331e-01 -4.306798e+00 -7.900683e-01 -1.064626e-01 3.230143e+00 -1.877801e+00 -1.950659e+00 1.473148e+00 1.316162e+00 -1.748240e+00 -1.034622e+00 4.082778e-02 
1.863416e+01 -9.826974e-01 -1.475838e+01 -3.571768e+00 -3.200481e+00 1.309190e+01 -1.011144e+01 -1.404903e+01 3.595942e-02 1.516775e+00 -2.308850e+00 6.181307e-01 8.476040e-01 2.418777e+00 6.694760e-01 -1.797040e+00 -2.638044e+00 1.221865e+00 1.298045e+00 2.151053e-01 -6.509088e-01 -1.861193e+00 1.822342e+00 -6.180113e-01 -8.247961e-01 1.420270e-02 
1.924417e+01 7.014172e-01 -1.836219e+01 -4.235876e+00 1.859694e+00 6.696898e+00 -5.718135e+00 -1.059104e+01 -4.363664e+00 2.170537e+00 -4.809305e+00 2.671420e+00 8.551780e-01 1.885809e+00 3.441899e-01 -1.285589e+00 -1.025281e+00 9.954411e-01 3.353435e-01 1.194889e+00 -7.708064e-01 -2.920574e+00 2.322901e+00 -6.493087e-01 -3.098553e-01 1.294973e-02 
1.998048e+01 2.933517e+00 -1.624057e+01 -1.032355e+01 3.416505e+00 7.438231e+00 -5.057257e+00 -1.046638e+01 -9.176473e+00 4.733807e+00 -2.054690e+00 8.990426e-01 8.600410e-01 5.544410e-01 -4.343202e-02 -1.288390e+00 1.262129e+00 -6.092953e-01 8.486706e-01 -4.491062e-01 -2.480331e-01 -1.926162e+00 1.747201e+00 -4.488751e-01 -2.008677e-03 2.074286e-02 
2.118688e+01 1.121652e-01 -2.033960e+01 -7.504296e-01 -3.022091e+00 1.370548e+01 -6.993375e+00 -1.476188e+01 -7.684873e+00 6.556677e+00 -4.478396e+00 1.350873e+00 8.903553e-01 -1.410121e-01 -1.280521e+00 -1.487387e-01 2.865674e+00 -1.662004e+00 1.998757e+00 -3.368692e+00 7.367297e-02 -2.465966e-01 1.567844e+00 3.520703e-01 -9.661114e-01 2.681481e-02 
2.043501e+01 -9.052315e-01 -2.021163e+01 9.961519e-01 -3.806066e+00 1.383096e+01 -1.171935e+01 -1.320378e+01 -7.934247e+00 8.059711e+00 -4.718680e+00 1.268361e+00 9.337296e-01 -9.455634e-01 -2.247881e+00 1.074612e+00 3.416096e+00 -9.520575e-01 -2.030069e-01 -5.420541e+00 2.107759e+00 1.283596e+00 4.264681e-01 6.752326e-01 -1.405287e+00 3.125037e-02 
1.831184e+01 -3.781814e+00 -1.712036e+01 4.432647e+00 -2.839040e+00 1.349432e+01 -1.923055e+01 -8.853980e+00 -6.217760e+00 8.346806e+00 -1.716958e+00 -2.343796e+00 9.524077e-01 -1.806263e+00 -2.206968e+00 3.105072e+00 2.080007e+00 5.107275e-01 -2.903522e+00 -5.860535e+00 4.686822e+00 1.132500e+00 1.211049e-01 4.138612e-01 -1.745047e+00 2.708263e-02 
1.669018e+01 -6.358900e+00 -1.247714e+01 4.165396e+00 -1.435308e+00 6.528778e+00 -2.604137e+01 -2.881531e+00 -3.492051e+00 5.971083e+00 -5.924535e-02 -4.280056e+00 9.852666e-01 -1.792992e+00 -1.963442e+00 3.679200e+00 2.428930e+00 -5.573667e-01 -4.671168e+00 -3.376668e+00 5.076713e+00 3.593693e-01 6.724167e-03 -6.194668e-01 -1.027013e+00 1.646390e-02 
1.402798e+01 -8.195840e+00 -8.681487e+00 8.064984e+00 -1.653832e+00 2.838963e+00 -2.913504e+01 3.511112e+00 -4.243470e+00 8.206516e+00 -4.738807e+00 -4.600152e+00 1.000000e+00 -1.307570e+00 -1.498842e+00 3.491297e+00 2.133725e+00 -1.305741e+00 -5.077989e+00 -7.397976e-02 4.019155e+00 -3.403023e-01 -1.546171e-01 -1.872108e+00 4.769197e-01 9.684533e-03 
1.361199e+01 -8.515428e+00 -6.035066e+00 1.132463e+01 -7.185503e+00 -4.197201e+00 -2.365045e+01 5.997242e+00 -7.124546e+00 8.163477e+00 -6.305089e+00 -2.738525e+00 9.922530e-01 -1.083265e+00 -6.800096e-01 2.974509e+00 1.844568e+00 -1.728355e+00 -4.181793e+00 2.588282e+00 2.225621e+00 -1.206876e+00 -1.905805e-01 -1.743984e+00 1.365626e+00 -2.100915e-03 
1.331309e+01 -1.019776e+01 -2.884906e+00 1.152165e+01 -6.492649e+00 -6.532631e+00 -2.079592e+01 6.802407e+00 -6.103024e+00 6.477523e+00 -7.954578e+00 -7.299627e-01 9.973372e-01 -9.612637e-01 -5.462933e-02 2.688452e+00 8.200535e-01 -1.778821e+00 -3.002329e+00 4.052123e+00 4.119005e-01 -8.514169e-01 -1.882941e+00 4.806881e-02 9.671849e-01 -7.172710e-03 
1.163130e+01 -8.757988e+00 -5.028836e-01 1.165990e+01 -7.657673e+00 -9.694392e+00 -1.726953e+01 6.600924e+00 -8.596656e+00 5.882677e+00 -7.171280e+00 6.129786e-01 9.760934e-01 -1.196990e+00 1.592061e-01 2.653318e+00 3.518640e-01 -1.071213e+00 -1.586630e+00 4.293785e+00 -1.235893e+00 -4.739285e-04 -2.201711e+00 1.110930e-01 4.313379e-01 -8.079511e-03 
1.021200e+01 -8.347706e+00 1.994684e+00 1.199762e+01 -1.031185e+01 -9.424086e+00 -1.206488e+01 5.268774e+00 -7.764500e+00 -6.778777e-02 -4.065368e+00 -1.439979e+00 9.722162e-01 -1.347146e+00 2.537024e-01 2.710258e+00 5.966768e-01 -1.609348e+00 -8.505837e-01 4.467243e+00 -2.752067e+00 5.896726e-01 -2.724222e+00 3.188183e-01 -3.174634e-01 -2.268314e-03 
9.177586e+00 -8.644424e+00 4.791730e+00 1.284597e+01 -1.063197e+01 -1.068463e+01 -6.547039e+00 5.845965e-01 -6.296177e+00 4.275762e-01 -7.694230e+00 -2.268269e-01 9.644159e-01 -9.571419e-01 -5.565977e-02 2.742391e+00 1.237026e+00 -1.741030e+00 5.442523e-01 3.172773e+00 -3.515704e+00 1.374179e+00 -3.286072e+00 1.324798e-01 -4.408208e-01 7.148326e-04 
7.804223e+00 -8.986031e+00 8.019076e+00 1.391200e+01 -1.305224e+01 -1.029043e+01 -3.820942e+00 -3.949763e+00 -4.304900e+00 -4.416039e+00 -6.099012e+00 -1.897377e+00 9.918343e-01 -7.691501e-01 2.164693e-02 3.007850e+00 7.364200e-01 -1.195243e+00 1.254348e+00 1.298616e+00 -2.881627e+00 1.356724e+00 -2.963687e+00 3.907335e-01 -1.641929e-01 -6.381691e-03 
8.049482e+00 -8.717125e+00 1.019687e+01 1.688784e+01 -1.499263e+01 -6.539957e+00 -5.527630e+00 -6.368330e+00 -3.455560e+00 -8.373556e+00 -5.492059e+00 -1.362426e+00 9.698585e-01 -9.366921e-01 5.815209e-01 2.544137e+00 -2.366219e-02 -7.614678e-01 1.245910e+00 7.451662e-01 -1.302693e+00 1.653049e+00 -2.782562e+00 1.450556e+00 -2.839411e-01 -1.810275e-02 
6.930305e+00 -8.203121e+00 1.433136e+01 1.365879e+01 -1.410773e+01 -5.224681e+00 -6.081508e+00 -5.662899e+00 -2.401188e+00 -1.048566e+01 -3.212785e+00 -1.693144e+00 9.375865e-01 -1.258017e+00 1.292208e+00 1.801928e+00 -1.015236e+00 -4.682099e-01 1.011619e+00 1.429275e+00 2.257484e-01 1.600457e+00 -1.619075e+00 1.985049e+00 1.265726e-01 -3.401567e-02 
4.931084e+00 -6.128274e+00 1.435627e+01 1.285427e+01 -1.391156e+01 -6.987950e+00 -1.690925e+00 -5.072301e+00 1.017215e+00 -1.045043e+01 -1.884561e+00 -1.748649e+00 9.010261e-01 -1.602991e+00 1.929232e+00 1.361760e+00 -1.689199e+00 -8.578552e-01 4.957151e-01 2.827926e+00 1.665041e+00 1.188732e+00 -8.014215e-01 1.927400e+00 6.378954e-01 -3.916989e-02 
3.073339e+00 -3.819414e+00 1.494902e+01 1.085261e+01 -1.593383e+01 -5.008341e+00 1.407077e+00 -3.469035e+00 1.460997e+00 -1.147298e+01 2.022484e+00 -1.071403e+00 8.561722e-01 -1.008289e+00 1.980043e+00 8.674185e-01 -9.990528e-01 -1.720602e+00 8.963107e-01 4.142530e+00 2.317516e+00 6.067554e-01 -9.239587e-01 1.283435e+00 1.376362e+00 -4.580429e-02 
1.963010e+00 -1.262818e+00 1.669685e+01 9.844930e+00 -1.836886e+01 -4.169551e+00 4.867707e+00 8.599411e-01 5.570094e-01 -1.188700e+01 1.527305e+00 1.516180e+00 8.147162e-01 -4.106402e-02 1.936050e+00 2.677914e-01 -2.784195e-01 -1.333659e+00 1.681576e+00 4.489251e+00 2.774893e+00 4.477959e-02 -4.487795e-01 7.228591e-01 1.370744e+00 -5.796399e-02 
3.372897e+00 -7.356341e-01 1.749817e+01 1.016819e+01 -2.048210e+01 -2.152327e+00 1.135183e+01 2.958560e+00 8.626910e-01 -1.438716e+01 1.498458e+00 3.556252e+00 7.517200e-01 5.004607e-01 1.652098e+00 -2.004159e-01 8.066788e-01 1.236120e+00 1.902245e+00 3.886899e+00 2.564252e+00 -7.371269e-01 7.264010e-01 -3.806882e-02 4.633090e-01 -7.103665e-02 
4.575984e+00 2.010087e+00 1.442065e+01 1.180438e+01 -1.830572e+01 -8.074701e-03 1.578295e+01 5.588367e+00 1.540265e+00 -1.123723e+01 1.991748e+00 2.791242e+00 6.634322e-01 2.630697e-01 1.463660e+00 -1.443636e+00 2.610126e-01 5.121611e+00 1.446022e+00 1.322554e+00 1.793319e+00 -4.473270e-01 3.131434e+00 9.010898e-01 -1.435055e+00 -9.706175e-02 
4.269155e+00 2.804622e+00 1.508504e+01 1.390628e+01 -9.784793e+00 2.422143e+00 1.538395e+01 6.988011e+00 -2.716266e+00 -8.165859e+00 1.599919e+00 6.076113e-01 5.766309e-01 -7.482585e-01 7.803867e-01 -2.426049e+00 -1.995849e+00 7.216734e+00 -7.490574e-01 -3.409922e+00 2.498579e-01 -5.814902e-01 3.260755e+00 9.590751e-01 -1.532361e+00 -1.203461e-01 
2.830230e+00 4.285351e+00 1.068523e+01 9.280950e+00 1.890545e+00 7.733217e-01 9.464417e+00 7.811810e+00 1.098532e-01 6.595113e-01 5.982024e+00 -4.184772e+00 4.169520e-01 -1.556268e+00 -5.228192e-01 -3.341480e+00 -3.852685e+00 6.388959e+00 -1.658248e+00 -5.069366e+00 -8.473533e-01 -5.428198e-01 2.135800e+00 1.488178e-01 -1.619331e+00 -1.034542e-01 
5.044813e-01 2.028667e+00 7.235635e+00 1.450663e+00 5.503443e+00 -6.288312e+00 -2.538515e+00 3.096129e+00 -1.329553e+00 -4.031760e+00 4.298696e+00 -6.175473e-01 2.732295e-01 -1.198311e+00 -7.864827e-01 -2.827591e+00 -3.570935e+00 3.662709e+00 -1.793269e+00 -4.323886e+00 -8.416723e-01 -5.257992e-01 4.243658e-01 -2.568711e-01 -7.270958e-01 -6.578882e-02 
-1.323020e+00 -2.160318e-01 1.637957e+00 -1.231241e+00 5.994960e+00 -3.944087e+00 -6.026411e-01 3.297542e+00 -1.867190e+00 -2.625280e+00 1.386448e+00 -4.692832e+00 2.978622e-01 -7.261375e-01 -1.157011e+00 -1.365549e+00 -2.097610e+00 9.610018e-01 -6.232262e-05 -2.064205e+00 1.873637e-01 -7.024403e-01 -1.194342e+00 -7.796227e-01 2.015159e-01 -2.216712e-02 
3.542228e-01 1.122900e+00 5.470721e+00 1.307698e+00 6.476546e+00 -4.185497e+00 -1.201952e+00 5.036784e+00 -4.356740e+00 -4.401635e+00 2.613351e+00 -2.773838e+00 3.072317e-01 7.215376e-02 -3.086265e-01 -9.171085e-01 -1.403844e+00 1.736833e-01 1.155340e+00 3.117107e-01 1.004223e+00 1.860193e-01 3.946382e-01 1.112319e+00 2.211688e-01 -1.818871e-03 
-7.253289e-01 -1.046821e+00 4.739944e+00 -1.135619e+00 6.209002e+00 -2.783971e-01 -1.524889e+00 7.778301e+00 -1.888755e+00 -5.127263e+00 2.926583e+00 -2.099047e+00 2.891153e-01 5.225559e-01 5.237538e-01 1.826778e-01 -7.958789e-01 1.299564e-01 1.177915e-02 2.665262e-01 7.026904e-01 1.040539e+00 2.289593e-01 1.236982e+00 1.243086e+00 -1.378722e-02 
5.664043e-01 9.009290e-01 1.099099e+00 -5.616368e+00 6.264838e+00 -2.344454e+00 -5.188370e-01 5.876863e+00 -3.886746e-01 -8.075776e-01 9.090225e+00 -8.085953e-01 2.685086e-01 5.582568e-01 8.282876e-01 1.713676e-01 -6.499676e-01 -2.783450e-01 -3.906036e-01 3.079428e-01 -3.390219e-01 1.694506e+00 -2.449746e-01 -8.702040e-01 1.379334e-01 -1.603668e-02 
1.183669e+00 2.513723e+00 4.737157e+00 -1.748602e+00 6.750596e+00 -4.805713e+00 3.884320e-01 6.390954e+00 1.351474e+00 -3.277512e+00 4.332923e+00 5.399756e-01 2.482877e-01 6.065899e-01 7.528155e-01 7.617933e-01 9.027967e-01 -1.317787e-02 -9.742322e-01 -2.715734e-01 -1.064356e+00 3.649538e-01 -3.305086e-01 -1.378087e+00 -1.149221e+00 -2.219404e-02 
2.191008e+00 3.484066e+00 6.328952e+00 -1.635648e+00 4.814024e+00 -3.874857e+00 -6.188989e-01 4.035347e+00 2.495674e+00 -6.551383e+00 -2.440839e+00 -3.403683e+00 2.474621e-01 3.761015e-02 1.546952e-01 3.298747e-01 8.109949e-01 -5.106151e-01 -1.049617e+00 -1.499649e+00 -9.276820e-01 -5.485822e-01 -1.298937e-01 -1.599855e+00 -1.161627e+00 -3.422146e-02 
1.495319e+00 1.425688e+00 5.933984e+00 1.388005e+00 6.868520e+00 -4.384356e+00 -2.832725e+00 3.377277e+00 -1.506160e+00 -3.907903e+00 1.801677e+00 -6.547611e+00 1.886683e-01 4.327617e-02 1.662865e-01 -7.915155e-01 -8.144470e-02 -2.392786e-01 6.414053e-01 -4.244478e-01 -8.022002e-01 1.041697e-01 1.417110e+00 -6.678904e-01 -1.493059e+00 -3.291014e-02 
5.986300e-01 2.218422e+00 2.150059e+00 -3.129697e+00 3.652801e+00 -7.803216e+00 -6.406504e+00 2.745291e+00 -1.702769e+00 -1.141851e+00 2.356572e+00 -3.072936e+00 1.272110e-01 -1.494462e-01 7.277450e-01 -5.252292e-01 5.287398e-01 7.670628e-01 1.447754e+00 1.212396e+00 5.066860e-01 6.763864e-02 -1.236944e-01 -4.529451e-01 1.414293e-01 -2.864184e-02 
2.196239e+00 3.977977e+00 2.869026e+00 -1.408802e+00 6.134815e+00 3.654931e-01 1.159996e+00 3.024981e+00 3.971544e+00 1.103270e+00 -1.405235e+00 -7.090693e+00 1.438625e-01 -2.025578e-01 8.521357e-01 -5.877479e-01 3.175712e-01 6.438942e-01 1.471231e+00 1.847844e+00 1.159898e+00 4.474768e-01 -8.453075e-01 8.863612e-02 2.006460e+00 -2.072375e-02 
1.093317e+00 5.846646e+00 5.235285e+00 2.406454e+00 9.016191e+00 9.889885e-01 3.446722e+00 6.744925e+00 9.501529e-02 -9.675442e+00 -3.102109e+00 -2.424996e+00 1.266558e-01 -4.045736e-01 -4.205322e-02 -4.100103e-01 7.099234e-01 1.648423e-01 8.542261e-01 1.268799e+00 9.105734e-01 7.270249e-01 -9.208767e-01 2.816117e-01 1.903616e+00 -2.319065e-02 
2.351866e-01 3.872254e+00 1.452631e+00 2.077851e-01 7.406296e+00 -1.424304e+00 1.479884e+00 7.176949e+00 -1.676679e-01 -3.867645e+00 4.974198e+00 3.160718e+00 8.532715e-02 -7.652053e-01 -7.772424e-01 -1.013072e+00 -5.312294e-01 -1.630747e+00 -9.745189e-01 -2.082960e-01 -4.391140e-01 -4.090442e-01 -3.306453e-01 4.068759e-01 2.016403e+00 -3.112375e-02 
-4.437122e-01 2.061018e+00 8.082051e-01 -3.883729e-01 3.841271e+00 -2.637187e+00 -2.224526e-01 5.222175e+00 4.001962e+00 -3.260777e+00 5.749138e-01 1.319440e+00 4.052544e-02 -4.291887e-01 -4.419490e-01 -1.187191e+00 -1.121382e+00 -2.139894e+00 -6.900915e-01 -4.680278e-01 -1.856253e+00 -4.536211e-02 1.050428e+00 -3.247532e-01 6.581410e-01 -2.835577e-02 
-8.612733e-01 1.984580e+00 1.720399e-02 -2.667535e+00 5.685376e-01 -2.694013e+00 1.953103e+00 1.590787e+00 -2.715063e-02 -3.757289e+00 -1.209366e+00 1.119105e+00 3.130895e-02 -6.130443e-01 2.745609e-01 -4.860415e-01 -7.318617e-01 -1.089602e+00 1.797988e-01 1.461884e+00 -9.527480e-01 -1.304045e-02 9.421160e-01 -2.004182e+00 -4.329027e-01 -1.913909e-02 
-5.043964e-01 4.580739e+00 1.704437e-02 -1.762798e+00 1.735599e+00 -1.826614e+00 8.699732e-01 2.567433e-01 -2.020539e-01 -4.478479e+00 -1.634093e+00 1.886515e+00 1.188600e-02 -6.255050e-01 4.063911e-01 -5.218248e-02 -3.318055e-01 2.759271e-01 9.183155e-01 1.370442e+00 -7.514077e-01 -1.306223e+00 1.077476e+00 -6.770848e-01 -4.331117e-01 -8.506936e-03 
-2.799693e+00 3.985198e+00 -5.819957e-01 -2.764311e+00 3.011123e+00 -9.305962e-01 8.243093e+00 4.895924e+00 1.869138e+00 1.451786e+00 -3.942210e+00 7.126667e-01 3.951430e-03 -3.523300e-01 6.656214e-01 1.083575e+00 4.604809e-01 9.213678e-01 1.074937e+00 9.568443e-01 2.602236e-01 -1.712271e-01 9.881619e-01 -6.635693e-01 -5.368116e-01 -3.913140e-03 
-2.602027e+00 3.092664e+00 8.468925e-01 -1.999012e+00 3.999614e+00 1.072681e+00 3.484760e+00 -1.874328e-01 -3.477298e+00 -4.779344e-01 -1.444088e+00 -6.428985e-01 1.166952e-02 9.979172e-02 8.941040e-02 1.002003e+00 3.900466e-02 6.480449e-01 1.266764e+00 6.141580e-01 -4.665875e-02 -3.027797e-02 3.841351e-01 -2.182967e-01 9.817777e-02 -1.387769e-03 
-1.574108e+00 6.056724e+00 5.020157e+00 -2.470231e-01 4.043369e+00 1.231026e+00 5.429931e+00 3.113993e+00 7.543360e-01 -8.167520e-01 -4.622215e+00 -3.002456e-01 1.185149e-02 5.763214e-01 5.602371e-01 6.693446e-01 2.815104e-01 1.229970e+00 7.404878e-01 -5.610841e-01 -2.283297e-01 -1.759400e-02 -1.464166e-01 8.109320e-01 8.207012e-01 1.448613e-03 
-6.182303e-01 3.992028e+00 2.225981e+00 -2.826418e+00 4.459701e+00 3.426393e+00 5.347344e+00 9.144151e-01 2.039571e-01 -1.423534e+00 -2.385574e+00 2.883860e+00 9.971261e-04 4.201463e-01 5.264421e-01 1.897660e-01 6.134548e-01 1.322996e+00 -1.755624e-01 3.113236e-02 1.760580e-02 3.193928e-01 3.154872e-01 1.580835e+00 9.866001e-01 -1.840234e-03 
-9.099841e-01 6.336701e+00 2.075183e+00 -9.430556e-01 8.930928e+00 1.594987e+00 4.506380e+00 3.203351e+00 -5.945981e-02 1.192503e+00 5.831926e-01 3.052794e+00 1.653069e-02 2.765934e-01 4.120041e-01 -3.934391e-01 1.419638e-01 9.134173e-02 -5.464302e-01 2.073758e-02 -6.663389e-01 1.870608e-01 2.005309e-01 8.675146e-01 1.327558e-01 3.809995e-03 
-8.333578e-01 5.584886e+00 3.268210e+00 1.416278e+00 8.170813e+00 1.288867e-02 4.102197e+00 -1.440831e-01 -1.473436e+00 9.487414e-02 3.857382e+00 2.613582e+00 1.287460e-04 2.481987e-01 7.764222e-01 1.939127e-01 1.453880e-01 -2.590211e-01 -7.464505e-01 -1.089808e-01 -3.295027e-01 2.316887e-01 4.005396e-01 7.868282e-01 -1.271392e+00 7.828439e-03 
-8.357716e-02 7.320315e+00 2.531847e+00 -1.658552e+00 2.644522e+00 2.056267e-01 6.156193e+00 3.115472e-01 2.528337e+00 -5.733018e-01 -3.406120e+00 4.986725e-01 3.133565e-02 7.440171e-02 6.251049e-03 1.612112e-01 -1.929951e-01 -5.858216e-01 4.465311e-01 5.835403e-02 -7.674120e-01 -4.129596e-01 -6.953897e-01 -1.316445e+00 -2.206771e+00 2.275413e-03 
2.095599e-01 7.382332e+00 2.967212e+00 -1.741730e+00 6.307799e+00 3.888204e-01 3.977534e+00 7.128039e-01 6.850255e-02 1.462066e+00 3.543223e+00 -2.196042e+00 3.273684e-02 -3.442512e-01 9.259892e-02 2.737343e-01 -2.669761e-01 -5.795575e-01 4.298102e-01 -2.706521e-01 -3.811761e-01 -5.253492e-02 -1.051041e+00 -2.055774e+00 -1.989506e+00 3.667635e-03 
-1.059434e+00 5.469234e+00 3.031738e+00 -3.290272e-01 6.933328e+00 3.639676e+00 4.860482e+00 -1.062152e+00 -2.895227e+00 -2.968042e+00 -5.841955e+00 -5.576248e+00 1.160371e-02 -6.482720e-01 -6.197523e-01 -7.352183e-02 3.013024e-01 -1.062439e+00 -4.254666e-01 -2.353911e-01 5.027913e-01 5.108342e-01 -7.978988e-01 -5.906700e-01 -7.562528e-01 -8.175397e-03 
-2.066685e+00 6.973421e+00 4.386936e+00 -5.833650e-01 3.128623e+00 4.449148e-01 3.396792e+00 -1.363114e+00 9.756711e-01 -3.962960e+00 -5.203572e+00 -4.296489e+00 2.833289e-02 -5.920130e-01 -6.955870e-01 -4.603033e-01 1.618820e-01 -2.278318e+00 -1.026658e+00 2.993275e-01 1.122693e+00 1.664499e+00 -5.506939e-01 -7.202708e-01 3.271228e-01 -9.909546e-03 
-2.186815e+00 4.426009e+00 1.454376e+00 -7.312226e-01 -1.078084e+00 -1.949754e+00 5.269608e+00 3.863463e+00 4.628923e+00 -1.850283e+00 -1.986072e+00 -2.232368e+00 -7.339358e-03 -2.374890e-01 -4.633861e-01 -6.087282e-01 -9.522486e-02 -2.022953e+00 -1.357353e+00 2.691070e-01 1.507781e+00 1.870155e+00 4.348196e-01 1.092927e+00 8.751882e-01 -7.355839e-03 
