-7.016263e+00 7.489099e+00 4.212347e+00 -4.670285e+00 -1.314985e+00 -3.282550e+00 1.241804e+00 -6.764311e-01 8.032843e-01 -5.828943e-01 8.939576e-01 2.521682e+00 -1.113468e-01 -5.937048e-01 -4.749981e-01 -3.089380e-01 5.865879e-01 1.198494e+00 1.844092e-01 -6.234215e-01 4.927158e-01 1.175213e+00 3.802901e-01 1.061707e+00 -1.860450e-01 8.812333e-03 
-8.421587e+00 5.103332e+00 5.901000e+00 -1.669989e+00 1.458678e+00 -3.871653e+00 4.937017e-01 4.628173e+00 4.134810e+00 -1.566102e+00 2.705201e+00 9.814211e-01 -1.108288e-01 -5.983124e-01 -7.500767e-01 -5.333480e-01 4.746830e-01 1.152374e+00 -4.201937e-01 -1.421811e+00 1.481740e-01 1.165928e+00 7.073088e-01 5.904484e-01 -2.052261e-01 9.474099e-03 
-9.282124e+00 6.306991e+00 1.823330e+00 -3.237494e+00 3.290652e+00 -2.065952e+00 -1.501253e+00 -8.651541e-01 5.013588e+00 1.810160e+00 5.296869e+00 2.361588e+00 -6.754422e-02 -4.714567e-01 -7.407732e-01 -3.387130e-01 4.677009e-01 6.967347e-01 1.953354e-01 -1.175548e+00 1.751730e-01 8.110576e-01 1.137354e+00 1.962852e-01 1.868937e-01 7.471454e-03 
-8.874893e+00 4.329768e+00 2.740115e+00 -3.013266e+00 2.144067e+00 -5.991817e+00 -4.495725e+00 1.588007e-01 4.527770e+00 1.757122e+00 1.644744e+00 1.575599e+00 -8.587766e-02 -1.289715e-01 -2.046004e-01 -2.507451e-01 3.102375e-01 -2.998812e-01 -4.802544e-02 6.034807e-01 -4.815322e-01 -1.062198e+00 -6.211867e-01 -5.059274e-01 1.178377e+00 2.637410e-03 
-9.146893e+00 4.172014e+00 4.099224e+00 -1.660143e+00 1.825994e+00 -1.245791e+00 -2.141225e+00 2.434120e+00 4.662092e+00 3.442261e+00 2.405612e+00 3.159062e+00 -8.646512e-02 2.446247e-01 -2.925161e-01 -8.794983e-02 -1.753933e-01 -5.729780e-01 6.639099e-03 1.348861e+00 6.349837e-01 -1.440464e+00 -1.208359e+00 -8.121673e-01 5.711525e-01 -9.602380e-03 
-9.134060e+00 5.147819e+00 3.509327e+00 -9.074774e-01 6.916018e-01 -4.521861e+00 3.831091e+00 5.708749e-01 -1.000430e+00 -5.488087e+00 1.621193e+00 6.474568e+00 -8.818126e-02 3.764540e-01 -9.793016e-01 -1.540925e+00 -2.849889e-03 1.010878e-02 -8.652925e-02 1.444270e+00 -3.808957e-01 -1.621566e+00 -1.742577e+00 1.638702e-01 1.216236e-01 -4.246938e-03 
-7.929417e+00 4.435385e+00 9.989753e-01 -5.167354e+00 1.151995e+00 -2.767735e+00 1.079647e+00 2.103728e+00 5.753691e-01 -6.090312e-01 1.247808e+00 2.767866e+00 -1.144043e-01 1.163078e+00 -1.613995e+00 -2.845652e+00 1.767140e+00 1.090794e-01 -9.237044e-01 1.678399e+00 -1.196355e+00 -1.548066e+00 -1.851370e+00 -1.739473e-01 -5.358937e-01 2.862388e-02 
-7.601362e+00 -6.984255e-01 -3.414384e+00 -1.273910e+00 2.531611e+00 -5.663491e+00 1.115187e+00 -1.580481e+00 -1.536698e+00 -4.930117e+00 3.042997e+00 2.379315e+00 -9.314275e-02 9.556200e-01 -3.600923e-01 -1.252931e+00 1.576237e+00 3.124345e-01 5.700157e-01 4.232368e-01 2.160549e-01 4.576583e-01 9.181531e-01 -3.264073e-01 -2.508005e-01 2.211599e-02 
-4.097851e+00 -9.748378e-01 -6.667180e+00 7.358775e+00 1.451386e+00 -5.293498e+00 7.608720e+00 -2.471977e+00 -2.810102e+00 -6.093572e+00 8.249736e-01 2.527220e+00 5.913502e-02 -8.653383e-01 8.375422e-01 -7.715825e-01 8.643672e-01 -6.933051e-02 6.093311e-03 -9.395292e-01 -9.160236e-01 1.080917e+00 -5.298562e-02 1.951214e-01 5.650789e-01 4.377016e-02 
-6.271743e+00 6.052469e+00 1.077752e+00 7.106421e-01 2.104078e+00 -4.089011e-01 2.682739e+00 3.939002e+00 2.980597e+00 1.844949e+00 2.005734e-01 5.340888e+00 -6.437099e-02 -1.988265e+00 2.071141e+00 5.936613e-01 -5.907164e-01 -3.688244e-01 -1.345752e-01 -2.363102e+00 -1.159084e-02 1.923444e+00 -3.135942e-01 6.922157e-01 1.014210e+00 4.112689e-02 
-1.292092e+01 5.247649e+00 -5.105005e+00 -1.837793e+00 1.019108e+00 -5.364563e+00 -4.401775e+00 -5.236133e+00 3.721304e+00 -4.261493e+00 3.644627e+00 4.112473e+00 9.006059e-02 -1.717698e+00 1.159478e+00 1.473358e+00 -2.061272e+00 -4.346018e-01 -1.790500e-01 -2.103501e+00 4.201145e-01 1.702050e+00 1.679268e-01 1.433707e+00 -2.607206e-01 -9.977752e-03 
-1.313115e+01 6.546036e+00 -1.227165e+00 3.707929e-01 9.036276e-01 -6.300835e+00 -4.695076e+00 -2.563579e-01 4.814817e+00 -7.414128e+00 5.094249e+00 6.657736e+00 9.702891e-02 -2.764061e-01 -6.510589e-01 3.094225e-01 -1.234475e+00 -5.495742e-01 -5.615326e-01 -2.705506e-01 -1.002892e+00 -1.022640e+00 -5.239643e-01 8.593733e-01 -1.513915e+00 -2.288520e-02 
-9.256636e+00 4.575771e+00 1.852067e+00 -2.777658e+00 -1.213975e-01 -3.242781e+00 7.801212e-01 1.726275e+00 4.783040e+00 -6.243994e-01 5.546671e+00 5.651926e-01 -7.145369e-02 1.611207e+00 7.202785e-02 1.340634e+00 -7.320027e-01 -1.265184e-01 5.650595e-01 6.944834e-01 1.065663e+00 -1.627187e+00 4.063419e-01 -1.062395e+00 -1.740091e+00 -4.924010e-02 
-9.485914e+00 3.133113e+00 -8.536720e-01 -4.991802e+00 -7.353973e-02 -4.277456e+00 -1.260962e+00 -4.556661e+00 -2.663472e+00 -2.593419e+00 3.546418e+00 -4.550472e-01 -9.803987e-02 2.005532e+00 2.746940e-01 -1.873330e-01 -6.405871e-01 1.096097e-01 1.447067e+00 5.557132e-01 8.235569e-01 -1.400990e+00 7.870579e-02 -1.589600e+00 -1.588035e+00 -2.801088e-02 
-6.687500e+00 7.314249e+00 1.411416e+00 -2.816510e+00 8.750999e-01 -3.550955e+00 -2.646415e+00 2.242336e+00 -6.754855e-01 -4.640138e+00 -8.934312e-01 -1.031590e+00 -5.860555e-02 1.725599e+00 1.445028e+00 1.364981e-01 3.247957e-01 9.858003e-01 1.771756e+00 9.464243e-01 -2.716360e-02 -1.208071e+00 -1.013693e+00 -1.373999e+00 1.267070e+00 9.361756e-03 
-4.388059e+00 6.550266e+00 -1.943505e+00 -2.812717e+00 9.534273e-01 1.088590e+00 -2.032422e-01 3.603396e+00 5.391272e-01 -5.012730e+00 3.662997e-01 -4.840463e-01 -4.944956e-02 1.325758e+00 1.029750e+00 4.018258e-01 1.357548e+00 4.368406e-01 1.366599e+00 1.092155e+00 5.230888e-01 3.580273e-01 -4.057101e-01 -1.730895e+00 1.585263e-01 1.511135e-02 
-3.177572e+00 1.009233e+01 3.079474e+00 -2.243223e+00 4.294120e+00 2.932976e+00 4.983383e+00 -2.489572e+00 -2.858615e+00 -4.483207e+00 2.667354e-01 6.915041e+00 -4.894006e-02 6.529373e-01 -4.015714e-01 -2.011789e-01 1.898600e+00 9.774669e-01 6.516030e-01 2.286404e+00 1.064931e-01 -3.892577e-02 -2.374011e-01 -4.100620e-01 -2.823210e-02 4.303706e-03 
-4.612087e+00 6.892823e+00 3.214285e-01 1.509291e+00 4.011533e-01 -6.864260e-01 3.849123e-01 4.247366e-01 2.182293e-01 -4.700435e+00 -5.688138e+00 -3.635731e+00 -2.731586e-02 -6.130516e-01 -8.331341e-01 1.387610e-01 1.639045e+00 3.542558e-01 -5.447493e-01 2.367574e-01 1.498660e-01 -7.196666e-01 -1.119979e+00 -1.528121e+00 7.450533e-03 2.146753e-02 
-3.310800e+00 5.135114e+00 -7.269449e-01 4.515486e+00 6.038571e+00 5.945680e-01 8.491529e+00 4.364131e+00 -7.096654e-01 -5.983291e+00 8.347775e-02 4.030915e-01 -4.815388e-02 -1.247566e+00 -1.732115e+00 -5.840791e-01 1.445113e+00 -4.912154e-01 -1.408095e+00 -2.039121e+00 1.071870e+00 -7.755497e-01 -1.207096e+00 -7.872514e-01 -5.296000e-01 2.492340e-02 
-7.386703e+00 4.863207e+00 6.535095e-01 2.003155e+00 1.852481e+00 -4.659523e-01 -7.735282e-01 9.258754e-01 -4.133680e+00 -9.862580e+00 -7.182678e+00 2.809181e+00 5.749500e-02 -9.366013e-01 -2.029090e-01 4.990044e-01 2.428567e-01 5.957570e-01 9.970083e-02 -2.180179e+00 -7.565430e-01 -6.410872e-01 2.492271e-01 1.400770e+00 1.028665e+00 1.956323e-02 
-8.028093e+00 2.446567e+00 -6.962299e-03 4.735411e+00 1.112379e+00 -4.217738e+00 -4.633003e+00 2.619209e+00 -4.560409e+00 -7.937615e+00 -2.922251e+00 1.044585e+00 3.327149e-02 -3.415853e-01 -2.270412e+00 -7.068058e-01 -1.463372e+00 -1.312601e+00 -9.940834e-01 -2.534980e+00 -2.172805e+00 3.447872e-01 2.606975e-01 5.057027e-01 -3.712201e-01 8.378445e-02 
-6.936447e+00 7.222551e+00 2.456459e+00 2.613612e+00 5.843034e+00 2.218231e+00 -3.953718e+00 -2.485518e+00 -1.061835e+00 -2.477137e+00 2.818577e+00 1.186846e+00 2.978760e-02 5.741973e-01 -3.106756e+00 -1.672056e+00 -1.532968e+00 -1.137308e+00 -9.758251e-01 -2.061637e-01 -1.540844e+00 1.002483e+00 5.229743e-01 1.044765e+00 -8.042666e-01 1.237382e-01 
-5.243855e+00 -7.396617e+00 -5.162449e+00 -3.106602e+00 -2.519711e+00 -5.717940e+00 -2.593276e+00 -4.794197e+00 -5.216521e-01 -8.372525e+00 -2.388636e+00 -6.418408e-01 3.846221e-01 -4.054250e-01 -2.140467e+00 -1.033389e+00 -1.498571e+00 -8.966656e-01 1.189041e-01 2.890741e-01 -1.571088e+00 4.031933e-01 2.138513e-01 -1.207028e+00 -4.356623e-01 1.314833e-01 
-5.907835e+00 -5.748984e+00 -5.129029e+00 -1.740678e+00 -2.018013e+00 -4.594976e+00 -2.824210e+00 -3.071640e+00 -1.140646e+00 -7.030254e+00 -2.225664e+00 -3.689380e-01 5.005109e-01 1.465893e-01 -3.694209e-01 2.766571e-02 -5.830247e-01 -6.936938e-01 9.404095e-01 1.262735e+00 1.216640e+00 1.486674e+00 1.397036e+00 -1.092433e+00 -3.441623e-01 5.305072e-02 
-1.056952e+01 -1.769998e+00 -1.381163e+00 -5.803006e-01 5.595751e-01 -2.166135e-01 -3.752386e+00 -4.943168e+00 -2.505037e+00 -4.591801e+00 -6.435270e+00 -3.558342e-01 4.553261e-01 2.094469e+00 2.773612e+00 1.999576e+00 8.633755e-01 1.916683e-01 3.363405e+00 1.147084e+00 1.929116e+00 1.318420e+00 2.807953e+00 1.334998e+00 5.782408e-01 -6.454036e-02 
-3.540666e+00 2.562138e+00 7.041451e-01 -1.564662e+00 8.349218e-01 4.169616e+00 2.939512e+00 3.672170e+00 7.363227e+00 2.617680e+00 -6.202711e-01 -6.769696e-01 2.596892e-01 3.551429e+00 1.502060e+00 1.435812e+00 1.601826e+00 -5.348953e-01 3.376717e+00 2.609085e+00 1.874547e+00 -9.345902e-01 3.415884e+00 2.245587e+00 1.568184e-01 -7.163250e-02 
4.044907e+00 2.315886e+00 1.918845e+00 1.122268e+00 -2.987836e+00 6.716787e+00 2.602810e-01 1.479480e+00 1.818511e+00 8.432729e-01 3.483656e+00 2.403379e+00 1.823311e-01 5.012603e+00 5.434836e-01 6.734431e-01 1.121323e+00 -1.476456e+00 1.357720e+00 1.537625e+00 1.518985e+00 -1.582086e+00 2.000729e+00 9.923935e-01 -5.568684e-01 7.136369e-03 
4.542095e+00 -2.816269e-01 4.000251e-01 5.417171e+00 -2.918783e+00 8.821909e+00 8.214881e+00 3.089772e+00 -7.975370e+00 7.331632e+00 4.042809e+00 -9.644526e-01 2.788458e-01 3.598967e+00 -1.319182e+00 3.928793e-01 -7.694718e-01 -1.734491e+00 -4.350004e-01 -5.096722e-01 2.022780e-01 -3.498095e+00 5.727130e-01 -9.393414e-01 -7.634624e-01 1.352057e-01 
1.045211e+01 2.369302e+00 2.138112e+00 1.535398e+00 -4.945854e+00 4.245840e+00 1.298057e+00 2.942956e+00 -2.746170e+00 3.054870e+00 -3.804843e+00 -2.996434e+00 4.814296e-01 2.323184e+00 -2.207650e+00 -4.726597e-01 -3.096352e+00 -1.510210e+00 -8.754991e-01 -2.467946e-01 6.077626e-01 -2.123876e+00 5.641503e-01 -1.608574e+00 -9.831991e-01 1.930888e-01 
1.125057e+01 -4.060481e+00 2.558908e+00 -5.618586e+00 -6.858527e+00 3.230088e+00 -1.277363e-01 3.951822e+00 -7.844905e+00 4.375446e+00 -1.672729e+00 -1.794375e+00 7.861682e-01 1.693240e+00 -2.538080e+00 -1.345033e+00 -3.884385e+00 -3.256432e-01 -1.208621e+00 -1.104530e-01 -1.977330e-01 -6.377064e-01 -1.143637e-01 -1.422670e+00 -7.970160e-02 1.734669e-01 
1.230659e+01 -6.832939e+00 -1.523895e+00 -8.841613e+00 -8.569014e+00 5.135202e+00 3.197617e+00 4.087268e+00 -8.866100e+00 5.142118e+00 -1.701445e+00 -2.097656e+00 8.941138e-01 4.790198e-01 -2.936008e+00 -1.996296e+00 -2.131655e+00 7.136079e-01 1.176428e-01 1.438271e+00 -8.595559e-01 -8.827802e-01 5.600036e-01 -4.741029e-01 2.093951e-01 1.094193e-01 
1.208105e+01 -8.370908e+00 -4.494134e+00 -8.816250e+00 -2.735420e+00 2.334121e+00 6.712836e+00 1.528951e+00 -8.103937e+00 5.716189e+00 -4.122238e+00 -1.812350e+00 9.398381e-01 8.793845e-02 -1.336367e+00 -1.945477e+00 -7.052889e-02 9.373091e-01 8.549820e-01 1.111303e+00 -1.404739e+00 5.800489e-01 4.179936e-01 -1.338872e+00 -1.766218e-01 4.144712e-02 
1.243196e+01 -1.015552e+01 -4.316847e+00 -7.524043e+00 -3.439368e+00 5.282037e+00 5.069125e+00 -1.433881e-01 -7.030555e+00 5.184517e+00 -4.950603e+00 -1.940471e+00 9.516910e-01 1.650207e-01 -9.737294e-01 -8.563117e-01 5.814027e-01 8.388289e-01 7.723125e-01 -7.242355e-02 -7.889360e-01 1.900434e-01 5.078770e-01 -1.257304e+00 -3.089832e-01 2.024320e-02 
1.162757e+01 -9.081024e+00 -5.772000e+00 -6.630015e+00 -4.736804e+00 7.431581e+00 4.493023e+00 -9.565446e-01 -5.862433e+00 6.444215e+00 -6.742509e+00 -2.756076e+00 9.646152e-01 9.541788e-02 -9.271625e-01 1.220530e-01 6.307886e-01 -3.748835e-01 8.105706e-01 -4.127874e-01 -1.806189e-01 4.078475e-01 -1.953704e-01 -4.583850e-01 -4.187766e-01 1.391054e-02 
1.335844e+01 -1.134653e+01 -5.166521e+00 -7.027717e+00 -3.374177e+00 6.448035e+00 3.945405e+00 1.385336e+00 -9.036635e+00 7.317490e+00 -6.677831e+00 -3.170708e+00 9.829413e-01 -2.672254e-01 -5.001281e-01 2.435716e-01 4.006204e-01 -4.975576e-02 -4.065895e-03 -2.966375e-01 3.188487e-01 2.289146e-01 -4.820813e-01 -1.522542e-01 -3.172199e-01 1.206745e-02 
1.209491e+01 -1.241122e+01 -3.459032e+00 -5.910470e+00 -4.642433e+00 5.803975e+00 5.210759e+00 -1.385055e-01 -5.061659e+00 3.672851e+00 -5.550549e+00 -3.291114e+00 9.937657e-01 -3.185202e-01 -4.139514e-01 3.850300e-01 3.830190e-01 -8.312511e-03 -2.108748e-01 -6.097497e-01 6.985120e-01 1.233668e-01 -6.943048e-01 6.347380e-02 -5.589879e-02 8.528138e-03 
1.086217e+01 -1.099107e+01 -4.255473e+00 -5.880714e+00 -3.735332e+00 6.075510e+00 3.227069e+00 1.041836e+00 -6.286368e+00 4.159792e+00 -6.307854e+00 -3.259052e+00 9.974531e-01 -2.104908e-01 1.842759e-01 -2.260652e-01 7.636898e-01 -3.240794e-01 4.484219e-01 -1.301677e+00 8.408337e-01 2.280066e-01 -5.003856e-01 -1.971200e-01 1.751353e-01 2.614051e-03 
1.128310e+01 -1.132851e+01 -4.302374e+00 -5.288421e+00 -4.597788e+00 6.563469e+00 1.803443e+00 2.707765e+00 -6.620732e+00 4.551539e+00 -6.610128e+00 -2.991398e+00 1.000000e+00 4.911048e-01 3.128754e-01 -8.205653e-01 8.682718e-01 5.517597e-02 4.618358e-01 -1.499543e+00 1.018459e+00 -5.462698e-01 3.806291e-01 -3.530729e-01 -2.194236e-01 -1.477867e-03 
1.271188e+01 -1.096650e+01 -5.875176e+00 -3.520293e+00 -5.016896e+00 8.310397e+00 -8.593208e-01 4.166369e+00 -7.117066e+00 4.376217e+00 -7.133641e+00 -2.444890e+00 9.928944e-01 6.471100e-01 5.133694e-01 -8.822285e-01 1.037023e+00 -4.166973e-01 8.632431e-01 -1.175543e+00 2.502411e-01 5.006425e-01 -4.374417e-01 4.772165e-01 -5.275300e-01 -7.073104e-03 
1.362558e+01 -1.085912e+01 -6.752007e+00 -2.749322e+00 -3.725771e+00 6.995710e+00 -2.437593e-01 3.391522e+00 -7.377660e+00 5.467784e+00 -6.903019e+00 -4.795313e+00 9.886557e-01 3.056975e-01 8.973090e-01 -8.356876e-01 9.710199e-01 -1.238362e-01 4.749344e-01 -9.967791e-01 3.282590e-01 5.370091e-01 -9.596998e-01 1.106730e+00 -6.327910e-01 -1.128826e-02 
1.292649e+01 -8.658915e+00 -7.441799e+00 -1.965146e+00 -6.254827e+00 1.017560e+01 -1.627046e+00 1.951163e+00 -3.404692e+00 1.514461e+00 -3.775326e+00 -4.994744e+00 9.677597e-01 6.336799e-02 1.029584e+00 -7.597055e-01 9.967428e-01 -1.327765e-01 -3.154117e-01 -5.637337e-01 -4.875643e-02 1.162400e+00 -1.343001e+00 1.548157e+00 -7.209194e-01 -1.386793e-02 
1.270429e+01 -7.995760e+00 -7.697501e+00 -1.210895e+00 -4.598004e+00 8.005537e+00 -2.796590e+00 5.456663e+00 -5.791873e+00 1.183918e+00 -2.755635e+00 -4.880426e+00 9.561260e-01 -9.476256e-02 5.442182e-01 -4.104209e-01 1.478435e+00 -7.691239e-01 -2.043137e-01 -5.702240e-01 -2.641615e-01 1.095034e+00 -5.876840e-01 7.607211e-01 2.286650e-01 -9.852665e-03 
1.348937e+01 -7.250264e+00 -9.200957e+00 6.942081e-01 -5.244662e+00 6.228425e+00 -2.401574e+00 2.890016e+00 -2.097962e+00 -1.968563e-01 -1.466546e+00 -6.006930e+00 9.398195e-01 1.478384e-01 2.600387e-01 -3.682348e-01 1.364869e+00 4.083365e-01 -1.940799e+00 9.146738e-02 1.907882e-01 -1.227234e-01 7.350869e-01 4.014044e-02 4.038562e-01 -7.622689e-03 
1.287032e+01 -8.842359e+00 -7.924533e+00 3.313176e+00 -8.076473e+00 7.947732e+00 -2.707615e+00 1.601288e+00 -2.555853e+00 3.385022e+00 -4.253804e+00 -3.145895e+00 9.533625e-01 1.044493e-01 -1.751112e-01 6.626666e-01 9.209250e-01 1.907751e-01 -1.514215e+00 1.801860e-01 -7.417317e-01 6.932471e-01 7.801447e-01 -6.963932e-01 1.031461e+00 -5.028474e-03 
1.358266e+01 -6.935422e+00 -9.169457e+00 2.597163e+00 -2.473910e+00 5.005153e-01 -1.214196e+00 4.832791e+00 -5.636320e+00 4.089343e+00 -2.825539e+00 -3.842728e+00 9.310281e-01 -9.030952e-02 -3.837809e-01 1.343640e+00 6.558391e-01 -1.989946e-01 -1.116787e+00 3.282112e-01 -9.584913e-01 9.839069e-01 1.944304e-01 -6.730120e-01 1.214048e+00 -2.447796e-03 
1.317989e+01 -9.028737e+00 -4.399918e+00 2.442252e+00 -5.029504e+00 3.298416e+00 -2.489349e+00 7.766172e-01 -5.564592e-01 2.941541e+00 -5.558105e+00 -8.052195e-01 9.353794e-01 -3.125845e-01 -3.261430e-01 2.051929e+00 -4.573948e-01 2.741108e-01 -1.280776e+00 6.346295e-01 -1.287600e+00 1.542978e+00 -5.632936e-01 -1.128294e-01 7.713771e-01 -4.098803e-03 
1.288303e+01 -9.075979e+00 -4.245063e+00 4.408866e+00 -7.763119e+00 2.969148e+00 -8.696505e-01 -1.490105e+00 1.821876e+00 9.970362e-01 -4.179455e+00 -1.107027e+00 9.365721e-01 -5.034202e-01 -3.102690e-01 2.276772e+00 -6.787488e-01 2.840999e-01 -9.248639e-01 6.925059e-01 -1.635751e+00 1.711393e+00 -5.443158e-01 2.856589e-01 4.123673e-01 -8.806283e-03 
1.165721e+01 -9.402795e+00 -1.270864e-01 1.203513e-01 -4.061314e+00 3.095362e-01 2.932599e-01 -1.675263e+00 1.429940e+00 2.114708e+00 -4.140993e+00 -6.568607e-01 9.300964e-01 -5.094856e-01 5.899923e-01 1.533044e+00 -9.150015e-01 1.608675e+00 -2.066387e+00 1.328812e+00 -1.357042e+00 9.503477e-01 8.279147e-02 1.252125e+00 -3.300023e-01 -2.224104e-02 
1.182690e+01 -8.299738e+00 7.798910e-02 3.643696e-01 -1.537506e+00 -2.629365e+00 8.570291e-01 -2.120027e+00 1.927446e+00 1.781181e+00 -2.105800e+00 -1.855072e+00 8.896381e-01 -1.218201e-01 1.053127e+00 1.417386e+00 -1.006046e+00 2.131264e+00 -2.106063e+00 9.166603e-01 -1.156530e+00 3.731243e-01 6.016613e-01 1.675323e+00 -1.407574e-01 -3.888325e-02 
1.116053e+01 -6.466896e+00 1.103777e+00 -1.105072e-01 -9.893465e-02 -4.234264e+00 3.291369e+00 -5.693634e+00 4.142494e+00 2.963426e+00 -3.343093e-01 -2.081209e+00 8.476412e-01 3.644370e-01 1.950418e+00 1.646809e-01 4.961211e-01 1.060467e+00 -1.584521e+00 9.535207e-01 -2.081327e+00 3.520540e-01 2.325857e-01 2.309131e+00 4.160978e-02 -5.622651e-02 
1.252227e+01 -5.278294e+00 2.226435e+00 -5.059364e-01 9.120121e-01 -5.289269e+00 2.214596e+00 -5.263567e+00 2.331220e+00 3.580984e+00 2.293815e+00 -1.098640e+00 7.833835e-01 4.726199e-01 2.729735e+00 -9.566903e-03 9.498305e-01 4.677216e-01 -3.665136e-01 9.741294e-01 -2.674744e+00 3.698757e-01 -9.444270e-02 2.037243e+00 8.219172e-01 -7.582961e-02 
1.313171e+01 -1.161429e+00 -3.779051e-01 3.036110e+00 1.626039e-02 -6.283114e+00 4.382080e+00 -1.051013e+01 2.988323e+00 2.377735e+00 5.204852e+00 -8.270277e-01 7.020912e-01 1.915725e-01 3.236229e+00 5.484363e-01 1.517064e+00 7.148654e-01 9.918948e-01 3.493192e-01 -1.329535e+00 -4.842291e-01 -5.325493e-01 1.075910e+00 7.271523e-01 -9.929696e-02 
1.320441e+01 2.696203e+00 7.709959e-01 3.540214e+00 7.435052e-01 -3.437508e+00 5.182321e+00 -1.308550e+01 4.353910e+00 1.601813e+00 5.310834e+00 1.627424e+00 5.832651e-01 -1.432915e+00 3.628904e+00 1.920760e+00 2.093184e+00 2.082590e+00 2.795262e+00 -4.138615e-01 8.928415e-01 -5.434346e-01 -2.582799e+00 -9.383726e-01 -4.112175e-01 -1.097168e-01 
1.177732e+01 5.727001e+00 4.573679e+00 5.451739e+00 3.559646e+00 -2.006708e-01 3.554102e+00 -8.430343e+00 7.100036e-01 1.290265e+00 3.536731e+00 1.915211e-01 4.512156e-01 -3.088490e+00 2.489198e+00 3.226939e+00 1.772933e+00 2.810168e+00 2.845268e+00 -6.702774e-01 2.903259e+00 -6.857635e-01 -1.134381e+00 -1.670086e+00 -1.694873e+00 -1.137150e-01 
6.034892e+00 9.422012e+00 9.354444e+00 8.752171e+00 9.553268e+00 5.645817e+00 5.592779e-01 -1.839253e+00 7.532070e-01 -8.789274e+00 -1.563987e+00 -3.664001e+00 3.602374e-01 -3.977952e+00 -4.262392e-01 1.743849e+00 1.431448e+00 1.284337e+00 1.268814e+00 -1.356730e+00 3.270378e+00 -2.371352e-01 4.135402e-01 -6.956779e-01 -1.408663e+00 -9.573167e-02 
1.274019e+00 7.921655e+00 1.146507e+01 9.294795e+00 9.662216e+00 3.401566e+00 3.342215e+00 -1.616959e+00 1.359857e+00 1.901372e+00 2.918319e-01 -6.655679e+00 2.450303e-01 -3.838344e+00 -2.932366e+00 -1.532081e+00 2.051694e-01 -7.641186e-01 3.285683e-01 -1.529415e+00 1.875732e+00 7.773697e-01 1.393322e+00 3.022641e-01 -4.958836e-01 -6.549416e-02 
-1.433703e+00 -5.323198e-01 6.044547e+00 8.775926e+00 4.113905e+00 1.105444e+00 -1.495385e+00 -1.403016e-01 2.843308e+00 3.363961e+00 3.454894e+00 -1.992290e+00 2.076994e-01 -2.677986e+00 -4.278114e+00 -4.484329e+00 -2.017184e+00 -3.092874e+00 -9.625751e-01 -7.729988e-01 1.867646e+00 1.682265e+00 3.027673e+00 1.206316e+00 1.748770e+00 -3.285504e-02 
-3.680097e+00 -3.957664e+00 -1.431776e+00 6.465709e+00 2.458734e+00 3.712357e+00 -3.065642e+00 9.884010e-02 3.551802e+00 2.180260e+00 2.538611e+00 -3.123753e+00 2.000138e-01 -1.261222e+00 -3.427109e+00 -4.323493e+00 -2.518923e+00 -2.911669e+00 -1.504395e+00 -2.273700e+00 -1.124832e-01 -2.452415e-01 -8.840668e-01 -3.178077e-01 1.962186e+00 2.262056e-04 
-4.877981e+00 -6.028900e+00 -6.618781e+00 8.079267e-02 -2.309359e+00 6.775458e-01 -1.017877e-01 6.641078e+00 8.068559e+00 6.209648e+00 3.344202e+00 3.313887e+00 2.184705e-01 -7.604913e-01 -1.309327e+00 -1.425109e+00 -1.578662e+00 -9.162967e-01 -1.527841e+00 -1.684298e+00 -1.247738e+00 -1.018880e+00 -1.535655e+00 -1.157970e+00 8.758639e-01 1.153255e-02 
-3.309950e+00 -6.465599e+00 -3.820732e+00 1.047748e+00 -1.684500e+00 -3.906458e+00 -8.723084e+00 -5.570065e+00 -2.478976e+00 -3.941805e+00 -1.241861e+00 5.021595e-01 2.407758e-01 -8.721257e-03 3.163549e-01 1.410424e+00 -3.670604e-01 -1.111624e+00 -2.011377e+00 -1.486139e+00 -2.549417e+00 -1.449899e+00 -6.746710e-01 -8.692490e-01 -6.363949e-01 -1.234591e-04 
-5.421233e+00 -5.824990e+00 1.134782e-01 3.591597e+00 1.604038e+00 -2.724354e+00 -7.088156e+00 -3.544541e+00 7.642950e-01 -1.253283e+00 -4.447199e-01 5.740736e-01 2.449811e-01 1.343432e-02 1.007759e+00 2.419551e+00 8.336077e-01 7.700338e-01 -1.027938e-01 -9.315242e-01 -1.301976e+00 -1.248442e+00 -1.098082e+00 -6.352974e-01 -1.930858e+00 -1.222615e-02 
-3.452077e+00 -2.477844e+00 2.254214e+00 2.875005e+00 -5.056083e+00 -4.643577e+00 -7.003151e+00 -7.555435e+00 -4.556096e-02 2.538370e+00 8.682665e-02 -4.935821e+00 1.861412e-01 2.796496e-01 1.495982e+00 1.826443e+00 7.594618e-01 6.179600e-01 9.169379e-01 1.522951e+00 2.029908e+00 6.858286e-01 2.722002e-01 7.504978e-01 -1.041630e+00 -3.179110e-02 
-4.739746e+00 -2.983981e+00 2.441499e+00 3.335202e+00 3.226602e+00 5.321357e-01 -5.619376e+00 1.123885e+00 6.096402e-01 -2.520850e+00 -4.966284e-01 -3.621412e+00 1.846570e-01 8.947982e-01 1.533261e+00 7.826744e-01 -9.706974e-03 5.924513e-01 4.062440e-01 9.165779e-01 7.993665e-01 1.932224e-01 1.951344e-01 1.040665e+00 -7.894655e-01 -4.913642e-02 
-2.252446e+00 -4.061916e-01 4.147472e+00 4.973254e+00 5.940187e-01 -9.500134e-01 -1.842717e+00 2.245261e+00 1.027495e+00 -1.947021e+00 2.536583e+00 -2.608247e+00 1.119823e-01 5.550671e-01 8.910538e-01 -2.385678e-01 -8.001879e-01 4.722467e-01 -2.568305e-01 1.096842e+00 1.456169e+00 6.157647e-01 -9.364525e-01 5.494700e-02 1.035448e+00 -5.006574e-02 
-1.547058e+00 8.054886e-01 3.080221e+00 2.493937e+00 1.741244e+00 -2.539915e+00 -5.085484e+00 -4.448056e+00 1.193879e+00 1.965085e+00 3.533726e+00 -4.537041e+00 3.637844e-02 7.399278e-01 1.158335e+00 3.437025e-02 -4.648242e-01 -7.349782e-01 -1.244861e+00 1.566758e+00 4.431361e-01 -2.170211e-01 -1.359093e+00 -9.676028e-01 8.743000e-01 -5.025759e-02 
-2.273086e+00 8.268952e-02 7.420144e-01 -7.053025e-01 -1.952171e+00 -4.391704e+00 -1.785886e+00 2.511380e+00 2.741143e+00 -4.386859e+00 -1.653616e+00 6.992350e-01 9.951770e-03 -7.242947e-01 1.426342e+00 -2.487555e-02 -2.412939e-02 1.997645e-01 9.304160e-01 6.952804e-01 -1.199909e-01 4.559433e-02 -1.302293e+00 -1.120603e+00 1.684039e+00 -3.228262e-02 
-1.029787e+00 2.563252e+00 4.316079e+00 3.850360e+00 8.248055e-01 -3.971323e+00 2.186000e+00 3.206506e+00 -1.332290e+00 -8.096396e+00 -3.239543e+00 -9.036533e-01 -1.561570e-02 -1.024463e+00 2.245745e+00 7.090307e-01 3.311861e-01 1.598844e-01 1.339207e+00 9.344599e-01 6.534935e-01 2.197270e-01 -8.790919e-01 6.028239e-01 2.012823e+00 -2.280651e-02 
-6.132555e+00 5.846637e+00 3.405166e+00 4.174396e+00 2.051061e+00 4.417771e+00 -2.002057e+00 -2.181974e+00 2.518551e+00 -3.427747e+00 3.202012e-01 3.995254e+00 -2.343369e-02 -1.151629e+00 1.988438e+00 8.345600e-01 -1.930254e-01 1.255970e+00 1.405328e+00 1.501783e-01 -1.380612e-01 7.131622e-01 1.825304e+00 2.586803e+00 1.049619e+00 -2.690106e-02 
-4.739640e+00 9.152243e+00 5.293799e+00 1.710019e+00 5.390501e-01 -2.486161e-01 -3.050984e-01 1.166089e+00 2.403810e+00 -2.909931e+00 5.560938e+00 3.879062e+00 -6.096137e-02 -1.157300e+00 8.273914e-01 -6.686440e-01 -1.392806e+00 6.138604e-01 1.602287e-01 -1.631202e-01 -8.876219e-02 1.947763e+00 2.492582e+00 1.499517e+00 5.118603e-01 -2.259537e-02 
-6.176304e+00 6.730384e+00 4.425954e+00 -6.002591e-01 4.470558e+00 7.735844e-01 2.105551e-01 2.841282e+00 4.438904e+00 2.146429e+00 6.880159e+00 3.555975e+00 -1.018807e-01 -5.220753e-01 -3.172981e-01 -4.003486e-01 -1.443319e+00 4.005323e-01 -1.497929e+00 4.689083e-01 1.166521e+00 9.565169e-01 1.224989e+00 -7.794128e-02 -5.966278e-01 -1.940430e-02 
-6.794411e+00 6.258336e+00 4.624642e-01 -7.263454e-01 2.684359e+00 -1.348086e+00 2.640934e-01 2.510671e-01 7.446348e+00 1.579425e+00 9.780622e-01 1.875287e+00 -8.936906e-02 -9.327006e-01 -1.269554e+00 -1.063525e+00 -1.153600e+00 2.745973e-01 -1.448969e+00 1.080948e-01 8.273902e-02 -7.616536e-01 8.019514e-02 -9.562318e-01 -1.085076e+00 -1.054874e-02 
-7.715545e+00 5.707100e+00 3.819090e+00 -1.824015e+00 2.981068e+00 -2.522139e+00 5.788898e-02 4.108143e+00 4.779866e+00 4.525197e-01 2.221932e+00 2.014002e+00 -1.062514e-01 -7.540795e-01 -5.303088e-01 -3.430324e-01 -2.139403e-01 -2.360457e-02 -1.944432e+00 -1.137455e+00 -8.464118e-01 -8.135226e-01 -4.847468e-01 2.680568e-01 -1.007155e+00 -4.423022e-04 
-8.633522e+00 3.316115e+00 2.796047e-01 -3.446104e+00 2.656782e+00 -5.845602e+00 3.117085e-01 9.463536e-01 -1.574939e+00 -1.662000e+00 3.108892e+00 -7.753309e-01 -1.115197e-01 -6.061090e-01 -3.601298e-01 -8.110993e-02 5.063163e-01 -3.286762e-01 -1.441627e+00 -1.054814e+00 -4.070879e-01 3.154787e-01 -4.211951e-01 1.112193e+00 -8.709095e-02 1.825368e-03 
-9.027145e+00 5.549950e+00 2.802222e+00 -3.100812e-01 4.366324e+00 -6.699818e+00 -5.500528e+00 -1.738420e+00 4.881935e+00 1.343408e+00 7.155028e+00 -1.544903e-01 -9.301686e-02 -1.973251e-01 -2.465115e-01 -4.798250e-01 5.819052e-01 -2.292200e-01 -6.834716e-01 -5.867181e-01 2.431947e-02 1.235291e+00 -2.440576e-01 6.372803e-01 1.053408e+00 2.993929e-03 
-9.169155e+00 4.536262e+00 5.653486e-01 1.048269e+00 3.483496e-01 -6.467383e+00 -2.230766e+00 1.138909e+00 8.972708e+00 -9.719946e-01 4.072482e+00 2.524079e+00 -8.685946e-02 2.989541e-01 2.743784e-01 6.723341e-01 4.595863e-01 1.736170e-01 1.087080e+00 2.437463e-01 2.426613e-01 6.106909e-01 4.545504e-01 -9.766134e-01 1.101250e+00 2.176177e-03 
-8.434355e+00 3.864469e+00 1.277093e+00 -1.161676e+00 2.989184e+00 -5.628606e+00 -1.604464e+00 4.133462e+00 5.682499e+00 -1.112771e+00 4.926540e+00 5.631338e+00 -1.036118e-01 8.107812e-01 3.788998e-01 3.228467e-01 3.458887e-02 4.221294e-01 1.996027e+00 1.456264e+00 3.747643e-01 -1.521474e+00 1.669743e-01 -7.238361e-01 2.948827e-01 -2.661836e-03 
-7.435148e+00 5.530747e+00 4.403839e+00 -7.223755e-01 4.213436e+00 -9.458088e-01 -4.175918e-01 -7.762811e-01 1.078233e+00 1.838841e+00 -6.599305e-01 1.838007e+00 -9.534132e-02 8.293325e-01 7.731010e-01 1.373605e-01 7.184767e-01 6.324083e-01 1.689738e+00 4.760271e-01 -3.556873e-01 -1.583969e+00 5.195128e-01 -2.664209e-01 1.993453e-01 8.666026e-03 
-5.840244e+00 6.947206e+00 2.497210e+00 7.481854e-01 4.544428e+00 5.195289e-01 8.742033e-01 1.092997e+00 1.221801e+00 7.728612e-01 5.902054e+00 1.662959e+00 -1.020851e-01 1.140544e-01 7.620470e-01 1.737095e-01 7.547032e-01 -1.063918e-01 8.009039e-01 4.674591e-01 -3.842345e-01 -2.361954e-01 4.772992e-01 1.736940e-01 7.617503e-01 8.111966e-03 
-6.319548e+00 6.860398e+00 6.420927e-01 3.685722e+00 2.732769e+00 -1.092760e+00 -1.089965e+00 8.807055e-01 3.283209e+00 6.827528e-01 2.252620e+00 5.504995e+00 -4.429269e-02 -3.810000e-01 3.927024e-01 3.518807e-01 3.216160e-01 -1.054135e-01 -2.186344e-01 -4.635354e-02 -9.910609e-02 4.502159e-01 1.600625e-01 4.107685e-01 8.270435e-01 -1.467514e-03 
-8.421883e+00 7.009878e+00 4.026514e+00 4.077916e-01 3.197558e+00 -1.550611e+00 1.069018e+00 1.383797e+00 3.399034e+00 1.851769e+00 4.338735e+00 7.606596e+00 -8.857632e-02 -5.314007e-01 -1.184756e-01 1.200820e+00 -2.244759e-01 -3.482888e-01 -5.580109e-01 5.006734e-01 -5.886728e-01 -2.165148e-01 1.098822e-01 -1.102924e+00 -5.721922e-01 -5.857813e-03 
-8.049328e+00 7.462923e+00 5.398591e+00 1.055902e+00 4.359803e+00 -1.003911e+00 -7.467667e-01 -1.417212e+00 2.240696e+00 2.099700e+00 2.175572e+00 3.001406e+00 -1.094333e-01 -1.836093e-01 -2.569978e-01 1.305849e+00 -4.957087e-01 -2.694698e-01 -3.208720e-01 1.072883e+00 -5.249434e-01 -7.984002e-01 -1.375878e-01 -7.566096e-01 -1.845521e+00 -1.192499e-02 
-7.632357e+00 6.053566e+00 6.123062e+00 9.407163e-01 1.989467e+00 -2.314950e+00 3.205971e+00 -7.014086e-01 6.604838e-01 6.137989e-01 4.259597e-01 5.379243e-02 -9.880388e-02 1.996021e-01 -3.321982e-01 4.917567e-01 9.506641e-02 -4.786521e-01 -2.839718e-01 8.226646e-01 -3.454608e-01 -7.057313e-01 -3.961841e-01 -9.575161e-01 -1.805322e+00 -9.825707e-04 
