-1.098774e+01 -1.240032e+00 -2.337409e+00 -5.534344e+00 -2.499187e+00 -2.625447e+00 1.013278e+00 -2.670746e+00 2.309800e+00 7.053748e+00 2.202964e+00 5.123534e-01 3.159767e-02 2.214762e-01 3.849608e-01 1.443809e-01 3.602059e-01 -1.087194e+00 5.044619e-02 8.304651e-01 1.178313e+00 -4.491953e-01 -1.047081e+00 2.496087e+00 2.937454e-01 -1.487291e-03 
-1.079447e+01 -1.057320e-01 -2.093810e+00 -7.768977e+00 -6.405821e+00 -7.582442e-01 2.933002e+00 9.381554e-01 2.099540e+00 6.325403e+00 4.807830e+00 -1.783902e+00 1.490992e-02 1.700811e-01 2.030030e-01 2.344411e-01 1.168742e+00 -1.937108e-01 -2.032915e-01 3.133740e-01 1.059433e+00 -6.310316e-01 -3.619023e-01 2.352676e+00 3.163198e-01 -6.475091e-04 
-9.976990e+00 1.176224e-01 -1.737303e+00 -2.615998e+00 -5.981839e+00 -3.306818e+00 4.205742e+00 1.416366e+00 1.689533e-01 2.182518e+00 1.338097e+01 3.129208e+00 3.250510e-02 1.932816e-01 2.992632e-01 2.787439e-01 7.777799e-01 3.722600e-01 -3.460287e-01 4.902055e-01 1.129496e+00 -5.162154e-01 1.527544e-01 1.168841e+00 8.046363e-01 2.257186e-03 
-1.064271e+01 -9.038439e-01 -1.465256e+00 -1.149805e+00 -1.726416e+00 -3.301219e+00 9.839163e-01 5.828625e-01 2.250654e-01 7.679852e+00 8.377342e+00 7.855252e-01 2.790642e-02 -9.988622e-02 -1.158607e-01 -4.317965e-02 1.081096e+00 1.310223e+00 -5.710359e-01 -3.525229e-01 -7.095149e-01 1.053009e-01 4.475380e-01 -1.213250e-02 1.768635e+00 2.144956e-03 
-1.009721e+01 6.553400e-01 -1.257966e+00 -4.955030e+00 -2.977590e+00 -3.084103e+00 4.438848e+00 3.154380e+00 6.659602e-01 7.140296e+00 6.262411e+00 3.250821e+00 3.638536e-02 -3.319796e-01 -1.602355e+00 -2.041612e-01 7.326398e-01 7.996055e-01 4.737906e-01 3.495787e-01 -6.528330e-01 -5.199136e-01 -2.641086e+00 -1.027044e+00 9.933368e-01 2.024365e-02 
-1.123379e+01 -9.538943e-01 -2.549377e+00 -1.193980e+00 -1.356828e+00 -3.724781e+00 1.053834e+00 -3.478426e+00 2.377541e+00 6.084204e+00 8.306446e+00 6.998467e+00 2.369457e-02 -3.961398e-01 -2.556195e+00 3.354979e-02 1.374075e+00 4.530168e-01 2.469816e-01 1.392193e-01 -5.118438e-01 -3.856384e-01 -6.416716e+00 -2.097664e-01 -1.425465e+00 5.218880e-02 
-1.134134e+01 -7.869127e+00 -2.216049e+00 1.069289e+00 -2.168605e+00 -7.260838e-01 5.918676e+00 1.828450e-01 -3.506852e+00 -1.022509e+01 8.281197e+00 4.989421e+00 1.358293e-01 -1.322794e-01 -1.030281e+00 2.776645e-01 9.212319e-01 2.340025e-01 -5.254872e-01 -1.118735e+00 -1.016930e-01 -8.158017e-01 -4.422915e+00 -4.862840e-01 -1.969771e+00 1.986023e-02 
-1.200134e+01 -9.422585e+00 -8.184658e-01 2.708412e+00 1.341753e-01 -3.245321e+00 9.400985e-01 -4.905885e-01 3.832798e-01 -1.572104e+01 6.319117e+00 -7.211099e+00 2.391285e-01 1.480947e-01 9.312533e-01 4.158469e-01 -1.337542e+00 -3.904111e-01 -4.107080e-01 -6.687678e-01 5.555319e-01 -2.924085e-01 1.131519e+00 -8.670709e-02 -2.367121e+00 -1.312839e-02 
-1.037484e+01 -2.617216e-01 -7.350997e-01 -2.300067e+00 -2.553080e+00 -5.951269e+00 -1.097960e+00 1.151997e+00 -2.415917e+00 -4.071663e+00 4.824655e+00 5.067476e-01 2.796954e-02 1.381369e-01 2.465509e+00 -1.239089e-01 -2.223543e+00 -7.571571e-01 -1.130967e+00 -1.349231e+00 -5.623183e-01 5.784582e-01 5.575691e+00 6.425924e-01 4.489893e-01 -4.815205e-02 
-1.097657e+01 -1.013310e-01 -1.210617e+00 -6.197013e+00 -3.116647e+00 -3.165729e+00 1.218314e+00 -1.185343e+00 3.700316e-01 8.665087e+00 9.601182e+00 -2.595803e+00 1.198250e-02 -8.290520e-02 1.652862e+00 -8.935781e-01 -2.609589e+00 -1.663475e+00 -4.246792e-01 2.712928e-01 -5.350463e-01 1.383774e-01 5.254264e+00 2.780911e-01 2.412739e+00 -4.576271e-02 
-1.116304e+01 -2.022111e-01 -2.639518e+00 -5.595712e+00 -4.328980e+00 -6.420716e+00 -9.665861e-01 -2.281369e+00 -6.079369e-01 5.460305e+00 9.853127e+00 4.926720e+00 8.642018e-03 -6.897392e-02 3.096139e-01 -4.893927e-01 -1.490673e+00 -1.376108e+00 4.441030e-01 1.593138e+00 1.669676e-01 8.592884e-01 1.438986e+00 -5.325854e-01 7.239709e-01 5.272257e-03 
-1.202176e+01 -1.188029e+00 -4.334147e+00 -8.691710e+00 -7.295249e+00 -5.133994e+00 2.230875e+00 -1.449137e+00 1.711763e-01 5.784301e+00 5.195337e+00 2.642610e+00 1.997870e-02 5.931072e-01 1.182360e+00 6.984111e-01 1.602356e-01 3.654525e-01 2.205810e+00 1.709142e+00 1.563251e+00 7.747699e-01 -1.469144e+00 -1.761135e+00 6.080035e-01 1.182838e-02 
-1.019711e+01 1.829697e+00 -1.620298e+00 -8.506083e+00 -7.344317e+00 -2.746621e+00 6.361446e+00 2.118732e+00 1.979952e+00 4.563658e+00 4.364651e+00 1.507396e+00 5.033273e-02 1.130199e+00 1.663315e+00 8.100269e-01 8.020256e-01 1.339225e+00 2.474554e+00 1.716317e+00 1.795228e+00 -3.814638e-01 -1.373595e+00 -1.896509e+00 -2.156450e+00 1.630461e-02 
-8.494001e+00 4.794517e+00 1.771829e+00 -3.940649e+00 2.182843e-01 6.026273e+00 6.100009e+00 4.430861e+00 2.949936e+00 1.767689e+00 3.539745e+00 2.153877e+00 5.027902e-02 9.290355e-01 1.252033e+00 1.842173e-01 1.435859e+00 1.316356e+00 1.500161e+00 4.952236e-01 6.694731e-01 -1.240147e+00 -1.973421e+00 -8.876111e-01 -1.593195e+00 1.686553e-02 
-7.275930e+00 5.123091e+00 -1.642371e+00 -3.961114e+00 -1.389623e+00 3.719207e-01 5.680433e+00 3.754774e+00 -3.904636e+00 6.006335e-01 1.198380e+00 -5.611164e+00 7.501489e-02 1.525615e-01 3.438087e-01 -9.587975e-01 1.532168e+00 1.354946e+00 2.300703e-01 -5.293008e-01 -1.705805e-01 -1.866044e+00 -3.075836e+00 -2.390331e-01 -6.622263e-01 2.300703e-02 
-8.837173e+00 3.425438e+00 -3.402024e+00 -3.784899e+00 -3.690816e+00 8.075410e-01 5.047500e+00 1.080208e+00 -3.087265e+00 -2.101295e+00 2.340417e+00 -1.764087e+00 9.196526e-02 -1.919449e-01 -4.132540e-01 -9.216216e-01 1.236440e+00 -2.104686e-01 -1.423221e+00 -1.218811e+00 -6.435226e-01 -1.894320e+00 -3.602757e+00 -9.085413e-01 -1.640813e+00 2.461237e-02 
-9.262718e+00 4.233280e+00 -3.827359e+00 -9.231195e-01 1.384961e+00 1.013096e+00 4.241197e+00 2.941156e+00 -4.331666e+00 -8.881031e+00 3.769149e+00 1.552466e-01 1.445248e-01 2.460741e-01 -8.541702e-01 2.503921e-01 1.713517e+00 1.346250e-01 -3.574514e-01 -1.031567e+00 -6.301955e-01 -1.461749e+00 -1.070598e+00 6.226111e-01 3.856839e-01 4.731971e-03 
-8.460333e+00 3.173152e+00 -1.743786e+00 7.225533e-01 -2.221350e+00 -1.410420e+00 7.255740e-01 1.620057e+00 -6.308148e+00 -1.150526e+01 -2.288346e+00 -8.933393e+00 1.385859e-01 1.034827e+00 -6.091625e-01 6.990769e-01 2.454874e+00 1.667412e+00 -4.891932e-01 -3.669336e-01 9.664968e-01 -9.533073e-01 -4.966757e-01 -7.860477e-01 -6.810217e-01 1.414466e-03 
-6.233980e+00 9.783823e-01 -1.219529e+00 2.352746e+00 -1.451230e+00 -3.063560e-01 2.683563e+00 3.338718e-01 -9.602940e+00 -5.037200e-02 6.625817e+00 -9.809065e-02 7.536441e-02 2.070242e+00 2.185337e-01 1.367272e+00 1.996809e+00 1.802600e+00 -2.925158e-01 6.752658e-01 1.173832e+00 2.038478e+00 8.717593e-01 -1.853858e+00 1.035124e-01 1.241210e-02 
-5.177408e+00 2.007074e+00 -1.210554e+00 6.851539e+00 6.064340e+00 -9.786991e-01 3.991648e+00 7.216334e+00 -5.218165e+00 -9.000003e+00 -3.018155e+00 -5.042527e+00 1.336178e-01 3.896260e+00 1.447036e+00 1.397139e+00 1.508690e+00 1.306804e+00 -7.856103e-01 8.935125e-01 2.160498e+00 2.007643e+00 -1.054870e+00 -1.304884e+00 1.035212e+00 8.879843e-02 
-5.529714e-01 5.908988e+00 2.742387e+00 5.996432e+00 6.255114e+00 -6.653435e-01 5.984488e+00 6.012177e+00 5.315731e+00 -5.774865e+00 -5.135238e+00 -1.272624e+00 2.090693e-01 4.081264e+00 1.991527e+00 1.472066e+00 1.036989e+00 3.438533e-01 -3.009976e+00 -1.215439e+00 2.611328e+00 1.882827e+00 -3.703081e+00 -2.005871e+00 -9.028549e-02 1.445685e-01 
8.180462e+00 7.943029e+00 3.260951e+00 6.444158e+00 4.594964e-01 -5.158978e+00 3.542674e+00 9.583396e+00 -3.729270e+00 -1.391737e+01 -2.932238e+00 -3.170065e+00 5.157256e-01 2.148104e+00 9.659861e-01 2.651878e+00 2.507724e-01 -6.371137e-01 -1.902951e+00 -2.267754e+00 -3.456855e-02 2.295272e-01 -1.439104e+00 -7.494841e-01 -6.062779e-01 1.177845e-01 
7.493405e+00 7.968041e+00 3.905049e+00 7.741381e+00 3.070458e+00 -1.326610e+01 -3.169145e+00 1.220698e+01 -9.332508e-01 -1.610709e+01 -3.446496e+00 -1.485749e+00 6.071531e-01 -1.345196e+00 -6.067901e-01 2.483115e+00 -1.522988e+00 -4.013142e-01 3.603648e-02 -2.818790e+00 -4.419383e-01 -2.207727e-01 1.159322e+00 1.439008e+00 -1.044526e+00 8.000792e-02 
1.539922e+00 5.807477e+00 1.146750e+01 7.232926e+00 4.471099e+00 -4.193077e+00 -2.770303e+00 3.946090e+00 -9.460384e-01 -1.102941e+01 -7.609947e+00 -7.967354e+00 5.234982e-01 -3.941192e+00 -1.090781e+00 1.543353e+00 -1.870015e+00 -3.490716e-02 2.753397e+00 -1.605024e+00 -1.984867e+00 3.841876e+00 5.770664e+00 1.597766e+00 1.278420e-01 2.991120e-02 
-3.958683e+00 3.942813e+00 1.105469e+01 -2.012890e+00 2.242742e+00 -9.681118e-01 -4.952974e+00 6.621138e+00 2.820251e+00 -1.422235e+00 4.398658e+00 -4.096609e+00 6.052226e-01 -1.150719e+00 -1.934168e+00 -2.285958e+00 -3.144194e+00 -1.344063e+00 3.912436e+00 -1.228722e-01 -3.308701e+00 1.853913e+00 6.431622e+00 6.723860e-01 1.115888e+00 6.102816e-02 
-5.799454e+00 4.501739e+00 7.402897e+00 1.971219e+00 6.988187e-01 2.459012e+00 -3.590529e+00 2.451982e+00 1.360336e+01 7.593524e+00 1.134016e+00 -1.225425e+00 6.662469e-01 1.547040e+00 -2.542285e+00 -5.166754e+00 -2.243862e+00 -2.185148e+00 1.438148e+00 4.751922e-01 -2.489977e+00 6.402145e-01 3.582662e+00 8.792973e-02 2.400284e+00 9.943213e-02 
5.409496e+00 -1.049931e+00 -5.492435e+00 -5.348734e+00 -1.763716e+00 2.970037e+00 -3.373393e+00 -3.589469e+00 1.061616e+00 6.739548e+00 -4.456547e+00 7.227291e-01 8.409196e-01 2.461851e+00 -2.263479e+00 -4.990701e+00 -1.185394e+00 -1.059813e+00 -6.056038e-02 9.604300e-01 -2.775562e+00 -5.591449e-01 -5.972654e-01 -3.080508e-01 2.795498e-01 9.283511e-02 
4.591031e+00 -4.407578e+00 -6.092710e+00 -2.318463e+00 -4.451409e+00 1.028587e+00 -1.184133e+00 -3.398493e+00 3.134351e+00 2.803008e+00 -2.742695e+00 1.624397e+00 9.028104e-01 2.630080e+00 -2.327830e+00 -3.463182e+00 -8.808654e-01 -2.372191e-01 -9.413553e-01 8.331930e-01 -1.302476e+00 -2.468402e+00 -9.388191e-01 -1.870360e-01 -2.019980e-01 6.671336e-02 
3.155327e+00 -2.919924e+00 -7.151013e+00 -5.795018e+00 -4.812086e-01 -5.557016e-01 -1.354023e+00 -4.331434e+00 5.259030e+00 -2.013303e+00 4.796760e+00 -4.123771e+00 9.511164e-01 1.346588e+00 -1.486217e+00 -7.342405e-01 6.649031e-01 -1.334589e-01 -5.023898e-01 9.497167e-01 -2.875446e-01 -1.275075e+00 1.182297e+00 -7.285430e-01 1.882244e-01 2.439492e-02 
8.478029e+00 -6.202415e+00 -9.083724e+00 -2.209966e+00 -1.128531e+00 -4.848957e-01 -4.342489e-01 -3.689416e+00 -8.373633e-01 7.275854e+00 -4.427818e+00 1.878344e-01 9.447153e-01 1.786566e+00 -8.917887e-01 -2.902784e-02 3.448887e-01 -8.602357e-01 9.787027e-01 4.518003e-01 -3.924305e-01 -2.247500e+00 2.677191e+00 -2.110281e+00 9.623646e-01 3.253156e-03 
1.019894e+01 -7.583597e+00 -7.668131e+00 -2.078467e+00 -4.092450e+00 1.214830e+00 1.000249e+00 -4.881731e+00 -3.327899e+00 1.041461e+01 -7.256701e+00 2.382132e+00 9.419417e-01 1.587807e+00 -6.617624e-01 3.023859e-01 4.711303e-01 -1.739545e+00 1.636146e+00 4.685676e-01 -4.541496e-01 -1.982844e+00 2.464087e+00 -3.008597e+00 2.022620e+00 -6.950981e-03 
1.000206e+01 -6.534685e+00 -5.979290e+00 -2.452295e+00 -6.946967e+00 5.036835e+00 -1.022668e-01 -5.085497e+00 -3.809685e+00 9.975006e+00 -7.267370e+00 3.183268e+00 9.236635e-01 4.816442e-01 1.405191e-02 5.154402e-01 -3.927942e-01 -1.098426e+00 1.590408e+00 1.278499e-01 -7.873574e-01 -6.020891e-01 3.450737e-01 -1.040498e+00 8.821481e-01 -4.021823e-03 
1.033235e+01 -6.062601e+00 -7.191301e+00 -3.318202e+00 -6.269714e+00 4.864164e+00 8.228242e-01 -5.904141e+00 -3.169028e+00 8.957556e+00 -8.826447e+00 4.491613e+00 9.268874e-01 1.956577e-01 6.896897e-02 -1.424184e-02 -3.110852e-01 4.296951e-02 7.030157e-01 -9.482350e-02 -8.934369e-01 2.914045e-01 -2.122615e-01 -6.999061e-01 5.117563e-01 2.302229e-04 
1.081954e+01 -6.892653e+00 -6.744938e+00 -3.554069e+00 -5.532030e+00 5.642479e+00 2.937131e-01 -7.114998e+00 -3.927245e+00 9.729751e+00 -8.845437e+00 3.543834e+00 9.321334e-01 2.478767e-01 -8.089018e-02 -3.940440e-01 -1.157104e-01 7.739441e-01 -1.824062e-01 2.248461e-01 -1.228010e+00 5.291269e-01 7.513189e-02 -5.346310e-01 2.926723e-01 4.036260e-03 
1.076848e+01 -7.059768e+00 -7.356517e+00 -3.083006e+00 -4.585071e+00 4.427086e+00 3.281417e-01 -8.334165e+00 -1.812097e+00 9.475932e+00 -9.967198e+00 4.760631e+00 9.388579e-01 3.119833e-01 -1.725473e-01 -1.865917e-01 9.151592e-02 5.781661e-01 1.418507e-01 -5.048315e-01 -4.319890e-01 2.101433e-02 2.734543e-01 -3.918142e-02 9.306093e-02 2.881545e-03 
1.102337e+01 -6.440552e+00 -7.866902e+00 -3.148445e+00 -3.919568e+00 4.343343e+00 1.269305e+00 -1.001054e+01 -1.842516e+00 1.009148e+01 -9.370150e+00 4.512121e+00 9.378595e-01 2.551132e-01 -2.701751e-01 -3.715477e-02 2.640230e-01 3.497268e-01 -1.204867e-02 -7.341545e-01 3.760006e-01 -1.565522e-01 -8.563995e-03 2.785562e-01 5.969010e-02 3.396648e-03 
1.179035e+01 -7.151388e+00 -7.563277e+00 -3.063434e+00 -4.185114e+00 6.222985e+00 -2.189129e+00 -6.616318e+00 -4.106321e+00 1.014396e+01 -8.759998e+00 4.472775e+00 9.384320e-01 2.271228e-01 -5.892576e-01 1.472631e-01 6.246624e-01 2.870290e-01 -2.594328e-01 -7.195094e-01 5.642848e-01 -2.552437e-01 -3.151483e-01 8.942735e-01 -4.850234e-01 7.273072e-03 
1.158418e+01 -8.197720e+00 -6.827332e+00 -2.243740e+00 -3.983374e+00 4.684286e+00 -2.118424e+00 -6.093919e+00 -3.562894e+00 9.352915e+00 -8.056256e+00 3.986213e+00 9.493296e-01 1.605835e-02 -8.801647e-01 5.175284e-01 6.719620e-01 5.898389e-01 -1.317389e+00 -3.088340e-01 8.892704e-01 -7.805815e-01 6.639880e-01 -7.797308e-02 -4.206637e-01 1.165903e-02 
1.162370e+01 -9.127473e+00 -7.139987e+00 -4.120464e-01 -3.118022e+00 2.959451e+00 -1.575541e+00 -7.471049e+00 -2.228126e+00 8.269472e+00 -6.152777e+00 2.598468e+00 9.694883e-01 -3.887992e-01 -4.734378e-01 4.099226e-02 8.671401e-01 1.081974e+00 -2.416640e+00 6.248723e-01 1.352941e-01 -4.217640e-01 8.152624e-01 -3.713170e-01 -1.332190e-01 1.544330e-02 
1.118699e+01 -9.853333e+00 -5.490906e+00 -1.114329e+00 -1.503920e+00 -6.118344e-01 -5.816593e-01 -5.136818e+00 -6.684521e+00 1.434866e+01 -1.106363e+01 3.345956e+00 9.806266e-01 -4.644188e-01 1.336770e-02 -2.873754e-01 7.586797e-01 7.934985e-01 -1.787498e+00 3.012366e-01 4.199877e-02 -2.781130e-01 1.059138e+00 -9.729881e-01 3.331903e-01 1.300174e-02 
1.004494e+01 -8.690769e+00 -8.026528e+00 7.075610e-01 -1.497050e-02 -3.212153e+00 1.668496e-01 -6.418398e+00 -4.654327e+00 1.172240e+01 -9.112899e+00 4.126808e+00 1.000000e+00 -5.450057e-01 3.660784e-01 -3.108732e-01 7.953275e-01 -5.867147e-02 -5.370744e-01 -3.079563e-01 2.822086e-01 -1.744482e-01 6.968074e-01 -1.106678e+00 5.519130e-01 6.332689e-03 
1.005146e+01 -8.349232e+00 -7.820937e+00 9.898548e-01 -1.567408e+00 -1.167401e+00 -1.483436e+00 -6.410251e+00 -3.740358e+00 1.292214e+01 -1.144114e+01 4.887994e+00 9.990824e-01 -4.022162e-01 4.122310e-01 -2.439845e-01 1.128361e+00 -4.111544e-01 -3.657341e-05 -1.252926e-01 -7.887434e-01 1.233203e+00 -6.888758e-01 -6.949455e-01 5.884874e-01 1.762056e-03 
9.466436e+00 -8.049131e+00 -7.529337e+00 2.512499e+00 -3.379636e+00 5.518621e-01 -2.664434e+00 -5.423290e+00 -4.572448e+00 1.246677e+01 -1.149741e+01 4.587014e+00 9.919238e-01 -2.526755e-01 1.111131e-01 6.510677e-01 1.110605e+00 -9.589728e-01 6.641492e-01 -3.973244e-01 -9.525064e-01 1.706753e+00 -1.244272e+00 -6.660860e-01 1.169815e-01 -2.853817e-03 
9.465168e+00 -8.112997e+00 -6.959424e+00 3.625005e+00 -1.877359e+00 -2.494025e+00 2.075193e-01 -9.578089e+00 -5.594435e-01 1.053210e+01 -1.334610e+01 6.058290e+00 9.934750e-01 -4.053399e-01 1.754805e-01 1.065649e+00 1.019650e+00 -1.190400e+00 8.864489e-01 -6.699005e-01 -1.216869e+00 2.287930e+00 -2.376925e+00 4.734593e-01 -8.272530e-01 -5.405158e-03 
9.074712e+00 -8.253322e+00 -5.201947e+00 4.943009e+00 -4.654858e+00 7.719048e-01 -2.665250e+00 -9.597011e+00 2.288982e+00 6.696059e+00 -1.149085e+01 4.126567e+00 9.885346e-01 -2.597235e-01 1.552486e-01 1.861877e+00 1.891787e-01 -9.842742e-01 1.068450e+00 -1.266452e+00 -1.193742e+00 2.103404e+00 -2.270721e+00 9.627236e-01 -9.158714e-01 -1.218604e-02 
8.220619e+00 -7.369735e+00 -3.656386e+00 4.872848e+00 -6.881797e+00 3.154822e+00 -4.832530e+00 -1.040774e+01 4.268575e+00 3.922868e+00 -9.077122e+00 9.819522e-01 9.737512e-01 -5.846951e-02 2.988006e-01 2.575071e+00 -8.694738e-01 -6.278328e-01 1.498309e+00 -1.959443e+00 -9.732555e-01 2.030807e+00 -2.351318e+00 1.709936e+00 -1.211306e+00 -2.605871e-02 
8.790093e+00 -7.644520e+00 1.285318e-01 2.834471e+00 -5.798788e+00 3.069687e+00 -6.476667e+00 -1.097717e+01 3.530563e+00 4.417781e+00 -8.818282e+00 2.545826e+00 9.408555e-01 2.583356e-01 3.938206e-01 2.994504e+00 -1.133264e+00 3.927825e-01 2.060158e+00 -2.348646e+00 -6.617600e-01 2.390748e+00 -2.792432e+00 1.923000e+00 -8.537707e-01 -5.313853e-02 
9.315129e+00 -6.923395e+00 3.250694e+00 3.319049e-01 -4.444559e+00 3.848628e+00 -7.683988e+00 -1.375428e+01 8.973800e+00 -8.535075e-02 -6.132696e+00 7.921290e-01 8.870209e-01 2.140895e-01 7.522351e-01 2.788922e+00 -4.540111e-01 2.365402e+00 2.858865e-01 -1.416354e+00 1.924141e+00 1.208874e+00 -3.973790e+00 2.003664e+00 -6.092819e-01 -7.488307e-02 
9.819135e+00 -6.507389e+00 6.317036e+00 1.547162e+00 -3.909564e+00 1.072579e+01 -1.298275e+01 -1.123254e+01 1.189011e+01 -5.261990e+00 -3.348060e+00 -4.737455e-02 7.662071e-01 -6.276350e-02 8.641465e-01 1.905008e+00 6.964082e-01 2.707658e+00 -1.181186e+00 -3.843203e-01 3.787774e+00 1.603756e-02 -4.208332e+00 2.443279e+00 -1.033124e+00 -7.485574e-02 
8.776546e+00 -4.177125e+00 7.193974e+00 3.246447e+00 4.000601e+00 7.562015e-01 -8.661259e+00 -6.593487e-01 6.133170e+00 -1.110620e+01 -1.793911e+00 -7.678571e-01 6.866601e-01 -1.842019e-01 8.807188e-01 9.651021e-01 1.251904e+00 2.078070e+00 -1.494362e+00 4.835239e-01 4.545880e+00 -1.570890e+00 -2.663101e+00 1.965147e+00 -1.036110e+00 -5.801423e-02 
8.745568e+00 -4.696922e+00 7.681931e+00 4.859241e+00 3.516922e+00 -1.290028e+00 -7.909633e+00 1.414228e+00 5.031066e+00 -1.111346e+01 1.228721e+00 -1.839799e+00 6.667572e-01 -1.354404e-01 7.813859e-01 2.360954e-01 1.643338e+00 1.483836e+00 -2.028268e+00 1.259450e+00 3.590988e+00 -2.147017e+00 -9.125456e-01 1.903980e+00 -1.208181e+00 -3.161310e-02 
8.930903e+00 -3.425034e+00 7.393757e+00 4.935388e+00 2.232546e+00 2.384731e+00 -7.802927e+00 2.651730e+00 4.548871e+00 -1.047512e+01 1.404649e+00 -3.492210e+00 6.466748e-01 -6.900525e-02 9.301996e-01 -9.111700e-02 1.524583e+00 8.075107e-01 1.032330e-01 1.027744e+00 2.040968e+00 -1.229607e+00 3.815594e-01 1.432500e+00 -1.376179e+00 -1.975611e-02 
9.064754e+00 -2.976505e+00 7.397621e+00 8.919383e+00 4.393642e+00 -2.298108e-01 -7.114669e+00 5.066864e+00 1.947176e+00 -1.014025e+01 4.572561e+00 -4.726101e+00 6.281343e-01 -5.147001e-01 2.090686e+00 2.062394e-01 1.375438e+00 1.660169e+00 5.414603e-01 1.955677e+00 1.641568e+00 -3.498654e-01 -1.830646e-01 -6.533371e-01 -5.517739e-01 -2.204313e-02 
8.271927e+00 -3.863358e-01 6.880544e+00 8.839289e+00 7.599794e+00 7.422576e-01 -3.920022e+00 7.719173e+00 1.527078e+00 -9.685000e+00 3.696671e+00 -6.205602e+00 6.071910e-01 -1.038224e+00 2.713078e+00 2.416171e-01 9.294049e-01 1.586719e+00 2.247415e-01 2.859386e+00 1.573906e+00 2.640398e-01 6.880207e-01 -1.098882e+00 -6.250514e-01 -3.503740e-02 
6.501556e+00 4.237157e+00 8.969735e+00 9.784481e+00 9.134143e+00 2.238510e+00 -7.270288e-02 7.088349e+00 4.792635e+00 -1.242384e+01 -3.183976e+00 -3.241973e+00 5.762835e-01 -1.520375e+00 2.311037e+00 -2.421608e-02 -8.371013e-01 7.068920e-01 1.242391e-01 1.716451e+00 3.811875e-01 -1.470699e-02 1.198553e+00 -1.750910e-01 1.417827e-01 -6.905310e-02 
5.021384e+00 6.533526e+00 7.815785e+00 9.149863e+00 7.795888e+00 2.274278e+00 2.973021e+00 9.510518e+00 4.446340e+00 -5.893227e+00 -2.114922e-01 -7.359531e+00 4.974132e-01 -2.088532e+00 1.080399e+00 -7.500563e-02 -1.843879e+00 -3.069826e-01 -7.754285e-01 1.195488e-02 -2.505582e-01 -6.508428e-01 1.378162e+00 7.589258e-01 -9.808838e-02 -9.857035e-02 
3.088148e+00 5.118750e+00 6.808920e+00 4.578589e+00 7.830055e+00 -3.746256e-01 -1.978937e+00 6.077130e+00 4.140099e-01 -6.043373e+00 5.651187e+00 -3.440223e+00 3.377576e-01 -2.055227e+00 -7.033362e-01 -6.093019e-01 -2.676630e+00 -1.167161e+00 -2.237085e+00 -1.926667e+00 -8.494915e-01 -8.891429e-01 1.602744e+00 1.645128e+00 1.226626e-01 -1.004411e-01 
-4.640312e-01 4.574863e+00 7.585923e+00 2.222842e+00 6.716926e+00 -1.828317e+00 -2.907130e+00 6.971992e+00 4.621768e-01 -5.984425e+00 3.073718e+00 -6.596920e+00 2.336021e-01 -1.728220e+00 -1.635626e+00 -1.264963e+00 -2.014642e+00 -4.536520e-01 -8.807873e-01 -1.520314e+00 -9.049093e-01 -7.843286e-01 -3.042236e-01 -4.747608e-02 1.757155e-01 -7.295839e-02 
-1.031871e+00 1.699807e+00 6.038157e+00 -1.351590e-01 3.837819e+00 -6.895618e+00 -6.765965e+00 4.110154e+00 2.339003e+00 -4.364521e+00 3.399057e+00 -3.009966e+00 2.059835e-01 -1.260836e+00 -1.653647e+00 -1.551337e+00 -8.224474e-01 -1.781916e-01 3.216660e-02 -7.047865e-01 -6.968032e-01 -9.945058e-01 -1.507106e+00 -6.106504e-01 -1.531405e-01 -2.937343e-02 
-1.559706e+00 6.486821e-02 1.876353e+00 1.433526e+00 7.523746e+00 1.130837e+00 -2.235033e+00 5.969460e+00 -4.377987e-01 -8.253771e+00 6.771927e-01 -6.696082e+00 1.985083e-01 -9.337497e-02 -5.482499e-01 -1.280453e+00 -1.682065e-01 -2.212013e-01 8.057593e-01 5.085950e-01 -8.577259e-02 -9.092924e-01 -1.190822e+00 1.800659e-01 3.101564e-03 -1.085236e-02 
-2.668195e+00 -8.944883e-01 1.907020e+00 8.610106e-01 6.535687e+00 -1.693370e+00 -5.838918e+00 3.094380e+00 -4.108531e+00 -1.244423e+01 3.796197e+00 -4.156343e+00 2.084374e-01 3.933161e-01 6.713497e-01 -8.026451e-01 9.581614e-02 -8.864979e-01 6.553271e-01 -1.000712e-01 4.525704e-02 -1.078324e+00 -1.473485e+00 5.846119e-01 7.967810e-01 -1.377914e-02 
-1.127439e-01 3.130762e+00 3.249228e+00 8.837252e-01 4.261985e+00 -4.006445e-01 -8.276787e-01 7.051016e+00 -8.605182e-01 -7.898679e+00 3.775477e+00 -6.008223e+00 1.781133e-01 9.472290e-01 1.718762e+00 -4.594952e-01 -1.425494e+00 -2.073801e+00 -9.203292e-01 -1.246224e-01 -1.235353e+00 -1.265422e+00 -1.213499e-01 3.158909e-01 2.003240e+00 -1.254653e-02 
2.112288e-01 3.523609e+00 1.338494e+00 6.188221e-01 1.036210e+00 -2.853241e+00 -7.969998e+00 3.795661e+00 -2.841257e+00 -1.190949e+01 4.772974e+00 6.300092e-01 1.472853e-01 7.049564e-01 1.688561e+00 -3.771431e-01 -1.057944e+00 -6.278061e-01 -2.738228e-01 1.570117e-01 -2.170319e+00 1.148646e-01 7.313763e-01 -8.552243e-01 1.342651e+00 -1.768128e-02 
1.736727e+00 6.449629e+00 -1.368597e-01 -5.572849e+00 -9.552179e-02 -2.890873e+00 -1.792605e+00 -5.579458e-01 -7.398547e+00 -9.127888e+00 1.768259e+00 9.269428e-01 1.663517e-01 1.255205e-01 1.367720e+00 3.864062e-01 -4.864763e-01 1.423053e-01 -3.231919e-01 2.420053e-01 -2.784688e+00 1.663553e-01 1.263133e+00 -1.194626e+00 6.275447e-02 -8.158172e-03 
-6.814909e-02 5.888885e+00 1.714348e+00 -1.200423e+00 5.575410e+00 -1.817369e+00 -4.571396e+00 -3.952735e+00 -2.651938e-01 -8.172742e+00 5.236851e-01 -9.106734e-01 1.259119e-01 -5.363408e-01 1.380030e+00 1.117672e+00 -1.578274e-02 1.478619e+00 1.201781e+00 2.318959e+00 -2.848024e-01 9.379188e-01 2.323707e+00 -1.266774e+00 -1.283016e+00 -1.120987e-02 
6.545477e-01 8.786724e+00 4.993332e+00 -6.390338e-01 2.703912e+00 -2.534540e+00 -1.316953e+00 -2.998225e+00 -1.316773e+00 -3.451389e+00 -7.301009e-02 -4.924109e+00 1.480092e-01 -7.546115e-01 4.762033e-01 5.459160e-01 1.127158e+00 1.471518e+00 9.518679e-01 1.626370e+00 1.933430e+00 9.634142e-01 1.296329e+00 -6.938015e-01 -5.096453e-01 -2.100735e-02 
-1.929386e+00 9.255211e+00 4.361760e+00 -1.926999e+00 7.029589e+00 2.977499e+00 3.386973e+00 3.591788e+00 -1.192550e+00 -3.129207e+00 -6.402625e-01 -2.859544e+00 1.004072e-01 -7.339458e-01 3.283671e-01 -4.608064e-02 2.860427e-01 -8.094509e-02 8.419286e-01 1.770004e+00 2.470804e+00 1.030029e-01 2.105064e+00 -3.591367e-01 7.493531e-01 -2.358761e-02 
-1.105712e+00 7.147482e+00 1.269015e+00 4.262295e-01 6.534980e+00 -5.289683e-01 2.360061e+00 5.336946e+00 -2.117797e+00 -5.168008e+00 -1.118775e+00 -6.468483e-01 7.406729e-02 -8.522005e-01 -6.612073e-01 -7.853609e-01 -2.150965e-02 -6.312630e-02 7.728249e-01 1.048917e-02 4.182559e-01 5.989536e-01 1.607093e+00 6.126941e-01 1.610096e+00 -2.487859e-02 
-2.857749e+00 8.350342e+00 3.346103e+00 -3.028412e-01 3.255150e+00 1.389488e+00 2.440118e+00 4.233699e+00 6.503326e-01 3.210887e+00 -7.491161e-01 6.974617e-01 4.494476e-02 -1.085432e+00 -6.835302e-01 -2.580826e-01 2.847299e-01 -1.278014e+00 -1.907377e-01 -1.141400e+00 -1.715659e+00 -4.020798e-01 8.552473e-01 8.858033e-01 9.361642e-01 -1.116179e-02 
-3.142273e+00 5.933122e+00 1.574355e+00 -1.558661e+00 4.275499e+00 2.123590e+00 -7.910795e-01 -1.227901e+00 7.565535e-01 1.414026e+00 3.044887e+00 1.347866e+00 5.134743e-02 -1.165618e+00 -2.904969e-01 5.780744e-01 2.660378e-01 -1.855179e+00 -4.678283e-01 -7.453138e-01 -1.167207e+00 -1.098714e+00 -5.111260e-02 7.113228e-01 -1.301249e-02 -4.040527e-03 
-6.338263e+00 6.444741e+00 2.918677e+00 4.890957e-01 1.769261e+00 6.975313e-01 -7.444568e-01 -1.704083e+00 -4.640124e+00 -2.143988e+00 1.706923e+00 8.239201e-01 5.595815e-02 -5.171412e-01 -4.338804e-01 2.275253e-01 8.226074e-01 -1.614691e-01 -6.864800e-02 1.110829e-01 1.071016e-01 -8.630921e-01 -1.346963e+00 2.291458e-01 -5.069861e-01 -2.594334e-03 
-5.193545e+00 6.647798e+00 4.373100e+00 1.360450e+00 -1.997972e+00 -2.522131e+00 2.257798e-01 2.469800e+00 -4.966139e+00 -2.746134e+00 1.209819e+00 -7.751399e-01 4.835796e-02 -3.661497e-01 -3.527357e-01 7.758351e-02 5.467146e-01 3.983865e-01 8.804790e-01 1.618515e+00 1.063629e+00 1.032853e+00 3.335035e-01 4.199817e-01 -7.593778e-01 -9.232813e-03 
-4.417819e+00 5.823601e+00 3.084358e+00 2.350640e+00 5.584540e+00 3.369109e+00 2.487103e+00 2.920357e+00 -8.037816e-01 -1.443846e+00 1.314147e+00 -7.759660e-01 3.346783e-02 1.755479e-01 -2.447700e-01 -4.336339e-01 -2.745944e-01 1.874204e-01 6.749033e-01 2.035594e+00 8.571707e-01 1.808070e+00 1.103446e+00 6.399518e-01 -4.494816e-01 -7.521778e-03 
-5.933244e+00 4.480013e+00 1.879432e+00 2.441397e-01 4.359792e+00 5.190197e+00 5.685717e+00 1.778024e+00 4.002647e+00 2.731473e+00 5.341184e+00 -1.649080e+00 1.642853e-02 -5.746378e-01 -5.573158e-01 -1.248808e+00 -1.712718e+00 -8.056695e-01 3.313883e-01 1.586193e+00 2.484393e-01 6.983585e-01 1.038402e+00 1.377337e+00 8.505311e-01 -5.375099e-03 
-5.090674e+00 6.304783e+00 1.997341e+00 -3.257213e-01 -4.725192e-01 2.158840e-01 6.703544e+00 2.927659e+00 -8.416688e-02 6.344403e-01 2.841000e+00 -9.865179e-01 3.431398e-02 -8.526995e-01 -2.973030e-01 -3.310634e-01 -1.194764e+00 -2.497438e+00 -1.569162e+00 1.088166e+00 1.753192e-02 2.215695e-01 5.286511e-01 7.135171e-01 7.673849e-01 -5.696696e-03 
-7.730306e+00 3.620628e+00 -1.327432e+00 -5.864958e+00 -2.997790e+00 7.114224e-01 6.048523e+00 3.708346e+00 -1.834154e+00 1.406735e+00 7.333076e+00 3.582791e+00 2.105939e-02 -3.655257e-01 -8.380075e-02 5.409869e-01 -8.172465e-03 -1.631554e-01 -8.694655e-01 8.658661e-01 -9.646153e-03 7.157326e-03 2.307861e-01 4.885720e-01 1.905310e+00 -4.661656e-03 
-7.782785e+00 4.766779e+00 3.032472e+00 -5.686321e-01 -3.223858e+00 -2.237314e+00 7.746530e+00 2.042855e+00 3.222466e+00 1.861778e+00 3.885786e+00 4.450225e-01 2.668917e-03 -2.218336e-01 -2.856398e-01 6.234478e-01 6.714095e-01 1.365268e+00 6.602923e-01 3.030557e-01 -2.142229e-01 7.118715e-01 2.967824e-01 1.088593e+00 1.399114e+00 -5.528015e-03 
-6.414817e+00 4.830012e+00 4.066801e+00 3.247328e-01 4.919684e+00 2.069468e+00 9.493554e+00 2.172195e+00 2.385118e+00 3.271735e+00 7.261651e+00 7.161700e+00 8.942783e-03 -1.206134e-01 -1.154718e-01 3.875565e-01 1.014954e+00 9.281130e-01 2.411287e-01 -2.846961e-01 7.009724e-01 7.145266e-01 7.123798e-01 2.991446e-01 1.037415e+00 5.394149e-03 
-6.857586e+00 4.271893e+00 2.417464e+00 -6.351900e-02 2.395082e+00 2.838323e+00 6.496306e+00 2.624620e+00 1.365555e+00 1.185853e+00 8.319674e+00 4.219595e+00 1.273221e-02 -2.960066e-01 -1.865555e-01 -7.248224e-01 -5.249665e-01 2.628579e-01 3.938591e-01 -6.157159e-01 1.090237e+00 1.346793e-01 1.451837e+00 5.314671e-01 1.436656e-01 1.138159e-02 
-8.795973e+00 3.290712e+00 9.178550e-01 -1.042744e+00 -1.166695e+00 -6.207527e-01 5.250154e+00 6.922325e+00 2.666935e+00 5.306597e+00 6.611854e+00 6.882577e+00 4.299849e-02 -4.529500e-01 -1.209617e-02 -7.602565e-01 -8.115126e-01 -8.833587e-01 -3.745983e-01 -5.114464e-01 8.387917e-01 5.129071e-01 1.658127e+00 -2.238916e-01 -1.463426e+00 9.702927e-03 
-8.072241e+00 4.603652e+00 9.828336e-01 -2.509726e+00 1.133621e+00 1.077092e+00 6.789650e+00 5.118976e+00 3.754954e+00 8.103532e+00 6.868020e+00 1.302912e+00 4.254901e-02 -1.705576e-01 1.976458e-01 -2.804281e-01 -6.359397e-01 -2.226052e-02 -1.824617e-01 2.126184e-01 3.185362e-01 5.866817e-01 1.663229e+00 -2.647144e-01 -1.141303e+00 5.918413e-03 
