-1.078374e+01 4.139679e+00 -2.832566e+00 -2.423248e-01 7.068631e+00 -1.329994e+00 5.627926e+00 1.410244e+00 3.265961e-01 5.133896e+00 7.617758e+00 7.481064e+00 3.380471e-02 -7.534027e-02 -2.484960e-01 -4.615038e-01 5.474741e-02 1.093763e+00 5.947579e-01 1.063224e+00 -3.210772e-01 1.711756e-01 -3.540006e-01 -9.219072e-01 -5.779380e-01 -6.973207e-04 
-1.092903e+01 3.230817e+00 -4.531009e+00 3.662179e+00 9.740402e+00 1.725621e+00 1.028098e+01 1.036269e+00 1.747185e+00 7.273682e+00 5.667562e+00 6.925810e+00 4.449785e-02 1.831400e-01 4.699185e-02 -7.703304e-05 5.622544e-02 5.802904e-01 4.436661e-01 1.047342e+00 -9.981407e-02 5.364181e-01 -4.116985e-01 -2.018562e+00 -8.076302e-01 -3.803134e-04 
-1.108780e+01 3.351630e+00 -4.290864e+00 -1.920840e+00 1.120156e+01 1.159873e-01 8.617522e+00 -8.155107e-03 4.721793e-01 2.294000e+00 3.983320e+00 4.869002e+00 2.497154e-02 1.146285e-01 3.219644e-01 3.433025e-01 1.727413e-01 1.743467e-01 6.025360e-01 -3.829728e-01 1.190715e-01 1.393201e-01 -2.975016e-02 -9.749912e-01 -1.197255e+00 -3.970504e-04 
-9.716015e+00 4.768663e+00 -2.103802e+00 8.780599e-01 7.903618e+00 1.653450e-01 9.369836e+00 1.620373e+00 2.935895e+00 4.495352e+00 -6.578338e-01 4.748945e+00 3.631973e-02 -6.678142e-02 5.966356e-01 3.629939e-01 -6.188558e-01 -1.009560e+00 2.671447e-01 -8.055399e-01 3.257554e-01 4.209551e-01 1.259666e-01 2.103386e-01 1.199391e-01 3.436458e-03 
-1.081711e+01 4.980578e+00 -2.329657e+00 2.013441e+00 8.858757e+00 2.462824e+00 4.168633e+00 1.713549e+00 4.288420e-01 6.374310e+00 5.905500e+00 2.583219e+00 3.590852e-02 -6.303134e-01 -2.274410e-01 -9.173239e-03 3.382553e-01 -5.843701e-02 5.394230e-01 -2.317018e-01 4.267840e-01 1.198122e+00 1.159384e+00 1.427705e+00 1.078499e+00 8.041519e-03 
-1.139828e+01 5.399521e+00 -3.696642e+00 -1.399241e+00 5.864005e+00 1.887926e+00 8.477723e+00 1.804194e+00 3.873630e+00 5.863360e+00 5.758165e+00 8.668396e+00 5.621165e-02 -7.814022e-01 -5.567694e-01 -4.154962e-01 1.058717e-01 7.066606e-01 3.806373e-01 -3.042349e-01 -9.132764e-02 8.556072e-01 -2.744440e-01 1.038719e+00 5.128918e-01 6.672048e-03 
-1.339823e+01 1.898996e+00 -3.540309e+00 9.090874e-01 1.192918e+01 1.951812e+00 7.905069e+00 2.033854e+00 5.993919e+00 7.406915e+00 7.913846e+00 8.301771e+00 5.523318e-02 -3.957109e-01 -9.592926e-01 -9.765603e-02 3.184354e-01 7.279063e-01 1.551717e-01 -1.324171e-01 2.801352e-02 1.076646e+00 -9.582378e-01 -1.685830e+00 -5.285653e-01 4.154718e-03 
-1.233246e+01 3.525607e+00 -3.575956e+00 1.959595e+00 9.901708e+00 2.324037e+00 5.980443e+00 1.003582e+00 4.431392e+00 2.606830e+00 3.531590e+00 4.454128e+00 6.001765e-02 -1.119221e-01 -7.583815e-01 6.180568e-01 7.955460e-01 4.195774e-02 5.393963e-02 -1.621978e+00 -6.823521e-01 -4.650820e-01 -6.959963e-01 -2.096024e+00 -2.132793e+00 1.271904e-03 
-1.232857e+01 1.121072e+00 -2.878280e+00 1.926200e+00 1.047944e+01 3.020627e+00 4.755188e+00 2.253923e+00 5.533191e+00 3.211387e+00 -1.410363e+00 2.047527e+00 5.477911e-02 2.266293e-02 7.502793e-02 -5.771487e-02 -6.170113e-01 -1.354153e+00 -6.955381e-02 -1.452240e+00 -5.668843e-02 -2.419333e-01 9.140099e-01 -8.913556e-01 -7.945302e-01 1.198593e-02 
-1.249272e+01 1.996575e+00 -9.373733e-01 2.069933e+00 6.798667e+00 1.623217e+00 1.942776e+00 -1.717600e+00 1.778584e+00 4.481143e+00 -5.984783e-02 1.131555e+00 6.279820e-02 -3.000326e-01 -7.840091e-01 -7.989517e-01 -7.857640e-01 -7.557204e-02 -5.461983e-01 -2.447371e+00 -6.065289e-01 1.807844e-01 1.856544e+00 5.154314e-02 1.813165e-01 4.633081e-03 
-1.320479e+01 3.038651e+00 -5.148175e+00 -2.231138e+00 6.709939e+00 1.954453e+00 2.662706e+00 3.111003e+00 6.110657e+00 1.103981e+01 5.252788e+00 5.990407e+00 1.137726e-01 3.274117e-02 -4.265711e-01 -6.494612e-01 -2.239297e-01 -4.921805e-01 -1.947650e+00 -7.183405e-01 3.653657e-02 -1.743412e-01 -3.377538e-01 5.567632e-01 3.339614e-01 -3.153753e-03 
-1.339452e+01 -1.353228e+00 -6.435767e+00 1.094446e-01 1.140860e+01 1.261327e-01 -5.210173e+00 -2.457603e+00 5.046581e+00 7.975337e+00 4.577310e-01 3.389271e+00 5.368632e-02 1.133614e+00 2.101865e-01 -3.031827e-01 -4.055094e-01 -5.798733e-01 -1.611325e+00 1.963198e+00 3.530803e-01 -1.420709e+00 -2.519158e+00 -1.215017e-01 2.051054e-01 -1.190237e-02 
-1.171397e+01 6.631187e-01 -3.376389e+00 1.786796e+00 5.713569e+00 -5.969081e+00 4.739960e+00 2.806607e+00 3.027487e+00 -2.244797e-01 1.114663e+00 2.588477e+00 4.356629e-02 1.589346e+00 6.706246e-01 8.812871e-01 -1.951366e-01 -1.387258e+00 -1.392153e+00 2.442682e+00 -2.356378e-01 -3.025331e+00 -3.144877e+00 -5.538173e-01 -1.354533e+00 -8.523774e-03 
-7.570061e+00 4.235274e+00 -3.339180e+00 -1.966581e+00 4.397485e+00 -2.471642e+00 1.072014e+01 1.999993e-01 -3.783375e+00 -2.482505e+00 1.401706e+00 3.858047e+00 3.838950e-02 1.488786e+00 1.139292e+00 8.606517e-01 -1.071195e+00 -2.567534e+00 -9.947827e-01 2.236563e+00 6.362756e-01 -1.578655e+00 -4.143763e-01 4.779081e-01 -1.892348e+00 3.061682e-03 
-8.170288e+00 3.597523e+00 -2.290034e+00 -2.168808e+00 3.279204e+00 -3.707424e+00 6.910960e+00 6.040131e-01 -4.601019e+00 5.443426e-01 2.011714e+00 -1.016647e+00 7.880211e-02 2.733849e-01 2.581907e-02 -2.216264e-01 -1.152120e+00 -1.962382e+00 -4.879446e-01 -6.750162e-01 6.129762e-02 -2.908676e-01 5.941067e-01 6.169974e-01 -1.165063e+00 4.660708e-03 
-7.722432e+00 2.876027e+00 -2.675687e+00 -3.268730e+00 -2.118912e-01 -5.978610e+00 4.887142e+00 1.825072e+00 9.675614e-01 5.519044e+00 2.398746e+00 -4.269909e+00 5.137682e-02 -4.491808e-01 -3.206753e-01 2.235626e-01 3.661480e-02 -3.519713e-01 6.769896e-04 -1.230908e+00 -1.040166e+00 -1.816650e+00 -8.141901e-01 3.635735e-01 -1.248766e+00 6.518125e-04 
-1.027086e+01 1.471838e+00 -4.816267e+00 -3.322728e+00 -1.793653e+00 -6.655321e+00 4.281377e+00 2.300559e+00 -8.023193e-01 -1.254721e+00 3.701130e+00 8.271396e-01 6.037617e-02 -1.858774e-01 1.698551e-01 6.411850e-01 2.667212e-01 1.117736e+00 5.539842e-01 -9.254730e-01 -1.595444e+00 -1.961818e+00 -1.757107e+00 -1.651364e-01 -2.533367e-01 -4.304809e-03 
-8.765678e+00 3.694741e+00 -9.582498e-01 -1.206547e+00 5.174057e+00 -9.943089e-01 5.880390e+00 -5.849103e+00 -1.476597e+01 -5.653924e+00 2.374865e+00 -3.307675e+00 5.086154e-02 2.110436e-01 8.930178e-01 1.709708e+00 1.507462e+00 2.467676e+00 1.433037e+00 -7.789015e-01 -9.097974e-01 -1.636134e+00 -2.503049e+00 6.819069e-01 1.296128e-01 5.833751e-03 
-8.578053e+00 4.037442e+00 5.717301e-02 -1.866293e+00 6.174908e+00 -3.429654e+00 1.786971e+00 -3.536120e+00 -6.543344e+00 -2.654707e+00 1.197972e+00 -2.764447e+00 5.753571e-02 2.771338e+00 3.257013e+00 3.024271e+00 1.807219e+00 1.185556e+00 3.553960e-01 -1.052189e+00 -7.772413e-01 8.107243e-02 -4.558333e-01 7.193617e-01 -6.825294e-01 4.903052e-02 
-7.513618e+00 6.058314e+00 3.436131e+00 3.540364e+00 8.142210e+00 -4.262564e-01 2.239838e+00 1.944246e-01 -4.342595e+00 -6.296210e+00 7.059860e+00 -1.826052e+00 8.196580e-02 5.249017e+00 1.925868e+00 2.591362e+00 1.186681e+00 -4.002182e+00 -3.005056e+00 1.050166e+00 1.261891e+00 5.446169e-01 7.547283e-01 1.535118e+00 1.881352e-02 1.316926e-01 
2.959799e+00 1.657512e+01 8.107899e+00 3.339911e+00 2.650053e+00 -5.162367e+00 8.407102e-01 -4.607412e+00 -5.608647e+00 -3.212745e+00 4.955441e+00 -3.326319e+00 2.899767e-01 5.971758e+00 3.403445e-01 2.066458e+00 8.097909e-01 -6.694837e+00 -3.058498e+00 1.961369e+00 6.894950e-01 -1.903785e+00 3.013787e-01 1.968129e+00 -3.069782e-01 1.678705e-01 
1.171048e+01 7.055243e+00 7.973199e+00 2.123756e+00 -1.307442e+01 -1.515323e+01 1.160435e+01 9.959995e-01 -1.251024e+01 -1.601264e+00 8.171720e+00 -2.932672e+00 5.931041e-01 4.885411e+00 -1.683428e+00 1.264561e+00 -5.836105e-01 -7.218942e+00 -2.072571e+00 6.137158e-01 -8.961824e-01 -7.912070e-01 1.167135e+00 7.986741e-01 7.074054e-01 1.597569e-01 
1.166869e+01 5.240699e+00 8.120928e+00 2.890966e+00 -1.669096e+01 -1.135865e+01 6.911557e+00 -4.894323e-01 -1.197845e+01 -3.495286e+00 1.048269e+01 -3.746028e+00 6.413189e-01 2.117953e+00 -3.101716e+00 -1.874636e-01 -9.477501e-01 -4.853072e+00 -5.330048e-02 -8.965413e-01 -5.027476e-01 7.072961e-01 1.232920e+00 2.030536e-01 2.040957e+00 1.016628e-01 
1.255899e+01 3.308381e+00 9.752419e+00 8.467834e-01 -1.828200e+01 -7.690966e+00 2.272994e+00 -6.345477e+00 -5.113729e+00 -3.192616e-01 8.289606e+00 1.920830e+00 7.050792e-01 6.407100e-01 -1.374301e+00 -4.138736e-01 -1.820050e+00 -1.992159e+00 2.355195e+00 -3.073632e+00 -1.327422e+00 3.035593e+00 1.057500e+00 -6.675455e-01 2.552466e+00 5.334895e-02 
1.312531e+01 2.939968e+00 6.280971e+00 -7.603533e-01 -1.901152e+01 -9.160003e+00 1.023683e+00 -3.450411e+00 -5.770422e+00 2.310855e+00 5.911765e+00 4.451715e+00 7.423033e-01 6.640172e-01 -1.591634e+00 -3.388233e-01 -2.623721e+00 -2.313946e+00 2.334191e+00 -1.531676e+00 2.199537e-01 3.572948e+00 8.685905e-01 -1.672096e+00 2.136715e+00 5.546998e-02 
1.418572e+01 1.334105e+00 6.823810e+00 -5.150834e+00 -2.187494e+01 -4.476583e+00 -8.198726e-01 -4.160621e+00 -4.362860e-01 7.831659e-01 7.119453e+00 5.730788e+00 8.093567e-01 2.686154e-01 -1.780411e+00 5.365181e-03 -2.425081e+00 -2.715407e+00 2.596096e+00 1.603699e-01 1.489748e+00 3.239772e+00 -4.974837e-01 -1.513727e+00 9.062781e-02 4.984051e-02 
1.417541e+01 -1.730332e+00 7.891116e+00 -7.228831e+00 -2.646422e+01 -1.294890e+00 7.996082e-01 -4.820921e-01 3.547573e+00 2.964528e-01 2.707282e+00 5.032566e+00 8.665301e-01 -8.985939e-02 -1.968103e+00 2.731772e-01 -2.164731e+00 -2.323204e+00 3.821079e+00 1.120082e+00 9.450582e-01 2.854300e+00 -1.518644e+00 -1.755385e+00 -6.829637e-01 4.598556e-02 
1.337702e+01 -3.258524e+00 8.974173e+00 -8.044380e+00 -2.813268e+01 1.356957e+00 3.186880e+00 -3.808969e-01 6.426135e+00 -1.799479e+00 2.323215e+00 2.083544e+00 8.921683e-01 -4.544036e-01 -1.606059e+00 -1.355701e-01 -1.357088e+00 -1.304131e+00 3.829796e+00 1.201190e+00 8.756731e-01 7.718893e-01 -1.522321e+00 -1.635105e+00 -4.363386e-01 3.219900e-02 
1.308036e+01 -4.604234e+00 6.571675e+00 -1.013723e+01 -2.749866e+01 7.028624e+00 4.620714e+00 -6.149825e-01 5.069866e+00 -3.991045e+00 -4.670429e-01 2.860519e+00 9.308252e-01 -3.990924e-01 -1.243506e+00 -1.029509e+00 -7.894168e-01 -3.270416e-02 3.898656e+00 5.210009e-01 -3.417675e-01 -2.116208e-01 -2.097272e+00 -4.474186e-01 4.132766e-01 2.338764e-02 
1.246123e+01 -5.259238e+00 6.805679e+00 -1.048208e+01 -2.787836e+01 1.051064e+01 3.275523e+00 2.841898e-01 2.662014e+00 -4.684693e+00 5.310893e-01 4.635118e+00 9.382041e-01 -3.199557e-01 -1.062812e+00 -1.098384e+00 -7.726145e-01 9.625137e-01 3.337938e+00 -2.879330e-01 -9.886929e-01 -8.582691e-01 -1.596568e+00 8.849132e-03 1.555543e+00 1.855201e-02 
1.263784e+01 -6.947506e+00 3.827817e+00 -9.957067e+00 -2.675490e+01 1.362155e+01 3.360291e+00 -2.523473e+00 4.371530e+00 -8.747300e+00 1.366252e+00 5.823162e+00 9.604504e-01 -4.949278e-01 -7.210330e-01 -1.160076e+00 -3.357908e-01 1.239070e+00 2.774937e+00 -4.831820e-01 -1.445961e+00 -6.287805e-01 -1.648890e+00 6.797822e-01 1.399482e+00 1.678811e-02 
1.199850e+01 -7.400948e+00 4.854179e+00 -1.199754e+01 -2.369200e+01 1.475018e+01 2.377427e+00 -4.370117e+00 2.483958e+00 -7.404193e+00 1.450813e+00 8.379938e+00 9.701158e-01 -4.821080e-01 -6.936148e-01 -1.042307e+00 -6.127040e-01 2.163945e+00 2.007720e+00 -8.390486e-04 -1.984830e+00 -4.516905e-01 -1.633878e+00 1.063108e+00 1.082955e+00 1.619514e-02 
1.083709e+01 -7.138544e+00 1.747047e+00 -1.105846e+01 -2.339650e+01 1.878354e+01 2.653852e+00 -5.517635e+00 2.014992e+00 -1.087574e+01 2.472006e+00 7.985522e+00 9.988099e-01 -4.470010e-01 -5.641431e-01 -5.606952e-01 -3.114495e-01 2.195839e+00 1.550217e+00 -3.338190e-01 -1.823509e+00 -4.852861e-01 -5.026741e-01 9.072291e-01 8.633646e-01 1.000297e-02 
1.095106e+01 -8.631793e+00 2.634530e+00 -1.299490e+01 -1.873784e+01 1.796825e+01 3.624547e+00 -8.142880e+00 1.581831e+00 -1.178986e+01 5.293750e+00 8.968713e+00 1.000000e+00 -8.503461e-02 -7.263882e-01 -7.536113e-01 1.665317e-01 2.148921e+00 1.320131e+00 -5.491533e-01 -1.653716e+00 -7.767439e-01 5.629269e-01 5.065941e-02 1.319038e+00 4.882479e-03 
1.092655e+01 -9.152799e+00 2.134166e+00 -1.101563e+01 -1.825278e+01 1.976360e+01 1.067636e+00 -9.754639e+00 2.396163e+00 -9.067836e+00 3.980929e+00 9.845596e+00 9.955231e-01 1.936088e-01 -8.147817e-01 -3.330448e-01 2.201391e-01 2.248843e+00 6.479627e-01 -8.389176e-01 -1.305094e+00 -9.631822e-01 1.793414e+00 -7.341820e-01 1.607654e+00 -3.363437e-03 
1.152859e+01 -1.002576e+01 8.925638e-01 -1.118629e+01 -1.551925e+01 2.086081e+01 4.247680e-01 -1.052020e+01 -1.590348e+00 -5.493512e+00 9.496485e-01 1.404509e+01 9.961717e-01 -3.511000e-03 -3.465403e-01 -8.874800e-01 1.090047e+00 1.274131e+00 9.941570e-01 -1.416045e+00 -7.454029e-01 -3.975164e-01 1.691454e+00 -7.040531e-01 4.956538e-01 -5.446094e-03 
1.151637e+01 -1.051547e+01 9.528058e-01 -1.086207e+01 -1.376158e+01 2.057707e+01 5.915427e-02 -1.085445e+01 -1.214830e+00 -5.056846e+00 9.731472e-01 1.348560e+01 9.839069e-01 -8.186302e-02 -2.492576e-01 -1.151487e+00 1.208179e+00 1.245799e+00 1.027524e+00 -1.871273e+00 -2.628822e-01 1.182103e-01 1.187365e+00 3.375881e-01 -7.837148e-01 -5.727547e-03 
1.063860e+01 -9.683160e+00 -1.212190e+00 -7.621447e+00 -1.461279e+01 2.253230e+01 -2.951435e+00 -1.131999e+01 1.399745e+00 -5.338088e+00 3.277376e+00 9.626980e+00 9.785776e-01 -1.484665e-01 1.412268e-02 -1.366419e+00 1.219802e+00 1.613239e+00 6.277769e-01 -2.776730e+00 -4.996004e-02 1.279722e+00 1.495937e+00 9.759823e-01 -2.308862e+00 -8.595103e-03 
1.096223e+01 -1.057039e+01 -2.570891e+00 -6.757159e+00 -1.247702e+01 2.406548e+01 -6.600630e+00 -1.066915e+01 1.492168e+00 -3.208721e+00 4.505006e+00 8.136078e+00 9.756824e-01 -7.532024e-03 7.051925e-02 -1.613405e+00 1.201610e+00 2.238615e+00 -9.197439e-01 -2.377579e+00 4.843903e-01 1.134536e+00 2.235395e+00 3.168918e-01 -2.197280e+00 -1.470608e-02 
1.106333e+01 -9.927688e+00 -4.177684e+00 -7.139733e+00 -8.095338e+00 2.225549e+01 -1.012899e+01 -1.086264e+01 3.454765e+00 1.062111e+00 4.063630e+00 5.175540e+00 9.573084e-01 1.934679e-01 3.150620e-01 -2.052906e+00 1.282493e+00 3.347638e+00 -3.022396e+00 -2.014115e+00 2.072377e+00 -4.324822e-01 3.316412e+00 -5.351653e-01 -1.844344e+00 -2.014608e-02 
1.126634e+01 -1.004061e+01 -5.631473e+00 -5.094876e+00 -5.827228e+00 1.611675e+01 -8.239964e+00 -8.661168e+00 3.430342e+00 2.920029e+00 2.164479e+00 4.724921e+00 9.210111e-01 -8.568172e-02 1.505957e-02 -7.226693e-01 9.430008e-01 3.073261e+00 -3.500650e+00 -2.312200e+00 3.058151e+00 -3.790769e-01 2.719748e+00 -1.285150e+00 -1.540329e+00 -2.324597e-02 
1.145389e+01 -8.372740e+00 -9.946427e+00 -2.040121e+00 -1.199493e+00 1.139468e+01 -1.220234e+01 -1.962097e+00 -1.731752e+00 8.179600e+00 1.771813e+00 2.110837e+00 9.051828e-01 -4.172771e-01 4.662161e-02 4.785164e-01 8.237319e-01 2.356932e+00 -3.166107e+00 -2.364393e+00 3.680537e+00 -7.471743e-01 1.454852e+00 -9.608525e-01 -2.172400e+00 -2.987915e-02 
1.033854e+01 -1.127256e+01 -3.299867e+00 -4.591961e+00 -5.586309e-01 1.199263e+01 -1.712495e+01 1.713283e-01 2.190043e+00 6.831275e+00 -7.748330e-01 1.966784e+00 8.855153e-01 -5.870906e-01 8.918636e-01 1.134656e+00 5.607061e-01 5.827673e-01 -1.240800e+00 -2.595388e+00 3.522865e+00 -1.120118e+00 6.625475e-01 -1.151385e+00 -2.368983e+00 -4.002626e-02 
9.440840e+00 -9.078602e+00 -2.950905e+00 -3.272532e+00 1.055023e+00 8.487017e+00 -1.750846e+01 3.123795e+00 3.390432e-01 6.380747e+00 7.290236e-01 -4.307394e+00 8.256606e-01 -1.136976e+00 1.846769e+00 2.209517e+00 6.006919e-01 -1.088015e+00 -2.886712e-01 -1.458233e+00 2.497985e+00 2.589475e-01 -1.834470e+00 -4.196141e-01 -3.300973e+00 -5.247841e-02 
9.337414e+00 -5.228359e+00 -3.455954e+00 -1.675140e+00 -4.040649e+00 1.136659e+01 -1.856384e+01 6.410213e+00 -3.205647e+00 7.132193e+00 -3.071050e+00 -3.910876e+00 7.606410e-01 -1.535365e+00 2.569835e+00 1.756804e+00 9.844473e-01 3.237801e-02 -1.778965e+00 3.739800e-01 1.148889e+00 9.108639e-01 -2.150439e+00 -7.832353e-01 -1.259840e+00 -5.430939e-02 
6.269572e+00 -2.160997e+00 1.179199e+00 -4.950718e-01 -4.898558e+00 1.026435e+01 -1.877406e+01 7.408385e+00 2.260830e+00 -1.143209e+00 8.218508e-01 -1.145520e+01 7.052280e-01 -2.222999e+00 2.415408e+00 3.360667e+00 1.361405e+00 1.027234e+00 -2.504436e+00 2.452434e+00 -1.540375e+00 4.086564e-01 -1.754381e+00 -1.267266e+00 7.179887e-01 -5.660214e-02 
4.247357e+00 -1.882191e+00 3.419100e+00 -1.058455e+00 2.580050e+00 2.209140e+00 -1.462225e+01 3.773479e+00 5.783469e+00 -1.589431e-01 -4.737423e+00 -7.585139e-01 6.741847e-01 -1.512278e+00 2.452725e+00 3.955638e+00 9.387361e-01 2.637236e+00 -4.753941e+00 4.545839e+00 -1.171974e+00 -3.048967e+00 -6.174579e-01 1.128597e+00 -1.764698e+00 -6.115521e-02 
8.708720e-01 1.325353e+00 1.041490e+01 3.226149e+00 2.880845e+00 5.435588e-01 -7.217084e+00 -3.259713e+00 -2.112233e+00 1.254409e+00 -4.774117e+00 -2.293632e+00 5.858780e-01 -4.012818e-01 2.050368e+00 3.007357e+00 1.764780e+00 2.289972e+00 -5.130781e+00 5.412559e+00 1.336137e-01 -5.371514e+00 8.138040e-01 1.516952e+00 -1.877078e+00 -6.244493e-02 
4.475372e+00 5.292090e+00 1.170438e+01 1.157930e+00 5.255830e+00 -7.542722e+00 -1.613139e+00 5.884391e+00 -1.626395e+01 2.846094e+00 5.369921e+00 -1.731515e+01 5.145399e-01 4.463887e-02 1.599515e+00 1.741237e+00 2.496296e+00 1.082934e+00 -3.738351e+00 3.674790e+00 1.433804e+00 -3.759031e+00 5.331975e-01 1.108547e+00 -3.437799e+00 -6.403834e-02 
4.149155e+00 4.503701e+00 1.207334e+01 7.220637e+00 5.213413e+00 -1.051363e+01 1.784175e+00 7.020998e+00 -1.357303e+01 1.423292e+00 3.352940e+00 -1.256227e+01 4.728257e-01 7.203615e-02 4.393682e-01 4.994154e-02 2.560618e+00 1.199656e+00 -2.266016e+00 1.960121e+00 1.369758e+00 -1.268966e+00 4.615083e-01 -3.009515e-01 -1.539242e+00 -4.887574e-02 
2.831409e+00 4.526209e+00 1.129607e+01 9.425781e+00 6.828437e+00 -1.095402e+01 -7.489288e-01 5.802146e+00 -7.281286e+00 2.422603e+00 -3.258216e+00 -1.281319e+01 4.105191e-01 -8.883119e-01 8.406434e-02 6.837587e-02 3.560052e+00 1.146097e+00 -3.599063e-01 6.055328e-01 -1.959198e+00 1.394622e+00 -3.107024e-01 -2.190612e+00 1.663181e+00 -4.662760e-02 
2.053034e+00 3.905135e+00 1.086877e+01 1.189531e+01 8.092822e+00 -9.080871e+00 2.151416e+00 3.630202e+00 -1.294840e+01 3.773696e+00 -1.964807e+00 -1.224082e+01 3.935097e-01 -9.051765e-01 2.947959e-01 -1.890845e-01 3.180762e+00 1.453710e+00 5.203060e-01 6.423891e-01 -1.331330e+00 1.213286e+00 2.563811e-01 -1.515505e-01 1.467270e+00 -4.425358e-02 
1.081873e+00 6.011695e+00 1.264855e+01 1.662085e+01 9.546609e+00 -1.005863e+01 1.230904e+00 -2.216202e+00 -9.603158e+00 1.173803e-01 -2.924266e+00 -9.159969e+00 3.210599e-01 -8.974678e-01 3.639197e-01 -3.659670e-01 2.351248e+00 7.875181e-01 1.102749e+00 1.729003e+00 -8.209999e-01 4.533334e-01 2.835242e-01 1.328332e+00 2.350039e+00 -4.053243e-02 
4.980412e-01 5.234937e+00 1.045168e+01 1.952691e+01 1.112288e+01 -8.359793e+00 4.006204e+00 4.373521e+00 -6.345663e+00 3.857809e+00 2.428212e+00 -7.052535e+00 2.962874e-01 -8.202998e-01 5.046934e-01 -5.073597e-01 7.976547e-01 6.346903e-01 8.079025e-01 1.530120e-01 -7.052829e-01 1.682960e+00 -1.711127e-01 6.701433e-01 2.413541e+00 -4.265542e-02 
-8.784332e-01 5.680907e+00 9.674776e+00 1.736622e+01 9.250999e+00 -5.800813e+00 6.968693e+00 1.325487e+00 -8.315986e+00 3.798167e+00 1.186936e+00 -3.657136e+00 2.564681e-01 6.574301e-02 -8.552791e-01 -2.461116e+00 -3.217841e+00 -1.211666e+00 7.865247e-01 -1.318931e+00 1.736014e+00 2.565120e+00 -1.296187e+00 2.556005e-01 2.813911e+00 -1.806830e-02 
-1.068312e+00 6.593997e+00 9.818855e+00 1.551090e+01 1.141408e+01 -7.170267e+00 4.758191e-02 -1.667058e+00 -5.177184e+00 1.077739e+00 -6.696908e-01 -2.924538e+00 2.125285e-01 6.944276e-01 -1.826016e+00 -3.304485e+00 -5.399240e+00 -3.104091e+00 -7.242820e-01 -3.653020e+00 2.103096e+00 2.593821e+00 -3.163879e+00 -9.422365e-01 3.103678e+00 2.476605e-02 
2.193765e+00 1.055769e+00 6.593788e-01 2.539656e+00 3.342680e+00 -6.720772e+00 -3.384442e+00 9.484156e+00 2.638203e+00 -4.973520e+00 -9.731174e-02 2.845587e+00 2.725978e-01 8.121662e-02 -2.158039e+00 -3.847289e+00 -4.648623e+00 -2.654621e+00 -1.331932e+00 -4.145838e+00 1.605029e+00 3.603922e+00 -1.955532e+00 -1.718482e+00 2.067841e+00 1.292347e-02 
2.434080e+00 -1.582574e+00 -1.563053e+00 -5.600834e-02 -1.443419e+00 -1.152122e+01 -9.082332e+00 1.080967e+01 1.146345e+00 -7.575743e+00 -1.640846e+00 5.214495e+00 4.120528e-01 -8.847104e-01 -2.397399e+00 -3.830701e+00 -2.701934e+00 -1.137851e+00 -1.463800e-01 -7.357539e-01 8.007424e-01 2.146834e+00 -5.922712e-01 -2.786209e+00 7.211475e-01 -4.578030e-03 
-2.223546e+00 -1.021004e+00 -3.870715e+00 1.906559e+00 2.406642e+00 -1.028500e+01 -9.195539e+00 3.112268e+00 6.541861e+00 -1.652755e+00 -6.919895e+00 2.612551e+00 2.213233e-01 -1.704265e+00 -8.252660e-01 -1.638308e+00 3.017417e-01 9.702166e-01 -8.930543e-01 1.385284e+00 -1.932175e+00 -1.389501e-02 6.580784e-01 -3.898022e+00 -2.413258e+00 -3.086840e-02 
-3.283208e+00 -4.354611e+00 -7.069601e+00 2.317784e+00 6.192842e+00 -6.120055e+00 -7.256391e-01 5.522599e+00 3.605157e+00 -3.544000e+00 -1.118944e+01 7.977179e-01 2.152756e-01 -1.124355e+00 2.997460e-02 -7.496966e-01 1.012107e+00 1.393230e+00 -9.757671e-01 2.001795e+00 -2.916264e+00 -5.518142e-01 1.823387e-01 -2.882224e+00 -2.628830e+00 -3.980047e-02 
-3.468915e+00 -1.684542e+00 -4.778888e+00 2.861469e+00 4.375633e+00 -1.388663e+01 -6.363695e-01 2.466815e+00 1.339322e+00 -3.698999e+00 -1.481312e+01 -7.012314e+00 2.166445e-01 -4.835129e-03 3.467135e-01 -2.059972e-01 6.804872e-02 5.496487e-01 -9.881766e-01 1.805966e+00 -8.450072e-01 -1.426558e+00 -5.283844e-01 -7.988607e-01 -2.618436e+00 -1.180954e-02 
-2.565011e+00 -1.100932e+00 -4.857450e+00 4.527073e+00 4.538239e+00 -1.459924e+01 -3.352941e+00 -3.448926e+00 9.885442e-01 -5.640927e+00 -1.210535e+01 -3.117223e+00 2.153899e-01 -3.753992e-01 2.905729e-01 6.680982e-02 -1.047027e-01 4.548980e-01 -7.102975e-01 9.322701e-02 -3.551551e-01 -3.886856e-01 9.096355e-01 1.296701e+00 -7.430078e-01 -2.224410e-02 
-2.606821e+00 -9.142765e-01 -6.006777e+00 1.142158e+00 5.982188e+00 -1.098629e+01 1.147941e+00 3.372994e+00 7.173765e-01 -3.246214e+00 -1.045624e+01 -8.522161e+00 1.622185e-01 -8.867161e-01 -1.063452e-01 -7.213544e-01 -6.743937e-01 9.519441e-01 6.776329e-01 1.398816e-01 5.271638e-01 9.296814e-01 2.106562e+00 2.383578e+00 6.907197e-01 -3.178452e-02 
-5.591252e+00 -3.286879e+00 -6.121608e+00 2.653926e+00 7.664055e+00 -1.112171e+01 -1.151659e+00 3.293734e+00 1.972701e+00 7.777848e-01 -6.884377e+00 -2.162397e+00 1.312681e-01 -1.248690e+00 -1.359695e-01 -9.344913e-01 -6.212277e-01 1.271366e+00 1.242970e+00 2.581711e-01 1.361962e+00 1.958859e+00 2.384010e+00 9.271415e-01 -4.828601e-01 -2.310138e-02 
-6.389375e+00 -1.123294e+00 -7.753581e+00 4.260745e-01 7.572445e+00 -1.223723e+01 -1.037603e+00 1.731305e+00 5.495651e+00 3.624453e+00 -5.505720e+00 -4.036129e+00 9.978276e-02 -5.571700e-01 2.398299e-01 -8.108989e-01 4.897085e-01 1.950883e+00 8.746421e-01 -1.614429e+00 -2.363695e-01 1.233202e+00 9.194023e-01 1.049822e-01 2.663083e-02 -4.688656e-03 
-6.917184e+00 -1.676270e+00 -8.656505e+00 1.778976e+00 1.009994e+01 -7.758921e+00 -9.693139e-01 4.181731e+00 8.393703e+00 2.843791e+00 -9.944907e+00 -7.774539e+00 1.311008e-01 4.987936e-02 1.499725e+00 1.276479e-02 5.595428e-01 1.231856e+00 1.345823e+00 -9.852537e-01 5.747724e-02 6.332639e-01 -1.109346e+00 -8.624057e-02 -9.557816e-01 -7.126826e-03 
-4.729704e+00 -5.204316e-01 -8.793823e+00 4.028174e+00 1.451866e+01 -8.294471e+00 -7.015377e+00 1.747148e+00 3.672885e+00 3.177947e-01 -8.401068e+00 -5.582936e+00 1.388588e-01 1.726541e-01 1.246095e+00 2.720119e-01 5.734167e-01 1.501971e+00 1.462425e+00 -7.068505e-02 7.436377e-01 1.069450e-01 -7.037632e-01 7.283860e-01 -1.199228e-01 -1.145070e-02 
-6.171690e+00 3.910316e+00 -5.537663e+00 3.650590e+00 1.035023e+01 -6.363976e+00 -3.089041e+00 3.573198e+00 6.050404e+00 -3.115616e+00 -5.867907e+00 -6.167902e+00 7.609594e-02 -1.957750e-01 5.415304e-01 7.792652e-01 5.014131e-01 8.425773e-01 1.701506e+00 1.933191e+00 1.317858e+00 -1.732619e-01 4.431309e-01 1.782713e+00 8.839706e-01 -2.335454e-02 
-5.898852e+00 2.313889e+00 -7.952943e+00 2.357351e+00 1.495716e+01 -5.622577e+00 -3.311644e-01 5.753759e+00 7.202025e+00 3.085340e+00 -3.902290e+00 -5.439062e+00 7.003170e-02 -2.732824e-01 6.007581e-01 8.851093e-01 -4.386710e-01 -5.056317e-01 3.452972e-01 2.429860e+00 1.372017e-01 -3.894200e-02 -3.961823e-01 -4.343696e-01 9.564781e-01 -1.595095e-02 
-7.311486e+00 -3.857783e-01 -5.180619e+00 5.121453e+00 1.409358e+01 -5.873353e-01 5.354534e+00 8.767713e+00 5.762823e+00 3.675672e+00 -3.280729e+00 -3.426623e+00 4.874170e-02 -6.439705e-02 2.736178e-01 5.727439e-01 -5.491869e-01 -7.277158e-01 -7.987720e-01 -1.309046e-01 -1.452835e+00 -5.354097e-01 -3.936614e-01 -3.585216e-01 5.789279e-01 -3.279841e-03 
-5.526219e+00 4.631406e+00 -4.546798e+00 1.099388e+00 1.011883e+01 -9.456306e+00 9.121349e-01 -1.641005e-01 3.621965e+00 -5.058761e+00 -1.186650e+01 -2.171185e+00 7.278115e-02 -2.654614e-01 3.547365e-01 4.791432e-01 2.897289e-01 -5.256019e-01 -1.538204e-01 -9.984644e-01 -1.539881e+00 -1.037681e+00 -1.110726e+00 -4.490349e-01 -5.151216e-01 -1.878530e-03 
-6.679992e+00 4.119647e+00 -4.377016e+00 1.533637e+00 9.130815e+00 -8.440972e+00 -4.365213e+00 -7.320451e-01 5.163385e+00 -1.011872e+00 -3.678407e+00 -4.907200e+00 5.832201e-02 -2.790256e-01 1.400129e-01 -4.046535e-01 5.114516e-01 -2.282954e-01 -6.202704e-01 -2.054754e+00 -1.234302e+00 -4.888857e-01 -6.329882e-01 -1.486720e-01 -1.082593e+00 4.387820e-03 
-7.541906e+00 1.834859e+00 -5.959028e+00 5.599904e+00 1.481053e+01 -2.464860e+00 -4.636123e-01 2.804235e+00 2.313337e+00 -1.245173e-01 -5.948626e+00 -7.274381e+00 5.584890e-02 -7.787979e-01 -5.627934e-01 -1.141665e-01 5.074934e-01 1.041626e+00 2.404336e+00 4.377126e-01 4.515288e-02 -1.801198e-01 8.469403e-01 4.347743e-01 -6.850483e-01 -3.508449e-04 
-7.698770e+00 1.712560e+00 -6.497771e+00 5.428453e+00 1.060625e+01 -7.184410e+00 -4.231363e+00 1.112036e+00 3.972709e+00 -1.956391e+00 -6.983028e+00 -6.287991e+00 7.914692e-02 -3.318895e-01 4.293284e-01 -2.733512e-02 -7.773533e-01 5.905722e-01 2.657878e+00 2.299001e+00 -2.697302e-01 -1.307022e+00 7.584113e-01 1.858483e-01 4.390941e-01 -5.140871e-03 
-8.910820e+00 3.020983e+00 -4.057253e+00 1.689446e+00 1.458924e+01 1.937096e+00 3.033773e+00 -8.603767e-01 3.316705e+00 -3.517997e-01 -8.040322e+00 -4.906031e+00 6.061447e-02 -1.823673e-02 1.163741e+00 2.022092e-01 -1.782196e+00 -3.644347e-01 2.005645e+00 2.130188e+00 -7.465676e-01 -1.421961e+00 1.088690e+00 1.377033e+00 9.149038e-01 -1.001401e-02 
-7.654983e+00 5.673227e+00 -5.464579e+00 -3.979006e-01 1.219432e+01 2.647438e+00 5.381097e+00 -2.483903e-01 -1.873409e+00 2.893826e+00 -1.703317e+00 -3.895905e+00 3.023487e-02 1.343410e-01 1.057358e+00 6.590603e-02 -1.374006e+00 7.812266e-02 2.037404e+00 2.157225e+00 -2.108866e-01 -1.688235e+00 1.294606e+00 1.689643e+00 5.794297e-01 -1.282037e-02 
