-8.471517e+00 1.739605e+00 4.267953e-01 8.075075e-01 6.292632e+00 -3.617363e-01 3.913063e+00 -3.117843e+00 -9.942162e+00 -1.777793e-01 1.620047e+00 -1.399196e+00 7.549381e-02 1.422230e-01 1.399005e+00 6.233503e-01 6.265742e-01 6.459845e-02 -1.251203e+00 9.416124e-01 1.225904e+00 1.036971e+00 8.808566e-01 6.865077e-01 1.016890e+00 -9.847010e-03 
-8.699744e+00 4.309089e+00 5.661471e-01 3.694596e+00 6.895998e+00 -4.436579e+00 5.044401e+00 -7.688822e-01 -4.961946e+00 7.604883e-01 5.413262e+00 -9.751108e-02 4.611826e-02 1.281150e-01 1.201461e+00 7.413181e-01 1.300447e+00 1.156503e+00 -4.993316e-01 -6.840913e-01 1.840979e-01 5.262245e-01 3.230057e-01 1.487559e-02 -1.125784e-01 -8.641225e-03 
-7.646288e+00 7.449888e+00 3.473871e+00 2.496834e+00 6.313941e+00 -4.580328e+00 8.055455e+00 1.837198e+00 -7.247416e+00 3.757370e+00 3.155978e+00 3.034410e+00 4.094654e-02 -1.205862e-01 -1.823426e-01 7.916455e-01 7.094947e-01 9.526134e-02 -2.563488e-01 -6.703418e-01 4.099960e-01 1.006337e+00 -1.119148e-01 -1.086592e-01 4.353986e-01 1.712443e-02 
-8.243556e+00 4.891769e+00 2.609848e+00 6.465082e+00 1.206449e+01 -7.490988e-01 -1.578590e+00 -4.674874e+00 -8.658413e+00 -5.303254e-01 9.264598e-01 -4.178891e+00 4.956132e-02 2.360046e-01 -1.636369e+00 1.723283e-01 -1.554291e-01 -6.027524e-01 1.644129e-01 -1.121635e+00 -1.574264e-01 7.556359e-01 3.116024e-01 -1.002274e-01 -3.081121e-01 3.072557e-02 
-9.302542e+00 5.365523e-01 3.363172e+00 2.969738e+00 4.184691e+00 -3.487221e+00 3.872849e+00 8.851328e-01 -3.062244e+00 -9.194645e-02 3.320152e+00 2.818487e+00 1.593944e-01 5.380093e-01 -2.158605e+00 -1.284456e+00 2.382543e-01 -6.864974e-01 -5.359720e-01 -1.125120e+00 -2.792895e-01 1.343539e+00 4.374052e-01 2.709038e-01 -1.406030e+00 1.570044e-02 
-6.691594e+00 -4.160888e-01 1.483138e+00 2.680998e+00 4.946861e+00 -4.161068e+00 1.527528e+00 -1.079982e+00 -3.276353e+00 4.243158e+00 4.830038e+00 -1.530110e+00 1.405222e-01 7.606013e-01 -1.573555e+00 -1.676847e+00 4.096478e-01 2.996412e-01 -4.842206e-01 -9.467773e-02 1.429590e-01 2.169110e+00 2.692725e+00 1.362434e+00 -5.648690e-01 3.478426e-03 
-5.732223e+00 -6.892064e-01 -2.385053e+00 5.580147e+00 6.440270e+00 -5.554203e+00 8.767974e-01 -1.356696e+00 -3.220752e+00 3.557654e+00 2.558708e+00 -5.320132e+00 7.396829e-02 6.909208e-01 -4.125956e-02 -1.305528e+00 1.058810e+00 1.768153e+00 5.370398e-01 -8.594931e-01 -1.331772e+00 1.708791e-01 1.506504e+00 -7.857504e-02 -1.065372e+00 -2.054881e-02 
-6.225709e+00 -2.363127e+00 -2.900275e+00 7.208116e+00 1.243491e+01 -2.136711e+00 -5.539529e-01 -2.839165e+00 2.266392e+00 1.110850e+01 8.119350e+00 -2.933926e+00 1.096665e-01 3.239618e-01 8.213202e-01 -4.128389e-01 5.026587e-01 8.286625e-01 9.262279e-01 -4.775074e-01 -5.751493e-01 -8.539594e-01 -3.041899e-01 -8.248612e-01 9.676589e-01 -1.157500e-02 
-6.080880e+00 1.303773e+00 -9.727637e-01 6.000227e+00 9.281435e+00 -1.814201e+00 6.161237e-01 -4.894135e+00 -4.979221e+00 4.007904e+00 1.282621e+00 -1.806465e+00 7.207823e-02 4.831200e-02 1.632967e+00 -5.595279e-02 -1.695160e+00 -6.710317e-01 8.200499e-01 1.148670e+00 -9.236089e-02 -1.680718e+00 -1.667350e+00 -7.727644e-01 1.681452e+00 -6.991947e-03 
-4.897456e+00 2.694022e+00 -1.287201e+00 4.984252e+00 7.669591e+00 -1.399930e+00 -7.296727e-01 -2.187010e+00 -6.666915e+00 2.497084e+00 1.343776e+00 1.551351e+00 8.359224e-02 -4.715360e-01 1.863959e+00 2.474811e-02 -1.888359e+00 -1.981337e+00 -4.319705e-01 2.017749e+00 6.222715e-01 -8.906641e-01 -2.169976e+00 -1.161885e+00 -4.760968e-01 -1.749476e-02 
-6.154789e+00 4.947054e+00 -3.471354e+00 -1.783722e+00 5.467771e+00 -1.822343e+00 6.708010e+00 -2.144578e+00 -7.157689e+00 -4.733868e-01 2.082673e+00 8.444876e-01 5.204570e-02 -8.687927e-01 9.330293e-01 2.008591e-01 -9.021854e-01 -1.349087e-01 -8.316276e-02 1.235009e+00 1.581601e-01 1.231895e+00 4.524963e-01 7.419326e-01 -4.605672e-01 -1.370608e-02 
-8.546434e+00 5.135030e+00 -1.527239e+00 1.658294e+00 4.435056e+00 -4.292492e+00 6.488849e+00 -1.102585e+00 -1.097695e+00 2.499264e+00 1.909898e+00 -6.639887e+00 3.220898e-02 -1.074879e+00 6.081204e-01 4.516714e-01 2.360582e-01 1.105292e+00 7.766435e-01 4.657547e-01 1.022602e-01 1.560948e+00 6.726834e-01 1.691557e-01 -8.527960e-01 -9.162528e-03 
-8.600354e+00 4.748416e+00 1.515511e-01 3.152279e+00 1.022416e+01 -7.837334e-01 3.181910e+00 -4.645546e+00 -1.604354e+00 6.269296e+00 4.709223e+00 -1.368243e-02 2.923948e-02 -1.042216e+00 -8.609495e-02 1.189915e+00 1.458464e+00 1.476148e+00 4.320507e-01 -8.674364e-01 7.831182e-01 5.725099e-01 -1.775995e-01 2.798613e-01 -4.684259e-01 2.333272e-03 
-9.049070e+00 5.833943e+00 -8.402970e-01 3.696543e+00 1.081786e+01 1.963983e+00 3.362150e+00 -4.252251e-01 -1.638844e+00 2.489160e+00 8.762792e-01 -2.283544e+00 4.918271e-02 -5.846092e-01 -6.298398e-01 3.403520e-01 -1.087592e-02 -1.423801e-01 4.634286e-01 3.426016e-01 1.949360e+00 -4.172369e-01 -1.207229e+00 4.326377e-02 3.284742e-01 1.931155e-03 
-1.111455e+01 4.167123e+00 2.134750e+00 4.489473e+00 9.657109e+00 -2.790327e+00 3.934177e+00 1.432333e+00 -4.024564e+00 -1.356332e+00 3.998789e+00 -3.675813e+00 5.522519e-02 -1.636870e-01 -4.857289e-01 5.573634e-01 -6.166207e-01 -2.047693e+00 -1.110448e+00 7.801973e-01 2.316812e+00 1.488689e-01 -9.124644e-01 -4.020771e-01 -7.837017e-01 4.109323e-04 
-1.021238e+01 2.276477e+00 -8.170791e-01 9.353173e-01 4.006680e+00 -9.720521e-01 7.825724e+00 5.605278e+00 -1.973774e+00 2.759321e-01 2.481434e+00 -3.166451e+00 2.887189e-02 5.773473e-01 -1.033763e+00 -1.979401e-01 -1.052267e+00 -2.726067e+00 -1.334977e+00 -2.759515e-01 7.136664e-01 1.135475e+00 -4.169753e-01 -4.378887e-01 -2.002726e-02 1.239604e-02 
-8.837133e+00 4.098504e+00 2.926759e+00 1.449788e+00 3.391280e+00 -4.867959e+00 4.851109e+00 3.923264e+00 -6.925447e-01 2.813588e+00 1.896260e+00 -3.490737e+00 4.144955e-02 5.946889e-01 -1.225708e+00 -8.845192e-01 6.624702e-01 -1.030139e+00 1.876286e-01 -1.839867e+00 7.852819e-02 1.229842e+00 -3.019934e-01 -1.213225e+00 8.548268e-01 5.466841e-02 
-7.301043e+00 6.994387e-01 -2.226002e+00 -4.494944e-02 3.204365e-01 -3.672088e+00 1.523926e+00 1.897642e+00 2.372519e+00 -1.680677e+00 -2.618999e-01 -2.476218e+00 1.180508e-01 -5.753276e-01 -2.241431e+00 -1.192369e+00 1.507262e+00 -4.063574e-01 3.882805e-01 -3.204456e+00 -5.253314e-01 -5.598136e-02 2.505701e-01 -9.733937e-01 -4.035576e-01 9.879190e-02 
-9.596776e+00 -1.172898e+00 -1.583385e+00 8.291958e+00 6.349536e+00 -5.021658e-01 -2.114259e+00 3.678792e+00 -4.850078e-02 -1.887995e+00 -6.956699e-01 2.532049e-01 2.839778e-01 -1.516618e+00 -2.319253e+00 -1.354281e+00 1.486787e+00 -2.348811e-01 6.078489e-01 -1.857887e+00 2.830901e-02 -1.684399e+00 -1.960061e-01 -2.824024e-02 -6.718644e-01 1.051177e-01 
-1.270920e+01 -6.294979e+00 -4.523854e+00 5.050542e+00 4.957643e-01 -1.213546e+00 -4.713870e+00 3.100857e+00 -2.575703e+00 3.879574e+00 -1.089570e+00 -7.056210e+00 4.015673e-01 -1.604592e+00 -8.888100e-01 -3.554100e-01 1.128768e+00 -2.236285e-01 -8.859265e-01 -4.098508e-01 -6.361150e-01 -1.955516e+00 1.049508e+00 3.539320e-01 7.248034e-01 9.424334e-02 
-1.371615e+01 -4.000555e+00 -2.695720e+00 6.335977e+00 2.129210e+00 -3.057985e+00 -1.319427e+00 3.463201e+00 -6.640430e+00 -9.465685e-01 2.168894e+00 -4.560064e+00 4.252800e-01 -1.218997e+00 -2.155068e-01 -7.477688e-01 -1.031890e+00 -9.771776e-01 -1.578293e+00 5.649423e-01 -2.280294e+00 -6.738469e-01 9.088398e-01 4.879846e-01 1.361619e+00 6.053349e-02 
-1.326432e+01 -2.330783e+00 -3.446884e+00 6.576880e+00 1.312457e+00 -6.823812e+00 -9.227436e-01 -1.175138e+00 -4.109098e+00 3.096148e+00 7.547799e-02 3.554433e+00 5.186164e-01 -9.379644e-01 2.940364e-01 2.207468e-01 2.221792e-02 1.036676e+00 7.102680e-03 1.126078e+00 -1.956751e+00 -1.990926e-01 -2.546837e-01 4.336436e-01 1.761224e+00 3.919869e-02 
-1.541420e+01 -4.232530e+00 -5.860713e+00 2.369339e+00 1.055302e+00 -5.588496e+00 -1.185110e+00 -5.584681e+00 -2.651038e+00 3.047917e+00 1.161729e+00 1.755980e+00 5.281207e-01 -8.248413e-01 -3.962139e-01 1.196901e-01 -8.115587e-01 1.808479e-01 5.112985e-01 1.240421e-01 -1.913902e+00 -9.528079e-01 -7.434842e-01 -2.986028e-01 -6.264005e-02 2.503598e-02 
-1.655000e+01 -4.708810e+00 -1.837624e+00 7.144951e+00 6.216098e+00 8.722305e-02 8.493626e-01 -2.158956e+00 -5.565863e+00 6.089126e-01 1.582231e+00 -1.408111e+00 5.461404e-01 -6.761418e-02 -4.216506e-01 4.104740e-01 -1.028192e+00 1.812601e-01 1.412162e-01 -2.823984e-01 -1.322039e-01 -1.626556e+00 -1.497702e+00 -4.476333e-01 -1.253503e+00 1.087942e-02 
-1.619751e+01 -4.792611e+00 -2.901900e+00 1.994148e+00 5.816293e-01 -3.957010e+00 -1.585269e+00 -5.614401e+00 -1.067609e+01 -3.420372e+00 -7.749644e-02 -2.391992e+00 5.366979e-01 1.618918e+00 -3.848709e-01 -3.665885e-01 -1.039670e+00 -6.187686e-01 -1.025086e+00 -2.954835e-01 6.528333e-01 -1.094649e+00 -8.121670e-01 4.018550e-02 2.035331e-01 1.770286e-02 
-1.321073e+01 -4.158995e+00 -2.873921e+00 1.623514e+00 2.455594e+00 -6.933474e+00 -2.134656e+00 -1.821297e+00 -8.229351e+00 -1.158216e+00 -1.543076e+00 -6.390979e-01 5.687249e-01 2.554217e+00 2.611232e-02 -8.277545e-02 -8.141230e-01 -3.897075e-01 -1.186556e+00 -3.769086e-01 1.234065e+00 3.990881e-01 -6.068906e-01 6.329778e-01 -2.770729e-01 -8.587157e-03 
-8.989242e+00 -6.431792e+00 -7.175508e+00 -6.829265e-02 -1.582890e-01 -7.203578e+00 -1.170519e+00 -2.489343e+00 -6.792537e+00 -1.293538e-01 2.925310e+00 2.389139e+00 6.053427e-01 5.262805e+00 1.534106e+00 3.593641e-01 -5.525802e-01 -8.859317e-01 1.576903e-01 4.954952e-01 2.487631e+00 1.602587e+00 -5.341235e-01 1.027471e+00 6.171913e-02 -2.987747e-02 
-7.383044e+00 -3.758658e+00 -1.146973e-01 4.105556e+00 4.637520e+00 -4.222272e+00 -1.242556e+00 2.448840e+00 -5.512197e+00 -4.071049e+00 3.245717e+00 -5.184041e+00 4.688821e-01 7.430823e+00 9.723030e-01 2.329856e+00 -2.310482e+00 -5.458000e+00 2.612803e+00 4.183587e-01 1.300231e+00 1.836412e+00 -2.449037e+00 4.557354e-01 1.139410e+00 4.204423e-02 
7.202669e+00 2.677752e+00 -2.484692e+00 -2.009775e+00 -4.938992e+00 -4.524159e+00 4.461567e-01 4.688687e+00 -4.021727e+00 -4.634573e+00 2.665462e+00 1.890754e-01 4.372319e-01 7.314613e+00 1.010377e-01 3.633320e+00 -3.856663e+00 -7.834013e+00 3.338615e+00 -3.826303e-02 1.076688e+00 1.484017e+00 -2.945959e+00 -4.230762e-01 2.523401e+00 1.133289e-01 
1.584743e+01 -3.852252e+00 6.429950e+00 -8.958155e+00 -2.244405e+01 4.790833e+00 -8.512003e-01 1.090841e+00 -4.326975e-01 -1.115079e+01 8.655258e-01 6.157984e+00 8.630015e-01 5.601486e+00 -1.404227e+00 3.070337e+00 -4.727349e+00 -8.031489e+00 2.588295e+00 1.491759e-01 -4.243155e-01 1.663154e+00 -2.202333e+00 -4.220621e-01 3.061054e+00 1.571807e-01 
1.596859e+01 -5.879807e+00 7.718771e+00 -1.281975e+01 -2.578757e+01 4.982943e+00 -1.557512e+00 3.573096e+00 -1.912201e+00 -1.131928e+01 2.000024e+00 9.335131e+00 9.749275e-01 1.349062e+00 -1.523722e+00 2.633442e+00 -2.660141e+00 -4.856017e+00 1.565245e+00 -1.487060e-01 -7.156008e-01 1.356577e+00 -1.280260e+00 5.920296e-02 9.140560e-01 1.248473e-01 
1.624143e+01 -6.501012e+00 1.013525e+01 -1.412620e+01 -2.509564e+01 3.965649e+00 5.051577e-01 8.850578e-01 1.748811e+00 -1.174036e+01 1.468125e+00 5.548202e+00 9.859379e-01 -5.200547e-01 7.896547e-02 9.586899e-01 -8.106087e-01 -1.324854e+00 -2.216811e-01 1.650448e-01 -5.349882e-01 9.264258e-01 2.495451e-01 2.447501e-01 -6.861947e-01 2.792295e-02 
1.375098e+01 -3.616481e+00 8.829868e+00 -1.272646e+01 -2.789328e+01 3.714658e+00 -9.755523e-01 1.213575e+00 1.670406e+00 -1.074109e+01 2.660177e+00 5.064246e+00 1.000000e+00 -3.626021e-01 4.269635e-01 1.064664e+00 -3.388131e-01 -6.427342e-01 -1.107953e-01 -1.290446e-01 -6.194336e-01 9.406040e-01 4.662975e-01 8.257723e-02 -1.316314e+00 7.345974e-04 
1.435596e+01 -4.589087e+00 1.066785e+01 -1.305785e+01 -2.801547e+01 4.316570e+00 -3.169560e-01 -4.043395e-01 2.408128e+00 -1.019216e+01 1.759200e+00 4.862453e+00 9.900800e-01 -2.093800e-01 5.198390e-01 7.903387e-01 -2.187620e-01 -7.083923e-01 3.182572e-01 -6.789885e-01 -2.099505e-02 3.201719e-01 4.897447e-01 5.833234e-02 -6.144377e-01 -7.227289e-03 
1.509831e+01 -4.700951e+00 1.277579e+01 -1.504800e+01 -2.754132e+01 4.253506e+00 -1.791678e+00 1.120626e+00 2.461160e+00 -9.761889e+00 2.267373e+00 3.096437e+00 9.765295e-01 1.676822e-01 1.630822e-01 9.120432e-01 -2.522138e-01 -3.471817e-01 2.225582e-01 -3.865578e-01 -2.671095e-01 3.274305e-01 7.031903e-01 -3.568010e-01 -4.760197e-01 -1.244537e-02 
1.452086e+01 -3.359581e+00 1.211399e+01 -1.405924e+01 -2.881358e+01 5.287511e+00 -2.481722e+00 8.265569e-01 2.954293e+00 -9.781239e+00 1.956189e+00 3.459918e+00 9.615367e-01 -8.325209e-02 5.637731e-01 5.981491e-01 2.878160e-02 -8.351952e-01 5.197817e-01 -8.915512e-01 4.349039e-01 -5.858069e-01 1.523064e+00 -7.927226e-01 -4.999511e-02 -1.306552e-02 
1.450694e+01 -3.415823e+00 1.266702e+01 -1.348683e+01 -2.923014e+01 4.341979e+00 -1.825958e+00 -7.374210e-01 3.034476e+00 -7.430601e+00 7.776775e-01 3.385415e+00 9.520448e-01 -1.356473e-01 4.622599e-01 5.124524e-01 2.270738e-01 -6.329075e-01 1.595669e-02 -1.926274e-01 -1.000021e-01 -2.277764e-01 1.218489e+00 -5.914088e-01 -2.113572e-01 -1.527445e-02 
1.423538e+01 -2.412786e+00 1.371299e+01 -1.369452e+01 -3.134704e+01 6.871242e+00 -4.757571e+00 2.699204e+00 -8.075649e-01 -3.742484e+00 -1.459566e+00 4.467988e+00 9.369947e-01 6.532488e-02 2.571798e-01 6.790426e-01 8.021326e-02 -4.189892e-01 -2.784260e-01 1.096796e-01 -3.120428e-01 1.567209e-01 8.546608e-01 -2.618202e-01 -5.112164e-01 -1.776059e-02 
1.456281e+01 -2.863049e+00 1.453856e+01 -1.409499e+01 -2.943913e+01 3.541424e+00 -1.616890e+00 -3.157080e-01 3.203207e+00 -6.688821e+00 1.018206e+00 1.535616e+00 9.124282e-01 8.517194e-02 4.331165e-01 3.442163e-01 4.006979e-01 -4.163227e-01 -3.768470e-01 2.671421e-01 -5.234200e-01 2.017185e-01 6.299019e-01 1.002145e-02 -4.006763e-01 -2.096341e-02 
1.481955e+01 -2.350069e+00 1.457343e+01 -1.335409e+01 -3.080403e+01 4.295659e+00 -2.037858e+00 -9.445133e-01 3.653533e+00 -5.878825e+00 5.268235e-01 1.828736e+00 8.925421e-01 2.006099e-01 4.447452e-01 -3.234851e-01 8.441803e-01 2.781338e-01 -1.444009e+00 8.558172e-01 -1.128649e+00 5.924533e-01 2.609809e-01 3.826744e-01 -5.931800e-01 -2.060509e-02 
1.464072e+01 -1.281598e+00 1.395788e+01 -1.165355e+01 -3.158326e+01 3.745535e+00 -1.850104e+00 -1.532662e+00 1.812520e+00 -3.212920e+00 -1.654098e-01 2.701659e+00 8.694541e-01 9.977436e-03 8.150141e-01 -1.080513e+00 1.065402e+00 2.521221e-01 -7.012033e-01 3.218718e-01 -2.588240e-01 -7.885841e-01 7.197887e-01 1.138355e-02 -1.232306e-02 -1.700831e-02 
1.519948e+01 -9.797847e-01 1.238590e+01 -1.069434e+01 -2.888431e+01 -4.508586e-01 -3.618786e-01 -2.335566e+00 2.850045e+00 -4.175530e+00 1.045614e+00 9.190665e-01 8.554564e-01 -4.563951e-02 7.317264e-01 -1.357269e+00 5.311774e-01 9.417683e-01 -6.034017e-01 7.211028e-01 4.157986e-01 -1.416276e+00 7.334311e-02 -2.981364e-02 3.434227e-01 -1.451330e-02 
1.442274e+01 5.268794e-01 1.022976e+01 -1.009786e+01 -2.913838e+01 2.408666e+00 -8.455207e-01 -9.143016e-01 -3.379695e-01 -3.941524e+00 8.157284e-01 1.928836e+00 8.459295e-01 -1.104879e-01 5.446187e-01 -1.518932e+00 2.716250e-01 1.227183e+00 -3.427454e-01 1.457263e+00 8.868073e-01 -1.910315e+00 -5.840991e-01 -2.350805e-01 7.793929e-01 -1.564171e-02 
1.470034e+01 4.043239e-01 9.651144e+00 -1.147606e+01 -2.731762e+01 1.947085e+00 1.065364e+00 8.252991e-01 -2.352602e+00 -5.147808e+00 -1.128137e-01 3.932261e+00 8.317379e-01 -1.878643e-01 2.289852e-01 -1.968705e+00 6.847494e-01 1.353914e+00 3.398542e-02 1.568345e+00 1.261677e+00 -1.921466e+00 -7.562301e-01 -4.548655e-01 1.297871e+00 -1.921475e-02 
1.433785e+01 7.494408e-01 7.730595e+00 -9.904569e+00 -2.623068e+01 8.328366e-01 4.722590e+00 1.320942e+00 -5.137731e+00 -5.647277e+00 -7.615983e-01 5.092027e+00 8.031048e-01 -1.107034e-01 -1.468917e-01 -2.451583e+00 1.272622e+00 2.151409e+00 -3.296596e-01 1.294201e+00 1.246650e+00 -1.337232e+00 -1.245808e+00 -1.707294e-01 1.951174e+00 -2.383404e-02 
1.430260e+01 5.386066e-02 3.791956e+00 -7.367233e+00 -2.356859e+01 5.069833e-01 4.695792e+00 2.855199e+00 -4.357405e+00 -7.103805e+00 -4.400505e-01 5.826825e+00 7.807950e-01 -3.975959e-02 -2.502759e-01 -3.271817e+00 1.277458e+00 3.729279e+00 -2.930236e-01 -1.635666e-01 1.324922e+00 -1.077639e+00 -1.826793e+00 1.340284e+00 2.420323e+00 -2.305591e-02 
1.406809e+01 -3.234744e-02 9.014338e-01 -5.789158e+00 -2.025585e+01 1.480419e+00 3.810269e+00 4.304000e+00 -6.021728e+00 -9.192566e+00 1.256996e-01 1.073742e+01 7.522308e-01 1.603515e-01 -5.107366e-01 -3.197441e+00 4.803023e-02 5.292644e+00 8.184265e-01 -2.522596e+00 7.482491e-01 -4.490706e-01 -1.011509e+00 1.792980e+00 2.384323e+00 -1.441352e-02 
1.463643e+01 -4.561613e-01 -3.293361e+00 -7.146469e+00 -1.165864e+01 1.581755e-01 7.036915e-01 5.958381e+00 -7.298799e+00 -1.250913e+01 6.144957e+00 1.321118e+01 7.418953e-01 1.428434e-01 -3.258455e-01 -3.213882e+00 7.315078e-02 6.150988e+00 1.366148e-01 -2.937228e+00 -3.882079e-01 -4.599361e-01 6.798606e-01 1.883666e+00 1.011715e+00 -9.295607e-03 
1.497269e+01 -1.549231e+00 -4.713951e+00 -9.774799e+00 -5.722437e+00 5.099373e+00 -5.894341e+00 3.510596e+00 -5.912387e+00 -8.002158e+00 4.910797e+00 1.332146e+01 7.504870e-01 -1.707277e-01 -2.663634e-02 -2.411997e+00 1.332221e-01 5.685468e+00 -1.845450e-01 -3.104916e+00 -1.776249e+00 1.535869e+00 2.227189e+00 5.115288e-01 -1.127158e+00 -1.197271e-02 
1.456452e+01 -8.169250e-01 -9.469763e+00 -5.008658e+00 -8.035612e-02 -6.194196e-01 -5.138042e+00 1.310862e+00 -6.711756e+00 -4.299706e+00 6.585732e+00 9.593378e+00 7.351888e-01 -8.777771e-01 1.171454e-01 -3.594017e-03 5.285199e-01 4.391366e+00 -3.585121e-01 -2.243032e+00 -1.497649e+00 2.262204e+00 4.013772e+00 -8.526718e-01 -3.580510e+00 -3.858217e-02 
1.325040e+01 1.485276e-02 -8.070352e+00 -6.191953e+00 2.382347e+00 9.464917e-01 -8.793442e+00 -2.253485e+00 1.364098e+00 -2.161332e+00 2.462956e+00 6.910533e+00 6.957204e-01 -1.535009e+00 -5.367723e-01 3.481235e-01 1.733766e+00 4.000922e+00 8.630039e-01 2.507458e-01 -9.429773e-01 2.928039e+00 2.594335e+00 -1.733156e+00 -4.493182e+00 -5.344646e-02 
1.110869e+01 -6.524758e-01 -1.633131e+00 -6.295293e+00 6.245799e+00 4.420557e-01 -9.061920e+00 1.352179e+00 3.739803e-01 4.639316e+00 3.105518e+00 -1.485904e+00 5.763677e-01 -1.402137e+00 1.727636e-01 1.090281e+00 2.029816e+00 3.626836e+00 1.409864e+00 -1.046533e-01 -6.240482e-01 2.871802e+00 1.704104e+00 -2.348798e+00 -2.731460e+00 -7.110894e-02 
9.025564e+00 -4.315317e+00 -6.891649e+00 -4.626514e-01 1.111909e+01 8.883656e+00 -2.678674e+00 -1.224949e+00 5.184941e+00 5.000049e-01 -2.014878e+00 -3.604802e+00 5.626652e-01 -8.437389e-01 5.428268e-01 9.688628e-01 3.112371e+00 2.159993e+00 -4.694556e-01 -9.251356e-01 -2.582257e-01 1.737236e+00 2.209955e+00 -1.718645e+00 -2.058869e+00 -6.290130e-02 
9.666252e+00 2.211978e+00 -4.607707e+00 2.275772e+00 1.368545e+01 2.461317e+00 -8.718693e+00 -2.323647e+00 5.736830e+00 2.890147e+00 -2.919340e+00 1.193747e+00 4.461718e-01 -5.793533e-01 1.218190e+00 2.245618e-01 2.906352e+00 1.413667e+00 -1.174733e+00 -1.131113e+00 -1.194226e+00 1.933350e+00 2.263306e+00 -1.334814e+00 2.426091e-01 -4.862721e-02 
9.752925e+00 1.296760e+00 -1.738749e+00 5.084370e+00 9.462484e+00 -2.410417e+00 -1.359073e+01 -1.706701e+00 7.368852e+00 9.763031e+00 -3.117838e+00 -4.723639e+00 4.463120e-01 -8.968328e-01 1.216520e+00 1.150413e+00 2.233725e+00 1.353656e+00 -6.513598e-01 -1.012031e+00 -9.121893e-01 5.417590e-01 3.509417e+00 6.668484e-01 9.022856e-01 -4.873146e-02 
7.848238e+00 2.632436e+00 -3.086771e+00 5.462954e+00 1.414244e+01 2.154264e-01 -9.261456e+00 -4.378073e+00 8.948772e+00 1.132434e+01 -3.017073e+00 2.865595e-01 3.914083e-01 -1.417024e+00 -7.345946e-01 -2.784341e-01 1.751286e+00 1.515257e+00 3.003239e+00 3.760316e+00 6.338406e-01 6.176516e-01 1.449311e+00 -1.093096e-01 -3.589039e-02 -3.205295e-02 
5.450408e+00 1.557054e+00 -1.900053e+00 9.112381e+00 1.765888e+01 6.749801e+00 -7.467446e+00 -4.758682e+00 6.287765e+00 1.382999e+01 1.368230e+00 1.360219e+00 3.463897e-01 -1.584241e+00 -6.945294e-01 -7.496318e-01 1.568806e+00 2.379278e+00 2.205556e+00 3.768976e+00 1.539627e+00 1.790127e+00 -2.658566e-01 -9.376587e-01 -7.858008e-01 -3.179220e-02 
4.732391e+00 -1.591142e+00 -5.919226e+00 9.018197e+00 1.716354e+01 1.289741e+01 7.021242e+00 2.371546e+00 9.365631e+00 8.103222e+00 -5.708922e+00 -2.027634e+00 3.358682e-01 -1.332597e+00 -4.588632e-01 -4.139665e-01 1.054754e+00 3.729526e-01 -4.133334e-02 1.673735e+00 1.657211e+00 1.573653e+00 -1.406451e+00 -1.908230e+00 -1.843427e+00 -3.458899e-02 
3.389642e+00 -6.409812e-02 -4.070682e+00 1.115078e+01 1.984832e+01 2.276374e+00 -2.887202e+00 2.616623e+00 1.611106e+01 1.004430e+01 -6.460207e+00 -7.495546e+00 3.151210e-01 -1.091443e+00 -3.982242e-01 -6.400901e-01 2.442286e-01 -1.579850e-01 -2.568581e+00 -1.060827e+00 -1.484038e-01 1.077176e+00 -1.064765e+00 -3.027159e+00 -1.980900e+00 -1.811802e-02 
2.215635e+00 1.148696e+00 -4.071290e+00 9.717528e+00 1.491248e+01 2.245473e+00 -3.182902e+00 2.203287e-01 1.190539e+01 6.184923e+00 -8.644004e+00 -4.502692e+00 2.340977e-01 -1.055266e+00 3.301042e-01 -8.728920e-01 -8.705120e-01 -1.233611e+00 -2.885834e+00 -3.430192e+00 -2.751094e+00 -7.833661e-01 -5.683945e-01 -1.444292e+00 -1.001065e+00 -2.410115e-02 
1.251570e+00 -1.803986e+00 -6.024472e+00 9.983858e+00 1.799449e+01 -7.671394e-01 -7.669511e+00 -4.425093e+00 1.040376e+01 9.465319e+00 -1.230002e+01 -7.306753e+00 3.066848e-01 -8.919591e-01 8.775824e-02 -1.325759e+00 -1.427673e+00 -1.038432e+00 3.984693e-01 -3.330142e-01 -2.139796e+00 -2.005563e+00 -1.314371e+00 -9.279463e-01 -1.742388e-01 -2.471914e-02 
5.250983e-01 9.293227e-01 -9.306790e+00 5.249096e+00 1.192241e+01 -1.000977e-02 -7.738559e+00 -7.863068e+00 8.302448e+00 5.550742e+00 -1.001047e+01 -7.127355e+00 2.195805e-01 -1.000311e+00 -2.042742e-01 -1.383282e+00 -2.016183e+00 -8.887921e-02 5.608101e-01 5.889516e-01 -8.429855e-01 -9.177723e-01 -5.171140e-01 7.935728e-01 5.082875e-01 -2.809105e-02 
-2.248850e-01 4.843798e-01 -8.081726e+00 6.246628e+00 1.615120e+01 5.396462e+00 -2.274444e+00 -4.040657e+00 7.884716e+00 3.789542e+00 -1.041670e+01 -7.054408e+00 1.987839e-01 -1.075502e+00 -1.922883e-01 -5.233342e-01 -1.127651e+00 -4.614758e-01 3.983755e-02 1.637298e+00 1.366042e+00 -1.566311e+00 -2.854120e+00 1.233459e+00 1.397213e+00 -4.036834e-02 
-2.047694e+00 -1.016858e+00 -9.959073e+00 1.505230e+00 1.538972e+01 1.967723e+00 -2.935677e+00 -4.186817e+00 8.576054e+00 6.437241e+00 -5.617799e+00 -2.087427e+00 1.475929e-01 -7.841569e-01 -5.701076e-01 2.787728e-01 3.878957e-01 -2.604081e-01 -1.877718e+00 8.341724e-01 2.569707e+00 -5.838655e-01 -6.868830e-01 1.342704e+00 9.286624e-01 -1.927902e-02 
-2.839545e+00 -1.792338e+00 -8.315001e+00 6.217535e+00 1.395345e+01 -1.556818e+00 -1.884463e+00 5.669944e-01 2.435406e+00 -5.248533e+00 -8.329067e+00 -2.840652e+00 1.408369e-01 -7.722648e-01 -3.685724e-01 1.565006e-01 7.030666e-01 -7.857010e-01 -2.423983e+00 -8.357016e-01 2.013037e+00 2.390718e-01 2.433993e-01 1.099419e+00 9.129710e-02 -8.632666e-03 
-2.088356e+00 -7.828565e-01 -7.796288e+00 7.203121e+00 1.171924e+01 -5.921961e+00 -3.762687e+00 2.681642e+00 8.107775e+00 6.635364e+00 -4.340771e+00 -4.590921e+00 1.521589e-01 -6.513259e-01 -3.916210e-01 2.696792e-01 1.306143e+00 -1.641640e-01 -9.796015e-01 -3.251042e-02 1.474499e+00 -5.466086e-01 2.875674e-01 1.133070e-01 -2.248883e+00 2.063394e-03 
-4.065878e+00 -1.475483e+00 -8.380615e+00 6.913015e+00 1.405794e+01 -2.778613e+00 -6.039447e+00 2.590299e+00 9.314213e+00 4.907477e+00 -5.558125e+00 -5.346175e+00 1.533375e-01 -9.881333e-01 -2.510766e-01 3.229595e-01 2.814449e-01 6.552144e-01 3.326855e-01 7.338550e-01 5.619019e-01 -6.164906e-01 4.779165e-01 -1.486506e-01 -1.691042e+00 -8.795512e-03 
-4.691157e+00 -3.133390e+00 -8.577870e+00 7.688204e+00 1.451666e+01 -2.319387e+00 -1.020737e+00 2.174024e+00 2.403606e+00 2.797073e+00 -6.436735e+00 -1.207908e+01 1.516595e-01 -9.855248e-01 8.417403e-01 1.043124e+00 -2.850237e-02 8.808872e-01 9.834177e-01 1.245824e+00 -3.130992e-01 -1.263721e+00 -1.333711e+00 -7.282790e-01 -3.174254e-01 -2.172471e-02 
-6.478811e+00 -1.872454e+00 -6.309413e+00 7.382218e+00 1.583081e+01 -1.694677e+00 4.138370e-01 3.630313e+00 2.205037e+00 -9.398042e-01 -8.024338e+00 -7.551779e+00 9.710902e-02 -6.076999e-01 1.592881e+00 1.130898e+00 -8.237646e-01 -3.299524e-01 2.134550e-01 1.755694e+00 -5.177467e-01 -1.039454e+00 1.907347e-01 1.524404e+00 1.348181e+00 -3.041964e-02 
-5.809513e+00 3.624330e+00 -3.616268e+00 6.826008e+00 1.523724e+01 -1.546840e+00 -7.602103e-01 5.961387e-01 5.343759e+00 2.890450e+00 -6.749060e+00 -5.075247e+00 7.164961e-02 -3.536155e-01 1.959657e+00 8.356861e-01 -1.761035e+00 -9.730043e-01 7.028904e-01 1.830984e+00 3.332200e-02 3.962331e-01 8.328466e-01 2.403221e+00 3.314586e+00 -2.533659e-02 
-6.545199e+00 3.110062e+00 -5.206928e+00 3.225291e+00 1.204788e+01 -2.097611e+00 2.608757e+00 7.905077e-01 2.646869e+00 5.814462e+00 2.220057e+00 -2.107187e+00 4.124433e-02 -4.175516e-01 4.299151e-01 3.806074e-01 -1.078347e+00 -1.602650e+00 8.885990e-01 2.556649e+00 -4.852876e-01 -6.481943e-02 1.379999e+00 2.734221e+00 1.321196e+00 -2.848244e-03 
-6.426041e+00 4.173637e+00 -4.950683e+00 9.614949e-01 1.154310e+01 1.396532e+00 7.036725e+00 3.760536e+00 4.163856e+00 3.584173e+00 4.571715e-01 1.771552e+00 5.290896e-02 -3.777592e-01 1.164923e-02 6.224946e-01 -6.401842e-01 -2.307263e+00 5.812499e-01 2.775636e+00 6.028566e-01 -4.895710e-01 7.506616e-01 3.376013e+00 1.051507e+00 6.133688e-03 
-8.258306e+00 2.468109e-03 -3.739169e+00 4.922738e+00 9.664632e+00 1.276632e+00 9.298614e+00 -3.783243e-01 2.470891e+00 5.613330e+00 2.043648e+00 -4.369199e+00 9.223813e-02 -6.368543e-01 2.184890e-01 1.078717e+00 3.647301e-02 -1.346094e+00 8.756636e-01 7.728772e-01 -3.455552e-01 -8.385744e-01 -3.400634e-01 9.863459e-01 7.453880e-01 3.780353e-03 
-6.841756e+00 5.236373e+00 -1.237674e+00 2.776364e+00 4.892554e+00 -3.277116e-01 9.773044e+00 4.194838e+00 2.983892e+00 6.744324e+00 1.021921e+01 1.313295e+00 7.682115e-02 -5.658041e-01 2.907286e-01 1.079518e+00 3.479664e-01 -5.399629e-01 4.159741e-01 -9.863476e-01 -1.106280e-01 -1.997955e+00 -7.247130e-01 8.169502e-02 3.587807e-01 -6.783479e-03 
-9.521613e+00 3.671139e+00 -1.669844e+00 2.500221e+00 8.642687e+00 3.142828e+00 5.104984e+00 -1.154419e+00 -9.560217e-01 2.534069e+00 2.270766e+00 1.848881e+00 4.819000e-02 -5.238320e-01 3.206772e-01 3.136866e-01 -5.525093e-02 -2.924066e-01 -6.735134e-02 -8.145777e-01 -3.025584e-01 -7.101386e-01 -1.856591e+00 -2.209421e+00 1.010977e+00 -1.607919e-02 
-8.623407e+00 3.792944e+00 -5.877552e-01 3.912585e+00 9.354259e+00 2.543304e+00 4.201801e+00 3.595443e+00 -4.112462e+00 1.500239e+00 7.520876e-01 4.564157e-01 4.101562e-02 -6.345291e-01 -2.198837e-01 5.688661e-01 4.675713e-01 9.889145e-02 -1.021389e+00 -1.074743e+00 -9.239140e-01 -1.801623e-01 -1.748097e+00 -3.104434e+00 -2.752418e-01 -9.252841e-03 
-9.986640e+00 2.327568e+00 -2.495695e+00 4.078373e+00 5.971746e+00 -4.956326e-01 8.011346e+00 -1.591419e+00 2.468376e+00 -1.047584e+00 -4.269896e+00 1.114125e+00 2.974492e-02 -2.881041e-01 6.460549e-01 1.454172e+00 5.851054e-03 -2.120821e-01 -9.700415e-01 3.763795e-01 2.883159e-01 8.957396e-01 -1.862619e-01 -7.017497e-01 1.028698e-01 1.301169e-05 
-9.781888e+00 4.808740e+00 2.019582e+00 4.325144e+00 6.722481e+00 -3.615427e+00 2.946146e+00 -2.062320e-01 3.708823e-01 -2.053348e-01 -2.032629e+00 3.044642e-01 3.977948e-02 -4.811340e-01 6.175747e-01 1.102211e+00 -6.200919e-01 2.838632e-01 -3.835002e-01 1.414496e-01 -8.469151e-01 -5.030095e-01 8.926509e-02 1.685241e-01 3.929501e-02 2.771890e-03 
-1.038289e+01 6.393516e+00 4.297349e+00 2.323197e+00 8.898165e+00 1.371987e+00 7.614710e+00 2.187998e+00 1.281004e+00 2.455546e+00 1.543761e-01 2.439206e+00 4.887313e-02 -2.856215e-01 -2.613360e-01 4.211076e-01 -7.429529e-01 1.501356e-01 -3.654600e-01 -6.736277e-01 1.861006e-01 -2.140705e+00 -7.340306e-03 7.676640e-01 -2.057717e-01 -2.254814e-03 
-1.083095e+01 4.847844e+00 1.526776e+00 1.689713e+00 9.310366e+00 -3.080068e-01 5.107368e+00 -2.528841e+00 -6.033823e+00 1.949992e-01 -6.174276e-01 -9.649664e-03 4.531097e-02 -2.723978e-01 -1.300699e+00 -8.767776e-01 -5.929514e-01 -6.057683e-01 -6.071061e-01 -2.819213e-01 -2.743683e-02 -1.712116e+00 -5.898234e-01 4.933531e-02 -2.321162e-01 -8.131677e-03 
-1.089022e+01 1.001336e+00 -1.437542e-01 1.681324e+00 5.428482e+00 -3.976643e+00 3.562596e+00 5.003886e-01 -5.032795e+00 -1.284452e+00 -1.139176e+00 2.423241e-01 1.570511e-02 -1.073910e-01 -1.463087e+00 -1.055274e+00 -1.292136e-01 -1.082125e+00 -1.436589e+00 -9.648998e-01 -3.459895e-02 -1.162657e+00 -8.959449e-01 -3.108853e-01 -4.141791e-01 -9.594190e-03 
