-6.589985e+00 4.672527e+00 -1.346655e+00 4.095827e+00 6.017123e+00 -5.499375e+00 -7.296964e-01 4.729156e+00 1.082660e+00 -1.077886e+00 -6.222826e+00 -4.573376e+00 7.180989e-03 -5.877773e-01 -3.548057e-02 -4.692000e-01 -2.491031e-01 7.072500e-01 1.677030e+00 6.940166e-01 -4.719008e-01 8.741443e-01 -9.140151e-01 5.944754e-01 1.323108e+00 7.354486e-03 
-6.846466e+00 6.558531e+00 -3.301455e-01 4.496653e+00 6.468730e+00 -1.879692e+00 -1.038966e+00 -3.654494e-01 2.605849e+00 -3.001672e+00 -4.145572e-01 1.125680e+00 2.469236e-02 -5.723084e-01 -5.304334e-01 -7.019110e-01 -6.285259e-01 1.607953e-01 1.453076e+00 8.004724e-01 -5.072479e-01 1.166512e+00 -4.426056e-01 5.675043e-01 4.449521e-01 9.386415e-03 
-9.400631e+00 3.552123e+00 -4.200910e+00 2.649898e+00 9.327570e+00 1.075935e+00 2.895022e+00 4.916955e+00 4.691786e+00 -4.686069e+00 -6.154583e+00 -8.073639e-01 3.519773e-02 -9.282379e-02 -6.957047e-01 -6.263040e-01 -4.053167e-01 -8.102991e-01 5.855935e-01 1.664804e-01 -8.012430e-02 5.286650e-01 -3.745117e-01 2.698765e-01 -2.605932e-01 5.914974e-03 
-8.046204e+00 2.580563e+00 -3.429082e+00 1.676162e+00 5.165876e+00 -1.521649e+00 1.460306e+00 2.099017e+00 5.110655e+00 -1.486822e+00 -3.419426e+00 -4.231621e+00 4.010469e-02 1.885509e-01 -6.386645e-01 -9.377263e-02 -4.858318e-01 -5.714043e-01 -3.944891e-01 -3.422110e-02 7.742947e-01 -5.844479e-01 4.081028e-01 -2.491566e-01 -6.490652e-01 8.840978e-04 
-6.454235e+00 3.182988e+00 -2.928706e+00 3.479489e+00 2.617054e+00 -2.750429e+00 -1.146931e+00 3.096301e+00 2.473582e+00 -3.707869e+00 -3.371009e+00 -3.197691e+00 2.904969e-02 6.644503e-01 1.220200e-01 3.832515e-01 -1.404267e-01 -1.165858e+00 -1.027771e+00 -6.819344e-01 -6.150384e-01 -5.147077e-01 4.792511e-01 9.943496e-01 -1.978706e-01 -3.765875e-03 
-7.376909e+00 3.549776e+00 -1.435110e+00 1.652699e+00 6.966966e+00 -1.938956e+00 8.109046e-01 4.416351e+00 7.927122e-01 -1.450258e+00 -3.052127e+00 -9.244828e-01 3.218687e-02 4.481358e-01 4.584015e-01 3.008358e-01 8.844070e-02 -3.087949e-01 -6.808606e-01 -8.603492e-01 -8.257759e-01 -4.523489e-01 -1.700565e-01 -8.190657e-01 -3.420246e-02 -3.677285e-03 
-6.413027e+00 3.677617e+00 -3.281638e+00 1.959497e+00 2.597736e+00 -3.854269e+00 -1.899490e-01 6.830958e-01 4.277219e+00 -2.308095e+00 -1.366485e+00 -3.450286e+00 2.032727e-02 2.729623e-01 7.630486e-01 5.041575e-01 2.774671e-01 1.043793e+00 -1.910424e-02 -5.787953e-01 -1.215442e+00 6.042265e-01 8.576683e-01 -5.947134e-01 -8.815074e-03 -2.145058e-03 
-5.826129e+00 4.625257e+00 -1.748437e+00 2.878362e+00 3.631561e+00 -4.374033e+00 -3.319930e+00 -8.232597e-01 1.947092e+00 -3.036992e+00 -8.517016e+00 -4.276336e+00 2.607948e-02 1.622565e-01 3.137698e-01 9.615968e-01 7.021669e-01 6.017356e-02 -9.727974e-01 -1.056152e+00 -1.153980e+00 5.884758e-01 3.727835e-01 -7.492383e-01 1.955442e-01 -1.254296e-03 
-5.864814e+00 6.460491e+00 -2.512555e-01 4.253993e+00 9.503721e+00 -1.628412e+00 -1.975489e+00 -3.611023e-01 4.917525e+00 1.373840e+00 -3.612131e+00 -1.565840e+00 2.137810e-02 -3.801755e-01 9.505949e-02 9.806526e-01 6.845219e-01 1.950359e-01 -7.030293e-01 -3.183807e-01 2.131225e-01 -1.791298e-01 7.554623e-02 -3.949408e-01 6.938837e-01 8.003950e-04 
-6.839733e+00 3.727187e+00 1.857682e+00 4.016285e+00 3.814841e+00 -7.915871e+00 -3.577085e+00 -8.314518e-01 3.414938e+00 -1.427307e+00 -5.675495e+00 -8.889848e-01 2.538997e-02 -1.723580e-01 -2.676243e-01 -3.231596e-02 -1.797670e-01 -7.748066e-01 -9.321609e-01 -5.941700e-01 5.230589e-01 -4.469001e-01 3.530100e-01 1.499036e+00 8.281429e-01 -2.276564e-03 
-7.807102e+00 4.601949e+00 -1.814352e-01 4.813144e+00 3.481275e+00 -5.598495e+00 -1.653275e+00 1.752804e+00 2.647647e+00 -2.735207e+00 -4.761949e+00 -1.674543e+00 2.467400e-02 -1.476398e-01 -2.347874e-01 -6.514248e-01 -9.290472e-01 -1.107215e+00 -6.661942e-02 -1.110618e-01 1.259861e+00 -8.030325e-01 1.386654e-01 1.468238e+00 1.017619e+00 -1.387930e-03 
-5.716775e+00 4.216406e+00 -1.944927e+00 1.699951e+00 2.768751e+00 -7.049795e+00 -6.451888e+00 7.350816e-01 8.475301e-01 7.825813e-01 -4.469280e-01 -8.126986e-02 1.304871e-02 -7.032605e-02 1.008795e-01 -8.334769e-01 -6.625365e-01 1.387114e+00 2.071567e+00 5.973207e-01 8.771221e-01 -5.538724e-02 2.721278e-01 1.142210e+00 8.114172e-01 -2.162385e-03 
-7.164492e+00 5.041945e+00 -1.607074e+00 7.669237e-01 4.490693e+00 -2.394547e+00 -1.093397e+00 5.154935e+00 2.186066e+00 9.622223e-01 1.114773e+00 3.118399e+00 2.060908e-02 -2.636561e-01 1.260527e-01 -5.046367e-02 -4.674660e-01 1.405144e+00 1.029089e+00 5.573512e-01 3.860599e-01 1.320641e+00 6.772253e-01 1.801198e-01 -2.182974e-01 -1.691431e-03 
-7.512669e+00 4.011587e+00 -1.596882e+00 2.726713e+00 1.024570e+01 8.399887e-01 -8.704202e-01 1.853093e+00 3.368793e+00 -1.915383e+00 -2.902805e+00 7.716299e-01 1.661050e-02 -2.632305e-01 -4.209352e-02 -3.183314e-01 3.704726e-01 1.475393e+00 1.483762e+00 2.665235e+00 3.876116e-01 1.292228e+00 -2.454035e-01 -9.405489e-02 -1.160460e-01 -1.004040e-03 
-8.227436e+00 5.334622e+00 -6.077759e-01 1.962433e+00 6.768518e+00 -4.397941e+00 -1.657253e+00 3.124098e+00 7.990223e+00 1.999902e+00 -2.633411e+00 -3.192480e+00 1.443595e-02 2.414646e-02 8.238244e-03 1.440820e-01 2.782086e-01 3.611438e-01 3.997624e-01 1.479771e+00 7.131336e-01 8.370336e-01 1.981897e-01 7.258210e-01 2.051395e-01 -1.988173e-04 
-6.501455e+00 3.859600e+00 -4.036233e+00 2.954559e+00 9.006804e+00 1.370711e+00 7.156215e+00 3.688559e+00 4.406591e+00 -9.632761e-01 9.568894e-01 2.493939e+00 1.111507e-02 2.951151e-01 -6.903076e-02 -8.622468e-02 7.007142e-01 -4.667315e-01 -1.159558e+00 3.813582e-01 -5.058564e-01 -1.810348e-01 9.989331e-01 9.237835e-01 1.779313e+00 2.270204e-03 
-7.549366e+00 5.159129e+00 3.330107e-01 2.044044e+00 6.915863e+00 -6.610961e-01 2.292138e+00 7.802871e+00 5.852335e+00 1.477118e+00 2.814030e+00 3.282941e+00 2.236271e-02 4.931335e-01 9.246163e-02 1.819079e-01 4.614641e-01 -2.614186e-01 -7.447714e-01 -1.072136e+00 -3.935023e-01 -1.642324e-01 -1.629966e-01 -3.725730e-01 3.739412e-01 -1.427770e-04 
-6.376128e+00 3.754179e+00 -2.498399e+00 6.189478e+00 7.838375e+00 -6.826225e+00 -9.383247e-01 -3.015575e+00 3.532562e+00 3.340675e+00 -1.007608e+00 6.430486e+00 2.399814e-02 2.300499e-01 1.520416e-01 4.609331e-01 9.696700e-02 -1.820376e-01 -9.618441e-01 -2.287165e+00 -7.415872e-01 -2.940805e-02 1.382046e-02 -9.101261e-01 -2.235917e+00 -5.232632e-04 
-5.824432e+00 5.849640e+00 -4.671538e-01 2.652294e+00 6.045640e+00 -4.023330e+00 -2.970662e+00 4.508653e+00 7.606075e+00 -9.670568e-01 -3.514028e+00 -3.291047e+00 7.280529e-03 3.682979e-01 -8.801811e-01 1.461228e-01 -7.908784e-01 -6.768230e-01 2.214508e-02 -5.422591e-01 -6.104574e-01 -5.697114e-01 6.327413e-01 -1.957471e-01 -2.854541e+00 4.719043e-03 
-6.213673e+00 4.274552e+00 -1.331486e+00 3.135269e+00 8.531727e+00 -1.757392e+00 -1.648210e+00 1.627731e+00 3.382681e+00 3.279133e-01 -4.297121e-01 -5.398650e+00 1.603985e-02 3.836655e-01 -2.731070e+00 1.855502e+00 -3.828357e+00 -3.135942e+00 4.634209e-01 -3.907200e-01 1.787103e-01 -2.903109e+00 1.117225e+00 8.782359e-01 -3.026395e+00 8.972079e-02 
-5.789104e+00 4.980372e-01 4.801679e-01 -3.832428e-01 3.185072e+00 -3.084787e+00 -6.421494e-02 2.428930e+00 3.078719e+00 6.147205e+00 1.546347e+00 -5.075197e+00 4.993707e-02 -4.429369e-02 -2.976820e+00 2.417305e+00 -3.156657e+00 -3.905975e+00 -1.628906e-01 2.031631e-02 -1.503028e+00 -3.774343e+00 2.084656e+00 1.279396e+00 -8.958908e-01 1.019270e-01 
-4.475465e+00 -7.225369e+00 6.305452e+00 -1.143454e+01 -6.411052e+00 -4.978392e+00 -4.345148e+00 -1.082162e+00 -8.719305e+00 5.369669e+00 8.533843e-01 -7.809413e+00 4.512738e-01 -9.935150e-01 -2.612113e+00 3.304034e+00 -4.159899e-02 -2.657183e+00 9.459664e-01 3.680902e-01 3.922800e-01 -2.095296e+00 1.924907e+00 8.610907e-01 1.121128e-01 1.067073e-01 
-6.915005e+00 -3.284497e+00 7.800903e+00 -5.846090e+00 -6.012844e+00 -3.227283e+00 -1.520611e+00 -1.651540e+00 -5.214645e+00 6.935347e+00 2.241405e+00 -6.565119e+00 2.992983e-01 -1.767632e+00 -1.973802e+00 2.617025e+00 2.693853e+00 -9.352989e-02 1.955839e+00 1.150037e-01 1.664074e-01 -1.626211e+00 9.119238e-01 1.213710e+00 -7.544592e-01 8.058288e-02 
-1.061830e+01 -6.894749e+00 1.152832e+01 5.658697e+00 -1.552315e-01 3.043688e+00 9.204392e-01 5.629366e+00 -2.947115e+00 9.558377e+00 3.528212e+00 -4.093125e+00 4.248958e-01 -1.963063e+00 1.366923e+00 -1.802654e+00 3.650969e+00 4.449763e+00 3.723613e+00 7.305917e-01 -5.442327e-02 1.338695e+00 2.470884e-01 1.122271e+00 2.559052e-01 -1.121845e-02 
-1.155585e+01 -9.536283e+00 1.095386e+01 4.539404e+00 -4.104881e-01 2.683368e+00 -2.121990e+00 -9.479713e-02 -7.938432e+00 8.612471e+00 6.277483e+00 -1.070564e+01 4.660405e-01 -1.470733e+00 -2.090500e-01 -3.818614e+00 2.025072e+00 3.169580e+00 2.477099e+00 3.513204e-02 -1.116207e+00 1.833148e+00 -1.975632e-02 6.906173e-01 1.230969e-01 5.584764e-03 
-1.197036e+01 2.735137e+00 -4.284292e+00 1.627561e+00 1.303659e+01 1.068435e+01 -3.914996e-01 -2.132650e+00 -6.639369e-01 5.766549e+00 4.446701e+00 -4.459629e+00 3.118105e-01 -4.873526e-01 -6.890076e-01 -4.149311e+00 1.313346e+00 2.327779e+00 -1.752530e-01 -7.214294e-01 -2.929457e+00 2.080156e+00 -3.295168e-01 -4.990571e-01 7.343110e-01 -1.852689e-02 
-1.359264e+01 -9.144690e+00 -3.385859e+00 6.294836e+00 3.239146e+00 5.337881e+00 -6.889812e-01 -3.351568e+00 2.809505e+00 8.732479e+00 5.235247e+00 -5.766383e+00 3.837648e-01 8.423012e-01 2.156512e-01 -2.333702e+00 2.099398e+00 1.658880e+00 -1.819643e+00 -4.261882e-01 -1.527687e+00 2.523065e+00 -3.906822e-03 -8.904701e-01 2.177397e+00 -6.803109e-02 
-1.203666e+01 -1.053558e+01 -2.048377e+00 1.134771e+01 9.658844e+00 8.401666e-01 -3.403212e+00 -7.389531e+00 2.079698e+00 7.850789e+00 1.554045e+00 -2.891197e+00 3.733991e-01 1.337278e+00 4.921446e-01 8.147559e-01 9.731117e-01 -1.312065e+00 -3.963367e+00 -1.613117e+00 4.652771e-01 7.702390e-01 -1.434571e+00 -8.574120e-01 1.198440e+00 -8.289833e-02 
-7.311190e+00 -1.822666e+00 -1.832607e+00 1.017632e+01 9.572785e+00 -1.492756e+00 -2.747075e+00 -5.104790e+00 3.305076e+00 7.550817e+00 3.271461e+00 -6.028662e-01 9.509069e-02 1.089511e+00 1.390828e+00 1.162141e+00 7.801954e-01 -1.050235e+00 -1.614183e+00 7.298635e-01 -8.992215e-02 4.013163e-01 -2.179771e+00 -2.951405e-01 2.345321e+00 -6.911651e-02 
-8.424692e+00 1.534848e+00 -9.871382e-01 4.552379e+00 3.309439e+00 -5.717166e+00 -7.428039e+00 1.070347e+00 2.939472e+00 -8.154759e-01 1.141534e+00 -1.049185e+00 4.165590e-02 2.091608e-01 -5.987237e-01 1.088333e+00 3.279180e-01 -2.463081e+00 3.191757e-01 3.100948e+00 -4.803461e-01 8.256624e-01 -4.246615e-01 9.680166e-01 2.055613e+00 -2.806372e-03 
-9.951073e+00 -8.225764e+00 1.894228e+00 1.359348e+01 1.162675e+00 5.456305e-01 4.972750e+00 -8.031117e+00 4.386199e+00 2.166759e+00 3.965800e+00 5.039217e+00 2.040539e-01 -2.115849e-01 -4.516176e-01 3.037474e-01 5.543175e-02 -1.448087e-01 8.215320e-01 2.197811e+00 -1.824930e-01 1.510001e-01 9.483671e-02 -7.474554e-01 2.505191e-01 1.311098e-02 
-9.670919e+00 -1.032765e+01 1.529873e+00 1.127872e+01 1.548494e+00 1.416852e+00 8.241615e+00 -8.328098e+00 5.667449e+00 8.419511e+00 6.046958e+00 4.565826e+00 3.048857e-01 3.394083e-01 1.325406e+00 -6.365364e-01 -2.288053e-01 1.768137e+00 2.878940e-01 1.232646e+00 1.435320e+00 4.427742e-01 5.287725e-01 -1.323708e+00 -7.778741e-01 -2.038989e-02 
-7.746000e+00 1.850496e+00 -1.572376e+00 7.090306e+00 9.729215e+00 -9.521053e-01 4.071516e-01 -1.318033e+00 2.696088e+00 3.407507e+00 -2.918528e+00 -2.157776e+00 2.903068e-02 4.271927e-01 3.462910e+00 -9.208329e-01 -2.103341e+00 1.725397e+00 -5.352014e-01 -1.263574e+00 2.994628e+00 -7.741078e-01 -9.102162e-01 -1.644974e+00 -1.671414e+00 -6.178055e-02 
-7.830187e+00 3.123748e+00 -2.436518e+00 6.659938e+00 7.866855e+00 -3.528828e+00 1.017991e+00 4.890405e+00 5.998399e+00 1.208012e+00 -2.034844e+00 -1.340058e+00 2.721804e-02 3.934433e-01 2.861088e+00 -6.648141e-01 -1.411317e+00 4.423264e-01 -3.764079e-01 -8.948464e-01 2.959480e+00 4.268404e-01 -9.453211e-01 -1.085048e+00 -7.853781e-01 -5.475852e-02 
-8.735476e+00 2.363086e+00 -7.267416e-01 5.386168e+00 6.630481e+00 3.424630e-01 2.266693e+00 3.327696e-01 3.501847e-01 1.221427e+00 -2.181692e-01 -3.649081e-01 3.398496e-02 5.230442e-01 -5.955619e-01 -1.297652e-01 -2.093077e+00 -1.733321e+00 4.823970e-01 -4.365383e-01 9.040729e-01 1.441291e+00 -1.045734e+00 6.286036e-01 4.620360e-01 6.941074e-03 
-7.208965e+00 3.721493e+00 -2.217015e+00 5.074203e+00 5.309493e+00 -1.112472e+00 2.837612e+00 5.643900e+00 8.974602e+00 4.785945e+00 -7.284625e-01 -2.574980e-01 2.861595e-02 1.260658e+00 -2.052328e+00 -4.322743e-01 -3.150850e+00 -2.413632e+00 1.031823e+00 -1.641793e+00 -5.828174e-01 1.061646e+00 -1.119987e+00 1.069712e+00 4.712129e-02 3.151830e-02 
-5.441390e+00 -1.426186e+00 -2.330954e+00 -2.582210e+00 2.341289e+00 2.517018e-01 -2.685350e+00 2.825584e+00 8.414443e+00 -3.610131e+00 -4.287007e-01 -3.888763e-01 6.303710e-02 1.734068e+00 -1.740522e+00 -4.162929e-01 -2.836330e+00 -1.764490e+00 1.011005e+00 -2.113165e+00 -7.150019e-01 1.457090e-01 -7.382705e-01 2.196369e+00 1.140755e-01 4.783320e-02 
-3.173942e+00 -5.243254e+00 -3.795784e+00 -5.110120e+00 -2.056711e+00 1.675668e+00 -4.714952e+00 7.299109e-01 7.274502e+00 -1.976146e+00 3.418981e+00 -1.092468e+00 1.702835e-01 2.338172e+00 -1.347959e+00 7.019672e-01 -1.390121e+00 -4.440888e-01 1.725567e+00 -2.249179e+00 -1.418841e+00 -1.895713e+00 9.702307e-01 1.179703e+00 4.016901e-01 8.003119e-02 
-2.082650e+00 -1.857149e+00 -2.018821e+00 -3.703324e+00 1.491131e+00 4.003417e+00 -4.522849e+00 -7.852452e-01 1.928779e+00 9.111199e-01 8.689953e+00 6.229542e-01 2.023172e-01 2.275060e+00 -4.219297e-01 7.048321e-01 2.371354e-01 8.166650e-01 5.160724e-01 4.145238e-01 1.327046e+00 -3.029292e+00 2.461298e+00 -1.102983e+00 -8.447464e-01 1.012901e-01 
2.802524e+00 -2.802818e+00 1.136755e+00 -1.315845e+00 3.514127e+00 5.639505e+00 -7.489533e+00 3.551105e-01 2.738870e+00 7.376473e+00 6.107237e-01 1.245037e+00 3.591319e-01 2.333187e+00 -3.075752e-01 5.766596e-01 -4.446971e-01 1.302164e+00 2.927747e-02 6.602608e-01 1.272069e+00 -3.442857e+00 2.627189e+00 -1.927091e+00 -1.575941e+00 1.073278e-01 
2.945677e+00 -4.756052e+00 -1.273063e+00 -3.293670e+00 3.639194e+00 8.501453e-01 7.745593e-01 9.648214e+00 -4.464200e+00 4.020046e+00 -4.539487e+00 -5.781361e+00 4.750632e-01 2.261832e+00 -6.058716e-01 5.621668e-01 -9.713128e-01 5.926457e-01 -9.648433e-01 1.537635e+00 5.808652e-01 -2.592978e+00 1.956336e+00 -1.434881e+00 -1.155689e+00 9.519614e-02 
5.977827e+00 -5.331678e+00 -1.285366e+00 -7.538433e+00 3.380076e+00 3.398692e+00 -4.062352e+00 1.873527e+00 -6.743295e+00 9.605336e+00 3.982480e-01 -5.770017e+00 5.705496e-01 2.284169e+00 4.736421e-01 9.656898e-01 -1.602017e+00 -1.275738e+00 -9.773030e-02 1.416699e+00 2.678819e-01 -1.034821e+00 1.201881e+00 -1.843043e-01 3.757926e-01 7.080928e-02 
7.638858e+00 -3.622077e+00 2.003073e+00 -5.448594e+00 4.521385e+00 2.996078e-01 1.451734e+00 1.359872e+00 -6.295028e+00 9.578369e+00 1.621784e+00 -1.647964e+00 5.725890e-01 2.664348e+00 -1.370436e-01 1.587083e+00 -1.511661e+00 -2.665493e+00 1.073476e+00 -3.804447e-01 -1.847932e+00 1.242132e+00 7.996423e-01 -1.045014e-01 2.938458e+00 8.597304e-02 
1.187678e+01 -1.001595e+00 4.327137e+00 -8.248470e+00 -3.305657e+00 5.426122e+00 -7.446235e-01 5.838691e+00 -1.519820e+00 1.060672e+01 -3.391433e+00 1.057302e+00 6.644154e-01 2.342782e+00 -1.878111e+00 9.849226e-01 -9.647190e-01 -3.916273e+00 9.805032e-01 -6.999243e-01 -1.659982e+00 1.484615e+00 -3.845533e-01 1.989575e-01 3.795730e+00 1.126301e-01 
1.331794e+01 -7.606312e+00 3.856103e+00 -1.049696e+01 -6.345401e+00 5.203812e+00 -2.786528e+00 -1.574028e+00 -8.652787e-01 7.517567e+00 -3.167154e+00 5.497272e+00 8.579955e-01 1.640602e+00 -2.804720e+00 1.674068e-01 -1.546429e+00 -3.982435e+00 1.580779e+00 -2.201615e+00 -2.506710e+00 1.638213e+00 -9.202261e-01 1.277002e+00 3.263995e+00 1.181403e-01 
1.485219e+01 -1.273012e+01 2.712732e+00 -9.837847e+00 -1.076789e+01 5.849105e+00 -5.442842e+00 -4.959433e+00 -2.035094e+00 8.712971e+00 3.787504e+00 9.636014e+00 9.909967e-01 6.900190e-01 -2.516437e+00 -6.176629e-02 -6.837581e-01 -2.544307e+00 9.881673e-01 -1.895842e+00 -2.660761e+00 1.073128e+00 -1.216284e+00 2.052809e+00 2.221039e+00 7.715471e-02 
1.435416e+01 -1.178141e+01 3.647309e+00 -1.238605e+01 -1.165967e+01 7.992012e+00 -7.207231e+00 -5.774616e+00 2.153675e+00 5.924112e+00 4.417327e+00 1.038266e+01 1.000000e+00 2.714687e-01 -5.831119e-01 2.663859e-01 9.844961e-02 -1.959209e+00 1.135093e+00 -1.192222e+00 -9.687689e-01 9.340245e-01 -8.679824e-01 1.568592e+00 6.726923e-01 2.165505e-02 
1.480877e+01 -1.149623e+01 4.122703e+00 -1.072271e+01 -1.337006e+01 8.972858e+00 -8.013483e+00 -5.364822e+00 2.336345e+00 5.322027e+00 3.080371e+00 9.719803e+00 9.791867e-01 -1.595307e-01 5.179816e-01 4.702074e-01 1.724510e-01 -9.162267e-01 6.842898e-01 1.249383e-01 -6.474918e-01 8.393362e-02 -6.951073e-01 4.149470e-02 2.855591e-01 -6.892771e-03 
1.469700e+01 -1.113881e+01 4.483047e+00 -9.562275e+00 -1.484037e+01 9.317400e+00 -7.462319e+00 -6.215177e+00 1.619124e+00 4.873126e+00 5.029373e+00 8.818839e+00 9.721758e-01 -3.685172e-01 7.334023e-01 1.126472e-01 3.934343e-01 -3.486700e-01 1.812820e-01 4.611506e-01 -9.051706e-01 -4.000655e-01 -3.934002e-02 -3.327004e-01 9.154024e-02 -8.802921e-03 
1.388312e+01 -1.046151e+01 4.645900e+00 -1.038748e+01 -1.375868e+01 8.607861e+00 -4.690607e+00 -7.976611e+00 -1.348150e+00 5.762927e+00 3.688955e+00 1.184572e+01 9.704450e-01 -4.045807e-01 8.871858e-01 -1.871286e-01 1.525968e-01 1.082630e-02 1.135060e-01 4.344555e-01 -1.052356e+00 2.544448e-02 -6.990037e-01 4.575349e-01 -3.930410e-01 -9.440357e-03 
1.297439e+01 -8.631764e+00 3.948946e+00 -1.058650e+01 -1.320871e+01 9.080921e+00 -6.562916e+00 -8.994575e+00 1.995596e+00 5.506962e+00 2.449533e+00 9.777399e+00 9.603562e-01 -2.953953e-01 8.874353e-01 -3.108230e-01 2.370405e-01 4.783287e-02 -2.007165e-01 4.109162e-01 -3.682599e-01 -1.601556e-01 -1.223249e+00 8.845833e-01 -7.038190e-01 -1.362357e-02 
1.364717e+01 -8.313827e+00 3.454110e+00 -9.447618e+00 -1.413175e+01 9.658628e+00 -6.290907e+00 -9.236901e+00 2.275332e+00 1.510091e+00 6.657966e+00 7.275318e+00 9.378946e-01 -1.189338e-01 6.267313e-01 -1.527172e-01 3.666156e-01 -6.434803e-02 -5.905639e-01 4.264242e-01 4.703522e-04 -1.208044e-01 -1.530953e+00 1.466898e+00 -1.028327e+00 -1.404902e-02 
1.333800e+01 -7.775479e+00 3.524827e+00 -8.847004e+00 -1.441467e+01 7.788434e+00 -4.607588e+00 -7.426332e+00 -9.933949e-01 8.832977e-01 7.967784e+00 7.584944e+00 9.203331e-01 9.220624e-03 1.947478e-01 2.339830e-01 3.697628e-01 -4.774208e-02 -1.138225e+00 8.803349e-01 1.634364e-01 -1.039383e+00 -6.573230e-01 6.012767e-01 4.781333e-01 -1.140752e-02 
1.310665e+01 -7.755995e+00 4.094374e+00 -9.424150e+00 -1.347744e+01 6.301284e+00 -3.536150e+00 -8.758381e+00 -4.576769e-01 4.199955e-01 8.264320e+00 7.800309e+00 9.202114e-01 -1.443744e-01 1.587268e-01 3.441755e-01 -2.668772e-02 2.162312e-01 -1.406507e+00 6.092887e-01 7.020251e-01 -1.424633e+00 4.150764e-01 -4.320323e-01 1.333792e+00 -8.201802e-03 
1.329076e+01 -7.936941e+00 4.798729e+00 -8.749417e+00 -1.377457e+01 5.068469e+00 -3.538620e+00 -8.416653e+00 -1.834814e+00 2.765394e+00 4.652739e+00 1.190557e+01 9.121602e-01 6.940782e-02 6.440745e-02 -9.196935e-02 2.119475e-01 -2.146170e-01 -5.281354e-01 1.871978e-01 3.950314e-01 -5.358997e-01 -1.633347e-01 -2.022318e-01 8.332793e-01 -9.144312e-03 
1.294892e+01 -7.439462e+00 4.538036e+00 -9.629849e+00 -1.337064e+01 3.986079e+00 -3.778947e+00 -5.231615e+00 -4.427122e+00 2.644424e+00 6.155327e+00 1.178396e+01 9.009721e-01 -1.066506e-02 2.572053e-01 -3.363621e-01 9.923024e-02 -3.484436e-01 -2.707291e-01 -3.327346e-02 5.783064e-01 -1.822074e-01 -4.082200e-01 1.317108e-01 1.422859e-01 -1.407549e-02 
1.376391e+01 -7.611709e+00 2.843149e+00 -7.684416e+00 -1.554115e+01 6.305359e+00 -3.550200e+00 -7.214558e+00 -1.688171e+00 -1.045590e+00 8.011122e+00 9.759513e+00 8.842312e-01 2.292001e-02 4.622803e-01 -6.092054e-01 1.743335e-01 -3.116390e-01 -5.408493e-01 5.152414e-01 1.286397e-01 2.375421e-01 -1.175358e+00 1.359598e+00 -1.225336e+00 -2.002721e-02 
1.281675e+01 -6.632585e+00 3.390353e+00 -9.460499e+00 -1.433637e+01 4.329194e+00 -3.696727e+00 -6.467896e+00 -1.442036e+00 2.843879e-01 7.243683e+00 9.584767e+00 8.637985e-01 2.152497e-01 5.638103e-01 -7.354181e-01 7.298275e-01 -3.435148e-01 -9.519469e-01 4.808498e-01 1.379831e-01 1.179156e-02 -1.231462e+00 1.440640e+00 -1.548165e+00 -2.426679e-02 
1.347144e+01 -6.028978e+00 2.326544e+00 -7.962425e+00 -1.484991e+01 2.192665e+00 -1.003523e+00 -7.155313e+00 -2.139647e+00 -1.931375e+00 1.090655e+01 6.878489e+00 8.306109e-01 3.450217e-01 1.072828e+00 -1.014078e+00 9.460819e-01 3.532179e-01 -2.350145e+00 4.622366e-01 9.452780e-01 -5.942416e-01 -1.271304e+00 1.029015e+00 -8.797804e-01 -2.890444e-02 
1.417140e+01 -5.411776e+00 1.119248e+00 -5.841708e+00 -1.543384e+01 1.282692e+00 -2.648036e+00 -4.571321e+00 -4.142426e+00 -3.069993e+00 1.191081e+01 5.483654e+00 8.064483e-01 5.417649e-01 1.161978e+00 -9.140030e-01 2.227332e-01 9.826553e-01 -1.703810e+00 4.551475e-02 9.645980e-01 -9.401401e-01 -2.009237e+00 1.063230e+00 -2.575207e-03 -2.902577e-02 
1.481169e+01 -2.857976e+00 -1.091687e+00 -4.763402e+00 -1.322633e+01 -3.922112e+00 -1.763363e+00 -3.436455e+00 -3.309184e+00 -5.724921e+00 1.082263e+01 7.411168e+00 7.683841e-01 2.487714e-01 1.290780e+00 -7.225506e-01 -4.133831e-01 1.855973e+00 -8.043255e-01 -8.320349e-01 9.156462e-01 -4.070663e-01 -1.784033e+00 3.603507e-01 4.175574e-01 -3.065414e-02 
1.485545e+01 -2.408196e+00 5.294538e-01 -9.946344e+00 -1.023488e+01 -1.132468e+00 -3.089234e+00 -3.504336e+00 -5.557968e+00 -7.865025e+00 1.260179e+01 9.305552e+00 7.497830e-01 2.742684e-01 1.083446e+00 -1.058279e+00 -6.322275e-01 2.033169e+00 3.699924e-01 -9.228347e-01 6.448636e-01 1.243787e-01 -2.363603e+00 1.133134e+00 7.097149e-03 -1.772245e-02 
1.437327e+01 -1.076866e+00 -9.913119e-01 -7.977022e+00 -8.169516e+00 -6.213827e-01 -4.943099e+00 -3.110575e+00 -3.467207e+00 -8.454026e+00 1.236281e+01 7.055326e+00 7.056729e-01 -1.859838e-01 1.430791e+00 -5.577887e-01 -1.473903e-01 1.760645e+00 1.571967e+00 2.793359e-01 1.054217e+00 -8.492966e-01 -1.054264e+00 2.434827e+00 1.367571e+00 -3.196249e-02 
1.576195e+01 -8.850999e-01 -4.222333e+00 -7.396035e+00 -7.796398e+00 1.482289e+00 -5.672342e+00 -1.509943e+00 -3.441521e+00 -1.352345e+01 1.680639e+01 5.697060e+00 7.491916e-01 -6.215580e-01 3.156386e+00 -4.658699e-05 1.710289e+00 1.453850e+00 4.458378e-01 2.881877e+00 1.361743e+00 -2.742811e-01 -9.791311e-01 -7.609512e-01 8.096927e-01 -6.993537e-02 
1.342852e+01 3.534430e+00 -1.504737e+00 -6.775508e+00 -5.642347e+00 2.630344e+00 9.248707e-01 8.374353e-01 -8.613890e+00 -8.167026e+00 2.089447e+01 1.605327e+01 6.088673e-01 -1.237187e+00 2.772248e+00 1.218875e+00 2.097289e+00 1.861691e+00 -1.259275e-02 3.928992e+00 1.575599e+00 -1.424004e+00 1.754017e+00 -3.603058e+00 -3.866745e-01 -9.161188e-02 
1.222003e+01 1.106809e+01 7.859335e-01 -1.995656e+00 -4.229220e+00 -5.291429e-01 8.386166e+00 1.330375e+00 -4.356031e+00 -1.290418e+01 4.531209e+00 8.855044e+00 4.485089e-01 -1.708876e+00 2.545887e+00 1.334828e+00 3.415985e+00 1.815174e+00 -1.871070e-01 4.483710e+00 1.329469e+00 -3.295169e-01 2.841226e+00 -6.126092e+00 -2.879084e+00 -1.014817e-01 
9.958293e+00 6.807779e+00 2.598930e+00 -1.907658e-01 -6.446500e-01 3.213696e-01 7.672607e+00 3.347259e+00 -1.012997e+01 6.422281e-03 4.851143e-01 3.542962e+00 3.979548e-01 -1.139499e+00 1.040546e+00 8.821638e-01 2.967108e+00 7.817930e-01 -4.425771e-01 3.106493e+00 1.584229e+00 5.451021e-01 1.585676e+00 -5.245780e+00 -4.979256e+00 -6.266357e-02 
8.952681e+00 1.020766e+01 3.999734e-01 6.391517e+00 -1.219377e+00 1.701241e+00 1.337234e+01 3.882490e+00 -4.331065e+00 -3.404050e+00 -3.619396e+00 -2.443207e+00 3.472393e-01 -1.075470e+00 -1.036155e+00 2.116949e-01 1.672638e+00 -2.289716e-01 1.841773e-01 1.931091e+00 1.251830e+00 -7.155239e-01 1.658841e+00 -1.163481e+00 -3.321977e+00 -3.793987e-02 
9.364700e+00 9.167376e+00 3.099062e+00 3.866447e+00 -3.238304e+00 -6.977334e-01 1.396425e+01 7.482524e+00 -5.900863e+00 -4.988710e+00 -1.259128e+00 -3.193886e+00 3.461843e-01 -1.224058e+00 -7.521456e-01 -5.144231e-02 1.477548e+00 -3.466983e-01 -6.923765e-01 9.011774e-02 -5.624919e-01 4.534302e-01 -1.467178e-01 2.987081e-01 -1.217597e+00 -4.708637e-02 
7.139479e+00 4.707514e+00 1.594342e+00 4.338924e+00 -4.077251e+00 9.012952e-01 1.489580e+01 5.521893e+00 -1.004820e+01 -2.112409e+00 -4.140742e-01 -4.386416e+00 2.846949e-01 -1.640941e+00 -1.978206e+00 -6.119162e-01 -6.105750e-01 4.266963e-02 -4.218814e-01 -1.400616e+00 -5.353444e-01 1.095299e+00 1.101361e+00 3.433643e-02 -6.903137e-01 -5.372621e-02 
4.744606e+00 5.797125e+00 1.744534e+00 8.223268e+00 -9.492044e-01 -2.740540e+00 7.361465e+00 -2.849022e-01 -5.004250e+00 -1.372987e+00 3.759935e-01 -1.573417e+00 1.937952e-01 -2.111696e+00 -1.836464e+00 -1.764843e+00 -3.401076e-01 8.497378e-01 5.509882e-02 -1.279996e+00 -8.038268e-01 6.328335e-01 2.338993e-01 -1.547267e+00 -1.222747e+00 -5.486611e-02 
3.058022e+00 2.001758e+00 -1.982344e+00 1.160232e+00 -2.150578e+00 6.132379e-01 9.670649e+00 5.089481e+00 6.971245e-01 2.948909e-01 -4.265275e+00 -6.705010e+00 1.548028e-01 -1.763211e+00 -1.324845e+00 -2.204563e+00 -1.885384e+00 -1.423394e-01 -3.497090e-01 -1.009654e+00 -1.220340e-01 8.388697e-01 -5.728009e-01 -1.790763e+00 -1.523240e+00 -4.037990e-02 
8.469496e-01 1.337932e+00 -3.936807e+00 3.755256e+00 4.704905e-02 -2.782106e-01 1.017685e+01 3.679595e+00 -8.109360e+00 -5.022864e+00 -7.069864e+00 -8.148324e+00 1.367998e-01 -1.096689e+00 -4.793050e-01 -1.345582e+00 -1.994387e+00 -9.828741e-01 -4.158707e-02 3.626429e-01 -2.456802e-01 -6.501720e-01 -1.456655e+00 -2.701917e+00 -1.892812e+00 -2.264528e-02 
2.722521e-01 3.128841e-01 -6.587803e+00 -2.853992e+00 -5.287075e+00 -2.078414e+00 8.439838e+00 2.929474e+00 -4.301301e+00 -3.151475e+00 -5.644961e+00 -8.715165e+00 1.112930e-01 -6.892654e-01 7.274848e-01 -1.132231e-01 -2.588412e-01 2.412175e-01 -6.038688e-01 -1.067891e+00 -1.036207e+00 -7.670130e-01 -2.134783e+00 -1.252108e+00 -1.161179e+00 -1.894675e-02 
6.540489e-01 4.245036e+00 -2.680648e+00 2.584443e-01 -4.295327e+00 -1.602649e+00 9.790084e+00 -4.332995e-01 -5.755897e+00 -6.933081e+00 -1.244375e+01 -1.003240e+01 1.023237e-01 -6.221377e-01 6.104211e-01 5.176028e-01 3.204427e-02 6.640366e-01 -1.280764e+00 -1.535334e+00 2.553214e-01 2.017926e+00 -9.332312e-01 4.567003e-03 -3.245309e-01 -1.499937e-02 
-2.918549e-01 4.185630e+00 -3.176539e+00 1.614431e+00 1.226697e+00 -1.743887e+00 4.524574e+00 1.964895e+00 -4.314672e+00 -9.423916e+00 -7.838874e+00 -1.156887e+01 7.730711e-02 -6.871783e-01 4.980866e-01 8.382570e-01 1.887212e+00 2.241692e+00 -1.043694e+00 -1.510906e+00 7.963456e-01 6.154455e-01 -1.404990e+00 -1.110554e+00 -7.458959e-02 -1.244628e-02 
-1.981686e+00 2.453665e+00 -3.054425e+00 1.681266e+00 1.103463e-01 -6.849297e+00 4.457810e+00 5.438492e+00 1.986956e+00 -6.552800e+00 -5.950072e+00 -8.344127e+00 7.879591e-02 -8.490931e-01 -2.401237e-01 1.208840e-01 1.056368e+00 2.445359e+00 -3.432544e-01 -7.923825e-01 1.125953e+00 2.823626e-01 -5.925852e-01 -8.720571e-01 3.144526e-01 -1.022646e-02 
-1.845772e+00 3.699003e+00 -2.209630e+00 5.870657e+00 3.718550e+00 -4.673559e+00 3.551443e+00 3.975306e+00 -5.095500e+00 -1.036656e+01 -1.444457e+01 -9.932250e+00 6.082553e-02 -4.746242e-01 3.302440e-01 -7.355724e-02 8.041990e-01 7.145922e-01 -8.090991e-01 -5.192595e-01 -1.539828e-01 -7.024356e-01 1.591907e-01 -1.682584e+00 4.584286e-01 -8.758229e-03 
-2.814458e+00 3.287731e+00 -2.559683e+00 3.412168e+00 6.685543e+00 -1.854085e+00 6.314737e+00 4.191261e+00 -3.953670e+00 -9.424682e+00 -1.350119e+01 -9.278447e+00 5.943221e-02 -4.609092e-01 5.925306e-01 -9.768859e-02 1.569923e-01 1.400771e+00 7.333581e-01 -2.694417e-01 -1.080144e+00 -4.060882e-01 1.200517e+00 6.853900e-01 1.236629e+00 -1.012802e-02 
-2.248590e+00 5.419817e+00 -3.791696e+00 4.769975e+00 1.512060e+00 -8.286988e+00 9.998133e-01 1.818596e+00 -4.856537e+00 -7.192021e+00 -1.247624e+01 -8.809565e+00 4.319781e-02 -4.848965e-01 1.036145e-01 -3.723924e-01 -3.619210e-01 1.013794e+00 1.450958e-01 -1.016845e+00 -8.150328e-01 1.726261e+00 1.915266e+00 2.636434e+00 1.451064e+00 -1.100110e-02 
-4.084823e+00 4.555911e+00 -2.751835e+00 3.016569e+00 8.217443e+00 -1.375791e+00 4.386417e+00 1.116128e+00 -1.629665e-01 -2.137486e+00 -3.507286e+00 -2.722324e+00 3.696966e-02 -4.508171e-01 1.636011e-01 6.091155e-01 4.335457e-01 7.182063e-01 1.023340e+00 -1.775395e+00 -1.048517e+00 1.472613e+00 8.890043e-01 1.645407e+00 1.913649e+00 -9.217572e-03 
-3.635072e+00 3.582985e+00 -3.975516e+00 4.258852e+00 8.021568e+00 -4.187227e+00 -5.686216e-01 1.437708e+00 1.640453e+00 -4.433835e+00 -6.259346e+00 -5.954993e+00 1.705128e-02 -7.191175e-01 -2.644460e-01 8.613411e-01 1.102106e-01 4.310572e-01 1.248174e+00 -1.730069e+00 -8.218281e-01 8.550867e-01 5.971426e-01 3.198658e-01 1.811684e+00 -4.181993e-03 
-4.375302e+00 5.024153e+00 5.778048e-01 5.835458e+00 7.021820e+00 1.212732e+00 -1.778023e+00 -8.608817e-01 1.609020e-01 -6.358753e+00 -8.382596e+00 -1.137488e+00 2.641761e-02 -5.955542e-01 2.429023e-01 6.399798e-01 -3.161985e-01 -1.336658e+00 -4.779380e-01 -9.656811e-01 1.178542e-01 5.987050e-01 7.221001e-01 -7.891093e-01 2.545224e-01 2.500331e-03 
-5.698937e+00 3.863466e+00 -1.149811e+00 3.911583e+00 4.265158e+00 -3.340378e+00 -4.568313e+00 -1.302039e+00 -7.430377e-01 -2.095674e+00 -8.439255e+00 -5.435597e-01 2.756387e-02 -6.511105e-01 1.740520e-01 7.241492e-02 -8.769776e-01 -1.289958e+00 -8.945392e-01 -4.279740e-01 1.939304e-01 1.896226e-01 6.444479e-01 5.841761e-02 -2.797920e-01 3.438145e-03 
-6.030661e+00 5.630182e+00 -9.647882e-01 1.609211e+00 3.412359e+00 -4.188906e+00 1.557857e+00 3.075273e+00 4.022304e+00 3.039346e-01 -6.362879e+00 -4.155428e+00 4.421502e-02 -6.483108e-01 -3.403657e-01 -2.940451e-01 -3.565744e-01 -5.701549e-01 -1.114586e+00 2.941090e-01 9.584225e-01 8.609637e-01 1.128155e+00 1.124758e+00 -7.072175e-01 -2.712542e-03 
-6.062945e+00 4.150231e+00 -2.842144e+00 1.987088e+00 3.376507e+00 -5.959104e+00 -4.376431e+00 4.392829e-01 6.578653e-01 -4.542939e+00 -6.977117e+00 -5.844983e+00 2.534330e-02 -4.478054e-01 8.356841e-02 4.671939e-01 4.595128e-01 2.844097e-01 7.195565e-01 2.577111e+00 1.329042e+00 7.452670e-01 -3.413889e-01 5.794474e-01 1.724421e-01 -1.969647e-03 
-7.434853e+00 3.178941e+00 -4.625392e-02 5.014833e+00 4.615372e+00 -3.050836e+00 -4.034186e-01 3.060570e+00 3.765269e+00 5.056541e-01 -3.489873e+00 -2.022864e+00 1.396519e-02 -2.744758e-01 -3.344506e-01 -1.064974e-01 6.145884e-01 6.575904e-01 1.428400e+00 1.780745e+00 3.114399e-01 3.921037e-01 1.327044e+00 1.440574e+00 8.186373e-01 -6.476956e-03 
-7.235868e+00 5.506928e+00 7.268920e-01 4.506336e+00 5.085701e+00 -3.116302e-01 9.297879e+00 5.350522e+00 3.111815e+00 -3.903479e+00 -6.978520e+00 -7.476313e-01 3.284055e-02 -2.688769e-01 -1.489113e-01 2.208328e-03 5.356125e-01 1.289792e+00 1.100062e+00 1.308376e+00 2.710499e-01 5.555024e-01 1.810383e+00 1.272902e+00 1.319541e+00 -1.742458e-03 
-6.816578e+00 3.279580e+00 -3.281794e+00 3.422529e+00 5.845714e+00 1.293588e-01 3.624424e+00 2.176853e+00 4.755848e+00 6.619424e+00 8.406956e-01 -2.610918e+00 8.081615e-03 -1.092384e-01 -5.709803e-02 -2.761544e-01 -6.481578e-01 1.086849e+00 -2.092166e-01 -1.258925e+00 -5.348271e-01 -1.247574e+00 -7.784114e-02 2.928206e-01 -4.718903e-02 3.496385e-03 
-7.716467e+00 3.355355e+00 -1.213333e+00 5.461303e+00 9.210295e+00 -2.048893e+00 1.515251e-01 2.236391e+00 2.940088e+00 1.452092e+00 -2.777890e+00 1.046751e+00 1.957279e-02 2.039093e-01 9.568886e-02 -1.359390e-01 -2.616196e-01 4.001665e-01 -7.712820e-01 -2.202384e+00 -1.130952e+00 -1.612799e+00 -1.330897e+00 -1.020625e+00 -4.235692e-01 3.292525e-03 
-7.740746e+00 3.969238e+00 -4.569135e-01 1.296561e+00 7.987317e+00 -3.228287e+00 -2.124865e+00 1.943500e+00 -2.386736e+00 -2.561337e+00 -4.126085e+00 -3.156001e+00 3.808099e-02 3.043905e-01 4.787349e-01 5.495682e-01 1.000122e-01 -1.273100e+00 -1.129600e+00 -1.002156e+00 -7.789717e-01 -1.142246e+00 -2.387250e+00 -1.434791e+00 -3.341692e-01 2.905750e-03 
-5.754238e+00 5.640544e+00 -1.365243e+00 4.261222e+00 6.015731e+00 -2.489217e+00 1.160603e+00 -1.875614e-01 -1.380890e+00 -5.967585e+00 -9.598252e+00 -2.592936e+00 3.430349e-02 4.346460e-01 2.912033e-01 1.509588e-01 1.348724e-01 -2.317543e+00 -8.569365e-01 -3.850865e-01 -7.934369e-01 1.218889e-02 -5.163822e-01 9.126242e-02 -6.323262e-01 -3.149152e-03 
-6.275740e+00 4.530660e+00 -4.579973e-01 4.522630e+00 1.077495e+00 -5.298479e+00 -1.890893e+00 -5.060292e-01 1.205110e+00 -1.606991e+00 -2.923080e+00 -2.461920e+00 1.524502e-02 2.408510e-01 1.296091e-03 9.050782e-02 6.713548e-01 -1.875788e+00 -6.949646e-01 -2.583553e-01 -5.217525e-01 9.769691e-01 6.269284e-01 9.081182e-01 1.519175e-01 -6.473041e-03 
