-5.448553e+00 2.135182e+00 -1.603324e+00 3.597377e+00 6.307788e+00 1.848630e+00 1.949708e+00 4.085710e+00 6.788177e+00 4.151442e+00 2.165211e+00 5.247370e+00 -9.468365e-02 -1.281329e-01 -2.905135e-01 -3.050056e-01 -2.864903e-01 -2.105982e-01 -1.041322e+00 5.790126e-01 7.059834e-02 1.190839e-01 4.228473e-01 -1.396249e+00 -5.421919e-01 -1.564956e-03 
-5.903691e+00 2.487628e-01 -4.177534e+00 8.875161e-01 6.645862e+00 -1.401383e+00 4.135522e+00 7.359242e+00 8.183416e+00 7.875838e+00 4.500868e-01 6.332772e+00 -1.073351e-01 -5.896759e-02 2.063470e-01 2.855069e-01 -7.377253e-02 -6.304485e-01 -4.263824e-01 6.699498e-01 1.913773e-01 7.449358e-01 8.836290e-01 -5.054201e-01 3.052187e-02 6.704688e-04 
-5.861649e+00 1.625824e+00 -1.841247e+00 3.519856e+00 5.085760e+00 -1.732975e+00 3.751864e+00 2.801936e+00 6.685977e+00 4.403480e+00 -3.958472e+00 1.993710e+00 -9.618270e-02 -2.040012e-01 7.863250e-02 4.300985e-01 -2.387786e-02 -6.683768e-01 4.777998e-01 7.070419e-01 5.127686e-01 1.026170e+00 5.648143e-01 -9.263241e-01 -2.672670e-01 4.877007e-03 
-5.536843e+00 3.421596e+00 -5.682760e-02 3.267275e+00 3.766560e+00 1.507521e+00 4.398379e+00 5.684484e+00 1.056396e+01 8.443567e+00 2.699952e+00 7.026810e+00 -9.058177e-02 -8.008919e-02 9.478728e-02 1.060360e+00 7.279612e-01 1.583528e-01 4.742559e-01 1.012110e-01 2.713471e-01 7.213952e-01 2.636673e-01 4.710286e-01 3.214729e-03 -1.020706e-03 
-6.651983e+00 9.419280e-01 -1.513184e+00 2.288108e+00 4.405555e+00 2.783177e+00 5.353489e+00 7.486932e+00 1.072876e+01 6.691648e+00 -3.591341e+00 3.564016e+00 -7.867527e-02 7.546930e-02 1.054745e-02 4.301809e-01 -1.192307e-01 3.184485e-01 -9.157445e-02 6.213293e-01 6.042721e-01 5.382012e-01 8.655281e-01 5.879518e-01 9.811117e-01 -5.238581e-03 
-5.908970e+00 1.064647e+00 9.602342e-01 5.143197e+00 7.777729e+00 -1.288179e+00 3.840764e+00 6.373479e+00 9.769003e+00 8.050091e+00 2.621665e+00 5.563692e+00 -1.211923e-01 5.007187e-01 4.055833e-01 -4.770796e-01 -8.165362e-01 -6.183599e-01 7.466919e-01 7.422925e-01 6.445897e-02 -3.207237e-01 5.948315e-01 5.493464e-01 -4.247374e-02 1.912797e-03 
-5.298239e+00 2.857036e+00 -1.988732e-01 1.985742e+00 4.672418e+00 -7.929966e-01 7.137318e+00 5.478799e+00 9.774460e+00 8.927859e+00 -9.795694e-01 7.630827e+00 -1.070703e-01 6.755301e-01 6.159950e-01 -7.010506e-01 -4.860424e-01 -1.488045e-01 1.197710e+00 1.074626e+00 4.758682e-01 -8.011333e-01 7.158737e-01 1.475537e+00 6.171704e-04 1.437020e-03 
-3.710122e+00 4.491959e+00 -3.099381e+00 -6.642233e-01 5.413284e-01 7.029068e+00 7.217927e+00 7.010845e+00 9.437486e+00 1.029962e+01 4.140798e+00 4.781035e+00 -6.682026e-02 5.972840e-01 1.444935e-01 -1.162588e+00 -1.281420e+00 -2.937420e-01 1.002323e+00 5.200952e-01 7.137842e-02 -4.617849e-01 6.700150e-01 8.105032e-01 5.870090e-01 5.140483e-03 
-4.373756e+00 2.308247e+00 -2.988630e+00 2.761606e+00 7.279732e+00 4.613102e+00 9.038035e+00 9.547590e+00 6.888847e+00 9.146253e+00 3.026779e+00 3.958431e+00 -9.867620e-02 6.286869e-02 1.421800e-01 -1.006517e-01 -5.478820e-01 4.296277e-01 -1.750328e-01 -3.317358e-01 2.797251e-01 -7.281098e-01 4.379576e-01 1.079433e+00 -1.610759e-01 -9.119511e-04 
-3.384791e+00 2.061509e+00 -3.457830e+00 -1.651837e+00 5.005361e+00 1.020384e+00 5.490881e+00 4.695976e+00 8.902884e+00 1.129097e+01 4.671006e+00 1.033494e+01 -9.968698e-02 -8.566818e-02 1.696901e-01 4.130510e-01 -6.000137e-01 4.076661e-01 -1.493225e+00 -1.006934e+00 -5.609123e-01 -6.474584e-01 -7.472330e-01 -1.285296e+00 -6.158656e-01 -4.171181e-03 
-5.146561e+00 4.783161e+00 -5.229071e-01 -2.598615e-01 4.588540e+00 1.336181e+00 6.342163e+00 8.034859e+00 6.401211e+00 1.062197e+01 4.152489e+00 4.048498e+00 -9.519672e-02 -4.796801e-01 -1.177432e-01 -2.618247e-01 -1.043688e+00 -7.134219e-01 -3.586075e-01 -2.478393e+00 -2.416049e+00 -2.078129e+00 -1.015560e+00 -7.641745e-01 -5.729827e-01 1.498017e-02 
-3.752061e+00 4.102952e+00 -2.266988e+00 -2.153558e+00 3.925255e+00 1.201401e+00 3.531193e+00 4.962649e+00 6.444012e+00 5.825594e+00 -2.848536e+00 1.656673e+00 -8.941591e-02 -3.536900e-01 -4.848530e-01 1.442482e-01 -4.648836e-01 -2.049017e-01 -5.596365e-01 -4.150233e+00 -7.763593e-01 -2.275276e+00 -8.066757e-01 -9.517561e-01 -1.334558e+00 4.111941e-02 
-6.588522e+00 6.988096e-01 -4.893174e+00 -2.205973e+00 4.252676e+00 2.729557e+00 -2.374088e+00 -2.665993e+00 -2.272362e+00 6.801138e+00 2.965678e+00 5.432649e+00 -2.891088e-02 -3.503809e-02 -3.471421e-01 -7.986297e-01 7.167258e-01 -5.199063e-01 -1.396974e+00 -1.979838e+00 1.230421e+00 2.010771e-01 -1.921391e+00 -1.855896e+00 -6.342362e-01 5.457591e-02 
-4.432261e+00 1.679420e+00 -5.514557e-01 -3.003199e+00 4.148785e+00 -2.474486e+00 -1.090216e+01 6.164605e+00 1.863290e+00 9.168007e+00 5.056314e-01 2.970072e+00 7.276714e-02 1.927338e-02 -1.649583e-01 -4.193829e-01 1.663756e+00 1.153912e-01 -6.773654e-01 1.217827e+00 1.745109e+00 7.210205e-01 -1.539473e+00 -2.863402e-01 -4.849426e-01 2.348898e-02 
-4.981651e+00 4.259217e+00 -5.373821e+00 3.748588e+00 1.877244e+00 -3.810745e+00 3.659647e+00 1.358598e+01 9.696957e+00 -6.561866e-01 -6.804073e+00 2.206178e-01 9.659129e-02 6.790360e-01 5.342460e-01 -4.769087e-01 7.407929e-01 2.738767e-01 -4.637422e-01 1.832527e+00 8.699675e-02 1.191443e+00 -1.171007e+00 2.524675e-01 -5.078843e-01 -1.484305e-02 
-4.459129e+00 1.497957e+00 -4.123578e+00 3.187941e+00 5.689927e+00 1.084725e+00 6.603462e+00 5.562204e+00 4.064455e+00 1.856890e+00 6.046379e-01 1.837975e+00 -3.472209e-02 2.884318e-01 1.010658e-01 -2.611874e-01 6.447201e-01 4.333704e-01 3.684115e-01 2.335614e+00 -2.293766e+00 1.439122e-01 6.944194e-02 7.657738e-01 2.638116e-01 -4.714983e-02 
-3.179908e+00 3.460771e+00 -5.491656e+00 -1.597578e+00 4.851488e+00 -1.368760e+00 -1.964262e+00 -1.929809e+00 2.584272e+00 4.601661e+00 4.178512e+00 3.459275e+00 -4.938149e-02 -1.189490e-01 -1.192030e+00 8.622996e-01 -2.061908e-01 7.683159e-01 9.607042e-01 -5.326194e-01 -1.496492e+00 1.038764e+00 3.450039e+00 1.290569e+00 1.451565e+00 -2.657200e-02 
-3.890973e+00 2.583972e+00 -1.798475e+00 2.893484e+00 4.828515e+00 -1.853421e+00 3.587869e+00 2.453673e+00 6.139194e+00 6.886293e+00 -1.156792e+00 2.669801e+00 -8.999562e-02 -2.918123e-01 -1.068678e+00 5.547155e-01 -5.632898e-01 -2.295350e-01 -1.049755e-01 -1.667455e-01 -3.830536e-01 1.409532e+00 1.126212e+00 -1.354977e+00 3.073463e-01 9.681130e-03 
-5.860475e+00 -2.243937e+00 -2.224875e+00 2.864862e+00 6.149529e+00 2.461849e+00 2.504347e+00 7.657790e+00 1.385341e+01 1.407931e+01 5.294858e-01 7.062528e+00 -8.631945e-03 -6.762860e-01 -5.449011e-01 5.057955e-01 -8.288898e-01 1.115646e+00 -1.062633e+00 1.269722e+00 7.994086e-01 -6.256864e-01 -1.032267e+00 -1.645366e+00 3.631731e-01 4.856903e-02 
-4.577908e+00 -9.930803e-01 -2.983392e+00 -1.859728e+00 3.893231e+00 -1.355457e+00 3.535430e+00 -1.146863e+00 5.477544e+00 2.749128e+00 -4.345735e+00 1.573080e+00 -6.691217e-03 -1.149769e+00 -2.913850e-01 -1.515656e-01 -1.527233e+00 7.486864e-01 -1.385877e+00 5.251476e-01 4.810911e-01 -2.311381e+00 -2.008618e+00 -5.121443e-01 9.823347e-03 9.649658e-02 
-6.217871e+00 2.524791e+00 -2.370221e+00 -3.365422e+00 1.089736e+01 -6.930904e+00 4.410566e+00 3.867502e+00 -2.133350e-01 1.508906e+00 -2.453846e+00 5.823501e+00 1.518115e-01 -1.645181e+00 -4.739486e-01 -1.057605e+00 -3.694745e-01 -5.651512e-01 -1.041812e+00 7.288854e-01 5.062847e-02 -3.638044e+00 -2.533495e+00 4.099108e-01 -5.675044e-01 1.082490e-01 
-9.461119e+00 -1.257318e+00 -2.483631e+00 -1.627538e+00 6.198031e+00 -4.086432e+00 5.260497e+00 6.754272e+00 1.615663e+00 3.128406e+00 -2.225847e+00 3.338432e+00 3.122656e-01 -1.860145e+00 -1.251259e+00 -1.400740e+00 9.605087e-01 -9.723520e-01 8.036076e-01 8.999943e-01 1.239740e+00 -3.554130e-01 -6.436621e-01 6.321607e-02 -3.869586e-01 1.010410e-01 
-1.164478e+01 -4.481562e+00 -7.762778e+00 9.013946e-01 2.171373e+00 -1.381725e+00 5.286241e+00 3.960364e+00 -2.405869e+00 1.222193e+00 1.519096e+00 3.342330e+00 3.731347e-01 -1.071526e+00 -9.837902e-01 -1.519688e+00 2.056645e+00 -2.476230e+00 1.735785e+00 -8.414388e-02 -1.294937e+00 2.066270e+00 -4.679537e-03 1.742396e-01 -6.108137e-01 6.867428e-02 
-1.116518e+01 -3.746199e+00 -7.290813e+00 8.094076e-01 3.394465e+00 -1.120090e-01 7.597564e+00 5.005405e+00 4.796746e+00 -3.258257e-01 -6.016125e+00 8.788726e-01 3.878521e-01 -2.197413e-01 1.189465e+00 -1.589542e+00 2.445283e+00 -1.138309e+00 2.738391e-01 -4.782295e-01 -1.322669e+00 2.761133e+00 -3.791112e-01 6.692314e-01 1.314070e-01 5.047690e-02 
-1.072347e+01 -1.149720e+00 -7.565068e+00 5.699330e+00 -8.200836e-02 -2.391875e-01 2.821313e+00 -1.732747e+00 8.527472e+00 3.212625e+00 3.124912e-01 3.999212e+00 4.573897e-01 4.208397e-01 2.215221e+00 -1.049698e+00 2.439598e+00 5.152662e-01 8.151693e-01 -5.077690e-01 -2.066339e-01 2.172526e+00 -9.183411e-02 -3.370270e-01 5.112510e-01 4.156595e-02 
-1.102048e+01 3.024084e+00 -1.053019e+01 8.199909e+00 1.633178e+00 -3.288505e+00 4.101813e+00 2.987484e+00 9.954657e+00 2.376347e-01 1.723612e+00 3.667026e+00 5.225226e-01 1.650343e+00 1.535291e+00 -2.201574e+00 1.214027e+00 -1.053438e+00 8.511102e-01 -1.663757e+00 1.904430e-01 -8.100408e-01 -1.065899e-01 4.665789e-01 5.772603e-01 4.678966e-02 
-9.612928e+00 3.209402e+00 -1.139158e+01 9.404135e+00 5.628347e+00 4.282370e+00 4.495271e+00 3.936155e+00 5.877804e+00 4.812927e-01 -4.035908e+00 4.504509e+00 5.136292e-01 2.271145e+00 5.732926e-01 -1.861344e+00 -2.716469e-01 -1.722178e+00 1.297186e+00 -1.724231e+00 1.075890e+00 -2.090086e+00 -6.987258e-01 -3.313914e-01 -1.349024e-02 3.982713e-02 
-3.468739e+00 1.750694e+00 -1.638543e+01 5.027143e+00 -4.727901e+00 1.882763e+00 -1.558200e+00 3.123169e+00 2.071377e+00 5.068908e-01 -1.509031e+00 3.512526e+00 5.936806e-01 9.868878e-01 -9.316028e-01 3.558906e-01 -5.457169e-01 -1.965905e+00 1.334392e-01 -2.049897e+00 1.669087e-01 -1.411470e+00 -7.807823e-02 -5.755339e-01 1.748321e-01 1.348946e-02 
-3.143614e+00 2.353438e+00 -1.394417e+01 5.927479e+00 -5.512362e+00 3.661108e+00 -2.969837e+00 3.578858e+00 2.018681e+00 -4.156327e-01 2.718560e-01 4.009011e+00 6.209463e-01 -1.024397e+00 -2.024960e+00 1.513328e+00 -8.693892e-01 -8.063923e-01 -3.485726e-01 -1.367940e-01 -3.148553e-01 4.150966e-01 1.225480e+00 -8.855702e-01 6.138693e-01 2.187574e-02 
-9.320696e+00 -1.205948e+00 -7.474444e+00 7.209652e+00 -2.625993e+00 -2.310678e+00 -2.415120e+00 4.000676e+00 4.826869e+00 2.957063e-01 -3.307940e+00 4.788936e+00 5.363113e-01 -2.798943e+00 -2.678235e+00 2.760287e+00 9.869154e-01 3.130538e+00 1.363415e+00 2.934945e+00 9.010728e-02 1.073985e+00 6.659278e-01 -1.953519e+00 2.507715e-02 1.571329e-02 
-1.180893e+01 -5.437078e+00 -8.280429e+00 3.965934e+00 5.454321e-01 4.636228e+00 4.239760e+00 1.923125e+00 6.575541e+00 6.714285e+00 -7.564305e+00 6.935650e+00 6.516926e-01 -8.796558e-01 -1.550761e+00 2.605510e+00 6.175820e-01 2.828496e+00 1.415342e+00 3.138133e+00 -4.007412e-01 6.301616e-01 6.628348e-01 1.072034e-01 1.605290e-01 2.846114e-02 
-1.313079e+01 -7.745222e+00 -5.415863e+00 1.094249e+01 7.895894e+00 8.212277e+00 9.511725e+00 4.401572e+00 5.162871e+00 2.715714e-01 -7.358547e+00 2.174592e+00 6.568739e-01 2.517286e+00 1.277889e+00 2.306110e+00 4.542027e-01 2.549665e+00 1.911078e+00 1.346410e+00 -5.829484e-01 2.529343e-01 -5.074449e-01 1.311748e-01 -6.860695e-01 4.429702e-02 
-5.636844e+00 -2.130732e+00 -1.945914e+00 7.148969e+00 3.369173e+00 5.476342e+00 6.757405e+00 1.374704e+00 5.001488e+00 2.910609e+00 2.833177e+00 6.118828e+00 7.029707e-01 5.937019e+00 2.291804e+00 1.737650e+00 -1.342945e+00 1.364966e+00 -1.643389e+00 -2.030879e+00 -1.301454e+00 3.267000e-01 -6.110098e-01 1.628825e+00 -1.371244e+00 2.450509e-02 
1.796885e-01 3.530325e+00 8.888502e-01 7.889148e+00 8.710464e+00 6.824655e+00 3.058106e+00 1.360144e+00 6.878567e+00 -3.396802e-01 -7.850806e+00 1.766999e+00 7.321573e-01 6.948024e+00 9.436225e-01 -1.243647e-01 -3.679391e+00 -9.017982e-02 -3.318542e+00 -4.864074e+00 -3.639373e+00 -4.308064e-01 1.096746e+00 1.901318e+00 -1.263954e+00 3.204456e-02 
1.122092e+01 3.841689e-01 -2.744536e+00 -1.222117e+00 6.962976e+00 -2.886904e+00 -2.687827e+00 -3.063433e+00 7.351193e+00 3.964862e+00 8.259484e-01 2.832290e-01 7.365763e-01 5.781308e+00 -9.318773e-01 -1.600977e+00 -2.693970e+00 -5.771182e-02 -1.544108e+00 -4.300154e+00 -4.181159e+00 -8.926380e-01 4.393179e-01 2.167578e+00 -2.073160e+00 2.189753e-02 
1.318044e+01 -4.284560e+00 -5.638375e+00 -3.268919e+00 5.648093e+00 -4.198809e+00 -1.008603e+01 -1.157623e+01 1.833986e+00 5.228174e+00 3.151657e+00 -1.227378e+00 8.002939e-01 4.104745e+00 -1.567706e+00 -2.350667e+00 -1.474127e+00 -1.014453e+00 -9.824200e-01 -3.317746e+00 -3.781881e+00 -1.946224e+00 -1.219966e+00 3.307054e+00 -1.088459e+00 9.863948e-03 
1.676932e+01 -2.882676e+00 -6.687185e+00 -7.418489e-01 4.611799e+00 3.267535e+00 -8.171301e+00 -1.306291e+01 3.060588e+00 2.323271e+00 8.169839e+00 -2.749782e+00 7.783900e-01 2.210516e+00 -2.142746e-01 -1.296503e+00 1.317316e+00 -7.513990e-01 1.494391e+00 -1.494770e+00 -1.293218e+00 -1.971575e+00 -3.867330e+00 1.257091e+00 5.305092e-01 -1.370281e-03 
1.792921e+01 -2.674784e+00 -8.893159e+00 2.783775e-01 4.813788e+00 -1.164666e+00 -1.078889e+01 -1.254952e+01 -7.072506e-01 -5.618712e+00 5.012519e+00 -2.158792e+00 7.605702e-01 1.617855e+00 9.365965e-01 -5.479654e-01 8.611040e-01 -7.191877e-01 1.570620e+00 -5.356876e-01 1.373499e+00 -1.701406e+00 -4.528418e+00 -4.621049e-01 1.603341e+00 -1.360282e-02 
1.989912e+01 -1.492092e+00 -7.599660e+00 3.590814e+00 3.623134e+00 3.067981e+00 -9.810246e+00 -9.042877e+00 -1.236065e+00 -9.948345e+00 6.180970e+00 3.401482e+00 7.495868e-01 6.874446e-01 9.670001e-01 -4.730236e-01 -2.271915e-01 -4.931280e-01 7.985080e-01 -1.215319e+00 1.932184e+00 -2.078528e+00 -3.610898e+00 -1.045833e+00 1.964499e+00 -2.142435e-03 
1.970482e+01 -2.968692e-01 -7.921965e+00 -1.129730e+00 2.546487e+00 3.754068e+00 -1.194499e+01 -6.718748e+00 -4.524715e+00 -1.127811e+01 1.835567e+00 3.713696e+00 7.466815e-01 1.068822e-01 3.845246e-01 -7.044411e-01 -7.330619e-01 -5.046901e-01 8.276743e-01 -1.964831e+00 1.142350e+00 -5.994735e-01 -2.664350e+00 1.221079e+00 6.029911e-01 1.714989e-02 
1.931874e+01 7.633678e-01 -9.537900e+00 -1.173752e+00 3.279810e+00 4.800708e+00 -1.366984e+01 -6.317375e+00 -5.423321e+00 -1.290152e+01 4.529148e+00 4.136466e+00 7.746223e-01 -3.422422e-01 -6.521757e-01 -2.070257e+00 -2.688097e-01 -7.350900e-01 -9.134658e-01 -3.634359e+00 9.165740e-01 8.396993e-01 -1.887017e+00 1.824186e+00 -2.088888e+00 4.134067e-02 
1.875381e+01 -1.879891e+00 -1.144624e+01 -1.004649e+00 2.461999e+00 2.107342e+00 -1.868324e+01 -8.200523e+00 -1.610990e+00 -1.746387e+01 1.194383e+01 4.886711e-01 8.338019e-01 -4.713110e-01 -1.933786e+00 -2.536606e+00 1.137366e+00 -1.163751e+00 -2.308349e+00 -4.464003e+00 1.299410e+00 2.422769e+00 -1.146271e+00 1.960837e+00 -4.317548e+00 5.944495e-02 
1.866341e+01 -3.961460e+00 -1.618881e+01 2.184225e+00 -1.007271e-02 -6.759853e-01 -2.461292e+01 -3.719120e+00 1.505569e+00 -1.629055e+01 1.024777e+01 -5.430443e+00 9.127299e-01 -8.327204e-01 -2.651286e+00 -1.831749e+00 1.698763e+00 -1.578951e+00 -3.578236e+00 -4.073317e+00 2.440660e+00 2.594619e+00 -1.681028e-01 -3.978203e-01 -5.369773e+00 5.587421e-02 
1.767593e+01 -7.603388e+00 -1.727954e+01 2.878111e+00 -1.627325e+00 -5.049329e+00 -2.879347e+01 -1.520826e+00 4.124684e+00 -1.531495e+01 8.780438e+00 -1.309059e+01 9.748524e-01 -1.359920e+00 -2.362115e+00 2.810678e-02 1.906482e+00 -1.927555e+00 -4.530281e+00 -1.448061e+00 3.944237e+00 1.185099e+00 -4.435593e-01 -2.833635e+00 -3.617852e+00 3.976424e-02 
1.569408e+01 -9.631314e+00 -1.578000e+01 5.378685e+00 -2.570283e+00 -9.512136e+00 -2.898131e+01 2.546077e+00 4.681936e+00 -1.481650e+01 4.121741e+00 -1.592277e+01 9.834681e-01 -1.785706e+00 -1.420677e+00 2.442597e+00 1.392961e+00 -1.999929e+00 -4.528032e+00 2.153098e+00 3.896259e+00 -8.028469e-01 -1.219580e+00 -2.099685e+00 -1.817753e-01 1.905565e-02 
1.343888e+01 -1.085554e+01 -1.151012e+01 6.930532e+00 -5.895672e+00 -1.612599e+01 -2.373935e+01 8.388063e+00 2.726321e+00 -2.041869e+01 8.386652e-01 -1.235443e+01 9.972540e-01 -1.946059e+00 -6.270978e-01 3.769393e+00 1.962049e-01 -2.674465e+00 -3.805567e+00 4.165983e+00 2.420274e+00 -2.972420e+00 -1.799337e+00 -1.041737e+00 1.946458e+00 6.363445e-03 
1.185340e+01 -9.438767e+00 -6.860535e+00 7.122819e+00 -7.875543e+00 -1.777782e+01 -1.637449e+01 1.080773e+01 -1.809484e+00 -1.983658e+01 3.720230e+00 -6.707400e+00 9.968073e-01 -1.948742e+00 9.007540e-02 3.943819e+00 -1.099834e+00 -3.179450e+00 -1.713352e+00 4.313686e+00 1.566792e-01 -4.280340e+00 -8.136665e-01 7.888666e-01 1.602180e+00 2.923870e-03 
9.865973e+00 -1.083515e+01 -2.892305e+00 2.987068e+00 -1.234702e+01 -1.994433e+01 -1.426697e+01 6.449721e+00 -7.491704e+00 -2.180159e+01 3.772506e+00 -7.965983e+00 1.000000e+00 -1.927837e+00 3.981137e-01 3.474714e+00 -2.347419e+00 -2.886080e+00 -8.176403e-02 2.978560e+00 -2.862108e+00 -4.250021e+00 7.736918e-01 1.431597e+00 -6.507139e-01 -1.902568e-03 
7.736824e+00 -9.191132e+00 -3.698075e-01 1.851247e+00 -1.524186e+01 -1.616973e+01 -1.214907e+01 4.298644e+00 -1.161075e+01 -1.819338e+01 6.599154e+00 -1.010609e+01 9.967144e-01 -1.611704e+00 9.012839e-01 3.286044e+00 -2.088734e+00 -2.024109e+00 1.759729e+00 1.917501e+00 -3.380604e+00 -2.396661e+00 2.216929e+00 1.543078e+00 -1.602779e+00 -3.664017e-03 
5.857984e+00 -8.988788e+00 2.618090e+00 -2.170776e+00 -1.664291e+01 -1.733885e+01 -1.095926e+01 -2.667933e+00 -1.362315e+01 -1.737183e+01 6.557189e+00 -1.390865e+01 9.877876e-01 -1.236278e+00 1.242357e+00 2.845295e+00 -1.589642e+00 -1.104046e+00 2.423923e+00 1.038670e+00 -3.316535e+00 -6.632847e-01 2.599519e+00 9.094736e-01 -1.212378e+00 -5.826014e-03 
5.798880e+00 -5.855529e+00 6.814485e+00 -7.419274e-01 -1.584814e+01 -1.028191e+01 -8.440840e+00 -1.536465e+00 -1.072707e+01 -1.096681e+01 1.004328e+01 -1.174996e+01 9.845934e-01 -7.137011e-01 1.255501e+00 2.740812e+00 -1.191705e+00 -1.262743e-01 2.266510e+00 7.087505e-01 -2.530759e+00 2.890663e-01 2.556069e+00 2.933565e-01 -1.504636e-01 -7.140332e-03 
4.653558e+00 -6.291167e+00 7.742026e+00 -3.664554e+00 -1.756411e+01 -1.076862e+01 -1.092773e+01 -7.215398e+00 -1.124997e+01 -1.241729e+01 6.597812e+00 -1.320594e+01 9.769304e-01 -4.055128e-01 1.035475e+00 2.224280e+00 -7.909365e-01 5.165539e-02 2.315400e+00 3.858843e-02 -1.461411e+00 1.932487e-02 2.732618e+00 -5.929466e-01 3.517956e-01 -8.671242e-03 
4.770531e+00 -4.262439e+00 1.077228e+01 -3.360389e+00 -1.541263e+01 -8.122290e+00 -8.621082e+00 -6.081419e+00 -1.135201e+01 -7.890312e+00 8.045625e+00 -1.120976e+01 9.664413e-01 -6.457694e-01 4.940762e-01 1.148598e+00 -1.193420e+00 -2.577404e-01 6.782873e-01 -6.826988e-01 -2.406146e+00 -9.171658e-01 1.360391e+00 -1.984497e+00 -4.192576e-01 -1.146236e-02 
4.344594e+00 -4.607956e+00 1.176059e+01 -4.816227e+00 -1.660239e+01 -6.841658e+00 -1.067619e+01 -7.702510e+00 -1.321405e+01 -5.246990e+00 4.591282e+00 -1.241977e+01 9.535074e-01 -3.805957e-01 7.158128e-01 1.011678e+00 -6.264201e-01 3.711874e-01 1.178981e+00 1.430653e-01 -1.339232e+00 2.597336e-01 1.426058e+00 -1.652533e+00 7.449083e-02 -1.357048e-02 
2.724515e+00 -4.226754e+00 1.054819e+01 -6.133188e+00 -1.761770e+01 -8.853952e+00 -1.198010e+01 -1.332364e+01 -1.433085e+01 -7.750002e+00 1.124056e+00 -1.423933e+01 9.389931e-01 -3.229857e-01 -7.330699e-02 3.667816e-01 -1.012930e+00 -5.465725e-01 3.768533e-01 -7.166821e-01 -2.028769e+00 -2.365856e-01 -2.463065e-01 -2.742675e+00 -7.679307e-01 -1.526600e-02 
3.773587e+00 -2.729946e+00 1.291246e+01 -5.410255e+00 -1.460564e+01 -4.507886e+00 -8.532898e+00 -1.029045e+01 -8.461880e+00 -5.357150e+00 1.795933e+00 -1.131870e+01 9.228022e-01 2.184453e-02 1.439301e-01 5.397419e-01 -3.882197e-01 -1.388838e-01 1.089761e+00 1.655518e-01 -8.486498e-01 3.164000e-01 -5.575066e-02 -1.890564e+00 -3.414118e-01 -1.602579e-02 
3.441106e+00 -5.567979e+00 1.203025e+01 -8.128027e+00 -1.914387e+01 -7.404910e+00 -1.327614e+01 -1.493129e+01 -1.491102e+01 -9.066765e+00 -4.270074e+00 -1.559995e+01 9.054640e-01 1.210772e-01 2.258196e-01 5.452479e-01 -1.397275e-01 -6.762733e-02 1.443217e+00 1.242429e-01 4.388823e-01 -5.486866e-01 6.175066e-01 -1.576272e+00 -5.379906e-01 -1.482090e-02 
4.095521e+00 -3.217692e+00 1.371827e+01 -5.759906e+00 -1.653373e+01 -2.117373e+00 -9.200415e+00 -1.114193e+01 -1.134197e+01 -4.867362e+00 -2.164475e+00 -1.344652e+01 8.901430e-01 -1.628366e-01 3.834160e-01 2.418054e-01 7.155418e-03 3.219553e-01 8.401512e-01 5.460739e-01 -2.679653e-02 -5.589951e-01 1.876012e-01 -9.974945e-01 -8.814438e-01 -1.396389e-02 
3.168934e+00 -2.853783e+00 1.287153e+01 -6.657000e+00 -1.699179e+01 -2.833122e+00 -1.102513e+01 -1.070349e+01 -1.563424e+01 -4.907363e+00 -4.777102e+00 -1.586537e+01 8.812181e-01 -2.014806e-01 8.769504e-01 4.305787e-01 2.043902e-01 1.207624e+00 1.139560e+00 1.333475e+00 8.359400e-01 9.111193e-01 3.553545e-01 -3.318681e-01 -8.809767e-02 -1.332107e-02 
3.095490e+00 -2.169964e+00 1.370085e+01 -6.109992e+00 -1.407190e+01 -2.593024e+00 -6.928032e+00 -1.253834e+01 -1.089525e+01 -6.498845e+00 -2.938025e+00 -1.559321e+01 8.651056e-01 -3.098391e-01 2.995301e-01 1.600144e-01 -1.154027e-01 5.400034e-01 6.943349e-01 8.904044e-01 4.309006e-02 7.196901e-01 -1.863872e-01 -1.040867e+00 -2.166994e-01 -8.595938e-03 
2.933719e+00 -1.707091e+00 1.419186e+01 -6.931033e+00 -1.433667e+01 -1.469285e+00 -7.744955e+00 -1.005339e+01 -1.057879e+01 -6.474251e+00 -5.542640e+00 -1.496710e+01 8.513774e-01 2.052881e-01 5.005015e-01 -6.865463e-02 -5.325620e-01 -6.523113e-02 1.551085e+00 2.052887e+00 8.310264e-01 8.224436e-01 3.159666e-02 -8.839135e-01 6.627016e-01 -3.062957e-03 
2.663934e+00 -2.293388e+00 1.385818e+01 -6.199903e+00 -1.516127e+01 6.723826e-01 -6.388482e+00 -1.125153e+01 -1.027124e+01 -5.015854e+00 -6.986044e+00 -1.497916e+01 8.620837e-01 4.721491e-01 8.703985e-01 -1.363294e-01 -1.122493e+00 -1.065605e+00 1.975395e+00 2.388500e+00 1.446408e+00 2.333641e-03 2.651100e-01 -3.962498e-01 7.683645e-01 -2.619207e-04 
4.411153e+00 -2.895632e-01 1.244959e+01 -9.274854e+00 -1.677326e+01 3.289602e+00 -1.030469e+00 -7.191758e+00 -1.183402e+01 -5.490875e+00 -7.172661e+00 -1.285889e+01 8.674143e-01 4.128780e-01 5.746450e-01 2.001929e-01 -1.853741e+00 -1.947121e+00 1.927212e+00 1.665543e+00 6.073577e-01 -1.077651e+00 -1.764228e-01 5.703288e-01 6.396852e-01 2.263045e-03 
4.717519e+00 1.473265e+00 1.389034e+01 -1.055054e+01 -1.818163e+01 4.904507e+00 1.657223e+00 -6.737112e+00 -1.025596e+01 -5.664983e+00 -4.104264e+00 -1.280549e+01 8.557776e-01 6.242620e-01 1.147979e-01 1.157449e+00 -2.268870e+00 -1.350860e+00 1.432951e+00 7.173279e-01 4.518442e-01 -2.267805e+00 6.639651e-01 1.002074e+00 9.590276e-01 -2.753132e-03 
3.971316e+00 -7.171922e-01 1.517674e+01 -1.402442e+01 -2.256210e+01 6.050711e+00 -3.440090e+00 -9.273809e+00 -1.597469e+01 -7.031800e+00 -4.131886e+00 -1.285550e+01 8.658457e-01 4.434328e-01 -7.022302e-02 8.072339e-01 -1.334460e+00 -7.319952e-01 -2.421089e-01 -7.020305e-01 -2.233449e+00 -1.422633e+00 1.260755e+00 1.881827e-01 1.157990e+00 -8.815235e-03 
6.005162e+00 -1.505584e+00 1.828185e+01 -1.516947e+01 -1.902116e+01 6.456582e+00 -1.597032e+00 -7.951281e+00 -1.953994e+01 -9.255657e-01 -3.496063e+00 -1.018571e+01 8.491024e-01 8.453097e-01 7.656221e-01 -4.218606e-01 2.068565e-01 -9.399986e-02 -1.032083e+00 -1.216275e+00 -3.980473e+00 -8.834063e-01 1.288840e+00 -1.030510e+00 1.699898e+00 -1.066459e-02 
5.984495e+00 8.487457e-01 1.429001e+01 -1.363769e+01 -2.001347e+01 1.303020e+00 -2.913495e+00 -1.775192e+01 -1.430520e+01 -1.556810e+00 -6.535848e+00 -8.378833e+00 8.266757e-01 1.140898e+00 2.260506e+00 -1.114045e+00 2.307493e+00 1.185591e+00 3.459363e-02 -4.160598e-01 -4.344949e+00 3.349865e-01 1.275770e+00 -1.359413e+00 2.036897e+00 -3.764477e-02 
7.937478e+00 4.518406e+00 1.222440e+01 -9.709627e+00 -1.992594e+01 2.117936e+00 -4.687451e+00 -2.240042e+01 -1.550773e+01 -1.958279e+00 -8.054832e+00 -6.544336e+00 8.220396e-01 -1.054739e-01 1.413479e+00 -1.295619e+00 4.126472e+00 3.280812e+00 1.268124e+00 -1.628295e-01 -2.338427e+00 9.301979e-01 -9.085049e-02 -1.243827e+00 2.090343e+00 -1.049338e-01 
8.709650e+00 7.573341e+00 1.263524e+01 -5.216879e+00 -1.618175e+01 8.393003e+00 -3.975179e+00 -2.377399e+01 -1.631586e+01 -1.365914e-01 -8.649567e+00 -4.491709e+00 6.911532e-01 -1.645588e+00 -1.792268e+00 -1.903385e+00 2.600272e+00 4.599741e+00 8.424771e-01 1.563196e+00 2.829256e+00 1.005438e+00 1.406157e+00 1.303438e+00 1.354394e+00 -1.530754e-01 
4.115215e+00 2.199514e+00 1.263114e+01 1.252485e+00 -4.532962e+00 9.252213e+00 -1.880337e+00 -1.663238e+01 -1.388362e+01 -2.089928e+00 -8.658339e+00 -1.677557e+00 3.921948e-01 -2.227330e+00 -3.513471e+00 -2.776897e+00 -1.901000e-01 4.149377e+00 2.374631e-01 2.302500e+00 4.325937e+00 2.541996e+00 2.140642e+00 1.709675e+00 1.006140e+00 -1.536308e-01 
-3.323145e-01 -6.953147e+00 4.569711e+00 -6.117386e+00 -4.711252e+00 1.948268e+00 3.498930e+00 -6.489656e+00 -1.009007e+01 5.539798e+00 2.830968e-01 -4.040251e+00 2.762213e-01 -1.926802e+00 -3.741542e+00 -3.308208e+00 -1.867787e+00 1.881355e+00 -1.024054e+00 2.326038e+00 3.407658e+00 2.912220e+00 2.694477e+00 1.939324e+00 5.088934e-01 -9.427531e-02 
1.321812e+00 -5.785707e+00 2.372678e+00 -1.020987e+01 -4.914298e+00 6.527618e+00 3.087992e+00 -9.412901e+00 -5.910645e+00 5.906738e+00 -3.972790e+00 -1.739366e+00 2.613516e-01 -4.152111e-01 -1.647459e+00 -2.420382e+00 -1.640139e+00 -6.369106e-01 1.213287e-01 3.002750e+00 1.163656e+00 2.190480e+00 2.752089e+00 9.557161e-01 -4.876261e-01 -2.322598e-02 
4.723406e-01 -7.141760e+00 1.223432e+00 -8.824635e+00 -6.584308e+00 4.635027e+00 5.170846e+00 -1.034544e+01 -5.741246e+00 9.337461e+00 -1.295721e+00 -1.916337e+00 2.851983e-01 5.231487e-01 9.426523e-01 -4.081871e-01 3.735612e-01 -2.272658e-01 2.225256e+00 2.899577e+00 -9.513464e-02 8.309265e-01 -3.508320e-02 -2.341097e-01 -1.379218e-01 -1.847024e-02 
1.636832e+00 -5.943477e+00 2.202368e+00 -5.594584e+00 -6.780987e+00 8.515476e+00 1.229746e+01 -8.886213e+00 -5.105633e+00 9.771683e+00 -3.090349e+00 -5.177645e+00 2.715764e-01 1.003097e+00 1.685290e+00 9.286205e-01 1.662410e+00 1.250942e-01 2.314205e+00 3.881748e+00 1.381828e+00 1.418929e+00 -8.116674e-02 -7.006171e-02 1.751145e-01 -2.461981e-02 
2.125918e+00 -2.161000e+00 2.613931e+00 -6.557225e+00 -4.914237e+00 1.208062e+01 1.339208e+01 -7.228673e+00 -6.337942e+00 3.431909e+00 -1.328672e+00 -3.010720e+00 1.787577e-01 1.116792e+00 1.698278e+00 7.073357e-01 1.126677e+00 1.077926e+00 1.826654e+00 2.268452e+00 1.961110e+00 1.441052e+00 -9.408639e-01 2.553083e-02 1.298274e+00 -4.363623e-02 
5.510509e+00 1.503624e-01 6.320532e+00 -3.031528e+00 -5.123862e+00 1.437585e+01 1.838612e+01 -4.062144e+00 1.482347e+00 8.453680e+00 -4.306623e+00 -3.166015e-01 1.914728e-01 4.459874e-01 9.966605e-01 3.072869e-01 1.818026e+00 1.476640e+00 -7.605060e-01 -3.451562e-02 1.467746e+00 9.945534e-01 -1.362430e+00 5.866385e-01 1.740701e+00 -4.625020e-02 
4.119462e+00 -1.697289e+00 2.701029e+00 -4.472780e+00 -2.023242e+00 1.083811e+01 1.346877e+01 -2.951922e+00 -1.829976e+00 5.292143e+00 -5.599297e-01 2.144509e+00 1.070689e-01 1.458594e-01 4.936703e-01 2.138509e-01 2.448350e+00 1.176525e+00 -1.778409e+00 -8.383207e-01 1.197163e+00 -1.695023e-02 -1.899356e+00 7.743316e-01 1.636376e+00 -3.504518e-02 
2.869998e+00 -1.192030e+00 3.695253e+00 2.453323e+00 -8.432837e-01 5.334200e+00 1.208653e+01 -3.685857e+00 -2.386849e+00 2.029414e+00 -5.415282e-01 9.482453e-01 7.616979e-02 -1.881538e-01 5.386042e-01 -6.483538e-01 1.500672e+00 1.367397e+00 -1.959179e+00 -2.178693e+00 1.797304e+00 -8.165563e-01 -3.324529e+00 1.449510e+00 5.330893e-01 -3.766230e-02 
4.175471e+00 9.785479e-01 4.995825e+00 2.942097e+00 -1.171902e+00 7.709397e+00 1.235027e+01 -1.431000e+00 -4.488095e+00 -2.852741e+00 6.604386e-01 4.538738e+00 6.118327e-02 8.341613e-02 8.869003e-01 -3.243894e-01 4.444963e-01 3.136718e-01 -2.096943e+00 -1.508824e+00 2.550647e+00 4.390018e-01 -1.914529e+00 -4.392692e-01 -3.254461e-01 -2.965144e-02 
4.541735e+00 1.505465e+00 1.931365e+00 7.643919e-01 1.287451e+00 6.144309e+00 8.051901e+00 4.163915e+00 -1.271375e+00 -4.096525e+00 2.330741e+00 1.151731e+00 2.610415e-02 -2.654713e-01 6.096385e-01 -6.469063e-01 -3.117429e-01 2.773666e-01 -1.587422e+00 -5.712751e-01 2.981884e+00 1.592335e-01 -1.575340e+00 -5.557979e-01 1.034941e+00 -2.883229e-02 
3.700674e+00 1.388466e+00 1.961026e+00 -1.405833e+00 -1.520250e+00 -5.166006e-02 7.941968e+00 5.876426e+00 -1.927037e-01 -1.217535e+00 -4.192410e+00 4.155362e-01 -1.615548e-02 -9.011421e-01 -1.609261e-02 -1.300763e+00 -4.329693e-02 1.076495e+00 -2.015634e+00 3.866490e-01 2.120888e+00 1.226790e+00 -3.522850e-01 -4.521088e-01 1.368344e+00 -2.947738e-02 
1.780040e+00 1.651203e+00 1.978121e+00 3.068573e+00 7.177238e-01 1.277617e+00 1.143431e+01 7.569853e+00 -3.738377e+00 -6.664889e+00 -8.940936e-01 8.184553e+00 -2.932227e-02 -7.924642e-01 5.097569e-02 -1.239521e+00 1.187704e+00 1.755753e+00 -1.407348e+00 1.245218e+00 1.544465e+00 2.486678e-01 4.095406e-01 6.872323e-01 1.277711e+00 -1.800904e-02 
1.050608e+00 8.252158e-01 -1.531367e+00 1.573522e+00 4.495439e+00 6.457281e-02 1.259231e+01 7.470471e+00 2.879356e+00 -3.329984e+00 1.231188e-02 7.864046e+00 -5.849040e-02 -3.932057e-01 3.608836e-01 -1.425125e+00 1.175210e+00 2.739278e+00 -8.198591e-01 -7.947867e-01 1.143172e-01 -1.426275e+00 -1.085594e+00 4.371053e-01 1.443195e-03 -6.840157e-03 
1.904447e+00 2.041968e+00 -2.520044e+00 5.213235e+00 7.058372e+00 -9.505467e-01 1.195282e+01 1.108922e+01 -1.564065e+00 -9.925976e-01 3.664541e+00 3.816031e+00 -4.277360e-02 -4.774374e-01 3.567203e-01 8.479492e-02 -1.374095e+00 2.086821e+00 -8.321969e-01 -2.395382e+00 -7.780474e-01 -1.900897e+00 -1.330927e+00 -9.385006e-01 -6.526212e-02 1.210409e-02 
1.672441e+00 2.997501e+00 -2.915518e+00 3.397887e+00 9.005817e+00 -3.036873e+00 3.708778e+00 4.688331e+00 -8.411232e+00 -9.481649e+00 -4.286201e+00 2.607013e+00 -4.363060e-02 -3.161248e-01 5.994385e-01 3.985365e-01 -6.304574e-01 4.139080e-01 7.379358e-01 -1.000327e+00 -1.344063e+00 -2.043758e+00 -1.741125e+00 -5.878432e-01 2.050304e-03 3.430009e-03 
-9.180641e-01 2.348662e+00 3.094172e+00 -4.714083e+00 8.896641e+00 -1.332644e+00 3.899164e+00 5.070686e+00 -7.597567e+00 -1.024369e+01 -3.437340e+00 1.048676e+01 2.376831e-02 -1.315714e+00 3.302408e-01 1.034884e+00 -2.279397e+00 1.021673e+00 -7.154042e-01 -1.308954e+00 -2.101404e-01 -6.682132e-01 -3.174888e-01 -1.143419e+00 9.375643e-01 2.663863e-02 
8.812389e-01 3.669062e+00 -2.345792e+00 3.384894e+00 5.645844e+00 3.945301e+00 1.161751e+01 3.759419e+00 -4.322685e+00 -7.410064e+00 6.240365e-01 4.538933e+00 -7.461131e-02 -3.157891e+00 -8.186197e-01 3.015290e+00 -1.049584e+00 3.937092e+00 -3.676312e+00 -4.089082e-01 2.643191e+00 1.978629e+00 1.339424e+00 -2.182425e-01 -2.094134e-01 1.154906e-01 
-4.278522e+00 3.357392e+00 2.369513e+00 -6.177252e+00 1.384672e+01 -8.018654e+00 1.453688e+00 1.050297e+01 -6.949405e+00 -3.615834e+00 -4.507674e+00 7.537892e+00 1.059099e-01 -2.452728e+00 -5.306682e-01 2.031507e+00 -1.971962e-01 4.421865e+00 -3.718235e+00 -7.407843e-01 2.299934e+00 1.314951e+00 7.150314e-01 -1.404326e+00 -2.670844e-02 9.508868e-02 
-1.243678e+01 -1.599963e+00 1.252326e+01 -1.118450e+00 2.621624e+01 -1.807543e+01 2.886976e+00 1.518814e+01 1.157832e+00 -6.098460e+00 -4.842247e+00 3.034380e+00 4.927516e-01 -8.234056e-01 -3.686218e-02 9.184673e-01 5.369408e-02 1.324334e+00 2.939093e-01 -6.171809e-01 -3.842025e-01 1.160779e+00 3.847408e-01 -1.189029e+00 -6.251073e-02 1.764488e-03 
-6.522692e+00 2.329834e+00 5.817182e+00 -3.448392e+00 2.072077e+01 -8.913454e+00 4.560509e+00 1.085600e+01 -3.763072e+00 -7.324336e+00 -7.725831e+00 1.110549e+01 2.155302e-01 1.581499e+00 7.656629e-01 -2.036309e+00 2.301711e+00 -2.886848e+00 4.504630e+00 5.585881e-01 -3.620301e+00 5.368452e-01 9.854904e-01 7.374297e-01 -7.490688e-01 -9.864785e-02 
-2.113705e+00 3.998530e+00 5.227108e-01 2.288934e+00 8.830489e+00 5.862247e+00 6.978191e+00 1.661893e+00 -1.119566e-01 -3.632109e+00 -3.712032e+00 2.442579e+00 -1.205990e-01 2.363976e+00 1.203975e+00 -4.341074e+00 1.155074e+00 -5.479822e+00 4.413361e+00 -1.533071e+00 -4.209305e+00 -2.485224e-01 2.241768e+00 1.161353e+00 1.902542e-01 -1.368959e-01 
-1.532566e+00 4.386460e+00 -1.811755e+00 3.627611e+00 8.105359e+00 2.535660e+00 2.201021e+00 -8.354115e-01 -3.630285e+00 7.844210e-02 -1.385632e+00 4.088449e+00 -8.065403e-02 4.610659e-01 1.497723e-01 -2.225630e+00 1.278186e+00 -2.223283e+00 2.040343e+00 -1.735047e+00 -1.970623e+00 6.733696e-01 2.472082e+00 1.280990e+00 -1.472300e-01 -4.919920e-02 
-3.111965e+00 3.391598e+00 -5.367640e+00 1.118921e+00 5.124833e+00 -1.733182e+00 -3.598634e+00 -1.267743e-02 -1.511731e-01 1.408992e+00 -2.205583e+00 7.494173e+00 -4.363573e-02 -4.135079e-01 2.268777e-02 -3.443104e-02 -3.340640e-02 5.345988e-03 4.073048e-01 -8.075783e-01 3.691202e-01 8.029369e-01 2.161980e+00 2.177967e-01 4.898341e-01 6.229377e-03 
-3.718232e+00 3.382161e+00 -2.365793e+00 3.527544e+00 1.145718e+01 5.085973e+00 1.173686e+00 1.840164e+00 -3.766150e-01 2.515523e+00 -2.074107e+00 7.843546e+00 -6.894743e-02 -3.841433e-01 6.142058e-01 8.153756e-01 -3.037591e-02 -9.472726e-01 1.435786e+00 1.438086e+00 6.202396e-01 2.110469e+00 1.610048e+00 -8.802066e-01 -8.231556e-01 2.120411e-03 
-3.088411e+00 4.614118e+00 6.275747e-01 2.171935e+00 7.181306e+00 6.623614e+00 3.453968e+00 2.169706e+00 2.275893e+00 5.959250e+00 -2.278811e+00 3.014201e+00 -9.530544e-02 -2.876796e-01 1.074841e-01 1.285820e+00 1.129290e-01 -6.144048e-01 7.677949e-01 1.859132e+00 5.151180e-01 2.136503e+00 2.235231e+00 2.838598e-01 -1.247399e+00 -1.209396e-02 
-3.465059e+00 6.846229e+00 -7.324849e-01 2.949224e+00 2.340759e+00 5.536190e+00 5.865149e+00 1.174594e+00 5.708529e+00 5.853553e+00 -5.750051e+00 2.212657e+00 -4.421711e-02 -3.215476e-01 3.143280e-01 1.870117e-01 -6.826645e-01 -1.981499e+00 -4.844165e-01 3.429022e-01 1.167069e+00 2.341566e+00 1.605315e+00 6.179304e-01 -9.195111e-02 7.313025e-03 
-4.676950e+00 2.196984e+00 2.448039e-01 1.972726e+00 6.611021e+00 1.880683e+00 3.351295e+00 2.895698e+00 7.488769e+00 1.091613e+01 1.051688e+00 4.072625e+00 -1.164707e-01 -4.041394e-01 7.558508e-02 -1.129749e-01 -6.769614e-01 -8.318160e-02 -1.309634e+00 -5.284454e-01 1.024242e+00 9.401499e-01 4.907123e-01 8.506910e-01 -4.775227e-01 5.716669e-03 
-4.531701e+00 6.162368e+00 -1.239349e+00 2.138262e-01 1.834831e+00 5.035356e+00 2.939533e+00 7.312514e+00 8.724777e+00 8.063660e+00 -6.497050e-01 6.854579e+00 -2.179968e-02 -1.508846e-01 -1.874121e-01 5.400036e-01 6.243225e-02 5.009543e-01 -1.174118e+00 -9.951285e-01 4.408522e-01 -2.603575e-01 -9.446681e-01 5.163078e-01 -1.242769e+00 -4.479647e-03 
-4.575788e+00 5.333974e+00 3.161323e-01 1.548273e-01 7.018363e+00 3.258588e-01 2.274549e+00 4.221958e+00 5.468518e+00 7.307758e+00 -5.755293e-01 -1.694374e+00 -7.793081e-02 1.171512e-01 3.461228e-02 5.186974e-01 9.214584e-01 5.185012e-01 -8.111892e-02 7.055932e-01 -4.297014e-01 -5.697822e-01 -2.301011e+00 -4.302942e-01 -1.364938e+00 -6.592142e-03 
-4.270063e+00 4.340674e+00 1.931869e+00 4.170335e+00 4.641859e+00 4.430103e-01 1.427880e+00 2.715725e+00 5.416867e+00 2.934398e+00 -2.354903e+00 -1.117689e+00 -8.588529e-02 4.561878e-01 -7.080262e-01 3.238329e-01 1.375160e+00 6.279343e-01 -4.073822e-01 1.401738e+00 -3.759641e-01 -3.659889e-01 -6.374590e-01 7.522596e-02 -5.639512e-01 -1.899109e-02 
-4.222013e+00 3.280893e+00 1.252682e+00 4.601764e+00 7.800013e+00 3.771261e+00 7.635088e+00 3.045585e+00 6.293813e+00 1.975708e+00 -2.471840e-01 1.234069e+00 -1.173886e-01 3.903428e-01 -1.436042e-01 -3.167893e-01 9.727634e-01 2.842112e-01 9.624462e-01 1.096296e+00 3.627695e-01 4.334430e-01 -5.851841e-03 3.676819e-01 2.742259e+00 -1.191127e-03 
-2.427649e+00 3.648778e+00 -8.845982e-02 4.866158e+00 4.583677e+00 1.275744e+00 7.267955e+00 6.020880e+00 6.482185e+00 7.542390e+00 -4.377478e-01 2.570601e+00 -9.702623e-02 -7.646322e-02 -2.448250e-01 -1.430415e+00 -9.307257e-01 7.699492e-02 -1.621744e-01 -3.881722e-01 7.208708e-01 8.771919e-01 6.990355e-01 1.016553e+00 2.783523e+00 6.578326e-04 
-3.545280e+00 4.961901e+00 -2.576502e-01 4.670733e+00 8.468510e+00 4.721723e+00 4.835990e+00 4.383228e+00 7.103074e+00 4.974503e+00 3.043025e-01 1.017278e+01 -7.831597e-02 -4.281430e-01 -4.702349e-02 -7.562968e-01 -6.894510e-01 -3.407151e-01 -1.557708e-01 -1.553544e+00 5.945231e-02 1.486166e-01 2.099559e-01 6.017517e-01 1.499739e+00 6.166744e-03 
-4.990746e+00 2.276045e+00 -4.465041e+00 -5.177782e-01 4.692585e+00 -8.430924e-01 8.865676e-01 5.651258e+00 9.398196e+00 4.930178e+00 2.452117e+00 8.330575e+00 -1.021324e-01 -9.322713e-01 -3.598655e-01 4.588509e-02 -1.736167e-01 -4.266011e-01 7.139929e-02 -3.551193e-01 -2.484791e-01 -4.560556e-01 -7.739214e-01 1.096246e+00 2.243380e-01 5.660939e-03 
-5.081180e+00 3.732142e+00 -3.405114e-01 3.846477e+00 6.041983e+00 4.051826e+00 3.058061e+00 3.527658e+00 5.578890e+00 4.331594e+00 1.316642e+00 5.852776e+00 -8.400178e-02 -3.693375e-01 -1.666674e-01 7.860343e-01 5.459644e-01 6.363937e-01 -2.795841e-01 9.467264e-01 6.667948e-01 1.229427e-01 1.421545e-01 9.229649e-01 -1.752407e+00 -3.473341e-03 
-6.321056e+00 2.464330e+00 1.823963e-01 4.410203e+00 3.663935e+00 1.967689e+00 6.381323e+00 5.206269e+00 4.963999e+00 3.994238e+00 4.537314e+00 5.852291e+00 -6.587863e-02 -7.438173e-02 1.690844e-01 6.908951e-01 8.652461e-01 1.182899e+00 -6.709609e-02 1.259612e+00 5.389562e-01 -4.780435e-01 6.276143e-01 1.062303e+00 -1.509513e+00 3.175640e-03 
-4.726812e+00 4.034421e+00 1.348803e+00 4.936565e+00 1.216480e+01 1.918412e+00 6.822245e+00 7.939696e+00 9.934886e+00 6.153246e+00 3.876529e+00 2.649881e+00 -1.138096e-01 -2.178512e-01 -2.512555e-01 1.363653e-01 -6.018666e-01 1.809024e-01 -1.218921e+00 1.341841e-01 2.940605e-02 9.753173e-01 1.245529e+00 4.899245e-01 -6.074451e-01 -4.821348e-03 
-5.539838e+00 2.970327e+00 -1.855223e+00 3.263408e+00 7.545672e+00 -1.118662e-01 5.302538e+00 6.140019e+00 4.829981e+00 7.157423e+00 6.483687e+00 2.384457e+00 -7.135034e-02 -3.583992e-01 -6.592782e-02 -1.023728e-01 -1.016145e+00 -3.979634e-01 -4.408087e-01 -1.611942e+00 -1.067016e+00 5.393739e-01 1.109474e+00 4.056687e-01 7.083457e-01 -8.677888e-03 
-6.561045e+00 2.222866e+00 1.360124e+00 1.410540e+00 5.005626e+00 -1.003002e+00 4.268374e+00 3.207813e+00 1.052249e+01 8.977646e+00 2.793078e+00 4.549468e+00 -1.053727e-01 -1.559594e-01 9.534068e-02 -1.244516e-01 -5.218285e-01 -1.515922e+00 4.874137e-01 -1.314838e+00 -1.099011e+00 -4.653046e-01 4.634107e-01 -2.830699e-01 1.271744e+00 -6.143331e-04 
-7.195936e+00 3.040469e+00 -3.351288e-01 1.092490e+00 5.253706e+00 1.224353e+00 -4.014511e-01 2.237131e+00 7.367068e+00 8.129407e+00 7.107383e+00 8.444226e+00 -1.134865e-01 2.405640e-01 -2.771679e-01 -5.354971e-01 6.337278e-02 -2.813023e-01 9.330125e-01 -1.454522e+00 -4.960548e-01 8.107746e-01 -3.023536e-02 -3.666672e-01 3.789611e-01 -3.548861e-05 
-4.678560e+00 4.476054e+00 -3.350210e-02 3.412881e+00 5.731176e+00 3.687371e+00 3.100049e+00 4.396083e+00 6.339819e+00 7.984307e+00 2.149331e+00 5.978716e+00 -9.581316e-02 4.550935e-01 -1.706577e-01 -1.350438e+00 -1.371997e-01 -2.317438e-01 1.088559e-01 -4.360943e-01 -5.859966e-02 -6.531957e-01 -6.509176e-01 -1.667958e+00 -1.229211e+00 9.687019e-03 
-5.278260e+00 4.578936e-01 -3.835895e+00 2.579102e+00 5.776385e+00 2.208010e+00 -1.385909e+00 3.065610e+00 1.097519e+01 7.502916e+00 4.972224e+00 3.564638e+00 -7.630754e-02 2.795916e-01 -4.539646e-01 -7.809957e-01 -6.377454e-01 2.720599e-01 -1.102228e+00 6.924367e-02 -1.900844e-01 1.143210e-01 7.025766e-02 -2.297572e+00 -1.313822e+00 4.074788e-03 
-5.244415e+00 2.660865e+00 -3.641685e+00 -1.876422e-02 3.585567e+00 -9.505508e-01 2.580132e+00 2.500575e+00 5.452447e+00 6.036304e+00 -4.479130e+00 8.432064e-01 -7.552707e-02 -3.504544e-01 -3.982739e-01 -3.115603e-01 -3.367714e-01 3.773403e-01 -1.160985e+00 2.467579e-01 -4.492278e-01 -2.409786e-01 -9.462483e-02 -2.742094e-01 -4.795825e-02 -8.551466e-03 
-5.515051e+00 1.678240e+00 -2.436016e+00 -3.804141e-01 7.686810e+00 -1.967827e+00 2.047257e-01 2.234463e+00 8.382360e+00 9.454697e+00 -1.066245e+00 4.442872e+00 -1.032556e-01 -4.291485e-01 6.453888e-01 9.287882e-01 3.753867e-01 2.662058e-02 -1.095432e+00 9.812630e-01 2.685056e-01 -2.417359e-01 7.038259e-03 8.131987e-01 6.208948e-01 -1.135452e-02 
-6.312437e+00 1.874512e+00 -2.291244e+00 3.208782e+00 6.662665e+00 -2.963519e-02 3.538521e+00 2.565518e+00 6.431341e+00 6.535293e+00 3.797519e+00 5.299808e+00 -1.250964e-01 -5.717794e-01 -8.287845e-02 6.874487e-01 1.911208e-01 -1.141990e-01 -3.392337e-01 3.381109e-01 7.747552e-01 -5.895525e-02 5.001320e-01 2.394955e+00 1.385461e+00 -2.475870e-03 
-6.889992e+00 4.078014e+00 1.328252e-01 2.842263e+00 4.370939e+00 -3.729609e+00 3.041212e+00 4.375667e+00 9.277061e+00 7.288613e+00 4.899893e+00 4.440812e+00 -1.082954e-01 -4.904987e-01 -2.091235e-01 2.696688e-01 -4.471449e-01 -8.018762e-01 -1.332197e-01 4.609357e-01 8.876804e-01 -9.065100e-01 3.415330e-01 1.187269e+00 9.129074e-01 7.544816e-03 
-7.415842e+00 1.046586e+00 -1.488862e+00 -6.744987e-01 4.672508e+00 -1.765829e+00 2.852443e+00 5.303749e+00 4.710320e+00 9.620006e+00 4.512574e+00 7.771542e+00 -8.538651e-02 -2.732660e-01 -4.687280e-01 -1.692462e-03 -1.128332e+00 -3.678747e-01 -1.508607e-01 -1.560925e-01 6.404544e-01 -8.008784e-01 8.500818e-01 1.042791e-01 8.274199e-01 1.023288e-02 
