-8.654902e+00 3.277528e+00 4.152210e+00 6.562393e+00 2.809644e+00 2.578732e+00 6.644457e+00 9.223652e+00 4.350990e+00 9.854048e+00 3.912323e+00 8.008579e+00 -5.993116e-02 -1.772687e-01 -3.358431e-01 -3.358497e-01 -1.382926e+00 2.984540e-01 -2.290556e-01 -6.081559e-01 -1.093791e+00 -6.164850e-01 -2.861282e-01 3.364622e-01 4.343529e-01 -1.053790e-02 
-9.483397e+00 2.293164e+00 4.270575e+00 2.716795e+00 3.182817e+00 1.202821e+00 4.079758e+00 3.771023e+00 1.177889e+00 8.665097e+00 4.126674e+00 8.009765e+00 -1.167116e-01 -1.761361e-01 -3.208666e-01 -4.267848e-01 -1.253487e+00 1.000861e+00 3.320217e-03 -8.069193e-01 -3.680770e-01 -1.341818e-01 -4.054898e-01 -2.162585e-01 -3.496551e-01 -1.197602e-02 
-9.126999e+00 2.090495e+00 2.413779e+00 1.570560e+00 4.115327e+00 2.121410e+00 4.886027e+00 6.481010e+00 2.855116e+00 9.017882e+00 5.487458e+00 1.017975e+01 -8.423042e-02 1.447438e-01 1.528020e-02 -6.133292e-01 -1.081960e+00 7.345263e-01 -8.696411e-02 3.970594e-01 -4.277353e-01 -3.258949e-01 4.804502e-01 -7.816133e-01 -8.714544e-01 -1.028732e-02 
-9.299534e+00 2.266712e+00 2.887501e+00 2.790875e+00 7.161108e+00 2.823995e+00 3.489075e+00 8.754587e+00 4.428019e+00 8.244681e+00 2.043463e+00 5.174717e+00 -1.076616e-01 3.447017e-01 6.017531e-01 7.356393e-01 8.131748e-01 6.908532e-01 -7.512529e-01 7.841747e-01 -2.807874e-01 -1.955760e-01 1.003976e+00 3.284492e-01 -1.219733e+00 -4.743922e-03 
-8.023113e+00 3.367155e+00 1.777101e+00 1.115553e+00 4.493130e+00 1.333325e+00 8.925096e+00 4.593193e+00 1.096451e+00 1.246651e+01 1.045861e+00 5.068831e+00 -1.158928e-01 1.639060e-01 3.019529e-01 1.291537e+00 9.604723e-01 7.591401e-02 -1.156961e+00 1.217506e-01 -8.933260e-01 4.820459e-01 2.290747e-01 6.975026e-01 4.724723e-01 -1.510630e-02 
-8.311831e+00 4.663599e+00 8.267111e+00 7.010173e+00 6.448182e+00 -2.159401e+00 5.981097e+00 3.310995e+00 1.079341e+00 1.196067e+01 7.989718e+00 4.466560e+00 -1.246001e-01 3.426199e-02 1.966118e-01 1.072525e+00 1.006704e+00 1.277335e-01 -1.407309e+00 4.980087e-04 -1.155519e-01 4.402449e-01 -3.682151e-01 6.540323e-01 2.236540e+00 -4.037523e-03 
-8.801321e+00 2.401816e+00 6.181658e+00 4.263273e+00 4.851360e+00 -1.171697e+00 4.248770e+00 4.736176e+00 6.939684e+00 8.305264e+00 6.001843e+00 1.289619e+01 -1.512927e-01 7.924280e-02 -3.440828e-01 9.082352e-01 4.799687e-01 3.581297e-01 1.002809e-01 -3.301982e-01 1.321396e+00 1.717771e+00 -2.599347e-02 -2.571177e-01 1.031123e+00 -5.634904e-03 
-8.739120e+00 3.732440e+00 6.047846e+00 6.250536e+00 7.620661e+00 -2.960037e+00 5.829728e+00 8.105337e+00 3.707626e+00 8.484228e+00 2.835634e+00 1.244374e+01 -1.101493e-01 2.008153e-01 -1.172877e-01 -1.946549e-01 -8.517734e-01 -4.419168e-02 8.481987e-01 1.417189e-01 2.349846e-01 6.789756e-01 1.391049e-01 -2.020157e+00 -5.249295e-01 -4.946160e-03 
-7.413254e+00 2.112320e+00 7.427908e+00 3.895215e+00 5.697539e+00 2.235048e+00 7.349789e+00 8.803003e+00 8.371162e+00 1.407476e+01 2.337315e+00 6.235858e+00 -1.512927e-01 5.040011e-01 5.923091e-01 -6.949065e-02 -4.885889e-01 -4.413696e-01 -4.585031e-01 -9.793897e-01 -6.738982e-02 -6.002282e-01 5.836739e-02 -1.150018e+00 -2.754580e+00 2.140582e-03 
-8.001787e+00 4.221909e+00 6.670711e+00 2.935335e+00 5.804134e+00 3.782199e-01 5.139182e+00 2.452504e+00 3.758480e+00 9.771443e+00 -2.788047e-01 5.172079e+00 -1.493309e-01 3.153712e-01 2.154340e-01 -2.456810e-01 -2.895464e-01 -1.138499e+00 -1.062049e+00 -1.281319e+00 -1.624842e-01 -1.689987e-01 -1.074965e+00 -4.795513e-01 -2.005296e+00 -1.070046e-03 
-6.649982e+00 5.118628e+00 5.522772e+00 3.477929e+00 3.552775e+00 -5.133341e+00 -3.029056e-01 7.225644e+00 3.913116e+00 7.953492e+00 1.808970e+00 2.759120e+00 -1.209990e-01 -2.673639e-01 -1.456984e-01 -3.447685e-01 -2.571682e-01 -5.866620e-01 -1.105820e+00 -8.329083e-01 -1.563165e-01 -1.668258e-02 -2.766421e-01 -6.938045e-02 2.409790e-02 3.907979e-03 
-7.543901e+00 3.306457e+00 5.772009e+00 5.011447e+00 3.000548e+00 -4.586089e+00 3.249479e+00 8.081596e+00 5.091655e+00 6.170034e+00 7.020500e-01 4.155630e+00 -1.306463e-01 -3.490005e-01 -4.496807e-01 -9.829706e-02 4.966323e-01 -1.511624e-01 1.101272e+00 1.167398e+00 1.005256e+00 1.191054e+00 3.242030e-01 -5.946754e-01 2.238027e-01 1.625581e-02 
-8.979017e+00 1.841554e+00 6.153417e+00 1.571318e+00 4.166022e+00 -8.119003e-01 4.130099e+00 5.206875e+00 7.621162e+00 1.449225e+01 1.499985e+00 6.864573e+00 -1.410950e-01 -2.767350e-01 -6.469537e-01 -1.258028e+00 2.388687e-01 -1.504905e+00 1.660615e+00 9.524044e-01 -9.274018e-01 9.818751e-01 -1.958357e-01 -1.820048e+00 -9.344503e-01 3.758096e-02 
-8.582272e+00 3.612042e+00 5.863903e+00 6.371802e+00 4.741698e+00 3.723861e+00 8.759670e+00 8.488167e+00 7.859725e+00 8.123078e+00 -3.097689e+00 4.238366e+00 -5.800378e-02 2.732457e-01 -3.982797e-02 -1.129877e+00 -4.421073e-01 -7.400550e-01 7.206378e-01 -5.127848e-01 -1.256645e+00 -8.702184e-01 -5.262687e-01 -3.530080e-01 -9.770176e-01 1.676336e-02 
-7.514472e+00 1.731066e+00 -8.133135e-01 3.992095e+00 -4.842327e+00 -9.852426e-01 1.704021e+00 2.385349e+00 7.438457e+00 5.997792e+00 -5.391398e+00 -1.954499e+00 3.058451e-02 5.566689e-01 -5.864760e-01 -9.755118e-01 -8.241480e-01 -5.673280e-02 -8.054131e-01 -1.187798e+00 -8.802737e-01 -1.530737e+00 -1.489142e+00 6.535686e-01 -3.563025e-01 -9.506082e-03 
-6.909945e+00 3.162561e+00 3.605989e+00 1.590522e+00 3.804448e+00 -8.962288e-01 1.898594e+00 3.209131e+00 8.319161e-01 7.785922e+00 2.382702e+00 3.680078e+00 -1.326693e-01 8.224905e-01 -1.474408e+00 -6.854265e-01 -1.717896e+00 4.154532e-01 -1.624658e+00 -2.004737e+00 -1.739753e+00 -2.169024e+00 -7.076502e-01 1.612682e+00 5.917621e-01 -2.659360e-02 
-7.031836e+00 -8.660856e-01 2.404815e+00 -1.587818e-01 4.350984e+00 -2.528920e+00 1.621646e+00 3.445024e+00 3.481383e+00 7.215122e+00 2.027632e+00 5.362205e+00 -1.512927e-01 2.571534e-01 -6.389741e-01 5.526346e-01 -1.176397e+00 1.292476e+00 -1.065920e+00 -1.034356e+00 -1.137493e+00 -2.247232e+00 -4.471526e-01 1.642611e+00 1.620635e+00 -2.910591e-02 
-4.711137e+00 -2.461421e+00 8.277068e-01 -1.422384e-01 2.222309e+00 -3.627589e+00 -1.222826e+00 -7.404366e-01 -1.006860e+00 3.976162e+00 1.256207e+00 3.538825e+00 -1.000332e-01 9.493675e-02 3.757537e-01 -4.132579e-02 -2.681872e-02 -6.949580e-01 -5.933321e-01 1.358287e-01 5.993032e-03 2.917868e-01 3.792513e-01 8.588594e-01 1.457718e+00 2.638531e-03 
-7.328108e+00 1.348186e+00 3.339001e+00 -1.023512e+00 2.411122e+00 -4.949163e+00 -1.907049e+00 -1.327332e+00 -2.878314e+00 5.666909e+00 3.384903e+00 6.219302e+00 -1.312631e-01 1.631528e-01 1.261830e+00 8.088209e-02 1.241099e+00 -5.330719e-01 2.225909e-01 1.473288e+00 1.895086e+00 7.062793e-01 1.093348e+00 9.438218e-01 1.397622e+00 7.659316e-03 
-6.287125e+00 3.934193e+00 2.932267e+00 1.888793e+00 1.299589e+00 -2.652768e+00 4.342085e+00 5.625275e+00 5.470699e+00 1.045629e+01 5.998363e+00 1.054012e+01 -1.294914e-01 1.168089e-01 -9.378408e-01 1.083432e+00 2.064686e+00 -9.733200e-04 1.275319e+00 1.600584e+00 2.298651e+00 2.672691e+00 6.044010e-01 -1.418142e-02 1.399222e+00 2.495646e-02 
-5.428078e+00 2.245258e+00 1.756946e+00 5.031198e+00 2.146984e+00 -1.903377e+00 6.205629e+00 9.737597e+00 3.774000e+00 9.441801e+00 4.375663e+00 8.849669e+00 -9.826696e-02 -4.618583e-01 -3.468606e+00 7.236093e-01 -4.154653e-01 -1.229080e+00 1.253275e+00 9.837831e-01 1.670713e+00 3.122561e+00 -3.195345e-01 -1.351178e+00 -8.096460e-01 9.618902e-02 
-5.077108e+00 -7.599161e+00 7.035895e+00 7.153839e+00 2.349512e+00 1.226112e+00 2.723757e+00 5.220352e+00 9.030439e+00 5.110721e+00 6.899197e-01 9.219750e+00 8.251071e-03 -1.669558e+00 -4.262031e+00 1.028433e-01 -2.382307e+00 -9.410869e-01 5.705970e-01 -3.811293e-01 -5.979768e-01 1.453718e+00 -1.814887e+00 -9.769907e-01 -2.656695e+00 1.434983e-01 
-1.024241e+01 -1.022817e+01 4.905233e+00 -5.733361e+00 -4.259237e+00 -6.222309e-01 3.821031e+00 7.228697e+00 1.095462e+01 6.742019e+00 -7.167665e-01 2.831255e+00 2.808107e-01 -2.015398e+00 -2.704841e+00 -7.291491e-01 -1.902948e+00 1.970932e-01 -8.255097e-01 -1.875403e+00 -3.112096e+00 -1.424831e+00 -1.999241e+00 -9.557961e-01 -2.364651e+00 1.376321e-01 
-1.222775e+01 -1.113925e+01 1.872339e+00 -4.640462e+00 -2.027349e-01 -4.403556e-01 3.628738e+00 3.889841e+00 9.148979e+00 2.731741e+00 3.659625e+00 2.658467e-01 3.984610e-01 -1.221504e+00 3.765074e-01 -1.508271e+00 5.417494e-01 1.515713e+00 -1.592268e+00 -2.882266e+00 -4.023438e+00 -3.837626e+00 -2.083230e+00 -1.207081e+00 -9.674975e-01 8.909599e-02 
-1.192975e+01 -9.508902e+00 6.929779e-01 1.413610e+00 4.408573e+00 -5.197691e+00 -3.623877e+00 -5.157627e+00 -3.409423e+00 6.350870e-01 -1.888170e+00 1.503364e+00 3.947884e-01 -1.576540e-01 8.740104e-01 -1.462258e+00 2.892462e+00 1.643350e+00 -1.754111e+00 -3.382274e+00 -3.575873e+00 -3.837574e+00 -1.782866e+00 -1.050962e+00 9.371327e-01 4.005577e-02 
-1.034096e+01 -6.076257e+00 1.600667e+00 6.289101e+00 5.594174e+00 -4.447500e+00 -7.965121e+00 -8.703676e+00 -2.975669e+00 -2.251965e+00 -4.759784e+00 5.046209e+00 3.967422e-01 -4.776197e-01 6.949656e-01 -1.855366e+00 1.494449e+00 2.267015e-01 -1.308860e+00 -1.217506e+00 3.549023e-01 -2.518543e+00 1.219097e+00 -2.289134e-01 1.403311e+00 3.737849e-02 
-1.197407e+01 -8.389610e+00 -2.270219e+00 3.264168e+00 1.059056e+00 -7.389215e+00 -7.293411e+00 -4.353909e+00 -2.170927e+00 3.195434e-01 -1.761872e+00 5.126738e+00 4.819490e-01 -1.426072e+00 -2.582744e-01 -1.986775e+00 -1.075617e+00 -2.115170e-01 -8.675766e-03 1.464682e+00 2.515657e+00 7.826334e-01 2.807576e+00 1.362424e+00 1.150189e+00 5.154400e-02 
-1.459369e+01 -8.224066e+00 -5.922895e+00 1.906505e+00 2.605531e+00 -5.888892e+00 -6.240268e-01 5.262494e+00 -4.062982e+00 8.984998e+00 2.451909e+00 5.470715e+00 5.417732e-01 -1.180465e+00 -6.105776e-01 -1.915609e+00 -2.250757e+00 -1.040454e+00 1.427145e+00 2.825633e+00 1.881221e+00 7.219638e-01 2.968739e+00 1.294890e+00 -1.577062e-01 5.292653e-02 
-1.693375e+01 -9.726370e+00 -5.479115e+00 -1.773179e+00 4.845310e+00 -4.520374e+00 2.898598e-02 4.375739e-01 1.047400e+00 9.054483e+00 1.318101e+00 7.042053e+00 5.799929e-01 -5.317243e-01 -5.846636e-01 -1.008314e+00 -1.074931e+00 -1.021797e+00 2.634433e+00 4.217681e+00 7.364941e-01 7.642917e-01 7.096778e-01 -5.812279e-01 1.719242e-01 3.508350e-02 
-1.376344e+01 -8.460766e+00 -6.372928e+00 -2.446010e+00 -1.501220e+00 1.253804e+00 2.501843e+00 -1.693314e+00 -9.750137e-01 8.224259e+00 1.746786e-01 3.300020e+00 6.123528e-01 1.352943e-01 -6.002017e-01 -5.417303e-01 -5.558089e-01 -1.179668e+00 1.485941e+00 2.781114e+00 -2.905257e-01 1.738338e+00 -3.427722e-01 -6.006643e-01 -4.267117e-01 2.607100e-02 
-1.504782e+01 -1.119458e+01 -7.086771e+00 6.577110e-02 -1.996552e+00 2.211601e+00 1.223206e+01 2.806465e+00 1.065481e-01 4.248302e+00 -3.529397e+00 7.071706e+00 6.220767e-01 2.335825e-01 -1.755730e-01 -2.981110e-01 4.682837e-01 -1.293046e+00 -3.859733e-01 8.073487e-01 8.381346e-01 1.348571e+00 -4.757182e-01 -2.007203e-01 -1.017843e+00 2.138418e-02 
-1.486018e+01 -1.049097e+01 -7.827718e+00 -1.792015e+00 1.281195e-01 -1.825175e+00 7.180009e+00 2.625419e+00 5.099136e+00 9.674229e+00 1.872336e+00 3.322330e+00 6.510863e-01 -2.404501e-01 2.178738e-01 4.873967e-01 9.669430e-01 1.305552e-01 -1.766788e+00 -5.730401e-01 9.388402e-01 1.096271e+00 -3.967180e-01 -5.630026e-01 -3.217186e-01 2.480656e-02 
-1.521747e+01 -9.589132e+00 -6.242275e+00 2.412418e-01 -2.434590e+00 -4.910750e+00 1.726647e+00 2.468881e+00 4.753180e+00 5.950908e+00 -5.343288e-01 1.941683e+00 6.675471e-01 7.093410e-02 9.268381e-01 1.513399e+00 1.333884e+00 1.382424e+00 -7.729947e-01 -2.473642e+00 -9.939355e-01 5.776685e-01 1.354165e+00 1.496991e-01 -1.558839e-01 2.549077e-02 
-1.488087e+01 -8.174120e+00 -4.358193e+00 2.300969e+00 -6.294241e-01 -4.018959e+00 4.889349e+00 3.169679e+00 2.183026e+00 5.389367e+00 -4.137868e+00 4.256438e+00 7.136505e-01 1.171387e+00 9.249296e-01 2.305185e+00 1.675473e+00 1.292022e+00 3.052078e-01 -1.766587e+00 -3.152007e-01 -1.306697e+00 -3.758934e-01 -5.320266e-01 1.121048e-01 -2.657449e-03 
-1.468280e+01 -7.718813e+00 -1.254541e+00 4.688701e+00 5.294340e+00 -5.564801e-01 1.009176e+00 -2.435342e+00 4.452946e+00 1.316156e+01 2.242009e-01 5.825233e+00 7.182485e-01 5.003631e+00 1.707553e+00 1.197469e+00 -1.586293e+00 -1.206017e+00 8.371609e-01 -1.615321e+00 -1.675678e+00 -3.047558e+00 -1.997439e+00 -3.873740e-01 -6.973822e-01 -2.823502e-03 
-9.270580e+00 -6.801481e+00 1.204338e+00 4.361618e+00 2.723763e+00 -2.476272e+00 -1.294193e+00 3.501527e+00 -1.284232e+00 4.189438e+00 -1.167062e+00 1.941079e+00 6.124484e-01 7.381567e+00 1.181104e+00 -4.089765e-01 -4.119198e+00 -5.035737e+00 2.158770e+00 -2.890822e+00 -3.422343e+00 -3.053213e+00 -4.474664e+00 2.891882e-01 -2.353701e+00 3.677219e-02 
6.995541e+00 -1.737686e+00 -3.036192e+00 -8.720546e+00 -1.014127e+01 -1.496290e+00 -3.258188e+00 -6.075433e+00 -8.750982e+00 -3.436323e+00 -3.956602e+00 -3.875482e-01 7.040306e-01 7.203269e+00 1.073156e+00 -1.695382e+00 -5.163356e+00 -6.699824e+00 2.602487e+00 -1.891268e+00 -3.243695e+00 -2.121999e+00 -5.883777e+00 -8.560596e-02 -2.847823e+00 7.646827e-02 
1.118779e+01 -5.259164e+00 -5.512249e+00 -1.159040e+01 -1.809030e+01 7.244795e+00 -7.431077e+00 -1.212199e+01 -6.481076e+00 -8.685017e+00 -6.015253e-01 -4.405676e+00 9.046203e-01 4.528348e+00 9.496931e-01 -2.067397e+00 -3.750547e+00 -4.764593e+00 2.999601e+00 -5.957147e-01 -3.321744e+00 1.773197e-01 -3.249453e+00 -3.238816e-02 -1.405023e+00 9.521263e-02 
1.110436e+01 -3.124190e+00 -6.373156e+00 -1.315207e+01 -1.779775e+01 7.595423e+00 -5.378721e+00 -1.084206e+01 -3.558625e+00 -9.820103e+00 -4.865972e-01 -5.240507e+00 9.545038e-01 9.759756e-01 7.589596e-01 -1.153879e+00 -1.359816e+00 -1.270186e+00 1.510702e+00 4.529925e-01 -1.373614e+00 1.918819e+00 -1.718168e+00 -5.519346e-01 -8.271206e-01 5.485842e-02 
1.131675e+01 -1.359764e+00 -7.464165e+00 -1.217535e+01 -1.727096e+01 7.975878e+00 -3.212500e+00 -1.072388e+01 -2.993812e+00 -8.865934e+00 -3.064005e+00 -2.657554e+00 9.632750e-01 1.419790e-01 1.780295e+00 5.122032e-02 -1.558004e+00 3.481587e-01 -3.223014e-01 6.164104e-01 2.048510e-01 1.156121e+00 -6.826897e-01 -1.696263e+00 -2.832841e-01 3.816450e-03 
1.181094e+01 1.074123e-01 -7.829628e+00 -1.522715e+01 -1.690187e+01 5.691677e+00 -3.102514e+00 -1.364256e+01 -9.005179e-01 -1.193670e+01 -5.485035e+00 -5.397212e+00 9.489954e-01 1.744046e-01 1.548456e+00 4.225093e-01 -2.350777e+00 3.364902e-01 -1.440087e+00 -8.850921e-01 -2.766151e-01 2.679361e-01 -1.382002e+00 -2.109940e+00 -7.977789e-01 -1.465163e-02 
1.154440e+01 2.026510e+00 -4.527912e+00 -1.834288e+01 -1.679745e+01 6.585161e+00 -5.487129e+00 -9.697487e+00 -2.029523e+00 -1.104016e+01 -6.583623e+00 -5.743744e+00 9.264568e-01 1.308435e-01 1.721728e+00 8.977569e-01 -2.230330e+00 4.158331e-01 -1.786503e+00 -1.409178e+00 5.928534e-01 -9.816489e-02 -1.184030e+00 -1.358413e+00 -4.678364e-01 -2.133005e-02 
1.186256e+01 2.924952e+00 -5.728736e+00 -2.182219e+01 -1.635205e+01 1.090345e+00 -8.666866e+00 -1.273833e+01 -2.701089e+00 -1.564300e+01 -9.276487e+00 -7.686307e+00 8.996547e-01 8.981562e-02 1.759231e+00 1.000441e+00 -9.124525e-01 1.275272e-02 -1.341342e+00 -1.185972e+00 1.107869e+00 5.678921e-02 -3.109716e-01 -8.372440e-01 6.001874e-01 -1.990947e-02 
1.194516e+01 5.840105e+00 -4.025827e+00 -2.002948e+01 -1.546670e+01 1.344026e+00 -7.476213e+00 -8.211731e+00 -2.584351e+00 -1.293294e+01 -7.960341e+00 -3.852189e+00 8.812950e-01 1.609287e-01 1.625468e+00 3.258103e-01 -1.439430e-01 -8.153755e-01 -1.073910e+00 -1.136167e+00 3.668800e-01 4.889031e-01 -2.194683e-01 -6.400243e-01 5.150033e-01 -1.340992e-02 
1.205964e+01 6.996772e+00 -3.078466e+00 -1.894611e+01 -1.750348e+01 1.605534e+00 -8.037834e+00 -8.846090e+00 -3.391581e-01 -1.254518e+01 -8.982896e+00 -3.342052e+00 8.720289e-01 2.252319e-01 1.366945e+00 3.378657e-01 5.931803e-01 -1.325655e+00 -3.652507e-01 -4.895123e-01 3.846548e-01 4.052911e-01 6.527920e-01 2.449248e-01 2.911635e-01 -6.111401e-03 
1.225050e+01 8.117937e+00 -4.223996e+00 -2.050063e+01 -2.029861e+01 9.580157e-01 -1.148248e+01 -9.809208e+00 -7.659731e-01 -1.368642e+01 -9.930540e+00 -5.340855e+00 8.732201e-01 1.755526e-01 9.086212e-01 1.251573e-01 4.389343e-02 -1.384834e+00 -3.163193e-01 -7.727788e-01 -1.174990e+00 5.225613e-01 3.094540e-01 5.235890e-01 -1.007457e+00 -2.019274e-03 
1.283605e+01 8.620760e+00 -3.940323e+00 -1.862072e+01 -2.056437e+01 -5.429035e-01 -9.111294e+00 -1.001632e+01 -1.583822e+00 -1.200230e+01 -7.066764e+00 -5.486156e+00 8.731352e-01 2.763997e-01 1.442957e-01 6.357707e-01 7.155744e-01 -4.529640e-01 -2.137770e-01 -6.419071e-01 2.924721e-01 -4.128674e-01 1.267723e+00 1.030857e+00 -2.996250e-01 -1.502955e-03 
1.243472e+01 9.571217e+00 -2.969112e+00 -1.997271e+01 -2.086042e+01 8.366483e-01 -1.080338e+01 -1.350157e+01 6.507874e-01 -1.165710e+01 -6.300462e+00 -7.817423e+00 8.706455e-01 3.324703e-01 -3.820479e-01 7.829754e-01 1.356332e+00 7.290459e-02 4.496753e-01 -2.630439e-01 7.163714e-01 -2.315741e-01 1.310105e+00 1.483008e+00 -1.959075e-01 -1.966786e-03 
1.334953e+01 6.991611e+00 -5.270543e-01 -1.563220e+01 -1.948739e+01 5.973326e-01 -1.158692e+01 -5.537549e+00 -3.111875e+00 -7.221215e+00 -5.643648e+00 -3.601893e+00 8.658015e-01 2.475431e-01 -7.973034e-01 2.387019e-01 1.167043e+00 4.056755e-01 5.345080e-01 2.096918e-01 5.573381e-01 -4.265004e-01 4.677923e-01 1.831610e+00 -7.076494e-01 1.009655e-03 
1.365612e+01 7.022273e+00 -2.015753e+00 -1.521323e+01 -2.047258e+01 2.636274e+00 -1.155989e+01 -8.466736e+00 -1.159817e+00 -9.526434e+00 -3.227057e+00 -7.262524e+00 8.670530e-01 1.900690e-01 -1.022457e+00 -4.264506e-01 1.437814e+00 1.602426e+00 -3.203548e-01 2.480592e+00 9.115013e-01 -3.299931e-01 3.598714e-01 2.395544e+00 8.721151e-02 7.909608e-03 
1.346306e+01 5.908715e+00 -3.223493e+00 -1.516524e+01 -1.872992e+01 1.229824e+00 -7.684580e+00 -9.747046e+00 -2.811022e+00 -1.072867e+01 5.545853e-01 -9.301853e+00 8.799797e-01 -8.114805e-02 -1.299892e+00 -1.655971e+00 8.246821e-01 1.472899e+00 -2.339134e-02 2.839190e+00 -4.350412e-01 -4.753618e-01 -6.500607e-01 2.790486e+00 -9.587364e-01 1.375704e-02 
1.332830e+01 5.000381e+00 -3.753146e+00 -1.301712e+01 -1.322703e+01 -1.081371e+00 -3.515849e-01 -6.839313e+00 -1.149605e+00 -8.104019e+00 2.578138e+00 -4.531385e+00 9.031044e-01 -4.231869e-01 -2.145145e+00 -2.069125e+00 1.310384e+00 1.687113e+00 3.541581e-01 2.443296e+00 -1.699979e-01 -1.212596e+00 -6.593084e-01 2.824813e+00 -4.793306e-01 1.579077e-02 
1.310770e+01 1.503097e+00 -7.938213e+00 -1.260684e+01 -1.574567e+01 2.339199e+00 -2.995122e+00 -8.526466e+00 -5.493790e+00 -1.118273e+01 5.406186e+00 -9.761145e+00 9.165609e-01 -5.427026e-01 -2.456698e+00 -2.400203e+00 1.773695e+00 1.691460e+00 1.102776e+00 1.003929e+00 -1.609180e-01 -8.975519e-01 -9.907888e-01 2.702480e+00 -4.597282e-01 1.387273e-02 
1.171786e+01 -1.500642e+00 -1.000402e+01 -9.940514e+00 -1.352914e+01 3.852377e+00 -1.688137e+00 -9.927013e+00 -5.881414e+00 -1.259595e+01 8.471207e+00 -9.429531e+00 9.277163e-01 -4.425537e-01 -2.621761e+00 -2.137147e+00 2.219321e+00 2.115004e+00 1.351654e+00 -3.506470e-02 2.159815e-01 -3.609940e-01 -1.047950e+00 3.060610e+00 -7.321677e-01 1.450378e-02 
1.155477e+01 -3.124264e+00 -1.209907e+01 -7.835073e+00 -1.012156e+01 4.276828e+00 -1.996658e+00 -9.007784e+00 -4.932877e+00 -1.343665e+01 1.112045e+01 -9.151422e+00 9.370375e-01 -3.691329e-01 -2.486202e+00 -1.790726e+00 2.850842e+00 2.964677e+00 3.113111e-01 -3.652347e-01 1.280892e+00 7.885317e-01 -7.718746e-01 2.507010e+00 -4.867458e-02 2.045469e-02 
1.189199e+01 -5.794745e+00 -1.235845e+01 -4.306403e+00 -5.464069e+00 4.708086e+00 -1.026141e+00 -5.518747e+00 -3.235031e+00 -1.221681e+01 1.502406e+01 -8.497086e+00 9.653851e-01 -4.337314e-01 -2.117855e+00 -1.900422e+00 2.436200e+00 2.877052e+00 -1.156358e+00 -1.384372e+00 1.814295e+00 5.252820e-01 -9.247278e-01 5.208596e-01 -8.540794e-01 1.956412e-02 
1.117497e+01 -8.780863e+00 -1.571463e+01 -1.169689e+00 -4.954821e+00 3.467899e+00 -5.152294e+00 -4.326140e+00 -2.874323e+00 -1.523167e+01 1.466481e+01 -1.047074e+01 1.000000e+00 -5.279948e-01 -1.578152e+00 -1.568500e+00 2.130896e+00 2.249420e+00 -1.472241e+00 -2.449287e+00 2.671782e+00 5.144226e-01 -1.852723e+00 -3.074319e-01 -1.455711e+00 9.643477e-03 
9.739107e+00 -9.261618e+00 -1.769835e+01 -1.092205e+00 -1.727246e+00 -1.524948e+00 -7.032178e+00 -3.196362e+00 -4.284281e+00 -1.632208e+01 9.303324e+00 -1.304027e+01 9.940556e-01 -5.529727e-01 -8.414464e-01 -1.248715e+00 9.641606e-01 1.522361e+00 -1.691109e+00 -3.660604e+00 2.455228e+00 2.884009e-01 -2.680052e+00 -1.232620e+00 -1.979559e+00 -6.465626e-03 
9.991236e+00 -9.281590e+00 -1.727162e+01 1.212310e+00 -7.428741e-01 3.213927e-02 -1.124007e+01 3.189936e+00 -1.836139e+00 -2.064763e+01 1.244366e+01 -1.415839e+01 9.709196e-01 -3.162521e-01 3.377953e-01 -5.775639e-01 3.789809e-01 1.857683e+00 -9.932681e-01 -3.677390e+00 3.134324e+00 1.387837e-01 -1.029032e+00 -1.310229e+00 -1.468068e+00 -1.940819e-02 
9.718995e+00 -9.751614e+00 -1.782353e+01 -6.766000e-01 4.176331e-02 -2.029580e+00 -1.628527e+01 2.999355e+00 -2.312119e+00 -2.290909e+01 9.971538e+00 -1.655106e+01 9.475971e-01 1.226187e-01 1.056865e+00 2.088240e-01 6.074382e-01 1.716493e+00 3.105335e-01 -3.061757e+00 2.713601e+00 1.588984e+00 4.912447e-01 -4.400094e-01 -4.757006e-01 -2.310087e-02 
9.603764e+00 -6.846888e+00 -1.853986e+01 5.174127e-01 3.449089e+00 -1.246126e+00 -1.891270e+01 8.247622e+00 -3.166486e+00 -1.708333e+01 7.779562e+00 -1.605569e+01 9.261883e-01 1.087823e-01 1.115738e+00 -1.624340e-01 1.193720e-01 5.021485e-01 -2.265719e-01 -2.811891e+00 8.933916e-01 1.020966e+00 8.422176e-01 -1.494939e+00 -8.559971e-02 -2.584563e-02 
1.054594e+01 -5.194645e+00 -1.602012e+01 2.292435e+00 4.759239e+00 6.668515e-01 -1.850465e+01 7.842798e+00 4.325813e+00 -1.564801e+01 9.435325e+00 -1.447012e+01 9.009169e-01 2.801980e-01 9.165089e-01 -6.287062e-01 -2.777711e-01 -1.635877e+00 -7.055489e-01 -3.071774e+00 -5.602397e-01 1.237550e-01 2.822958e-01 -2.027697e+00 -3.249130e-02 -3.182901e-02 
1.012168e+01 -5.981384e+00 -1.898550e+01 3.246523e-01 -5.908694e-01 -2.448936e+00 -2.418984e+01 5.235172e+00 -5.027437e-02 -2.006708e+01 5.237070e+00 -1.562685e+01 8.650316e-01 6.427514e-01 1.101000e+00 3.657843e-01 -8.013479e-01 -2.317076e+00 -1.618211e+00 -1.208884e+00 -1.288544e+00 -8.949158e-01 7.981710e-01 -1.500106e+00 5.580723e-01 -4.290705e-02 
1.086103e+01 -5.601820e+00 -2.074424e+01 -1.969075e+00 -6.117643e+00 -4.955919e+00 -2.900557e+01 1.704381e+00 -3.251449e+00 -2.000573e+01 1.104300e+00 -1.692793e+01 8.190305e-01 7.671507e-02 1.461958e+00 1.272231e+00 -1.021252e+00 -1.268176e+00 -3.979501e+00 2.521105e-01 -2.015503e+00 -1.777022e+00 1.770747e+00 -2.770026e+00 1.023954e+00 -5.716654e-02 
1.265998e+01 -1.138302e+00 -1.434887e+01 -1.358572e+00 -2.697852e+00 -6.525798e+00 -1.970666e+01 4.874111e+00 -3.852434e+00 -1.091361e+01 4.444543e+00 -1.203642e+01 7.525963e-01 -1.336213e+00 3.185253e+00 2.954809e+00 -2.018907e-01 2.632484e+00 -4.967770e+00 3.420720e+00 -3.456428e+00 -1.617526e-01 3.666573e+00 -3.308246e+00 3.171159e+00 -7.246815e-02 
9.660362e+00 -3.063974e-01 -1.197727e+01 -1.972213e+00 -5.281510e-01 -1.719222e+01 -1.948569e+01 -2.054189e+00 -2.658216e+00 -1.137101e+01 -4.018542e+00 -1.114557e+01 6.713018e-01 -1.733212e+00 2.733087e+00 3.199416e+00 4.861256e-01 4.244712e+00 -2.414696e+00 4.116681e+00 -3.453093e+00 -1.116901e+00 3.273953e+00 -2.933381e+00 3.696317e+00 -9.054825e-02 
4.040942e+00 7.297171e+00 -8.594940e+00 -6.832328e-01 9.776805e+00 -2.116963e+01 -1.184618e+01 -1.016768e+01 -1.155654e+00 -6.051584e+00 -8.742739e+00 -2.662238e+00 5.765551e-01 -1.552871e+00 3.556068e-01 2.118174e+00 5.826976e-01 3.190444e+00 7.978917e-01 2.101726e+00 -2.708769e+00 -2.200459e+00 2.509899e+00 -2.544082e+00 2.639497e+00 -1.066657e-01 
6.504483e+00 3.845877e+00 -7.624130e+00 1.238832e-01 8.868590e+00 -9.707482e+00 -1.235241e+01 -8.040184e+00 -1.018435e+01 -6.066978e+00 -6.968962e+00 -3.133437e+00 4.543098e-01 -1.545056e+00 -1.486474e+00 3.055917e+00 7.139376e-01 1.052037e+00 4.379214e+00 3.077807e+00 2.644514e-01 -1.783253e+00 2.891667e+00 8.153622e-01 1.541899e+00 -1.158253e-01 
6.473561e+00 -1.436405e+00 -5.934574e+00 5.068678e-01 8.555996e+00 -6.278710e+00 -1.276467e+01 -5.676735e+00 -1.109167e+01 -1.016128e+00 -6.800655e+00 -2.845000e+00 3.277636e-01 -1.147769e+00 -3.425505e+00 3.128891e+00 1.325046e+00 3.650923e-01 5.097989e+00 4.049861e+00 3.038167e+00 1.598349e-01 3.634560e+00 2.340973e+00 5.406328e-01 -1.071581e-01 
7.187748e-01 -3.371980e+00 1.972126e+00 1.002426e+00 5.342440e+00 -2.741614e+00 -3.637406e+00 -2.977406e+00 -6.606477e+00 5.695996e-01 -9.127731e-01 -3.344689e+00 2.165710e-01 -1.843289e+00 -2.352089e+00 2.642205e+00 1.252626e+00 7.498072e-01 2.516620e+00 5.993077e+00 3.145723e+00 1.741049e+00 3.898583e+00 2.859984e+00 1.846106e+00 -9.011026e-02 
1.194950e+00 -6.221426e+00 2.251387e+00 5.502727e+00 1.336534e+01 8.373792e-01 4.045623e+00 2.491765e+00 -2.145414e+00 8.802929e+00 -6.596982e-02 1.465523e-01 1.596342e-01 -1.144314e+00 -9.155024e-01 1.065290e+00 1.600411e+00 8.797079e-01 2.021326e+00 7.143139e+00 2.697254e+00 1.122061e-01 2.206852e+00 2.098354e+00 1.097849e+00 -6.394406e-02 
-7.265425e-02 -5.522057e+00 1.493912e+00 3.889083e+00 1.021295e+01 -6.824270e-01 9.207832e+00 3.604183e+00 -5.952228e+00 8.516409e+00 3.963614e+00 4.601316e+00 8.782321e-02 4.391885e-02 -7.828011e-02 -2.342432e-01 1.709766e+00 -1.212856e-01 2.088679e+00 5.323566e+00 1.317510e+00 -4.192348e-01 2.100561e+00 8.877689e-01 7.616585e-01 -4.895053e-02 
1.147708e+00 -4.938879e+00 -3.690176e-01 7.065596e+00 1.051928e+01 2.798327e+00 1.652840e+01 4.518740e+00 -1.085776e+01 6.044729e+00 1.252922e+00 -1.328757e+00 7.241726e-02 -2.844481e-01 -5.125890e-02 -9.174480e-02 -4.605661e-02 -2.961312e+00 9.874783e-02 2.440737e+00 -7.275249e-02 -5.809947e-01 -2.690532e-01 -8.525975e-01 -1.090372e+00 -4.111993e-02 
9.619899e-01 -4.404655e+00 2.111113e+00 8.769819e+00 6.159043e+00 6.721305e+00 1.673904e+01 2.596660e+00 -4.346478e+00 1.245150e+01 2.866625e+00 1.201258e+00 1.542681e-02 -4.496182e-01 -9.099622e-02 9.863947e-01 4.799461e-03 -3.187235e+00 -3.410541e-01 -3.297680e-01 -8.495623e-01 1.036599e+00 -1.882198e-01 -1.347697e+00 -5.439160e-01 -2.875150e-02 
-7.446132e-01 -7.036422e+00 1.484062e+00 2.832075e+00 5.857387e-01 -2.370748e+00 1.248371e+01 2.631764e+00 -5.853262e+00 5.490116e+00 -3.780463e+00 -3.605277e+00 -9.767294e-03 -1.026571e+00 -1.545548e-01 1.652113e+00 -2.568465e-01 -2.780164e+00 -1.028420e+00 -1.949850e+00 -2.840147e-01 1.830742e+00 -9.538364e-01 -9.710730e-01 1.398235e+00 -2.182102e-02 
-1.374585e+00 -4.928267e+00 5.499345e+00 6.029840e+00 -7.564502e-01 1.968395e-01 9.581341e+00 2.998586e-01 -3.271481e+00 7.852617e+00 -2.581795e-01 3.019997e+00 -1.484203e-02 -8.529173e-01 1.699949e-01 1.667019e+00 2.368776e-01 -1.303966e+00 6.037683e-02 -1.409587e+00 -2.422209e-01 1.355626e+00 -2.090780e+00 -1.254935e+00 1.183340e+00 -8.178783e-03 
-2.816860e+00 -5.449847e+00 6.197432e+00 7.151353e+00 7.620335e-02 9.184599e-01 1.035800e+01 4.247067e+00 -2.241550e+00 3.574990e+00 -2.040040e+00 4.753049e+00 -2.155340e-02 -2.353168e-01 9.479273e-01 1.939447e+00 1.397328e+00 3.325257e-01 1.735596e+00 -1.432006e+00 -4.179756e-01 2.276812e+00 -2.032223e-02 3.882089e-01 1.800815e+00 -3.048241e-03 
-2.266473e+00 -4.347968e+00 8.089524e+00 7.794568e+00 -1.060176e-01 5.378586e+00 1.075395e+01 5.779040e-01 6.257944e-01 2.955168e+00 -4.278262e+00 2.938797e+00 -1.957405e-02 -1.776533e-02 1.178346e+00 1.953484e+00 8.878391e-01 1.095181e+00 1.136189e+00 -4.271038e-01 -3.852571e-01 5.244822e-02 -7.955469e-01 -7.085527e-01 9.133863e-01 -7.156849e-03 
-1.475253e+00 -2.586935e+00 9.886209e+00 8.936352e+00 1.923151e+00 3.716361e+00 4.737370e+00 4.028635e-01 3.582161e+00 7.837229e+00 1.706224e-01 5.439400e+00 -2.264249e-02 8.300161e-01 2.309586e+00 2.160310e+00 5.714315e-01 2.080370e+00 1.600320e+00 8.054252e-02 -9.486622e-01 -9.988712e-01 -1.207743e+00 -1.027591e+00 5.003688e-02 7.475972e-04 
-2.134215e+00 -4.679903e-01 1.342238e+01 9.576537e+00 3.795981e+00 4.478832e+00 1.025614e+01 2.956748e-01 -5.921095e+00 1.743763e+00 -4.906275e+00 7.243753e+00 -5.008173e-02 1.053408e+00 2.806037e+00 1.288690e+00 1.306344e+00 2.572354e+00 -2.908920e-01 -6.724115e-02 -5.203086e-01 -1.608917e+00 -1.064985e+00 -5.966847e-01 3.018325e-01 -2.225482e-03 
1.267092e+00 4.158092e+00 1.433255e+01 9.117526e+00 8.527056e+00 9.369939e+00 1.100962e+01 -3.551292e-01 -3.962462e+00 -1.858025e+00 -6.863988e+00 2.850756e+00 -2.561569e-03 4.141147e-01 1.810707e+00 3.709175e-01 1.391035e+00 1.727303e+00 -1.920477e+00 -9.298973e-01 -4.920791e-01 -7.832116e-01 -4.684457e-01 4.007998e-01 1.268454e-01 -8.680058e-03 
1.629395e+00 6.309706e+00 1.230980e+01 1.423570e+01 9.453798e+00 1.097337e+00 7.281621e+00 -1.644643e+00 -3.646480e+00 2.477871e+00 -3.744380e+00 5.742282e+00 -4.074192e-02 -7.394252e-02 7.901098e-01 -8.421774e-01 -2.151599e-01 -6.944601e-02 -2.407353e+00 -2.088957e+00 8.003677e-01 2.142739e+00 3.026316e-01 4.707136e-02 -8.162801e-01 -1.692232e-02 
-1.286484e+00 3.077753e+00 1.229708e+01 1.356195e+01 7.730760e+00 -4.195278e+00 1.575142e+00 -1.087373e+00 -1.471204e+00 5.127947e+00 1.593674e+00 6.824363e+00 -7.071269e-02 -4.381433e-01 5.308037e-02 -1.331282e+00 -1.084155e+00 -9.114197e-01 -1.302840e+00 -2.143290e-01 1.502654e+00 8.801253e-01 3.505859e-01 -1.368001e-01 -4.235686e-01 -2.377499e-02 
-1.227139e+00 4.022728e+00 1.022923e+01 6.278527e+00 3.846899e+00 -7.753225e-01 4.528594e+00 4.663636e+00 3.546970e+00 -2.360644e-01 -8.899749e+00 1.175550e+00 -1.006178e-01 -3.304874e-01 5.282565e-01 -6.801101e-01 -1.007558e+00 1.799308e-01 1.389551e+00 1.435736e+00 8.678509e-01 4.006225e-01 -6.938911e-03 -8.003458e-01 -9.281591e-01 -1.098660e-02 
5.046425e-01 5.566983e+00 8.716433e+00 7.675339e+00 6.773406e+00 3.792069e+00 1.131449e+01 4.004002e+00 -3.158560e+00 1.251872e+00 -4.970304e+00 3.016279e+00 -9.149861e-02 3.808134e-01 1.282295e+00 -4.908195e-01 -5.289659e-01 9.372196e-01 1.451366e+00 1.106535e+00 -3.893252e-01 1.318977e-01 -2.861375e-01 -7.888955e-01 -9.538305e-01 -5.123687e-03 
-9.186053e-01 7.706374e+00 1.069958e+01 1.214122e+01 1.083213e+01 4.051417e+00 9.590625e+00 1.489241e-01 -7.996893e-01 4.381214e+00 -4.464120e+00 3.005528e+00 -8.528197e-02 4.572720e-01 7.683412e-01 -4.127105e-01 -1.529622e-02 1.029776e+00 9.791140e-02 -6.859688e-02 -3.152220e-01 1.050751e+00 8.417479e-01 1.504050e+00 3.854933e-01 -2.984703e-03 
4.633155e-01 7.647404e+00 9.607812e+00 7.985770e+00 8.924242e+00 6.481811e-01 4.576804e+00 -7.766438e-01 1.361614e+00 1.388620e+00 -4.568617e+00 1.140221e+00 -1.039990e-01 2.897472e-02 4.068704e-01 -5.813506e-02 -3.333835e-01 8.071514e-01 -6.033413e-01 -1.129273e+00 2.904229e-01 2.847922e+00 1.458121e+00 1.934981e+00 3.493055e-01 -2.816558e-04 
1.079884e+00 6.824224e+00 7.719983e+00 6.046831e+00 7.920362e+00 1.286178e+00 7.554453e+00 5.477849e+00 6.540641e+00 3.904301e+00 -1.580346e+00 4.041045e+00 -1.092911e-01 2.744267e-01 6.091983e-01 8.741161e-01 -3.105566e-01 2.844579e-01 -7.688822e-02 -8.915434e-01 9.807317e-02 1.897964e+00 9.585379e-01 1.046286e+00 2.760050e-01 9.902680e-03 
-3.497286e-01 8.042410e+00 9.915554e+00 9.055615e+00 1.226505e+01 2.157982e+00 6.686213e+00 2.791654e+00 7.410883e+00 8.780935e+00 3.262713e+00 4.245049e+00 -8.090234e-02 -1.978747e-01 7.622049e-01 1.442608e+00 -2.479520e-01 2.088466e-01 -2.707936e-01 -7.364704e-01 -2.547952e-01 -5.240051e-01 4.538178e-01 8.260981e-01 -8.651030e-03 5.370510e-03 
8.600502e-01 1.055486e+01 1.491628e+01 1.005351e+01 1.058402e+01 2.912076e+00 4.078203e+00 -1.144859e+00 5.665498e+00 5.477745e+00 -3.148355e+00 2.833140e+00 -4.731691e-02 -1.708623e-01 6.669997e-01 1.708155e+00 7.844543e-01 1.190143e+00 1.878791e-01 -5.234224e-01 -3.678401e-01 -1.379086e+00 3.077982e-01 -5.308682e-01 -1.010985e+00 1.237419e-02 
-4.161410e-01 9.593109e+00 1.322270e+01 4.742669e+00 8.636648e+00 -1.518736e+00 2.632577e+00 1.260734e+00 -8.208392e-01 2.870987e+00 3.458780e-01 1.700918e+00 -1.081336e-01 1.613231e-01 5.405372e-01 4.756127e-01 1.653694e-01 3.239437e-01 7.132678e-01 4.929275e-02 7.836798e-01 -8.917874e-01 -9.314833e-02 -8.382998e-01 -6.640608e-01 6.730342e-03 
2.587786e-01 9.383873e+00 1.460719e+01 1.212558e+01 1.568528e+01 4.063932e+00 6.964159e+00 4.404108e+00 3.761074e+00 8.398266e+00 -2.776269e+00 2.581830e-01 -3.380454e-02 -2.924523e-01 4.551411e-03 -1.024067e+00 -5.709311e-01 -2.970993e-01 4.367088e-01 1.716707e+00 1.825573e+00 -6.803792e-01 -1.018560e+00 -1.133350e-01 6.986548e-01 -4.950809e-03 
7.575226e-01 1.133059e+01 1.244817e+01 8.846432e+00 1.133413e+01 5.148393e+00 5.489699e+00 3.935570e+00 3.904159e+00 6.854933e+00 -1.114829e+00 2.212223e+00 -5.400681e-02 -4.674416e-01 -2.083704e-01 -1.380896e+00 -3.697650e-01 -7.119979e-01 1.573978e+00 2.244676e+00 9.926205e-01 1.898801e+00 -2.708807e-01 -4.484935e-01 1.075154e+00 -4.280162e-03 
-1.189043e+00 9.708879e+00 1.018322e+01 5.146976e+00 7.749777e+00 1.762056e+00 1.123318e+01 6.645587e+00 -9.889722e-02 -1.607029e+00 -2.984677e+00 6.070761e+00 -9.913433e-02 -1.333372e-01 -3.595829e-03 -8.379837e-01 -9.291965e-01 -1.392707e+00 4.821753e-01 9.356816e-01 1.864803e-01 5.007806e-01 -5.619472e-01 1.002451e-01 6.593035e-01 -9.312796e-03 
-2.029438e+00 8.388754e+00 8.530208e+00 6.383143e+00 9.044409e+00 7.502095e+00 1.172145e+01 5.103097e+00 1.060315e+01 6.519231e+00 -1.792385e+00 4.170401e+00 -9.686947e-02 3.026586e-02 -2.026999e-01 -3.108493e-01 -5.967170e-01 -1.720115e-01 3.608619e-01 4.325136e-01 3.158983e-01 -4.302137e-02 3.615931e-01 -3.034862e-01 -9.887249e-01 -7.669306e-03 
9.855733e-01 1.083681e+01 1.237625e+01 8.711237e+00 9.866605e+00 5.297957e+00 8.526694e+00 4.752746e+00 2.915479e+00 5.756382e+00 -1.936265e+00 2.575612e+00 -5.893719e-02 3.872156e-01 1.452862e-01 4.955725e-02 -4.434947e-01 3.703025e-01 4.528046e-01 -7.171274e-01 9.901736e-02 -3.859769e-01 1.163841e+00 -1.707657e-01 -1.926340e+00 -4.221761e-03 
-1.784563e-01 9.753124e+00 9.797404e+00 4.080716e+00 9.415663e+00 5.184751e+00 9.005510e+00 6.461482e+00 2.181863e+00 4.981193e+00 -3.156466e+00 -9.838269e-01 -1.124519e-01 2.537935e-01 1.645054e-01 -4.444957e-03 -9.235374e-01 2.915649e-02 -4.747895e-01 -4.953056e-01 4.425505e-01 -1.757620e+00 -3.851264e-01 -3.948361e-01 -1.386789e+00 -8.467960e-03 
