-7.162046e+00 8.959286e+00 4.982513e+00 8.957892e-01 1.310915e+00 -6.545197e-01 6.457939e-01 7.948409e+00 -2.609192e-01 1.193916e+01 6.247479e+00 7.323439e+00 -1.512927e-01 -3.418303e-01 -5.014140e-01 -1.085656e-01 -1.394401e-01 2.278531e-01 -4.550948e-01 -1.729320e-01 -2.705477e-01 -5.674853e-02 -1.536790e+00 2.170058e-01 -2.764826e-01 0.000000e+00 
-7.740420e+00 6.446198e+00 3.634758e+00 9.670892e-01 2.144833e+00 -2.857956e+00 -1.427631e+00 6.390936e+00 -2.393178e+00 1.064616e+01 5.757078e+00 5.581946e+00 -1.512927e-01 -2.896720e-01 -2.895773e-01 3.569639e-01 -2.522559e-01 -3.383985e-01 -5.610561e-01 -5.412412e-01 -9.650900e-01 5.061887e-01 -7.888917e-01 2.857184e-02 -4.486561e-01 0.000000e+00 
-8.582010e+00 7.708760e+00 5.113564e+00 1.629388e-01 2.033222e+00 -1.828275e+00 8.178468e-01 7.374407e+00 5.214676e-01 4.901704e+00 7.577708e+00 6.811772e+00 -1.512927e-01 -1.878679e-01 3.082013e-03 1.776038e-01 1.415803e-01 -9.007015e-02 -2.703124e-01 9.183998e-01 1.108109e-01 1.580302e+00 -2.557728e-01 -5.950535e-01 6.185360e-01 0.000000e+00 
-7.900424e+00 8.136662e+00 6.701808e+00 9.348392e-04 -7.422304e-01 -2.872922e+00 -2.146439e+00 3.409961e+00 1.878831e+00 1.151343e+01 5.725224e+00 5.335992e+00 -1.512927e-01 1.533085e-01 1.351213e-01 -4.551628e-01 -7.294222e-01 -1.754033e-01 8.281760e-02 9.497492e-01 1.046926e+00 1.360023e+00 -7.979898e-02 -6.646500e-01 1.763755e+00 0.000000e+00 
-8.021383e+00 8.129464e+00 4.337008e+00 2.086768e+00 2.304096e+00 -1.998599e+00 5.597197e+00 9.992951e+00 5.504587e+00 1.022666e+01 3.288139e+00 1.053910e+01 -1.512927e-01 5.741140e-01 -5.704901e-02 -1.656593e+00 -1.680207e+00 -1.159732e+00 -1.292814e+00 -2.159764e-01 1.154327e+00 8.234465e-01 4.408294e-01 4.613600e-01 2.000903e+00 0.000000e+00 
-7.254191e+00 6.911453e+00 1.747222e+00 -3.641936e+00 1.132380e+00 -2.358706e+00 9.314396e-01 1.031630e+01 1.915380e+00 7.584689e+00 4.578613e+00 1.253706e+01 -1.512927e-01 5.452091e-01 -6.397615e-02 -9.357409e-01 -1.364478e+00 -9.609194e-01 -8.206145e-01 -4.713210e-01 5.558687e-01 -7.391669e-02 -1.222765e+00 5.116212e-01 5.615081e-01 0.000000e+00 
-6.034557e+00 8.036119e+00 -6.921077e-01 -6.416661e+00 -4.702741e+00 -8.549455e+00 -1.800974e+00 9.692874e+00 4.620426e+00 9.070219e+00 1.045781e+01 1.321575e+01 -1.512927e-01 6.329689e-01 5.353705e-01 2.590800e-01 -6.659887e-01 -8.013229e-01 1.557843e-01 -8.268430e-01 -2.104614e+00 -1.094322e+00 -1.079592e+00 8.085519e-02 -1.431370e+00 0.000000e+00 
-6.167792e+00 7.863454e+00 4.537662e+00 -2.569738e+00 -2.043408e+00 -3.700566e+00 -8.039579e-01 6.339343e+00 1.951328e+00 5.977823e+00 4.698493e+00 6.805203e+00 -1.512927e-01 -3.193808e-02 3.457253e-01 8.564816e-01 1.376193e+00 3.867372e-01 2.221762e+00 6.355826e-01 -1.737755e+00 -4.157146e-01 2.851102e-01 2.487976e-01 -1.837106e+00 0.000000e+00 
-5.399739e+00 1.033032e+01 4.237187e+00 -1.779275e+00 -1.146245e-01 -5.487474e-01 2.330681e+00 1.458361e+00 1.500463e-02 5.632137e+00 3.632475e+00 6.248177e+00 -1.512927e-01 -1.456683e-01 1.392789e-01 5.672456e-01 1.949608e+00 1.538817e+00 2.927700e+00 1.829688e+00 5.149890e-01 -6.486802e-01 8.385118e-01 -2.442065e-01 -1.982866e+00 0.000000e+00 
-7.731290e+00 7.492981e+00 3.564982e+00 9.203332e-01 7.720072e-01 4.749748e+00 2.043525e+00 5.744780e+00 2.139517e+00 1.072928e+01 9.235270e+00 6.835319e+00 -1.512927e-01 -4.070558e-01 -3.935148e-01 -3.288711e-01 1.123555e+00 4.530656e-01 4.297202e-02 9.902242e-01 1.991131e+00 8.058464e-01 1.618723e+00 7.698795e-01 -1.483791e+00 0.000000e+00 
-5.981149e+00 8.917750e+00 2.630460e+00 1.586342e+00 1.583637e+00 1.863889e+00 5.923726e+00 1.256510e+01 1.282930e+00 1.088705e+01 6.968392e+00 3.286363e+00 -1.512927e-01 -1.624177e-01 -7.198852e-01 -5.599104e-01 -1.500526e-01 -6.484038e-01 -9.350470e-01 -8.924502e-01 1.350751e+00 -4.775444e-01 -2.362875e-01 -5.272843e-01 -1.964580e+00 0.000000e+00 
-7.912365e+00 6.602162e+00 3.696670e+00 1.365230e+00 -6.272111e-01 -4.692024e+00 2.350641e+00 1.074163e+01 5.346597e+00 1.144398e+01 6.879932e+00 8.671563e-01 -1.512927e-01 8.188858e-02 -1.255688e-01 3.813304e-02 -3.262083e-01 -8.480287e-02 -1.765062e+00 -1.093900e+00 -1.181038e+00 -1.132642e+00 -5.739593e-01 -8.656505e-01 -5.655757e-01 0.000000e+00 
-6.121290e+00 7.176299e+00 1.371792e+00 -2.751987e+00 -2.657034e+00 -5.030963e-01 -2.285128e+00 5.713690e+00 -3.976257e+00 4.093348e+00 2.173723e+00 -5.906429e-01 -1.512927e-01 9.661878e-01 -2.946324e-01 -6.105257e-02 -1.232405e-01 -2.762391e-01 -1.162962e+00 -1.459669e+00 -1.695512e+00 -3.938851e-01 -4.507838e-01 -1.003045e+00 1.266029e+00 0.000000e+00 
-7.251777e+00 7.735863e+00 4.384982e+00 1.458456e+00 2.468328e+00 -2.892069e+00 6.784506e-01 3.265295e+00 -8.940984e-01 1.125634e+01 7.304352e+00 5.945943e+00 -1.512927e-01 2.889448e+00 -7.803174e-01 -2.875791e-01 -6.426876e-01 -2.032109e+00 -9.916140e-01 -2.049489e+00 -2.755423e-01 9.487962e-03 -1.309475e+00 -2.116620e+00 7.808703e-01 4.491687e-02 
-1.480505e+00 6.877738e+00 1.981041e+00 9.235269e-01 -1.345328e+00 -4.850897e+00 -5.385263e-01 7.825706e+00 2.433853e+00 8.726955e+00 1.740957e+00 7.077114e+00 -1.512927e-01 2.597784e+00 -4.733613e-01 2.634114e-01 -2.513618e-02 -1.332630e+00 -2.497950e+00 -2.266249e+00 -2.708642e-01 3.847042e-01 -1.669361e+00 -2.466079e+00 -2.620130e-02 5.453688e-02 
4.214483e+00 2.849856e+00 1.954150e+00 -3.685964e+00 -1.144361e+01 -7.476194e+00 -8.770103e+00 8.307911e+00 2.188982e+00 2.579807e+00 -3.486784e+00 9.376292e-01 7.329166e-02 9.343761e-01 -6.710495e-01 -3.202774e-01 1.172132e+00 -4.890998e-01 -4.500677e-01 -2.256160e+00 -8.659643e-01 -1.126517e+00 -2.938825e+00 -1.924410e+00 -9.787671e-01 4.241499e-02 
1.134501e+00 7.252496e+00 3.904264e+00 -3.054571e-01 -2.364216e+00 -1.070078e+01 -8.892098e+00 1.838061e+00 -3.594277e+00 8.480501e-02 -4.761104e+00 1.782507e+00 9.099543e-03 -1.851775e+00 -2.988490e-01 -2.505880e-01 1.577943e+00 2.680538e+00 1.053579e+00 1.339410e+00 -5.518605e-01 -9.215624e-01 6.158738e-02 -2.132397e-01 2.322994e-01 2.206637e-02 
-3.887399e+00 4.193236e+00 1.821983e+00 7.933609e+00 5.322733e-01 -2.217464e+00 -6.425566e+00 1.929296e+00 -3.512620e+00 8.832865e-01 9.333358e-01 3.699410e+00 -1.941383e-02 -1.864534e+00 1.034098e+00 -4.712940e-01 1.154402e+00 3.415543e+00 2.508028e+00 2.755643e+00 -1.522034e+00 -2.291918e+00 6.628782e-01 2.078161e-01 1.378363e+00 -1.817307e-02 
-6.688439e+00 4.711803e+00 7.941847e-01 3.003457e+00 6.069423e+00 -2.212365e+00 4.986257e+00 8.255712e+00 6.768419e-01 9.883152e+00 -1.535301e+00 6.857720e+00 5.391896e-03 -7.097437e-01 -7.325848e-01 -1.570661e+00 -3.298919e-01 -2.735573e-01 1.002539e+00 8.105698e-01 -1.356083e+00 -1.680102e+00 4.589520e-02 5.920200e-02 1.080745e+00 8.446252e-03 
-1.196719e+00 9.290691e+00 1.152719e+00 4.315900e-01 1.417286e+00 8.197349e-01 -1.931067e+00 -2.511085e+00 -1.140617e+01 9.950247e-01 -4.060605e+00 5.291836e+00 -1.571989e-02 8.028128e-01 -2.465303e+00 -2.063333e+00 -7.059313e-01 -2.553710e+00 -2.473108e-01 -1.151147e+00 9.431247e-02 -1.092869e+00 2.852201e-01 -4.332194e-01 3.610757e-01 8.506576e-02 
-3.759558e+00 1.040845e+00 -3.614409e+00 1.796093e+00 -4.174509e+00 -7.206689e+00 -7.086499e+00 -2.722163e+00 -8.048015e+00 2.584119e-01 -1.968123e+00 6.390021e+00 4.948384e-02 5.264493e-01 -3.009264e+00 -1.408584e+00 3.923525e-01 -2.655289e+00 -1.693306e-01 -3.038103e+00 4.719362e-01 -4.346833e-01 -5.063103e-01 5.805983e-01 -6.444463e-01 8.265679e-02 
-1.337776e+00 -6.297802e+00 -6.290383e+00 5.007634e+00 -7.114310e+00 -9.568558e-01 -6.144920e+00 7.889796e+00 -4.614535e+00 7.121758e+00 -1.016350e+00 5.738639e+00 3.838690e-01 -2.313086e+00 -3.428679e+00 -3.256117e-01 -3.726948e-01 -4.288073e-01 -6.118436e-02 -1.783682e+00 1.159196e+00 1.258831e+00 -3.656252e-01 5.803866e-01 2.795294e-01 7.110001e-02 
-3.985664e+00 -2.540269e+00 -2.527186e+00 2.677197e+00 -2.941227e+00 -2.170723e+00 -8.097332e+00 5.414952e+00 -4.892391e+00 4.288234e+00 -1.544366e-01 3.412087e+00 2.188814e-01 -2.886520e+00 -1.293528e+00 7.695788e-01 -1.060235e+00 2.155652e+00 1.330329e+00 7.766520e-01 7.542982e-02 2.001260e+00 -3.648548e-01 6.215520e-02 -3.806954e-02 4.868268e-02 
-1.264909e+01 -6.062149e+00 -1.018950e+00 -1.872436e+00 -1.343391e+00 -2.004170e+00 -1.034406e+01 -7.836642e-01 -6.689826e+00 -2.848012e+00 -2.065515e+00 8.178450e+00 2.550814e-01 -2.956786e+00 5.827503e-02 7.661536e-01 -1.285073e+00 1.966681e+00 7.832462e-01 2.829495e+00 -6.022192e-01 3.566173e+00 4.088443e-01 -5.224473e-01 -4.150400e-01 4.003121e-02 
-1.253650e+01 -5.544623e+00 -2.402232e+00 -6.504911e-02 3.718292e+00 -3.138731e-02 -1.103670e+00 1.991716e+00 2.995928e+00 3.419023e+00 -1.132765e+00 4.979768e+00 3.572910e-01 2.920025e-01 5.967633e-01 -7.768922e-02 -5.516294e-01 7.564998e-01 6.203839e-01 3.441022e+00 6.860969e-01 3.711665e+00 1.421691e+00 -1.225124e+00 -4.949322e-01 9.804504e-02 
-1.184629e+01 -4.504250e+00 -2.522092e+00 -4.660732e-02 -6.106629e-01 1.889708e+00 4.505722e+00 6.590318e+00 9.272169e+00 9.600585e+00 -3.139422e+00 2.879598e+00 5.148202e-01 5.633294e+00 1.212016e+00 -1.463932e+00 -2.003253e+00 -1.196320e+00 9.823405e-01 1.214520e+00 -1.254413e+00 1.710142e+00 1.356748e+00 -9.291126e-01 -3.582639e+00 1.267759e-01 
-2.927055e+00 -3.354018e-01 -2.164062e+00 -9.938647e-01 4.749079e-01 -1.015743e+00 1.682890e+00 5.158446e+00 5.684939e+00 5.172392e+00 -5.743101e+00 3.586852e+00 5.792372e-01 6.566390e+00 -2.902829e-01 -2.288328e+00 -3.769622e+00 -2.606722e+00 1.788400e+00 -2.593374e+00 -3.460067e+00 -1.222888e+00 -2.006937e+00 -5.912704e-01 -5.532229e+00 1.400884e-01 
1.071265e+01 -2.606678e+00 -8.457698e+00 -1.142430e+01 -5.703297e+00 3.399710e+00 -5.664739e+00 -8.639093e+00 5.163807e-01 3.059046e+00 -4.405910e+00 -9.038288e+00 7.779877e-01 4.993727e+00 -1.767447e+00 -2.590903e+00 -3.895718e+00 -1.606886e+00 2.040511e+00 -3.745785e+00 -4.841166e+00 -2.055799e+00 -4.413667e+00 -7.992166e-01 -6.078526e+00 1.214259e-01 
9.015981e+00 -7.944823e+00 -1.087607e+01 -1.322431e+01 -6.769002e+00 8.155613e+00 -8.985310e+00 -7.693912e+00 1.259383e+00 -3.344893e+00 -3.455873e+00 -1.672244e+01 9.261495e-01 1.497002e+00 -2.820013e+00 -1.767184e+00 -2.564165e+00 -2.731613e-01 1.933103e+00 -2.146986e+00 -3.461066e+00 -9.853318e-01 -3.437479e+00 -6.739240e-01 -4.570679e+00 9.318084e-02 
7.150828e+00 -9.536772e+00 -1.112060e+01 -1.340997e+01 -5.023139e+00 7.506586e+00 -8.889106e+00 -1.118933e+01 1.205953e+00 -8.209108e+00 -8.279119e+00 -1.735838e+01 9.484938e-01 -1.317107e+00 -2.295882e+00 -3.796085e-01 -2.615414e-01 1.596330e+00 9.452872e-02 -2.826625e-01 -1.765792e+00 -2.614068e-01 -2.696265e+00 -6.150054e-01 -1.145026e+00 4.269097e-02 
6.338868e+00 -1.097042e+01 -9.668532e+00 -1.282185e+01 -1.230978e+00 6.596336e+00 -7.439855e+00 -1.087177e+01 4.134939e-01 -6.380927e+00 -7.176116e+00 -1.510650e+01 9.598883e-01 -8.723390e-01 -1.167851e+00 1.370173e-01 7.273771e-01 2.037139e+00 -6.331207e-01 8.929841e-01 -2.152785e+00 -4.855501e-03 -9.147149e-01 1.661104e-01 1.019231e+00 1.389467e-02 
5.465676e+00 -1.257329e+01 -1.095951e+01 -1.293323e+01 -4.906578e-01 4.651992e+00 -7.850779e+00 -1.587913e+01 -3.677087e-01 -8.904261e+00 -5.620815e+00 -1.557139e+01 9.745731e-01 -2.387746e-01 -6.429570e-01 5.375944e-01 1.528342e+00 2.067286e+00 2.949629e-02 2.042040e+00 -1.843342e+00 1.211116e+00 3.727217e-01 1.834219e+00 2.194617e+00 1.078572e-02 
5.496861e+00 -1.226582e+01 -1.027153e+01 -9.825799e+00 1.150455e+00 6.417307e+00 -5.039553e+00 -1.611294e+01 2.021936e+00 -7.570891e+00 -3.954473e+00 -1.251978e+01 9.825832e-01 2.214782e-02 -4.401451e-01 3.686225e-01 1.695790e+00 1.052194e+00 3.201432e-01 2.431873e+00 -2.268185e+00 1.608105e+00 1.922121e-01 1.223221e+00 2.214439e+00 8.387315e-03 
6.377958e+00 -1.210386e+01 -8.131131e+00 -7.266290e+00 4.122573e+00 7.743582e+00 1.209419e-01 -1.778546e+01 6.457310e+00 -5.750517e+00 -7.188454e-01 -7.678659e+00 9.910749e-01 7.791211e-02 -6.230844e-01 3.244210e-01 1.567687e+00 -1.972243e-01 5.242956e-01 2.134023e+00 -1.911870e+00 1.271048e+00 -1.502990e-01 -8.675766e-03 2.038524e+00 4.609966e-03 
5.993466e+00 -1.340586e+01 -9.239609e+00 -7.176373e+00 1.723376e+00 6.651258e+00 7.336471e-01 -2.125953e+01 5.041512e+00 -6.996738e+00 -3.510998e+00 -7.980668e+00 9.935740e-01 -1.559803e-01 -1.188988e+00 -1.758280e-01 3.509946e-01 -1.035264e+00 -2.321932e-01 5.758923e-01 -1.820334e+00 -3.064214e-01 -1.056750e+00 -1.278602e+00 8.031433e-01 2.631932e-03 
5.606935e+00 -1.511869e+01 -9.853364e+00 -6.419509e+00 -1.763240e+00 7.156495e+00 -6.726217e-02 -2.286518e+01 4.477745e+00 -9.942833e+00 -5.885932e+00 -7.648325e+00 9.921276e-01 -1.553689e-01 -9.992201e-01 6.187439e-04 2.505120e-01 -6.017791e-01 5.654063e-02 2.292352e-01 -6.163858e-01 -2.734872e-01 -8.441067e-01 -9.513637e-01 5.852306e-01 1.903152e-03 
5.102471e+00 -1.670334e+01 -1.028955e+01 -8.494216e+00 -1.082958e+00 5.549884e+00 -2.065989e+00 -2.267475e+01 1.479612e+00 -1.075848e+01 -7.763938e+00 -8.519229e+00 9.952165e-01 -6.003533e-02 -3.778482e-01 2.139665e-01 5.720755e-01 3.000162e-01 2.358790e-01 4.651661e-01 1.637787e-01 6.208504e-01 -6.069648e-01 1.186728e-01 7.281755e-01 1.710796e-03 
6.046611e+00 -1.545122e+01 -7.603065e+00 -5.354809e+00 2.516844e+00 8.576971e+00 2.666936e+00 -2.015977e+01 6.870824e+00 -8.090178e+00 -3.349194e+00 -4.483226e+00 9.997694e-01 1.438581e-01 2.214313e-01 1.583946e-01 1.049094e+00 7.675458e-01 5.580708e-01 6.041903e-01 6.663427e-01 1.017978e+00 -7.669564e-02 8.712851e-01 7.457415e-01 1.467848e-03 
5.473451e+00 -1.512884e+01 -9.294926e+00 -4.848346e+00 1.083415e+00 7.120414e+00 1.692379e+00 -2.179334e+01 6.949224e+00 -1.095789e+01 -4.186003e+00 -5.922340e+00 9.983070e-01 2.676675e-02 4.261772e-01 -4.066088e-01 1.036426e+00 -9.646471e-02 1.086083e-01 2.465414e-01 1.523966e-01 6.632770e-01 -5.943227e-01 3.828448e-01 7.124052e-02 5.297482e-04 
6.140736e+00 -1.479879e+01 -9.558704e+00 -2.996976e+00 9.913030e-01 9.161583e+00 1.074506e+00 -1.997417e+01 6.832830e+00 -1.022661e+01 -3.318474e+00 -5.218061e+00 9.979216e-01 -2.199666e-01 4.291973e-02 -7.423684e-01 1.418091e-01 -6.327602e-01 -5.962109e-01 -6.853813e-01 -1.961546e-01 -5.573710e-01 -9.157704e-01 -5.321447e-01 -7.711603e-01 9.433627e-05 
5.189243e+00 -1.489867e+01 -1.134478e+01 -4.491003e+00 -8.025107e-01 5.800620e+00 -3.706741e-02 -2.200557e+01 4.814994e+00 -1.266188e+01 -5.865074e+00 -7.795609e+00 9.987892e-01 -1.476680e-01 -3.024796e-01 -5.153984e-01 -1.522913e-01 -6.247705e-01 -6.552067e-01 -8.072599e-01 -2.403637e-01 -5.686539e-01 -7.890371e-01 -6.634628e-01 -9.217781e-01 1.821637e-04 
5.088882e+00 -1.535170e+01 -1.028998e+01 -4.824435e+00 2.960062e-01 6.255814e+00 1.047525e-01 -2.103443e+01 5.151084e+00 -1.181703e+01 -5.170382e+00 -7.402393e+00 1.000000e+00 -6.560371e-02 -1.417784e-01 -9.004164e-02 1.211381e-01 4.223919e-02 -4.958192e-01 -4.678936e-02 1.504007e-01 2.424866e-01 -3.167107e-01 -2.965186e-01 -2.532066e-01 2.453923e-05 
5.261038e+00 -1.636478e+01 -1.150628e+01 -4.696073e+00 -1.692789e+00 5.297266e+00 -1.859044e+00 -2.246502e+01 4.946828e+00 -1.410786e+01 -6.577363e+00 -9.439065e+00 9.981787e-01 3.393617e-01 -4.780853e-01 3.567150e-01 6.252509e-01 2.274101e-01 2.983411e-01 -1.143287e-01 9.009920e-01 6.867035e-01 -9.806442e-02 3.668650e-01 3.588400e-02 -5.187035e-04 
5.776820e+00 -1.477462e+01 -9.928162e+00 -2.288751e+00 1.647638e+00 6.934165e+00 1.751547e+00 -1.899244e+01 7.979346e+00 -1.108717e+01 -4.444922e+00 -5.662366e+00 9.983495e-01 4.027818e-01 -2.979845e-01 5.419844e-01 6.776649e-01 3.608390e-01 1.796503e-02 2.766629e-01 1.006556e+00 8.533741e-01 -1.520811e-01 4.533749e-01 3.852553e-01 -4.853010e-04 
6.542082e+00 -1.757764e+01 -9.742112e+00 -2.632590e+00 -3.412762e-01 6.953150e+00 -1.432108e+00 -1.852160e+01 6.834381e+00 -1.351714e+01 -4.393479e+00 -8.486202e+00 9.970209e-01 3.129472e-01 -3.831133e-01 5.626154e-01 5.680998e-01 7.541426e-02 -2.971768e-02 1.343486e-01 1.078657e+00 3.844661e-01 -3.348909e-01 3.333936e-01 1.966841e-01 -1.443362e-03 
6.462269e+00 -1.623520e+01 -8.462143e+00 -2.467852e+00 1.424445e+00 5.517697e+00 1.274599e+00 -1.797337e+01 8.474178e+00 -1.287280e+01 -3.995449e+00 -5.952548e+00 9.981524e-01 2.657009e-01 -5.353445e-01 3.945965e-01 5.468575e-01 -6.585299e-01 1.182176e-01 -3.650093e-01 9.843380e-01 1.029956e-01 -1.097888e+00 2.802885e-01 -3.266875e-01 -2.366066e-03 
6.483049e+00 -1.755006e+01 -9.426211e+00 -1.766023e+00 -1.204121e+00 5.856911e+00 -9.488273e-01 -1.758128e+01 6.621742e+00 -1.488950e+01 -5.135132e+00 -8.310554e+00 9.910604e-01 3.842590e-01 1.060738e-01 3.118506e-01 1.291735e+00 -7.252285e-01 4.547006e-01 1.723121e-01 1.758798e+00 1.949820e-02 -4.409630e-01 4.029211e-01 3.341768e-01 -4.784131e-03 
7.134841e+00 -1.746514e+01 -8.113130e+00 1.225305e-02 -1.213589e+00 8.073372e+00 -3.151400e-01 -1.454091e+01 8.600644e+00 -1.589043e+01 -2.672654e+00 -7.383628e+00 9.894994e-01 2.174685e-01 2.692978e-01 -1.369781e-01 1.590258e+00 -1.140528e+00 -2.143436e-01 6.009263e-01 1.486366e+00 -2.740538e-01 -5.875918e-01 2.570907e-01 3.641453e-02 -8.251155e-03 
8.127091e+00 -1.643230e+01 -8.357366e+00 2.586034e+00 -2.648402e+00 7.948816e+00 2.243214e-01 -1.144384e+01 6.868639e+00 -1.421314e+01 -3.040271e+00 -6.099778e+00 9.774267e-01 8.790399e-02 7.078934e-03 3.327824e-01 9.823664e-01 -1.138322e+00 -1.414009e+00 8.443279e-01 1.604675e+00 -1.037814e+00 -6.022059e-01 -2.915139e-02 -1.839291e-01 -1.148183e-02 
6.727591e+00 -1.544759e+01 -9.681457e+00 3.307410e+00 -3.556055e+00 3.400026e+00 3.692656e+00 -1.361026e+01 6.980461e+00 -1.614894e+01 -3.757426e+00 -6.875863e+00 9.637135e-01 -6.991319e-02 -4.200975e-01 4.967027e-01 1.990433e-01 -1.773144e+00 -2.256844e+00 4.308154e-01 1.382939e+00 -1.875468e+00 -1.239630e+00 -4.380077e-01 -9.123155e-01 -1.505700e-02 
7.126194e+00 -1.852344e+01 -6.978136e+00 1.498230e+00 -5.724499e+00 1.123538e+00 1.268914e+00 -1.002323e+01 2.242762e+00 -1.777127e+01 -4.738503e+00 -9.484081e+00 9.465443e-01 -2.241895e-01 -6.203810e-01 9.080033e-01 -8.488308e-01 -2.308412e+00 -2.356808e+00 -2.988558e-01 1.745626e+00 -2.661208e+00 -1.835793e+00 -8.363736e-01 -1.040168e+00 -1.793184e-02 
7.285724e+00 -1.852005e+01 -6.319231e+00 1.551371e+00 -8.541264e+00 2.017893e-01 1.316640e+00 -8.336523e+00 1.536240e+00 -2.030951e+01 -4.013577e+00 -1.025305e+01 9.296557e-01 7.329014e-02 -1.335068e-02 1.196798e+00 -9.190060e-01 -2.599651e+00 -1.917136e+00 -4.456493e-01 2.689861e+00 -2.961027e+00 -1.229149e+00 -8.071421e-01 -3.323162e-01 -2.367449e-02 
6.727077e+00 -1.799797e+01 -5.498462e+00 -7.801009e-01 -1.169786e+01 -2.236108e+00 -8.194947e-02 -5.352576e+00 -3.715289e+00 -2.131182e+01 -7.094064e+00 -9.612020e+00 9.047964e-01 -1.863314e-01 1.027505e+00 5.318965e-01 -8.513972e-01 -2.946799e+00 -2.313093e+00 -4.643312e-01 2.565068e+00 -3.450593e+00 -1.714214e-01 -1.480752e+00 1.276293e-01 -2.740098e-02 
7.293600e+00 -1.577707e+01 -4.437303e+00 -1.484547e-01 -1.356763e+01 -4.505833e+00 2.139841e+00 -2.496278e+00 -4.845647e+00 -2.052441e+01 -6.615356e+00 -8.473475e+00 8.662149e-01 -3.447388e-01 1.570266e+00 4.065887e-01 -5.444853e-01 -2.849473e+00 -2.021162e+00 -8.371065e-02 2.257014e+00 -2.974425e+00 1.061464e+00 -1.027882e+00 -9.697390e-02 -2.498270e-02 
6.190599e+00 -1.475740e+01 -5.259618e+00 -1.908843e+00 -1.794531e+01 -8.088118e+00 -1.464342e+00 -1.180124e-01 -1.181926e+01 -1.852093e+01 -1.084137e+01 -9.735724e+00 8.412598e-01 -2.424928e-01 1.500231e+00 1.027213e+00 -1.031929e-01 -1.850196e+00 -1.100232e+00 6.526186e-01 1.688134e+00 -1.224664e+00 1.940867e+00 5.227645e-01 -1.902481e-01 -1.837877e-02 
5.830269e+00 -1.228901e+01 -4.405709e+00 -6.066842e-01 -1.966490e+01 -6.978014e+00 1.589283e+00 3.312654e-01 -9.283899e+00 -1.639763e+01 -7.279334e+00 -1.067607e+01 8.365105e-01 -2.589609e-01 1.128819e+00 1.815774e+00 1.558885e-01 -5.832321e-01 -1.672806e-01 1.943811e-01 8.772249e-01 -5.681780e-01 2.743914e+00 1.360855e+00 1.391054e-01 -1.377138e-02 
6.246279e+00 -1.224085e+01 -3.781924e-01 -1.066951e+00 -1.790020e+01 -6.501176e+00 3.456422e+00 1.674322e+00 -7.619484e+00 -1.367087e+01 -4.148252e+00 -9.461963e+00 8.277548e-01 7.467814e-02 1.199775e+00 2.441697e+00 7.185417e-01 1.060624e+00 3.246528e-01 3.169127e-01 4.126436e-01 9.212787e-01 3.131961e+00 2.827837e+00 6.834123e-01 -1.595530e-02 
5.970956e+00 -1.139126e+01 2.200855e+00 2.100418e-01 -1.650634e+01 -6.135707e+00 6.513643e-01 9.936790e-01 -9.786424e+00 -9.229870e+00 -3.157642e+00 -7.914828e+00 8.041105e-01 7.754976e-02 1.140077e+00 1.200875e+00 5.990905e-01 6.758650e-01 -1.164582e+00 -1.911476e+00 1.619240e-01 6.663339e-01 2.290120e+00 1.983278e+00 4.767641e-01 -1.768103e-02 
6.493647e+00 -9.207404e+00 3.645585e+00 1.275503e+00 -1.422147e+01 -6.886007e+00 5.891812e-01 1.613999e+00 -6.961603e+00 -6.445002e+00 1.236968e+00 -7.699285e+00 7.776833e-01 2.143054e-02 1.765781e+00 -1.131551e+00 2.542884e-01 -5.208107e-01 -2.964034e+00 -4.329156e+00 -4.997706e-01 2.514034e-01 1.345278e+00 2.740436e-01 -2.982515e-01 -2.338359e-02 
6.094334e+00 -8.105344e+00 -4.132247e-01 1.217541e+00 -1.812494e+01 -1.260851e+01 -6.534478e+00 1.171047e+00 -6.281171e+00 -8.559969e+00 -5.555677e-02 -9.173590e+00 7.731411e-01 4.908231e-01 1.930561e+00 -2.023635e+00 -9.984835e-01 -1.032877e+00 -3.756462e+00 -6.083880e+00 -7.690934e-01 2.357606e-01 4.893996e-01 -1.262849e+00 -7.713416e-01 -3.371232e-02 
6.291742e+00 -5.054905e+00 -4.728905e+00 -2.992584e-01 -1.969496e+01 -1.808495e+01 -1.459643e+01 -9.132152e-01 -8.115093e+00 -7.279434e+00 -4.329077e+00 -1.032384e+01 7.263216e-01 1.613522e-01 3.084903e+00 -3.151760e-01 -1.467966e+00 6.006258e-01 -2.767787e+00 -4.440142e+00 -8.341931e-01 -2.788180e-01 1.062972e+00 -2.777603e+00 9.790255e-01 -7.187988e-02 
8.526024e+00 -3.814705e+00 -3.730072e+00 -3.994995e+00 -1.893398e+01 -1.931855e+01 -2.217523e+01 -1.588181e+00 -8.030875e+00 -6.365655e+00 -6.688865e+00 -1.045926e+01 6.612298e-01 -2.678589e+00 3.741273e+00 2.523277e+00 1.313849e-01 4.949282e+00 7.932699e-01 6.442173e-01 -8.911638e-01 -1.662729e+00 1.527629e+00 -1.912723e+00 3.825413e+00 -1.030625e-01 
6.084563e+00 4.071792e+00 3.728129e+00 -3.458057e+00 -1.081382e+01 -1.736992e+01 -1.379115e+01 -1.177352e+00 -7.480840e+00 -2.227300e+00 -9.334394e+00 -2.161322e+00 4.742395e-01 -5.860293e+00 1.886231e+00 2.178910e+00 8.451867e-01 6.198546e+00 3.358513e+00 5.132633e+00 2.727445e-01 2.073942e-01 2.575896e+00 1.017968e+00 4.473372e+00 -7.804569e-02 
-7.195021e+00 6.037672e+00 7.974642e+00 3.453866e+00 2.180899e+00 -8.999673e+00 -3.716031e+00 -3.152704e+00 -1.491194e+01 -3.447889e+00 -7.116514e+00 5.872217e+00 3.838695e-01 -7.256700e+00 -8.242060e-01 -1.087162e+00 -2.269202e-01 4.518921e+00 3.546077e+00 6.161957e+00 2.488759e+00 1.998923e+00 2.934114e+00 3.300319e+00 4.391673e+00 -2.755998e-02 
-1.514920e+01 -5.499361e-01 3.132906e-01 2.022452e-01 7.403290e-01 -6.451819e+00 1.837134e+00 1.232769e+00 -3.637589e+00 4.141161e+00 9.745889e-01 3.877285e+00 4.747733e-01 -5.726883e+00 -3.214109e+00 -3.230343e+00 -1.469994e+00 2.297256e+00 2.710136e+00 2.773259e+00 3.105498e+00 3.577679e+00 2.399379e+00 3.080071e+00 2.674419e+00 2.856244e-02 
-1.714059e+01 -5.624870e+00 -7.458463e+00 -6.959747e+00 -2.116455e+00 -7.047210e+00 8.204141e-01 9.650554e+00 4.211223e-02 5.120683e+00 4.658237e+00 8.479801e+00 5.231630e-01 -2.300546e+00 -2.983787e+00 -2.763647e+00 -1.485322e+00 4.122197e-01 2.447640e-01 -1.021248e+00 2.600444e+00 4.260137e+00 1.720564e+00 2.168531e+00 2.279962e+00 3.667304e-02 
-1.757707e+01 -6.167484e+00 -4.707035e+00 -5.601221e+00 2.821136e+00 -4.795470e+00 -2.193084e+00 7.948509e+00 2.930528e+00 5.485308e+00 1.785874e-01 9.906981e+00 5.474049e-01 -5.215109e-01 -1.412430e+00 -9.855873e-01 -2.485341e-01 6.127664e-01 2.767283e-01 -2.232001e+00 1.175943e+00 1.155688e+00 2.700442e-01 7.348134e-01 1.052414e+00 9.872633e-03 
-1.748382e+01 -6.072490e+00 -3.333430e+00 -1.071011e+00 3.201594e+00 -8.604028e+00 -6.807162e+00 6.491646e+00 3.104684e+00 4.482855e+00 4.124143e+00 1.425718e+01 5.309188e-01 4.315721e-01 -2.149850e-01 -2.778530e-02 1.040714e+00 1.049494e+00 2.921487e-01 -1.417918e+00 1.920148e-01 -1.678334e-01 -3.152826e-01 5.675479e-01 -6.159487e-01 -5.022520e-03 
-1.758514e+01 -7.388274e+00 -6.677162e+00 -3.984793e+00 1.145137e+00 -4.289769e+00 -5.509082e+00 8.691938e+00 6.095641e-01 5.810296e+00 4.915703e+00 6.250667e+00 5.202585e-01 1.640891e+00 1.188152e+00 9.099939e-01 1.583834e+00 8.706405e-01 1.007922e-01 -2.942635e-01 -4.341362e-02 -8.411734e-01 -1.347195e+00 6.676061e-01 -1.857789e+00 -1.605918e-02 
-1.497869e+01 -6.089400e+00 -6.612326e+00 -2.564394e+00 3.969014e+00 -5.839316e+00 -4.611176e+00 1.023891e+01 3.634272e-01 3.381776e+00 5.127419e+00 7.228214e+00 5.116236e-01 3.019538e+00 2.901185e+00 2.461570e+00 1.946095e+00 1.070394e-01 1.489034e-01 9.010580e-01 -1.551831e+00 -2.078225e+00 -1.314558e+00 -3.262842e-01 -1.679324e+00 -1.773180e-02 
-1.062518e+01 -2.182705e-01 1.482383e+00 3.064641e+00 6.790628e+00 -5.673864e+00 -4.762394e+00 5.857807e+00 9.528947e-02 -7.001295e-01 3.014980e+00 4.132517e+00 4.767566e-01 2.375109e+00 2.691557e+00 2.806766e+00 1.688169e+00 2.384016e-01 -3.453726e-01 9.519233e-01 -1.771310e+00 -1.800222e+00 -1.016819e+00 -1.488596e+00 -6.550997e-01 -1.858123e-02 
-5.866114e+00 4.848434e+00 4.894648e+00 5.134748e+00 9.140451e-01 -7.167463e+00 -2.675216e+00 1.495543e-01 -7.029304e+00 1.165279e+00 3.443084e+00 6.919633e+00 4.640108e-01 1.164426e+00 8.935903e-01 1.482384e+00 -5.890669e-02 -3.337258e-01 9.829379e-01 2.023977e+00 -8.548285e-01 -5.717070e-01 -1.799239e-01 -1.463925e+00 -7.821697e-01 -2.548357e-02 
-1.026589e+01 6.005962e-01 1.603182e+00 6.064809e-01 3.864629e+00 -5.352559e+00 -1.717446e+00 4.880066e+00 -4.695182e+00 1.834450e+00 -1.685111e+00 3.129459e+00 4.511588e-01 1.266442e+00 -7.438783e-02 5.821691e-01 -9.531972e-01 -7.060596e-01 7.769644e-01 7.208563e-01 3.081486e-01 1.019809e+00 1.229447e+00 -3.633074e-01 -1.075750e-01 -3.605815e-02 
-9.336208e+00 -2.030882e+00 7.391942e-01 -1.629848e+00 3.763385e+00 -1.085280e+00 3.986233e+00 6.453640e+00 -9.987199e-02 1.214867e+00 1.578393e-01 3.818895e+00 3.970047e-01 1.916775e+00 -8.246096e-01 5.964271e-01 -1.216757e+00 -1.339302e+00 7.938208e-01 1.004809e+00 1.566025e+00 2.217308e+00 2.027952e+00 1.069837e+00 -4.332635e-01 -7.434252e-02 
-2.557920e+00 2.849448e+00 6.470956e+00 1.680952e+00 1.835661e+00 -4.830134e+00 -4.488837e+00 4.246507e+00 1.729616e+00 5.422314e+00 2.841065e+00 5.145011e+00 3.299689e-01 3.593882e+00 -4.991007e-01 9.549319e-01 1.085210e+00 -8.225978e-01 8.309337e-01 1.941090e+00 9.249907e-01 -2.317759e-02 5.706476e-01 2.056978e+00 -4.797104e-01 -1.042116e-01 
-1.362247e-01 -3.990400e-01 5.442897e+00 -1.486274e+00 -4.767983e+00 -3.459571e+00 3.734524e+00 8.296459e+00 8.448343e-01 9.511106e+00 6.529182e+00 3.745539e+00 1.528931e-01 3.759158e+00 6.148387e-01 6.461766e-01 3.634067e+00 1.153987e+00 1.424945e+00 3.417790e+00 1.439687e+00 -1.143005e+00 -2.462925e-01 5.160618e-02 -1.300359e+00 -9.111963e-02 
3.103531e+00 -2.710828e+00 4.025990e+00 5.960744e+00 4.017324e+00 -1.074447e-02 8.113859e+00 8.583611e+00 -5.283423e+00 5.395689e-01 5.414108e+00 7.675841e-01 5.215651e-02 2.709424e+00 1.845168e+00 -2.908047e-01 3.220828e+00 1.455334e+00 1.942501e+00 3.833622e+00 1.654013e+00 -7.603986e-01 -2.901317e-01 -6.875353e-01 -9.384382e-01 -5.968173e-02 
6.628858e+00 3.823450e+00 5.192560e+00 1.440059e+01 8.442488e+00 3.629750e+00 1.477384e+01 1.148352e+01 -2.308379e+00 2.424777e+00 -8.706512e-01 -4.941840e-01 8.031273e-02 1.777008e+00 3.339171e+00 -1.540609e-01 2.325363e+00 2.200070e+00 1.243677e+00 4.229878e-01 -5.530996e-01 -1.734757e-01 4.839633e-01 -1.095187e-01 1.189652e+00 -2.693070e-02 
7.606659e+00 9.964046e+00 5.142100e+00 9.841661e+00 2.507098e+00 1.337710e+00 9.159616e+00 1.092304e+01 -4.957708e-01 7.514819e+00 3.103306e+00 2.572682e+00 6.785047e-02 4.555892e-01 3.679203e+00 1.012756e+00 1.209349e-01 7.766018e-01 6.400992e-01 -1.789204e+00 -1.483390e+00 9.943941e-01 1.940128e+00 8.238102e-01 1.715592e+00 -1.424178e-02 
6.497252e+00 9.959380e+00 4.114537e+00 8.200081e+00 6.987477e+00 2.084588e+00 5.326585e+00 4.361245e+00 -2.416370e+00 8.443297e+00 7.136990e+00 8.791250e+00 1.039267e-02 -4.586408e-01 2.347160e+00 1.293352e+00 -1.227964e+00 7.020290e-01 -1.067500e-02 -2.764756e+00 -1.264097e+00 8.690343e-02 3.575528e-01 7.826003e-01 1.209399e+00 -1.618035e-02 
5.447280e+00 1.261722e+01 9.628782e+00 9.665672e+00 8.627838e+00 3.962333e+00 3.891465e+00 4.727801e+00 -2.574562e-01 7.230947e+00 5.529339e+00 4.702825e+00 1.590765e-02 -6.660423e-01 1.158171e+00 1.100352e+00 -2.766455e-01 1.469510e+00 -4.161840e-01 -8.252815e-01 -3.674769e-01 -1.081515e+00 -8.107302e-01 -4.156779e-01 3.816853e-02 -2.524677e-02 
5.415344e+00 1.423266e+01 9.415977e+00 8.348763e+00 8.892263e+00 2.264064e+00 3.584129e+00 8.260656e+00 -1.993019e+00 4.354477e+00 1.829334e+00 4.487737e+00 2.538240e-02 -6.774486e-01 8.856714e-01 1.409484e-01 -1.480487e+00 -5.484890e-01 -1.473969e+00 3.513197e-01 5.746087e-01 -1.145164e+00 -5.720955e-01 -6.329710e-01 1.330005e-01 -3.393571e-02 
4.817402e+00 1.361826e+01 7.993142e+00 8.384093e+00 8.902258e+00 -8.329476e-01 5.904436e+00 7.135952e+00 -6.115022e+00 5.505579e+00 3.678744e+00 4.915281e+00 -6.587827e-02 -5.777375e-01 6.411463e-01 -8.033136e-01 -1.911240e+00 -9.013389e-01 -1.611777e+00 6.969472e-01 1.680532e-01 -5.878230e-01 1.123911e+00 2.499478e-01 2.979288e-01 -3.450114e-02 
3.424948e+00 1.388722e+01 5.637099e+00 1.438435e+00 4.107823e+00 -2.887617e+00 6.076698e+00 6.030212e+00 -5.213409e+00 6.445504e+00 4.897432e+00 9.350025e+00 -1.183929e-01 -4.439774e-01 6.151096e-01 -4.206325e-01 -1.203561e+00 -8.654680e-01 -2.161233e-01 -1.209380e+00 -8.428960e-01 1.805841e+00 9.857185e-01 -8.317887e-01 -1.761037e+00 -2.104520e-02 
3.553791e+00 1.599567e+01 7.501654e+00 3.564634e+00 6.513364e+00 -1.520710e+00 6.129917e+00 6.683290e+00 -1.586377e+00 1.180499e+01 5.245028e+00 3.761325e+00 -8.471036e-02 -1.118298e-01 3.182929e-01 1.756381e-01 -2.296854e-01 5.497981e-01 1.505761e+00 -1.665083e+00 -4.472083e-01 1.908622e+00 1.665882e-01 -1.219015e+00 -1.157581e+00 6.057441e-03 
3.827262e+00 1.611950e+01 7.558559e+00 4.740687e+00 5.759370e+00 1.527329e+00 -2.575510e+00 4.272509e+00 4.771866e+00 6.133365e+00 -3.112752e+00 -3.740467e+00 -7.042754e-02 -2.009552e-01 2.469530e-01 4.718077e-01 1.430112e+00 2.171659e+00 2.780546e+00 -8.798012e-01 6.061386e-01 1.028626e+00 -5.185440e-01 -1.068830e+00 -9.616491e-01 1.335937e-02 
4.057096e+00 1.409358e+01 7.910603e+00 5.584540e+00 1.082547e+01 4.488384e+00 1.905125e+00 5.778763e+00 -1.564548e+00 6.494589e+00 1.588762e+00 5.672624e+00 -5.957377e-02 -2.768349e-01 -2.441368e-02 9.964879e-02 4.842911e-01 1.147440e+00 2.043983e+00 2.173826e-01 2.559435e-01 2.235322e-01 -1.569680e-01 5.837590e-01 2.594272e-01 -1.802790e-03 
2.168519e+00 1.607303e+01 7.791663e+00 7.579041e+00 1.281006e+01 8.010568e+00 3.790089e+00 9.513169e+00 -8.119047e-02 6.507983e+00 1.381416e+00 3.586130e+00 -6.416440e-02 -2.391835e-01 3.351856e-01 2.306567e-01 -1.401562e-01 8.557324e-02 5.388657e-01 1.686743e+00 -4.047844e-01 -4.954523e-01 5.189476e-01 1.862524e+00 1.394040e+00 -7.010162e-03 
2.998987e+00 1.589684e+01 7.883346e+00 4.566913e+00 8.725219e+00 5.457588e+00 4.034031e+00 5.342677e+00 1.957812e+00 1.083284e+01 5.916739e+00 1.395162e+00 -9.685588e-02 -1.369306e-01 2.968320e-01 7.317226e-02 -6.250181e-01 -6.949646e-01 3.435096e-01 8.949604e-01 -3.504953e-01 1.151798e+00 3.838450e-01 6.132245e-01 -7.094385e-01 -6.243205e-03 
3.160399e+00 1.689380e+01 8.725471e+00 4.548720e+00 7.237364e+00 3.737055e+00 4.793750e+00 2.466630e+00 5.334241e-01 6.558978e+00 4.035879e+00 5.368464e+00 -8.683729e-02 -2.092171e-02 -7.179002e-02 8.562920e-02 -6.827571e-01 -3.614408e-01 -8.025757e-01 -2.841475e-01 -3.072092e-01 3.901284e-01 1.322322e-01 2.128326e-01 -2.159449e-01 -8.474505e-03 
2.876503e+00 1.516736e+01 7.809560e+00 3.974610e+00 1.013700e+01 8.342688e+00 5.878096e+00 7.549556e+00 3.887137e+00 8.388317e+00 3.327653e+00 1.234264e+00 -7.945335e-02 -3.282638e-01 4.075661e-02 9.061852e-01 2.981174e-01 4.393277e-01 -9.588225e-02 5.534064e-01 1.071688e+00 -2.900624e-01 -1.330345e+00 -1.592071e+00 2.869837e-01 -4.806709e-03 
2.125153e+00 1.607882e+01 8.256702e+00 4.461407e+00 1.029697e+01 2.555140e+00 1.447319e+00 6.873683e+00 9.047893e-01 8.391405e+00 3.740122e+00 2.586855e+00 -1.152382e-01 -7.912559e-01 -6.140253e-01 3.304145e-01 -5.291653e-01 -3.936066e-02 -3.361229e-01 7.204353e-01 1.576620e+00 9.867416e-02 -1.440919e-01 -1.136441e+00 -8.424314e-01 -1.561464e-02 
1.875291e+00 1.650811e+01 1.264866e+01 6.101157e+00 9.392056e+00 5.569135e+00 8.474279e+00 8.497588e+00 3.218177e-01 3.264899e+00 -1.895739e+00 4.220885e+00 -1.066890e-01 -9.970707e-01 -1.041118e+00 -3.086718e-01 -1.328942e+00 -9.896099e-01 -3.442236e-01 5.790464e-01 5.498919e-01 -7.838221e-01 -3.538292e-01 -2.258003e-02 -2.584292e-01 -1.797331e-02 
-2.952747e-01 1.315329e+01 7.957996e+00 8.396199e-01 7.413033e+00 3.443217e+00 7.097836e+00 9.875712e+00 2.809454e+00 8.400228e+00 9.653692e-01 -3.370037e-01 -1.512927e-01 -5.494744e-01 -6.883454e-01 -8.136880e-01 -1.586124e+00 -6.944680e-01 -5.138636e-03 8.127370e-02 -3.469811e-01 -5.393957e-01 -9.312634e-02 3.259605e-01 -6.074162e-01 -1.167127e-02 
-8.986363e-01 1.142453e+01 6.415554e+00 -8.592064e-01 6.630918e+00 6.177531e+00 5.948070e+00 8.798001e+00 -9.843060e-01 6.614759e+00 4.602130e+00 1.404047e+00 -1.512927e-01 -3.529305e-02 4.080424e-01 -6.156099e-01 -7.231786e-01 -2.272291e-01 -1.032985e+00 -1.418305e+00 -5.815433e-01 -5.086654e-01 1.057704e-01 1.442384e+00 -6.124956e-01 -2.201700e-03 
7.647452e-01 1.517888e+01 7.304813e+00 1.096970e-02 8.205195e+00 2.225248e+00 3.116792e+00 4.988571e+00 -1.139127e+00 6.250843e+00 2.120990e+00 9.581928e-01 -1.512927e-01 8.610515e-02 8.000311e-01 4.873884e-01 1.214305e+00 -6.223224e-01 -6.488266e-01 -4.715156e-01 -4.119380e-01 -9.907858e-01 -5.589239e-01 6.875807e-01 1.570662e+00 3.359520e-03 
1.168816e+00 1.753553e+01 9.897198e+00 2.899589e+00 7.859829e+00 1.013193e+00 3.373273e+00 8.033442e+00 -2.472183e-01 4.868443e+00 4.738369e+00 5.108085e-01 -1.176975e-01 -1.462308e-01 5.967876e-01 7.947482e-01 1.985945e+00 -4.614780e-01 3.760343e-02 1.043497e+00 8.998183e-01 1.134061e+00 6.836519e-01 2.966187e-01 1.682578e+00 7.633924e-04 
-8.984752e-01 1.409795e+01 8.654116e+00 5.031745e+00 3.686965e+00 2.781253e+00 6.027656e+00 8.198301e+00 -2.513018e+00 6.478766e+00 4.335154e+00 7.962924e+00 -1.512927e-01 -5.966579e-01 -6.600472e-01 1.602240e-01 1.277286e+00 -2.288916e-01 2.431343e+00 1.194234e+00 8.453046e-01 1.808400e+00 1.612057e+00 9.179873e-01 7.711168e-01 -2.977824e-03 
-7.981801e-01 1.494894e+01 9.714643e+00 6.560130e+00 6.582644e+00 6.087546e+00 9.710121e+00 1.169223e+01 5.372943e+00 9.919057e+00 4.978142e+00 6.314573e+00 -1.474757e-01 -3.345131e-01 -4.725068e-01 1.143126e-01 2.787022e-01 3.970483e-01 2.154603e+00 6.106986e-01 -2.003700e-01 3.902591e-01 6.006390e-01 4.085074e-01 -6.409798e-02 -6.589174e-03 
-1.235046e+00 1.317195e+01 8.197210e+00 4.567130e+00 7.699331e+00 1.184479e+01 5.919541e+00 7.385702e+00 5.092793e+00 1.178582e+01 6.591041e+00 1.911894e+00 -1.512927e-01 3.180482e-01 2.693681e-01 2.320671e-02 -5.052822e-01 9.205261e-01 3.142394e-01 -2.673354e-01 -6.078334e-01 1.594139e-01 -6.881712e-01 -5.209166e-01 -8.318998e-01 -3.167629e-04 
-3.354640e-01 1.563600e+01 1.069721e+01 4.525407e+00 7.838888e+00 7.254439e+00 6.480824e+00 7.437892e+00 -2.098829e+00 5.218111e+00 5.652962e+00 3.215834e+00 -1.506433e-01 4.711752e-01 1.377036e-01 -1.455915e-01 -7.016321e-01 -1.074501e-01 -1.440139e+00 -1.581636e+00 -1.151711e+00 -1.609352e+00 -1.694825e+00 -1.092382e+00 -5.560881e-01 -7.633924e-04 
4.604077e-01 1.510126e+01 8.278864e+00 3.522696e+00 7.661473e+00 3.769004e+00 6.305627e+00 7.286303e+00 2.019938e+00 5.388383e+00 1.393160e+00 5.352795e+00 -1.512927e-01 4.935463e-01 2.038502e-01 -2.540588e-02 -2.937107e-01 -5.044583e-01 -2.216979e+00 -1.349321e+00 -4.259173e-01 -1.149893e+00 -1.485880e+00 -1.248953e+00 -1.598575e-01 -6.493330e-05 
7.099690e-01 1.467280e+01 8.945858e+00 3.574187e+00 6.064322e+00 2.924743e+00 1.608897e+00 5.983374e+00 -1.137390e+00 4.643649e+00 2.115170e+00 1.813683e+00 -1.512927e-01 2.340427e-01 -2.354866e-01 -2.835716e-01 -1.850950e-01 -5.146283e-01 -9.503652e-01 -1.444058e+00 -4.211965e-01 -1.234451e-01 -1.893658e-01 -6.353576e-01 -6.343415e-01 -1.298666e-04 
