-6.178151e+00 3.197809e+00 -7.452343e+00 1.893619e+00 2.444479e+00 2.951205e+00 -1.634388e+00 1.697038e-01 5.832080e+00 7.524957e+00 4.339999e+00 6.460510e+00 -1.512927e-01 5.776116e-01 2.358691e-01 9.503945e-01 4.195975e-01 2.534515e-01 -2.269215e-01 3.512943e-01 6.831271e-01 1.708882e-01 -7.731087e-01 -3.727850e-01 -8.253185e-01 4.408968e-03 
-5.383845e+00 4.752573e+00 -6.357571e+00 4.572401e+00 2.400758e+00 3.405593e+00 -5.706348e+00 1.864115e+00 8.036812e+00 8.511022e+00 1.401776e+00 4.685193e-01 -1.072030e-01 5.331798e-01 3.634076e-01 9.151427e-01 2.590031e-01 8.681545e-01 -6.747602e-01 -6.029096e-01 2.934840e-02 6.283179e-01 -1.145466e+00 -9.730171e-01 -1.208098e+00 0.000000e+00 
-3.687246e+00 3.599772e+00 -3.247756e+00 2.652215e+00 3.733598e+00 1.589403e+00 2.158063e+00 2.738134e+00 5.584156e+00 3.166380e+00 3.945186e+00 5.329914e+00 -1.512927e-01 4.373447e-01 7.265802e-02 1.020178e+00 3.161973e-01 1.534457e+00 -6.590574e-01 5.798452e-01 2.378034e-01 1.016234e+00 -9.111027e-01 -7.018790e-01 3.975184e-01 -4.408968e-03 
-4.757705e+00 4.813865e+00 -4.978923e+00 2.809337e+00 6.140693e+00 2.583046e-01 -6.545162e+00 -9.677693e-01 9.097632e+00 3.976915e+00 -3.276799e-01 9.853171e-01 -1.512927e-01 9.532022e-02 -4.232139e-01 6.362549e-01 2.995315e-01 1.178057e+00 -8.335630e-01 8.992745e-01 -6.216080e-01 -3.010416e-02 -1.495543e-01 3.500834e-01 1.418128e+00 -8.817935e-03 
-4.304498e+00 3.530453e+00 -3.040777e+00 4.356138e+00 8.246799e+00 1.229562e+00 1.684244e+00 2.774663e+00 1.038284e+01 5.236497e+00 1.695332e+00 8.189704e+00 -1.512927e-01 -1.538055e-01 -3.993735e-01 -8.333530e-02 2.807948e-01 4.624168e-01 -7.808381e-01 -4.250517e-02 -4.027938e-01 1.036035e-01 9.707233e-01 1.010746e-01 1.700404e-01 0.000000e+00 
-4.598619e+00 2.671164e+00 -3.279785e+00 5.218097e+00 6.034442e+00 -5.823007e-01 -9.730663e-01 -1.262190e+00 5.486948e+00 6.728192e+00 4.277120e+00 6.129265e+00 -1.512927e-01 -5.940720e-01 -2.261442e-01 1.343402e+00 -1.685196e+00 1.661394e+00 9.434517e-01 -3.525453e-01 6.548145e-01 -1.063986e-01 -1.274184e+00 1.387025e+00 4.684587e-01 4.792547e-03 
-4.535817e+00 2.674256e+00 -4.514001e+00 2.851809e+00 6.098807e+00 -1.894485e+00 -8.405108e-01 8.713750e-01 7.907516e+00 6.644358e+00 2.148159e+00 3.608141e+00 -1.512927e-01 -5.983177e-01 -2.261569e-01 5.969391e-01 -1.905200e+00 1.310270e+00 1.355162e+00 -1.990066e+00 2.925639e-01 1.653398e-01 -1.417559e+00 2.180484e+00 -3.645983e-01 2.396274e-03 
-7.612405e+00 4.111243e+00 2.474698e+00 -4.864479e+00 1.552166e+01 6.537586e+00 -7.045511e+00 3.257947e+00 9.803303e+00 -3.097935e+00 6.381031e+00 5.618392e+00 -1.273299e-01 2.176329e-01 -1.260526e-01 5.120603e-01 -7.031341e-01 5.157360e-01 1.106348e+00 -4.201372e-01 8.461996e-01 5.327250e-01 -8.987009e-01 3.675002e-01 1.060596e-01 0.000000e+00 
-5.789193e+00 1.679629e+00 -2.933323e+00 -1.285732e-01 1.005454e+01 4.445430e+00 -5.229863e+00 1.977414e+00 9.051363e+00 3.061763e+00 1.154579e+01 6.622149e+00 -1.512927e-01 8.066169e-01 -1.372057e+00 6.477309e-01 9.350906e-02 -4.538583e-01 -4.415334e-01 -4.537238e-01 1.251332e+00 -1.032969e+00 -4.300976e-01 -9.609249e-01 -7.789212e-01 3.486180e-03 
-2.883766e+00 2.538214e+00 -1.509822e+00 3.192618e+00 6.635256e+00 1.779483e+00 -8.790760e-01 2.415789e+00 7.578649e+00 4.025985e+00 1.415803e+00 5.152559e+00 -1.512927e-01 1.271394e+00 -1.277203e+00 -2.999429e-01 1.588500e+00 -2.149119e+00 -2.813240e+00 6.650209e-01 1.845524e+00 -1.289428e+00 9.529560e-01 -1.757586e+00 -9.853739e-01 -1.851320e-03 
-2.867052e+00 -3.399516e+00 7.169142e-01 -7.091947e-01 8.272717e+00 -1.723100e+00 -6.192348e+00 7.549114e+00 3.854995e+00 9.319093e-01 -1.738520e-01 -5.354869e-02 -1.218804e-01 4.626454e-01 -4.855658e-01 3.544593e-01 1.413098e+00 -1.692304e+00 -1.741613e+00 9.789095e-01 1.955453e+00 -6.598632e-02 -8.903695e-01 -1.553750e+00 4.094563e-01 0.000000e+00 
-2.716507e+00 2.647995e-01 -8.501353e-01 3.368330e+00 5.666975e+00 -4.444349e+00 -3.239164e+00 9.699717e+00 5.954348e+00 2.731771e+00 3.452926e+00 4.029371e+00 -1.512927e-01 3.107656e-01 6.351171e-01 -9.811102e-01 9.497013e-01 -1.025945e+00 8.382543e-02 1.083209e+00 6.025134e-01 3.147107e-01 -1.208479e+00 5.061321e-01 8.947018e-01 -2.941227e-03 
-3.559596e+00 3.885069e-01 -1.490870e+00 6.849062e+00 2.077159e+00 -1.150718e+00 8.447282e-01 8.112716e+00 9.533582e+00 -7.429776e-01 2.758484e+00 9.231025e+00 -1.512927e-01 1.456937e-01 1.472494e+00 -1.589562e+00 1.366100e+00 -7.897570e-01 9.976240e-01 1.408329e+00 -1.065453e+00 6.089591e-01 3.494405e-01 1.512732e+00 8.782605e-01 -5.882454e-03 
-9.836664e-01 3.819788e+00 -5.311481e+00 4.161996e+00 4.603308e+00 1.912419e+00 1.018433e+00 5.146555e+00 6.312909e+00 -1.178968e+00 2.480296e+00 4.983782e+00 -1.512927e-01 -9.820738e-01 2.120132e-01 -9.676107e-01 -4.141050e-01 -9.013363e-01 6.333179e-01 1.789233e+00 -1.668697e+00 -1.225132e+00 4.148994e-01 7.652000e-01 6.293841e-01 1.370287e-02 
-3.005004e+00 2.185462e+00 -5.000221e+00 5.724472e+00 4.855766e+00 8.663607e-02 -1.279501e+00 4.498430e+00 6.720510e+00 4.634481e+00 7.876122e+00 3.860548e+00 -1.512927e-01 -1.320078e+00 -6.567465e-01 -5.233504e-01 -9.474470e-01 -7.422333e-01 2.101116e-01 3.032562e+00 -6.392785e-01 -2.225808e+00 2.000477e-01 8.326229e-01 7.538003e-01 1.622972e-02 
-7.904172e+00 4.263877e-01 -3.933513e+00 1.860101e+00 -2.290096e-01 -1.896436e+00 6.769116e+00 3.163375e+00 1.235227e+00 2.117539e+00 4.720107e+00 9.861530e+00 -8.277833e-02 -1.858847e+00 -3.854419e-01 4.237446e-01 -4.697367e-01 8.179833e-01 -1.637012e+00 3.039985e+00 -1.490600e+00 -1.125894e+00 6.212458e-01 -1.305983e-01 1.030075e+00 2.244902e-02 
-6.699731e+00 -1.198526e+00 -4.796606e+00 3.262775e+00 7.821512e-01 1.804268e+00 1.313220e+01 5.907913e+00 9.433808e-01 -1.390992e+00 5.801693e+00 1.056115e+01 -1.044012e-01 -1.707060e-01 5.182980e-01 2.422707e-01 -3.867458e-01 1.749613e+00 -3.811764e-01 1.680409e+00 -1.031026e+00 -3.256600e-01 -2.815495e-01 -1.506651e+00 1.405387e-01 2.028501e-03 
-8.430539e+00 3.584572e+00 -3.294565e+00 3.044161e+00 1.073003e+01 -7.131457e+00 9.012510e+00 -3.011187e+00 3.572002e+00 4.939999e+00 2.864518e+00 6.783855e+00 -6.249332e-02 1.050704e+00 1.087273e+00 2.710174e-01 -2.898870e-02 1.612021e+00 5.995205e-01 -1.392343e+00 -1.206800e-01 1.691507e+00 7.118750e-01 -6.245238e-01 -1.390903e+00 -1.839202e-02 
-3.595350e+00 3.197860e+00 -4.108341e+00 3.198713e+00 8.124309e+00 7.982644e-01 6.000846e+00 2.430582e+00 3.923821e+00 1.815504e+00 1.270659e+00 6.102079e+00 -1.512927e-01 2.230591e+00 -1.991893e+00 1.288562e+00 -1.472876e+00 -2.377306e+00 1.995991e+00 -2.264396e+00 1.148449e+00 3.925366e-01 2.349625e-01 7.759487e-01 -2.221124e+00 5.175323e-02 
-4.202844e+00 3.664560e+00 -2.922559e+00 1.747188e+00 4.160018e+00 1.604168e+00 3.373076e+00 4.298641e+00 8.202539e+00 4.073666e+00 3.863005e+00 5.136549e+00 -1.512927e-01 3.948770e+00 -4.531143e+00 2.035046e+00 -2.031986e+00 -6.083684e+00 3.456283e+00 -8.851374e-01 2.695684e+00 -1.752631e+00 -2.729592e+00 -7.364569e-02 -4.580494e+00 1.901051e-01 
2.339376e+00 -1.119798e+01 1.460201e+00 -3.453120e+00 -7.819372e+00 7.416408e+00 4.629933e+00 7.995245e+00 5.907950e-01 2.169864e-01 9.182194e+00 2.791847e-01 1.987646e-01 2.785719e+00 -5.516181e+00 2.535974e+00 -2.835220e+00 -5.959021e+00 1.316629e+00 3.566000e-01 1.370298e+00 -2.080971e+00 -3.588423e+00 -5.496014e-01 -6.595859e+00 3.166882e-01 
8.345948e+00 -1.187322e+01 4.096394e+00 -3.789850e+00 -1.171655e+01 6.840885e+00 5.272280e+00 7.684904e+00 -3.524641e+00 -7.908703e+00 -1.459477e+00 -1.320717e+01 7.130036e-01 1.822087e+00 -4.403777e+00 1.088891e+00 -2.795230e+00 -5.047873e+00 -3.778390e-01 -2.268284e-01 -2.395380e-01 -2.925565e+00 -4.254594e+00 -1.827223e+00 -6.937467e+00 3.089648e-01 
4.058850e+00 -1.661415e+01 5.062053e+00 -8.208869e+00 -1.373251e+01 4.763053e+00 6.834244e+00 7.588942e+00 -6.174469e-01 -1.013543e+01 1.183894e+00 -1.770536e+01 1.000000e+00 1.657233e-01 -9.952943e-01 2.579246e-02 -1.644127e+00 -2.838704e+00 -1.878338e+00 -7.691979e-01 -1.255310e+00 -1.082924e+00 -1.651454e+00 -2.062386e+00 -4.076036e+00 1.876245e-01 
4.047852e+00 -1.564624e+01 7.209716e-01 -9.851090e+00 -1.812278e+01 1.041650e+00 1.136779e+00 3.304102e+00 -5.821165e+00 -1.202310e+01 -1.273958e+00 -2.055851e+01 9.929138e-01 -1.373959e-02 -1.815596e-02 -1.979276e-01 -7.641643e-01 -2.207123e+00 -1.469481e+00 -9.710315e-01 -7.471857e-01 1.169696e-02 1.549548e+00 -6.084650e-01 4.228058e-02 5.370497e-02 
5.317041e+00 -1.428795e+01 3.276874e+00 -8.643136e+00 -1.880978e+01 9.243377e-01 2.851694e+00 3.909099e+00 -3.675565e+00 -5.983088e+00 -1.222498e+00 -1.642532e+01 9.969319e-01 1.052782e+00 1.049235e+00 4.412894e-02 2.032724e-01 -1.711049e+00 -9.807293e-01 -8.042301e-01 -8.400913e-01 4.791615e-01 1.986242e+00 -8.413197e-01 7.646458e-01 -4.433650e-03 
7.648155e+00 -1.312711e+01 3.999345e+00 -7.393538e+00 -2.021353e+01 1.412836e+00 2.408397e+00 5.788897e+00 -1.937097e+00 -2.237131e+00 -3.298606e+00 -1.363578e+01 9.830626e-01 7.222689e-01 5.732927e-01 6.903719e-01 -4.406187e-01 -1.631307e+00 -1.281419e+00 -6.396574e-01 -1.394327e+00 6.339250e-01 8.657504e-01 -9.265803e-01 4.670811e-02 -6.420612e-03 
7.522611e+00 -1.262755e+01 3.643511e+00 -8.421283e+00 -2.124238e+01 -3.261864e-01 2.177284e+00 2.146088e+00 -1.636734e-01 -5.097198e+00 -2.010380e+00 -1.734349e+01 9.827574e-01 1.235907e-01 7.694895e-01 5.175546e-01 -7.132141e-01 -8.511080e-01 -1.033714e+00 -7.832190e-01 -1.995385e+00 2.059415e-01 -3.260377e-01 -3.770164e-01 -7.667019e-01 -1.060227e-02 
6.556412e+00 -1.360997e+01 3.989512e+00 -1.216511e+01 -2.506301e+01 -4.740185e+00 -1.724303e+00 -2.786029e+00 -4.407485e+00 -8.137291e+00 -5.512918e+00 -1.986589e+01 9.678980e-01 -3.091437e-01 8.525901e-01 2.498360e-01 -5.373495e-01 -6.838543e-01 -7.874680e-01 -1.282204e+00 -2.417055e+00 -7.894448e-01 -3.360852e-01 -5.803391e-01 -4.035586e-01 -1.723530e-02 
6.480866e+00 -1.019907e+01 5.869564e+00 -9.823421e+00 -2.064058e+01 -1.167724e+00 1.001949e+00 -1.780361e+00 -1.410663e+00 -4.663197e+00 -2.000424e+00 -1.714378e+01 9.515028e-01 -5.892663e-02 8.887979e-01 4.914439e-01 1.011651e-01 -2.092182e-01 8.856606e-02 -1.557132e+00 -1.466637e+00 -1.274408e+00 1.128184e+00 -9.782549e-01 1.327391e+00 -2.377046e-02 
6.623309e+00 -1.007840e+01 4.135499e+00 -9.379217e+00 -2.393370e+01 -2.103736e+00 -3.414956e+00 -4.333153e+00 -5.260826e+00 -4.134558e+00 -6.205280e+00 -1.575343e+01 9.125134e-01 2.899404e-01 9.631821e-01 7.996289e-01 1.025587e+00 5.579189e-01 1.082562e+00 -9.326245e-01 -9.836513e-01 -3.244081e-01 1.791703e+00 8.325944e-02 1.894950e+00 -2.162691e-02 
7.194529e+00 -9.949346e+00 6.027737e+00 -9.308404e+00 -2.285312e+01 -1.201581e+00 -4.763052e+00 -4.413538e+00 -6.109042e+00 -1.457647e+00 -6.555473e+00 -1.276277e+01 8.915974e-01 3.055026e-01 3.345117e-01 5.610619e-01 -1.261291e-02 -2.631645e-02 -2.660975e-01 -1.996865e+00 -2.217534e+00 -1.169922e+00 7.174497e-01 -6.094106e-01 9.492719e-01 -2.029524e-02 
7.649282e+00 -8.918923e+00 7.908570e+00 -7.294682e+00 -2.116714e+01 6.895521e-01 -3.504925e+00 -6.387697e+00 -3.680336e+00 -7.815530e-01 -2.819096e+00 -1.258165e+01 8.897161e-01 3.944248e-01 9.100533e-01 1.010811e+00 3.965163e-01 8.485321e-01 -7.030876e-02 -1.286550e+00 -1.985688e+00 -8.626928e-02 6.938543e-01 5.514390e-01 1.193187e+00 -1.767920e-02 
7.495392e+00 -9.106243e+00 6.788337e+00 -1.092875e+01 -2.215544e+01 -3.894855e+00 -8.937390e+00 -1.184076e+01 -8.050516e+00 -2.752450e+00 -6.740569e+00 -1.398331e+01 8.614252e-01 2.527906e-01 1.416741e+00 6.214547e-01 1.422666e-01 7.380365e-01 -4.474488e-01 -2.489119e+00 -1.952314e+00 -6.049479e-01 2.134985e-01 -1.289510e-01 1.196431e+00 -2.312320e-02 
8.445001e+00 -5.949681e+00 8.809254e+00 -6.586461e+00 -2.003988e+01 -1.108642e+00 -7.760536e+00 -1.054798e+01 -4.721435e+00 -1.788473e-02 -3.355537e+00 -9.177222e+00 8.392035e-01 1.884641e-01 2.228838e+00 9.805301e-01 5.439625e-02 1.507225e+00 1.308765e-01 -2.941275e+00 -7.233660e-01 -9.355154e-02 7.717726e-01 -3.583395e-01 1.828755e+00 -3.144817e-02 
8.060623e+00 -4.350260e+00 8.684669e+00 -8.951181e+00 -1.972657e+01 -2.539727e+00 -1.508084e+01 -1.209496e+01 -8.613232e+00 -7.719884e-01 -6.932008e+00 -8.482822e+00 8.012377e-01 -4.600520e-02 2.472617e+00 1.257699e+00 1.367635e-01 2.045419e+00 1.069970e+00 -1.725060e+00 5.478067e-02 5.156776e-01 9.000031e-01 -7.960724e-01 1.236138e+00 -3.332113e-02 
8.308988e+00 -1.527230e-01 1.186305e+01 -8.011486e+00 -1.484546e+01 6.663704e-01 -1.513957e+01 -9.877423e+00 -3.866736e+00 2.087079e+00 -4.515074e+00 -6.188113e+00 7.625691e-01 -3.181064e-01 1.670281e+00 9.206735e-01 -7.438473e-01 1.572193e+00 9.881481e-01 -1.147604e+00 -6.219176e-01 -7.984944e-02 2.280824e-02 -2.381944e+00 -3.671014e-01 -3.101983e-02 
7.333373e+00 3.583643e-01 1.154993e+01 -9.532423e+00 -1.452556e+01 5.674869e-01 -1.387317e+01 -1.190213e+01 -5.899477e+00 6.950829e-01 -1.014116e+01 -9.297175e+00 7.331368e-01 -4.515966e-01 1.388364e+00 8.471136e-01 -4.009124e-01 1.871256e+00 6.622375e-01 9.120285e-01 -6.186339e-01 2.801930e-01 -1.047317e-01 -2.375923e+00 -3.468710e-01 -2.627816e-02 
7.218094e+00 4.741079e-02 1.197999e+01 -1.001508e+01 -1.477942e+01 2.278491e+00 -1.410239e+01 -1.375399e+01 -6.477560e+00 -6.373792e-01 -1.366068e+01 -1.060555e+01 7.181548e-01 -9.376734e-01 1.360926e+00 3.807350e-01 -3.640451e-01 2.449645e+00 -1.456830e+00 2.984316e+00 -8.176595e-01 -5.345913e-01 3.530732e-01 -2.701610e+00 2.350432e-01 -2.107317e-02 
6.348087e+00 2.491493e+00 1.286177e+01 -9.953948e+00 -1.040331e+01 -3.460026e-02 -1.103929e+01 -1.324985e+01 -5.906855e+00 6.658244e-02 -1.423882e+01 -8.008457e+00 6.920540e-01 -8.533195e-01 3.189384e-01 1.300889e+00 3.915454e-01 1.398146e+00 -2.283324e-01 2.105759e+00 2.191848e-01 -1.044177e+00 5.619946e-01 -3.893043e-01 1.620849e-01 -6.169134e-03 
4.113264e+00 5.585342e+00 1.311081e+01 -9.620949e+00 -4.658360e+00 -6.316736e+00 -1.634934e+00 -1.329186e+01 -6.536004e+00 4.166695e+00 -1.597429e+01 -5.657256e+00 6.777446e-01 -3.958223e-01 -3.403466e-01 1.738461e+00 5.557724e-01 1.453152e-02 6.767578e-01 -4.478493e-01 1.175706e+00 -1.857307e+00 5.019416e-01 8.565547e-01 -4.945112e-01 -1.075984e-02 
4.619190e+00 -8.159093e-01 1.748897e+01 -7.771760e+00 -1.259536e+01 3.723439e+00 -9.578106e+00 -1.103727e+01 -1.109114e+01 1.103018e+00 -1.093088e+01 -1.096090e+01 7.224962e-01 1.712884e-01 -7.765009e-01 1.908278e+00 5.736536e-01 -9.585884e-01 2.213116e+00 -2.162420e+00 1.240002e+00 -1.764686e+00 5.488814e-01 1.160715e+00 2.920134e-01 -1.893087e-02 
6.103431e+00 -6.215870e-04 1.835869e+01 -8.327309e+00 -1.361074e+01 3.783261e+00 -1.707223e+01 -8.981745e+00 -1.317196e+01 1.354111e+00 -1.103188e+01 -1.160189e+01 6.491345e-01 1.153917e+00 -3.383658e-01 1.249298e+00 5.884396e-01 -9.734213e-01 1.930141e+00 -2.658956e+00 -1.832247e-01 -2.374621e+00 6.135978e-01 1.498219e+00 1.015450e+00 -6.157628e-02 
6.209445e+00 1.401970e+00 1.977922e+01 -7.732500e+00 -1.072006e+01 5.980983e+00 -1.413274e+01 -9.204901e+00 -1.141231e+01 4.217281e+00 -1.090646e+01 -3.576075e+00 6.117047e-01 8.638211e-01 2.159426e+00 -7.593288e-02 1.851617e+00 1.863549e+00 -9.891518e-01 8.487421e-01 -2.458909e+00 -1.892380e+00 5.129530e-01 7.040321e-01 1.827604e+00 -1.198435e-01 
9.087719e+00 2.784574e+00 1.821217e+01 -6.698380e+00 -1.046312e+01 2.205196e+00 -1.265239e+01 -1.512417e+01 -1.824852e+01 5.677553e+00 -8.495408e+00 -4.272419e+00 4.252589e-01 -1.513520e-01 3.261834e+00 -3.460945e+00 3.347585e+00 3.440282e+00 -2.854993e+00 1.018447e+00 -2.485176e+00 3.553118e-01 -2.112712e+00 2.043795e+00 2.795369e+00 -1.755227e-01 
7.446152e+00 8.588622e+00 1.718256e+01 6.718597e-01 -4.851426e+00 -4.332874e-01 -7.544312e+00 -2.026060e+01 -1.801476e+01 1.506063e+00 -8.678950e+00 -5.487617e+00 2.352167e-01 -1.402555e+00 2.157772e+00 -5.895650e+00 2.710606e+00 3.512187e+00 -3.920357e+00 5.601965e-01 -1.424324e+00 1.577790e+00 -2.555852e+00 2.336115e+00 2.510713e+00 -1.991489e-01 
4.728318e+00 1.271522e+01 2.352296e+00 4.208438e+00 6.563549e-01 -7.284569e+00 -1.527421e+01 -1.587977e+01 -8.094172e+00 -7.853842e+00 -1.926654e+00 3.330728e+00 -4.023516e-02 -2.541002e+00 6.267418e-01 -5.649263e+00 2.307023e+00 3.842361e+00 -1.421333e+00 1.860040e+00 2.007615e+00 4.531219e+00 -8.493201e-01 2.655882e+00 2.564299e+00 -1.539613e-01 
1.376372e+00 7.225505e+00 -1.769092e+00 3.671227e-01 1.281136e+00 -8.875922e+00 -1.002085e+01 -1.594872e+01 -8.600534e+00 -1.796282e+00 -2.510257e+00 5.175918e+00 -1.512927e-01 -2.593503e+00 -1.091619e+00 -3.776390e+00 8.030617e-01 3.059889e+00 9.233676e-01 3.746675e+00 5.078894e+00 5.117435e+00 9.437112e-01 1.407973e+00 6.894347e-01 -8.840762e-02 
-5.823984e-01 6.599842e+00 -5.583158e-01 4.989103e+00 5.682406e+00 -6.801498e-01 -2.113925e+00 -7.242037e+00 -2.995429e-01 3.082125e+00 1.699654e+00 3.217309e+00 -1.512927e-01 -1.032618e+00 -6.775091e-01 1.370364e-01 1.285122e+00 1.991787e+00 2.367247e+00 4.446784e+00 4.206685e+00 2.780111e+00 1.134658e+00 -1.230485e+00 -2.658676e+00 -2.221150e-02 
-2.866004e+00 6.188216e+00 -2.440839e-01 4.296835e+00 7.934994e+00 8.813410e-01 4.608921e+00 8.149999e-01 3.675105e+00 7.566350e-01 -3.452240e+00 -1.983734e+00 -1.512927e-01 -4.732176e-01 4.240299e-01 5.341212e-01 1.375945e+00 1.266722e+00 2.063218e+00 2.257605e+00 3.406518e+00 1.693618e+00 -6.469299e-01 -8.871392e-01 -1.759788e+00 0.000000e+00 
1.686416e+00 9.846321e+00 2.274974e+00 8.669190e+00 7.288360e+00 -3.269668e-01 -3.551750e-01 -3.228209e+00 -3.314352e-01 -3.457010e+00 -7.608085e+00 -6.382827e+00 -1.512927e-01 -6.404104e-02 1.979638e-01 -1.139269e-01 2.636416e-01 3.667145e-01 2.629065e-01 -1.775329e-01 4.927974e-01 -1.363221e-01 -1.427213e-01 -2.790465e-02 2.206697e-01 0.000000e+00 
-2.124123e+00 7.722414e+00 -5.151312e-01 5.406802e+00 6.811769e+00 1.263574e+00 3.877964e-01 -9.230438e-01 -1.164966e-01 -1.761364e+00 -2.292083e+00 1.177046e+00 -1.512927e-01 -5.130536e-01 -7.882090e-02 -8.766218e-01 1.410931e+00 -1.632417e-02 1.504027e+00 -1.815965e+00 -2.495352e-01 1.172967e+00 1.282469e+00 1.240856e+00 2.384739e+00 2.625635e-02 
-1.273544e+00 6.822561e+00 -9.924265e-01 5.752328e+00 8.077591e+00 4.432663e-01 -8.910265e-01 -3.909029e+00 9.146471e-01 3.627518e+00 9.800524e-01 2.740268e+00 -1.512927e-01 -1.384938e+00 -3.183295e+00 -2.172064e+00 -9.014004e-01 2.813142e-01 1.558723e+00 9.311786e-01 1.747630e+00 3.307739e+00 2.372852e+00 1.628262e+00 4.294280e-01 1.125912e-01 
-3.951292e+00 7.305992e+00 -2.993493e+00 1.280992e+01 7.458758e+00 8.016359e+00 -4.202977e+00 -9.226638e-02 8.916897e+00 3.626718e+00 -1.542028e+00 5.378416e+00 -2.001095e-02 -1.390109e+00 -2.877392e+00 -2.464341e+00 -1.167253e+00 1.510310e-02 7.725380e-02 1.921768e+00 1.983077e+00 2.727998e+00 2.588125e+00 3.897299e-01 -2.059663e+00 2.231337e-01 
-4.324691e+00 -5.861944e+00 -7.346166e+00 4.606295e-01 8.371437e+00 4.090256e+00 6.596105e+00 5.094554e+00 1.169056e+01 5.713207e+00 1.581949e-01 -6.336372e+00 3.460227e-01 -2.421483e+00 -1.543930e+00 -2.938572e+00 -1.877810e+00 -1.339249e-01 -1.233086e+00 1.386480e+00 1.147937e+00 -5.707532e-01 1.304329e+00 5.584807e-01 -1.395905e+00 2.710205e-01 
-7.549092e+00 -3.222925e-01 -9.659967e+00 2.216384e+00 6.740362e+00 -1.736522e-01 6.253072e+00 4.490552e+00 8.135539e+00 1.013642e+01 6.749475e-02 -4.582950e+00 7.157182e-01 -2.339576e+00 1.194969e+00 -7.054456e-01 -3.110418e+00 -5.311073e-02 -3.122757e+00 1.661352e+00 1.374383e-01 -3.653831e+00 1.183236e+00 1.935567e+00 -8.619253e-01 2.147393e-01 
-1.158206e+01 2.917054e+00 -1.235205e+01 1.660044e+00 7.767165e+00 -1.627158e+00 8.133488e-01 -4.607528e-01 -1.548440e+00 6.894317e+00 2.967695e+00 7.414256e-01 8.359451e-01 -2.708116e+00 2.700289e+00 2.139206e+00 -2.454166e+00 1.612610e-01 -1.414664e+00 3.464459e-01 1.013506e-01 -3.864850e+00 -6.791811e-02 2.328861e+00 2.854771e+00 9.911492e-02 
-1.202049e+01 8.891336e+00 -4.017778e+00 -3.341878e+00 7.495340e+00 -4.738718e+00 6.995160e+00 3.372578e+00 -2.732757e+00 8.952346e+00 6.731055e+00 -2.470109e+00 8.087244e-01 -2.097084e+00 -6.903129e-01 3.066319e+00 -2.834420e+00 -2.817219e-01 -1.223536e-01 1.237044e+00 1.376644e+00 -1.233332e+00 7.247041e-01 2.250401e+00 2.333210e+00 -8.566976e-04 
-1.562957e+01 3.032684e+00 5.287700e-01 -9.031071e+00 8.800253e+00 -7.005296e-01 7.957291e+00 6.160294e+00 -2.199541e+00 5.965652e+00 8.470721e+00 6.881063e+00 7.950941e-01 -4.981897e-01 -3.545898e+00 1.325561e+00 -1.837446e+00 -1.021046e+00 -3.619423e-01 1.783333e+00 1.672311e+00 6.902360e-01 1.661880e+00 1.660149e+00 4.600470e-01 -4.216421e-02 
-1.601075e+01 -3.831672e+00 -7.687812e-01 -6.610161e+00 4.815208e+00 -1.248734e+00 8.866322e+00 8.063251e+00 2.294430e+00 1.422427e+01 8.567989e+00 4.013279e+00 7.318602e-01 9.773027e-01 -5.093455e+00 -1.719427e+00 -2.574425e-01 -1.264358e+00 -1.855890e+00 5.198350e-01 1.211491e+00 1.221601e-01 -6.561165e-01 6.510752e-01 6.312737e-01 -4.592257e-02 
-1.207787e+01 -8.450930e+00 -7.348745e+00 -5.893046e+00 4.001998e+00 -5.181861e+00 8.794431e+00 5.555464e+00 -6.108532e-01 1.256775e+01 1.034997e+01 -2.000333e-01 6.635562e-01 2.794430e+00 -3.320362e+00 -2.973835e+00 5.323261e-01 -5.711246e-01 -3.196697e+00 -1.114616e+00 -1.568950e-01 -9.815885e-01 -2.011388e+00 -4.171363e-01 4.647017e-02 -6.238762e-02 
-8.909822e+00 -1.083414e+01 -8.676156e+00 -6.198103e+00 3.572677e+00 -1.177750e+01 9.175764e+00 9.732449e+00 -2.916300e+00 2.370712e+00 9.046804e+00 4.226808e+00 6.448805e-01 3.602067e+00 -2.397195e-01 -1.298449e+00 -4.953823e-02 9.222662e-01 -2.336467e+00 -2.015518e+00 -1.085287e+00 -1.208390e+00 -3.664682e+00 -1.476121e+00 -2.776957e-01 -7.479828e-02 
-5.207889e+00 -1.006789e+01 -1.038671e+01 -6.575469e+00 6.565896e+00 -1.141963e+01 2.229491e+00 4.541220e+00 -4.502118e+00 1.835492e+00 6.145632e+00 7.006649e+00 5.266458e-01 4.483825e+00 1.959780e+00 1.408726e+00 3.784113e-02 3.449586e-01 -8.959311e-01 -1.796375e+00 -3.030333e+00 -1.139976e+00 -2.369939e+00 -1.373014e+00 4.000499e-01 -8.732717e-02 
-1.435411e+00 -4.221788e+00 -5.742043e+00 -6.516641e+00 8.144590e+00 -9.812182e+00 2.071202e+00 3.143939e+00 -1.801886e+00 1.266988e+00 3.289556e+00 -9.785403e-01 4.263240e-01 4.431254e+00 2.270714e+00 1.945577e+00 4.582882e-02 -6.308330e-01 9.286607e-01 -2.574360e+00 -3.768567e+00 -1.099001e+00 -9.358429e-01 -1.908327e+00 3.055381e-01 -1.285760e-01 
6.604047e+00 -1.958202e+00 -1.772172e+00 -5.544572e+00 3.440835e+00 -1.064418e+01 3.364836e+00 -6.301944e+00 -6.867942e+00 1.269922e+00 6.363530e+00 4.402890e+00 3.361986e-01 2.957163e+00 1.052235e+00 1.960243e+00 7.904067e-01 -2.015716e+00 1.624844e+00 -1.293563e+00 -1.037222e+00 -1.189593e+00 -3.217849e+00 -1.859774e+00 2.884824e-01 -1.381983e-01 
7.340484e+00 -3.535411e+00 -3.255541e+00 -6.484407e+00 1.981042e+00 -7.521926e+00 -4.263707e+00 -3.688802e+00 -7.228394e+00 -2.025717e+00 -6.037768e-01 7.056377e+00 9.722424e-02 9.008938e-01 -8.494610e-01 5.140013e-01 1.560852e+00 -1.920677e+00 2.542423e+00 7.410997e-01 1.833102e+00 -3.457689e-01 -4.503327e+00 -2.379961e+00 1.564808e+00 -1.220688e-01 
5.189979e+00 -5.149908e+00 -1.828753e+00 -2.639552e+00 -4.309111e-01 -4.440541e+00 -1.070871e+00 2.771482e+00 -7.736830e+00 -1.260740e+01 -1.206573e+00 4.431602e+00 2.043843e-04 -1.114972e+00 -1.049033e+00 -3.260562e-01 2.294805e+00 -1.272149e+00 2.604708e+00 2.228770e+00 3.846943e+00 1.900310e+00 -4.060029e+00 -1.779077e+00 3.608180e-01 -8.459999e-02 
3.776092e+00 -6.873240e+00 -3.143745e+00 -1.648898e-01 4.770765e-01 -2.018838e-01 7.994554e+00 7.772738e+00 -3.096286e+00 -1.431099e+01 -4.825200e+00 6.831145e+00 -1.602304e-02 -1.308784e+00 -3.303068e-01 -1.004943e-01 3.226311e+00 -6.206554e-01 1.619058e+00 2.995211e+00 2.788886e+00 2.099819e+00 -1.140862e+00 8.184900e-01 -3.761259e-01 -3.830232e-02 
2.811380e+00 -5.534452e+00 -3.458351e+00 2.769696e+00 -2.167926e+00 -1.280656e+00 8.379559e+00 7.202002e+00 5.675535e-01 -1.288759e+01 -4.211446e-01 6.319596e+00 -3.017771e-02 -5.319211e-01 6.294402e-01 -1.009237e-01 2.442961e+00 6.438824e-01 -9.616325e-02 4.442368e-01 4.766439e-01 1.821108e+00 1.274825e+00 1.656314e+00 1.944509e-01 -2.840764e-02 
1.985863e+00 -4.994673e+00 -2.943213e+00 6.942523e+00 -2.537270e-01 -1.006581e+00 5.987132e+00 8.040365e+00 -8.814917e-01 -7.589932e+00 3.095959e+00 4.231751e+00 -7.909632e-02 -4.150753e-02 1.158631e+00 3.275098e-01 1.515507e+00 1.759074e+00 5.989686e-01 -1.001011e+00 -7.557663e-01 -1.411153e-01 1.133818e+00 9.091333e-01 7.350783e-01 -3.506588e-02 
3.425488e+00 -2.941991e+00 -2.433638e+00 6.021545e+00 3.153903e+00 -4.519009e+00 2.154023e+00 5.020887e+00 2.613101e-01 -9.593801e+00 3.114416e+00 6.703554e+00 -1.102972e-01 1.312104e-01 1.012868e+00 -4.969548e-01 1.824834e-01 1.631883e+00 4.603640e-01 -8.405263e-01 -1.441185e-01 -1.930015e+00 -8.520341e-01 1.031641e-01 1.639307e+00 -3.119057e-02 
3.261500e+00 -2.376314e+00 -2.018552e+00 5.786721e+00 6.611531e+00 4.412135e+00 6.102264e+00 5.084464e+00 -3.648741e+00 -1.028879e+01 -2.047313e+00 1.031456e+01 -1.512927e-01 4.726812e-01 1.511034e+00 -1.047080e+00 -1.083967e-01 7.313313e-01 9.316698e-01 8.470203e-01 -1.341853e-01 -2.019547e+00 -2.392698e+00 -9.470886e-01 1.969283e-01 -1.841279e-02 
2.829614e+00 -1.779291e+00 -6.405455e+00 4.260014e+00 2.558859e+00 -1.688195e+00 4.119361e+00 7.959360e+00 -7.698897e+00 -1.579833e+01 2.666312e+00 1.147473e+01 -1.500324e-01 1.005729e-01 1.658864e+00 -1.326628e+00 -2.460794e-01 -2.332347e-01 7.768610e-01 8.807803e-01 -2.952513e-01 -1.423447e+00 -3.986525e-01 -5.251622e-02 -7.232634e-01 -8.199096e-03 
4.647206e+00 1.979148e+00 -6.192706e+00 7.281305e+00 3.700451e+00 2.236361e+00 9.239565e+00 5.900202e+00 -6.999125e+00 -1.645116e+01 -1.415432e+00 2.830807e+00 -1.512927e-01 -5.869293e-02 1.468764e+00 -6.697553e-01 -1.660069e-01 2.138991e-01 9.279213e-02 2.723946e-01 -6.827871e-01 2.697668e-02 2.182910e+00 3.740013e-01 -1.781118e+00 -1.260281e-04 
3.235499e+00 3.174600e+00 -6.979701e+00 4.043856e+00 3.443269e+00 4.531832e-01 4.989275e+00 3.136761e+00 -5.180732e+00 -8.505880e+00 2.535894e+00 6.829113e+00 -1.512927e-01 -3.204749e-01 1.169213e+00 6.883534e-01 5.354055e-01 1.211000e+00 6.683254e-01 -2.699954e-01 -5.728678e-01 2.335420e+00 3.494383e+00 -7.805303e-01 -2.288813e+00 -2.520561e-04 
2.765093e+00 2.490560e+00 -5.080206e+00 5.064765e+00 7.238822e+00 3.805407e+00 7.029280e+00 4.081828e+00 -4.772940e+00 -3.020464e+00 -1.120975e-01 3.731772e+00 -1.512927e-01 -5.995467e-01 6.636925e-01 6.672376e-01 1.562512e-01 8.543857e-01 6.893716e-01 -7.638758e-01 4.278483e-01 2.733206e+00 2.370245e+00 -4.090545e-01 6.708550e-02 0.000000e+00 
2.168296e+00 3.811068e+00 -3.519938e+00 8.045312e+00 6.844672e+00 8.689097e-01 3.874526e+00 6.004208e+00 2.865111e+00 -5.041762e+00 -1.888007e+00 -4.198204e-01 -1.512927e-01 -3.781400e-01 8.324787e-01 1.448428e+00 7.506558e-01 -2.665877e-04 1.097553e+00 -3.661158e-02 7.616158e-01 2.209370e+00 3.390227e-01 -1.988559e-01 5.312598e-01 0.000000e+00 
2.183074e+00 4.979377e+00 -4.586399e+00 6.061833e+00 6.271678e+00 5.475356e+00 5.977560e+00 6.605721e+00 2.643983e+00 -6.331991e+00 -1.248754e+00 6.790701e+00 -1.512927e-01 -1.775804e-01 1.340651e+00 1.432381e+00 1.978542e-01 -3.751294e-01 -9.107828e-03 -4.220663e-01 -1.974163e-01 1.075791e+00 1.664543e-02 4.447243e-01 7.581114e-01 0.000000e+00 
1.635809e+00 6.092585e+00 1.553535e-02 7.298601e+00 3.925508e+00 5.105974e+00 5.332077e+00 5.682893e+00 2.157657e+00 -5.155004e+00 2.109943e+00 7.955947e+00 -1.512927e-01 -3.125724e-01 1.086112e+00 1.140505e+00 2.298871e-01 5.402673e-01 7.060824e-01 5.757211e-01 -1.200343e-01 -2.576586e-01 3.730553e-01 4.903467e-01 9.949502e-01 0.000000e+00 
2.143435e+00 8.053058e+00 3.139606e-01 6.427392e+00 6.822757e+00 1.641336e+00 4.190173e+00 3.255404e+00 9.597416e-01 -2.880616e+00 1.125492e-01 3.334445e+00 -1.512927e-01 -4.528503e-01 6.686903e-01 3.743551e-01 5.338759e-01 8.493983e-01 -8.237545e-01 -8.576191e-01 -1.439867e+00 -1.029956e+00 7.255318e-01 -4.201585e-01 -4.328793e-01 0.000000e+00 
6.252537e-01 7.704785e+00 -2.675943e-01 9.011968e+00 9.270470e+00 6.316332e+00 7.646825e+00 7.079195e+00 2.418939e+00 -4.902173e+00 -1.169248e-01 6.283059e+00 -1.512927e-01 -3.214000e-01 2.744711e-01 -7.848021e-01 3.414377e-01 1.319671e+00 -7.561582e-01 -1.338480e+00 -1.506821e+00 -5.670632e-01 3.462443e-01 -1.497894e-01 -4.182150e-01 0.000000e+00 
4.240999e-01 7.516728e+00 -2.573058e+00 7.874530e+00 7.846189e+00 7.514045e-01 5.320895e-01 -1.291765e+00 -2.636436e+00 -2.830747e+00 -2.236113e+00 5.462749e+00 -1.512927e-01 -5.284774e-01 -7.195919e-01 -1.523008e+00 -2.057259e-01 4.740483e-01 -8.630043e-01 -1.062389e+00 -1.346971e+00 9.779404e-01 1.667218e+00 9.249355e-01 3.952064e-01 0.000000e+00 
8.884764e-01 7.733105e+00 -2.464966e+00 8.282221e+00 1.001215e+01 1.770149e+00 4.687197e-01 4.223728e-01 1.120430e+00 -3.448716e+00 2.535327e+00 4.800721e+00 -1.512927e-01 -5.020016e-01 -5.369129e-01 -4.860701e-01 -3.618750e-01 -1.159646e-01 -7.650031e-01 -4.577919e-01 -6.402657e-01 2.055720e+00 4.009248e+00 9.460506e-01 -5.850091e-01 0.000000e+00 
-6.305637e-01 4.440938e+00 -6.202392e+00 5.763636e+00 8.822159e+00 -4.005942e-01 2.467281e+00 -1.510388e-01 6.498698e+00 4.728745e+00 3.411100e+00 6.051646e+00 -1.512927e-01 -6.428093e-01 -2.766158e-01 5.963362e-01 -3.869646e-01 2.735600e-01 7.137416e-01 1.118167e+00 1.241410e+00 2.772050e+00 3.212335e+00 1.331420e+00 -2.188962e-01 0.000000e+00 
-1.357423e+00 6.558116e+00 -8.832783e-01 8.258039e+00 8.202662e+00 3.067315e+00 4.390270e+00 3.307503e+00 8.129973e+00 1.136432e+01 1.789722e+00 3.063565e+00 -1.512927e-01 -6.237264e-01 2.808437e-01 1.348585e+00 2.505749e-01 2.806400e-01 1.281055e+00 6.760738e-01 7.979451e-01 9.172623e-01 1.843756e+00 1.707915e-01 -2.992197e-01 0.000000e+00 
-1.666997e+00 6.721144e+00 -3.822210e-01 5.951797e+00 1.011873e+01 3.671529e+00 4.162150e+00 3.472717e+00 7.719040e+00 5.824409e+00 4.793792e+00 5.236846e+00 -1.512927e-01 -8.049041e-01 -3.980817e-01 7.339364e-01 -6.278186e-01 3.106921e-01 4.253979e-02 -1.189336e+00 6.066062e-01 3.354438e-01 -1.133340e+00 1.629833e-01 -1.543136e-01 0.000000e+00 
-1.711939e+00 7.997221e+00 1.367877e+00 9.441014e+00 1.076706e+01 6.139363e+00 3.001654e+00 2.600220e+00 5.096570e+00 5.222231e+00 2.697938e+00 3.712022e+00 -1.512927e-01 -9.804302e-01 -1.404036e+00 -8.093883e-01 -1.517504e+00 3.200114e-02 -1.357963e+00 -1.713598e+00 -9.378008e-01 -1.015043e-01 -1.715690e+00 7.744493e-01 7.142615e-01 0.000000e+00 
-4.477826e+00 1.730977e+00 -3.658287e+00 2.033056e+00 9.093419e+00 -1.723919e+00 -2.785093e+00 3.235634e+00 9.692619e+00 2.133090e+00 3.771909e+00 4.955849e+00 -1.512927e-01 -9.433644e-01 -1.407499e+00 -1.458152e+00 -1.377668e+00 -6.955271e-01 -1.443453e+00 -1.026570e+00 -1.274647e+00 -1.804638e-03 -2.051258e-01 -8.634167e-01 -2.810267e-01 0.000000e+00 
-4.854159e+00 2.033017e+00 -3.292187e+00 2.629891e+00 8.875324e+00 -1.024774e+00 -7.040987e-01 -1.262959e+00 6.635663e+00 4.631530e+00 6.172910e+00 6.775371e+00 -1.512927e-01 -2.729332e-01 -6.363229e-01 -1.265133e+00 -5.497543e-01 -8.626283e-01 2.225894e-01 -1.589483e-01 -1.327598e+00 -5.805101e-01 5.968878e-01 -5.586557e-01 -3.236983e-01 0.000000e+00 
-4.812709e+00 2.665752e+00 -5.342951e+00 2.469019e+00 7.586966e+00 3.633142e-02 8.821743e-01 -9.689265e-01 6.940471e+00 5.094131e+00 -1.260778e+00 2.300038e+00 -1.512927e-01 6.769770e-01 8.089916e-01 4.720733e-01 1.620232e+00 -5.355977e-01 1.480461e+00 1.103491e+00 -7.766246e-01 -1.439873e+00 9.763337e-01 3.897815e-02 -1.091360e+00 0.000000e+00 
-2.909163e+00 4.348219e+00 -4.115455e+00 6.474262e+00 7.207147e+00 6.372185e+00 3.732786e-01 -1.935492e+00 3.570093e+00 6.726150e+00 2.421003e+00 3.421436e+00 -1.512927e-01 5.702542e-01 9.654634e-02 -3.343976e-01 3.746307e-01 -1.009429e+00 -1.764949e-01 1.353409e-01 -1.353019e-01 -5.975250e-01 -4.516279e-01 -8.688610e-01 -8.735344e-01 0.000000e+00 
-2.065439e+00 4.618334e+00 -8.862866e-01 8.212032e+00 7.249518e+00 1.979904e+00 2.193675e+00 -3.112229e-01 4.026041e+00 5.967448e+00 5.842753e+00 1.176016e+00 -1.512927e-01 2.755488e-01 -9.329748e-03 3.456683e-02 2.730685e-01 -1.980390e-01 -5.744076e-02 5.135573e-01 -4.244675e-01 2.611415e-01 -5.860111e-01 3.145374e-01 4.867025e-01 0.000000e+00 
-3.376523e+00 1.539457e+00 -7.192507e+00 1.631538e+00 3.996904e+00 -2.879035e+00 -6.831446e-01 -2.268321e+00 5.105252e+00 1.936732e+00 -1.723161e+00 2.969710e+00 -1.512927e-01 -1.720090e-01 -1.244321e-01 -1.777576e-01 -2.393385e-01 2.941864e-01 -1.600060e-01 8.994285e-01 -4.592342e-01 1.126957e+00 -5.743395e-01 -3.532785e-01 6.859353e-01 0.000000e+00 
-3.201285e+00 4.023484e+00 -3.631591e+00 6.255723e+00 8.201892e+00 4.374738e+00 3.978172e+00 -2.924850e+00 7.478599e+00 4.558784e+00 2.383991e+00 4.959414e+00 -1.512927e-01 -2.096455e-01 1.294325e-01 -1.929692e-01 7.115684e-02 6.109736e-01 1.204344e+00 8.230312e-01 -5.883782e-01 9.278463e-01 -1.952755e-02 -2.810372e-01 9.556499e-01 0.000000e+00 
