-8.337048e+00 4.420615e+00 4.039544e+00 2.212711e+00 1.282604e-01 3.217933e+00 3.125543e+00 7.786004e+00 9.480320e-01 3.096467e+00 2.754554e+00 3.859199e+00 -1.512927e-01 -1.235374e-01 5.710286e-02 4.732746e-01 6.210682e-01 1.486317e+00 -3.993142e-01 9.269740e-01 1.679767e-01 8.304069e-02 -1.950521e-01 4.112901e-01 -5.652496e-01 0.000000e+00 
-8.480705e+00 5.297248e+00 5.273103e+00 3.197241e+00 3.867009e+00 9.032488e-01 6.252293e+00 8.209150e+00 2.055074e+00 -4.296972e-01 4.233523e+00 3.637508e+00 -1.512927e-01 8.440037e-02 4.742549e-01 6.897070e-01 6.393544e-01 9.782456e-01 4.904245e-01 1.094646e+00 8.805642e-01 9.710342e-01 5.718134e-01 1.019214e+00 3.563551e-01 0.000000e+00 
-8.882906e+00 4.267813e+00 5.789137e+00 4.825788e+00 5.690470e+00 2.378704e+00 6.197038e+00 8.414314e+00 8.097144e-01 3.884289e+00 4.071519e+00 1.143797e+00 -1.512927e-01 4.902965e-01 -2.156384e-01 5.670464e-03 4.057316e-01 -3.218069e-01 9.539098e-01 1.378117e+00 1.601516e+00 1.497659e+00 7.611817e-01 2.295232e-02 8.790040e-02 0.000000e+00 
-7.642117e+00 6.868291e+00 6.613282e+00 4.102945e+00 2.238383e+00 6.089670e+00 7.063024e+00 1.187467e+01 5.872362e+00 5.561624e+00 7.192140e+00 6.998676e+00 -1.512927e-01 7.104613e-01 4.388060e-02 -4.287883e-01 7.859931e-02 -6.102827e-01 1.486017e+00 8.448482e-02 2.186692e-01 6.656976e-01 1.439193e+00 -5.937530e-01 -3.375679e-01 0.000000e+00 
-6.304859e+00 2.556902e+00 3.397807e+00 3.788517e+00 -6.664610e-01 5.394271e+00 9.610764e+00 1.396082e+01 6.527686e+00 3.906715e+00 1.390007e+00 2.618117e+00 -1.512927e-01 7.781849e-01 5.257977e-01 -7.316919e-01 -5.421987e-01 -8.557237e-01 6.814343e-01 3.479338e-01 -7.279968e-02 -3.297888e-01 -5.921378e-01 -1.467445e+00 -1.294491e+00 0.000000e+00 
-6.217422e+00 6.372107e+00 4.324827e+00 4.108872e+00 3.994061e+00 6.825548e+00 4.967854e+00 6.529242e+00 2.524576e+00 6.755056e+00 2.605514e+00 1.212509e+00 -1.512927e-01 3.384252e-01 2.643905e-01 -7.123289e-01 -8.505585e-01 2.425717e-01 1.865898e-01 5.014713e-01 -1.252105e+00 -1.077660e+00 -1.408312e+00 -2.396492e+00 -1.617454e+00 0.000000e+00 
-5.704329e+00 7.144893e+00 3.274906e+00 2.111830e+00 5.340123e-01 5.417937e+00 8.984292e+00 1.072303e+01 8.346635e-01 3.268843e-01 -9.723915e-01 -2.435572e+00 -1.512927e-01 -2.405724e-01 -8.600417e-02 -3.238080e-01 -1.029723e+00 2.188703e-01 -3.151292e-01 1.224130e-01 -5.315892e-01 -6.690693e-03 -1.413268e+00 -1.159460e+00 -4.689257e-01 0.000000e+00 
-6.250256e+00 5.896248e+00 3.113089e+00 6.884968e-01 2.851005e+00 7.010786e+00 9.883616e+00 7.233044e+00 3.330572e+00 3.099802e-01 -3.609121e+00 1.438252e+00 -1.512927e-01 -5.500027e-01 -1.180364e+00 -6.928443e-01 -1.555756e+00 -1.054021e+00 -1.458722e+00 -6.824692e-01 -8.734390e-01 -5.611736e-01 -1.741379e+00 -3.168549e-01 4.416943e-01 0.000000e+00 
-7.491304e+00 2.364810e+00 2.384636e+00 3.500878e-01 9.994190e-01 3.726006e+00 7.764947e+00 1.095098e+01 6.091235e+00 6.291080e-02 -1.299975e+00 1.606172e-01 -1.512927e-01 -5.253296e-01 -6.441621e-01 7.939436e-02 -3.461834e-01 4.823237e-02 -1.460539e+00 -1.637973e+00 -1.106271e+00 -6.329271e-01 1.746513e-01 1.026931e+00 4.309512e-01 0.000000e+00 
-8.073948e+00 2.860329e+00 1.305740e+00 -2.789034e+00 -1.508746e+00 3.779025e-01 2.165181e+00 2.048073e+00 -2.909577e+00 -1.819854e+00 1.185031e+00 2.122886e+00 -1.512927e-01 -1.158804e-01 -1.704223e-01 -4.425988e-01 -3.526639e-01 1.223051e-01 -3.529434e-01 -1.252924e+00 -4.013030e-01 -1.563036e+00 2.333022e-01 2.127481e+00 6.719055e-01 0.000000e+00 
-7.419130e+00 5.442042e+00 4.575552e+00 2.119679e+00 2.955049e+00 1.431683e+00 4.653645e+00 7.784159e+00 7.901024e-01 2.265058e+00 1.765186e+00 -6.231325e-01 -1.512927e-01 5.754824e-02 6.811399e-01 -1.914084e-01 2.734203e-02 1.417388e-01 7.889204e-01 1.039370e+00 -9.816117e-01 -1.416974e+00 4.022835e-01 1.525279e+00 1.318153e+00 0.000000e+00 
-6.865745e+00 3.505520e+00 -1.953633e-01 -1.959618e+00 2.484715e+00 6.393231e+00 5.174649e+00 6.809937e+00 -1.834044e+00 3.754177e-01 5.495704e+00 5.189655e+00 -1.512927e-01 -2.375149e-01 2.749187e-01 -3.790785e-01 -2.453887e-01 -4.482850e-01 1.228275e+00 1.489971e+00 1.095914e+00 2.675294e-01 2.347625e-01 3.893887e-01 1.170756e+00 0.000000e+00 
-7.807665e+00 5.447914e+00 2.178146e+00 7.208979e-02 -2.886171e-01 4.662944e+00 1.145706e+01 3.661986e+00 -1.531403e+00 9.766922e-01 4.171082e+00 5.217997e+00 -1.512927e-01 -2.678054e-01 -1.112847e-02 -1.041374e+00 -8.259450e-01 -1.058345e+00 6.500714e-01 -1.124038e-01 6.333782e-01 -4.218167e-01 -7.472992e-01 -4.865804e-01 1.229008e+00 0.000000e+00 
-9.067255e+00 4.231986e+00 6.090508e-01 -2.992184e+00 -2.128338e+00 4.903648e+00 6.213327e+00 9.588732e+00 -4.111774e-01 -1.858711e-03 1.929027e+00 5.056100e+00 -1.512927e-01 2.529196e-01 9.667098e-01 -1.019484e+00 1.061676e+00 -9.113434e-01 -3.428635e-01 -2.568222e+00 -1.047933e-01 -9.828964e-01 -1.508611e-01 -1.393829e+00 -1.382689e+00 7.740831e-03 
-7.657402e+00 5.023167e+00 -1.033527e+00 -1.493763e+00 -3.014994e-02 5.426831e+00 3.572287e+00 9.561653e+00 -2.030415e+00 -1.282800e+00 1.115623e+00 5.588686e+00 -1.512927e-01 6.934621e-01 5.188264e-01 -3.895113e-01 2.322763e-01 -3.040835e-01 -9.494478e-01 -3.829737e+00 -1.923232e+00 -1.360109e+00 -4.891972e-01 -1.288052e+00 -2.689584e+00 3.870416e-03 
-5.676278e+00 8.551443e+00 -3.686947e+00 4.131688e+00 -2.201235e+00 4.296970e+00 -3.724073e+00 3.336138e+00 -6.499020e+00 7.508581e-01 5.429107e-02 -1.909134e+00 -1.125885e-01 9.763800e-01 -4.024748e-01 -9.323160e-01 -1.401754e+00 -2.461384e-01 -2.656503e+00 -3.566039e+00 -9.722160e-01 1.939087e-01 1.082010e+00 -8.999560e-01 -2.942413e+00 0.000000e+00 
-6.035843e+00 5.882318e+00 2.378588e+00 -2.328465e+00 -1.772586e+00 2.190437e-01 -2.722926e+00 -2.827878e+00 -5.288028e+00 -1.845652e+00 -1.331811e+00 -4.747304e+00 -1.512927e-01 6.663103e-01 -1.260557e+00 -8.406149e-01 -2.320330e+00 7.301738e-02 -2.613597e+00 -2.643296e+00 4.878436e-01 2.794624e+00 2.531379e+00 5.961198e-01 -1.579391e+00 -3.870416e-03 
-4.996135e+00 1.790037e+00 -5.758587e+00 -9.583603e+00 -2.487812e+00 -5.774974e+00 -8.469261e+00 1.092242e+01 2.187173e+00 5.689616e+00 -1.347036e+00 -4.487970e+00 -1.512927e-01 -2.881207e-01 -1.362146e+00 3.915696e-01 -1.394816e+00 8.295776e-01 -1.416075e+00 -1.573843e-01 6.393601e-01 3.316978e+00 1.940911e+00 7.179245e-01 1.378062e+00 -7.740831e-03 
-4.665922e+00 2.101085e+00 -4.200782e+00 -6.237767e+00 4.782254e-01 -2.605185e+00 -7.271601e+00 8.207731e+00 7.599610e+00 8.904718e+00 4.796886e+00 -1.018851e+00 -1.512927e-01 -2.361406e+00 -3.214143e+00 6.301287e-01 1.200525e+00 1.840478e-01 2.171524e+00 3.979108e-01 1.425633e-01 2.519881e+00 1.155254e+00 1.487724e+00 2.879395e+00 7.063054e-02 
-7.801842e+00 3.631328e+00 1.560586e+00 -8.877404e-01 8.212469e-01 -1.371293e+00 -2.236657e+00 1.015134e+00 3.642049e+00 5.080226e+00 5.795646e-01 3.116951e+00 -1.512927e-01 -3.688470e+00 -4.302302e+00 2.059987e+00 2.435169e+00 -1.912735e-01 3.884159e+00 4.455348e-01 -2.324996e+00 1.128923e+00 -1.396125e-01 1.761562e+00 2.491683e+00 1.504694e-01 
-1.644002e+01 -1.110905e+01 1.869645e+00 -6.737705e-01 -2.506876e+00 8.874823e+00 -3.849674e+00 2.838581e+00 6.583941e+00 4.235311e+00 5.143508e+00 5.847213e+00 2.018600e-01 -2.416050e+00 -3.827748e+00 1.888397e+00 2.136502e+00 -4.918496e-01 2.342873e+00 -1.112862e+00 -9.195057e-01 1.132591e+00 -2.068676e-01 1.179957e-01 -5.395745e-01 9.439748e-02 
-1.755143e+01 -1.311641e+01 1.506134e+00 -1.897552e-01 -1.951629e+00 7.905818e+00 -7.952550e+00 1.982013e+00 8.339622e+00 7.326257e+00 7.287465e+00 4.537416e+00 4.244779e-01 -2.823639e-03 -1.434016e+00 7.642263e-01 1.474171e+00 4.250419e-01 7.465839e-01 -1.868002e+00 1.108023e+00 1.449271e+00 -3.165485e-01 -2.161422e-01 -2.648143e+00 -1.690506e-02 
-1.187138e+01 -8.663786e+00 5.268430e+00 4.095747e+00 -5.945849e-01 4.470627e+00 -9.977964e+00 3.126764e+00 1.091378e+01 6.747365e+00 2.032914e+00 -4.426956e+00 3.280944e-02 2.202465e+00 3.360201e+00 2.348379e-01 4.508731e-01 1.177969e+00 -1.372241e+00 6.353013e-01 7.731186e-01 -7.535214e-01 -9.626764e-01 -2.108521e+00 -2.966187e+00 -1.282076e-01 
-1.010028e+01 -4.761384e+00 3.682325e+00 4.098357e+00 1.990310e+00 4.563725e+00 -8.512522e+00 6.411156e+00 8.723487e+00 2.241457e+00 1.054150e+00 -4.986680e+00 -1.512927e-01 1.984895e+00 4.433505e+00 8.342747e-02 -3.815296e-01 6.759986e-01 -8.138472e-01 3.770325e+00 1.522955e+00 -2.595164e+00 -2.479447e+00 -1.964643e+00 -1.962044e-01 -1.335643e-01 
-9.153271e+00 1.514447e+00 1.955739e+00 -5.634612e-01 1.412001e+00 3.684667e+00 -3.931813e-01 4.489603e+00 2.624402e+00 1.964329e+00 -2.282440e+00 -4.221672e+00 -1.512927e-01 -1.515274e-01 1.099209e+00 -2.121310e-01 -8.682055e-01 2.020934e+00 5.062734e-01 2.477303e+00 8.564653e-01 -2.499310e+00 -2.725161e-01 1.027867e+00 1.338022e+00 -1.075395e-02 
-8.986012e+00 3.961999e+00 3.579616e+00 2.322011e-01 4.250717e-01 4.229562e+00 6.106681e+00 8.915369e+00 -4.915088e-01 -2.679461e+00 -3.780739e-01 3.453753e+00 -1.512927e-01 -9.572067e-01 -1.589782e+00 -1.340585e-01 -9.002703e-01 2.148112e+00 2.849659e-01 3.932313e-01 1.813283e-01 2.751264e-01 2.055176e+00 2.312809e+00 1.671596e-01 5.960028e-02 
-1.318615e+01 -7.529433e+00 4.259130e+00 1.687798e+00 1.029270e+01 7.169075e+00 -4.901052e+00 6.156984e+00 3.024724e+00 7.845244e+00 7.888361e+00 -1.957065e+00 -2.096033e-02 -2.394678e-01 -1.490543e+00 -1.599613e+00 -6.540250e-01 1.119308e+00 -1.165007e+00 -1.663821e-01 6.299818e-01 3.502502e+00 2.365851e+00 2.724742e+00 -9.444935e-01 6.113036e-02 
-1.286987e+01 -8.188354e+00 1.860337e+00 -1.528624e+00 8.290518e+00 4.246351e+00 -4.292430e+00 6.484107e+00 9.898957e+00 9.576881e+00 7.532793e+00 -5.283185e+00 8.154255e-02 3.377801e+00 4.818439e-03 -4.751367e+00 -2.352740e+00 -1.862986e+00 -4.177234e+00 -1.078782e-01 -2.206833e+00 2.399151e+00 6.998368e-02 -9.540212e-02 -2.409385e+00 9.766325e-02 
-8.408678e+00 1.369081e-01 -5.182687e+00 -2.953174e+00 3.075818e+00 -2.148765e+00 3.974464e+00 8.855143e+00 1.494168e+01 7.665411e+00 7.385837e+00 -4.575670e+00 3.794152e-02 5.979439e+00 1.492512e+00 -4.670177e+00 -2.258209e+00 -4.020759e+00 -5.746339e+00 2.233839e+00 -7.369803e-01 5.380585e-01 -4.633732e+00 -4.068128e+00 -1.715680e+00 1.456753e-01 
5.514256e+00 1.529205e-01 -1.545631e+01 -9.211015e+00 -5.281417e+00 -1.199769e+01 1.129532e+00 -3.467874e+00 5.545771e+00 -2.239626e+00 -6.038224e-01 -7.283868e+00 3.075727e-01 5.430817e+00 5.500109e-01 -2.108968e+00 -1.303222e+00 -2.808418e+00 -3.725735e+00 5.438492e-01 -1.715408e+00 -1.753487e+00 -5.220195e+00 -3.889620e+00 -1.138346e+00 1.842679e-01 
7.518979e+00 -4.237509e+00 -1.043343e+01 -5.762053e+00 -3.025123e+00 -1.344060e+01 3.557160e+00 7.448072e+00 7.891610e+00 -9.415163e+00 -8.383972e+00 -9.535123e+00 5.944011e-01 2.978304e+00 -1.382603e+00 1.409649e+00 -7.607925e-01 -1.247300e+00 -3.018605e-01 -1.465165e+00 -1.722118e+00 -1.400424e+00 -2.563941e+00 -2.647262e+00 -6.970053e-01 1.974837e-01 
6.320380e+00 -3.251092e+00 -6.059128e+00 -6.640294e+00 -2.701101e+00 -8.736407e+00 -1.364532e+00 -1.389397e+00 4.656555e+00 -7.983808e+00 -4.030404e+00 -8.495188e+00 7.246525e-01 -1.050561e+00 -1.343467e+00 2.567323e+00 -1.369611e-01 2.583343e-01 1.570951e+00 -1.372681e+00 -4.254166e-01 6.332194e-01 4.693774e-01 5.227275e-01 3.217396e-01 1.576399e-01 
6.079782e+00 -5.074099e+00 -2.833031e+00 -8.042497e+00 -4.450839e+00 -5.288708e+00 -2.104331e+00 -7.946849e-01 8.384164e+00 -2.282206e+00 -4.137181e+00 -7.455037e+00 8.168200e-01 -1.706551e+00 -1.016993e+00 9.501044e-01 -1.095288e+00 -1.601612e-01 8.259273e-01 -1.731913e+00 -2.089713e+00 4.037744e-01 1.666280e+00 2.260231e+00 6.369059e-01 1.071108e-01 
9.810476e-01 -6.146122e+00 -6.419897e+00 -8.755598e+00 -3.276887e+00 -8.218878e+00 -2.903127e+00 -1.473578e+00 8.465590e+00 -3.459218e+00 -1.135800e-01 -6.715213e+00 9.845627e-01 -8.400475e-01 -6.738859e-01 5.159373e-02 -1.225200e+00 -2.841675e-01 -7.874471e-01 -1.522264e+00 -9.150398e-01 8.667072e-01 4.731885e-01 2.339171e+00 -1.403187e-01 5.725985e-02 
1.655890e+00 -7.874957e+00 -5.502528e+00 -1.018084e+01 -3.538036e+00 -9.569728e+00 -4.333106e+00 -2.958400e+00 8.005964e+00 -3.346061e+00 9.587712e-01 -7.240581e+00 1.000000e+00 3.972917e-01 4.341620e-01 -5.016297e-01 -8.862640e-01 1.009615e+00 -1.405474e+00 -1.942667e+00 -9.670458e-01 -1.468925e-02 1.336527e-01 2.192477e+00 -1.260374e+00 1.509287e-02 
4.332088e+00 -5.220093e+00 -4.466411e+00 -1.169712e+01 -4.578341e+00 -1.053313e+01 -7.861463e+00 -4.882738e+00 9.179191e+00 -5.085938e+00 5.117476e+00 -9.304009e+00 9.193617e-01 1.670507e+00 3.149528e-01 3.005326e-01 2.984973e-01 5.136679e-01 -1.110287e-02 -1.361196e+00 -1.199758e+00 1.935618e-01 1.846005e-01 1.247373e+00 -1.286356e+00 -1.858090e-02 
6.390720e+00 -3.366304e+00 -6.317923e+00 -1.100305e+01 1.247964e+00 -1.115895e+01 -9.338499e+00 -3.925334e+00 7.953918e+00 -8.005821e-01 4.209678e+00 -1.246251e+01 9.248848e-01 1.081018e+00 -5.157481e-01 6.924834e-01 2.131083e-01 3.712810e-01 -2.862225e-02 -3.089844e-01 -2.411459e+00 1.928607e-01 -6.313779e-01 2.538241e-01 -4.788074e-01 -1.384213e-02 
6.966166e+00 -6.825685e+00 -4.509537e+00 -6.852005e+00 -3.101548e+00 -7.479780e+00 -7.206411e+00 -6.988902e+00 9.459423e+00 -3.808955e+00 4.497831e+00 -1.053603e+01 9.292158e-01 3.477587e-01 -1.359559e+00 9.757455e-01 8.954587e-01 -2.880899e-01 6.074376e-01 4.742898e-01 -1.811721e+00 -5.009476e-01 -3.753620e-01 -1.251018e-01 9.404901e-01 -6.857288e-03 
5.743940e+00 -9.650902e+00 -2.018548e+00 -1.153786e+01 -2.420027e+00 -1.123952e+01 -6.205554e+00 -1.396262e+01 8.830152e+00 -7.141442e+00 2.537714e+00 -9.018607e+00 9.258623e-01 -1.471400e-03 8.393488e-02 8.086197e-01 1.854862e+00 -1.686812e+00 9.521903e-01 3.640506e-01 -1.018932e+00 -7.362903e-01 -4.814721e-01 3.079876e-01 1.974416e+00 -3.818263e-02 
6.394271e+00 -8.875591e+00 -1.737370e+00 -6.952429e+00 -4.184794e+00 -7.455663e+00 -7.056487e+00 -8.922704e+00 6.236336e+00 -3.792318e+00 5.327949e+00 -6.323510e+00 8.845865e-01 -9.708701e-02 2.346394e+00 1.400836e+00 1.825577e+00 -7.703965e-01 -1.287796e-01 3.914327e-01 1.646907e-01 -1.881406e+00 2.949829e-01 9.043970e-01 1.422408e+00 -6.854538e-02 
6.669311e+00 -1.921677e+00 -3.660907e+00 -1.678530e+00 -6.644474e+00 -6.410059e+00 -7.593208e+00 -8.053095e+00 5.884009e+00 -3.216261e+00 5.334558e+00 -4.696692e+00 7.562863e-01 1.106333e-01 3.353734e+00 1.230823e+00 1.576508e+00 -8.363028e-01 1.214248e+00 4.438477e-01 -4.341811e-01 -1.450927e+00 9.545161e-01 1.555696e+00 1.643102e+00 -6.635643e-02 
6.018045e+00 1.041672e+00 3.315821e+00 -2.653785e+00 -4.841307e+00 -1.053841e+01 -4.555420e+00 -9.120209e+00 1.525464e+00 -4.296631e+00 7.621395e+00 -5.584949e+00 6.712769e-01 5.502733e-01 2.302004e+00 1.124571e+00 -7.204067e-01 4.972537e-01 1.474953e+00 -1.451162e+00 -1.077729e+00 -8.026059e-01 9.438684e-02 1.244521e+00 1.514129e+00 -4.096992e-02 
6.485219e+00 2.159137e+00 1.608973e+00 -5.804640e+00 -6.273285e+00 -3.626903e+00 -5.236848e+00 -1.603477e+01 3.930952e+00 -2.116704e+00 9.169470e+00 -1.172378e+00 7.007350e-01 7.378724e-01 1.714762e+00 1.342682e+00 -1.240134e+00 7.158245e-01 6.783041e-01 -1.508398e+00 -1.031787e+00 -1.194106e+00 -7.307805e-02 1.536064e+00 1.403980e+00 -1.404762e-02 
9.237684e+00 5.940228e-01 1.250545e+00 -8.491407e+00 -1.884120e+00 -1.472473e+00 -1.549048e+01 -1.032051e+01 3.199835e+00 -3.870162e+00 9.633096e+00 -5.150200e-01 7.075126e-01 1.056538e+00 1.257432e+00 -2.915240e-01 5.676780e-02 9.228099e-01 -2.307689e-01 -4.836583e-01 -1.198555e+00 -1.572029e+00 2.754165e-01 9.441155e-01 1.868622e+00 -4.288614e-03 
8.748854e+00 6.875958e+00 4.085144e+00 -4.960391e+00 -4.543944e+00 -7.551505e+00 -9.667669e+00 -1.261188e+01 -9.237046e-01 -3.794886e+00 1.200903e+01 -2.117543e-01 6.679304e-01 1.013969e+00 9.620758e-01 -5.474103e-01 1.958402e+00 6.749877e-01 -2.296285e+00 1.370049e+00 -1.397822e+00 -2.089780e+00 7.253286e-01 -7.964972e-01 2.057986e+00 -1.249813e-02 
1.016892e+01 4.970420e+00 6.201158e-01 -2.792071e+00 -1.091928e+00 -9.729950e+00 -4.758301e+00 -1.682443e+01 -3.907350e+00 -2.080458e+00 1.092219e+01 3.277850e+00 6.662362e-01 6.908562e-01 5.149127e-01 -8.655924e-01 2.775236e+00 -2.067326e-01 -1.522754e+00 2.578394e+00 -2.355549e+00 -2.223802e+00 1.264196e+00 -1.981337e+00 1.757854e+00 -1.450571e-02 
1.108945e+01 4.781318e+00 -8.128641e-01 1.137705e+00 -3.294443e+00 -1.097959e+01 -3.752689e+00 -1.977192e+01 -2.964354e+00 6.150868e-01 4.542436e+00 7.221115e+00 6.588825e-01 4.862273e-01 -4.239286e-01 -8.409345e-01 2.357454e+00 2.049713e-02 7.791720e-02 9.203863e-01 -1.325426e+00 -2.000813e+00 9.279032e-01 -2.605362e+00 1.118596e+00 -1.296776e-02 
1.152167e+01 4.215907e+00 -6.284134e-01 2.335726e+00 -3.542534e+00 -7.372203e+00 -5.555996e+00 -1.851824e+01 -6.898850e+00 2.458301e-01 3.459706e+00 4.557817e+00 6.395079e-01 1.643842e-01 2.839180e-01 6.267694e-01 1.865664e+00 -6.556854e-01 8.073454e-01 2.165100e-01 -2.353798e-01 -2.009965e+00 3.851411e-01 -2.272272e+00 8.642511e-01 -2.091403e-02 
1.050361e+01 5.133572e+00 5.047359e-01 4.262981e+00 -3.216156e+00 -8.340793e+00 -4.666891e+00 -1.839211e+01 -9.432018e+00 -3.185145e-01 2.713459e+00 4.741241e+00 6.164557e-01 1.355955e-01 3.551992e-01 1.254681e+00 1.391738e+00 -2.507218e-01 1.057047e+00 2.853540e-01 1.010241e+00 -2.795600e+00 3.389915e-01 -1.560308e+00 6.772885e-01 -3.184880e-02 
1.128375e+01 6.213883e+00 3.095163e+00 4.973610e+00 -4.409498e+00 -7.012622e+00 -3.218650e+00 -1.869124e+01 -1.072334e+01 3.120482e-01 4.753204e-01 8.839043e+00 5.828794e-01 2.665828e-01 1.901186e-01 1.526354e+00 1.037505e+00 1.936283e-01 7.731784e-01 5.034050e-01 1.012247e+00 -2.154167e+00 4.989273e-01 -1.862908e+00 1.159308e+00 -4.107786e-02 
1.188638e+01 5.558326e+00 3.598753e+00 6.777452e+00 -4.114570e+00 -5.874146e+00 -3.494592e+00 -1.463421e+01 -1.503011e+01 2.276935e+00 -1.766912e+00 8.466945e+00 5.279528e-01 2.797616e-01 5.259919e-03 1.002251e+00 1.044751e+00 3.502935e-01 1.022924e+00 8.300495e-03 1.188899e+00 -1.675039e+00 -3.528089e-01 -1.547479e+00 8.772200e-01 -4.387151e-02 
1.216320e+01 4.954123e+00 5.456347e+00 6.266018e+00 -2.125185e+00 -4.739635e+00 -3.625121e+00 -1.533595e+01 -1.487064e+01 1.442742e+00 -3.614650e+00 8.491505e+00 4.783701e-01 -4.429198e-01 1.750890e-01 4.658136e-01 -1.535788e-02 1.034848e+00 9.016301e-01 -4.658338e-01 1.133896e+00 -1.890233e+00 -4.409373e-01 -1.568150e+00 7.531452e-02 -3.728592e-02 
1.146270e+01 5.789752e+00 4.335399e+00 8.840531e+00 -2.606845e+00 -4.362665e+00 -4.422153e+00 -1.412525e+01 -1.573356e+01 -2.647906e+00 -2.978950e+00 9.301110e+00 4.493528e-01 -6.092535e-01 2.815327e-01 2.350378e-01 -5.720297e-01 1.241085e+00 5.007154e-01 -5.111836e-01 3.540375e-01 -2.059353e+00 -9.290953e-01 -2.084384e+00 -6.968743e-01 -3.378046e-02 
9.280995e+00 6.973615e+00 5.055908e+00 3.865281e+00 1.087809e-02 -3.260211e+00 -5.084039e+00 -1.327624e+01 -1.982278e+01 5.697823e-01 -6.759408e+00 8.798532e+00 4.357498e-01 -4.349981e-01 1.105196e-01 -7.700764e-02 -7.151618e-02 1.003195e+00 3.906741e-01 -2.234107e-01 5.217016e-01 -1.590849e+00 -9.814072e-01 -1.067795e+00 -1.276467e+00 -5.051622e-02 
1.028122e+01 5.956244e+00 4.974162e+00 5.117672e+00 1.022826e+00 -4.110280e+00 -5.321051e+00 -1.389388e+01 -2.285080e+01 -1.932061e+00 -1.061646e+01 4.829059e+00 3.803606e-01 -6.227325e-01 -5.135099e-01 -8.830175e-02 3.738053e-01 8.820928e-01 7.757080e-01 8.274230e-01 6.810951e-02 -4.073113e-01 -1.268892e-02 -4.351451e-01 -1.443034e+00 -5.931958e-02 
1.057895e+01 5.423475e+00 4.751928e+00 7.769867e+00 1.075954e+00 -2.912457e+00 -4.292725e+00 -1.284313e+01 -1.926626e+01 -3.822216e+00 -5.134871e+00 4.345194e+00 2.602851e-01 -4.534817e-02 5.320967e-01 9.848233e-02 1.778864e+00 8.069714e-01 1.070835e+00 2.354889e-02 7.507980e-01 1.421190e+00 -8.506638e-01 2.014607e+00 -2.203782e+00 -7.726920e-02 
7.700060e+00 3.997272e+00 4.045880e+00 8.757265e+00 1.271081e+00 -6.580029e-01 -6.806951e-01 -1.400126e+01 -1.804838e+01 -5.153512e-01 -5.966945e+00 4.312610e+00 2.404873e-01 -1.410686e-01 5.180684e-01 5.593376e-01 1.387578e+00 5.121278e-01 1.284528e+00 -6.203220e-01 2.615939e-01 2.189873e+00 -6.813585e-01 1.849867e+00 -1.594451e+00 -6.809270e-02 
1.034483e+01 1.061358e+01 6.012460e+00 1.093981e+01 3.921607e+00 3.678265e-01 -7.286473e+00 -9.468557e+00 -1.511804e+01 -4.391891e+00 9.888716e-01 -1.962153e+00 1.193405e-01 -1.473471e-01 8.274581e-01 6.578514e-01 7.241950e-01 1.073988e+00 7.256378e-01 -2.121895e+00 -1.428110e+00 1.475828e+00 -6.154286e-01 3.816572e-01 -1.310226e+00 -4.589693e-02 
9.692932e+00 5.951530e+00 7.140584e+00 1.047059e+01 2.160638e+00 6.722202e-01 -6.925787e+00 -1.427320e+01 -1.397554e+01 -5.054017e+00 -4.428992e+00 1.047561e-02 1.103694e-01 -4.807719e-01 -6.459770e-01 -8.528408e-01 -2.717527e-01 -8.061384e-01 -6.778790e-01 -4.426637e-01 -2.568633e-01 2.573004e+00 -5.673008e-01 5.698290e-02 -4.947049e-01 -5.244520e-02 
8.845779e+00 8.583636e+00 6.493834e+00 1.053418e+01 6.001117e+00 5.062103e-02 -1.177966e+01 -1.984771e+01 -1.392354e+01 -4.630026e+00 -3.995561e+00 -5.486941e-02 9.585941e-02 -6.952536e-01 -2.043729e+00 -1.942500e+00 -6.065570e-01 -2.315527e+00 -1.239761e+00 2.202470e+00 -4.214039e-02 2.663481e+00 6.531662e-02 -1.188035e+00 3.014528e-01 4.125625e-03 
6.045727e+00 1.782362e+00 -4.590099e-01 7.601315e+00 -3.799365e+00 -3.888795e+00 -6.474218e-01 -1.009600e+01 -5.780610e+00 -3.232788e+00 -3.189814e+00 8.854430e-01 -9.998202e-03 5.923083e-01 -1.818017e+00 -9.194499e-01 -1.236656e+00 -1.860320e+00 -1.337846e+00 2.489954e+00 2.651934e+00 2.774987e+00 1.400768e-01 3.786996e-01 -5.109099e-01 2.622774e-02 
8.692167e+00 2.479522e+00 9.976006e-02 9.341659e+00 -4.676028e+00 -3.550470e+00 5.866961e-01 -1.176786e+01 -5.898107e+00 -4.975923e+00 -5.570893e+00 -8.923723e-01 2.001524e-01 1.983435e-01 -1.965249e+00 1.070137e-02 8.016153e-02 1.145902e+00 1.566997e+00 1.817205e+00 4.927356e+00 1.659060e+00 -9.478434e-01 5.750274e-01 -1.323689e+00 1.362497e-02 
1.273128e+01 -8.649755e-02 5.740371e+00 4.883572e+00 -1.802388e+00 -4.216465e+00 -6.591964e-01 -5.053455e+00 -4.113327e+00 -4.180685e+00 -1.747828e+00 -2.125322e+00 1.893616e-01 9.333290e-01 -1.467336e-01 6.102257e-01 5.188033e-01 1.985355e+00 1.235108e+00 -3.275385e-02 3.388690e+00 -6.609235e-01 -5.052284e-01 7.755146e-01 -9.777147e-01 9.725546e-03 
6.494720e+00 -3.081806e-01 3.447650e+00 1.229386e+01 1.073214e+01 8.049442e+00 -2.687745e+00 2.267798e+00 -6.461884e+00 -8.895294e+00 -1.841417e+00 -5.167932e+00 6.430435e-02 3.190456e-01 1.195963e+00 5.425439e-01 5.502295e-01 2.288261e+00 9.743795e-01 -1.108402e-01 2.672820e+00 -7.444984e-01 6.284719e-01 1.053188e+00 -5.342178e-01 -2.455287e-02 
1.181110e+01 2.442545e+00 9.181738e-01 8.719232e+00 -1.576675e+00 -3.513210e+00 8.260293e-01 -1.703811e-01 -8.803339e+00 -3.799243e+00 -1.176979e+00 -1.865350e+00 1.065536e-01 -4.874508e-01 2.260986e+00 -4.055254e-01 4.916881e-01 2.405824e+00 1.924966e+00 3.825049e-01 7.173041e-01 -3.928290e-01 1.939215e+00 7.010781e-01 7.431419e-02 -3.527529e-02 
1.074749e+01 7.194818e+00 5.223578e+00 1.017498e+01 6.652421e+00 9.698007e-01 -7.101178e-01 -8.452954e-01 -7.275592e+00 -2.024284e+00 -5.903780e-01 -3.693447e+00 1.187921e-01 -9.902906e-01 1.279677e+00 4.434631e-01 -8.427869e-01 1.010255e+00 1.205398e+00 1.869864e+00 5.083183e-01 8.403826e-01 2.418712e+00 7.383627e-01 -2.362353e-01 -5.520064e-02 
8.167643e+00 7.466933e+00 2.824780e+00 8.401453e+00 1.226659e+01 8.948186e+00 2.645149e-01 8.961153e-02 -5.670618e+00 2.079886e+00 1.132043e+00 -2.490994e+00 -1.425874e-02 -3.060357e+00 -8.576183e-01 -5.791881e-01 -9.359131e-01 1.668863e+00 2.845747e+00 1.649215e+00 1.701561e+00 1.661950e+00 1.205253e+00 6.352583e-01 3.426125e-01 -7.857772e-02 
3.364994e+00 3.578009e+00 4.711662e+00 8.238812e+00 8.861780e+00 7.845734e+00 6.942330e+00 4.679393e+00 -3.826332e+00 2.586985e-01 6.958860e-01 -6.036287e+00 -1.512927e-01 -3.405903e+00 -2.053076e+00 -2.207743e+00 -2.922541e+00 -1.710616e+00 1.273156e-01 2.043119e+00 1.434749e+00 8.153983e-01 -6.580896e-01 8.789590e-01 2.386374e+00 -6.772034e-02 
2.005558e-01 -3.714180e-02 -1.721809e+00 5.007748e+00 5.662960e+00 7.277558e+00 5.245880e+00 5.575079e+00 -2.218221e+00 1.085533e+00 1.356180e+00 1.019132e+00 -1.512927e-01 -2.681223e+00 -1.185640e+00 -1.311258e+00 -2.931329e+00 -2.758440e+00 -1.633955e+00 1.475328e+00 1.276867e+00 7.130983e-01 -9.409103e-01 -1.162844e-02 1.702269e+00 -2.740679e-02 
-2.298485e+00 6.814772e-01 -3.541843e+00 -2.740877e+00 1.401160e+00 2.441692e+00 7.014797e+00 3.585715e+00 -4.924799e+00 -4.817555e+00 3.692348e+00 6.483360e+00 -1.512927e-01 -1.707376e+00 2.830881e-01 -2.832665e-01 -1.678835e+00 -1.686054e+00 -1.822066e+00 -2.269924e-01 5.014264e-01 -4.319047e-01 -7.915599e-01 -2.180279e-01 1.614834e+00 0.000000e+00 
-2.406735e+00 2.987001e+00 3.952429e-01 -7.653474e-01 2.204700e+00 3.480430e+00 7.604920e+00 7.020788e+00 -1.555892e+00 -8.653855e-02 -4.243305e-01 -2.394725e-01 -1.512927e-01 -7.473266e-01 1.400006e+00 1.162627e+00 8.797665e-01 -1.959344e-01 -1.952438e+00 -1.561238e+00 -6.538758e-01 -9.334614e-01 -9.543186e-01 -1.570009e-01 -9.550568e-01 0.000000e+00 
-3.868243e+00 3.481378e+00 2.236804e+00 2.731185e+00 2.160640e+00 6.339700e-01 4.627848e+00 6.463671e+00 -6.317019e+00 -3.113065e+00 4.960018e-01 2.667184e+00 -1.512927e-01 -7.005453e-02 1.148785e+00 4.638573e-01 5.564756e-01 -6.987238e-03 -1.637242e-01 -1.661506e+00 4.869338e-01 8.638336e-01 3.662094e-01 -1.424930e-01 -1.216758e+00 0.000000e+00 
-2.751198e+00 5.562936e+00 1.202005e+00 6.670549e+00 4.303548e+00 -1.580773e+00 -1.366836e+00 8.667221e-01 -6.189417e+00 -4.538306e+00 2.169349e+00 -1.848064e+00 -1.512927e-01 1.030234e-01 -2.226115e-01 -1.827908e+00 -1.407531e+00 -6.479681e-01 8.374128e-01 -5.543854e-01 1.582269e+00 1.842513e+00 3.187334e-01 3.280813e-01 6.286935e-01 0.000000e+00 
-2.476526e+00 5.137434e+00 -1.625937e+00 -3.676447e+00 3.167996e-01 4.153673e+00 3.193143e+00 9.097417e+00 1.711131e+00 -7.606244e-01 1.683043e+00 1.203866e+00 -1.512927e-01 1.494598e-01 -8.644739e-01 -1.890606e+00 -2.638052e+00 -1.046692e+00 9.157286e-01 1.454345e+00 1.662262e+00 3.211306e+00 8.587898e-01 -2.838789e-01 3.585119e-01 0.000000e+00 
-2.587477e+00 1.045916e+00 -6.812928e+00 -4.599185e+00 -1.132202e-01 5.907642e+00 5.550346e+00 1.361526e+01 3.642600e+00 3.309081e-01 6.225553e-01 3.635654e+00 -1.512927e-01 2.104631e-01 -2.905422e+00 -2.405111e+00 -2.930210e+00 -1.434968e+00 8.993820e-01 1.909525e+00 5.947201e-01 2.641675e+00 1.421853e+00 -1.854270e+00 3.087450e-01 0.000000e+00 
-3.202805e+00 1.417518e+00 -3.208757e+00 -4.824210e+00 -8.644352e-01 1.468405e+00 8.440983e+00 8.400713e+00 4.823503e+00 -1.253723e+00 -1.499959e-01 1.717884e+00 -1.512927e-01 5.850040e-01 -3.862746e+00 -1.803577e+00 -1.920519e-01 -1.024075e+00 -3.987616e-01 3.234489e-01 -1.701381e+00 8.157473e-01 1.206550e+00 -2.790553e+00 -5.173622e-01 1.136246e-02 
-1.335743e+00 -7.104218e+00 -1.003214e+01 -7.406621e+00 -2.280676e+00 4.258771e+00 5.556869e+00 4.188675e+00 5.462773e+00 2.817509e+00 -6.185482e+00 -5.613488e-01 -1.512927e-01 5.464885e-01 -4.483863e+00 -9.897388e-01 6.767668e-01 -9.742912e-01 -6.388611e-01 1.808019e-02 -1.898963e+00 9.098384e-01 1.284058e+00 -3.121698e+00 -5.082435e-01 3.710269e-02 
-1.773729e-01 -1.010123e+01 -9.034218e+00 -3.232989e+00 -3.719845e+00 2.984301e+00 4.807127e+00 5.303803e+00 4.879781e+00 4.028825e+00 -8.865705e+00 7.155564e-01 -9.448040e-02 2.455656e-01 -3.933739e+00 -8.288447e-01 7.176799e-01 -1.319309e+00 6.004556e-01 -5.845308e-01 2.022415e-01 1.052194e+00 1.661752e+00 -2.029923e+00 4.574822e-01 3.861746e-02 
-1.367750e+00 -1.561403e+01 -8.848892e+00 -2.010962e+00 -3.556972e+00 1.955389e+00 7.457675e+00 5.668902e+00 8.163652e+00 4.109926e+00 -1.062808e+01 1.595601e+00 5.814612e-03 -3.272233e-01 -2.166453e+00 1.005487e+00 -3.191583e-02 -6.772752e-01 -4.932289e-02 -3.093124e-01 1.227100e+00 3.822997e-01 6.957903e-01 -4.043535e-01 -1.308792e-01 4.358793e-02 
-1.958973e+00 -1.399627e+01 -7.944605e+00 -3.933640e+00 -6.822835e+00 5.622375e+00 4.567925e+00 8.671806e+00 8.734032e+00 6.408828e+00 -8.078309e+00 2.926821e+00 -3.675902e-02 -5.556432e-01 -7.436892e-01 8.696607e-01 -6.305350e-01 4.084485e-01 1.082117e+00 2.616013e-01 1.152754e+00 7.183594e-01 -2.010129e-01 -1.089177e-01 -9.461091e-01 2.068205e-02 
-2.081059e+00 -1.598896e+01 -5.549511e+00 -7.215875e+00 -4.115558e+00 2.693120e+00 4.129908e+00 8.640173e+00 5.447146e+00 5.106459e+00 -8.600947e+00 -2.321377e+00 3.778630e-02 -3.129305e-01 9.270399e-01 1.046738e+00 3.174092e-01 1.108249e+00 1.096036e+00 1.264642e-01 4.890754e-01 2.041480e-01 -1.574394e+00 -3.888312e-01 -1.723105e+00 -1.457353e-02 
-2.598934e+00 -1.363221e+01 -6.335605e+00 -3.783208e+00 -1.398310e+00 8.026022e+00 7.779017e+00 9.581938e+00 9.829831e+00 2.525494e+00 -1.042386e+01 -2.056500e+00 -7.055998e-03 -1.396770e-02 5.726700e-02 6.124454e-01 2.687338e-01 7.493703e-01 1.842718e-01 -2.190366e-02 -6.777738e-01 2.212498e-01 -1.139767e+00 -9.166867e-01 -7.658814e-01 6.608242e-03 
-2.612422e+00 -1.116086e+01 -4.419702e+00 -4.991323e-01 -7.279878e-01 6.233746e+00 6.484450e+00 7.659213e+00 8.636493e+00 -1.820376e+00 -1.139946e+01 -4.528266e+00 -8.190453e-02 -2.812920e-01 1.534888e+00 7.637607e-01 1.587945e+00 1.501143e+00 5.118282e-01 -7.865582e-01 -1.071899e+00 1.159925e-01 -5.860835e-01 -3.401470e-01 4.955043e-01 -3.149744e-02 
-1.763130e+00 -1.612399e+01 -5.447283e+00 -5.948342e+00 -4.769768e+00 4.773420e+00 3.281135e+00 5.773417e+00 8.245607e+00 4.173409e+00 -1.126248e+01 2.008584e-01 5.612761e-02 -1.004960e+00 4.008436e+00 2.089993e+00 1.095326e+00 2.083155e+00 -1.066541e-01 -1.052844e+00 -1.402875e+00 -2.464378e+00 -2.676639e-01 2.326616e+00 6.811255e-01 -3.578615e-02 
-3.905421e+00 -7.068629e+00 -2.174868e+00 1.806418e+00 5.075885e+00 6.878561e+00 2.446057e+00 5.184937e+00 6.819221e+00 1.352083e+00 -9.882371e+00 -9.725346e-01 -1.512927e-01 -9.503326e-01 8.035879e-01 7.766368e-01 -6.456199e-01 1.134164e+00 -6.013685e-01 4.733914e-01 1.275362e+00 2.489242e-01 1.469838e+00 2.183899e+00 1.994567e+00 1.301404e-02 
-6.977236e+00 4.363857e+00 2.991947e+00 5.406487e-01 6.115527e+00 7.170343e+00 4.533994e+00 3.804702e+00 -1.583425e+00 -3.990548e-01 4.506701e-01 -4.287384e-01 -1.512927e-01 -7.384810e-01 -1.172244e+00 -1.143247e-01 -8.462739e-01 -1.255482e-01 -1.709566e+00 1.836517e-01 2.140140e+00 1.641751e+00 8.221524e-01 1.035906e+00 1.403394e+00 1.999115e-02 
-4.757032e+00 -1.738684e+01 -4.756132e+00 -6.971727e+00 -4.998133e-01 2.028442e+00 8.224977e+00 1.502038e+01 1.479563e+01 7.815047e+00 -6.336546e+00 5.759367e+00 8.687580e-02 -1.146568e-01 -4.796747e-01 5.929403e-02 -1.147083e+00 -1.397523e+00 -1.921079e+00 -3.435595e-01 5.262106e-01 -6.940790e-01 4.049450e-01 1.404812e+00 2.160828e+00 1.882918e-02 
-5.029730e+00 -1.682610e+01 -4.728274e+00 -5.790639e+00 -2.609660e+00 -1.349353e+00 1.309934e+00 1.155639e+01 1.246616e+01 5.052690e+00 -7.855865e+00 3.851875e+00 3.699911e-02 3.138215e-01 2.030688e+00 5.332910e-01 8.256112e-01 -2.543811e-01 -1.018516e-01 -5.231253e-01 -8.564507e-01 -3.036451e+00 -1.219264e+00 1.310436e+00 8.272982e-01 -2.381685e-02 
-5.452458e+00 1.127978e+00 1.981712e+00 -7.633511e-01 2.450862e+00 1.533014e+00 2.340290e+00 3.940145e+00 -3.675965e+00 6.509356e-01 1.294956e+00 7.691300e+00 -1.512927e-01 -1.521376e-01 6.891608e+00 2.122486e+00 2.031946e+00 1.458425e+00 1.803273e+00 -4.467196e-02 -3.149331e+00 -5.910937e+00 -2.738595e+00 2.371514e+00 -6.666466e-01 -6.646287e-02 
-5.060415e+00 5.259888e+00 2.289480e+00 1.564517e+00 3.368283e+00 6.908799e+00 4.860712e+00 5.062568e+00 -7.529885e+00 -2.913320e+00 3.187100e+00 2.741786e+00 -1.512927e-01 -9.952144e-02 5.060884e+00 1.451710e+00 1.087590e+00 1.417847e+00 2.191289e+00 1.371853e+00 -1.949100e+00 -3.553946e+00 -1.644108e+00 1.441539e+00 -6.451514e-01 -3.765836e-02 
-5.502378e+00 6.028203e+00 2.347423e+00 -4.895760e-01 3.803339e+00 6.915732e+00 6.226229e+00 2.520642e+00 -4.761036e+00 -1.894921e+00 -4.609227e-04 2.981179e+00 -1.512927e-01 -5.418005e-02 1.056877e+00 7.893649e-02 -1.506543e-01 3.140007e-01 1.077237e+00 9.137396e-01 -5.380932e-01 5.987079e-02 -4.073315e-01 -5.778396e-01 -9.180849e-01 0.000000e+00 
