-6.364112e+00 3.801727e+00 6.590343e+00 1.862997e+00 -1.065007e+00 7.064114e-01 -6.608868e-02 8.254257e+00 1.979775e+00 -5.171234e+00 -1.007076e+01 -2.523226e+00 -1.512927e-01 -3.577994e-01 -2.829264e-01 -1.743364e+00 2.080514e-01 1.603949e+00 1.788698e+00 -5.657864e-01 -1.041332e+00 3.848791e-01 2.856768e+00 2.091823e+00 1.037384e-01 0.000000e+00 
-6.692213e+00 1.873901e+00 2.974688e+00 3.195781e+00 5.595121e+00 5.461975e+00 1.211259e+00 3.489063e+00 2.527487e+00 1.629713e+00 -2.006829e+00 -1.827702e+00 -1.512927e-01 -8.304259e-01 -4.923205e-01 -1.653527e+00 -2.086006e-01 9.832087e-01 9.036387e-01 -6.512763e-01 -9.637057e-01 -1.534461e-01 3.216584e+00 2.771993e+00 1.861013e+00 0.000000e+00 
-7.989058e+00 3.351008e+00 -3.186493e-01 2.236863e+00 3.624676e+00 7.272119e+00 -3.533694e+00 5.430197e+00 3.630315e+00 5.712131e+00 -3.643612e+00 -2.352295e+00 -1.512927e-01 -8.739439e-01 -6.303185e-01 -1.316003e+00 -5.618633e-01 -1.953785e-01 -3.043933e-01 6.999601e-01 -1.778176e-01 3.106611e-01 2.239072e+00 2.110265e+00 1.707529e+00 0.000000e+00 
-9.703768e+00 1.565484e+00 1.777207e+00 6.330614e-01 1.506195e+00 1.941751e+00 -1.588667e+00 4.847760e+00 3.872749e-01 5.470005e+00 5.756278e-01 6.696376e+00 -1.512927e-01 -3.638467e-01 -4.509118e-01 -4.162897e-01 -2.310400e-01 -1.051083e+00 -8.018204e-01 1.150115e+00 7.747781e-01 5.085406e-01 -1.947770e-02 2.386084e-01 1.618316e+00 0.000000e+00 
-9.228054e+00 8.043427e-01 6.090691e-01 3.350401e-01 2.563834e-03 9.445566e-01 4.833675e+00 6.685821e+00 4.603187e+00 4.103978e+00 -8.106658e-01 1.752379e+00 -1.512927e-01 -1.819939e-01 -6.461992e-01 1.203348e-01 -4.513650e-01 -2.013617e-01 -2.820604e-01 1.661207e+00 3.420385e-01 -2.346989e-01 -9.136965e-01 2.459600e-01 1.714497e+00 0.000000e+00 
-7.891949e+00 8.926740e-01 4.293804e-01 2.991492e+00 2.150760e+00 4.616654e+00 2.778151e+00 6.735141e+00 4.583754e+00 2.336401e+00 -2.230260e+00 4.211543e+00 -1.512927e-01 9.816571e-02 2.235954e-01 -2.020562e-01 1.487465e-01 3.168988e-03 1.187302e+00 5.104488e-01 1.043880e+00 -8.270892e-01 -1.201598e-01 2.593777e-01 6.686873e-01 0.000000e+00 
-9.804937e+00 4.564165e-01 9.569383e-01 -1.199178e+00 2.295586e+00 4.524365e+00 2.588930e+00 6.196698e+00 3.585811e-01 2.710451e+00 -1.010869e+00 7.462605e+00 -1.512927e-01 5.588741e-02 3.804552e-01 1.713649e-01 4.438973e-01 2.329757e-01 9.879802e-01 -4.851328e-01 1.038301e+00 -1.356500e+00 9.048986e-02 8.996893e-01 4.453077e-01 0.000000e+00 
-8.924498e+00 2.857424e+00 5.929914e-01 2.143903e+00 3.755291e-01 6.088357e+00 2.085949e+00 1.031172e+01 -1.625868e+00 5.565970e+00 1.972618e+00 7.184700e+00 -1.512927e-01 -2.162073e-01 2.476421e-01 6.329151e-01 -2.752970e-01 2.756143e-01 6.062205e-01 7.134967e-01 1.081481e+00 -1.445733e-01 6.079536e-02 9.091982e-01 -4.556163e-01 0.000000e+00 
-8.432343e+00 1.724244e+00 1.384088e+00 2.978321e+00 2.055058e+00 5.148606e+00 2.754112e+00 1.008903e+01 9.254969e-01 2.941643e+00 1.586342e+00 2.492339e+00 -1.512927e-01 -2.967853e-02 2.130009e-01 6.070433e-01 -2.058079e-01 4.909883e-02 8.263137e-02 1.369846e+00 4.043115e-01 1.336335e+00 4.982037e-02 7.119481e-01 -6.678881e-02 0.000000e+00 
-9.659283e+00 1.496971e+00 3.380381e+00 -4.737425e-01 3.649095e+00 7.335636e+00 6.263043e+00 1.019638e+01 3.577430e+00 2.524781e+00 1.017126e+00 4.418594e+00 -1.512927e-01 -4.299477e-01 1.119982e-01 5.162978e-01 -1.141697e+00 7.379539e-02 -8.930596e-01 1.248022e+00 -2.142411e-01 9.200706e-01 -8.724865e-01 4.128484e-01 1.418318e-01 0.000000e+00 
-9.585938e+00 2.201648e+00 2.598460e+00 -9.193945e-01 9.042968e-01 4.313882e+00 7.349614e+00 8.275928e+00 4.438606e+00 4.480147e+00 3.026618e+00 8.511713e+00 -1.512927e-01 -4.325605e-01 -8.483072e-02 1.791275e-03 -8.981707e-01 -2.834524e-01 -9.463975e-01 2.566865e-01 -4.508594e-01 -1.634758e-01 -4.886467e-01 7.238160e-01 4.992505e-01 0.000000e+00 
-1.049744e+01 3.178713e+00 2.567294e+00 -1.615723e+00 1.319886e+00 2.040421e+00 6.028306e+00 1.014707e+01 1.217930e+00 4.342854e-01 3.316722e+00 4.884172e+00 -1.512927e-01 -5.462433e-01 -3.526253e-02 -1.328088e-01 5.503642e-01 -4.105017e-01 -1.819244e+00 6.346993e-01 -6.104730e-01 -1.294257e+00 -2.636320e-01 1.590054e+00 -5.181146e-02 0.000000e+00 
-1.017607e+01 4.592193e-01 1.799588e+00 -9.415413e-01 1.802400e+00 3.064226e+00 4.154912e+00 7.859392e+00 1.287868e+00 1.543657e+00 4.055624e+00 4.755803e+00 -1.512927e-01 -2.635048e-01 -3.415029e-01 -1.495123e-01 7.534918e-01 3.708735e-01 -1.462888e-01 -3.172945e-01 -1.252340e+00 -9.715201e-01 6.766335e-01 2.939001e-01 -4.759203e-01 0.000000e+00 
-1.209543e+01 2.191873e+00 3.115773e+00 2.289152e+00 1.147535e+00 -1.135756e+00 1.103389e+01 7.352280e+00 -1.318485e+00 2.674866e+00 8.452892e+00 6.037492e+00 -1.512927e-01 3.120027e-01 -2.187844e-01 -4.473854e-01 2.844431e-01 4.201176e-01 1.804769e+00 -6.378514e-02 -9.078214e-01 -1.264456e-02 8.967668e-01 -5.196375e-01 3.624062e-01 0.000000e+00 
-1.010446e+01 9.875533e-01 1.576659e+00 8.956270e-01 2.844840e+00 5.170527e+00 3.260350e+00 3.411620e+00 8.492132e-01 6.743024e+00 1.928033e+00 5.555452e+00 -1.512927e-01 3.500633e-01 -9.267981e-02 -5.419037e-01 -7.779788e-01 -3.991675e-01 7.946040e-01 -9.542099e-01 9.812175e-01 1.762706e+00 1.316711e+00 -1.452750e+00 -4.512514e-01 0.000000e+00 
-8.973227e+00 1.820624e+00 4.418318e-01 -1.112092e+00 2.899255e+00 1.001112e+01 6.156662e+00 7.831848e+00 1.374034e+00 2.318436e+00 1.782329e+00 6.296378e+00 -1.512927e-01 6.797922e-01 -3.117650e-01 -6.385955e-01 -1.529619e+00 -1.211257e+00 7.467652e-01 -1.439118e+00 6.101679e-01 1.187263e+00 -7.919493e-02 -2.184009e+00 -1.951706e-01 0.000000e+00 
-9.986855e+00 1.814445e-01 4.270399e-01 -3.130813e+00 -1.069297e+00 1.463810e+00 1.822478e+00 1.252570e+01 8.755136e+00 8.305429e+00 1.271565e-01 2.370103e+00 -1.512927e-01 2.824966e-01 1.677975e-01 8.658760e-01 -1.872504e-01 -9.977577e-01 -7.825403e-01 -5.257730e-01 9.656184e-01 3.585426e-01 -8.552040e-01 -7.542632e-01 -4.462002e-01 0.000000e+00 
-8.755278e+00 1.036102e+00 4.976051e-01 -3.345720e+00 -2.951682e+00 4.451428e+00 4.557236e+00 5.846082e+00 6.648664e-01 1.497688e+00 -1.566715e+00 6.654314e+00 -1.512927e-01 4.695377e-02 4.713240e-02 1.128694e+00 7.277741e-01 -2.376351e-01 -9.842846e-01 -1.262978e+00 -5.488019e-01 4.554231e-01 3.353138e-02 -1.580354e-01 -1.107265e+00 0.000000e+00 
-8.800955e+00 2.218802e+00 5.878153e+00 1.076189e+00 7.815203e-01 4.037669e+00 1.431197e+00 9.232595e+00 2.996510e+00 2.877378e+00 -1.687605e-01 3.145483e+00 -1.512927e-01 6.397095e-02 -6.367180e-01 5.030914e-01 1.882482e+00 1.362910e+00 -5.062762e-01 -8.432361e-01 -5.826639e-01 -2.797149e-01 -6.468217e-01 7.402077e-01 -7.301487e-01 0.000000e+00 
-9.331408e+00 1.037607e+00 3.359745e+00 4.232776e-01 7.856706e-01 3.802764e+00 3.740978e-02 6.734388e+00 6.530463e+00 5.200119e+00 1.140111e+00 3.723601e-01 -1.512927e-01 1.042875e-01 -3.101940e+00 -2.177129e+00 1.420852e+00 8.126295e-01 -4.409073e+00 -7.846850e-01 1.724517e+00 1.803512e+00 2.748923e+00 4.332960e-01 -1.937638e+00 2.789090e-02 
-9.378935e+00 -3.002898e+00 1.511427e+00 4.397099e+00 3.876576e+00 -7.432389e-01 -1.337905e-01 9.168222e+00 4.423763e+00 3.220106e+00 2.474782e+00 1.860336e+00 -1.512927e-01 1.368975e+00 -2.121777e+00 -3.050573e+00 1.557789e-01 1.100403e+00 -4.882093e+00 6.948635e-01 -1.083103e-01 5.518106e-01 9.817517e-01 5.816768e-01 -1.990771e+00 3.158528e-02 
-7.944850e+00 -1.186275e+01 -8.204679e+00 2.098088e+00 -4.360626e-01 -1.520348e+01 1.416305e+00 1.450086e+01 8.968798e+00 1.507094e+01 -7.220062e-01 -2.391304e+00 -1.183820e-02 3.397658e+00 -7.510806e-01 -2.099803e+00 -1.839158e+00 2.332687e-03 -4.862283e+00 1.385336e+00 -3.194764e+00 -3.268162e-01 -2.249902e+00 3.226166e-01 -2.125055e+00 1.042381e-01 
-2.649358e+00 -1.939906e+00 -3.592501e+00 1.017679e+00 6.894403e+00 -1.086968e+01 4.216068e+00 4.807810e+00 4.536396e+00 2.850726e+00 3.670682e+00 -5.426539e+00 -6.309354e-02 4.138957e+00 -3.040104e-01 -6.335049e-01 -4.275600e+00 -5.854369e-01 -2.495130e+00 5.315273e-01 -4.590670e+00 -4.183094e-01 -3.998172e+00 -3.224407e-01 -2.403131e+00 1.979438e-01 
4.292092e+00 -3.249292e+00 -4.587309e+00 -7.082801e+00 -7.115792e-01 -1.544543e+01 4.789160e+00 -7.059227e+00 4.840065e+00 -5.864702e+00 2.155244e+00 -6.609479e+00 3.257980e-01 3.698728e+00 8.265419e-01 3.522643e-01 -4.281882e+00 1.339599e-01 4.848431e-01 -4.601222e-01 -4.089898e+00 -3.955472e-01 -4.781840e+00 1.168834e-01 -1.270509e+00 2.238890e-01 
5.197381e+00 -8.829678e+00 -3.464783e+00 -1.239046e+01 1.087150e+00 -1.309791e+01 8.374183e-01 -3.005086e+00 4.396582e+00 -6.302934e+00 -5.760465e-01 -8.046229e+00 6.696081e-01 1.881605e+00 -9.090127e-01 -1.592061e-01 -3.385061e+00 -1.078128e+00 8.705798e-01 -8.260342e-01 -7.040430e-01 6.129711e-01 -5.142849e-01 -2.907125e-01 -5.231913e-01 2.135227e-01 
6.625422e+00 -4.285151e+00 -6.507217e+00 -1.260725e+01 3.137363e+00 -1.166514e+01 8.050182e-01 -2.042187e+00 7.060968e+00 -4.261434e+00 1.985775e+00 -7.434001e+00 7.412559e-01 -6.841027e-01 -9.901064e-01 3.096622e-01 -9.817680e-01 -2.210172e-01 1.519891e+00 -9.768125e-01 1.546405e+00 9.501840e-01 1.299523e+00 6.433142e-01 1.150961e-02 1.358985e-01 
5.592000e+00 -5.967040e+00 -3.428577e+00 -1.314540e+01 -4.207110e-01 -8.406919e+00 2.077967e+00 -1.220925e+00 6.490800e+00 -5.223325e-01 2.301853e+00 -7.630234e+00 7.967909e-01 -1.750767e+00 -6.292597e-01 5.285228e-01 2.496720e-01 -9.607347e-01 6.967447e-01 -4.365641e-01 6.209084e-01 1.096086e+00 1.001887e+00 1.412627e+00 4.811422e-01 8.129121e-02 
6.742697e-01 -9.631143e+00 -3.057101e+00 -1.161417e+01 -1.062735e+00 -1.019147e+01 -7.151771e-01 -2.192845e-01 8.543877e+00 -2.257389e+00 3.932865e+00 -6.759928e+00 9.416994e-01 -2.030896e+00 -1.193730e+00 7.823063e-01 3.011767e-01 -1.253780e+00 1.275493e-01 -1.028432e+00 1.125314e-01 7.750823e-01 3.128461e-01 1.402378e+00 3.861849e-01 6.965397e-02 
-5.808802e-01 -9.302980e+00 -2.547226e+00 -1.163864e+01 -1.616475e+00 -1.035103e+01 -5.853047e-01 -8.119950e-01 9.135558e+00 -2.295522e+00 5.513544e+00 -5.977554e+00 9.758425e-01 -1.045338e+00 -5.402273e-01 1.946930e-01 6.125813e-02 -7.586389e-01 -5.136404e-01 -1.650523e+00 -7.397467e-01 8.772284e-01 -2.296374e-01 1.604271e+00 4.763220e-01 4.623003e-02 
-4.426193e-01 -8.585832e+00 -3.036361e+00 -1.185475e+01 -2.533653e+00 -1.005534e+01 -3.005503e+00 -1.683995e+00 9.614001e+00 -1.810608e+00 7.391822e+00 -6.329416e+00 1.000000e+00 5.284224e-01 3.522735e-01 1.198504e-01 1.473932e-02 -1.158843e+00 -7.734318e-02 -1.634086e+00 -1.442026e+00 4.813760e-01 1.771786e-01 1.554023e+00 6.535417e-01 1.060991e-02 
9.237561e-01 -9.190832e+00 -2.465482e+00 -1.271882e+01 -3.478446e+00 -1.104319e+01 -5.029483e+00 -4.187304e+00 1.034188e+01 -1.893909e+00 8.593731e+00 -5.463880e+00 9.987907e-01 9.038342e-01 6.057120e-01 3.083222e-01 6.278211e-01 -1.504167e+00 7.956791e-03 -1.874189e+00 -1.900541e+00 3.725385e-01 3.836247e-01 1.178723e+00 7.108067e-01 -6.203878e-03 
2.564064e+00 -7.925849e+00 -2.498721e+00 -1.100038e+01 -5.925964e+00 -1.023211e+01 -6.663518e+00 -5.741759e+00 1.034760e+01 -1.572302e+00 1.016289e+01 -3.749057e+00 9.832748e-01 9.826065e-01 5.916882e-01 6.726319e-01 1.526727e+00 -1.590920e+00 1.865225e-01 -1.622729e+00 -2.186252e+00 -3.578768e-02 5.269068e-01 7.968012e-01 1.061432e+00 -1.923199e-02 
2.434949e+00 -6.604412e+00 -1.274436e+00 -8.926718e+00 -7.441154e+00 -1.022286e+01 -8.127243e+00 -8.285820e+00 1.063145e+01 -4.965517e-01 1.002163e+01 -3.713701e+00 9.531857e-01 9.020092e-01 6.979904e-01 7.824877e-01 2.135478e+00 -1.382723e+00 3.400097e-01 -1.170570e+00 -2.004607e+00 -7.998111e-01 2.657629e-01 4.241039e-01 1.275064e+00 -2.706104e-02 
3.714817e+00 -6.920601e+00 -2.687247e-01 -6.117167e+00 -8.506902e+00 -9.532894e+00 -9.570267e+00 -1.056600e+01 9.290277e+00 1.252466e-01 1.066188e+01 -1.897346e+00 9.266426e-01 8.152342e-01 4.868279e-01 8.396021e-01 2.206947e+00 -1.045943e+00 3.955013e-01 -9.389811e-01 -2.262204e+00 -1.245093e+00 -1.458557e-01 1.554010e-01 1.486989e+00 -2.628649e-02 
4.858426e+00 -6.203505e+00 3.319583e-01 -4.483041e+00 -9.101592e+00 -9.692744e+00 -9.428957e+00 -1.179822e+01 6.871484e+00 -1.413869e+00 1.046475e+01 -1.441489e-02 8.918017e-01 9.974004e-01 2.905977e-01 5.509961e-01 1.682952e+00 -2.556901e-01 1.267176e-01 -9.533854e-02 -2.226873e+00 -1.531510e+00 -7.913302e-01 2.393269e-01 1.929708e+00 -2.069939e-02 
5.428496e+00 -5.692163e+00 8.960927e-01 -2.187485e+00 -1.032546e+01 -8.519661e+00 -1.070757e+01 -1.529658e+01 6.002116e+00 -1.842922e+00 1.071833e+01 1.836245e+00 8.825344e-01 6.584235e-01 3.119860e-01 2.590383e-01 9.505538e-01 5.086554e-01 -5.129194e-02 5.428404e-01 -1.818192e+00 -1.119466e+00 -7.451991e-01 -1.729924e-01 1.723054e+00 -1.710075e-02 
6.565111e+00 -5.765642e+00 8.981364e-01 -2.476800e+00 -7.810326e+00 -1.009589e+01 -8.035286e+00 -1.705489e+01 4.617981e+00 -3.469118e+00 1.119004e+01 4.068043e+00 8.717428e-01 2.556925e-01 4.160617e-01 -1.640686e-01 5.971858e-01 1.001530e+00 1.817231e-01 8.301169e-01 -1.306361e+00 -2.703763e-01 -3.453720e-01 -6.818988e-01 1.112616e+00 -2.408674e-02 
6.153592e+00 -5.579602e+00 7.433777e-01 -2.367518e+00 -6.609258e+00 -9.587781e+00 -7.552900e+00 -1.702862e+01 4.819695e+00 -2.573124e+00 9.434278e+00 4.676694e+00 8.511683e-01 9.450473e-01 2.039504e-03 -5.596140e-01 1.213756e+00 9.243900e-01 1.587210e-01 1.413937e+00 -2.868479e-01 -4.215992e-01 2.952084e-01 -1.841396e+00 4.086067e-01 -4.304636e-02 
5.774341e+00 -4.179477e+00 -4.120274e-01 -1.407096e+00 -5.952042e+00 -8.250069e+00 -6.855705e+00 -1.746401e+01 6.110813e+00 -2.775628e+00 7.697286e+00 4.128439e+00 7.870510e-01 1.227186e+00 9.624505e-02 -9.800199e-01 2.227298e+00 2.263261e-01 1.084640e-01 1.329135e+00 -5.849171e-02 -1.103140e+00 1.168271e+00 -2.541512e+00 6.933963e-02 -5.317969e-02 
1.054912e+01 -6.475049e+00 -1.246895e+00 3.346441e+00 -6.632650e+00 -8.648967e+00 -4.227674e+00 -1.652626e+01 3.147704e+00 -7.136251e-01 3.257725e+00 3.849080e+00 7.096485e-01 1.193606e+00 5.149838e-01 -6.943139e-01 1.982109e+00 5.066165e-01 2.308837e-01 3.810179e-01 8.433218e-01 -2.527250e+00 1.470698e+00 -2.733127e+00 -1.841192e-01 -6.219680e-02 
1.050328e+01 -4.836693e+00 -3.006826e+00 5.802711e+00 -6.666999e+00 -1.002298e+01 -3.052223e+00 -1.759853e+01 -6.172472e-02 1.442490e+00 1.570754e+00 4.828548e+00 6.766043e-01 6.628076e-01 1.212993e+00 4.595672e-01 1.498245e+00 1.544615e-01 5.992796e-01 -4.946714e-01 9.327194e-01 -3.100404e+00 1.004490e+00 -2.486356e+00 9.386361e-02 -6.034617e-02 
9.757154e+00 -2.676075e+00 -1.430792e+00 3.938126e+00 -3.718697e+00 -7.546908e+00 -7.549552e+00 -1.274475e+01 -4.730287e+00 2.671305e+00 -1.168090e+00 3.406044e+00 5.954077e-01 -1.581169e-01 1.748085e+00 5.001550e-01 5.195874e-01 4.660077e-01 1.995949e+00 -2.294226e+00 1.565678e-01 -1.412213e+00 -9.606654e-01 -1.268633e+00 4.151252e-01 -4.954694e-02 
9.484361e+00 -1.399815e-02 1.977757e+00 5.788284e+00 -6.636711e+00 -5.804700e+00 -7.668123e+00 -1.469117e+01 -5.452213e+00 5.543572e-01 -2.521587e+00 4.819276e+00 5.424406e-01 -1.411827e-01 1.161663e+00 1.069886e+00 1.656669e-01 1.159717e+00 1.507400e+00 -1.746467e+00 -1.502445e-01 -8.199363e-01 -6.667423e-01 -1.658334e+00 -3.216345e-01 -5.327216e-02 
1.026799e+01 -1.459732e-01 -1.238412e+00 5.951591e+00 -4.317756e+00 -7.783597e-01 -1.339085e+01 -1.719711e+01 -1.218117e+00 -5.072886e+00 -1.039268e+00 5.929343e+00 5.289956e-01 7.197396e-02 5.247595e-01 9.263369e-01 6.783928e-01 5.558139e-01 4.848549e-01 -8.550135e-01 -3.811453e-01 -6.985534e-01 -6.016600e-01 -9.852924e-01 -3.521071e-01 -4.917130e-02 
9.541947e+00 -2.934292e-01 2.246413e+00 5.624312e+00 -5.688847e-01 -5.870250e+00 -8.863909e+00 -1.612357e+01 -5.917491e+00 1.980873e+00 -6.785330e+00 1.958726e+00 4.434495e-01 1.543740e-01 2.915344e-01 7.135925e-01 5.422467e-01 7.558216e-01 -3.992653e-03 -1.051855e-02 1.266108e+00 -1.108405e+00 3.380985e-01 -1.064778e+00 -7.329853e-01 -5.500332e-02 
1.008823e+01 8.743840e-02 3.066564e+00 7.412076e+00 -3.973541e+00 -5.089859e+00 -1.122673e+01 -1.393427e+01 -7.990415e+00 -1.050253e+00 -3.962681e+00 3.075783e+00 3.990467e-01 2.214253e-01 -1.506075e-01 1.332022e+00 6.934081e-01 -7.898967e-02 -4.253830e-01 3.600771e-01 1.348818e+00 -1.684551e+00 6.338210e-01 -3.979685e-01 -5.372432e-01 -5.988502e-02 
1.034611e+01 1.326968e+00 3.393231e+00 7.769276e+00 -3.029710e+00 -3.668914e+00 -8.802780e+00 -9.992043e+00 -7.608090e+00 2.335329e-01 -6.383771e+00 2.581129e+00 3.323985e-01 1.563312e-01 1.219084e-01 1.153514e-01 7.567374e-01 9.662656e-02 4.345210e-01 3.455939e-01 1.538117e+00 -9.094971e-01 5.623793e-02 -3.054350e-02 -5.981576e-01 -5.088386e-02 
1.097304e+01 -1.709209e+00 4.848288e+00 8.346150e+00 -3.482291e+00 -4.005943e+00 -1.162103e+01 -1.351878e+01 -8.795571e+00 -1.030111e+00 -3.229890e+00 2.931925e+00 2.850960e-01 2.628711e-01 5.764850e-01 -6.828254e-02 4.033867e-01 8.510359e-01 -1.624913e-01 5.183039e-01 8.804333e-01 -1.262985e+00 1.186612e-02 -5.847079e-01 -7.530311e-01 -4.701813e-02 
9.881200e+00 1.214437e+00 1.932308e+00 8.940962e+00 -3.313767e-01 -4.239603e+00 -6.938786e+00 -8.640735e+00 -1.006240e+01 2.251992e+00 -7.304443e+00 -9.601330e-01 2.460055e-01 -7.112872e-01 4.083215e-01 -4.714929e-01 2.020388e-02 8.263885e-01 -9.335704e-02 5.650717e-01 -7.816286e-02 -1.052191e+00 -5.013441e-01 -2.954806e-01 -7.711994e-01 -4.232356e-02 
1.163504e+01 3.026129e+00 3.455613e+00 8.843166e+00 -1.067529e+00 -5.616971e+00 -9.567204e+00 -1.020776e+01 -1.307819e+01 -2.000152e+00 -6.425884e+00 1.081258e+00 2.071525e-01 -6.447012e-01 2.162243e+00 1.074810e-01 -2.799603e-01 8.201167e-01 1.381256e+00 1.094432e+00 3.960619e-01 -7.071766e-01 -5.289100e-01 2.189633e-01 -1.748729e+00 -4.817273e-02 
6.458673e+00 1.000906e+00 1.732104e+00 7.621787e+00 -1.051495e-01 -3.330185e+00 -7.004336e+00 -1.203837e+01 -1.072774e+01 -1.788167e+00 -6.263177e+00 -3.495347e-01 1.597524e-01 -6.021553e-01 2.358578e+00 1.419102e+00 -6.592829e-01 -9.672910e-02 1.217997e+00 -2.114782e-02 7.326447e-01 -3.266394e-01 -1.367701e+00 1.039991e+00 -1.287460e+00 -6.238739e-02 
9.460793e+00 9.208773e+00 5.485795e+00 7.605936e+00 5.051789e-01 2.445626e+00 -6.116096e+00 -9.839655e+00 -1.199878e+01 -1.654581e+00 -2.655706e+00 -6.117019e+00 8.735895e-02 -2.351801e-01 2.482922e-01 -2.051864e-01 -6.752934e-01 -4.616652e-01 9.940320e-01 8.351750e-01 7.756864e-01 2.185282e+00 -1.444731e+00 7.141520e-01 -5.232991e-01 -2.650191e-02 
7.957547e+00 9.916006e+00 8.012728e+00 6.263163e+00 -1.601376e+00 -2.180918e+00 -8.770079e+00 -5.161565e+00 -1.223530e+01 -4.759298e+00 -3.989579e+00 -3.798295e+00 -6.034613e-03 1.250909e+00 -1.304150e+00 -1.130943e+00 -9.598510e-01 -1.392609e+00 -9.417184e-02 8.492166e-01 4.164503e-01 2.731800e+00 -1.588324e+00 1.501191e+00 8.330985e-01 1.913509e-02 
9.709704e+00 -1.899599e-01 -7.106311e-01 6.146011e+00 -2.627741e+00 -1.221445e+00 -4.508458e+00 -9.767731e+00 -1.397997e+00 -7.738243e+00 -3.991923e+00 1.891426e-01 1.575365e-01 4.591209e-01 -2.253404e+00 -1.416118e+00 3.549371e-02 3.885486e-01 -5.154682e-01 1.190113e+00 1.218765e+00 1.941483e+00 -5.390701e-01 1.807593e+00 1.081941e+00 1.539488e-02 
1.258877e+01 -8.204784e-01 -8.243985e-01 3.552494e+00 -5.501735e+00 -1.967509e+00 -3.562073e+00 -9.992078e+00 -2.369133e+00 -6.687953e+00 1.910886e+00 6.628771e-01 2.203391e-01 1.453024e-01 -1.066923e+00 -7.455813e-01 8.192247e-01 2.550160e+00 1.477718e+00 2.551005e+00 2.025936e+00 1.457322e+00 1.079535e+00 1.097604e+00 -2.227345e-01 -6.670272e-03 
9.440789e+00 3.309994e+00 2.823767e+00 9.138739e+00 4.398102e+00 -2.384198e-01 -2.769534e+00 -1.330572e+00 -7.224453e+00 -3.385604e+00 3.432026e+00 -2.937900e+00 5.114651e-02 1.256239e-01 1.306886e+00 8.131825e-01 8.792032e-01 2.530902e+00 8.999497e-01 2.546687e+00 4.647826e+00 -1.752877e-01 2.045908e+00 1.328764e-01 -1.424341e+00 -3.849819e-02 
8.818517e+00 2.831416e+00 2.517623e+00 8.862923e+00 7.636504e+00 4.716161e+00 3.115485e+00 7.495341e-01 -2.035459e+00 -1.537943e+00 -2.213533e+00 -3.348447e+00 1.380903e-02 -4.120073e-01 1.322131e+00 5.267632e-03 -2.112198e-03 2.629041e+00 2.116932e+00 2.477793e+00 4.023268e+00 -4.997155e-01 1.715916e+00 1.184321e-01 -1.490693e+00 -4.768603e-02 
1.222295e+01 4.518524e+00 1.684271e+00 7.886813e+00 3.457650e+00 -6.353116e-02 4.886197e+00 8.100593e+00 -2.441273e+00 -8.370554e-02 -1.265332e+00 -4.926898e+00 6.831062e-02 -9.716716e-01 -2.649056e-01 -7.122475e-01 -1.164728e+00 4.052454e-01 1.813741e+00 2.138108e+00 1.804219e+00 -7.283345e-01 9.895375e-01 1.137856e-01 -4.811447e-01 -4.453605e-02 
9.137650e+00 5.185913e+00 -2.283123e-01 4.167896e+00 8.113697e+00 8.529706e+00 4.999026e+00 5.408681e+00 -7.259301e+00 2.406754e-01 4.851726e+00 -5.796087e+00 -2.667308e-02 -2.384400e+00 -9.327422e-01 -4.198533e-01 -8.405229e-01 1.095989e-01 9.121857e-01 -1.788404e-01 6.175324e-01 -1.510387e+00 -6.361431e-01 2.752652e-01 7.030205e-02 -5.498067e-02 
4.422864e+00 8.082176e-01 6.354973e-01 5.662612e+00 6.185732e+00 6.923513e+00 6.979238e+00 5.360947e+00 -8.254205e+00 6.727746e-01 4.683244e-01 -4.119803e+00 -1.512927e-01 -3.391953e+00 -1.445543e+00 -5.919576e-01 -9.835743e-01 -4.631036e-01 1.052115e+00 -8.302351e-01 -1.722740e+00 -1.550912e+00 -6.774205e-01 -7.673348e-01 1.066800e+00 -5.638262e-02 
7.965579e-01 2.285814e-02 9.427428e-01 5.772408e+00 6.820458e+00 5.783567e+00 1.174762e+00 5.207019e+00 -6.680928e+00 -5.096899e+00 -1.704035e+00 -3.400484e+00 -1.512927e-01 -2.698948e+00 -1.299757e+00 -1.008755e-01 -1.081033e+00 -1.644447e+00 -1.240793e-01 -5.863686e-01 -1.435740e+00 -5.410219e-01 -6.753710e-01 -1.955134e+00 1.434154e+00 -2.492392e-02 
-5.662680e-01 -1.276655e-01 -1.861044e+00 2.166685e+00 1.788752e+00 6.570111e+00 2.647153e+00 -4.122739e-01 -1.048502e+01 -8.020207e-01 -1.824125e+00 -7.906992e-01 -1.512927e-01 -1.715092e+00 2.471816e-03 -3.812776e-01 -2.271266e+00 -1.276356e+00 -1.167233e+00 -1.101826e+00 -4.572401e-02 9.944729e-01 -1.187098e-02 -3.115320e-01 1.638586e+00 0.000000e+00 
-1.862525e+00 -8.449315e-01 5.155809e-01 5.106952e-01 2.089954e+00 8.086010e+00 4.233225e+00 1.116590e+00 -8.849002e+00 -2.398782e+00 -3.777719e+00 -2.898676e-01 -1.512927e-01 -1.042771e+00 9.855590e-01 -1.776757e-01 -1.679290e+00 -1.012566e+00 -9.404575e-01 6.015393e-01 9.616950e-01 2.471496e+00 1.262529e+00 -7.556859e-01 4.552721e-01 0.000000e+00 
-2.823056e+00 1.254472e+00 -1.057310e+00 -3.062861e+00 2.169203e+00 -6.387401e-02 -5.912328e-02 7.177541e+00 -2.197803e+00 -7.356391e-01 -5.249405e-02 2.517819e+00 -1.512927e-01 -3.021844e-01 1.384482e+00 7.882838e-01 -2.595048e-01 3.044582e-03 -2.118574e-01 5.063391e-01 1.732353e+00 2.681387e+00 -1.705426e-01 -9.847784e-01 -1.509827e+00 0.000000e+00 
-3.288904e+00 4.259584e+00 -3.475029e-01 -9.268999e-03 1.567402e+00 4.398272e+00 5.535597e+00 6.220586e+00 1.532945e+00 1.182556e+00 -6.368280e+00 -2.778383e+00 -1.512927e-01 -4.238691e-02 1.505228e+00 2.435005e-01 2.991245e-01 3.694863e-01 2.627088e-01 3.897340e-01 1.404585e+00 1.733286e+00 7.124435e-01 -1.446414e-01 -9.163200e-01 0.000000e+00 
-1.364000e+00 4.242486e+00 2.511917e+00 1.129143e+00 2.065251e+00 7.354692e+00 4.527663e+00 5.697495e+00 -2.269059e+00 -3.445402e+00 -5.452736e+00 -7.095576e+00 -1.512927e-01 1.735586e-01 7.851481e-01 2.719555e-01 3.398703e-01 2.859805e-01 1.714273e+00 1.328583e+00 1.720013e-01 1.389553e-01 -5.448754e-01 -1.234857e+00 -9.264043e-01 0.000000e+00 
-2.803988e+00 5.187202e+00 -5.152988e-02 -8.968449e-02 3.989361e+00 5.690271e+00 3.888502e+00 8.879537e+00 -1.469457e-01 2.518318e+00 -1.800805e+00 -6.476998e-02 -1.512927e-01 1.493454e-03 -4.615259e-01 -9.275560e-01 -9.072784e-01 -7.020184e-01 7.330307e-01 8.906816e-01 6.956855e-01 -6.526187e-01 -8.098820e-01 6.835024e-02 3.937761e-01 0.000000e+00 
-2.197721e+00 4.716403e+00 1.544816e-01 -1.323301e+00 2.388125e+00 7.861494e+00 7.407341e+00 6.708073e+00 -6.630810e-01 -4.127897e+00 -8.510515e+00 -3.471009e+00 -1.512927e-01 -6.351818e-01 -7.194020e-01 -1.069786e+00 2.783687e-02 -8.049530e-01 5.297867e-01 6.012326e-01 1.528483e-02 -9.573799e-02 6.111808e-01 4.964585e-01 1.037025e+00 0.000000e+00 
-2.864576e+00 1.714997e+00 -3.806565e+00 -3.319438e+00 -2.104128e+00 7.810025e+00 8.549166e+00 9.193726e+00 -2.533137e+00 -2.525607e+00 -4.497640e+00 -2.621785e+00 -1.512927e-01 -2.990154e-01 -5.350991e-01 2.581254e-01 6.343933e-01 -3.045613e-01 9.406918e-01 1.124635e+00 -2.299871e-01 -2.116793e-01 8.471144e-01 1.289673e+00 3.493946e-01 0.000000e+00 
-4.509615e+00 2.381579e+00 -9.594951e-01 2.883205e+00 1.087230e+00 8.943749e+00 5.203495e+00 5.616825e+00 -1.554653e+00 2.132464e+00 -1.622026e+00 -6.319458e-01 -1.512927e-01 -3.032505e-01 -1.275003e-02 1.517975e-01 2.685609e-01 -1.359053e-01 1.626934e-01 -2.647178e-01 3.163650e-01 -1.435989e-02 1.415242e+00 2.235023e+00 1.529482e+00 0.000000e+00 
-3.143118e+00 3.679119e+00 1.796085e+00 9.790287e-01 3.117002e+00 9.852602e+00 1.061360e+01 8.275226e+00 -7.595557e-01 3.623709e+00 1.203316e+00 2.626714e-01 -1.512927e-01 -1.386518e-01 2.384342e-01 5.693359e-01 1.040743e-01 8.154421e-01 -4.381997e-01 -9.220356e-01 -5.491735e-01 6.379160e-01 1.315155e+00 1.850461e+00 1.846556e+00 0.000000e+00 
-3.574703e+00 3.670592e+00 -1.887856e+00 -2.129730e+00 -9.019660e-01 7.653672e+00 5.051536e+00 8.749147e+00 -1.621671e+00 -1.263452e-01 -1.858776e-01 2.734174e+00 -1.512927e-01 -2.134094e-01 -7.923633e-01 -7.070440e-01 -1.506972e+00 7.845794e-01 -7.233320e-01 -7.549147e-01 1.908618e-01 1.600856e-01 -4.373619e-01 -1.589714e-01 9.916671e-01 0.000000e+00 
-4.025291e+00 2.262661e+00 -4.957054e-01 -2.925992e-01 2.967680e+00 6.264065e+00 4.014967e+00 4.881697e+00 6.899515e-01 5.179572e+00 4.036590e+00 4.927937e+00 -1.512927e-01 -1.211665e-01 -7.727240e-01 -1.683543e+00 -7.101120e-01 3.063097e-01 -1.074461e+00 -1.448826e+00 -1.605536e+00 -3.552472e-01 -1.053620e+00 -9.282978e-01 5.599738e-01 0.000000e+00 
-5.135575e+00 -8.720086e-01 -3.348820e+00 -4.015842e+00 5.084788e+00 7.121358e+00 4.728237e+00 8.267899e+00 -1.478979e+00 -8.322768e-01 -3.833519e+00 1.993757e+00 -1.512927e-01 2.810639e-01 -2.605677e-01 -1.467821e+00 -8.059977e-01 4.211826e-01 -2.532593e-01 -1.824509e-01 -1.534142e+00 -6.768624e-01 -1.258947e+00 -1.832707e+00 -1.270224e+00 0.000000e+00 
-2.968514e+00 2.086799e+00 -5.891148e+00 -1.628475e+00 1.655174e+00 4.746455e+00 3.531119e+00 4.881706e-01 -2.607138e+00 -1.291424e+00 -1.614352e+00 3.432749e+00 -1.512927e-01 5.915251e-01 4.757129e-01 -1.146399e+00 -1.043315e+00 -9.361094e-01 -1.362022e-01 -1.243874e+00 -1.178354e+00 -5.226506e-01 -1.525748e+00 -2.419988e+00 -1.565847e+00 0.000000e+00 
-2.697772e+00 2.455684e+00 -6.529240e+00 -5.491780e+00 1.860201e+00 7.146180e+00 4.381205e+00 3.275200e+00 -3.357438e+00 -3.185583e+00 -6.523941e+00 -2.869350e+00 -1.512927e-01 4.555840e-01 7.915372e-01 6.565347e-02 2.003638e-01 -3.515673e-01 1.433190e+00 3.416293e-01 -6.899239e-01 4.723875e-01 8.301026e-01 -6.808214e-01 -7.346848e-01 0.000000e+00 
-2.286568e+00 2.977379e+00 -4.637488e+00 -4.771205e+00 -1.005726e-01 5.570643e+00 -2.030888e+00 1.486278e+00 -9.840717e-01 -1.272513e+00 -6.718138e+00 -4.697435e-01 -1.512927e-01 -3.306664e-01 -7.216947e-01 8.925915e-01 6.958114e-01 1.247149e+00 1.421740e+00 1.265378e+00 1.878879e+00 4.832497e-01 9.177865e-01 -7.307625e-01 -1.528139e+00 0.000000e+00 
-3.198628e+00 2.640387e+00 -3.647382e+00 -1.442659e+00 4.204824e+00 1.387521e+01 9.217386e+00 4.319225e+00 7.142532e-02 3.308780e+00 -4.685733e+00 2.715792e-01 -1.512927e-01 -2.070349e-01 -6.375495e-01 8.414440e-01 7.413269e-01 6.458427e-01 -6.319537e-01 4.543357e-01 5.803576e-01 -5.978620e-01 -8.722617e-02 -3.874549e-01 -4.533463e-01 0.000000e+00 
-4.371418e+00 -1.614026e+00 -2.869120e+00 -1.739788e-01 6.718606e+00 8.490641e+00 7.439919e+00 9.360555e+00 -1.905321e+00 5.032659e-02 -6.187268e+00 -5.778409e+00 -1.512927e-01 2.990247e-01 2.909581e-01 1.004850e+00 2.969787e-01 -5.589792e-01 -4.849748e-01 5.778813e-01 2.537318e-01 -1.323190e+00 -8.969010e-01 1.235855e+00 -1.006881e+00 0.000000e+00 
-2.690521e+00 1.563639e+00 -3.206204e+00 -4.083759e+00 1.679825e+00 2.526412e+00 1.917480e+00 2.239849e+00 -5.886124e+00 -4.283134e+00 -8.726650e+00 -2.481749e+00 -1.512927e-01 9.727498e-01 1.356158e+00 9.687271e-01 6.213498e-02 -1.625365e+00 -1.929836e+00 -2.360619e+00 -2.676424e-01 1.126955e-02 -1.125513e+00 1.024836e+00 -2.694290e-01 0.000000e+00 
-1.045498e+00 4.970543e+00 1.661725e-01 -1.965762e+00 -1.632969e+00 8.820168e+00 4.508472e+00 3.794625e+00 -4.621250e+00 -1.961062e+00 1.481596e+00 -4.127482e+00 -1.512927e-01 7.573377e-01 1.834820e+00 6.549777e-01 3.489511e-01 -1.235668e+00 -1.377994e-01 -1.229757e+00 -6.390509e-01 7.138139e-01 -3.269864e-01 6.790652e-01 4.292615e-01 0.000000e+00 
2.160549e-03 6.128892e+00 -3.213925e-01 -2.360923e-01 2.537880e-01 4.061268e+00 -1.119983e+00 5.763978e+00 1.485737e+00 -1.313090e+00 -3.395983e+00 -1.901029e+00 -1.512927e-01 1.495684e-01 1.172568e+00 7.344266e-01 6.698238e-01 -1.962876e-03 1.220372e-01 7.664131e-01 1.150955e-01 1.390342e+00 7.682824e-01 1.275065e-01 9.908102e-01 0.000000e+00 
-1.931070e+00 5.277446e+00 -1.036637e+00 -3.530567e-01 1.253284e+00 7.034216e+00 2.809867e+00 4.403236e+00 -2.022182e+00 -3.069627e+00 -5.457276e+00 -3.922461e+00 -1.512927e-01 -2.410844e-01 5.749100e-01 3.191047e-01 -4.553617e-02 3.692802e-01 -9.612880e-01 1.189958e+00 -5.820166e-01 7.054917e-01 5.572899e-01 -1.342625e+00 1.726537e+00 0.000000e+00 
-1.499893e+00 7.273026e+00 1.067333e+00 -1.540992e+00 2.268841e-01 4.029575e+00 6.598848e+00 2.511021e+00 -2.339486e-01 1.125615e-01 -4.619681e+00 2.369792e+00 -1.512927e-01 -2.572930e-01 4.283848e-01 4.881422e-01 -3.797736e-01 -1.080208e-01 -3.068026e-01 1.922664e+00 -8.398129e-01 -1.651138e-01 6.033492e-01 -1.609802e-01 1.483389e+00 0.000000e+00 
