-1.066305e+01 -9.693842e-01 -5.216733e-02 -3.928609e-01 3.142861e+00 3.246304e+00 -1.554267e+00 -3.918948e+00 -2.315729e-01 2.651935e+00 4.247516e-02 -5.495171e+00 -6.684625e-02 -4.047085e-01 -2.872364e-01 -6.966258e-01 -9.863570e-01 -2.834796e-01 -6.495412e-01 1.610392e-01 6.407137e-01 1.263933e+00 1.026870e-01 -8.620646e-02 2.623958e+00 9.142280e-04 
-1.110394e+01 -9.842023e-01 -1.536121e+00 -2.996870e+00 2.827629e+00 3.948390e+00 2.061481e+00 -3.822355e-01 5.442821e+00 6.643258e+00 -5.139889e-01 -6.574049e-01 -6.753659e-02 -5.862395e-01 -2.448283e-01 -3.048865e-01 -2.654244e-01 2.109488e-01 -1.097047e+00 -5.710419e-01 7.241269e-01 1.153633e+00 -1.255814e+00 6.958683e-01 4.099653e+00 1.501501e-03 
-1.246615e+01 -2.398157e+00 -2.793320e+00 -4.022642e+00 1.883080e+00 -3.524451e-01 -2.556944e+00 -2.483736e+00 3.250895e+00 1.169709e+00 -1.103251e-01 5.205735e+00 -6.192994e-02 -4.118233e-01 -2.874177e-01 5.315933e-02 3.831024e-01 1.060616e-01 -5.539346e-01 -1.126303e+00 -3.649738e-01 1.330509e+00 -1.081124e+00 3.719163e-01 3.069561e+00 2.682614e-03 
-1.269270e+01 -1.479140e+00 -2.060234e-01 9.490728e-02 4.827497e+00 -4.395556e-01 -3.908138e+00 -1.015919e+00 3.795356e+00 -2.886024e+00 3.598216e+00 9.652641e+00 -6.179690e-02 -1.089384e-01 -1.169201e+00 7.492944e-01 1.294146e+00 -6.288748e-01 -1.518311e+00 1.561787e-01 5.268873e-01 -4.738003e-01 -6.442536e-01 7.645266e-01 -2.822948e-02 4.141378e-03 
-1.192778e+01 -2.159004e+00 -4.514193e-01 -2.323723e-02 2.673236e+00 2.670604e+00 -4.200974e+00 -5.426975e+00 7.244704e+00 2.010956e+00 -1.540462e-01 4.697610e+00 -5.630302e-02 3.893345e-01 -1.499858e+00 9.781556e-01 1.837383e+00 -1.408443e+00 -1.810006e+00 2.433971e+00 9.493583e-01 -1.115687e+00 1.112322e+00 8.501304e-01 -1.164469e+00 1.051854e-02 
-1.191781e+01 -6.949781e+00 1.039401e+00 1.474157e+00 -7.118230e-01 -5.154690e+00 3.664389e+00 3.723821e+00 1.076915e+00 3.001367e+00 3.330505e+00 -5.444901e-01 -4.964316e-02 3.528782e-01 -3.669719e-01 1.425821e-01 -3.691270e-01 -1.433048e+00 -9.056213e-01 1.377957e+00 4.152784e-01 -8.225722e-01 2.280375e+00 -1.298697e-01 -1.089120e+00 2.596724e-03 
-1.090692e+01 -7.162127e+00 1.474746e+00 4.474650e+00 -2.389475e+00 -7.044908e+00 5.826646e+00 -1.068141e-01 -9.683201e-01 3.787626e+00 4.274183e+00 4.481953e+00 -1.541412e-02 2.119017e-01 1.094133e+00 -1.940002e-01 -1.511058e+00 -9.759809e-01 -2.757543e-01 3.781630e-01 4.555807e-02 -9.568720e-01 1.158376e+00 2.328295e-01 3.434720e-02 -3.604686e-03 
-1.143874e+01 -8.124378e-01 -4.561953e-01 -3.999671e+00 1.936144e-01 -1.099069e-01 -2.032162e+00 -1.599608e+00 3.789007e+00 7.627516e+00 7.347534e-01 4.314870e+00 -6.925774e-02 -7.687759e-02 1.864961e+00 -3.169621e-01 -1.571388e+00 2.024066e-01 1.399670e+00 -1.474488e+00 -1.212116e+00 1.596650e+00 9.269822e-01 -7.534188e-01 -1.411236e-01 -2.543414e-03 
-1.110781e+01 2.429900e-01 -6.736221e-01 -4.841612e+00 -2.659387e+00 -1.230559e+00 5.381169e-01 -2.537471e+00 1.104298e+00 5.489760e+00 2.307977e+00 2.439667e+00 -6.451917e-02 -4.709404e-01 1.215216e+00 -3.129018e-01 -1.226709e+00 1.285183e+00 1.747605e+00 -1.237792e+00 1.094363e-02 2.186882e+00 1.166136e+00 -6.852561e-01 -1.379583e+00 -3.388071e-03 
-1.220175e+01 -1.327533e+00 5.287746e-01 -1.724653e+00 4.351660e-01 -1.063513e+00 -1.063784e+00 -1.121431e+00 8.023857e+00 6.785211e+00 5.465138e-01 -2.289644e-01 -3.780770e-02 -1.560328e-01 4.711196e-01 3.329909e-01 1.536053e-01 1.208021e+00 1.436223e+00 1.718034e-01 2.480475e-01 1.566917e+00 2.869481e-01 7.625276e-01 -7.691119e-01 5.132270e-03 
-1.288011e+01 -8.284984e-01 -5.822479e-01 -2.796402e+00 3.915666e+00 2.169919e+00 -8.465008e-01 -2.911842e-01 7.848661e+00 1.003946e+01 9.420224e-01 -1.440446e-01 -4.807949e-02 4.153900e-02 4.022954e-01 4.910977e-01 3.410111e-01 1.570614e+00 2.026897e+00 -1.161244e+00 -7.409989e-01 1.291991e+00 2.162732e-01 1.294498e+00 4.140960e-02 -1.475406e-03 
-1.133275e+01 2.078904e+00 1.163072e+00 -4.254250e+00 2.946192e+00 5.370968e+00 -4.808363e-01 -1.482513e+00 8.251410e+00 6.787408e+00 5.230369e+00 1.761166e+00 -5.181623e-02 6.373005e-01 4.320388e-01 1.119715e-01 -3.012724e-02 6.048926e-01 1.446552e+00 -4.073820e-02 -1.233672e+00 -1.117703e+00 -1.381719e+00 -6.702566e-02 -3.107983e-01 -8.877766e-03 
-1.133462e+01 5.512483e-01 1.464718e+00 -1.871758e+00 3.938169e+00 5.686684e+00 -5.559578e+00 -6.061924e+00 7.450475e+00 6.570028e+00 6.438541e+00 1.651649e+00 -6.489193e-02 1.038646e+00 -6.774520e-01 -1.938686e-01 2.770550e-01 -6.390945e-01 9.208796e-02 1.275046e+00 -4.878980e-01 -1.681753e+00 -2.511185e+00 -1.284683e+00 -1.245502e+00 -2.088118e-03 
-9.787996e+00 1.427870e-01 6.514901e-02 -2.337611e+00 3.448377e+00 4.410866e+00 1.089064e+00 -4.404422e+00 2.634435e+00 1.611333e+00 -2.536874e+00 -2.680803e+00 -7.379031e-02 1.138448e+00 -8.490769e-01 -4.583926e-01 -9.894095e-02 -1.465564e+00 -1.453629e+00 9.237026e-01 -4.133759e-02 -3.199627e+00 -2.248231e+00 -2.153887e+00 -8.029319e-01 2.471816e-03 
-8.459257e+00 -3.247699e+00 -1.002629e+00 -2.369447e+00 4.691011e-01 3.110409e+00 4.743781e+00 -1.269720e+00 2.248385e+00 7.156837e-02 -1.597774e+00 -4.150568e+00 -4.753304e-02 1.341485e+00 1.865114e-01 -4.973024e-01 -1.294283e-01 -1.064085e+00 -1.690956e+00 5.258231e-01 7.259187e-01 -3.100994e+00 -2.458902e+00 -9.703010e-01 1.001349e+00 6.512868e-03 
-7.078190e+00 -2.670057e-01 1.047822e-01 -4.500110e+00 -2.647095e+00 -6.090412e-01 -1.014003e+00 -4.085303e+00 -5.145680e+00 -1.204516e+00 -1.520907e+00 6.476154e-01 -4.813659e-02 1.234217e+00 1.018747e+00 1.201834e-01 6.418402e-01 -3.016304e-01 -9.843577e-01 -7.324605e-01 1.038257e+00 -1.010893e+00 -3.280036e-01 1.852887e+00 1.943279e+00 9.667670e-03 
-5.982092e+00 1.688702e+00 -1.041610e+00 -1.437650e+00 1.665480e+00 -2.581430e-01 -1.878929e+00 -2.591890e+00 -4.164436e+00 -4.316560e+00 1.079053e+00 4.994186e+00 -4.515445e-02 1.856937e+00 2.324650e+00 1.688403e+00 2.014313e+00 1.124504e+00 3.006513e-01 -8.949553e-01 3.811480e-01 4.316483e-02 -5.316497e-01 1.188656e+00 9.498022e-01 2.172195e-02 
-4.855492e+00 2.768320e+00 6.855567e-01 4.056916e-01 1.342036e+00 1.173354e+00 7.381166e-01 1.447950e+00 7.863781e-01 2.165379e+00 5.389150e+00 2.463216e+00 -2.664125e-02 4.718031e+00 2.977810e+00 1.560987e+00 3.314710e-01 -1.526574e+00 -9.149325e-01 3.169003e-01 3.918830e-01 -3.852408e-01 -2.599491e-01 8.868602e-01 -1.123672e+00 1.159486e-01 
-2.859230e-01 6.857887e+00 7.149000e+00 5.249219e+00 4.097054e+00 3.722468e+00 -6.070555e-01 -2.130606e+00 -5.018198e-01 -4.271627e+00 8.904779e-01 -3.093575e-01 5.032903e-02 6.427724e+00 3.110153e+00 3.739928e-01 -1.151656e+00 -4.344107e+00 -3.871289e+00 6.385600e-01 7.256980e-02 -2.430482e+00 -9.118727e-01 4.843643e-01 -9.091663e-01 1.883889e-01 
1.366388e+01 1.203745e+01 3.814410e+00 -6.186190e+00 -1.149576e+01 -7.174009e+00 -6.543839e-02 -2.356531e+00 -8.903193e+00 -2.526728e+00 3.007681e+00 -2.318975e+00 4.838647e-01 6.206862e+00 1.746085e+00 -1.041641e+00 -1.872610e+00 -5.685678e+00 -4.761315e+00 7.131431e-01 -7.851669e-01 -2.314531e+00 -1.537482e+00 -2.409697e-01 4.321288e-01 2.035065e-01 
1.689684e+01 1.260490e+01 -7.360729e-01 -3.899991e+00 -1.363616e+01 -1.544090e+01 1.715648e+00 -3.268008e-01 -1.147206e+01 -6.529870e+00 4.691608e+00 2.839450e+00 6.415371e-01 4.193417e+00 -4.327404e-01 -2.768819e+00 -2.081299e+00 -4.995321e+00 -3.981963e+00 -2.888587e-01 3.721625e-01 3.306542e-02 -8.429775e-02 5.136323e-01 1.418582e+00 1.677578e-01 
1.758743e+01 8.625237e+00 -5.801099e-01 -4.382752e+00 -1.821975e+01 -1.305154e+01 3.142480e+00 -3.379787e+00 -5.301156e+00 -4.392909e+00 2.283736e+00 3.049456e+00 6.952872e-01 1.041228e+00 -2.335445e+00 -1.983529e+00 -8.972189e-01 -1.533527e+00 -1.831159e+00 -7.577710e-01 5.810229e-01 2.821539e+00 5.373067e-01 1.056372e+00 6.210224e-01 9.500494e-02 
1.871938e+01 6.400292e+00 -4.497837e+00 -6.058995e+00 -1.751755e+01 -1.324859e+01 -3.655308e+00 2.418339e-01 -2.137511e+00 -3.760026e+00 3.820612e+00 4.099338e+00 7.834066e-01 2.494774e-01 -2.860823e+00 -1.910398e+00 -1.199553e+00 -1.621281e+00 -7.909578e-01 3.410630e-01 6.680202e-01 3.643125e+00 1.757601e+00 8.164970e-01 -1.180908e+00 7.930891e-02 
1.795874e+01 3.462529e+00 -4.222353e+00 -9.592781e+00 -1.722269e+01 -1.742597e+01 -1.168815e+00 2.642667e-01 5.372288e-01 -1.225117e+00 8.725040e+00 1.561930e-01 8.879546e-01 -1.837134e-01 -2.791388e+00 -2.059039e+00 -1.056133e+00 -1.196188e+00 1.826914e-01 2.029361e+00 1.139203e+00 2.485796e+00 2.033051e+00 -1.070475e+00 -1.677538e+00 6.828044e-02 
1.795857e+01 8.821409e-01 -8.466943e+00 -7.292739e+00 -2.224109e+01 -1.720848e+01 5.576611e+00 1.191274e+00 3.824374e+00 6.742377e-01 5.553442e+00 -1.618457e+00 9.417480e-01 -8.122296e-01 -2.826845e+00 -1.262379e+00 -1.508736e+00 -5.281731e-01 2.492240e+00 3.572662e+00 8.287589e-01 9.350305e-01 1.740815e+00 -3.341958e+00 -2.285533e+00 4.580494e-02 
1.704927e+01 -2.572625e+00 -8.890753e+00 -9.046543e+00 -2.183892e+01 -1.015813e+01 8.673325e+00 1.841509e+00 4.146880e+00 3.555217e+00 -3.935055e+00 -2.479339e+00 9.575188e-01 -8.631318e-01 -2.558342e+00 -1.223994e+00 -1.421889e+00 7.416430e-01 4.428003e+00 2.974656e+00 6.165069e-01 -5.702833e-01 6.110429e-01 -4.998702e+00 -9.973564e-01 2.599921e-02 
1.511297e+01 -4.716354e+00 -8.475531e+00 -1.387579e+01 -1.785030e+01 -4.421303e+00 9.286934e+00 3.597007e+00 7.328157e-01 2.553883e+00 -6.559129e+00 -6.010561e+00 9.776492e-01 -7.284400e-01 -2.276575e+00 -5.524098e-01 -1.603395e+00 2.622121e+00 4.267943e+00 1.671551e+00 -7.285218e-02 -1.841965e+00 -4.141857e-02 -4.427397e+00 2.291415e-01 1.406774e-02 
1.506589e+01 -6.529933e+00 -1.033803e+01 -1.341070e+01 -1.570987e+01 -1.679539e+00 1.184930e+01 2.143934e+00 -7.684083e-01 8.902753e-01 -1.021218e+01 -2.634538e+00 1.000000e+00 -3.523065e-01 -1.733246e+00 -6.379330e-01 -5.013289e-01 3.458067e+00 2.597803e+00 6.707381e-01 -7.546400e-01 -2.138106e+00 -7.287349e-01 -1.977335e+00 1.183180e+00 3.626466e-03 
1.530807e+01 -8.522080e+00 -1.050535e+01 -1.312764e+01 -1.219501e+01 -1.080601e-01 1.234638e+01 6.758003e-01 -2.927809e+00 1.799616e+00 -1.344498e+01 -3.951500e-01 9.908460e-01 -5.082931e-02 -1.238199e+00 -7.913717e-01 1.182331e+00 3.409925e+00 1.410921e+00 -5.090920e-01 -1.156232e+00 -1.883449e+00 -2.493862e-01 -4.453744e-01 1.679639e+00 -8.420169e-03 
1.519019e+01 -9.335993e+00 -1.106551e+01 -1.192727e+01 -7.376229e+00 6.742607e-01 1.049729e+01 -4.710872e-01 -4.713337e+00 2.886760e-01 -1.037880e+01 6.288546e-01 9.690527e-01 -1.840878e-01 -1.053396e+00 -3.904887e-01 1.492755e+00 3.462821e+00 1.184103e+00 -1.947782e+00 -8.758866e-01 -2.052980e+00 -8.904976e-03 1.619284e+00 7.002047e-01 -1.020812e-02 
1.479667e+01 -9.504322e+00 -1.206865e+01 -8.705853e+00 -4.967503e+00 1.456400e+00 7.417479e+00 -8.766429e-01 -6.711967e+00 1.607751e+00 -8.702690e+00 7.559375e-01 9.510220e-01 -7.665138e-02 -1.020652e+00 -3.013166e-01 2.405869e+00 2.584862e+00 5.376235e-01 -1.941252e+00 -1.431055e+00 -1.335232e+00 4.087846e-01 3.349446e+00 -1.212224e+00 -1.216489e-02 
1.440114e+01 -1.130579e+01 -1.150882e+01 -8.157814e+00 -2.009521e+00 3.458744e+00 4.574841e+00 -1.459277e+00 -9.141230e+00 9.416826e-01 -4.486904e+00 2.909423e-01 9.688714e-01 -1.666381e-01 -1.196940e+00 -1.057505e-01 3.125843e+00 1.464265e+00 -7.439357e-01 -1.256305e+00 -2.094019e+00 -6.870818e-01 2.572627e+00 2.652442e+00 -2.373579e+00 -1.033731e-02 
1.531933e+01 -1.264044e+01 -1.179028e+01 -2.983017e+00 -1.954053e+00 1.187816e+00 5.601339e+00 -5.985382e+00 -7.390022e+00 3.517035e+00 3.562974e-01 -6.287314e+00 9.301122e-01 -6.445399e-01 -1.259470e+00 1.268092e+00 2.585847e+00 6.267275e-01 -1.090862e+00 -1.983610e+00 -1.971544e+00 1.071422e+00 2.570931e+00 2.471045e+00 -3.080596e+00 -1.302509e-02 
1.409567e+01 -1.375263e+01 -1.173344e+01 8.405299e-01 -1.561631e+00 -2.911126e+00 5.123837e+00 -8.386814e+00 -7.809718e+00 1.219717e+01 -1.646085e+00 -7.717413e+00 9.278210e-01 -1.076658e+00 -6.103017e-01 2.194904e+00 2.585023e+00 -4.880394e-01 -1.128032e+00 -2.839099e+00 -1.448388e+00 3.152760e+00 1.563870e+00 1.424669e+00 -2.569331e+00 -2.277312e-02 
1.172671e+01 -1.457825e+01 -5.615881e+00 -2.757907e-01 -2.057810e+00 -8.129760e-01 -2.775071e+00 -7.270593e+00 -2.020611e+00 8.834664e+00 2.232125e+00 -1.064286e+01 9.064218e-01 -9.235651e-01 5.145585e-01 2.276350e+00 3.091444e+00 -6.438785e-01 -7.390587e-01 -2.729162e+00 -4.928799e-02 2.629982e+00 -1.295423e-01 2.499756e-01 -7.277917e-01 -4.516860e-02 
1.081417e+01 -1.338840e+01 -3.621505e+00 3.413691e+00 -4.397839e+00 -1.181021e+00 -5.432450e+00 -8.058612e+00 3.937863e+00 6.102218e+00 1.698526e+00 -1.037794e+01 8.668510e-01 -6.644598e-01 2.526930e+00 2.535114e+00 3.356570e+00 3.042087e-01 -2.237736e-01 -2.533765e+00 2.297844e+00 -3.804270e-01 -5.292727e+00 4.610119e-01 1.555221e+00 -6.805383e-02 
1.234226e+01 -1.024977e+01 -4.464497e+00 1.118762e+01 -3.755341e+00 -3.372530e+00 -2.766328e+00 -6.395924e+00 -1.139035e-01 5.916800e+00 -6.613001e-02 -8.596010e+00 7.347543e-01 -3.543125e-01 3.283988e+00 1.903382e+00 3.004568e+00 1.174337e+00 -3.621058e-01 -1.389550e+00 3.775218e+00 -3.312076e+00 -6.616633e+00 -2.079244e-01 3.098284e+00 -6.665789e-02 
1.046560e+01 -3.282224e+00 3.664340e-01 1.189167e+01 8.081780e-01 -2.750216e+00 -7.549361e+00 2.665070e+00 -1.066521e+01 -1.280753e+01 1.808102e+00 -9.647365e-01 6.733856e-01 -5.180687e-01 2.705826e+00 1.869043e+00 1.282816e+00 1.943772e+00 -2.556760e-01 -1.398028e+00 4.143734e+00 -3.555471e+00 -6.722412e+00 6.243311e-02 3.270038e+00 -4.956983e-02 
1.012943e+01 -3.211400e+00 1.907059e+00 1.050806e+01 1.210865e+00 -1.838907e+00 -8.664365e+00 6.243656e+00 -1.127946e+01 -1.479363e+01 1.137715e+00 1.419541e-01 6.698650e-01 -9.325342e-01 1.549528e+00 1.693601e+00 -3.726511e-01 1.840698e+00 -2.599436e-01 -1.397749e+00 3.438655e+00 -1.770935e+00 -5.357602e+00 7.123408e-01 2.386402e+00 -2.128822e-02 
9.330240e+00 -3.378448e+00 2.537932e+00 1.016755e+01 2.837920e+00 -3.226213e+00 -9.473573e+00 6.340270e+00 -8.256716e+00 -1.715463e+01 1.408769e+00 1.603270e+00 6.514465e-01 -4.627840e-01 3.434774e-01 6.370476e-01 -1.450760e-01 1.147191e+00 -6.554338e-01 2.475819e-01 1.571646e+00 9.780531e-02 -1.517576e+00 6.578565e-01 1.065892e+00 -1.985831e-02 
8.247266e+00 -2.454013e+00 2.917757e+00 1.018643e+01 4.433278e+00 -4.434251e+00 -8.792966e+00 8.959749e+00 -1.017282e+01 -1.869766e+01 3.695240e+00 2.051996e+00 6.392827e-01 -3.309202e-01 7.766559e-01 1.793388e-01 7.806782e-01 1.243551e+00 -6.325879e-01 9.162568e-01 1.039173e+00 -7.913790e-02 -3.329954e-01 8.671427e-01 2.411331e-01 -3.822584e-02 
9.092759e+00 -1.943530e+00 3.046323e+00 1.132711e+01 4.932927e+00 -4.729713e+00 -6.247151e+00 9.165255e+00 -1.072950e+01 -1.844339e+01 3.818621e+00 3.409704e+00 5.893852e-01 -6.685457e-01 1.720616e+00 4.054307e-01 9.458081e-01 1.534443e+00 3.675147e-01 7.380339e-01 1.382758e-01 5.214413e-01 1.249614e+00 -1.746514e-01 -7.736918e-01 -6.740664e-02 
8.593571e+00 -4.557896e-02 2.549558e+00 1.383167e+01 6.381117e+00 -4.250096e+00 -5.696291e+00 1.002703e+01 -1.043876e+01 -1.581422e+01 4.268502e+00 4.444030e-01 5.097665e-01 -1.459520e+00 1.485137e+00 6.941933e-01 6.370661e-01 1.346211e+00 1.638396e+00 1.663282e+00 -5.939341e-02 2.462283e+00 2.497942e+00 -1.919785e+00 -2.191429e+00 -1.101348e-01 
5.814359e+00 4.020417e+00 4.749186e+00 1.307397e+01 9.536216e+00 -1.480716e+00 -7.331740e+00 6.498008e+00 -5.516543e+00 -1.234828e+01 2.488816e-01 -1.461393e+00 3.791714e-01 -2.128364e+00 9.195224e-01 8.411165e-01 -2.360926e-01 8.221688e-01 1.061277e+00 1.198017e+00 -1.151782e+00 2.842128e+00 2.438998e+00 -2.759040e+00 -2.276749e+00 -1.228550e-01 
2.588868e+00 1.989697e+00 5.537292e+00 1.249833e+01 8.862690e+00 2.133232e+00 6.573963e-02 9.996407e+00 -4.678874e-01 -9.255504e+00 -4.118815e+00 -6.469603e+00 1.937156e-01 -2.489104e+00 -4.305299e-01 2.386834e-01 -1.030540e+00 -7.583381e-01 -3.483939e-01 1.809200e+00 -2.006461e+00 9.713408e-01 1.285778e+00 -2.114694e+00 -9.543215e-01 -1.085892e-01 
1.453291e+00 1.636444e+00 5.758039e+00 1.081332e+01 7.802984e+00 -2.614992e+00 -3.138083e+00 3.421658e+00 -1.504289e+00 -9.527760e+00 -5.782922e+00 -4.517040e+00 1.331358e-01 -2.105533e+00 -1.038342e+00 -8.401092e-01 -1.863177e+00 -1.288490e+00 -7.159522e-01 1.425674e+00 -1.217338e+00 7.531441e-01 2.763967e+00 3.630338e-01 1.227148e+00 -8.774190e-02 
-1.671417e+00 -1.006242e+00 3.238548e+00 9.809297e+00 3.456043e+00 -5.424928e+00 1.252881e+00 1.532899e+00 -7.588179e+00 -1.079559e+01 -3.289066e+00 -2.799381e+00 8.983839e-02 -1.247853e+00 5.626414e-01 -1.420194e-01 -1.663965e+00 -9.335309e-01 2.883200e-01 9.266564e-01 -7.324324e-01 1.981086e+00 3.605300e+00 1.923858e+00 2.223401e+00 -4.130727e-02 
-2.583162e+00 3.266742e-01 1.698012e+00 5.102604e+00 5.797088e+00 -1.281398e+00 -7.969407e-01 4.643070e+00 1.809323e+00 2.241599e+00 1.649176e+00 2.839237e+00 -7.599473e-03 -5.221128e-01 1.987306e+00 5.534595e-01 -1.975317e+00 -8.526102e-01 1.877265e+00 1.027277e+00 1.720968e-01 2.537970e+00 3.293419e+00 1.523144e+00 1.757356e+00 -2.573283e-02 
-1.632168e+00 5.457788e+00 6.857209e+00 7.033861e+00 5.197984e+00 2.908035e+00 3.528450e+00 5.723538e+00 7.780735e+00 2.886315e+00 1.784425e+00 9.692659e-01 5.754691e-02 4.822133e-01 3.262608e+00 1.211271e+00 -1.854452e+00 -4.626428e-01 1.285113e+00 -1.526550e+00 -1.635434e+00 2.530616e+00 3.529410e+00 7.309254e-01 3.758178e-01 -7.026947e-03 
-1.176898e+00 8.340959e+00 6.716006e+00 2.324450e+00 2.668962e+00 2.604851e+00 8.605171e-01 2.186823e+00 3.501106e+00 9.838414e-02 -7.039460e-01 2.385417e+00 2.061737e-02 4.713130e-01 2.353155e+00 1.047475e+00 -8.595867e-01 -1.096121e+00 -1.307140e-01 -1.954645e+00 -2.997535e+00 -6.964223e-02 7.583159e-01 7.147586e-01 -1.021042e-02 -1.050222e-03 
3.651762e-02 1.129965e+01 6.785906e+00 1.926111e+00 2.706892e+00 -9.424857e-01 -7.208596e+00 -5.416146e+00 4.219012e+00 7.923066e+00 1.542123e+00 -6.933818e-01 4.059523e-02 -2.638111e-01 3.895853e-01 2.870560e-02 -4.639438e-01 6.201717e-01 8.713232e-01 -1.148123e+00 -2.539214e+00 -1.829618e+00 -1.087948e+00 -9.649563e-02 1.878158e-01 -2.160001e-02 
-1.060940e+00 9.171515e+00 6.971039e+00 3.358545e+00 1.562029e+00 -9.707332e-03 -5.201644e+00 -4.774760e+00 3.241973e+00 3.514803e+00 5.344120e+00 3.619509e+00 -4.374743e-03 -9.846619e-01 -7.477521e-01 2.548982e-01 3.882567e-01 1.545111e+00 2.066778e+00 4.035641e-01 1.797415e-01 -1.054088e-01 -1.608365e-01 -1.001172e+00 4.320458e-01 -1.803170e-02 
-3.009202e+00 6.990437e+00 6.873220e+00 4.197095e+00 8.852309e+00 8.571930e+00 8.189180e-01 -3.491743e+00 -1.237788e+00 -4.261632e+00 -1.722086e+00 1.291299e+00 -3.795707e-02 -1.179009e+00 -1.661960e+00 3.208895e-01 1.801366e-01 1.282393e+00 2.371085e+00 1.866659e+00 2.206771e+00 2.049399e-01 -1.284312e+00 -6.959222e-01 8.842716e-01 -1.922159e-02 
-4.577347e+00 6.756806e+00 7.946840e+00 3.130242e+00 7.321810e+00 8.181536e+00 -1.135419e+00 2.123329e+00 5.702462e+00 5.386551e+00 -4.077701e+00 3.553305e+00 -3.026497e-02 -7.732390e-01 -4.753543e-01 2.328265e-01 -6.564439e-01 9.823446e-01 1.074553e+00 1.449803e+00 2.078754e+00 1.101291e+00 -8.640279e-01 -9.666888e-01 -1.181001e+00 -7.344604e-03 
-4.100323e+00 4.197206e+00 7.902453e+00 2.940946e+00 6.238966e+00 6.817318e+00 9.158492e-02 2.168666e+00 4.013467e+00 5.656320e-01 2.773422e+00 3.761078e+00 -4.256761e-02 -1.452781e-01 3.368595e-01 -3.247133e-01 -1.073223e+00 -5.491754e-01 -3.275913e-01 -8.696286e-02 1.148377e-01 6.989653e-01 -2.265413e-01 -3.930736e-01 -1.024338e+00 2.965808e-03 
-4.381574e+00 8.191360e+00 7.620555e+00 7.044005e-01 7.780423e+00 6.240364e+00 2.411039e+00 2.788806e+00 6.122801e+00 -3.218969e+00 -1.737079e+00 -3.520386e+00 -3.879249e-02 -2.816616e-01 8.809491e-02 -5.822760e-01 -3.064072e-01 -6.238546e-02 1.408670e-01 -2.405059e-01 -1.479132e+00 -1.261395e-01 -4.016953e-01 1.011319e+00 -9.892675e-01 3.144932e-03 
-3.833479e+00 7.957458e+00 5.412796e+00 4.390240e-02 5.877125e+00 7.904559e+00 -1.389125e+00 -3.250293e+00 2.046869e+00 -1.091579e+00 -4.857765e+00 -2.935470e-01 -1.886427e-02 -7.770645e-01 -5.012538e-01 -9.813883e-01 -4.020579e-01 9.508510e-02 8.036651e-02 -1.261951e+00 -1.318343e+00 -4.450519e-02 1.306628e+00 1.667721e-01 -6.968635e-01 -5.400288e-03 
-6.119077e+00 5.317155e+00 6.280288e+00 3.046728e+00 7.190803e+00 8.342250e+00 -1.597594e+00 -2.562851e+00 6.055063e+00 4.206679e+00 4.794488e+00 6.342799e-01 -2.639198e-02 -1.091703e+00 -1.684483e+00 -9.164046e-01 -2.880242e-01 -4.709918e-01 -5.507757e-01 -1.654078e+00 -1.163204e+00 -1.151628e+00 8.926309e-01 5.797863e-01 8.078690e-01 -1.495349e-02 
-7.116894e+00 3.128039e+00 3.665645e+00 -2.405076e-01 7.009202e+00 6.168208e+00 -4.213852e+00 -1.747219e+00 3.824810e+00 3.385950e+00 3.414996e-01 -1.800572e+00 -7.576931e-02 -1.258917e+00 -1.697274e+00 -6.985593e-01 -8.525444e-01 -1.067610e-01 -5.885125e-01 -9.712344e-02 -1.124918e-03 -1.005766e-01 -4.391527e-02 -1.646183e-01 -3.491422e-01 -2.048665e-02 
-8.198381e+00 2.183652e+00 3.912107e+00 -5.935154e-01 4.859426e+00 4.354661e+00 -4.446985e+00 -3.778753e+00 -5.243123e-01 -9.945787e-01 -1.437780e+00 1.272471e+00 -8.510745e-02 -7.519007e-01 -1.047247e+00 -1.043068e+00 -8.251587e-01 -6.378103e-01 2.818300e-01 5.927115e-01 -1.189044e-02 1.231169e-01 -6.767554e-01 -1.326963e+00 -1.540372e-01 -5.566287e-03 
-9.088411e+00 1.037838e+00 3.104089e+00 -2.398698e+00 6.509009e+00 6.955791e+00 -4.500470e-01 -2.647966e+00 4.833673e+00 1.289474e+00 -2.564723e+00 -2.358353e+00 -9.193981e-02 -3.467503e-01 -6.491508e-01 -1.317150e+00 1.866196e-01 -9.857733e-01 1.694760e-01 1.003670e+00 2.817364e-01 -2.847097e-01 8.787972e-01 3.432978e-01 7.641196e-01 2.083229e-02 
-8.892822e+00 1.126019e+00 1.345727e+00 2.956390e-05 4.251848e+00 9.357609e+00 -5.159389e-01 -2.171930e+00 6.166216e+00 1.871140e+00 -3.872158e-01 1.429843e-01 -4.613817e-02 -2.462925e-01 -4.757545e-01 -4.053701e-01 1.290007e-01 -5.841662e-01 -6.848565e-01 7.976572e-01 1.262962e+00 1.125281e-01 9.623059e-01 -1.283475e-01 -6.941309e-02 1.401029e-02 
-8.503426e+00 4.111013e-01 -1.636914e+00 3.958178e-01 2.384124e+00 4.514114e+00 -1.161026e+00 -1.141949e+00 -9.440029e-01 6.347076e+00 1.532707e+00 2.584769e+00 8.907497e-03 2.247837e-01 3.375175e-01 7.366896e-02 1.286517e-01 -3.196359e-01 -7.266954e-01 7.407759e-01 1.480209e+00 -9.024609e-01 4.788379e-02 -1.473946e-01 4.969544e-01 8.637881e-03 
-9.722338e+00 1.182480e-01 4.255759e+00 -1.345770e+00 4.001037e+00 2.151217e+00 -1.032093e-01 1.783047e+00 2.927167e+00 1.288150e+00 -4.128232e+00 -1.546156e+00 -6.547964e-02 1.845826e-01 7.539023e-01 -1.869970e-01 -3.254650e-01 2.855069e-01 -8.391300e-01 6.140239e-01 7.529820e-01 -2.001198e-01 -6.202458e-01 -1.150241e+00 -3.037389e-01 2.770644e-03 
-7.549736e+00 3.229311e+00 2.017418e+00 -1.082540e+00 5.036235e+00 6.925509e+00 3.047468e+00 2.775590e+00 1.940894e+00 1.820388e+00 -1.431188e+00 9.709888e-01 -3.907967e-02 1.776255e-01 7.687376e-01 -3.676145e-01 -9.938908e-03 8.877432e-01 2.605993e-01 -2.715519e-01 3.340442e-01 8.895262e-01 -7.969155e-01 -1.140298e+00 -4.644750e-01 1.124680e-03 
-8.446754e+00 3.486426e+00 -1.416424e+00 -8.881168e-01 4.353327e+00 3.956261e+00 4.499334e-01 -3.657894e-01 3.723169e+00 1.033255e+00 -4.656472e+00 -5.688199e-01 -8.291364e-03 -3.294152e-01 2.492572e-01 -8.324281e-01 -1.935529e-01 1.157417e-01 3.505577e-01 4.527065e-01 -5.615837e-01 -4.645762e-01 6.930026e-01 7.347040e-01 9.537796e-01 3.950417e-03 
-8.253090e+00 2.570700e+00 -6.388954e-01 1.172967e-01 6.646695e+00 4.914589e+00 -2.795358e+00 1.602691e+00 3.105627e+00 2.489946e+00 -3.904662e+00 -2.262740e-01 -1.406324e-02 -7.224528e-01 -5.131231e-01 -5.433445e-02 -2.525680e-01 -2.907987e-01 -2.219919e-01 6.524622e-01 4.825212e-01 1.009962e-01 6.554817e-01 1.458515e+00 8.728816e-01 -8.658242e-03 
-1.101774e+01 1.693839e+00 1.421775e+00 -2.913453e+00 3.774515e+00 4.909466e+00 5.081736e+00 -4.384215e-01 2.191901e-02 4.418384e+00 7.820253e-01 3.821374e+00 -5.823576e-02 -5.425858e-01 -6.234990e-01 2.883763e-01 -7.295986e-01 -1.161279e+00 -9.581984e-01 2.712776e-01 1.438215e+00 4.460165e-01 6.540159e-01 1.681985e+00 1.346473e+00 -1.617460e-02 
-9.876509e+00 1.559989e+00 3.266463e-01 -1.332712e+00 3.871648e+00 5.338948e+00 3.993878e+00 5.224513e+00 4.296500e+00 3.405232e+00 3.142138e+00 3.140300e+00 -5.739868e-02 -3.176802e-01 -6.787803e-01 2.919054e-03 -1.007394e+00 -1.209040e+00 -9.885896e-01 8.910564e-01 5.555679e-01 4.986342e-01 8.465164e-01 1.363778e+00 7.632757e-01 -1.346245e-02 
-1.034797e+01 8.742867e-01 -4.573136e-01 -3.811106e+00 -6.554234e-02 -1.046911e+00 -1.588296e+00 5.014373e+00 5.357815e+00 3.845692e+00 2.300554e-01 4.480255e+00 -6.749666e-02 1.382864e-01 -6.187941e-01 -2.224464e-01 -6.252923e-01 -3.856104e-01 -6.308394e-01 8.274736e-02 6.147275e-02 4.452214e-01 8.784622e-01 4.864454e-01 -1.001055e-01 -5.636489e-03 
-1.017637e+01 -4.134245e-01 3.152445e-01 -4.470847e+00 2.521525e+00 2.949828e+00 4.994941e+00 1.654132e+00 2.930851e+00 7.008874e+00 3.190214e+00 3.260664e+00 -7.674503e-02 -4.281254e-02 -5.234538e-01 7.497545e-02 -6.936011e-01 -1.131785e-02 -7.814999e-02 8.585364e-01 -1.050100e+00 -5.158263e-01 1.037047e+00 3.056311e-01 -9.788635e-02 -4.794109e-03 
