-9.356896e+00 2.831642e+00 -6.739469e-01 5.090342e-01 1.796280e+00 2.003564e+00 6.059084e-01 2.896533e+00 -2.275197e+00 -4.819328e+00 4.492666e+00 1.050419e+00 -1.512927e-01 1.599449e-01 9.795758e-01 1.196327e+00 6.755151e-01 6.604738e-01 2.939189e-01 -1.224700e-02 2.619429e-01 2.736886e+00 1.340163e+00 -3.360136e-01 4.023054e-01 0.000000e+00 
-7.855683e+00 6.260913e+00 3.926636e+00 1.831824e+00 1.860237e+00 1.912017e+00 -1.801580e-03 3.161056e+00 3.463153e+00 -4.337612e+00 3.573564e+00 2.538509e+00 -1.512927e-01 3.477673e-01 8.230840e-01 6.506513e-01 3.114769e-01 1.215962e+00 2.829560e-01 -1.044140e+00 -7.313879e-01 1.922248e+00 1.187174e+00 2.548314e-02 1.405305e-01 0.000000e+00 
-9.307778e+00 6.014885e+00 3.007396e+00 3.225214e+00 5.066670e+00 3.518932e+00 8.485284e-01 4.073985e+00 8.540056e+00 1.640628e+00 3.272148e+00 2.317901e+00 -1.512927e-01 1.071676e-01 3.183303e-01 3.758865e-01 7.929512e-02 8.606369e-01 -1.789697e-01 -1.160102e+00 -1.741832e+00 6.211692e-01 9.770536e-01 -2.919154e-01 -3.524456e-01 0.000000e+00 
-7.642619e+00 5.355440e+00 7.386378e-01 7.083282e-01 6.240893e+00 2.660660e+00 -4.736101e+00 -1.349133e+00 1.928416e+00 -2.113438e+00 5.230340e+00 1.119330e+00 -1.512927e-01 3.914757e-02 1.382865e-01 -4.077010e-01 -6.904742e-01 -8.205584e-01 -7.094293e-01 -9.522898e-02 -6.044041e-01 2.408070e-01 -1.845186e-01 -5.762349e-01 -1.592191e+00 0.000000e+00 
-8.927590e+00 4.876030e+00 2.799485e+00 1.467258e+00 3.909137e+00 7.343940e-01 -2.827450e+00 -3.557534e+00 1.598018e+00 -1.046147e+00 2.204701e+00 -2.219796e-03 -1.512927e-01 1.144207e-01 1.011700e-01 -2.564739e-01 -5.147461e-01 -1.217703e+00 -1.144224e+00 1.023760e+00 4.595590e-01 -7.174575e-01 -4.691408e-01 -7.752573e-02 -2.431679e-01 0.000000e+00 
-7.850039e+00 7.521773e+00 1.992087e+00 -7.415684e-01 -1.663788e+00 -2.428606e-01 1.360043e+00 3.954795e+00 8.138206e+00 -3.916818e+00 1.226113e+00 -4.262387e+00 -1.512927e-01 -9.470177e-03 2.025599e-01 -7.547045e-01 8.642501e-01 -3.464329e-01 3.525984e-01 2.290306e+00 8.964547e-01 -8.717927e-03 6.838912e-01 -1.216208e+00 7.985728e-01 0.000000e+00 
-8.631965e+00 5.437569e+00 1.098302e+00 1.376432e+00 2.930495e+00 -7.504289e-01 2.919255e+00 3.719816e+00 1.847873e+00 1.966136e-01 4.886633e+00 3.792920e+00 -1.512927e-01 2.441170e-01 -4.134612e-02 -1.109709e+00 5.377660e-01 -2.712561e-01 1.039625e+00 1.590339e+00 -5.748074e-02 -1.055414e+00 6.202921e-01 8.278748e-01 1.193639e+00 0.000000e+00 
-7.837783e+00 6.087470e+00 -2.184294e+00 5.074991e+00 4.998050e+00 5.166064e+00 3.842077e+00 -5.055341e-01 1.759898e+00 6.846375e-01 -2.191668e+00 3.214624e+00 -1.512927e-01 -1.161308e-02 -4.676605e-01 -2.202834e-01 1.057653e+00 5.541763e-01 5.258115e-01 6.110381e-01 -1.540648e+00 -1.161572e+00 5.033056e-01 -9.386341e-02 7.770659e-01 0.000000e+00 
-7.713134e+00 5.386451e+00 -6.608708e-01 1.247808e+00 -7.780626e-01 3.228056e+00 3.883229e+00 -1.614773e+00 -4.899006e-01 -2.454143e-01 8.052965e+00 2.227471e+00 -1.512927e-01 5.538729e-01 -1.704376e-01 2.778915e-01 2.961497e-01 -6.270312e-01 -6.051339e-01 -5.879061e-01 -8.822684e-01 -5.850863e-01 -2.006863e+00 -2.312342e-01 -7.434441e-01 0.000000e+00 
-8.367520e+00 5.209030e+00 1.770257e+00 4.611010e+00 2.961373e+00 3.969542e-01 3.933246e+00 -1.081151e+00 3.499235e+00 -1.179276e+00 -8.263700e-01 4.056662e-01 -1.512927e-01 3.978893e-01 -2.149299e-01 1.051456e+00 -9.277288e-01 -7.574852e-01 -1.711957e+00 -9.631680e-01 1.685559e+00 -1.097329e+00 -4.500562e+00 2.806638e-01 -1.073195e+00 3.311396e-03 
-5.597732e+00 5.024601e+00 5.104846e-01 3.089171e+00 8.136774e-01 -1.391543e+00 -6.586009e-02 -4.037170e-01 -1.947227e+00 -8.905745e+00 3.047813e+00 1.480179e+00 -1.512927e-01 2.427036e-01 -1.003581e-01 7.127754e-01 -3.027992e-01 6.840514e-01 -1.568086e+00 -1.889115e+00 7.434400e-01 -2.226452e+00 -4.528841e+00 -1.472538e+00 -1.876049e+00 1.997924e-03 
-6.906037e+00 5.193746e+00 2.487311e+00 -4.843346e-01 4.147534e-01 -1.083922e+00 1.000781e+00 7.316731e+00 -2.998085e+00 -1.748800e+01 1.714227e+00 -1.777702e+00 -1.347357e-01 -6.469460e-02 2.961605e-01 -3.032208e-04 -1.164872e+00 -1.569963e-02 -1.677488e-01 -1.421311e+00 1.329496e-01 -1.568570e+00 -1.520955e+00 -2.657795e-02 -6.782596e-01 1.711130e-04 
-7.230357e+00 4.892303e+00 2.544479e+00 2.281484e+00 3.915504e+00 -3.871937e+00 -4.096112e+00 -2.096514e+00 -8.373500e+00 -1.473526e+01 -5.800245e-01 -6.061091e+00 -1.495816e-01 -5.635945e-01 5.520868e-01 3.835680e-01 -9.312543e-01 1.977549e-01 1.324394e+00 -6.922509e-02 -3.420063e-01 6.764299e-01 1.868832e+00 4.931956e-01 4.449001e-01 -1.655698e-03 
-7.874681e+00 6.755981e+00 7.517434e-01 -8.095075e-01 1.331962e+00 7.984072e-01 -1.158186e+00 4.299951e-01 -1.130478e+00 -5.869293e+00 8.546588e-01 7.850036e-01 -1.512927e-01 -4.596804e-01 4.052991e-01 1.636369e-01 -5.690345e-01 3.562551e-01 1.736327e+00 4.659024e-01 -1.009905e+00 2.149297e+00 3.647671e+00 -3.717262e-01 2.688967e-01 -3.482509e-03 
-7.931382e+00 7.003917e+00 3.296108e+00 -1.404513e+00 1.343848e+00 4.289264e+00 6.674979e-01 1.329619e+00 5.011194e-01 -5.370942e+00 5.943575e+00 2.423327e+00 -1.512927e-01 -5.838839e-01 -3.496253e-03 -7.662933e-02 -2.226897e-01 -1.097924e-01 1.451617e+00 1.357293e+00 1.441595e+00 2.687900e+00 2.630760e+00 3.222868e-01 1.133974e+00 -3.422260e-04 
-8.853927e+00 6.164434e+00 2.929681e+00 -1.486508e+00 3.481857e+00 3.517115e+00 9.484881e-01 5.541413e-01 3.311092e+00 -3.931808e+00 -3.406204e+00 -4.675428e+00 -1.512927e-01 -6.396637e-02 -3.988800e-02 6.634428e-02 5.616328e-01 -5.455036e-02 5.271349e-01 1.241317e+00 1.179208e+00 1.079938e+00 1.496838e+00 6.622665e-01 3.708530e-03 0.000000e+00 
-9.660153e+00 5.170595e+00 1.072364e+00 1.506536e+00 2.291595e+00 2.026795e+00 1.637018e+00 5.049388e+00 2.845213e+00 -2.550201e+00 3.161840e+00 2.338995e+00 -1.512927e-01 6.238899e-02 -3.328057e-01 -5.601842e-01 9.721702e-01 2.957613e-02 -8.374949e-01 5.704603e-01 -2.026084e-02 5.934206e-01 1.422444e+00 9.775464e-01 7.589275e-01 0.000000e+00 
-7.330127e+00 7.473203e+00 2.195337e+00 5.431314e-01 5.853362e-01 4.565316e+00 4.563637e+00 4.466148e+00 3.097167e+00 2.045248e-01 5.556858e+00 8.457125e-01 -1.512927e-01 5.784710e-01 7.663754e-02 -3.375474e-01 9.092697e-01 2.319778e-01 -3.623353e-01 -3.999560e-01 -1.692035e+00 -1.000348e+00 3.732572e-01 8.692776e-01 1.039936e+00 0.000000e+00 
-8.381337e+00 4.685504e+00 8.623594e-01 2.441518e+00 2.939989e+00 -4.223110e-01 1.712225e+00 -7.276884e-01 3.575185e+00 -3.268902e-01 6.349775e+00 3.457395e+00 -1.512927e-01 4.035582e-01 4.100409e-01 5.222731e-02 4.945057e-01 1.565884e+00 2.864765e-01 -6.291502e-01 -1.547635e+00 4.192401e-01 2.660680e-01 -7.701403e-01 -5.033609e-01 0.000000e+00 
-6.600980e+00 6.790167e+00 1.346946e+00 2.592350e+00 4.317549e+00 2.929991e+00 -1.088895e+00 -5.017494e+00 -2.055636e+00 -3.177177e+00 -6.537831e-01 -3.494811e-02 -1.512927e-01 -3.374248e-01 -1.012233e+00 4.538357e-01 8.524000e-01 1.411716e+00 -1.997010e-01 -9.418781e-01 -1.041205e+00 1.113136e-02 -5.556396e-01 -8.089929e-01 7.421479e-02 1.762652e-02 
-8.006936e+00 7.562317e+00 1.757696e+00 2.954455e+00 8.254911e+00 4.276840e+00 1.317533e+00 2.053033e+00 7.517815e+00 4.709902e-01 2.416459e+00 2.625204e-01 -1.512927e-01 6.028813e-01 -2.218566e+00 -4.927476e-01 -4.481645e-01 -5.364410e-01 -1.222458e+00 -6.778547e-01 -6.144432e-01 -5.981420e-01 -1.090217e+00 -2.707721e-01 -3.841571e-01 9.662004e-02 
-9.204452e+00 9.736314e-01 4.016848e+00 4.548663e+00 4.986457e+00 1.217235e+00 5.159241e-02 -2.130236e+00 1.181509e+00 -2.972613e+00 3.478552e+00 2.814224e+00 -6.316006e-02 2.345892e+00 -3.060586e+00 -1.344605e+00 -1.231516e+00 -2.770002e+00 -2.762949e+00 -3.698075e-01 -6.159096e-01 -1.119783e+00 -1.091282e+00 1.377862e+00 3.506169e-01 1.944411e-01 
-4.065195e+00 -3.499060e+00 -2.936329e+00 -7.774609e-01 -7.667077e-02 -5.678223e+00 -2.247293e+00 -5.243533e+00 -1.034097e+00 -5.880256e+00 2.929747e+00 1.120233e-01 2.877412e-01 5.958690e+00 -2.224389e+00 -1.975961e+00 -4.100450e+00 -4.637260e+00 -1.111384e+00 8.065076e-01 4.072911e-01 -3.665014e+00 -6.393835e-01 -2.862164e-01 6.105836e-01 2.671706e-01 
3.157609e+00 -2.982075e+00 -3.029065e+00 -1.699272e+00 -5.366670e+00 -5.907222e+00 -1.155520e+00 -4.448759e+00 -3.378593e+00 -5.457962e+00 5.978885e+00 1.793385e+00 6.013960e-01 7.315919e+00 -1.397308e+00 -1.973299e+00 -6.148342e+00 -3.341933e+00 9.924706e-01 2.377456e+00 2.525121e+00 -4.114936e+00 2.443229e+00 -2.269060e+00 1.683624e+00 2.639345e-01 
1.560548e+01 -1.581773e+00 -4.599154e+00 -1.442382e+01 -9.754827e+00 2.282148e+00 5.953628e+00 5.248750e+00 -8.527206e+00 -1.483253e+00 -2.647893e-01 3.825858e+00 8.522824e-01 5.457291e+00 -1.489405e+00 -4.339649e-01 -5.262081e+00 -9.936835e-01 2.160994e+00 3.100218e+00 2.610419e+00 -3.919048e+00 3.722691e+00 -2.010710e+00 1.866756e+00 1.752165e-01 
1.753981e+01 -6.971550e+00 -5.018234e+00 -1.936987e+01 -6.884127e+00 2.199402e+00 7.838414e+00 5.249230e+00 -1.564662e+01 7.045032e+00 -6.269480e+00 9.375424e+00 9.742419e-01 2.307653e+00 -2.015279e+00 -6.750965e-02 -3.716157e+00 1.183005e+00 1.304871e+00 2.749777e+00 5.179289e-01 -2.631425e+00 3.950576e+00 -2.266147e+00 1.180673e+00 8.842830e-02 
1.603016e+01 -8.951347e+00 -4.111569e+00 -1.825257e+01 -4.286360e+00 1.073434e+00 8.756832e+00 2.959567e+00 -1.449532e+01 6.481701e+00 -9.996207e-01 5.654783e+00 9.774006e-01 -9.143156e-01 -1.768366e+00 1.478724e-01 4.197460e-01 1.179630e+00 5.477260e-01 9.120358e-01 -1.698680e+00 -2.856858e-01 2.301181e+00 -5.638465e-01 1.248895e-01 2.779656e-02 
1.448354e+01 -9.373684e+00 -3.610406e+00 -1.836569e+01 -2.185879e+00 1.221492e+00 1.119176e+01 -7.145231e-01 -1.355166e+01 1.031244e+01 -4.984432e+00 6.782288e+00 9.809784e-01 -1.723954e+00 -4.844696e-01 9.918280e-02 2.125648e+00 -2.249493e-01 1.350993e+00 1.164784e-01 -1.782396e+00 1.360966e+00 6.054715e-01 1.472389e-01 -5.815310e-01 6.201261e-03 
1.256204e+01 -9.222538e+00 -4.563706e+00 -1.282718e+01 -6.205803e+00 5.509733e+00 8.837132e+00 -2.627724e-01 -1.100311e+01 8.388947e+00 -3.726546e+00 5.746873e+00 9.878969e-01 -1.221414e+00 -2.365763e-01 -1.393203e-01 2.330495e+00 -9.972122e-01 1.436508e+00 -2.814543e-01 -1.546572e+00 1.194724e+00 8.492173e-01 -1.401667e+00 5.210818e-01 2.995944e-03 
1.065410e+01 -9.258303e+00 -4.296251e+00 -1.145432e+01 -7.049152e+00 6.736217e+00 8.380656e+00 -2.051580e+00 -1.058789e+01 9.118766e+00 -4.169823e+00 6.421723e+00 1.000000e+00 -3.987965e-01 -5.602684e-01 -8.051100e-02 2.070092e+00 -9.435317e-01 8.000387e-01 -6.016229e-01 -1.065742e+00 1.167624e+00 1.711380e-01 -7.184520e-01 -4.524593e-02 -5.270719e-04 
1.183781e+01 -1.019192e+01 -4.465248e+00 -1.005578e+01 -6.840785e+00 5.498610e+00 8.755115e+00 -4.104763e+00 -1.000358e+01 1.132462e+01 -8.415261e+00 8.440475e+00 9.828695e-01 7.281153e-01 -1.271610e+00 5.619891e-01 7.211663e-01 8.434019e-02 1.808232e-01 -1.043569e+00 -3.119896e-01 6.770983e-01 3.831777e-01 -6.969364e-01 -7.223331e-01 -4.204518e-03 
1.285167e+01 -1.169033e+01 -4.062190e+00 -9.400928e+00 -6.586047e+00 5.227247e+00 8.224658e+00 -4.122235e+00 -8.213304e+00 9.700291e+00 -6.232335e+00 5.209258e+00 9.808567e-01 9.549382e-01 -1.051898e+00 2.396177e-01 7.714485e-01 4.944232e-01 -2.325544e-01 -1.312345e+00 7.597836e-01 5.016445e-01 -2.306457e-01 4.399509e-01 -2.029820e+00 -6.480867e-03 
1.510383e+01 -1.436457e+01 -1.870791e+00 -1.024805e+01 -6.015655e+00 7.168334e+00 3.697287e+00 -7.873929e-01 -8.804917e+00 1.001407e+01 -6.179972e+00 2.741441e+00 9.764460e-01 -8.802415e-02 -3.997959e-01 -1.421239e-01 1.132534e+00 1.289081e-01 3.036485e-02 -1.512544e+00 1.383278e+00 2.540812e-01 -1.702882e-01 7.994258e-01 -2.134462e+00 -1.970470e-04 
1.379578e+01 -1.243146e+01 -4.395391e+00 -7.500942e+00 -4.989601e+00 4.738584e+00 4.347843e+00 8.865273e-02 -8.679002e+00 8.620812e+00 -3.087713e+00 -8.778594e-01 9.708074e-01 -5.851111e-01 1.951157e-01 -4.407209e-01 1.524473e+00 3.973341e-02 -3.610759e-01 -9.971582e-01 7.886602e-01 6.559879e-01 1.875127e-01 1.401704e-01 -1.341910e+00 -2.012259e-03 
1.092563e+01 -1.182033e+01 -5.009267e+00 -5.343100e+00 -6.994467e+00 5.894766e+00 3.130800e+00 7.061834e-01 -8.500328e+00 1.101292e+01 -5.990443e+00 8.117221e-01 9.869089e-01 -8.235388e-01 4.749012e-01 -5.003597e-01 1.806199e+00 -1.544594e-01 -9.187273e-01 -5.648204e-01 2.028836e-01 1.189400e+00 5.119146e-01 -5.655447e-01 -4.868563e-01 -4.577929e-03 
1.201521e+01 -1.198688e+01 -4.696557e+00 -4.231038e+00 -5.897974e+00 4.058651e+00 3.522110e+00 -9.257225e-01 -5.085659e+00 1.013843e+01 -5.626247e+00 -5.354341e-01 9.655640e-01 -2.871873e-01 1.005262e-01 2.744160e-01 1.329183e+00 8.775043e-03 -1.145509e+00 -1.080764e+00 2.881203e-01 1.691981e+00 7.436467e-01 -1.050672e+00 -5.454101e-02 -1.081845e-02 
1.187642e+01 -1.221236e+01 -4.222007e+00 -2.852005e+00 -6.333766e+00 2.914664e+00 1.286051e+00 7.342128e-01 -4.654590e+00 1.181484e+01 -7.738428e+00 1.359469e-01 9.561781e-01 9.281460e-02 3.326073e-01 4.040155e-01 1.196018e+00 3.706559e-01 -1.862719e+00 -1.427032e+00 7.044390e-01 1.996190e+00 -4.348860e-02 -1.140896e-01 -1.099849e+00 -2.004218e-02 
1.188445e+01 -1.173282e+01 -3.416941e+00 -2.100573e+00 -5.276076e+00 5.010902e-01 -1.336041e-01 1.515239e+00 -2.141967e+00 1.193809e+01 -7.467081e+00 -8.126768e-01 9.320806e-01 -2.888096e-01 8.669391e-01 4.282137e-01 1.005016e+00 4.001866e-01 -2.288789e+00 -1.510494e+00 9.528348e-01 1.923405e+00 -5.485121e-01 4.955938e-01 -1.387488e+00 -2.286722e-02 
1.145509e+01 -1.028433e+01 -3.628998e+00 -4.282445e-01 -5.452137e+00 -1.640049e+00 -2.176505e+00 3.007897e+00 8.774281e-03 9.895650e+00 -5.640474e+00 -4.548901e+00 9.034397e-01 -2.934872e-01 1.103593e+00 5.080293e-01 9.121652e-01 4.364436e-01 -2.509867e+00 -9.805979e-01 4.828737e-01 1.919238e+00 -1.488632e+00 1.220294e+00 -1.444113e+00 -2.710128e-02 
1.078183e+01 -8.616198e+00 -2.851993e+00 -4.178378e-01 -4.337855e+00 -5.107939e+00 -2.299082e+00 2.701609e+00 2.199682e+00 8.355463e+00 -4.197255e+00 -5.130452e+00 8.775970e-01 -2.334720e-01 1.030103e+00 4.700381e-01 9.024919e-01 3.194168e-01 -2.542269e+00 -6.545347e-01 2.401972e-01 1.304661e+00 -1.482652e+00 1.159676e+00 -6.844722e-01 -2.542084e-02 
1.096030e+01 -8.252705e+00 -1.964334e+00 8.674536e-01 -4.620658e+00 -6.830159e+00 -2.534199e+00 2.555397e+00 2.770775e+00 6.162991e+00 -3.271868e+00 -4.925733e+00 8.479134e-01 -1.067079e-01 8.966430e-01 4.667896e-01 8.117145e-01 4.208052e-01 -2.314779e+00 -2.922791e-01 -4.949470e-01 1.034030e+00 -1.116108e+00 1.023720e+00 5.476185e-01 -2.436767e-02 
1.096449e+01 -7.598114e+00 -1.899082e+00 1.764038e+00 -4.094731e+00 -9.615202e+00 -3.227431e+00 2.942476e+00 3.000336e+00 6.391157e+00 -2.853003e+00 -4.046622e+00 8.327395e-01 6.572922e-02 8.125207e-01 3.946699e-01 9.401792e-01 3.584368e-01 -1.611488e+00 -4.167778e-01 -1.062562e+00 9.473332e-01 -6.624840e-01 7.703246e-01 8.987386e-01 -2.780234e-02 
1.083022e+01 -6.310153e+00 -1.771505e+00 2.539391e+00 -3.469672e+00 -1.096031e+01 -3.173727e+00 4.127287e-01 4.778595e+00 5.297263e+00 -1.194000e+00 -2.352723e+00 8.040301e-01 3.561749e-01 6.410037e-01 3.826867e-01 8.306888e-01 4.356762e-01 -7.591848e-01 -9.355764e-01 -1.093363e+00 9.082333e-01 8.674793e-02 8.141078e-01 9.353353e-01 -3.476362e-02 
1.117551e+01 -5.524870e+00 -9.750583e-01 3.447090e+00 -3.121164e+00 -1.110030e+01 -4.063207e+00 -1.539867e+00 5.932438e+00 5.475906e+00 -1.384566e+00 -1.923264e+00 7.605270e-01 7.026738e-01 3.300190e-01 3.726372e-01 7.573126e-01 6.295414e-01 2.370266e-01 -1.354791e+00 -5.549661e-01 1.586348e-01 7.733469e-02 1.101866e+00 6.894903e-01 -4.976485e-02 
1.263566e+01 -6.084308e+00 -5.129128e-01 4.179371e+00 -2.929061e+00 -9.883533e+00 -6.794193e+00 -6.702455e-01 5.845891e+00 7.054356e+00 6.445217e-02 -1.310735e+00 7.102016e-01 1.065505e+00 9.647343e-01 -5.509583e-01 1.457507e+00 1.003448e+00 1.617950e+00 -1.870982e+00 2.010781e-01 -1.049394e+00 -4.523571e-01 8.915221e-01 2.764737e-01 -8.737887e-02 
1.357514e+01 -6.060941e+00 -6.651924e-01 4.730610e+00 -1.217330e+00 -8.968457e+00 -8.191153e+00 7.091323e-01 3.259862e+00 5.899284e+00 2.027103e+00 -1.120165e+00 6.308295e-01 3.974628e-01 2.524350e+00 -1.903706e-01 1.470411e+00 2.334180e+00 2.451293e+00 -9.503864e-01 4.805068e-01 -1.894158e+00 -2.030431e+00 9.681507e-01 2.761658e-01 -1.414706e-01 
1.495793e+01 -1.218447e+00 -4.681230e+00 9.185165e+00 5.956538e-01 -3.936481e+00 -1.046466e+01 2.936193e-01 8.679129e-01 2.823789e+00 1.557777e+00 -1.371904e+00 4.319845e-01 -2.574575e+00 3.352752e+00 2.653458e+00 1.870115e+00 3.575532e+00 3.411486e+00 1.833628e+00 7.929040e-01 -2.017538e+00 -2.514575e+00 9.610607e-01 -9.079083e-01 -1.652339e-01 
1.200169e+01 4.663948e+00 1.572471e-01 8.296247e+00 6.787381e+00 -1.817362e+00 -6.979903e+00 3.807347e-01 -1.049363e+00 -2.560966e+00 2.709526e+00 -5.118501e-01 1.922827e-01 -5.065576e+00 2.290036e+00 3.675917e+00 1.138230e+00 2.648763e+00 3.193632e+00 3.849548e+00 4.608756e-01 -4.215336e-02 -1.826838e+00 -1.476381e-01 -1.417414e+00 -1.253320e-01 
5.495024e-01 5.317009e+00 1.234316e+01 1.174713e+01 1.094625e+01 3.598350e+00 1.768324e+00 3.458473e+00 -2.087188e+00 -1.288394e+00 4.528544e+00 -6.154434e+00 1.033057e-01 -6.312812e+00 -3.321268e-01 2.571321e+00 -7.792795e-01 1.015170e+00 6.011112e-01 2.869370e+00 -8.833128e-01 1.560343e+00 -1.193328e+00 -3.902052e-01 -3.831536e-01 -2.811798e-02 
-4.548528e+00 2.121510e+00 9.202201e+00 9.140779e+00 6.851192e+00 3.232287e+00 4.940094e+00 1.431083e+00 4.526646e+00 -1.178815e+00 -1.964715e-01 -5.815968e+00 1.685089e-01 -5.492280e+00 -2.448152e+00 -4.344224e-01 -2.031375e+00 -1.256898e+00 -7.242197e-01 1.265703e-01 -1.809481e+00 2.681054e+00 2.797510e-01 -1.840185e+00 3.984762e-01 5.130265e-02 
-8.331019e+00 -1.607862e+00 3.652900e+00 4.866503e+00 5.639599e+00 -3.455750e+00 -2.077813e+00 -4.648119e+00 5.881621e+00 -3.833925e+00 1.059749e+00 -6.356134e-01 3.032815e-01 -2.572452e+00 -2.613618e+00 -3.101337e+00 -2.585767e+00 -3.633004e+00 -2.621217e+00 -2.088294e+00 -1.696793e+00 1.640921e+00 3.535956e-01 -1.443740e+00 8.401362e-01 5.786929e-02 
-1.101945e+01 -4.114375e+00 2.330263e+00 1.579683e+00 3.156216e+00 -1.911411e+00 -4.423983e+00 -4.613375e+00 8.371500e+00 1.105545e-01 -4.757004e+00 -1.278879e+00 3.488081e-01 -2.933306e-01 -2.092339e+00 -1.739898e+00 -8.512045e-01 -3.639403e+00 -2.677474e+00 -1.776974e+00 -3.211134e-01 -7.402571e-01 9.362314e-02 -4.003785e-01 1.476930e-01 3.284153e-02 
-9.077292e+00 -4.633141e+00 2.724403e-01 2.598843e+00 -5.371284e+00 -6.935889e+00 -3.991107e+00 -2.003262e+00 4.194992e+00 -1.651006e-01 -4.098895e-01 -4.222298e+00 3.025025e-01 1.648448e+00 -1.108174e+00 -2.113467e-01 -7.962622e-01 -3.938358e+00 -1.598158e+00 7.032122e-01 1.014166e+00 -9.659451e-01 -4.973756e-01 6.141048e-02 -6.047673e-01 -9.904271e-03 
-5.642044e+00 -6.827543e+00 2.192942e+00 6.018587e+00 -5.840380e+00 -8.415012e+00 -2.988132e+00 -1.496912e+00 1.668675e+00 -2.545111e+00 -1.463545e+00 -3.284161e+00 3.331060e-01 2.734587e+00 -4.916728e-01 -4.715371e-01 -1.367497e+00 -2.810225e+00 -2.797515e-01 -2.567698e-01 8.493372e-01 3.780089e-01 -3.779585e-01 2.049551e+00 5.172178e-01 -5.247977e-02 
-2.777486e+00 -5.792148e+00 2.664827e+00 -1.334260e+00 -9.553890e+00 -8.194741e+00 7.203227e-01 -1.135522e+00 4.403308e+00 -4.992970e+00 -2.799280e-01 -2.656809e+00 2.616112e-01 2.566924e+00 -2.290584e-01 -2.648346e-01 -1.201589e+00 4.085694e-02 1.734149e+00 -1.795616e+00 -7.910996e-01 2.057154e+00 9.947619e-01 5.893988e-01 2.668059e-01 -6.874558e-02 
-4.964228e-01 -5.993235e+00 -1.223616e+00 -3.291252e+00 -8.803608e+00 -2.680743e+00 -8.063546e+00 -8.005588e-01 1.015739e+01 6.346970e-01 5.425768e+00 5.244653e-01 1.068549e-01 1.609203e+00 7.248869e-01 -6.673638e-01 -9.390421e-01 1.249856e+00 1.722256e+00 -2.122375e+00 -1.546355e+00 2.481198e+00 1.492422e+00 1.579266e+00 3.519870e-01 -7.582378e-02 
1.184518e+00 -6.195587e+00 6.565465e-01 1.245815e+00 -3.685385e+00 -1.132279e+00 -1.043148e+01 -6.306936e+00 1.023641e+01 3.218805e+00 -9.075515e-01 -4.792581e+00 7.190019e-02 9.809889e-01 1.957500e+00 -4.341603e-01 1.054255e+00 2.737998e+00 1.719524e+00 -6.594921e-01 -4.128362e-01 8.140572e-01 3.359366e-01 6.813310e-01 9.720680e-01 -7.699952e-02 
4.229689e-01 -3.001389e+00 -1.397367e-01 3.333867e-02 -2.525352e+00 -3.334961e+00 -8.024104e+00 -6.642980e+00 1.115812e+01 8.111138e-01 6.746599e+00 -4.563400e-01 4.884261e-02 1.371615e-01 2.852026e+00 -5.819603e-01 3.028967e-01 2.468266e+00 9.201266e-01 2.323193e+00 3.088177e-01 -2.472621e+00 -1.768831e+00 -2.304966e-01 5.504543e-01 -6.646761e-02 
1.667763e+00 2.499427e+00 -4.791451e-02 2.274721e+00 9.969733e-01 7.299902e-01 -2.596859e+00 -2.784917e-01 7.973229e+00 -3.401496e+00 2.466311e+00 2.693933e+00 -9.438026e-02 -3.892244e-01 3.227741e+00 -5.316510e-01 -5.335711e-01 1.717247e+00 1.658254e+00 2.921431e+00 1.874925e+00 -3.070882e+00 -1.304078e+00 -4.142044e-01 4.500297e-01 -6.375713e-02 
-5.223751e-02 3.919386e+00 -3.781187e+00 -2.291221e+00 1.196540e+00 9.887561e-01 -3.648936e-01 -2.270693e+00 -1.074132e+00 -4.899305e+00 2.586353e+00 -4.665204e-01 -1.423429e-01 -9.445831e-01 2.625095e+00 -1.577983e-01 1.392889e-02 1.032732e+00 1.497249e+00 1.491530e+00 1.881273e+00 -3.007215e+00 -9.328827e-01 -3.000693e+00 -9.770500e-01 -3.795198e-02 
-5.240011e-01 6.482732e+00 -1.809833e-01 -2.597604e-01 3.039904e+00 4.997133e+00 3.460674e-01 8.815436e-01 9.981223e-01 -4.463770e-01 -8.984504e-01 -2.537342e+00 -1.512927e-01 -1.560998e+00 1.908626e+00 2.979346e-01 1.196804e-01 -2.246733e-01 -7.793300e-02 -4.362648e-02 5.696605e-01 -1.484577e+00 4.089985e-01 -8.365473e-01 -3.415653e-01 -3.527033e-03 
-3.204064e+00 8.132431e+00 -8.621938e-01 1.370224e+00 1.616841e+00 2.017714e+00 -2.037920e+00 2.183365e+00 -3.904030e-01 -5.330859e+00 -6.574483e+00 -2.725952e+00 -1.124611e-01 -1.440980e+00 1.604953e+00 1.707928e+00 1.415214e+00 3.916829e-01 -8.573360e-01 -7.782650e-01 -3.464441e-01 -3.633796e-01 -2.231553e-02 -6.246076e-02 7.448133e-01 6.436825e-04 
-4.561312e+00 9.936035e+00 -1.773810e-02 1.042401e+00 -3.365433e-01 -1.741534e-01 -1.978478e+00 3.427819e-01 2.084780e-01 -1.140726e+00 2.863993e+00 2.115823e+00 -1.269563e-01 -1.719855e+00 4.486170e-01 1.335331e+00 4.591406e-01 3.134496e-01 -1.526508e+00 1.552777e-02 -1.337161e+00 -6.271833e-01 -4.204732e-01 5.923527e-01 3.652038e-01 -3.883159e-03 
-5.238482e+00 1.021750e+01 4.676830e+00 4.133769e+00 4.843179e+00 -7.122808e-01 -3.093946e+00 -3.733532e+00 -2.496207e+00 -4.663708e+00 3.928276e-01 9.309631e-01 -1.512927e-01 -1.528583e+00 -6.435209e-01 6.809155e-01 7.695997e-03 3.209042e-01 -1.299132e-01 9.130743e-01 -1.131398e+00 -8.288431e-01 -1.195401e+00 4.476179e-01 1.973574e-01 -1.019995e-02 
-8.106069e+00 7.683283e+00 3.726159e+00 6.541705e-01 2.993983e+00 -1.270410e+00 9.517194e-01 -2.845815e+00 -1.084892e+00 -2.882318e+00 -1.420342e+00 -2.539781e+00 -1.512927e-01 -1.034076e+00 -1.300270e+00 3.454447e-01 3.626403e-01 3.621027e-01 9.473221e-01 9.661843e-01 1.029445e-01 -2.314457e-01 -9.438671e-01 8.154745e-01 -2.315011e-01 -4.867268e-03 
-9.074599e+00 6.041203e+00 6.704347e-01 1.602819e+00 1.556099e+00 1.916276e+00 1.062353e+00 -1.879328e+00 -3.887933e+00 -1.043707e+01 -2.194226e+00 5.886367e-01 -1.512927e-01 -4.930605e-01 -9.676449e-01 -8.598762e-01 2.842857e-01 2.730650e-01 9.783923e-01 8.544515e-01 8.709289e-01 -3.739278e-02 -3.591315e-01 1.221842e+00 -5.579948e-04 0.000000e+00 
-7.813636e+00 5.522835e+00 3.712683e+00 4.121077e+00 3.117510e+00 3.248179e+00 7.742939e-01 -6.959802e-02 -2.528875e-01 -2.973381e+00 8.234893e+00 1.129481e+00 -1.512927e-01 3.189610e-01 2.909600e-01 2.057642e-01 1.396880e+00 1.153531e+00 -1.169972e-01 1.183052e-01 5.281724e-01 -1.670166e-01 -6.331911e-02 1.142017e+00 -7.393669e-02 0.000000e+00 
-7.850001e+00 6.459499e+00 3.841877e-01 3.821744e+00 6.146740e+00 1.920386e+00 1.267025e+00 -7.669967e-01 -3.099174e+00 -6.413835e+00 1.674422e+00 -9.064577e-01 -1.512927e-01 2.605227e-01 3.635219e-01 1.769657e-01 6.962569e-01 8.045230e-01 -7.655914e-01 -3.995646e-01 7.951441e-01 1.714861e+00 1.226437e+00 7.186639e-01 -8.998697e-01 0.000000e+00 
-7.123563e+00 8.928935e+00 4.898104e+00 6.529109e+00 6.466320e+00 -1.857451e+00 1.440910e+00 -7.611181e-01 -2.314355e+00 -5.210531e+00 2.355418e+00 -2.161917e+00 -1.512927e-01 9.542389e-02 -3.933472e-01 -9.205669e-01 9.135341e-03 2.580183e-01 -3.474177e-01 -1.189434e-01 1.069232e+00 1.412193e+00 -6.499757e-01 -2.029430e+00 -7.598977e-01 0.000000e+00 
-8.117023e+00 6.155763e+00 9.625527e-01 3.880088e+00 3.904309e+00 6.411338e-01 -1.268778e+00 2.442153e+00 5.717106e+00 -3.186308e+00 4.338831e+00 -2.265013e+00 -1.512927e-01 9.392012e-01 -1.106207e+00 -1.592635e+00 -3.170215e-01 3.965813e-01 1.359373e-01 3.345227e-03 2.529736e+00 3.277441e+00 3.398553e-01 -1.807471e+00 4.308219e-01 0.000000e+00 
-7.203006e+00 3.707967e+00 -1.179334e+00 4.137582e+00 5.528817e+00 2.150717e+00 1.447478e+00 3.671989e+00 2.399936e+00 -7.837023e+00 -3.244464e+00 -1.990731e+00 -1.512927e-01 9.873587e-01 -3.766784e-01 -9.568695e-01 -4.087147e-01 -2.778691e-01 1.168361e+00 -4.483700e-02 1.195219e+00 1.980603e+00 6.475170e-01 -9.833377e-01 1.512787e+00 0.000000e+00 
-3.114274e+00 3.538950e+00 -4.540269e+00 3.432400e+00 8.598398e+00 5.959889e-01 1.280467e+00 9.665132e+00 1.093088e+01 -3.401312e+00 -4.562989e+00 1.162058e+00 -1.512927e-01 4.833775e-01 5.338804e-01 7.634927e-01 4.424731e-01 -7.612491e-02 3.458683e-01 -1.089990e+00 -1.454338e+00 -9.781500e-01 -5.298778e-01 -1.147606e+00 -2.425406e-01 0.000000e+00 
-4.688144e+00 8.353950e+00 2.865167e+00 4.709379e+00 2.729929e+00 4.006926e+00 -5.789731e-02 1.603487e+00 4.981771e+00 -1.865444e+00 1.889640e+00 3.688482e+00 -1.512927e-01 -3.100426e-01 1.060771e+00 1.268657e+00 -1.728386e-01 -9.794443e-01 -4.392767e-01 -1.900653e+00 -3.437838e+00 -2.319019e+00 -1.657109e-01 1.295215e+00 -1.043597e+00 0.000000e+00 
-6.957566e+00 6.502173e+00 2.757765e+00 5.806555e+00 4.923128e+00 1.442371e+00 -5.966041e+00 -3.795285e+00 -4.645615e-01 -8.821486e+00 -3.966252e+00 -6.317322e+00 -1.512927e-01 -9.578026e-01 7.158778e-01 1.076017e+00 -5.315245e-01 -1.251904e+00 -6.605477e-01 -1.580064e+00 -4.129472e+00 -3.733585e+00 -9.198402e-01 1.603607e+00 -1.641967e+00 0.000000e+00 
-6.831573e+00 7.530210e+00 1.514932e+00 2.086311e+00 2.469230e+00 -4.688580e-01 -4.432534e+00 -6.786990e+00 -3.497438e+00 -5.955490e+00 2.933244e+00 -3.469025e+00 -1.512927e-01 -4.160864e-01 -6.194433e-02 -3.943304e-01 -8.966379e-01 -2.975296e-01 -1.086280e+00 -7.215766e-01 -1.977266e+00 -1.999130e+00 -5.314096e-01 8.986703e-01 -1.146672e+00 0.000000e+00 
