-4.094426e+00 4.921824e+00 3.205311e-01 1.574269e+00 6.181430e-01 3.392537e+00 3.714236e-01 5.852260e+00 7.703550e+00 3.023076e+00 -1.298583e-01 -3.922538e+00 -1.512927e-01 -3.658890e-01 -6.633244e-01 8.191542e-02 9.201790e-01 5.677965e-02 1.640366e-01 -5.095453e-01 -1.300893e+00 -1.349390e+00 8.462124e-01 2.211809e-01 2.331599e+00 0.000000e+00 
-5.253846e+00 2.410647e+00 4.009627e-01 2.093269e+00 1.921763e+00 1.602777e+00 2.818466e+00 5.190852e+00 4.254785e+00 2.468385e+00 -3.328326e-01 4.626713e+00 -1.512927e-01 -4.874231e-01 -1.070756e+00 -2.993045e-01 3.334775e-01 -4.199404e-01 1.046559e+00 8.973597e-01 -1.421955e+00 -4.990690e-01 1.095651e+00 4.683505e-01 1.088138e+00 0.000000e+00 
-5.344161e+00 2.860790e+00 6.898924e-01 5.915665e+00 2.502314e-01 5.107600e+00 -3.399824e+00 -3.215013e-01 2.680984e+00 7.531484e+00 1.077533e+00 3.460833e+00 -1.512927e-01 -3.819820e-01 -5.275252e-01 -2.842321e-01 -3.611872e-01 -5.585338e-01 1.572130e+00 4.582294e-01 -5.468369e-01 -1.020683e-01 -1.481177e-01 1.364463e+00 4.104659e-01 0.000000e+00 
-5.906674e+00 5.985615e-01 -1.360672e+00 1.070959e+00 -1.297603e+00 7.767800e+00 6.743846e+00 1.829366e+00 7.719489e+00 6.247129e+00 1.608198e+00 -2.173533e+00 -1.512927e-01 -1.593363e-01 -1.339686e-01 -3.320979e-01 -1.175994e+00 -8.018675e-01 7.813207e-01 5.646330e-01 6.876730e-01 3.354185e-01 -8.252935e-01 1.056845e+00 -1.327354e+00 0.000000e+00 
-5.677922e+00 3.190241e+00 -2.198118e-01 2.794883e-01 -5.648435e-01 8.170673e+00 6.998804e-01 4.798818e+00 5.460857e+00 3.931155e-01 5.721940e+00 1.529915e+00 -1.512927e-01 -1.108610e-01 -3.234033e-01 -4.190520e-01 -1.151376e+00 -4.996752e-01 -6.756347e-01 1.451167e+00 1.252437e+00 9.351448e-01 -1.106405e+00 1.996152e-01 -5.066553e-01 0.000000e+00 
-5.883647e+00 1.576079e+00 -8.046744e-01 -9.686120e-01 -1.680037e+00 3.977844e+00 3.591779e+00 6.069057e+00 4.541941e+00 1.911102e+00 2.629190e+00 -1.044600e+00 -1.512927e-01 -1.884398e-01 -6.786061e-03 6.046611e-02 2.038954e-01 2.367944e-01 -1.795783e+00 -9.413574e-01 -2.579699e-02 3.041762e-01 -3.412902e-01 -5.221471e-01 8.366777e-01 0.000000e+00 
-5.909980e+00 7.550149e-01 -1.683367e+00 1.178572e+00 -2.056928e+00 3.624405e+00 5.432044e+00 3.820837e+00 8.945481e+00 4.167476e+00 1.565113e+00 3.630899e-01 -1.512927e-01 -1.654129e-01 -7.153302e-01 2.246276e-01 1.066148e-02 1.219604e-01 -1.425089e+00 -1.001556e+00 -1.188769e+00 -3.216248e-01 1.882866e-01 -1.035743e+00 2.606110e-01 0.000000e+00 
-6.732844e+00 1.782244e+00 -3.265642e-01 1.640894e+00 6.324109e-01 1.062020e+00 -3.290235e-01 2.189372e+00 7.498057e+00 2.653499e+00 1.075876e+00 2.593267e+00 -1.512927e-01 -1.449347e-01 -3.722634e-02 2.191714e-01 -4.643634e-01 7.618216e-01 2.940001e-01 -7.249537e-01 -7.660475e-01 -8.021774e-01 -1.059501e+00 -1.246223e+00 8.235186e-01 0.000000e+00 
-6.080388e+00 -4.894929e-01 6.642710e-01 -9.719574e-01 -1.111266e+00 2.503139e+00 -2.347500e+00 7.948170e-01 2.374675e+00 9.633501e-01 1.319879e+00 1.014036e+00 -1.512927e-01 1.076576e-01 1.353093e-01 -1.661608e-01 -3.238765e-01 5.640610e-01 1.818749e-01 -4.401892e-01 -6.857065e-01 -6.797301e-01 -1.120057e+00 -6.736876e-01 3.343890e-01 0.000000e+00 
-6.523116e+00 2.012201e+00 -8.826361e-01 -2.215165e+00 1.656240e+00 6.008477e+00 3.856783e+00 3.751830e+00 3.816457e+00 -1.784340e+00 -3.479309e+00 2.747520e+00 -1.512927e-01 1.404968e-01 -3.331905e-01 -1.033572e+00 3.265662e-01 3.380664e-01 -3.846325e-01 2.156503e-01 1.134003e+00 2.894092e-01 -1.924929e+00 -5.619887e-01 1.190099e+00 0.000000e+00 
-5.476556e+00 1.316583e+00 -2.236135e+00 1.487219e+00 2.514627e-01 2.060551e+00 1.138195e+00 -3.889247e-01 7.387631e+00 7.861106e-01 4.742683e-01 1.957909e+00 -1.512927e-01 -4.465275e-02 -6.378893e-01 -1.677744e+00 5.922141e-01 -1.416500e-01 -2.103404e+00 -1.513851e-01 1.565439e+00 4.297569e-01 -1.253868e+00 -5.969342e-01 -3.336499e-01 0.000000e+00 
-6.332276e+00 -7.867463e-01 -4.044220e+00 2.044137e+00 1.641379e+00 -6.398482e-01 -9.936196e-01 8.451256e+00 6.438625e+00 -6.882528e+00 -1.311261e+00 8.071828e+00 -1.512927e-01 -3.841148e-01 -8.043450e-01 -4.743720e-01 -1.779860e-01 -1.588440e+00 -3.237126e+00 -6.875902e-01 3.778364e-01 -1.365543e+00 -1.231215e-01 1.706634e-01 -1.528690e+00 0.000000e+00 
-6.399072e+00 -2.279466e+00 -6.143655e+00 -1.405380e-01 -1.812085e+00 -4.689718e+00 -6.792242e-01 6.272301e+00 3.212375e+00 -2.756893e+00 -2.748816e+00 -3.316367e+00 -1.512927e-01 -4.147905e-01 -2.577104e-01 2.880424e-01 -7.970206e-01 -1.123060e+00 -8.944744e-01 2.308540e-01 -5.533470e-01 -2.355346e+00 -1.125977e-01 -1.543588e-01 -1.526170e+00 0.000000e+00 
-7.982432e+00 -2.114989e-01 -1.300736e+00 -2.291216e+00 -5.254185e+00 -6.802020e+00 1.327541e+00 2.310399e+00 -9.236279e-01 -6.284455e-01 -1.014451e+00 -2.258792e+00 -1.512927e-01 -2.129383e-01 -2.524361e-01 1.238544e+00 -3.228899e-01 -2.326342e-01 -4.768772e-02 1.254048e+00 -1.718588e+00 -1.951563e+00 1.992470e+00 3.401467e-01 -8.689064e-01 0.000000e+00 
-6.725430e+00 -2.595924e-01 -2.167665e+00 -3.302073e-01 -1.916055e+00 6.692646e-01 1.131885e+00 -8.523101e-02 -7.079722e-01 -2.903919e+00 -4.459312e-01 -5.076329e-01 -1.512927e-01 -2.278180e+00 3.904291e-01 4.119430e+00 -1.752416e+00 3.477834e-01 -4.182046e-02 2.291482e+00 -3.177033e+00 -1.408329e+00 1.010105e+00 9.931592e-01 1.211428e+00 1.070268e-01 
-7.233788e+00 -3.058863e+00 1.605051e-01 5.245228e-01 5.301932e-01 -3.557778e+00 4.371066e+00 3.037081e+00 -1.359014e+00 3.153332e+00 -7.619700e-01 2.322928e+00 -1.512927e-01 -4.293202e+00 7.375843e-01 3.111748e+00 -3.754678e+00 1.151676e+00 7.516794e-02 2.612620e+00 -1.365041e+00 -1.292473e+00 5.901573e-01 4.639576e-01 1.904252e-01 2.148804e-01 
-1.816430e+01 1.096362e+00 1.372287e+01 -1.031049e+01 -2.965357e+00 -6.520941e+00 9.256425e+00 -9.976204e+00 -3.611577e+00 4.027431e-01 2.090740e+00 4.499128e-01 3.838415e-01 -5.119611e+00 1.363411e+00 9.994479e-01 -5.774775e+00 6.898988e-01 -1.216285e-01 2.041066e+00 -2.789627e-01 4.945535e-01 -1.278521e+00 -2.818288e-01 -7.186127e-01 2.584286e-01 
-2.372901e+01 2.798446e+00 6.312737e+00 -1.607447e+01 1.028846e+00 -2.831077e+00 1.032837e+01 4.306830e-01 -5.934193e+00 6.690099e-01 3.700161e-02 -1.785439e+00 6.555424e-01 -4.100887e+00 1.649039e+00 -1.848289e+00 -5.619365e+00 8.138388e-01 5.385737e-01 -7.635421e-01 -3.744427e-01 7.739744e-01 -3.078132e+00 9.233317e-01 -1.490107e+00 2.294534e-01 
-2.407587e+01 3.628807e+00 -2.465413e-01 -2.090459e+01 1.284113e+00 -3.022283e-01 8.358561e+00 -1.768456e-01 4.052384e+00 -8.054364e+00 -2.254561e+00 -2.046513e+00 7.374330e-01 -8.209255e-01 1.348984e+00 -3.333601e+00 -1.862280e+00 1.818674e+00 4.812156e-01 -2.320791e+00 8.155172e-01 1.371324e+00 -1.177191e+00 1.303042e+00 -6.452303e-01 1.056326e-01 
-2.478244e+01 3.920108e+00 -2.096231e+00 -2.227525e+01 2.474653e+00 -3.974266e+00 1.002288e+00 -3.734812e+00 -1.321123e+00 -8.008773e+00 6.027340e+00 -3.879394e+00 8.191786e-01 1.085603e+00 1.527602e+00 -7.623972e-01 7.345542e-01 2.088227e+00 -1.003780e+00 -2.651090e+00 -8.278912e-01 9.191604e-01 4.293450e-01 1.030717e+00 4.886811e-01 5.233151e-02 
-2.174221e+01 7.280449e+00 1.259347e+00 -1.652149e+01 5.405111e+00 -3.543268e+00 2.315513e+00 -3.815871e+00 9.385074e-01 -1.144318e+00 5.610783e+00 -1.729261e+00 8.301862e-01 7.130855e-01 1.236184e+00 4.369195e-01 2.217993e+00 1.868416e+00 -5.428583e-01 -1.155404e+00 -9.509249e-01 -9.476088e-01 2.056797e+00 1.049508e-01 8.438885e-01 4.077407e-02 
-1.946783e+01 8.610634e+00 1.747807e+00 -1.459324e+01 9.409479e+00 -6.229459e+00 9.444416e-02 -1.889261e+00 2.185474e-01 -6.392883e-01 1.257915e+00 4.993408e-01 8.708233e-01 -2.929142e-01 -1.331289e-01 -1.938994e-01 7.719507e-01 -3.816063e-01 -1.037367e-01 -4.421985e-01 1.460631e-02 5.097878e-02 9.955524e-01 -1.435364e+00 5.501192e-01 3.984028e-02 
-2.316775e+01 7.464465e+00 1.603723e-02 -1.365563e+01 7.158778e+00 -1.888923e+00 3.035460e+00 -5.854245e+00 -1.455495e+00 -1.455122e+00 6.549048e-01 -1.643799e-02 9.154810e-01 -1.055719e+00 -1.297975e+00 -2.142763e-02 -3.700618e-01 -1.314089e+00 2.883961e-01 -3.635142e-01 1.094586e+00 3.630729e-01 -5.027779e-01 -5.375309e-01 -8.668631e-01 4.445369e-02 
-2.553424e+01 3.162456e+00 -2.444073e+00 -1.984843e+01 -3.102120e-01 -5.320122e+00 -1.568678e+00 -2.642593e+00 1.307720e-01 -2.875608e+00 1.328461e+00 -1.985209e+00 9.757326e-01 -3.431435e-02 -2.636032e+00 4.200223e-01 1.878119e-02 -1.728954e+00 5.068267e-01 1.064669e-01 1.953298e+00 1.069165e+00 2.758337e-01 6.824337e-01 -1.566637e+00 7.424271e-03 
-2.398760e+01 3.514664e+00 3.248149e+00 -1.574421e+01 3.694512e+00 -2.555957e+00 1.329503e+00 2.033724e+00 2.797760e+00 -2.540047e+00 2.887856e+00 -4.821301e+00 1.000000e+00 3.635483e+00 -1.191747e+00 2.761615e+00 2.298919e+00 -1.649026e+00 -1.227144e+00 -1.541896e+00 1.717023e+00 3.705998e-01 1.357414e+00 2.695957e-01 -2.340108e+00 -6.751079e-02 
-1.922947e+01 -2.594625e+00 2.231863e+00 -1.345505e+01 2.496843e+00 -3.361809e+00 1.479757e+00 3.933245e+00 3.437745e+00 1.282342e+00 3.553608e+00 -4.931412e+00 8.656851e-01 9.100934e+00 -1.596379e+00 1.336679e+00 3.778397e+00 -1.228827e+00 -9.487816e-01 -2.470000e+00 -1.344751e+00 -1.748950e+00 2.218565e+00 6.453597e-01 -1.368230e+00 -1.074512e-01 
-8.142716e+00 4.384268e+00 1.148614e+01 -5.357721e+00 -2.489880e+00 -9.003800e+00 -6.198235e+00 -5.570495e-01 -1.255982e+00 3.252972e+00 8.903098e-01 -1.024388e+01 6.329508e-01 1.047813e+01 -3.094218e+00 -9.687284e-01 1.634310e+00 -2.321940e+00 -1.309066e+00 -2.676768e+00 -3.530060e+00 -2.898256e+00 3.547267e+00 -3.544299e-01 1.187478e+00 -6.712031e-02 
1.204799e+01 -5.254243e+00 1.203227e-01 -6.149687e+00 -3.362151e+00 -6.840108e+00 -1.015481e+01 -8.070962e+00 -6.587110e+00 5.320704e+00 5.554032e+00 -6.115069e+00 6.220014e-01 8.183030e+00 -3.248062e+00 -2.385320e+00 -1.456321e-01 -2.024149e+00 -8.455687e-01 -1.014656e+00 -3.431660e+00 -1.376963e+00 4.073068e+00 -1.473351e+00 2.584503e+00 1.439912e-02 
1.276433e+01 -1.062662e+01 -5.397229e-01 -1.122534e+01 -4.985692e+00 -7.362139e+00 -6.237052e+00 -9.614473e+00 -6.681094e+00 1.317711e+01 1.154941e-01 1.707917e+00 7.862403e-01 4.131348e+00 -4.238857e+00 -3.596675e+00 -1.609996e+00 -1.165742e+00 9.595923e-02 1.838709e+00 -2.004362e+00 1.220909e+00 3.917082e+00 -1.553294e+00 2.712332e+00 7.231826e-02 
1.123216e+01 -1.132949e+01 -3.681808e+00 -1.124940e+01 -6.375997e+00 -8.410483e+00 -3.574115e+00 -8.696341e+00 -7.345151e-01 1.668562e+01 -3.425738e+00 2.015207e+00 8.610359e-01 1.255782e-01 -2.006173e+00 -1.445930e+00 -8.092644e-01 -8.494463e-01 -1.646595e-01 2.845070e+00 -6.488115e-01 2.376638e+00 2.740965e+00 -1.594167e+00 1.102293e+00 6.071951e-02 
1.292194e+01 -1.377239e+01 -4.596169e+00 -1.085784e+01 -6.811667e+00 -7.738816e+00 -2.950382e-01 -1.026617e+01 1.922267e+00 1.715593e+01 -2.386276e+00 -7.473518e-01 8.750248e-01 1.877570e-01 -9.574925e-01 -1.004403e+00 1.425013e-01 -3.082601e-01 1.968734e-01 1.845828e+00 -2.476323e-01 1.243698e+00 6.108084e-01 -3.775809e-02 -3.418503e-01 2.016308e-02 
1.259707e+01 -1.371222e+01 -5.081107e+00 -1.037976e+01 -6.696394e+00 -7.475067e+00 1.099536e+00 -1.098917e+01 9.944023e-01 1.703612e+01 -1.165916e+00 6.240320e-01 8.812067e-01 7.194682e-01 -7.700413e-01 -2.336986e-01 1.932368e-01 -1.424508e-01 7.778254e-01 6.417090e-01 1.795756e-01 -1.062509e+00 -3.225140e-01 5.586875e-01 5.268221e-01 4.677892e-04 
1.302065e+01 -1.422272e+01 -4.862086e+00 -1.094765e+01 -6.366794e+00 -6.845480e+00 6.552612e-01 -9.706221e+00 -1.327063e+00 1.605590e+01 -1.203207e+00 6.942531e-01 8.769703e-01 7.833599e-01 -1.691360e-01 7.086601e-02 1.330342e-01 -2.281685e-01 4.563572e-01 4.534433e-02 2.991289e-01 -1.609105e+00 -9.575083e-01 5.560040e-01 1.294968e+00 -1.408905e-02 
1.478014e+01 -1.495454e+01 -4.717342e+00 -1.023831e+01 -7.310688e+00 -4.968024e+00 -8.407201e-01 -8.078438e+00 -4.422395e+00 1.562306e+01 -1.223835e+00 3.928515e+00 8.624021e-01 1.606406e+00 -1.175156e-02 2.210675e-01 5.857884e-01 -5.252950e-01 5.810531e-01 -5.267699e-02 1.176765e-01 -1.617882e+00 -1.538233e+00 -4.795683e-03 1.877059e+00 -4.586235e-02 
1.574720e+01 -1.399692e+01 -4.423722e+00 -1.026339e+01 -7.645363e+00 -6.710552e+00 9.018115e-01 -1.022589e+01 -3.414858e+00 1.307491e+01 4.227034e-01 4.075246e+00 8.139818e-01 1.818365e+00 1.136361e+00 -2.321478e-01 2.658427e+00 -7.331610e-02 1.714343e+00 -5.341408e-01 1.068365e-01 -9.632320e-01 -4.400310e+00 -3.844624e-01 2.128034e+00 -1.031819e-01 
1.926583e+01 -1.388388e+01 -4.194951e+00 -7.792945e+00 -8.683584e+00 -4.637265e+00 7.128759e-01 -1.014095e+01 -6.051111e+00 1.083544e+01 -2.002850e+00 8.318829e+00 6.833892e-01 5.965657e-01 2.813805e+00 -2.709050e-01 2.729469e+00 1.324728e+00 1.275072e+00 -2.809613e-01 6.120242e-01 -1.488834e+00 -5.359625e+00 5.526184e-01 6.800462e-01 -1.346356e-01 
1.986963e+01 -9.076240e+00 -6.284020e+00 1.121795e+00 -6.046926e+00 1.560858e+00 -2.792241e+00 -8.140779e+00 -5.328865e+00 -3.551839e+00 -2.736012e+00 9.139267e+00 4.505673e-01 -5.307080e-01 3.719859e+00 -1.131759e+00 2.191187e+00 1.474938e+00 1.487946e+00 -1.310426e+00 1.271412e+00 -1.025804e+00 -4.699184e+00 5.628912e-01 -1.306865e-01 -1.162820e-01 
1.570175e+01 -3.345848e+00 -5.141718e+00 -2.283563e+00 -1.486268e+00 -2.728369e+00 -3.985007e-01 -6.060872e+00 -1.090956e+01 -2.861689e+00 3.118614e+00 4.796736e+00 3.709313e-01 -8.478743e-01 2.268373e+00 -1.653419e+00 1.186633e+00 -1.241051e-01 2.028389e-01 -1.369940e+00 6.517616e-01 7.085387e-01 -2.077531e+00 1.544048e+00 -6.777719e-01 -3.058169e-02 
1.487570e+01 -6.666360e-01 -9.609132e+00 -2.062147e+00 -3.869331e+00 -2.252695e-01 -5.094631e+00 -5.908870e+00 -6.114652e+00 -3.572440e+00 6.764275e-01 5.182860e+00 3.888009e-01 2.548549e-01 -1.198048e+00 -1.148586e+00 3.037435e-01 -2.630424e+00 -1.095764e-01 -9.932283e-01 -2.521877e-01 2.078646e+00 2.615678e+00 9.707108e-01 -1.587799e+00 6.626353e-02 
1.752342e+01 -6.746816e+00 -1.079949e+01 -2.678101e-01 -1.039291e+01 -2.730007e+00 -4.985631e+00 -7.998100e+00 -2.115524e+00 4.580874e-01 4.011171e+00 6.908172e+00 5.613639e-01 1.309747e+00 -3.457608e+00 -4.067246e-01 1.644829e+00 -4.390575e+00 1.437564e+00 -9.661480e-01 -7.212838e-01 3.545750e+00 3.005970e+00 -5.063928e-01 -1.896133e+00 9.215131e-02 
2.023307e+01 -1.336600e+01 -9.198065e+00 1.632637e+00 -1.474572e+01 1.013794e+00 -5.464818e+00 -8.433104e+00 6.673479e-01 7.866664e+00 1.671263e+00 1.445523e-01 6.866686e-01 9.461425e-01 -3.183243e+00 1.011571e+00 2.136091e+00 -3.680785e+00 1.522438e+00 4.743056e-01 -5.986491e-01 2.398757e+00 2.848586e+00 -1.345519e+00 -2.995028e+00 6.121329e-02 
1.957180e+01 -1.428421e+01 -7.380875e+00 4.093192e+00 -1.800095e+01 3.839921e+00 -5.044147e+00 -8.405174e+00 3.428186e+00 6.448608e+00 8.923256e-02 -2.164776e+00 6.827540e-01 -2.076181e-01 -5.394896e-01 2.106404e+00 2.030375e+00 -1.355651e-01 1.047408e+00 1.214229e+00 7.194916e-01 -5.766740e-02 3.202205e-01 -1.978911e+00 -3.681498e+00 -2.169534e-02 
1.858223e+01 -1.281415e+01 -6.260585e+00 6.437806e+00 -1.846924e+01 4.101958e+00 -2.693845e+00 -8.698579e+00 3.107275e+00 7.675229e+00 -4.090196e+00 -5.255803e+00 6.341723e-01 -1.468401e+00 2.950022e+00 2.451530e+00 2.282815e+00 3.307972e+00 -1.168686e+00 5.028525e-01 3.645046e+00 -3.289938e+00 -4.906107e+00 -2.180421e-02 -1.291558e+00 -7.444755e-02 
1.731076e+01 -9.720186e+00 -1.736208e+00 7.481483e+00 -9.208977e+00 9.629507e-01 -2.999739e-01 -4.267905e+00 -3.623825e+00 2.154907e+00 -3.002656e+00 -8.799139e+00 4.791354e-01 -1.948125e+00 4.208701e+00 2.197268e+00 2.320649e+00 5.365527e+00 -2.331743e+00 -9.475945e-01 4.870843e+00 -4.167743e+00 -7.033593e+00 1.052787e+00 1.464818e-01 -7.464921e-02 
1.402159e+01 -8.978956e-01 2.372535e-01 1.135257e+01 -2.601850e+00 -3.391151e+00 -5.322642e+00 7.723488e+00 -1.225634e+01 -1.451702e+01 3.108186e+00 -2.996058e+00 4.162402e-01 -1.617903e+00 3.514918e+00 1.691153e+00 1.667389e+00 5.743596e+00 -1.887707e+00 -2.135339e+00 4.649004e+00 -2.930531e+00 -7.060762e+00 1.560208e+00 9.394474e-01 -5.638791e-02 
1.211150e+01 8.011675e-01 3.565441e-01 1.323906e+01 8.929974e-01 -4.072242e+00 -8.467721e+00 7.738005e+00 -9.728721e+00 -1.762323e+01 1.753978e+00 -2.562239e+00 4.184740e-01 -6.974034e-01 2.568109e+00 8.556814e-02 1.018041e+00 4.191144e+00 -1.045280e+00 -1.772957e+00 3.540060e+00 -1.300767e+00 -3.403162e+00 4.467814e-01 6.490482e-01 -3.661358e-02 
1.309234e+01 -5.002403e-01 1.148802e+00 1.189596e+01 5.197752e+00 -2.818981e+00 -9.286663e+00 8.543486e+00 -8.492929e+00 -1.773951e+01 1.332529e+00 -3.677016e+00 3.825635e-01 1.756325e-01 1.255389e+00 -2.479603e-01 3.539135e-01 3.103092e+00 -4.990876e-01 1.197325e+00 6.259823e-01 2.416203e-01 1.008460e+00 -1.269227e+00 -3.199270e-01 -4.917321e-02 
1.428836e+01 2.921530e+00 -1.764141e+00 1.229999e+01 7.846941e+00 -4.549534e+00 -7.182748e+00 1.302239e+01 -1.200936e+01 -1.324966e+01 1.190801e-01 -5.213418e+00 3.129058e-01 -6.610817e-01 8.980932e-01 7.283962e-01 1.266840e+00 2.372046e+00 3.766632e-01 2.990540e+00 5.167805e-01 2.120661e-01 2.023307e+00 -3.277490e-01 -3.854343e-01 -8.109485e-02 
1.381132e+01 4.318867e+00 5.779469e-02 1.359167e+01 9.436641e+00 -5.647943e+00 2.149677e-02 8.211205e+00 -9.907915e+00 -1.166151e+01 -2.420499e+00 -3.270103e+00 2.231582e-01 -1.929561e+00 4.019978e-01 6.666347e-01 9.966885e-01 1.451974e+00 1.449048e+00 3.615721e+00 -3.125285e-01 2.350142e+00 1.612081e+00 9.833932e-03 5.727597e-01 -1.104867e-01 
8.446598e+00 2.882080e+00 4.544029e+00 1.872541e+01 1.063378e+01 -7.744451e-01 1.830897e+00 1.048805e+01 -7.960897e+00 -1.054570e+01 1.991747e+00 -4.692867e+00 9.270239e-02 -2.630976e+00 -1.089664e+00 4.094714e-01 -6.833534e-02 -3.570345e-01 1.417561e+00 1.443767e+00 -1.139854e+00 4.051301e+00 1.566887e+00 -8.411656e-02 4.258419e-01 -1.125533e-01 
6.365421e+00 1.529474e+00 1.327890e+00 1.366670e+01 1.106420e+01 2.538714e+00 4.285120e+00 8.248016e+00 1.233546e+00 -1.103109e+01 4.453652e-01 -1.073494e+00 -5.976856e-02 -2.767219e+00 -1.375782e+00 -1.992536e-01 -8.909422e-01 -2.041551e+00 5.242831e-02 -1.612343e+00 -1.202883e+00 2.723099e+00 1.194994e+00 -4.196954e-01 9.131004e-01 -9.500016e-02 
4.856436e+00 -1.132091e+00 -3.518319e-01 1.192080e+01 5.247987e+00 -1.555060e+00 -2.095723e+00 7.304718e+00 2.676409e+00 -5.730435e+00 -1.734435e+00 -4.182514e+00 -1.083974e-01 -2.209188e+00 -8.366930e-01 -6.128510e-01 -1.506044e+00 -2.684639e+00 -1.737727e+00 -2.014835e+00 -2.651736e+00 5.337307e-01 9.679491e-01 -1.285439e+00 6.366094e-01 -5.795143e-02 
1.770306e+00 -5.529569e-01 1.509457e+00 1.253926e+01 1.921783e+00 -4.995494e+00 -6.076907e+00 3.788455e+00 -1.611073e+00 -8.094169e+00 -2.655885e+00 1.040222e+00 -1.512927e-01 -1.407688e+00 3.557836e-01 7.552003e-01 -7.224739e-01 -2.393746e+00 -8.326172e-01 -4.487429e-01 -9.602692e-01 -8.091979e-01 7.644687e-01 2.628680e-01 1.192024e+00 -2.259436e-02 
-3.017836e-01 -2.601698e-01 1.388991e+00 1.175890e+01 1.781801e+00 -5.695974e+00 -3.062264e+00 -5.408525e-01 -3.869934e+00 -7.174411e+00 -2.884826e+00 -2.566678e+00 -1.512927e-01 -1.617138e-01 2.148376e+00 1.862007e+00 -6.181362e-01 -4.688646e-01 2.990647e-01 9.919362e-02 -9.478970e-01 1.926064e-01 6.938249e-01 -9.014130e-03 1.468523e+00 -8.579063e-03 
1.906089e+00 2.872431e+00 4.233481e+00 1.013528e+01 8.285657e-01 4.460851e-01 2.524676e+00 7.369457e+00 4.607285e-01 -6.486757e+00 2.334901e+00 4.078708e+00 -1.512927e-01 5.761772e-01 2.377147e+00 1.806570e+00 -3.044866e-01 1.267906e+00 1.087666e+00 1.010946e+00 -3.428633e-01 1.456844e+00 1.379874e+00 1.709264e-01 9.789811e-01 0.000000e+00 
3.979976e+00 7.897097e+00 7.596193e+00 1.003211e+01 3.450273e+00 -2.780526e+00 -5.900546e+00 7.747333e-01 2.603541e+00 -3.065017e+00 -4.274899e+00 1.640858e+00 -1.512927e-01 8.600410e-01 2.341829e+00 1.132433e+00 -6.272828e-01 9.617590e-01 1.184008e+00 3.274274e-01 -7.928723e-01 7.760906e-01 1.292287e+00 -2.972813e-01 4.769335e-01 0.000000e+00 
2.510312e+00 7.254145e+00 7.438709e+00 1.188022e+01 7.427076e+00 -1.014886e+00 3.969614e-01 1.416346e+00 2.436411e+00 -3.249498e+00 -1.106217e+00 3.831360e+00 -1.512927e-01 -5.412741e-02 1.222753e+00 -1.551240e-01 -1.123536e+00 6.725209e-01 7.197459e-01 -1.840083e-01 -1.880584e+00 -7.277588e-01 9.127538e-01 -4.691851e-01 -1.308302e+00 0.000000e+00 
3.696310e+00 9.258118e+00 5.448544e+00 7.750017e+00 3.291340e+00 9.545544e-01 -3.612695e-01 -1.528658e+00 -9.773228e-01 -2.331604e+00 -2.650674e+00 -5.833663e-02 -1.512927e-01 -9.363164e-01 -3.748350e-02 -1.333672e+00 -1.640796e+00 -5.125256e-02 1.904478e+00 3.138520e-01 -1.368639e+00 -1.348491e+00 3.027249e-01 9.929261e-01 -1.429879e+00 0.000000e+00 
1.777285e+00 8.305687e+00 4.531685e+00 5.658647e+00 4.270636e+00 2.177274e+00 -1.165004e+00 -8.817662e-01 -1.387634e+00 -2.289695e+00 -8.231373e-01 -1.613206e+00 -1.512927e-01 -7.782793e-01 -4.197339e-01 -1.094712e+00 -1.707035e+00 -6.372201e-01 1.233990e+00 -8.413001e-01 -7.865179e-01 -3.944797e-02 1.006196e+00 1.236019e-02 -9.219553e-01 0.000000e+00 
-3.350925e-01 7.183909e+00 2.381342e+00 4.938917e+00 4.772230e+00 5.145785e+00 -3.550303e+00 -4.919408e+00 -2.226893e+00 -2.031294e+00 5.481929e-01 -2.786254e+00 -1.512927e-01 -1.122612e+00 -1.154196e+00 -8.835718e-01 -1.144868e+00 -1.216424e-01 5.447675e-01 7.689194e-02 1.346273e+00 2.090232e+00 1.474569e-01 -7.675474e-01 3.482835e-02 0.000000e+00 
6.346169e-01 6.192580e+00 3.498750e+00 4.750598e+00 3.500531e+00 3.059448e+00 -2.215022e+00 -8.208691e-01 2.863956e+00 1.631325e+00 -2.643849e+00 5.855419e-01 -1.512927e-01 -9.633383e-01 -7.448344e-01 1.128788e-02 -2.356550e-01 6.948175e-01 3.081602e-01 1.208407e-01 7.271770e-01 8.609026e-01 -7.560654e-01 -1.482977e+00 7.002057e-01 0.000000e+00 
-1.345417e+00 4.543690e+00 1.547152e+00 2.479700e+00 3.068181e+00 3.237305e+00 5.481994e-01 5.172259e+00 7.348044e+00 -3.554829e+00 -5.578054e+00 -9.835690e-01 -1.512927e-01 -5.012401e-01 -2.292989e-01 -2.785592e-02 5.307338e-01 7.259776e-01 4.900170e-03 3.816746e-01 8.250019e-01 3.875629e-01 -6.119119e-01 -9.658592e-01 4.130510e-01 0.000000e+00 
-2.534245e+00 5.901624e+00 5.005220e+00 5.709980e+00 8.596748e+00 4.672316e+00 -2.610052e+00 -2.291714e+00 -1.870589e+00 -5.308254e+00 -5.174897e+00 9.864799e-01 -1.512927e-01 -2.012785e-01 3.369068e-01 7.163723e-02 5.417453e-01 5.525275e-01 9.773240e-01 8.161707e-01 -1.059160e+00 -1.136101e+00 -2.185705e-01 4.679008e-01 -4.577314e-01 0.000000e+00 
-1.256863e+00 6.182892e+00 1.488828e+00 7.112895e+00 5.854009e+00 4.363852e+00 -1.444416e+00 -5.897534e-02 2.078195e+00 -1.621063e+00 -3.015579e+00 -9.214677e-01 -1.512927e-01 3.936246e-01 6.146395e-01 3.198810e-01 3.945192e-01 -6.597345e-01 1.224347e+00 1.573920e+00 -4.987227e-01 -1.381594e+00 8.157449e-01 1.330009e+00 -7.194454e-01 0.000000e+00 
-4.160528e-01 7.057513e+00 3.886098e+00 5.142727e+00 4.870255e+00 7.382795e+00 2.862138e+00 -3.501053e+00 -1.816250e-01 -4.284106e-01 -1.585583e+00 -1.734166e+00 -1.512927e-01 4.753462e-01 2.773433e-01 -2.923218e-01 -4.731770e-01 -1.353992e+00 -3.012163e-01 1.933162e+00 1.642138e+00 7.332757e-01 1.426238e+00 8.758826e-01 -3.771223e-01 0.000000e+00 
-4.363899e-01 7.038943e+00 3.706118e+00 4.735923e+00 1.632755e+00 8.003800e+00 5.681707e+00 3.283315e+00 -4.044056e-01 -1.916027e+00 -7.226645e-01 -3.220473e+00 -1.512927e-01 -3.460785e-01 -1.127419e-01 3.446465e-01 -6.711107e-01 -8.900005e-01 -3.057458e-01 1.261717e+00 1.471322e+00 5.852872e-01 9.352962e-01 9.567726e-01 1.307208e+00 0.000000e+00 
-5.677500e-01 6.860315e+00 2.434966e+00 4.532581e+00 3.937416e+00 1.346260e+00 3.492699e+00 4.247830e+00 3.037090e+00 1.970416e+00 -1.941942e+00 2.503711e-01 -1.512927e-01 -7.693008e-01 -4.153751e-01 -5.067382e-01 -1.333365e+00 -7.487931e-01 -4.266326e-01 -5.479912e-01 2.235148e+00 1.273032e+00 -3.865153e-01 -4.534240e-02 1.388326e+00 0.000000e+00 
-2.911407e+00 5.717782e+00 3.937626e+00 4.062414e+00 1.870427e+00 5.853391e+00 4.548892e+00 3.423193e+00 3.395274e+00 1.856004e+00 1.946463e+00 4.622302e+00 -1.512927e-01 -9.678686e-01 -6.778829e-01 -9.393265e-01 -1.179033e+00 4.050042e-02 7.116189e-01 2.222282e-01 9.804856e-01 8.806321e-01 -3.678867e-01 6.380188e-01 1.566125e+00 0.000000e+00 
-3.025048e+00 5.641218e+00 1.236653e+00 -1.187343e+00 1.007453e+00 6.324837e+00 6.885900e-01 7.604748e+00 4.283696e+00 -4.247003e+00 -3.146859e+00 1.286076e+00 -1.512927e-01 -6.529366e-01 -1.039751e+00 -6.115491e-01 -8.528982e-01 -6.140863e-01 1.697737e+00 8.619865e-01 2.838467e-01 6.128513e-01 2.263429e-01 1.494976e+00 5.136855e-01 0.000000e+00 
-4.047084e+00 4.259077e+00 -3.913584e-01 1.700720e+00 3.300239e+00 9.072606e+00 8.194902e+00 6.507284e+00 3.375452e+00 -6.467509e-01 3.069888e+00 4.092301e+00 -1.512927e-01 -3.774241e-01 -1.070690e+00 -9.297434e-01 -7.270789e-01 -4.744705e-01 2.959433e-01 -1.223819e-01 -5.651745e-01 1.085593e-01 9.471299e-01 4.200401e-02 -3.846007e-01 0.000000e+00 
-3.264594e+00 2.390912e+00 1.541713e+00 1.448937e+00 1.520783e-01 8.225336e+00 5.979626e+00 4.125018e+00 6.111258e+00 4.353508e+00 4.971228e+00 3.083799e+00 -1.512927e-01 -3.247122e-01 -6.621034e-01 -6.259356e-02 6.068600e-01 -1.234232e-01 -1.427874e-01 -6.203209e-01 -1.845442e+00 -2.189367e-01 1.271020e+00 4.792257e-01 9.667647e-02 0.000000e+00 
-4.678754e+00 1.989483e+00 -8.636209e-01 -8.911202e-01 -7.423854e-02 6.382858e+00 1.291465e+00 2.337186e+00 3.024290e+00 2.291398e+00 -1.902560e+00 1.800437e+00 -1.512927e-01 -6.010872e-01 -4.402416e-01 3.630293e-01 4.919353e-01 3.917635e-01 1.281447e-01 -1.107279e+00 -1.369905e+00 -1.597434e-01 2.676909e-01 -1.128245e+00 -1.094480e+00 0.000000e+00 
-4.332774e+00 3.465497e+00 1.159816e+00 3.142878e+00 2.077576e+00 6.955775e+00 1.038704e+00 4.625868e-01 3.364593e+00 6.390216e-01 1.735494e+00 2.915390e+00 -1.512927e-01 -6.835384e-01 1.799854e-01 3.785133e-01 8.027409e-01 7.888479e-01 1.005730e+00 -4.991441e-01 -1.815865e-01 -9.711655e-01 -7.572427e-01 -8.783768e-01 -2.852968e-01 0.000000e+00 
-6.518430e+00 1.520576e+00 1.614736e+00 3.313426e+00 4.296308e+00 1.034811e+01 5.128967e+00 1.488977e+00 3.950067e+00 2.548947e+00 -9.534720e-01 -1.295895e+00 -1.512927e-01 -3.597063e-01 3.131413e-01 7.152728e-01 8.720468e-01 3.804035e-01 1.409259e+00 1.073828e-01 5.786611e-01 -7.035548e-01 -3.906258e-01 2.384024e-01 3.100180e-01 0.000000e+00 
-5.762448e+00 3.525292e+00 2.195101e+00 3.360368e+00 1.911044e+00 1.127136e+01 1.565154e+00 3.641190e+00 7.925413e-01 4.385200e-01 1.047993e-01 3.205481e+00 -1.512927e-01 -2.103367e-01 2.124306e-01 2.650934e-01 4.819231e-02 -2.718326e-01 9.554420e-01 -2.510913e-01 8.509420e-01 -8.301630e-01 -2.511430e-01 -2.203119e-01 5.081559e-01 0.000000e+00 
