-6.568941e+00 1.797014e+00 3.102955e+00 5.141565e+00 1.044771e+00 -7.108341e+00 1.601102e+00 -2.847258e+00 -1.693972e+00 -2.998300e+00 5.708399e+00 5.623420e+00 3.778315e-02 4.378490e-01 -5.467928e-01 1.466303e-01 9.486877e-01 1.194898e+00 5.563310e-01 -8.315996e-01 -1.071049e+00 -5.885105e-01 -1.790911e-01 -1.228345e+00 1.299055e-01 -1.672770e-02 
-4.876459e+00 9.286225e-01 5.494672e+00 1.049065e+01 6.541680e+00 -2.947766e+00 2.497041e+00 -2.395549e+00 -1.398597e+00 -4.137216e+00 -2.313895e+00 1.052335e+00 -1.549208e-02 4.469090e-02 -1.352098e+00 1.329654e+00 -1.348915e-01 -3.062190e-01 9.674081e-01 -4.546272e-01 -1.674571e-01 -7.364851e-01 1.030184e+00 -8.061954e-01 -8.889373e-01 1.865125e-03 
-5.225937e+00 -5.027537e-01 2.640248e+00 7.210463e+00 4.270806e+00 -6.406974e+00 -3.004865e+00 -8.428357e+00 -4.784211e+00 -3.324298e+00 3.577821e+00 8.558491e+00 -1.921773e-02 -2.527296e-01 -1.284526e+00 1.464450e+00 -6.411779e-01 -1.248567e+00 1.852617e+00 1.161590e+00 1.072661e+00 2.051015e-01 1.859409e+00 6.498669e-01 -2.043409e+00 1.513855e-02 
-7.016989e+00 -3.813590e+00 9.982580e+00 3.432659e+00 -2.099342e+00 -2.621985e+00 1.630950e+00 -8.939939e-01 -3.831277e+00 2.315619e+00 2.742712e+00 -2.888012e-01 7.560921e-02 -5.173032e-01 -1.008955e+00 1.151617e+00 -1.622586e+00 -2.592586e+00 1.297646e+00 1.145124e+00 9.338424e-01 8.872356e-01 1.647505e+00 1.441246e+00 -2.285420e+00 2.030646e-02 
-6.762324e+00 -2.254506e+00 8.181249e+00 5.464670e+00 -8.775508e-01 1.991852e+00 7.842099e+00 1.765269e+00 5.478759e-01 3.072325e+00 6.429430e+00 -3.923054e+00 6.792527e-02 7.008848e-02 3.295631e-01 5.823466e-01 -9.524211e-01 -1.934016e+00 2.474782e-01 6.241318e-01 1.073404e+00 1.386647e+00 6.626520e-01 4.089671e-01 -5.142835e-01 -3.805214e-03 
-6.694781e+00 -3.240277e+00 8.482258e+00 3.250612e+00 -3.847072e+00 -6.589501e-01 2.799180e+00 -2.823150e+00 3.715372e-01 9.019980e-01 3.466529e+00 -4.133994e+00 4.246873e-02 5.472440e-01 1.036132e+00 -1.795084e+00 -3.430790e-01 2.846949e-01 -1.020071e+00 -9.344710e-01 -1.132160e+00 6.018615e-01 -5.307806e-01 -6.895130e-01 2.279461e+00 -2.994179e-02 
-5.036598e+00 8.584054e-01 6.302142e+00 2.539380e+00 -4.525411e+00 -6.151101e+00 -4.683213e-01 -2.096758e+00 4.761553e-02 6.957729e-01 5.260747e+00 7.909669e+00 -2.167356e-02 7.199709e-01 7.872185e-01 -1.648558e+00 2.061429e-01 4.651139e-01 -2.030416e+00 -2.312217e+00 -1.473455e+00 2.791749e-01 3.039396e-01 -6.279232e-01 2.562497e+00 -2.468633e-02 
-5.143632e+00 -1.893880e-01 1.946715e+00 3.179909e+00 1.148062e+00 -3.650865e+00 1.113805e+00 -4.623781e+00 -5.718398e-01 8.499928e-01 -1.205120e-01 5.192142e+00 -2.930033e-02 3.225078e-01 3.446959e-01 -1.650724e+00 4.476791e-01 6.491968e-01 -1.008630e+00 -1.151978e+00 -4.648647e-01 1.242192e-01 -3.615407e-01 -4.508922e-02 1.132616e+00 -1.201887e-02 
-3.938045e+00 1.561413e-01 3.206228e+00 6.530737e+00 -1.049549e+00 -6.664271e+00 -2.876299e+00 -4.701689e+00 2.415439e+00 4.618026e+00 5.083334e+00 4.226361e+00 -1.962185e-02 -1.651685e-01 -4.227087e-01 -9.884237e-01 9.171598e-02 8.516378e-01 4.486119e-01 -5.240241e-01 -5.824463e-01 -4.101929e-01 3.700203e-01 1.248055e-01 -1.360531e+00 6.020498e-03 
-5.631519e+00 -1.165666e+00 1.776595e+00 3.493330e+00 -2.339019e+00 -5.445514e+00 -1.756722e+00 -3.845008e+00 -1.912785e-01 -2.866832e+00 3.329789e+00 3.370738e+00 -1.865149e-02 -1.232567e-02 3.118908e-01 -4.499872e-02 -3.949351e-01 -2.213873e-01 1.590463e-01 2.841735e-01 3.785709e-01 -4.844340e-01 -9.693283e-01 -5.049404e-01 -5.233706e-01 7.166821e-03 
-5.618497e+00 -7.669990e-01 1.445083e+00 2.841250e+00 1.476319e+00 -3.010717e+00 -1.653178e+00 -5.398376e+00 -2.193630e+00 4.404287e+00 4.159624e+00 2.017715e+00 3.104508e-03 -5.324804e-01 -6.866665e-02 -4.852343e-01 -7.938409e-01 -4.266996e-02 5.217241e-01 1.274901e+00 6.099657e-01 3.022214e-02 -7.594531e-01 -6.571894e-01 1.306829e+00 6.017685e-04 
-4.365034e+00 1.831636e+00 2.602293e+00 3.049977e+00 -1.221808e+00 -4.682411e+00 1.923112e+00 -2.382583e+00 -6.894758e-01 -3.889779e+00 -2.183359e+00 3.679611e+00 -4.829407e-03 -3.776701e-01 2.309885e-01 7.429154e-02 3.928218e-01 2.689916e-01 2.127849e+00 2.194854e+00 1.206389e+00 1.088306e+00 4.808142e-01 2.950719e-01 5.150235e-01 -2.420884e-03 
-7.233689e+00 -1.685843e+00 3.672066e-01 2.783209e+00 -1.821504e+00 -4.437201e+00 1.658288e+00 -2.383073e+00 2.815648e+00 1.332234e+00 4.553961e+00 1.060607e+01 -2.352405e-02 -4.909121e-01 6.443093e-01 5.400315e-01 1.442709e+00 5.239689e-02 1.101891e+00 1.183822e+00 1.710143e+00 1.676317e+00 -9.350317e-01 -1.119597e-01 -1.654702e+00 -3.985524e-03 
-6.712274e+00 4.486988e-01 2.686990e+00 5.486459e+00 6.548505e-01 5.906974e+00 7.561816e+00 6.792840e-01 2.745615e+00 1.073265e+00 4.607980e+00 1.651678e+00 -1.744163e-02 -7.148836e-01 4.010819e-01 3.698298e-01 1.008069e+00 2.978977e-01 4.122505e-01 -1.450323e-01 1.065641e+00 1.172894e+00 1.105610e+00 6.567755e-01 -2.006320e+00 5.476832e-04 
-6.899438e+00 3.146016e+00 4.102892e+00 8.836553e+00 7.999743e-01 -2.795955e+00 1.446579e+00 1.621408e+00 4.470408e+00 -2.752393e+00 2.041562e-01 -5.241826e+00 -1.051700e-02 -5.530134e-01 -2.930102e-01 4.195779e-01 1.658079e-01 1.695833e-01 4.307321e-01 -2.207143e-01 1.764533e+00 9.808491e-01 1.835412e-01 -6.135731e-01 -1.415301e+00 8.538842e-04 
-8.106578e+00 1.421116e+00 2.583600e+00 5.063651e+00 -1.043059e+00 -3.441782e+00 1.303805e+00 9.433830e-01 4.347617e+00 3.680582e+00 3.275421e+00 1.571957e+00 -8.594513e-03 -1.129994e+00 -1.702861e+00 2.303336e-01 -9.261290e-01 1.806874e-01 -1.453572e-01 -5.217505e-01 1.230461e+00 1.468768e+00 4.344890e-01 -4.123201e-01 7.125089e-01 4.361236e-03 
-9.301604e+00 -3.637102e+00 2.516791e+00 3.823652e+00 -1.246328e-01 2.390837e+00 3.683722e+00 6.307541e+00 6.918892e+00 9.462817e-01 2.152375e+00 3.569423e+00 -2.367818e-02 -9.508173e-01 -1.699255e+00 1.089689e+00 -1.358691e+00 8.395239e-01 1.705747e+00 1.203192e+00 1.297036e+00 1.058822e+00 6.208040e-01 6.164541e-01 1.531192e+00 9.367806e-03 
-1.116116e+01 -4.674048e+00 4.631709e+00 3.362265e+00 2.020591e+00 2.586792e+00 3.834492e+00 4.488520e+00 8.865211e+00 1.396372e+00 1.572270e+00 8.085971e-01 1.094514e-02 -3.151129e-01 -4.008318e-01 3.246741e-01 -2.978101e-01 1.500449e+00 8.086012e-01 1.589459e+00 4.614991e-01 1.041707e-01 -1.307917e+00 4.486775e-03 -2.503622e-01 9.412801e-03 
-1.012623e+01 -2.302677e+00 8.527285e+00 2.893791e+00 3.465769e+00 2.718492e+00 6.197196e+00 6.334021e+00 7.505722e+00 1.493731e+00 4.138002e+00 2.795814e+00 2.655220e-02 4.337687e-01 4.312243e-01 -6.168232e-01 2.056745e-02 7.003030e-01 -7.040980e-01 1.145591e+00 -6.124843e-01 -5.893892e-01 -6.480795e-01 4.965464e-01 6.994392e-02 -1.644045e-03 
-9.269828e+00 -1.250256e+00 1.201723e+00 4.039531e+00 4.663987e+00 4.373968e-01 7.994362e+00 3.237638e+00 4.575056e+00 -3.132729e+00 2.305042e+00 7.069509e-01 1.335430e-02 -1.633048e+00 1.507698e+00 -1.513160e+00 1.269604e+00 -2.029390e+00 -1.143694e+00 -1.166727e+00 -2.356204e-01 -7.271262e-01 -7.637632e-02 9.571806e-02 1.156249e+00 1.247978e-01 
-8.078427e+00 -3.192877e+00 1.147668e+00 3.587856e+00 2.055184e+00 -5.495524e-02 7.331740e+00 3.870560e+00 6.117024e+00 -2.956510e-02 4.268722e+00 3.969966e+00 -3.310299e-02 -2.824448e+00 1.914205e+00 -1.346516e+00 2.306242e+00 -2.728667e+00 -3.321683e-01 -2.262092e+00 2.367845e-01 1.111106e-01 5.906867e-01 -5.769547e-01 1.248766e+00 1.815116e-01 
-2.035030e+01 3.309542e+00 7.557173e-01 9.363251e+00 -7.421068e+00 -1.744952e+00 -2.566414e+00 4.542149e+00 5.923929e+00 1.776139e+00 1.985501e+00 6.002765e+00 6.647617e-01 -5.526505e-01 1.021883e+00 1.121086e+00 1.039017e+00 -1.685297e+00 5.685562e-01 -2.089946e+00 -1.155260e+00 -1.688848e+00 -1.770937e-01 -1.867722e+00 -1.692371e-01 6.522484e-02 
-1.870824e+01 4.988451e+00 2.017705e+00 1.176314e+01 -4.135036e+00 2.148824e+00 1.671236e-01 6.865689e+00 7.386837e+00 1.992731e+00 1.412999e+00 6.391735e+00 6.084063e-01 6.254500e-01 1.657135e+00 -8.336162e-03 1.177080e+00 -2.601101e-01 -1.448495e+00 1.254162e+00 -2.164313e+00 -2.770936e-01 -2.845237e+00 -2.695220e+00 -1.640186e+00 1.751391e-02 
-6.718176e+00 -2.315044e-01 6.372137e+00 5.146975e+00 -6.673863e-01 2.178288e+00 1.126941e+00 -4.036228e+00 -4.504090e+00 -5.029346e+00 -5.605708e+00 -1.350119e+00 1.872385e-02 2.556143e+00 8.399606e-01 -9.400225e-01 3.779690e-01 1.650365e+00 -3.028883e+00 4.001883e+00 -3.546783e+00 5.225487e-01 -4.384674e+00 -2.490523e+00 -1.968299e+00 -7.911010e-02 
-1.176724e+01 6.863323e+00 -1.702223e+00 1.158140e+01 -2.622207e+00 -9.259050e+00 1.175587e+01 -2.661818e+00 9.945566e+00 -1.085301e+01 -5.411775e+00 -5.545223e-01 3.774855e-01 2.318776e+00 8.429239e-01 1.484480e-02 -6.914903e-01 1.776588e+00 -2.933482e+00 8.504818e-01 -2.402294e+00 -1.636625e-01 -2.312063e+00 -3.472907e-01 -2.959926e-01 -5.824380e-02 
-1.104009e+01 6.571908e+00 -2.084431e+00 1.134397e+01 7.433963e-02 -1.118543e+01 1.164863e+01 -8.428011e+00 7.257308e+00 -1.372436e+01 -7.054729e+00 -3.656003e-01 3.846716e-01 -1.321732e+00 1.962607e+00 1.200160e-01 -4.821352e-01 9.430318e-01 -8.223141e-01 -1.959688e+00 2.409797e-01 -1.983366e-01 1.150359e+00 1.724227e+00 2.665831e-01 7.966150e-02 
-4.953402e+00 5.801363e+00 6.320213e+00 5.207191e+00 4.377040e+00 -5.836730e+00 -8.413105e-01 -2.949888e+00 6.878259e-01 -5.220074e+00 4.010565e-01 4.419513e+00 1.342134e-01 -1.583728e+00 -4.228829e-01 -7.048358e-01 -2.168288e+00 1.846640e+00 2.471292e+00 -2.898066e+00 8.042437e-01 -4.963740e-01 4.318431e+00 1.821517e+00 -2.995476e-01 3.418865e-02 
-1.673376e+01 1.011251e+01 2.960999e+00 5.923401e+00 5.481489e-01 -3.644442e+00 -2.372908e+00 -2.687294e+00 -8.669028e-01 -2.094017e+00 1.090117e-01 -2.504221e+00 5.386674e-01 -1.647929e+00 -2.938445e+00 -1.058351e+00 -1.116334e+00 2.729032e+00 4.608993e+00 -2.001667e+00 2.968531e+00 2.487765e+00 4.467631e+00 1.260912e+00 -9.533457e-01 1.935995e-03 
-1.683905e+01 2.978607e+00 -7.749116e+00 3.450240e+00 6.374089e+00 -6.730807e-01 4.276307e+00 -1.510958e+00 1.152580e+01 4.923973e+00 1.139405e-01 -9.829500e-01 4.714308e-01 -1.197207e+00 -5.543791e+00 -1.685984e+00 1.656468e+00 1.759472e+00 3.556042e+00 -5.246522e-01 3.607499e+00 5.358774e+00 2.262898e+00 -2.170707e+00 -2.334617e+00 5.301237e-05 
-1.333691e+01 -6.708940e+00 -3.415205e-01 6.640776e+00 1.272098e+01 9.277709e+00 -9.185157e-01 5.695181e+00 1.427715e+01 3.541774e+00 -6.066115e-01 -2.431097e+00 2.257429e-01 1.377278e+00 -4.707373e+00 -7.403374e-02 2.033183e+00 -1.159580e-01 1.621742e+00 -7.916336e-02 2.777654e+00 2.626380e+00 1.249257e+00 -1.915048e+00 -1.283127e+00 -7.364360e-02 
-1.263786e+01 -1.350687e+01 -4.584470e-01 1.313084e+01 7.087983e+00 5.482408e+00 -4.191768e+00 1.089637e+01 1.990967e+01 3.276519e+00 -1.009467e+01 -7.290133e+00 2.909408e-01 1.903336e+00 -5.345291e-01 2.155186e+00 7.266024e-01 -2.054061e+00 -2.400206e-01 6.492600e-01 1.526231e+00 -8.987182e-01 -5.130203e-01 -5.199680e-01 -2.293053e-01 -8.442802e-02 
-1.194796e+01 -5.181618e+00 -1.054505e+00 1.124901e+01 -3.885885e-01 1.386523e+00 1.465312e+00 4.997313e+00 8.073063e+00 4.975996e+00 -4.361927e+00 -5.766265e+00 2.606944e-01 1.414992e+00 2.182446e+00 5.930729e-01 -1.426409e+00 -2.435687e+00 -2.801608e+00 1.571650e+00 -6.698438e-01 -1.949688e+00 -9.197609e-01 1.817691e+00 1.955330e+00 -7.255141e-02 
-8.016841e+00 -4.576993e-01 3.383306e+00 4.779133e+00 2.658569e+00 2.072410e+00 6.330692e+00 6.469129e+00 1.013425e+01 1.641761e+00 -6.082420e-01 -4.618924e-01 3.181493e-02 7.423977e-01 2.334853e+00 4.416700e-01 -2.537239e+00 -4.383166e-01 -8.561993e-01 6.174165e-01 -1.728305e+00 -2.091209e+00 -2.908942e+00 3.627197e+00 2.289742e+00 -6.426845e-02 
-8.572461e+00 -2.321291e+00 7.029674e-01 3.684587e+00 2.757252e+00 -3.025330e+00 1.678502e+00 4.559582e+00 9.416413e+00 -2.396512e-01 3.738630e+00 3.931435e+00 -7.451296e-03 -1.608011e-01 -4.006322e-01 9.516250e-01 -1.686274e+00 3.109062e-01 1.091912e+00 -1.434267e+00 -2.736146e+00 2.514492e-01 -1.177545e+00 2.655379e+00 1.423579e+00 -2.795624e-02 
-1.061362e+01 -3.262766e+00 8.711672e-01 4.226862e+00 3.323480e+00 3.407338e+00 -1.211280e+00 2.473711e+00 8.781949e+00 -8.660368e+00 3.991037e+00 -6.902740e-01 1.036714e-01 1.047683e+00 -3.557275e+00 -1.752470e+00 -2.750590e+00 -7.319880e-01 2.553646e-01 -2.008300e+00 -2.181769e+00 -2.209444e+00 1.018242e+00 9.207934e-01 -8.970447e-02 5.586291e-02 
-1.145358e+01 -5.782246e+00 4.959690e+00 3.093780e+00 8.334867e-01 6.178616e+00 -1.935034e+00 -6.685709e+00 1.000646e+01 4.239337e+00 6.615327e+00 1.465823e+00 8.498496e-02 3.999100e+00 -4.290744e+00 -1.225397e+00 -4.598854e+00 -2.413854e-01 -7.060032e-01 -1.621153e+00 -1.081455e+00 -4.580112e+00 2.026662e+00 -2.160620e+00 -1.880473e+00 1.779007e-01 
-1.337869e+00 -1.651360e+01 -7.507408e+00 -8.678411e+00 -3.948852e-02 -1.252740e+00 -1.904040e+00 1.182930e+00 -1.207992e+00 4.493474e+00 2.557376e+00 3.223913e-01 2.649114e-01 6.106141e+00 -2.855739e+00 -1.707441e+00 -4.918163e+00 -2.272663e-01 -2.292704e+00 -1.553262e+00 2.327021e-01 -4.427690e+00 2.084576e+00 -4.113510e+00 -2.111055e+00 2.324039e-01 
6.785164e+00 -1.714960e+01 -1.234730e+00 -1.285705e+01 3.231810e+00 -4.225307e+00 -6.080883e+00 -2.023026e-01 -8.489175e+00 3.316740e+00 -6.347640e+00 -5.977263e+00 8.014320e-01 5.755551e+00 -1.604319e-01 -1.446251e+00 -3.200523e+00 -9.885149e-01 -1.670432e+00 -7.007360e-01 1.569757e+00 -2.412243e+00 6.121911e-01 -4.552836e+00 -2.579912e+00 2.313024e-01 
1.079771e+01 -1.185779e+01 -4.568828e+00 -1.238854e+01 9.879872e-01 -2.854220e+00 -6.904664e+00 3.955184e-01 -4.108681e+00 2.223809e+00 -1.009503e+01 -7.524005e+00 9.074675e-01 2.807014e+00 2.333834e+00 3.269969e-01 -3.060580e-01 -1.477500e+00 -4.450704e-01 -3.090195e-01 7.242432e-01 1.931404e-01 5.550447e-01 -2.755325e+00 -1.782127e+00 1.520061e-01 
1.125639e+01 -8.912312e+00 -3.740855e+00 -1.105377e+01 -4.622826e+00 -1.372804e+00 -2.938403e+00 1.556782e+00 -6.044095e-01 8.435125e+00 -9.822651e+00 -7.510539e+00 9.202188e-01 8.999183e-01 1.674503e+00 -8.550823e-01 3.861948e-01 -1.480552e+00 -8.014866e-01 1.424506e-01 8.885965e-01 2.718380e-01 7.332112e-01 -2.789850e-01 -1.311778e+00 4.552168e-02 
1.046159e+01 -8.963073e+00 -4.619360e+00 -1.111034e+01 -3.499669e+00 -4.904344e+00 -5.020378e+00 3.924604e+00 -4.184673e+00 4.709505e+00 -9.481741e+00 -7.821607e+00 9.655483e-01 1.986006e-01 5.986276e-01 -3.132985e-01 -3.107624e-02 -1.468903e-01 -7.949466e-01 -7.699217e-01 4.211610e-01 -8.459274e-01 9.577484e-02 4.695155e-01 -8.479501e-01 2.574556e-02 
1.145282e+01 -1.022444e+01 -5.484875e+00 -1.156517e+01 -1.927122e+00 -7.207678e+00 -6.310773e+00 2.476137e+00 -7.091989e+00 5.739948e+00 -8.049210e+00 -1.238735e+01 1.000000e+00 2.902098e-01 4.407010e-01 -6.457127e-01 -4.560343e-01 9.226309e-01 -6.556706e-01 -1.468477e+00 -1.600690e-01 -7.509602e-01 -1.279974e+00 5.099713e-01 -6.239986e-02 1.778870e-02 
1.169250e+01 -8.208587e+00 -5.263310e+00 -1.228822e+01 -1.094316e+00 -3.911516e+00 -9.068088e+00 2.041645e+00 -5.094528e+00 4.050272e+00 -8.634174e+00 -9.325349e+00 9.963047e-01 5.820971e-01 9.617983e-01 -9.648868e-01 -1.582880e-02 2.257270e-01 5.014457e-01 -9.239100e-01 -2.395911e-01 1.095424e-02 -4.758990e-01 4.379726e-01 5.341789e-01 4.205507e-03 
1.209198e+01 -7.086050e+00 -6.647444e+00 -1.274500e+01 -1.212348e+00 -5.147572e+00 -8.256935e+00 1.697916e+00 -3.904283e+00 2.364870e+00 -7.696579e+00 -7.070667e+00 9.937841e-01 4.524517e-01 1.171034e+00 -1.283383e+00 1.005605e+00 -1.070842e+00 1.495394e+00 -2.461276e-01 -3.913468e-01 7.109779e-01 1.548129e-01 1.624423e-01 1.081409e+00 -2.084899e-03 
1.305250e+01 -5.723274e+00 -8.862511e+00 -1.059957e+01 -2.728421e+00 -3.427169e+00 -8.666847e+00 3.115759e+00 -5.723755e+00 4.017549e+00 -7.468194e+00 -7.809054e+00 9.896838e-01 3.909478e-01 8.682244e-01 -1.277237e+00 7.114086e-01 -8.361837e-01 1.327202e+00 -4.458691e-01 1.337254e-02 4.077026e-01 3.334160e-01 1.017768e+00 5.956125e-02 -6.905973e-04 
1.303508e+01 -5.611922e+00 -1.010219e+01 -7.381475e+00 -6.464281e+00 2.711964e-02 -7.742031e+00 -1.765376e-02 -3.222486e+00 6.530375e+00 -7.819988e+00 -7.738454e+00 9.928859e-01 3.179801e-01 6.224949e-01 -6.578711e-01 -5.280028e-02 2.839652e-01 1.336480e+00 -8.979319e-01 8.542562e-01 -3.700473e-01 1.467245e+00 1.304345e+00 -5.938231e-01 1.192003e-03 
1.317569e+01 -4.604528e+00 -9.922123e+00 -1.141294e+01 -2.649268e+00 1.371503e-01 -1.155488e+01 2.966293e+00 -3.396914e+00 3.634600e+00 -3.483631e+00 -8.693649e+00 9.933008e-01 8.263898e-02 5.676244e-01 1.486659e-01 -8.764867e-01 9.436151e-01 7.643198e-01 -5.371067e-01 3.443815e-01 7.439642e-02 8.892754e-01 1.156806e+00 1.025126e-01 -1.635134e-03 
1.362028e+01 -4.532948e+00 -9.406994e+00 -1.260232e+01 1.679018e-01 -2.473309e-01 -1.130258e+01 6.043930e+00 -6.917940e+00 9.892568e+00 -3.167134e+00 -9.597486e+00 9.979357e-01 1.135489e-01 9.650442e-01 2.969905e-01 -1.374244e+00 1.571776e+00 2.917558e-01 -1.697098e-01 1.678502e-01 1.630826e-01 2.261377e-01 1.302159e+00 2.803577e-01 -7.946825e-03 
1.317309e+01 -3.424639e+00 -8.466780e+00 -1.237158e+01 -1.326437e+00 5.316556e-01 -9.572108e+00 1.806875e+00 -3.504045e+00 6.782829e+00 -4.010592e+00 -6.366976e+00 9.789833e-01 -7.585182e-02 1.296697e+00 3.760928e-01 -2.450895e-01 2.614209e-01 3.528706e-01 1.128748e+00 -9.627156e-01 6.387784e-01 -9.834995e-02 7.503445e-01 5.525054e-01 -2.005355e-02 
1.360412e+01 -1.376646e+00 -9.344910e+00 -1.377338e+01 7.331839e-01 1.288646e+00 -9.581968e+00 1.401306e+00 -2.353507e+00 6.086948e+00 -1.045710e+00 -7.500002e+00 9.603106e-01 -2.089551e-01 1.446881e+00 7.296397e-01 -4.487095e-02 -5.008591e-01 -6.996866e-02 1.521194e+00 -8.631501e-01 9.260887e-01 -1.082535e+00 3.384832e-01 5.459141e-01 -2.859151e-02 
1.280451e+01 3.008068e-01 -8.072701e+00 -1.205286e+01 -1.624804e+00 1.133515e+00 -6.771451e+00 4.740269e-01 -2.485239e+00 5.045660e+00 -7.926202e-01 -6.979864e+00 9.118456e-01 -9.207692e-02 1.207891e+00 1.314505e+00 -4.891693e-01 -7.341864e-01 2.147184e-01 1.341869e+00 -1.962710e-01 6.269409e-01 -9.466327e-01 7.891218e-01 -5.122258e-01 -2.992081e-02 
1.275980e+01 8.387344e-01 -5.955834e+00 -1.298603e+01 -2.187210e+00 -8.981040e-01 -5.096934e+00 2.394603e+00 -2.796900e+00 5.348475e+00 -3.083704e+00 -6.561471e+00 8.885469e-01 5.277858e-02 8.629556e-01 1.501086e+00 -2.715131e-01 -1.250525e+00 3.100409e-01 1.443568e+00 2.876865e-01 -4.371874e-01 -3.696314e-01 -1.346932e-01 1.162477e-01 -2.860924e-02 
1.313487e+01 1.507124e+00 -3.588793e+00 -1.521110e+01 -3.537172e+00 2.698622e+00 -5.105283e+00 3.288717e-01 -1.476443e-01 2.418902e+00 9.540145e-01 -9.397370e+00 8.652611e-01 3.130987e-01 9.154145e-01 7.440876e-01 1.872181e-01 -6.651599e-01 2.981245e-01 2.156877e-01 2.423036e-01 7.882165e-01 -5.896827e-01 -5.903223e-01 9.073247e-01 -2.556810e-02 
1.370284e+01 2.334973e+00 -4.081432e+00 -1.355182e+01 -4.563259e+00 2.056297e+00 -3.197212e+00 2.912316e+00 -5.708241e+00 5.552171e+00 -2.592493e+00 -5.710011e+00 8.405566e-01 3.282827e-01 9.288810e-01 1.087816e-01 6.356238e-01 -2.077229e-01 3.114668e-01 1.298800e-01 -5.904101e-01 6.989762e-01 3.984232e-01 -2.610842e-01 9.849805e-01 -2.535061e-02 
1.389848e+01 4.129760e+00 -5.289464e+00 -1.083387e+01 -3.762580e+00 1.146937e+00 -6.642874e+00 1.426688e+00 2.911514e+00 1.995399e+00 -3.989837e+00 -2.868971e+00 8.080002e-01 7.463827e-02 7.056309e-01 3.655835e-01 9.702033e-01 -5.495921e-01 -4.468350e-01 3.601146e-01 -5.267441e-01 5.202684e-01 9.448158e-01 -3.228459e-01 1.206167e+00 -2.289407e-02 
1.401940e+01 4.171822e+00 -4.561591e+00 -1.199652e+01 -3.113121e+00 1.435073e+00 -3.678739e+00 -1.106355e+00 -8.315978e-01 7.552343e+00 -1.917199e+00 -4.900768e+00 7.904243e-01 -2.007094e-01 3.688942e-01 7.483259e-01 1.216616e-01 2.678877e-01 2.140836e-01 -5.843904e-01 -6.620927e-01 2.660885e-01 1.180374e+00 6.736193e-01 2.268743e-01 -2.023376e-02 
1.334978e+01 4.116855e+00 -1.520796e+00 -1.113773e+01 -7.010202e+00 7.750595e-01 -3.063946e+00 -2.955133e-01 1.537657e-02 6.142895e+00 -9.978621e-01 -3.771157e+00 7.758569e-01 -1.195614e-01 2.112089e-01 9.352902e-01 -3.630646e-01 1.594775e-01 1.061219e-01 1.672999e-01 -7.043954e-01 -9.995338e-01 1.197521e+00 1.508249e+00 -5.403445e-01 -1.828817e-02 
1.297364e+01 4.185897e+00 -2.224136e+00 -1.279159e+01 -1.600009e+00 3.312653e+00 -7.908628e+00 4.629536e-01 -2.929729e+00 9.380294e+00 -7.203841e-01 -4.124547e+00 7.554595e-01 9.999657e-02 8.670773e-02 7.313270e-01 2.728061e-01 -3.985343e-02 -6.876178e-02 3.033012e-01 -5.261841e-01 -2.703272e-01 -7.969484e-01 9.146949e-01 2.448688e-01 -2.195444e-02 
1.382355e+01 5.178767e+00 -1.781740e+00 -1.225167e+01 -3.721748e+00 7.387564e-01 -3.691430e+00 -2.879943e+00 -1.037089e+00 7.069031e+00 2.952998e+00 -5.958804e+00 7.340418e-01 3.552026e-01 1.763020e-02 4.034353e-01 5.385249e-01 9.597895e-02 -2.737379e-03 2.420849e-01 -1.057826e+00 -2.622474e-01 -5.578690e-01 4.533594e-01 5.182484e-01 -2.378183e-02 
1.428250e+01 4.074405e+00 -7.744837e-01 -1.007553e+01 -4.956615e+00 1.109415e+00 -1.848491e+00 -2.445060e+00 -1.657001e+00 3.104533e+00 6.808453e-01 -2.582600e+00 7.015597e-01 4.259796e-01 3.458870e-01 3.254053e-01 9.326361e-01 -6.798500e-01 4.944639e-02 3.732748e-01 -1.199576e+00 -2.883310e-01 -4.557438e-01 9.694791e-02 6.552853e-01 -2.318479e-02 
1.447137e+01 4.260752e+00 -2.284460e-01 -9.803136e+00 -4.852005e+00 1.862992e+00 -4.883590e+00 -4.130638e+00 -1.932224e+00 6.491430e+00 5.683202e-01 -1.950887e+00 6.838976e-01 2.813970e-01 5.094504e-01 -8.120680e-03 6.315772e-01 3.650434e-01 7.995759e-01 -1.711440e+00 1.167013e-01 -1.523913e+00 6.476819e-01 -8.821629e-02 8.108606e-01 -2.103881e-02 
1.477964e+01 6.374340e+00 -1.373757e+00 -9.352671e+00 -4.434132e+00 2.997768e+00 -5.446174e+00 -4.909578e+00 -3.923817e+00 7.390375e+00 9.566944e-01 -2.852079e+00 6.646076e-01 1.725446e-01 6.891999e-01 3.160391e-02 6.059154e-01 5.872157e-01 1.085114e+00 -1.421618e+00 -3.082122e-01 -1.768069e+00 1.389353e+00 2.827781e-01 -4.580650e-02 -2.250673e-02 
1.498197e+01 6.576051e+00 -1.522707e+00 -9.455209e+00 -2.157773e+00 3.792460e+00 -1.044979e+01 -1.064178e+00 -7.523246e+00 8.164519e+00 2.373992e+00 -1.769762e+00 6.473238e-01 -9.457584e-02 4.941623e-01 5.758219e-01 8.927776e-01 8.433821e-01 1.021568e+00 -2.066502e-01 -3.560469e-01 -8.419157e-01 -5.988458e-01 6.982459e-01 3.893276e-01 -2.926875e-02 
1.488992e+01 6.362754e+00 3.066635e-02 -7.219913e+00 -3.367652e+00 5.570251e+00 -6.173480e+00 -5.519351e+00 -7.701835e+00 9.214752e+00 1.191900e+00 -2.902196e+00 6.073129e-01 -4.476452e-01 2.329054e-01 8.947588e-01 1.493459e+00 9.439074e-01 5.839634e-01 6.420398e-01 3.155448e-01 6.276897e-01 -2.675751e+00 1.048118e+00 1.362420e+00 -3.916102e-02 
1.394335e+01 6.737356e+00 1.948452e+00 -6.405627e+00 -1.168334e+00 5.684591e+00 -5.553187e+00 -5.605986e+00 -4.252794e+00 2.585013e+00 3.941947e+00 2.080894e-02 5.662012e-01 -4.098125e-01 3.164209e-01 1.574415e-02 2.139398e+00 5.974447e-01 -2.217791e-01 2.479784e+00 1.441908e-03 1.509722e+00 -3.557026e+00 8.632122e-01 2.302446e+00 -3.937409e-02 
1.306072e+01 7.458214e+00 1.364457e+00 -3.410167e+00 -2.093143e-01 4.971519e+00 -4.684277e+00 -1.060951e+00 -2.420594e+00 -3.198629e+00 5.413305e+00 3.064737e+00 5.093638e-01 -2.728554e-01 2.195973e-01 -6.502824e-01 1.556905e+00 3.039128e-02 -2.930335e-01 2.728221e+00 5.986214e-01 1.451346e+00 -3.803051e+00 3.826851e-02 2.347819e+00 -2.899173e-02 
1.384751e+01 7.610425e+00 -2.110882e+00 -6.630895e-01 -7.497187e-01 2.982930e+00 1.204530e+00 -3.286169e+00 -2.615257e+00 -3.413919e+00 4.579350e+00 6.759002e+00 4.994279e-01 -3.423308e-01 5.513719e-01 -3.914457e-01 7.586385e-01 -6.019471e-01 -5.950423e-01 2.515975e+00 2.730829e-01 5.308307e-01 -1.712278e+00 1.230822e-02 1.590047e+00 -2.843758e-02 
1.357356e+01 7.024206e+00 -1.191079e+00 -2.306658e+00 -3.425003e+00 5.455914e+00 4.088766e+00 -3.686153e+00 -1.263872e+00 -6.801036e+00 1.064541e+00 5.467802e+00 4.957410e-01 -8.787590e-01 4.481680e-01 3.899218e-01 2.677677e-01 -7.950333e-01 -9.615312e-01 1.948017e+00 -4.382215e-01 1.044340e+00 -1.248230e-01 -9.592358e-01 -6.643729e-02 -5.023945e-02 
1.197527e+01 9.711220e+00 1.268992e+00 -3.164189e+00 -2.570225e+00 2.467182e+00 2.640167e+00 -2.927970e+00 -2.177001e+00 -4.175174e+00 6.177871e+00 6.769514e+00 4.308248e-01 -2.049393e+00 -6.506310e-01 8.949661e-01 1.693299e-01 4.108551e-02 1.677427e-02 1.691049e+00 4.665469e-01 7.677456e-01 2.431977e-02 -1.283633e+00 -1.245141e+00 -9.154695e-02 
9.603044e+00 8.648657e+00 1.624130e+00 -8.207793e-01 -3.274228e+00 4.217367e-01 4.337988e+00 -3.431158e+00 2.581980e+00 -3.442116e+00 -1.821342e-01 2.727295e+00 2.924681e-01 -2.856131e+00 -1.665315e+00 -5.560405e-01 4.541055e-01 7.717593e-01 2.571906e-01 1.734824e+00 2.313340e+00 -6.306437e-01 -9.780458e-01 -1.549579e+00 -1.510615e+00 -1.147652e-01 
5.585800e+00 3.545045e+00 9.563444e-01 -5.593793e-01 -6.196790e-01 5.583890e+00 9.535166e+00 -1.080932e+00 -6.994548e-01 -4.971780e+00 -1.215478e+00 1.903551e+00 1.433295e-01 -3.263478e+00 -2.794493e+00 -1.235038e+00 1.332823e+00 3.733777e-01 8.577965e-01 1.339906e+00 8.143643e-01 -2.821746e+00 -2.441575e+00 -2.508017e+00 -3.505788e-01 -9.890206e-02 
2.487644e+00 1.780720e+00 -3.814958e+00 -1.338535e+00 -5.414797e-01 5.183513e+00 9.315386e+00 6.957029e+00 -5.155864e+00 -1.129296e+01 -2.986680e+00 3.477080e-01 6.566256e-02 -2.680182e+00 -2.422428e+00 -1.471307e+00 6.184824e-01 -1.827236e-01 -2.898883e-01 -6.258329e-01 -1.514328e+00 -4.714600e+00 -1.697282e+00 6.485285e-01 1.076806e+00 -5.840931e-02 
-7.844152e-01 -8.272771e-01 -2.186656e+00 3.758802e+00 -2.069710e+00 4.375277e+00 6.850999e+00 -4.050242e+00 -1.241681e+01 -1.245763e+01 -4.959939e+00 6.206413e+00 4.971725e-02 -1.512938e+00 -9.762077e-01 -1.000497e+00 1.175239e+00 2.919200e-01 -8.964424e-01 -1.868879e+00 -2.487161e+00 -2.983646e+00 3.150587e-02 1.100288e+00 1.515546e+00 -2.039819e-02 
-6.127577e-01 -1.277320e+00 -4.160904e+00 1.125417e-01 -3.462830e+00 -4.233983e-01 2.550908e+00 -9.518142e+00 -1.513234e+01 -8.185601e+00 4.932739e+00 5.959893e+00 4.722768e-02 -9.315265e-01 -4.930843e-01 -6.114721e-02 8.610622e-01 6.551298e-01 -8.454927e-01 -7.201015e-01 -1.418268e+00 1.894133e+00 3.120108e+00 1.961128e+00 1.414872e+00 -1.100853e-02 
-4.286871e-01 1.930263e-01 -3.873167e+00 4.591277e+00 2.300596e+00 3.905134e+00 3.573010e+00 -5.279152e+00 -1.062945e+01 -6.367931e+00 3.262537e-01 6.675187e+00 5.055600e-02 -6.972157e-01 2.129411e-01 1.846249e-01 5.665627e-01 2.118121e+00 3.993166e-01 4.166684e-01 1.794043e+00 3.709493e+00 2.574638e+00 1.847176e+00 -8.958486e-01 -1.365103e-02 
-2.347853e+00 -1.194853e+00 -3.277439e+00 2.550538e+00 5.490160e-01 1.191121e+00 7.353872e+00 4.801428e-01 3.421116e+00 1.262730e+00 4.175861e+00 7.187681e+00 1.020056e-02 -8.553994e-01 7.058482e-01 1.604419e+00 6.865464e-01 1.919380e+00 5.581607e-01 8.223764e-01 2.108550e+00 3.705628e+00 1.608878e+00 -9.667907e-02 -2.185004e+00 -1.256427e-02 
-3.402946e+00 1.961949e-01 -1.705265e+00 5.372617e+00 6.514973e+00 5.564600e+00 6.532859e+00 -7.917142e-02 -3.146072e+00 -4.308603e+00 4.654380e+00 1.113276e+00 -2.431870e-05 -1.255203e+00 8.192841e-01 1.264704e+00 4.284562e-01 -4.899683e-01 -8.222641e-01 -9.688064e-01 6.519721e-01 3.056384e-01 2.356970e-02 7.614833e-02 -1.240838e+00 2.294653e-02 
-3.402625e+00 2.250337e+00 2.777239e+00 3.154603e+00 4.026883e+00 1.537672e+00 5.182865e+00 -1.575382e+00 -3.458877e-01 -1.170875e+00 2.285281e+00 -2.184170e+00 9.696484e-03 -9.923162e-01 1.096692e+00 6.604928e-01 1.722264e+00 -7.603112e-01 4.353295e-02 -1.505147e+00 -2.408897e-01 -1.269855e+00 -8.006471e-01 -3.355275e-01 1.732827e-01 4.332714e-02 
-6.177317e+00 2.566852e+00 -5.769856e-01 6.431525e+00 -1.888179e+00 -3.794620e-01 -1.855183e-01 -9.915295e-01 -7.217752e+00 -5.033280e+00 1.652286e+00 5.156923e+00 1.655407e-01 -3.278075e-01 4.676680e-01 -1.967934e-01 7.049789e-01 -8.594122e-01 9.474044e-02 -8.899945e-01 5.857792e-01 3.056176e-01 -6.200445e-01 -8.544195e-03 2.171538e+00 1.787718e-02 
-5.922249e+00 3.103277e+00 -5.391142e-01 1.063240e+01 9.490362e-01 4.380816e+00 3.187325e+00 -2.681269e-01 -8.923175e-01 -2.378167e+00 3.999271e+00 6.032271e+00 1.440538e-01 2.464767e-01 -1.421543e-01 -1.456468e-02 5.514213e-01 9.442714e-01 8.250184e-01 1.005914e+00 2.049518e+00 1.363444e+00 -4.685071e-01 2.440758e-01 1.805435e+00 -1.588162e-02 
-3.782172e+00 2.108065e+00 -1.031055e+00 5.158612e+00 3.756836e+00 4.616730e+00 3.080657e+00 2.196097e+00 -1.344769e+00 -6.805180e+00 3.754664e+00 7.862744e+00 2.218294e-02 4.977878e-01 -7.992147e-01 5.997182e-01 -1.153748e+00 1.381912e+00 -1.043085e+00 7.550231e-01 1.811487e+00 2.340207e+00 -4.371025e-01 -7.122449e-01 -2.647027e-01 -5.266733e-02 
-3.367814e+00 1.768959e+00 2.931450e+00 6.548166e+00 5.925733e+00 3.164668e+00 8.579350e+00 7.078393e+00 3.534841e+00 -2.627461e+00 2.454470e+00 5.490093e+00 1.967251e-03 8.078146e-02 -5.610756e-01 1.182469e+00 -1.262012e+00 3.429742e-01 -1.790714e+00 1.923546e-01 1.004319e+00 -3.878956e-02 -6.250607e-01 -2.508371e+00 -1.647304e+00 -3.621951e-02 
-4.965595e+00 -7.620625e-01 6.863234e-01 2.704905e+00 2.533032e+00 -4.986811e+00 8.935850e-01 4.392647e+00 2.269704e+00 -7.094146e+00 -1.136539e+00 4.104498e+00 -2.675271e-02 -2.390391e-01 -4.871505e-01 5.450561e-01 -2.521675e-02 -5.403322e-01 -4.958189e-01 1.000267e-01 -4.807535e-01 -5.024840e-01 5.237080e-01 -8.576970e-01 -2.019904e+00 -1.038772e-02 
-4.926630e+00 1.732963e+00 4.514542e+00 5.549199e+00 3.275809e+00 2.290175e-01 5.242634e+00 3.655193e+00 -2.893502e+00 -5.358988e+00 -6.096983e+00 -3.251231e-01 -1.257598e-02 -2.017359e-01 -2.158741e-01 -6.183299e-01 1.512716e-01 -6.285480e-01 7.509144e-01 -7.722656e-01 -2.610645e+00 -1.319275e+00 4.301165e-01 5.460498e-01 -2.519345e-01 4.259467e-04 
-4.197960e+00 -3.096898e-01 9.026790e-01 5.532012e+00 2.380136e+00 3.605461e+00 5.249148e+00 1.503930e+00 -6.430178e-01 -2.820876e+00 3.741906e+00 6.708333e-01 -2.248406e-02 1.286150e-01 7.551910e-01 7.975463e-01 1.722455e+00 6.937138e-01 1.731217e+00 5.721372e-01 -1.286083e+00 -5.198689e-01 1.275768e+00 1.915859e+00 3.682911e-01 6.387770e-03 
-4.760311e+00 4.634018e-01 -2.683773e-01 5.890971e+00 2.859441e+00 2.623104e+00 2.540241e+00 -4.530470e+00 -1.605175e+00 -2.613513e+00 2.745497e+00 5.947253e+00 1.962662e-03 5.303078e-02 1.830722e-01 3.922730e-02 9.200327e-01 3.134985e-01 -4.488487e-02 7.810451e-01 4.163433e-01 7.956505e-01 -7.009968e-01 8.470963e-01 3.542686e-01 2.355182e-03 
-4.405680e+00 3.648673e+00 7.065515e+00 1.114629e+01 6.209785e+00 2.472231e+00 5.105468e+00 2.055066e+00 -9.738035e-01 -2.088044e+00 4.021517e+00 2.809765e+00 -2.083182e-03 -2.764514e-01 3.509855e-01 4.067596e-01 -7.308004e-02 -3.958846e-01 -1.403043e+00 -6.964083e-01 1.320372e-01 -1.733978e-01 -1.306592e+00 -1.176495e+00 -3.433372e-01 5.239844e-04 
-4.557616e+00 6.691420e-01 1.629261e+00 7.342221e+00 2.928478e+00 5.712080e-01 9.219700e+00 5.461341e+00 1.250143e+00 -9.230388e+00 -2.001307e+00 3.767538e-01 -1.100051e-02 -5.829254e-01 1.881151e-01 7.237138e-01 -1.538775e-01 2.183180e-01 -1.050622e+00 -2.972855e-01 5.782982e-01 2.285514e-02 -5.136955e-01 -2.651888e-01 -5.650255e-01 -8.349895e-04 
-5.681564e+00 1.342367e+00 1.987658e+00 4.440987e+00 3.661953e-01 -2.383804e+00 -1.572623e+00 -2.831790e+00 -2.937666e+00 -6.045401e+00 2.328329e-01 1.739397e+00 -1.338255e-02 -9.543095e-01 -5.798129e-01 1.408298e-01 -8.349474e-01 -2.094642e-01 -4.878060e-01 -7.615061e-01 -5.336487e-01 3.267585e-01 1.955260e-01 9.313269e-02 5.911949e-01 1.300573e-03 
-7.036996e+00 2.557130e+00 5.889120e+00 8.474236e+00 6.872825e+00 -2.019863e-01 4.392859e+00 8.044493e-01 -5.089686e-01 -3.203312e+00 3.313896e+00 3.657310e+00 3.437400e-03 -4.696694e-01 2.788358e-01 1.039356e+00 2.558778e-01 4.033125e-01 -2.806522e-01 -1.704604e+00 -1.097456e+00 7.678779e-01 1.909967e+00 1.771566e-01 8.829784e-01 1.846254e-03 
-7.937537e+00 -1.943858e-01 5.639734e+00 6.405549e+00 3.190290e+00 4.197984e-01 3.711358e+00 1.715268e+00 1.539545e+00 -4.123952e+00 1.829579e+00 4.125462e+00 -2.799273e-03 1.396255e-01 1.019189e-01 6.655277e-01 2.389619e-01 -7.792688e-01 -1.579631e-01 -2.281549e-01 6.641879e-02 8.851404e-01 1.277872e-01 -4.955217e-01 3.824737e-02 -2.955985e-03 
-5.777977e+00 2.831697e+00 5.000001e+00 7.639329e+00 3.532993e+00 -2.233855e+00 -1.945310e+00 -2.299467e+00 2.850927e+00 -6.412786e-01 -1.913898e+00 3.598613e+00 -7.060885e-03 1.682404e-01 -5.176603e-01 -1.521785e-01 -4.891267e-01 -1.932286e+00 -5.460945e-01 -6.594173e-01 -1.120207e-01 4.866956e-01 -9.304191e-01 -5.995311e-01 5.570435e-03 -8.183181e-03 
-5.612947e+00 1.714678e+00 5.759856e+00 6.053250e+00 -1.860232e+00 -2.157686e+00 4.556866e-01 -9.477383e-01 -1.919115e-01 -6.687482e+00 3.691211e-01 1.959982e+00 -2.291334e-02 2.484858e-01 -2.267397e-01 7.026122e-02 -3.377036e-01 -9.081588e-01 -1.000873e+00 -2.387161e-01 -4.416661e-01 -2.273340e-01 -1.849577e-01 -8.863295e-01 5.177262e-02 -4.579770e-03 
-7.358089e+00 -9.857033e-01 5.068167e+00 6.204753e+00 -2.633429e-01 -1.643717e+00 2.723608e+00 1.575849e+00 2.790238e+00 -6.573643e+00 1.046469e+00 4.767902e+00 -2.742147e-02 -5.462561e-02 -5.636225e-01 2.111013e-01 -5.028951e-01 -3.562761e-01 -8.013508e-01 3.984888e-01 -1.745488e-01 -4.210284e-01 1.722365e-01 -8.788080e-01 2.241834e-01 -9.518385e-04 
-5.905052e+00 5.806162e-01 5.956957e+00 5.434319e+00 5.476638e-01 -4.879634e+00 1.833186e-01 -2.430720e+00 4.332192e-01 -2.082558e+00 -4.082252e+00 3.799681e+00 -1.551783e-02 8.688259e-02 -7.018045e-02 1.282992e-01 -2.008295e-01 5.626799e-01 -8.679813e-01 -3.085026e-01 -6.972533e-01 -1.106757e-01 1.370093e+00 -1.403147e+00 2.711177e-01 2.669465e-03 
