-1.033840e+01 1.920952e+00 5.517034e+00 9.248484e+00 5.817784e+00 -4.329184e+00 5.013109e+00 5.363843e+00 1.749388e+00 6.838727e+00 2.558774e+00 1.387811e-02 8.011872e-02 -3.899207e-01 -1.188645e-01 -7.380970e-02 -1.707919e+00 3.044354e-01 1.391932e-01 -9.467310e-01 5.990750e-01 -1.429431e+00 -7.619725e-01 -2.947477e-01 4.551622e-01 1.487339e-03 
-1.223661e+01 2.729438e+00 6.503471e+00 3.622331e+00 5.879261e+00 -4.657951e+00 2.116495e+00 8.282772e+00 1.105291e+00 7.855509e+00 3.568910e+00 2.141793e+00 9.099919e-02 -3.714255e-01 -3.451676e-01 -8.846454e-02 -1.650355e+00 -4.850476e-01 -9.917437e-02 -1.398816e+00 -4.345003e-01 -1.049205e+00 -1.167735e+00 -6.511346e-01 -2.729181e-01 -1.300520e-03 
-1.133890e+01 9.223867e-01 4.654767e+00 3.521964e+00 7.309222e+00 -3.468833e+00 1.727760e+00 6.899753e+00 -5.075719e+00 2.520473e+00 5.799673e-01 1.225731e+00 8.211517e-02 -2.407259e-01 -5.486630e-01 1.637412e-02 -9.930123e-01 -1.002035e+00 -1.545558e-02 -1.313619e+00 -9.004644e-01 -1.605787e-01 -3.131889e-01 -6.653259e-01 -4.893567e-01 -4.989785e-03 
-1.169528e+01 6.943963e-01 5.505845e+00 3.859969e+00 2.646826e+00 -5.255230e+00 -3.382955e-01 2.423386e+00 -8.408642e-02 3.159176e+00 2.925038e-01 -1.956639e+00 7.261789e-02 2.922502e-01 -2.848332e-01 1.427789e-01 -1.828817e-01 -6.080147e-01 4.742622e-01 2.495739e-01 -1.014272e+00 9.529532e-01 9.355977e-01 -8.075488e-01 -4.268746e-01 -6.028777e-03 
-1.181269e+01 1.951578e-01 6.097718e+00 4.164604e+00 2.423827e+00 -4.107821e+00 -3.275919e-01 3.791213e+00 1.541183e+00 7.620949e+00 8.703470e-01 -3.836893e-01 6.436044e-02 7.477655e-02 2.305198e-01 2.425462e-01 -1.672108e-02 7.217033e-02 3.857546e-01 5.682267e-01 -5.585122e-03 7.977379e-01 1.210383e+00 -8.635340e-01 -5.451212e-01 -1.364458e-03 
-1.053846e+01 1.668886e+00 6.495890e+00 2.386603e+00 5.281885e+00 -1.967146e+00 4.392041e+00 4.765683e+00 2.561606e+00 9.983259e+00 -6.140244e-01 8.121309e-01 6.973267e-02 -2.177219e-02 3.772117e-01 3.032341e-01 -2.112837e-01 4.909969e-01 3.328902e-01 1.320034e+00 1.522535e+00 2.172660e-01 -9.474890e-02 -1.050474e+00 -2.578257e-01 2.965182e-03 
-1.154343e+01 1.587741e+00 5.372475e+00 4.175042e+00 6.352545e+00 -3.184103e+00 2.203726e+00 5.700679e+00 -2.409875e+00 5.160345e+00 -3.284439e+00 -2.884260e+00 7.673550e-02 2.132615e-01 -3.049344e-01 -8.869677e-01 -6.867931e-01 -2.747915e-01 4.121256e-03 1.155930e+00 1.254595e+00 7.228913e-02 -1.268773e+00 -1.671962e-01 3.940462e-01 1.440704e-03 
-1.193877e+01 1.884163e+00 7.384637e+00 2.798332e+00 3.137452e+00 -4.052639e+00 4.996215e+00 9.081327e+00 2.977772e+00 3.915733e+00 -2.882473e+00 -1.995482e+00 8.125627e-02 3.504816e-01 -1.106443e+00 -8.560669e-01 -3.348683e-01 -9.273887e-01 -2.406653e-01 1.005749e-01 8.412994e-01 -8.340483e-01 -1.964023e+00 1.343538e+00 1.589065e+00 1.594841e-04 
-1.004623e+01 -1.437153e+00 1.218506e+00 5.247738e-01 2.122086e+00 -3.044469e+00 5.149971e+00 7.906366e+00 1.694545e+00 4.310846e+00 1.168591e+00 2.990349e+00 6.580216e-02 5.758897e-01 -1.400315e+00 -6.272211e-01 2.620380e-01 -3.704898e-01 5.689817e-01 -4.012716e-01 -1.793000e-01 -7.130730e-01 -1.347538e+00 1.433559e+00 2.155715e+00 6.357265e-03 
-9.534650e+00 -2.350883e+00 4.292540e+00 2.537395e+00 2.760171e+00 -3.240289e+00 3.421793e+00 7.869337e+00 -3.660845e+00 5.878953e-01 3.877149e+00 5.820153e+00 7.599676e-02 4.482864e-01 -2.274925e-01 -7.794179e-01 4.050970e-01 5.295392e-01 3.702455e-01 -3.019629e-01 -1.784548e-01 -1.619190e+00 -1.245642e-03 1.620125e+00 1.346338e+00 1.190872e-02 
-9.866041e+00 -3.296309e+00 3.782418e+00 5.615700e+00 4.688736e+00 -7.453687e-01 9.845786e-01 5.410174e+00 -2.655931e+00 8.657253e-02 5.035467e-01 3.986501e+00 1.111516e-01 3.278122e-02 1.065228e+00 3.442829e-01 4.337626e-01 5.354031e-01 -4.137286e-01 -7.134033e-01 2.717393e-01 -5.381309e-01 5.521170e-01 -6.509987e-01 -9.852114e-01 1.993657e-02 
-9.787435e+00 1.676279e+00 2.205592e+00 2.278354e+00 4.501822e+00 -3.350961e+00 5.569097e+00 9.437149e+00 -2.942937e+00 6.021642e+00 5.550675e+00 4.238132e+00 1.181251e-01 -3.538288e-01 1.059830e+00 7.713296e-02 3.780933e-01 1.015794e+00 2.276557e-01 -1.820532e-01 1.025181e+00 1.249681e+00 1.512717e+00 -4.465379e-01 -7.706985e-01 1.193601e-02 
-9.755932e+00 1.875405e+00 3.983395e+00 2.823107e+00 3.928276e+00 -5.057776e+00 5.093026e-01 8.481156e+00 -1.355064e+00 4.354558e+00 -2.923167e+00 -1.144698e+00 1.444208e-01 -5.874149e-01 3.486217e-01 2.980974e-01 6.845530e-01 8.630053e-01 -1.385140e-01 -9.726951e-02 8.946017e-01 1.251104e+00 1.138941e+00 -4.646908e-01 2.419529e-02 1.040995e-02 
-1.135885e+01 3.624105e-01 4.577716e+00 5.824159e+00 8.219372e+00 5.419302e-02 2.749165e+00 1.145975e+01 1.937124e+00 6.017487e+00 3.357816e+00 4.532260e+00 1.190422e-01 -6.641701e-01 -5.238615e-01 3.597140e-01 1.650142e+00 -7.263114e-01 5.097600e-01 -8.636093e-02 -5.227690e-01 3.542376e-01 -3.593186e-01 -1.331854e+00 9.048627e-01 2.278984e-02 
-1.201741e+01 -8.962665e-01 4.086843e+00 7.265562e+00 7.144988e+00 -3.140516e+00 1.908197e+00 8.871883e+00 1.159557e+00 5.783356e+00 -7.234774e-01 3.960413e+00 1.627428e-01 -8.592941e-01 -6.009167e-01 -2.123312e-01 1.665332e+00 -1.003081e+00 9.395221e-01 1.121880e-01 -1.344537e+00 -4.487491e-01 -2.668695e-01 -4.004697e-01 8.978346e-01 3.337867e-02 
-1.197755e+01 4.428069e-01 3.952438e+00 8.307835e+00 -7.380900e-01 -1.760791e+00 4.437845e+00 6.627941e+00 -2.429059e+00 3.510649e+00 -2.208438e+00 6.209890e+00 2.229133e-01 -5.803595e-01 -5.453640e-01 -7.784882e-01 7.762929e-01 -2.364679e+00 8.963647e-02 -3.884841e-01 -1.782475e+00 -1.213322e+00 6.076545e-01 -2.268595e-01 -2.239716e-01 5.219030e-02 
-1.374305e+01 -1.169377e+00 3.234378e+00 9.907931e+00 3.391602e+00 5.473261e-01 2.259026e-01 4.174374e+00 -1.415718e+00 4.273629e+00 -2.142388e+00 2.505660e+00 2.593786e-01 -7.210396e-01 -6.144013e-01 -1.771940e+00 -8.825644e-01 -1.741269e+00 8.765863e-01 -7.000953e-01 -1.448193e+00 -4.071012e-01 8.334013e-01 -6.260265e-01 -1.192641e+00 5.821218e-02 
-1.339782e+01 -2.227854e+00 1.111508e+00 8.384439e+00 -1.727332e+00 -1.341546e+00 1.647891e+00 4.896130e+00 -2.841849e+00 9.810623e+00 2.932973e+00 4.139779e+00 3.316758e-01 -4.242790e-01 -1.012227e+00 -1.929807e+00 -1.660798e+00 3.838028e-01 8.011566e-01 -4.303803e-01 -4.995393e-01 8.214605e-01 1.298928e+00 1.243928e-01 -1.090538e+00 4.516209e-02 
-1.491247e+01 -2.632942e+00 -3.352393e+00 2.814439e+00 -1.066737e+00 1.032793e+00 -1.973023e-01 2.496825e+00 -6.695538e-01 6.800375e+00 -6.424315e+00 -9.677362e-01 3.994225e-01 5.957508e-01 -5.548816e-01 -1.352602e+00 -1.823133e+00 1.910738e-01 7.434964e-01 3.303502e-01 -1.153975e+00 -3.198099e-02 -2.222350e-01 4.241174e-01 2.762447e-01 2.907801e-02 
-1.351423e+01 -3.886545e+00 -2.403210e+00 3.550591e+00 3.410093e+00 2.002259e+00 2.497545e+00 4.969019e+00 1.305161e+00 8.741918e+00 5.544896e-01 2.493897e+00 3.787019e-01 1.271642e+00 -7.380011e-01 -6.378350e-01 -1.506443e+00 5.124514e-01 7.485827e-01 -1.599487e-01 -1.396736e+00 -8.152143e-01 -2.121658e+00 -8.121086e-01 2.338345e-01 1.025500e-02 
-1.070609e+01 -3.114440e+00 -1.771270e+00 3.209190e+00 1.778258e+00 2.592906e+00 1.452826e+00 -1.631945e+00 -3.649128e+00 3.696806e+00 1.167441e+00 4.709825e+00 3.812556e-01 4.169500e+00 1.302727e+00 1.057255e+00 -1.140748e+00 -9.206774e-01 -6.850608e-01 -7.478250e-01 -8.836498e-02 -1.143990e+00 -2.363263e+00 4.988766e-03 -8.589102e-01 1.779675e-02 
-9.142799e+00 -5.677111e+00 -2.868228e+00 6.548488e-01 -5.875721e-01 1.621311e+00 2.308321e-02 -2.316523e-02 -5.428134e+00 7.541178e-01 -4.923448e+00 2.470171e+00 3.920342e-01 6.672221e+00 1.372304e+00 9.390938e-01 -1.571194e+00 -5.454810e+00 -3.846387e-01 3.315796e-01 -1.708016e-02 -2.621613e-01 -4.464890e+00 8.435034e-01 -2.688385e+00 1.129072e-01 
3.749316e+00 4.775978e+00 2.166389e+00 -1.441432e+00 -3.671291e+00 -2.202038e+00 -2.699196e+00 4.551093e+00 -3.022858e+00 -1.022041e+00 -3.660403e+00 -5.250424e+00 4.817401e-01 6.547987e+00 1.149731e+00 1.223318e+00 -3.013933e+00 -6.765678e+00 3.773130e-01 1.015836e+00 1.425718e+00 1.377290e+00 -4.708669e+00 3.271447e+00 -2.581230e+00 1.685594e-01 
1.261917e+01 -9.702332e-01 3.234286e-01 -1.980067e+00 -2.113918e+01 2.476537e+00 6.231455e+00 1.792099e+00 -3.187802e-01 -1.122310e+01 7.185928e+00 -5.967907e+00 8.929955e-01 4.420896e+00 1.659892e+00 1.362841e+00 -3.865583e+00 -6.118059e+00 1.657239e+00 1.227905e+00 4.326741e-02 2.421721e+00 -4.339700e+00 4.528449e+00 -1.609240e+00 1.639734e-01 
1.115286e+01 2.807751e-01 2.749493e+00 -1.054302e+01 -2.177433e+01 4.051858e+00 3.427821e+00 4.589014e+00 6.826445e-01 -1.385793e+01 1.146999e+01 -3.977287e+00 9.735720e-01 7.498743e-01 1.106013e+00 6.594973e-01 -3.777937e+00 -3.921874e+00 1.845885e+00 8.317795e-01 -1.418737e+00 2.471565e+00 -2.465635e+00 2.709200e+00 -6.078367e-01 1.002387e-01 
9.259909e+00 4.869951e+00 3.654427e+00 -1.412227e+01 -2.212635e+01 6.780557e+00 3.099102e+00 1.742110e-01 4.827721e+00 -1.452644e+01 1.015360e+01 -6.212598e+00 9.659853e-01 -8.653992e-01 2.582460e+00 1.153220e+00 -2.547810e+00 -7.210261e-01 3.220729e-01 -9.692141e-01 -1.389335e+00 2.559447e+00 1.787628e-01 3.100185e-01 -1.438814e+00 2.129429e-03 
9.178318e+00 7.385952e+00 3.798377e+00 -1.426001e+01 -2.278707e+01 4.875377e+00 3.025878e+00 -1.733649e+00 6.761719e+00 -1.169855e+01 8.401759e+00 -8.167262e+00 9.464388e-01 -3.375939e-01 2.329072e+00 1.006968e+00 -3.402271e-01 -3.118784e-01 -9.355645e-01 -1.531822e+00 -7.819674e-01 2.464989e+00 2.235426e-01 -1.046494e-01 -2.432897e+00 -2.117267e-02 
9.279442e+00 8.389480e+00 5.565087e+00 -1.286062e+01 -2.423794e+01 3.675142e+00 1.586355e+00 -1.993244e+00 9.438917e+00 -1.140898e+01 1.027013e+01 -1.106699e+01 9.172093e-01 2.395929e-01 1.207940e+00 1.215578e+00 7.052898e-01 1.022369e-01 -2.093715e+00 -2.211132e+00 1.434003e+00 2.348742e-01 -9.274073e-02 6.221136e-01 -1.755253e+00 -1.965379e-02 
9.455121e+00 1.016637e+01 6.829002e+00 -1.287498e+01 -2.227793e+01 9.267430e-01 -3.474916e+00 1.762905e+00 1.070199e+01 -1.429894e+01 1.088847e+01 -1.371458e+01 8.920966e-01 6.517311e-01 3.715267e-02 1.991735e+00 1.419402e+00 6.447773e-02 -2.691358e+00 -1.376354e+00 8.943658e-01 -2.251682e+00 1.445762e+00 5.899506e-02 -4.674214e-01 -1.260711e-02 
1.031947e+01 9.519443e+00 8.217003e+00 -1.128834e+01 -2.186974e+01 -1.713701e+00 -4.706162e+00 5.595950e+00 4.031954e+00 -1.368994e+01 1.202081e+01 -1.221520e+01 8.948874e-01 6.932468e-01 -3.678460e-01 2.301848e+00 1.868678e+00 5.192948e-03 -2.655739e+00 -4.074731e-01 -7.679288e-01 -3.116609e+00 2.703369e+00 -1.382253e+00 1.112952e+00 -7.498574e-03 
1.191696e+01 7.006733e+00 1.243109e+01 -7.949142e+00 -2.364879e+01 -5.886992e+00 -7.096353e-01 -1.056417e+00 -1.793207e+00 -3.329256e+00 7.821395e+00 -9.930261e+00 8.945642e-01 3.789302e-01 -2.487539e-01 2.541561e+00 1.437600e+00 -2.727922e-01 -1.560659e+00 -1.427458e-01 -2.001348e+00 -2.516376e+00 2.878967e+00 -1.528760e+00 1.763637e+00 -7.762259e-03 
1.151476e+01 8.130067e+00 1.427328e+01 -5.980147e+00 -2.352654e+01 -6.196688e+00 -1.833650e+00 -4.423227e+00 1.034727e-01 -3.376978e+00 4.892407e+00 -7.394387e+00 8.784826e-01 -8.759594e-02 5.354178e-01 2.081532e+00 3.478243e-01 -1.042061e-01 -4.165329e-01 -7.847156e-01 -1.351861e+00 -5.776762e-01 1.580331e+00 -8.105491e-01 4.427899e-01 -1.147922e-02 
1.075213e+01 9.617286e+00 1.650867e+01 -8.341077e+00 -2.281348e+01 -4.635061e+00 -5.624901e+00 -3.234248e+00 8.435631e-02 -5.060594e+00 6.808880e+00 -7.306803e+00 8.614877e-01 -2.077394e-01 1.028680e+00 8.388780e-01 -2.020642e-01 1.556830e-01 3.733417e-01 -1.453803e+00 2.777756e-01 7.207617e-01 -9.300132e-02 -2.215893e-01 -1.106054e-01 -1.115972e-02 
1.046391e+01 1.089126e+01 1.658587e+01 -9.353252e+00 -2.280842e+01 -4.422331e+00 -6.172108e+00 -7.444000e-02 2.047912e-01 -4.922621e+00 8.474326e+00 -1.131298e+01 8.540295e-01 6.427345e-02 5.819638e-01 -3.566952e-01 1.596422e-01 3.428858e-01 -5.721381e-01 -4.724845e-01 8.372577e-01 4.008708e-01 7.069559e-01 -5.474039e-01 -6.283884e-01 -4.774737e-03 
1.140369e+01 1.076954e+01 1.546919e+01 -7.272910e+00 -2.322943e+01 -4.907461e+00 -5.809423e+00 -1.841933e+00 1.759942e+00 -3.021441e+00 4.922489e+00 -8.523990e+00 8.509921e-01 2.760735e-01 2.552924e-01 -1.705496e+00 9.422606e-01 2.041548e-01 -1.386492e+00 1.673300e+00 -1.896946e-01 3.897157e-01 4.307001e-01 -9.312732e-01 1.772107e-01 4.361373e-03 
1.151035e+01 1.046376e+01 1.300955e+01 -5.716020e+00 -2.160414e+01 -8.921178e+00 -4.103811e+00 -9.330959e-01 1.270034e+00 -8.617748e-01 3.098583e+00 -9.927736e+00 8.598568e-01 2.265045e-01 -4.706573e-02 -2.385565e+00 1.061613e+00 1.470058e-01 -1.212716e+00 1.695627e+00 -8.386397e-01 6.968768e-01 -7.685395e-01 -6.670803e-01 1.215041e+00 1.481495e-02 
1.160928e+01 1.110750e+01 9.769350e+00 -5.448390e+00 -2.239485e+01 -9.318100e+00 1.707449e+00 -3.753393e+00 1.500313e+00 -4.937516e+00 4.840385e+00 -7.113373e+00 8.803810e-01 3.616965e-01 -7.137641e-01 -3.167278e+00 9.461653e-01 4.522415e-01 -1.002731e+00 1.758085e+00 3.376087e-01 1.660026e-01 -2.354579e+00 1.635095e-01 1.855616e+00 2.517615e-02 
1.149363e+01 1.048695e+01 7.507969e+00 -4.957446e+00 -2.249068e+01 -8.280594e+00 -1.452410e+00 -3.311909e+00 3.818990e+00 -7.807281e+00 5.179976e+00 -5.943084e+00 9.134098e-01 5.700990e-01 -1.159210e+00 -4.009949e+00 7.625898e-01 1.317029e+00 1.663294e-02 8.733791e-01 8.027304e-01 6.765469e-01 -3.899264e+00 -1.021212e+00 3.907343e+00 3.063194e-02 
1.322053e+01 7.189125e+00 2.383587e+00 -2.921371e+00 -2.052496e+01 -1.024141e+01 1.655302e+00 1.035517e+00 1.315477e+00 -1.132158e+01 4.699340e+00 -1.238235e+00 9.500963e-01 7.664706e-01 -1.653862e+00 -4.368740e+00 6.455138e-01 3.070745e+00 -2.907513e-01 -3.000154e-01 1.422881e+00 1.698528e+00 -3.813420e+00 -2.804548e+00 4.626367e+00 2.946560e-02 
1.355522e+01 6.626894e+00 -3.347316e+00 -3.166580e+00 -1.595394e+01 -8.376358e+00 2.891579e-01 6.861014e-01 4.745187e+00 -1.716606e+01 -1.936952e+00 6.671410e+00 9.781588e-01 9.102456e-01 -1.822266e+00 -4.293829e+00 1.891556e-02 4.689336e+00 -4.620803e-01 -8.268532e-01 4.300205e-01 2.515567e+00 -1.806280e+00 -4.845787e+00 4.046985e+00 2.184185e-02 
1.441084e+01 4.768214e+00 -6.646707e+00 -3.116254e+00 -1.030949e+01 -1.072397e+01 -6.634116e-01 1.362004e+00 9.529856e+00 -1.932523e+01 -5.623889e+00 9.711216e+00 9.953345e-01 7.792118e-01 -1.245306e+00 -4.035869e+00 -5.768597e-01 5.306803e+00 8.443371e-01 -1.898579e+00 -1.597787e+00 2.783116e+00 9.036968e-01 -4.044749e+00 1.449327e+00 1.048261e-02 
1.544971e+01 2.586076e+00 -9.446032e+00 -4.765427e+00 -4.151736e+00 -1.034971e+01 -4.427320e+00 -1.325050e+00 1.228964e+01 -1.283686e+01 -1.388735e+01 8.817112e+00 1.000000e+00 8.692079e-01 -7.810736e-01 -3.517215e+00 -1.041602e+00 4.901009e+00 2.506884e+00 -2.413077e+00 -2.717229e+00 6.144387e-01 4.136795e+00 -2.126307e+00 -5.585865e-01 -9.383261e-04 
1.616934e+01 2.983005e+00 -1.474640e+01 -5.006246e+00 1.079574e-01 -5.033046e+00 -5.479353e+00 -5.947844e+00 1.145883e+01 -8.967700e+00 -9.549207e+00 4.935547e+00 9.915888e-01 5.768525e-01 -4.150762e-02 -2.602468e+00 -1.211678e+00 3.555093e+00 4.328373e+00 -2.277346e+00 -3.827485e+00 -2.068167e+00 5.938206e+00 -5.020962e-01 -1.000444e+00 -1.120012e-02 
1.702200e+01 3.614131e+00 -1.688355e+01 -7.429596e+00 3.342380e+00 1.312598e+00 -9.368255e+00 -9.245119e+00 6.852893e+00 -1.660849e+00 -1.060583e+01 6.266312e+00 9.753401e-01 3.096130e-01 1.964587e-01 -9.348488e-01 -1.031583e+00 1.493975e+00 5.067482e+00 -1.140981e+00 -4.556436e+00 -3.389835e+00 4.684215e+00 1.384411e+00 -2.803802e-05 -1.406673e-02 
1.650895e+01 4.046649e+00 -1.594029e+01 -7.842557e+00 3.718916e+00 5.086738e+00 -9.579675e+00 -1.381538e+01 1.907393e+00 4.777801e+00 -9.775127e+00 5.984398e+00 9.516639e-01 2.263625e-01 -4.858548e-01 1.119478e+00 -1.006985e+00 -7.246337e-02 5.029358e+00 -6.269042e-01 -4.655258e+00 -3.403925e+00 2.547617e+00 1.294663e+00 1.414177e+00 -9.634012e-03 
1.682796e+01 3.036548e+00 -1.352333e+01 -8.505187e+00 1.512658e+00 9.927805e+00 -8.082066e+00 -2.017346e+01 1.161817e-01 3.711462e+00 -6.852331e+00 8.292546e+00 9.496288e-01 -4.019699e-02 -1.003098e+00 2.129007e+00 -6.932389e-01 -9.390941e-02 3.770962e+00 5.104078e-01 -4.890603e+00 -2.128183e+00 -1.077834e-01 1.980593e+00 1.633370e+00 -5.246502e-03 
1.739817e+01 8.425224e-01 -1.082912e+01 -9.503374e+00 6.605015e-01 1.580614e+01 -9.256968e+00 -2.375996e+01 -2.192439e+00 1.084228e+00 -4.952642e+00 1.099331e+01 9.562743e-01 -5.657500e-01 -7.142090e-01 1.786002e+00 3.182128e-01 4.890056e-01 1.993031e+00 7.217568e-01 -3.492530e+00 -1.789724e+00 -1.243966e+00 2.375611e+00 1.480060e+00 -6.128615e-03 
1.637641e+01 2.007016e-01 -8.794098e+00 -1.006538e+01 4.402040e+00 1.480771e+01 -6.977569e+00 -2.872585e+01 -1.738107e+00 -3.529798e-01 -3.114111e+00 1.192870e+01 9.468023e-01 -1.533920e+00 -1.106789e-01 1.042067e+00 1.398832e+00 1.842277e+00 -1.072153e+00 3.059072e-01 4.422949e-01 -2.109298e+00 -9.657283e-01 2.517973e+00 7.504787e-01 -1.165366e-02 
1.390598e+01 1.893528e+00 -9.374891e+00 -5.471395e+00 4.719253e+00 1.261194e+01 -6.523139e+00 -2.700184e+01 -6.114085e+00 5.901917e-01 2.338161e-01 1.156662e+01 9.224340e-01 -1.448049e+00 6.827067e-01 -9.803572e-02 1.641290e+00 2.279555e+00 -1.542049e+00 -4.316704e-01 2.485654e+00 1.401071e+00 9.880433e-02 1.261059e+00 -3.961387e-01 -3.376753e-02 
1.090446e+01 1.957651e+00 -9.040112e+00 -3.527017e+00 8.694665e+00 6.164141e+00 -7.919444e+00 -1.634105e+01 -8.469483e+00 -8.701605e-01 3.144306e+00 1.175829e+01 9.082807e-01 -1.225669e+00 4.881645e-01 4.155867e-01 2.403854e+00 2.879961e+00 -1.658448e+00 2.339958e-01 5.247172e+00 1.907167e+00 1.692314e+00 5.578379e-01 -1.370204e+00 -7.315841e-02 
1.289390e+01 3.377581e+00 -1.119629e+01 -4.566108e+00 9.911963e+00 1.241768e+01 -1.094438e+01 -1.752409e+01 8.178606e+00 1.836840e+00 -1.776556e+00 9.097830e+00 8.066975e-01 -1.682288e+00 -8.781675e-01 1.464160e+00 3.096447e+00 4.190109e+00 -3.390307e-01 2.765968e+00 6.091073e+00 2.672463e+00 2.926306e+00 -3.489073e-01 -2.651731e+00 -1.082985e-01 
1.075410e+01 1.899497e+00 -5.805466e+00 1.501244e+00 1.620549e+01 6.612600e+00 -3.596968e+00 -7.228862e+00 6.513827e-01 7.485267e+00 6.802649e-01 6.312078e+00 6.388785e-01 -2.173916e+00 -2.227059e+00 2.071296e+00 3.696018e+00 3.412190e+00 6.580902e-01 4.211939e+00 6.336847e+00 1.915371e+00 3.170310e+00 -6.249157e-01 -3.067702e+00 -1.200600e-01 
5.569720e+00 -2.468232e+00 -3.671412e+00 7.496710e+00 2.191439e+01 1.069256e+01 5.145463e+00 -1.102568e+00 2.687799e+00 1.104401e+01 -2.786999e-01 1.031072e+00 5.156428e-01 -3.042173e+00 -3.167789e+00 2.276703e+00 3.402873e+00 1.697826e+00 -3.681435e-01 3.928281e+00 5.472843e+00 -1.947438e+00 1.310656e+00 4.445127e-01 -2.845260e+00 -8.739454e-02 
3.696970e+00 -6.254735e+00 -2.446071e+00 8.921661e+00 1.975441e+01 1.031715e+01 5.095329e+00 7.132429e+00 3.852778e+00 1.037780e+01 -7.292006e-01 4.531584e-01 4.535082e-01 -2.671736e+00 -3.112989e+00 1.045690e+00 1.267857e+00 -1.132312e+00 -1.260348e+00 4.260418e-02 1.261428e+00 -1.519466e+00 -2.257319e-01 2.884241e-01 -1.643817e+00 -4.180823e-02 
1.211602e+00 -8.384250e+00 -1.492472e+00 8.738046e+00 1.662663e+01 8.724686e+00 4.350873e+00 2.659478e+00 -3.159282e+00 6.943852e+00 1.150740e+00 -2.199008e+00 4.624100e-01 -2.055948e+00 -2.538277e+00 -2.072506e-01 -3.524408e-01 -2.623723e+00 -2.193351e+00 -2.578828e+00 -1.646411e+00 -2.153239e+00 -3.051698e+00 6.382412e-01 1.616343e+00 -1.646759e-02 
-4.255190e-01 -1.070744e+01 -1.666484e+00 7.219862e+00 1.318781e+01 1.294794e+00 -2.986651e+00 -2.802743e+00 -4.022409e+00 8.406687e+00 1.407665e+00 -2.919679e-01 4.564538e-01 -1.701537e+00 -1.596788e+00 -8.618029e-01 -1.244914e+00 -2.570142e+00 -2.970294e+00 -2.745386e+00 -1.378745e+00 2.833158e-01 -2.528968e+00 -3.811100e-01 1.716639e+00 -1.638971e-02 
-2.648775e+00 -1.293327e+01 -5.097458e+00 6.585406e+00 1.207907e+01 4.236980e+00 -3.707686e+00 -4.367038e+00 -4.140800e+00 -3.228920e+00 1.844073e+00 9.485352e+00 4.318320e-01 -1.346022e+00 -1.171185e+00 -1.302539e+00 -6.339791e-01 -1.095797e+00 -2.185338e+00 -1.855419e+00 -4.408870e-01 2.222178e+00 -5.675845e-01 -1.236598e+00 7.937094e-01 -1.684738e-02 
-2.880525e+00 -1.196417e+01 -4.952592e+00 3.773413e+00 9.177477e+00 -2.290464e+00 -4.602320e+00 3.751960e+00 5.760116e+00 2.819353e+00 -2.981417e+00 3.194175e+00 3.868486e-01 -9.140491e-01 -2.242678e-01 -9.583120e-01 -3.335071e-01 -1.603653e-01 -7.593786e-01 -6.692826e-01 3.553227e-01 2.540717e+00 5.393884e-01 -7.516059e-01 -2.339406e-01 -2.129640e-02 
-4.291004e+00 -1.361181e+01 -6.362114e+00 7.291374e+00 1.315282e+01 -4.093764e-01 -4.118389e+00 -2.822309e+00 3.060346e+00 6.899597e+00 -2.837710e+00 2.646708e-02 4.129757e-01 1.260788e-01 1.371809e-01 -3.918008e-01 -3.842450e-01 -2.604854e-01 -7.551899e-01 -8.007544e-01 -2.875909e-01 1.142494e+00 1.199872e+00 -4.825551e-01 -1.963447e+00 -1.195383e-02 
-4.174650e+00 -1.148950e+01 -5.825716e+00 5.199342e+00 1.184911e+01 -1.789209e-01 -6.127713e+00 -1.798494e+00 5.080600e+00 6.039371e+00 -9.472370e-03 3.267771e+00 3.594000e-01 1.134552e-01 -1.271450e-01 -4.889343e-01 -2.115306e-01 -2.349146e-01 5.949842e-01 -6.293195e-01 -2.238208e+00 -1.719244e+00 -9.377797e-01 1.393168e-01 -1.141949e+00 -7.754284e-03 
-1.371318e+00 -1.248469e+01 -6.619900e+00 3.951217e+00 9.440829e+00 -5.947409e-01 -6.948762e+00 -3.029765e+00 1.911428e+00 1.160429e+00 -2.054674e+00 -3.686806e-01 3.857872e-01 7.674007e-02 4.742516e-01 1.860057e-01 2.710800e-01 -1.029308e+00 -4.231534e-01 2.770384e-01 -9.257463e-01 -1.716124e+00 -8.896564e-01 5.611668e-01 -1.200835e+00 -2.497833e-02 
-3.773092e+00 -1.316345e+01 -7.268371e+00 4.385839e+00 9.858897e+00 7.771399e-01 -6.333731e+00 -7.335352e+00 -2.261647e+00 1.000038e+00 -2.676351e+00 -2.317995e+00 3.616714e-01 -3.293068e-01 6.560780e-01 2.775860e-02 5.110150e-01 -4.554982e-01 1.540755e-01 1.218070e+00 -5.233405e-01 -2.074883e+00 3.632089e-01 1.501670e-01 -1.591777e+00 -2.737697e-02 
-4.108083e+00 -1.040358e+01 -4.710759e+00 9.053526e+00 9.001385e+00 -3.003174e+00 -2.630188e+00 -4.682611e+00 -1.849151e+00 4.970980e+00 1.301563e+00 -3.184825e+00 2.869483e-01 -1.059180e+00 1.161924e+00 1.871418e-01 4.261642e-01 5.224773e-01 4.803993e-01 1.274010e+00 3.412918e-01 -1.765258e+00 1.490860e+00 4.248963e-02 -7.732807e-01 -4.723541e-02 
-4.452802e+00 -9.249671e+00 -6.641494e+00 5.203262e+00 9.791342e+00 1.795673e+00 -2.196649e+00 -3.588774e+00 -3.413524e+00 5.950140e+00 -9.367559e-01 -3.283040e+00 2.719346e-01 -3.197722e-01 1.940559e+00 -1.945246e-01 -6.862932e-01 9.631714e-01 8.058208e-01 1.096042e+00 1.319646e+00 -1.833540e+00 6.408906e-01 6.598731e-01 -2.840244e-01 -3.905638e-02 
-6.327362e+00 -8.631960e+00 -5.997630e+00 5.673326e+00 1.208699e+01 1.297989e+00 -2.647254e+00 -3.196595e+00 -6.338922e+00 6.139677e+00 -2.712024e+00 -3.752562e+00 1.944786e-01 -2.067037e-01 1.445921e+00 -5.376188e-01 -2.253879e+00 5.280064e-01 1.738934e+00 1.346476e+00 6.577831e-01 -1.262094e+00 1.178065e-01 -4.071023e-02 -1.439775e+00 -2.158768e-02 
-4.262314e+00 -4.346463e+00 -7.597558e+00 2.644473e+00 1.313195e+01 2.655663e+00 -8.449864e-01 -1.480132e+00 -9.184463e+00 3.620143e+00 2.629808e+00 -3.454249e+00 2.126244e-01 -3.935585e-02 1.170740e+00 6.311022e-01 -1.294738e+00 -4.368245e-01 -3.946498e-01 1.426006e+00 2.723061e-01 -6.576205e-01 -1.132380e+00 -2.472403e-01 -4.921057e-01 -1.941261e-02 
-5.236845e+00 -5.625577e+00 -6.920821e+00 -9.364765e-01 9.971113e+00 5.261504e+00 3.426362e+00 -2.448017e+00 -5.274152e+00 6.725011e+00 -6.852698e-01 -1.029810e+01 2.086650e-01 -2.320400e-01 8.872050e-01 8.519866e-01 -1.308586e+00 -1.118916e+00 -1.708806e-01 1.833994e+00 1.308433e+00 5.449923e-01 -1.147389e+00 -8.037301e-01 6.387999e-01 -1.751412e-02 
-5.194839e+00 -4.899164e+00 -3.024388e+00 2.034475e+00 8.665159e+00 -2.159333e+00 1.896570e+00 -2.601532e+00 -7.234012e+00 -4.429817e-03 -3.186335e+00 -2.470800e+00 1.677783e-01 -8.567892e-01 1.418933e-01 1.192199e+00 -6.647255e-02 -7.080997e-01 -1.422048e-01 1.009352e+00 1.014876e+00 6.362408e-01 -7.323418e-01 -1.304010e+00 1.495795e+00 -2.950918e-02 
-7.021299e+00 -3.919584e+00 -4.024282e+00 -5.646038e-01 8.725810e+00 2.851084e+00 5.151939e+00 3.906270e+00 -4.589185e+00 2.215019e+00 -3.822603e+00 -1.050286e+00 1.293310e-01 -6.243593e-01 8.725196e-01 1.023568e+00 7.935986e-01 -6.976194e-01 -1.011623e+00 -3.290275e-01 7.557390e-01 2.767239e-01 -1.509435e+00 -1.171960e+00 1.667737e+00 -2.476541e-02 
-7.654033e+00 -4.489993e+00 -3.084831e+00 2.126173e+00 1.021410e+01 3.149848e+00 3.338984e+00 4.171033e-01 -6.345742e+00 2.213430e+00 -2.321574e+00 -5.991820e-01 1.047454e-01 -4.995736e-01 6.824888e-01 4.529383e-01 -1.689022e-01 -1.173300e+00 -5.538774e-01 1.324976e-01 6.834475e-01 -1.990244e-01 -1.237578e+00 -1.926473e+00 -1.169305e+00 -1.504296e-02 
-7.129045e+00 -1.467565e+00 -1.772760e+00 2.985667e+00 5.708545e+00 -2.451202e+00 1.060018e+00 -1.786399e-01 -4.334667e+00 -1.931095e+00 -6.977449e+00 -2.895222e+00 1.163543e-01 1.259722e-01 8.252699e-01 1.243692e+00 4.636371e-01 -8.456879e-01 -1.555632e+00 6.380939e-01 1.641513e+00 6.165005e-01 -1.715881e+00 -1.099802e+00 -8.938522e-01 -9.902018e-03 
-7.638835e+00 -2.712730e+00 -1.885458e+00 -5.851712e-01 4.307292e+00 -2.277578e+00 4.605019e+00 2.858160e+00 -8.356392e+00 -4.119260e+00 -1.124128e+01 -7.394857e+00 9.905183e-02 1.128464e-02 7.001578e-01 1.142506e+00 5.988765e-01 -2.926957e-01 -1.544517e+00 1.055817e+00 2.423404e+00 7.722424e-01 -6.214253e-01 5.550561e-01 1.138896e+00 -4.349375e-03 
-6.399037e+00 -6.818661e-01 1.594491e+00 3.109254e+00 7.450776e+00 -2.213361e+00 7.709391e+00 1.089331e+01 -5.013573e-01 -3.198040e+00 -4.861763e+00 -2.121710e+00 8.266771e-02 -9.958725e-02 3.055119e-01 9.867027e-01 4.126034e-01 7.283632e-01 1.367856e+00 2.322708e+00 2.222506e+00 5.230246e-01 1.173034e+00 2.772582e+00 2.350374e+00 -1.479071e-03 
-7.962613e+00 -1.382054e+00 9.440713e-01 5.058763e+00 7.879508e+00 -4.691657e+00 5.293380e+00 6.998150e+00 -4.401185e+00 -2.602234e-01 -6.041367e-01 4.708542e+00 9.984189e-02 6.057262e-03 5.710288e-01 1.200964e+00 5.015415e-01 1.943958e-01 1.521384e+00 1.346934e+00 1.177990e+00 1.328831e+00 8.113421e-01 2.614624e+00 2.328398e+00 -7.090151e-04 
-7.465092e+00 -6.053439e-01 1.745989e+00 2.226717e+00 7.564252e+00 5.595119e+00 1.232938e+01 8.863895e+00 -3.697148e+00 2.004557e+00 1.566891e+00 2.804950e+00 1.085640e-01 3.047635e-01 8.388290e-01 7.573150e-01 -4.104059e-01 -1.668454e+00 5.815371e-01 5.819691e-01 2.565414e-01 -3.968162e-02 1.283078e-02 -2.016273e-01 2.109454e-01 2.592045e-03 
-7.075521e+00 1.041526e-01 4.043615e+00 2.363804e+00 5.222532e+00 1.425102e+00 9.029695e+00 9.762815e+00 -1.143404e-01 -2.663849e+00 -1.382483e+00 1.783801e+00 8.255863e-02 2.623257e-01 7.458547e-01 5.157278e-01 -5.305191e-01 -2.177829e+00 -3.629623e-02 -2.059130e-01 7.063276e-01 1.171331e+00 -3.667239e-01 -1.181574e+00 -1.555216e+00 5.795956e-05 
-5.318766e+00 2.769176e+00 3.831294e+00 2.404703e+00 4.369946e-01 -2.364056e+00 8.751080e+00 1.079368e+01 -2.843187e+00 -1.932074e+00 -5.480726e+00 3.953874e-01 1.042696e-01 -5.349499e-01 4.085991e-01 -2.709879e-01 7.415104e-02 -8.523413e-01 -9.546825e-01 -1.138195e+00 -9.778368e-02 5.903026e-01 -1.109540e+00 -1.562373e+00 -8.448018e-01 -7.980883e-04 
-7.724148e+00 6.599603e-01 2.480058e+00 2.317174e+00 5.539904e-01 -8.935508e-01 6.052964e+00 9.564896e+00 1.028491e+00 -1.255277e-01 -2.988196e+00 -1.862756e+00 1.022789e-01 -9.976775e-01 5.017619e-02 -8.400038e-01 7.300504e-02 6.028393e-01 5.456949e-01 -2.430167e-01 -4.897500e-01 -8.792827e-02 -7.177140e-01 -8.080665e-01 -2.750333e-01 1.475334e-03 
-9.815528e+00 1.159748e+00 1.172829e+00 2.620787e+00 5.636817e+00 1.981032e+00 8.126767e+00 8.473937e+00 -1.317050e+00 -4.812304e+00 -5.442119e+00 4.042189e-01 9.471339e-02 -1.108490e+00 -2.719069e-01 -6.624160e-01 7.357811e-02 1.548247e+00 1.156476e+00 8.251782e-02 -5.730448e-01 7.067327e-02 -1.044724e+00 -2.376709e-01 2.284638e-01 -2.667785e-03 
