-9.260416e+00 1.382468e+00 3.216673e+00 2.811285e+00 1.765621e+00 -6.199540e+00 4.758046e+00 6.198692e+00 2.743192e+00 9.011080e+00 7.062078e-01 3.953375e+00 3.431320e-03 -1.458630e-01 -3.403917e+00 9.012680e-01 1.964910e+00 -8.886442e-01 5.191420e-01 -2.797806e+00 -3.259797e+00 2.398824e+00 1.418078e+00 -5.866143e-01 -1.953047e+00 3.695451e-02 
-9.332205e+00 -7.360104e+00 5.729888e+00 7.655885e+00 -4.106827e-01 -6.223811e+00 -1.993394e+00 -1.359957e+00 9.041875e+00 1.499366e+01 -3.175492e-01 1.708007e+00 6.631643e-02 5.956040e-02 -1.268588e+00 5.712480e-02 1.315546e+00 2.531855e-01 -2.826410e-01 -1.609185e+00 -3.122767e+00 2.009324e+00 8.605381e-01 -8.276893e-01 -7.639773e-01 1.061162e-02 
-9.953836e+00 -1.126583e+01 6.466406e+00 1.021354e+01 -1.589448e+00 -3.591694e+00 -5.855263e+00 -6.320966e+00 1.158797e+01 1.311018e+01 -1.714985e+00 -4.689175e+00 1.567613e-01 -5.102196e-02 6.952916e-01 -1.183625e+00 -5.044624e-01 1.318195e+00 -5.886665e-01 -1.025966e+00 -1.731176e+00 -3.888150e-01 -1.685702e+00 -9.578568e-01 -2.841565e-01 -1.263701e-02 
-8.615904e+00 1.363680e+00 1.877431e+00 5.687892e+00 4.709083e+00 -8.916668e+00 2.018774e+00 -3.155315e+00 8.367424e+00 1.126422e+01 -2.221642e+00 4.454763e+00 -2.017558e-02 -1.811216e-01 3.087930e+00 -1.863183e+00 -2.097581e+00 1.686493e+00 -5.076874e-01 7.630540e-01 9.041559e-01 -2.597847e+00 -2.577203e+00 -3.997114e-01 2.089778e-01 -2.872130e-02 
-9.873676e+00 4.970343e-01 -7.752242e-01 1.272970e+00 5.796715e+00 -7.796444e+00 -2.377869e+00 -1.559509e+00 1.136342e+00 2.447288e+00 -3.131030e+00 1.159214e+00 -1.650774e-02 -1.632078e-01 2.720866e+00 -9.866098e-01 -1.654356e+00 1.198001e+00 -2.624924e-01 7.027248e-01 2.259965e+00 -2.089066e+00 -1.953708e+00 2.888768e-02 5.604385e-01 -2.861205e-02 
-1.027789e+01 2.198112e+00 3.478837e-02 1.638263e+00 4.328702e+00 -6.659873e+00 8.317900e-02 7.800940e-01 1.278457e+00 7.439090e+00 -1.608084e+00 -1.712985e-01 9.344459e-03 -1.938759e-01 3.358145e-01 1.992121e-01 -3.930873e-01 4.206421e-01 1.375688e+00 -3.829961e-02 1.428599e+00 -4.200767e-01 -1.366711e+00 9.190998e-01 2.309060e-01 2.703452e-03 
-9.938881e+00 1.921283e+00 2.454678e+00 3.966568e+00 4.590747e+00 -6.032554e+00 -1.373842e+00 3.011154e+00 4.687128e+00 5.254203e+00 -1.877326e+00 4.260479e-01 -1.058936e-03 7.862206e-02 1.093433e-01 1.925658e-01 7.350585e-01 3.587812e-01 2.798672e-01 -5.019286e-02 1.629992e-01 1.761548e+00 1.033260e+00 4.171151e-01 -6.139253e-01 -4.513264e-05 
-9.552681e+00 2.330628e+00 1.258541e+00 2.375656e+00 7.415277e+00 -2.920172e+00 1.325262e+00 1.702346e+00 4.491648e+00 3.027207e+00 1.747005e+00 5.975876e+00 -1.438272e-02 2.222075e-01 2.487549e-01 1.452368e-01 7.255415e-01 7.265683e-01 1.005642e-01 -2.804006e-01 3.555123e-01 1.273988e+00 5.122157e-01 2.673494e-01 -4.220808e-01 -5.350423e-03 
-9.843172e+00 9.774928e-01 -4.242711e-01 4.579566e+00 6.047333e+00 -8.266959e+00 -3.249875e+00 -1.205639e+00 8.337487e+00 9.819532e+00 -2.722999e+00 -4.984000e+00 -4.869819e-03 1.217648e-01 3.739323e-01 -1.704913e-02 4.624916e-01 7.984657e-02 2.645797e-01 2.128940e-01 -4.569157e-01 -2.980389e-01 2.620259e-01 -3.537984e-01 -1.488933e-01 -2.978861e-03 
-9.214710e+00 3.913782e+00 2.200447e+00 4.959471e+00 7.233251e+00 -5.039849e+00 -3.808074e-01 4.666052e+00 5.823219e+00 7.717505e+00 1.514993e-01 4.233215e-01 -1.550221e-02 9.736443e-03 2.065674e-01 3.110505e-01 4.472988e-01 -5.032564e-01 1.017692e+00 1.251182e+00 1.078750e-01 -1.048822e+00 -1.039092e+00 -1.394788e+00 -9.049697e-02 3.787160e-03 
-9.499043e+00 2.999368e+00 1.898479e+00 4.987119e+00 5.080993e+00 -3.649816e+00 5.436633e-01 -7.552779e-01 2.531148e+00 4.219184e+00 -2.848566e+00 2.457859e+00 -1.539350e-02 -7.077026e-03 -2.710154e-01 3.942038e-02 -2.802361e-01 -2.006262e-01 6.483330e-01 1.563777e+00 2.684657e-01 -2.188972e+00 -1.496438e+00 -7.918986e-01 1.224988e+00 1.151246e-03 
-9.676064e+00 2.352528e+00 1.652418e+00 4.408374e+00 5.382165e+00 -1.402833e-01 5.684402e+00 2.016540e+00 2.150709e+00 6.319199e-01 -5.164149e+00 1.802462e+00 9.814918e-03 -1.307468e-01 -7.734283e-01 -6.143218e-01 -9.470955e-01 6.796305e-02 -1.025835e+00 6.763352e-02 -2.818446e-01 -1.262557e+00 -2.288232e-01 1.106044e-02 -3.344340e-01 -2.193141e-03 
-9.647881e+00 4.030428e-01 4.684544e-02 3.453934e+00 5.969745e+00 -7.475077e+00 1.536404e+00 1.461445e+00 -7.711180e-01 5.880133e+00 -4.024668e+00 4.513704e-01 -1.177216e-02 -2.046024e-01 -4.282218e-01 -1.382124e-01 -8.039159e-01 1.104209e-01 -1.702098e+00 -8.252686e-01 6.668869e-02 -5.795347e-01 4.892074e-01 1.303016e+00 -1.092790e+00 -1.814145e-03 
-9.794025e+00 1.344803e+00 5.465484e-02 9.905859e-01 7.128690e+00 -8.256394e+00 -5.390103e-01 2.148468e+00 1.161568e+00 5.742914e+00 7.948523e-01 -2.456044e-01 -2.827859e-02 -9.044914e-02 -8.231149e-02 -3.939041e-01 -2.659961e-01 3.459701e-01 -9.488674e-01 -1.473057e+00 -6.749741e-01 4.121554e-01 1.357619e+00 7.991047e-01 -7.606744e-01 -2.693987e-03 
-1.046307e+01 1.362122e+00 2.006299e+00 2.676433e+00 4.759835e+00 -8.102249e+00 -4.709737e-01 -4.877980e-01 1.280454e-01 4.109725e+00 6.870112e-01 -1.982056e+00 -5.417466e-03 2.511158e-01 3.024632e-01 1.326263e-01 4.743352e-01 3.008611e-01 1.446694e+00 1.835339e-01 2.629629e-01 1.459132e+00 4.611955e-01 2.602033e-01 5.615630e-01 9.970426e-04 
-9.720713e+00 1.461431e+00 -1.296829e+00 3.467144e+00 7.716970e+00 -4.571034e+00 -6.771955e-01 -3.837084e-01 3.761904e+00 8.305218e+00 -3.524466e+00 -7.841962e-01 -6.832361e-03 7.174540e-02 -5.682976e-02 5.410160e-01 6.401514e-01 -4.024475e-02 1.136485e+00 -4.726086e-01 2.733249e-01 1.180731e+00 8.821636e-01 1.329963e-01 1.158903e+00 2.731204e-03 
-8.428957e+00 1.857045e+00 1.385719e+00 4.587331e+00 7.179911e+00 -2.084285e+00 2.523166e+00 4.042348e+00 5.224372e+00 6.904958e+00 -5.639920e-01 3.528481e+00 -1.751006e-02 3.034717e-01 4.013282e-01 5.932518e-01 1.153287e-01 -2.153137e-02 7.905123e-01 -2.816824e-01 1.035600e+00 6.935731e-01 5.685471e-01 2.801472e-01 6.156768e-01 -2.121341e-03 
-1.045236e+01 8.131925e-01 3.070024e+00 3.235894e+00 5.717429e+00 -5.582953e+00 -4.399123e+00 1.250019e+00 4.517057e+00 8.756116e+00 2.085335e+00 2.793642e+00 -8.576274e-03 6.230478e-02 4.462423e-01 1.013455e+00 -2.785378e-01 -5.384119e-01 1.849719e-01 1.591411e-01 8.353098e-01 -1.096205e-01 -2.156089e-01 7.938617e-01 1.794014e-02 1.245511e-03 
-8.579893e+00 3.692882e+00 2.789131e+00 3.368701e+00 5.651949e+00 -3.643728e+00 -1.842189e-02 3.873338e+00 3.218334e+00 6.727011e+00 -7.171531e-01 -6.925913e-01 -1.515222e-02 -4.728089e-02 4.433492e-01 3.802946e-01 5.743711e-02 -1.520585e-02 -1.025058e-01 -1.316380e-01 -6.227150e-02 2.678567e-01 1.047363e-02 -4.382537e-01 -9.556223e-01 -1.104355e-03 
-9.333721e+00 2.774724e+00 3.068739e+00 2.683770e+00 5.788891e+00 -2.866453e+00 1.389304e+00 3.877346e+00 4.216821e+00 7.316147e+00 5.214233e-01 1.416041e+00 -1.783729e-03 6.382429e-01 -1.188664e+00 -1.841804e+00 -1.143012e+00 -1.077979e-01 1.575263e+00 2.173614e-01 -4.876649e-03 2.156128e-01 -1.477351e+00 -6.533409e-01 -4.052711e-01 8.243347e-03 
-9.224680e+00 3.093025e+00 3.287835e+00 5.150578e+00 7.068150e+00 -3.955064e+00 -1.029237e+00 2.417327e+00 6.713774e+00 7.677310e+00 -1.973305e+00 -5.608297e-01 -2.642810e-02 1.904309e+00 -4.945483e+00 -2.586807e+00 -3.830356e+00 -1.333845e+00 1.710509e+00 -3.169692e+00 -2.688174e-01 8.807766e-01 -2.927891e+00 1.651473e+00 -1.026199e+00 9.465562e-02 
-6.938748e+00 -4.830202e+00 -6.388349e+00 -3.370103e+00 4.470339e+00 2.449028e+00 -2.806909e+00 1.953641e+00 3.847402e+00 8.942101e-01 -5.532937e-01 7.014059e-01 3.827840e-02 1.930208e+00 -5.037183e+00 -3.548095e+00 -5.308325e+00 -1.757808e+00 7.477832e-01 -3.550447e+00 -6.588306e-02 1.179245e+00 -2.523120e+00 2.096891e+00 -2.021417e+00 1.050216e-01 
-2.558355e-01 -1.723207e+01 -5.416361e+00 -1.275614e+01 -3.579998e-01 2.251075e+00 -1.376877e+01 3.491103e+00 7.806927e+00 -4.701478e+00 8.077570e+00 -5.466270e+00 4.380948e-01 1.333999e+00 -7.488378e-01 -1.054239e+00 -2.763620e+00 -1.291620e+00 -3.601840e-01 -7.122508e-01 7.473418e-01 1.191891e+00 -1.902765e+00 -5.069566e-01 -1.970389e+00 4.147329e-02 
-4.167104e+00 -1.224864e+01 -1.031964e+01 -1.490450e+01 7.129259e-01 -2.230606e+00 -9.993164e+00 3.011043e+00 9.566467e+00 8.899379e-01 5.980443e+00 -6.238325e+00 2.910630e-01 1.310646e+00 2.905902e+00 1.707006e+00 8.391315e-01 -6.217505e-01 -5.816635e-01 1.190899e+00 1.439585e-01 1.965829e-01 1.008781e-01 -1.035033e+00 -1.738148e+00 -1.215906e-02 
-3.940507e+00 3.058056e+00 -1.771379e-02 -2.900323e+00 2.488759e+00 -3.416167e+00 -9.973633e-01 5.625336e+00 9.813697e+00 -1.834376e+00 -7.774955e+00 -6.942910e+00 5.454606e-02 2.061116e+00 3.043833e+00 1.753354e+00 2.811619e+00 -6.889877e-01 1.513775e+00 2.393880e+00 -1.855417e-01 -1.587598e+00 3.604062e-01 -6.564354e-01 -7.078565e-01 8.309221e-03 
1.456817e+00 -4.457560e-01 -5.526438e-01 -4.102355e+00 -6.179333e-02 2.374331e+00 -3.238121e+00 1.606318e+00 3.826931e+00 -3.495026e-02 2.197803e+00 -7.251017e+00 1.692575e-01 3.811010e+00 -6.422909e-01 1.589861e+00 1.904908e+00 -1.661592e+00 3.295405e+00 1.342496e+00 -5.866725e-01 -1.910315e+00 -7.662299e-02 2.117789e+00 -2.395771e-01 1.440654e-01 
7.237782e+00 -7.914351e+00 -1.533086e+00 -4.099117e+00 -3.415579e+00 7.517483e+00 -5.176897e+00 3.265757e+00 2.738704e+00 -2.437003e+00 6.686713e+00 -8.499207e+00 5.405437e-01 3.254454e+00 -4.253907e+00 1.062684e-01 -9.384001e-01 -3.245099e+00 3.359110e+00 -6.746017e-01 -1.881360e+00 -1.127269e+00 1.318866e+00 3.084683e+00 9.268275e-01 2.435616e-01 
9.298801e+00 -9.973893e+00 -1.612645e+00 -4.780558e+00 -4.642863e+00 8.779593e+00 -1.190920e+00 1.257469e+00 3.552390e+00 8.081363e-01 9.338554e+00 -6.658062e+00 7.683913e-01 1.734318e+00 -3.414389e+00 8.916839e-01 -1.698294e+00 -2.389747e+00 1.626279e+00 -9.957914e-01 -1.562638e+00 2.916550e-01 1.397374e+00 1.075098e+00 1.446830e+00 2.093728e-01 
8.410770e+00 -1.344741e+01 1.043629e+00 -7.253222e+00 -1.144620e+01 1.017675e+01 -5.393972e+00 -3.607038e+00 4.314625e+00 4.338411e+00 4.078083e+00 -2.605250e+00 9.727869e-01 3.090066e-01 -1.273741e+00 1.106930e+00 -1.779929e+00 -9.108654e-01 1.322241e-01 -1.322996e+00 -1.675180e+00 -2.906482e-01 1.967816e+00 6.161412e-01 1.791100e+00 1.106946e-01 
9.541915e+00 -1.475117e+01 2.617418e+00 -1.101677e+01 -7.995219e+00 9.176094e+00 -8.108541e+00 -2.770475e+00 4.497246e+00 3.564214e+00 8.877609e+00 -2.963846e+00 1.000000e+00 -4.283784e-02 -1.941598e-01 6.313723e-01 -1.143714e+00 1.065278e-01 -5.821036e-01 -1.352770e+00 -1.097589e+00 -1.231456e+00 9.770299e-01 3.529664e-01 1.544817e+00 4.350056e-02 
8.661259e+00 -1.189441e+01 1.886533e+00 -9.880651e+00 -6.293728e+00 7.980352e+00 -8.333068e+00 -3.096169e+00 8.130349e-01 6.024039e+00 9.997890e+00 -1.390813e+00 9.782125e-01 2.092309e-02 1.012438e+00 -2.499813e-01 -1.620340e-01 4.385027e-01 -5.972010e-01 -3.499654e-01 8.408661e-02 -2.059586e+00 5.123782e-03 1.019983e+00 1.402943e+00 3.558791e-03 
8.959368e+00 -1.172119e+01 1.122764e+00 -9.185413e+00 -6.686460e+00 6.967275e+00 -6.485224e+00 -4.485912e+00 -8.540937e-01 4.850472e+00 8.143482e+00 4.588054e-01 9.831814e-01 -6.609933e-02 1.391567e+00 -7.113496e-01 7.301987e-01 -1.255049e+00 -8.528490e-02 -8.630457e-02 2.421670e-01 -1.898400e+00 -7.813778e-01 4.223981e-01 1.616622e+00 1.996207e-03 
8.806659e+00 -9.900209e+00 5.410497e-01 -8.979073e+00 -9.908065e+00 8.295157e+00 -7.955458e+00 -2.328887e+00 -3.307635e+00 3.720901e+00 9.545063e+00 2.698140e+00 9.989902e-01 1.459288e-01 1.248683e+00 -5.106805e-01 6.730598e-01 -1.846147e+00 2.226940e-01 -3.350611e-01 5.376619e-01 -1.043933e+00 -1.472811e+00 4.885071e-01 1.286348e+00 3.381670e-03 
9.138719e+00 -8.790441e+00 -2.665882e-01 -7.816569e+00 -1.246329e+01 8.592267e+00 -8.728868e+00 -1.943281e+00 -2.934419e+00 8.088942e-01 1.121601e+01 3.074788e+00 9.995922e-01 1.542347e-01 1.258445e+00 -1.689943e-01 5.580982e-01 -1.608971e+00 5.669780e-01 -6.481827e-01 5.411132e-01 -1.229843e+00 -1.794052e+00 1.024349e+00 6.958234e-01 -5.150837e-03 
9.301228e+00 -7.116372e+00 2.780628e-02 -7.199775e+00 -1.263605e+01 8.281326e+00 -8.886551e+00 -1.679175e+00 -3.366467e+00 6.807755e-01 1.090416e+01 3.732938e+00 9.869154e-01 4.051371e-01 1.009342e+00 -2.898249e-01 6.823096e-01 -9.758898e-01 1.003593e+00 -5.025196e-03 -3.704775e-01 -1.383663e+00 -2.644136e+00 8.157016e-01 1.803765e-01 -1.382838e-02 
9.483257e+00 -6.820885e+00 5.344148e-01 -7.284570e+00 -1.336732e+01 9.809080e+00 -9.260591e+00 -2.105202e+00 -6.973891e+00 -2.599726e+00 1.258568e+01 3.420523e+00 9.634646e-01 4.381951e-01 1.207156e+00 -3.725153e-01 5.409116e-01 -5.959337e-01 1.150265e+00 4.751821e-01 -1.116947e+00 -1.440763e+00 -2.812155e+00 5.102352e-01 2.929182e-01 -2.175140e-02 
1.066007e+01 -5.838279e+00 -1.308576e+00 -5.833523e+00 -1.433550e+01 1.270472e+01 -7.714723e+00 -4.100314e+00 -8.206213e+00 -7.795470e+00 1.293874e+01 3.427155e+00 9.479121e-01 6.226019e-01 1.440172e+00 -5.736957e-01 5.748495e-01 -5.323055e-01 7.017397e-01 3.570282e-01 -1.249255e+00 -5.787845e-01 -3.141305e+00 2.377172e-01 8.944655e-03 -2.689242e-02 
1.065027e+01 -3.393707e+00 -1.460974e+00 -5.795137e+00 -1.459324e+01 1.213190e+01 -6.938872e+00 -6.317447e+00 -7.718359e+00 -9.013757e+00 1.274990e+01 4.692270e+00 9.103369e-01 7.885472e-01 1.927655e+00 -9.182850e-01 5.920978e-01 1.993279e-01 -9.922894e-01 6.609514e-01 -1.206328e+00 4.982902e-01 -2.700761e+00 -6.452426e-01 2.936573e-02 -2.222957e-02 
1.183073e+01 -1.629099e+00 -1.842978e+00 -5.070244e+00 -1.468462e+01 1.062862e+01 -8.262269e+00 -5.819329e+00 -5.888155e+00 -1.181873e+01 1.201064e+01 3.141788e+00 8.790172e-01 8.508722e-01 1.938045e+00 -5.487045e-01 -1.527658e-02 8.525854e-01 -2.355121e+00 1.017159e+00 -8.207464e-01 3.438872e-01 -2.409233e+00 -1.239125e+00 1.260971e-01 -1.206046e-02 
1.284066e+01 7.128014e-01 -3.789809e+00 -4.705721e+00 -1.219612e+01 5.885684e+00 -5.682060e+00 -7.277335e+00 -5.641469e+00 -1.409190e+01 9.823517e+00 3.710035e+00 8.867642e-01 8.860367e-01 1.788914e+00 -4.536970e-01 2.955523e-01 4.138700e-01 -2.830097e+00 2.301451e+00 -1.489900e+00 -3.292082e-01 -1.683996e+00 -2.246944e+00 3.067554e-01 -5.814028e-03 
1.381924e+01 1.798693e+00 -2.887681e+00 -6.454614e+00 -1.127113e+01 4.052219e+00 -3.257335e+00 -7.724102e+00 -7.525222e+00 -1.730257e+01 8.206303e+00 4.548758e+00 8.993961e-01 6.520373e-01 1.573705e+00 2.788863e-01 3.989403e-01 -1.225645e-01 -2.570239e+00 2.680474e+00 -1.585188e+00 -4.888377e-01 -3.904497e-01 -2.553140e+00 5.862002e-02 -1.041166e-02 
1.408620e+01 3.836966e+00 -3.207107e+00 -3.625190e+00 -1.423063e+01 1.269609e+00 2.065916e+00 -1.281456e+01 -8.545867e+00 -1.469182e+01 3.417347e+00 5.522562e+00 8.710772e-01 3.317443e-01 1.328088e+00 1.011832e+00 3.384301e-01 -8.889517e-01 -1.137558e+00 1.752711e+00 -2.531411e-01 -3.700100e-01 3.192430e-01 -2.750528e+00 -4.212468e-01 -2.301980e-02 
1.446815e+01 4.677346e+00 -7.398975e-01 -3.615808e+00 -1.428019e+01 8.545780e-02 1.266111e+00 -1.097666e+01 -6.880145e+00 -1.347102e+01 2.448021e+00 2.528625e+00 8.348023e-01 1.514895e-01 1.149098e+00 9.486390e-01 2.665150e-01 -5.955105e-01 -6.470362e-01 1.146374e+00 1.009820e+00 2.838400e-01 5.914734e-01 -3.056956e+00 -8.859480e-01 -3.054652e-02 
1.417493e+01 5.913913e+00 1.954570e-01 -4.432973e+00 -1.513635e+01 2.181272e+00 8.197732e-01 -6.916764e+00 -7.814057e+00 -1.441146e+01 -1.049982e+00 2.613868e+00 8.039621e-01 -9.851579e-02 9.922050e-01 8.155545e-01 -2.986622e-02 -4.267414e-01 4.480428e-01 -1.732366e-01 2.685613e+00 5.801449e-01 -1.262480e-01 -2.674874e+00 -1.172709e+00 -2.757310e-02 
1.453232e+01 6.505708e+00 1.542325e-01 -4.718148e+00 -1.379582e+01 3.612068e-01 3.097604e+00 -5.623901e+00 -6.471927e+00 -1.448538e+01 -4.844813e+00 1.573365e+00 7.802211e-01 6.071272e-02 5.081575e-01 5.206488e-01 6.926986e-01 -6.306601e-01 1.649832e-01 2.948139e-01 2.024552e+00 7.007586e-01 2.526174e-01 -3.162023e+00 -5.249395e-01 -2.490184e-02 
1.356153e+01 7.883811e+00 4.236009e-01 -3.223351e+00 -1.660652e+01 3.371948e+00 2.839861e-01 -2.062870e+00 -5.849252e+00 -1.481588e+01 -6.310602e+00 1.366444e-01 7.605023e-01 8.957877e-02 1.107052e-01 7.156935e-01 1.535884e+00 -9.094273e-01 -4.549053e-01 7.316333e-01 1.034413e-01 1.309442e+00 6.036650e-01 -1.942634e+00 -5.012732e-01 -2.321183e-02 
1.507841e+01 6.233184e+00 1.749274e+00 -7.571259e-01 -1.669840e+01 3.150358e-01 3.008075e+00 -3.280840e+00 -4.358755e+00 -1.200572e+01 -1.073178e+01 1.142538e+00 7.320230e-01 1.341894e-01 -4.039741e-01 1.273631e+00 1.441251e+00 -1.019674e+00 -5.211734e-01 5.776426e-01 -6.276234e-01 1.412876e+00 2.655339e-01 -5.730108e-01 -4.472094e-01 -1.980513e-02 
1.434978e+01 6.603701e+00 2.976403e+00 1.265934e+00 -1.823220e+01 -7.016873e-02 4.522705e+00 -7.571087e+00 -2.323432e+00 -1.263296e+01 -7.819664e+00 3.229152e-01 7.120020e-01 4.836817e-02 -1.023052e+00 1.753672e+00 6.627926e-01 -3.940565e-01 -1.560175e-01 3.654398e-01 -1.036288e+00 1.323168e+00 3.013186e-01 4.689954e-01 -4.156002e-01 -1.655558e-02 
1.480914e+01 5.125892e+00 5.245988e+00 2.434628e-01 -1.808135e+01 -5.236018e-01 3.866457e+00 -6.007909e+00 -1.170459e+00 -1.424917e+01 -6.955337e+00 -7.558180e-01 7.054456e-01 -6.757519e-01 -4.210505e-01 1.513609e+00 3.048040e-01 1.416010e-01 4.965035e-01 -9.333628e-01 -7.216690e-01 1.294193e+00 1.549343e-01 1.307222e+00 -1.389339e-01 -1.946940e-02 
1.393801e+01 3.322199e+00 7.443606e+00 -4.096830e-01 -1.788533e+01 3.011179e+00 1.681994e+00 -5.880774e+00 -8.275586e-01 -1.218756e+01 -5.853849e+00 -9.921783e-01 6.910131e-01 -9.574000e-01 3.516128e-01 2.601826e-02 2.044360e-01 3.730918e+00 -4.463123e-01 -7.233834e-01 1.074438e+00 -5.290778e-01 1.994405e+00 7.587563e-01 3.471567e-01 -5.052707e-02 
1.190554e+01 5.768682e+00 7.083716e+00 1.604702e+00 -1.616383e+01 1.256880e+00 -2.383845e-01 -7.734342e+00 1.364271e+00 -1.145375e+01 -5.178584e+00 1.105415e+00 6.451705e-01 -1.377389e+00 2.926666e-01 -1.894295e+00 1.183265e+00 6.949417e+00 2.314610e-01 -1.118119e-01 2.211182e+00 -7.394715e-01 3.840777e+00 1.385915e+00 1.288145e+00 -8.548919e-02 
1.101458e+01 8.040370e+00 2.187630e+00 1.607494e+00 -5.363655e-01 -3.191971e+00 2.958208e+00 -1.335680e+00 -6.236186e+00 -4.058649e+00 -4.914259e+00 1.128082e+00 4.895042e-01 -1.713409e+00 -2.087005e-01 -2.385617e+00 1.788015e+00 8.002993e+00 4.484611e-01 1.862595e+00 3.451129e+00 -1.949036e-01 3.609426e+00 6.006612e-01 3.389768e-01 -1.014716e-01 
9.383910e+00 4.230140e+00 -1.597499e+00 5.151201e+00 7.991251e+00 3.735278e+00 2.669291e+00 2.775455e+00 -2.163503e+00 8.902582e-01 -4.955592e-01 4.624776e+00 3.787541e-01 -1.681361e+00 -1.207234e+00 -2.016623e+00 1.266805e+00 6.955334e+00 2.189936e+00 3.167084e+00 3.165611e+00 -5.114815e-01 2.004187e+00 5.160068e-01 -2.664388e-01 -8.895181e-02 
6.631779e+00 3.047968e+00 -1.438737e-01 6.757144e+00 1.005210e+01 4.014285e+00 9.541132e+00 6.119972e+00 -3.818953e-02 -3.124330e-01 -5.192056e+00 -1.056975e+00 3.168634e-01 -1.801440e+00 -1.555086e+00 -8.576088e-01 8.923897e-01 2.695621e+00 2.085536e+00 2.873986e+00 1.362351e+00 6.964203e-01 7.570508e-01 5.123838e-01 -1.539071e-01 -6.535201e-02 
5.690132e+00 2.228715e+00 -1.833648e+00 5.363902e+00 1.331860e+01 8.603432e+00 1.230558e+01 4.365887e+00 -4.292135e+00 -3.305922e+00 -2.459652e+00 8.657502e-01 2.867318e-01 -1.725622e+00 -8.048835e-01 -8.267762e-01 -4.542480e-01 5.685954e-01 -8.217352e-01 1.461554e+00 9.227945e-01 1.378424e-01 3.280649e-02 9.057943e-01 -9.930752e-01 -5.031514e-02 
3.854273e+00 1.265651e+00 -1.982339e+00 5.963092e+00 1.027806e+01 4.801632e+00 1.250999e+01 4.680861e+00 -1.689768e+00 1.824695e+00 -1.370294e+00 2.238060e+00 2.087554e-01 -1.645894e+00 -9.375544e-01 -1.146202e+00 -1.504906e+00 -7.054974e-01 -1.951195e+00 -7.917675e-01 6.307881e-01 4.707020e-01 2.345329e-01 6.430587e-01 -7.511699e-01 -4.001122e-02 
2.144553e+00 1.096881e+00 -4.812147e+00 3.276988e+00 1.072124e+01 -7.670710e-01 8.492628e+00 8.108984e+00 -6.485013e-01 -1.427341e-02 2.122531e+00 -1.988117e+00 1.812325e-01 -2.052367e+00 -9.692613e-01 -1.266454e+00 -2.540976e+00 -2.438583e+00 -2.913031e+00 -2.730494e+00 1.588425e-01 5.493469e-01 -8.245246e-01 -2.503420e-01 -3.147375e-01 -3.273077e-02 
1.750975e-01 -1.073887e+00 -4.385635e+00 2.760730e-01 7.823288e+00 -1.056437e+00 7.488769e+00 7.402364e+00 4.935036e-01 -7.855926e-01 -4.267854e+00 -3.385890e+00 1.695570e-01 -2.321485e+00 -1.086047e+00 -1.394240e+00 -2.571909e+00 -2.773064e+00 -1.839379e+00 -2.549731e+00 -1.747973e+00 -1.086128e+00 -3.874326e-01 -1.907494e-01 -1.039357e+00 -2.296867e-02 
-2.732117e+00 -1.447822e+00 -6.964270e+00 -4.497470e+00 2.353078e+00 -3.032688e+00 1.163718e+00 3.799347e+00 -2.637036e+00 -6.123401e+00 -2.262582e+00 2.104038e+00 1.426771e-01 -1.713261e+00 -4.533140e-01 -6.589070e-01 -1.295591e+00 -2.380404e+00 -1.668448e+00 -1.697618e+00 -2.173516e+00 -1.760522e+00 1.407731e-01 -3.613373e-01 -8.732554e-01 -2.497253e-02 
-5.314818e+00 -2.892234e+00 -7.877479e+00 -3.009224e+00 5.968251e-01 -3.262452e+00 3.425798e+00 -1.904186e+00 -6.126139e+00 2.942096e+00 -1.314843e-01 -5.004804e+00 1.131897e-01 -6.769451e-01 2.255435e-01 2.105784e-01 1.021326e+00 5.202098e-01 -9.021945e-01 -6.983929e-01 -1.198447e+00 -1.608833e+00 -1.500352e-01 1.278531e-01 -1.580701e+00 -2.386740e-02 
-3.676794e+00 -2.605156e-01 -6.360761e+00 -1.558318e+00 2.432454e+00 -8.006304e+00 2.036023e+00 1.894681e+00 -6.141293e+00 -1.174252e+00 -1.752340e+00 -5.544938e+00 8.455342e-02 1.252245e-01 1.078484e+00 1.542917e+00 2.353049e+00 1.648197e+00 5.855490e-01 5.229777e-01 3.361433e-01 2.257069e-01 7.040520e-01 -1.009336e+00 -1.952759e+00 -2.022679e-02 
-2.737290e+00 -5.398225e-01 -3.634498e+00 3.913126e+00 1.038465e+01 -3.080602e+00 3.560652e+00 2.362465e+00 -5.798535e+00 -4.010343e+00 -3.883709e+00 -7.464908e+00 7.928181e-02 3.887277e-01 1.644220e+00 1.842193e+00 2.285451e+00 1.910328e+00 1.758003e+00 -1.748410e-01 3.575381e-01 7.770584e-01 -6.068452e-01 -1.357905e+00 5.281096e-01 -1.274620e-02 
-3.394759e+00 2.768391e+00 -1.371175e+00 3.806600e+00 5.700151e+00 -1.958680e-01 3.711180e+00 3.346738e+00 -1.672304e+00 8.730787e-01 -5.433151e+00 -6.429708e+00 5.849713e-02 -4.589311e-01 7.213365e-01 1.186345e+00 6.641892e-01 5.539581e-01 1.460614e+00 1.189014e+00 9.674047e-01 1.880069e+00 1.769448e+00 -3.987073e-01 1.817641e+00 -1.398304e-02 
-3.512197e+00 3.814412e+00 -1.161305e+00 5.735573e+00 8.514616e+00 1.622342e+00 1.714014e+00 -8.425243e-01 -4.475341e+00 -1.115795e+00 -5.080604e+00 -1.921871e+00 6.248683e-02 -5.629243e-01 6.760956e-01 7.492557e-01 -9.033135e-01 -8.110785e-01 8.795473e-01 8.864659e-01 6.178845e-01 7.796902e-01 1.766535e+00 -3.081814e-01 1.201482e+00 -1.512979e-02 
-5.583995e+00 1.169050e+00 -1.665633e+00 8.514042e-01 6.137261e+00 -3.054705e+00 8.904413e+00 8.334200e+00 2.597453e+00 6.225715e+00 -3.147429e+00 7.717518e-01 2.303571e-02 -4.833093e-01 3.245533e-01 8.974385e-01 -2.516174e-01 4.455670e-01 1.056218e-02 7.872990e-01 5.282729e-01 -4.474767e-01 -4.373136e-01 3.280098e-01 7.467500e-01 -1.488858e-02 
-4.457293e+00 3.640326e+00 2.590094e-01 8.741561e-01 6.110702e+00 2.746553e+00 5.396365e+00 2.958157e+00 -4.034962e+00 2.146012e+00 -6.567477e+00 -5.058229e+00 2.136356e-02 -5.721177e-01 1.794391e-01 4.989448e-01 -2.366864e-01 1.568493e-01 -7.875504e-01 1.502088e-01 -8.684395e-02 7.763394e-01 3.772149e-01 2.312378e-01 5.162884e-02 -1.358557e-02 
-5.338757e+00 4.478200e+00 2.405861e+00 4.979221e+00 9.129943e+00 -7.051623e-01 5.806500e+00 4.087762e+00 -4.129877e+00 -2.944393e+00 -3.049666e+00 -1.127779e+00 4.615843e-03 -3.574826e-01 -1.054924e-01 -3.874541e-01 -4.735608e-01 4.027619e-01 -1.806323e-01 -1.344559e+00 -1.655439e+00 2.063675e-02 -1.390314e-01 1.223419e+00 8.807067e-01 -9.023517e-03 
-6.495405e+00 3.057032e+00 -7.023284e-01 2.488232e+00 7.802522e+00 -3.490181e+00 4.014015e+00 8.464748e-01 2.770021e+00 5.355332e+00 -3.973297e+00 -7.139615e-01 3.768921e-03 -6.852812e-01 -7.567202e-01 -6.423985e-01 -9.853295e-01 -3.336911e-01 -9.813984e-01 -1.373860e+00 -1.288806e+00 7.835373e-01 6.306868e-01 7.929338e-01 2.685513e-01 -1.145957e-02 
-6.352353e+00 9.332346e-01 -3.122235e+00 -2.323438e+00 7.305161e+00 -8.394990e-01 2.872791e+00 1.112844e+00 -7.018553e-01 3.925898e+00 1.672577e+00 3.003151e+00 -1.328456e-02 -2.709320e-01 -8.311185e-01 -6.288012e-01 -7.746493e-01 -9.442785e-01 -1.524406e+00 -1.532194e+00 -1.827072e+00 -6.122004e-01 5.293221e-01 -7.138205e-01 4.653498e-01 -9.524679e-03 
-7.376901e+00 1.629208e+00 -1.889353e-01 -4.011621e-01 5.354637e+00 -2.093271e+00 -6.080389e-03 -1.998415e+00 -1.831287e+00 1.864301e+00 -4.963930e+00 -5.780938e+00 -2.698410e-02 1.551895e-01 5.708145e-01 1.039415e+00 1.140590e+00 6.626584e-02 -1.612415e+00 -1.121793e+00 -6.981558e-01 -1.615212e+00 -1.632926e-01 1.670156e-01 7.488538e-01 -3.200710e-03 
-6.252669e+00 1.036520e+00 -9.948413e-01 2.550672e+00 5.632493e+00 -9.025649e+00 1.555800e-01 -3.625152e+00 -4.890225e+00 1.447734e+00 -6.123451e+00 3.732459e+00 -2.763104e-02 2.321501e-02 1.114917e+00 1.709275e+00 2.168559e+00 4.378963e-01 -1.547414e+00 -4.535338e-01 1.064205e+00 8.026517e-01 1.001036e+00 -8.457322e-01 5.206126e-01 6.292820e-03 
-5.769299e+00 5.859462e+00 3.431052e+00 5.754127e+00 8.970185e+00 -7.459182e+00 -2.363460e-01 -2.753056e-01 -3.211856e+00 5.777952e+00 7.597961e-01 2.665654e+00 -5.061388e-03 3.153861e-01 1.087001e+00 1.161291e+00 1.463920e+00 9.038242e-01 5.635144e-01 3.906918e-01 2.161469e+00 1.282647e+00 1.730954e-01 -7.177376e-01 5.667645e-01 1.033372e-02 
-7.040079e+00 4.392690e+00 3.614146e+00 5.441712e+00 7.686868e+00 -5.893611e+00 7.202547e-01 5.572316e+00 4.001688e+00 6.974255e+00 -5.417947e+00 1.382919e+00 7.218182e-03 1.163492e-01 5.107482e-01 -1.962890e-01 8.634748e-02 1.419735e-03 2.351837e+00 1.163682e+00 2.566165e+00 6.765329e-01 -6.092268e-01 -1.229977e-01 -8.459415e-02 1.607208e-02 
-5.406266e+00 5.386129e+00 3.313024e+00 5.472917e+00 8.846570e+00 -8.417177e-01 1.665041e+00 4.210196e+00 1.359899e-01 -3.348255e-02 -8.905371e+00 -1.772345e+00 7.259905e-03 1.981066e-01 -5.823603e-01 -1.358533e+00 -4.474824e-01 -6.373447e-01 1.652074e+00 3.527619e-01 7.889555e-01 3.912758e-01 -1.333956e+00 -7.547695e-01 4.407720e-01 1.207343e-02 
-5.852439e+00 3.826927e+00 -1.917272e+00 3.123014e+00 5.701399e+00 -5.751987e-01 5.023294e+00 6.962922e+00 -3.181483e+00 1.307317e+00 -1.905856e+00 5.528487e+00 4.656869e-02 -4.919071e-02 -6.756687e-01 -9.670782e-01 -7.277806e-01 -4.481669e-01 1.815084e+00 9.405618e-01 -8.658994e-01 -9.252690e-01 -1.255298e+00 1.065375e+00 2.180907e-01 -2.949488e-03 
-5.372586e+00 3.230542e+00 -5.959036e-01 4.676064e+00 6.776196e+00 -1.858020e+00 -6.240566e-01 2.974169e+00 2.336109e+00 1.941640e+00 -4.770097e+00 2.796730e+00 3.563052e-02 -5.490686e-01 -6.315597e-01 -3.413879e-01 -1.337713e-01 5.801398e-01 4.543259e-01 -1.241658e-01 -8.122367e-01 1.100024e+00 4.855699e-01 1.343296e+00 6.120961e-01 -1.312130e-02 
-7.302872e+00 2.092139e+00 7.332184e-01 2.201236e+00 6.481221e+00 3.689962e+00 6.567612e+00 1.860833e+00 -1.724717e+00 -2.897999e-01 -2.158707e+00 1.888350e-01 -2.171457e-02 -3.378221e-01 7.893267e-02 1.147623e+00 6.355190e-02 1.225828e+00 -1.236893e-01 -4.750810e-01 -7.797387e-01 1.403664e+00 1.179508e+00 5.119829e-01 -1.583124e+00 -1.652917e-02 
-7.426392e+00 3.095724e+00 2.808390e-01 5.264949e+00 1.135736e+01 -7.026687e-01 2.720535e-01 2.700058e+00 4.907725e+00 3.192925e+00 -2.062466e+00 3.957962e+00 -2.420497e-02 -1.495897e-01 4.313775e-01 1.060600e+00 -2.114372e-01 8.586267e-01 -5.287884e-01 1.280005e-01 1.794681e-01 4.705588e-01 1.614416e+00 9.599630e-01 -1.468554e+00 -6.802476e-03 
-6.514647e+00 4.289000e+00 3.382470e+00 3.146331e+00 9.539960e+00 -1.771321e+00 2.199835e+00 3.201284e+00 2.551029e+00 6.579215e+00 -6.997571e-01 -2.967749e+00 -6.159425e-03 2.488195e-01 5.586995e-01 8.400135e-01 -2.284294e-02 4.300080e-01 -1.199122e+00 -6.807774e-01 3.182128e-01 6.194797e-01 1.712432e+00 4.280609e-01 -1.323888e+00 4.915583e-03 
