-7.619774e+00 7.936095e-01 -2.833590e+00 -5.288811e+00 2.454772e+00 -7.739656e+00 -3.260752e+00 5.896538e+00 6.708940e+00 2.256775e-01 -2.346324e+00 -5.040257e+00 4.422635e-02 7.951736e-04 -1.005739e-01 5.040787e-01 3.949681e-01 -3.119389e-01 2.016771e+00 1.405969e+00 -1.314350e+00 -2.062253e+00 5.092396e-01 1.712126e+00 2.243919e+00 -2.085960e-03 
-6.730379e+00 1.776477e+00 8.268235e-01 -3.741713e+00 1.942214e+00 -1.041740e+00 -9.016609e-01 1.443331e+00 3.920674e+00 2.678389e+00 -3.647914e-01 -4.593122e-01 2.725559e-02 2.275524e-02 -1.760103e-01 4.835446e-01 3.502298e-01 -5.238994e-01 2.181955e+00 2.131771e+00 -1.016532e+00 -2.675827e+00 2.977588e-01 1.988429e+00 2.552343e+00 -1.142907e-03 
-8.060495e+00 -2.006938e-01 -2.143403e+00 -4.087520e+00 1.151356e+00 -1.004759e+00 2.589549e+00 1.551394e+00 -2.208195e+00 1.545520e+00 5.223541e+00 3.888867e+00 4.228193e-02 -2.433298e-01 -5.373738e-01 -2.463251e-01 -1.701128e-01 -5.623392e-01 1.014386e+00 1.883605e+00 1.354244e-01 -6.738328e-01 1.382262e+00 1.820331e+00 2.266452e+00 -1.558477e-03 
-7.285637e+00 4.107096e-01 -7.609603e-01 -4.138308e+00 4.869828e-01 -1.973290e-01 4.472953e+00 2.986449e+00 -2.211628e+00 1.054550e+00 3.810887e+00 3.256898e+00 3.948402e-02 -1.615044e-01 -2.186360e-01 -7.408118e-01 -4.234076e-01 6.365456e-02 2.459691e-02 5.112609e-01 5.600730e-01 4.342008e-01 -4.109464e-02 3.487480e-01 -1.576445e-01 2.576256e-03 
-8.558794e+00 -1.210376e+00 -3.271323e+00 -5.941077e+00 3.706915e-01 -3.089932e+00 3.469966e+00 5.802101e+00 6.405927e+00 7.948909e+00 4.667492e+00 4.433900e+00 3.031975e-02 -9.534092e-02 4.325613e-01 1.853987e-01 -7.385129e-01 -2.871782e-01 -4.679748e-01 -5.396131e-01 -8.880500e-02 2.713875e-01 1.639546e-01 -1.022087e-01 -1.261431e+00 4.195756e-03 
-7.288752e+00 1.188138e+00 -2.313275e+00 -4.931972e+00 2.650820e+00 1.238315e-01 1.214435e+00 2.118342e+00 1.784617e+00 -7.287791e-01 1.656973e+00 -1.520051e+00 4.611796e-02 -2.369415e-01 7.993422e-02 -8.916561e-02 -3.795146e-01 -7.821672e-02 -1.031745e+00 -1.319244e+00 -9.710118e-01 -1.157718e-01 -4.301269e-01 -1.537311e-01 -1.417998e+00 6.116462e-03 
-8.535643e+00 1.573398e+00 -4.402519e-01 -7.383253e+00 -1.366453e+00 -3.505213e+00 1.520742e+00 1.541422e+00 -2.849380e+00 3.256958e+00 5.789454e+00 -2.981234e-02 5.994374e-02 3.415184e-02 2.099762e-01 9.339054e-02 -4.429248e-01 -9.050583e-01 -4.962339e-01 -4.463544e-01 -6.388141e-01 -1.022137e+00 -6.199970e-01 -7.312657e-01 -1.611877e+00 3.674906e-03 
-8.481920e+00 -5.815065e-01 -2.622324e+00 -5.314793e+00 9.644716e-01 -5.148414e+00 -1.148654e+00 2.617293e-01 1.837166e+00 1.249891e+00 2.481251e+00 -1.601235e+00 5.525434e-02 -2.030432e-01 -1.623279e-01 -2.527905e-01 1.034391e-01 -3.832283e-02 -1.892019e-02 8.105410e-01 1.886530e-01 3.894613e-01 1.314309e+00 -2.841351e-01 3.259773e-01 2.633858e-03 
-7.791451e+00 7.243268e-01 -2.649846e+00 -7.964291e+00 -3.311426e+00 -2.934979e+00 2.419739e+00 3.536336e+00 1.268968e+00 3.859589e+00 5.990248e-01 -3.584895e+00 4.412609e-02 2.585852e-01 2.541766e-01 -3.767002e-01 7.552989e-01 1.196589e+00 1.544785e+00 8.900883e-01 9.778333e-01 1.166461e+00 5.375208e-01 -1.665242e+00 -9.280798e-01 5.777341e-03 
-8.676064e+00 8.010341e-01 -2.472431e+00 -4.124257e+00 3.431692e+00 -2.558864e-01 4.817642e+00 2.064150e+00 1.672749e+00 5.541451e+00 2.831512e+00 1.887377e+00 6.719607e-02 4.335133e-01 -6.166448e-02 6.328965e-01 6.622546e-01 6.194533e-01 9.281669e-01 6.637706e-01 1.848970e+00 7.673919e-01 6.186917e-01 1.127632e-01 -1.036844e-02 1.051164e-03 
-7.145645e+00 2.153011e+00 -2.398699e+00 -4.202025e+00 3.382879e+00 1.772448e+00 2.988035e+00 5.529378e+00 3.065134e+00 3.798782e+00 -2.711888e+00 -6.414517e+00 8.285958e-02 6.217896e-01 -6.870689e-01 1.283939e+00 1.548906e+00 9.126154e-01 3.771933e-01 -3.184245e-01 7.767321e-01 4.410607e-01 -3.504891e-01 4.167234e-01 1.460599e-01 1.695770e-03 
-6.637257e+00 -1.604171e+00 4.165853e-01 -3.884653e+00 7.145851e-01 -2.861293e+00 1.886050e+00 8.510060e+00 4.776043e+00 4.373753e+00 4.700523e+00 -2.382656e-01 4.114342e-02 9.203249e-01 2.266221e-01 1.050753e+00 1.088135e+00 3.256812e-01 3.610863e-01 -5.520882e-01 1.295748e-01 -9.353068e-01 -4.475420e-01 3.143696e-01 -2.800084e-01 -7.167041e-04 
-5.701906e+00 -1.508415e+00 2.325342e+00 -3.395643e-01 2.610204e+00 2.536912e-01 2.293412e+00 4.197042e+00 1.922625e+00 2.690992e+00 1.748136e+00 -1.791774e+00 6.563127e-02 1.081858e-01 6.097585e-01 6.088489e-01 -3.120232e-03 1.644265e-01 6.745740e-01 -1.041533e-02 -1.401707e+00 -1.001218e+00 -1.132759e-01 1.459148e-01 4.248261e-01 -4.887122e-03 
-4.796309e+00 3.764857e+00 4.193155e-01 -6.148109e-01 5.446435e+00 2.308923e+00 2.404513e+00 3.378192e+00 -2.432531e+00 3.857635e+00 2.173348e+00 -1.824037e+00 7.222670e-02 -4.556023e-01 1.047479e+00 -5.431909e-01 -1.162053e+00 8.533611e-01 1.313080e+00 7.759440e-02 -1.250452e+00 -9.659113e-01 6.674377e-01 4.814382e-01 1.227225e-01 -2.153575e-03 
-7.525190e+00 2.517289e+00 6.441804e-01 -5.852548e+00 1.839086e+00 2.560210e+00 2.676727e+00 1.086779e+00 1.663332e+00 3.490461e+00 -7.187265e-01 -3.497501e+00 4.288232e-02 -1.011691e+00 -3.329455e-02 -1.413220e+00 -1.788655e+00 -3.323320e-01 3.193903e-02 1.628948e-01 6.429069e-02 -2.947349e-02 4.255378e-01 1.192659e+00 4.071878e-01 -4.308724e-03 
-8.003626e+00 1.620373e+00 -1.458789e+00 -6.938426e+00 5.366950e+00 2.550845e+00 2.082364e+00 3.812933e+00 7.613325e-02 7.311207e+00 8.341146e+00 1.228210e+00 4.175001e-02 -7.237375e-01 -1.577524e+00 -9.746304e-01 -4.627586e-01 -8.128066e-01 -1.400915e+00 -7.848751e-01 3.442824e-01 3.950674e-01 -6.644374e-01 5.230289e-01 1.118283e-01 -9.094519e-03 
-9.156704e+00 -6.026457e-01 -3.801704e+00 -6.121032e+00 9.882870e-01 2.924254e-01 3.268960e+00 4.301125e+00 5.209256e-01 3.091896e+00 4.627533e+00 -1.281958e+00 5.932599e-02 -2.377775e-01 -1.066525e+00 -5.154986e-01 9.103583e-01 -2.183811e-01 -1.172292e+00 9.922982e-01 9.340014e-01 5.179311e-01 -3.050537e-02 7.607049e-01 -6.382834e-01 -4.362887e-03 
-7.599239e+00 -2.562797e+00 -2.230894e+00 -2.794362e+00 1.807802e+00 -3.561757e+00 -1.815979e+00 3.492431e+00 1.140088e-01 7.347316e-01 2.115362e+00 -2.372666e+00 1.853228e-02 3.646813e-02 -9.533113e-01 3.021829e-02 6.212127e-01 -1.181575e+00 -9.598265e-01 1.353017e+00 3.279133e-01 6.053023e-01 3.209329e-01 4.861493e-02 -1.089671e+00 -3.584111e-03 
-8.916271e+00 -7.237531e-01 -1.547260e+00 -3.372788e+00 2.526754e+00 -2.449511e-01 9.587391e+00 5.917037e+00 4.234049e+00 6.626172e+00 6.197690e+00 -4.888480e+00 3.267676e-02 1.322030e+00 -3.347686e+00 1.483582e+00 1.297242e+00 -1.866485e+00 4.598399e-01 1.673527e+00 -9.766339e-01 -2.149792e-02 -4.273510e-03 -4.905173e-01 -1.086503e+00 7.605024e-02 
-7.941502e+00 -3.085629e+00 -2.434919e+00 -5.206485e+00 -1.310160e+00 -1.979599e+00 5.688233e+00 4.644544e+00 1.246083e+00 7.148733e+00 7.799142e+00 -2.416883e+00 3.715408e-02 1.078373e+00 -3.114624e+00 1.810163e+00 4.271556e-01 -3.397180e+00 -1.035993e-01 7.875963e-01 -2.070215e+00 -9.241544e-01 -5.838456e-01 -1.074723e+00 -8.689387e-01 2.296199e-01 
-2.375421e+00 -1.707966e+01 3.718220e+00 1.571239e+00 -6.785155e+00 1.800546e+00 7.884487e+00 -1.158101e+00 -1.526010e-01 -1.364725e-01 -6.669433e-01 -6.692366e+00 4.302663e-01 1.531589e-01 -1.175989e+00 2.404243e+00 -1.776492e-01 -3.686036e+00 -1.132326e+00 -1.878620e+00 -1.861754e+00 -1.011969e+00 -1.983431e+00 -2.413455e+00 1.381159e-04 2.865329e-01 
-5.477799e+00 -9.957962e+00 4.187180e+00 -3.130597e+00 -1.052214e+01 -5.102502e+00 2.973454e+00 -3.321075e+00 -2.313438e+00 1.196826e+00 1.740622e-01 -5.815417e+00 9.678369e-01 -1.413407e+00 1.580620e+00 2.252658e+00 8.307395e-02 -1.110145e+00 -9.882292e-01 -3.420570e+00 -1.213707e+00 1.233265e+00 -2.380682e+00 -2.627837e+00 6.971283e-01 2.416599e-01 
-9.382328e+00 -3.167533e+00 7.162906e+00 -5.298978e+00 -1.129743e+01 -4.345130e+00 1.551679e+00 5.910774e-01 9.539655e-01 -3.150281e-01 -2.057049e+00 -3.188522e+00 1.000000e+00 -1.921484e+00 3.222011e+00 9.321974e-01 9.162961e-01 1.758805e+00 -8.884861e-01 -2.788499e+00 1.283443e+00 2.091272e+00 -1.299196e+00 -1.172289e+00 1.593854e+00 9.984164e-02 
-1.150508e+01 -2.138592e+00 7.106028e+00 -1.356007e+00 -4.604744e+00 -3.847907e+00 -8.248214e+00 -2.298582e+00 6.859127e+00 -4.665400e+00 -4.644992e+00 -6.831635e-01 9.605869e-01 1.279697e-02 1.373831e+00 5.857033e-01 3.328578e+00 3.119563e+00 9.302988e-01 -7.157204e-01 2.451335e+00 1.675052e+00 -1.202880e+00 -5.301968e-01 3.892460e-01 -3.267208e-02 
-8.969200e+00 -4.879292e+00 6.919783e+00 5.265424e+00 -9.498286e-01 -3.269183e+00 -4.471719e-01 4.747867e+00 5.717479e+00 -3.701337e+00 -4.118860e+00 -1.289222e+00 9.330994e-01 1.521224e+00 -2.270470e-02 1.768661e-01 3.752339e+00 3.044731e+00 -1.741166e-02 -3.181920e-01 2.202135e+00 1.291882e+00 -9.531461e-01 9.299343e-01 -2.920641e-01 -6.450038e-02 
-5.620378e+00 -2.232925e+00 7.237257e+00 8.230091e+00 -9.813237e-02 -9.889816e-01 3.942776e-01 6.857207e+00 3.680068e+00 -3.124420e+00 -1.446016e+00 -4.818837e+00 8.379267e-01 1.887997e+00 -1.035316e+00 4.356915e-01 2.231425e+00 1.413600e+00 -5.331284e-01 3.220166e-01 2.331348e+00 4.993158e-01 7.702032e-01 6.705515e-01 -1.094880e+00 -6.471658e-02 
-4.718562e+00 -3.233890e+00 7.981622e+00 8.669670e+00 1.672916e+00 -5.861650e+00 -4.360527e+00 7.023857e+00 9.002907e+00 -5.851249e+00 9.931348e-01 -2.581006e+00 7.388282e-01 3.473690e+00 -1.163475e-01 -5.240063e-01 7.972640e-01 1.618770e-01 -1.131560e+00 -1.756864e+00 -5.944709e-01 -1.342867e+00 4.042244e-01 9.727168e-02 -2.974560e-01 -5.350783e-02 
-4.190414e+00 -8.137871e+00 8.753566e+00 8.098993e+00 1.151882e+00 -5.217315e+00 -4.681453e+00 8.220161e+00 7.712992e+00 2.605720e-01 -3.848232e+00 -5.511669e+00 7.341396e-01 4.844031e+00 -5.705875e-01 -1.899509e+00 1.158802e+00 -1.853631e+00 -1.439074e+00 -2.707114e+00 -3.397603e+00 -1.348360e+00 1.285782e-01 -1.770362e+00 1.553006e+00 2.077591e-02 
7.684268e+00 -2.508556e+00 3.541597e+00 9.317293e+00 -7.654505e-01 -6.812814e+00 -6.693626e+00 1.094035e+00 -3.013317e+00 -3.372711e+00 -2.431394e+00 -2.430086e+00 7.174538e-01 5.262801e+00 -2.286448e-01 -2.429215e+00 2.001021e+00 -3.883301e+00 -2.049346e-01 -2.233466e+00 -4.823142e+00 -1.252900e+00 1.425209e-02 -2.764378e+00 2.204874e+00 6.781721e-02 
1.239836e+01 -5.448529e+00 -4.027846e-02 1.370029e+01 -8.147102e+00 -7.708771e+00 -1.197474e+01 -7.165894e+00 2.946380e+00 -3.720798e+00 -8.585559e+00 2.870734e+00 9.524935e-01 4.785626e+00 9.169898e-02 -2.555375e+00 1.615771e+00 -2.641246e+00 -6.482962e-01 -2.197879e+00 -4.484896e+00 -1.368835e-01 -8.639367e-01 -2.164637e+00 2.522239e+00 7.244559e-02 
1.330106e+01 -5.721785e+00 2.324675e-01 1.587413e+01 -1.309410e+01 -5.640595e+00 -1.188122e+01 -9.398825e+00 5.121714e+00 -3.789303e+00 -1.046009e+01 4.252163e+00 9.687373e-01 2.207050e+00 -5.999553e-01 -1.105495e+00 5.404337e-01 -1.526065e+00 7.197355e-01 -2.285467e+00 -2.381725e+00 1.780051e+00 -9.572364e-01 -1.263853e+00 1.134017e+00 4.966185e-02 
1.692932e+01 -6.072762e+00 -2.368742e+00 1.289943e+01 -5.890025e+00 -9.044906e+00 -1.307705e+01 -8.957889e+00 2.961058e+00 -3.850815e+00 -1.065707e+01 3.758402e+00 9.707258e-01 1.145741e+00 4.369074e-01 -1.581251e-01 -6.888445e-01 -3.726195e-01 1.363006e+00 -4.764580e-01 -1.499016e+00 -2.111517e-01 2.269410e-01 1.049288e-01 -1.713109e-02 -4.755646e-03 
1.645404e+01 -5.196217e+00 -8.216455e-01 1.241989e+01 -9.524311e+00 -2.546069e+00 -1.756981e+01 -9.918591e+00 5.879600e+00 -8.093884e+00 -7.714907e+00 2.796163e+00 9.566469e-01 4.245003e-01 1.172309e+00 3.656877e-01 -1.795598e+00 8.714046e-02 1.365880e+00 6.084174e-01 -1.944458e+00 -5.867966e-01 5.499896e-01 8.401023e-01 -2.035602e-01 -1.447987e-02 
1.655057e+01 -3.526777e+00 -3.038475e-01 1.198319e+01 -1.179509e+01 -2.441005e+00 -1.151274e+01 -1.440109e+01 1.511679e+00 -4.338022e-01 -9.433509e+00 3.513079e+00 9.347605e-01 -2.021878e-01 1.263911e+00 7.672206e-01 -1.319458e+00 -9.919802e-01 2.155856e+00 5.277553e-01 -1.639572e+00 -1.134599e-01 6.518354e-02 1.163512e+00 -8.044996e-02 -1.962177e-02 
1.561293e+01 -1.133231e+00 1.028459e+00 7.354260e+00 -9.705862e+00 -2.113144e+00 -9.621286e+00 -1.639952e+01 2.912420e+00 -2.747862e+00 -6.871362e+00 3.357024e+00 9.143206e-01 -3.504047e-01 2.822860e-01 1.145718e+00 -2.964275e-01 -3.737192e-01 6.575898e-01 4.285930e-01 -2.477852e-01 -8.336638e-01 2.389999e-01 7.538924e-01 4.153379e-01 -1.893759e-02 
1.633894e+01 -1.784702e+00 5.423083e-01 8.834955e+00 -1.075915e+01 1.517914e+00 -1.441254e+01 -1.391529e+01 3.877348e+00 -6.197909e+00 -5.261280e+00 3.075721e+00 8.937801e-01 -2.413114e-01 -2.359717e-02 5.593966e-01 2.565286e-01 3.714424e-01 -1.592426e-01 -2.111138e-01 8.617402e-01 -1.091112e+00 -6.117991e-01 1.243226e+00 6.794176e-02 -2.037498e-02 
1.480783e+01 -4.655824e+00 4.483867e+00 1.251187e+01 -1.191088e+01 -1.237580e+00 -1.397694e+01 -1.140042e+01 5.284463e-01 -4.016831e+00 -6.031559e+00 5.091531e+00 8.824492e-01 -1.099960e-01 2.422958e-01 7.304167e-02 7.721747e-01 -1.702671e-02 -8.585453e-03 3.776539e-01 1.264252e+00 -1.955166e+00 3.449032e-01 9.338012e-02 7.227669e-01 -2.717979e-02 
1.574657e+01 -1.883466e+00 7.654318e-01 1.068703e+01 -8.835373e+00 -3.675000e+00 -1.039048e+01 -1.259194e+01 -2.751893e+00 -2.858313e+00 -3.637280e+00 2.985534e+00 8.488213e-01 -2.254183e-01 1.002109e+00 4.302893e-02 -5.611982e-01 6.742983e-01 3.680348e-03 2.002927e+00 -3.991146e-01 -1.631076e+00 7.872766e-01 4.211059e-01 4.482486e-01 -3.450543e-02 
1.535914e+01 1.276301e-01 1.282105e+00 1.028910e+01 -1.075288e+01 4.403858e-01 -9.744046e+00 -1.073993e+01 -3.548789e+00 -2.693144e+00 -7.216461e+00 7.015952e+00 8.009011e-01 7.053490e-02 2.066103e+00 -3.522965e-01 -2.164572e+00 8.387602e-01 9.558134e-01 2.110158e+00 9.103794e-02 -1.781393e+00 -3.024534e-01 1.206522e+00 3.441286e-03 -4.311277e-02 
1.493619e+01 8.341138e-01 2.358334e+00 7.140349e+00 -7.966656e+00 6.973326e-01 -6.514350e+00 -1.624110e+01 -2.239413e+00 -2.923369e+00 -2.563300e+00 4.354753e+00 7.620270e-01 -6.933770e-02 2.317986e+00 2.150830e-01 -2.230628e+00 1.782800e-01 1.218922e+00 1.611948e+00 1.139117e+00 -1.839046e+00 -1.231853e+00 1.373832e+00 1.103951e-01 -4.554535e-02 
1.556570e+01 4.315901e+00 1.925933e+00 3.462346e+00 -8.151438e+00 1.355321e+00 -5.364215e+00 -9.120645e+00 -8.634758e+00 -5.496570e+00 -5.359415e-01 4.424128e+00 7.102824e-01 1.879691e-01 2.119291e+00 -5.319147e-02 -2.540211e+00 5.414109e-01 1.115775e+00 1.935195e+00 4.847392e-01 -2.623580e+00 -1.170894e+00 1.602990e+00 -3.584085e-01 -4.186811e-02 
1.529660e+01 7.612331e+00 1.518933e+00 2.947258e+00 -9.244698e+00 1.962142e+00 -4.520652e+00 -7.705996e+00 -9.404136e+00 -7.615867e+00 -1.083820e-01 4.833422e+00 6.664039e-01 1.394185e-01 2.283351e+00 1.267320e-01 -2.217349e+00 6.252565e-02 1.480914e+00 1.895563e+00 1.928069e-01 -2.576284e+00 -7.602831e-01 2.735514e-01 -7.826423e-03 -4.217041e-02 
1.611878e+01 7.334978e+00 1.435848e+00 -3.154140e-01 -7.406809e+00 5.386855e+00 -1.064920e+00 -1.258379e+01 -1.308433e+01 -6.201367e+00 -4.289688e-01 4.984575e+00 6.393721e-01 -9.169857e-01 1.387564e+00 5.259412e-01 -1.063972e+00 1.695664e+00 4.345889e-01 1.904702e+00 2.660404e-01 -9.698904e-01 -4.656472e-02 -5.570550e-02 -3.617972e-01 -7.062782e-02 
1.535674e+01 1.074133e+01 3.237036e+00 -2.057517e+00 -8.026342e+00 6.086138e+00 8.138180e-01 -1.354550e+01 -1.289605e+01 -6.372386e+00 -1.249029e+00 4.035398e+00 5.866301e-01 -1.746526e+00 -2.922214e-01 6.627221e-01 -1.337297e-01 3.571974e+00 4.108621e-01 1.564317e+00 1.942178e+00 5.496165e-01 3.814378e-01 7.964012e-01 -4.633940e-01 -9.254418e-02 
1.095070e+01 9.689222e+00 3.696588e+00 6.448727e-01 -2.822969e-01 1.466268e+00 1.492058e+00 -4.870691e+00 -1.173825e+01 -6.351134e+00 -2.441455e-01 3.014154e+00 3.970302e-01 -1.953147e+00 -2.093354e+00 -9.739466e-01 2.980627e-01 4.756584e+00 7.466329e-01 1.259923e+00 3.733853e+00 2.746966e+00 8.540462e-01 1.238870e+00 -7.345697e-01 -9.157827e-02 
9.148014e+00 4.974102e+00 3.702174e+00 1.798467e+00 5.052917e+00 5.976747e+00 2.022445e+00 -1.851655e+00 -7.329090e+00 -5.633795e+00 3.781212e+00 3.501662e+00 3.248539e-01 -1.383084e+00 -3.694171e+00 -2.298169e+00 3.960728e-01 4.802280e+00 6.581407e-01 4.720685e-01 2.399083e+00 2.169688e+00 9.786438e-01 6.951540e-01 -5.668924e-01 -5.589005e-02 
9.457411e+00 -2.481769e-01 -3.666453e+00 -7.530923e-01 9.836480e+00 9.174715e+00 4.630383e+00 2.385540e-01 -2.132975e+00 -2.300432e+00 3.250263e+00 1.578595e+00 3.123689e-01 -9.889725e-01 -3.717565e+00 -2.852186e+00 -1.058695e+00 1.742696e+00 4.620350e-01 -1.084778e+00 -6.555841e-02 -6.266507e-01 -1.413279e-01 -3.606162e-02 -1.556302e+00 -5.849338e-03 
9.187963e+00 -2.760824e+00 -4.572287e+00 6.218300e-01 1.092567e+01 5.522617e+00 1.604998e+00 -4.104707e+00 -6.850249e+00 -3.504518e+00 4.795371e-01 1.918715e+00 3.495106e-01 -5.898519e-01 -1.742670e+00 -1.658841e+00 -1.375322e+00 -5.621768e-01 -5.674309e-01 -1.360611e+00 -5.680510e-01 -2.348655e+00 2.963328e-01 2.779347e-01 -1.513747e+00 5.271727e-03 
5.985859e+00 -5.031141e+00 -6.427114e+00 -4.060285e+00 5.494805e+00 4.003508e+00 -3.723109e+00 -4.071957e+00 -1.511093e+01 -8.122412e+00 1.226384e+00 -3.975882e+00 3.554552e-01 -5.753466e-01 1.583197e-01 -5.003422e-01 -1.050709e+00 -9.049819e-01 -3.064685e-01 1.007483e+00 7.905864e-01 -5.795289e-01 5.325812e-01 -2.352757e-01 -9.135135e-01 -1.891499e-02 
7.934531e+00 -1.347765e+00 -3.211702e+00 -3.424546e+00 4.412870e+00 5.725196e+00 -6.038640e-01 -2.536654e+00 -1.258339e+01 -1.241141e+00 6.182825e+00 -1.289832e+00 3.296694e-01 -7.595279e-01 1.481745e+00 -3.973545e-01 -4.660707e-01 -1.051625e-01 2.358521e-01 2.396301e+00 1.780683e+00 1.381378e+00 1.967272e-01 -1.371708e+00 -5.308558e-01 -5.398466e-02 
7.207394e+00 -1.631081e-01 -6.848457e+00 -3.983451e+00 8.567970e+00 7.541083e+00 1.077223e+01 3.407459e+00 -2.164049e+00 -7.692149e-01 -7.777594e-01 -1.384700e+00 2.277145e-01 -5.971401e-01 2.481799e+00 4.944901e-01 -1.560771e-01 7.178177e-01 1.151854e-01 3.601722e+00 2.053642e+00 2.146861e+00 2.987553e-01 -1.268147e+00 5.592438e-01 -6.584512e-02 
4.779556e+00 2.213884e+00 -6.348388e+00 -1.746941e+00 8.863274e+00 4.933089e+00 6.338835e+00 1.058998e+00 -6.416800e+00 -6.197481e+00 -5.376930e+00 -2.031155e+00 1.434576e-01 -1.366012e+00 1.870516e+00 -2.938933e-01 -1.341023e+00 -3.422075e-01 2.414399e-01 3.290741e+00 2.016980e+00 1.821287e+00 1.707781e-01 -9.903805e-01 -5.769094e-01 -5.821946e-02 
4.577645e+00 5.597028e+00 -2.386320e+00 -5.679473e+00 6.858692e+00 4.975488e+00 1.081415e+01 4.398428e+00 -7.459916e+00 -4.150465e+00 6.655268e-01 -8.090011e-01 1.193355e-01 -1.918212e+00 1.590877e+00 8.497364e-01 -9.302940e-01 -1.522313e+00 2.237409e-01 5.772411e-01 3.686602e-01 -4.572849e-02 4.395332e-01 9.371734e-02 -5.084664e-01 -3.087622e-02 
2.419345e+00 5.124747e+00 -6.912237e+00 -9.281652e+00 3.556472e+00 8.215193e+00 1.582888e+01 7.052762e+00 -8.290224e-01 1.303375e+00 5.092795e-01 -4.462229e+00 9.276158e-02 -1.935975e+00 3.613641e-01 1.545469e+00 4.704193e-01 -7.186812e-01 1.454742e-01 6.296716e-02 4.165024e-01 1.412923e+00 1.285576e+00 5.211964e-01 -1.056991e-01 -2.384170e-02 
-1.203561e+00 6.335846e+00 -2.317851e+00 -4.867565e+00 3.609807e+00 7.018736e+00 8.913412e+00 2.253878e+00 -5.186581e+00 -2.321976e+00 -3.252278e+00 -2.711494e+00 9.868145e-02 -1.976102e+00 -1.989696e-01 1.442645e+00 2.294569e+00 1.797576e-01 -1.486212e+00 -2.699184e+00 -1.194876e+00 1.113405e+00 1.651065e+00 6.714898e-01 4.729206e-02 -2.156401e-02 
-2.009714e+00 3.651295e+00 1.344721e+00 1.992021e-01 6.894310e+00 4.638836e+00 7.604041e+00 4.213785e+00 -4.888516e-01 -6.838465e-01 -8.120463e-01 -1.608404e+00 3.457612e-02 -1.423923e+00 -2.779706e-01 2.108647e+00 2.535107e+00 9.100701e-01 -1.662097e+00 -2.795515e+00 -4.160693e-01 6.730068e-01 4.779906e-01 5.338568e-01 8.112354e-01 -1.745952e-02 
-3.088334e+00 5.338906e+00 6.984251e-01 1.052942e+00 6.088561e+00 -6.673950e-01 1.430650e+00 -1.564642e-01 -2.062979e+00 5.098467e+00 4.683639e+00 -1.999453e+00 4.060823e-02 -7.937314e-01 -1.933258e-01 9.189687e-01 7.564516e-01 7.247747e-01 -2.542893e-01 -7.535758e-01 1.108182e+00 1.503903e+00 6.390073e-01 4.740947e-02 8.164437e-02 -7.866865e-03 
-3.757882e+00 4.233365e+00 2.122861e+00 4.336295e-01 6.867446e+00 3.747774e+00 5.592688e+00 6.177587e+00 9.742107e-01 -1.689416e-02 -7.893947e-01 -7.620727e-01 3.450060e-02 -9.074765e-01 -1.108732e-01 -3.777885e-01 -4.894006e-01 -8.910236e-01 -3.587056e-01 -1.411341e+00 1.501746e+00 9.964021e-01 -9.268034e-02 -7.730081e-01 9.778531e-01 1.508119e-02 
-4.298134e+00 5.078183e+00 1.887923e+00 -1.202521e+00 7.247113e+00 6.192821e+00 6.151210e+00 6.812888e+00 1.601405e+00 5.395838e-01 -3.026556e+00 -2.726438e+00 5.938488e-02 -6.898640e-01 -2.646630e-01 -2.180621e-01 -8.390919e-01 -7.593089e-01 -2.132378e-01 2.451255e-01 7.645121e-01 1.542150e+00 3.932760e-01 -5.237444e-02 1.464709e+00 9.697324e-03 
-5.942197e+00 3.227291e+00 -1.138970e+00 -1.120070e+00 1.859916e+00 -5.847998e-01 -1.812944e+00 8.237839e+00 2.660967e+00 1.132194e+00 -8.219893e-01 3.644354e+00 1.005937e-01 -3.993503e-01 -2.745613e-01 -1.768180e-01 -4.051360e-01 1.490110e-01 -9.003466e-01 2.190695e-01 -1.652162e-01 6.642574e-01 1.805938e+00 1.701115e+00 1.307381e+00 2.094501e-03 
-5.445497e+00 4.518628e+00 1.239030e+00 -2.365667e+00 4.795781e+00 4.327028e-01 6.359093e+00 2.635970e+00 4.804393e+00 6.490304e+00 4.438064e+00 3.120877e+00 5.604827e-02 -4.394643e-01 -6.059257e-01 3.672030e-02 -3.834949e-01 1.292271e-01 -7.801598e-01 -2.896025e-01 1.271530e-01 6.865278e-01 8.079120e-01 1.825274e+00 2.026403e-01 -8.141887e-03 
-5.180952e+00 3.140336e+00 1.563217e+00 -1.010478e+00 8.838167e+00 2.126100e+00 6.584094e+00 7.439965e+00 2.694004e+00 6.037434e+00 3.983870e+00 2.851175e+00 4.664141e-02 -6.300040e-01 -6.733649e-01 3.494247e-01 1.614612e-01 3.245814e-01 4.662259e-02 2.879008e-01 -3.319458e-01 1.037973e+00 8.283616e-01 8.575796e-01 -1.451280e+00 -1.398267e-02 
-6.876078e+00 2.092032e+00 7.204304e-01 -3.174791e+00 4.404123e+00 9.365723e-01 5.046790e-01 7.847590e+00 5.017526e+00 2.126523e+00 3.696884e+00 -1.316647e+00 4.565161e-02 -7.052097e-01 -7.508081e-01 -5.610107e-01 -6.575833e-02 -1.623975e+00 -1.102679e+00 -1.669330e+00 3.754216e-01 -6.848693e-02 3.120674e-01 3.499553e-01 -1.465340e+00 3.694832e-03 
-8.376926e+00 1.073764e+00 8.674530e-01 9.179831e-02 3.678652e+00 -6.036216e-01 2.553766e+00 3.972300e+00 7.744267e+00 7.455892e+00 3.836499e+00 -1.393281e+00 3.587872e-02 -6.633726e-01 -7.595059e-01 -9.074916e-01 -6.566707e-01 -1.449619e+00 -1.552984e+00 -1.508113e+00 -1.665036e+00 -1.148594e+00 -3.933084e-01 -5.061918e-01 -7.943829e-01 2.551329e-03 
-7.373558e+00 1.797873e+00 -1.218141e+00 -3.245597e+00 -7.443337e-01 -3.715831e+00 2.760625e-02 6.246910e+00 1.936827e+00 7.341412e+00 6.261526e+00 -2.083594e+00 7.990378e-02 -1.074167e-01 -3.228595e-01 -4.605836e-01 -3.440800e-01 -2.601328e-01 -8.040794e-01 2.696297e-01 -8.613778e-01 -7.296761e-01 1.248648e-01 -1.233800e+00 -2.980567e-01 -4.489362e-04 
-8.249075e+00 -5.101144e-01 -2.004955e+00 -4.258429e+00 4.164299e+00 -3.312621e+00 -7.179334e-01 -8.487356e-02 -1.508618e+00 1.463447e+00 1.705897e-01 -7.372658e-01 4.227197e-02 -1.051006e-02 -1.808354e-01 -4.210109e-01 -1.127397e+00 4.580951e-01 5.953273e-01 9.255010e-01 1.186978e-01 4.607013e-01 -3.719049e-01 -3.971509e-01 7.570175e-01 -3.765142e-03 
-7.477087e+00 1.269674e+00 -1.462839e-01 -2.720078e+00 2.860636e+00 -1.729325e+00 3.488678e+00 5.569288e+00 5.995588e+00 5.747069e+00 -6.391632e-01 -3.134939e+00 4.021031e-02 -4.970930e-01 -7.105817e-01 -5.130415e-01 -4.787347e-01 7.325206e-01 1.083399e+00 9.915627e-01 8.592540e-01 1.968648e+00 -6.014315e-01 -5.470099e-01 1.156239e+00 -3.942066e-03 
-8.377712e+00 4.336865e-01 -1.773530e+00 -5.807944e+00 4.166643e+00 1.379762e+00 5.450736e+00 4.904600e+00 8.018393e+00 6.393538e+00 5.301089e+00 2.917478e+00 3.689975e-02 -4.286566e-01 -7.676849e-01 -9.245434e-01 -1.158878e-01 3.175738e-01 8.586408e-01 3.188453e-02 1.031950e+00 2.304505e-01 -3.462045e-01 1.031018e+00 1.158619e+00 6.991046e-03 
-9.794704e+00 -2.226936e+00 -3.899061e+00 -4.864513e+00 2.917097e+00 -6.450273e-01 1.901085e+00 8.048443e+00 7.016563e+00 1.869208e+00 9.612264e-01 1.870229e+00 6.287956e-02 -3.359133e-01 -1.027629e+00 -9.398650e-01 -1.248736e-01 5.039762e-01 4.761384e-01 -6.709933e-01 -5.041662e-01 -1.863180e+00 -9.039471e-01 4.434855e-01 4.673660e-01 2.919930e-03 
-9.233549e+00 -2.600234e+00 -4.751283e+00 -3.765650e+00 5.723938e+00 4.384341e-01 2.352855e-01 3.835299e+00 -8.668537e-01 1.671355e+00 4.525485e+00 2.553244e+00 6.589258e-02 3.639240e-02 -5.694962e-01 -2.624077e-01 3.383622e-01 2.555227e-01 1.251594e-01 -4.578248e-01 -7.108322e-01 -1.968642e+00 -3.891007e-01 -5.665205e-01 -9.553159e-01 -1.573843e-03 
-8.728735e+00 -2.351508e+00 -3.356732e+00 -4.365593e+00 4.601870e+00 1.122030e+00 2.741436e+00 3.583107e+00 1.122309e+00 3.588426e+00 1.966066e+00 -6.159916e-01 4.031354e-02 2.636753e-01 -4.183054e-05 2.479208e-01 3.978971e-02 2.247478e-01 4.217711e-01 4.186854e-01 -9.182864e-01 -9.799346e-01 5.355505e-01 -5.497389e-02 -8.141676e-01 -7.071108e-03 
