-5.255388e+00 2.088918e+00 -3.410813e+00 -6.506782e-01 9.237175e+00 2.980023e+00 3.574162e+00 -1.500186e-01 -6.310502e-01 3.619281e+00 -1.322406e+00 -8.170080e-01 -1.512927e-01 4.311256e-02 1.744391e-01 4.135781e-01 -6.419158e-02 -5.443848e-01 -1.111760e+00 -5.995615e-01 -6.133335e-01 -4.719645e-01 -1.208534e+00 -6.530204e-02 7.568271e-02 0.000000e+00 
-5.086695e+00 2.437999e+00 -4.374469e+00 -5.299713e+00 5.861976e+00 2.358570e+00 3.928993e+00 -1.766911e+00 -2.651652e+00 1.190901e+00 -4.877895e-01 -4.229677e-01 -1.512927e-01 -3.693781e-01 -1.019674e-01 4.157923e-01 -5.163851e-01 -9.461927e-01 -1.932137e+00 -9.371052e-01 -8.240425e-01 6.936074e-01 -3.323395e-01 7.430267e-02 -6.115423e-02 0.000000e+00 
-5.124172e+00 2.786573e+00 -8.610940e-01 1.352881e+00 8.202849e+00 -2.268051e+00 3.989398e-01 -2.408240e+00 -1.980572e+00 -1.209202e+00 -2.066225e+00 -6.356145e-01 -1.512927e-01 -7.601833e-01 -7.913189e-01 -1.060893e-01 -5.948402e-01 -1.986611e+00 -2.802217e+00 -1.955684e+00 -1.183798e+00 1.317722e+00 4.301718e-01 9.711066e-01 3.432028e-01 0.000000e+00 
-7.167887e+00 1.230253e+00 -2.606711e+00 -4.234384e+00 5.023373e+00 -4.056626e+00 4.762473e-01 -3.141120e+00 3.511748e+00 4.371824e+00 -5.789835e-01 -1.213476e+00 -1.512927e-01 -2.459518e-01 -3.087773e-01 -8.731167e-02 2.594719e-01 -7.980672e-01 -1.220664e+00 -6.665831e-01 -3.163828e-01 7.635330e-01 1.947221e+00 1.205539e+00 4.833467e-02 0.000000e+00 
-8.015709e+00 -1.263804e+00 -4.825138e+00 -4.157544e+00 -2.765799e-01 -7.823467e+00 -4.477886e+00 -5.381901e+00 2.875859e+00 4.179677e+00 3.578724e+00 1.294260e+00 -1.512927e-01 2.179193e-01 5.455256e-04 -7.052454e-01 -3.679125e-01 -4.050650e-01 1.554397e+00 1.237143e+00 4.204671e-01 4.088604e-01 1.244474e+00 -1.266803e-01 5.254584e-01 0.000000e+00 
-4.870686e+00 2.919301e+00 -2.829005e+00 -1.247141e+00 6.111354e+00 -9.670443e-01 3.034490e+00 -1.861995e+00 -1.262203e+00 8.232566e+00 2.717428e+00 -1.146232e+00 -1.512927e-01 8.019789e-01 4.732737e-01 -2.069869e-01 4.496197e-01 1.018214e+00 2.354393e+00 1.528165e+00 1.062076e+00 -1.021499e-01 -1.513504e-01 -6.750485e-01 7.842771e-01 0.000000e+00 
-5.183176e+00 1.944777e+00 -4.276174e+00 -1.980302e+00 5.633534e+00 3.959144e+00 5.305532e+00 -9.454675e-01 2.450705e+00 3.082797e+00 -4.347832e+00 1.958055e+00 -1.512927e-01 9.796909e-01 5.107859e-01 -4.250106e-01 -1.812583e-01 1.221362e+00 2.606471e+00 2.116092e+00 2.019333e+00 9.170082e-01 -1.544380e-03 -8.669329e-02 8.562587e-01 0.000000e+00 
-4.574259e+00 1.992331e+00 -3.916128e+00 -3.074906e+00 7.159386e+00 1.824032e+00 3.225366e+00 -4.895616e-02 3.213575e+00 4.163513e+00 9.052277e-03 2.376012e+00 -1.512927e-01 6.649100e-01 9.523966e-02 -5.077305e-01 -2.904723e-01 -4.981306e-01 -8.543944e-03 -7.947292e-01 4.580297e-01 1.570742e+00 -1.020239e+00 4.405022e-04 -9.732962e-04 0.000000e+00 
-3.265468e+00 1.753610e+00 -6.406630e+00 -4.149952e+00 5.306213e+00 3.813347e+00 6.007135e+00 3.808245e+00 5.223012e+00 6.206482e+00 4.499445e+00 3.814432e+00 -1.512927e-01 7.981943e-01 -9.972259e-01 6.881760e-01 -8.467878e-01 -2.399833e+00 -7.509834e-01 -1.532200e+00 5.714964e-02 -2.604157e-01 -1.616779e+00 7.658076e-01 -5.260257e-01 7.695579e-03 
-2.504990e+00 3.491082e+00 -4.302429e+00 -1.614677e+00 3.784362e+00 -9.368656e-01 -1.289958e+00 -1.948702e+00 5.205352e+00 1.569529e+00 -1.704008e+00 -2.079287e+00 -1.512927e-01 6.362332e-01 -1.688012e+00 9.776511e-01 -1.709607e+00 -4.269630e+00 -4.784803e-02 -2.649104e+00 4.632628e-01 -6.087876e-01 -3.669326e+00 9.590392e-02 -1.793004e-01 4.903020e-02 
-2.226839e+00 -3.790728e+00 -6.421425e-01 -6.944356e+00 -4.678119e+00 1.584675e+00 -9.780550e-02 2.901537e-01 1.527382e-01 -3.704105e+00 3.377361e-01 1.555577e+00 -1.128148e-01 -4.642086e-02 -8.381498e-01 8.424932e-01 -1.559408e+00 -2.297923e+00 -1.520660e+00 -3.073940e+00 1.831481e-01 5.591132e-01 -2.301002e+00 8.927332e-01 4.136442e-01 3.102338e-02 
-1.912407e+00 -3.675561e+00 -1.910116e+00 -1.022574e+01 -9.196598e+00 2.699128e+00 -6.967682e+00 4.026403e+00 2.704774e+00 -9.227825e+00 2.569427e+00 2.608938e+00 7.461935e-02 -5.106522e-01 3.311168e-01 -2.162037e-01 -4.106181e-01 4.374250e-01 -8.799898e-01 -3.336755e-01 8.302194e-01 6.484402e-01 5.353376e-01 1.004078e+00 8.463238e-01 3.682971e-04 
-3.793863e+00 1.146183e+00 -3.390321e+00 -7.641464e+00 3.070807e-01 -5.607949e+00 -6.523703e+00 1.736433e+00 9.268867e+00 1.001472e-01 6.826394e+00 3.538541e+00 -1.091318e-01 -8.978981e-01 1.834990e+00 -7.911063e-01 1.447672e+00 3.470422e+00 -8.959053e-02 1.730012e+00 -1.295767e-01 6.370831e-01 3.976307e+00 6.559495e-01 2.902172e-01 -3.028678e-02 
-4.274738e+00 2.678211e+00 -4.009358e+00 -3.319214e+00 3.478887e+00 -1.740503e+00 2.546136e-01 1.479256e+00 3.889489e+00 2.344091e+00 7.205367e-02 1.160850e+00 -1.512927e-01 -8.413908e-01 9.098029e-01 -4.699208e-01 2.542048e+00 3.491814e+00 5.609639e-01 3.224654e+00 -4.562288e-01 -4.327826e-01 4.644574e+00 7.999897e-03 -4.834861e-01 -4.939849e-02 
-5.535164e+00 2.207333e+00 -3.548053e+00 -3.159257e+00 6.336246e+00 3.356538e+00 4.941107e+00 9.158438e-01 2.745796e+00 1.039147e+01 4.866170e+00 3.730706e+00 -1.512927e-01 -3.215286e-01 -6.735370e-01 -2.817371e-01 9.011421e-01 4.862953e-01 1.797135e+00 2.313815e+00 -3.727911e-01 -1.329497e+00 1.605698e+00 -1.059722e+00 -5.416039e-01 -8.432174e-03 
-5.248711e+00 3.428787e-01 -4.180854e+00 2.433963e-01 5.247888e+00 1.021703e+00 3.423183e+00 2.155554e+00 3.802397e+00 8.849384e+00 3.589538e+00 9.542465e-02 -1.512927e-01 -2.194725e-01 -6.528088e-01 -5.112446e-01 -4.740662e-01 1.969657e-02 2.207247e-01 -4.232059e-01 -9.914536e-01 -1.180982e+00 -3.395637e-01 -5.857974e-01 -1.048626e+00 0.000000e+00 
-4.914520e+00 -1.053836e+00 -4.713259e+00 -4.917058e+00 1.854057e+00 1.996621e+00 3.461087e+00 -4.656718e-01 2.664927e+00 4.875990e+00 -2.309570e-01 1.363234e+00 -1.512927e-01 1.247292e-02 -1.951695e-01 -5.468398e-01 -3.950381e-02 6.718259e-02 -9.556659e-01 -4.842322e-01 -9.984552e-01 -2.153485e-01 -2.359497e+00 -1.127103e+00 -7.193752e-01 0.000000e+00 
-5.682423e+00 1.044751e+00 -5.982978e+00 -4.810644e+00 5.818464e+00 4.307890e-02 -1.121406e+00 -2.787255e+00 -1.974987e+00 3.404012e+00 -3.083700e-01 -2.898542e+00 -1.512927e-01 -3.402863e-02 4.466326e-01 -4.936381e-02 -5.233005e-01 2.228361e-01 -1.170448e+00 2.377625e-01 3.749962e-01 1.043218e-01 -1.303258e+00 -5.360897e-01 6.978546e-01 0.000000e+00 
-5.255943e+00 8.805492e-01 -5.381189e+00 -8.297565e-01 6.386871e+00 -9.324799e-01 4.792241e+00 -1.605028e+00 4.557745e+00 1.316670e+00 1.179607e+00 1.630813e+00 -1.512927e-01 1.673954e+00 9.856466e-02 1.773215e-01 2.528234e-01 4.320789e-01 -5.880006e-01 2.854327e-01 6.265861e-01 -2.208483e-01 -8.121454e-01 -2.858409e-01 7.231212e-02 1.000402e-02 
-5.248142e+00 1.608849e+00 -4.093708e+00 -4.416758e+00 4.095661e+00 -3.365987e+00 3.946419e+00 4.600213e+00 3.377597e+00 4.112754e+00 2.038077e-01 3.450908e+00 -1.512927e-01 2.541093e+00 -3.990987e+00 2.488745e+00 1.399423e+00 -5.054968e+00 7.312271e-01 -1.296125e+00 2.065067e+00 1.083515e+00 -1.666252e+00 -3.678697e-01 5.395752e-01 1.477770e-01 
3.238110e+00 -8.430614e-01 -4.771286e+00 -3.849885e+00 4.875853e+00 7.611514e-01 2.354338e+00 -1.026475e+00 -1.115606e+00 4.608921e-01 -1.916250e+00 -1.449930e+00 -1.012726e-01 3.777347e+00 -3.620853e+00 3.471639e+00 1.426181e+00 -6.893701e+00 1.091810e+00 -3.314737e+00 1.995334e+00 -8.993120e-01 -1.424073e+00 -2.941665e-01 -1.201976e+00 2.395228e-01 
2.776018e+00 -1.804838e+01 6.155798e+00 3.696534e+00 -1.870087e+01 2.852399e+00 -6.383078e+00 7.248805e+00 6.279265e+00 -4.499357e+00 -5.997898e-01 1.339706e+00 5.625821e-01 4.023412e+00 -2.603545e+00 3.150345e+00 2.034631e+00 -6.549148e+00 5.479587e-01 -3.344548e+00 1.248838e+00 -1.318349e+00 -1.814958e+00 1.154736e-01 -1.609174e+00 2.764031e-01 
9.618711e+00 -7.395105e+00 6.852256e+00 2.244504e+00 -1.668337e+01 1.417377e+00 -6.616693e+00 7.047347e+00 -1.389650e+00 -1.497641e+00 1.105731e-01 -3.323464e+00 6.893841e-01 2.539657e+00 7.412033e-02 1.081675e+00 1.977525e+00 -3.995341e+00 -1.871063e+00 -2.049727e+00 1.564801e+00 -2.169617e+00 -7.439197e-01 9.010174e-01 -1.353324e+00 2.216473e-01 
1.167862e+01 -8.132854e+00 5.846246e+00 2.709205e+00 -1.787046e+01 -9.543062e-01 -8.290805e+00 6.807490e+00 -3.077125e+00 -3.982768e+00 -2.322363e-01 -3.658195e+00 8.353944e-01 2.130732e+00 2.244764e+00 -1.666116e+00 1.920839e+00 5.233402e-02 -2.940884e+00 5.645519e-01 -1.396557e+00 -2.822631e+00 2.234802e-01 3.341652e-01 -8.247522e-01 8.991165e-02 
1.148509e+01 -5.430222e+00 7.918651e-01 6.531406e+00 -1.551605e+01 -6.690813e+00 -6.940433e+00 7.018188e+00 -7.285495e+00 -3.517001e+00 2.405059e+00 -5.717599e+00 8.705580e-01 4.329299e-01 -3.434920e-01 -1.025747e+00 2.816201e+00 -1.346266e+00 -1.778554e+00 7.185594e-01 -2.727959e+00 -3.025256e-01 -3.928730e-01 2.172453e-01 8.655353e-01 6.734347e-02 
1.249649e+01 -7.806997e+00 8.554122e-01 1.115728e+01 -1.902286e+01 -7.797928e+00 -3.398448e+00 2.806014e-01 -4.885967e+00 -2.372276e+00 -7.620692e-02 -1.586988e+00 9.215534e-01 -6.523913e-03 -9.955429e-01 1.155108e+00 1.932641e+00 -1.578644e+00 -3.019118e-01 4.250594e-01 -2.772833e+00 4.121550e-01 -2.962749e-02 1.967495e-01 1.431455e+00 4.416752e-02 
1.137443e+01 -9.275493e+00 4.218937e+00 1.210147e+01 -2.283850e+01 -4.053583e+00 -5.470074e+00 -3.329004e+00 -1.997856e+00 -4.267251e+00 1.118785e+00 -3.139198e-02 9.830219e-01 -8.682367e-02 -8.330187e-01 2.766521e+00 7.863881e-01 -1.489933e+00 1.088502e+00 -4.062737e-01 -2.572232e+00 1.138702e+00 -4.985277e-01 2.347523e-01 1.420108e+00 1.844903e-02 
1.170133e+01 -1.118793e+01 9.908251e+00 9.587375e+00 -2.210246e+01 -3.782480e+00 -6.900687e+00 -1.883080e+00 -3.660170e+00 -3.755780e+00 1.394648e+00 6.559775e-01 1.000000e+00 -3.458511e-01 5.569032e-01 2.595760e+00 -1.735728e-01 -3.390036e-01 1.616462e+00 -1.040503e+00 -1.126441e+00 9.507110e-02 -6.967580e-01 1.289563e-01 7.204732e-01 -1.796959e-02 
1.144855e+01 -7.904848e+00 1.009805e+01 1.124830e+01 -2.142592e+01 -3.256026e+00 -7.220681e+00 -4.761134e+00 -2.204886e+00 -5.317887e+00 2.843393e+00 2.614561e-01 9.235798e-01 -2.871942e-01 9.409876e-01 2.130603e+00 -2.226460e-01 9.122696e-02 1.705410e+00 -5.989761e-01 -5.053931e-01 -8.722993e-01 -2.912208e-01 -8.221893e-01 5.863693e-01 -3.500686e-02 
1.073017e+01 -5.707804e+00 1.089465e+01 1.071600e+01 -2.142417e+01 -1.143968e-01 -7.725657e+00 -4.635540e+00 -4.307096e+00 -5.330748e+00 -2.937294e-01 1.868954e+00 8.614265e-01 -4.456279e-01 9.360550e-01 1.340741e+00 2.971463e-01 -4.291781e-01 2.322047e+00 -4.935460e-01 -9.953468e-01 -1.209885e-01 -1.119358e+00 -9.346107e-01 1.866510e-01 -3.308987e-02 
1.042404e+01 -7.310619e+00 1.437875e+01 1.042393e+01 -2.272152e+01 2.639426e+00 -8.052469e+00 -4.479740e+00 -6.035889e+00 -4.935872e+00 -2.147973e+00 2.293966e+00 8.772743e-01 -2.621407e-01 8.705177e-01 7.690199e-01 2.275166e-01 -5.061636e-01 2.184918e+00 -4.146584e-01 -2.877251e-01 -7.588913e-01 -9.377921e-01 -1.250128e+00 1.394118e-01 -3.515217e-02 
9.985452e+00 -6.804771e+00 1.447161e+01 1.148529e+01 -2.360055e+01 4.880027e+00 -8.952523e+00 -7.000511e+00 -2.349610e+00 -9.543578e+00 -7.827223e-01 5.729775e-01 8.577034e-01 -1.639494e-01 2.093669e+00 2.923133e-01 -1.277652e+00 6.939081e-01 2.321246e+00 -9.218343e-01 -5.298783e-01 -2.088231e-01 -1.521640e+00 -2.650811e-01 -6.605878e-01 -5.409371e-02 
1.051021e+01 -3.003775e+00 1.215468e+01 1.200124e+01 -2.286854e+01 5.171352e+00 -8.680540e+00 -5.017273e+00 -6.978086e+00 -7.900433e+00 -3.162751e+00 1.606503e+00 7.496805e-01 4.735911e-02 2.500612e+00 -3.471746e-01 -9.951296e-01 1.540065e+00 1.270262e+00 -1.053991e+00 3.319313e-01 -1.417018e+00 -1.416250e+00 6.976216e-02 -1.172213e+00 -7.847713e-02 
9.867337e+00 2.607120e+00 1.346826e+01 3.539089e+00 -1.788111e+01 1.022587e+01 -1.202079e+01 -7.016164e+00 -4.880114e+00 -1.145667e+01 -1.111746e+00 -1.090254e+00 6.547549e-01 -3.408152e-02 3.025992e+00 7.753699e-01 -1.192287e+00 2.033610e+00 2.229167e-01 -9.865105e-01 1.106152e+00 -2.564377e+00 -2.067128e-01 -2.167491e-01 -1.519727e+00 -9.621388e-02 
1.071989e+01 4.864951e-01 1.314455e+01 9.421383e+00 -1.788091e+01 6.317814e+00 -1.178829e+01 -2.812257e+00 -1.185573e+01 -1.106058e+01 -1.634650e+00 -2.735482e+00 5.863630e-01 -6.671749e-01 3.734325e+00 1.823970e+00 5.263753e-01 2.730094e+00 -7.646628e-01 1.664569e-01 4.869747e-01 -2.274548e+00 3.171619e-01 4.248722e-02 -1.603108e+00 -1.053857e-01 
9.710203e+00 6.580055e+00 1.785352e+01 6.813783e+00 -1.592632e+01 5.421379e+00 -1.233120e+01 -2.572262e+00 -1.273268e+01 -8.997069e+00 -2.630518e+00 -4.854666e+00 4.582928e-01 -1.230382e+00 3.566382e+00 1.221976e+00 2.135483e+00 3.429322e+00 -1.304731e+00 1.433730e+00 2.108678e-02 -2.274657e+00 2.560022e-01 -9.731585e-01 -1.487774e+00 -1.096856e-01 
7.252901e+00 1.368138e+01 1.908189e+01 1.299577e+01 -1.019547e+01 3.750285e+00 -7.693052e+00 -4.804351e+00 -1.442454e+01 -7.544421e+00 -2.190929e+00 -4.526830e+00 3.209831e-01 -1.583348e+00 2.608742e+00 -4.605289e-01 9.962685e-01 4.832790e+00 -4.950152e-01 2.880535e+00 -2.816506e-01 -6.185271e-01 -1.039738e+00 -9.248892e-01 -1.071297e+00 -1.210740e-01 
5.448920e+00 1.384159e+01 1.660946e+01 1.242931e+01 -4.577220e+00 4.985984e+00 -6.899765e+00 -5.914683e+00 -1.496899e+01 -1.193473e+01 -5.699399e+00 -7.633451e+00 2.390168e-01 -1.315801e+00 2.252675e-01 -3.777801e+00 -9.335412e-01 5.575540e+00 -3.948348e-01 3.951398e+00 8.870974e-01 1.366454e+00 5.556567e-01 -9.348898e-01 -2.122148e-01 -1.357024e-01 
4.933791e+00 9.899442e+00 1.146393e+01 1.159496e+01 6.084938e-01 4.060436e+00 -1.013329e-01 -2.549299e+00 -1.383020e+01 -1.479044e+01 -4.724656e+00 -6.702576e+00 9.063107e-02 -1.861150e+00 -1.613821e+00 -4.863191e+00 -2.977065e+00 4.951684e+00 -6.372519e-01 2.568890e+00 1.878262e+00 2.262227e+00 9.011421e-01 -1.547057e+00 3.317004e-01 -1.288612e-01 
4.290752e+00 9.597363e+00 2.773495e+00 2.846479e+00 6.549397e+00 3.292130e+00 3.629928e+00 7.356991e-01 -6.197577e+00 -2.595778e+00 -6.038104e+00 -4.827867e+00 -1.050433e-01 -2.621948e+00 -2.307372e+00 -4.632102e+00 -3.172961e+00 3.180597e+00 -1.492104e+00 1.474795e+00 1.157076e+00 3.609068e+00 3.000198e+00 7.608703e-01 1.469249e+00 -1.022543e-01 
-1.473763e+00 7.734389e+00 1.683925e+00 2.901859e+00 8.999643e+00 1.410953e+00 -1.134491e-01 1.261768e+00 -7.499115e+00 -7.708188e+00 -9.756862e+00 -4.271120e+00 -1.512927e-01 -2.906934e+00 -2.189968e+00 -3.421755e+00 -2.871437e+00 1.063031e+00 -7.544484e-01 3.772523e-02 -6.752398e-01 2.736437e+00 3.451641e+00 1.985586e+00 1.804151e+00 -5.300969e-02 
-4.457045e+00 3.387252e+00 -1.661039e+00 9.110551e-01 7.130191e+00 -1.149792e+00 4.802678e-01 -2.034838e+00 -8.919248e-02 -4.748649e-01 6.210555e-01 -1.502934e+00 -1.512927e-01 -2.295749e+00 -2.180670e+00 -1.754858e+00 -1.572073e+00 -2.662604e-01 -8.133736e-01 1.047457e+00 -1.930100e-01 2.449372e+00 1.807478e+00 2.865801e+00 2.166406e+00 -9.249878e-03 
-5.226982e+00 2.054658e+00 -3.427575e+00 -1.794510e+00 5.633251e+00 2.509155e+00 1.662123e+00 -4.540230e+00 -3.202210e+00 1.407311e+00 1.873694e+00 6.557136e-01 -1.512927e-01 -1.146635e+00 -1.534936e+00 -1.435948e+00 -1.705681e+00 -1.328679e+00 -6.545740e-01 1.914702e+00 9.034075e-01 3.132057e+00 1.878748e+00 2.310565e+00 2.570357e+00 0.000000e+00 
-5.311382e+00 1.533878e+00 -3.445046e+00 -2.665699e+00 6.901291e+00 -1.323839e+00 7.979428e+00 2.671648e+00 3.900830e+00 1.883865e+00 2.475626e+00 3.540746e+00 -1.512927e-01 -4.222345e-01 -2.733957e-01 -8.315011e-01 -4.673069e-01 -1.036879e+00 -9.364051e-01 2.924422e-01 6.982327e-01 1.757380e+00 9.495695e-01 2.358841e-01 1.096662e+00 0.000000e+00 
-6.779768e+00 9.863952e-01 -4.603810e+00 -3.838171e+00 2.470697e+00 -1.774894e+00 5.710479e+00 3.425562e+00 6.166160e+00 5.061881e-01 8.686777e-01 6.058825e+00 -1.512927e-01 -1.302883e-01 9.202035e-02 -5.571450e-01 -2.167932e-01 -6.145624e-01 -7.648954e-01 1.886291e-02 4.024784e-01 4.126024e-01 6.447439e-01 3.119154e-02 4.185409e-02 0.000000e+00 
-5.791824e+00 2.554405e+00 -5.230427e+00 -4.036491e-01 3.527072e+00 -3.689793e+00 -8.169889e-02 -2.526571e+00 4.013522e+00 4.723544e+00 2.302984e+00 1.278821e+00 -1.512927e-01 1.195444e-01 -1.604806e-01 -3.513068e-01 1.287645e-02 -5.746627e-03 8.681697e-01 -5.011585e-01 -1.143381e+00 -1.397358e+00 6.534784e-01 -5.554768e-01 -7.605420e-01 0.000000e+00 
-5.638203e+00 2.004496e+00 -5.320610e+00 -4.009501e+00 4.247549e+00 -1.323449e-01 5.787001e+00 7.127130e-02 -1.195544e+00 3.211191e+00 2.115973e+00 1.995947e+00 -1.512927e-01 3.683247e-01 1.705865e-01 2.706031e-01 3.829265e-01 1.728509e+00 6.554934e-01 -4.953128e-01 -1.276716e+00 -9.533427e-01 1.665408e-01 -7.183693e-01 -1.325781e+00 0.000000e+00 
-5.284443e+00 2.224241e-01 -4.843180e+00 -2.515651e+00 5.984132e+00 2.195735e+00 5.435374e+00 -1.368112e+00 5.948907e-01 3.798755e+00 -9.254055e-01 1.769475e+00 -1.512927e-01 -2.350306e-01 -2.774886e-01 1.352130e-02 -1.122639e-01 1.919874e+00 1.133861e+00 -4.090738e-02 4.923289e-01 3.351526e-02 -2.279786e-01 -5.653831e-01 -1.831233e-01 0.000000e+00 
-5.191835e+00 3.005318e+00 -3.444418e+00 -8.675375e-01 9.884713e+00 -1.440191e+00 4.753783e-01 -3.537248e+00 3.108762e+00 1.801286e+00 -1.108974e+00 -8.154071e-01 -1.512927e-01 1.546198e+00 -1.975637e+00 1.073504e+00 -1.952030e+00 -2.779478e-01 -1.853850e-01 -2.145511e+00 1.396900e-01 2.317298e-01 -1.601960e+00 7.589702e-02 -8.169621e-01 1.288989e-01 
-7.190161e+00 6.665509e-01 -6.100916e+00 -2.535950e+00 1.030786e+01 2.633437e+00 2.369576e+00 1.739334e+00 2.028945e+00 4.288604e+00 1.088542e+00 1.768881e+00 -1.512927e-01 1.889274e+00 -1.743677e+00 2.062749e+00 -3.671124e+00 -2.057938e+00 -1.302174e+00 -2.837624e+00 6.313959e-01 1.759942e-01 -2.364967e+00 5.810436e-01 2.099580e-01 2.120760e-01 
3.045646e+00 -8.095755e+00 6.757762e-01 -1.375950e+01 6.959462e-01 -1.278121e+00 -3.407655e+00 -7.840017e-01 -7.539221e-01 -5.043532e+00 1.488484e+00 -2.088567e+00 4.932021e-01 1.749861e+00 -1.927501e+00 3.076944e+00 -1.361010e+00 -2.412447e+00 -1.361331e+00 -1.133223e+00 1.858188e+00 5.832165e-01 -1.611892e+00 1.263250e+00 2.758010e+00 1.763782e-01 
4.318810e-02 -2.945425e+00 3.410471e+00 -1.442529e+01 2.888269e-01 -4.396169e+00 -6.811231e+00 4.122449e-01 3.406204e+00 -4.603670e+00 6.810838e-01 3.455846e+00 5.868400e-01 1.482344e+00 -1.526676e+00 2.124219e+00 1.102766e+00 -1.507450e+00 -1.703196e+00 1.418161e+00 1.214673e+00 -6.638146e-03 -1.226252e+00 7.535357e-01 1.800297e+00 6.621502e-02 
-5.920315e-02 -4.826199e+00 7.184610e+00 -1.727915e+00 2.831993e+00 -4.732044e+00 -6.003330e-01 6.417237e+00 5.336216e+00 -1.812035e+00 5.411006e+00 1.213116e+01 3.615317e-01 3.736066e-01 -1.253554e+00 4.483309e-02 3.776538e+00 2.129463e-01 -7.700561e-01 3.228815e+00 1.164159e+00 -2.598579e-01 4.913792e-01 -3.271624e-01 9.410799e-01 -7.280019e-02 
1.773984e+00 -8.601607e+00 1.265762e+00 -3.037913e+00 1.702586e+00 -4.155580e+00 8.056718e+00 4.212081e+00 -1.049314e+00 -3.458405e+00 2.894959e+00 3.660501e+00 2.456176e-01 1.246578e+00 -1.589431e+00 -1.214871e+00 2.607991e+00 5.332956e-02 -5.475326e-02 1.561808e+00 3.495890e-01 -1.513214e+00 3.099295e-01 -1.147971e+00 -1.344057e+00 -9.161858e-02 
4.048281e+00 -1.153543e+01 1.972296e+00 -5.704989e-01 1.053798e+00 -5.248696e+00 5.302444e+00 3.136876e+00 1.745476e-01 -3.159269e+00 -1.254266e+00 2.514505e+00 2.998124e-01 1.596441e+00 2.820316e-01 -1.155021e+00 7.873285e-01 6.327673e-01 1.130422e-01 -2.309709e+00 -1.238134e+00 -7.048082e-01 -9.538245e-03 -1.866180e+00 -1.894043e+00 -6.558610e-02 
4.222334e+00 -7.537963e+00 -5.772805e-02 -1.964046e+00 1.444572e+00 -4.411609e+00 -1.953579e+00 3.800371e+00 -1.579035e+00 -2.380406e+00 -1.726134e+00 1.543889e+00 1.596068e-01 1.240572e+00 2.021181e+00 -6.520601e-01 1.395175e+00 7.246485e-02 7.448264e-01 -2.348595e+00 -7.310761e-01 1.145251e+00 5.591272e-01 -1.439265e+00 -1.238853e+00 -6.696806e-02 
6.698829e+00 -3.947864e+00 2.071250e+00 1.671794e+00 6.124835e+00 -4.038818e+00 -7.143731e+00 4.324211e-01 2.077035e+00 -2.398726e+00 -1.609348e+00 3.719252e+00 7.660657e-02 5.033132e-01 2.733461e+00 -7.598805e-01 9.460174e-01 -6.604585e-01 -2.675951e-01 -9.617729e-01 -5.396568e-01 8.961945e-01 9.569164e-02 -1.884141e-01 -8.841664e-01 -8.237378e-02 
6.651572e+00 -2.289489e+00 -2.044015e+00 2.816814e+00 -4.706087e-01 -1.036387e+00 2.536831e+00 1.908929e+00 3.725697e+00 -1.043041e+00 -4.123824e+00 -3.136140e+00 2.238017e-02 -1.535994e-01 2.275157e+00 -4.981273e-01 1.653822e-01 -9.320019e-01 -7.824604e-01 1.369363e+00 -4.206101e-01 1.900818e-01 -1.372681e-01 1.811856e-01 -1.129301e+00 -6.347793e-02 
5.350228e+00 -4.923640e-01 -8.339629e-01 1.769158e+00 -1.290904e+00 -8.274282e+00 -1.751626e+00 1.384313e+00 2.003154e+00 -3.349493e+00 -9.974918e-01 4.336872e-01 -4.344320e-02 -8.736014e-01 1.564822e+00 -8.144473e-01 -9.770907e-01 -9.510563e-01 -1.263101e+00 2.258673e+00 5.592658e-01 -5.755478e-01 2.205836e+00 1.691036e+00 -3.852197e-01 -3.134523e-02 
4.128637e+00 2.110072e+00 -1.095758e+00 -1.185817e+00 4.924326e-01 -6.206179e+00 2.197185e+00 1.221374e+00 -5.916854e-01 -2.591362e+00 -1.126135e+00 -2.459833e+00 -9.775794e-02 -7.137055e-01 8.673334e-01 -8.700091e-01 -1.650670e+00 -2.439878e-01 -1.272963e+00 2.606282e-01 -8.315522e-01 -1.224494e+00 1.967387e+00 1.255436e+00 5.211048e-01 -2.087248e-02 
3.592289e+00 1.676465e+00 -2.475116e+00 -1.212344e+00 8.880334e-01 -7.769428e+00 4.319457e+00 3.572527e+00 1.357987e+00 9.404613e+00 5.346989e+00 1.455000e+00 -2.005053e-02 -7.358805e-01 1.042203e+00 -8.841114e-01 -7.120069e-01 9.176762e-01 7.304463e-01 1.143241e-01 -3.648313e-01 1.486491e-01 1.406210e+00 -8.870762e-01 2.118402e-01 -2.116196e-02 
3.962014e+00 9.627640e-01 -5.573484e+00 -3.945784e+00 -2.780016e+00 -7.653627e+00 8.044307e-01 -3.342940e+00 -2.074191e+00 2.416842e+00 -1.018885e+00 -1.041273e+00 -9.367859e-02 -1.024464e+00 1.418567e+00 -1.588818e-01 1.461340e-01 2.048732e+00 2.458811e+00 -4.410302e-01 1.682725e-01 1.161385e+00 6.660342e-01 -6.058338e-01 9.527501e-01 -2.383116e-02 
1.754137e+00 5.292304e+00 -3.015657e+00 -4.108934e-01 4.933702e+00 -3.898327e+00 -4.836290e-01 1.842313e+00 3.487652e+00 1.177454e+00 -5.486498e+00 7.836082e-01 -1.512927e-01 -1.491450e+00 1.601654e+00 2.096159e-01 9.452812e-01 2.880718e+00 3.662796e+00 1.042910e+00 4.237436e-01 8.596966e-01 -1.353806e+00 -8.816077e-01 3.611895e-01 -3.200984e-02 
-7.460880e-02 7.394990e+00 -1.619896e+00 -8.558724e-01 8.713257e+00 4.152323e+00 2.393576e+00 2.927844e+00 4.150408e+00 4.852388e+00 1.261439e+00 2.639614e+00 -1.512927e-01 -2.132606e+00 3.460233e-01 3.216783e-01 4.388319e-01 2.986040e+00 3.470532e+00 1.969971e+00 8.782564e-01 6.728141e-01 3.290930e-01 8.109379e-01 1.520967e-01 -1.152282e-02 
-1.846651e+00 6.468624e+00 -3.403830e+00 1.969106e+00 9.544985e+00 4.641576e+00 8.739433e+00 2.555854e+00 2.544171e+00 1.417811e+00 -2.012115e-01 1.420505e+00 -1.512927e-01 -1.728171e+00 -1.174132e+00 8.188076e-02 -2.162742e-01 7.372593e-01 9.017456e-01 1.357836e+00 2.318864e-01 2.022641e-01 1.498977e+00 1.013946e+00 -5.947013e-01 0.000000e+00 
-4.900623e+00 2.104720e+00 -3.771006e+00 -2.941625e+00 9.844540e+00 5.429081e+00 6.042755e+00 6.915723e-01 1.761621e+00 3.942128e+00 3.931617e-01 -5.992379e-01 -1.512927e-01 -1.231851e+00 -1.726751e+00 -1.978003e-01 -2.070819e-01 -4.817598e-01 -1.128792e+00 4.794597e-01 8.174946e-01 1.142272e+00 1.490904e+00 6.420511e-01 -8.290132e-01 0.000000e+00 
-4.473709e+00 2.066777e+00 -1.530698e+00 -4.493885e-01 8.054357e+00 -2.797753e-02 4.480961e+00 4.119881e+00 5.693367e+00 9.127469e+00 1.737154e-02 -5.704722e-01 -1.512927e-01 -8.701817e-01 -1.465013e+00 -1.313163e-01 -8.292007e-02 -6.035147e-01 -1.654951e+00 -1.557883e+00 -1.428887e-01 1.054718e+00 1.006936e+00 8.185681e-01 1.491514e-01 0.000000e+00 
-4.920334e+00 9.621589e-01 -3.545464e+00 -6.820345e-01 7.049772e+00 8.431400e-01 6.920111e+00 6.233303e+00 8.287172e+00 8.452081e+00 4.362403e+00 -5.099638e-01 -1.512927e-01 -4.535967e-01 -5.296381e-01 -1.267765e+00 -9.255985e-01 -7.826791e-01 -1.670045e+00 -1.093899e+00 -5.186159e-01 -3.519375e-01 -6.633637e-01 5.328840e-01 1.566236e-01 0.000000e+00 
-6.187704e+00 -2.851613e-01 -4.173182e+00 4.247108e-01 7.924796e+00 -1.340208e+00 5.113404e-01 -9.294555e-01 4.554985e+00 4.197516e+00 1.907008e+00 2.121624e+00 -1.512927e-01 -2.997580e-01 -2.408566e-01 -1.251824e+00 -9.702215e-01 -6.057591e-02 -3.533077e-01 -1.624214e+00 -1.899457e+00 -1.499667e+00 -1.285142e+00 -7.602579e-01 -3.550299e-01 0.000000e+00 
-6.311609e+00 6.324993e-01 -8.788590e+00 -8.006667e+00 5.995925e+00 -2.265028e+00 2.558071e+00 6.231610e-01 5.711244e-01 3.090286e+00 2.112763e+00 -1.162168e+00 -1.512927e-01 2.198971e-01 3.607852e-01 1.497083e-01 -6.960197e-02 -2.241260e-02 3.730204e-01 -1.587696e-01 -9.096923e-01 -1.650242e+00 -1.083462e+00 -1.829660e+00 -6.938872e-01 0.000000e+00 
-5.276861e+00 1.027324e+00 -5.168254e+00 -1.638180e+00 8.278400e+00 -2.404314e-01 -1.459087e+00 -2.572334e+00 2.053057e+00 5.382658e+00 -2.659098e+00 -2.019519e+00 -1.512927e-01 5.875652e-01 8.217800e-01 3.559082e-01 5.634438e-01 1.482419e-02 1.494100e+00 8.391320e-01 -3.997792e-01 -1.115593e+00 2.832792e-02 -8.346792e-02 -4.869636e-01 0.000000e+00 
-4.276270e+00 2.109842e+00 -2.299386e+00 1.400948e-03 6.760907e+00 2.158354e+00 7.111477e+00 2.506281e+00 1.286924e+00 2.442199e+00 -2.502841e+00 -1.908828e+00 -1.512927e-01 2.179209e-01 1.142326e-01 4.340677e-01 8.875133e-01 -7.229321e-02 5.489829e-01 9.965231e-01 -9.148905e-01 -1.237680e+00 -4.769668e-01 2.357150e-01 2.520825e-01 0.000000e+00 
-4.267548e+00 3.085067e+00 -5.638244e+00 -7.621040e-01 7.616426e+00 3.918602e+00 2.430298e+00 -3.869911e+00 -1.380882e+00 4.663199e+00 3.797471e+00 6.013620e-02 -1.512927e-01 2.402630e-02 -3.947617e-01 -4.767103e-01 -9.211147e-01 -6.482411e-01 -2.511451e-01 1.807285e+00 -2.227138e-01 1.634099e-01 -5.490497e-01 1.094108e+00 6.659885e-01 0.000000e+00 
-5.726662e+00 1.747911e-01 -6.383258e+00 -4.007138e+00 5.965446e+00 -1.599631e+00 5.595994e+00 -3.302503e+00 -3.900307e+00 1.065182e+00 6.305373e-02 -9.415833e-01 -1.512927e-01 -2.549046e-01 -5.976117e-01 -6.045967e-01 -1.865833e+00 -3.107118e-01 -7.474214e-01 -5.648461e-01 -6.792135e-01 8.886995e-01 -1.339416e+00 -4.260092e-01 -3.621055e-01 0.000000e+00 
-4.431534e+00 2.104141e-02 -5.509871e+00 -4.239484e+00 5.434926e+00 3.828354e-01 8.335080e+00 -7.815112e-01 5.463722e+00 3.325918e+00 1.528493e+00 8.268008e-01 -1.512927e-01 -1.239513e-01 -5.590053e-01 6.616978e-02 -1.254229e+00 5.032988e-02 -6.780674e-02 -7.857909e-01 -6.494608e-01 5.035273e-01 -1.618386e+00 -9.506412e-01 -1.579474e-01 0.000000e+00 
-5.468800e+00 6.537964e-01 -5.386556e+00 -7.589072e+00 6.298098e+00 1.891302e-01 1.334855e+00 -2.433987e+00 2.308120e+00 -3.586239e+00 -3.498398e+00 -4.102688e+00 -1.512927e-01 -8.899383e-02 2.039535e-01 5.396858e-01 2.031477e-01 9.450733e-01 1.209872e+00 -1.361518e+00 5.059042e-02 6.054262e-01 3.149679e-01 4.669726e-01 4.152075e-01 0.000000e+00 
-5.016235e+00 5.053820e-02 -5.805745e+00 -5.242283e+00 7.701749e+00 2.685188e+00 6.319127e-01 -7.551473e+00 -1.967459e+00 -1.103019e+00 8.249913e-01 8.509512e-01 -1.512927e-01 1.510176e-01 7.489961e-01 5.613667e-01 9.995411e-01 9.031450e-01 6.029512e-01 -9.551581e-01 1.258777e+00 3.459628e-02 1.386615e+00 2.556506e-01 -7.487310e-01 0.000000e+00 
-5.879280e+00 1.179810e+00 -3.536891e+00 -2.490000e+00 9.557401e+00 3.298551e+00 2.639988e+00 3.354306e-01 2.842414e+00 4.854489e+00 2.749667e+00 1.122379e+00 -1.512927e-01 8.292836e-01 5.507234e-01 5.859106e-01 1.699154e+00 7.068410e-01 6.068822e-01 8.926110e-01 3.251199e+00 1.507802e+00 2.661578e+00 3.384368e-01 -3.582884e-01 0.000000e+00 
-3.471206e+00 3.503015e+00 -3.627869e+00 -1.791315e+00 8.320999e+00 1.842881e+00 2.906724e+00 4.127666e+00 5.369556e+00 6.038628e+00 -3.172871e-01 -5.529387e+00 -1.512927e-01 8.233198e-01 9.677202e-01 7.709566e-01 1.476089e+00 4.406194e-01 1.314331e+00 1.393154e+00 2.699841e+00 1.045086e+00 1.562084e+00 -6.980273e-01 -6.068752e-01 5.538225e-04 
-2.094896e+00 1.681175e+00 -3.545941e+00 -8.187847e-01 9.522677e+00 3.644694e+00 4.660504e+00 7.982438e+00 6.178623e+00 6.150826e+00 -1.235075e+00 -2.703960e+00 -1.512927e-01 6.854281e-01 8.052734e-01 4.862339e-01 1.067898e+00 2.330822e-01 1.881133e+00 1.157557e+00 1.574162e-01 -6.284781e-01 2.430099e-01 -7.200369e-01 2.473864e-01 8.307338e-04 
-2.791828e+00 4.638456e+00 -1.946438e+00 1.302556e+00 9.922208e+00 9.083772e+00 6.587422e+00 2.124229e+00 1.589868e+00 6.059235e+00 -6.727738e-01 -2.702553e-01 -1.485236e-01 6.618233e-02 5.228164e-01 4.962366e-01 8.309081e-01 3.601947e-01 1.992086e+00 9.288315e-01 -9.865080e-01 -1.214813e+00 -5.037737e-03 -1.486724e-02 1.295197e+00 8.307338e-04 
