4.584497e+00 4.836781e+00 -3.718121e+00 4.286670e+00 4.766516e+00 -6.207632e-01 5.704453e+00 -3.989829e+00 -4.219730e+00 -2.328084e+00 -2.906242e+00 3.163024e-01 -1.352886e-01 -3.914382e-01 -3.344701e-01 8.017273e-02 1.977253e-01 -3.015821e-01 -5.399379e-01 -3.304747e-01 1.594906e-02 5.438148e-02 2.829192e-01 -6.698634e-01 3.049972e-01 -4.438579e-03 
3.605765e+00 4.386210e+00 -2.889418e+00 5.690230e+00 6.024393e+00 2.582738e+00 4.911130e+00 -5.361531e+00 -2.437783e+00 -1.033734e+00 -4.827897e+00 -8.048215e-01 -1.476662e-01 -1.396580e-01 -1.378444e+00 -1.082219e+00 9.499687e-01 6.840109e-01 -2.759605e+00 -2.613554e+00 6.162581e-01 -6.509417e-01 4.426661e-01 -1.373397e+00 -5.346299e-01 7.405424e-03 
3.116673e+00 3.389715e+00 -3.731608e+00 4.573517e+00 2.629667e+00 -4.922203e+00 4.448741e+00 -3.224233e+00 -4.838796e+00 -1.560663e+00 -5.294732e+00 2.401850e+00 -1.512927e-01 9.202671e-02 -7.615185e-01 -7.583026e-01 8.590326e-01 4.376339e-01 -2.203007e+00 -2.355897e+00 -4.094816e-01 1.718438e-01 5.934610e-01 -7.695404e-01 -7.719359e-01 2.539861e-03 
4.620120e+00 -1.331908e+00 -9.122472e+00 8.893090e+00 9.254995e+00 -1.226807e+01 -6.735459e+00 -1.291337e+00 -7.164906e+00 -4.984634e-01 -8.578981e+00 -3.399621e+00 -9.025943e-02 -2.452493e-01 6.420833e-01 1.748193e-01 -2.339948e-01 -1.343017e-01 -8.679141e-01 -6.425758e-01 -9.265054e-01 -8.185961e-01 5.181639e-01 -2.720998e-01 -1.302566e+00 2.759218e-04 
4.537454e+00 3.888247e+00 -4.393107e+00 6.980403e+00 5.339385e+00 -4.210394e+00 -2.517405e-01 -8.072334e+00 -9.969502e-01 3.715863e-01 -4.878402e+00 -2.245977e+00 -1.512927e-01 -6.312850e-01 1.715523e+00 1.364583e+00 -1.927834e-01 -2.415679e-01 1.305003e+00 8.705414e-01 -9.454759e-01 3.045709e-01 3.334467e-01 -3.440868e-01 -9.799639e-01 4.574299e-04 
1.669128e+00 7.347361e+00 -1.684572e+00 3.316813e+00 3.998026e+00 -2.112737e+00 4.048492e+00 -7.570007e+00 -8.451687e+00 5.909612e-01 -6.396561e+00 -4.993739e+00 -1.462866e-01 -1.275013e+00 2.536239e+00 2.432719e+00 -5.835745e-01 -1.260468e+00 1.695391e+00 2.918405e+00 -3.975506e-01 1.498910e+00 7.581223e-01 1.277149e+00 8.798893e-01 3.529585e-03 
1.435743e+00 7.627697e+00 -6.276430e-01 6.397738e+00 4.050312e+00 -3.474853e+00 3.409472e+00 -4.812277e+00 -2.672551e+00 -4.381421e-01 -8.106377e+00 -1.700911e+00 -1.209919e-01 -1.161398e+00 1.068987e+00 1.216026e+00 -1.712791e-01 -1.796746e-01 1.123295e-02 1.648156e+00 1.076107e+00 1.685685e+00 1.287423e+00 9.334393e-01 8.940853e-01 1.149393e-02 
-2.040882e-01 9.479562e+00 1.158389e+00 6.266550e+00 3.597192e+00 -4.158880e+00 6.025960e+00 -4.909119e+00 1.167445e+00 3.697012e+00 -5.792501e-01 7.272915e-01 -8.776188e-02 -6.390015e-01 -3.622142e-01 4.775933e-01 7.162895e-02 4.042339e-01 7.301722e-01 1.149422e+00 7.802808e-01 2.130708e+00 1.356108e+00 2.693877e+00 1.345971e+00 -1.210558e-03 
-3.329296e-01 8.167082e+00 2.655430e-01 4.649139e+00 4.641428e+00 -3.131157e+00 7.000305e+00 -4.022243e+00 2.621908e+00 5.255676e+00 -3.119862e+00 -6.360660e-01 -1.230854e-01 -5.635837e-01 -1.025530e+00 3.397110e-01 -4.773483e-01 2.032308e-01 1.837314e+00 1.947014e+00 9.763182e-01 -9.118627e-01 1.601181e-01 1.989855e+00 3.593113e-01 -1.241323e-02 
-6.415424e-01 5.266597e+00 2.568014e-01 4.549258e+00 5.723637e+00 1.366277e+00 8.000187e+00 -4.063621e+00 -4.453788e-01 4.524592e+00 4.579567e+00 1.203692e+00 -1.512927e-01 -4.388933e-01 -2.019827e+00 -3.848864e-01 -6.726470e-02 1.031770e-01 1.904115e+00 1.713212e+00 1.640642e+00 -1.403237e+00 -8.021688e-01 1.253600e+00 6.612433e-01 -1.280713e-02 
-1.163448e+00 4.606528e+00 1.521706e+00 4.869643e+00 4.003243e+00 2.949138e+00 1.215743e+01 -3.534343e-01 -6.425453e+00 -5.134130e-02 -7.365109e-01 -1.425543e-01 -1.512927e-01 -3.803938e-01 -1.355649e+00 -8.582679e-01 4.736999e-01 4.611134e-01 7.949365e-01 1.385824e-01 2.455314e-01 -2.066060e+00 -1.104049e+00 3.797164e-01 1.067403e+00 1.083664e-02 
-1.983295e+00 1.160705e+00 -1.394124e+00 5.819974e+00 4.432169e+00 2.321549e+00 1.201346e+01 1.459686e+00 -1.325059e+00 2.339677e+00 4.497076e+00 3.786752e+00 -1.376939e-01 3.306961e-02 -6.804149e-01 -7.744786e-01 -1.853290e-01 -6.110967e-01 -8.274843e-01 -1.149825e+00 1.080563e-01 2.745757e-01 7.270868e-01 -8.802373e-01 -3.902318e-01 7.559109e-03 
-1.564022e+00 3.441783e+00 -3.200334e+00 6.382280e+00 7.592729e+00 3.658888e-01 5.686582e+00 -5.556239e+00 -7.268553e+00 8.278868e-01 -1.180034e+00 3.409420e+00 -7.570159e-02 2.097906e-01 -7.399843e-01 7.195067e-01 -6.074473e-01 -8.661383e-01 -2.224087e-01 -1.661253e+00 2.242343e-01 2.527221e+00 1.382276e+00 1.387210e+00 -3.306077e-01 4.934513e-03 
-2.759075e-01 2.446896e+00 -1.254572e+00 2.866294e+00 8.734100e-01 -1.479520e+00 5.486483e+00 -9.219372e-01 1.349050e+00 7.720412e+00 4.001427e-01 -2.523455e+00 -1.512927e-01 9.485167e-01 -7.828551e-01 2.446850e+00 -1.610425e+00 -2.908082e+00 4.539878e-01 -1.993137e+00 -1.232589e-01 -1.832929e-01 -8.751794e-01 1.279970e+00 -5.691822e-01 2.816808e-02 
-9.681892e-01 2.635114e-01 5.049463e+00 3.309247e+00 1.451932e+00 3.737628e+00 7.114648e+00 1.958548e+00 4.873596e+00 4.169670e+00 8.248005e+00 1.359511e+00 -1.198207e-01 1.158110e+00 -8.627087e-01 2.789814e+00 -1.343431e+00 -3.899940e+00 1.333471e+00 -1.561284e+00 4.808503e-01 -1.193139e+00 -2.098985e+00 2.036613e+00 -6.829777e-02 4.259083e-02 
2.461371e+00 -1.164435e+00 6.715226e+00 -6.956352e-01 -7.037842e+00 2.905618e+00 1.333740e+00 -2.914002e+00 -8.312598e+00 -3.707112e+00 6.182907e+00 1.965796e+00 2.520609e-02 5.212973e-01 4.707335e-01 5.107741e-01 -1.401355e-01 -1.551056e+00 -4.609185e-02 -1.698306e+00 -7.637415e-01 -2.468818e+00 -2.903182e+00 -3.006736e-01 1.453102e+00 2.049026e-02 
2.857891e+00 9.339051e-01 6.763836e+00 1.446089e+00 -7.951343e+00 4.840676e+00 -4.346704e-02 -2.155955e+00 -8.403423e+00 -3.953275e+00 6.111651e+00 8.233061e-01 4.900318e-02 1.325842e-01 6.274020e-01 -1.851167e+00 -3.260587e-01 3.161369e-02 -1.308347e+00 -4.510745e-01 7.511033e-01 -3.106297e-01 -1.244867e+00 -2.587144e+00 6.888701e-01 -1.051826e-02 
4.175386e-01 4.465366e+00 4.421120e-01 3.097196e+00 -2.180235e+00 -2.261503e+00 5.740099e-01 -2.683393e+00 -4.356530e+00 -2.734026e+00 -3.504831e-02 5.010155e+00 -1.332533e-01 -4.992962e-01 -6.906372e-01 -2.011058e+00 -6.486775e-01 1.851683e+00 -1.544918e+00 4.348340e-01 1.805224e+00 1.439861e+00 4.011195e-01 -1.230123e+00 -3.806935e-02 -1.121641e-02 
7.166481e-01 5.856208e-01 -1.069814e+00 -2.174624e-01 -8.188032e-01 -2.205470e-01 5.239141e+00 5.598761e+00 1.342414e+00 -2.541210e+00 -1.578736e+00 3.281682e+00 -9.318233e-02 -7.474011e-01 -1.484735e+00 -3.090984e-01 -1.767856e+00 6.735643e-01 -1.474241e+00 3.420449e-01 1.564569e+00 6.502103e-01 -7.483097e-01 -9.280938e-01 -9.921926e-01 4.753657e-02 
1.035512e+00 -4.443479e+00 5.767603e-01 -3.107247e+00 -1.345696e+00 -2.288361e+00 8.666062e-01 2.234758e+00 -5.986214e+00 -2.407547e+00 3.877483e+00 5.462614e-01 4.021680e-02 -1.099939e+00 -1.377212e+00 1.501593e+00 -2.900919e+00 -1.044020e+00 2.055397e-02 -7.193472e-01 1.099415e+00 3.110608e-01 -1.439388e+00 8.783848e-01 -9.886301e-01 1.292898e-01 
-1.188101e+00 -2.035350e+00 5.151020e+00 -4.290971e+00 -5.000792e+00 -2.517098e+00 1.520459e+00 3.207812e+00 -4.337530e+00 -7.858063e+00 -4.850844e-01 -1.905710e+00 1.999510e-01 -2.252738e+00 1.291343e-01 1.572904e+00 -3.083575e+00 -1.329200e+00 3.218827e-01 -2.089475e+00 -1.997874e+00 -1.340637e+00 -1.522080e+00 1.247304e+00 -4.867501e-01 1.564334e-01 
-4.129784e+00 -1.110210e+00 4.839661e+00 -9.370646e+00 -5.309341e+00 -1.010458e+00 -1.163385e+00 4.009154e+00 3.874588e-02 -7.272539e+00 3.810050e+00 2.660700e+00 3.666292e-01 -3.236788e+00 4.505656e-01 3.427343e-01 -2.568562e+00 -9.726421e-01 2.854328e-01 -2.250512e+00 -2.109342e+00 -1.263440e+00 -9.999755e-01 1.779394e+00 3.185893e-01 1.594814e-01 
-7.964397e+00 -4.353422e-01 4.663256e+00 -1.250364e+01 -5.482982e+00 7.499149e-01 -4.193238e+00 -5.277807e+00 -8.373249e+00 -7.719112e+00 4.691502e+00 -2.092885e-01 5.257784e-01 -2.400539e+00 8.159274e-01 1.998213e-01 -1.322861e-01 1.099720e+00 1.501841e+00 -5.920703e-01 -2.114235e+00 -1.684065e+00 -9.183241e-01 1.092856e+00 -2.636176e-01 1.257255e-01 
-1.176028e+01 -2.990654e+00 2.534314e+00 -1.184372e+01 -5.967811e+00 -2.494703e+00 -7.529106e+00 -4.069143e+00 -1.028555e+01 -7.476900e+00 1.018616e+01 1.290997e+00 6.747100e-01 -1.384429e+00 8.741792e-01 3.677525e-02 1.502133e+00 1.264245e+00 5.836887e-01 1.479751e-01 -1.203931e+00 -1.022163e+00 -2.576920e-01 1.015960e+00 -1.775333e-01 8.638419e-02 
-9.375546e+00 2.984509e+00 7.302800e+00 -3.715863e+00 8.270419e-01 5.734229e+00 1.742968e+00 -3.324215e+00 -7.595705e+00 -1.234750e+01 1.791139e+00 -2.538947e+00 6.745378e-01 -9.825584e-01 4.153200e-01 -1.038794e+00 5.369171e-01 6.154509e-01 -1.242967e-02 5.337936e-01 1.411264e+00 1.852103e+00 3.286826e-01 1.685774e-01 7.980915e-01 5.657674e-02 
-1.034636e+01 1.550761e+00 3.703765e+00 -6.253868e+00 -2.143130e+00 -5.841713e-01 -3.391613e+00 -2.987297e+00 -5.460839e+00 -6.246804e+00 1.034003e+01 2.937862e+00 7.241704e-01 -6.697434e-01 4.126392e-02 -1.881058e+00 -6.666357e-01 1.153311e+00 -5.274868e-03 1.376057e-01 1.541654e+00 2.431373e+00 1.875512e+00 2.874485e-01 8.331367e-01 3.952613e-02 
-1.358415e+01 -6.294497e-01 -1.115439e+00 -1.261398e+01 -4.318069e+00 -2.674992e-01 -3.593017e+00 1.237589e+00 -1.525092e+00 -6.690747e+00 5.457454e+00 2.957736e+00 7.839319e-01 -8.925669e-01 -6.460167e-01 -2.037712e+00 -2.170563e+00 2.917666e-01 -1.461944e+00 -5.838953e-01 4.305815e-01 4.025001e-01 2.164713e+00 1.323632e+00 -8.146213e-02 4.236680e-02 
-1.300469e+01 -9.773554e-01 -2.661857e+00 -1.072784e+01 2.371300e+00 4.797869e-01 -4.173085e+00 1.358227e+00 -1.163992e+00 -9.277179e-01 9.790245e+00 2.708339e+00 8.176436e-01 -6.299677e-01 -3.135442e-01 -1.304999e+00 -1.652920e+00 1.015090e+00 3.778689e-01 1.873240e+00 -4.343874e-01 -1.069118e+00 6.245732e-01 -9.892250e-01 -1.947551e+00 2.678945e-02 
-1.250921e+01 1.018485e+00 2.970519e-01 -1.233169e+01 2.866018e-02 -2.107470e+00 -7.857723e-01 -3.344069e+00 -7.731628e+00 -4.183477e+00 8.684191e+00 -2.831496e+00 8.396353e-01 -1.769581e-02 4.903569e-01 -1.003766e+00 -6.064236e-01 1.095857e+00 -4.186587e-01 1.875629e+00 -1.147773e+00 -1.055501e+00 8.323966e-01 -9.895234e-01 -1.238570e+00 1.697093e-02 
-1.403366e+01 -8.409270e-01 -3.527473e+00 -1.465961e+01 7.589581e-01 2.225159e+00 4.570963e+00 -2.868405e+00 -7.703161e+00 -4.377573e+00 3.780536e+00 -3.905277e+00 8.302660e-01 -3.021955e-01 7.431622e-01 -1.188324e+00 -9.936258e-01 -3.586808e-01 -1.540170e+00 4.203016e-01 -5.060111e-01 -3.929800e-01 1.002464e+00 -8.021154e-01 -7.585078e-01 2.071513e-02 
-1.315815e+01 1.754120e+00 -5.701461e+00 -1.368021e+01 1.967387e+00 -3.233479e+00 1.413106e+00 -2.387959e+00 -3.533011e+00 -8.038366e-01 3.514691e+00 7.169211e-02 8.624754e-01 -3.205723e-01 7.534052e-01 -1.169518e+00 -7.288545e-01 5.733746e-02 -8.363129e-01 -2.883875e-01 1.846090e+00 1.492850e+00 2.289567e+00 -2.160246e-01 7.665147e-01 2.277637e-02 
-1.419120e+01 2.370637e+00 -5.604222e+00 -1.502171e+01 -3.914675e-01 -6.658059e+00 -3.171017e+00 -1.649884e+00 -5.228200e+00 2.394781e+00 8.364418e+00 -2.535794e+00 9.097992e-01 -5.769310e-01 3.678371e-01 -1.226835e-01 3.578438e-01 2.269201e-02 -1.572341e+00 -3.222878e-01 2.148601e+00 8.119366e-01 2.422669e+00 7.707380e-01 2.462361e-01 2.496790e-02 
-1.403330e+01 3.179729e+00 -4.512166e+00 -1.579492e+01 8.905603e-01 -1.847426e+00 1.643280e+00 5.277122e+00 -1.504857e+00 3.878182e+00 5.312127e+00 3.163356e-01 9.137505e-01 -7.939718e-01 -4.711986e-02 3.460791e-01 -1.335991e-01 1.000979e-01 1.141395e+00 5.266924e-01 4.496937e-01 -3.393314e-01 7.305766e-01 1.048760e-02 -4.276468e-01 1.143679e-02 
-1.648074e+01 2.854544e-01 -4.735538e+00 -1.181304e+01 1.410831e+00 -6.329572e+00 2.844438e+00 4.042061e+00 -4.657555e+00 5.394764e+00 6.735508e+00 -2.796419e+00 9.294680e-01 1.848097e-01 -2.098528e-01 7.706119e-01 8.890303e-01 -3.120680e-02 9.902111e-01 1.054592e+00 7.511568e-01 1.982765e-01 1.549093e-01 -1.150773e+00 -8.048881e-01 -1.913659e-02 
-1.598324e+01 2.561113e+00 -4.405407e+00 -1.595254e+01 1.566727e+00 2.309253e+00 1.038841e+00 -2.985463e+00 -5.514991e+00 1.349055e+00 4.381584e+00 -1.936230e+00 9.098250e-01 1.442141e+00 -6.188390e-01 1.053623e+00 2.279607e+00 -6.598090e-01 -4.356639e-02 5.480538e-02 3.250636e-01 -1.309848e-02 -3.176270e-01 -9.294567e-01 -1.137542e+00 -4.912046e-02 
-1.229219e+01 1.630681e+00 -1.804542e+00 -1.049775e+01 -8.855847e-01 -3.785343e+00 2.404160e+00 6.237192e+00 -2.231751e+00 4.433891e+00 3.075825e+00 -5.433952e+00 8.160790e-01 3.921684e+00 1.862493e-01 1.859267e+00 3.454160e+00 -7.746318e-01 -3.913704e-01 6.200781e-02 1.326959e+00 7.239504e-01 -7.849671e-01 -4.824595e-01 -4.636451e-01 -7.719563e-02 
-8.916876e+00 -5.870801e-01 -7.095495e-01 -5.054529e+00 -1.260277e+00 -3.337373e+00 2.137445e+00 5.804874e+00 -2.783252e+00 2.770483e+00 2.494685e+00 -4.052608e+00 7.248427e-01 6.998876e+00 -1.333366e+00 1.648739e+00 4.909747e+00 -1.845365e+00 -7.824500e-01 -1.469915e+00 1.837365e-01 6.797764e-01 7.844745e-01 4.096937e-01 4.800116e-01 -5.167527e-02 
-4.055023e-01 2.790797e+00 2.712868e+00 8.752525e-03 -1.048826e+00 -5.463111e+00 2.605175e+00 6.281691e+00 -2.403673e+00 7.592139e-01 5.266661e+00 -4.056455e+00 6.359810e-01 7.677467e+00 -2.582023e+00 6.900681e-01 4.006779e+00 -3.526074e+00 1.446249e+00 -3.760379e+00 -2.104844e+00 2.519378e-01 1.349132e+00 1.365502e+00 1.624321e+00 2.557852e-02 
1.306780e+01 -4.685775e+00 1.579580e+00 3.342943e+00 -7.578479e+00 -7.641126e-01 -6.411241e+00 -2.089029e+00 -2.030148e+00 7.108766e+00 5.334635e+00 -2.249205e-01 7.414976e-01 6.551513e+00 -3.289723e+00 -2.584547e-01 2.491673e+00 -4.756176e+00 2.183535e+00 -4.050694e+00 -1.430722e+00 8.295466e-01 2.096567e+00 9.831980e-01 1.337061e+00 7.801677e-02 
1.510281e+01 -9.230086e+00 5.012341e-01 5.337413e+00 -1.535685e+01 2.159271e+00 -1.212339e+01 -3.400741e-01 -1.348614e+00 9.010410e+00 8.483359e+00 7.738115e-01 9.356441e-01 3.507234e+00 -3.746329e+00 -1.201688e+00 1.167550e+00 -4.587117e+00 2.493081e+00 -3.039015e+00 3.985348e-02 1.134326e+00 2.194072e+00 -3.068623e-01 1.053187e+00 9.516354e-02 
1.608653e+01 -1.102525e+01 -8.960059e-01 4.739506e+00 -1.788714e+01 3.769112e+00 -1.075175e+01 1.962146e+00 8.369516e-01 9.127719e+00 5.802326e+00 2.175626e-01 9.650949e-01 6.284391e-01 -2.057601e+00 -1.119612e+00 4.745208e-01 -2.642179e+00 1.569851e+00 -3.680950e-01 2.140180e+00 1.561093e+00 1.060098e+00 -1.042072e+00 -1.300329e-02 5.381416e-02 
1.562130e+01 -1.277111e+01 -2.057778e+00 5.148219e+00 -1.883007e+01 4.735681e+00 -1.041965e+01 4.455370e+00 1.834407e+00 1.072010e+01 3.498504e+00 9.882414e-01 1.000000e+00 6.596015e-01 -1.439789e+00 -8.451552e-01 6.918979e-02 -2.788031e-01 6.152658e-01 1.450976e+00 1.607461e+00 1.427740e+00 1.873560e-01 -2.537873e+00 7.110287e-02 -3.134781e-03 
1.595075e+01 -1.320327e+01 -2.738977e+00 5.810144e+00 -1.905276e+01 5.796939e+00 -9.103587e+00 6.214149e+00 4.183805e+00 1.155441e+01 2.616702e+00 -3.971519e-01 9.783905e-01 8.885250e-01 -1.215658e+00 -4.199752e-01 1.378862e-01 8.660917e-01 2.901354e-01 1.010834e+00 1.661530e+00 8.018688e-01 1.879330e-01 -2.403955e+00 2.244571e-01 -2.483886e-02 
1.846871e+01 -1.534002e+01 -2.803056e+00 5.148043e+00 -1.616806e+01 4.221687e+00 -5.692590e+00 5.571230e+00 4.116662e+00 8.733843e+00 -2.613193e+00 1.436683e+00 9.133224e-01 9.078687e-01 -9.167620e-01 1.843260e-01 5.950337e-02 1.927302e+00 -4.185034e-01 -1.812877e-01 2.112723e+00 -2.693394e-01 -7.781418e-01 -2.146281e+00 6.499580e-01 -4.468901e-02 
1.910545e+01 -1.581909e+01 -2.623243e+00 5.429025e+00 -1.488769e+01 5.476786e+00 -8.061106e+00 9.711864e+00 3.705168e+00 1.106051e+01 -3.161600e+00 1.115627e+00 8.842394e-01 5.878526e-01 -8.304399e-01 6.794876e-01 -1.810503e-02 2.028587e+00 -9.691740e-01 -1.356152e+00 2.666605e+00 -8.611647e-01 -1.221731e+00 -1.875929e+00 1.071506e+00 -4.404018e-02 
1.858329e+01 -1.604701e+01 -1.194015e+00 5.636295e+00 -1.127610e+01 2.803241e+00 -1.184733e+01 1.327013e+01 7.270281e-01 7.076341e+00 -4.343752e+00 3.481642e+00 8.236305e-01 1.553748e-01 -1.603054e-01 6.572251e-01 2.684521e-01 1.152321e+00 -1.094110e+00 -1.859159e+00 2.755451e+00 -2.266330e-01 -2.152619e+00 -6.596688e-01 3.771160e-01 -4.620381e-02 
1.883272e+01 -1.700198e+01 -1.460602e-01 5.475492e+00 -1.135580e+01 1.660293e+00 -1.280698e+01 1.569773e+01 1.572798e+00 6.274511e+00 -5.897660e+00 3.937900e+00 8.030356e-01 1.785589e-01 1.487756e+00 2.596187e-01 -3.077381e-01 1.684402e+00 -1.082976e+00 -1.196126e+00 1.527434e+00 7.022041e-01 -2.798649e+00 -1.239793e+00 8.838570e-01 -7.342745e-02 
1.938195e+01 -1.555011e+01 -7.555220e-01 6.467070e+00 -1.217240e+01 6.593828e-01 -1.261545e+01 1.635555e+01 4.049682e+00 3.637486e-01 -4.543507e+00 1.911126e+00 7.229053e-01 -5.208911e-01 3.120520e+00 1.079308e+00 8.656227e-01 3.010583e+00 -2.477149e+00 5.399101e-01 3.321222e-01 1.656561e+00 -3.600517e+00 1.014423e+00 1.758474e+00 -1.046265e-01 
1.959892e+01 -8.628759e+00 -1.544395e+00 3.474947e+00 -6.017531e+00 1.133833e+00 -1.365767e+01 1.580632e+01 5.554861e+00 4.235647e-01 -9.260689e+00 6.320170e+00 5.674647e-01 -2.049123e+00 4.067252e+00 1.672137e+00 1.549173e+00 3.981530e+00 -3.136308e+00 1.319690e+00 -1.220914e+00 2.469847e+00 -4.156542e+00 1.687524e+00 1.450582e+00 -1.410907e-01 
1.559574e+01 -4.631015e+00 4.901693e+00 1.096468e+01 1.107682e+00 -9.319276e+00 -8.722426e+00 1.487644e+01 7.018799e+00 -8.000773e+00 2.409877e+00 1.108288e+01 4.182835e-01 -4.417532e+00 3.738097e+00 7.265388e-01 1.656444e+00 4.549594e+00 -2.156311e+00 3.151534e+00 -3.845689e+00 1.682467e-01 -1.815986e+00 9.512927e-01 8.371441e-02 -1.928219e-01 
1.048021e+01 -2.125263e+00 5.386018e+00 1.097255e+01 1.911804e+00 -9.031918e+00 -8.155038e+00 1.033271e+01 1.243748e+01 -1.032594e+01 -9.367343e-01 6.604935e+00 2.498932e-01 -4.979897e+00 3.427910e+00 -3.048895e-01 1.416476e+00 3.228121e+00 -8.493301e-01 3.726208e+00 -4.823715e+00 -1.756139e+00 1.674840e+00 2.286079e+00 -1.501699e+00 -1.876289e-01 
1.853644e+00 -1.113659e-01 -5.880346e-01 1.100049e+01 6.610901e+00 -5.039296e+00 3.909030e-01 -1.360905e-01 1.449607e+00 -3.341433e+00 -3.949020e+00 2.187316e+00 -8.241868e-02 -4.227202e+00 2.586737e+00 -1.973982e+00 -5.884573e-01 1.367516e+00 2.684231e+00 4.046519e+00 -4.118064e+00 -2.156444e+00 4.070324e+00 1.217769e+00 -2.140917e+00 -1.509374e-01 
1.570479e+00 6.250967e+00 -3.239795e-01 1.053942e+01 7.371464e+00 -5.252808e+00 4.167037e-01 -8.059905e-01 -4.412380e-01 6.468093e+00 5.349157e+00 3.259454e+00 -1.203289e-01 -3.001621e+00 1.204500e+00 -2.497585e+00 -4.886173e-01 -1.893795e-01 2.783337e+00 3.522831e+00 -1.168926e+00 -1.991972e-01 4.719037e+00 1.745400e+00 -1.267517e+00 -7.140225e-02 
-1.085403e+00 4.114554e+00 -2.113220e+00 8.238959e+00 5.215432e+00 2.212323e+00 7.224298e+00 -1.445289e-01 2.675939e+00 3.953831e+00 5.355775e+00 2.051033e+00 -1.512927e-01 7.210109e-01 -2.520314e+00 -2.814769e+00 -1.850751e+00 -9.275926e-01 1.977233e+00 -2.484223e-01 -1.546258e+00 7.495978e-01 1.116400e+00 1.458106e+00 4.667769e-01 4.013840e-02 
-3.058369e+00 1.784275e+00 -6.339313e+00 9.910231e+00 1.662642e+00 1.258955e+00 6.042419e+00 4.492299e+00 1.082833e+01 9.621614e+00 3.137867e+00 3.354932e-01 -7.268107e-02 2.550373e+00 -5.781328e+00 -3.596019e+00 -3.107495e+00 -1.724701e+00 1.370448e+00 -3.027701e+00 -3.150621e+00 7.296666e-01 -2.094490e+00 7.211112e-01 -6.776542e-01 1.515401e-01 
7.773123e+00 -1.047959e+01 -1.165421e+01 2.061330e+00 4.827350e+00 1.590987e+00 -3.664066e+00 -1.051652e+01 -4.371855e-01 6.638052e-01 4.447154e+00 5.983181e+00 9.444940e-02 3.107731e+00 -4.262696e+00 -2.349132e+00 -3.404359e+00 1.359991e-01 7.465226e-01 -4.156994e+00 -2.097330e+00 7.337273e-01 -1.847143e+00 1.464799e+00 -1.721594e+00 1.606900e-01 
9.893084e+00 -1.535860e+01 -1.353358e+01 -1.909232e+00 -1.058000e+00 1.910099e+00 -9.277619e+00 -1.137310e+01 4.763657e+00 -2.359345e+00 9.409023e+00 -2.094891e+00 5.145007e-01 2.200329e-01 -1.368128e+00 1.334274e+00 -3.549392e+00 1.135184e+00 1.288388e+00 -2.168437e+00 8.398878e-01 -4.620600e-01 -1.962270e+00 1.015936e+00 -2.050233e+00 1.602326e-01 
7.977526e+00 -8.627489e+00 -1.026175e+01 -2.873103e+00 7.255748e+00 5.619364e+00 -5.900653e+00 -2.698482e+00 9.376909e+00 7.085931e-01 9.544191e+00 -5.341748e+00 3.585666e-01 -4.417562e+00 7.973303e-01 3.153844e+00 -2.274320e+00 6.084303e-01 3.312087e-01 -5.918230e-01 3.431234e+00 9.883399e-01 -4.485999e-01 -1.931182e+00 -1.916251e+00 1.307647e-01 
-2.060406e+00 -5.982415e+00 -3.641754e-01 -5.369511e+00 6.124364e+00 5.686705e+00 -3.681474e+00 4.782718e+00 3.610978e+00 -2.121334e-01 5.669027e+00 -4.253206e+00 5.964233e-01 -5.631625e+00 8.995094e-01 3.257287e+00 -1.701868e+00 -2.459538e-02 -8.287781e-01 2.872236e-01 2.888838e+00 1.237518e+00 1.090877e-01 -3.984580e+00 -3.785864e-01 7.507749e-02 
-8.337942e+00 -1.118103e+01 -2.469691e+00 -7.580133e+00 4.278320e+00 1.358727e+00 -9.421254e+00 -1.438259e+00 5.080853e+00 -2.652800e+00 -3.338757e+00 -2.518915e+00 7.073115e-01 -3.839076e+00 8.752438e-01 3.109535e+00 -4.858764e-01 -2.201235e+00 -1.672287e+00 -6.702594e-02 7.595401e-01 6.240058e-01 -9.925717e-01 -3.868896e+00 1.451996e-01 8.267099e-02 
-1.010731e+01 -9.584284e+00 -1.143169e+00 -8.065058e+00 3.077375e-01 -1.034729e-01 -6.081201e+00 2.440982e+00 1.309928e+01 -1.332097e-01 -4.072403e+00 -5.399240e+00 7.155157e-01 -6.395401e-01 2.504568e+00 2.915894e+00 1.145157e+00 -1.191349e+00 -1.140218e+00 1.019910e-01 -5.107430e-01 9.352989e-02 -2.560829e+00 -2.283927e+00 5.548421e-01 2.636924e-02 
-7.194403e+00 -2.450336e+00 5.675423e+00 -3.954711e+00 -8.421124e-01 1.530180e-01 -5.035919e+00 2.270087e+00 7.752789e+00 -4.293727e+00 -4.929573e+00 -4.042733e+00 7.123753e-01 8.705427e-01 4.046173e+00 3.608804e+00 1.247982e+00 -7.640083e-02 9.476877e-01 1.393002e+00 7.271054e-01 -9.857103e-01 -1.360983e+00 -2.616917e-01 9.489737e-01 1.292050e-02 
-5.829876e+00 2.175076e+00 1.014274e+01 -1.456438e+00 2.727834e+00 5.884688e-01 -5.364186e+00 3.748307e-01 2.742660e+00 -1.219582e+01 -4.955200e+00 -7.170863e-01 7.257376e-01 8.327524e-01 2.982766e+00 2.136195e+00 1.438949e+00 1.003678e+00 1.185954e+00 1.105751e+00 -3.482098e-01 -1.431499e+00 -5.232608e-01 3.762196e-01 2.003810e+00 3.945696e-03 
-6.123943e+00 3.170155e+00 9.931377e+00 -4.644533e+00 2.686268e+00 5.751194e+00 -2.814753e+00 3.230344e+00 5.330610e+00 -3.426409e+00 -4.205817e+00 -1.151229e-01 7.668031e-01 -8.690052e-02 9.146818e-01 2.705345e-01 4.281498e-01 1.113426e+00 8.766740e-01 4.208975e-01 2.466544e-01 4.383342e-01 1.256083e+00 1.260369e+00 1.447120e+00 -1.557255e-03 
-6.478773e+00 2.519298e+00 7.409829e+00 -5.254036e-01 3.561935e+00 3.027209e+00 -1.663028e+00 2.198043e-01 7.152868e+00 -3.183172e+00 -2.553184e+00 2.656005e+00 7.080303e-01 -4.826708e-01 -3.289581e-01 -3.786066e-01 -7.430297e-01 -7.259510e-02 8.411111e-01 4.646626e-01 3.316570e-01 9.342301e-01 1.249699e+00 1.199662e-01 -4.114332e-01 -7.695311e-03 
-7.304457e+00 1.950962e+00 8.394550e+00 -2.279480e+00 4.307966e+00 3.317018e+00 -4.782011e+00 3.580872e+00 7.739356e+00 -2.519632e+00 1.712631e-01 1.506323e+00 7.134427e-01 -3.769163e-01 -4.666069e-01 -3.070582e-01 -1.393893e+00 -1.343593e+00 -4.109052e-01 9.688320e-02 -3.357959e-01 6.647359e-01 -1.389392e+00 -4.255877e-01 -7.473906e-01 -1.443201e-02 
-7.652973e+00 1.139882e+00 9.018118e+00 -6.354114e+00 1.554009e+00 6.011113e+00 -2.057244e+00 1.857852e+00 6.209437e+00 -6.400712e+00 -6.543910e+00 -3.584975e+00 7.139412e-01 -5.046690e-01 -6.803057e-01 -2.059553e-01 -2.763155e+00 -2.686111e+00 9.589638e-01 1.502008e+00 8.710186e-01 8.479720e-01 -1.112471e+00 -8.623179e-01 -7.872370e-01 -4.564226e-03 
-7.421425e+00 1.526828e+00 7.591941e+00 -8.699646e+00 -3.027734e+00 2.204717e+00 -2.133228e+00 7.323401e-01 9.126005e+00 -8.764601e+00 -4.338393e+00 -7.315857e-01 6.916876e-01 -6.205047e-01 -1.294031e+00 -8.607745e-01 -2.160073e+00 -2.665862e+00 -4.139314e-01 1.127466e+00 4.940872e-01 1.142347e+00 -8.586807e-01 -7.242170e-01 -9.465693e-01 -2.083732e-02 
-8.943634e+00 -6.701635e-01 6.781356e+00 -1.113110e+01 -6.200769e+00 8.378178e+00 4.522623e+00 5.999164e+00 1.069940e+01 -5.623046e+00 -4.609944e+00 -1.612256e-01 6.960868e-01 -4.785095e-01 -2.018513e+00 -1.393610e+00 -1.347152e+00 -1.579870e+00 -1.511325e+00 -9.978648e-02 2.952573e-01 1.175798e+00 3.898017e-01 2.089217e+00 8.106609e-02 -4.336974e-02 
-9.761650e+00 -3.614171e+00 5.209058e+00 -1.069135e+01 -5.143954e+00 6.382823e-02 -2.434613e+00 3.980652e+00 1.120611e+01 -7.201869e+00 -4.416804e+00 -4.938398e+00 6.181833e-01 4.173862e-01 -1.913979e+00 -8.728577e-01 -3.940768e-01 -5.841666e-01 -1.003216e+00 -7.689198e-01 -4.108540e-01 -7.108914e-01 5.382717e-01 1.457056e+00 -9.908639e-01 -6.149618e-02 
-8.875408e+00 -6.382182e+00 3.241510e+00 -1.209402e+01 -5.287231e+00 -4.750657e-01 -2.405484e+00 1.709982e+00 1.104838e+01 -5.233069e+00 3.941382e+00 -1.076239e+00 5.338446e-01 1.978013e+00 -8.012802e-01 -3.804239e-01 4.107204e-01 1.110619e+00 -1.630698e+00 -2.097909e+00 -2.392935e-01 -8.081064e-01 -9.292952e-01 3.140776e-01 3.086823e-01 -8.401693e-02 
-5.368607e+00 -5.187056e+00 4.997576e+00 -1.018857e+01 -6.405336e+00 1.615261e+00 -2.513774e+00 8.226607e-01 5.397062e+00 -6.268230e+00 -1.328776e+00 -5.228399e+00 4.653277e-01 3.091812e+00 4.093697e-01 -2.639785e-02 5.364882e-01 1.180434e+00 -1.421395e-01 -2.414429e+00 -4.205648e-01 -1.226754e+00 -1.218318e+00 -1.258580e+00 1.103172e+00 -9.155612e-02 
-1.250092e+00 -3.890122e+00 4.984978e+00 -9.328887e+00 -1.698470e-02 -5.510261e-01 -5.927342e+00 6.381692e+00 9.563396e+00 -1.073634e+01 -4.583570e+00 1.527186e+00 3.524299e-01 3.310668e+00 1.217822e+00 -8.183629e-01 1.282721e+00 1.414736e+00 3.005814e-01 -1.437763e+00 -1.877044e-01 -1.256402e+00 -7.540261e-01 -1.697654e+00 5.852157e-01 -1.207803e-01 
1.884749e+00 -2.813352e+00 4.205335e+00 -9.391480e+00 -1.876909e+00 -6.088892e-01 -1.274583e+01 -4.580266e-01 5.814830e+00 -1.054182e+01 -6.447230e+00 -7.242489e-01 2.511101e-01 2.456469e+00 1.713594e+00 -1.128215e+00 1.945820e+00 1.839738e+00 3.745757e-01 2.113283e-01 -8.879391e-01 -1.629485e+00 1.292589e-01 -5.493063e-01 -1.573177e-01 -1.282783e-01 
4.051254e+00 -1.479921e+00 -4.541842e-01 -6.078957e+00 -4.777635e-01 2.139916e+00 -4.478272e+00 1.411804e+00 4.557484e+00 -6.866404e+00 -1.987661e+00 -4.022352e-01 3.705215e-02 1.413043e+00 1.966730e+00 -1.809569e+00 2.606564e+00 1.127595e+00 1.269215e+00 1.984054e+00 -1.434965e+00 -2.521096e+00 1.573515e+00 8.423702e-01 -1.663169e+00 -1.130070e-01 
4.263063e+00 2.175815e+00 2.076083e+00 -2.084430e+00 3.023744e+00 2.142668e+00 -2.181667e+00 -1.132091e+00 -2.474098e-01 -7.556905e+00 -5.373262e+00 -5.050277e+00 -1.837480e-02 8.146554e-01 2.189586e+00 -2.199723e+00 3.389592e+00 2.178902e+00 1.163615e+00 4.494894e+00 4.763218e-01 -2.131958e+00 1.412384e+00 -6.132532e-01 -1.284720e+00 -8.806732e-02 
4.625966e+00 3.448946e+00 -2.998242e+00 5.040556e-02 3.170663e+00 4.419269e+00 -1.289153e+00 -4.561007e-01 -1.096523e-02 -4.361226e+00 -9.087037e-01 -4.625644e+00 -7.786262e-02 -4.188313e-01 1.354387e+00 -1.524091e+00 2.121672e+00 9.834350e-01 -4.228314e-01 4.089495e+00 9.594896e-01 -1.094472e+00 2.028964e+00 -6.591042e-01 -4.215576e-01 -4.851558e-02 
5.670671e+00 5.670146e+00 -5.521250e+00 4.491796e+00 7.193388e+00 4.069509e+00 8.134075e+00 2.857535e+00 -2.560735e+00 -4.732491e+00 -1.005297e+01 -5.036146e+00 -1.317691e-01 -7.062600e-01 7.453098e-01 -8.456048e-01 1.360910e+00 -5.022401e-01 -1.735285e+00 3.519379e+00 -4.356704e-01 -7.480556e-02 2.121226e+00 -6.112544e-01 5.940609e-02 -3.225415e-02 
1.253294e+00 3.544847e+00 -4.275971e+00 1.241290e+00 2.354589e+00 -9.376609e-01 1.081133e+01 4.214439e+00 2.417861e-01 1.866210e+00 -2.943326e+00 -2.517088e+00 -1.488286e-01 -6.229021e-01 5.401337e-01 2.220702e-01 6.272820e-01 -7.094724e-01 -1.204746e+00 1.374542e+00 -1.650554e+00 -2.975570e-01 1.354361e+00 -1.535574e+00 -7.456955e-01 -1.063936e-02 
2.418099e+00 5.854414e+00 -1.513077e+00 4.124679e+00 9.205803e-01 -3.855292e+00 9.364985e+00 -5.645713e+00 -7.478132e-01 -6.449509e-02 -7.412223e+00 -5.807524e+00 -1.441625e-01 -4.315348e-01 1.126031e+00 1.324831e+00 1.367325e-01 -1.282269e+00 -2.772838e-01 -2.477181e+00 -3.140951e+00 -3.747553e-01 1.623008e+00 9.652178e-01 2.442049e-01 3.833401e-03 
3.137741e+00 6.057480e+00 -3.891978e+00 3.370374e+00 2.759705e+00 2.357940e+00 4.968101e+00 -4.457247e+00 -2.405211e+00 7.657838e-02 -9.906947e+00 -7.968432e+00 -1.248627e-01 2.082342e-01 1.165508e+00 1.029645e+00 4.934348e-01 -4.688435e-01 3.824860e-01 -1.198831e+00 -1.121681e+00 -1.112994e+00 -3.398903e-01 -6.294377e-01 1.043211e+00 1.464939e-03 
2.570773e+00 1.004399e+01 9.109094e-01 4.110916e+00 5.794858e-01 1.035289e+00 -1.330217e+00 -8.511374e+00 -3.111013e+00 4.277367e+00 -1.745075e+00 -1.089450e+00 -1.245850e-01 -3.883211e-01 2.163957e-01 1.106352e+00 3.321941e-01 -9.935200e-02 -3.254067e-01 -1.219377e+00 4.467102e-01 -1.908099e-01 1.189389e+00 1.348717e+00 1.647558e+00 -4.069030e-03 
2.218128e+00 7.277599e+00 -3.397403e-01 3.715345e+00 1.809192e-01 -1.470522e+00 1.016478e+01 3.886342e-02 -4.141582e+00 -2.004172e+00 -8.924089e+00 3.399307e-01 -1.512927e-01 -7.303618e-01 -7.079331e-01 1.341088e+00 6.878419e-01 4.832226e-01 -9.245013e-01 -1.756892e-01 -7.321169e-01 4.357476e-02 1.689558e+00 2.549666e+00 1.948266e+00 -7.956767e-03 
9.363003e-01 6.326333e+00 2.242564e+00 5.613164e+00 1.713213e+00 -3.568095e+00 6.697602e-01 -5.660217e+00 -8.336774e-01 6.922826e+00 -1.160065e+00 -1.723916e+00 -1.512927e-01 -6.492244e-01 -1.544201e+00 -1.524602e-01 -1.799424e-02 1.026852e+00 -5.918700e-01 3.647422e-01 -2.859573e-01 6.830193e-01 1.390260e+00 1.207787e+00 1.349838e+00 -5.341530e-03 
3.031683e-01 4.376641e+00 2.147633e+00 6.058459e+00 4.608954e+00 3.712511e-02 3.089665e+00 -9.543410e+00 -3.326005e+00 7.201638e+00 2.548878e+00 2.090132e+00 -1.512927e-01 -9.256121e-01 -9.952051e-01 -1.664453e-01 5.823050e-02 1.136979e+00 -7.582770e-02 -6.944616e-01 -5.218199e-01 1.319563e+00 1.904639e+00 1.436725e+00 7.535101e-01 0.000000e+00 
2.821312e-01 3.773457e+00 -1.095078e+00 2.849388e+00 3.499727e+00 -2.677884e+00 4.031049e+00 -5.150024e+00 -1.037050e-01 6.625760e+00 -1.442623e+00 4.784640e+00 -1.512927e-01 -7.743754e-01 -6.532142e-01 -9.278548e-01 -4.839087e-02 1.454641e+00 1.103316e+00 1.409095e+00 1.193688e+00 7.844788e-01 -6.345705e-01 -1.340417e+00 -9.510192e-01 0.000000e+00 
-2.082848e+00 3.578011e+00 4.968543e-01 5.388386e+00 4.972555e+00 -2.294765e+00 5.011824e+00 -2.825333e+00 2.091245e+00 7.667558e+00 -1.599185e+00 8.532035e-01 -1.512927e-01 -7.305870e-02 6.854799e-01 -5.849386e-01 3.004255e-01 7.433090e-01 8.763357e-01 7.918376e-01 1.976809e+00 9.474166e-01 -1.648322e+00 -2.537178e+00 -1.380752e+00 7.771611e-03 
-1.742569e+00 3.459577e+00 -1.571321e+00 5.706246e+00 8.804619e+00 3.114431e+00 6.754155e+00 -3.050815e+00 3.800912e-01 3.517014e+00 -5.788118e+00 -5.860547e+00 -1.512927e-01 4.551431e-01 8.897728e-01 2.063019e-02 7.060650e-01 1.047350e+00 1.055258e+00 4.849184e-02 4.387564e-01 -3.432871e-01 -1.647926e+00 -7.387750e-01 -1.356281e-01 3.885806e-03 
9.502249e-01 7.960981e+00 -5.389389e-01 6.132157e+00 5.673054e+00 1.522646e+00 5.687300e+00 -7.089701e-01 1.169179e+00 5.144002e-01 -7.964264e+00 5.089667e-01 -1.124346e-01 6.304776e-01 1.000504e+00 -1.832474e-02 3.488512e-02 -1.333470e-01 7.934631e-01 2.576313e-01 -4.894232e-01 -7.026336e-01 -1.618126e+00 1.032851e+00 6.167606e-01 4.901886e-03 
1.041310e+00 6.030837e+00 -4.740307e-01 6.007827e+00 8.386229e+00 6.897001e-01 3.935770e+00 -4.014424e+00 -1.359107e+00 1.962708e+00 -1.953958e+00 4.278618e+00 -1.512927e-01 3.147246e-01 5.467128e-01 1.746501e-01 -1.996141e-01 -1.583409e+00 -3.965840e-01 3.238909e-01 -5.761791e-01 -9.445196e-01 -2.415779e-01 1.997175e+00 1.363675e+00 6.781220e-04 
-3.223991e-01 7.294903e+00 -1.434145e-01 5.412021e+00 4.515015e+00 2.884915e+00 7.709173e+00 -4.790644e+00 -5.523237e-01 3.540819e-01 1.647992e+00 -1.132576e+00 -1.267833e-01 -2.971407e-01 -1.450013e-01 -1.540295e-01 -6.546316e-01 -9.835436e-01 -2.961098e-01 4.498069e-02 -7.343059e-01 -1.664773e+00 8.304378e-01 1.304114e+00 -1.249084e-01 -2.659285e-03 
4.673662e-01 6.526180e+00 -8.958327e-01 5.068244e+00 1.466596e+00 4.503763e-01 7.362673e+00 -3.890873e+00 -3.481755e+00 2.389284e+00 -6.083744e-01 1.778602e+00 -1.407278e-01 -3.602707e-01 -2.877181e-01 -2.877369e-01 -3.132327e-01 -3.280530e-01 -4.950100e-01 2.898890e-01 3.905583e-01 -1.095065e+00 2.823340e-01 -7.495906e-02 -3.006044e-01 -1.561403e-04 
-2.485065e-01 6.988303e+00 -1.098185e+00 3.328791e+00 4.215152e+00 1.617587e-01 4.198751e+00 -4.442275e+00 -6.093361e+00 4.453301e+00 -2.116489e+00 1.134433e+00 -1.310135e-01 -7.189302e-02 -8.629028e-01 -4.790477e-01 2.772522e-01 4.027553e-01 -7.956624e-01 -6.600382e-01 7.338005e-01 2.994297e-01 1.226588e+00 3.917903e-01 4.420750e-01 -5.824936e-03 
-7.969894e-01 4.745546e+00 -1.435330e+00 5.483278e+00 6.895895e+00 -4.237716e-01 7.140425e+00 -2.235817e+00 -4.063913e+00 1.324768e+00 -4.465131e-01 1.642091e+00 -1.499583e-01 -1.111916e-01 -6.291464e-01 -2.577755e-01 2.495635e-01 3.266111e-01 -1.146529e+00 -9.375785e-01 -3.583098e-01 -1.676450e-02 3.505339e-01 8.333889e-01 5.073069e-01 3.711748e-03 
-4.968643e-02 3.870705e+00 -2.268904e+00 6.590765e+00 3.814142e+00 -6.563227e-01 4.520105e+00 -1.949169e+00 1.235904e+00 7.019279e+00 3.526012e+00 1.146054e+00 -1.512927e-01 4.722805e-02 -3.637448e-01 2.129511e-01 6.553249e-02 -1.192889e+00 -1.126729e+00 -1.720399e-01 -4.822633e-01 6.586754e-02 -1.136747e+00 -1.046273e-01 5.709878e-01 -2.629519e-04 
-1.880016e-01 4.939247e+00 -1.599351e+00 4.685074e+00 3.300157e+00 -4.873228e+00 2.514103e+00 -6.928975e+00 -7.230210e+00 2.858964e+00 7.373196e-01 4.309325e+00 -1.120294e-01 7.064362e-02 3.923597e-01 5.541767e-01 -2.643577e-01 -7.249614e-01 -3.703803e-01 -2.873664e-01 -5.250714e-01 -1.267406e-01 -2.884758e-01 -4.845453e-01 3.087868e-01 8.554935e-04 
-3.168602e-01 5.072728e+00 4.858100e-02 4.055555e+00 4.857683e-02 -3.247160e+00 5.651713e+00 -4.507012e+00 -4.180875e+00 -1.997534e+00 -3.231542e+00 2.655755e+00 -1.512927e-01 5.153624e-01 3.742270e-01 5.603738e-01 -9.957647e-03 3.636959e-01 6.385115e-01 1.003904e+00 4.554841e-01 -8.738719e-01 9.239401e-02 -7.986474e-01 6.350087e-01 -3.365135e-03 
-3.101845e-01 6.106333e+00 1.768109e-01 5.429094e+00 5.153871e+00 -9.802545e-01 5.137789e+00 -3.582253e+00 -1.989227e+00 4.390796e+00 5.095373e-01 2.431175e+00 -1.456808e-01 7.582760e-02 -3.625234e-01 2.549471e-01 6.073595e-01 -1.156442e-01 4.721434e-01 3.464194e-01 -4.528508e-02 9.168205e-02 1.233415e+00 1.280648e-01 8.155584e-03 -7.852649e-03 
2.588217e+00 5.158297e+00 -3.551164e-01 6.168967e+00 4.705764e+00 5.897484e-01 8.227784e+00 -1.345111e+00 -5.753947e+00 6.715333e+00 -3.533334e-01 5.260173e+00 -1.512927e-01 -2.840301e-01 -7.000253e-01 -6.422731e-02 6.455294e-01 -4.070998e-01 -5.818320e-01 -7.566722e-01 -1.361278e+00 -7.604814e-01 1.361309e+00 5.769163e-01 1.400999e-01 -5.611897e-04 
-1.261402e+00 3.083846e+00 -1.227667e-01 6.665166e+00 3.933421e-01 -4.430964e+00 2.958165e+00 -8.736352e+00 -5.985264e+00 4.669605e+00 -6.146079e-02 3.047894e+00 -1.512927e-01 -5.752054e-01 -8.119426e-01 -3.668056e-02 2.968344e-01 -1.383348e+00 -1.192213e+00 -9.628868e-01 -1.769944e+00 -8.223389e-01 -1.488109e-01 -8.501237e-02 -9.788394e-02 -1.122379e-03 
