-3.766320e+00 7.359781e+00 -1.744657e+00 -1.045687e-01 4.793646e-01 -5.064369e+00 7.491417e-01 -7.685213e+00 -3.130411e+00 -3.634712e+00 -1.061874e+00 -5.564846e-01 -1.487503e-01 -1.178212e-01 7.301728e-02 7.605726e-01 -1.137838e-01 -1.769822e-01 2.917087e-01 -8.408537e-01 -5.080279e-01 1.946001e-01 1.927492e+00 -2.502026e-01 -7.199039e-01 1.018298e-03 
-4.973564e+00 7.766826e+00 1.671255e+00 -1.094954e+00 -2.237858e+00 -6.445844e+00 -2.193466e+00 -6.602344e+00 1.761272e+00 1.393607e+00 -4.471677e+00 -5.298249e+00 -1.334826e-01 -7.776098e-02 2.880213e-02 4.557454e-01 -3.624638e-01 1.929208e-01 4.477140e-01 -3.614655e-01 6.422864e-01 1.826442e-01 2.778176e+00 2.324068e-01 -3.724902e-01 -7.627130e-04 
-3.751804e+00 7.521345e+00 3.502505e-01 -1.782947e-01 9.530649e-01 -2.915088e+00 -1.983823e+00 -1.076679e+01 -4.603252e+00 3.488591e+00 -6.079865e-01 -1.785122e+00 -1.512927e-01 -2.492352e-01 4.799485e-03 3.110031e-01 1.975520e-01 8.482609e-01 4.366773e-01 6.740554e-01 7.857113e-01 -6.822623e-01 1.658018e+00 7.176687e-01 -8.409093e-02 -2.289486e-03 
-4.162383e+00 7.423010e+00 -5.133830e-01 -1.880025e+00 1.207119e+00 -3.900439e+00 3.082967e-01 -2.932994e+00 -1.480770e+00 6.694518e+00 -1.267843e-01 -1.804617e+00 -1.512927e-01 -4.099434e-01 -2.692021e-01 2.239745e-02 6.177295e-01 1.523314e+00 -3.701369e-01 9.257849e-01 3.285647e-01 -6.449713e-01 1.202374e-01 3.243087e-01 8.702992e-01 -1.192784e-03 
-5.418087e+00 7.555686e+00 9.026784e-01 1.275727e+00 2.998181e+00 -4.153685e+00 2.868537e+00 -5.591331e+00 -4.920702e+00 2.004922e+00 3.540230e-01 -2.723755e+00 -1.512927e-01 -8.157746e-01 -5.872266e-02 2.071409e-01 5.147753e-01 2.014539e+00 -1.926624e-01 1.092908e+00 2.945809e-01 -6.648298e-02 -7.017241e-01 4.272053e-02 1.352917e+00 2.365005e-03 
-6.190140e+00 6.403645e+00 1.507029e+00 1.266683e+00 4.356154e+00 -7.677230e+00 9.278774e-03 -7.547248e+00 -1.304860e+00 2.736629e+00 -3.331138e+00 -4.774359e-01 -1.394465e-01 -6.297392e-01 -1.853680e-01 1.653215e-01 -6.662152e-02 9.431696e-01 2.096570e-01 7.436074e-01 -5.197365e-01 5.712524e-01 -1.103395e+00 -5.465633e-01 1.529894e+00 5.901933e-04 
-6.816799e+00 7.737414e+00 3.757493e-01 8.222280e-01 9.451241e+00 -1.990005e+00 3.630227e+00 -6.986756e+00 -5.023623e+00 1.958916e+00 1.207793e+00 4.315872e+00 -1.453907e-01 -7.702482e-01 -6.818237e-01 -7.171374e-02 -7.433544e-01 -5.713712e-01 1.210431e+00 -4.214375e-02 -6.095225e-01 8.880579e-01 2.011925e-01 -4.666013e-01 3.102520e+00 5.947387e-03 
-6.611723e+00 6.405306e+00 5.766889e-01 -1.986383e+00 2.696437e+00 -3.933994e+00 3.645489e+00 -4.833965e+00 1.426952e+00 1.200545e+00 -3.286486e+00 2.325040e+00 -1.512927e-01 -4.696934e-01 -7.808552e-01 -1.471971e-01 -5.785088e-01 -1.238917e+00 1.864482e+00 5.252900e-01 1.066590e-01 -1.044442e-01 -2.305302e-01 -1.051562e-01 1.293699e+00 1.056707e-03 
-9.058537e+00 4.145737e+00 1.009279e+00 -8.145127e-01 9.711837e-01 2.685404e-02 8.397136e-01 -9.995585e+00 -1.846318e+00 3.778926e+00 -2.001309e+00 1.138761e+01 -1.156327e-01 -4.040859e-01 -1.032831e+00 6.466240e-02 4.560816e-03 -7.130724e-01 1.818094e+00 1.621968e+00 2.500099e+00 6.716301e-01 -1.102039e+00 -3.019790e-01 -9.593123e-01 2.592063e-03 
-7.417738e+00 4.295207e+00 4.542778e-01 -8.074908e-01 2.401599e+00 6.367517e-01 4.030986e+00 -5.509538e+00 -3.415732e+00 6.739722e-01 -2.252368e+00 2.455192e+00 -1.490420e-01 -1.001497e-01 -2.125089e-01 4.949497e-01 1.117274e+00 9.644535e-01 1.576718e+00 1.325157e+00 1.796305e+00 -7.353694e-01 -1.233569e+00 1.632900e+00 -1.349951e+00 -1.792312e-03 
-8.434221e+00 3.628306e+00 7.602668e-01 2.555859e-01 6.033298e+00 4.815092e+00 1.154732e+01 5.851524e+00 7.558703e-01 -3.287993e+00 -8.191612e-01 -5.457653e-01 -1.335558e-01 2.392286e-01 2.791352e-01 -3.444786e-02 5.447842e-01 4.778565e-01 1.709724e-01 1.409378e+00 2.312403e+00 8.408524e-01 -7.725614e-01 8.825747e-01 -9.735573e-01 -7.357073e-03 
-7.424629e+00 5.601477e+00 3.175944e+00 3.064937e+00 4.987647e+00 1.555477e+00 4.917473e+00 -3.775996e+00 -3.550989e+00 -1.433842e+00 4.286941e+00 1.541971e+00 -1.512927e-01 -1.971964e-01 -5.640677e-02 -1.059755e+00 -4.185536e-01 4.351104e-01 -7.707617e-01 -1.158714e+00 -3.211822e-02 7.126846e-01 -8.019833e-02 5.589445e-01 5.345980e-01 -2.223826e-03 
-7.858948e+00 4.888278e+00 -5.237928e-01 -2.680564e-02 2.067442e+00 4.223535e-01 7.443362e+00 6.996566e-01 2.425573e+00 9.700261e-01 -8.580903e-01 6.976429e+00 -1.512927e-01 -4.291378e-01 -1.504840e-01 -8.779832e-01 -3.874144e-01 1.806002e-02 -1.056361e+00 -1.865114e+00 -1.884056e+00 -5.526291e-01 8.213297e-01 2.353728e-01 6.966929e-01 -1.816535e-03 
-8.691357e+00 3.383187e+00 -4.202466e+00 -2.759063e+00 6.560080e+00 -1.020688e+00 2.893953e-01 -3.094195e+00 -6.871605e-01 -1.856029e+00 5.618191e-01 1.367085e+00 -1.512927e-01 -5.410677e-01 -6.087100e-01 -6.541013e-01 -7.546771e-01 4.937159e-01 1.538976e-01 6.898149e-01 2.681093e-01 -5.315685e-02 1.004866e+00 1.006827e-02 2.009294e-01 8.654237e-04 
-9.946547e+00 3.985031e+00 5.955577e-02 1.230514e+00 5.337382e+00 8.213677e-01 4.535786e+00 -3.909657e+00 -3.439189e+00 1.029749e+00 2.220264e+00 3.025142e+00 -1.426384e-01 -2.878149e-01 -4.690257e-01 3.625467e-01 -4.252678e-01 3.484819e-01 4.734726e-02 5.409033e-01 -2.891173e-01 -2.436032e-01 1.190152e+00 1.150913e+00 -6.933665e-01 7.388115e-04 
-9.086168e+00 3.009551e+00 -3.862374e-01 -1.337108e+00 5.821256e+00 2.125458e+00 9.820335e+00 -1.307926e-01 -8.843924e-01 3.560625e+00 2.798105e+00 4.522262e+00 -1.512927e-01 4.196720e-02 -3.336013e-01 -3.682304e-02 1.674248e-01 -5.876966e-01 -5.649503e-01 1.921615e+00 9.803978e-01 1.289012e+00 1.719005e+00 5.913097e-01 7.120994e-01 -4.960179e-04 
-9.100616e+00 2.729969e+00 -6.191738e-01 -2.864122e+00 4.179263e+00 -9.139829e-01 5.382408e+00 -2.227632e+00 1.306173e+00 4.212461e+00 3.778334e+00 1.932009e+00 -1.475986e-01 1.930313e-01 -9.260070e-02 -6.704361e-01 -2.635503e-01 -4.861237e-01 -8.341717e-01 1.680394e+00 1.931609e+00 2.147722e+00 9.874193e-01 -5.714594e-01 -5.592823e-02 -1.693344e-03 
-8.904486e+00 2.342712e+00 -4.047216e+00 1.253791e-01 4.200656e+00 -2.977764e+00 9.474158e+00 9.667810e-01 3.385218e+00 5.147639e+00 2.739332e+00 5.474149e+00 -1.512927e-01 4.391941e-01 6.656019e-01 7.649159e-01 1.192553e+00 -4.284016e-01 -1.550780e-01 4.880182e-01 1.638386e+00 1.340550e-01 -6.082513e-01 -6.228362e-01 -5.288517e-01 -3.506541e-04 
-9.072231e+00 3.855446e+00 -1.462135e+00 -8.184810e-01 3.717064e+00 -7.978799e-01 1.311084e+01 5.199599e+00 5.164615e+00 5.173339e+00 -6.076468e-01 2.269557e+00 -1.511052e-01 2.674861e+00 5.396010e-01 6.642195e-01 -5.973285e-01 -2.920347e+00 1.186291e+00 7.134174e-01 -1.121965e+00 -1.721248e+00 -5.990119e-02 -5.229504e-01 -1.080405e+00 1.865821e-02 
-6.904390e+00 5.774821e+00 3.859823e+00 3.602838e+00 3.910348e+00 1.292017e+00 8.396210e+00 4.347522e+00 -2.143338e+00 3.892946e-02 1.876915e+00 1.709229e+00 -1.512927e-01 3.998243e+00 -2.996727e-01 1.286664e+00 -2.440339e+00 -4.714462e+00 2.300673e+00 -1.564931e+00 -2.352191e+00 -3.228009e+00 3.736668e-01 6.118897e-01 -1.858365e+00 8.161157e-02 
3.273640e+00 3.711919e+00 -1.251596e+00 -7.589495e+00 -1.027732e+01 2.882582e+00 9.488470e+00 -9.527829e+00 -4.535788e+00 6.467310e+00 1.594791e+00 -1.587558e+00 -5.430758e-02 1.952181e+00 -8.965772e-01 1.013039e+00 -3.398593e+00 -1.601612e+00 8.927962e-01 -3.832025e+00 -2.404509e+00 -2.618442e+00 -3.884069e-01 2.335030e+00 1.567738e-01 1.283337e-01 
4.913793e+00 9.161119e-01 2.280837e+00 -8.690810e+00 -1.237447e+01 6.685370e+00 3.460690e+00 -3.430463e+00 -7.904624e+00 6.368987e+00 4.697562e+00 -1.889118e+00 2.083664e-01 -1.897446e+00 -2.153226e+00 -6.510402e-01 -3.764769e+00 8.012241e-01 -5.391578e-01 -3.177998e+00 1.001947e+00 -3.161918e-01 -2.203822e+00 1.400249e+00 2.374353e-01 1.628619e-01 
-5.220420e+00 1.801915e+00 4.392554e+00 -1.166462e+01 3.851408e+00 9.694242e-01 -3.581521e+00 -2.933956e+00 -5.046950e+00 6.627560e-02 9.657182e+00 4.852600e+00 3.107339e-01 -4.844174e+00 -1.829624e+00 -4.591758e-01 -1.539721e+00 2.033431e+00 -2.742971e+00 -3.014434e+00 3.736500e+00 1.886813e+00 -3.790951e+00 3.109844e-01 1.313705e+00 1.452776e-01 
-1.214459e+01 -4.036310e+00 -2.217453e+00 -1.318344e+01 8.521056e-01 -4.471939e-01 -9.587851e-01 6.060322e+00 -3.468717e+00 -7.779662e+00 4.846964e+00 -3.236738e-01 4.804961e-01 -4.570347e+00 -1.786490e+00 -1.697435e+00 -5.588171e-01 1.362771e-01 -3.546467e+00 -1.503169e+00 2.573993e-01 1.251465e+00 -3.350298e+00 -9.551862e-01 1.194359e+00 1.000932e-01 
-1.241804e+01 -2.959988e+00 -1.298330e+00 -1.304178e+01 -6.723449e+00 -7.265992e+00 -3.373965e+00 4.409278e+00 2.680325e+00 -5.413119e+00 3.075011e+00 4.198245e+00 5.360154e-01 -2.089988e+00 -1.136260e+00 -1.091151e+00 6.359880e-01 -2.240234e+00 -5.226903e-01 1.808038e+00 -1.629219e+00 -1.096775e+00 -1.337616e+00 -1.291724e+00 -8.522166e-01 8.365990e-02 
-1.433913e+01 -5.635389e+00 -3.360894e+00 -1.079632e+01 -6.405652e+00 -6.929258e+00 -4.158934e+00 -5.815084e+00 -5.510938e+00 -7.642805e+00 3.212716e+00 4.409853e+00 5.961915e-01 -1.029622e+00 4.967612e-01 7.699524e-01 -1.560020e-03 -1.687240e+00 -2.040449e-01 4.615602e-01 -1.702855e+00 -2.746201e-01 2.999716e-01 -2.124277e-01 -3.469079e-01 6.743389e-02 
-1.457309e+01 -3.079846e+00 -4.914827e-01 -9.678247e+00 -3.720883e+00 1.597005e+00 7.058744e+00 -5.142350e+00 -9.509714e+00 -6.690234e+00 4.015686e+00 -1.775247e+00 6.711857e-01 -1.146805e+00 6.410993e-01 6.017450e-01 -2.236294e+00 -1.275844e+00 7.038427e-01 -4.467408e-01 -1.068550e+00 -1.183811e-01 4.124418e-01 1.032871e+00 -1.057701e+00 7.176301e-02 
-1.621518e+01 -1.492574e+00 1.228885e+00 -1.487301e+01 -9.085380e+00 -5.898917e+00 -3.867339e+00 2.321860e+00 1.253202e+00 -5.641247e+00 3.314489e+00 9.285321e-01 7.500804e-01 -1.020586e+00 7.236284e-01 5.428327e-01 -2.895605e+00 -8.232005e-01 4.165944e-01 -1.756117e+00 -6.677610e-01 1.107458e+00 3.129629e-01 4.296780e-01 -4.430436e-01 6.125811e-02 
-1.721404e+01 -1.825898e+00 -5.844947e-01 -2.218491e+01 -1.176280e+01 -4.261950e+00 -5.753467e+00 -5.001945e+00 -1.293651e+00 -4.351689e+00 8.188482e+00 6.504022e-01 8.178860e-01 -1.194473e+00 -3.522210e-01 -6.202863e-01 -1.951417e+00 -3.377227e-01 -1.631833e+00 -3.299797e+00 -1.970810e+00 1.092177e+00 2.710330e-01 3.517159e-01 5.393745e-01 3.427600e-02 
-1.812158e+01 -2.644221e+00 -6.002242e-01 -1.902101e+01 -6.500694e+00 -1.916809e+00 -6.533413e+00 -9.224091e+00 -4.081682e+00 -7.247263e+00 3.274708e+00 9.818103e-01 8.291319e-01 -6.056831e-01 -3.541678e-01 -5.479223e-01 3.972673e-02 1.201938e+00 -3.246242e-01 -1.514607e+00 -2.080191e+00 8.642722e-01 1.980124e+00 2.163646e-01 -4.152888e-01 1.465703e-02 
-1.959225e+01 -4.265128e+00 -2.678360e+00 -1.736133e+01 -6.701839e+00 -8.553217e+00 -8.107203e+00 -9.223423e+00 -1.381385e+00 -4.532061e+00 5.794156e+00 8.949867e-01 8.030399e-01 -9.828949e-03 -7.860041e-02 -7.642505e-01 1.227696e+00 9.048190e-01 -7.554833e-01 -1.510496e-01 8.313595e-01 1.315198e+00 1.322072e+00 -1.336338e+00 -1.736634e+00 -3.762037e-03 
-1.805449e+01 -2.043798e+00 -4.637935e-01 -1.708616e+01 -5.606174e+00 -5.376405e+00 -1.026351e+01 -5.968359e+00 5.618431e+00 4.349560e+00 5.593475e+00 -1.270204e+00 8.307886e-01 1.026238e+00 5.187547e-01 -9.182771e-02 1.774585e+00 4.893599e-02 -9.522638e-01 2.332607e+00 3.038059e+00 2.083988e-01 2.030197e-01 -1.329943e+00 -2.518281e+00 -2.358479e-02 
-1.729673e+01 -2.519112e+00 -4.473962e+00 -1.701385e+01 -7.685969e+00 -6.309568e+00 -4.643668e+00 -2.473013e+00 4.322839e-01 -3.539742e+00 3.474063e-01 -6.906759e+00 7.982475e-01 2.537526e+00 9.415493e-01 1.017187e+00 3.675748e+00 1.223058e+00 -4.482218e-01 1.815019e+00 2.345331e+00 -1.366241e+00 -1.813808e-01 -1.196009e+00 -1.952352e+00 -5.962375e-02 
-1.413815e+01 -9.234557e-01 -1.615614e-01 -1.032183e+01 -5.763949e+00 -7.799952e+00 3.397851e+00 2.590999e+00 -3.946523e+00 -6.728324e+00 -6.516326e-01 -7.708724e+00 7.136042e-01 5.819830e+00 7.323640e-01 8.337582e-01 4.523564e+00 1.218755e+00 8.793162e-01 4.343875e-01 1.459808e+00 -1.407784e+00 1.714363e-01 6.460921e-01 -1.710043e-01 -8.989042e-02 
-8.862791e+00 -1.175525e-01 2.256459e+00 -2.364758e+00 -5.076585e-01 -9.582552e+00 -5.862787e+00 -1.776448e+00 -3.430113e+00 9.997678e-02 2.936663e+00 -5.647514e+00 5.635134e-01 8.225546e+00 -1.101574e+00 1.286496e+00 4.046386e+00 -4.815343e-01 3.158820e+00 -2.105643e+00 -8.883889e-02 1.058611e+00 3.108347e+00 2.403112e+00 1.608779e+00 -2.053765e-02 
6.827691e+00 4.172425e-01 3.397865e-01 -1.792887e+00 -3.101555e+00 6.566682e-01 -7.482009e+00 9.823967e-01 5.107068e-01 3.386882e+00 7.529307e+00 -2.754848e+00 4.987035e-01 7.686360e+00 -3.169379e+00 4.063924e-01 1.526046e+00 -2.575669e+00 4.094922e+00 -2.995446e+00 -9.864544e-01 2.401400e+00 4.002471e+00 2.447515e+00 1.594677e+00 6.614699e-02 
1.334807e+01 -8.697330e+00 1.707846e+00 -1.046391e+00 -1.142484e+01 5.256223e+00 -9.731953e+00 -2.112907e+00 3.496724e+00 6.944392e+00 8.272499e+00 -1.339800e+00 8.030095e-01 4.923802e+00 -4.074694e+00 1.125226e-02 -1.129221e-01 -3.974571e+00 4.104783e+00 -8.744119e-01 6.564663e-02 2.136791e+00 2.224043e+00 1.225349e+00 9.551584e-01 1.231570e-01 
1.318822e+01 -1.248046e+01 2.144707e+00 -3.350782e+00 -1.318370e+01 5.255268e+00 -9.644795e+00 -2.173043e+00 4.597056e+00 9.861824e+00 8.918024e+00 -1.889196e+00 9.245911e-01 9.151411e-01 -3.462739e+00 -1.229020e-01 -5.081996e-01 -2.665838e+00 2.049041e+00 2.942913e-01 4.368733e-01 1.022535e+00 7.681708e-01 -3.317024e-01 1.854281e-01 1.150647e-01 
1.257596e+01 -1.404217e+01 1.410260e+00 -2.150421e+00 -1.533944e+01 8.642063e+00 -9.153454e+00 1.295053e-01 5.210666e+00 7.982723e+00 8.369048e+00 -1.304548e+00 9.663547e-01 -2.931452e-01 -1.361393e+00 -7.886044e-01 -6.232446e-01 -6.560416e-01 1.121178e+00 1.616125e+00 1.311537e+00 1.484678e-01 -4.069165e-01 -1.264569e+00 2.985752e-02 4.278537e-02 
1.178945e+01 -1.422403e+01 -1.259303e-01 -3.781870e+00 -1.447344e+01 9.208952e+00 -6.299802e+00 2.045557e+00 4.766411e+00 6.708571e+00 5.822520e+00 -1.845333e+00 9.923542e-01 1.722852e-01 -6.114216e-01 -8.231349e-01 -3.574621e-01 2.333635e-01 8.197598e-01 1.989299e+00 1.626198e+00 -9.493896e-01 -4.491794e-01 -2.061906e+00 3.171264e-01 8.003664e-03 
1.258173e+01 -1.463251e+01 -1.099857e+00 -3.947070e+00 -1.406018e+01 8.885273e+00 -3.323824e+00 2.335480e+00 4.154386e+00 6.486436e+00 3.497405e+00 -1.212444e+00 9.830548e-01 3.784651e-01 -5.762920e-01 -4.788977e-01 -3.312227e-01 2.722197e-01 6.300551e-01 1.508282e+00 8.485712e-01 -7.446297e-01 -6.206006e-01 -1.644959e+00 3.933474e-01 1.398689e-03 
1.404676e+01 -1.524240e+01 -7.159087e-01 -4.239768e+00 -1.265652e+01 9.232462e+00 -2.613115e+00 4.854959e+00 3.782482e-01 8.364071e+00 1.044317e+00 -3.496162e-01 9.562594e-01 3.296003e-02 -1.432789e-01 -2.635142e-01 1.430014e-01 -3.049032e-01 9.690083e-01 1.290896e-01 7.249688e-01 -8.123739e-01 -2.582005e-01 -8.909045e-01 5.982406e-01 7.891416e-04 
1.333963e+01 -1.641445e+01 -6.892394e-01 -3.577585e+00 -1.488680e+01 1.178058e+01 -3.455388e+00 2.967660e+00 3.681599e+00 4.051970e+00 2.533352e+00 -8.566988e-02 9.913956e-01 -4.800736e-01 2.448431e-01 -3.651163e-01 4.510210e-01 -5.907953e-01 8.462326e-01 -1.042919e+00 8.383104e-01 -7.740698e-01 -4.458354e-01 4.721310e-01 5.865036e-01 6.976062e-03 
1.157530e+01 -1.404946e+01 -1.648810e+00 -3.251606e+00 -1.558465e+01 1.260634e+01 -5.588572e+00 5.354311e+00 9.409343e-01 6.634801e+00 1.850024e+00 5.824827e-01 9.921295e-01 -5.470487e-01 6.617395e-01 -5.915433e-01 7.262291e-01 -7.668617e-01 2.266086e-01 -1.277365e+00 1.156316e-01 -6.615019e-01 -3.189257e-01 9.207863e-01 1.558547e+00 1.051748e-03 
1.141709e+01 -1.400476e+01 -2.458987e+00 -2.186046e+00 -1.555009e+01 1.142950e+01 -7.050691e+00 6.277357e+00 2.693921e-03 5.121893e+00 5.455206e+00 1.254025e+00 1.000000e+00 3.844417e-01 1.123991e+00 -2.718777e-01 7.621067e-01 2.155258e-01 -1.076793e+00 -3.736010e-01 -8.877036e-01 -6.616015e-01 -2.947695e-01 1.393764e-02 3.004037e+00 -4.470757e-02 
1.227279e+01 -1.313854e+01 -2.788751e+00 -1.304392e+00 -1.615918e+01 1.054105e+01 -7.202291e+00 3.778269e+00 -1.089809e+00 6.234480e+00 4.187321e+00 6.773274e+00 9.572159e-01 7.449153e-01 2.063781e+00 -6.246507e-02 6.706079e-01 2.326471e+00 -2.422842e+00 1.155520e+00 -3.081355e+00 4.675282e-01 -1.544552e+00 -1.081898e+00 3.338839e+00 -1.025551e-01 
1.491310e+01 -1.124995e+01 -1.478657e+00 -7.406588e-01 -1.352191e+01 7.429262e+00 -4.516533e+00 -6.828369e-01 1.388963e+00 2.778283e+00 1.434391e+00 1.183912e+01 7.853146e-01 3.390225e-01 3.100273e+00 -1.660138e-01 6.152148e-02 4.454458e+00 -3.138483e+00 2.632684e+00 -3.944850e+00 5.551374e-01 -1.688492e+00 -2.010220e+00 2.199839e+00 -1.380131e-01 
1.355187e+01 -5.107960e+00 -2.451301e+00 -6.212597e-01 -4.966381e+00 2.492248e+00 -1.078049e+00 -6.572365e+00 2.585440e+00 8.384705e-02 -1.549057e+00 1.198413e+01 5.866968e-01 -2.880368e-01 3.117944e+00 -2.293144e-01 -3.098614e-01 4.645491e+00 -3.132923e+00 3.038164e+00 -3.050766e+00 7.496868e-02 -1.312734e+00 -1.264350e+00 -2.069495e-01 -1.231542e-01 
1.247266e+01 -2.518691e+00 -3.457782e+00 -2.220005e+00 1.125801e+00 -2.385173e-01 3.050611e+00 -8.271576e+00 9.407562e-01 -2.452482e-01 -1.727704e+00 9.647789e+00 4.951940e-01 -2.786271e-01 1.625370e+00 -9.570894e-01 -7.236868e-02 1.935046e+00 -1.220474e+00 1.375054e+00 -8.845029e-01 -2.082690e-01 -1.578843e-01 2.049896e-01 -1.427463e+00 -4.446860e-02 
1.205282e+01 -1.914453e+00 -2.945761e+00 -2.114026e+00 -2.555842e-01 -1.289680e+00 4.204957e+00 -7.681192e+00 -4.908621e-01 1.182578e+00 -5.533810e-01 6.834192e+00 4.865053e-01 9.667372e-01 -1.038352e+00 -8.359566e-01 4.399165e-01 -1.975366e+00 1.050750e+00 -8.904117e-01 1.547945e+00 -3.205249e-01 1.744725e+00 1.902431e-01 -4.132800e-01 3.681400e-02 
1.426949e+01 -4.719856e+00 -6.016873e+00 -3.561192e-01 -6.202073e+00 3.217858e+00 -2.827649e-01 -4.550938e+00 1.885769e+00 1.439496e+00 1.961501e+00 7.276772e+00 6.130673e-01 1.697666e+00 -2.460184e+00 -6.504038e-01 1.051709e+00 -4.392579e+00 3.244893e+00 -2.841394e+00 2.747606e+00 5.232620e-01 1.550487e+00 7.137622e-01 -5.563327e-01 7.679190e-02 
1.748714e+01 -9.199139e+00 -5.351537e+00 6.463797e-01 -1.117928e+01 6.017807e+00 -3.863420e+00 -6.929606e-01 5.103092e-01 7.965098e+00 -2.442445e+00 1.110324e+01 7.118301e-01 1.243439e+00 -2.224383e+00 -5.424629e-01 1.036386e+00 -3.999689e+00 3.862024e+00 -3.167676e+00 3.352892e+00 2.990647e-01 1.102310e+00 7.644222e-01 -1.308216e+00 7.346825e-02 
1.824383e+01 -1.117727e+01 -5.506913e+00 1.658336e+00 -1.537525e+01 1.233220e+01 -7.122173e+00 1.972339e+00 3.056481e+00 4.115926e+00 2.785639e+00 4.731602e+00 7.664911e-01 -7.424626e-02 -9.769975e-01 2.424635e-01 5.238748e-01 -1.998212e+00 2.792055e+00 -1.463672e+00 2.209743e+00 -9.409031e-02 3.828054e-01 1.464233e-01 -2.087572e+00 3.539812e-02 
1.628285e+01 -9.807661e+00 -5.913056e+00 2.060674e+00 -1.566744e+01 1.346326e+01 -8.213719e+00 5.821631e+00 4.191056e-01 5.355913e+00 2.856661e+00 1.565699e+00 7.771347e-01 -9.510190e-01 5.035823e-01 2.797819e-01 1.305759e-01 -1.775366e-01 2.117299e+00 -4.430145e-01 1.297422e+00 -1.468533e-02 -1.059538e+00 4.973307e-01 -2.855211e+00 -1.730233e-03 
1.450040e+01 -9.300583e+00 -4.523797e+00 1.556108e+00 -1.394905e+01 1.345540e+01 -5.425976e+00 3.240480e+00 1.460920e+00 4.658116e+00 4.406488e-02 1.607684e+00 7.574056e-01 -8.280827e-01 1.087176e+00 5.881193e-01 -1.524457e-01 1.153897e+00 8.097833e-01 3.870808e-01 2.785803e-01 1.661344e-01 -1.018477e+00 -3.826793e-01 -1.763702e+00 -2.894261e-02 
1.460376e+01 -7.619570e+00 -4.444186e+00 1.350374e+00 -1.278006e+01 1.604270e+01 -6.926591e+00 5.160081e+00 1.234663e+00 2.396313e+00 1.414996e+00 -1.610856e+00 7.077217e-01 -1.479777e-01 9.393986e-01 1.183971e+00 -3.997800e-01 1.605782e+00 2.918615e-01 2.548981e-01 -7.219184e-01 1.613346e+00 -1.773993e+00 -4.460552e-02 -6.126672e-01 -4.467379e-02 
1.494296e+01 -6.835433e+00 -3.300752e+00 1.251258e+00 -1.104945e+01 1.509140e+01 -5.830334e+00 3.696016e+00 3.479374e+00 5.033408e-01 1.593075e+00 -2.498633e+00 6.564845e-01 2.674562e-01 8.592464e-01 1.655701e+00 -4.182002e-01 1.999469e+00 -4.865654e-01 -7.696970e-01 -9.560358e-01 1.728315e+00 -2.040385e+00 -2.865303e-02 8.903033e-01 -5.441838e-02 
1.532168e+01 -6.343242e+00 -6.047236e-01 2.141988e-01 -9.088328e+00 1.410457e+01 -6.737050e+00 1.984271e+00 7.476608e+00 -1.436666e+00 1.859128e+00 5.555212e-01 6.042263e-01 -6.770062e-02 1.598359e+00 2.562659e+00 2.001469e+00 4.074206e+00 -4.636085e+00 -1.313590e-01 -7.995824e-01 -7.350104e-01 -3.347118e+00 1.103506e-01 1.967339e+00 -6.344917e-02 
1.547872e+01 -5.642515e+00 1.834976e+00 3.319407e-02 -5.797568e+00 1.199164e+01 -9.369231e+00 4.820573e-02 6.981524e+00 -3.627321e+00 -3.212664e-01 4.976011e+00 5.370614e-01 -7.293463e-03 2.168936e+00 2.325907e+00 3.034284e+00 4.655993e+00 -7.096438e+00 2.602945e-01 4.643129e-01 -2.648735e+00 -3.794577e+00 4.140381e-01 1.156791e+00 -5.748658e-02 
1.399738e+01 -2.242341e-01 5.801247e+00 1.196675e+01 4.965034e+00 -5.587840e+00 -5.813937e+00 2.986074e+00 -4.191464e+00 -1.227394e+01 2.923920e+00 4.488519e+00 4.501874e-01 -4.652238e-02 1.894408e+00 1.886733e+00 3.244292e+00 4.288747e+00 -6.593480e+00 -2.118871e-01 1.840964e+00 -2.995883e+00 -3.520362e+00 5.257703e-01 -4.737484e-01 -4.197597e-02 
1.556865e+01 9.497449e-01 5.125802e+00 1.054640e+01 5.203835e+00 -1.054458e+01 -4.990417e+00 5.516679e+00 -3.930263e+00 -1.305091e+01 3.130870e+00 1.318824e+00 4.460710e-01 -1.647638e-01 1.953695e+00 1.076738e+00 1.900972e+00 3.386438e+00 -3.891471e+00 3.193052e-01 2.418835e+00 -1.475576e+00 -1.984869e+00 -2.818128e-01 -1.915481e+00 -3.424612e-02 
1.504411e+01 -1.673329e-01 7.183529e+00 1.117906e+01 6.854707e+00 -7.594716e+00 -9.985892e+00 8.454852e+00 -2.046914e+00 -1.432668e+01 2.761912e+00 1.537299e-02 4.398416e-01 -7.842211e-01 1.695526e+00 1.036330e+00 2.687816e-01 2.050654e+00 -2.292808e-01 4.571524e-01 1.122039e+00 6.143892e-01 9.356999e-01 -2.030875e+00 -2.283472e+00 -4.328705e-02 
1.413154e+01 4.097510e+00 6.527527e+00 9.931902e+00 1.018979e+01 -6.462277e+00 -5.686728e+00 9.407993e+00 -1.468632e+00 -1.252530e+01 -1.649326e+00 -2.364822e+00 3.710037e-01 -1.708447e+00 1.599609e+00 1.173503e+00 1.492455e+00 2.451224e+00 -6.214518e-02 5.836218e-01 7.726191e-01 3.906799e-01 1.927102e+00 -2.819506e+00 -2.662532e+00 -6.795346e-02 
1.079482e+01 6.679512e+00 1.028203e+01 1.361791e+01 1.272533e+01 -8.775394e+00 -3.180020e+00 6.650614e+00 -2.350333e+00 -7.858250e+00 -4.840359e+00 -5.087017e+00 2.712858e-01 -2.142821e+00 1.411870e+00 1.565930e-01 2.473400e+00 3.002917e+00 2.100228e-01 2.218633e+00 1.412448e-01 1.845403e-01 1.998649e+00 -1.877251e+00 -2.141886e+00 -7.549632e-02 
9.151057e+00 5.524368e+00 9.444061e+00 1.678926e+01 1.452464e+01 -1.026497e+01 -5.475245e+00 1.028189e+01 -1.825153e+00 -6.649614e+00 -7.165527e+00 -9.442641e+00 1.905816e-01 -2.415736e+00 -8.135013e-02 -5.782579e-01 1.850394e+00 2.322392e+00 1.070313e-01 1.512342e+00 1.025940e+00 1.231768e+00 2.366457e+00 -5.038612e-01 -6.033041e-01 -7.073452e-02 
6.820247e+00 6.178587e+00 6.508227e+00 2.011738e+01 1.970186e+01 -4.643258e+00 1.001531e+00 8.724126e+00 -9.459517e-01 -7.271281e+00 -3.866244e+00 -7.155148e+00 1.525711e-01 -1.817039e+00 -5.634707e-01 -2.154189e+00 2.613018e-01 1.157535e+00 1.202058e+00 1.524683e+00 -3.253439e-01 9.190087e-01 1.097540e+00 -1.651431e-01 1.102981e+00 -5.712136e-02 
4.040145e+00 3.941221e+00 5.523141e+00 1.593413e+01 1.831348e+01 -7.993189e+00 -2.157922e-01 1.350094e+01 3.988017e+00 -9.864982e-01 -4.655690e+00 -4.347277e+00 7.668847e-02 -1.118573e+00 5.558137e-02 -2.099764e+00 -1.036232e+00 -5.208858e-01 5.804286e-01 1.173061e+00 -1.295708e+00 1.926742e+00 1.254000e+00 -3.665698e-01 8.866559e-01 -4.458130e-02 
4.265085e+00 4.653732e+00 1.471547e+00 1.535198e+01 1.661859e+01 -3.900991e+00 1.813670e+00 3.414373e+00 -6.618745e-01 -5.202106e+00 -6.920993e+00 -2.119796e+00 4.262561e-02 -6.196632e-01 -7.049997e-02 -1.417321e+00 -1.785582e+00 -2.360523e+00 -1.374478e+00 2.606313e-01 -1.114685e+00 1.127616e+00 9.030714e-01 -5.599045e-01 -7.582860e-02 -4.142677e-02 
4.835774e+00 6.564703e+00 1.463583e+00 1.399080e+01 1.346185e+01 -7.733955e+00 -1.600838e-02 6.458229e+00 7.666516e+00 -1.414201e+00 -7.471001e+00 -7.527038e+00 2.264786e-02 -7.172377e-01 -3.260146e-01 -1.678276e+00 -1.224797e+00 -2.382924e+00 -9.744824e-01 6.993961e-02 -1.207820e+00 9.699494e-01 6.093453e-01 2.110274e-01 -8.770183e-01 -2.604763e-02 
3.324116e+00 4.514347e+00 1.451399e+00 1.216114e+01 1.032506e+01 -1.164527e+01 2.204795e+00 6.672054e+00 2.852879e+00 -2.542073e+00 -5.258111e+00 -5.944410e+00 -2.754247e-02 -1.126150e+00 -9.376088e-01 -1.018763e+00 -1.173235e+00 -2.348805e+00 -1.042397e+00 -1.039109e+00 -1.224773e-01 7.843305e-01 1.178810e+00 -5.212557e-01 -1.519717e+00 -1.929362e-02 
9.244413e-01 2.380841e+00 -2.858166e+00 1.140557e+01 9.545620e+00 -8.993464e+00 -6.165695e-02 5.832995e+00 7.080387e+00 7.302110e-01 -4.431994e+00 -6.820061e+00 -1.846564e-02 -1.247221e+00 -7.686155e-01 -8.886448e-01 -8.718211e-01 -1.278219e+00 2.968807e-01 4.670147e-01 -6.567411e-01 -1.151343e+00 -6.358523e-01 -1.076734e+00 5.930122e-01 -1.607406e-02 
5.899992e-01 2.057619e+00 -1.461395e+00 1.077842e+01 6.832679e+00 -8.483223e+00 -3.359049e+00 3.114604e+00 3.552843e+00 -3.802618e-01 -1.104677e+01 -1.007187e+01 -3.328574e-02 -9.147779e-01 -4.018155e-01 -1.044412e+00 -7.641961e-01 8.202696e-02 1.092887e+00 1.023615e-01 -1.001228e+00 -1.321771e+00 -1.658529e+00 -1.669631e+00 1.475774e+00 -1.183690e-02 
-3.327084e-02 3.949989e+00 -1.523244e+00 1.032305e+01 8.816953e+00 -7.830574e+00 5.100987e+00 4.953248e+00 1.559820e+00 -5.674368e+00 -9.960339e+00 -2.498247e+00 -5.485082e-02 -5.585338e-01 5.615391e-01 -3.731543e-01 -7.564262e-01 7.904397e-01 1.305557e+00 -5.694981e-01 -1.708773e+00 -1.535018e+00 -1.984829e+00 -2.430721e+00 4.373837e-01 -1.105653e-02 
-7.709169e-01 1.720695e+00 -4.438120e+00 8.881418e+00 1.109953e+01 -6.762279e+00 1.352806e-01 2.105786e+00 -9.956940e-01 -7.632425e+00 -1.084209e+01 -7.264484e-01 -6.853437e-02 -5.812656e-01 1.114458e+00 2.132217e-01 -1.249663e+00 4.840329e-01 1.202084e+00 -9.107584e-01 -2.089335e+00 -1.290435e+00 1.967243e-01 -1.734520e-01 4.056803e-01 -1.535752e-02 
-1.187770e+00 5.356998e+00 -3.235575e+00 8.571936e+00 1.136439e+01 -3.326152e+00 -4.656312e+00 -2.206463e+00 1.679568e+00 -5.567852e+00 -1.668794e+01 -9.305854e+00 -5.612397e-02 -6.738533e-01 7.074287e-01 7.083145e-01 -1.638686e+00 -7.895383e-01 8.285484e-01 -8.181801e-01 -1.186313e+00 -1.829555e-01 1.536076e+00 -3.810524e-01 -1.244044e+00 -2.314804e-02 
-1.739079e+00 6.926406e+00 4.608792e-01 5.405660e+00 7.979123e+00 -4.725016e+00 -3.034191e+00 -3.752215e+00 -2.959205e+00 5.501010e-01 -8.550234e+00 -4.639666e+00 -1.094368e-01 -6.934572e-01 5.394722e-01 1.038078e+00 -1.988110e+00 -1.680453e+00 1.059907e+00 1.437531e+00 7.545452e-02 3.836103e-01 1.716095e+00 9.119528e-01 -1.035002e+00 -2.398756e-02 
-2.918456e+00 4.884277e+00 -4.311718e-01 3.867502e+00 6.429464e+00 -4.706463e+00 2.594823e+00 1.950683e+00 1.626798e+00 -2.085250e+00 -1.301153e+01 -6.761857e+00 -1.501398e-01 -9.723321e-01 1.677151e-02 8.112742e-01 -2.638012e+00 -1.422696e+00 1.248835e+00 1.965206e+00 -2.714581e-01 -1.165847e+00 3.044590e-01 2.458159e+00 1.098226e+00 -2.223649e-02 
-3.372860e+00 4.654416e+00 -6.499308e-01 1.293083e+00 5.164727e+00 -7.725868e-01 3.697368e+00 4.044861e-01 9.487424e-01 -7.932497e-01 -8.120534e+00 -7.173456e+00 -1.414642e-01 -1.027062e+00 3.613617e-01 5.444945e-01 -1.683566e+00 -6.914889e-01 1.216067e+00 2.677533e+00 5.983289e-01 -1.697288e-01 -5.898083e-01 1.821563e+00 5.523409e-01 -8.486474e-03 
-5.232540e+00 6.576851e+00 1.376202e+00 -2.561836e+00 5.658111e+00 9.418077e-01 1.803939e+00 -5.642104e+00 -6.103639e+00 -3.373881e+00 -4.611995e+00 -2.547828e+00 -1.512927e-01 -4.203776e-01 1.171057e+00 4.360221e-01 -7.328656e-01 -3.555480e-01 6.352995e-02 1.827361e+00 -4.053774e-01 -5.651164e-01 1.218574e+00 3.245693e+00 1.043883e+00 1.177037e-03 
-5.717346e+00 7.886928e+00 2.279665e+00 2.024972e-01 4.907355e+00 -1.468817e+00 1.074892e+01 3.035823e+00 5.736986e-02 -1.754625e+00 -3.642189e+00 -3.984976e+00 -1.512927e-01 -5.011457e-01 6.375416e-01 3.719695e-01 2.735048e-01 -2.664077e-02 -5.781173e-01 1.271406e+00 -2.353496e-02 -2.490214e-01 1.218383e+00 1.887989e+00 1.414458e+00 -7.704616e-04 
-3.848101e+00 9.123305e+00 2.841408e-01 7.484670e-01 4.780410e+00 -4.040698e+00 8.205853e+00 -1.391873e+00 -7.530973e-01 4.488308e+00 9.777611e-01 -3.136680e+00 -1.393404e-01 -5.831440e-01 -6.155527e-01 -2.058892e-01 8.926056e-01 3.086004e-01 -3.932129e-01 3.465000e-01 8.214353e-01 4.637237e-01 6.467564e-01 1.678839e+00 1.978978e+00 0.000000e+00 
-6.570808e+00 6.568896e+00 1.755947e+00 1.005455e+00 5.470374e+00 -1.171921e+00 6.853442e+00 -1.838304e+00 -2.971635e+00 1.367569e+00 -1.475468e+00 1.932622e-01 -1.512927e-01 -7.550789e-01 -9.893780e-01 -1.706436e-01 -1.131747e-01 -1.737168e-02 5.246223e-01 -1.430231e+00 -5.008119e-01 8.354626e-02 1.508550e-01 1.312362e+00 1.796725e+00 -1.195228e-03 
-7.721529e+00 4.158103e+00 6.086142e-01 1.499713e+00 6.919603e+00 -1.172705e+00 5.484176e+00 9.021369e-01 -2.270517e+00 -1.701196e+00 2.698838e+00 5.257943e+00 -1.512927e-01 -1.077213e+00 -1.232345e+00 -2.010444e-01 -7.344119e-02 4.754420e-01 1.534842e+00 5.795305e-01 9.470536e-01 7.602122e-01 -7.632859e-01 -6.091717e-01 -2.689395e-01 -2.119565e-03 
-7.556026e+00 5.422639e+00 1.264210e+00 -7.389994e-01 3.750901e+00 -2.797022e-01 4.958601e+00 -6.152421e-01 1.233811e+00 2.094402e+00 2.059080e+00 8.013348e-01 -1.512927e-01 -4.629564e-01 -2.617973e-01 -2.679198e-01 2.882646e-01 7.796264e-01 1.794054e+00 1.176913e+00 4.191585e-01 8.915915e-01 3.622102e-02 -3.649355e-01 -1.325918e+00 1.354456e-04 
-8.741554e+00 3.534709e+00 -4.752124e-01 1.253488e+00 8.017357e+00 3.187405e+00 1.205093e+01 2.731863e+00 9.452404e-01 3.084619e-01 -3.835372e+00 -4.785413e+00 -1.499382e-01 -3.585329e-01 8.957561e-02 -1.351746e-01 3.570079e-01 6.107116e-01 1.058252e+00 1.341154e+00 -5.817779e-01 6.740538e-02 5.784508e-01 -1.427712e+00 -5.910960e-01 4.149437e-04 
-8.375578e+00 5.571607e+00 9.582617e-01 2.569891e+00 8.819629e+00 5.618294e+00 9.454631e+00 -6.573746e-01 -1.215564e-01 5.438454e-01 -3.304106e-02 -1.414649e+00 -1.512927e-01 -5.128412e-01 -3.213467e-01 -6.810673e-01 7.614214e-01 9.300169e-01 -4.674915e-01 6.375353e-02 -5.082741e-01 -6.576477e-01 3.801495e-01 -4.384039e-01 4.494706e-01 2.259064e-03 
-9.104418e+00 4.531497e+00 8.571523e-02 1.630307e+00 7.438797e+00 1.169554e+00 9.941933e+00 -1.985687e+00 -1.255807e+00 1.966336e+00 -3.393660e+00 3.410454e+00 -1.492180e-01 -2.826014e-01 -3.101862e-01 -3.415112e-01 -8.529510e-02 1.841490e-01 -1.213841e+00 -1.340597e+00 -4.906758e-01 -4.227903e-02 7.128193e-02 1.738482e-01 6.885012e-01 8.226276e-04 
-9.938801e+00 3.317512e+00 -2.421590e+00 2.879698e+00 8.690265e+00 -1.608234e+00 6.331866e+00 -7.978373e-01 -9.539036e-01 3.166212e+00 -3.537951e-01 -1.049246e+00 -1.403575e-01 2.806671e-01 -3.460724e-02 -2.942484e-01 1.763833e-02 -6.722243e-01 -1.347374e+00 -5.366298e-01 8.448289e-01 8.028353e-01 5.179533e-01 5.234021e-01 2.958573e-01 2.841234e-03 
-9.372950e+00 3.110826e+00 -4.928425e-01 6.721091e-01 9.002784e+00 7.314634e-01 6.909323e+00 3.487154e-01 1.150019e+00 -6.463116e-01 -2.805754e+00 -1.525609e+00 -1.512927e-01 5.434412e-01 7.109594e-01 7.346747e-01 -2.060108e-02 -8.491328e-01 7.245113e-01 9.295039e-02 8.744998e-01 9.207549e-01 8.281833e-01 1.474368e+00 -1.932418e-01 3.440154e-03 
-6.837976e+00 6.108907e+00 -2.237015e-01 3.137182e+00 4.676514e+00 -8.995306e-01 8.287786e+00 2.399569e+00 2.689707e+00 4.439936e+00 2.290016e+00 2.532670e+00 -1.360492e-01 5.437679e-01 1.032594e+00 1.331646e+00 -2.235824e-01 -1.078329e+00 1.579828e+00 8.713118e-01 3.611287e-01 5.336276e-01 1.072506e+00 1.148217e+00 5.583963e-01 2.949357e-03 
-7.937624e+00 6.690597e+00 2.660144e+00 1.398560e+00 5.200008e+00 4.437759e+00 9.428724e+00 7.881092e-01 1.526162e+00 5.470390e+00 2.656276e+00 6.532876e-01 -1.341714e-01 1.771004e-01 7.741232e-01 9.189819e-01 -2.857189e-02 -7.082056e-01 1.274988e+00 6.179739e-01 -7.326722e-02 -4.112576e-02 1.326386e+00 1.129032e+00 2.478411e-01 3.612041e-03 
