-1.334628e+01 1.371458e+00 1.286023e+00 3.196536e+00 8.435099e+00 -8.672969e+00 3.497970e+00 -1.907997e-01 -5.741523e+00 2.080788e+00 -1.416440e+00 -4.230030e+00 -1.221727e-01 8.159512e-01 6.953623e-01 7.362396e-01 2.594552e-02 1.783673e-01 1.563828e+00 1.113274e+00 -6.396676e-01 3.473219e-01 1.178400e+00 1.659778e+00 1.933784e-01 -4.253173e-03 
-1.118259e+01 1.870366e+00 2.541006e+00 2.274884e+00 7.999118e+00 -1.067053e+00 8.702328e+00 8.674569e-01 -2.285226e+00 4.673722e+00 4.703658e+00 -7.174404e+00 -1.382047e-01 7.154883e-01 7.641303e-01 8.527304e-01 3.984004e-01 4.414849e-01 1.353097e+00 8.348621e-01 -3.801223e-01 9.970936e-01 5.885543e-01 1.283496e+00 1.384161e+00 -4.323435e-03 
-1.034838e+01 4.598815e+00 4.339730e+00 3.787090e+00 9.544926e+00 -4.656787e+00 6.462162e+00 -3.918266e+00 -5.733062e+00 6.676322e+00 3.822402e+00 -1.790951e+00 -1.354226e-01 2.719559e-01 5.608407e-01 8.231772e-01 2.976138e-01 7.429060e-01 6.312877e-01 -5.587767e-01 5.887557e-01 1.979159e+00 -1.239225e-01 -4.282897e-02 1.064978e+00 -2.473807e-03 
-1.126780e+01 3.578431e+00 4.022822e+00 4.893261e+00 1.008761e+01 -3.915576e+00 6.190185e+00 -2.276783e-01 -7.602856e-01 2.725792e+00 2.381618e+00 1.471233e+00 -1.371650e-01 -2.555614e-01 2.435558e-01 1.979747e-01 7.503206e-01 7.577636e-01 -2.916839e-01 -1.177225e+00 8.880081e-01 6.386626e-01 -6.130253e-01 -1.382478e+00 7.910942e-01 1.228738e-03 
-1.194390e+01 3.321629e+00 4.661001e+00 3.375416e+00 1.110538e+01 -4.092268e+00 1.960158e+00 3.300546e+00 3.391801e+00 2.435140e+00 -4.695650e-01 -3.227961e+00 -1.350616e-01 -5.288105e-01 -3.245092e-01 -2.660536e-01 -7.454357e-02 -2.818483e-01 -3.753600e-01 -1.471000e+00 1.631338e+00 1.053731e+00 -7.874607e-01 -9.968088e-01 -4.000965e-01 2.898657e-03 
-1.166263e+01 3.726738e+00 3.370244e+00 6.232324e+00 1.100771e+01 -2.807732e+00 5.067203e+00 1.698092e+00 -3.654344e+00 3.729187e+00 -6.274730e-02 -2.500428e+00 -1.322415e-01 -2.235659e-01 1.441442e-01 -3.150871e-01 -3.858915e-01 -1.202080e-01 -4.327778e-01 -1.017604e+00 -2.310504e-01 -1.044734e+00 -2.664364e-01 -1.431074e+00 -6.497931e-01 6.127977e-03 
-1.279501e+01 2.902116e+00 3.335751e+00 2.744841e+00 7.675635e+00 -7.087509e+00 -3.313457e-01 3.275538e+00 9.826207e-01 2.237321e+00 6.054109e-02 -1.805603e+00 -1.233910e-01 2.671261e-02 1.552741e-01 -4.039583e-01 -1.049813e-01 -1.193720e-01 2.945060e-01 5.310680e-01 -8.769239e-01 -1.275254e+00 -1.555752e-01 -1.512367e+00 -1.355965e-01 3.537786e-03 
-1.196007e+01 4.508909e+00 3.110011e+00 3.279091e+00 1.120144e+01 -4.581845e+00 2.247919e+00 -1.370426e+00 -4.779366e+00 1.492520e+00 -5.038805e+00 -2.488911e+00 -1.123604e-01 6.431694e-02 -3.405828e-01 -3.520152e-01 -7.543622e-01 -4.206102e-01 -4.160689e-01 -4.105734e-01 -8.797234e-01 6.045906e-01 5.790749e-01 -9.279960e-01 -4.974962e-01 2.602959e-03 
-1.166162e+01 3.706914e+00 2.771326e+00 4.327126e+00 1.041165e+01 -1.732682e+00 6.025140e+00 4.501860e-01 -2.421955e+00 2.775598e+00 -5.543370e+00 -3.911701e+00 -1.273133e-01 2.545158e-01 -5.012120e-01 -5.893171e-01 -1.031041e-02 -5.126396e-01 -2.108135e-01 4.391205e-02 6.915443e-02 6.135271e-01 3.247064e-01 -1.158810e+00 -1.211412e+00 -2.687979e-03 
-1.190774e+01 1.621425e+00 1.892380e+00 1.669370e+00 7.536647e+00 -7.565490e+00 -1.639065e-01 -1.287849e+00 1.070897e+00 6.355423e+00 -1.900771e+00 -3.934859e+00 -1.172656e-01 1.268118e-01 -5.202286e-01 -3.056432e-01 -4.731169e-02 -9.421107e-01 -1.114943e-01 -7.487965e-03 -1.586201e-01 6.583206e-01 2.706809e-01 1.099937e+00 -2.015665e-01 -5.334520e-03 
-1.154859e+01 1.839797e+00 9.979811e-01 3.498149e+00 6.944835e+00 -6.649755e+00 1.094127e+00 3.580022e+00 1.125124e+00 1.429402e+00 -7.302526e+00 -7.139689e+00 -1.343783e-01 1.539059e-02 1.155351e-02 -1.270860e-01 -8.456969e-02 -2.716141e-01 -1.820135e-02 -1.524731e-01 3.239740e-01 4.101923e-01 1.070492e-01 1.244034e+00 7.901429e-01 -1.539719e-03 
-1.138252e+01 2.841325e+00 2.468468e+00 3.457021e+00 8.224299e+00 -2.680780e+00 4.675985e+00 -3.728445e+00 -3.261303e+00 3.519022e+00 1.340458e+00 -1.882751e+00 -1.355004e-01 2.641107e-01 5.390323e-01 2.790130e-01 8.476239e-01 1.539392e-01 2.517764e-01 1.227443e+00 9.187495e-01 -3.983259e-02 2.480433e-01 1.010329e+00 6.544849e-01 -3.977108e-03 
-1.184727e+01 3.154732e+00 1.847853e+00 3.010452e+00 8.709758e+00 -4.266043e+00 2.842828e+00 3.290354e+00 1.795106e+00 4.729044e+00 -9.438151e-01 -9.870414e-01 -1.258944e-01 -2.302671e-01 3.120511e-01 7.649599e-01 2.167130e-01 3.986891e-01 -4.230438e-01 5.749848e-01 6.593639e-01 1.830140e-01 1.278899e+00 1.109851e+00 1.584828e+00 -1.690280e-03 
-1.043785e+01 3.659119e+00 2.862510e+00 6.151338e+00 7.423882e+00 -7.498464e+00 5.098961e+00 3.450732e+00 5.367432e-01 5.945818e+00 -2.848154e-02 -3.738759e+00 -1.413931e-01 7.024326e-02 -2.297236e-01 6.553628e-01 2.970314e-03 -1.084236e+00 -1.066936e+00 -1.174177e+00 3.226203e-01 4.732108e-02 5.770951e-01 -4.204566e-01 4.764125e-01 8.320594e-03 
-1.317227e+01 2.991156e+00 4.625760e+00 3.234556e+00 9.338490e+00 -6.356132e+00 3.757564e+00 3.287253e+00 1.411710e-01 6.610500e+00 -1.068803e+00 1.712455e+00 -1.398834e-01 1.905300e-01 -5.340905e-01 2.005228e+00 -1.655501e-01 -2.819106e+00 -1.842926e-01 -2.341894e+00 -1.688901e+00 -1.315905e+00 9.881271e-01 3.878238e-01 -6.384335e-01 3.246713e-02 
-1.036881e+01 1.774495e+00 4.356328e+00 3.359821e+00 2.488753e+00 -6.970415e+00 -1.652265e+00 -2.113793e+00 -2.197730e+00 5.463769e+00 -6.993316e-01 -8.504360e-01 -8.690298e-02 2.287373e-01 -2.628846e-01 1.195370e+00 -3.435005e-01 -1.069880e+00 2.401034e-01 -1.478667e+00 -1.263801e+00 -9.418489e-01 2.138375e-01 7.634516e-02 -1.174842e+00 1.731873e-02 
-1.092914e+01 1.426592e+00 1.112708e+01 3.578460e+00 -2.918207e+00 -5.451530e+00 -5.491026e+00 -2.371886e+00 -3.417184e+00 9.910704e+00 1.330729e+00 -5.623370e+00 9.196162e-03 4.027477e-01 2.047986e-01 -1.710737e-01 8.775736e-01 8.390942e-01 2.507142e-01 3.538703e-01 -8.411344e-01 -5.004307e-01 1.412293e-01 8.415766e-01 -1.591417e+00 -4.112899e-03 
-1.041572e+01 3.126978e+00 5.588701e+00 4.261884e+00 8.202830e+00 -6.750247e+00 2.329924e+00 -3.870320e-02 -2.393323e+00 5.364904e+00 -8.465217e-01 -5.945056e+00 -1.293392e-01 -3.357145e-01 4.237769e-01 -1.414784e+00 2.177702e-01 3.008855e+00 7.863861e-01 1.644645e+00 -6.453395e-03 5.489417e-01 4.129522e-01 1.739123e+00 4.487847e-01 -2.486392e-02 
-1.113507e+01 3.338907e+00 3.154204e+00 7.171392e+00 1.067692e+01 -5.212645e+00 3.535820e+00 -1.955963e+00 -2.263186e+00 7.366079e+00 3.212675e+00 -3.697319e+00 -1.392298e-01 1.514066e+00 4.424047e-01 -3.816540e+00 -2.265813e+00 1.139650e+00 -7.884874e-01 1.718530e-01 -6.382795e-01 2.701931e-02 -3.882409e-01 -3.458312e-01 7.512528e-01 -1.351254e-02 
-1.194442e+01 2.937221e+00 1.268846e+00 2.652206e+00 1.073547e+01 -3.157928e+00 2.057535e+00 -2.354021e+00 -3.002095e-02 8.800842e+00 7.055310e+00 4.304619e-01 -1.370096e-01 4.094203e+00 -2.920235e-01 -2.178051e+00 -2.727565e+00 -3.075526e+00 8.736633e-01 -3.054844e+00 -1.964441e-01 -2.551310e-02 1.913397e-01 -8.443663e-01 1.901677e-01 7.510629e-02 
-2.594463e+00 3.733493e+00 -5.795693e+00 -6.945766e+00 1.513724e+00 -1.119013e+01 -4.495567e+00 -4.405624e+00 -4.463739e+00 6.251530e+00 -4.349343e+00 -5.054865e+00 -5.453134e-02 5.895018e+00 -2.198907e+00 -1.074824e+00 -1.836228e+00 -4.226960e+00 2.264587e+00 -4.090347e+00 9.103402e-01 7.463185e-01 -6.855863e-01 -8.046538e-01 -3.372584e-01 1.550093e-01 
5.784985e+00 1.469568e+00 -8.266058e-01 -2.317364e+00 -2.593203e+00 6.068106e-01 -8.928604e+00 2.039068e-01 -1.420613e+00 6.878878e+00 -1.287344e+00 -4.315444e+00 2.038430e-01 5.747729e+00 -4.076155e+00 3.783890e-01 2.463779e-01 -4.278457e+00 3.489377e+00 -4.981278e+00 1.864383e+00 1.581321e+00 -1.049990e+00 7.604178e-01 -1.358013e+00 2.183487e-01 
9.475317e+00 -6.921803e+00 -1.172192e+00 4.750378e-01 -3.793545e+00 4.227921e+00 -1.142284e+01 1.316773e+00 2.163702e+00 4.899130e+00 3.360733e+00 -3.010658e+00 4.653902e-01 3.177431e+00 -4.894870e+00 1.282550e+00 1.968768e+00 -3.479141e+00 4.778159e+00 -4.188827e+00 1.503042e+00 3.327070e+00 -5.113886e-01 2.428794e+00 -3.238912e-01 2.253830e-01 
1.075933e+01 -1.211591e+01 8.490409e-01 1.736934e-01 -8.003184e+00 6.579932e+00 -1.938522e+01 4.106693e+00 4.562862e+00 4.227095e+00 7.002361e+00 -7.381709e+00 6.947734e-01 1.261191e+00 -4.182748e+00 8.423101e-01 -3.551018e-03 -2.878488e+00 2.579105e+00 -2.470389e+00 -5.697467e-01 3.168873e+00 -7.731889e-01 9.882404e-01 -8.876610e-02 1.750364e-01 
1.080552e+01 -1.394812e+01 -2.207656e-01 1.652547e+00 -1.317699e+01 9.714108e+00 -2.021140e+01 1.158193e+00 9.179873e+00 5.020479e+00 3.649774e+00 -5.141189e+00 8.269183e-01 3.959699e-01 -2.251535e+00 6.954222e-01 -1.036449e+00 -2.099888e+00 1.648876e+00 -2.269806e-01 -2.325905e+00 2.987172e+00 -5.359522e-01 -4.114147e-01 4.679366e-01 1.186595e-01 
1.142584e+01 -1.593102e+01 2.909231e+00 -2.923873e+00 -1.229392e+01 1.075924e+01 -1.688627e+01 -2.565537e+00 1.091567e+01 2.952259e+00 3.509337e+00 -3.694009e+00 8.982609e-01 -1.620767e-01 -6.648060e-01 -2.806319e-01 -8.997938e-01 -1.057023e+00 1.084802e+00 1.925160e+00 -2.949381e+00 2.082320e+00 -5.985258e-01 -4.020461e-01 9.658585e-01 6.933909e-02 
1.112191e+01 -1.627192e+01 1.274824e+00 -3.158423e+00 -1.214762e+01 1.038264e+01 -1.380722e+01 -6.976638e+00 1.392316e+01 2.856787e+00 3.050171e+00 -2.514824e+00 9.569439e-01 -4.079827e-01 1.618616e-01 -8.627206e-01 -4.950736e-01 -5.366665e-01 7.945791e-01 1.720537e+00 -1.794380e+00 5.811839e-01 -5.230339e-01 2.006044e-01 3.919944e-01 4.162454e-02 
9.790753e+00 -1.427803e+01 -1.301913e+00 -1.919791e+00 -1.380299e+01 1.166967e+01 -1.296150e+01 -6.572795e+00 1.260282e+01 2.316311e+00 5.291932e+00 -3.865598e+00 9.764560e-01 -4.420231e-01 5.437729e-01 -1.327259e+00 1.952897e-01 -6.111080e-01 6.810017e-01 1.047168e+00 -5.112152e-01 -4.408496e-01 -6.447015e-02 -1.639247e-02 5.111081e-01 2.424778e-02 
9.583148e+00 -1.396530e+01 -2.428796e+00 -1.324862e+00 -1.510579e+01 1.323179e+01 -1.357110e+01 -5.810080e+00 1.124222e+01 2.723283e+00 3.761498e+00 -3.095422e+00 9.959434e-01 8.314581e-02 4.737934e-01 -9.038357e-01 2.101085e-02 -2.616966e-01 5.088738e-01 1.007121e+00 4.612753e-01 -1.252160e+00 -1.145794e-01 -1.263048e-01 7.630259e-01 3.238499e-03 
9.985108e+00 -1.436546e+01 -1.875253e+00 -2.864205e+00 -1.387037e+01 1.273968e+01 -1.176849e+01 -5.704892e+00 1.005189e+01 2.696660e+00 3.071711e+00 -8.481697e-01 1.000000e+00 3.627962e-01 5.160776e-01 -3.679070e-01 -3.811111e-01 3.795628e-01 1.517784e-01 1.045250e+00 3.914497e-01 -8.953040e-01 -1.018524e+00 7.817058e-02 6.859544e-01 -1.329589e-02 
1.144046e+01 -1.385924e+01 -2.957684e+00 -2.581162e+00 -1.342241e+01 1.239201e+01 -9.368117e+00 -5.104214e+00 8.937826e+00 2.093716e+00 3.528758e+00 -2.084094e-01 9.613644e-01 5.635195e-02 6.936520e-01 -1.490676e-01 -6.546960e-01 4.847139e-01 -1.419752e-01 1.117455e+00 1.833505e-01 -7.822322e-01 -1.409462e+00 4.209732e-01 5.151712e-01 -1.229509e-02 
1.067608e+01 -1.175068e+01 -2.877005e+00 -3.197197e+00 -1.274687e+01 1.284846e+01 -9.836746e+00 -4.968480e+00 9.278492e+00 -2.461525e+00 5.799155e+00 -1.879333e+00 9.272661e-01 -1.681745e-01 6.813203e-01 -2.618734e-01 -5.107868e-01 5.073398e-01 1.987457e-02 5.298584e-01 3.700054e-02 -5.812123e-01 -1.053131e+00 5.116763e-01 2.526885e-01 -5.510849e-03 
9.519423e+00 -1.180444e+01 -2.673258e+00 -4.431847e+00 -1.324397e+01 1.246753e+01 -8.949693e+00 -5.261533e+00 7.717754e+00 -1.744934e+00 4.502642e+00 -3.984377e-03 9.708349e-01 1.456772e-01 2.181048e-01 -5.269990e-02 -6.730272e-01 6.671287e-01 -4.415419e-01 4.667406e-02 4.350600e-01 -8.293539e-01 -1.050499e+00 6.366288e-01 5.422566e-01 2.912998e-04 
1.010476e+01 -1.198626e+01 -3.326833e+00 -4.492796e+00 -1.142289e+01 1.280130e+01 -9.328414e+00 -5.441229e+00 7.755866e+00 -6.496682e-01 5.143150e+00 3.130603e-01 9.677105e-01 8.007308e-01 -8.575411e-02 -3.740459e-01 -5.155517e-01 4.796486e-01 -7.136801e-01 3.072706e-01 7.194915e-01 -8.831614e-01 -8.238659e-01 4.500538e-01 1.556594e+00 8.461893e-04 
1.245451e+01 -1.265092e+01 -2.996269e+00 -5.298498e+00 -1.074875e+01 1.020788e+01 -9.388913e+00 -2.692539e+00 5.552371e+00 -4.064709e+00 7.039905e+00 1.406677e+00 9.425987e-01 1.255222e+00 -2.171726e-02 -3.768705e-01 -3.358034e-01 9.451427e-02 -7.449543e-01 5.430420e-01 4.389326e-01 -6.910483e-01 -1.158012e+00 7.361326e-01 1.955303e+00 -9.444142e-03 
1.321219e+01 -1.175620e+01 -4.585729e+00 -5.341630e+00 -1.159623e+01 1.040988e+01 -8.080783e+00 -2.655520e+00 5.945377e+00 -5.420968e+00 6.780793e+00 5.198304e+00 9.456152e-01 8.680794e-01 3.555186e-01 1.667178e-01 -8.607540e-01 -1.516796e-01 -1.137038e+00 1.323878e+00 2.123435e-01 -9.586603e-01 -1.001102e+00 5.889367e-01 2.031174e+00 -1.159344e-02 
1.424182e+01 -1.202805e+01 -3.928163e+00 -5.686447e+00 -1.268473e+01 9.938463e+00 -6.858298e+00 -4.459725e+00 5.167757e+00 -5.149344e+00 7.364484e+00 7.329909e+00 9.346619e-01 4.070946e-01 7.098988e-01 5.740018e-01 -9.035503e-01 -2.458448e-01 -1.120436e+00 1.798593e+00 -3.746272e-01 -7.126364e-01 -3.997827e-01 4.098483e-01 1.491941e+00 -1.717599e-02 
1.355150e+01 -1.052011e+01 -2.027297e+00 -8.602592e+00 -1.121330e+01 7.250816e+00 -3.974329e+00 -3.495919e+00 3.154871e+00 -5.112861e+00 7.925544e+00 7.507316e+00 9.137117e-01 6.152714e-01 2.892474e-01 1.024680e+00 -6.264417e-01 -4.994764e-01 -7.200481e-01 1.252960e+00 -2.340286e-01 -3.196569e-01 -8.132184e-01 7.030895e-01 3.641624e-01 -2.311400e-02 
1.432033e+01 -9.719477e+00 -1.405476e+00 -8.185767e+00 -1.216944e+01 6.185232e+00 -2.449176e+00 -4.145475e+00 3.384441e+00 -6.217676e+00 8.516770e+00 7.711876e+00 8.726705e-01 4.408436e-01 1.038203e-01 7.291409e-01 1.837110e-01 -9.160919e-01 -5.996704e-02 5.591334e-01 1.380876e-01 -6.704231e-02 -1.336001e+00 5.490512e-01 3.548081e-01 -1.979257e-02 
1.624929e+01 -1.146425e+01 -7.236707e-01 -7.224178e+00 -1.435126e+01 8.686253e+00 -4.020545e+00 -3.982788e+00 5.238750e+00 -8.952894e+00 9.720098e+00 6.828132e+00 8.610409e-01 3.151232e-01 1.122148e-01 3.344477e-01 8.723478e-01 -1.495906e+00 6.313204e-01 -1.807683e-01 2.721226e-01 7.622118e-02 -1.607378e+00 4.154196e-01 6.366349e-01 -1.630484e-02 
1.509714e+01 -1.103688e+01 -9.342721e-01 -5.457099e+00 -1.569621e+01 8.920910e+00 -4.039524e+00 -3.525853e+00 3.790606e+00 -9.909331e+00 9.212463e+00 9.443542e+00 8.620344e-01 8.644066e-02 1.270264e+00 -1.000739e-01 8.008717e-01 -1.013778e+00 -3.369866e-02 1.981237e-01 3.585907e-01 -8.931848e-01 -6.288590e-01 -5.882845e-01 1.139832e+00 -2.419074e-02 
1.473871e+01 -9.300331e+00 -5.906610e-01 -5.605187e+00 -1.692945e+01 9.039579e+00 -4.082997e+00 -2.445117e+00 3.332895e+00 -1.130393e+01 9.654796e+00 9.824657e+00 8.375055e-01 -4.136915e-02 2.477821e+00 -5.385157e-01 1.128743e+00 -7.575985e-01 -1.083652e+00 7.963546e-01 2.514950e-01 -1.976069e+00 8.769137e-01 -1.917122e+00 1.340147e+00 -3.876309e-02 
1.550782e+01 -4.450118e+00 -1.972350e+00 -4.990905e+00 -1.594924e+01 5.840075e+00 -1.427332e+00 -3.121358e+00 -1.285555e-01 -8.186456e+00 5.607999e+00 1.191278e+01 7.634845e-01 3.552154e-01 2.608097e+00 -6.861519e-01 1.162055e+00 -3.571400e-01 -1.579230e+00 5.119655e-01 9.281664e-02 -1.813061e+00 1.519831e+00 -2.340107e+00 5.971580e-01 -4.250551e-02 
1.583710e+01 -2.368529e+00 -2.897211e+00 -1.813560e+00 -1.801274e+01 4.808408e+00 -1.344868e+00 -2.927560e+00 -2.682013e+00 -5.429764e+00 1.936720e+00 1.229425e+01 7.165004e-01 5.464700e-01 2.158176e+00 -4.735488e-01 9.713528e-01 2.157042e-01 -2.207356e+00 1.971890e-01 4.390737e-01 -1.502740e+00 1.478174e+00 -2.741611e+00 3.775416e-01 -3.377473e-02 
1.632402e+01 -1.462293e+00 -3.211757e+00 -1.542638e+00 -1.694027e+01 3.140347e+00 -2.848761e+00 -2.820548e+00 -2.267245e+00 -5.247257e+00 1.370965e+00 1.119453e+01 7.100095e-01 4.468618e-01 1.806220e+00 6.503496e-02 1.834405e-01 8.607851e-01 -2.548697e+00 1.889448e-01 6.071003e-01 -4.670258e-01 2.223930e-01 -1.704653e+00 -1.416550e-01 -2.204447e-02 
1.706296e+01 -3.364325e-03 -2.338702e+00 -2.472557e+00 -1.535541e+01 -6.473379e-01 -2.386338e+00 -4.001532e-01 -3.111460e+00 -5.382654e+00 -1.934743e+00 1.207149e+01 6.953694e-01 2.041688e-01 2.476774e+00 -3.747217e-01 1.276927e-01 1.238247e+00 -2.918223e+00 1.001825e+00 9.367632e-01 5.297538e-02 -7.985293e-01 -1.232467e+00 -6.269337e-01 -2.209355e-02 
1.712920e+01 3.398398e+00 -1.926430e+00 -3.744204e+00 -1.297398e+01 -4.175536e+00 3.812748e-02 -1.349560e+00 -2.248961e+00 -7.098045e+00 -9.795366e-01 1.131588e+01 6.638277e-01 -3.666651e-01 2.853423e+00 -7.329400e-01 3.745042e-01 1.492155e+00 -2.041042e+00 9.869304e-01 1.542085e+00 9.318618e-02 -1.055821e+00 -8.217262e-01 -1.338531e+00 -3.474782e-02 
1.645536e+01 7.584994e+00 -5.413483e+00 -7.431364e-02 -1.380465e+01 -6.124766e+00 2.220810e+00 1.020761e+00 -2.426278e+00 -8.497016e+00 -3.050365e+00 9.098908e+00 6.291236e-01 -7.801275e-01 2.233356e+00 -7.080003e-01 5.396470e-01 2.141841e+00 -1.365754e-01 4.054375e-01 1.952358e+00 8.732884e-02 -1.335343e+00 -2.097960e-01 -1.838848e+00 -4.591592e-02 
1.479450e+01 9.010641e+00 -5.339066e+00 -8.692387e-01 -1.025487e+01 -4.326147e+00 -2.176834e-01 4.179422e+00 -2.143905e+00 -8.969181e+00 -2.179856e+00 5.988167e+00 5.693933e-01 -1.134894e+00 1.578124e+00 -1.071634e-02 1.177673e+00 3.038888e+00 6.598717e-01 1.131083e+00 2.485092e+00 -6.030255e-01 2.676194e-01 -7.795762e-01 -2.285072e+00 -6.693884e-02 
1.432967e+01 8.357296e+00 -4.172385e+00 -1.211804e+00 -6.005757e+00 -1.254910e+00 -2.312450e-01 6.597148e+00 -2.727344e+00 -1.112380e+01 -2.383564e+00 5.541106e+00 5.130069e-01 -1.640831e+00 1.610816e+00 2.279006e+00 1.097745e+00 4.221857e+00 7.562577e-01 1.524831e+00 1.863949e+00 -7.893037e-01 8.621255e-01 -9.993098e-02 -1.421892e+00 -7.925941e-02 
1.251757e+01 1.090287e+01 -2.600560e+00 2.712907e+00 -1.678979e+00 -3.311106e+00 6.919572e+00 8.287708e+00 -5.113555e+00 -4.446555e+00 -5.210818e+00 1.669424e+00 3.871918e-01 -2.155943e+00 1.608790e+00 2.603470e+00 1.667391e+00 4.140268e+00 1.616648e+00 2.269883e+00 2.122463e+00 -2.773169e-01 7.442353e-01 -1.238938e+00 -9.593685e-01 -8.440313e-02 
9.389665e+00 1.469296e+01 4.612292e+00 3.623338e+00 3.016691e+00 -2.850998e+00 6.276335e+00 8.286364e+00 -4.887971e+00 -6.447701e+00 -2.034539e+00 4.148822e+00 3.239273e-01 -2.379005e+00 7.494757e-01 1.605470e+00 9.009908e-01 3.164331e+00 1.522759e+00 2.193754e+00 9.100332e-01 1.582616e-01 1.262434e+00 -4.276496e-01 -2.931121e-01 -8.739272e-02 
6.484788e+00 1.388676e+01 3.285947e+00 5.050145e+00 5.935244e+00 4.555140e+00 7.877942e+00 1.394713e+01 -2.450176e+00 -7.586055e+00 -8.549056e+00 1.887467e+00 2.419174e-01 -2.037718e+00 -1.453251e+00 -8.349104e-02 -2.990880e-01 2.636199e+00 1.208923e+00 7.078659e-01 -1.214814e-01 -1.481160e-01 1.426743e-01 1.709919e-01 -8.799622e-02 -7.808952e-02 
5.451040e+00 1.061273e+01 9.117104e-01 2.124531e+00 6.008789e+00 2.425764e+00 1.025834e+01 8.317604e+00 -3.267725e+00 -3.241883e+00 -2.852692e+00 3.966524e+00 1.486805e-01 -1.400990e+00 -2.643179e+00 -1.929538e+00 -3.479705e-01 1.085571e+00 -1.414310e+00 6.320926e-01 -8.175700e-01 -5.535091e-01 -1.265867e-01 -7.599597e-02 -1.697304e-01 -7.316822e-02 
4.298295e+00 5.676728e+00 -1.167725e+00 1.966871e+00 1.000597e+01 9.512901e-02 8.467898e+00 7.664681e+00 -6.664258e+00 -5.336093e+00 -3.946782e+00 1.320591e+00 8.436757e-02 -6.439520e-01 -2.094720e+00 -2.325304e+00 -1.176197e+00 9.471387e-02 -3.046468e+00 -8.218600e-01 -3.141873e+00 -1.485683e+00 -6.826959e-01 8.280716e-01 -2.622260e-01 -5.239745e-02 
3.477962e+00 5.582080e+00 -2.808562e+00 3.425123e+00 6.409184e+00 -7.692545e+00 9.141819e+00 7.339738e+00 -5.548475e+00 -8.205616e+00 -4.715655e+00 3.583608e+00 3.686112e-02 -7.845093e-01 -1.458732e+00 -2.065798e+00 -1.711833e+00 -8.307179e-01 -2.145726e+00 -8.950248e-01 -1.610436e+00 -2.435218e-01 -1.735991e+00 -5.412854e-01 -7.108286e-01 -2.485739e-02 
4.251568e+00 5.928479e+00 -6.480437e+00 -1.481134e+00 6.208616e+00 -5.618044e+00 4.326902e+00 -1.273302e+00 -8.738216e+00 -8.517668e+00 -3.477217e+00 7.677953e-01 3.583986e-02 -8.134686e-01 -1.877765e-01 -1.318649e+00 -2.171016e+00 -1.277483e+00 -1.317181e+00 -7.811335e-01 -8.858095e-01 -1.061471e+00 -1.325987e+00 -1.055187e+00 -1.079228e+00 -1.964946e-02 
1.551857e+00 3.193193e+00 -6.760926e+00 -4.710631e+00 3.753876e+00 -5.446282e+00 7.853715e+00 4.734416e+00 -3.448355e+00 -1.033105e+01 -5.793902e+00 6.887795e-01 4.865742e-02 -1.161404e+00 -2.795503e-01 -1.153525e+00 -2.122921e+00 -5.757312e-01 4.274607e-01 -3.081309e-01 -6.785867e-01 4.937183e-01 9.478546e-01 -1.310269e+00 -1.909232e+00 -1.931921e-02 
1.194004e+00 5.932289e+00 -5.784786e+00 -4.820330e+00 4.946210e+00 -7.613909e+00 5.206283e+00 4.538294e+00 -1.302167e+01 -1.090331e+01 -8.683594e+00 -2.628132e+00 -1.977789e-02 -1.920444e+00 -6.209352e-01 -5.716466e-01 -5.382526e-01 2.475223e-01 8.662968e-01 2.586703e-02 -5.318061e-01 4.596312e-02 9.597040e-01 -1.311419e+00 -1.787566e+00 -2.610235e-02 
-8.002763e-01 4.182424e+00 -8.924015e+00 -5.519885e+00 4.161731e+00 -4.557309e+00 7.161475e+00 1.041007e+00 -9.381554e-01 -2.273521e+00 -8.663810e+00 -4.264590e+00 -3.192604e-02 -1.497346e+00 1.485266e-01 2.392355e-01 8.803755e-01 3.746480e-01 3.996139e-01 -3.380843e-01 -1.871459e+00 -5.067734e-01 1.195877e+00 -1.140963e+00 -1.587810e+00 -2.708131e-02 
-4.174586e+00 2.329188e+00 -8.257126e+00 -3.767770e+00 7.242300e+00 -1.731047e+00 4.802358e+00 -2.085627e+00 -9.763501e+00 -7.747911e+00 -8.599358e+00 -5.693348e+00 -5.438018e-02 -1.405746e+00 3.552588e-01 1.155274e+00 1.307889e+00 1.610752e-01 1.283934e+00 -6.011357e-02 -9.884793e-01 9.664467e-01 8.495592e-01 -1.204914e+00 -1.234075e+00 -1.400014e-02 
-3.250578e+00 5.737377e+00 -4.328578e+00 -8.350333e-01 4.479071e+00 -6.389644e+00 6.365256e+00 -1.310918e+00 -7.611309e+00 -5.929365e+00 -1.154083e+01 -5.717662e+00 -6.944799e-02 -1.204627e+00 5.469165e-01 1.722795e+00 4.064423e-01 2.895559e-02 6.299523e-01 -5.821119e-01 4.872316e-01 -8.933749e-02 -7.855369e-01 -1.217134e+00 4.489141e-01 -1.170584e-02 
-4.609575e+00 6.931106e+00 -2.306135e+00 -6.233125e-01 5.592916e+00 -2.780695e-01 5.303824e+00 7.718606e-01 -4.852864e+00 -4.827594e+00 -1.326965e+01 -8.071972e+00 -7.101762e-02 -7.365309e-01 5.660833e-01 1.774128e+00 4.395311e-01 -9.681880e-02 -1.082973e-01 1.357046e-01 9.275268e-01 1.530631e+00 1.318566e+00 -1.786018e-01 7.619991e-02 -1.733760e-02 
-6.605917e+00 4.616047e+00 -3.285532e+00 -5.059902e+00 5.131201e+00 -2.134036e+00 4.000182e+00 2.048421e+00 -3.840161e+00 -7.661365e+00 -1.241433e+01 -8.307070e-01 -8.213651e-02 -1.265072e+00 -3.776349e-01 1.871477e+00 5.299542e-01 -2.691300e-02 6.626940e-02 -4.846276e-01 4.368052e-01 2.985435e-01 1.112048e+00 2.042900e+00 8.675317e-02 -1.838535e-02 
-6.179571e+00 5.720269e+00 9.199333e-02 5.423201e-01 6.432141e+00 -4.400337e+00 6.663418e+00 8.723373e-01 -3.995920e+00 -2.890804e-01 -9.055616e+00 -7.755826e+00 -1.347239e-01 -1.411562e+00 -2.629870e-01 1.703814e+00 9.715546e-01 2.876382e-01 3.003263e-01 6.760572e-01 -6.224250e-01 4.001918e-01 2.838118e+00 4.254901e+00 1.037140e+00 -1.963648e-02 
-8.790942e+00 4.454621e+00 3.829745e+00 1.231921e+00 3.924893e+00 -3.997163e+00 3.262321e+00 8.228693e-01 -6.547063e+00 -2.638382e+00 -3.433352e+00 -5.441969e+00 -1.295216e-01 -1.787098e+00 -6.128867e-02 1.905090e+00 2.441297e+00 1.338254e+00 -5.572257e-02 -1.000150e-01 -8.380650e-01 1.068262e+00 3.823283e+00 4.081318e+00 2.632999e-01 -7.798898e-03 
-1.057487e+01 5.696884e+00 2.655294e+00 1.088549e+00 7.634260e+00 2.155126e+00 9.053041e+00 -1.727489e+00 -1.498455e+00 6.851503e+00 3.514364e+00 -5.806416e-01 -1.455075e-01 -1.405311e+00 -6.235217e-01 3.468327e-01 1.983625e+00 1.292123e+00 3.574359e-01 -5.188932e-02 -3.459646e-01 9.373902e-01 2.439325e+00 2.950210e+00 1.615515e+00 2.102530e-03 
-1.334376e+01 4.321296e+00 4.958267e+00 6.873466e+00 1.122141e+01 -5.690380e+00 2.305295e+00 -8.419902e-01 2.524161e-01 7.884758e+00 1.707267e+00 -3.101799e+00 -1.157392e-01 -3.580257e-01 -4.718902e-01 -7.912619e-01 5.552952e-01 6.927660e-01 4.166545e-01 2.690043e-01 7.297549e-01 1.850511e+00 1.767121e+00 9.710191e-01 8.739920e-01 2.123928e-03 
-1.092972e+01 2.669323e+00 1.261896e+00 7.639675e+00 9.244499e+00 -1.766549e+00 6.882484e+00 -2.505612e-02 -2.708708e+00 6.645973e+00 3.125123e+00 -8.483341e-01 -1.311024e-01 8.699894e-02 -4.518696e-01 -3.048937e-01 -3.501601e-01 8.401608e-02 -3.939608e-01 -1.534532e+00 9.249926e-01 8.040478e-01 -4.774676e-02 -1.328857e+00 2.259996e-02 1.623845e-03 
-1.040365e+01 3.608951e+00 5.701345e-01 7.328342e-01 6.583604e+00 4.694653e-02 5.692621e+00 3.620428e+00 3.310619e+00 6.299988e+00 1.616364e+00 -9.381630e-01 -1.261045e-01 1.275627e-01 1.500748e-01 -2.233343e-01 -1.166763e+00 -5.093833e-01 4.398687e-01 -4.818524e-01 8.337367e-01 1.687247e+00 -2.850657e-01 -9.662056e-01 1.214911e-01 -1.250100e-03 
-1.160993e+01 3.793709e+00 3.324892e+00 2.408064e+00 1.037324e+01 -2.683342e+00 -3.132817e-01 6.662655e-01 9.926829e-01 7.405155e+00 -3.084470e+00 -1.549460e+00 -1.322056e-01 -3.333128e-01 4.284523e-01 4.493488e-01 -1.197082e+00 -4.405690e-01 -8.039989e-01 -1.060810e+00 -1.080466e+00 8.638150e-01 -5.005805e-01 -1.180005e+00 -5.500965e-01 1.657176e-03 
-1.236584e+01 4.509477e+00 2.810097e+00 3.655456e+00 8.110122e+00 -3.032640e+00 3.493917e+00 2.981032e+00 6.837953e+00 6.079839e+00 -1.896483e-02 -2.143781e+00 -1.214381e-01 -1.486313e-01 5.190543e-02 2.762084e-01 5.050763e-01 5.507399e-01 -5.098413e-01 7.648293e-01 -1.782454e+00 -6.152361e-01 -1.035322e-01 -2.880491e-01 -7.968591e-02 -2.395570e-03 
-1.161519e+01 4.361321e+00 2.388658e+00 1.929524e-01 6.278396e+00 -4.246750e+00 2.677787e+00 -5.107689e+00 -1.533005e-01 4.253145e+00 -1.957236e+00 -2.996007e+00 -1.251497e-01 -8.049946e-02 -8.828207e-02 1.123153e-01 -3.176390e-01 -1.637893e-01 1.141575e-01 1.585678e+00 -3.013952e-01 -6.792065e-01 -5.177614e-01 2.491566e-01 7.957749e-01 -3.803396e-03 
-1.114418e+01 3.584671e+00 2.419293e+00 4.365771e+00 1.138473e+01 -1.720556e+00 8.021233e+00 -2.404867e+00 8.074303e-01 7.358332e+00 -3.874982e-01 -6.133188e-01 -1.416103e-01 -2.481344e-01 -3.922468e-01 -3.115454e-01 -9.713942e-01 -1.337198e-02 6.488748e-01 4.664544e-01 5.931150e-01 -1.092481e+00 -3.032874e-01 -1.857117e-01 1.028128e+00 -2.676833e-03 
-1.262326e+01 3.814701e+00 4.081870e+00 4.647108e-01 7.916995e+00 -2.768596e+00 5.351450e+00 1.852239e+00 6.119118e-01 4.177102e+00 -1.654420e+00 1.664183e+00 -1.411365e-01 -2.739351e-01 -2.113842e-01 -2.083261e-01 -4.015183e-01 -5.085657e-02 6.053903e-01 -2.675640e-01 1.849102e+00 7.265077e-02 2.889360e-01 2.222957e-01 -2.432606e-02 2.173781e-04 
-1.310247e+01 2.821553e+00 4.057646e-01 -1.337394e+00 7.223962e+00 -5.273428e-01 4.489357e+00 2.466643e+00 9.929442e-01 4.601423e+00 -1.098932e+00 6.667627e-01 -1.268289e-01 8.354950e-02 1.374061e-01 3.340551e-01 -1.614067e-01 -8.671086e-01 -9.778174e-01 -1.132242e+00 2.432580e-01 -1.630689e+00 -4.031047e-01 3.123131e-01 -2.677466e-01 3.991067e-03 
-1.200572e+01 3.685960e+00 2.353792e+00 1.036944e+00 8.104496e+00 -1.816405e+00 3.105905e+00 1.702064e+00 1.171963e-01 7.076279e+00 -4.900410e-01 -3.757679e+00 -1.314535e-01 4.557556e-01 2.933437e-01 2.477957e-01 6.817796e-01 6.623532e-01 -1.677230e+00 -3.758412e-01 -2.210180e-01 -1.363280e+00 6.018406e-01 7.308761e-01 -4.918856e-01 2.874267e-03 
-1.103520e+01 4.336073e+00 4.953609e+00 3.272622e+00 6.955434e+00 -7.085738e+00 3.482796e+00 -1.113489e+00 -7.098659e+00 3.893219e+00 5.918781e-01 7.588790e-01 -1.264964e-01 4.076311e-01 4.243413e-01 5.975459e-01 6.343648e-01 1.153665e+00 -2.075556e+00 -1.580450e-02 9.762950e-02 -8.579147e-01 6.342095e-01 6.151572e-01 -9.975505e-03 4.317045e-04 
-1.137812e+01 4.524159e+00 3.046927e+00 1.568601e+00 1.136302e+01 -7.875549e+00 3.975524e+00 2.537215e+00 -2.158687e+00 7.540406e+00 1.154556e+00 -8.413027e-01 -1.269314e-01 9.122829e-02 1.864486e-01 -5.204120e-02 -6.407058e-02 1.092465e+00 -1.290810e+00 2.231968e-01 5.321007e-01 3.882036e-02 4.575442e-01 3.851872e-01 4.232570e-01 8.609176e-04 
