-8.394306e+00 2.321116e+00 -1.911409e+00 1.648271e+00 3.688899e+00 -3.709451e+00 -3.425832e-01 -2.271064e+00 7.871749e+00 -6.518785e-01 5.767267e-01 7.556537e+00 -2.640545e-02 1.552343e-01 1.073198e-01 -1.979344e-01 -7.691814e-01 -6.265701e-01 2.255069e-01 3.417760e-01 7.841927e-01 4.501355e-01 1.340674e+00 7.500225e-01 -9.907131e-01 -3.729236e-03 
-8.027838e+00 3.884885e+00 -1.840109e+00 -2.242113e+00 1.727505e-01 -1.524168e+00 -1.177359e-02 -8.440676e-01 9.081080e+00 2.052704e+00 -1.847744e+00 4.405285e+00 -2.587509e-02 2.506832e-01 -3.488291e-01 -5.964116e-01 -3.826657e-01 3.271937e-02 2.801128e-01 9.184775e-01 1.140414e+00 3.455083e-01 2.047776e+00 9.371047e-01 -7.901430e-01 -4.044580e-03 
-7.801369e+00 2.075831e+00 -2.936731e+00 -2.524449e-01 2.314122e+00 -3.674559e+00 1.200892e+00 9.364009e-01 9.517761e+00 4.699201e+00 5.539075e+00 4.178597e+00 -4.531682e-02 1.529364e-01 -2.345997e-01 -3.815543e-01 1.072964e-01 9.602032e-02 1.345770e-02 1.020751e-01 5.574913e-02 2.322026e-01 2.018017e+00 7.676443e-01 -9.765128e-01 -1.162207e-03 
-7.437359e+00 6.996129e-01 -4.380806e+00 6.853002e-01 4.539884e+00 -2.326334e+00 3.478067e+00 1.827271e+00 8.776285e+00 6.911459e+00 2.781076e+00 5.294792e+00 -3.717268e-02 -4.863548e-03 -6.162323e-02 -2.362674e-01 1.158303e-01 8.669575e-01 1.115057e+00 -7.649935e-01 -5.186655e-01 -1.688652e-01 8.911955e-01 6.749981e-01 -6.968288e-01 5.036748e-03 
-7.924864e+00 2.740753e+00 -2.548832e+00 7.210467e-01 1.985434e+00 -3.241080e+00 -1.577128e+00 -3.327988e+00 9.185160e+00 7.008831e+00 2.100538e+00 2.229220e+00 -2.656770e-02 -1.325518e-01 4.338799e-01 -6.494045e-03 -4.698474e-01 7.842649e-01 1.382772e+00 -1.042621e+00 -1.207771e+00 -1.083489e+00 -3.992776e-01 -8.079281e-01 -4.438511e-01 5.462813e-03 
-7.990408e+00 3.244307e+00 -3.215395e+00 -2.149707e+00 4.671883e+00 3.834380e+00 -2.447731e+00 -1.305201e+00 8.403055e+00 5.353866e+00 3.246515e+00 1.895830e+00 -1.006591e-02 2.903900e-02 5.629390e-01 5.935850e-01 -3.019280e-01 4.793512e-01 7.850330e-01 -3.306372e-02 -4.100563e-01 -8.779622e-01 -7.716541e-01 4.624027e-01 -3.038463e-01 -2.121663e-03 
-8.187603e+00 2.972883e+00 -3.551907e+00 -1.184178e+00 6.169447e+00 1.589429e-01 -1.049314e+00 -3.536219e+00 4.286932e+00 3.481609e+00 1.266716e+00 3.658823e+00 -3.155613e-02 1.329823e-01 -1.676489e-01 6.116111e-02 -1.340285e-01 5.834941e-01 3.494559e-01 1.237885e+00 9.107440e-01 -2.538030e-01 -8.182009e-01 3.726555e-01 9.573199e-01 -7.693195e-03 
-7.160794e+00 3.398243e+00 -9.113436e-01 1.282730e-01 4.844633e+00 -1.011796e-01 3.048841e+00 -1.188949e-01 6.835588e+00 4.816800e+00 5.510001e+00 3.060759e+00 -4.528677e-02 7.853546e-02 -2.651428e-01 1.412066e-01 4.704152e-01 -2.267060e-01 -1.290848e+00 1.298313e+00 4.810402e-01 5.064704e-02 -1.146780e+00 6.223618e-02 3.724547e-01 -6.924021e-03 
-7.674759e+00 1.825541e+00 -3.395052e+00 -1.088086e+00 4.816529e+00 4.739794e-01 1.864011e+00 6.325792e-01 8.699879e+00 3.186359e+00 2.832072e+00 6.433355e+00 -4.742324e-02 1.576455e-01 1.504309e-02 -5.161214e-02 1.995271e-01 -3.123782e-01 -1.096025e+00 3.885137e-01 1.244297e+00 9.104454e-01 -5.633202e-01 -1.851896e-01 -3.480159e-01 3.341794e-04 
-7.854153e+00 2.492265e+00 -2.587790e+00 1.543230e-01 4.214812e+00 -2.777378e+00 2.587173e+00 -9.843984e-01 6.449817e+00 -2.324075e-01 2.775017e+00 2.370838e+00 -3.675246e-02 2.035007e-02 4.629869e-01 1.542563e-01 7.124760e-01 3.287519e-01 -6.200529e-01 -1.585595e-01 4.336855e-01 2.254171e-01 3.374949e-01 -3.514785e-01 1.234199e-01 3.618693e-03 
-7.052696e+00 3.501088e+00 -2.971745e+00 -1.995677e-01 4.922467e+00 -3.983084e+00 1.124089e+00 3.118016e+00 9.032044e+00 3.189612e+00 1.708259e+00 2.263704e+00 -3.415239e-02 2.740715e-01 7.472020e-01 5.170560e-01 8.678415e-01 4.692342e-01 -8.000851e-04 -1.897860e-02 7.574756e-02 -3.039391e-01 1.207186e+00 5.046919e-01 -3.641895e-01 -4.436970e-04 
-7.370075e+00 4.875404e+00 -3.517159e-01 3.246394e+00 6.435423e+00 -9.729123e-01 2.626004e+00 8.068138e-01 7.796591e+00 6.502648e+00 4.314515e+00 5.762684e+00 -3.382874e-02 2.217981e-01 2.677160e-01 3.395537e-01 8.811291e-01 1.151903e-01 7.601000e-01 8.381068e-01 1.036212e+00 -8.637774e-02 3.659334e-01 5.530112e-02 2.890824e-01 -9.623766e-05 
-6.546440e+00 4.369981e+00 -1.927809e+00 1.705087e+00 6.052394e+00 -4.322537e-01 1.749702e+00 1.157109e-01 6.506796e+00 5.854761e+00 4.585783e+00 2.916484e+00 -5.110359e-02 1.095378e-01 -7.314320e-02 3.010359e-01 8.774441e-01 -8.013906e-02 3.551122e-01 1.794918e+00 7.729157e-01 -9.543720e-01 -8.895518e-01 6.025158e-01 1.809957e-02 1.664925e-03 
-6.998290e+00 3.396398e+00 -1.411989e+00 3.607641e+00 4.225800e+00 -7.522929e-01 6.464900e+00 5.697813e+00 7.280552e+00 2.646852e-01 1.612761e+00 3.489860e+00 -2.875805e-02 -1.591592e-01 -9.984671e-01 -5.859155e-02 1.154292e+00 -1.462180e+00 -1.486013e-01 2.601149e+00 6.105135e-01 -1.564726e+00 -1.450971e-01 1.711325e+00 -7.831776e-01 1.350364e-02 
-6.690900e+00 3.874875e+00 -9.364287e-01 4.007030e+00 5.626583e+00 -2.317833e+00 8.179233e+00 4.537095e+00 4.518203e+00 1.860834e+00 6.071715e+00 3.490614e+00 -2.836311e-02 1.522315e-01 -5.057377e-01 2.383008e-01 3.977286e-01 -1.227244e+00 -3.407196e-01 9.428812e-01 -3.454003e-01 -1.789471e-01 2.327658e-01 -3.198776e-02 -6.577991e-01 6.671918e-03 
-8.093641e+00 1.306218e-01 -1.140364e+00 7.866884e+00 -6.625705e-01 -7.731290e-01 1.241698e+01 1.648689e+00 9.672556e-01 7.774126e+00 1.212817e+01 1.559731e+00 2.231920e-02 4.101158e-01 8.692126e-02 -5.884172e-01 -1.199382e+00 -8.580426e-01 -7.620155e-01 -1.362740e+00 -1.630411e+00 8.022201e-02 2.786002e-01 -1.174363e+00 -9.012150e-01 -5.182862e-03 
-5.237607e+00 3.474180e+00 -8.721178e-01 1.564108e+00 2.360357e+00 -2.125433e+00 3.488067e+00 4.132712e-01 8.768709e+00 3.263870e+00 -8.318614e-01 5.925525e-01 -4.328263e-02 2.459163e-01 1.690935e-01 -1.580765e+00 -1.579580e+00 1.459636e-01 1.364406e+00 -8.917637e-01 -1.146581e-01 8.848535e-01 6.778316e-02 -1.799734e+00 4.796182e-01 -2.253413e-04 
-5.674357e+00 4.031352e+00 -4.386230e+00 -1.167810e+00 1.568699e+00 -4.658570e+00 1.996783e+00 -3.923312e-01 5.556409e+00 9.561687e-01 -8.072671e-01 4.328155e-01 -4.721260e-02 3.352842e-01 8.407997e-01 -1.116131e+00 -1.559438e+00 4.650333e-01 9.291576e-01 -4.573609e-01 2.468396e-01 -7.651725e-01 -1.665366e+00 -1.837835e+00 7.721971e-01 -1.819801e-03 
-6.670960e+00 2.769978e+00 -7.217320e+00 6.264743e-01 5.240767e+00 6.446918e+00 8.930513e+00 4.984315e+00 6.647894e+00 5.608728e+00 3.540766e+00 6.452163e+00 5.276084e-03 -1.953737e-01 -6.283175e-01 -8.011020e-01 -1.225440e-01 -1.609494e+00 2.136608e-01 1.542748e+00 5.356545e-01 -1.244160e+00 4.403045e-02 7.430310e-01 8.417786e-01 1.751345e-02 
-5.700543e+00 4.686722e+00 -3.548420e+00 5.385101e-01 2.223911e-01 -4.135165e-01 7.408953e+00 5.973657e-01 -1.798200e+00 -1.725133e+00 7.526833e-01 2.490912e+00 -1.105917e-02 -7.459204e-01 -9.258126e-01 3.555915e-01 1.455675e+00 -1.820585e+00 6.044148e-01 1.882213e-01 -1.313022e+00 -2.192843e+00 3.392692e-01 -4.389949e-01 1.175527e-01 6.152659e-02 
-6.201383e+00 4.907846e-03 -5.296533e+00 9.822798e-02 -5.013961e+00 -3.179657e+00 8.495721e+00 2.596695e+00 6.225213e+00 4.824673e+00 2.103318e+00 3.772397e+00 2.620792e-02 6.140855e-01 -2.906149e+00 4.050122e-01 1.328916e+00 -4.549444e+00 -1.333641e+00 1.074430e+00 -2.327777e+00 -4.268620e+00 5.047376e-01 -7.962816e-01 -6.981558e-01 1.095873e-01 
-9.638748e+00 7.848233e-01 -3.568666e+00 6.374687e+00 -2.406860e+00 3.176791e+00 3.155286e+00 -5.763634e+00 -5.196466e+00 3.044542e+00 -2.283518e+00 2.360462e+00 2.499544e-01 1.609472e-01 -3.754222e+00 1.064673e+00 -6.977917e-01 -3.230260e+00 -5.407797e-01 7.408164e-01 -1.233801e+00 -3.547639e+00 -3.516784e-01 9.341760e-01 -8.894567e-02 1.463992e-01 
-1.631431e+00 -9.809818e+00 -5.182136e+00 4.352965e+00 -1.619183e+01 -2.016442e+00 1.642950e+01 -3.474070e+00 -1.299607e+01 5.747579e+00 1.077459e+00 3.026609e+00 4.227058e-01 -2.205954e-01 -2.498746e+00 1.561761e+00 -2.682483e+00 -6.125630e-01 9.592028e-02 -1.554067e+00 -8.371853e-01 -1.237804e+00 -1.668739e+00 6.182617e-01 -5.625592e-01 9.342393e-02 
-7.180783e+00 -9.177027e+00 1.717744e+00 -5.077817e+00 -1.033998e+01 -3.699022e+00 7.146147e+00 -2.536257e+00 -9.925753e+00 -3.944978e+00 5.936493e+00 2.419078e+00 5.226880e-01 1.630580e-01 -2.069014e+00 9.406477e-01 -3.504721e+00 -4.306899e-01 -4.376962e-01 -2.339007e+00 -4.233350e-01 3.401498e+00 -1.546458e+00 6.388335e-01 1.818825e-01 9.808248e-03 
-8.533342e+00 -7.507899e+00 -1.309320e-01 -7.587935e+00 -4.110218e+00 7.378513e-01 -1.270042e+00 -3.202920e+00 2.400839e+00 -2.426326e-02 1.084622e+00 9.302925e-01 3.569608e-01 -3.469685e-01 2.503344e+00 -5.120111e-02 -1.032761e+00 3.477604e+00 9.827347e-01 -3.578699e+00 4.993504e-01 5.175195e+00 -7.302648e-01 -3.782862e-01 3.721801e-01 -1.002857e-01 
-5.372502e+00 -1.071121e+01 -1.391030e+00 -5.178466e+00 -1.060112e+01 -3.888367e-01 3.100204e-01 -8.015884e+00 4.112569e+00 -1.801827e+00 9.070681e-01 4.318033e+00 3.318682e-01 9.467875e-01 3.583186e+00 -7.924632e-01 1.807540e+00 1.769685e+00 -2.061690e-01 -3.099023e-01 1.547810e+00 3.450235e+00 8.463246e-01 -8.267409e-01 -2.958786e-02 -1.372240e-01 
-4.270413e+00 3.473990e+00 -3.883755e+00 -7.605163e-01 1.326761e+00 1.242138e+00 1.954066e+00 1.762496e+00 5.860742e+00 1.024679e+00 1.700741e+00 3.938032e+00 1.668710e-02 1.137997e+00 4.082892e+00 -1.894330e-01 2.198110e+00 1.904174e+00 -1.049667e-01 2.568080e+00 2.366255e+00 1.024481e+00 1.058354e+00 3.856834e-01 5.862566e-01 -1.050114e-01 
-4.578310e+00 3.247957e+00 -3.681602e-01 5.461740e-01 -4.210042e+00 -4.982010e+00 3.984581e+00 2.720083e+00 5.595469e+00 -2.378265e-01 1.494730e+00 7.672689e-01 6.705105e-03 4.192925e-01 3.854215e+00 7.378119e-02 1.667346e+00 3.142609e+00 5.737264e-01 1.424506e+00 7.982926e-01 -1.579574e+00 1.687537e+00 8.484631e-01 1.809202e-01 -6.281099e-02 
-3.240454e+00 5.926983e+00 -1.589532e+00 5.402949e-01 2.215113e+00 2.509605e+00 9.733080e+00 3.260373e+00 6.781792e+00 4.485506e+00 2.719208e+00 5.636958e+00 -5.514503e-03 1.853519e-01 4.087448e-04 -1.545717e+00 1.309214e+00 1.210952e+00 1.312744e+00 9.499880e-01 -8.404967e-01 1.770564e-01 8.069493e-01 -2.948291e-01 6.950903e-02 4.140692e-02 
-3.791019e+00 7.333373e+00 -2.169235e+00 2.507858e+00 4.667756e+00 1.846062e+00 3.543045e+00 -4.773360e+00 -4.245829e+00 4.905447e+00 4.640150e+00 4.373171e+00 2.891403e-02 2.476694e-01 -2.344124e+00 -3.074716e+00 9.083347e-01 1.073931e+00 2.815582e+00 6.226185e-01 -3.569738e-02 2.210621e+00 2.962565e-01 -1.035689e+00 2.431724e-01 1.191256e-01 
-3.737299e+00 1.433326e+00 -1.071180e+01 4.804710e+00 2.942624e+00 4.391825e+00 6.924774e+00 1.306734e+00 1.166667e+01 2.487789e+00 -1.346115e+00 2.482626e+00 2.126172e-01 -9.341708e-01 -3.050503e+00 -2.332111e+00 8.206316e-01 -9.003040e-01 1.124676e+00 8.567810e-03 6.589246e-01 2.299340e+00 -1.414383e+00 -1.404421e+00 -7.163268e-01 1.340629e-01 
-3.091540e+00 -6.225837e+00 -1.118060e+01 2.955640e+00 7.958593e-01 8.154788e+00 8.501827e+00 3.518416e+00 1.420613e+01 2.242314e+00 -1.651055e+00 3.560297e+00 4.932675e-01 -5.173481e-01 -3.208756e+00 -5.150371e-01 -8.658425e-01 -2.245372e+00 9.757797e-02 -1.623004e+00 5.700380e-01 1.658285e+00 -1.795247e+00 -6.304663e-01 -6.020987e-01 1.190275e-01 
-8.261047e+00 -2.545928e+00 -8.744401e+00 4.419562e+00 -3.504581e-01 4.978624e+00 7.296528e+00 2.409108e+00 9.052511e+00 -1.254841e+00 -1.157292e+00 2.461761e+00 4.326234e-01 -3.517981e-01 -5.818259e-01 4.370585e-01 -1.844007e+00 -1.782314e+00 -1.987749e+00 -2.542150e+00 -1.657884e+00 -1.711966e+00 -6.026148e-01 9.633244e-01 9.347372e-02 5.767089e-02 
-4.115886e+00 -6.720778e+00 -5.728120e+00 -1.628780e+00 -4.912564e+00 2.040552e+00 -4.757850e+00 -2.474357e+00 5.352680e+00 -2.199475e+00 1.393407e+00 1.373110e+00 5.140482e-01 6.255215e-01 1.155746e+00 1.824534e-01 -1.240087e+00 -9.503347e-01 -2.796607e+00 -1.341117e+00 -2.222780e+00 -7.432899e-01 1.161000e+00 1.435307e+00 7.166129e-01 4.652745e-02 
-4.984117e+00 -1.228333e+00 -1.125275e+01 -2.123113e+00 -3.114735e+00 -2.489801e+00 8.438635e-01 -3.986301e+00 7.533568e+00 1.695610e+00 1.948275e+00 4.043588e+00 4.905813e-01 1.225695e+00 1.867964e+00 2.181131e+00 7.721779e-01 4.463137e-01 -1.254458e+00 1.710466e+00 -1.326666e+00 -4.125606e-01 2.826156e+00 1.928962e-01 -1.003155e+00 6.856893e-02 
-1.602398e+00 -1.105907e+00 -9.014163e+00 2.654374e-02 -2.573676e+00 -2.094035e+00 5.022576e+00 -4.397779e+00 1.124916e+01 6.572091e+00 3.972694e+00 6.352448e+00 6.969258e-01 4.847822e-02 1.614459e+00 3.850977e+00 3.196884e+00 1.058555e+00 -1.262371e-01 4.595759e+00 1.791879e+00 -1.171621e+00 3.209457e+00 5.866979e-01 -1.016701e+00 6.430203e-02 
-3.389317e+00 3.986454e+00 3.804275e+00 7.452789e+00 7.116661e-01 7.736254e-01 1.095864e+01 -3.262513e+00 4.041470e+00 8.490154e+00 -1.482455e+00 -5.043685e+00 6.840293e-01 -1.195974e-01 3.597009e-01 4.608629e+00 3.536195e+00 1.148283e+00 3.941445e-01 2.462795e+00 3.081767e+00 -2.771914e+00 1.626151e+00 5.956594e-01 -1.139831e+00 4.439291e-02 
-4.670895e+00 -1.255876e+00 5.998254e+00 9.567688e+00 -1.532991e+00 -2.223465e-01 1.316356e+01 6.123146e+00 1.240624e+00 1.045054e+01 6.042262e+00 8.332440e-01 7.388344e-01 -4.571913e-01 -4.673035e-01 3.063500e+00 3.343796e+00 1.332162e+00 4.765378e-01 -7.939258e-01 2.997096e+00 -3.094221e+00 -5.712438e-01 -7.417517e-01 -1.073459e+00 -3.828067e-03 
-4.047855e+00 6.451560e-01 4.284188e+00 1.078729e+01 2.106339e+00 -1.454923e+00 9.087347e+00 6.162072e+00 -1.321737e+00 7.887144e+00 3.891788e+00 1.104036e+00 6.915916e-01 5.099738e-01 -1.845194e+00 -2.453670e-02 2.014390e+00 1.070168e+00 1.066363e+00 -3.741931e+00 2.022318e+00 -1.120286e+00 -1.748387e+00 -1.591146e+00 -4.049786e-01 -3.070155e-02 
-3.559085e+00 -1.771775e+00 6.063380e+00 1.507827e+01 3.389796e+00 1.402928e+00 1.988595e+00 5.875406e+00 -1.540346e+00 4.017377e+00 -2.423186e+00 -2.088708e+00 6.740043e-01 3.222379e+00 -7.113597e-01 -1.495709e+00 -2.345070e-01 6.957951e-01 9.302805e-01 -6.417867e+00 -2.036706e+00 -9.507060e-01 -2.564189e+00 -3.216465e+00 -8.881754e-01 -5.363399e-02 
-1.395352e+00 -4.981568e+00 3.649028e+00 1.476945e+01 3.601115e+00 5.292805e+00 -2.163532e+00 6.972945e+00 -1.694751e-01 2.964798e+00 -5.205458e+00 -5.607602e+00 5.629365e-01 5.709222e+00 -9.140071e-01 -3.788146e+00 -3.980347e+00 1.116440e+00 5.015927e-01 -8.026531e+00 -3.745449e+00 -1.505162e+00 -2.579146e+00 -1.554819e+00 -2.831012e-01 1.278520e-03 
1.011475e+01 -1.999312e+00 -1.162711e+00 6.404077e+00 1.198596e+00 1.055192e+00 -1.330034e+01 -4.465823e+00 -4.089036e+00 9.076497e-02 -5.491442e+00 -2.518141e-01 5.349920e-01 6.301058e+00 -1.013550e-01 -5.378278e+00 -7.459914e+00 3.020331e+00 -1.661207e-01 -7.842343e+00 -3.754827e+00 -2.649399e+00 -1.425651e+00 3.546880e-01 6.674398e-01 5.815271e-02 
1.766134e+01 -3.811111e+00 -1.104349e+01 -4.777345e+00 8.784139e+00 1.226908e+00 -2.340084e+01 -7.394558e+00 -7.573200e+00 -3.045279e+00 -2.348180e+00 -1.229917e+00 7.674904e-01 4.941966e+00 6.609358e-01 -4.653317e+00 -7.677623e+00 4.050452e+00 1.408336e-02 -6.333547e+00 -3.069206e+00 -2.120040e+00 -1.092705e-01 8.736604e-01 6.724494e-01 9.974582e-02 
1.841786e+01 -2.863779e+00 -1.348175e+01 -1.244790e+01 1.589994e+01 2.605272e+00 -2.660447e+01 -5.714978e+00 -1.108548e+01 -1.058400e-01 -2.078385e+00 -9.403515e-01 8.624910e-01 1.984277e+00 3.574244e-01 -2.765552e+00 -4.748210e+00 4.160866e+00 3.038836e-01 -3.660962e+00 -1.742416e-01 1.845883e-01 1.003613e+00 8.099077e-01 -5.380942e-01 8.960049e-02 
1.916292e+01 -1.244656e+00 -1.345804e+01 -1.419268e+01 1.650271e+01 4.588181e+00 -2.717920e+01 -7.748507e+00 -7.271456e+00 2.516748e+00 -2.543684e+00 -1.901086e+00 8.979161e-01 1.887240e-01 -2.138820e-02 -1.368339e-01 -1.275306e+00 1.913528e+00 -8.776706e-01 -2.357762e+00 8.508951e-01 1.942887e+00 1.430252e+00 -1.123240e-01 -7.044023e-01 4.044273e-02 
1.928534e+01 -1.495418e+00 -1.378320e+01 -1.262931e+01 1.814364e+01 8.939735e-01 -2.971597e+01 -5.160057e+00 -3.316967e+00 2.327815e+00 -1.344151e+00 -2.606701e+00 9.177815e-01 -3.612251e-01 -1.012775e+00 7.719508e-01 1.856033e+00 2.770055e-01 -2.105438e+00 -2.907315e+00 2.058322e+00 3.201946e+00 7.529165e-01 -7.476912e-01 -5.337411e-01 2.730427e-02 
1.817122e+01 -4.602232e+00 -1.157694e+01 -1.106317e+01 1.722992e+01 -2.305795e+00 -3.363390e+01 -3.417543e+00 -1.743024e+00 2.889155e+00 -3.276917e+00 -3.918754e+00 9.420587e-01 -1.067621e+00 -1.758394e+00 1.491648e+00 3.154787e+00 -8.006522e-01 -3.134942e+00 -3.057975e+00 3.511343e+00 2.747958e+00 -5.845783e-01 -1.521676e+00 -3.496122e-03 2.407133e-02 
1.710759e+01 -6.248867e+00 -1.056254e+01 -4.732490e+00 1.692136e+01 -4.474926e+00 -3.791369e+01 2.411149e+00 2.160035e+00 3.472539e+00 -5.450224e+00 -2.600223e+00 9.769410e-01 -1.426601e+00 -2.042880e+00 2.708600e+00 3.470334e+00 -2.441788e+00 -3.542823e+00 -1.821931e+00 4.590491e+00 1.521619e+00 -1.980792e+00 -2.265779e+00 1.213717e+00 2.105555e-02 
1.491370e+01 -7.659903e+00 -7.610127e+00 -2.367152e+00 1.311059e+01 -8.402077e+00 -3.837021e+01 6.022605e+00 3.729831e+00 -9.785058e-01 -8.099028e+00 -1.921806e+00 9.886931e-01 -1.476682e+00 -1.878232e+00 3.963884e+00 3.218787e+00 -3.634958e+00 -3.742618e+00 6.594410e-01 4.887966e+00 4.369024e-01 -3.804812e+00 -9.300340e-01 2.404066e+00 1.386837e-02 
1.378110e+01 -1.018098e+01 -2.223603e+00 3.743481e-01 7.994370e+00 -1.377200e+01 -3.645746e+01 1.307233e+01 1.554699e+00 -5.642317e+00 -1.026199e+01 2.463413e+00 9.997422e-01 -1.533835e+00 -1.787667e+00 5.321451e+00 1.744389e+00 -4.777453e+00 -3.270813e+00 3.013160e+00 3.376733e+00 -1.612593e+00 -4.379467e+00 1.319083e+00 2.036169e+00 4.087752e-03 
1.245105e+01 -1.202734e+01 4.073016e+00 2.477345e+00 3.518629e+00 -1.637035e+01 -3.106481e+01 1.569170e+01 7.441564e-01 -1.157748e+01 -5.521203e+00 5.569759e+00 1.000000e+00 -1.377656e+00 -1.276868e+00 5.878759e+00 6.881379e-01 -4.691029e+00 -1.864604e+00 4.630244e+00 1.100504e+00 -2.636810e+00 -2.976404e+00 3.570106e+00 9.753084e-01 -3.708613e-03 
1.066973e+01 -1.300348e+01 1.020314e+01 1.567207e+00 -2.169931e+00 -1.684485e+01 -2.650060e+01 1.446027e+01 -4.410092e+00 -1.312531e+01 -1.437219e-01 3.834838e+00 9.917263e-01 -1.153923e+00 -6.608628e-01 5.566607e+00 -7.247725e-01 -3.983426e+00 -2.073708e-01 4.716258e+00 -1.385462e+00 -2.719150e+00 -1.030385e+00 4.241324e+00 -6.676939e-01 -1.190985e-02 
9.581100e+00 -1.263299e+01 1.557030e+01 4.771082e-01 -5.262405e+00 -1.618867e+01 -2.019743e+01 1.083115e+01 -6.471824e+00 -1.211903e+01 4.692366e+00 2.269024e+00 9.741579e-01 -8.794753e-01 1.160272e-01 4.259994e+00 -9.979792e-01 -3.577765e+00 1.402506e+00 3.368544e+00 -1.934611e+00 -2.428848e+00 8.188663e-01 2.904732e+00 -1.647373e+00 -1.788762e-02 
9.446461e+00 -1.318247e+01 1.986079e+01 -2.249396e+00 -7.532241e+00 -1.489969e+01 -1.830987e+01 8.575289e+00 -8.433060e+00 -1.052347e+01 5.837844e+00 7.753105e-01 9.531139e-01 -6.788720e-01 8.946870e-01 2.499492e+00 -3.790407e-01 -3.046361e+00 1.931769e+00 2.577400e+00 -2.061479e+00 -6.831201e-01 1.259627e+00 1.013034e+00 -1.252344e+00 -2.159436e-02 
8.665310e+00 -1.135771e+01 2.054416e+01 -6.042493e-01 -1.168904e+01 -1.033040e+01 -1.831745e+01 8.961138e+00 -9.388599e+00 -8.784067e+00 6.011672e+00 -1.137343e+00 9.298681e-01 -4.554804e-01 1.267603e+00 1.138430e+00 1.098495e-01 -2.967054e+00 1.809827e+00 1.457673e+00 -1.204543e+00 1.818084e-01 1.541695e+00 -3.972729e-01 -1.106678e+00 -2.248095e-02 
7.733267e+00 -9.167690e+00 2.021367e+01 2.126825e-01 -1.418842e+01 -1.011514e+01 -1.455358e+01 5.087882e+00 -6.367305e+00 -8.494657e+00 4.261797e+00 -7.236962e-01 9.058994e-01 -5.175128e-01 1.752082e+00 1.167767e-01 5.308518e-01 -2.842970e+00 1.219508e+00 1.185437e+00 -4.991403e-01 8.780141e-01 2.328149e+00 -1.062861e+00 -6.382917e-01 -2.364712e-02 
8.160296e+00 -8.302366e+00 2.108601e+01 -2.046836e-01 -1.676958e+01 -9.531811e+00 -1.478720e+01 6.552143e+00 -6.595660e+00 -5.424957e+00 3.494024e+00 -2.514865e+00 8.853604e-01 -3.827962e-01 1.598156e+00 3.355656e-01 -4.585921e-01 -2.338380e+00 8.764509e-01 1.315903e+00 1.197597e-01 8.855265e-01 1.967292e+00 -7.470298e-01 -9.316341e-01 -2.306133e-02 
7.111404e+00 -5.949729e+00 2.017375e+01 2.050807e-01 -1.920682e+01 -9.201450e+00 -1.414781e+01 7.284085e+00 -5.439459e+00 -5.622794e-01 1.782364e+00 -1.727387e+00 8.571321e-01 -5.118471e-01 1.975225e+00 4.949381e-01 -1.222411e+00 -1.912415e+00 1.396046e+00 1.337804e+00 9.816324e-01 -8.409119e-02 1.435530e+00 -3.869024e-01 -1.378651e+00 -2.382473e-02 
7.062261e+00 -4.975911e+00 2.224195e+01 -2.893409e+00 -2.087174e+01 -6.404991e+00 -1.194082e+01 8.461835e+00 -5.424889e+00 -2.913798e+00 3.516240e+00 -5.293668e+00 8.389451e-01 -5.388554e-01 2.298789e+00 3.345562e-01 -1.706078e+00 -1.117895e+00 1.262809e+00 2.466885e+00 5.943142e-01 -7.766741e-01 2.058844e-01 -7.183210e-01 -6.114328e-01 -2.885406e-02 
5.723049e+00 -9.547920e-01 2.211039e+01 -4.555009e+00 -2.169942e+01 -4.698323e+00 -9.287752e+00 9.041198e+00 -7.373147e+00 -2.572585e+00 2.316177e+00 -6.227549e+00 8.099834e-01 -8.075981e-02 2.284680e+00 -2.964954e-01 -2.308499e+00 2.522915e-01 9.469015e-01 3.215943e+00 1.068847e-01 -1.737057e+00 -1.089050e+00 -3.426809e-01 -3.105700e-01 -3.612127e-02 
6.160196e+00 6.941080e-01 2.179047e+01 -6.355031e+00 -2.111276e+01 -5.469328e+00 -4.882805e+00 8.645158e+00 -9.512186e+00 -3.390383e+00 -3.644878e-01 -3.321948e+00 7.646645e-01 3.721044e-02 2.424785e+00 -1.029263e+00 -2.600967e+00 9.645039e-01 1.611419e+00 2.999352e+00 -5.935262e-01 -2.424411e+00 -9.253214e-01 -5.013708e-01 7.442299e-01 -3.916320e-02 
7.158637e+00 2.638663e+00 1.891701e+01 -9.606602e+00 -1.782485e+01 -4.934774e+00 -1.597098e+00 7.726847e+00 -1.208110e+01 -5.769235e+00 2.009323e+00 -4.266097e+00 7.136661e-01 3.074717e-01 2.066139e+00 -1.387959e+00 -3.078432e+00 8.658287e-01 3.022987e+00 3.057596e+00 -1.392752e+00 -3.399724e+00 -1.934216e-01 -1.390469e-01 1.105567e+00 -3.388081e-02 
6.530519e+00 5.351288e+00 1.869232e+01 -1.337245e+01 -1.798651e+01 1.770329e+00 -7.893906e-01 6.151379e+00 -1.519297e+01 -5.942080e+00 1.162813e+00 -2.553245e+00 6.912878e-01 3.495584e-01 1.727534e+00 -1.319460e+00 -2.782459e+00 9.440155e-01 3.534396e+00 2.808726e+00 -2.142332e+00 -3.867900e+00 3.267452e-01 8.462217e-01 3.932419e-01 -2.308419e-02 
7.075246e+00 7.047314e+00 1.671967e+01 -1.643846e+01 -1.893340e+01 6.796782e+00 3.953520e+00 3.324327e+00 -2.153138e+01 -2.263844e+00 8.572926e-01 -1.084066e+00 6.772677e-01 5.541918e-01 5.990494e-02 -8.426090e-01 -1.930933e+00 9.943848e-01 2.563002e+00 2.236777e+00 -1.733073e+00 -3.862013e+00 2.839858e-01 1.213297e+00 5.757769e-01 -4.081500e-03 
7.949684e+00 7.127451e+00 1.629184e+01 -1.685139e+01 -1.583841e+01 6.336871e+00 6.385516e+00 1.347583e-01 -2.412654e+01 -3.509352e+00 4.442636e+00 -2.946754e+00 6.674427e-01 3.749396e-01 -1.527159e-01 -8.215191e-01 1.694417e-01 2.373591e+00 6.748762e-02 1.978959e+00 -2.865780e-01 -3.005435e+00 -4.442196e-01 1.597956e+00 8.605079e-02 -2.016457e-02 
9.220014e+00 2.050106e+00 1.590420e+01 -1.752179e+01 -1.392698e+01 5.596964e+00 5.999335e+00 2.069791e+00 -2.692437e+01 -5.565670e+00 6.435899e+00 -1.190458e+00 7.051811e-01 4.965368e-01 -1.714501e-02 -7.532772e-01 1.832492e+00 3.869736e+00 -1.842009e+00 1.664060e+00 1.866275e+00 -1.415818e+00 -2.472986e+00 2.582752e+00 7.674246e-01 -3.798352e-02 
7.332834e+00 7.086312e+00 1.499246e+01 -1.198357e+01 -8.621766e+00 2.707677e+00 8.082500e+00 5.345757e+00 -2.752365e+01 -6.512265e+00 6.363288e+00 -2.069795e+00 5.765082e-01 1.200868e-01 -2.864212e-01 -1.560582e+00 6.031056e+00 5.058918e+00 -4.404158e+00 1.338748e+00 2.881234e+00 1.963646e+00 -4.352555e-01 -1.847104e-01 6.074160e-01 -6.427751e-02 
9.866355e+00 6.982158e+00 1.360297e+01 -9.709911e+00 -3.193045e+00 -5.986657e-01 1.142533e+01 1.005020e+01 -2.691192e+01 -1.312732e+01 1.281073e+01 2.314577e+00 5.328174e-01 8.518668e-02 -3.970491e-01 -3.052410e+00 8.197551e+00 5.336857e+00 -3.972277e+00 1.209844e+00 9.603545e-01 4.716869e+00 1.057760e+00 -3.159645e+00 -4.944102e-01 -8.467948e-02 
8.226947e+00 3.229319e+00 9.639544e+00 9.397947e+00 4.089215e+00 -1.258610e+01 1.036626e+01 1.055072e+01 -1.431454e+01 -1.904806e+00 3.316717e-01 -1.662191e+00 4.322370e-01 -1.595329e-01 -1.785527e+00 -3.912101e+00 7.048528e+00 4.435111e+00 -8.634313e-01 1.843849e-01 -2.811386e+00 6.416286e+00 3.483840e+00 -3.498299e+00 -1.873253e+00 -8.660877e-02 
9.198890e+00 1.993356e+00 3.318612e+00 1.277520e+01 6.401817e+00 -6.617534e+00 1.090668e+01 4.269082e+00 -9.944580e+00 -2.580599e+00 -6.346516e+00 -3.866311e+00 3.539193e-01 -1.629924e+00 -2.617305e+00 -3.998038e+00 3.772582e+00 1.542238e+00 2.861039e+00 -2.503371e-02 -4.898465e+00 5.635340e+00 4.246416e+00 -2.396492e+00 -3.368625e+00 -7.849209e-02 
6.868902e+00 6.530792e-01 5.741302e-01 1.201651e+01 8.756355e+00 1.399954e+00 9.263751e+00 -5.820610e+00 -3.925887e+00 5.633575e+00 -1.549586e+00 -8.345615e+00 2.329134e-01 -1.681438e+00 -2.561394e+00 -3.540391e+00 -1.301547e+00 -1.171153e+00 4.171903e+00 -1.253378e+00 -6.157050e+00 2.504990e+00 1.575627e+00 4.249660e-01 -2.267888e+00 -5.691295e-02 
2.395758e+00 -4.816248e+00 -1.854507e+00 7.843717e+00 2.184573e+00 6.713499e+00 1.185141e+01 -6.256455e+00 -3.929544e+00 4.335573e+00 1.768893e+00 -1.118684e+01 2.400187e-01 -2.183498e+00 -2.467007e+00 -2.882676e+00 -1.995321e+00 -1.956681e+00 1.443180e+00 -1.510015e+00 -2.882296e+00 1.772450e+00 1.162965e+00 2.227128e+00 -4.497889e-01 -3.979779e-02 
3.221321e+00 -6.172850e+00 -5.475856e+00 5.355957e+00 3.420739e-01 1.607893e+00 3.626997e+00 -1.497176e+01 -4.797107e+00 2.515242e+00 -1.601203e+00 -9.341366e+00 2.046226e-01 -1.387688e+00 -1.382684e+00 -2.077656e+00 -1.993674e+00 -1.677780e+00 2.090509e-01 -1.066688e+00 -5.091851e-01 1.206979e+00 -1.797315e-01 2.843938e-01 1.020583e+00 -2.606190e-02 
1.051903e-01 -6.928713e+00 -8.069774e+00 6.128873e+00 8.255515e-01 4.943972e-01 6.174977e+00 -5.566823e+00 -6.467204e-01 4.793394e+00 4.814932e+00 -5.617380e+00 1.690758e-01 -3.882658e-01 2.439195e-01 -9.849666e-01 -2.155587e+00 -7.353911e-01 -1.905581e-01 -1.380856e+00 1.512523e-01 1.062961e+00 -7.213196e-01 -8.644207e-01 1.734580e+00 -3.785743e-02 
1.075745e+00 -5.204110e+00 -6.706516e+00 2.905562e+00 1.046968e+00 5.554760e+00 6.768527e+00 -8.711351e+00 4.675941e-01 4.506007e+00 -1.650636e+00 -6.027426e+00 1.380754e-01 -4.739873e-01 9.252526e-01 2.998599e-01 -1.268946e+00 1.025368e-01 5.394560e-01 -2.665824e-01 1.312571e+00 4.862597e-01 -8.668596e-01 -5.689495e-01 5.790936e-01 -3.040094e-02 
1.527217e+00 -4.081020e+00 -6.164010e+00 -1.709022e+00 -1.844830e+00 3.787275e+00 3.376371e+00 -8.630399e+00 -1.247090e+00 -2.664070e-01 -2.528494e+00 -4.170904e+00 8.400518e-02 -1.147101e-01 1.449480e+00 6.366547e-01 -3.486953e-01 1.351709e+00 7.885194e-01 7.891362e-01 6.570294e-01 -5.780427e-01 -5.431392e-01 -1.174516e+00 8.964584e-01 -2.374336e-02 
1.403713e-01 -2.970434e+00 -4.929438e+00 2.930172e+00 2.189949e+00 2.658734e+00 3.693388e+00 -6.877117e+00 -2.065624e+00 7.108444e-01 -7.742377e-01 -7.169135e+00 9.515315e-02 6.899180e-02 1.426079e+00 4.004804e-01 9.365347e-01 1.299781e+00 3.038088e-01 1.168625e+00 1.114424e+00 -4.857247e-01 -7.060485e-02 3.451661e-01 1.523335e+00 -1.801186e-02 
-6.732941e-04 -7.981510e-01 -5.775039e+00 4.373091e+00 7.012604e+00 5.885007e+00 1.165823e+01 -3.198793e+00 -2.270325e+00 3.975279e+00 -1.495848e+00 -5.642328e-01 7.182008e-02 3.110285e-01 1.056361e+00 -1.492457e-02 1.505712e+00 1.431215e+00 1.095570e+00 1.266580e+00 3.824960e-01 6.464123e-01 4.982268e-01 -7.805604e-01 5.102538e-01 -1.212799e-02 
2.184649e+00 2.848513e-01 -4.898599e+00 4.547178e+00 3.117156e+00 6.024938e+00 8.470723e+00 -5.855032e+00 -1.449412e+00 2.032140e+00 -4.411284e-01 -2.140884e-01 5.410862e-02 7.476101e-02 5.972492e-01 3.486625e-01 -3.668599e-01 -1.091387e-01 6.678656e-01 1.497675e-01 3.042901e-01 1.434030e+00 4.080576e-01 -6.149868e-01 2.622986e-01 -1.616811e-02 
2.060221e+00 -4.268578e-01 -6.254052e+00 5.011036e+00 4.847641e+00 7.582024e+00 7.320604e+00 -7.228961e+00 1.676865e+00 1.564079e+00 -6.597850e+00 -5.097158e+00 4.388750e-02 -1.898861e-01 6.880546e-02 6.735422e-02 -1.352267e+00 -1.406476e+00 -4.503049e-01 -8.579196e-01 -2.394915e-02 1.506394e+00 -4.105724e-01 -5.502327e-01 -8.165939e-01 -6.185764e-03 
-5.162706e-01 -1.698341e-01 -2.946619e+00 7.769001e-01 2.726737e+00 5.149554e+00 6.611038e+00 -3.340582e+00 3.130934e+00 3.956733e+00 -1.298171e+00 -3.591179e+00 2.827889e-02 -7.358362e-01 -1.644720e-01 -1.097414e-01 -1.000627e+00 -4.593020e-01 -1.524215e+00 3.197631e-01 1.026020e+00 1.349376e-01 -6.023320e-01 -3.972230e-01 -1.136479e+00 -7.414204e-03 
4.003563e-01 -2.267810e-01 -6.414258e+00 -5.031033e-01 1.754341e-01 4.071175e+00 8.298472e+00 -4.575763e+00 2.971473e+00 9.601212e-01 -3.818490e+00 -2.958657e+00 5.380613e-02 -5.611534e-01 1.225277e-01 2.339656e-01 -7.273947e-01 -5.851187e-01 -1.246258e+00 -1.571185e-01 6.888798e-01 -4.728653e-01 -1.098265e+00 8.357433e-01 1.730380e-01 -7.419735e-03 
-6.645994e-01 -6.375471e-01 -5.367203e+00 2.301115e+00 3.156749e+00 1.592859e-01 9.580605e+00 -2.051532e+00 -1.422028e+00 -6.775413e-01 -3.816923e+00 -6.965735e+00 1.207829e-02 -1.015284e+00 -1.190194e+00 7.512636e-01 -6.603076e-02 -1.743587e+00 1.792024e-01 -9.737583e-01 -3.421822e-01 1.926213e-01 -8.548420e-01 -4.918703e-01 -1.627083e-01 1.742750e-02 
-6.713820e-01 4.196372e-01 -3.873932e+00 6.119549e-01 1.707041e+00 3.845868e+00 5.050228e+00 -4.429088e+00 1.589020e+00 -1.610107e+00 -1.159757e+00 -2.544691e+00 1.488912e-02 -2.354052e+00 -3.031036e+00 3.852347e+00 1.218268e+00 -3.272902e+00 8.360256e-01 -3.746076e+00 -1.333221e+00 -6.176587e-01 -2.009979e+00 1.066136e+00 1.029167e+00 1.015998e-01 
-5.056824e+00 -6.444014e+00 -4.604637e-01 -1.107828e-01 -6.757002e+00 6.158219e+00 3.366369e+00 -5.124831e+00 4.785266e+00 9.676363e-01 -5.086888e+00 -4.611704e+00 1.348749e-01 -1.900061e+00 -2.445138e+00 4.737189e+00 1.620642e+00 -3.506298e+00 1.571682e+00 -2.977168e+00 -1.305443e+00 1.665139e-02 -1.742009e+00 1.561279e+00 2.553406e+00 1.056031e-01 
-9.173792e+00 -1.247873e+01 1.039411e+01 6.794184e+00 -1.123220e+01 5.251836e+00 -7.324790e+00 -9.705217e+00 -3.220468e+00 -9.912361e+00 2.147171e+00 1.010163e+00 5.004069e-01 -4.385236e-01 3.143732e-01 7.123232e-01 4.395787e-01 3.951830e-01 -5.335389e-01 7.667191e-02 2.322176e-01 4.622465e-01 4.885707e-02 2.679033e-01 6.682017e-01 9.706194e-03 
-5.913697e+00 -6.414056e+00 1.118472e+01 7.313211e+00 -7.905123e+00 7.314711e+00 8.822739e-01 -5.940680e+00 1.065973e+00 -5.236461e+00 2.336006e+00 4.023870e+00 2.973350e-01 1.389967e+00 3.776242e+00 -1.766533e+00 -6.344237e-01 3.047349e+00 -6.023939e-01 1.294459e+00 7.399102e-01 1.047384e+00 1.268879e+00 3.521331e-01 -1.522723e-01 -8.014714e-02 
-2.435563e+00 1.976524e+00 -6.134910e+00 -9.021490e-01 4.257017e+00 5.999269e-01 6.675635e+00 -2.860075e+00 5.759899e+00 1.736227e+00 -3.531688e+00 -3.521469e+00 -1.780999e-02 1.882298e+00 4.564536e+00 -3.686263e+00 -2.156137e+00 3.231904e+00 -9.396116e-01 2.111184e+00 -6.977157e-02 6.970594e-01 2.643057e+00 -6.548916e-01 -1.569528e-01 -1.310597e-01 
-1.476105e+00 5.209574e+00 -1.028619e+00 5.652647e-01 7.351384e-01 5.472204e+00 2.838452e+00 -4.847851e+00 5.532003e+00 1.487736e+00 -4.867935e-01 -3.107250e+00 -6.752372e-03 7.172379e-01 1.927629e+00 -3.094549e+00 -1.861728e+00 1.755967e+00 -1.044146e+00 -8.529819e-01 5.138502e-02 4.729181e-01 1.121547e+00 -5.264872e-01 2.199909e-01 -5.246622e-02 
-1.981096e+00 4.532136e+00 -1.930534e+00 -6.125297e-01 6.071901e-01 1.475032e+00 2.253041e+00 -1.060049e+01 -1.968186e+00 -5.917712e-02 2.841128e-01 3.790959e+00 -2.847910e-03 2.043533e-02 1.695470e-01 -1.908547e-01 1.031685e-01 1.366610e-01 1.781424e-01 -4.253671e-01 1.351732e+00 -3.134782e-02 2.199318e-01 -3.746665e-01 8.816935e-01 1.017105e-02 
-2.554741e+00 1.946282e+00 -6.390208e+00 -2.140238e+00 2.699624e+00 1.656428e+00 -1.171339e+00 -1.813547e+00 7.294606e+00 1.268975e+00 -2.204330e+00 1.467611e+00 2.752286e-02 -3.135161e-01 8.489444e-02 3.075033e-01 1.028504e+00 1.322951e+00 -1.534940e-01 3.629466e-01 1.609445e+00 1.007259e+00 1.622402e+00 -6.743292e-01 1.143133e-01 1.868880e-03 
-1.794068e+00 4.455905e+00 -4.408389e+00 9.664450e-01 3.958079e+00 3.398527e+00 6.553695e+00 2.381433e+00 4.721858e+00 2.945266e+00 -4.546252e+00 -1.400433e+00 1.590765e-02 -4.042145e-01 -1.985759e-01 1.282359e+00 1.134006e+00 -2.935073e-01 1.393740e+00 5.183935e-01 1.221741e+00 1.823786e+00 1.387940e+00 -1.153319e+00 -6.103762e-01 6.767744e-03 
-3.137199e+00 5.672162e+00 1.747825e+00 4.918297e+00 5.674448e+00 3.742986e+00 2.502858e+00 -3.291587e+00 7.223274e+00 8.097523e+00 -1.443257e+00 6.001234e-02 -6.785750e-03 -4.024102e-01 1.496922e-01 1.232419e+00 5.012838e-01 -1.245491e+00 -1.680331e-01 2.887383e-01 -8.985283e-01 -1.165293e+00 -7.628108e-01 -7.308353e-01 -1.678801e-01 -3.456324e-03 
-3.710939e+00 1.676316e+00 4.122462e-01 1.528234e+00 -2.347758e+00 7.400454e+00 3.007910e+00 -3.752764e+00 7.186408e+00 3.466247e+00 -5.863017e+00 1.442877e+00 4.814512e-02 -2.441711e-02 1.222392e-01 3.909045e-01 -5.013655e-01 -1.260215e+00 -1.627915e+00 -1.446734e-01 -8.174602e-01 -1.996598e+00 -2.372028e+00 -4.966068e-01 5.041807e-02 -5.553114e-03 
-3.608356e+00 4.084538e+00 -2.638429e+00 8.528626e-02 -3.749113e-01 -1.184701e+00 2.045245e+00 -3.239090e+00 2.358637e-01 -2.805570e+00 -5.200124e+00 -7.934446e-01 -5.877495e-03 5.330855e-01 4.470850e-01 -1.167635e+00 -8.781952e-01 7.773590e-03 -9.981481e-01 1.725530e+00 1.121711e+00 -1.592426e+00 -2.060996e+00 -7.568363e-01 -7.477719e-01 -7.093877e-03 
-1.680575e+00 5.860913e+00 -2.607400e-01 8.761224e-01 6.816840e-01 -2.277207e+00 6.059134e+00 -1.732116e+00 -1.767426e+00 -3.463326e+00 -5.150853e+00 -7.216138e-01 -1.231205e-02 6.184065e-01 7.996488e-01 -1.173994e+00 -1.171640e+00 4.120448e-01 -1.158296e+00 9.086120e-01 2.750482e-01 -4.598454e-01 -1.137967e+00 9.448220e-01 -9.019710e-01 -1.156265e-02 
-1.486954e+00 5.815288e+00 -3.753858e+00 8.533765e-01 4.198595e+00 3.591075e+00 9.604897e+00 1.306644e+00 3.738061e+00 1.257328e+00 -5.583520e+00 -2.596602e+00 -1.202655e-02 1.867643e-01 4.389253e-01 -5.473162e-01 -7.423658e-01 1.301723e-01 9.848453e-01 2.824892e-01 -1.042604e-01 6.780575e-01 -6.306733e-01 5.450094e-01 -2.789806e-02 2.941632e-03 
-1.679608e+00 4.809185e+00 -4.900010e+00 -4.714011e+00 -2.574287e+00 -7.789159e-01 3.771144e+00 -4.650390e+00 3.136083e+00 -4.255038e+00 -9.472093e-01 -2.165399e+00 -6.593585e-03 -1.871792e-01 9.031143e-02 -2.600498e-01 3.170758e-01 9.918809e-02 6.257114e-01 -4.449731e-01 -3.265332e-01 1.130786e+00 -5.372415e-01 2.255981e-01 7.054472e-03 3.539777e-03 
-2.675018e+00 6.805028e+00 -3.055375e+00 -8.314758e-01 1.903936e+00 2.990380e+00 4.601686e+00 -2.301255e+00 1.174397e+00 -5.563080e+00 -4.576899e+00 -2.110422e-01 5.971432e-03 6.231232e-02 2.856675e-01 1.046537e+00 1.345363e+00 4.588942e-01 -2.294589e-01 -9.207880e-01 4.383245e-01 4.775425e-01 -8.756081e-01 -3.996001e-01 -1.874781e-02 1.154447e-03 
-2.022439e+00 5.817600e+00 -1.910230e+00 3.303927e+00 2.324954e+00 1.151698e+00 6.335874e+00 -1.560833e+00 5.168337e+00 -2.739329e+00 -4.526173e+00 -1.879121e+00 -3.612161e-03 -1.713579e-01 2.764044e-01 7.833170e-01 1.389093e+00 1.866782e+00 6.067790e-01 -4.520424e-01 1.727509e+00 9.002312e-01 3.851766e-01 -1.197756e+00 -7.277005e-01 -1.034904e-03 
-1.003977e+00 6.739418e+00 -1.606083e-02 3.571221e+00 4.043446e+00 1.478474e+00 3.718592e+00 1.953488e+00 5.109646e+00 -3.878567e+00 -5.792039e+00 -2.833480e+00 -7.745028e-03 -2.518793e-01 -9.019529e-01 -7.152537e-01 -1.415806e+00 5.410582e-01 8.788590e-01 -8.233438e-01 4.249700e-01 6.909002e-01 7.359816e-01 6.786212e-01 5.020150e-01 -8.960771e-03 
-3.371919e+00 6.224012e+00 -2.503081e+00 3.010595e-02 5.689870e+00 3.010932e+00 1.952479e+00 1.859780e+00 5.669614e+00 -3.171412e+00 -6.328421e+00 -4.492683e+00 -4.909873e-03 -9.620404e-01 -1.709727e+00 -1.763560e+00 -2.383258e+00 6.480408e-01 2.832186e+00 2.514141e-01 -1.267377e+00 -3.487665e-01 5.574036e-01 1.455167e+00 2.073535e+00 -2.920902e-03 
-3.259675e+00 2.092058e+00 -6.335218e+00 -6.273594e+00 2.926769e+00 6.455058e+00 2.676665e+00 -1.886712e+00 4.378259e+00 -1.667131e+00 -2.826687e-01 3.605814e+00 -3.818357e-02 -7.030873e-01 -9.720087e-01 -1.179124e+00 -8.783819e-01 -2.860144e-01 7.448928e-01 6.438993e-01 -8.480654e-02 -6.092839e-01 2.431133e-01 4.152582e-01 1.680274e+00 1.983929e-03 
-5.704792e+00 -4.073552e-01 -7.568452e+00 -3.689955e+00 6.123496e+00 1.282434e+01 8.113908e+00 -5.977615e+00 3.790197e+00 -1.058030e+00 -5.022168e-03 5.268909e+00 -2.997398e-03 2.908806e-01 -1.053466e+00 -3.853867e-01 9.977673e-01 -3.188100e-01 1.266375e-01 1.806339e+00 -3.843682e-01 -1.748708e+00 8.678154e-01 1.432850e+00 1.493625e+00 6.469673e-03 
-3.352977e+00 5.195058e+00 -3.378996e+00 1.039342e+00 2.396560e+00 2.962368e-01 3.857374e+00 5.448153e+00 3.002934e+00 -3.719692e+00 -6.877447e+00 6.870959e-01 1.218379e-03 4.814327e-01 2.800446e-01 2.315046e-01 1.669300e+00 7.134266e-02 -3.420829e-01 7.845117e-01 -1.641817e-01 -1.503788e+00 9.026676e-01 8.623304e-01 5.235682e-01 9.559035e-03 
-1.870865e+00 -5.948168e-01 -5.908126e+00 1.362474e+00 4.360924e+00 6.723530e+00 1.039382e+01 -3.729493e+00 -2.386267e+00 2.193946e+00 4.133216e+00 4.434803e+00 7.737517e-03 3.068981e-01 9.267551e-01 6.543486e-01 8.910140e-01 1.758455e-01 -1.081938e+00 -5.909471e-01 1.038735e-01 2.189725e-01 8.262339e-01 3.087812e-01 -2.177757e-01 -4.398775e-03 
-2.769475e+00 3.586012e+00 -6.007858e+00 -4.533108e-01 4.164768e+00 7.795046e+00 5.459267e+00 -3.831682e+00 -5.244684e-02 1.220219e+00 1.959864e+00 6.640707e+00 4.244149e-03 -2.381146e-01 3.690454e-01 5.905369e-01 -3.038309e-01 3.301224e-01 9.515393e-01 -9.814830e-02 -1.736873e+00 8.878847e-01 8.810479e-01 -1.354785e-01 -6.967939e-01 -2.719891e-03 
-4.462052e+00 5.030943e+00 -2.982279e+00 1.511441e+00 6.118619e+00 3.665242e+00 4.358226e+00 -8.183305e-01 6.412751e+00 6.031845e-01 -2.879772e+00 1.203225e+00 -2.650416e-02 3.999767e-02 1.355627e+00 1.182507e+00 -5.343834e-01 -4.913874e-01 -7.888020e-01 -5.872682e-01 8.642713e-01 1.486870e+00 -6.787385e-01 -1.073417e+00 -1.803324e+00 -1.511532e-03 
-3.247956e+00 4.227406e+00 -1.889236e+00 -5.542966e-01 3.168324e+00 6.583077e+00 6.384429e+00 -4.691794e+00 3.042849e+00 1.480929e+00 -4.048346e+00 -1.181084e+00 4.739761e-03 3.011490e-01 4.391038e-01 5.836554e-01 -8.682264e-01 -7.782748e-01 -1.565074e+00 -6.315851e-03 1.188261e+00 5.952001e-01 -5.212914e-01 8.353300e-02 -1.244165e+00 -3.042579e-03 
-1.431636e+00 5.862623e+00 -2.054902e+00 -1.258950e+00 2.402209e+00 3.385504e+00 6.994898e+00 1.021920e+00 3.500433e+00 -1.330101e+00 1.770234e+00 -6.709192e-01 -6.794930e-05 4.125411e-01 4.017115e-01 -7.043128e-02 -1.011231e+00 -1.623225e+00 -1.811816e+00 4.227073e-01 1.192296e+00 -7.066511e-01 -1.323831e+00 1.851580e-01 -2.832798e-01 -4.738569e-04 
-2.778938e+00 5.365691e+00 -3.553269e+00 -3.409247e+00 2.131599e+00 1.095440e-01 4.109352e+00 1.189499e+00 4.379712e+00 -4.195943e-01 5.252653e-02 1.356956e+00 -2.418685e-02 4.708471e-02 6.252541e-02 -7.186422e-01 -4.812242e-01 -4.949629e-01 -1.732885e+00 -9.023972e-01 8.243893e-01 -3.953224e-01 -1.741510e+00 -5.912542e-02 -2.364397e-01 -4.064858e-03 
-2.633856e+00 6.470358e+00 -2.502418e+00 -2.117238e+00 -1.479145e+00 -2.157072e+00 7.609301e+00 2.202505e+00 2.211064e+00 -5.065709e+00 -4.004418e+00 -1.482194e+00 -1.441014e-02 3.639221e-03 3.899374e-02 -3.712156e-01 9.024298e-01 -3.405631e-01 -1.566998e+00 -9.715582e-01 -5.408596e-01 -6.404461e-01 -1.401208e+00 -1.702503e+00 -2.757522e-01 4.180503e-03 
-2.411423e+00 4.236165e+00 -5.258688e+00 -2.531274e+00 2.634187e+00 6.899390e-01 1.565242e+00 -1.160140e+00 1.710922e+00 -5.358819e+00 -1.456647e+00 -1.957646e+00 -8.413434e-03 3.400140e-01 2.665323e-01 4.341457e-02 1.737837e+00 -1.439755e-01 -1.228107e+00 -5.600520e-01 -6.104178e-01 -6.072693e-01 -1.169469e+00 -1.406372e+00 -2.408855e-01 1.016274e-02 
-1.597198e+00 6.622355e+00 -3.058270e+00 2.814212e+00 4.480996e-01 -4.739684e+00 3.409162e+00 -5.075586e-01 1.632598e+00 -5.866529e+00 -5.987695e+00 -3.923795e-01 1.294786e-02 2.887542e-01 2.690183e-01 1.088713e-01 1.520838e+00 1.668402e-01 -1.059485e+00 -6.556360e-01 -4.767545e-01 -1.235254e-01 -2.109351e-01 -8.497601e-01 3.744896e-01 7.607728e-03 
