-6.445393e+00 4.003880e+00 4.001282e+00 5.185502e+00 2.840920e+00 1.644520e+00 3.741889e+00 -5.072243e-01 1.163985e+01 5.182197e+00 -4.405483e-01 3.517354e+00 6.101429e-03 -2.725220e-02 8.211455e-02 -1.431933e-01 -4.578714e-02 -1.428179e-01 -3.507495e-03 -8.977620e-01 -1.017681e-01 -2.056538e+00 -1.390411e-01 8.752248e-01 -1.470126e-01 8.441592e-03 
-5.342358e+00 4.139511e+00 2.407769e+00 5.330495e+00 -1.722177e+00 9.827591e-01 1.001551e+00 2.353913e+00 5.466546e+00 1.079972e+00 -2.604691e+00 5.400890e+00 6.177980e-02 -2.395599e-01 -1.577713e-01 -7.783629e-02 -4.889252e-01 1.479034e-01 -5.214443e-01 -1.164345e+00 -8.235024e-01 -2.427885e+00 1.052934e+00 1.210899e+00 -5.847490e-03 7.015705e-04 
-7.133171e+00 4.346637e+00 4.082072e+00 4.884070e+00 4.408379e+00 1.957863e+00 6.232474e-01 -2.446633e+00 4.443815e+00 6.538104e+00 5.017647e+00 1.840523e+00 2.047020e-02 -3.061121e-01 9.575901e-02 5.269158e-02 -8.231799e-01 7.711254e-01 -3.853405e-01 -6.124264e-01 -8.885018e-01 -1.673564e+00 1.229108e+00 2.058702e-01 -8.526527e-01 -1.170027e-03 
-7.299303e+00 3.043645e+00 3.571706e+00 2.891593e+00 2.796708e+00 -1.119373e+00 -5.205140e-01 -3.655032e+00 3.098450e+00 9.768911e+00 2.884848e+00 4.326532e+00 2.424896e-03 -2.940922e-02 1.905999e-01 -3.109716e-01 -3.428903e-01 1.209050e+00 5.343069e-02 6.703876e-01 -3.478795e-01 -2.149086e-01 1.259335e+00 -5.300866e-01 -5.071440e-01 -4.499817e-03 
-6.997480e+00 5.030608e+00 3.682772e+00 2.289054e+00 4.437105e+00 7.688837e-01 1.440789e+00 -1.945261e+00 4.456079e+00 6.983268e+00 -2.155967e+00 -2.087308e-01 2.992874e-02 3.908001e-01 -1.217589e-01 -3.435511e-01 6.495558e-01 3.886714e-01 1.097261e+00 1.981173e+00 4.623208e-01 -4.188137e-01 -9.132800e-02 -5.681719e-01 5.782571e-01 -1.771212e-04 
-5.557249e+00 4.750525e+00 1.052561e+00 4.913551e+00 4.308708e+00 1.844402e+00 3.944718e+00 3.638294e-01 4.385870e+00 7.154066e+00 -1.668317e+00 3.889797e+00 3.455144e-02 3.735910e-01 -2.854925e-01 -1.236148e-01 1.341342e+00 9.799637e-01 8.728210e-01 1.749567e+00 5.865636e-01 -1.537879e+00 -4.397684e-01 9.925442e-01 2.777524e-01 -7.656038e-04 
-6.050198e+00 2.884403e+00 3.623889e+00 7.120870e+00 5.595736e+00 5.962282e+00 8.296497e+00 -2.144460e+00 1.706036e+00 7.388887e+00 4.453371e+00 4.950176e+00 3.521323e-03 1.630257e-01 6.270652e-02 1.831041e-01 1.326407e+00 -1.206868e-01 -4.781894e-01 -3.345019e-01 8.699767e-01 -2.358362e-01 8.862891e-02 6.309669e-01 -1.096509e-01 1.962089e-03 
-5.904989e+00 2.689285e+00 2.983073e+00 7.182392e+00 7.117211e+00 6.480331e-01 4.799469e+00 -6.226140e-01 -3.215922e+00 7.367260e+00 4.542901e+00 3.135840e+00 1.180059e-02 -1.794947e-01 -1.447370e-02 -1.371797e-01 -1.076402e-01 -9.389410e-02 -7.963521e-01 -1.492150e+00 1.913776e-01 9.484167e-01 -7.914505e-02 -1.334626e-01 -1.043130e+00 -5.024737e-03 
-6.008482e+00 6.374761e+00 3.633037e+00 7.786666e+00 2.429420e+00 -1.023879e+00 -6.590958e-01 2.897845e+00 7.077795e+00 7.319815e+00 -2.106741e+00 -3.800070e-01 5.111462e-02 -6.928005e-02 5.017803e-02 -4.168055e-01 -7.272576e-01 -9.047496e-02 -4.236633e-01 -1.943755e+00 -4.287373e-01 1.509485e+00 5.748230e-01 -5.820603e-02 -4.216686e-01 -5.585784e-03 
-6.475580e+00 2.932977e+00 3.620892e-01 4.042452e+00 5.422396e+00 1.355722e+00 9.617641e-01 -1.200435e+00 6.442074e+00 6.792876e+00 9.444259e-01 1.339241e+00 -1.436889e-02 -2.037034e-01 -4.762333e-01 1.644054e-01 -5.799528e-01 -3.880384e-01 1.482500e-01 -9.993187e-01 -1.005586e+00 5.029024e-01 -5.384332e-01 6.565984e-01 5.928587e-01 -7.361799e-03 
-6.111302e+00 3.013447e+00 2.850353e+00 5.054552e+00 5.990768e+00 3.490121e+00 4.965730e-01 -3.999236e+00 4.424466e+00 1.055019e+01 5.961578e+00 3.740132e+00 -1.132286e-02 -4.500268e-01 -1.054263e+00 -4.121789e-01 5.760042e-02 7.547331e-03 -1.466411e+00 -7.085850e-01 -1.303641e+00 -2.054359e-01 4.582466e-01 1.514247e+00 1.103775e+00 -3.482020e-03 
-6.872096e+00 1.988776e+00 4.196442e+00 5.648685e+00 3.396345e+00 -8.677166e-01 -7.749591e-01 -2.202003e+00 6.252545e-01 3.059905e+00 3.791733e+00 4.040064e+00 6.210327e-03 -5.311418e-01 -2.178972e-01 1.111853e-01 -3.282790e-01 -1.684307e+00 -1.977564e+00 7.063607e-01 5.570529e-01 6.187601e-02 -1.415824e+00 4.724309e-01 8.980915e-01 6.563252e-03 
-8.060358e+00 1.575545e+00 -3.450344e-01 7.271552e+00 3.480182e+00 -7.244216e+00 -3.333659e+00 -3.119575e+00 8.959025e+00 1.147753e+01 4.040840e+00 3.788455e+00 2.341491e-02 -3.239177e-01 -5.653596e-03 4.025959e-02 -5.963892e-01 -1.106558e+00 -1.341344e+00 1.245958e+00 1.123604e+00 1.848449e-01 -1.055099e+00 -1.184189e+00 -3.558116e-01 -7.492185e-04 
-8.156761e+00 2.562442e+00 2.515709e+00 1.292557e+00 -1.743848e+00 -3.164927e+00 6.408683e+00 1.144999e+00 4.484174e+00 -7.499145e-01 4.266949e+00 5.805537e+00 1.078486e-03 1.870012e-01 7.813654e-01 6.308511e-01 1.822947e-01 -8.808159e-01 -2.537278e-01 1.069732e+00 2.054225e+00 9.100713e-01 5.978540e-01 -1.461211e+00 -8.251387e-01 7.351869e-03 
-7.088558e+00 2.698345e+00 3.892017e+00 4.250669e+00 3.028076e+00 -2.067994e+00 3.134541e+00 -5.471861e-02 3.419230e+00 7.179611e+00 -1.969754e-01 1.078338e+00 -1.250303e-02 3.052699e-01 2.301989e-01 8.069977e-01 -1.076505e-01 -5.056085e-01 1.423556e+00 2.716219e-01 1.418201e+00 -6.738529e-02 -4.037205e-01 -1.443201e+00 -8.074230e-01 3.189009e-03 
-6.422990e+00 5.334203e+00 5.232171e+00 8.070600e+00 -7.816820e-01 -4.724467e+00 1.339601e+00 6.536694e+00 7.945508e+00 8.198136e+00 -1.395414e+00 1.269429e+00 6.092864e-02 -9.609032e-02 -3.538318e-01 2.889289e-01 1.007396e+00 3.120520e-02 9.078652e-01 -1.512345e+00 -9.165203e-01 2.938355e-01 1.421262e+00 -9.372835e-01 -7.313520e-01 5.665606e-03 
-7.400894e+00 1.340659e+00 2.331723e+00 3.344278e+00 4.710560e-01 6.533314e-01 5.589917e-01 1.275583e+00 6.891432e+00 4.984906e+00 -3.439826e-01 2.019394e+00 9.434879e-03 -2.458673e-01 -5.943238e-01 -4.667108e-01 4.803635e-01 1.834111e-02 1.165444e+00 -1.280632e-01 -8.581787e-01 -4.474198e-01 -5.000605e-02 4.632159e-01 1.671432e+00 2.882612e-03 
-8.481045e+00 1.472126e+00 4.740501e+00 6.782730e+00 -3.093123e-01 1.373690e-02 1.347332e-01 -4.102753e+00 4.217251e+00 7.453746e+00 -3.459651e-01 1.678249e+00 1.843756e-02 -2.954865e-01 -4.063600e-01 -8.020452e-01 -4.490382e-01 -1.897422e-01 5.111212e-01 3.850690e-01 -1.848515e+00 -1.490253e+00 -2.589127e-01 1.629396e+00 1.502299e+00 -3.770322e-03 
-7.288867e+00 1.657765e+00 1.804299e+00 7.296422e+00 2.883597e+00 1.390124e+00 3.096658e+00 9.741110e-01 3.046260e+00 7.301775e+00 1.594379e+00 9.231089e+00 2.315557e-02 3.035568e-01 9.094965e-02 -8.009897e-01 -5.491866e-01 7.819127e-01 -5.165116e-01 5.482956e-01 -9.772400e-01 -9.884014e-01 4.080952e-01 1.994405e+00 4.137763e-01 2.399498e-03 
-7.956436e+00 3.143850e+00 1.485657e+00 3.849337e+00 -2.936663e+00 -2.537258e+00 1.996112e+00 -2.555147e+00 2.416829e+00 5.745138e+00 5.782383e+00 5.175075e+00 3.521669e-02 -4.462156e-02 4.221280e-01 -1.656834e+00 -1.317261e+00 7.515632e-01 -6.636611e-02 -2.301344e-01 6.307461e-01 -3.034202e-01 4.401054e-02 1.229624e+00 4.675927e-01 2.677838e-02 
-6.145414e+00 9.595457e-01 -4.580355e-02 2.065042e+00 5.694295e+00 -6.537291e-01 2.369780e+00 -4.384420e+00 2.849636e+00 7.879686e+00 6.563870e+00 2.339862e+00 1.304281e-02 -2.012554e+00 5.496371e-01 -1.725381e+00 7.441859e-02 2.626189e-01 -2.057328e-01 -2.332521e+00 6.190804e-01 2.341599e-01 7.036762e-02 2.218978e-01 9.121480e-02 1.238023e-01 
-9.275879e+00 3.931876e+00 -2.618617e+00 2.812116e+00 2.043154e+00 7.038331e-01 -6.524997e-01 1.730243e+00 2.798462e+00 7.384844e+00 3.317410e+00 7.461826e+00 1.573858e-01 -1.983165e+00 -1.196859e+00 -3.382637e-01 8.825434e-01 -5.896206e-01 5.528799e-01 -2.067297e+00 9.359422e-01 -4.604006e-01 -6.642641e-01 -1.301598e+00 5.513679e-01 1.225533e-01 
-1.669192e+01 4.011938e+00 -4.770472e+00 8.187125e+00 1.706782e+00 -1.259085e+00 -7.241641e+00 1.926818e+00 4.026243e+00 6.833761e+00 3.936355e+00 8.543787e+00 5.810825e-01 -1.294091e+00 -2.912467e+00 1.823992e+00 1.867222e-01 -1.431857e+00 1.180550e+00 -7.059509e-01 1.291801e-01 -1.159392e+00 -1.658045e+00 -9.604824e-01 -5.318041e-02 8.804125e-02 
-1.259901e+01 -4.366643e+00 2.156673e+00 5.201013e+00 -3.891010e+00 5.298203e-01 -3.534661e+00 -1.031055e+00 -4.734776e-01 2.946781e+00 5.881508e-01 4.829952e+00 3.639632e-01 2.368265e+00 -4.710988e+00 3.382233e-01 -1.513935e-01 -1.487404e+00 1.152305e+00 2.667003e-01 -1.970904e+00 -1.916503e+00 -1.956583e+00 -8.241207e-01 -1.064135e-01 3.301152e-02 
-1.095430e+01 -9.453532e+00 6.686513e+00 1.804205e+00 1.502090e+00 5.336030e+00 2.811065e-01 -2.357870e+00 -1.311353e+00 1.808494e+00 3.126087e+00 3.389898e+00 3.499604e-01 3.524662e+00 -3.348415e+00 -1.915083e-01 -1.108067e+00 -1.705753e+00 2.014246e+00 -2.361898e-02 -7.186338e-01 -9.020888e-01 -2.384126e+00 1.129143e-01 9.018509e-01 -3.310540e-02 
-3.033581e-01 -1.289033e+01 -6.655993e+00 5.246609e+00 -5.291517e+00 3.167799e+00 -3.080372e+00 -5.981933e+00 -4.115256e+00 1.145606e-01 -3.980598e-01 9.506703e+00 4.380045e-01 2.086060e+00 -5.660431e-01 7.974336e-01 -1.411762e+00 -2.078745e+00 -1.130610e+00 -1.084760e+00 2.410958e+00 1.039012e+00 -2.544284e+00 1.074381e+00 -8.579874e-01 1.997032e-02 
-5.216432e+00 -8.468291e+00 -1.321680e+00 2.623994e+00 -6.121728e+00 7.493158e+00 -7.586880e+00 8.090882e-01 1.336688e+00 -3.670762e+00 4.994032e+00 1.071467e+01 3.785349e-01 1.076749e+00 9.555206e-01 -4.369049e-02 3.079448e-02 -3.018812e-01 -3.149884e+00 -2.340390e+00 2.918412e+00 1.027721e+00 -2.238138e+00 -5.733156e-02 -2.393644e+00 -2.455452e-02 
-5.037644e+00 -7.689479e+00 1.014794e+01 -2.267692e+00 -1.047283e+01 -6.201796e+00 -5.024467e+00 9.440253e+00 3.397562e+00 -7.035014e+00 5.026083e+00 -3.122369e+00 4.495276e-01 -6.439666e-02 1.621954e+00 -9.300847e-02 -3.097809e-01 2.137381e+00 -2.745389e+00 9.828968e-02 2.997077e+00 1.981435e+00 7.029475e-01 5.844474e-02 -4.293583e+00 -6.488437e-02 
-3.203416e+00 -7.276354e+00 -1.933905e+00 5.715328e+00 2.583339e+00 -5.728591e+00 -1.044880e+01 4.523094e+00 7.084441e-02 -5.807409e+00 1.273586e-01 -2.263787e+00 2.214262e-01 1.344066e+00 1.362562e+00 -3.111921e+00 1.049332e-01 1.977479e+00 -1.870162e+00 1.959664e+00 -7.785205e-01 4.368173e-01 2.640957e+00 -3.706085e-01 -2.819677e+00 -4.527130e-02 
-1.631849e+00 -5.376526e+00 -6.814922e+00 2.152038e+00 1.042856e+00 -3.948267e+00 -1.157966e+00 7.146447e+00 6.424839e+00 4.697622e+00 2.327501e+00 -5.471986e+00 1.921369e-01 1.531916e+00 1.955846e+00 -4.684023e+00 1.091525e+00 4.040386e-01 6.763069e-01 2.629398e+00 -2.777741e+00 1.109601e-01 3.231561e+00 3.614541e-01 1.260461e+00 2.251945e-02 
-1.989994e-01 -2.811960e+00 -8.399857e+00 9.387954e-01 -1.992175e+00 -2.984416e+00 2.781906e-01 -1.936611e+00 2.007136e+00 3.667707e+00 4.490281e+00 -2.208910e+00 2.808737e-01 2.326551e-01 1.398952e+00 -1.232841e+00 1.338744e+00 -6.698521e-01 1.008450e+00 2.695590e+00 -2.551720e+00 -3.963420e-01 9.597441e-01 2.474978e-02 1.676844e+00 1.066696e-01 
1.119728e+00 -1.424463e-01 -1.003920e+01 5.578200e+00 -6.164876e+00 -4.192349e+00 2.759027e+00 -1.218599e+00 2.984216e+00 4.385232e+00 4.651892e+00 3.152498e+00 5.324011e-01 -2.804008e+00 9.456997e-01 1.557590e+00 1.772095e+00 4.309553e-01 1.329377e+00 1.294205e+00 -2.441201e+00 -1.245621e+00 -1.608090e+00 -4.820268e-01 1.404065e+00 1.165059e-01 
-3.415929e+00 -2.898634e+00 -6.485972e+00 1.069597e+01 2.837945e+00 -5.643013e-01 1.070658e+00 -4.052984e+00 -1.905541e-01 -8.524941e-01 -9.110882e-01 1.808191e+00 5.846422e-01 -4.483467e+00 -1.499839e-01 2.556978e+00 1.468034e+00 2.292237e+00 2.439454e+00 1.738227e+00 -2.309542e-01 3.968059e-02 -2.149334e+00 -3.821181e-01 5.633946e-01 8.079238e-02 
-1.404342e+01 -6.046905e-01 1.608777e-02 6.133926e+00 7.825727e-01 1.488559e+00 4.916824e+00 -4.001372e+00 1.295581e+00 -1.082729e+00 2.618051e+00 -4.602090e-01 6.227820e-01 -4.476905e+00 -7.573457e-01 3.471732e+00 6.663072e-01 2.392520e+00 2.403441e+00 1.327391e+00 -4.907656e-01 7.603118e-01 -1.624616e+00 -1.083065e+00 -1.221846e+00 2.345283e-02 
-1.503476e+01 -3.330757e+00 -6.426129e-01 8.001103e+00 5.995284e+00 6.372399e+00 7.890429e+00 -1.699995e+00 3.049856e+00 -4.344985e+00 3.596610e+00 2.414416e+00 6.396451e-01 -2.316191e+00 -2.257881e-01 1.636852e+00 3.630137e-01 1.334200e+00 1.070437e+00 1.748635e+00 8.663679e-01 1.479065e+00 4.776863e-01 4.227563e-01 7.741141e-02 3.677344e-03 
-1.545538e+01 -3.713113e+00 4.397775e+00 1.025717e+01 4.219057e+00 4.356507e+00 5.986097e+00 -4.848921e+00 5.165570e+00 -1.991602e+00 -3.017282e+00 -3.259843e+00 6.221638e-01 1.344402e-01 1.610708e-02 -2.253336e-01 1.536722e-01 7.650316e-01 -5.901893e-01 -1.990717e-01 4.444523e-01 8.982633e-01 1.269043e+00 -7.759152e-01 -5.367928e-02 -1.018233e-02 
-1.429091e+01 -2.473363e+00 -4.925587e-01 1.044941e+01 7.790701e+00 3.353909e+00 9.279194e+00 7.026302e-01 5.269776e+00 1.990374e+00 4.020360e+00 3.595066e+00 6.033380e-01 1.588579e+00 5.921831e-01 -1.487664e+00 -1.604933e+00 -1.092583e+00 -2.722492e+00 -1.609555e+00 -7.052639e-01 -6.902969e-03 1.083610e+00 -3.333349e-01 -7.146221e-01 -3.814864e-03 
-1.374315e+01 -9.528521e-01 -1.185607e+00 5.678132e+00 3.710022e+00 4.685643e-02 3.227083e+00 -2.980423e+00 4.676938e+00 2.094809e+00 -1.473400e+00 -1.318930e+00 5.900239e-01 9.123703e-01 5.613927e-01 -1.837362e+00 -1.982455e+00 -8.190067e-01 -2.221222e+00 -1.317189e+00 -3.944429e-01 -9.771581e-02 2.099394e-01 1.063688e+00 6.466892e-01 5.630225e-03 
-7.947979e+00 -1.749973e+00 -5.289240e+00 2.265955e+00 7.868876e-01 -5.085237e+00 1.222163e+00 -6.160563e+00 3.259657e+00 -9.701380e-01 1.157995e+00 -2.129151e+00 6.366407e-01 -2.545385e-01 1.620487e-01 -5.348522e-01 -1.112145e+00 -1.449077e+00 -1.904635e+00 -6.973957e-01 -1.031108e+00 -9.383893e-03 -1.018628e+00 -7.995446e-01 -5.159975e-01 1.558149e-02 
-1.406499e+01 -1.267845e+00 -2.390692e+00 4.436625e+00 3.625929e+00 -2.530029e+00 3.428670e+00 -3.389539e+00 5.682051e+00 5.383511e-01 3.732342e+00 2.835711e+00 6.336635e-01 -1.071645e+00 -1.533633e-01 2.918878e-01 8.004951e-01 -4.193392e-01 3.951795e-01 1.599066e+00 -4.674484e-01 8.881012e-02 -2.996604e-01 1.636689e-02 7.322046e-01 1.743237e-02 
-1.540268e+01 -1.505624e+00 -2.564277e+00 5.509444e+00 5.873599e-01 -4.880825e+00 5.691422e+00 -4.248354e+00 4.720301e+00 -2.324536e+00 -2.580234e+00 -1.062243e+00 6.594256e-01 -1.471612e+00 -3.432790e-01 6.462784e-01 1.591247e+00 9.957336e-01 1.387340e+00 1.841830e+00 6.183727e-02 1.270464e-01 1.526542e+00 -7.637569e-01 4.104179e-01 9.650576e-03 
-1.537403e+01 -1.841843e+00 -1.088650e+00 8.058863e+00 1.713090e+00 1.920548e+00 8.987784e+00 -6.273770e+00 4.390667e+00 1.273706e+00 4.775490e-01 1.808639e+00 6.657933e-01 1.449950e+00 -2.034382e-01 -4.563901e-01 -8.265539e-02 1.007442e-02 4.009159e-01 -7.714557e-01 -1.205124e+00 -1.476452e+00 4.171485e-01 -4.306238e-01 -2.885527e-01 1.657363e-02 
-1.465152e+01 -3.179368e+00 -2.708870e+00 8.411072e+00 6.721975e+00 -3.738253e-01 7.651757e+00 -4.409261e+00 4.540581e+00 6.294895e+00 -1.033393e+00 4.364746e-01 6.688287e-01 2.888690e+00 6.244437e-02 -1.329441e+00 -1.238308e+00 -4.366888e-01 6.541047e-02 -2.690922e+00 -1.019461e+00 -1.103474e+00 3.055000e-01 1.206685e+00 -4.338507e-01 2.555507e-02 
-7.190822e+00 -1.448164e+00 -4.600347e+00 2.572534e+00 6.089940e-01 -2.778949e+00 -1.408776e+00 -9.334705e+00 -1.610352e+00 -1.685622e+00 8.058029e-01 6.435891e-01 7.118301e-01 3.702447e+00 9.409536e-01 -3.655081e-01 -5.246738e-01 4.541493e-03 6.263187e-01 -1.567400e+00 6.477033e-01 7.930664e-01 5.294876e-01 8.705404e-01 -9.481376e-01 3.052175e-03 
-5.050834e+00 -1.390242e+00 -7.455636e+00 2.061068e+00 -1.044036e+00 -2.204024e+00 -2.564909e+00 -7.815190e+00 2.203441e+00 6.826284e-01 3.289064e+00 -2.648972e+00 7.641826e-01 6.029162e+00 9.930031e-01 1.385504e+00 -3.664300e+00 -2.514867e+00 9.789832e-01 1.892429e-01 1.479913e+00 -1.697855e+00 -2.298351e+00 1.122324e+00 -1.201582e+00 1.783454e-02 
-1.662131e+00 1.968362e+00 -5.428069e-01 8.610496e+00 5.618803e+00 5.967241e+00 6.259120e+00 -1.332289e+00 9.524569e+00 6.727278e+00 2.669022e+00 -1.389326e+00 6.333773e-01 6.166989e+00 -1.448718e+00 3.071984e+00 -6.703870e+00 -2.133156e+00 -1.157265e-01 1.574684e+00 2.290192e+00 -3.855192e+00 -2.084157e+00 6.011125e-01 -8.667429e-01 5.744373e-02 
1.272995e+01 7.738444e-02 2.189879e+00 -1.292941e+01 -8.357265e+00 1.479957e-01 4.764024e+00 -1.010906e+00 -9.516154e+00 -9.403307e+00 3.646616e+00 -4.554979e+00 7.972279e-01 5.277586e+00 -2.631469e+00 3.605372e+00 -8.425522e+00 -2.641818e+00 -1.353648e+00 9.171680e-01 1.783156e+00 -5.771035e+00 -2.752362e+00 -9.049340e-02 -2.521245e-01 8.207837e-02 
1.475373e+01 -9.425566e+00 5.936814e+00 -2.345157e+01 -6.400172e+00 -4.533591e+00 2.800175e+00 -1.285888e+00 -1.502651e+01 -7.063440e+00 3.632590e+00 -2.737122e+00 9.825261e-01 2.910747e+00 -2.654489e+00 1.815980e+00 -7.565723e+00 -3.284960e+00 -2.200347e+00 -1.085463e+00 7.845469e-01 -5.163173e+00 -2.313736e+00 -6.678392e-01 -5.458057e-01 9.165134e-02 
1.312917e+01 -8.850620e+00 7.331412e+00 -2.403550e+01 -8.243635e+00 -3.721848e+00 3.750402e+00 1.077390e+00 -1.437619e+01 -6.183825e+00 2.354813e+00 -3.235697e+00 1.000000e+00 -3.711700e-01 -4.077213e-01 4.865660e-01 -1.365096e+00 -1.593330e+00 4.617779e-02 -1.163275e+00 1.504789e+00 -7.519861e-01 9.318840e-01 -6.129916e-01 -6.963898e-01 3.590079e-02 
1.269199e+01 -6.840079e+00 5.966327e+00 -2.366507e+01 -1.086281e+01 -3.099571e+00 1.338617e+00 1.546297e+00 -1.386127e+01 -6.451145e+00 -2.427232e-02 -4.777996e+00 9.902479e-01 -4.104196e-01 1.693584e+00 -1.211369e-01 1.167665e+00 -2.255921e+00 5.794228e-01 -8.906336e-01 1.702383e+00 1.632895e-01 5.239443e-01 -1.891633e-01 -1.762604e+00 -7.254899e-03 
1.190497e+01 -3.253966e+00 4.607953e+00 -1.964814e+01 -1.409259e+01 -3.381253e-01 -3.215747e-01 5.096946e+00 -1.385870e+01 -5.050035e+00 2.410089e+00 -7.016491e+00 9.728709e-01 2.809103e-01 1.484508e+00 -7.314443e-04 1.414167e+00 -1.995996e+00 -9.382479e-02 -7.733802e-01 1.076193e+00 1.275156e-01 6.655335e-02 7.646276e-01 -2.386855e+00 -1.313111e-02 
1.331373e+01 -3.755972e+00 6.692860e+00 -1.980693e+01 -1.475530e+01 -3.328339e+00 3.829963e-01 5.216248e+00 -1.446881e+01 -5.010614e+00 2.659135e+00 -9.659744e+00 9.598162e-01 7.106075e-01 9.790879e-01 7.159845e-01 1.078348e+00 -1.331587e+00 -4.698213e-01 -4.938580e-01 8.994949e-01 4.218931e-01 2.039827e-01 8.495642e-01 -2.242120e+00 -1.294320e-02 
1.422285e+01 -2.970135e+00 6.964488e+00 -1.889374e+01 -1.627737e+01 -4.076588e+00 3.613122e-01 4.623380e+00 -1.343485e+01 -6.571323e+00 4.836248e+00 -1.272910e+01 9.495603e-01 8.799957e-01 7.126397e-01 1.007871e+00 2.655458e-01 -6.165648e-01 -6.728202e-01 -6.125234e-01 4.270934e-01 6.911451e-01 3.285568e-01 1.583665e-01 -1.643366e+00 -1.181212e-02 
1.508609e+01 -2.086555e+00 8.367981e+00 -1.865053e+01 -1.642836e+01 -3.579446e+00 -1.472117e+00 6.280555e+00 -1.196374e+01 -4.670587e+00 3.010469e+00 -1.313229e+01 9.371872e-01 6.927298e-01 7.976942e-01 8.353403e-01 4.808539e-01 -6.962236e-01 -3.141162e-01 -6.296399e-01 2.056834e-01 1.062798e+00 2.446765e-01 3.159333e-01 -7.737543e-01 -1.210138e-02 
1.541877e+01 -5.254755e-01 8.809748e+00 -1.889861e+01 -1.633889e+01 -3.576673e+00 -2.456635e+00 6.700260e+00 -1.165551e+01 -3.577264e+00 3.026255e+00 -1.349705e+01 9.251248e-01 5.196961e-01 8.569091e-01 9.268625e-01 7.141687e-01 -6.142464e-01 -6.350304e-01 -2.233466e-01 6.815100e-03 9.101249e-01 4.045333e-01 5.090454e-01 5.075806e-01 -1.424773e-02 
1.617942e+01 -9.898301e-01 9.946932e+00 -1.740023e+01 -1.820566e+01 -5.148878e+00 -1.356230e+00 5.206225e+00 -1.004449e+01 -5.284261e+00 5.143798e+00 -1.314454e+01 9.115270e-01 4.249679e-01 8.610038e-01 8.264487e-01 9.953508e-01 -7.179842e-01 -7.968574e-01 -6.835499e-02 -3.446426e-01 8.924406e-01 1.227050e-01 1.168216e+00 9.401892e-01 -1.692853e-02 
1.627466e+01 7.660481e-01 1.080933e+01 -1.594805e+01 -1.845996e+01 -6.467025e+00 -8.133645e-01 5.194620e+00 -9.843847e+00 -4.241820e+00 6.314810e+00 -1.018507e+01 8.911518e-01 3.176458e-01 5.409195e-01 7.123946e-01 1.455402e+00 -6.189432e-01 -6.738673e-01 -6.054999e-01 -1.136257e-01 1.172502e+00 4.378081e-01 8.872427e-01 1.029537e+00 -2.000347e-02 
1.678298e+01 1.572703e+00 1.150044e+01 -1.514906e+01 -1.895775e+01 -6.118557e+00 -2.635527e+00 5.310162e+00 -8.407368e+00 -3.724784e+00 7.207269e+00 -1.008733e+01 8.695310e-01 1.627528e-01 5.782660e-01 3.747726e-01 1.473664e+00 -6.310280e-01 -4.067473e-01 -1.233418e+00 4.742778e-01 1.275751e+00 4.422387e-01 6.992971e-01 7.682687e-01 -2.211327e-02 
1.670522e+01 8.978555e-01 1.159497e+01 -1.274718e+01 -1.905756e+01 -6.461169e+00 -4.844486e+00 6.080163e+00 -6.611566e+00 -2.167962e+00 6.430733e+00 -9.877965e+00 8.461055e-01 1.600514e-01 4.253992e-02 -6.092072e-02 1.197167e+00 -3.598970e-01 -5.056781e-01 -1.074567e+00 7.408382e-01 1.193242e+00 -8.286963e-02 5.213219e-01 6.281618e-01 -2.180418e-02 
1.677791e+01 1.835596e+00 1.142797e+01 -1.163234e+01 -2.106200e+01 -7.185542e+00 -5.507761e+00 7.134842e+00 -5.281873e+00 -4.109997e+00 8.582322e+00 -9.456753e+00 8.234838e-01 -9.795056e-02 -4.995641e-01 -5.005530e-01 6.805347e-01 6.521633e-01 -1.131395e-01 -3.721588e-01 1.318578e+00 3.999494e-01 -6.764039e-01 1.565840e-01 1.345726e+00 -2.055473e-02 
1.707745e+01 8.473008e-01 1.054095e+01 -1.172058e+01 -1.920732e+01 -8.461923e+00 -4.750083e+00 7.986471e+00 -5.440385e+00 -4.463562e+00 8.233892e+00 -7.359553e+00 8.051545e-01 -1.483424e-01 -9.680646e-01 -1.131309e+00 -2.501186e-01 1.533389e+00 4.147011e-01 4.414666e-01 1.971758e+00 -3.810445e-01 -1.729570e+00 -3.259136e-01 1.967177e+00 -1.349739e-02 
1.610711e+01 -8.998404e-01 9.524678e+00 -1.225969e+01 -1.562205e+01 -5.683878e+00 -4.543522e+00 1.094990e+01 -6.993211e+00 -5.959003e+00 7.088609e+00 -4.617909e+00 7.872329e-01 -1.696860e-01 -1.415984e+00 -1.804499e+00 -6.370978e-01 2.740720e+00 1.449869e+00 1.539604e-01 2.166279e+00 -1.145205e-01 -2.488431e+00 -1.654944e+00 2.621910e+00 -8.366495e-03 
1.629890e+01 -2.574749e+00 6.890071e+00 -1.368410e+01 -1.411059e+01 -5.138496e+00 -3.119272e+00 1.403143e+01 -7.661119e+00 -9.891308e+00 5.548022e+00 -2.461499e+00 7.967440e-01 1.752739e-02 -1.216917e+00 -2.194367e+00 -4.755453e-01 3.169616e+00 2.055719e+00 -6.737405e-01 1.968266e+00 4.892231e-01 -3.063362e+00 -2.261772e+00 2.428844e+00 -8.124435e-03 
1.631875e+01 -3.533297e+00 4.230918e+00 -1.383607e+01 -9.906763e+00 -1.597912e+00 -5.553365e+00 1.494376e+01 -4.744109e+00 -1.383828e+01 1.650537e+00 1.203769e+00 7.858566e-01 3.021728e-01 -6.880070e-01 -2.903652e+00 2.132539e-01 3.407646e+00 1.781099e+00 -1.192064e+00 6.305522e-01 1.280205e+00 -2.349807e+00 -2.543247e+00 2.638711e+00 -6.539112e-03 
1.705927e+01 -3.920557e+00 2.215997e+00 -1.331011e+01 -6.216879e+00 -2.263113e-01 -7.613864e+00 1.583087e+01 -4.118821e+00 -1.584073e+01 -3.559296e-01 1.873827e+00 7.652205e-01 2.470771e-01 -4.497514e-02 -3.170305e+00 3.798601e-01 4.245703e+00 1.874817e+00 -1.970690e+00 -9.959339e-01 1.220479e+00 -5.845107e-01 -1.806352e+00 2.064620e+00 -7.484615e-03 
1.723779e+01 -3.666972e+00 -2.656543e+00 -1.138042e+01 -2.530676e+00 7.655241e-01 -8.256546e+00 1.320294e+01 -2.363334e+00 -1.473332e+01 -2.675652e+00 6.407981e+00 7.702991e-01 2.219158e-01 2.202729e-01 -3.340968e+00 6.126249e-01 4.304337e+00 1.584052e+00 -2.226060e+00 -2.273647e+00 9.817795e-01 1.013162e+00 -5.611971e-01 1.052487e+00 -1.307511e-03 
1.707477e+01 -2.732787e+00 -5.517722e+00 -1.301263e+01 3.429883e+00 3.053872e+00 -1.162113e+01 9.922167e+00 -2.749111e+00 -1.236634e+01 -1.320645e+00 5.259495e+00 7.670997e-01 -7.669926e-03 3.073055e-01 -3.013253e+00 3.068852e-01 4.236039e+00 2.170154e+00 -3.098270e+00 -3.226451e+00 9.209999e-01 2.239603e+00 2.967255e-01 2.222962e-01 6.502211e-03 
1.742058e+01 -3.025817e+00 -8.607059e+00 -1.092169e+01 6.791537e+00 4.682256e+00 -1.468003e+01 6.529876e+00 -5.200663e-01 -1.050966e+01 -6.730912e-01 4.773372e+00 7.783794e-01 -3.798315e-01 3.026322e-01 -1.949690e+00 3.389961e-01 3.628536e+00 1.613506e+00 -2.979413e+00 -2.653603e+00 5.220834e-01 2.831374e+00 6.834916e-01 -1.547688e+00 1.631463e-03 
1.692952e+01 -2.704607e+00 -9.875010e+00 -1.200505e+01 1.030221e+01 8.666096e+00 -1.989347e+01 3.035145e+00 -4.354553e-01 -6.754551e+00 1.264175e-01 3.802613e+00 7.936913e-01 -3.060332e-01 7.141727e-01 -1.472717e+00 6.681861e-01 2.567269e+00 7.945415e-01 -2.259127e+00 -1.864309e+00 3.290896e-01 3.434536e+00 1.076761e-01 -1.929665e+00 -8.576989e-03 
1.541126e+01 -2.167901e+00 -1.022635e+01 -1.018922e+01 1.217584e+01 6.026944e+00 -1.901744e+01 3.378437e+00 -9.097452e-01 -3.382347e+00 1.827508e-02 -6.020195e-01 7.651606e-01 -8.650579e-02 1.173864e+00 -1.513529e+00 8.335209e-01 2.092599e+00 -4.165056e-01 -1.084670e+00 -1.752333e+00 5.918704e-01 2.934000e+00 1.974246e-01 -2.323744e+00 -1.668221e-02 
1.654927e+01 4.091186e-01 -1.207166e+01 -1.003793e+01 1.357408e+01 6.354235e+00 -2.074806e+01 2.176343e+00 -9.088235e-01 1.242685e+00 -1.127947e+00 -1.701136e+00 7.308242e-01 3.394406e-01 9.794061e-01 -1.149981e+00 1.354661e+00 8.996972e-01 -8.673061e-01 -2.160730e-01 -1.800137e+00 1.068035e+00 1.909872e+00 2.010279e-01 -1.506968e+00 -2.338113e-02 
1.717818e+01 1.286643e+00 -1.507638e+01 -7.737643e+00 1.561860e+01 3.755658e+00 -1.967609e+01 -1.802386e+00 2.675970e+00 1.617175e-01 9.412144e-01 -4.093471e+00 7.264020e-01 3.919827e-01 9.394436e-01 -3.251118e-01 1.262323e+00 -1.273905e-01 -4.494410e-01 2.160736e-01 -2.179198e+00 1.335032e+00 9.906424e-01 1.324765e-01 -2.390154e-01 -2.693980e-02 
1.774326e+01 4.651518e-01 -1.319990e+01 -6.457540e+00 1.307932e+01 5.465209e+00 -2.064451e+01 -3.375128e+00 3.111865e+00 1.022777e+00 6.700874e-01 -1.986499e+00 6.961650e-01 -1.323071e-01 7.714508e-01 4.801436e-01 1.372455e+00 -4.782276e-01 -4.609218e-01 8.655373e-01 -1.721962e+00 1.145110e+00 3.631547e-01 9.784818e-03 -4.739042e-01 -3.009949e-02 
1.677417e+01 2.501300e+00 -1.128779e+01 -5.667808e+00 1.178627e+01 4.224252e+00 -1.798885e+01 -4.741817e+00 3.755073e+00 1.680819e+00 -2.183596e-01 -1.654415e+00 6.477911e-01 -4.231963e-01 1.008061e+00 1.185009e+00 1.452740e+00 -1.445376e-01 -7.327176e-01 7.457947e-01 -2.897688e-01 6.171985e-01 -1.850098e-01 -5.644366e-01 -4.908977e-01 -4.294962e-02 
1.608974e+01 3.659044e+00 -1.156524e+01 -4.210573e+00 1.309910e+01 3.815329e+00 -1.726400e+01 -4.963754e+00 4.277177e+00 2.298907e+00 -4.992364e-01 -5.290185e+00 6.196321e-01 -1.013710e+00 1.182674e+00 1.475375e+00 2.937996e+00 1.811807e+00 -5.731176e-01 1.698087e+00 -3.912511e-01 5.302774e-01 -1.363064e+00 -1.594873e+00 -1.293735e+00 -5.795425e-02 
1.588896e+01 4.730000e+00 -9.968665e+00 -1.597428e+00 1.488601e+01 9.170099e-01 -1.763737e+01 -2.456917e+00 5.179306e+00 -1.401396e+00 -1.296306e+00 -4.896116e+00 5.499203e-01 -1.412159e+00 8.362988e-01 2.319353e+00 4.161452e+00 2.152221e+00 1.396379e-02 1.998068e+00 4.553265e-02 1.313049e+00 -1.077267e+00 -2.435251e+00 -1.131294e+00 -6.879609e-02 
1.311732e+01 5.264172e+00 -6.482586e+00 6.197251e+00 2.058848e+01 4.253242e+00 -1.232982e+01 -6.473833e+00 5.051135e+00 -4.251434e+00 -6.765302e+00 -6.834323e+00 4.553291e-01 -2.172436e+00 1.585083e-01 3.165831e+00 4.445294e+00 1.119694e+00 4.436475e-01 1.736383e+00 -9.334332e-02 1.446331e+00 -5.010480e-01 -2.444411e+00 4.023923e-01 -8.162574e-02 
1.119959e+01 5.880230e+00 -2.232352e+00 9.935540e+00 1.880269e+01 4.075115e+00 -1.046560e+01 -3.759114e+00 9.933338e+00 -4.303471e-01 -9.261584e+00 -6.538817e+00 3.859622e-01 -2.922578e+00 -1.314664e+00 1.976320e+00 3.494302e+00 -1.169057e-01 9.920308e-01 1.777110e+00 1.173505e-01 1.262306e+00 6.183152e-01 -1.653966e+00 1.608665e+00 -8.345769e-02 
7.572243e+00 3.876471e+00 3.957548e-01 1.224941e+01 1.673924e+01 4.454514e+00 -1.216797e+01 -4.779372e+00 9.131814e+00 -6.918577e-01 -8.738654e+00 -2.456873e+00 2.934825e-01 -3.598394e+00 -2.993838e+00 -6.568939e-01 -3.513193e-01 -2.328770e+00 3.723214e-01 1.933657e+00 1.411546e+00 1.574811e+00 3.387583e-01 -5.467731e-01 2.400584e+00 -8.038946e-02 
4.048612e+00 -1.149468e+00 -3.526234e+00 1.284800e+01 1.622611e+01 5.776528e+00 -8.832747e+00 -2.717395e+00 9.450496e+00 -8.960855e-02 -8.579461e+00 9.584824e-01 2.135552e-01 -3.093610e+00 -2.453543e+00 -1.536609e+00 -2.274252e+00 -2.552372e+00 6.289296e-02 2.724958e+00 1.812079e+00 -6.865788e-02 6.635340e-01 -1.444927e-01 1.842826e+00 -7.460437e-02 
-1.299162e+00 -6.190171e+00 -9.120114e+00 2.984424e+00 1.023292e+01 5.264143e+00 -3.477956e+00 6.303668e-02 1.316661e+01 -2.728012e+00 -9.840230e+00 1.419946e+00 1.395853e-01 -1.967604e+00 -1.172143e+00 -1.022028e+00 -2.781036e+00 -2.720932e+00 3.325734e-01 3.829622e+00 1.664293e+00 -1.379849e+00 -1.839025e-01 6.190203e-01 5.899602e-01 -5.566515e-02 
1.672373e-01 -1.354165e+00 -5.157462e+00 3.196777e+00 9.293983e+00 3.984766e+00 -1.185809e+00 2.880075e+00 7.572649e+00 3.905400e+00 -9.433260e+00 7.369043e-01 8.988893e-02 -9.307365e-01 4.943756e-01 -5.014173e-01 -2.385735e+00 -2.627380e+00 -1.239019e+00 2.428390e+00 1.496524e+00 -2.513000e+00 -1.133219e+00 7.704612e-01 -5.897347e-01 -3.083150e-02 
-3.250875e-01 -1.881898e+00 -3.898769e+00 3.169847e+00 6.600638e+00 7.013262e+00 3.156675e+00 7.433554e-01 3.171493e+00 -3.608875e+00 -5.216652e+00 6.037165e-01 7.698983e-02 5.021181e-02 1.022898e+00 3.005107e-01 -4.071636e-02 -1.546952e+00 -1.142751e+00 1.114737e+00 7.330227e-01 -2.962638e+00 -8.149958e-01 1.334443e+00 -6.303541e-01 -1.433462e-02 
-1.092108e+00 -8.317257e-01 -8.643993e+00 8.266177e-01 4.905349e+00 -1.293126e+00 -8.110523e-03 4.425067e+00 1.883053e+00 -5.315271e+00 -7.038943e+00 -1.582076e+00 9.069538e-02 -1.056958e-01 -1.446142e-01 -1.342041e-01 -7.972670e-03 -1.996400e+00 -7.836323e-01 1.074361e+00 3.960517e-01 -9.989344e-01 -9.031811e-01 1.414601e+00 9.299616e-01 -2.544880e-03 
-4.184303e-01 -1.336899e+00 -5.874295e+00 3.965922e+00 4.692474e+00 2.189332e+00 1.506880e+00 2.955655e+00 1.198222e+00 -2.192655e+00 -4.365172e+00 -5.723344e-01 6.750900e-02 2.453737e-02 -4.264471e-01 8.001078e-01 1.536283e-01 -1.752585e+00 1.041592e-01 1.592067e+00 -2.291268e-01 -5.299769e-02 1.285569e+00 1.839972e-01 5.629436e-01 -1.743203e-03 
-3.145704e-01 -2.349735e+00 -4.840720e+00 2.758876e+00 2.660670e-01 2.478569e+00 5.010895e+00 3.754184e+00 3.564613e+00 -1.318616e+00 -2.785994e+00 5.974738e+00 8.190495e-02 2.821808e-02 -6.381779e-01 1.800617e+00 -3.748490e-02 -1.761250e+00 6.487771e-01 1.481998e+00 -1.537513e+00 -1.031849e-01 2.140083e+00 5.198166e-01 -2.096387e-01 -5.831557e-03 
-5.911694e-01 -3.255129e+00 -1.799867e+00 2.971859e+00 1.573534e-01 5.648211e+00 8.607510e+00 -6.683719e-02 2.065724e+00 8.206437e-01 -6.423141e+00 -3.599721e-01 7.266903e-02 -3.701343e-02 -1.711713e-01 1.043075e+00 -5.295913e-01 -1.694229e+00 -5.633519e-01 6.361896e-01 -1.557400e+00 -1.124526e+00 1.416322e+00 1.058698e-01 -1.652463e+00 -4.870355e-04 
-8.646479e-01 -3.063500e+00 -1.678124e+00 1.136224e+00 -1.633342e+00 2.213199e-01 3.851563e+00 -1.751255e+00 9.333773e-01 3.878492e+00 -3.410876e+00 -2.736451e+00 5.895758e-02 9.253196e-02 4.049743e-01 5.471386e-01 -4.959288e-01 -7.730998e-01 -4.543711e-01 3.412250e-01 -1.845017e+00 -1.602076e+00 1.329852e+00 8.055722e-01 -1.415818e+00 -1.332295e-03 
-3.284588e-01 -1.835873e+00 -2.240221e+00 2.129291e+00 -2.828964e+00 5.011971e-01 5.267493e+00 -2.078629e+00 -3.108789e+00 2.290400e+00 -3.523382e+00 -4.479054e+00 7.654750e-02 -6.748237e-02 9.994285e-01 1.572524e-01 -7.209180e-01 -7.049103e-01 2.968740e-01 1.335986e+00 -5.019196e-01 -1.393360e+00 -1.033437e-01 2.502582e+00 3.707576e-01 3.160697e-03 
1.673412e-02 -1.034491e+00 -1.884850e+00 7.005165e-01 -2.106274e+00 2.780220e+00 8.387029e+00 -4.465006e+00 -1.858509e+00 4.595767e+00 -2.080123e-01 9.551905e-01 7.330424e-02 -8.525524e-02 6.482161e-01 4.928038e-01 5.461154e-02 -2.310999e-01 5.129608e-01 8.170349e-01 -8.246524e-01 -1.744431e+00 -9.857537e-01 1.875617e+00 7.901751e-01 5.696786e-03 
-1.369272e+00 7.275094e-01 -9.102418e-01 -4.148765e-01 -3.130732e+00 5.853131e+00 1.301970e+01 -1.219559e+00 -3.505135e+00 -5.471194e-02 4.488335e+00 -3.520049e-01 8.129919e-02 -1.554023e-01 7.256359e-01 6.397563e-01 -1.423476e-01 -4.832217e-01 -6.093974e-01 -1.464616e-01 -5.796916e-01 -1.565145e+00 -1.007976e+00 1.390235e+00 4.910926e-01 -2.888930e-03 
-7.705173e-01 -1.104111e+00 1.209056e-01 2.681366e+00 -2.637957e+00 1.101573e-01 4.060632e+00 -6.304051e+00 -7.590607e+00 1.222795e-01 1.961352e+00 -8.491000e-01 8.506566e-02 -9.826823e-02 -1.660258e-01 3.020898e-01 -6.143885e-02 -1.114823e+00 -7.820157e-01 -7.515517e-01 -3.279941e-01 -1.300220e+00 -1.016054e+00 -5.457277e-01 3.310816e-01 -6.110132e-04 
-7.118444e-01 1.827116e+00 -4.431701e-02 4.271283e-01 -4.979230e+00 -1.210758e+00 6.698384e+00 -4.057564e+00 -8.068465e+00 -5.127379e-01 2.343113e+00 -1.121446e+00 5.622214e-02 3.540727e-01 -1.577821e-01 -4.364716e-01 1.571290e-01 -5.063814e-01 -4.243586e-02 4.566791e-01 -8.618687e-01 -4.235381e-01 -3.034792e-01 -1.446633e+00 1.167844e+00 -1.160109e-03 
-8.033209e-01 -2.414424e+00 -8.073640e-01 -2.768016e-02 -6.756138e+00 2.402086e+00 7.789931e+00 -4.685974e+00 -6.077946e+00 -2.554919e-01 -1.864040e+00 2.995319e+00 8.278769e-02 -5.551300e-02 -1.842301e-01 -1.348718e+00 3.193397e-01 1.425426e-01 1.545292e-01 4.210440e-01 4.159953e-01 9.565895e-01 -3.057986e-01 -6.042567e-01 1.285123e+00 -5.232173e-03 
4.174929e-01 5.937554e-01 -2.628465e+00 1.725291e+00 -3.603549e+00 4.494987e+00 1.343845e+01 -6.337941e+00 -6.379156e+00 -1.383222e+00 -8.321355e-01 3.565004e+00 7.663763e-02 3.344526e-02 -1.641207e+00 -1.396497e+00 2.167993e+00 2.781667e+00 -1.063802e+00 -2.678869e+00 -4.286884e-01 1.811018e+00 -2.667674e-01 6.371995e-01 2.199536e+00 7.573831e-03 
-1.612751e+00 -1.408581e+00 -5.330608e+00 3.628983e+00 -2.613085e+00 -1.970069e+00 2.795818e+00 -3.083887e+00 -3.652314e+00 -9.714714e-01 5.276924e-01 3.233289e+00 4.869705e-02 -5.407295e-02 3.749380e-02 -6.142178e-01 1.363447e+00 2.378464e+00 -2.134900e+00 -2.459040e+00 7.245451e-01 1.836787e+00 7.496581e-02 5.822253e-02 -6.113191e-01 -4.792100e-03 
-1.399031e-01 -6.881840e+00 -4.765179e+00 9.438762e+00 6.857580e+00 -4.343691e+00 -4.198905e+00 -7.002050e+00 -2.261903e-01 -1.488585e+00 4.333245e+00 9.757248e+00 1.111366e-01 -5.362540e-01 7.357894e-01 6.610700e-01 4.345364e-01 1.296284e+00 -1.074320e+00 -1.517567e+00 1.067562e+00 1.273154e+00 1.257585e+00 -3.736399e-01 -1.532806e+00 -1.211546e-02 
-7.949877e-01 1.510843e+00 -2.810096e+00 2.932819e+00 -9.438086e-02 -3.853075e+00 4.313411e+00 -7.311941e-01 2.950644e-02 1.720186e-01 -4.155617e+00 -3.157398e+00 4.157770e-02 -7.376931e-01 1.388793e+00 8.907763e-01 -1.061843e+00 -6.325548e-01 6.325377e-01 1.554894e+00 1.014865e+00 2.800812e-01 -5.295154e-01 -2.567058e+00 -2.539458e+00 -1.596268e-02 
-2.672659e+00 2.812990e+00 -5.833716e-01 4.246055e+00 1.618520e+00 6.488845e-02 5.091821e+00 -2.176479e+00 -1.854297e+00 4.332960e+00 -3.586803e-01 -9.036828e-01 1.962000e-02 -1.373642e+00 -2.024269e+00 3.634247e+00 -3.055926e-01 -3.698128e+00 1.992228e+00 1.733909e+00 9.047756e-01 3.251182e-01 -7.756045e-01 -1.357121e+00 -2.295542e+00 5.978538e-02 
-4.034839e+00 6.879699e-01 -2.967631e+00 9.161216e-01 -3.156329e+00 -1.011670e+00 5.924925e+00 -4.223471e-01 -1.437855e+00 -6.529821e+00 -9.961636e+00 -4.133534e+00 1.464194e-02 -1.635236e+00 -5.857411e+00 4.915781e+00 2.071194e+00 -3.229083e+00 1.899604e+00 -4.419900e-01 -3.068507e-01 1.358005e+00 -1.869966e-01 1.971336e+00 9.268271e-01 1.233698e-01 
-5.388186e+00 -1.659175e+01 1.348482e+01 8.919147e+00 -1.010209e+01 4.196749e+00 3.664881e+00 -2.632596e+00 2.133081e+00 -2.015688e+00 4.506500e-01 -1.232393e+00 4.235314e-01 -3.298936e-01 -1.916445e+00 2.024166e+00 8.842461e-01 -1.373637e+00 1.931411e-01 -9.915184e-01 -2.912381e-01 1.262352e+00 1.321298e+00 2.597284e+00 1.520651e+00 4.772632e-02 
-7.613405e+00 -1.807384e+01 1.473471e+01 1.095224e+01 -1.037949e+01 3.579014e+00 2.816931e+00 -2.037389e+00 4.825841e+00 2.411360e+00 5.296399e+00 1.641093e+00 4.564711e-01 3.821024e-01 1.698676e+00 -1.609881e+00 -5.473078e-01 1.455204e+00 -3.769613e-01 -4.611739e-01 -2.654241e-02 7.213197e-01 2.669664e+00 2.491215e+00 2.052370e+00 -4.252005e-02 
-2.532844e+00 2.611671e+00 6.862843e-01 3.649224e+00 -1.638085e+00 -1.264748e+00 1.688227e+00 -2.825148e+00 1.325614e+00 6.468860e+00 4.998723e+00 3.812260e+00 3.733701e-02 3.776941e-01 5.278798e+00 -4.788756e+00 -2.714974e+00 2.267695e+00 -2.097403e+00 8.834716e-01 4.645251e-01 -5.624675e-02 6.123527e-01 -1.161938e+00 9.908460e-01 -1.290872e-01 
-3.551998e+00 -4.203609e-01 -4.617766e+00 8.145441e-01 -1.123104e-01 -1.657281e-01 4.607383e+00 -4.587830e-01 2.572477e+00 2.576224e+00 2.204036e-01 3.605989e+00 -4.861116e-03 5.039932e-01 4.054878e+00 -3.055058e+00 -2.123132e+00 1.671147e+00 -2.420652e+00 -8.605614e-02 -4.600983e-02 -8.488696e-01 -6.905795e-01 -2.765311e+00 6.940208e-02 -9.013647e-02 
-5.530419e+00 9.755006e-01 -7.827201e-01 4.131272e-01 -3.897203e+00 -4.417893e+00 7.187013e+00 -1.099273e+00 2.978529e+00 9.636431e-01 -2.821043e+00 2.739388e+00 8.761466e-03 -2.189654e-01 5.575159e-01 3.111866e-01 -2.021753e-01 4.659164e-01 -1.450139e+00 -4.479619e-01 -1.512909e-01 -9.584163e-01 -1.967417e+00 -2.306586e+00 -6.529254e-01 -2.979153e-03 
-3.594651e+00 3.018629e+00 1.939251e-01 1.954633e+00 -8.941970e-01 -6.947676e+00 -3.627429e-01 -3.130375e+00 -2.449651e-01 1.711070e+00 -4.620274e+00 2.524539e+00 2.007657e-02 5.591688e-02 1.106591e+00 1.531183e+00 8.918121e-01 7.493469e-01 -8.373383e-01 -1.063911e+00 9.992371e-02 -1.398569e+00 -8.923672e-01 -7.319970e-01 -1.258093e+00 3.871310e-03 
-3.606344e+00 3.679756e+00 -1.636283e-01 2.068303e+00 1.082440e+00 -5.124468e+00 1.933481e+00 -2.245807e+00 -2.057747e+00 -2.935651e+00 -4.113867e+00 1.088359e+00 9.972394e-03 8.247938e-02 4.621815e-01 6.121767e-01 3.399840e-01 7.668329e-01 1.266671e+00 1.266560e-01 -4.704254e-01 -1.288094e+00 -1.081572e+00 3.871543e-01 -1.981128e-01 -7.205248e-04 
-4.234451e+00 3.760468e+00 2.728602e+00 4.446016e+00 1.144603e+00 -3.999132e+00 1.914596e+00 6.141024e-01 -1.902231e+00 6.403470e-02 -2.793170e+00 -1.858962e+00 1.388997e-02 -1.463726e-01 1.203963e-01 -1.195142e-01 -4.206437e-02 5.589975e-01 2.226672e+00 1.676166e+00 1.119306e+00 -4.397436e-01 -2.833800e-01 7.702957e-01 1.051634e-01 3.539687e-03 
-4.798122e+00 2.915488e+00 1.010825e+00 8.673553e-01 -1.082438e+00 4.411911e-01 6.681623e+00 -5.323639e+00 -2.633310e+00 -3.620699e+00 -1.798824e+00 3.940576e+00 8.252144e-03 1.522059e-01 -1.227213e-01 -4.365581e-01 -3.022779e-01 -4.820272e-01 6.227373e-01 3.737558e-01 4.529946e-01 1.157791e+00 6.147932e-01 -8.796437e-02 2.171788e-01 3.736418e-03 
-3.730625e+00 4.002744e+00 -9.908724e-01 2.344784e+00 2.983230e+00 1.402856e+00 5.644013e+00 4.005070e+00 -2.155901e+00 6.366940e-01 -1.926317e+00 1.624248e+00 3.863513e-02 5.660823e-01 1.399724e-01 -5.959509e-01 -4.160652e-01 7.499509e-02 -3.650655e-01 1.027512e-01 5.213845e-01 1.302591e+00 5.399075e-01 -1.903294e-01 -2.353506e-01 -2.773505e-03 
-3.097228e+00 2.945011e+00 -4.866812e-01 1.607530e+00 -2.247010e+00 -4.711775e+00 1.937550e+00 -1.676317e+00 3.858043e+00 -1.480149e-01 -4.987115e+00 4.326476e-01 1.628190e-02 7.157887e-01 3.560463e-01 -2.283621e-02 1.198092e-01 7.804104e-01 -1.636047e-01 1.643550e-01 1.740546e+00 7.660712e-01 9.779466e-01 -2.524207e-01 -8.205754e-01 -8.682728e-04 
-2.254487e+00 4.445569e+00 4.976010e-01 1.995603e+00 2.101864e+00 -3.247976e+00 4.800388e+00 1.397364e+00 1.365047e+00 1.027230e+00 -2.150671e+00 -1.281751e+00 -3.992438e-03 4.794018e-01 5.769296e-01 1.071489e+00 -3.731994e-02 8.326281e-01 5.450291e-01 1.347457e+00 -1.098931e-01 -1.962885e-01 6.755692e-01 -6.354208e-02 -1.455127e-01 -6.760985e-03 
-1.957248e+00 4.474308e+00 1.524069e-01 1.640992e+00 3.260297e+00 1.948584e+00 7.925211e+00 4.682944e+00 -5.634284e-01 1.073766e+00 -2.948751e+00 1.290698e+00 2.522457e-02 4.180498e-02 4.724006e-01 7.957619e-01 4.479765e-01 1.173962e+00 1.625104e+00 1.428394e+00 1.023784e-02 -1.506038e+00 4.633727e-02 -4.590154e-03 2.205159e-01 5.118698e-03 
-1.903606e+00 6.122744e+00 4.047029e+00 2.141454e+00 4.392716e+00 7.978222e-01 9.387468e+00 2.759732e-01 -9.266083e-01 3.403649e+00 -3.263210e+00 4.676591e-01 3.588796e-04 -2.860285e-01 -2.055520e-01 -3.448556e-01 -9.239185e-02 -1.290119e+00 1.052742e+00 -7.235737e-01 -1.133564e+00 -7.054592e-01 -1.170690e+00 -5.670237e-01 1.262980e+00 1.330405e-02 
-3.063643e+00 4.468427e+00 1.717414e+00 3.774487e+00 2.477374e+00 1.390845e+00 6.785982e+00 -1.064433e+00 -2.526321e+00 -1.104538e+00 -4.453797e+00 6.605217e-01 3.969973e-02 -3.533007e-01 -1.595270e-01 -5.544492e-01 -3.128999e-01 -1.892554e+00 -2.234035e-01 -9.868923e-01 -8.482723e-01 -2.066539e-01 -6.843508e-01 6.915407e-02 6.034058e-01 3.974253e-03 
-3.131432e+00 3.420749e+00 -2.009181e+00 4.668965e-01 -3.957270e+00 2.294602e+00 1.752135e+00 -1.396766e+00 -1.180803e+00 -3.737067e+00 -4.233266e+00 5.348235e+00 5.529022e-02 -3.174195e-01 -2.500762e-01 -6.133966e-01 -2.740648e-01 -1.332563e+00 -7.521769e-01 -1.017467e+00 4.986028e-01 4.520254e-02 -3.168044e-01 7.448177e-01 3.480464e-01 4.720509e-03 
-3.109838e+00 5.027670e+00 4.082658e-01 9.137709e-01 -2.027478e+00 8.317651e-02 6.808416e+00 1.277952e+00 -1.469601e+00 1.222371e+00 -2.117952e+00 1.867439e+00 1.763016e-02 -1.257817e-01 1.666640e-01 -2.287469e-01 -4.486641e-01 -4.743272e-01 -9.799385e-01 -1.582232e+00 -5.394528e-02 -5.768505e-01 2.524557e-01 1.227730e+00 4.385079e-01 5.206436e-03 
-3.467607e+00 4.592741e+00 1.634620e+00 2.201488e+00 -1.767349e-02 -2.309228e+00 4.288918e+00 1.597795e+00 -1.228956e+00 6.561729e-01 -7.070435e-01 1.604433e+00 3.499621e-02 -1.710757e-01 3.569184e-01 -1.216510e-01 6.817725e-02 7.859609e-01 1.161203e-01 4.446983e-03 5.738373e-01 -3.144008e-01 3.173696e-01 4.121709e-01 -3.538667e-01 7.630157e-03 
-3.524465e+00 4.715751e+00 -1.248221e+00 6.638713e-01 -1.864061e+00 -1.206933e+00 -2.393568e+00 -2.831439e+00 -5.386497e+00 -2.038880e+00 -7.826024e-02 4.724962e+00 7.587892e-02 -4.414040e-01 -3.212304e-02 -2.017107e-01 3.157306e-03 7.677893e-01 1.019791e+00 -5.931332e-01 -8.200074e-01 2.674509e-01 -1.382676e-01 -2.402859e-01 -8.661284e-02 7.242125e-03 
-3.779497e+00 5.361300e+00 -1.789192e+00 9.327326e-01 -1.091743e-01 3.520258e+00 6.375362e+00 3.527116e+00 -7.943585e-01 -5.195938e-01 -3.192258e+00 2.150140e+00 6.431663e-02 -7.416581e-01 -5.631088e-01 7.382059e-03 -1.089731e-01 1.597363e-01 -9.739512e-01 -4.555331e-01 -1.882537e+00 -7.911025e-01 -4.180669e-01 -3.822423e-01 -9.565469e-01 -1.267904e-02 
-5.160913e+00 4.482775e+00 1.111619e+00 1.563935e+00 1.857219e+00 2.267391e+00 2.799528e+00 -3.786746e+00 -3.496449e-01 1.118916e+00 -2.076774e+00 1.161521e+00 3.918058e-02 -4.003903e-01 -4.647159e-01 4.087628e-01 1.809738e-01 9.616127e-01 -9.735014e-01 3.858958e-01 -3.442592e-01 4.402447e-01 4.028749e-01 -4.228346e-01 -1.227883e+00 -2.226042e-02 
-6.357673e+00 1.893685e+00 4.916105e-01 1.206591e+00 -1.079632e+00 -8.916145e+00 -5.852957e-01 -7.337236e+00 -7.702895e+00 -3.013060e+00 -1.618998e+00 -1.396581e+00 -1.004982e-02 -9.434233e-02 -4.858753e-01 2.392877e-01 6.456513e-01 6.149188e-01 -1.021078e+00 -9.855031e-01 -1.263225e-01 1.324571e-01 -2.876891e-01 -1.159984e+00 -9.141057e-01 -1.211094e-02 
-4.237329e+00 4.125979e+00 -3.448091e-01 1.431811e+00 3.429232e+00 1.437617e-01 3.016240e+00 8.794404e-01 2.689943e-01 1.222228e+00 -2.979064e+00 3.589057e-01 1.760066e-03 1.419139e-01 -9.154477e-02 -7.951728e-01 -8.484308e-02 9.973428e-02 1.014395e+00 1.603414e-01 1.341489e+00 9.560612e-01 -2.178880e-01 -1.905258e+00 -4.970073e-01 6.791651e-04 
-4.713001e+00 3.110322e+00 1.354599e-01 4.227051e+00 2.179414e+00 -5.233160e-01 1.339490e+00 5.624107e-01 -4.413927e-01 -2.009696e+00 -8.541035e+00 -2.019081e+00 2.247220e-02 2.767528e-01 5.497567e-01 2.087048e-01 -2.649549e-01 4.457116e-01 2.055188e+00 3.087314e-02 2.687972e-01 1.807124e+00 4.795086e-01 -5.994135e-01 7.970230e-01 1.181328e-03 
-5.273680e+00 3.416733e+00 -2.686169e+00 -3.705106e-01 7.263675e-01 3.142951e+00 2.638842e+00 -1.029123e+00 7.999103e-01 -4.722060e-01 -8.142045e+00 -1.012266e+00 2.631539e-02 -3.418059e-01 -1.063688e-02 7.913845e-01 -2.062682e-01 5.345353e-01 8.208987e-01 -3.256065e-01 -6.589295e-01 3.009576e-01 1.533062e-01 1.631134e+00 1.213566e+00 -2.871424e-03 
-4.455733e+00 4.997092e+00 2.705815e+00 7.829771e-01 2.500358e+00 -1.398000e-01 -2.422309e-01 -5.038969e+00 1.067265e+00 2.317004e-01 -2.034575e+00 3.274120e+00 -1.642084e-02 -1.151168e-01 4.201571e-01 5.994536e-01 1.165826e-02 2.759548e-01 -1.049332e-01 6.619090e-01 2.704601e-01 6.287283e-01 1.542438e+00 1.696028e+00 4.564033e-01 1.652622e-03 
-6.074992e+00 3.129410e+00 2.326936e+00 2.122508e+00 5.941436e+00 4.056498e+00 2.179068e+00 3.854825e-01 1.019453e+00 8.680608e-01 1.923375e+00 3.780134e+00 6.849468e-03 4.022770e-02 -6.607218e-01 3.188446e-01 1.454299e+00 -1.494919e-01 -4.815665e-01 1.125015e+00 -8.113133e-01 -5.461185e-01 2.194356e+00 6.045482e-01 -3.305462e-01 9.605676e-03 
-4.887929e+00 5.354769e+00 6.261752e-01 3.038834e+00 9.516535e-01 -1.504755e+00 4.878922e+00 1.207408e+00 2.592478e+00 5.032360e+00 -5.093606e+00 -2.133264e+00 4.046828e-02 -4.105186e-01 -3.455665e-01 2.666699e-01 2.214324e+00 -5.287332e-02 5.793212e-02 8.621682e-01 4.225073e-01 -9.146338e-01 7.656568e-01 -7.372793e-01 -9.637846e-01 2.057247e-02 
-4.856443e+00 -6.571476e-02 -5.212688e-02 5.773055e+00 7.532606e-01 1.417596e+00 5.703341e+00 -8.208879e+00 -2.693288e+00 8.099247e+00 -3.589789e+00 3.869528e-02 4.589921e-02 -4.314888e-01 2.986876e-01 1.040604e+00 2.280413e+00 1.655712e-01 -2.200307e-01 -2.317638e-01 2.133870e-01 -9.579983e-01 -5.435308e-01 -7.646314e-01 -4.449255e-01 1.465827e-02 
-7.117600e+00 4.866822e+00 5.228696e+00 1.002932e+01 4.830079e+00 1.469311e+00 2.306473e+00 1.370748e+00 -1.649533e+00 4.443911e-01 -2.964390e+00 3.259162e-01 6.691664e-02 -6.720500e-01 3.956642e-01 1.448586e+00 1.823725e+00 1.183367e+00 5.999846e-01 -8.541765e-01 9.906305e-01 -7.440265e-01 -1.683079e+00 4.883831e-01 5.205582e-01 7.391417e-03 
