-3.374169e+00 4.419219e+00 -4.556778e+00 1.946141e+00 6.257772e-02 2.466259e-01 -6.853631e-01 -8.878329e-01 7.335735e+00 4.531592e-01 -1.127454e+00 -7.014189e-01 -5.266345e-02 1.558224e-01 -3.799934e-02 1.188916e-01 -1.418736e-01 1.231764e+00 -2.578897e-01 -1.442956e-01 -1.274292e+00 -1.981435e+00 8.826893e-01 1.124974e+00 1.194008e+00 -5.343318e-03 
-2.204633e+00 5.303198e+00 -4.136071e+00 2.332151e+00 4.992866e+00 1.524496e-02 -2.091711e+00 -3.035622e+00 2.332646e+00 3.700399e+00 1.041210e-02 3.564515e+00 -6.375968e-02 -3.490848e-02 -7.996132e-02 -2.886815e-01 -8.014418e-01 7.843273e-01 5.354148e-01 5.735822e-01 -1.100027e+00 -1.162643e+00 1.380005e-02 7.715948e-01 1.312454e+00 -4.835534e-03 
-3.179826e+00 3.787233e+00 -4.172674e+00 1.043768e+00 3.756256e+00 -9.271324e-01 -7.036674e-01 -6.185400e+00 -6.989670e-02 3.242986e+00 3.928480e+00 3.135653e+00 -7.383192e-02 -6.491004e-01 -3.357303e-02 -1.668149e-01 -7.916158e-01 3.285703e-01 3.786064e-01 1.560258e+00 -7.454817e-01 -1.141820e-01 1.995826e-02 7.420672e-01 7.570466e-01 -1.906252e-03 
-3.645884e+00 4.335405e+00 -6.192238e+00 -1.609882e+00 2.137375e+00 3.510579e+00 2.191700e+00 -3.739187e+00 5.225336e+00 -8.727537e-01 2.025524e-01 3.942316e+00 -6.625688e-02 -4.467956e-01 -4.614482e-02 6.832206e-02 1.678051e-01 -4.432297e-02 9.757965e-01 1.982380e+00 5.865611e-01 4.683921e-01 4.067364e-02 -5.168857e-02 6.615840e-01 7.762981e-03 
-5.899046e+00 4.735250e+00 -4.362770e+00 -4.092193e-02 3.133174e+00 3.919907e-01 4.974222e+00 -4.263459e+00 5.318480e+00 2.839527e+00 2.486812e+00 2.894914e+00 -6.094611e-02 1.980953e-02 -2.705866e-01 -4.305923e-02 9.688118e-01 -2.556392e-01 5.213504e-01 1.682638e-01 7.790035e-01 9.175376e-01 1.153840e+00 2.177248e-01 1.071466e+00 1.419416e-02 
-3.079000e+00 4.598465e+00 -3.699413e+00 3.713522e+00 5.082791e+00 4.234666e+00 4.981243e+00 -1.063787e+00 1.980418e+00 4.105497e+00 4.728032e-01 6.992805e+00 -3.138769e-02 2.573828e-01 -2.473392e-01 4.013466e-01 9.564020e-01 6.160960e-02 -4.855079e-01 -1.100051e+00 6.116520e-01 3.591146e-01 9.688135e-01 7.012582e-01 -3.549750e-01 5.731559e-03 
-3.364220e+00 2.302770e+00 -5.634382e+00 3.226126e+00 1.005352e+00 1.317576e+00 -1.257119e+00 -3.628083e+00 6.140250e+00 6.523060e+00 4.881978e+00 6.967741e+00 -2.029574e-02 4.224922e-01 -1.668145e-01 -2.916732e-02 4.951128e-01 -2.147688e-02 -6.057564e-01 -1.161977e+00 7.912790e-01 4.695607e-01 6.596477e-02 -1.026736e-01 -3.121909e-01 -2.502930e-03 
-3.626383e+00 4.314950e+00 -3.549699e+00 1.538605e+00 3.509335e+00 6.202465e-01 -1.928856e-01 -9.986148e-01 6.610024e+00 2.129547e+00 2.511261e+00 1.310272e-01 -5.792427e-02 -2.688324e-01 -4.272635e-02 1.666938e-01 4.357907e-01 1.608898e+00 -3.112102e-01 -5.714250e-01 -3.553133e-02 7.961707e-01 -1.862928e-01 -1.179725e-01 -1.535122e-01 -9.211993e-03 
-3.512894e+00 4.042935e+00 -4.583463e+00 3.522100e+00 3.812518e+00 -8.295815e-01 1.751400e+00 -3.396499e-01 5.351480e+00 4.157326e+00 9.542152e-01 4.764848e+00 -6.019247e-02 -2.242210e-01 1.602398e-02 2.933696e-01 8.093984e-01 1.631510e+00 1.069144e+00 7.916192e-01 -6.317909e-01 -9.801728e-01 -1.227307e+00 -1.068942e+00 1.403239e+00 -9.167755e-03 
-4.348825e+00 3.514751e+00 -3.391404e+00 5.744488e+00 1.172370e+01 3.752194e+00 6.198580e-01 -2.885660e+00 6.355657e+00 4.356900e+00 1.846822e+00 7.326690e+00 -5.749929e-02 -1.293289e-01 -1.405395e-01 -1.565888e-01 7.711049e-01 5.879987e-01 3.343381e-01 -3.810311e-01 -2.930087e-01 -2.640356e-01 -1.542322e-01 1.277399e-01 6.801120e-01 -1.105189e-03 
-4.124104e+00 2.782989e+00 -4.246682e+00 5.170177e+00 5.055718e+00 5.097321e+00 2.294605e+00 -5.843514e+00 1.366570e+00 -7.271507e-01 -1.305126e-01 1.038610e+01 -6.634700e-02 1.036785e+00 -5.998120e-01 -2.249858e+00 -2.050616e+00 -9.844799e-01 1.330090e-03 -3.318614e-01 -1.032713e+00 -1.085338e+00 -1.451093e-01 1.277637e+00 -3.443230e-01 3.165889e-03 
-3.967422e+00 4.242226e+00 -4.501033e+00 4.570091e+00 5.827728e+00 -6.715140e-01 -2.369644e+00 2.882741e-01 7.282301e+00 3.800624e+00 3.692324e+00 7.209593e-01 -6.037295e-02 1.550532e+00 -4.759020e-01 -3.021130e+00 -3.221533e+00 -2.316194e+00 -7.815932e-01 -7.675272e-01 -7.860423e-01 -1.290345e+00 -4.898319e-01 1.016262e+00 1.634789e-01 4.307198e-03 
1.480328e+00 6.801380e-01 -1.527794e+01 -6.143781e+00 1.838104e+00 1.388923e+00 1.586843e+00 -7.090182e+00 -5.385299e-01 3.709917e+00 6.419652e+00 6.346098e+00 -4.292619e-02 8.118868e-01 3.683277e-01 -8.128840e-01 -1.412006e+00 -2.613242e-01 -2.649475e-01 1.601553e-01 6.176125e-01 7.716635e-01 7.332616e-01 1.282598e-01 -1.914802e-01 8.944154e-04 
6.016178e-01 2.186666e+00 -1.298143e+01 -4.706197e+00 1.751534e+00 1.698426e+00 -2.863897e+00 -6.192537e+00 8.564811e-01 -3.107935e-01 3.653051e+00 1.016409e+01 -4.767370e-02 1.249799e+00 -2.163800e+00 -7.093939e-01 -1.187238e+00 -1.421071e+00 2.329133e+00 1.471756e+00 -3.133681e+00 -1.107135e+00 4.880992e-01 -8.646151e-01 7.329541e-01 4.325334e-02 
-2.349190e+00 5.652407e+00 -4.070905e+00 2.748291e+00 5.787194e+00 2.587613e+00 3.342507e+00 4.849538e-01 8.437798e+00 4.994866e+00 5.304226e-01 4.707139e+00 -6.822455e-02 7.483448e-01 -2.070022e+00 5.522180e-01 4.036294e-01 -5.843903e-01 3.512526e+00 1.454879e+00 -3.161026e+00 -8.880598e-01 1.201521e+00 -1.147678e+00 -2.282424e-01 4.822900e-02 
4.196329e+00 -9.062906e+00 -1.365152e+01 -5.812133e+00 -3.252172e+00 1.037481e+01 4.111304e+00 -1.916770e+01 -2.741538e+00 5.598646e+00 2.313863e+00 5.205210e+00 1.685429e-01 -1.726711e-01 -5.918254e-01 8.747559e-01 5.878372e-02 7.190752e-03 1.904110e+00 1.239964e+00 -1.259558e+00 -4.489421e-01 9.933650e-01 2.135968e-02 -3.808949e-01 1.538098e-02 
3.424696e+00 -4.045184e+00 -1.218180e+01 -3.572667e+00 1.418005e+00 1.461336e+01 5.373639e+00 -1.640773e+01 -3.179820e+00 6.762803e+00 1.350859e+00 7.684325e+00 9.011048e-02 -8.379823e-01 1.295906e+00 6.620695e-01 1.593837e-01 2.065817e-01 2.049705e-01 -4.864516e-01 1.693749e+00 1.502213e+00 -5.337104e-01 8.081009e-01 5.972476e-01 -2.154587e-02 
-3.148681e+00 4.076335e+00 -4.552199e+00 -1.251800e+00 3.972081e+00 5.206100e+00 2.320360e+00 -4.043985e+00 4.420579e+00 3.772063e+00 3.349632e+00 6.771020e+00 -4.993629e-02 -2.220823e+00 3.640420e+00 2.536671e+00 2.257370e+00 1.542918e+00 -3.097719e+00 -1.354473e+00 5.339021e+00 4.233575e+00 -3.492652e-01 -9.383090e-01 -6.603851e-01 -6.026884e-02 
-2.866596e+00 5.562318e+00 -5.310217e+00 1.265043e+00 3.207976e+00 6.196819e+00 1.805722e+00 1.391842e+00 1.236780e+01 3.239605e+00 4.053042e+00 6.910472e+00 -6.671429e-02 -8.290960e-01 2.219816e+00 2.063705e+00 2.034322e+00 1.362855e+00 -3.153471e+00 -9.913038e-01 3.282590e+00 2.465985e+00 -1.400161e+00 -9.856148e-01 -1.212190e+00 -3.062465e-02 
-3.762138e+00 4.335441e+00 -4.403954e+00 3.055864e+00 3.567434e+00 -9.055138e-01 -8.771007e-01 -1.372382e+00 1.065252e+01 5.613918e+00 -3.728775e+00 2.290210e+00 -5.438888e-02 2.753653e-01 8.770369e-01 1.795152e-01 2.618718e+00 4.533907e-01 -1.090460e+00 -6.031947e-01 9.087855e-01 -3.405747e-01 -1.246301e+00 -1.414959e+00 -4.216287e-01 3.352965e-02 
-4.140549e-01 6.924342e+00 -1.937397e+00 4.445112e+00 8.434603e+00 1.901818e+00 2.015850e+00 -1.330585e+00 6.034132e+00 -1.158929e+00 -3.801215e-02 3.863778e+00 -6.078649e-02 -1.510804e+00 -1.397148e-01 8.173563e-01 1.626621e+00 -7.314709e-01 -3.996127e-02 -1.250278e+00 -1.198381e-01 -5.968529e-01 -2.494961e+00 -3.843875e-01 4.310978e-01 9.402675e-02 
-2.998125e+00 7.780508e+00 -5.341034e+00 1.025176e+01 3.625722e+00 1.901303e+00 -8.006775e-01 1.861155e+00 5.884542e+00 -2.601738e-01 -1.679638e+00 6.186224e+00 1.147481e-01 -3.658482e+00 -1.762787e+00 1.542245e+00 -2.122698e+00 -1.096165e+00 -7.226898e-01 -1.885440e+00 1.730167e-01 -1.152630e+00 -7.819856e-01 1.590934e+00 3.329853e-01 1.552532e-01 
-1.080262e+01 3.141211e+00 -7.548957e-01 5.800200e+00 -4.785233e-01 4.593604e+00 -4.483881e+00 -8.241171e-01 1.176753e+01 -6.298155e+00 1.106537e+00 7.117954e+00 3.188510e-01 -4.201601e+00 -2.105076e+00 2.190366e+00 -4.135893e+00 -1.380761e+00 -2.590904e+00 -7.612809e-01 6.145394e-01 -1.232150e+00 2.156760e+00 2.095389e+00 -3.150229e-01 1.470706e-01 
-1.686027e+01 -2.586929e+00 2.716020e+00 -8.235172e+00 2.543172e+00 -5.864856e+00 -7.054437e+00 -7.605322e-01 2.022675e+00 4.273603e+00 3.653621e+00 2.328049e+00 5.320585e-01 -6.896372e-01 -1.577964e+00 1.064362e+00 -2.264581e+00 -1.458542e-01 -1.859138e+00 2.152244e+00 -4.053385e-01 -2.301985e+00 1.736343e+00 1.128421e+00 -1.898348e-01 -2.987319e-03 
-1.449099e+01 1.582682e+00 4.985907e+00 -6.990889e+00 2.072072e+00 -7.169622e+00 1.336325e+00 3.052956e+00 1.804313e+00 7.357983e+00 7.772302e+00 4.217751e+00 4.659111e-01 1.876055e+00 -3.131827e-01 -8.585617e-01 3.950000e-01 7.387186e-01 -9.322287e-01 3.039427e+00 -6.957853e-01 -2.088122e+00 2.483142e+00 -8.889791e-01 -1.715586e+00 -1.099875e-01 
-4.602129e+00 6.699529e-01 -2.889627e+00 5.324395e+00 1.621153e+00 -1.512773e+00 7.050438e+00 -2.104074e+00 -6.437750e-01 1.593474e+00 6.295863e-01 6.687151e+00 2.628142e-02 2.954017e+00 8.602784e-01 -1.625867e+00 2.383813e+00 -1.098317e-01 1.350851e+00 2.779397e+00 -9.975873e-01 6.829354e-01 3.781869e-01 -1.227319e+00 -8.457180e-01 -1.559319e-01 
-7.551416e+00 -5.314362e-02 -2.244881e+00 9.954173e-01 3.676079e+00 -2.243581e+00 3.660819e+00 -3.631273e+00 2.660146e+00 7.457621e+00 -1.826341e+00 -3.639527e+00 2.180231e-02 1.677734e+00 2.606507e-01 -2.123227e+00 8.774379e-01 4.094684e-01 1.560876e+00 5.019712e-01 -3.625269e-01 1.169826e+00 -4.361873e-01 -8.566477e-01 8.282504e-02 -1.122900e-01 
-5.559969e+00 2.532376e+00 -1.797921e+00 -3.092611e-01 1.192010e+00 -1.573621e+00 5.680300e+00 -2.406354e+00 5.009435e+00 6.114719e+00 2.316349e+00 2.028098e+00 -2.554679e-02 5.672897e-01 9.736088e-01 -3.891226e-01 -4.537233e-01 1.698329e-01 8.111107e-01 -9.928298e-01 3.205591e-01 1.931968e+00 -2.531774e-01 -3.296968e-01 -2.467246e-01 -2.870188e-02 
-5.623398e+00 1.954724e+00 -6.176082e+00 2.131283e-01 4.333985e+00 6.651795e-01 4.531250e+00 1.391462e+00 4.826837e+00 2.916423e+00 2.645682e+00 6.961403e+00 -6.962490e-02 1.158624e+00 1.449959e+00 -2.204471e-01 -3.794827e-02 -6.792991e-01 6.731813e-01 -4.337175e-01 4.503941e-01 1.595592e+00 -1.342046e+00 -3.016605e-02 1.114003e+00 -2.255974e-02 
-2.729690e+00 4.534063e+00 -2.869639e+00 3.446923e+00 2.141365e+00 1.088400e+00 1.651073e+00 -3.012646e+00 7.932719e+00 2.598186e+00 -3.254910e+00 1.530631e-01 -7.151437e-02 7.894378e-01 1.011901e+00 -2.129524e-01 1.927498e-01 1.821907e-01 9.371573e-01 -1.545090e-01 4.351264e-01 6.381157e-01 -4.396742e-01 3.642803e-01 1.530755e-01 -1.014787e-02 
-3.173436e+00 6.195806e+00 -2.811258e+00 -1.072416e+00 -1.950941e-01 -2.086849e-01 3.506845e+00 -1.076157e+00 9.176464e+00 2.505658e+00 8.084577e-01 2.868006e+00 -6.801260e-02 4.009299e-01 4.572442e-01 -2.960746e-01 -1.785436e-01 5.521801e-01 -2.589174e-01 2.625709e-01 3.200387e-01 -6.075295e-01 -2.099107e-01 1.046509e+00 2.071920e-01 -9.213329e-04 
-2.837761e+00 5.471337e+00 -4.545095e+00 1.297260e+00 4.367503e+00 3.549098e+00 5.419958e+00 1.003087e+00 6.025199e+00 4.121731e+00 5.056363e+00 4.840174e+00 -7.709229e-02 7.021985e-01 -1.412339e+00 1.493053e+00 -6.605667e-01 -1.119364e+00 -4.062597e-02 3.061491e-01 1.517500e+00 -1.308206e+00 -3.930270e-01 1.518694e+00 -2.781711e-01 3.336038e-02 
-3.564713e+00 3.772307e+00 -6.818727e+00 3.952416e-01 5.981816e+00 -1.859757e+00 3.959662e+00 9.837889e-01 2.742949e+00 1.105098e+00 3.722590e+00 5.653808e+00 -7.144260e-02 2.537990e+00 -3.989171e+00 4.925946e+00 -9.601126e-01 -3.968510e+00 -3.766809e-01 -3.323077e+00 2.652803e+00 -2.969934e+00 -3.116078e-02 3.571581e-01 -2.114170e+00 1.994513e-01 
9.769411e-01 -1.315882e+00 6.599362e+00 -5.897398e-01 -6.543911e+00 1.710806e+00 2.955410e+00 3.544879e+00 4.608448e+00 1.333331e+00 2.881496e+00 -2.630693e+00 9.700257e-02 3.621972e+00 -4.614823e+00 5.994617e+00 -2.098388e+00 -7.309584e+00 -1.498871e+00 -5.032060e+00 2.515265e+00 -4.499090e+00 -5.171418e-01 -3.906677e-01 -3.179717e+00 3.048021e-01 
7.609161e+00 -1.035644e+01 1.624624e+01 -4.929479e+00 -1.458193e+01 -1.172944e+00 -1.187626e+01 1.091696e+01 -4.964829e+00 3.744054e+00 3.681682e+00 -3.967408e+00 8.421965e-01 3.535428e+00 -3.585424e+00 5.019336e+00 -2.075153e+00 -6.673710e+00 -1.189064e+00 -4.889288e+00 1.553059e+00 -4.373572e+00 -6.143826e-01 -1.108493e-01 -3.577316e+00 2.994467e-01 
9.685163e+00 -1.053841e+01 1.389551e+01 -6.532320e+00 -2.189854e+01 -4.288664e+00 -1.182238e+01 8.612823e+00 -1.261636e+01 2.165436e-01 3.123478e+00 -6.247804e+00 9.900990e-01 2.486582e+00 -7.699777e-01 7.886076e-01 -3.945463e-01 -3.150316e+00 -1.499933e+00 -3.041131e+00 -5.871478e-01 -3.707441e+00 -8.101174e-01 3.203220e-01 -1.948305e+00 1.762992e-01 
9.758314e+00 -9.543550e+00 1.462988e+01 -7.009235e+00 -1.970942e+01 -4.805343e+00 -1.309788e+01 6.215111e+00 -1.051250e+01 -1.408422e+00 3.047352e+00 -1.042422e+01 9.792427e-01 1.102257e+00 1.773249e+00 -1.476943e+00 1.398505e+00 -6.941503e-01 -1.197244e+00 7.323863e-01 -2.673834e+00 -1.337974e+00 -3.992550e-01 -5.347891e-01 -9.228075e-01 5.588687e-03 
1.233528e+01 -5.572214e+00 1.135058e+01 -1.522593e+00 -1.973175e+01 -3.972662e+00 -1.163943e+01 2.960065e+00 -1.115492e+01 -1.410182e-01 4.800271e+00 -9.143811e+00 9.099754e-01 6.614114e-01 1.783312e+00 -8.004234e-01 1.944372e+00 3.948646e-01 -3.165131e-01 8.314444e-01 -2.317884e+00 -2.721950e-01 5.545006e-01 -8.417729e-01 1.593811e-01 -2.043588e-02 
1.179539e+01 -3.973289e+00 1.013399e+01 -4.418154e-01 -1.913608e+01 -7.317164e+00 -8.305805e+00 3.741720e-01 -1.238542e+01 1.926560e+00 1.693399e-01 -7.133442e+00 9.102017e-01 3.725414e-01 1.165100e+00 -1.359927e-01 1.526343e+00 1.508017e-01 -1.473589e-01 7.179269e-01 -1.675483e+00 -1.131680e+00 6.117417e-01 -5.994390e-01 5.239012e-01 -9.071827e-03 
1.197368e+01 -4.406981e+00 1.214134e+01 -9.416842e-02 -2.021089e+01 -4.615318e+00 -1.006119e+01 -5.612701e-02 -1.304088e+01 1.321556e+00 3.536199e-01 -7.096286e+00 9.224401e-01 -1.664202e-01 3.312151e-01 9.497061e-01 5.230638e-01 1.268028e-01 4.619956e-01 -2.204241e-01 -1.277076e+00 -1.009449e+00 -2.688607e-01 9.339380e-03 -3.951300e-01 4.512757e-03 
1.180182e+01 -4.300667e+00 1.355454e+01 -9.173000e-02 -1.871584e+01 -5.220809e+00 -1.029737e+01 -6.542077e-01 -1.522792e+01 9.189994e-01 2.273483e+00 -8.828474e+00 9.276512e-01 -3.016376e-01 2.400103e-02 1.572234e+00 2.802153e-01 2.756178e-01 1.106890e+00 -9.766915e-01 -1.121750e+00 -8.455025e-01 -1.017417e+00 1.209745e+00 -1.005297e+00 4.627717e-03 
1.149996e+01 -3.752449e+00 1.438884e+01 9.176831e-01 -1.930786e+01 -2.710862e+00 -1.174577e+01 -2.911124e+00 -1.478091e+01 -9.815412e-01 3.794896e+00 -1.027194e+01 9.238144e-01 -5.762233e-01 8.729734e-02 1.738902e+00 3.665199e-01 3.947479e-01 1.146085e+00 -1.370250e+00 -7.218415e-01 -1.149323e+00 -5.990985e-01 8.450510e-01 -5.356766e-01 3.099614e-03 
1.052406e+01 -4.180550e+00 1.687141e+01 4.533352e-01 -1.820951e+01 -2.734941e+00 -1.234697e+01 -3.807077e+00 -1.574292e+01 -2.008975e+00 4.497426e+00 -1.057210e+01 9.326531e-01 -6.060342e-01 -2.856874e-01 2.564067e+00 -1.022172e-01 3.982469e-01 1.073316e+00 -1.740668e+00 -5.870616e-02 -1.311398e+00 -3.030612e-01 2.447547e-01 -8.311768e-02 4.304552e-03 
9.731444e+00 -4.030552e+00 1.917741e+01 1.465898e+00 -1.849031e+01 -1.278272e-01 -1.588764e+01 -2.088900e+00 -1.853000e+01 -2.099497e-01 3.466904e+00 -8.902858e+00 9.354372e-01 -4.168922e-01 -6.443781e-01 2.801212e+00 -7.496924e-01 6.827706e-01 -1.776341e-01 -5.841802e-01 1.722983e-01 -1.206221e+00 -1.008648e-01 -3.482512e-01 4.393387e-02 1.816678e-03 
9.655906e+00 -5.590053e+00 2.398059e+01 -8.769233e-01 -1.713338e+01 -1.145748e+00 -1.692977e+01 -1.358850e+00 -1.991037e+01 -9.821024e-01 3.661252e+00 -9.928606e+00 9.433626e-01 1.109924e-01 -4.697897e-01 2.648849e+00 -1.091698e+00 5.547192e-01 -7.959183e-01 2.599743e-01 3.533908e-01 -6.330135e-01 1.450791e-01 1.192953e-01 -7.227091e-01 -1.643004e-02 
9.849579e+00 -6.269588e+00 2.484031e+01 -2.165650e+00 -1.643207e+01 -4.393629e+00 -1.237527e+01 -3.273745e+00 -1.872829e+01 -1.999301e+00 2.471727e+00 -1.037402e+01 9.275430e-01 2.987203e-01 -3.209175e-01 2.119160e+00 -1.226665e+00 -5.433254e-02 -1.612501e+00 5.951168e-01 -1.597117e-01 -1.600964e-01 -7.093779e-01 1.390874e+00 -1.180494e+00 -2.953104e-02 
1.101996e+01 -5.409981e+00 2.728421e+01 -3.189379e+00 -1.646503e+01 -4.581632e+00 -1.280329e+01 -1.447701e+00 -1.880884e+01 -3.889031e-01 5.591490e+00 -1.345006e+01 8.544499e-01 1.039880e-01 4.652196e-01 5.682754e-03 3.434273e-01 3.379021e-02 -1.866392e+00 7.178079e-01 2.461025e-01 1.055083e+00 -1.858343e+00 1.371478e+00 -6.703261e-01 -6.063695e-02 
1.054302e+01 -5.725176e+00 2.812140e+01 -3.511199e+00 -1.909615e+01 -6.472387e+00 -1.497530e+01 -2.843033e+00 -1.988124e+01 -4.053439e+00 9.456155e+00 -1.304460e+01 8.322383e-01 -1.967532e-01 5.193508e-01 -7.824301e-01 1.423792e+00 -3.146587e-01 -1.297048e+00 1.584696e-01 6.805891e-01 1.238219e+00 -2.851011e+00 2.494324e+00 -2.967364e-01 -7.694635e-02 
9.829124e+00 -3.536160e+00 2.236846e+01 1.512988e+00 -1.563239e+01 -9.438328e+00 -1.204072e+01 -3.436940e-01 -1.405848e+01 -9.246748e+00 7.026429e+00 -1.194495e+01 6.878302e-01 -6.844395e-01 3.571656e+00 -3.821254e+00 2.686120e+00 2.569607e+00 -4.691241e-01 1.746775e+00 -2.014144e+00 2.769567e+00 -2.534522e+00 -1.595656e+00 7.148900e-01 -1.387914e-01 
9.461229e+00 -4.609744e+00 2.338603e+01 2.602127e+00 -1.842169e+01 -8.450519e+00 -1.196421e+01 -4.228028e-01 -1.491237e+01 -1.182543e+01 1.422588e+01 -1.261026e+01 6.261212e-01 -2.380737e+00 2.697287e+00 -3.070108e+00 2.658828e+00 5.350972e+00 1.930473e+00 2.707172e+00 -1.878080e+00 2.860034e+00 -1.011854e+00 -4.650464e+00 1.037071e+00 -1.610641e-01 
8.138655e+00 1.189058e+01 1.054562e+01 7.184559e+00 -3.954231e+00 -5.938187e+00 -5.574956e+00 -1.272854e+01 -7.445440e+00 -9.175518e+00 -4.771654e+00 -1.009278e+01 2.635517e-01 -2.798258e+00 2.521629e+00 -3.297091e+00 1.357319e+00 5.170676e+00 3.099967e+00 2.375900e+00 -1.872682e+00 2.955786e+00 2.450748e+00 -3.442516e+00 2.635474e+00 -1.776724e-01 
-5.154314e-01 4.788780e-02 1.868228e+01 6.947154e+00 1.819634e+00 1.429908e+00 -4.672319e+00 -6.041011e+00 -8.887594e+00 -9.148322e+00 -7.897123e+00 -8.785326e+00 2.390571e-01 -3.138273e+00 2.011778e+00 -5.331292e+00 -2.196339e-01 4.645219e+00 1.996528e+00 2.712647e+00 8.939580e-01 3.780591e+00 2.805884e+00 -1.943437e+00 4.984241e+00 -1.640619e-01 
8.261662e-01 6.743169e+00 8.234879e+00 6.127069e+00 1.003323e-01 1.121293e+00 -3.807166e+00 -6.898000e+00 -2.291937e+00 1.668436e+00 8.753515e-01 -6.800437e-01 -6.999493e-03 -2.659425e+00 -6.032231e-01 -5.102916e+00 -1.450959e+00 1.964630e+00 1.425308e+00 1.770763e+00 3.164653e+00 3.660139e+00 2.535326e+00 1.567618e+00 3.769699e+00 -9.609529e-02 
-2.573891e+00 8.022856e+00 -2.115054e+00 2.032703e+00 2.777126e+00 -1.997618e+00 7.151325e-01 1.131719e+00 1.413833e+00 -3.217988e+00 1.685191e+00 7.604581e+00 -5.891263e-02 -9.813324e-01 9.830648e-01 -5.904971e+00 -1.140487e+00 1.344370e+00 4.881262e-01 1.656892e+00 1.573732e+00 3.516480e+00 2.258104e+00 5.822009e-01 2.029758e+00 -6.815036e-02 
-4.129240e+00 4.886983e+00 -4.570292e+00 2.386992e+00 5.390172e+00 2.902113e+00 5.851326e-01 -4.916374e-01 5.704540e+00 5.359454e-01 -1.724723e+00 5.607622e-01 -6.793988e-02 -9.177259e-01 -7.225057e-01 -2.562742e+00 -1.017437e+00 1.140909e+00 8.439964e-01 1.400019e+00 4.514274e-01 1.958773e+00 8.046167e-01 -5.539053e-01 -2.819045e-01 -1.257064e-02 
-2.944390e+00 5.891304e+00 -4.439988e+00 3.114759e+00 5.896564e+00 2.980129e+00 1.415994e+00 -1.375531e+00 4.696567e+00 2.708444e+00 -3.686081e+00 7.430615e-01 -7.122457e-02 -1.362303e-01 -8.273617e-01 -4.934812e-01 -5.409968e-02 1.996665e-01 4.289761e-01 6.557450e-01 -1.051470e-01 1.763951e+00 1.515591e+00 1.455325e+00 -7.735523e-01 -4.738093e-04 
-3.577213e+00 4.196416e+00 -3.416364e+00 4.988574e-01 4.245160e+00 2.852401e+00 2.842497e+00 -3.387238e+00 5.860559e+00 2.728305e+00 7.914611e-01 1.341194e+00 -6.369674e-02 3.819875e-01 -3.435109e+00 3.882034e-01 -2.326759e+00 1.721548e-01 -1.071724e+00 5.567870e-01 1.264122e+00 3.289953e-01 1.575616e-01 1.621861e+00 9.259439e-01 1.361324e-01 
-3.531055e+00 4.231330e+00 -5.159424e+00 2.706272e+00 4.347964e+00 1.721184e-01 2.865176e+00 2.053784e+00 1.015558e+01 3.263787e+00 7.703725e+00 3.346603e+00 -6.340325e-02 -8.582195e-01 -3.594783e+00 4.906636e-01 -3.447063e+00 8.398434e-01 -1.703893e+00 9.965192e-02 1.876417e+00 -7.359427e-01 -5.471104e-01 4.580562e-01 1.367904e+00 2.814957e-01 
-1.925970e+00 -1.145858e+01 -2.269557e+00 -9.042559e+00 7.025247e+00 -1.052504e+00 2.644476e+00 4.114314e+00 4.620010e+00 1.046082e+00 6.896762e-01 3.888711e+00 6.088115e-01 -1.486368e+00 -8.219656e-01 9.219515e-01 -3.305988e+00 4.790178e-01 -2.618162e+00 5.337544e-01 2.177168e+00 -1.515443e+00 8.402012e-02 -9.606014e-01 9.884187e-01 3.155246e-01 
-8.061110e+00 -4.255114e+00 -2.560074e+00 -9.349848e+00 8.705738e+00 -3.586884e+00 2.013264e+00 4.255777e+00 1.637127e+00 8.140029e-01 -1.344908e+00 6.308824e+00 1.000000e+00 -2.766027e+00 1.279631e+00 1.417428e+00 -2.750956e+00 2.293949e-01 -1.785828e+00 5.599383e-01 1.464694e+00 -1.675454e+00 -7.406853e-01 -5.808951e-01 1.004439e+00 2.438213e-01 
-8.744026e+00 4.329809e+00 -1.062815e-01 -1.000302e+01 4.461362e+00 -8.358910e+00 5.937225e+00 6.397609e+00 2.542570e+00 4.373298e+00 5.127705e-01 4.802177e+00 9.822245e-01 -3.070591e+00 3.059679e+00 1.344560e+00 -2.441813e-01 3.179962e-01 -1.241767e-01 1.208787e+00 5.369152e-01 -1.056193e+00 -7.387064e-01 1.767231e+00 4.358568e-01 6.818615e-02 
-1.395216e+01 2.735291e+00 8.460786e-01 -1.056828e+01 6.776881e+00 -5.103818e+00 4.018493e+00 8.235609e+00 2.817027e+00 -2.103248e+00 4.887702e+00 7.912063e+00 9.689966e-01 -1.337388e+00 -2.802939e-01 9.594286e-01 -3.441433e-01 -4.821493e-01 7.127647e-01 1.777476e+00 9.447325e-01 2.902055e-03 -5.295128e-01 2.213964e+00 3.662766e-01 -2.966955e-02 
-1.433340e+01 3.446175e-01 2.750167e+00 -9.654253e+00 9.579657e+00 -9.149206e-01 7.685796e+00 4.808973e+00 -1.250902e+00 -1.188825e+00 6.409525e+00 5.266375e+00 9.652439e-01 7.849213e-01 -2.378477e+00 4.214190e-01 1.041053e+00 -6.371139e-01 7.086618e-01 2.053555e+00 1.439868e+00 -7.446430e-02 -1.875997e-01 4.523053e-01 6.936097e-02 -5.792494e-02 
-1.195336e+01 -3.663987e+00 8.088448e-01 -1.124495e+01 3.735845e+00 -3.745055e+00 1.002636e+01 9.773757e+00 3.548374e+00 9.474999e-01 6.776536e+00 7.908107e+00 8.601425e-01 2.726808e+00 -2.245640e+00 2.130614e-01 2.032722e+00 -1.782421e+00 -2.819512e-01 1.376201e+00 4.482937e-02 -1.178962e+00 8.657280e-01 -2.515731e+00 -1.671941e+00 -8.167615e-02 
-5.818821e+00 -4.362935e+00 2.019430e+00 -4.459419e+00 2.796310e+00 -5.494982e+00 1.320107e+01 1.282788e+01 1.804575e+00 1.909925e+00 1.829880e+00 5.150960e+00 7.470268e-01 3.228236e+00 -2.507364e+00 -9.224180e-01 1.995977e+00 -1.565484e+00 -1.008949e+00 8.584766e-02 -7.589067e-01 -9.156200e-01 4.252826e-01 -3.180922e+00 -1.611068e+00 -9.440514e-02 
-4.575415e+00 -6.139133e+00 2.276754e+00 -3.002081e+00 1.256450e+00 -4.223543e+00 8.141863e+00 4.450305e+00 -4.605522e+00 6.760173e-01 -5.401131e+00 -3.899331e-01 6.697245e-01 2.888426e+00 -1.765470e+00 -7.543196e-01 6.444033e-01 4.311070e-01 5.086024e-01 -6.051514e-01 -1.603675e+00 -1.060161e+00 -5.577650e-01 -3.348061e+00 -1.979267e+00 -9.043697e-02 
-1.881194e+00 -1.095463e+01 -2.595877e+00 -3.795800e+00 2.991932e+00 -5.720419e+00 9.057281e+00 3.676166e+00 -1.752054e+00 1.073329e+00 -3.406250e+00 1.360055e+00 5.884272e-01 1.791161e+00 -1.337736e+00 -8.174911e-01 -4.980636e-02 8.703766e-01 1.314441e+00 -2.106834e+00 -2.307617e-01 1.553328e-01 -9.933899e-01 -2.447909e+00 -1.659619e+00 -7.830880e-02 
5.199537e-01 -9.195488e+00 -6.550994e-01 -8.354742e+00 5.793569e+00 -1.089325e+00 9.072495e+00 6.331237e+00 2.588463e-02 -1.423027e+00 -7.345703e+00 -9.277415e-02 4.872575e-01 1.541810e+00 -4.290239e-01 6.333634e-01 -3.958295e-02 1.137542e+00 -1.005712e-01 -2.201568e+00 1.308008e+00 6.121898e-01 -2.348955e-01 -4.901424e-01 -4.746494e-01 -6.100892e-02 
5.892992e-01 -9.523440e+00 -6.020982e-01 -2.032120e+00 4.879634e+00 -4.898877e-01 2.201579e+00 1.073360e+01 2.655363e-01 -2.007502e+00 -9.437379e+00 -3.295717e+00 4.467163e-01 1.055652e+00 4.693583e-01 1.250677e+00 1.977586e-01 4.268886e-01 -1.984000e+00 -2.442706e+00 6.330506e-01 -3.745553e-01 -4.624445e-02 3.298658e-01 -8.710970e-01 -4.525254e-02 
1.898387e+00 -8.999847e+00 4.446681e+00 -4.081836e+00 6.000309e+00 -7.341664e+00 5.618761e-01 7.461627e+00 -2.553368e+00 1.041955e+00 -4.836278e+00 -4.352939e-01 4.355353e-01 7.709411e-01 1.237198e-01 1.545063e-01 3.760006e-01 -4.251367e-01 -2.452569e+00 -2.149279e+00 -3.108765e-01 -1.891510e+00 -1.137481e+00 7.051519e-01 -1.775866e+00 -3.539590e-02 
2.707848e+00 -8.705659e+00 1.106617e+00 -4.943460e+00 5.023005e+00 -1.251425e+01 1.099062e+00 6.276224e+00 -2.335205e+00 -3.903841e-01 -3.011632e+00 -2.824170e+00 3.880256e-01 5.797350e-01 -8.726025e-03 -5.822590e-01 -2.341159e-01 -1.852597e-01 4.655925e-01 1.282586e-01 2.473477e-01 -5.170315e-01 -9.453232e-01 -1.374751e-01 -1.742668e+00 -3.830410e-02 
3.315385e+00 -8.985780e+00 -7.369258e-01 -5.019069e+00 3.596200e+00 -7.339990e+00 -1.122642e+00 7.005543e+00 -8.131294e+00 -7.918993e+00 -7.032816e+00 -9.207877e+00 3.396233e-01 -1.306596e-01 -3.930476e-01 -1.869430e+00 6.271237e-01 6.021401e-02 3.047724e+00 -3.734504e-01 1.641649e+00 1.557438e+00 -7.148608e-01 -8.606483e-01 -1.084348e+00 -4.472094e-02 
2.779475e+00 -9.574104e+00 -9.215896e-01 -2.734083e+00 5.155390e+00 1.837238e+00 3.685131e+00 1.219838e+01 4.693422e-01 -2.253644e+00 -9.026485e+00 -7.622765e+00 3.031518e-01 -3.675075e-01 -3.844934e-01 -2.036824e+00 1.219850e+00 8.424361e-02 1.948201e+00 -5.197616e-01 1.592705e+00 3.226699e+00 -2.697009e-01 -2.615229e-01 3.826318e-02 -4.760246e-02 
1.209275e+00 -1.053086e+01 -3.886366e+00 -2.050905e+00 6.235187e+00 7.212130e-01 -2.598410e+00 1.270879e+01 3.831551e+00 -1.600719e+00 -6.132094e+00 -3.457736e+00 2.543675e-01 2.463405e-01 5.991309e-01 -2.161510e+00 2.263457e+00 7.736903e-01 7.771491e-01 -9.013347e-02 2.249833e-01 3.326292e+00 5.662707e-01 8.975687e-01 4.898226e-01 -5.084832e-02 
1.923365e+00 -9.855584e+00 -7.502781e+00 -3.282924e-01 4.124730e+00 -6.803846e+00 -7.618620e-01 1.138812e+01 7.816871e+00 -4.898026e+00 -4.769608e+00 -5.507925e+00 1.926413e-01 7.991090e-01 1.726009e+00 -1.901180e+00 2.026241e+00 -5.983296e-01 -3.419835e-01 1.035314e-01 -1.445071e+00 4.903397e-01 -1.246251e+00 6.791500e-01 -6.439511e-01 -5.889958e-02 
4.975142e+00 -5.849385e+00 -8.253881e+00 5.095323e+00 7.979981e+00 8.662972e-01 6.501868e-01 8.535589e+00 4.826399e+00 -3.765448e+00 -4.673411e+00 -7.816184e+00 1.406370e-01 8.773662e-01 2.654943e+00 -8.220732e-01 2.098368e+00 -7.347035e-01 5.002430e-01 2.099144e+00 -1.741754e+00 -1.774769e-01 -1.260590e+00 -4.915040e-01 -9.734138e-01 -5.949862e-02 
4.892087e+00 -3.284799e+00 -8.243730e+00 3.824009e+00 1.291345e+00 5.477810e-02 2.578489e+00 7.059626e+00 2.423616e+00 -7.402534e+00 -6.360076e+00 -8.663296e+00 6.551915e-02 -1.281360e-01 2.236584e+00 1.658043e-01 1.667259e+00 2.656682e-01 2.400239e+00 1.719355e+00 -2.885404e+00 -1.454433e+00 -3.221698e-02 -1.289031e+00 -4.176450e-01 -4.675705e-02 
4.111746e+00 -5.415397e-01 -7.626258e+00 6.364782e+00 3.978362e+00 -2.068844e-01 6.227132e+00 6.164271e+00 5.640794e+00 -6.651417e+00 -7.794380e+00 -6.747119e+00 2.043551e-02 -1.138512e+00 7.227165e-01 -6.676456e-01 -1.062655e-01 3.739854e-01 1.573608e+00 1.268058e+00 -2.455952e+00 -2.286053e-03 1.494085e+00 -3.072385e-01 1.172107e+00 -3.929707e-02 
1.714383e+00 -1.326585e+00 -6.987571e+00 7.373274e+00 7.453880e+00 5.733940e+00 5.046442e+00 -1.853238e+00 1.375093e-01 -3.616127e+00 -9.654277e+00 -8.130682e+00 1.895672e-02 -1.014701e+00 5.329075e-01 -1.024367e+00 -6.801429e-01 1.189251e+00 2.695883e+00 1.218419e+00 -1.305644e+00 3.813564e-02 2.153560e+00 7.092812e-01 2.320002e+00 -2.349860e-02 
8.714333e-01 -3.214910e+00 -1.222019e+01 2.789362e+00 6.768641e+00 5.894754e+00 5.756502e+00 7.122608e-01 5.958023e+00 1.811771e+00 -4.562504e+00 -2.221957e+00 -3.256714e-02 -4.105927e-01 1.182229e+00 -6.822239e-01 -2.094820e+00 -1.067965e+00 8.041011e-01 -6.865919e-01 -1.638566e+00 -1.088226e+00 7.091588e-01 1.118310e+00 1.485501e+00 -1.486285e-02 
1.438736e+00 7.164241e-01 -1.106860e+01 2.211005e+00 5.842462e+00 1.048338e+01 8.905899e+00 3.257411e+00 2.455680e+00 -8.663273e-01 -4.429608e+00 6.741343e-01 -2.547252e-02 -9.529648e-02 1.918097e+00 2.381507e-01 -1.771059e+00 -1.870995e+00 -1.077105e+00 -1.065478e+00 -5.062222e-01 4.796779e-01 1.919628e-01 9.640819e-01 1.398824e+00 -9.203124e-03 
2.196606e+00 4.348104e+00 -8.996863e+00 -1.528182e+00 -5.557556e-01 1.438903e+00 8.644438e-01 -4.583885e+00 -9.594197e-01 -4.480522e+00 -4.815164e+00 -3.722023e+00 -3.166413e-02 -1.642425e-01 1.732056e+00 7.875750e-01 -1.376633e-01 -1.281718e+00 -7.190961e-01 -3.905277e-01 1.181964e-01 5.319141e-01 -1.356405e-01 2.382637e-01 1.187617e+00 7.651997e-03 
5.753145e-01 4.482395e+00 -7.408480e+00 6.767527e-01 1.761103e+00 2.576343e+00 2.165082e+00 -1.736277e+00 5.994620e+00 4.898342e-01 -4.707537e+00 -3.865304e-01 -2.751040e-02 -5.651970e-02 6.774743e-01 6.287562e-01 -4.206972e-02 -6.531368e-01 -1.405588e-01 -4.443410e-01 -9.370856e-01 3.213709e-01 6.129906e-01 1.036130e-01 7.385644e-01 3.474146e-03 
4.819317e-01 3.562384e+00 -1.011237e+01 2.868172e+00 2.400731e+00 6.252790e+00 7.174273e+00 3.800087e+00 6.848123e+00 4.554877e-01 -3.232221e+00 4.246460e+00 6.711781e-03 -4.095345e-02 9.604616e-02 6.725847e-01 3.032574e-01 6.039434e-01 1.561166e+00 7.152156e-01 3.183538e-01 8.332564e-01 1.007955e+00 1.040965e+00 1.421415e+00 -7.772124e-03 
2.013474e+00 4.496655e+00 -7.367064e+00 -1.975210e-01 1.098534e+00 7.373638e+00 3.529279e+00 -5.620002e+00 1.587629e-01 -2.693793e-01 -4.703015e+00 3.827145e-01 -2.728975e-02 9.189586e-02 2.761729e-01 1.885879e+00 6.011299e-01 6.693581e-01 9.575149e-01 1.683325e-01 -1.402790e+00 -1.190956e+00 1.499987e-01 1.704684e+00 9.000980e-01 -1.579099e-02 
1.272758e+00 4.821204e+00 -5.654648e+00 4.252424e-01 2.795246e+00 6.846084e+00 3.758423e+00 -1.050253e+00 6.124790e+00 9.388578e-01 3.873986e-01 3.000428e+00 -7.063508e-02 -2.288673e-01 3.167029e-01 1.698349e+00 6.893246e-01 1.000950e+00 -2.060449e-01 -1.388115e+00 -2.681840e+00 -1.949600e+00 -1.158744e+00 2.069069e-01 -2.734667e-01 -1.580610e-02 
6.393805e-01 5.233850e+00 -2.079480e-01 4.903867e+00 4.910636e+00 7.067271e+00 4.714669e+00 -6.325059e+00 4.015045e-01 9.981426e-01 2.006073e+00 4.736975e+00 -6.779194e-02 -5.812690e-01 2.178955e-01 7.530357e-01 5.137694e-01 1.002197e+00 -3.565259e-01 3.250714e-01 -1.764000e-01 -1.082331e+00 -7.353166e-01 -2.563157e-02 6.261303e-01 -7.914198e-03 
2.464199e-02 4.777302e+00 -5.200187e+00 3.764101e+00 5.499430e+00 5.375749e+00 -3.589952e-01 -9.256583e+00 -3.021246e+00 -5.971992e+00 -5.552230e+00 7.019958e-01 -5.206764e-02 -1.774539e-01 2.393112e-01 -7.363034e-01 -2.403128e-01 3.306497e-01 3.670948e-01 4.302412e-01 -1.568199e-01 -4.847903e-01 -3.623426e-01 -1.809420e+00 -7.854225e-01 1.242502e-02 
-2.688122e-01 5.608084e+00 -3.829116e+00 7.018967e-01 4.757429e+00 6.326176e+00 7.213346e+00 -2.398838e+00 -6.798739e-01 -4.905375e-01 -1.861358e+00 4.662582e+00 -7.614446e-02 2.431011e-01 -7.580539e-01 -1.696981e+00 9.372132e-02 6.289643e-02 -6.203384e-01 4.837008e-01 2.501866e+00 1.909997e+00 1.605744e-01 -9.999638e-01 -1.286351e-01 1.009554e-02 
8.395853e-01 5.830643e+00 -7.525581e+00 1.324663e+00 4.525098e+00 9.052106e+00 4.660291e+00 -3.797463e+00 4.241528e+00 -1.285149e-01 -6.725987e+00 -8.894875e-01 -4.333735e-03 7.348673e-01 -1.031935e+00 -8.049434e-01 1.247907e+00 -3.257980e-01 -1.231570e+00 -1.429210e-01 1.277110e+00 1.522668e+00 -9.513459e-02 -1.523061e-01 1.147763e+00 7.976925e-03 
1.447414e+00 9.169094e-01 -7.530153e+00 6.592192e+00 5.712284e+00 2.127401e+00 4.623530e+00 3.454708e+00 6.320103e+00 -1.120724e+00 -2.406867e+00 4.889542e+00 -4.118121e-02 2.405834e-02 -6.203518e-01 -3.805490e-01 1.090777e+00 -2.512420e-01 -2.061734e+00 -1.642225e+00 -9.357117e-01 1.856583e-01 -1.485711e+00 7.050905e-02 3.320576e-01 2.407062e-03 
2.840865e+00 1.963215e+00 -7.374386e+00 7.058491e+00 3.393012e+00 1.317289e+00 2.213075e-01 -5.797806e+00 1.092103e+00 -6.132572e+00 -6.041007e+00 6.327332e+00 -2.966464e-02 -5.030588e-01 4.218046e-01 6.801046e-01 -6.149743e-01 -7.018607e-01 -1.558697e+00 -1.484037e+00 -1.068605e+00 -5.119220e-01 -5.520294e-01 6.066914e-01 3.998331e-01 -1.140091e-02 
-1.149160e+00 4.440040e+00 -5.807459e+00 3.288866e+00 4.067262e+00 -1.150875e-01 1.221715e+00 -6.077224e+00 1.823130e+00 -4.917062e+00 -1.851303e+00 2.714460e+00 -5.144370e-02 -6.351631e-01 1.317056e+00 2.258555e-01 -1.937072e+00 -9.519885e-01 3.280058e-01 -4.460279e-01 -5.267905e-01 -9.463784e-01 -5.399556e-01 3.397519e-01 -7.156962e-01 -1.724720e-04 
-3.774214e-01 6.178101e+00 -4.986406e+00 -9.854484e-02 1.838305e+00 2.379866e+00 -1.058985e+00 -4.374523e+00 3.930405e+00 -9.904927e-01 -3.970312e+00 2.197219e+00 -5.620706e-02 -7.609357e-01 8.803414e-01 3.962273e-01 -1.265729e+00 -5.014628e-01 2.908730e-01 3.225060e-01 1.457296e+00 8.831161e-01 9.765778e-01 1.253194e+00 -6.274611e-01 -1.794255e-03 
-1.192579e-01 5.394746e+00 -7.594866e+00 4.853488e-01 1.729695e+00 3.236141e+00 3.033537e+00 1.091143e-01 1.690607e-01 -6.391541e+00 -1.743455e+00 3.376117e+00 -2.877235e-02 -3.652205e-01 -5.425950e-01 2.675396e-01 -1.721253e-01 -2.035236e-03 1.096606e-01 6.226059e-01 4.708304e-01 2.204840e-01 2.152410e-01 1.994654e-01 -2.551213e-01 -3.394711e-03 
-1.478765e+00 5.887568e+00 -4.499546e+00 2.131605e+00 2.054481e+00 1.096039e+00 9.279263e-01 -1.604496e+00 6.334718e+00 -5.124439e-01 1.710411e-01 2.859199e+00 -4.997158e-02 -6.399673e-01 -1.213396e+00 3.428105e-01 3.651233e-01 6.440688e-01 -4.770486e-01 9.108298e-01 -6.684327e-01 -2.859690e-01 -3.867118e-01 9.101200e-02 -4.446963e-01 -7.341850e-03 
-2.424591e+00 1.872330e+00 -4.713191e+00 1.313164e+00 3.948998e+00 1.075129e+00 3.341289e+00 -5.108086e+00 1.723393e+00 -4.079882e+00 -2.924653e+00 1.107864e+00 -7.153499e-02 -5.556493e-01 -1.106007e+00 5.549704e-01 8.371894e-02 6.333123e-01 -4.342936e-01 3.028865e-01 -1.393799e+00 -1.502659e-01 1.055882e-01 -5.458091e-01 -6.287841e-01 -1.070887e-02 
