-1.125372e+01 3.009954e+00 -3.251976e+00 2.536336e+00 2.714696e+00 -1.731946e+00 8.128376e+00 4.026216e+00 7.619617e+00 4.479192e+00 2.193709e+00 5.278343e+00 2.541733e-02 1.750416e-01 4.966218e-01 9.611403e-01 5.814230e-01 7.409834e-01 -5.490404e-02 -1.519397e+00 -7.438747e-01 1.507403e-01 9.658501e-01 2.726519e-02 -6.032275e-01 1.123011e-03 
-1.004701e+01 3.495923e+00 -3.964789e-01 3.999173e+00 3.447510e+00 -1.731281e+00 3.498940e+00 3.594332e+00 9.349953e+00 8.450782e+00 2.228284e+00 3.245320e+00 1.542902e-02 6.579647e-02 6.139037e-01 8.835270e-01 6.915082e-01 4.828205e-01 4.468958e-01 -1.468798e+00 -1.080157e+00 4.888671e-02 8.430023e-01 5.642207e-02 1.385590e-01 4.645056e-03 
-1.098186e+01 5.250079e+00 1.259776e-01 4.712033e+00 6.053206e+00 -2.006799e+00 2.846110e+00 5.227838e-01 7.508150e+00 7.322646e+00 2.312748e+00 3.278718e+00 3.602654e-02 1.694279e-02 5.672175e-01 6.504606e-02 9.490040e-01 8.294479e-01 -1.664649e-01 -1.076376e+00 -4.373837e-01 -5.354180e-02 5.989077e-01 1.339653e-01 2.058167e-01 8.384043e-03 
-1.106066e+01 4.959410e+00 -5.233172e-01 4.906029e+00 3.459544e+00 6.399593e-01 3.425518e+00 3.771476e-01 7.919783e+00 7.272476e+00 2.416300e+00 6.970951e+00 4.333800e-02 1.004837e-01 3.021244e-01 -5.154165e-01 1.076106e+00 7.952813e-01 -9.675071e-02 -8.917792e-02 9.981068e-01 -6.289742e-01 -4.935174e-02 2.606445e-01 1.963105e-01 1.569941e-02 
-1.066218e+01 5.114298e+00 -2.863326e+00 6.827928e+00 6.855919e+00 -3.749891e+00 2.783205e+00 3.447889e+00 8.066992e+00 8.062883e+00 2.769528e+00 4.444612e+00 5.338305e-02 2.869750e-01 -2.118865e-01 -7.221799e-01 -2.147068e-01 8.953259e-02 3.987422e-01 3.300423e-01 1.372794e+00 -2.688870e-01 1.693906e-01 5.794876e-01 3.176691e-01 5.856752e-05 
-9.704432e+00 5.074435e+00 -1.478910e+00 8.321754e+00 7.022560e+00 -1.343489e+00 3.084503e+00 7.122313e+00 5.925660e+00 7.833905e+00 3.303117e+00 3.643926e+00 8.524781e-02 1.893716e-01 -2.009686e-01 -3.325706e-01 -1.021464e+00 -3.522314e-01 6.190710e-01 1.251374e+00 1.046750e+00 -2.360535e-01 -5.887776e-01 4.451641e-01 -5.075885e-01 -4.552973e-03 
-1.022510e+01 4.133134e+00 -3.007125e+00 1.930637e+00 4.719361e+00 9.786364e-01 4.666830e+00 4.014173e+00 7.160776e+00 7.888885e+00 4.766778e+00 6.530576e+00 1.536447e-02 -5.462551e-02 1.619885e-02 -8.373185e-02 -1.658468e+00 -9.711793e-01 8.560718e-01 1.141759e+00 1.072023e+00 2.134112e-01 -1.505644e+00 -3.297539e-01 5.991585e-02 -6.667733e-04 
-1.033234e+01 4.445149e+00 -2.114270e+00 2.247355e+00 2.766665e+00 1.371051e+00 8.740576e+00 5.327756e+00 7.192623e+00 4.415587e+00 3.643496e+00 3.390027e+00 3.958243e-02 -3.220016e-01 -4.087882e-02 -3.124563e-01 -1.035749e+00 -6.070906e-01 2.328808e-01 5.561249e-01 1.260700e-02 2.687078e-01 -2.051280e-01 -9.092341e-02 -5.137653e-02 1.316917e-03 
-1.062135e+01 5.509935e+00 -2.964305e+00 1.572786e+00 4.127970e+00 -8.268014e-01 5.663964e+00 9.705283e+00 8.500566e+00 2.243821e+00 9.505683e-01 4.871140e+00 7.288188e-02 -2.359965e-01 4.069780e-01 4.810188e-01 7.993950e-01 3.588531e-01 -5.776473e-01 -1.518321e-01 -2.590207e-01 -5.902394e-01 1.290770e+00 2.076519e-01 -4.984453e-01 1.251838e-02 
-1.111632e+01 4.181640e+00 -3.062601e+00 3.321933e+00 4.282803e+00 7.236338e-01 5.366561e+00 4.339793e+00 6.599304e+00 9.630796e+00 4.756604e+00 4.216761e+00 6.307369e-02 -1.680217e-01 3.740259e-01 8.581777e-02 6.489842e-02 2.392623e-01 -2.994046e-01 -1.428045e+00 -1.295795e+00 -7.465053e-01 1.595410e+00 5.293982e-01 8.233992e-01 6.848949e-03 
-1.101310e+01 6.299778e+00 -1.278662e-01 5.390323e+00 5.755558e+00 -1.585891e+00 5.594676e+00 3.213051e+00 4.506239e+00 1.173513e+01 5.248483e+00 3.624982e+00 6.621075e-02 -2.144356e-02 2.109650e-01 4.533073e-01 -4.811754e-01 -1.636844e-01 2.590195e-01 -7.030381e-01 -1.472962e+00 -4.676593e-01 9.755270e-01 4.056002e-01 3.098757e-02 -5.254573e-03 
-1.097657e+01 5.920356e+00 -3.103401e+00 6.630782e-01 3.149183e+00 2.535730e-01 1.634994e+00 2.094896e+00 5.457261e+00 7.646982e+00 4.141529e+00 8.130102e+00 7.716274e-02 -1.473112e-02 2.081935e-01 7.309266e-01 -1.713003e+00 -1.361828e+00 2.952453e-01 5.129422e-01 -7.624358e-01 -2.626317e-01 -6.764329e-01 7.027879e-02 4.379929e-02 -1.380403e-02 
-1.079844e+01 5.695402e+00 -6.773682e-01 4.963367e-01 3.876358e+00 7.033263e-01 4.014557e+00 3.462921e+00 6.733292e+00 8.113363e+00 3.286107e+00 3.069407e+00 3.956449e-02 1.593962e-01 -1.025255e-01 -5.189333e-02 -1.335165e+00 -1.234355e+00 3.096190e-01 2.999726e-01 -7.726262e-01 -5.419546e-01 -8.331128e-01 7.942117e-01 1.128551e-01 -1.146816e-02 
-1.129730e+01 5.524796e+00 8.667828e-01 -2.796091e+00 -1.586735e+00 1.055251e+00 8.721332e+00 4.026792e-01 4.172619e+00 8.059515e+00 6.089186e+00 4.713545e+00 7.376671e-03 1.944782e-01 2.628124e-02 -2.799430e-01 -3.579760e-02 6.968689e-03 -4.030787e-01 2.737876e-01 -8.047514e-02 -3.237908e-01 -3.022935e-01 4.835322e-01 4.614963e-01 -4.377288e-03 
-1.005575e+01 5.984931e+00 -2.372425e+00 4.440799e-01 1.951741e+00 -4.386354e-01 3.551370e+00 1.960285e-01 2.438787e+00 7.363298e+00 8.245713e+00 5.897536e+00 4.376298e-02 2.093555e-01 -3.154579e-01 -1.134274e+00 7.615606e-01 7.979494e-01 -4.350633e-01 -1.038590e+00 -5.077609e-01 2.675900e-01 -5.661075e-01 -1.527601e-01 1.348908e+00 8.398861e-03 
-1.037553e+01 5.906998e+00 -3.655588e+00 5.102186e-01 4.146335e+00 -1.190840e+00 3.235525e+00 3.325966e+00 5.985559e+00 6.510547e+00 4.079387e+00 9.023520e+00 5.317706e-02 3.271620e-01 -4.866187e-01 -8.901453e-01 1.260897e+00 4.857006e-01 -5.982040e-01 -5.130581e-01 2.718847e-01 5.959592e-01 -1.084046e+00 -1.235197e+00 8.411916e-01 8.100981e-03 
-1.021255e+01 3.927012e+00 -4.087554e+00 2.650985e+00 4.999570e+00 -3.489444e-01 1.564510e+00 -5.375279e-01 7.164772e+00 6.057310e+00 3.527207e+00 7.658960e+00 5.865860e-02 1.341461e-01 -9.139515e-01 -2.884724e-01 -2.798482e-01 -1.517776e+00 -6.559247e-01 6.748397e-01 -2.474474e-02 -9.792783e-01 -1.396659e+00 -1.563566e+00 4.294856e-01 3.475004e-03 
-9.583094e+00 4.120662e+00 -2.726379e+00 2.404940e+00 -6.821461e-01 -1.980615e+00 7.149471e+00 2.128881e+00 4.789423e+00 3.292278e+00 2.272453e+00 8.038791e+00 4.043376e-02 -1.590867e-01 -9.844926e-01 -2.815476e-01 -6.644015e-01 -1.336650e+00 -2.925578e-01 4.481646e-01 7.952535e-02 -8.722873e-01 1.181053e-01 -2.862736e-01 -9.559183e-01 3.540397e-04 
-9.781239e+00 2.308342e+00 -4.279391e+00 -1.902521e+00 -3.222901e+00 -3.323371e+00 4.968596e+00 6.708473e-01 -1.859537e+00 1.989140e+00 1.331350e+00 8.537329e+00 6.750965e-02 -1.181705e+00 -2.391085e+00 6.189803e-01 6.366466e-01 -8.566704e-01 3.005864e-01 -4.322973e-01 1.475908e-01 -1.034768e+00 -7.766711e-01 -7.118706e-02 -1.620444e-01 4.576327e-02 
-1.138662e+01 1.793870e+00 -4.967407e+00 -5.350357e-01 1.574319e+00 -1.166415e+00 3.774305e+00 3.119405e+00 6.136277e+00 9.135159e+00 3.745948e+00 3.804744e+00 5.052173e-02 -1.413617e+00 -3.839219e+00 1.300923e+00 6.977741e-01 -1.259546e-01 2.029096e+00 -1.655502e+00 -1.221273e+00 -1.132439e+00 -1.283058e+00 8.281030e-02 1.195750e+00 1.294840e-01 
-1.521931e+01 -6.865016e+00 1.278620e-01 7.304206e+00 -4.120150e-01 7.468881e-01 1.090606e+00 -2.948360e-01 1.317506e+00 -7.474852e-01 2.434524e+00 8.965761e+00 2.824309e-01 -8.522026e-01 -2.977033e+00 2.546145e+00 -2.463139e+00 1.127313e+00 2.858757e+00 -1.655560e+00 -1.523107e+00 -2.730808e+00 -2.594615e+00 1.991472e-01 3.736171e-01 1.429083e-01 
-1.393214e+01 -1.048876e+01 1.574608e+00 1.290446e+00 -2.717362e+00 6.129738e+00 8.109550e-01 -3.494641e+00 -2.461296e+00 -1.754699e+00 2.134917e+00 1.380332e+01 5.803931e-01 5.217530e-01 -2.271594e-01 5.150340e-01 -3.016860e+00 -5.234198e-01 -7.654620e-01 -1.583552e+00 -4.938227e-01 -1.841098e+00 -1.615378e+00 -8.487884e-01 -6.186918e-01 1.172015e-01 
-1.276949e+01 -6.435509e+00 5.180328e+00 -1.513095e+01 4.559504e+00 7.322336e+00 -1.827530e+00 -3.637665e+00 -1.121479e+01 -5.539006e+00 3.132601e+00 5.406123e+00 5.171155e-01 1.902495e+00 2.146566e+00 -1.403368e+00 -3.228779e+00 -4.974400e-01 -3.675615e+00 -1.277141e+00 2.414630e-01 1.141115e+00 1.515127e+00 -3.449121e-01 -2.012335e+00 4.206343e-02 
-1.000276e+01 4.433202e-01 -4.918470e+00 -4.401752e+00 -3.528539e+00 -8.281449e+00 -2.684387e+00 2.321706e+00 3.196935e+00 3.454029e+00 -8.470326e-01 2.491103e+00 5.191871e-01 1.658833e+00 3.997060e+00 -1.837634e+00 3.039088e-01 -1.216919e-01 -5.473513e+00 -1.912668e+00 -8.829807e-01 3.001646e+00 3.012302e+00 -3.405057e-01 -2.080373e+00 -8.525304e-02 
-7.671528e+00 -1.598221e+00 -3.642440e+00 -5.993589e+00 -2.493626e+00 -1.042559e+01 -3.547428e+00 -1.995695e+00 4.193964e+00 4.223787e+00 2.200938e+00 4.560195e+00 5.233511e-01 2.303728e-01 3.167244e+00 -1.309834e+00 3.405194e+00 9.009838e-01 -3.195977e+00 -1.257801e-03 -9.356080e-01 3.491769e+00 2.872992e+00 -9.907275e-01 2.702980e-01 -1.022486e-01 
-8.186957e+00 7.077901e+00 -3.202179e+00 -1.758692e+00 2.007437e-01 -1.236386e+01 -7.892437e+00 -8.730530e+00 4.842558e+00 8.425414e+00 8.982201e-01 3.824422e+00 1.510101e-01 -5.584694e-01 1.861632e+00 1.100161e+00 1.789444e+00 2.361105e+00 1.738911e+00 1.388040e+00 -3.057287e-01 3.890774e-01 -4.866989e-01 2.373754e-01 5.404006e-01 -1.278298e-01 
-1.252553e+01 6.083424e+00 -2.226989e+00 5.734855e-01 7.199781e+00 -6.616343e+00 7.702060e-01 -2.789587e+00 5.421242e+00 6.340262e+00 -2.693663e+00 6.090954e+00 1.899610e-01 -6.982254e-01 1.310804e+00 5.329641e-01 1.628113e+00 1.272561e+00 2.577935e+00 2.455674e+00 1.229292e+00 -6.485924e-03 -1.227631e+00 2.160747e-01 1.209884e-01 -1.033007e-01 
-1.036811e+01 5.910656e+00 -1.253912e-01 1.261928e+00 3.430284e+00 -1.491520e+00 2.096995e+00 1.190009e+00 4.528683e+00 -3.770328e-02 2.787145e+00 4.427727e+00 4.673296e-02 -2.312113e-01 -1.583318e-01 8.922155e-01 1.275414e+00 3.625018e-01 2.573646e+00 2.944504e+00 1.877472e+00 -4.973599e-01 -4.437281e-01 1.569595e+00 -4.211174e-01 -3.377366e-02 
-1.007208e+01 5.539423e+00 -2.516014e+00 6.366649e-01 2.254407e+00 -2.972090e+00 3.736226e+00 -8.095049e-01 4.318472e+00 2.317192e+00 2.336849e+00 4.863485e+00 5.898625e-02 9.240580e-02 -1.475143e-01 7.030110e-01 7.856447e-01 -1.443058e+00 9.576825e-01 7.015156e-01 1.088970e+00 3.650262e-01 1.357795e+00 2.243179e+00 -6.708606e-01 -2.315851e-02 
-1.056974e+01 6.558242e+00 1.403411e+00 4.586788e+00 4.485940e+00 -1.317763e+00 5.347074e+00 -3.332093e-01 2.907144e+00 8.218308e+00 6.230941e+00 2.332570e+00 4.762918e-02 -2.216368e-01 1.125804e-01 4.115266e-01 5.831581e-01 3.088422e-02 9.203771e-01 6.488658e-01 3.803911e-01 1.238866e+00 3.449061e+00 1.609880e+00 6.212897e-02 6.331140e-03 
-1.196268e+01 5.022060e+00 5.236650e-01 2.839279e+00 -5.433345e-01 -1.914808e+00 2.652745e+00 3.416872e+00 8.057142e+00 9.001230e+00 6.800332e+00 3.784229e+00 7.372034e-02 8.415438e-01 9.172720e-01 4.551876e-02 3.538637e-01 6.332834e-01 1.509479e+00 -3.479806e-01 8.814369e-01 1.203237e-01 7.007972e-01 6.111925e-01 -3.476209e-01 1.093861e-02 
-1.053099e+01 6.732240e+00 4.124027e-01 3.076411e+00 4.983576e+00 2.581725e+00 5.883065e+00 9.787760e-01 8.853677e+00 1.386558e+01 8.604805e+00 5.277999e+00 7.102162e-02 2.420923e+00 8.666446e-01 -3.394653e-01 7.217371e-02 -1.370403e-01 7.867166e-01 5.274064e-01 -5.929965e-01 -5.057381e-01 -2.615146e+00 -1.727961e+00 -8.308134e-01 1.816918e-02 
-5.883734e+00 1.003878e+01 -1.792916e+00 3.161171e+00 5.172007e+00 2.625563e+00 1.728327e+00 2.941687e+00 1.946824e+00 2.997542e+00 4.205880e+00 1.652665e+00 1.019831e-01 2.179895e+00 5.295982e-01 -3.477100e-01 -1.617338e-01 4.439190e-01 -4.332652e-02 7.743298e-01 -1.716374e+00 -3.284297e+00 -2.857657e+00 -1.904135e+00 -8.047842e-01 7.094622e-04 
-1.504599e+00 8.383102e+00 8.643748e-01 4.786710e+00 9.430680e-01 3.456352e-01 8.446315e+00 -3.060600e+00 3.433613e+00 -1.855578e+00 -1.111636e+00 -7.557156e-01 1.243437e-01 1.023460e+00 -8.435111e-02 4.491058e-01 7.204139e-01 -5.158252e-01 -8.328530e-01 9.668377e-01 -1.009449e+00 -2.874128e+00 -3.355121e+00 -3.467069e+00 -2.391627e+00 -1.051606e-02 
-5.576407e+00 6.844620e+00 -1.440871e+00 1.175460e+00 3.696515e+00 -1.013396e+00 5.242769e+00 -3.145312e+00 -5.654312e+00 2.573523e+00 2.137879e+00 2.777166e+00 5.060661e-02 1.108786e+00 1.360892e+00 2.268548e+00 1.134349e+00 -1.018735e+00 -5.291478e-01 9.939788e-02 -2.231955e+00 -1.732145e+00 -9.726799e-01 -2.451237e+00 -2.335864e+00 3.152458e-02 
-5.567354e+00 7.907567e+00 2.481909e+00 7.671336e+00 3.142196e+00 2.369400e-01 8.960033e+00 -1.024972e+00 -1.716393e+00 -2.698015e+00 -7.696540e+00 -7.242387e+00 4.412955e-02 3.442939e+00 7.352844e-01 1.495996e+00 -5.024287e-01 -2.868399e+00 3.091909e-01 -8.293839e-01 -3.554808e+00 -2.455584e+00 -3.259989e-01 -1.167874e+00 -2.238343e+00 1.267525e-01 
1.691575e+00 1.708101e+01 8.741054e+00 7.390604e+00 -1.021235e+00 3.417144e-02 1.968457e+00 -9.235900e+00 -4.138896e+00 -1.444639e+00 -4.757853e+00 -6.783319e+00 2.997130e-01 5.210155e+00 -1.719795e+00 1.554028e+00 -9.663614e-01 -4.752131e+00 1.063462e+00 -7.753092e-01 -4.230161e+00 -1.513182e+00 -4.560699e-01 -5.966406e-02 -1.639429e+00 1.944216e-01 
1.207611e+01 6.941329e+00 3.253393e+00 -8.330046e-01 -1.104005e+01 1.367806e+00 5.936551e+00 -1.778934e+01 -9.602016e+00 -1.476491e+00 -3.503141e+00 -7.167186e+00 6.335529e-01 4.218102e+00 -3.620709e+00 7.937445e-01 -1.737933e+00 -4.370284e+00 1.518668e+00 -1.288688e+00 -3.785636e+00 -2.117992e+00 -1.614815e-01 2.251521e+00 4.735889e-01 1.884235e-01 
1.165264e+01 -1.271237e+00 5.943526e+00 5.958239e-01 -1.297301e+01 3.738481e+00 2.877964e+00 -1.591393e+01 -9.277411e+00 -3.175886e-01 -2.571408e-01 -5.457582e+00 7.280030e-01 1.749673e+00 -4.153822e+00 1.899507e-01 -8.184072e-01 -2.472367e+00 1.819000e+00 -9.493890e-02 -1.262270e+00 -1.839785e+00 -1.154139e+00 1.416353e+00 4.220461e-01 1.115817e-01 
1.054262e+01 -1.019856e+00 7.849396e+00 2.379062e+00 -1.273334e+01 5.978126e+00 2.061840e+00 -1.661414e+01 -9.737095e+00 -4.068948e+00 1.310707e+00 -5.537311e+00 7.721019e-01 -7.673917e-02 -9.619151e-01 9.620417e-01 7.645062e-01 -9.362640e-02 1.273393e+00 -5.606146e-01 5.889702e-01 -1.359552e+00 -1.098475e+00 4.221996e-01 1.873561e-01 3.940630e-02 
1.120668e+01 2.924926e-01 7.392806e+00 1.692534e+00 -1.253643e+01 6.824012e+00 3.431118e+00 -1.613485e+01 -1.327028e+01 -5.919106e+00 -8.301155e-02 -5.488025e+00 7.883469e-01 3.259454e-01 7.535573e-01 4.717371e-01 3.591478e-01 5.813292e-01 2.062266e-01 1.524334e-01 5.489395e-01 -1.722232e+00 -3.159977e-01 -3.472908e-01 -4.238980e-01 2.069039e-02 
1.191539e+01 1.349889e+00 7.338962e+00 2.441171e+00 -1.172648e+01 6.192005e+00 2.856901e+00 -1.473403e+01 -1.440334e+01 -4.168107e+00 -1.479208e+00 -6.215183e+00 8.004125e-01 -5.402489e-02 -4.187648e-01 3.245042e-01 -4.058272e-01 9.840368e-01 -1.582131e+00 -2.922735e+00 3.680890e+00 1.025930e+00 -5.484385e-01 -5.209475e-02 -3.957913e-01 2.187813e-02 
1.259598e+01 1.311677e+00 8.557428e+00 2.360508e+00 -1.056980e+01 4.662674e+00 3.242600e+00 -1.410929e+01 -1.555545e+01 -1.847997e+00 -5.986370e-01 -7.238135e+00 8.172997e-01 -8.095614e-01 -2.048910e+00 -1.655090e-01 -1.048194e+00 7.225779e-01 -2.125934e+00 -6.135066e+00 6.862076e+00 4.290294e+00 -4.875988e-01 1.363169e-01 -7.223504e-01 4.019485e-02 
9.577847e+00 -3.623272e+00 8.889606e+00 1.593876e-02 -8.796467e+00 -8.518603e-01 -1.245758e+01 7.775275e-01 -3.464861e+00 -8.846695e+00 1.308046e+00 -6.641212e+00 8.670161e-01 -1.046497e+00 -3.562872e+00 -5.014540e-01 -1.764536e+00 1.191745e+00 -1.371636e+00 -6.149563e+00 7.865976e+00 4.628127e+00 -3.388754e-01 -6.247940e-01 -9.016969e-01 4.996220e-02 
8.327645e+00 -7.465477e+00 5.789939e+00 -2.335817e+00 -1.038855e+01 -2.837258e-01 -1.958697e+01 1.041975e+01 2.711946e+00 -6.017807e+00 -7.950537e-01 -8.886763e+00 9.560193e-01 -1.238695e+00 -3.415675e+00 -1.384025e+00 -1.688749e+00 2.343120e+00 -1.007686e+00 -2.676921e+00 4.430659e+00 4.254441e+00 -1.802120e-01 -1.657756e+00 -5.404304e-01 4.792482e-02 
8.817072e+00 -1.207590e+01 6.215436e+00 -4.033344e+00 -5.858378e+00 1.807024e+00 -1.647613e+01 1.233133e+01 -3.964019e-01 -3.777580e+00 -4.504969e+00 -9.899354e+00 9.808637e-01 -5.468326e-01 -2.099313e+00 -1.698658e+00 -1.482030e+00 3.371939e+00 -1.041764e-01 2.252196e+00 -1.220512e+00 1.642217e+00 1.233215e+00 -2.002927e+00 -9.524994e-02 3.072667e-02 
6.782894e+00 -1.154039e+01 2.974387e+00 -4.058595e+00 -3.232427e-01 -1.705200e+00 -8.132732e+00 2.267107e+00 4.182527e+00 -5.283615e+00 -5.980909e+00 -8.311216e+00 1.000000e+00 2.188719e-01 -1.432719e+00 -1.014676e+00 -1.690434e+00 3.686412e+00 6.881138e-01 2.706091e+00 -3.126654e+00 -7.444844e-02 1.184635e+00 -9.679974e-01 1.227899e-01 1.045690e-02 
7.616059e+00 -1.208238e+01 1.804092e+00 -6.532823e+00 3.030575e+00 -6.620056e-01 -6.923720e+00 -1.248713e+00 4.010935e+00 -3.047714e+00 -6.113660e+00 -7.405235e+00 9.986591e-01 5.153072e-01 -4.493863e-01 -1.017777e+00 -1.904112e+00 2.405831e+00 1.301753e+00 1.163989e+00 -2.372857e+00 -3.907480e-01 9.758208e-01 2.773941e-01 4.512911e-01 5.014002e-04 
1.002251e+01 -1.462583e+01 2.922229e+00 -9.538246e+00 3.599040e+00 4.391358e+00 -1.083272e+01 1.576497e+00 1.360350e-01 -4.595666e-01 -4.830695e+00 -9.519873e+00 9.994060e-01 9.160668e-01 -2.789068e-02 -8.176265e-01 -1.796478e+00 7.348961e-01 2.506099e+00 -4.720706e-01 -3.939003e-01 -1.051435e+00 6.927722e-01 8.168657e-01 6.580241e-01 -6.014436e-03 
9.773800e+00 -1.278011e+01 1.152631e+00 -1.081408e+01 4.209637e+00 5.267509e+00 -9.306189e+00 8.123527e-01 -3.268957e-01 -1.310499e+00 -3.693105e+00 -7.038570e+00 9.836677e-01 5.242530e-01 6.986128e-01 -1.099792e+00 -1.131384e+00 -3.289522e-01 2.635388e+00 -7.891873e-01 -1.342916e-01 -3.520435e-01 -6.182928e-01 1.193156e+00 8.453296e-01 -6.128496e-03 
1.028436e+01 -1.133098e+01 -7.880152e-01 -1.090036e+01 2.761707e+00 7.860539e+00 -9.301851e+00 -7.329282e-01 1.094266e+00 -2.688361e+00 -3.106857e+00 -5.204428e+00 9.774235e-01 1.867356e-01 1.226864e+00 -1.331272e+00 -5.803450e-01 -6.573306e-01 1.844073e+00 -4.135327e-01 -8.367497e-01 7.291748e-01 -1.855662e+00 1.340369e+00 1.302462e+00 -7.189822e-03 
1.010640e+01 -1.023674e+01 -1.839748e+00 -1.150869e+01 1.804480e+00 1.078034e+01 -1.163509e+01 -7.654589e-01 1.771602e+00 -5.024780e+00 -1.009797e+00 -5.336309e+00 9.790079e-01 4.143080e-01 9.334223e-01 -8.914002e-01 -4.331737e-01 -4.413157e-01 1.194647e+00 -6.862857e-01 -3.518513e-01 6.915587e-01 -2.193505e+00 1.475177e+00 1.117321e+00 -8.956837e-03 
1.078989e+01 -9.763191e+00 -2.237942e+00 -1.209267e+01 1.514966e+00 1.085531e+01 -1.173593e+01 -1.818345e+00 2.732660e+00 -7.880734e+00 5.294975e-01 -3.858695e+00 9.657868e-01 4.044774e-01 8.127403e-01 -5.555817e-01 -2.901639e-01 1.645833e-01 1.991110e-02 -2.777979e-01 3.056654e-01 4.321623e-02 -1.776616e+00 1.215878e+00 1.134362e+00 -1.299915e-02 
1.159257e+01 -8.896888e+00 -2.579406e+00 -1.238379e+01 2.626430e+00 9.743361e+00 -1.152057e+01 -4.041952e-01 2.311700e+00 -9.681840e+00 1.864600e+00 -2.124830e+00 9.447019e-01 3.124785e-01 8.232906e-01 -4.909640e-01 1.953020e-02 6.105738e-01 -8.705099e-01 6.372217e-01 1.283518e-01 2.414296e-02 -1.370407e+00 9.966615e-01 1.071798e+00 -1.551836e-02 
1.156366e+01 -7.937205e+00 -3.196095e+00 -1.191362e+01 3.173648e+00 8.478585e+00 -1.074810e+01 6.147672e-01 1.040298e+00 -9.242909e+00 1.535332e+00 -1.138358e+00 9.295808e-01 -1.541255e-01 9.847411e-01 -7.441479e-01 4.594443e-01 5.078442e-01 -1.061540e+00 1.171656e+00 -4.053947e-01 -1.427118e-01 -5.206334e-01 6.162783e-01 4.311350e-01 -1.378229e-02 
1.128191e+01 -7.033284e+00 -3.815491e+00 -1.150056e+01 4.028008e+00 7.616154e+00 -8.942902e+00 -1.340256e+00 2.738498e+00 -1.119573e+01 3.470594e+00 -1.337487e+00 9.195191e-01 -3.719999e-01 6.116081e-01 -3.685623e-01 3.137901e-01 2.642030e-01 -6.457547e-01 9.326960e-01 -5.514686e-01 -5.897464e-01 3.733667e-01 2.243044e-01 -1.018977e-01 -1.014994e-02 
1.017459e+01 -5.771288e+00 -5.340639e+00 -1.023706e+01 3.353397e+00 6.611211e+00 -7.166489e+00 -3.377288e+00 1.805702e+00 -9.726958e+00 2.807893e+00 -2.096692e+00 9.094667e-01 1.271073e-01 -3.227201e-01 4.236988e-01 -1.434263e-01 2.976842e-01 -9.054275e-02 2.151484e-01 -1.628005e-01 -9.968488e-01 1.319095e+00 -5.698956e-01 3.937165e-01 -7.242322e-03 
1.042711e+01 -6.921806e+00 -3.349946e+00 -1.165312e+01 3.857570e+00 7.448275e+00 -8.647900e+00 -1.165510e+00 -1.019734e+00 -7.572982e+00 2.349842e+00 -2.155151e+00 9.040092e-01 5.829726e-01 -9.864123e-01 7.932850e-01 -3.935234e-01 3.440793e-01 1.291681e-01 -3.526747e-01 5.018224e-01 -1.350777e+00 1.993575e+00 -1.233304e+00 6.507691e-01 -4.844743e-03 
1.262660e+01 -9.606544e+00 -1.310373e+00 -1.255447e+01 4.747288e+00 8.109811e+00 -9.819857e+00 -2.866083e-01 -2.064830e+00 -4.458808e+00 -7.537708e-01 1.239056e+00 9.011242e-01 8.582306e-01 -1.214321e+00 8.240199e-01 -3.296947e-01 5.875953e-01 -1.120569e-01 -1.010381e-01 4.095348e-01 -4.258627e-01 1.334907e+00 -9.153010e-01 4.893085e-01 -3.685772e-03 
1.297077e+01 -1.004772e+01 -1.864199e+00 -1.230947e+01 5.051459e+00 7.512694e+00 -9.379591e+00 -3.764839e-01 -2.080123e+00 -3.861925e+00 -9.150965e-01 2.484843e-01 8.994667e-01 5.639162e-01 -5.921794e-01 -8.307052e-03 5.004759e-01 3.709002e-01 -4.370457e-01 3.704473e-01 2.256784e-01 6.345141e-01 5.962886e-01 -5.278972e-01 -1.156772e-01 -4.712540e-03 
1.319391e+01 -1.027994e+01 -1.963413e+00 -1.155736e+01 5.694429e+00 6.018717e+00 -7.305834e+00 -1.724128e+00 2.065830e-01 -4.907953e+00 -1.361425e-01 -8.519669e-01 8.933091e-01 1.321765e-01 -2.520281e-01 -3.004436e-01 9.612743e-01 -1.518373e-02 -8.051418e-01 5.831007e-01 3.157535e-01 1.005306e+00 -1.390430e-01 -1.935194e-01 -7.707254e-01 -7.084328e-03 
1.296303e+01 -9.546004e+00 -3.064961e+00 -9.649300e+00 5.238501e+00 6.308593e+00 -8.052675e+00 6.816415e-01 1.017130e+00 -4.366966e+00 -5.984578e-01 -1.688025e+00 8.843540e-01 1.475098e-01 -4.647823e-01 -4.755013e-02 1.165231e+00 -1.586705e-01 -1.064564e+00 2.781785e-01 7.910982e-01 9.940051e-01 -1.334855e-01 -6.234490e-01 -4.999033e-01 -7.999474e-03 
1.329135e+01 -1.111754e+01 -2.212210e+00 -9.078187e+00 4.577848e+00 4.686152e+00 -7.567811e+00 7.630963e-01 1.413074e+00 -4.901503e+00 -1.879687e+00 -1.646315e+00 8.732589e-01 8.949570e-02 -6.524698e-01 -2.605220e-02 1.587477e+00 -4.449627e-01 -1.021932e+00 -4.396490e-01 1.110509e+00 8.639157e-01 1.545420e-01 -7.835550e-01 -9.323204e-01 -4.557836e-03 
1.365960e+01 -1.195283e+01 -1.977551e+00 -7.722902e+00 4.816397e+00 2.856154e+00 -7.857709e+00 2.335395e+00 2.286657e+00 -4.532578e+00 -3.160569e+00 -1.853858e+00 8.694944e-01 -1.573567e-01 -6.098596e-01 8.303027e-02 1.934043e+00 -4.686077e-01 -1.493129e+00 -1.987942e-01 4.714403e-01 1.095275e+00 3.822518e-01 -8.321193e-01 -1.371208e+00 -3.367126e-04 
1.329311e+01 -1.233888e+01 -2.637379e+00 -4.583174e+00 3.680668e+00 2.635275e+00 -9.601562e+00 3.001541e+00 3.891398e+00 -4.052437e+00 -2.772862e+00 -5.430653e+00 8.779497e-01 -4.888515e-01 -8.772993e-02 3.595710e-02 2.321129e+00 -6.979780e-01 -1.644766e+00 -5.615492e-02 4.816404e-01 1.179199e+00 6.293035e-01 -1.052277e+00 -1.716426e+00 7.790029e-04 
1.217537e+01 -1.198463e+01 -2.437226e+00 -2.226592e+00 3.344053e+00 -1.316129e-01 -8.029770e+00 1.919621e+00 5.254343e+00 -2.880240e+00 -4.312467e+00 -6.651896e+00 8.803250e-01 -4.240407e-01 -1.975901e-01 7.374510e-01 2.224649e+00 -1.165866e+00 -1.899452e+00 4.482340e-01 4.388248e-01 8.386046e-01 7.645472e-01 -1.620342e+00 -1.296662e+00 -8.864820e-04 
1.158921e+01 -1.154029e+01 -1.802587e+00 -2.206962e-01 1.824131e+00 -2.043794e+00 -7.762556e+00 3.379186e+00 5.825225e+00 -2.581155e+00 -6.565124e+00 -7.829428e+00 8.717386e-01 -1.916678e-01 -3.732484e-01 1.631242e+00 1.823048e+00 -1.994301e+00 -1.731069e+00 1.119677e+00 6.528665e-01 5.069052e-02 1.653030e-01 -1.618035e+00 -9.596930e-02 -8.025205e-03 
1.239135e+01 -1.334007e+01 1.292308e+00 1.219105e+00 -8.466625e-02 -4.301573e+00 -6.536043e+00 4.340697e+00 5.512766e+00 -1.445483e+00 -9.366151e+00 -7.137782e+00 8.681676e-01 -3.011904e-01 8.478260e-02 1.906642e+00 1.886416e+00 -3.183859e+00 -1.199278e+00 1.772429e+00 7.188913e-01 -1.081219e+00 -7.811860e-01 -7.870134e-01 1.091402e+00 -1.267681e-02 
1.222678e+01 -1.352740e+01 3.654062e+00 2.809219e+00 -4.576477e+00 -3.935089e+00 -4.750041e+00 5.055335e+00 4.015639e+00 -3.943300e+00 -8.336194e+00 -5.667556e+00 8.439024e-01 -5.012248e-01 6.487263e-01 2.317567e+00 1.155027e+00 -3.725899e+00 -3.504553e-01 2.169545e+00 6.432808e-01 -2.572566e+00 -1.301865e+00 3.362265e-01 2.157601e+00 -1.517466e-02 
1.035063e+01 -1.056717e+01 4.367661e+00 5.690531e+00 -9.374939e+00 -5.182355e+00 -6.738815e-01 4.676002e+00 7.530413e-01 -6.105097e+00 -7.361999e+00 -2.275822e+00 8.308591e-01 -7.788488e-01 1.629020e+00 2.303225e+00 7.897111e-02 -3.437392e+00 3.240560e-01 2.597243e+00 5.438883e-02 -3.515598e+00 -1.597298e+00 1.368963e+00 2.878456e+00 -1.791005e-02 
1.010344e+01 -9.683109e+00 8.247569e+00 3.318726e+00 -1.216023e+01 -3.355679e+00 1.540890e-01 6.427937e+00 -4.657741e+00 -6.760673e+00 -5.886067e+00 5.275981e-01 8.145196e-01 -7.574373e-01 2.164738e+00 2.371377e+00 -1.266604e+00 -2.480793e+00 7.974340e-01 2.644962e+00 -6.372077e-01 -3.944780e+00 -1.174076e+00 2.176800e+00 2.410266e+00 -1.624409e-02 
9.558769e+00 -7.117118e+00 1.051168e+01 1.359206e+00 -1.347976e+01 -2.970998e+00 3.998106e+00 3.926340e+00 -7.728532e+00 -8.023288e+00 -3.746397e+00 4.156919e+00 7.933087e-01 -3.615104e-01 2.137443e+00 2.421442e+00 -2.753929e+00 -1.264520e+00 1.587398e+00 1.748010e+00 -1.056702e+00 -3.983746e+00 -4.049366e-01 2.654135e+00 1.481539e+00 -1.780354e-02 
8.835522e+00 -4.428730e+00 1.243893e+01 -1.358139e+00 -1.492804e+01 -1.053598e+00 6.138774e+00 2.244128e+00 -1.146748e+01 -8.854585e+00 7.400087e-01 3.167402e+00 7.814571e-01 -1.920440e-01 2.475014e+00 1.290577e+00 -2.483130e+00 -5.436891e-01 1.974514e+00 8.144255e-01 -1.560056e+00 -3.213330e+00 -1.529686e-01 3.085503e+00 4.125190e-03 -1.863061e-02 
9.177040e+00 -2.507141e+00 1.437919e+01 -5.740680e+00 -1.431363e+01 1.603592e+00 5.073827e+00 1.484397e+00 -1.576082e+01 -7.082824e+00 2.595639e+00 3.811973e+00 7.583726e-01 1.120728e-01 2.010611e+00 1.428688e-01 -1.209909e+00 5.222551e-01 1.487575e+00 -5.852786e-01 -5.890692e-01 -2.344774e+00 -1.343383e+00 3.821880e+00 -1.533937e+00 -2.106060e-02 
9.334088e+00 3.869708e-01 1.276670e+01 -5.546978e+00 -1.446173e+01 4.229594e+00 3.688355e+00 -1.513704e-01 -1.670825e+01 -7.995748e+00 6.370432e+00 7.206969e-01 7.388346e-01 7.946891e-01 1.500430e+00 -1.958519e+00 2.008016e+00 1.769274e+00 -7.705929e-01 -2.180794e-01 -1.434471e+00 -2.460932e+00 2.910442e-02 1.797198e+00 -2.389980e+00 -1.436906e-02 
9.869850e+00 5.280876e-01 1.106214e+01 -2.595921e+00 -1.110163e+01 1.825281e+00 2.296922e+00 2.178742e+00 -1.683201e+01 -1.516962e+01 1.254779e+01 -2.289415e+00 7.093170e-01 9.979811e-01 9.607826e-01 -2.736779e+00 3.863625e+00 1.771549e+00 -2.224529e+00 8.649493e-01 -2.662740e+00 -2.341832e+00 1.179044e+00 -4.832845e-02 -2.258618e+00 8.532584e-04 
1.246256e+01 1.555807e+00 4.304862e+00 7.109562e+00 -7.687665e+00 -5.017407e+00 6.436830e+00 -5.275403e+00 -2.323654e+01 -4.665663e+00 4.749920e+00 -5.731803e+00 7.341396e-01 9.222983e-01 4.309471e-01 -2.325952e+00 3.695881e+00 1.216904e+00 -2.462521e+00 1.531348e+00 -3.178472e+00 -2.256316e+00 2.496267e+00 -1.653773e+00 -1.524717e+00 1.041150e-02 
1.260271e+01 1.712354e+00 4.926211e+00 7.249175e+00 -8.842926e+00 -4.895552e+00 8.024337e+00 -9.267285e+00 -2.420583e+01 -2.852647e+00 3.164253e+00 -4.254866e+00 7.649864e-01 5.998250e-01 2.014959e-01 -1.182587e+00 1.958437e+00 4.219957e-01 -1.350865e+00 1.483156e+00 -3.172513e+00 -1.268792e+00 2.832399e+00 -2.093349e+00 -6.550870e-01 1.271118e-02 
1.257915e+01 1.949573e+00 4.204904e+00 8.009880e+00 -9.506565e+00 -4.722595e+00 8.481389e+00 -1.032072e+01 -2.430292e+01 -1.672903e+00 2.793338e+00 -5.920162e+00 7.630574e-01 -1.719132e-02 3.248835e-01 -1.775977e-01 9.860854e-02 -1.224339e-01 2.114801e-01 2.977828e-01 -1.300321e+00 2.225992e-01 5.953799e-01 -4.200930e-01 -3.302506e-01 1.985186e-03 
1.281068e+01 1.338684e+00 5.199185e+00 6.746106e+00 -8.082203e+00 -5.076450e+00 8.690423e+00 -1.116116e+01 -2.264278e+01 -2.504009e+00 3.059339e+00 -5.470670e+00 7.584140e-01 -2.484598e-01 4.940276e-01 1.155949e-03 -2.551182e-01 5.580775e-01 2.634111e-01 -7.522380e-01 -3.315788e-01 1.180419e+00 9.271622e-02 -7.497457e-01 -4.706606e-01 -7.831174e-03 
1.227262e+01 3.367060e+00 3.280387e+00 7.854139e+00 -8.680197e+00 -3.869558e+00 7.592701e+00 -1.083007e+01 -2.290507e+01 -1.863082e+00 2.701912e+00 -6.775154e+00 7.473518e-01 -9.579208e-01 3.635561e-02 1.781782e+00 -1.639619e+00 4.728512e-01 8.986801e-01 -3.218783e+00 8.060592e-01 3.375382e+00 -8.201251e-01 -2.033934e+00 8.334109e-01 -1.036153e-02 
1.151368e+01 3.473749e+00 5.394249e+00 6.051455e+00 -6.465723e+00 -4.005015e+00 4.707491e+00 -1.067050e+01 -1.900266e+01 -2.293976e+00 -5.387636e-01 -6.180673e+00 7.336833e-01 -9.693247e-01 -3.438782e-01 1.470425e+00 -1.986688e+00 7.330440e-01 8.856673e-01 -4.819047e+00 2.827004e+00 5.267683e+00 -1.727454e+00 -2.454686e+00 1.103874e+00 -2.131427e-02 
8.438049e+00 1.063819e+00 1.301628e+01 1.591088e-01 -7.950549e+00 -7.649119e-01 -5.621058e+00 -6.535753e+00 -9.246073e+00 -5.878545e+00 -5.577281e+00 -1.398107e+00 7.236151e-01 -1.031660e+00 2.491681e-01 6.988350e-01 -1.059839e+00 2.734366e+00 4.053529e-01 -3.865690e+00 5.177828e+00 6.385451e+00 -1.672077e+00 -2.904110e+00 1.452942e+00 -5.188536e-02 
9.881342e+00 7.709136e-01 7.683363e+00 6.601796e-01 -4.781806e+00 -2.200437e+00 -8.797932e+00 8.266995e-01 -3.133869e+00 -9.133545e+00 -5.074492e+00 -2.639825e+00 6.637110e-01 -1.053788e+00 6.322840e-01 -1.039926e+00 1.071972e+00 3.983614e+00 -3.220912e-01 -1.418730e+00 5.575206e+00 4.953568e+00 -1.334725e+00 -1.801139e+00 1.307028e+00 -8.000580e-02 
7.930484e+00 5.964317e+00 5.630005e+00 5.250583e+00 4.149674e+00 -2.745082e+00 -4.983037e+00 9.310470e+00 1.087792e+00 -6.803680e+00 -9.550776e+00 -1.280869e+00 5.229112e-01 -1.306408e+00 7.256392e-01 -3.259268e+00 3.285983e+00 4.599203e+00 -1.226911e+00 2.105224e+00 3.642819e+00 2.696218e+00 -5.187607e-03 -1.552946e+00 -4.545746e-02 -1.057006e-01 
6.498516e+00 4.184919e+00 3.887756e+00 8.865578e+00 7.402236e+00 -4.625386e+00 -2.705167e+00 9.282414e+00 5.982451e-01 -8.505035e+00 -7.557712e+00 2.958493e-01 4.340063e-01 -2.505658e+00 -1.031462e+00 -3.604029e+00 1.832476e+00 3.100653e+00 -6.649958e-01 3.417638e+00 1.046160e+00 1.226518e+00 1.115069e+00 -1.391132e+00 9.737430e-02 -1.079343e-01 
3.597424e+00 2.985012e+00 -1.382253e+00 1.248632e+01 8.953444e+00 -5.686994e+00 1.858681e+00 7.450487e+00 2.368961e+00 -6.218738e+00 -1.210040e+01 -3.093231e+00 3.099645e-01 -3.026716e+00 -3.153041e+00 -4.832103e+00 -7.177714e-01 1.786034e-01 -5.702107e-01 2.315309e+00 -1.014831e+00 8.554515e-01 2.819027e+00 1.612318e+00 5.289403e-01 -8.178341e-02 
-4.804173e-01 -2.896742e+00 -6.830656e+00 6.204688e+00 8.319575e+00 -4.054460e+00 4.869401e+00 6.987490e+00 2.358135e+00 -3.850671e+00 -1.075534e+01 -1.246773e+00 2.305126e-01 -2.775884e+00 -2.658567e+00 -4.506176e+00 -1.645589e+00 -6.009995e-01 3.185763e-01 -5.688995e-01 -2.666943e+00 1.109011e+00 3.134675e+00 2.364219e+00 5.565436e-01 -5.464730e-02 
-3.713630e+00 -6.260057e+00 -1.317130e+01 2.992171e+00 4.584022e+00 -5.881599e+00 2.806223e+00 5.383776e+00 4.485105e+00 4.964272e+00 1.096253e-01 2.135143e+00 2.157410e-01 -1.649147e+00 -1.251145e+00 -3.105321e+00 -1.801543e+00 -1.369775e+00 2.226765e-02 -2.515483e+00 -3.326726e+00 1.026984e+00 2.406209e+00 3.055346e+00 2.710632e-01 -2.821712e-02 
-3.725379e+00 -4.485379e+00 -1.274860e+01 5.384708e+00 6.581950e+00 -2.935202e+00 -6.023436e+00 -3.018945e+00 5.085227e+00 1.576834e+00 -1.841630e+00 4.643804e-01 2.078815e-01 -7.515100e-01 9.859260e-01 -9.446828e-01 -6.120588e-01 -1.251337e+00 2.550291e-01 -1.823505e+00 -1.896268e+00 7.759424e-01 1.673714e+00 1.500144e+00 -1.397366e+00 -2.468034e-02 
-3.025830e+00 -2.476393e+00 -1.394989e+01 3.888599e+00 2.973380e+00 -6.135284e+00 -5.272314e+00 -4.179926e+00 6.140333e+00 3.098556e+00 -1.280529e+00 -2.593492e+00 1.801944e-01 -1.952031e-01 1.820263e+00 4.380322e-01 -6.956288e-01 -6.219172e-01 1.312709e+00 1.249443e+00 -5.422382e-01 -5.112705e-01 -4.403472e-01 -2.640817e-01 -1.252797e+00 -3.321036e-02 
-4.581867e+00 1.410567e-01 -1.116478e+01 2.696180e+00 2.868209e+00 -2.652472e+00 -2.088566e-01 2.288003e+00 5.410233e+00 5.450756e+00 -2.559538e+00 -5.869283e+00 1.248842e-01 -3.865343e-01 1.946606e+00 1.260966e+00 -1.674384e+00 -1.445800e+00 8.339833e-01 2.818769e+00 7.493851e-01 -1.571769e+00 -1.118243e-01 1.493342e-02 1.346614e-01 -3.805500e-02 
-4.261401e+00 5.280409e-01 -1.177305e+01 8.582914e-01 3.331306e+00 5.405818e-01 6.146151e+00 1.911092e-02 1.766249e+00 8.255756e-01 -8.518291e-01 -9.620078e-01 9.118783e-02 -5.472960e-01 2.034262e+00 1.216023e+00 -1.349002e+00 -6.641346e-01 1.313548e+00 2.311605e+00 7.887067e-01 -1.373162e+00 -3.572194e-01 5.977074e-01 1.564385e+00 -2.734272e-02 
-5.040265e+00 3.745433e+00 -7.532186e+00 -1.472056e+00 -8.260121e-01 -2.103218e+00 2.361177e+00 -1.371538e+00 -5.865750e-01 2.154202e+00 -1.981313e+00 3.219454e-01 6.210983e-02 -2.486703e-01 2.021385e+00 1.366434e+00 -5.713786e-01 -1.508645e-01 7.601836e-01 9.570358e-01 4.211161e-02 -3.664802e-01 9.743328e-02 4.753923e-01 1.609987e+00 -1.283270e-02 
-5.533112e+00 5.892729e+00 -9.686067e+00 -7.722934e-01 1.499817e+00 1.578291e-01 5.000692e+00 1.593378e+00 2.272927e+00 2.960736e+00 1.418895e+00 2.132821e+00 7.486802e-02 -1.045796e+00 1.072609e+00 2.166059e+00 -2.982821e-01 -1.480383e-01 3.924818e-02 4.730454e-01 2.157897e+00 1.810547e+00 6.664336e-01 -9.979355e-03 8.112223e-01 -1.151915e-02 
-5.189363e+00 7.565639e+00 -5.376099e+00 6.545794e-01 3.029631e+00 1.339823e+00 5.149052e+00 1.711428e+00 3.324493e+00 4.870342e+00 -1.317939e+00 6.332381e-01 6.888062e-02 -8.395430e-01 2.566105e-01 1.753392e+00 6.990849e-01 -4.179635e-02 5.964739e-01 4.758628e-01 2.823489e+00 2.390726e+00 1.008168e+00 1.665864e-01 1.095518e+00 1.086563e-03 
-9.415830e+00 3.980982e+00 -2.020802e+00 -1.696437e+00 6.632929e-01 -9.846979e-01 7.117441e+00 9.267114e+00 8.863451e+00 2.799674e+00 -1.233413e+00 2.938457e+00 3.020668e-02 -7.354805e-01 -1.187134e-03 1.870172e+00 7.640929e-01 -5.121726e-01 -3.314751e-01 -4.504318e-01 6.073489e-02 -9.487204e-02 9.470334e-01 -7.245007e-01 2.685404e-01 -7.325351e-04 
-7.296621e+00 5.984359e+00 -2.597856e+00 2.485440e+00 -6.167316e-01 1.450415e+00 3.682117e+00 8.909041e+00 8.071795e+00 7.275576e+00 1.777731e-01 5.396716e+00 8.987331e-02 -7.928407e-01 -1.035402e-01 9.611008e-01 5.711252e-01 3.478272e-01 -1.093426e+00 -1.674470e+00 -1.468817e+00 -8.399279e-01 -9.723131e-02 -1.114649e-01 -3.444381e-01 -2.006388e-03 
-8.156885e+00 6.677433e+00 -1.724330e+00 2.132741e+00 7.621360e-01 -1.554842e+00 3.482001e+00 -1.701754e+00 -5.750842e-01 6.493286e+00 -2.951464e+00 1.093785e+00 6.070900e-02 -1.978727e-01 1.046956e-01 -6.063266e-02 6.479996e-01 5.099646e-01 -1.635771e+00 -1.877954e+00 -1.625656e+00 -1.084015e+00 -8.913067e-01 -4.717055e-01 -1.163809e+00 -3.431255e-03 
-9.783039e+00 5.699713e+00 -7.188305e-01 1.595617e+00 4.719346e+00 -3.842232e+00 -1.405579e+00 -1.482258e-01 3.844121e+00 2.537380e+00 -1.016238e+00 -1.666162e-01 4.359752e-02 -1.933631e-01 -1.326869e-01 -3.267714e-02 -3.242388e-01 4.122747e-01 -1.144284e+00 -3.901268e-01 -5.018560e-01 -1.236130e+00 -2.176682e+00 -6.828667e-01 -6.994067e-01 -8.263761e-03 
-9.161984e+00 4.646783e+00 -3.263478e+00 1.988472e+00 5.450768e-01 -6.517227e+00 2.715163e-01 5.667469e+00 5.557215e+00 7.122382e-01 -2.994935e+00 -9.892309e-02 3.618830e-02 2.351376e-01 2.455633e-01 -6.834971e-01 -3.913845e-01 -9.376731e-02 5.703715e-01 2.017251e-01 1.816864e-01 -9.628687e-02 -9.325611e-01 4.870235e-01 3.689132e-01 7.997829e-03 
-7.760887e+00 6.336249e+00 -1.991668e+00 9.363801e-01 1.553171e+00 -1.789811e+00 3.336725e+00 2.715150e+00 -1.175004e+00 -7.173102e-01 -3.214825e+00 2.496036e+00 6.081486e-02 8.586492e-02 5.392284e-02 -3.419592e-01 -7.578695e-02 -3.197868e-01 5.485049e-01 1.606637e+00 -5.091739e-01 2.645183e-01 5.897543e-01 9.621217e-02 -2.363348e-01 3.984070e-03 
-7.992273e+00 7.586982e+00 -4.505397e+00 5.054368e-01 1.876387e+00 2.708049e-01 2.119474e+00 -2.225010e+00 1.453044e+00 3.457825e+00 5.829468e-01 1.607024e+00 9.208947e-02 -2.450222e-01 8.155954e-02 6.354846e-01 8.035728e-01 1.077215e+00 1.467451e-01 7.642329e-01 -5.982776e-01 1.334329e-01 9.012970e-01 8.018068e-01 -6.625571e-02 -1.715696e-03 
-9.938570e+00 4.499228e+00 -1.807667e+00 1.958200e+00 2.454757e+00 -4.493724e+00 5.703629e+00 1.252144e+00 7.218798e+00 4.113358e+00 -2.324117e+00 -2.201264e+00 3.556728e-02 -2.932394e-01 -1.428154e-01 5.278491e-01 5.892254e-01 4.595585e-01 -8.709858e-01 -4.625104e-01 6.993306e-01 7.344248e-01 4.519908e-01 9.394470e-01 -3.353743e-01 -8.905607e-03 
-9.298254e+00 5.973092e+00 -1.780556e-01 5.495426e+00 5.480361e+00 -4.431545e+00 2.909229e+00 3.407584e+00 2.027478e+00 2.803389e+00 5.687452e-01 1.918448e+00 4.023361e-02 3.473788e-01 1.515112e-01 2.893665e-01 8.941571e-02 -3.712000e-01 -5.477772e-01 -2.104328e-01 8.400316e-01 3.459388e-01 -3.964977e-01 -1.434292e-01 -1.886008e-02 -5.523694e-03 
-8.574094e+00 6.429118e+00 -1.516093e+00 1.387513e+00 2.048977e+00 -3.793565e+00 6.292958e-01 3.395506e+00 2.209903e+00 1.869862e+00 1.489511e+00 6.634524e-01 4.221475e-02 5.372518e-01 7.369019e-01 -6.863868e-02 -7.264344e-02 4.453110e-01 1.987971e+00 -5.335616e-01 -7.850504e-02 3.833042e-01 -1.649319e-01 1.124145e+00 1.444136e+00 7.057565e-03 
-6.937617e+00 7.379592e+00 -3.204351e+00 1.237859e+00 2.232771e-01 -2.818161e+00 3.604477e+00 9.034673e-01 5.687186e+00 2.597085e+00 -2.041013e+00 8.036578e-02 6.114727e-02 2.484703e-03 3.138341e-01 -2.805387e-01 3.842173e-02 -8.125792e-02 1.102434e+00 -2.871820e-01 -1.079287e+00 1.093058e+00 7.428688e-01 6.524712e-01 6.954470e-01 7.500285e-03 
-8.432630e+00 7.480486e+00 -6.377128e-01 3.723766e+00 7.309855e+00 4.639437e+00 2.688197e+00 2.111677e+00 7.305465e+00 3.391850e+00 4.601489e+00 5.938456e+00 6.039828e-02 -1.899210e-01 2.916159e-01 5.698696e-01 6.705983e-01 -2.049822e-01 9.823111e-01 -6.233716e-03 -7.069355e-01 1.084614e-01 1.498801e+00 4.310111e-01 4.692397e-01 1.103342e-02 
-9.356563e+00 7.016578e+00 -2.019939e+00 4.519408e+00 2.443633e+00 -3.135875e+00 4.438682e-01 -1.346937e+00 4.944989e+00 5.756739e+00 2.275112e+00 2.758182e+00 6.864327e-02 -3.205245e-01 -1.168415e-01 4.160518e-01 1.379891e-01 -6.005184e-01 7.542051e-01 7.690037e-01 2.209908e-01 -6.270472e-01 6.743773e-01 2.873959e-01 -2.115729e-01 -3.652763e-03 
-8.314226e+00 8.068705e+00 7.410492e-01 3.099730e+00 -8.611202e-02 1.276848e+00 2.178432e+00 9.860311e-01 3.123308e+00 7.784041e+00 1.486503e+00 1.670743e+00 9.363383e-02 3.860540e-02 2.805758e-02 1.845820e-01 -3.847683e-01 -1.101769e+00 -3.776913e-02 3.526704e-01 -7.033965e-01 -1.170095e+00 -4.107378e-01 -4.843219e-01 -1.788913e-01 -1.030815e-03 
-8.599442e+00 6.501276e+00 -1.813473e+00 2.239823e+00 9.186683e-01 2.634160e+00 7.704378e+00 2.571244e+00 4.643028e+00 3.772875e+00 9.534590e-01 1.156358e+00 2.626568e-02 1.172862e-01 1.533415e-01 3.844722e-01 -3.319394e-01 2.889324e-01 9.691626e-01 -6.022835e-02 -8.385345e-01 -8.195381e-01 -1.230724e+00 2.485390e-01 1.034763e+00 -1.621366e-04 
-8.618163e+00 7.878425e+00 1.819642e-01 2.939717e+00 2.563493e+00 1.565574e+00 8.212948e-01 -3.364396e+00 1.605968e+00 2.330093e+00 2.840706e+00 5.844912e+00 7.643300e-02 -6.265955e-02 9.965901e-02 8.772675e-02 3.798700e-02 6.944034e-01 -4.911327e-02 -9.597357e-01 -1.463650e+00 -6.071740e-01 -1.235068e+00 4.595653e-01 1.303689e+00 1.576567e-03 
