-1.419375e+01 3.509604e-01 -1.492590e+00 -9.925437e-02 5.430362e+00 7.818179e-01 3.865881e-01 4.957745e+00 4.610312e+00 1.097698e+01 9.969873e-01 6.517009e+00 -1.512927e-01 2.868631e-01 4.719081e-01 -1.378977e-01 -1.002682e-01 1.358467e-01 -4.032322e-01 -1.074559e+00 -7.791681e-01 7.958263e-01 -8.865440e-01 -1.163005e+00 -7.079734e-01 0.000000e+00 
-1.288186e+01 3.243917e+00 -1.552429e+00 -1.201196e+00 6.127378e+00 3.074206e-01 -2.491818e+00 2.562093e+00 7.380233e+00 1.068265e+01 -1.438424e+00 9.348042e+00 -1.512927e-01 2.930116e-01 4.585343e-01 -1.094698e-01 -1.075628e+00 7.025084e-01 -3.264083e-01 -9.016763e-01 -5.139054e-01 -3.329746e-01 -1.613685e+00 -1.229963e+00 -4.794731e-01 0.000000e+00 
-1.341538e+01 1.264022e+00 -2.152159e+00 -4.962468e-02 5.761087e+00 -9.971448e-01 -3.547006e+00 2.259731e+00 7.204483e+00 6.691422e+00 -3.600332e+00 1.561626e+00 -1.512927e-01 1.473146e-01 2.442307e-01 2.129028e-01 -1.075017e+00 -5.868378e-02 7.502563e-01 1.208591e-02 4.582029e-01 -4.208723e-01 -1.259394e+00 -1.024935e+00 -7.235153e-01 0.000000e+00 
-1.311788e+01 2.187101e+00 -1.710155e+00 -5.502208e+00 8.777541e+00 3.925776e-02 -2.154996e+00 3.737226e+00 1.648353e+00 5.051333e+00 -2.854166e+00 6.597335e+00 -1.512927e-01 -1.351808e-01 -6.461557e-01 1.916352e-01 -2.366107e-01 -4.994348e-01 1.063660e-01 4.812036e-02 2.435341e-01 -8.221357e-01 -3.441767e-01 2.271970e-01 -6.692514e-01 0.000000e+00 
-1.333917e+01 2.100522e+00 -3.492138e-01 -3.323833e+00 3.811861e+00 4.667181e+00 2.786067e-01 6.661193e+00 5.371890e+00 7.495666e+00 -3.419815e+00 4.274786e+00 -1.512927e-01 -8.413000e-02 -1.946425e-01 -5.458684e-02 1.114634e-01 -3.845004e-01 -2.705265e-01 -5.517948e-01 -1.792171e-01 -8.247143e-01 2.997643e-01 5.543615e-01 2.838678e-01 0.000000e+00 
-1.359587e+01 -4.051106e-01 -1.495726e+00 -7.471457e-01 4.604817e+00 -1.992912e+00 -4.164023e+00 1.579032e+00 4.185850e+00 8.559645e+00 -3.926978e-01 4.645205e+00 -1.512927e-01 -1.838674e-01 -1.137200e-01 -1.132870e-02 7.679654e-01 -2.562340e-01 -6.659179e-01 -4.575110e-01 -2.763487e-01 3.268981e-01 1.123113e+00 -1.278214e-01 -1.018757e+00 0.000000e+00 
-1.359704e+01 1.586916e+00 -2.532308e+00 -1.869839e+00 5.924948e+00 -1.333693e+00 -5.301467e+00 2.442742e+00 1.812162e+00 6.436088e+00 -2.059259e+00 3.957030e+00 -1.512927e-01 1.305965e-01 -7.355158e-01 -8.756698e-01 7.546395e-02 1.618283e+00 3.580782e-01 -4.460428e-01 -2.358900e+00 -9.094330e-01 1.535002e+00 6.680272e-01 -6.390945e-01 0.000000e+00 
-1.390828e+01 1.875304e+00 -6.752512e-01 -2.389378e+00 6.439828e+00 -2.898949e-01 -1.652514e+00 4.464707e+00 5.062708e+00 1.119668e+01 -4.173551e+00 1.662426e+00 -1.512927e-01 9.173449e-01 -1.639104e+00 -1.511415e+00 -1.090335e+00 1.031167e+00 2.495695e+00 3.080297e-01 -4.182409e+00 -1.522705e+00 1.520100e+00 1.049647e-01 -2.107300e+00 0.000000e+00 
-1.252998e+01 -2.717264e+00 -5.137801e+00 -2.125397e+00 1.098577e+01 5.606063e+00 -3.207362e+00 -6.576143e+00 3.862964e-01 1.385216e+01 1.810748e+00 2.570703e+00 -1.512927e-01 1.280102e+00 -2.667831e+00 -1.602227e+00 -1.508583e+00 1.287194e-01 2.786422e+00 -1.765502e-01 -4.120421e+00 -1.315191e+00 3.277302e-01 5.669216e-01 -6.699818e-01 0.000000e+00 
-9.542674e+00 -6.448540e+00 -7.750054e+00 -6.071043e+00 7.230243e+00 7.015685e+00 -3.670927e+00 -1.482357e+01 -2.714739e+00 1.245211e+01 -1.802878e+00 -5.198129e+00 -1.512927e-01 3.765947e-01 -8.306405e-01 -6.401755e-01 -9.215481e-01 -7.494804e-01 6.774918e-01 -1.002173e+00 -1.477553e+00 -5.310931e-01 -1.551895e+00 6.473908e-01 1.219220e+00 0.000000e+00 
-9.379330e+00 -7.590315e+00 -7.006044e+00 -7.571923e+00 6.173337e+00 8.945629e+00 -5.175012e+00 -8.515223e+00 -8.750703e-01 7.447025e+00 -4.099870e-01 4.037399e+00 -1.512927e-01 -6.828998e-01 1.266125e+00 7.495731e-01 4.908350e-01 -1.179261e+00 -2.068442e+00 -9.846592e-01 3.009328e+00 1.669453e+00 -1.603739e+00 -1.011518e+00 1.084077e+00 0.000000e+00 
-1.360064e+01 1.586268e-01 -2.942007e+00 -4.273856e+00 5.098642e+00 1.427781e+00 -5.679555e+00 -1.953518e+00 3.037926e+00 6.639773e+00 1.737709e-01 7.025176e+00 -1.512927e-01 -1.360481e+00 1.247059e+00 7.875429e-01 1.683325e+00 -1.033951e-01 -3.085393e+00 -4.220468e-01 3.444166e+00 5.442415e-01 -6.452545e-01 1.240911e+00 1.746419e+00 0.000000e+00 
-1.391550e+01 3.097774e-01 -3.793958e+00 -5.698156e-01 6.155265e+00 -1.942193e+00 -7.126344e+00 2.035469e+00 5.857231e+00 8.739632e+00 -4.235169e+00 1.879436e+00 -1.512927e-01 -6.473163e-01 -1.181138e+00 -1.177979e+00 1.930529e+00 1.058215e+00 5.579424e-03 4.112937e-01 7.767814e-01 -3.444955e-01 2.745724e-01 1.076396e+00 6.492569e-01 7.839823e-03 
-1.407699e+01 -4.163292e+00 -5.418382e+00 -1.155470e+00 6.722303e+00 -2.967368e+00 -4.805495e+00 -2.878087e+00 -3.359683e+00 8.579537e+00 6.314267e+00 4.612947e+00 -1.512927e-01 4.749564e-01 -2.157660e+00 -1.315733e+00 -1.216628e-01 -6.799808e-01 3.140591e+00 1.962002e+00 -4.358207e-01 -1.005496e+00 3.877922e-01 5.201976e-01 5.416628e-01 3.919912e-03 
-1.237773e+01 -1.133504e+01 -1.165775e+01 5.215275e-01 1.065258e+01 1.117110e+01 -3.555574e+00 -4.169032e+00 6.012561e-01 7.850005e+00 1.901747e+00 8.489798e+00 -1.120936e-01 5.478311e-01 7.504521e-02 5.566925e-01 -2.820862e+00 -2.763652e+00 3.488670e+00 1.668316e+00 2.555790e+00 -5.811996e-01 -1.852488e+00 -9.141217e-01 6.480560e-02 5.859470e-03 
-1.199474e+01 -4.807260e+00 -5.588773e+00 -5.427841e+00 -5.499210e-01 1.057409e+01 2.345071e+00 -1.030372e+00 6.384337e-01 9.023547e+00 -2.936990e-01 6.428309e+00 -1.512927e-01 1.452000e+00 2.715313e+00 1.133559e+00 -2.717398e+00 -3.292094e+00 6.848630e-01 1.429566e+00 4.258634e+00 -2.431461e-01 -4.209936e+00 -4.681420e+00 -2.100636e+00 -9.901762e-04 
-1.221747e+01 1.006987e+00 -9.253004e-01 -1.253794e+01 -4.026883e+00 8.730426e+00 -2.360045e+00 1.389056e+01 9.521745e-01 -7.448139e-01 -5.501795e+00 1.295782e+00 -1.219953e-01 2.044791e+00 4.288645e+00 1.410417e+00 -1.833956e+00 -2.826734e+00 -3.143259e+00 1.912195e+00 2.653461e+00 -2.258166e+00 -3.158358e+00 -3.121156e+00 -2.843140e+00 -7.839823e-03 
-6.897123e+00 3.242260e+00 -5.116812e+00 -8.212724e+00 -2.398432e+00 1.677284e+00 1.744571e+00 9.385288e+00 -4.750872e+00 -8.172733e+00 -1.339106e+01 -2.293226e+00 -1.512927e-01 2.169534e+00 2.241118e+00 2.609937e-01 2.446574e-01 -7.449328e-01 -4.522817e+00 9.887532e-01 3.400677e-01 -1.452978e+00 -8.313139e-01 -1.175918e+00 -2.474212e+00 -2.929735e-03 
-4.702586e+00 6.083423e+00 -4.841648e+00 -7.255815e+00 -2.556830e+00 -9.679133e-02 6.305651e+00 3.890443e+00 -7.994919e+00 6.563544e-01 -7.155349e+00 -1.365136e+00 -1.512927e-01 1.804712e+00 9.125963e-01 2.600661e-01 1.855527e+00 3.642611e-01 -3.586668e+00 1.021460e+00 -2.016617e+00 -7.023915e-01 1.909442e+00 1.003066e+00 1.007934e-01 -5.859470e-03 
-4.904510e+00 3.860114e+00 -2.325631e+00 -6.845618e+00 -5.009611e+00 -7.626390e+00 2.955990e+00 5.670025e+00 -2.152913e+00 4.166394e+00 -5.346511e+00 -4.612291e+00 -1.512927e-01 2.454017e+00 1.646119e+00 2.233999e+00 1.823875e+00 4.619836e-01 -1.563380e+00 -1.210265e+00 -2.700288e+00 1.791985e-01 2.967399e+00 1.821432e+00 2.135900e-01 5.736111e-02 
-4.190218e+00 5.261043e+00 -1.020561e+00 -3.943861e+00 -8.999882e-01 -4.551075e+00 2.141544e+00 5.665106e+00 -3.858763e+00 2.632832e+00 -4.508741e+00 2.959282e+00 -1.512927e-01 3.918015e+00 1.304156e+00 3.327857e+00 1.815325e+00 -1.224702e+00 -2.513134e+00 -1.929104e+00 -1.295849e+00 -9.221864e-02 -8.572787e-01 2.741173e+00 -5.595870e-02 1.438911e-01 
5.116779e+00 1.188405e+01 4.142640e+00 -7.493255e-01 -9.169350e-01 -3.912472e+00 -2.224702e+00 -5.003483e+00 -5.922957e+00 5.676025e+00 -5.607208e+00 -3.387485e+00 1.355129e-01 4.156698e+00 1.716446e+00 3.171638e+00 1.771600e+00 -1.939428e+00 -1.519775e+00 -1.249206e+00 -1.262073e+00 -1.393900e+00 -1.724049e+00 4.087396e+00 -3.785657e-01 1.590216e-01 
9.876842e+00 8.592234e+00 8.563498e+00 -1.227332e+00 -1.072668e+01 -1.451942e+01 -7.495244e-01 2.747951e+00 -6.570990e+00 -4.384855e+00 6.680864e+00 -2.257332e+00 4.247599e-01 3.339124e+00 1.339135e-01 2.525995e+00 4.236868e-01 -3.720777e+00 -1.280132e+00 -1.770942e+00 -7.832724e-01 -5.313284e-01 -2.237223e+00 4.253068e+00 -5.955035e-01 1.508739e-01 
8.845449e+00 1.077675e+01 8.740530e+00 6.541164e-01 -9.793406e+00 -1.024109e+01 -1.844508e+00 8.182397e-01 -7.766297e+00 -9.450102e-01 9.495668e+00 -3.896812e+00 3.557892e-01 1.168427e+00 -1.233848e+00 1.145295e+00 -2.896656e-01 -4.042334e+00 -1.198041e-01 -1.507000e+00 5.602726e-01 4.881111e-01 -2.548136e+00 3.096560e+00 1.067961e+00 8.460171e-02 
1.064107e+01 6.484260e+00 9.310469e+00 -2.527148e+00 -1.506564e+01 -7.787424e+00 -6.903262e+00 -1.162117e+00 -5.593735e+00 -5.242767e+00 9.205164e+00 2.364284e-01 4.929386e-01 2.603814e-01 -7.852618e-01 -1.294661e-01 -4.071845e-01 -2.150193e+00 1.351131e+00 -1.478732e+00 -9.799507e-01 1.248509e+00 -8.370498e-01 2.714934e-01 1.023717e+00 4.424905e-02 
1.057680e+01 6.768795e+00 9.495629e+00 -1.547746e+00 -1.895913e+01 -7.877490e+00 -6.682835e+00 -2.470864e-01 -3.971029e+00 -6.635702e+00 8.613443e+00 7.054389e-01 5.244321e-01 1.831258e-01 -1.035071e+00 -3.904182e-01 -2.603150e-01 -2.030203e+00 -3.737549e-01 -3.420637e-02 -7.374758e-01 2.017016e+00 -7.136871e-01 -4.503827e-01 9.446875e-01 5.666947e-02 
1.031307e+01 6.669901e+00 7.538618e+00 -2.162324e+00 -1.689479e+01 -8.945566e+00 -5.724019e+00 -1.619139e+00 -2.226080e+00 -5.724759e+00 8.479445e+00 5.601270e-01 5.616837e-01 -2.134672e-01 -5.371954e-01 -7.904442e-01 2.067959e-01 -7.259289e-01 -1.385706e+00 1.680175e+00 -6.905706e-01 2.265072e+00 1.048488e+00 -8.038646e-01 3.952638e-01 4.040184e-02 
9.925075e+00 5.508574e+00 7.674364e+00 -8.298709e-01 -1.902984e+01 -1.153080e+01 -2.605161e+00 -2.640628e+00 6.349561e-01 -4.272450e+00 7.606616e+00 6.647751e-01 6.047640e-01 -2.807108e-01 -8.808528e-01 -1.041932e+00 1.476926e-01 -1.052624e+00 -1.025563e+00 2.045546e+00 -6.077812e-01 2.120583e+00 1.527899e+00 -6.352288e-01 6.759902e-01 4.754230e-02 
9.899592e+00 4.428393e+00 6.268880e+00 -1.852106e+00 -1.865992e+01 -1.288930e+01 -5.412235e-01 -3.418199e+00 3.428633e+00 -1.181954e+00 5.689255e+00 2.233079e+00 6.547818e-01 -1.982593e-01 -1.332911e+00 -9.955170e-01 -1.412247e-01 -1.828513e+00 -1.725207e-01 2.350304e+00 -5.631588e-01 2.074831e+00 1.079242e+00 -6.068559e-01 6.164055e-01 5.355325e-02 
9.379987e+00 3.485285e+00 4.920838e+00 -9.643915e-01 -2.333968e+01 -1.103344e+01 9.534965e-01 -2.386462e+00 3.804528e+00 -1.267608e+00 6.832393e+00 3.248914e+00 7.155945e-01 -1.199237e-01 -1.660387e+00 -1.393630e+00 -1.095192e+00 -1.402940e+00 1.000218e+00 2.305695e+00 1.002403e-01 1.638206e+00 2.644446e-01 -1.128494e+00 2.337879e-01 5.549145e-02 
9.594321e+00 1.016991e+00 3.937796e+00 -2.801187e+00 -2.388243e+01 -1.005685e+01 4.248171e+00 -4.562016e+00 6.563291e+00 -1.830972e+00 5.832276e+00 2.350085e+00 7.740347e-01 -1.394232e-01 -1.763481e+00 -1.761595e+00 -1.379900e+00 -1.350000e+00 2.360193e+00 1.966344e+00 1.392363e+00 1.312088e+00 -1.279546e+00 -1.409892e+00 -7.137443e-01 5.182371e-02 
9.478091e+00 -1.087661e+00 1.871758e+00 -5.831293e+00 -2.343329e+01 -7.945934e+00 6.528618e+00 -1.567518e+00 7.258660e+00 -2.625718e+00 1.892638e+00 1.775212e+00 8.225948e-01 -2.813787e-01 -1.717051e+00 -1.750974e+00 -1.859614e+00 -1.345015e-01 2.951673e+00 1.341959e+00 2.304694e+00 8.603748e-01 -1.754245e+00 -2.123053e+00 -8.154634e-01 4.190049e-02 
9.153424e+00 -2.102539e+00 -1.014557e+00 -6.318156e+00 -2.536312e+01 -2.632087e+00 6.502937e+00 3.134142e+00 8.262006e+00 -6.900627e+00 1.109673e+00 -5.987912e-01 8.604002e-01 -5.186700e-01 -1.419220e+00 -1.982399e+00 -1.821429e+00 9.236141e-01 3.716281e+00 4.142590e-01 2.552685e+00 -2.812801e-01 -2.122842e+00 -1.867882e+00 8.195946e-02 3.402435e-02 
8.193542e+00 -3.540207e+00 -1.357853e+00 -8.503979e+00 -2.327184e+01 1.254714e-02 6.535908e+00 5.288928e+00 7.257045e+00 -7.504004e+00 -1.421570e+00 6.460347e-01 8.819141e-01 -6.787285e-01 -1.197436e+00 -1.733496e+00 -1.746193e+00 2.027256e+00 3.779303e+00 2.413513e-01 1.532298e+00 -1.199577e+00 -2.324117e+00 -1.304231e+00 1.254757e+00 2.638229e-02 
7.643246e+00 -4.852836e+00 -4.359392e+00 -1.057199e+01 -1.934508e+01 4.545313e+00 6.315821e+00 4.773184e+00 5.157698e+00 -1.000604e+01 -1.850033e+00 3.324471e+00 9.144968e-01 -5.668328e-01 -1.222363e+00 -1.200242e+00 -1.830489e+00 3.071460e+00 2.912843e+00 1.340207e-01 5.741463e-02 -1.569909e+00 -1.924627e+00 -8.425525e-01 2.056491e+00 1.825144e-02 
6.839538e+00 -5.699692e+00 -5.123304e+00 -1.243534e+01 -1.630603e+01 7.361880e+00 7.828933e+00 5.274451e+00 2.812927e+00 -1.269360e+01 -3.148666e+00 6.087364e+00 9.274580e-01 -3.628621e-01 -1.196326e+00 -1.130300e+00 -1.228677e+00 3.053629e+00 2.443546e+00 -2.866526e-02 -1.032313e+00 -1.316927e+00 -1.732821e+00 -1.086083e-01 2.344225e+00 1.575031e-02 
6.996263e+00 -7.134610e+00 -5.133040e+00 -1.350492e+01 -1.348872e+01 8.257464e+00 6.526528e+00 3.428454e+00 2.634519e+00 -1.392896e+01 -2.239542e+00 6.963001e+00 9.288855e-01 -2.215877e-01 -1.204261e+00 -6.141840e-01 -5.257184e-01 2.767606e+00 1.527617e+00 -3.352332e-01 -2.122427e+00 -4.343175e-01 -9.845201e-01 1.014860e+00 1.573112e+00 8.106256e-03 
6.702724e+00 -8.380948e+00 -6.622528e+00 -1.318090e+01 -1.093188e+01 1.037420e+01 6.287228e+00 7.997264e-01 1.934000e+00 -1.420665e+01 -1.769857e+00 1.054789e+01 9.534714e-01 -1.897407e-01 -1.129197e+00 -5.653293e-01 -1.398469e-01 2.621181e+00 1.051030e+00 -3.147025e-01 -3.340291e+00 2.359829e-01 -3.807732e-01 1.767984e+00 1.019911e+00 1.149842e-02 
6.603714e+00 -9.533514e+00 -6.680700e+00 -1.282780e+01 -8.194128e+00 1.067724e+01 5.410507e+00 -3.601587e+00 3.425574e+00 -1.417211e+01 2.534862e+00 8.959765e+00 9.420214e-01 -3.409650e-01 -1.141383e+00 -3.980622e-01 1.623865e-01 2.546432e+00 8.314969e-01 -4.669872e-01 -3.358813e+00 4.517414e-01 2.994778e-01 1.536975e+00 4.224347e-01 1.526051e-02 
6.087109e+00 -1.014622e+01 -7.176120e+00 -1.347314e+01 -5.847425e+00 1.140714e+01 6.813431e+00 -7.911985e+00 3.597314e+00 -1.447589e+01 3.304054e+00 1.018853e+01 9.783821e-01 -7.417232e-01 -1.028348e+00 1.476466e-01 -8.371763e-02 2.657192e+00 2.345314e-01 -1.176238e+00 -2.615556e+00 5.100225e-01 1.188287e+00 9.475754e-01 -5.161478e-01 1.004176e-02 
5.599245e+00 -1.195889e+01 -6.846555e+00 -1.254687e+01 -3.298793e+00 1.189848e+01 3.928490e+00 -9.009754e+00 4.061568e+00 -1.229696e+01 2.908376e+00 9.254854e+00 9.927326e-01 -8.884764e-01 -8.950586e-01 -5.910058e-02 6.757127e-01 1.742137e+00 7.203127e-01 -2.557575e+00 -1.517764e+00 1.032286e+00 1.306909e+00 6.651539e-01 -1.041872e+00 9.546017e-03 
3.496343e+00 -1.231000e+01 -5.801368e+00 -1.373995e+01 -9.358692e-02 1.093624e+01 1.147045e+00 -9.573971e+00 4.166115e+00 -9.202791e+00 2.781263e+00 7.819611e+00 9.783245e-01 -8.402662e-01 -8.564757e-01 -2.898952e-01 1.809119e+00 8.309778e-01 7.928403e-01 -3.633584e+00 -9.895294e-01 2.148584e+00 1.040039e+00 1.034259e+00 -1.637547e+00 4.028338e-03 
3.456716e+00 -1.292692e+01 -7.663579e+00 -9.315829e+00 -2.360360e+00 1.451425e+01 -4.544176e+00 -1.035942e+01 8.302603e+00 -1.027412e+01 6.122027e+00 4.934866e+00 9.897802e-01 -6.904668e-01 -5.632107e-01 -2.020502e-01 2.291838e+00 4.190332e-01 -1.718308e-01 -3.217766e+00 -6.474846e-01 2.658162e+00 7.697423e-01 6.850680e-01 -1.714596e+00 -2.554178e-03 
2.957042e+00 -1.394459e+01 -8.217084e+00 -6.043064e+00 -2.161752e+00 1.406346e+01 -7.118153e+00 -1.218480e+01 1.221972e+01 -1.028711e+01 6.868521e+00 4.160796e+00 1.000000e+00 -4.176182e-01 -6.196070e-01 2.018204e-01 2.873708e+00 5.354700e-02 -1.174390e+00 -2.695550e+00 -2.747914e-01 2.743559e+00 8.850639e-01 -6.657999e-01 -1.333619e+00 -4.427838e-03 
2.416562e+00 -1.395765e+01 -6.648948e+00 -4.936121e+00 -1.695442e-01 9.475714e+00 -8.027740e+00 -1.094176e+01 1.332558e+01 -7.906084e+00 4.290087e+00 2.511283e+00 9.691240e-01 -4.666509e-01 -4.558235e-01 9.709274e-01 2.996407e+00 -4.739744e-01 -2.121611e+00 -1.813982e+00 2.036981e-01 2.093921e+00 1.349584e+00 -2.291832e+00 -5.255467e-01 -1.353813e-02 
1.928329e+00 -1.489267e+01 -5.299582e+00 -1.561270e+00 -9.212599e-01 7.583555e+00 -1.058893e+01 -1.065675e+01 1.537242e+01 -5.961488e+00 3.682332e-01 2.363309e+00 9.665135e-01 8.969305e-02 -3.091875e-01 1.817174e+00 3.625592e+00 -9.396880e-01 -2.163848e+00 -1.022730e+00 9.401733e-01 -2.868002e-01 1.854089e+00 -2.149056e+00 -8.728957e-01 -4.148031e-02 
1.637818e+00 -1.473199e+01 -4.267694e+00 3.425308e+00 -5.350478e+00 7.146149e+00 -1.187870e+01 -1.010495e+01 1.719586e+01 -5.689007e+00 -2.086992e+00 3.205876e+00 9.388329e-01 7.367192e-01 6.355378e-01 3.111420e+00 3.523573e+00 -7.315616e-02 -3.881864e+00 1.655660e+00 6.559919e-01 -3.435282e+00 2.026188e+00 -6.285626e-01 -2.210313e+00 -7.284541e-02 
3.794879e+00 -1.510335e+01 -3.218399e-01 7.904183e+00 -4.269725e+00 4.409000e+00 -1.030632e+01 -7.902342e+00 8.850576e+00 -2.125204e+00 -6.882210e-01 -5.509788e-01 8.077440e-01 8.740778e-01 1.461202e+00 3.934090e+00 1.733998e+00 1.257555e+00 -5.851074e+00 4.595163e+00 3.898912e-01 -4.712985e+00 8.783611e-01 8.614971e-01 -2.981320e+00 -8.336759e-02 
5.166883e+00 -1.067462e+01 6.419281e+00 7.949019e+00 1.138907e+00 -8.346327e+00 1.092596e-01 -9.039009e+00 -5.899091e-01 3.067164e-01 1.675501e+00 -7.083138e+00 6.842817e-01 5.101715e-01 1.892826e+00 3.585356e+00 2.877426e-02 1.882032e+00 -6.234848e+00 5.668049e+00 2.215598e-01 -3.966085e+00 -3.733907e-01 1.257824e+00 -2.734384e+00 -6.802084e-02 
4.534185e+00 -9.615348e+00 9.027383e+00 4.846863e+00 2.121824e+00 -1.392558e+01 6.392908e+00 -9.240268e+00 7.003796e-01 -4.567544e+00 2.794472e+00 -7.398783e+00 6.769511e-01 -2.158682e-01 1.866346e+00 2.024495e+00 -9.122027e-01 9.675962e-01 -4.271944e+00 4.545543e+00 2.413774e-01 -1.647478e+00 -1.287277e+00 6.305376e-01 -1.110027e+00 -3.609166e-02 
3.819022e+00 -8.011865e+00 8.984475e+00 5.097839e+00 8.639092e-01 -1.486080e+01 8.111929e+00 -8.328186e+00 1.440531e+00 -6.334791e+00 2.460783e+00 -7.042140e+00 6.641251e-01 -3.808061e-01 1.218893e+00 3.179886e-01 -7.565406e-01 -4.087071e-02 -7.646823e-01 1.916482e+00 6.800908e-01 -2.156241e-01 -1.203791e+00 2.009383e-01 2.044359e-01 -2.185057e-02 
3.389468e+00 -7.102997e+00 8.518040e+00 4.768760e+00 7.057557e-01 -1.369348e+01 8.420057e+00 -7.050867e+00 -4.020324e-01 -5.240833e+00 2.071826e+00 -6.121613e+00 6.373640e-01 2.498903e-01 9.225398e-01 -5.664157e-01 -5.224940e-01 2.468956e-01 1.240637e+00 5.994089e-01 1.368610e+00 -7.048218e-01 -5.240822e-02 2.771211e-02 -3.246890e-01 -3.481851e-02 
3.835210e+00 -5.836330e+00 8.263896e+00 4.205368e+00 1.642588e+00 -1.228579e+01 8.678093e+00 -6.733256e+00 -1.116824e+00 -5.375597e+00 3.041516e+00 -6.699543e+00 5.948224e-01 9.225506e-01 5.287441e-01 -2.224946e-01 2.186961e-02 9.339471e-02 1.906004e+00 -2.169004e-01 2.587090e+00 -1.610745e+00 4.985481e-01 -8.459835e-02 -4.913962e-01 -4.501151e-02 
5.775542e+00 -6.090416e+00 6.555594e+00 2.680628e+00 2.966963e+00 -9.009904e+00 9.106871e+00 -3.194685e+00 -1.545052e+00 -5.309183e+00 2.642666e+00 -9.193526e+00 5.375099e-01 1.245077e+00 5.796071e-01 7.103672e-02 8.665401e-01 1.388221e-02 1.618801e+00 -3.555947e-01 2.726452e+00 -1.837780e+00 1.383988e+00 -6.321894e-01 -8.530387e-01 -5.174068e-02 
7.238739e+00 -5.874434e+00 8.853225e+00 6.251253e+00 2.002792e-01 -7.672572e+00 6.684020e+00 2.679171e+00 -6.041686e+00 -3.807875e+00 1.752371e+00 -7.963164e+00 4.889947e-01 7.200910e-01 1.438914e+00 2.397526e-01 1.415293e+00 3.185548e-01 8.345903e-01 -2.263559e-01 2.727888e+00 -1.764159e+00 2.156212e+00 -1.278183e+00 -2.610871e-01 -5.435536e-02 
7.913088e+00 -4.185909e+00 8.578559e+00 8.078518e+00 1.496321e+00 -7.906081e+00 7.639120e+00 1.875180e+00 -7.128500e+00 8.952458e-01 -4.445481e-01 -9.754995e+00 4.315745e-01 -1.245322e-01 2.126966e+00 4.762853e-01 1.945963e+00 9.228398e-01 1.137401e-01 4.144937e-01 1.594915e+00 -9.165500e-01 1.858444e+00 -1.206446e+00 1.594973e-01 -5.132047e-02 
6.366893e+00 4.059855e-01 8.451177e+00 8.582891e+00 3.970683e+00 -8.664747e+00 8.280189e+00 4.371250e+00 -7.145893e+00 2.303251e+00 -1.805793e+00 -7.724244e+00 3.760133e-01 -8.477535e-01 2.103527e+00 -4.739657e-01 1.928917e+00 2.444951e+00 1.485315e+00 4.512818e-01 5.457006e-02 -4.601493e-02 8.557876e-01 -1.726184e+00 -2.799308e-01 -4.732208e-02 
5.588804e+00 1.404204e+00 9.138044e+00 1.124462e+01 5.695960e+00 -7.945116e+00 1.038126e+01 3.933851e+00 -5.575698e+00 9.274766e-01 -1.610483e+00 -8.515500e+00 3.373982e-01 -1.231378e+00 1.465472e+00 -8.312051e-01 2.257535e+00 3.133617e+00 2.522061e+00 -5.060343e-01 4.386206e-01 -4.870496e-01 -6.390740e-01 -2.001265e+00 -6.704264e-01 -4.583938e-02 
4.162113e+00 1.848143e+00 6.203653e+00 1.431278e+01 1.032521e+01 -2.264800e-01 7.569362e+00 1.922687e+00 -7.048162e+00 4.549479e-01 -6.295579e+00 -9.982566e+00 2.994724e-01 -1.602573e+00 6.606250e-01 -1.645937e+00 1.431888e+00 3.145665e+00 4.759922e+00 -6.663134e-01 9.848019e-01 -7.835574e-02 -7.820539e-01 -1.963436e+00 -7.431815e-01 -5.502171e-02 
2.858586e+00 2.420371e+00 5.546295e+00 1.650125e+01 1.398714e+01 4.850898e-01 5.464362e+00 5.292565e+00 -9.612614e+00 -1.375973e+00 -8.205978e+00 -1.197797e+01 2.406481e-01 -1.599667e+00 5.865360e-01 -1.986870e+00 -8.850733e-01 2.428201e-01 3.780548e+00 -1.682846e+00 1.321883e+00 2.642522e-02 5.206053e-01 -2.626677e-01 9.103270e-01 -7.085836e-02 
-2.808646e-01 3.201027e+00 2.017366e+00 1.311402e+01 1.555342e+01 1.091976e+01 7.407068e+00 8.615902e+00 -5.519214e+00 -4.552946e-01 -8.325222e+00 -9.708919e+00 1.492798e-01 -9.980072e-01 8.150591e-01 -1.498538e+00 -2.649672e+00 -1.766850e+00 6.379854e-01 -1.721066e+00 8.870988e-01 3.425024e-01 1.458954e+00 1.294430e+00 2.230964e+00 -6.981909e-02 
-1.880428e-01 3.660442e+00 1.296836e+00 7.418639e+00 4.295959e+00 5.384503e+00 2.048169e+00 7.196657e+00 -6.208046e+00 3.985624e+00 -1.909000e+00 -4.100689e+00 5.820274e-02 -3.122622e-01 9.026964e-01 -7.377468e-01 -2.816088e+00 -1.954869e+00 -5.498131e-01 -2.065204e+00 -8.904988e-01 1.704494e-01 1.242774e+00 1.907849e+00 1.889270e+00 -5.376757e-02 
6.953909e-01 5.303403e+00 8.356950e-01 5.605730e+00 6.336552e+00 5.137407e-01 6.721261e-01 5.406134e+00 -7.037933e+00 5.068922e+00 -2.971916e+00 -2.766383e+00 4.159963e-02 1.295410e-01 6.997693e-01 9.958343e-02 -1.459159e+00 -1.610780e+00 -2.124071e+00 -2.507616e+00 -2.377034e+00 -6.524789e-01 1.613513e+00 2.563970e+00 1.724696e+00 -3.079158e-02 
8.091469e-01 5.882665e+00 2.448397e+00 6.174952e+00 8.821231e+00 2.939034e+00 -1.494188e+00 2.444955e+00 -8.001007e+00 2.075791e+00 -1.343389e+00 -6.002884e+00 2.565032e-02 -2.561205e-01 2.037249e-02 -7.249705e-01 -6.267363e-01 2.728260e-01 -5.378280e-01 -5.648597e-01 -1.782766e+00 -3.144402e-01 -5.706285e-01 3.261366e-02 -5.921787e-01 -2.309834e-02 
-1.317545e-01 5.588762e+00 1.939503e+00 6.440072e+00 5.236876e+00 1.522140e+00 -3.359835e+00 -8.934149e-01 -7.885128e+00 8.567190e+00 4.211820e+00 -1.343433e-01 1.159811e-02 -3.570883e-01 -2.556716e-01 -9.359443e-01 -4.759651e-01 -8.171463e-03 -3.856378e-01 -3.830678e-01 -7.851003e-01 6.481270e-01 -8.807935e-01 -2.277713e-01 -3.590098e-01 -2.748751e-02 
-1.055072e+00 3.619625e+00 -2.879920e+00 3.867786e+00 6.209926e+00 2.191163e+00 1.239851e+00 1.432603e+00 -7.356649e+00 -6.166520e-01 -5.337800e+00 -8.377603e+00 -4.228818e-02 -3.680064e-01 6.788430e-02 -6.178921e-01 -6.714066e-01 -4.351566e-02 -7.598709e-01 1.160513e+00 1.065435e+00 1.626325e+00 -1.647382e-01 -7.505155e-01 1.102644e+00 -2.278591e-02 
-1.579410e-01 5.156566e+00 -1.179868e+00 4.379487e+00 7.601347e+00 -1.040513e+00 -2.610232e+00 1.986809e+00 -4.119477e+00 2.011176e+00 -2.113567e+00 -3.374073e+00 -6.186867e-02 9.792812e-02 5.411519e-01 3.609806e-01 -3.710138e-01 -3.250017e-01 -1.087234e+00 1.037247e+00 9.217411e-01 1.614523e+00 3.157138e-01 -1.014786e-01 3.957928e-01 -1.332484e-02 
-1.017792e+00 6.438185e+00 9.186219e-01 3.848211e+00 7.421418e+00 4.210057e-01 3.933575e+00 6.332020e+00 -1.752207e+00 4.530107e+00 -1.933273e+00 1.130200e+00 -5.154586e-02 4.769061e-02 4.943943e-01 5.269511e-01 -1.854323e-01 -4.366762e-01 -1.710545e+00 -2.644193e-02 -6.006399e-01 1.266495e+00 1.054540e+00 1.702650e+00 1.730784e+00 -1.524271e-02 
3.392459e-01 6.885242e+00 1.845135e+00 4.594790e+00 3.006122e+00 -3.028950e+00 4.795401e-01 1.265582e+00 -2.614732e+00 7.572379e+00 2.002164e+00 -2.909280e+00 -5.039728e-02 -2.451508e-01 -5.428480e-01 -1.788789e-01 3.231204e-01 2.972496e-01 -2.832521e-01 -2.625694e-01 -1.211551e+00 2.004264e-01 -2.928678e-01 -5.276134e-02 3.935204e-01 -2.011915e-02 
-1.065213e+00 5.227259e+00 -1.757666e+00 2.832973e+00 6.324158e+00 -5.367345e+00 -4.372451e-01 -1.209983e+00 -1.776546e+00 1.875447e+00 1.117586e+00 4.391980e-02 -1.242374e-01 -4.053218e-01 -8.899971e-01 -8.111798e-01 5.702802e-01 1.661205e+00 3.957218e-01 -9.979486e-01 -2.094578e+00 1.758530e-01 -1.126800e+00 -2.947109e-01 -3.326364e-01 -2.274133e-02 
-1.359985e+00 3.047789e+00 -7.361183e-01 6.502708e+00 9.636226e+00 4.374022e-01 -1.737669e+00 -2.999458e-01 -3.105176e+00 1.874167e+00 -3.902803e+00 -8.633312e-01 -1.261187e-01 -3.201867e-01 -8.618216e-02 -1.333387e-02 8.136740e-01 1.639759e+00 1.275073e+00 4.954374e-01 -3.006026e-01 1.226763e+00 -1.849751e+00 -1.079306e+00 -9.082149e-01 2.024519e-03 
-2.194786e+00 3.906926e+00 -1.846650e+00 5.745653e+00 1.241239e+01 6.664382e-01 5.243635e-02 -3.358103e+00 -6.277199e-01 1.745212e+00 -4.543440e-01 -1.555957e+00 -1.273918e-01 3.956097e-01 3.949589e-01 5.330838e-01 4.674440e-01 3.445029e-01 1.606104e+00 1.358308e+00 1.381720e+00 1.093126e+00 4.213826e-01 7.819925e-01 -1.049176e+00 2.661078e-02 
-6.969012e-01 7.114497e+00 1.822958e+00 7.206820e+00 8.160800e+00 3.295224e-01 2.711887e+00 8.366294e-01 2.944669e+00 -1.611256e+00 -2.608399e+00 -6.650416e+00 -3.869748e-02 5.966290e-01 1.057540e+00 5.329806e-01 -1.823953e-01 -1.451036e+00 3.200066e-01 6.208984e-01 1.144718e+00 9.429215e-01 4.621898e-01 1.497961e+00 1.253356e-01 2.783517e-02 
5.812941e-01 5.168699e+00 -3.717851e-01 4.818137e+00 8.784385e+00 2.717114e+00 4.129519e+00 5.130328e+00 6.641618e-01 5.725071e+00 4.380347e+00 -2.308416e+00 -3.489411e-02 5.002784e-01 3.996016e-01 2.109028e-01 -3.184780e-01 -2.507255e+00 -2.564464e-01 -1.429245e+00 7.611014e-01 -6.026104e-01 2.959478e-01 1.130718e+00 9.973415e-01 1.735225e-02 
2.351207e-01 7.704601e+00 1.191352e+00 6.054490e+00 4.195047e+00 1.012097e+00 -6.717180e-01 1.179431e+00 9.634911e-01 2.195186e+00 1.169655e+00 1.395762e-01 -3.319168e-02 -9.158827e-02 -5.426090e-01 -4.013258e-01 -1.626888e-01 -9.930817e-01 6.918764e-02 -1.940487e+00 8.021591e-01 -1.746212e+00 3.223697e-01 -3.093694e-01 3.479142e-01 -2.874374e-03 
-1.594049e-01 5.609882e+00 -4.763332e-01 4.729428e+00 1.858994e+00 -9.570811e-01 -5.401988e+00 2.760031e-01 -2.650183e+00 1.321730e+00 3.310218e+00 3.575373e-02 -4.338348e-02 -4.253656e-01 -4.602180e-01 -4.268302e-01 -9.008112e-02 -9.189828e-02 -1.163644e-01 -1.345879e+00 5.601897e-01 -1.458022e+00 1.404169e-02 -1.270544e+00 -4.844581e-01 -6.611359e-03 
-7.844931e-01 4.180861e+00 -1.313970e-01 6.437731e+00 6.658087e+00 2.512558e+00 -2.224794e+00 7.274588e+00 -4.129216e+00 2.202264e+00 -3.620182e+00 -6.082930e+00 -4.882467e-02 -1.255333e-02 1.398250e-01 -3.220424e-01 3.216136e-01 2.258262e+00 1.658004e+00 3.212246e-01 1.530796e+00 -1.094006e+00 1.902764e-01 -1.163276e+00 2.752802e-01 2.067954e-02 
-1.035727e+00 4.629479e+00 -1.844562e+00 4.176111e+00 7.093374e+00 1.385061e+00 -1.823339e+00 4.883698e+00 -4.079594e+00 5.791740e+00 4.225450e-01 -1.619454e+00 -6.013441e-02 -2.314303e-02 7.967008e-01 1.823454e-01 4.745329e-01 2.132057e+00 1.604659e+00 -8.155402e-02 9.738182e-01 -8.655357e-02 5.000221e-01 -5.314912e-01 1.346625e+00 1.807624e-02 
6.105152e-01 8.893928e+00 2.652540e-01 7.939217e+00 1.286917e+01 8.131044e+00 -8.549197e-01 6.529565e+00 -3.791832e+00 9.115624e-01 -3.202887e+00 2.343581e+00 7.858151e-02 -1.656859e-01 6.690426e-01 2.839172e-01 7.951945e-01 9.332672e-01 6.111525e-01 -1.557784e+00 -6.451733e-01 -4.103239e-01 -1.573633e-02 -5.131377e-02 1.055903e+00 1.618848e-02 
-9.726242e-01 7.236853e+00 2.370683e-01 6.351350e+00 9.413737e+00 4.256971e+00 -6.494696e+00 5.517605e+00 -3.251643e+00 4.467191e+00 4.441152e-01 2.555621e+00 -1.670539e-02 -1.312708e-01 -1.542418e-01 -8.836802e-02 -1.233958e-01 -5.341195e-01 -1.066945e+00 -1.641341e+00 3.545198e-01 -8.488999e-02 -2.084051e-01 3.108574e-01 2.840845e-01 -3.747952e-03 
-1.644474e+00 6.222387e+00 2.473738e-01 9.326084e+00 1.016424e+01 4.132366e+00 -7.678036e+00 3.731768e+00 -6.594811e+00 2.785857e+00 -3.887536e+00 -2.890954e+00 1.040322e-02 -1.569254e-01 -1.807016e-01 -9.423229e-01 -2.058153e+00 -1.860875e+00 -1.431642e+00 9.034801e-02 2.322131e-01 1.139655e-02 -8.476435e-02 4.241784e-01 7.703499e-02 -2.732925e-02 
-5.645865e-01 5.194041e+00 -2.277462e+00 2.865698e+00 5.775240e+00 -1.950324e+00 -6.618488e+00 8.055196e+00 -3.102554e+00 3.812568e+00 2.319156e+00 2.418236e+00 -4.478502e-02 5.478187e-01 6.351897e-01 -6.907523e-01 -2.046251e+00 -1.251127e+00 -8.287597e-01 2.058110e+00 -1.749992e-01 2.304873e-02 -1.065875e+00 -9.453757e-02 3.328016e-01 -3.333628e-04 
-3.781308e-01 9.011826e+00 -3.189095e+00 -6.087253e-01 5.384044e+00 4.076482e+00 -3.412836e-01 6.421835e+00 -3.809393e+00 8.150523e-01 -2.019516e+00 2.797449e+00 -4.402494e-02 4.556228e-01 8.832442e-01 -5.193038e-01 -2.013617e+00 -1.300017e+00 -5.179768e-01 2.619690e-01 -1.524847e+00 1.009705e+00 -2.398241e-01 5.588863e-01 8.165306e-01 -3.344417e-03 
1.133297e+00 9.018082e+00 -1.498459e+00 1.087500e+00 5.548203e+00 1.411147e-01 1.274772e-01 3.297576e+00 -4.529108e+00 1.232181e-01 -9.625828e-01 1.375428e+00 8.841872e-03 1.443446e-01 1.943722e-01 -1.241722e-01 1.143236e-02 6.777263e-01 -1.337020e-02 -1.356932e+00 -1.943536e+00 1.120442e+00 5.364163e-02 -1.372416e+00 -1.030859e+00 5.662465e-03 
-2.153021e-01 8.726587e+00 -2.738647e+00 1.470997e-01 3.777677e+00 4.967628e-01 -9.741173e+00 -1.513658e+00 -8.330109e-01 3.431411e+00 5.477653e-01 1.713103e+00 -3.313231e-02 -1.498694e-02 -8.116171e-01 -1.493991e-01 7.764792e-01 1.358487e+00 -8.976026e-01 -2.555452e+00 -9.225456e-01 1.518229e+00 6.564466e-01 -1.247808e+00 -1.355199e+00 1.345098e-03 
7.572210e-02 6.308521e+00 -3.123547e+00 2.544947e+00 9.967054e+00 -2.273152e-01 -8.703204e+00 2.305264e+00 1.011464e+00 2.772596e+00 -5.826565e+00 -2.193887e+00 -2.191901e-02 -1.824126e-01 -7.837188e-01 -3.635076e-01 5.312742e-01 1.502708e+00 -1.460938e-01 -1.662339e+00 1.834297e-01 1.292562e+00 4.639942e-01 -1.610229e+00 -1.104562e+00 -5.030847e-03 
