3.453648e+00 1.669804e+00 -2.313589e+00 1.196717e+00 1.197648e+00 -3.624156e+00 2.142272e+00 -5.054493e+00 -5.504827e+00 -1.205479e+00 3.348077e+00 6.275868e+00 -1.512927e-01 -9.592161e-02 3.415874e-01 2.127503e-01 -4.904509e-01 -1.847574e-01 1.904169e+00 -1.714766e-02 6.636352e-01 -4.716214e-01 1.249587e-01 -8.138481e-01 -6.571154e-01 0.000000e+00 
3.550277e+00 2.886042e+00 -2.530351e+00 2.467041e+00 9.837370e-01 4.784417e+00 2.956470e+00 6.224651e-01 -6.205926e+00 -3.444828e+00 4.765152e-01 6.685314e+00 -1.512927e-01 -4.230758e-01 -9.273944e-02 -2.580166e-01 -1.238498e+00 -1.215417e+00 1.508831e+00 1.247409e+00 2.131487e+00 3.321819e-01 1.159899e+00 1.074927e-01 -8.713585e-01 0.000000e+00 
2.925725e+00 2.769622e+00 -1.141457e+00 -1.890700e+00 3.808172e-01 1.692403e+00 1.649436e+00 -4.574796e+00 -7.512384e+00 5.389894e-01 7.146174e-01 2.785568e+00 -1.512927e-01 2.591372e-02 1.509735e-01 -1.233928e-02 -9.896485e-01 -1.327900e+00 6.705756e-01 1.238247e+00 2.279758e+00 6.913410e-01 3.282435e-01 -8.642101e-01 -1.102461e+00 0.000000e+00 
1.602230e+00 6.561978e-01 -4.189738e+00 -3.452065e+00 -4.471020e+00 1.261720e+00 8.625734e+00 5.363094e+00 -2.840138e+00 3.721782e+00 5.202271e+00 3.664225e+00 -1.512927e-01 1.918138e-01 1.882405e-01 9.961724e-02 -7.376167e-01 -8.004509e-01 -9.628795e-01 -5.618632e-02 1.784122e-01 5.709673e-01 1.569519e-01 -1.133856e+00 -1.953530e+00 0.000000e+00 
4.557240e+00 3.539594e+00 -1.545592e+00 -7.919728e-01 -2.714473e+00 1.490070e+00 5.498878e+00 3.973982e+00 -3.731015e+00 -3.147566e+00 -3.335851e+00 2.274107e+00 -1.512927e-01 2.603869e-01 1.374501e-01 5.656467e-01 8.122818e-01 -1.597590e-01 3.024839e-02 -6.440316e-01 -1.949562e-01 3.403852e-01 -2.728474e-01 -3.932445e-01 -1.450038e+00 0.000000e+00 
3.693588e+00 3.442259e+00 -1.830197e+00 -1.770406e+00 -1.470872e+00 7.118583e-02 7.508173e-01 -2.759863e+00 -5.241774e+00 -8.167905e-01 -3.167529e+00 -2.826608e+00 -1.512927e-01 1.049042e-04 -2.814040e-01 1.131653e-01 7.345077e-01 -1.052833e-01 -7.214736e-01 -6.689571e-01 -1.224122e+00 2.471315e-01 3.511899e-01 -7.201233e-01 -2.131578e-01 0.000000e+00 
3.181980e+00 2.063842e+00 5.070062e-01 1.329879e+00 -1.918051e+00 2.438912e+00 2.366736e+00 -1.488098e+00 -4.609640e+00 1.444039e+00 2.933294e+00 -1.219203e+00 -1.512927e-01 -4.967800e-01 -5.984536e-01 -3.211987e-01 -4.779862e-01 -3.522668e-01 -8.514918e-01 3.357260e-01 -5.528866e-01 3.201008e-01 3.269112e-01 3.754166e-01 4.691013e-01 0.000000e+00 
2.290384e+00 -1.294625e-02 -4.650210e+00 -8.404531e-01 -5.395647e+00 -2.820069e+00 6.847019e+00 1.973523e+00 -1.165168e+00 3.181929e+00 -1.532918e+00 4.345091e+00 -1.512927e-01 -4.554362e-01 -3.498203e-01 -4.190937e-01 -6.575596e-01 -8.629804e-01 -3.158487e-01 1.853814e+00 1.928040e-01 4.333201e-01 -3.776743e-01 -4.717008e-01 6.735553e-01 0.000000e+00 
2.774941e+00 2.274928e+00 -1.741578e+00 -3.646880e+00 -2.513420e+00 -1.321762e+00 4.129406e+00 -1.157144e+00 -4.168814e+00 -3.512370e+00 -2.276073e+00 1.033764e+00 -1.512927e-01 -3.331261e-01 -1.852839e-02 -2.622533e-01 -1.069043e+00 -6.262258e-01 -2.710283e-01 6.924352e-01 -2.463714e-01 4.778362e-01 4.135656e-01 -1.200992e+00 -1.224139e+00 0.000000e+00 
1.619926e+00 1.587614e+00 -2.801373e+00 -2.569824e+00 -5.488090e+00 3.722789e-01 9.138552e+00 -1.961320e+00 -3.295587e+00 -2.269574e-01 -2.921349e+00 -5.853149e-01 -1.512927e-01 2.423101e-01 3.453746e-01 5.721946e-01 -3.440381e-01 4.631077e-01 1.292715e+00 1.362672e-01 -7.899324e-01 -5.207275e-01 8.367296e-01 5.422254e-01 -2.133335e+00 0.000000e+00 
1.851579e+00 1.170920e+00 -1.728679e+00 -3.150649e+00 -5.002959e+00 -5.124035e-01 4.683146e+00 -7.525337e-01 -1.155250e+00 5.216311e+00 -2.377450e+00 -4.874696e+00 -1.512927e-01 4.133109e-01 4.475514e-01 3.438698e-01 3.502539e-01 -1.715746e-02 -5.306581e-01 -4.813656e-01 -1.038860e+00 -8.440241e-01 1.084496e+00 -3.290028e-02 -1.266964e+00 0.000000e+00 
3.963616e+00 2.265931e+00 -1.795687e+00 -2.808759e+00 -1.835339e+00 3.238830e+00 7.251485e+00 -2.178444e+00 -5.275588e+00 3.001237e+00 1.228897e+00 -3.367352e+00 -1.512927e-01 9.869750e-01 1.047585e+00 8.985332e-01 8.007166e-01 2.048713e-01 -1.163223e+00 -1.573929e+00 -1.506034e+00 -4.858829e-01 -4.044861e-01 -6.732194e-01 -1.125012e+00 0.000000e+00 
3.669651e+00 4.173527e+00 -5.250724e-01 -1.776143e+00 -4.425582e+00 -5.408328e+00 2.666112e+00 -6.242881e+00 -7.398933e+00 2.960147e-01 -4.515697e+00 -3.910036e+00 -1.512927e-01 6.083455e-01 7.839353e-01 6.329061e-01 1.052498e+00 4.790517e-01 -9.300794e-02 -1.545560e+00 -1.778166e+00 -3.577650e-01 -1.760746e+00 -1.211984e+00 -3.601250e-01 0.000000e+00 
5.645765e+00 5.324235e+00 1.089490e+00 7.465056e-01 -4.752421e+00 -2.995874e+00 2.277424e+00 -6.746317e+00 -2.603159e+00 2.107599e-01 -5.218323e+00 -6.692706e+00 -1.512927e-01 4.802446e-02 7.404575e-02 1.158565e-01 7.436363e-01 1.251651e-01 2.374793e-01 -1.541270e+00 -8.697343e-01 -2.542328e-01 -1.745485e+00 -1.144408e+00 -3.804232e-01 0.000000e+00 
4.052232e+00 3.561444e+00 -6.737471e-03 3.342058e-01 -1.149160e+00 2.139909e+00 -5.576229e-01 -7.359426e+00 -4.280289e+00 -2.192183e+00 -5.213762e+00 -5.012644e+00 -1.512927e-01 -4.157057e-02 -7.920934e-01 -4.153741e-01 3.302906e-01 -3.422839e-01 4.324599e-01 2.241708e-01 6.392301e-01 4.173136e-02 -3.897142e-02 1.628167e+00 6.748751e-01 0.000000e+00 
4.012448e+00 2.942201e+00 -1.475572e+00 -1.457524e-01 -2.847724e+00 6.521078e-01 1.157005e+00 -5.968843e+00 -8.106073e+00 -4.482090e+00 -4.144109e+00 -4.718164e+00 -1.512927e-01 -6.710127e-01 -7.301814e-01 -1.009010e+00 5.761508e-01 1.796155e-02 3.963055e-01 -6.926778e-01 1.891833e-01 -8.806800e-01 1.616505e+00 1.668664e+00 1.182784e+00 0.000000e+00 
4.278457e+00 1.404077e+00 -1.319412e+00 3.214394e-01 -7.089350e+00 -5.070019e+00 4.347176e+00 -3.435467e+00 -4.438819e+00 2.447583e+00 3.088031e+00 -1.522931e+00 -1.512927e-01 -4.378894e-01 -4.925012e-01 -5.861508e-01 3.263158e-01 -5.479010e-01 6.526507e-01 1.122663e-01 2.225403e-01 2.723588e-01 1.861272e+00 7.869242e-01 9.801924e-01 0.000000e+00 
2.177589e+00 2.752012e+00 -3.299221e+00 3.633643e+00 -1.692518e+00 2.590617e+00 -3.638364e+00 -7.762380e+00 -6.927294e+00 5.973402e+00 -1.025900e+00 -2.523641e+00 -1.512927e-01 -1.863004e-01 -2.931768e-01 -9.653697e-02 1.893411e-01 1.296443e-01 1.428366e+00 3.254741e-01 1.571354e-01 2.223957e-01 7.959992e-01 3.415442e-01 1.429799e+00 0.000000e+00 
2.780214e+00 1.194033e+00 -2.025668e+00 7.608688e-02 -4.466268e+00 4.433908e+00 2.401393e+00 -5.349956e+00 -3.507885e+00 1.886431e+00 -2.838246e+00 -1.208944e+00 -1.512927e-01 -8.327702e-01 -6.671602e-01 3.399350e-01 -6.571194e-01 1.298210e+00 2.316983e+00 1.540596e+00 7.409185e-01 -6.727667e-02 -1.890571e+00 -6.071784e-01 1.091183e+00 9.250188e-03 
3.830068e+00 1.581339e+00 -1.605129e+00 9.236295e-01 -3.511044e+00 3.041976e+00 3.757267e+00 -4.225923e+00 -7.459563e+00 -2.215181e-01 5.267504e-01 2.273840e+00 -1.512927e-01 -1.883261e+00 3.720310e-02 1.022743e+00 -1.673328e+00 2.006949e+00 4.746619e-01 3.042737e+00 1.851295e+00 -5.974705e-01 -1.146917e+00 8.644564e-02 7.005011e-01 4.447131e-02 
-7.116337e-01 -1.346388e+00 -4.667828e-01 -1.609151e+00 3.109646e-01 6.289214e+00 8.352340e+00 -1.499104e+00 -4.509068e+00 -3.907812e+00 -7.241864e-01 1.534244e+00 -1.050417e-01 -2.164183e+00 2.018919e+00 1.453853e+00 -1.617769e+00 3.219647e+00 -1.263488e+00 7.003076e-01 5.884874e-01 -4.975202e-01 2.145022e-01 -2.685106e-01 1.388893e+00 5.648038e-02 
-5.492792e+00 4.208238e+00 1.035053e+00 -3.890377e+00 5.953608e+00 4.036273e+00 8.599852e+00 -4.313331e-01 -9.414055e+00 3.135940e+00 -1.650701e+00 -3.927294e-01 4.793841e-02 -1.695803e+00 2.903819e+00 9.400194e-01 -1.148482e+00 1.557609e+00 -1.748358e+00 -2.636270e+00 -6.461135e-01 1.061725e+00 2.176332e+00 -1.484561e+00 6.579753e-01 6.491435e-02 
-3.379272e+00 9.975176e+00 3.923506e+00 -5.605752e+00 6.899642e+00 -2.380680e+00 3.481639e+00 -4.304814e+00 -5.018240e+00 1.280213e+00 -3.092073e+00 7.068805e+00 3.149366e-02 -4.035007e-01 2.249831e+00 4.300364e-01 -7.635849e-01 -7.370749e-01 -1.662309e-01 -3.361139e+00 2.372381e-01 1.912228e+00 3.426506e+00 -5.415502e-01 1.038792e+00 5.000368e-02 
-3.315130e+00 1.043965e+01 8.998239e-01 -2.820480e+00 9.826628e-01 -1.364869e+00 -6.988734e+00 -6.053635e+00 -1.896354e+00 8.066131e+00 -5.712113e+00 2.796436e+00 1.050113e-01 8.622743e-01 3.964310e-02 2.674336e-01 3.053803e-02 -2.590936e+00 3.778996e-01 -3.048341e+00 7.879709e-01 3.822535e+00 6.791230e-01 4.403555e-01 -4.598051e-01 -2.406755e-02 
-3.817968e+00 6.787063e+00 1.751013e+00 -5.962023e+00 -8.889372e-01 8.158630e+00 -6.590643e-01 2.498238e+00 1.293224e+00 1.075962e+01 -1.401231e+00 5.133623e+00 1.164402e-01 8.941501e-01 -1.235230e+00 -2.910827e-01 2.465733e-01 -1.614826e+00 2.224214e+00 -5.705398e-01 6.987549e-01 2.001114e+00 -1.222911e+00 1.360268e+00 -2.005372e+00 -5.854566e-02 
-9.620724e-01 6.000510e+00 3.458467e+00 -3.559551e+00 -3.106781e+00 6.561166e-01 -4.571503e+00 1.069958e-01 6.542888e+00 1.791851e+00 -2.943441e-01 -1.724164e+00 -1.148726e-01 4.005627e-01 -4.461093e+00 2.200937e+00 1.762830e+00 -2.561477e+00 8.610744e-01 2.839561e+00 5.905252e-02 7.057835e-01 -3.818700e+00 1.300803e+00 -4.336800e-01 -2.853470e-02 
-8.505058e-02 6.018598e+00 1.188771e+00 -4.003350e+00 8.702344e-01 7.729898e+00 -5.796757e-01 -3.891354e+00 7.677109e-01 -1.697202e+00 1.000380e+00 -6.977537e-01 -1.512927e-01 -1.410993e+00 -6.758430e+00 3.580143e+00 4.333314e+00 -1.779419e+00 -3.003369e-01 2.754205e+00 -2.155854e+00 -5.213763e-01 -3.992685e+00 1.026153e+00 7.940130e-01 7.929361e-02 
-3.178776e+00 -1.148158e+01 1.218563e+01 5.014330e+00 -1.270431e+01 3.154869e+00 7.169374e+00 -2.563576e+00 1.895320e+00 -4.798956e+00 -4.089040e-01 3.543724e+00 9.620428e-02 -1.088000e+00 -5.368454e+00 2.675524e+00 3.712955e+00 -2.873561e+00 5.992733e-01 2.249908e+00 -1.625998e+00 -2.238880e+00 -1.635022e+00 1.491666e-01 2.479362e+00 8.525210e-02 
-9.764582e+00 -1.826404e+01 1.528815e+01 1.141760e+01 -4.987266e+00 5.407569e+00 7.241523e+00 -6.945745e+00 1.010126e+00 -5.908396e+00 3.786815e+00 6.469744e+00 4.073698e-01 6.008676e-01 -3.969074e+00 1.385475e-01 1.008565e+00 -2.377583e+00 -3.683919e-01 4.130445e-01 -6.268364e-01 -2.091333e+00 5.469145e-01 5.298614e-04 6.100029e-01 5.571902e-02 
-1.562305e+00 -8.700441e+00 9.786399e+00 7.294744e+00 -1.454584e+01 4.813647e+00 2.767438e+00 -6.495797e+00 -4.772721e+00 -4.277663e+00 -9.417285e-01 7.088896e+00 3.205669e-02 1.579528e+00 6.556862e-01 -3.116286e+00 -1.413623e+00 1.695658e-01 6.441479e-01 -1.237185e+00 6.327097e-01 -2.966092e+00 2.950303e+00 1.679014e-01 -6.348666e-01 -2.522870e-02 
2.111053e+00 -1.521734e+01 3.081124e+00 -1.007310e-01 -1.009692e+01 5.058550e+00 3.686515e+00 -5.059426e+00 -6.354934e+00 7.767236e-01 1.269442e+00 5.796745e-01 1.593762e-01 1.003757e+00 3.425981e+00 -3.025992e+00 -2.867915e+00 1.103909e-01 1.086465e+00 -2.529835e+00 2.517699e+00 -1.479896e+00 2.100594e+00 -1.528110e+00 -6.332795e-01 -2.434188e-02 
-1.218952e+00 -9.726500e+00 2.707715e+00 3.705383e+00 -9.301656e+00 6.550118e+00 2.760951e+00 -3.431869e-01 -9.252607e+00 6.609996e+00 1.689289e+00 3.314425e+00 9.405756e-02 -1.445781e+00 3.047391e+00 -7.390198e-01 -9.971986e-01 1.765858e+00 1.016125e+00 -1.803041e+00 3.476091e+00 2.564244e-01 7.792338e-01 -3.831933e-01 8.152221e-01 1.946934e-02 
-4.917473e+00 -6.211082e-01 3.697529e+00 -1.127291e+00 -7.057401e+00 9.971661e+00 -5.404409e+00 2.566446e+00 -4.149413e+00 -8.492548e-01 -5.169244e+00 5.190581e+00 2.546600e-01 -1.012365e+00 2.667832e+00 1.126926e+00 2.637640e+00 8.456144e-02 -2.002334e+00 7.755882e-01 1.641928e+00 1.803650e+00 -7.775978e-01 -3.957443e-02 2.095052e+00 -5.230829e-02 
-5.276947e+00 -7.616011e-01 5.783098e+00 2.822031e+00 -7.236302e+00 7.437719e+00 -1.702305e+00 7.071723e+00 -4.593360e+00 4.314947e-01 3.616484e-01 8.859553e+00 8.176154e-02 1.078875e+00 2.484000e+00 -4.742607e-01 1.523841e+00 1.602734e+00 -1.449057e+00 1.199600e+00 -1.331737e+00 1.538239e+00 -3.061988e-01 3.804337e-01 4.501666e-01 -8.413777e-02 
-9.217758e-01 -6.360633e+00 7.178061e+00 1.352914e+01 -1.070679e+01 -5.396920e+00 9.796083e+00 -5.572376e-01 3.336897e-01 -2.201456e-02 1.735390e+00 8.282369e+00 -9.601724e-02 2.120417e+00 1.729176e+00 -2.127554e+00 1.027815e+00 3.028733e+00 -1.806494e+00 2.537968e+00 -2.259474e+00 5.476907e-01 1.517930e+00 4.006103e-01 -6.201774e-01 -1.044960e-01 
2.177574e+00 5.563264e+00 -1.403854e+00 3.996372e+00 5.367050e-01 6.989121e+00 1.158707e+00 -5.440027e+00 -3.802961e+00 4.665382e+00 1.391410e-01 4.019364e+00 -1.512927e-01 2.047415e+00 2.317111e+00 -2.260549e+00 -4.665304e-01 2.604312e+00 -2.206192e-01 1.143533e+00 -5.170584e-01 9.569885e-01 8.022264e-01 -3.890509e-01 -1.137651e+00 -5.213839e-02 
1.957354e+00 4.862341e+00 -3.346766e+00 3.424616e+00 4.199761e+00 1.163488e+00 5.854927e+00 -2.475047e+00 -1.806159e+00 4.623451e+00 -3.054939e+00 4.509789e+00 -1.512927e-01 3.412357e-01 -3.867791e-01 -9.403432e-01 -3.251354e+00 1.775990e+00 8.875633e-01 -1.018146e+00 2.492313e+00 -1.619066e-01 -7.930295e-01 -2.109010e-02 -1.877626e+00 2.562066e-02 
3.520565e+00 5.212468e+00 -2.572320e-01 5.541643e+00 -1.668016e+00 3.054420e+00 5.985940e+00 5.445335e+00 1.261507e+00 2.119894e+00 8.115588e-01 5.057588e+00 -1.512927e-01 -1.697867e+00 -3.630458e+00 1.984381e+00 -2.275855e+00 -1.974827e-01 -1.913415e+00 -6.111780e-01 4.794785e+00 -6.356462e-01 -3.163780e+00 -4.176207e-02 -1.582241e+00 1.206495e-01 
1.129074e-01 -8.119131e+00 1.903033e+00 -3.500262e+00 -7.244753e-01 1.008247e+00 2.291739e+00 6.461646e+00 -3.008077e+00 -2.714418e+00 1.293731e+00 -1.624872e+00 3.208607e-02 -3.193107e+00 -3.617794e+00 1.739555e+00 -3.401942e+00 6.416145e-01 -1.747150e-01 -1.315059e+00 2.935953e+00 -1.497860e+00 -2.878013e+00 7.600101e-01 -2.821655e+00 1.942096e-01 
-5.389538e+00 -6.098290e+00 5.893150e+00 -3.920463e+00 2.011410e+00 -2.500331e+00 -1.155896e-01 1.406555e+01 -6.380233e+00 -7.484584e+00 -2.244004e+00 -8.245095e-01 3.602653e-01 -4.039854e+00 -1.847700e+00 1.272869e+00 -3.221133e+00 1.693216e+00 1.821097e-01 -3.887053e-01 1.971742e-01 -1.118853e+00 -8.847321e-01 3.258931e-01 -2.527344e+00 2.165530e-01 
-9.553129e+00 -7.571249e+00 2.275818e+00 -8.854041e+00 5.568120e+00 3.067289e+00 2.330399e+00 7.894611e+00 -5.474589e+00 -4.964377e+00 2.272893e+00 -6.657439e+00 5.639765e-01 -3.489297e+00 5.982522e-01 -1.049703e-01 -6.581248e-01 1.707795e+00 6.808878e-01 -2.211628e-01 -1.712059e+00 -1.828990e-01 1.198967e+00 8.332084e-01 -1.378750e+00 1.654281e-01 
-1.184568e+01 -4.299972e+00 5.920722e+00 -7.887130e+00 3.651763e+00 2.935447e+00 4.023084e+00 5.714723e+00 -3.099500e+00 -1.178787e+00 1.951443e+00 -5.062846e+00 6.655271e-01 -2.356078e+00 7.112642e-01 -1.617273e+00 -1.235744e+00 3.418991e-01 9.010674e-01 -3.689667e-01 -2.722563e+00 3.389971e-01 1.496302e+00 1.369046e+00 -1.384106e-01 9.788598e-02 
-1.410550e+01 -6.027030e+00 1.364396e+00 -4.807552e+00 6.994324e+00 1.694797e+00 -8.834114e-01 2.076765e+00 -5.562939e+00 1.275173e-01 3.362049e+00 -6.399453e+00 7.065958e-01 -1.296192e+00 2.307790e+00 -1.163470e+00 -1.035070e-01 4.857454e-01 -1.390490e+00 -1.598105e-01 -1.519369e+00 2.699279e-01 1.241378e+00 3.753126e-01 6.342910e-01 7.789804e-02 
-1.489374e+01 -3.314079e+00 -1.737504e+00 -1.212243e+01 3.007803e+00 2.691252e+00 -3.535180e-01 3.361662e+00 -4.641073e+00 -2.549019e+00 4.056647e+00 -1.645555e+00 7.783855e-01 -7.877254e-01 2.372935e+00 -1.899839e+00 -5.941017e-01 3.001369e-01 -1.324152e+00 8.735043e-01 -1.084514e+00 8.355050e-01 9.846897e-01 -7.332101e-01 6.963505e-01 7.025875e-02 
-1.451006e+01 3.474756e+00 2.875791e-01 -7.253926e+00 8.318828e+00 -3.763064e+00 3.719647e+00 1.474296e+00 -3.354163e+00 1.927628e+00 3.096854e+00 -5.194630e+00 8.970375e-01 -6.167137e-01 2.036060e+00 -1.652999e+00 -6.772802e-01 -7.016153e-01 -1.773920e+00 1.974218e+00 -6.949927e-01 9.977080e-01 5.647856e-01 -1.635434e+00 3.405234e-01 6.171254e-02 
-1.558203e+01 2.813808e+00 -3.040067e+00 -9.634452e+00 4.490196e+00 -9.563813e-01 6.089076e+00 5.933895e-01 -2.636205e-02 2.844607e+00 -1.582010e+00 -2.183506e+00 9.216000e-01 8.911018e-02 1.866216e+00 -6.761380e-01 1.348166e+00 7.562767e-01 -8.626798e-01 2.319655e+00 -1.318316e+00 -5.810542e-01 1.438493e+00 -1.441366e+00 -3.137214e-01 4.400131e-02 
-1.684493e+01 1.089325e+00 -6.249318e+00 -9.437943e+00 2.745052e+00 -5.350986e+00 5.766383e+00 -1.406240e-02 -2.881755e+00 2.546325e-01 -1.995794e+00 -4.427861e+00 9.435512e-01 -1.964302e-01 6.149982e-01 -1.398404e+00 5.354486e-01 -8.864336e-02 -4.536236e-01 4.545327e-01 -1.052835e+00 -1.865615e+00 -4.432678e-02 -2.130745e+00 7.017954e-02 2.594602e-02 
-1.328076e+01 7.209717e+00 -1.849746e+00 -4.289592e+00 9.576076e+00 -8.281863e-01 1.022139e+01 -2.485739e+00 -7.782548e+00 5.479943e+00 -6.038605e-01 -3.597547e+00 9.751352e-01 3.149300e-02 1.177329e+00 -3.019219e-01 1.875657e+00 7.062150e-01 -5.184163e-01 -1.178318e-02 -1.436450e+00 -2.308586e+00 7.130037e-02 -5.613259e-01 3.812766e-02 1.973183e-02 
-1.664285e+01 4.351792e+00 -7.299604e+00 -7.249113e+00 5.332671e+00 -6.095279e+00 3.926155e+00 -2.250313e+00 -8.804143e+00 3.883257e-01 -8.045945e+00 -4.136712e+00 1.000000e+00 -8.313370e-02 7.232080e-01 -4.468723e-01 1.670103e+00 5.161090e-01 1.026085e+00 -4.434013e-03 1.991301e-01 -3.151305e-01 1.501483e-01 -7.827948e-01 -9.479205e-01 8.887035e-03 
-1.552561e+01 7.069218e+00 -4.024533e+00 -1.350581e+00 6.727461e+00 -3.176316e+00 6.950274e+00 -5.470734e+00 -8.608098e+00 3.134262e+00 -1.363564e+00 -2.138442e+00 9.920347e-01 -2.752155e-01 -3.345692e-01 -7.591931e-01 1.428009e+00 -1.206512e+00 7.121744e-01 1.323671e-01 2.096572e+00 1.372909e+00 -9.602032e-01 -8.859712e-01 -1.692141e+00 -3.366101e-03 
-1.613817e+01 4.775614e+00 -7.396286e+00 -2.556931e+00 6.749903e+00 9.535017e-01 7.379770e+00 2.474085e+00 -4.044632e+00 2.178214e+00 -5.529916e+00 -9.897016e+00 9.795367e-01 5.824875e-01 -8.451114e-02 7.113719e-02 8.329175e-01 -1.993918e+00 1.152067e+00 6.038766e-01 2.222210e+00 1.267226e+00 2.919286e-01 1.653734e+00 -6.681859e-01 -1.492075e-02 
-1.490917e+01 5.324960e+00 -5.597371e+00 5.043626e-01 2.834901e+00 -7.917049e-01 9.156416e+00 5.634924e+00 -3.297758e+00 -2.160172e-01 -6.291731e+00 -9.178101e+00 9.685364e-01 7.383472e-01 -1.412754e+00 -2.711721e-01 -1.300119e+00 -3.423286e+00 8.916424e-01 -8.441607e-01 2.343421e+00 1.892079e+00 -6.329450e-01 1.082491e+00 1.684353e-01 -2.170300e-02 
-1.403863e+01 4.801365e+00 -6.157500e+00 -4.011997e+00 -2.690639e+00 -1.527250e+00 5.842466e+00 3.307907e+00 -5.123182e+00 3.523108e+00 2.686811e+00 -3.957812e+00 9.371454e-01 1.289195e+00 -1.980720e+00 1.305356e+00 -5.459700e-01 -2.030770e+00 1.368459e+00 -1.958998e+00 -2.316799e-02 7.427420e-01 -4.905343e-01 2.191986e+00 2.560577e+00 -5.159920e-02 
-1.288364e+01 -7.428765e-03 -5.999787e+00 -7.123642e+00 -5.668699e+00 2.522271e+00 3.498122e+00 5.829458e+00 1.391570e+00 -7.029099e-01 -5.947030e-02 -4.265867e+00 9.047154e-01 4.041454e+00 -1.187594e+00 2.123644e+00 6.680616e-01 -1.018397e+00 -6.654014e-02 -3.934308e+00 -1.813835e+00 1.644394e-01 6.214392e-01 1.186083e+00 7.954649e-01 -9.014477e-02 
-1.070496e+01 -2.461790e+00 -6.682951e-01 -1.472779e+00 8.478532e-01 6.138808e+00 4.139290e-01 2.260979e+00 -2.675586e+00 -3.101087e-02 2.313885e+00 4.497523e-01 7.534512e-01 7.529329e+00 -1.791501e+00 2.426316e+00 2.969314e+00 -6.334546e-01 -1.123963e+00 -4.773237e+00 -4.485961e+00 1.019144e+00 1.406513e-01 -8.295202e-01 -9.695096e-02 -6.683639e-02 
3.631262e+00 3.018566e+00 2.276245e+00 2.575062e+00 -4.026329e+00 -4.957435e+00 -7.800856e+00 -2.910785e+00 -3.699359e+00 4.668238e+00 -1.748554e-01 -7.404558e+00 6.096597e-01 8.326145e+00 -2.107155e+00 1.934182e+00 3.010744e+00 -1.935826e+00 -2.075266e+00 -4.392251e+00 -6.425354e+00 2.307801e+00 3.104373e-01 -5.222017e-01 5.309540e-01 -7.833863e-03 
1.535056e+01 -5.669140e+00 1.836063e+00 5.985223e+00 -6.679097e+00 -3.407211e+00 -1.237423e+01 -1.475178e+01 2.518004e+00 1.540791e+00 -1.403098e+00 -2.873221e+00 7.504913e-01 6.764898e+00 -2.934986e+00 1.014970e+00 2.192658e-01 -3.065981e+00 -2.488422e+00 -2.461808e+00 -5.073309e+00 4.568871e+00 -4.429846e-02 -3.789532e-01 2.199357e-01 5.870191e-02 
1.571932e+01 -8.939529e+00 2.418942e+00 4.201075e+00 -1.158435e+01 -3.081050e+00 -1.206905e+01 -1.779093e+01 1.033378e+01 6.337571e-02 -8.119878e-01 5.038953e-02 8.670260e-01 3.005192e+00 -3.628650e+00 4.116664e-01 -1.418679e+00 -1.797174e+00 -1.230214e+00 -6.969185e-02 -2.151024e+00 4.791616e+00 -6.768548e-01 3.808027e-01 1.342198e+00 8.108708e-02 
1.707550e+01 -1.115767e+01 4.335205e+00 -1.189456e+00 -1.070304e+01 -7.241496e+00 -9.761013e+00 -1.566549e+01 1.315220e+01 2.049928e+00 7.376853e-01 -2.178043e+00 9.182776e-01 6.182272e-01 -2.023355e+00 3.880997e-01 -2.078581e+00 -6.678913e-01 -2.327853e+00 8.901359e-01 1.172348e+00 2.760161e+00 -2.546671e-01 9.932369e-01 -1.891501e-02 4.308818e-02 
1.779476e+01 -1.238042e+01 3.085006e+00 -9.309916e-01 -1.100023e+01 -9.191364e+00 -9.455924e+00 -1.320905e+01 1.494162e+01 1.029395e+00 6.587666e-01 -1.041157e+00 9.312019e-01 4.508834e-01 -1.411650e+00 -2.035138e-01 -9.958702e-01 3.656331e-01 -2.349625e+00 2.577610e-02 2.429295e+00 4.370548e-01 -3.408193e-01 1.171224e+00 -5.767974e-01 1.725739e-02 
1.740398e+01 -1.406547e+01 3.443529e+00 -1.841648e+00 -1.031062e+01 -1.199132e+01 -9.230116e+00 -1.118098e+01 1.401489e+01 -2.155544e-01 2.827710e+00 -2.422023e+00 9.338442e-01 2.028022e-01 -1.073683e+00 -6.251829e-01 6.011345e-01 2.017524e-01 -1.720046e+00 -8.240315e-01 2.496524e+00 -5.114464e-01 -1.061275e+00 1.152645e+00 -3.561426e-01 7.728457e-03 
1.780950e+01 -1.454388e+01 1.847211e+00 -4.521802e-01 -9.952399e+00 -1.245426e+01 -1.220562e+01 -7.886713e+00 1.208771e+01 -5.079795e-01 3.999120e+00 -2.711607e+00 9.455296e-01 1.547178e-01 -8.088332e-01 -4.239685e-01 1.381991e+00 -3.393285e-01 -1.376789e+00 -1.020028e+00 2.969182e+00 -1.223148e+00 -1.429667e+00 6.400405e-01 -5.367601e-02 -1.075792e-03 
1.808214e+01 -1.544435e+01 1.828188e+00 1.576810e+00 -1.021819e+01 -1.421028e+01 -1.250632e+01 -5.844043e+00 1.202192e+01 -2.487759e+00 4.830731e+00 -3.123530e+00 9.497560e-01 3.059758e-01 -3.275604e-01 -1.719179e-01 1.482526e+00 -2.272217e-01 -1.392358e+00 -4.631243e-01 3.417178e+00 -2.060920e+00 -1.558163e+00 -5.360855e-01 1.020355e+00 -1.788997e-02 
1.822927e+01 -1.573514e+01 1.772834e+00 4.269734e+00 -1.274308e+01 -1.496583e+01 -1.291796e+01 -1.031608e+00 9.822366e+00 -4.982838e+00 2.857458e+00 -9.587831e-01 9.178671e-01 -9.612439e-02 6.723598e-01 2.198851e-01 1.638820e+00 -1.146898e-01 -1.694376e+00 8.356550e-01 3.154422e+00 -2.908217e+00 -2.478927e+00 -7.746493e-01 1.445163e+00 -4.359431e-02 
1.872398e+01 -1.510764e+01 2.621128e+00 3.210024e+00 -1.005138e+01 -1.769733e+01 -1.118957e+01 2.477352e+00 4.842957e+00 -5.768942e+00 7.181128e-01 1.803338e+00 8.582256e-01 -4.834384e-01 2.875603e+00 1.069143e+00 2.838991e+00 9.804557e-01 -1.565587e+00 1.712600e+00 3.730928e+00 -3.221484e+00 -2.578605e+00 -9.493599e-01 1.478698e+00 -1.140719e-01 
1.700796e+01 -1.135044e+01 2.550167e+00 6.925312e+00 -1.060925e+01 -1.918262e+01 -8.685723e+00 3.724699e+00 1.136108e+00 -1.126202e+01 2.182183e+00 2.050772e+00 7.733232e-01 -1.546293e+00 5.468727e+00 -1.627407e-02 2.084080e+00 2.561534e+00 -8.219032e-02 1.617145e+00 1.541098e+00 -2.970312e+00 -1.402765e+00 3.530567e-01 2.714591e+00 -2.409598e-01 
1.627560e+01 -3.258693e+00 6.785234e+00 1.444397e+01 -6.382828e+00 -1.992982e+01 -6.059444e+00 1.043244e+01 2.576295e-01 -1.224119e+01 4.215697e-01 2.765183e+00 4.516683e-01 -3.071413e+00 6.096162e+00 -1.299053e+00 -4.841467e-01 1.175115e+00 1.708020e+00 8.474800e-01 -2.317142e+00 -2.182346e+00 1.066713e+00 5.743492e-01 1.505041e+00 -2.876013e-01 
1.172199e+01 5.684016e+00 -3.905892e-01 9.073161e+00 -1.769686e+00 -1.426054e+01 -7.397300e+00 2.696338e+00 -2.736531e+00 -8.760536e+00 4.771013e+00 1.213325e+01 -8.365309e-02 -3.754733e+00 4.626241e+00 -1.279070e+00 -2.577771e+00 6.627713e-01 2.542501e+00 2.786059e-01 -4.859611e+00 -1.722842e+00 3.627950e+00 1.990557e-01 7.011234e-01 -2.452193e-01 
6.009895e+00 6.855937e+00 -2.403761e+00 -2.846342e-01 -8.595590e+00 -1.161827e+01 -7.596377e+00 -8.594175e+00 -4.132450e+00 -1.686120e+00 2.295444e+00 4.287305e+00 -1.512927e-01 -3.435350e+00 1.852547e+00 -6.063336e-01 -3.054489e+00 5.185212e-01 3.091820e+00 3.792344e-01 -4.594144e+00 -1.433713e+00 4.445531e+00 4.225151e-01 1.592130e-01 -1.273562e-01 
3.367144e+00 6.723455e+00 7.493124e-01 1.400758e+00 -6.189016e+00 -1.062589e+01 -6.524227e+00 -1.106005e+01 -5.283064e+00 1.600194e+00 2.240524e+00 4.795328e+00 -1.512927e-01 -2.094498e+00 -2.751808e-02 5.954123e-01 -6.650764e-01 5.743447e-01 2.807703e+00 1.837208e+00 -1.213309e+00 -3.488412e-02 2.877522e+00 -6.852840e-01 -1.166526e+00 -1.352792e-02 
3.276278e+00 5.484320e+00 3.183616e+00 3.007730e+00 -1.580557e+00 -6.288046e+00 -4.599809e+00 -5.660082e+00 -5.637667e+00 4.806101e+00 3.799390e+00 7.230209e+00 -1.512927e-01 -7.773288e-01 -6.546098e-01 1.837438e-01 9.375073e-01 2.003297e+00 3.396941e+00 2.741347e+00 1.388984e+00 1.712265e+00 1.566410e+00 -3.193693e-01 3.233839e-01 0.000000e+00 
2.616309e+00 6.232234e+00 -2.072161e-01 4.101597e+00 -2.405479e+00 -2.887134e+00 2.904549e-01 -4.837255e+00 -2.158344e+00 2.380964e+00 5.926198e-01 4.829169e+00 -1.512927e-01 -2.784514e-01 -7.852756e-01 -1.078630e+00 1.610390e-01 1.794845e+00 3.744202e+00 2.378805e+00 1.441121e+00 1.857239e+00 9.078351e-01 -3.118630e-01 -5.390535e-01 0.000000e+00 
2.498669e+00 3.828499e+00 -1.006777e+00 3.052483e+00 -4.708749e-01 1.497056e+00 2.703017e+00 -4.760651e+00 2.866515e+00 5.755546e+00 1.522549e+00 5.887304e+00 -1.512927e-01 9.115840e-01 -3.196855e+00 -3.529099e+00 -1.989137e+00 2.504201e+00 2.013858e+00 8.282676e-02 -7.038060e-01 2.149509e+00 -1.837530e+00 -5.443411e-02 -2.158114e+00 9.941159e-02 
2.363691e+00 3.624988e+00 -2.548643e+00 2.183577e+00 2.230367e+00 4.202574e+00 1.718383e+00 -4.304158e+00 -2.489626e-01 5.664648e+00 1.819630e+00 2.771513e+00 -1.512927e-01 1.719228e+00 -3.928810e+00 -3.603511e+00 -2.326328e+00 3.823905e+00 1.068084e+00 -1.980753e+00 -1.226468e+00 1.482202e+00 -2.455949e+00 6.798837e-01 -2.173213e+00 1.486709e-01 
7.960506e+00 -9.196330e+00 -1.329117e+01 -5.978946e+00 8.622527e+00 2.363887e-01 -4.899639e+00 -9.445660e+00 4.155185e+00 -6.023393e+00 2.913714e+00 -2.531533e+00 3.457653e-01 6.176381e-01 -2.728091e+00 -1.678666e+00 -1.426093e+00 3.522937e+00 -2.917885e-01 -3.179227e+00 -1.943740e-01 -1.203742e-01 -2.464324e+00 3.382871e-01 -2.174740e+00 1.810750e-01 
8.481532e+00 -6.899403e+00 -1.208257e+01 -3.014327e+00 1.216734e+01 3.083622e+00 -5.811983e+00 -8.627089e+00 4.608329e+00 -4.009313e+00 3.296456e+00 -1.827476e+00 3.435327e-01 -3.106985e+00 -2.649754e+00 1.021171e+00 5.894960e-01 8.827709e-01 -1.392789e+00 -2.698365e+00 3.030113e+00 4.670778e-01 -2.458519e-01 -5.793571e-03 -7.711763e-01 1.816852e-01 
2.527939e+00 -4.549761e+00 -4.633141e+00 -1.479030e+00 1.217532e+01 5.975893e-01 -9.427934e+00 -3.571055e+00 -1.640017e-01 -1.729098e+00 2.475572e+00 -2.686903e+00 5.066698e-01 -5.690599e+00 -3.187196e-01 3.367700e+00 1.270172e+00 -1.723665e+00 -1.335427e+00 -5.536688e-01 4.417274e+00 -1.315970e+00 1.913260e+00 -3.606066e-01 8.318009e-01 1.020998e-01 
-1.045495e+01 -1.194706e+01 -1.771800e+00 2.881099e+00 4.867824e+00 -2.941970e+00 -9.509293e+00 7.909107e+00 4.246020e+00 2.288240e+00 2.009733e+00 -1.006684e+00 6.766812e-01 -5.354515e+00 -2.467547e-01 1.871385e+00 -3.084042e-01 -1.958728e+00 -1.032911e+00 4.558623e-01 4.071557e+00 -1.356437e+00 6.939546e-01 -1.327880e+00 4.689356e-01 8.918036e-02 
-1.102425e+01 -8.266097e+00 -1.608055e+00 -2.575800e+00 3.653961e+00 -3.427950e+00 -5.819328e+00 4.372611e+00 -2.243509e+00 3.941291e-01 1.754043e+00 1.217076e+00 6.896898e-01 -2.804273e+00 1.304967e+00 1.393466e-02 -1.184135e+00 -1.650627e+00 -4.527413e-01 4.071607e-01 1.828274e+00 1.409641e+00 -3.126490e-01 -2.082914e+00 4.709845e-02 3.751308e-02 
-1.151495e+01 -6.275008e+00 -4.238194e+00 -4.007963e+00 6.634384e+00 -6.816220e-02 -5.336974e+00 7.758862e+00 -1.134104e+00 -1.601153e+00 -2.982181e+00 -1.434787e+00 6.979245e-01 -5.175245e-01 2.806442e+00 -4.176378e-01 -1.441563e+00 -7.424794e-01 -7.964587e-01 -5.813750e-01 -3.127156e-01 9.684588e-01 -2.346187e-01 -2.033841e-01 -4.727603e-01 1.176582e-02 
-1.096343e+01 -8.609563e-01 -3.330270e+00 -3.955173e+00 3.038910e+00 -3.103021e+00 -9.478290e+00 5.645435e+00 9.574267e+00 -1.347646e+00 -5.443040e+00 -2.237359e+00 6.836135e-01 -5.654213e-01 2.190555e+00 -2.295946e-01 -2.007128e-01 -2.851409e-01 -1.036883e+00 -1.133570e+00 -2.939705e-01 2.470898e-01 -5.111106e-01 6.907738e-01 4.701006e-03 1.752248e-02 
-1.307298e+01 -1.617424e+00 -2.998882e+00 -3.637029e+00 1.462951e+00 -7.086728e+00 -1.058669e+01 5.709116e+00 3.179426e+00 1.986034e+00 4.591354e+00 -1.643268e+00 7.385485e-01 -6.119909e-01 1.714715e+00 6.761678e-01 -2.620595e-01 2.212228e-01 -2.459169e-01 5.017828e-01 -1.340765e-01 -1.562465e+00 -6.719110e-01 1.143170e+00 5.386533e-01 2.247792e-02 
-1.307234e+01 3.578875e-01 -3.375685e+00 -3.764831e+00 4.813972e+00 -5.103082e+00 -8.862323e+00 3.927631e+00 -3.164825e+00 -3.955017e+00 1.421144e+00 1.344821e+00 7.569903e-01 -6.960205e-01 7.294053e-01 5.827564e-01 -4.915603e-01 1.144570e+00 2.778313e-01 2.948231e+00 1.449396e+00 -3.314134e+00 -1.338706e+00 1.154321e+00 6.019281e-01 1.888829e-02 
-1.352045e+01 1.689144e+00 -8.346481e-01 -5.413431e+00 6.852967e+00 -2.977166e-01 -3.136044e+00 7.947381e+00 -2.576885e+00 -3.657022e+00 -6.984218e-01 -5.326108e-01 7.736257e-01 -6.311827e-01 2.718705e-01 4.429922e-01 -6.229713e-01 7.732118e-01 -5.580230e-02 1.916250e+00 1.581229e+00 -1.407039e+00 -1.675613e+00 -7.798603e-01 -5.980403e-01 4.122066e-03 
-1.421980e+01 1.132787e+00 -1.498605e+00 -5.524773e+00 6.066753e+00 -5.108370e+00 1.537545e+00 1.177328e+01 -4.118248e+00 -5.219648e+00 2.973452e+00 2.169530e-01 7.605163e-01 -2.777891e-01 -1.445978e-01 1.456928e-01 -6.679416e-01 2.478285e-01 -3.530579e-01 1.580486e-02 6.838211e-01 5.546677e-01 3.519158e-01 -5.694948e-01 -5.076193e-01 -1.271302e-02 
-1.565516e+01 -6.455206e-01 -1.722461e+00 -5.871914e+00 4.702621e+00 -7.363095e+00 -6.205372e+00 9.692438e+00 -3.379058e+00 -5.759715e+00 -8.410108e-02 -4.069535e+00 7.573957e-01 -9.940358e-02 -4.346847e-01 9.750731e-02 -5.296260e-01 -2.925065e-01 3.693482e-01 -8.839086e-01 -2.632994e-01 -3.609529e-01 -6.735516e-02 -4.022517e-01 -4.949442e-01 -1.726868e-02 
-1.339392e+01 8.022308e-01 -2.203315e+00 -6.875298e+00 7.128288e+00 -3.335682e+00 -7.248634e+00 6.474208e+00 9.600043e-03 -1.144092e+00 -1.733491e+00 5.751869e-01 7.015402e-01 1.870937e-01 -2.224625e-01 1.907677e-01 -9.291900e-01 -7.157122e-01 1.490533e+00 -1.176661e+00 -8.565100e-01 2.702403e-01 7.403708e-03 -3.724073e-01 3.755688e-01 -1.851881e-02 
-1.443040e+01 -3.190017e-01 5.243421e-03 -7.386299e+00 4.859667e+00 6.626803e-01 -3.162497e+00 9.280420e+00 -6.445574e+00 -6.031576e+00 -3.562092e-01 -3.186449e+00 7.167704e-01 5.966519e-01 1.664872e-01 -7.565530e-02 -1.256515e+00 -1.270498e+00 1.415469e-01 -6.296037e-01 -2.225525e-01 1.513432e+00 9.352653e-02 4.405735e-01 1.355497e+00 -1.913596e-02 
-1.389671e+01 -1.427857e-01 -1.408618e+00 -9.413531e+00 2.409669e+00 -1.668594e+00 -5.867195e+00 7.696739e+00 -1.233789e+00 -5.046699e+00 1.247469e+00 1.653254e+00 6.882350e-01 7.683445e-01 -2.352425e-01 -9.546401e-02 -9.120668e-01 -1.640699e+00 -7.881144e-01 -6.053151e-01 -2.101903e-01 1.434073e+00 -1.205227e+00 7.670271e-01 7.275744e-01 -1.988820e-02 
-1.242051e+01 6.594236e-01 -2.498085e+00 -1.088537e+01 7.094406e-01 -7.488904e+00 -1.004411e+01 7.968410e+00 4.809794e+00 -3.340779e+00 6.282867e-01 2.168914e+00 6.683685e-01 1.195698e+00 5.941424e-01 4.579125e-01 -7.791960e-01 -9.052233e-01 -4.547721e-01 -1.792510e+00 -1.375982e+00 1.572836e+00 2.455228e-01 1.032145e+00 6.122326e-01 -1.932425e-02 
-1.055715e+01 -8.631941e-01 -1.428970e+00 -9.686095e+00 9.999080e-01 -3.200461e+00 -6.834403e+00 6.079262e+00 1.552279e+00 -8.515623e+00 1.609397e+00 1.535377e+00 6.263001e-01 1.967016e+00 1.616278e+00 2.197784e+00 9.347674e-01 9.275570e-01 1.142595e+00 -1.036195e-01 -1.902202e+00 -1.996423e+00 -2.094000e-01 3.493884e-01 -1.529656e+00 -2.383094e-02 
-1.012170e+01 3.011915e+00 2.304982e+00 -1.114600e+01 1.038431e+00 -8.452466e-01 -1.164144e+01 3.209250e+00 2.557106e-02 -3.069500e+00 4.623554e+00 -6.634784e-02 6.511166e-01 2.423812e+00 1.239025e+00 2.753479e+00 1.436068e+00 2.016256e+00 2.769128e+00 2.350976e+00 1.503778e-01 -2.666916e+00 -7.176667e-01 -1.073307e+00 -3.255979e+00 -3.884434e-02 
-5.211042e+00 6.762360e+00 7.178770e+00 -4.609381e+00 6.882958e+00 7.225525e-01 -5.586626e+00 5.653059e-01 -8.823794e+00 -6.229338e+00 9.967769e-01 -4.877395e+00 5.777062e-01 2.205349e+00 -5.486348e-01 1.232351e+00 1.586423e+00 6.581129e-01 1.735827e+00 1.176212e+00 4.121690e-01 -4.739847e-02 -2.258930e-01 -1.301201e+00 -2.760536e+00 -7.020427e-02 
-2.974504e+00 3.041772e+00 6.965440e+00 -6.243391e+00 7.849194e+00 4.395230e+00 1.086883e+00 1.147728e+01 -3.336750e+00 -8.072254e+00 -4.431936e+00 -1.090459e+01 4.984438e-01 2.042329e+00 -3.045178e+00 -5.280637e-01 1.208230e+00 -2.183352e-01 8.737562e-01 6.911136e-01 1.993841e+00 2.447185e+00 -1.382807e+00 -9.689347e-01 -6.371378e-01 -1.019620e-01 
-3.103996e+00 -3.621297e+00 2.402557e+00 -4.205285e+00 8.850913e-01 2.858437e+00 -7.317508e+00 4.006094e+00 2.996447e+00 -7.143711e+00 -3.688627e-01 -6.848182e+00 3.516151e-01 1.873945e+00 -3.183332e+00 -3.437254e-01 -3.669924e-01 -7.453893e-01 1.454077e+00 -1.796513e+00 1.959810e+00 4.533666e+00 -4.478046e-01 -8.719783e-02 9.513741e-01 -9.654468e-02 
-9.635735e-01 -7.022148e+00 2.052769e+00 -5.306892e+00 2.945689e+00 2.455593e+00 -7.320435e+00 1.145806e+01 6.351374e+00 -9.526349e+00 4.617006e-01 -2.266644e+00 2.543521e-01 2.433038e+00 -1.957106e+00 2.694329e-01 1.431806e+00 -3.550608e-01 1.378936e+00 -6.098675e-01 -1.115966e-02 3.285352e+00 8.630112e-01 6.444237e-01 2.134438e+00 -1.065578e-01 
3.153216e+00 -4.122340e+00 7.916478e+00 -6.912592e+00 5.607764e+00 8.962757e+00 -1.036553e+01 1.037396e+01 9.000474e+00 -7.741314e+00 -1.886031e+00 -4.439499e+00 2.170287e-01 2.674560e+00 -6.899560e-01 7.164881e-01 2.769152e+00 9.583417e-01 1.545952e+00 2.618220e+00 2.068267e+00 7.311063e-01 1.890551e+00 1.306962e+00 1.292844e+00 -9.238367e-02 
6.062077e+00 -6.493237e+00 5.555644e+00 2.269295e+00 3.712554e+00 8.237749e+00 -4.384427e-01 8.237545e+00 1.008799e+01 -3.458397e+00 -4.512336e-01 -1.436745e+00 3.294808e-02 2.084491e+00 3.329197e-01 2.810335e-03 3.593431e+00 1.015265e-01 5.471835e-01 2.144855e+00 2.866067e-01 -1.819044e-01 8.158306e-01 4.247065e-02 3.927521e-01 -8.666569e-02 
6.755978e+00 -7.335532e+00 4.233561e+00 5.852384e+00 5.293367e+00 7.697117e+00 2.332597e+00 1.595769e+01 4.783669e+00 -7.249315e-01 6.622413e+00 -7.989137e-01 3.988147e-04 1.030982e+00 2.666351e-01 -1.997788e+00 2.955906e+00 -2.751290e-01 4.109642e-01 1.737211e+00 -7.916893e-01 -6.197332e-01 -8.611406e-01 -9.427058e-01 6.266592e-01 -7.430404e-02 
7.657498e+00 -3.750954e+00 3.908280e+00 6.277775e+00 3.610519e+00 5.824329e+00 -2.945227e+00 1.009923e+01 7.550255e+00 -8.955387e+00 -3.580168e+00 -2.123176e+00 -7.066143e-02 8.542153e-01 1.315537e+00 -1.500787e+00 1.496751e+00 6.617442e-01 -5.297960e-01 -1.488150e+00 -3.393132e+00 -3.814754e-01 -5.294868e-01 -1.533754e+00 -1.801601e-01 -3.776056e-02 
7.510418e+00 -4.160306e+00 -1.248779e+00 5.862697e+00 4.283136e+00 1.222429e+01 -4.260845e-01 5.484671e+00 7.170678e+00 -9.298522e+00 -5.035092e+00 -9.629880e-01 -1.026868e-01 7.388170e-01 2.125802e+00 -1.690134e+00 1.530604e+00 2.234321e+00 -6.190859e-01 -1.008271e+00 -4.851144e+00 1.204337e+00 2.606750e+00 -2.080280e+00 -1.347462e+00 -2.899544e-02 
9.955933e+00 -1.503164e+00 7.928767e-01 9.747892e+00 7.526390e+00 3.325184e+00 -6.499849e+00 -3.491609e+00 6.987113e+00 -1.819036e+00 -2.291252e+00 -2.255508e+00 -1.043119e-01 4.749600e-01 2.230531e+00 -9.881383e-01 1.559539e+00 3.513278e+00 2.672910e-01 1.403178e+00 -3.343428e+00 -1.501522e-02 4.862817e+00 5.520688e-01 -8.272850e-01 -1.863289e-02 
9.300845e+00 2.169585e+00 -2.659406e+00 1.177034e+01 1.450704e+01 5.851260e+00 -9.314485e-01 -1.502612e+00 1.108692e+01 8.740642e+00 -4.423444e+00 -7.470059e+00 -1.277531e-01 1.713003e-01 2.739215e+00 -4.401974e-01 7.978157e-01 2.930095e+00 -7.147633e-01 2.473706e+00 -1.149892e+00 -1.544806e-01 3.622501e+00 7.289791e-01 -9.534057e-01 -1.441926e-02 
9.137085e+00 4.236758e+00 -3.270983e-01 1.112164e+01 1.606496e+01 1.034730e+01 4.323345e+00 -3.124264e+00 5.517056e+00 6.339117e+00 -1.125648e+00 -3.006065e+00 -1.512927e-01 -5.908622e-01 2.493798e+00 -7.971316e-01 -9.760946e-01 -3.006981e-01 1.557715e+00 3.834769e+00 9.646590e-01 -1.053504e+00 1.062586e+00 4.641528e-01 9.905605e-01 -1.175010e-02 
8.776343e+00 6.665810e+00 -2.889779e+00 9.164899e+00 1.466433e+01 5.139414e+00 6.530849e+00 -4.484596e-01 7.133304e+00 4.734910e+00 -1.972999e+00 -5.354738e+00 -1.512927e-01 -8.667653e-01 9.588097e-01 -5.817699e-01 -2.430515e+00 -4.295297e+00 -8.534762e-01 1.251826e+00 5.242800e-01 -2.094875e+00 -1.134714e+00 3.868286e-01 1.820898e+00 -4.707909e-03 
7.263873e+00 8.717714e+00 -3.077595e+00 6.170141e+00 5.944256e+00 1.146968e+01 8.942847e+00 8.046098e-01 3.696405e+00 5.496758e+00 -1.195710e+00 1.639634e+00 -1.512927e-01 -1.268478e+00 2.968355e-01 3.495398e-01 -1.926861e+00 -4.322927e+00 -1.403908e+00 7.736935e-02 3.505892e-01 -2.315496e-01 1.176642e-01 4.337873e-01 2.177698e+00 0.000000e+00 
5.903625e+00 4.723155e+00 -4.193007e+00 2.093518e+00 -1.909093e+00 1.022687e+00 3.017932e+00 -8.456497e-01 1.522875e+00 3.488251e+00 -2.454270e+00 -6.884166e-01 -1.512927e-01 -1.021694e+00 -1.474333e-02 1.463136e+00 -6.704687e-01 -3.256678e+00 -1.343023e+00 -3.489375e-01 3.244639e-01 -1.176481e+00 -3.483958e-01 1.682756e+00 1.882679e+00 0.000000e+00 
4.231053e+00 6.692263e+00 2.072215e+00 5.023032e+00 2.737030e+00 5.386122e+00 6.466651e+00 -1.172723e+00 7.164522e+00 7.550767e+00 1.283924e+00 5.549264e+00 -1.512927e-01 -5.805275e-01 2.047584e-02 1.873355e+00 3.512487e-01 -1.052189e+00 -1.650691e+00 2.741190e-01 3.185287e-01 -4.630303e-03 -2.333840e-01 1.002048e+00 7.210703e-01 0.000000e+00 
5.184281e+00 7.604819e+00 1.850999e+00 6.386110e+00 -1.545250e-02 1.466078e+00 6.024260e+00 2.162526e+00 -4.831615e-01 1.965927e+00 5.200963e+00 2.103841e+00 -1.512927e-01 -3.938796e-01 -1.237621e-02 5.824211e-01 9.974930e-01 4.121557e-01 7.923864e-01 5.495666e-01 1.302501e-01 -3.558289e-01 -4.332553e-01 1.082897e+00 7.228738e-01 0.000000e+00 
4.720907e+00 7.379262e+00 3.267179e+00 5.780088e+00 -2.635067e-01 2.994534e+00 8.810278e+00 8.931651e-01 4.676272e+00 5.091001e+00 -1.308942e-02 3.848857e+00 -1.512927e-01 -2.320768e-01 -6.268381e-01 -1.330855e+00 -1.721830e-01 -1.133734e+00 -1.217721e-01 -7.440745e-01 -6.286191e-01 -8.851717e-01 -9.558303e-01 -9.510788e-01 -7.985548e-01 0.000000e+00 
3.689300e+00 4.317774e+00 -1.878384e+00 6.702455e+00 1.651954e+00 6.180412e+00 4.593951e+00 -1.227343e+00 9.878560e-01 2.551858e+00 3.608720e+00 3.776156e+00 -1.512927e-01 -3.463162e-01 -5.624149e-01 -1.457604e+00 -8.087164e-01 -6.942376e-01 9.731178e-01 -1.008890e+00 -1.482601e+00 2.557027e-01 7.414905e-01 -1.314682e+00 -5.677499e-01 0.000000e+00 
3.818160e+00 5.201595e+00 -2.717367e+00 4.003945e+00 -3.765345e+00 2.420094e+00 3.461433e+00 -2.620883e+00 2.003155e+00 2.478650e+00 -2.675348e+00 7.203326e-01 -1.512927e-01 -4.821166e-01 -5.601882e-01 -1.174202e+00 -1.047157e+00 2.405347e-01 -5.287536e-02 -6.467164e-01 -9.700823e-01 -6.026142e-01 1.920362e-01 1.287024e-01 -7.674196e-01 0.000000e+00 
3.904074e+00 5.881577e+00 -2.444748e+00 3.230600e+00 -1.735722e+00 6.618887e+00 3.654235e+00 -3.493457e+00 2.131911e+00 6.979554e+00 -4.131615e-02 8.293532e-01 -1.512927e-01 -1.994329e-01 1.345760e-01 5.672655e-01 -1.152324e+00 3.792997e-01 -3.434071e-01 6.777804e-01 5.727761e-01 2.049904e-01 1.252034e+00 8.222883e-01 5.747167e-01 0.000000e+00 
2.202937e+00 3.796419e+00 -2.320648e+00 2.280232e+00 2.633005e+00 2.510920e+00 6.046555e+00 -2.824190e+00 1.091174e+00 3.837333e+00 2.455441e+00 1.485160e+00 -1.512927e-01 6.411457e-02 1.212827e-01 7.713535e-01 -3.127151e-02 9.161139e-01 3.516869e-01 1.537777e+00 1.584345e+00 2.280073e-01 6.478844e-01 7.282392e-01 6.380190e-01 0.000000e+00 
3.499746e+00 5.693242e+00 7.595840e-01 1.802688e+00 3.492777e-01 4.417964e+00 6.690293e+00 1.738190e+00 2.468799e+00 8.132688e+00 5.154767e+00 6.267326e+00 -1.512927e-01 1.459655e-01 1.520379e-01 7.035695e-01 4.326224e-01 6.997957e-02 -3.118504e-01 1.202539e+00 1.656801e+00 6.067909e-01 -1.036452e+00 -5.548407e-01 6.317574e-01 0.000000e+00 
4.340897e+00 5.902176e+00 -4.627653e-01 4.561543e+00 -2.272751e-01 5.278990e+00 9.632288e+00 2.685018e+00 2.974747e+00 5.141505e+00 -1.632194e+00 1.191441e+00 -1.512927e-01 2.763713e-01 5.330421e-01 3.233108e-01 1.077669e+00 3.884154e-02 1.654060e-01 -3.001390e-01 2.624382e-01 9.667055e-01 -1.080195e+00 -1.535627e+00 4.998152e-01 0.000000e+00 
3.564921e+00 5.588889e+00 1.441584e-01 4.253057e+00 4.431605e-02 3.675600e+00 7.874061e+00 2.035944e+00 4.224079e+00 1.145210e+00 -7.717024e-01 4.135000e+00 -1.512927e-01 -3.288216e-01 1.142670e-01 -1.535680e-01 1.988076e-01 -2.144753e-01 -9.707612e-01 -1.507832e+00 -1.214611e+00 2.320270e-01 -1.237308e+00 -1.443951e+00 -2.368926e-01 0.000000e+00 
3.552206e+00 6.513807e+00 -3.963811e-01 6.443394e+00 2.979693e+00 3.709132e+00 3.953975e+00 -1.660875e+00 5.047061e+00 1.930099e+00 -2.259461e+00 5.050400e+00 -1.512927e-01 -3.193466e-01 -2.887478e-02 -1.789796e-02 -2.644512e-01 -3.990043e-01 -1.034376e+00 -1.426486e+00 -7.916712e-01 9.931809e-01 4.904604e-01 -1.309746e+00 -7.292370e-01 0.000000e+00 
2.249984e+00 5.958762e+00 -4.144812e-02 1.855801e+00 -2.326583e+00 3.490875e-01 1.990289e+00 -2.161920e+00 2.592777e+00 3.551853e+00 -1.751355e+00 3.153384e+00 -1.512927e-01 1.218250e-01 4.225598e-02 3.884975e-01 4.961549e-01 1.950271e-01 4.116722e-01 -3.522848e-01 -7.362620e-01 4.401138e-01 1.058087e+00 5.640788e-02 -1.172145e+00 0.000000e+00 
3.401632e+00 5.572866e+00 -4.594519e-01 4.437915e+00 -1.036847e+00 1.770366e+00 5.441743e+00 8.255939e-01 8.756302e+00 6.390486e+00 -7.691098e+00 -1.963936e+00 -1.512927e-01 2.332306e-03 -4.119614e-01 -2.255801e-01 4.915075e-02 -8.569431e-03 -2.368402e-02 8.460354e-01 -1.829886e-01 6.394162e-01 1.172940e+00 1.189527e+00 2.449648e-01 0.000000e+00 
4.249333e+00 6.270639e+00 2.118181e+00 7.736571e+00 3.027721e+00 6.703344e+00 5.368753e+00 -2.888601e+00 4.570027e+00 4.205449e+00 2.226155e+00 1.781441e+00 -1.512927e-01 5.974065e-01 3.414217e-01 1.448623e-01 3.286490e-01 5.174509e-01 1.097226e+00 1.993865e+00 7.937112e-02 -2.122872e-01 1.077303e+00 2.008758e+00 8.132998e-01 0.000000e+00 
2.564193e+00 4.298061e+00 -2.604097e+00 3.748763e+00 2.596936e-01 4.135838e-01 6.494920e+00 -2.212478e+00 7.255517e+00 7.468003e+00 1.699418e+00 6.961195e+00 -1.512927e-01 5.914610e-01 7.493447e-01 4.066280e-01 -5.081536e-01 -2.116824e-01 9.296755e-01 1.804684e+00 4.993277e-02 -1.523743e+00 8.212403e-01 2.394757e+00 1.041838e+00 0.000000e+00 
5.655736e+00 8.303272e+00 1.755186e+00 3.843622e+00 -3.875990e-01 6.513611e+00 1.143303e+01 -2.460284e-01 2.281733e+00 8.399608e+00 3.597178e+00 2.757317e+00 -1.512927e-01 5.904348e-01 8.070480e-01 3.633291e-01 -7.691039e-01 -7.477933e-01 5.720561e-01 1.706665e+00 7.251594e-01 -9.550372e-01 9.319922e-01 4.639804e-01 -2.252126e-01 0.000000e+00 
