-7.116293e+00 5.642556e+00 -2.848994e-01 -2.678394e+00 2.134371e+00 9.352837e-01 4.301080e+00 3.779298e+00 -1.440812e+00 2.099487e+00 -3.767143e+00 1.444470e+00 -1.109202e-01 -5.128778e-01 -2.225007e-01 -6.197838e-01 1.621909e-01 -1.205338e-02 1.341740e+00 3.448808e-01 9.616333e-01 1.146822e+00 7.348610e-01 1.052407e-01 -1.002632e+00 1.020286e-02 
-8.035010e+00 5.196748e+00 3.488432e-01 -4.495444e-01 2.280465e+00 2.567692e+00 4.055479e+00 2.869189e+00 -2.542186e+00 7.668366e-01 -1.415453e+00 -7.678390e-02 -1.063426e-01 -1.053369e+00 -5.309445e-01 -6.823839e-01 -5.589257e-01 6.230104e-03 5.193120e-01 -4.645846e-01 3.043070e-01 7.023436e-01 6.503165e-01 5.186544e-01 -1.071121e+00 1.190838e-02 
-9.221323e+00 4.752956e+00 -3.700690e+00 -2.981864e+00 2.001057e+00 6.827779e+00 6.148285e+00 9.042519e+00 4.843984e+00 6.440117e+00 -4.416784e+00 -2.808063e+00 -6.219471e-02 -1.561726e+00 2.711676e-01 -5.162882e-01 6.426277e-02 3.979667e-01 -6.004831e-01 -1.820286e+00 -1.750142e+00 5.223497e-01 6.506850e-01 1.178565e+00 -1.900229e-01 3.466431e-02 
-1.133062e+01 3.432633e+00 -1.988924e+00 -5.321287e+00 2.232178e+00 5.855958e-01 1.054555e+00 2.669222e+00 -1.071491e+00 3.180755e+00 -8.490503e-01 -1.784870e+00 -7.574105e-02 -6.705064e-01 6.955651e-01 2.260632e-01 6.037356e-01 9.429626e-01 -4.491650e-01 -1.389263e+00 -1.416960e+00 -1.136777e-01 8.493450e-01 4.526694e-01 7.526522e-01 1.351587e-02 
-1.327712e+01 7.880451e+00 -1.697457e+00 7.879162e-02 4.148347e+00 -1.076084e+00 -3.299886e+00 -4.871428e+00 4.355888e-01 4.145953e+00 1.842479e+00 1.348399e+00 4.710060e-02 2.826624e-01 1.125875e+00 7.669213e-01 1.336182e+00 8.265209e-01 -8.680220e-01 -1.485978e+00 -1.424015e+00 -1.088399e+00 3.465645e-01 1.145704e+00 1.896330e+00 -4.725158e-03 
-9.359646e+00 7.110826e+00 4.775426e-01 1.038805e+00 5.921633e+00 4.273798e+00 1.833251e+00 2.741363e+00 -9.063774e-01 6.160644e+00 -2.281738e+00 1.608246e+00 -9.341085e-02 6.595548e-01 6.690784e-01 6.735588e-01 1.020218e+00 8.294977e-02 -3.985618e-01 -3.001323e-01 3.780199e-01 2.986918e-01 6.551029e-01 -7.696602e-02 2.000243e-01 -1.691671e-02 
-8.793500e+00 8.543237e+00 -1.099316e+00 5.190024e-01 4.288934e+00 6.435680e-01 -1.670954e+00 1.886375e+00 -6.805692e-01 6.682995e+00 2.028078e+00 4.977029e+00 -7.698560e-02 5.927493e-01 -2.425506e-01 8.290607e-01 -4.386563e-02 -2.153794e-01 4.512405e-03 3.466975e-01 1.535188e+00 1.804951e+00 1.412987e+00 -4.070379e-01 -4.264443e-01 -2.917920e-02 
-1.027466e+01 6.446632e+00 1.079800e+00 -4.403048e-01 2.576634e+00 -2.267039e+00 -1.260573e+00 1.180421e+00 9.800467e-01 5.187748e+00 -1.326680e+00 -2.599064e+00 -9.828150e-02 -4.196780e-01 -6.131749e-01 1.521915e-01 -7.732775e-01 -5.818179e-01 -6.429789e-01 -7.410918e-01 3.902593e-01 2.272434e+00 1.831637e+00 6.053016e-01 9.371439e-01 -2.983630e-03 
-9.855864e+00 6.999795e+00 2.146719e+00 5.990186e-01 4.743950e+00 2.216897e+00 -1.948583e-02 3.584983e+00 8.517134e+00 1.169734e+01 -6.702394e-01 1.319832e+00 -9.636009e-02 -4.910034e-01 -1.075089e+00 -7.049219e-02 -1.243492e+00 -6.677887e-01 -6.771266e-01 -2.751131e-01 8.519828e-02 1.787675e-01 4.402604e-02 -1.088857e+00 3.027804e-01 -1.075935e-02 
-1.092685e+01 4.816672e+00 -3.845176e-01 -2.867590e+00 2.785035e+00 2.722392e-01 -2.697941e+00 3.843356e+00 5.856941e+00 1.281166e+01 2.093929e+00 8.122564e+00 -9.864175e-02 -7.680054e-02 -3.896684e-01 -1.374420e-01 -6.274225e-01 -1.632571e-02 1.600192e-01 -7.997436e-01 -2.064563e-01 -1.104515e+00 -4.304462e-01 -5.150609e-02 6.641485e-01 -7.490516e-03 
-1.092242e+01 3.982771e+00 -7.196187e-01 -4.484815e+00 8.457897e-01 -4.011704e+00 -2.327835e+00 9.808986e-01 -2.225179e+00 3.091172e+00 -5.126511e+00 1.130117e+00 -1.306022e-01 -1.720755e-01 -1.893508e-01 -2.858278e-01 -4.142702e-01 7.904947e-01 -1.955562e-01 -5.967952e-01 -4.852557e-02 -1.352204e+00 -5.132679e-01 9.173588e-01 -2.259059e-01 -9.602940e-03 
-1.012538e+01 6.006802e+00 1.825759e+00 -1.035501e+00 4.444085e+00 1.647357e+00 -4.105116e+00 1.450181e+00 8.286270e-01 7.338601e+00 6.439252e-01 8.165367e-01 -1.186130e-01 -2.107667e-01 9.919262e-02 -3.969928e-01 -5.267578e-01 7.906898e-01 1.491360e-01 -1.620327e-02 3.305508e-01 -2.412164e-01 3.156975e-01 1.306861e+00 -4.686782e-01 -3.247201e-03 
-1.111698e+01 5.457977e+00 -3.875580e-01 -2.388377e+00 7.866899e+00 5.515565e-01 -2.299874e+00 4.538942e+00 4.270272e+00 1.186753e+01 4.641556e+00 3.843317e+00 -1.343892e-01 -3.995579e-01 -3.433502e-01 -1.829214e-01 1.418795e-01 1.959626e-01 3.574174e-01 -1.547950e-01 1.376672e+00 1.784981e+00 1.216318e+00 7.622586e-01 8.816401e-01 2.515376e-03 
-1.188341e+01 4.575033e+00 -2.535512e+00 -6.549598e+00 3.227930e+00 -1.263711e+00 -2.792938e+00 3.717088e+00 1.403134e+00 1.000197e+01 3.744202e+00 4.422573e+00 -1.129843e-01 -2.375100e-01 -7.085981e-01 -1.974042e-01 -3.863561e-02 -1.828530e+00 -6.881534e-01 9.140242e-01 4.781470e-01 4.643687e-01 5.460913e-01 -8.398814e-01 -8.079188e-02 3.719461e-03 
-1.204119e+01 2.981905e+00 5.464094e-01 -1.018369e+00 2.433681e+00 -7.690831e-01 -3.757899e+00 6.730804e+00 6.412474e+00 7.841078e+00 -2.865356e+00 3.735300e+00 -1.208397e-01 5.028687e-01 -5.445994e-01 2.916726e-01 1.181953e+00 -2.748087e+00 -1.448864e+00 2.508048e-01 -1.993232e+00 -3.171780e+00 -1.500126e+00 -2.156331e+00 -1.003766e+00 1.050816e-02 
-1.085082e+01 3.701848e+00 3.717539e-01 -1.913683e+00 -1.981956e+00 -1.133090e+00 1.194017e+00 2.744985e+00 2.079370e+00 1.208228e+01 1.979744e-01 4.665859e-01 -1.067904e-01 1.044736e+00 -5.552340e-01 5.526224e-01 2.004011e+00 -1.465560e+00 -2.116453e+00 1.308336e+00 -8.552998e-01 -4.582764e+00 -2.822137e+00 -1.527297e+00 -2.041122e+00 2.058883e-02 
-9.118926e+00 3.171572e+00 -3.828276e-01 1.203428e+00 -3.268593e+00 -6.758073e+00 -3.039328e+00 -4.941167e+00 -1.192675e+01 3.326739e+00 -4.366982e+00 8.024813e-01 -8.494532e-02 1.656682e+00 -3.687646e-01 2.408142e-01 1.556222e+00 -8.156947e-01 -8.349789e-01 3.389185e+00 9.693525e-02 -4.711236e+00 -3.397514e+00 -8.701082e-02 -2.258879e+00 2.958131e-02 
-8.120864e+00 1.704029e+00 6.922184e-01 2.359558e+00 -1.248731e+00 -8.851479e+00 3.389455e+00 5.276575e+00 -1.234107e+01 -1.851549e+00 -3.141470e+00 -4.316626e+00 -2.798736e-02 1.272549e+00 -5.305656e-01 8.707789e-01 1.405983e+00 -3.205577e-01 -1.050645e+00 3.448159e+00 1.472956e+00 -1.910722e+00 -2.959870e+00 6.235768e-01 -2.234909e+00 3.610499e-02 
-5.122765e+00 2.136991e+00 1.590248e+00 4.626120e+00 -2.011406e+00 -1.084783e+00 1.209031e+01 5.949686e+00 -9.933482e+00 -2.179579e+00 -1.630688e+00 -5.167490e+00 -1.233470e-02 1.819250e+00 4.096631e-01 1.281176e+00 6.565989e-01 -8.203799e-01 3.043003e-01 4.512965e+00 2.615809e+00 1.611246e+00 3.971388e-02 2.978700e+00 -5.972915e-01 4.658177e-02 
-6.486161e+00 1.566310e+00 3.739110e+00 3.404886e+00 -4.213339e+00 -9.222961e+00 1.086999e+01 4.664339e+00 -8.470869e+00 3.609180e-02 1.947711e+00 -7.722974e+00 3.742921e-02 3.687268e+00 1.144057e+00 5.995855e-01 -1.877255e-01 2.471223e-02 -8.741983e-01 1.223874e+00 -4.858226e-01 2.911833e-01 4.883521e-01 3.542997e+00 -6.561402e-01 1.085279e-01 
-8.400297e-01 5.288747e+00 4.499608e+00 3.963758e+00 -5.888188e+00 -5.050830e+00 1.578522e+01 8.443995e+00 -5.805617e+00 2.581488e+00 7.981928e+00 -4.808021e-01 1.152552e-01 4.301660e+00 1.263754e-01 -2.222687e-01 6.046414e-01 2.493079e-01 -2.669470e+00 1.002111e-02 -2.008899e+00 -1.279199e+00 -3.830003e-01 2.668865e+00 -1.005367e+00 1.566352e-01 
8.174112e+00 5.848434e+00 2.235466e+00 1.752110e+00 8.132212e-01 -1.123945e+01 7.661367e+00 1.600307e+00 -1.294909e+01 -1.790322e+00 9.767207e+00 -9.940671e+00 4.508573e-01 3.599757e+00 -9.804662e-01 -2.709589e-01 1.729899e+00 1.411504e-01 -1.618949e+00 -3.930095e-01 -2.452533e+00 -1.600264e+00 -1.148266e+00 9.537622e-01 -6.924174e-01 1.613047e-01 
9.055395e+00 6.278062e-01 1.230727e+00 8.475715e+00 -3.278146e+00 -1.342389e+01 1.374473e+01 -2.562796e+00 -1.409036e+01 -3.181374e+00 7.803890e+00 -9.085477e+00 5.641271e-01 1.501212e+00 -2.153591e+00 7.334148e-01 1.607988e+00 -7.538601e-01 -1.212025e+00 -1.808476e+00 -2.112466e+00 -1.478209e+00 -1.630930e+00 1.686788e-01 -1.229863e+00 1.227794e-01 
6.564911e+00 -1.005551e+00 4.018756e+00 9.798405e+00 -4.812608e+00 -1.313118e+01 9.925196e+00 -2.094934e+00 -1.232981e+01 -2.823807e+00 6.805541e+00 -6.882724e+00 6.195170e-01 -3.568941e-01 -1.906201e+00 1.594334e+00 1.103011e+00 -1.485454e+00 2.177779e-01 -1.410771e+00 -2.748170e-01 1.312799e-01 -3.918969e-01 -1.840186e-01 7.387222e-01 4.672512e-02 
7.470631e+00 -2.052217e+00 7.275037e+00 7.980553e+00 -6.844574e+00 -1.016509e+01 5.610932e+00 -2.707160e-01 -1.350630e+01 -5.056419e+00 1.030616e+01 -8.159089e+00 6.448223e-01 -5.265416e-01 -4.861956e-01 1.365283e+00 -6.315242e-01 1.373401e-01 -1.053553e-01 -1.817901e+00 -1.083611e-01 5.044448e-01 2.298091e-01 -1.207965e-01 5.234482e-01 1.962730e-02 
7.182024e+00 -2.342559e+00 7.184981e+00 7.514749e+00 -4.830836e+00 -1.177996e+01 4.674407e+00 -9.198174e-01 -1.258472e+01 -2.812284e+00 7.595982e+00 -6.710254e+00 6.441354e-01 -5.929065e-03 -1.576332e-01 5.151104e-01 -9.132670e-01 8.670473e-01 -1.056437e+00 -6.917419e-02 -5.932539e-01 6.329743e-01 1.228036e-01 -3.110259e-01 2.517529e-01 5.778116e-03 
6.114130e+00 -1.134668e+00 6.474029e+00 6.459922e+00 -2.582331e+00 -1.462628e+01 7.280618e+00 -3.692159e+00 -1.144069e+01 -2.038090e+00 6.804688e+00 -6.554471e+00 6.499544e-01 -5.521877e-01 -8.687561e-01 -1.827335e-01 -1.082156e+00 2.591467e-01 1.187582e+00 -2.410974e+00 -4.780586e-01 2.876854e+00 1.175018e+00 -2.649902e+00 2.296193e+00 1.101738e-02 
7.213515e+00 -2.252491e+00 6.994812e+00 5.992385e+00 -2.608493e+00 -1.618277e+01 8.744482e+00 -3.350482e+00 -1.019775e+01 -3.718954e+00 7.001145e+00 -6.426269e+00 6.458415e-01 -7.401759e-01 -1.866789e+00 -1.684998e+00 -1.226654e+00 -1.545420e+00 4.186830e+00 -5.087873e+00 1.273998e-01 5.435750e+00 1.032783e+00 -3.026390e+00 3.023219e+00 4.504842e-02 
4.693946e+00 -6.441031e+00 6.456454e+00 3.330956e+00 -6.660012e+00 -2.025776e+00 -8.478977e+00 -1.445677e+00 -3.155147e-01 1.272006e+00 -2.645937e+00 3.179885e+00 6.990561e-01 -7.094866e-01 -2.820977e+00 -3.033962e+00 -1.310676e+00 -2.040494e+00 5.565980e+00 -5.381455e+00 7.478176e-01 5.998140e+00 1.252033e+00 -3.180676e+00 2.345903e+00 7.948869e-02 
4.191236e+00 -9.023321e+00 -1.231220e+00 2.945960e+00 -1.051910e+01 2.853944e+00 -1.288516e+01 -1.406059e+00 9.031440e+00 6.965818e-01 -2.810654e+00 3.538663e+00 8.448266e-01 -8.824980e-01 -2.567779e+00 -3.890263e+00 -1.856089e+00 -2.806883e-02 3.928602e+00 -2.283561e+00 1.265757e-02 4.555007e+00 1.180644e+00 -2.538210e+00 6.156029e-01 9.344704e-02 
4.077837e+00 -1.185414e+01 -4.582767e+00 1.429757e+00 -8.829500e+00 3.685266e+00 -8.811834e+00 -9.252821e-01 8.935421e+00 2.014307e+00 -4.192795e+00 1.925800e-01 9.479054e-01 -4.955435e-01 -1.440346e+00 -3.636570e+00 -2.013841e+00 2.258537e+00 6.303824e-01 2.365141e+00 -6.464661e-01 1.159574e+00 -3.679183e-01 -2.655840e-01 -1.344126e+00 7.122671e-02 
3.109080e+00 -1.238483e+01 -6.936893e+00 -2.337458e+00 -1.664093e+00 6.047212e-01 -2.506895e+00 -3.547391e+00 7.951821e+00 1.813114e+00 -4.916476e+00 -1.854601e+00 9.886521e-01 -4.866627e-01 -4.445817e-01 -2.229672e+00 -2.416096e+00 3.419855e+00 -9.857638e-02 3.317640e+00 -1.216000e+00 -1.071375e+00 -8.728935e-01 2.503609e-01 -3.374411e-01 3.419148e-02 
2.757307e+00 -1.196200e+01 -8.873563e+00 -4.096540e+00 2.051713e-01 2.250747e+00 -1.842404e+00 -3.607341e+00 6.022164e+00 -1.125851e+00 -2.920946e+00 -8.441110e-01 9.832770e-01 -5.655962e-02 -9.525013e-03 -1.299780e+00 -2.449239e+00 2.473193e+00 8.821851e-01 1.842172e+00 -1.713845e+00 -7.209966e-01 -1.694872e+00 1.112439e+00 9.003975e-01 1.136354e-02 
2.418188e+00 -1.119230e+01 -1.023418e+01 -6.371372e+00 2.062840e+00 3.078322e+00 2.183249e-01 -6.145031e+00 5.131193e+00 -2.097806e+00 -2.194774e+00 2.369803e+00 9.980982e-01 2.529740e-01 -5.839100e-02 -2.903687e-01 -2.214000e+00 7.845092e-01 1.842022e+00 6.333525e-01 -1.589713e+00 4.615531e-02 -2.002129e+00 1.502839e+00 1.448273e+00 3.751421e-03 
4.140485e+00 -1.249803e+01 -9.433022e+00 -8.799481e+00 1.672997e+00 6.859391e+00 -9.635826e-01 -8.195685e+00 6.740751e+00 -4.504596e+00 8.546472e-03 2.582366e+00 1.000000e+00 5.680481e-01 -3.750397e-01 6.138122e-01 -2.182307e+00 2.403665e-02 1.953879e+00 4.791143e-02 -1.341428e+00 6.091348e-01 -1.431689e+00 1.098936e+00 1.290511e+00 3.360325e-03 
3.682361e+00 -1.240877e+01 -8.109007e+00 -1.105599e+01 1.524541e+00 7.510511e+00 2.204570e-01 -9.201784e+00 7.823304e+00 -6.508158e+00 1.132971e+00 3.673528e+00 9.990476e-01 6.845587e-01 -5.141872e-01 1.007153e+00 -1.488853e+00 -6.454303e-01 1.830274e+00 -8.180599e-01 -4.626447e-01 7.583079e-01 -8.516564e-01 7.115425e-01 7.621099e-01 -8.217096e-04 
4.965461e+00 -1.322896e+01 -6.867090e+00 -1.266577e+01 5.945044e-01 9.804049e+00 -1.603913e+00 -8.786105e+00 7.721783e+00 -6.079121e+00 9.098642e-01 4.956581e+00 9.996039e-01 3.620473e-01 -6.495152e-02 6.309856e-01 -5.911716e-01 -1.028734e+00 1.431506e+00 -1.393420e+00 2.997583e-01 3.522382e-01 -6.090021e-02 2.091665e-01 5.414026e-01 -1.917076e-03 
5.428493e+00 -1.339777e+01 -6.481384e+00 -1.188249e+01 -6.250651e-01 1.075737e+01 -3.551809e+00 -8.163045e+00 8.432218e+00 -5.568826e+00 9.122801e-01 4.993245e+00 9.941877e-01 2.793928e-01 7.195149e-02 2.974135e-01 2.665215e-02 -1.054605e+00 8.985515e-01 -1.360804e+00 1.755942e-01 4.784009e-01 2.333198e-01 -7.939465e-02 3.933837e-01 -3.059804e-03 
5.077655e+00 -1.232829e+01 -7.091905e+00 -1.134209e+01 -2.395870e+00 1.239350e+01 -6.044551e+00 -7.216263e+00 8.197486e+00 -5.278763e+00 1.164724e+00 4.629519e+00 9.928446e-01 6.868658e-02 2.653746e-01 -8.136058e-02 4.258516e-01 -1.007907e+00 4.197312e-01 -9.274874e-01 3.237639e-02 7.025850e-01 -1.427800e-01 5.970003e-02 2.962655e-01 -5.221295e-03 
5.023228e+00 -1.249935e+01 -6.509531e+00 -1.158457e+01 -2.253299e+00 1.070854e+01 -4.363244e+00 -9.108734e+00 9.977457e+00 -5.741737e+00 6.085680e-01 5.803977e+00 9.871283e-01 6.174755e-03 2.437183e-01 -1.591049e-01 2.468679e-01 -8.325886e-01 2.032906e-01 -2.877112e-01 -5.951936e-01 1.144547e+00 -6.663922e-01 1.480606e-01 5.365385e-01 -4.474384e-03 
5.511527e+00 -1.235130e+01 -7.259820e+00 -1.068547e+01 -3.630916e+00 1.192712e+01 -5.835632e+00 -8.151379e+00 1.046209e+01 -6.706565e+00 1.360220e+00 6.032542e+00 9.770271e-01 1.483719e-02 1.945788e-01 -2.338108e-01 2.465499e-01 -6.650518e-01 -1.168680e-02 1.867926e-01 -9.136049e-01 1.186597e+00 -6.503264e-01 9.991479e-03 7.710889e-01 -3.747117e-03 
5.242432e+00 -1.216767e+01 -7.192951e+00 -1.097646e+01 -4.170485e+00 1.200701e+01 -5.094825e+00 -1.067146e+01 1.302265e+01 -8.186886e+00 1.554835e+00 6.974426e+00 9.797245e-01 -1.832662e-01 5.447333e-01 -5.341142e-01 4.108320e-01 -7.390589e-01 3.039972e-01 -1.128356e-01 -4.436231e-01 4.984606e-01 -2.130800e-01 -1.662939e-01 6.973465e-01 -2.776045e-03 
5.042239e+00 -1.152124e+01 -7.919249e+00 -1.041339e+01 -4.762536e+00 1.168583e+01 -4.744797e+00 -1.100293e+01 1.260787e+01 -7.307820e+00 7.415481e-01 7.899739e+00 9.778109e-01 -3.051797e-01 6.386132e-01 -6.766195e-01 6.255795e-01 -6.242657e-01 1.956788e-01 -2.167062e-01 -2.155664e-01 1.243926e-01 1.564322e-01 -4.411615e-01 8.405303e-01 -2.077782e-03 
4.341541e+00 -1.019071e+01 -8.850389e+00 -9.666449e+00 -5.382783e+00 1.234917e+01 -5.472839e+00 -9.901075e+00 1.139687e+01 -6.506510e+00 8.643460e-02 8.357111e+00 9.728562e-01 -3.875735e-02 3.986926e-01 -6.169690e-01 5.866455e-01 -4.043146e-01 2.177454e-01 -4.374398e-01 2.149522e-01 -3.536816e-02 9.279785e-02 -1.918328e-01 5.539456e-01 -3.107798e-03 
4.436074e+00 -1.014671e+01 -9.814198e+00 -8.212582e+00 -6.146095e+00 1.273443e+01 -6.730156e+00 -9.614401e+00 1.189694e+01 -6.764592e+00 -1.113869e-01 9.543852e+00 9.700724e-01 4.342054e-02 -3.346348e-03 -2.510107e-01 3.634162e-01 -6.960554e-02 1.334481e-01 -4.423068e-01 2.824607e-01 1.394084e-01 -1.534977e-01 2.359045e-01 1.481486e-01 -1.610208e-03 
5.351727e+00 -1.086147e+01 -9.330321e+00 -9.143638e+00 -5.500278e+00 1.257144e+01 -6.289344e+00 -1.029096e+01 1.320127e+01 -7.994511e+00 1.022139e+00 8.922098e+00 9.680548e-01 1.402293e-01 -4.087747e-01 1.152810e-01 2.276543e-01 2.971320e-01 3.986359e-04 -5.571732e-01 6.782801e-01 6.941128e-03 2.338824e-01 2.751354e-01 -2.960147e-01 4.357874e-04 
4.754249e+00 -1.120259e+01 -8.934336e+00 -8.857715e+00 -5.051816e+00 1.224194e+01 -6.548079e+00 -9.395682e+00 1.240271e+01 -7.331308e+00 1.453218e+00 8.357989e+00 9.721605e-01 6.557107e-03 -5.798882e-01 5.505358e-01 5.060501e-02 7.720502e-01 -3.977794e-01 -8.122534e-01 1.118541e+00 -5.079612e-01 7.580681e-01 4.044056e-02 -8.063455e-01 2.544880e-03 
4.883600e+00 -1.170665e+01 -8.713915e+00 -8.205611e+00 -4.444263e+00 1.259741e+01 -8.349744e+00 -6.619034e+00 1.117869e+01 -5.053740e+00 6.798089e-01 7.469969e+00 9.739910e-01 -2.345262e-01 -6.456174e-01 8.324621e-01 3.846683e-01 1.071989e+00 -1.062023e+00 -1.057863e+00 1.344164e+00 -7.120978e-01 1.049560e+00 -5.502884e-01 -9.053606e-01 2.209950e-03 
4.702923e+00 -1.262356e+01 -7.369723e+00 -8.428570e+00 -2.813853e+00 1.073254e+01 -9.761224e+00 -5.857656e+00 1.036843e+01 -4.444637e+00 2.619810e-01 6.238189e+00 9.798287e-01 -2.718964e-01 -6.829597e-01 1.046769e+00 8.191918e-01 1.081979e+00 -1.745819e+00 -8.700016e-01 1.003532e+00 -2.000163e-01 6.729929e-01 -8.456281e-01 -1.126016e+00 -1.477247e-03 
4.204760e+00 -1.337907e+01 -5.950317e+00 -7.434868e+00 -1.259316e+00 8.016021e+00 -9.972085e+00 -5.339149e+00 1.065793e+01 -4.190048e+00 -1.133684e+00 5.455195e+00 9.752705e-01 -4.851406e-01 -4.520102e-01 1.137030e+00 1.475317e+00 7.574641e-01 -2.458486e+00 -2.575925e-01 7.325956e-01 2.622054e-01 1.711107e-01 -9.453138e-01 -1.609863e+00 -4.391569e-03 
3.734187e+00 -1.378118e+01 -5.082287e+00 -5.147127e+00 -1.234394e+00 5.803538e+00 -1.008692e+01 -5.017966e+00 1.166301e+01 -4.398190e+00 -1.868176e+00 3.735293e+00 9.641346e-01 -5.580376e-01 -1.366180e-01 1.339853e+00 2.095130e+00 -3.691902e-02 -2.650777e+00 1.217456e-01 1.218377e+00 1.973813e-01 1.564951e-02 -1.319942e+00 -1.464574e+00 -8.100385e-03 
2.942265e+00 -1.338789e+01 -4.172484e+00 -2.469749e+00 -1.446672e+00 2.769485e+00 -9.474860e+00 -3.375901e+00 1.184243e+01 -4.221410e+00 -2.981682e+00 6.721014e-01 9.598802e-01 -6.484475e-01 3.339027e-01 1.560184e+00 2.297944e+00 -1.128212e+00 -2.238302e+00 3.233867e-02 2.015334e+00 -4.017088e-01 -3.329701e-01 -1.442913e+00 -4.813901e-01 -1.192046e-02 
2.543982e+00 -1.330224e+01 -1.559375e+00 -4.354763e-01 -2.904770e+00 1.019240e-01 -9.401109e+00 -7.473918e-01 1.076309e+01 -4.350709e+00 -5.413732e+00 1.306868e+00 9.470218e-01 -8.035948e-01 6.916691e-01 1.977013e+00 2.185531e+00 -2.153858e+00 -1.534089e+00 -8.282633e-02 2.575261e+00 -1.172850e+00 -8.052443e-01 -1.081797e+00 4.452763e-01 -1.242700e-02 
1.557624e+00 -1.194903e+01 8.914638e-02 1.699028e+00 -6.065187e+00 -3.246838e-01 -1.015330e+01 2.602232e+00 9.099345e+00 -5.878639e+00 -6.575471e+00 4.262457e+00 9.242245e-01 -7.948271e-01 9.721876e-01 2.246616e+00 1.863707e+00 -3.055002e+00 -2.657959e-01 -4.907424e-01 2.596453e+00 -1.944612e+00 -1.254959e+00 -2.210387e-01 1.211078e+00 -1.383680e-02 
4.085331e-01 -1.104226e+01 2.671962e+00 3.696141e+00 -9.694427e+00 -3.198228e-01 -1.016183e+01 4.869275e+00 7.170303e+00 -7.595797e+00 -5.480268e+00 4.166496e+00 9.198275e-01 -6.911113e-01 1.080588e+00 2.466967e+00 9.774855e-01 -2.886218e+00 7.789350e-01 -7.622623e-01 2.011815e+00 -2.094001e+00 -1.754580e+00 1.052739e+00 9.328833e-01 -1.636467e-02 
3.585386e-02 -9.656944e+00 4.944927e+00 4.782977e+00 -1.332685e+01 1.651379e+00 -1.154821e+01 6.798032e+00 3.915756e+00 -8.873660e+00 -4.053607e+00 5.297679e+00 9.042934e-01 -2.027855e-01 7.581490e-01 2.823474e+00 -8.570509e-02 -1.236776e+00 4.682641e-01 -2.874765e-01 4.812654e-01 -9.470354e-01 -2.392378e+00 1.742362e+00 3.131143e-01 -3.076289e-02 
-1.506894e-01 -9.045345e+00 8.347571e+00 2.909977e+00 -1.370502e+01 3.008567e+00 -1.251496e+01 7.213784e+00 2.884872e+00 -1.162610e+01 -1.410970e+00 5.453673e+00 8.751640e-01 6.866853e-01 1.462295e+00 1.506570e+00 -4.674976e-01 1.683758e+00 -1.803272e+00 2.492909e+00 -1.403638e+00 -1.800804e+00 -1.081850e+00 3.217509e+00 -2.608989e+00 -6.266333e-02 
8.233079e-01 -9.156740e+00 1.136871e+01 1.663585e+00 -1.024377e+01 3.524417e-01 -1.041411e+01 3.836305e+00 6.506884e+00 -1.582538e+01 1.016918e-01 5.184440e+00 7.927418e-01 1.272389e+00 1.574534e+00 2.847026e-01 -3.800859e-01 3.306407e+00 -3.484398e+00 4.198975e+00 -2.258332e+00 -2.421993e+00 2.216374e-01 3.672755e+00 -4.414130e+00 -7.178273e-02 
3.448232e+00 -3.980890e+00 6.992917e+00 2.918349e+00 -2.817179e+00 -8.686713e+00 1.735668e+00 -6.680501e-01 -3.129281e+00 -9.529187e+00 8.529626e+00 -8.821831e+00 6.622866e-01 1.713811e+00 1.336652e+00 -8.111225e-01 3.379161e-01 3.116374e+00 -3.721403e+00 4.188632e+00 -1.839530e+00 -2.871051e+00 1.169457e+00 2.928451e+00 -4.050947e+00 -6.567827e-02 
4.598337e+00 -4.316501e+00 7.045767e+00 2.878361e+00 -2.238740e+00 -9.922971e+00 2.321348e+00 -5.527101e-01 -5.187134e+00 -8.813928e+00 9.339870e+00 -9.635220e+00 6.518185e-01 1.795289e+00 1.087983e+00 -1.771797e+00 1.097752e+00 1.375665e+00 -1.947617e+00 2.056236e+00 -4.965292e-02 -3.102347e+00 1.443730e+00 1.677876e+00 -2.352895e+00 -4.886515e-02 
6.530851e+00 -4.782204e+00 6.453431e+00 3.992169e+00 -2.125669e+00 -1.046074e+01 2.060469e+00 2.106438e-01 -5.623373e+00 -9.284536e+00 8.612198e+00 -7.391231e+00 6.172343e-01 1.607434e+00 8.962240e-01 -2.195416e+00 1.432400e+00 4.092751e-01 -5.419618e-01 8.210850e-02 1.213311e+00 -1.761344e+00 1.082430e+00 -9.791061e-01 4.930059e-01 -3.441834e-02 
8.258443e+00 -3.316165e+00 2.779468e+00 6.615433e+00 -3.711198e+00 -8.498631e+00 -2.953328e-01 3.148693e+00 -7.757805e+00 -8.729053e+00 8.449784e+00 -7.295334e+00 5.709422e-01 1.235623e+00 1.881748e+00 -2.287295e+00 9.992199e-01 6.673744e-01 3.649096e-01 3.780733e-01 5.074776e-01 -1.306359e+00 1.764008e+00 -1.443281e+00 3.017485e-01 -3.904938e-02 
9.655350e+00 6.189942e-05 -1.851013e+00 8.211813e+00 -3.457475e-02 -1.210869e+01 3.454551e+00 3.547805e+00 -1.065066e+01 -4.159472e+00 4.079139e+00 -7.526744e+00 5.306331e-01 3.515711e-01 2.343066e+00 -1.127408e+00 7.013004e-01 5.319685e-01 6.125386e-01 1.019641e+00 5.665561e-01 -1.159947e+00 1.753947e+00 -1.225171e+00 -2.213683e-01 -3.519515e-02 
9.214204e+00 2.701105e+00 -2.384876e-01 5.764639e+00 5.258465e-02 -7.274448e+00 3.514674e+00 3.160975e-01 -9.205283e+00 -2.556417e+00 4.389993e+00 -8.058721e+00 4.998722e-01 -5.952939e-01 2.258261e+00 1.252020e+00 2.317739e-01 5.614576e-01 6.179614e-01 1.433814e+00 4.016039e-01 -8.675156e-02 1.820161e+00 -9.232824e-01 -6.115831e-01 -3.029286e-02 
7.810826e+00 3.924494e+00 2.325370e+00 7.924068e+00 -1.347718e+00 -8.010140e+00 5.253672e+00 4.459722e+00 -1.069937e+01 -3.601121e+00 4.516240e+00 -8.116379e+00 4.767936e-01 -1.355325e+00 1.427418e+00 2.954277e+00 1.063334e+00 3.458460e-01 1.451576e+00 1.313724e+00 1.116491e+00 1.011295e-01 6.316811e-01 -1.452405e+00 -4.906903e-01 -2.425257e-02 
6.204235e+00 6.012928e+00 6.951374e+00 7.918175e+00 -2.473383e-01 -7.458100e+00 5.974175e+00 4.700754e+00 -8.167211e+00 9.257412e-02 3.614821e+00 -1.005843e+01 4.463976e-01 -1.310899e+00 1.299565e+00 2.121469e+00 1.609681e+00 1.126157e+00 1.445991e+00 1.904059e+00 1.051521e+00 1.100578e-02 1.990070e-01 -2.608367e+00 1.253554e-01 -2.646959e-02 
4.383709e+00 5.481241e+00 9.325443e+00 1.245172e+01 1.844617e+00 -4.758986e+00 8.793420e+00 6.937930e+00 -1.066405e+01 -2.325563e+00 -2.795301e+00 -8.980340e+00 4.361075e-01 -1.274130e+00 9.942822e-01 5.511150e-01 7.904179e-01 1.760598e+00 2.866704e+00 2.131157e+00 5.458388e-01 6.213066e-01 5.782765e-01 -2.769598e+00 2.163449e-01 -4.415083e-02 
4.373270e+00 8.420557e+00 6.868819e+00 1.154922e+01 4.087204e+00 -1.670068e+00 1.126509e+01 4.334597e+00 -9.167912e+00 -2.199162e+00 -4.996074e+00 -6.999963e+00 3.878673e-01 -1.345202e+00 2.238545e-02 -1.283833e+00 -5.635500e-01 1.588998e+00 3.179763e+00 1.806702e+00 2.172991e+00 1.587271e+00 2.997375e-02 -2.256008e+00 -6.911564e-03 -7.118625e-02 
2.355659e+00 7.692090e+00 5.122222e+00 1.006064e+01 5.287999e+00 3.429360e+00 1.326400e+01 7.371995e+00 -7.092484e+00 4.361296e-01 -5.026304e+00 -8.563889e+00 2.853046e-01 -1.575631e+00 -5.265061e-01 -2.362017e+00 -1.685040e+00 6.261147e-01 1.438986e+00 1.043787e-02 1.215009e+00 1.395119e+00 9.532415e-01 5.429795e-01 4.116670e-01 -1.000242e-01 
4.922504e-01 5.019430e+00 2.633822e+00 6.295965e+00 5.975958e+00 4.346544e+00 1.277240e+01 1.534868e+01 -2.016642e+00 -1.138403e+00 -6.549716e+00 -1.030122e+01 1.658678e-01 -1.303585e+00 -3.457832e-01 -1.853844e+00 -2.123851e+00 -4.896846e-01 -4.848343e-01 -1.090891e+00 3.166204e-01 1.591157e+00 2.404801e+00 1.794578e+00 1.567342e+00 -8.288740e-02 
-1.553933e+00 4.549274e+00 -3.671418e-01 6.653145e+00 4.030813e+00 -5.723615e-01 8.091957e+00 7.505934e+00 -7.264091e+00 1.910266e+00 6.964178e-01 -5.271379e+00 4.698610e-02 -7.081150e-01 2.556686e-01 -1.518546e+00 -2.367557e+00 -1.462485e+00 -2.305013e+00 -2.746518e+00 -2.282690e+00 4.218128e-01 1.507070e+00 1.565010e+00 2.755949e+00 -5.155118e-02 
-1.898594e-01 8.263049e+00 3.442796e-01 2.633708e+00 2.267374e+00 -2.093378e+00 8.396659e+00 5.850729e+00 -1.126324e+00 9.087777e+00 1.115454e+00 -8.095088e-01 9.258956e-02 2.708773e-01 1.222549e+00 -5.978099e-01 -1.523370e+00 -1.282626e+00 -2.039986e+00 -2.817150e+00 -4.586332e+00 -6.895259e-01 1.700313e+00 1.364334e+00 1.791745e+00 -1.952416e-03 
-8.438616e-01 7.348623e+00 -1.325736e+00 5.397940e-02 -1.701345e-01 -4.875743e+00 1.719281e+00 7.075185e-01 -5.428578e+00 2.858387e+00 -1.033838e+00 4.700029e-01 6.418782e-02 4.383227e-01 1.012905e+00 2.893992e-01 -6.423107e-01 6.429493e-02 -1.982252e-01 -1.806114e+00 -1.898253e+00 -7.572441e-02 7.607062e-01 -2.000601e-01 2.169200e-01 1.385695e-02 
1.491601e+00 9.732498e+00 1.240697e-01 1.978696e+00 1.663304e+00 -3.701696e+00 1.872985e+00 -4.183778e+00 -6.382028e+00 6.889101e+00 1.137084e+00 -4.213181e+00 1.475049e-01 9.884839e-02 4.130660e-01 8.464977e-01 3.593481e-01 8.919204e-01 3.351993e-02 -9.663033e-01 -1.183919e+00 -1.127223e+00 3.608176e-01 -1.119904e-01 -4.254813e-01 1.540452e-03 
-2.030501e-01 8.879072e+00 1.189959e+00 3.769097e+00 4.654323e+00 -7.593285e-01 2.323225e+00 3.031924e+00 -5.014862e+00 6.813135e+00 -3.146977e-01 -2.484942e+00 8.881319e-02 2.361945e-01 7.996451e-01 1.277285e+00 4.626663e-01 8.799189e-01 1.230954e+00 9.271103e-01 1.398049e+00 9.073885e-01 -8.025594e-02 -1.319946e-01 -1.950003e-01 8.123410e-03 
-1.602316e-02 9.563154e+00 3.318921e+00 2.572889e+00 4.314747e+00 -3.983986e+00 3.263170e+00 -1.231070e+00 -6.969296e+00 8.914491e+00 1.959318e-01 -1.459443e+00 8.797914e-02 -3.089249e-01 -3.635212e-01 7.952524e-01 3.060923e-01 6.649895e-02 1.594259e+00 1.465850e+00 1.681887e+00 6.727719e-01 -5.333259e-01 -3.095250e-01 2.281175e-02 -1.555661e-02 
1.090923e+00 1.143152e+01 3.463263e+00 2.070214e+00 2.903738e+00 1.420171e+00 5.659739e+00 6.221407e+00 -5.980020e-01 1.444412e+00 -1.223235e+00 -1.881868e+00 1.345677e-01 3.347750e-02 1.978012e-01 7.010610e-01 2.653061e-01 -3.242343e-01 1.226782e-01 -4.483761e-01 -1.975452e-01 2.424257e-01 -9.419918e-01 -5.692333e-01 6.609763e-01 -5.789292e-03 
-7.000098e-01 6.638669e+00 2.963680e+00 4.358599e+00 2.871091e+00 3.179851e+00 7.533978e+00 2.630917e+00 -5.226598e+00 6.906833e+00 4.372764e-02 -4.400660e+00 4.684454e-02 1.674682e-01 -6.619168e-03 1.046435e-01 -9.219837e-02 4.764276e-01 -5.328834e-01 -1.953912e+00 -6.550384e-01 4.075242e-01 1.054770e+00 2.718086e-01 9.108429e-01 -4.767889e-03 
3.063307e-01 1.133032e+01 4.872885e+00 4.202773e+00 3.754980e+00 -3.727856e+00 -2.054060e+00 1.132037e-01 -4.674082e+00 3.107005e+00 -3.084762e+00 2.290548e+00 8.043402e-02 -6.285518e-02 -6.827869e-02 -2.592364e-01 7.532644e-03 6.090805e-01 -8.409888e-01 -1.473328e+00 -1.241893e+00 2.929634e-01 2.027290e+00 -5.402622e-01 6.641011e-01 -1.189880e-02 
1.213614e+00 9.580658e+00 3.137328e+00 1.045618e+00 6.271265e+00 -4.074389e+00 -2.649488e+00 -1.452160e+00 -2.893636e+00 1.335705e+01 2.485739e+00 1.008564e+00 9.120655e-02 2.125069e-01 5.356790e-01 -3.073630e-01 -6.209012e-01 7.218305e-02 -9.383111e-01 -1.014140e+00 6.890016e-01 7.295876e-01 1.939471e-01 -3.490557e-01 8.726843e-01 -5.207074e-03 
-1.801648e-01 9.619132e+00 2.080257e+00 3.764368e+00 4.249054e+00 8.423477e-01 3.384832e+00 2.053480e+00 -2.996665e-01 8.355758e+00 -5.145551e+00 -1.265974e+00 5.289274e-02 -2.851492e-01 -1.664414e-01 1.127458e-01 1.447031e-01 -1.886102e-01 5.922838e-01 4.550560e-01 7.141315e-01 -1.339595e-01 -1.033778e+00 5.268887e-01 4.755068e-01 -1.240462e-02 
6.057723e-01 1.017266e+01 2.823179e+00 1.473295e+00 2.984969e+00 -3.796806e+00 -2.561682e-01 5.105787e+00 -3.765868e+00 5.252192e+00 -6.711561e-01 1.741023e+00 3.457981e-02 -7.203509e-01 1.818791e-01 -1.152596e-01 -4.743127e-01 4.564743e-02 4.372306e-01 1.165283e+00 1.095195e+00 -4.223049e-01 -2.791307e+00 -3.951805e-01 7.005436e-01 -2.017470e-02 
-8.154948e-01 1.020211e+01 5.593688e+00 4.712450e+00 4.455077e+00 -9.052281e-01 -9.754398e-01 4.048879e-01 -4.907763e+00 1.990541e+00 1.128129e+00 4.301853e+00 4.672432e-02 -1.820261e-01 3.293246e-01 -1.051537e-01 -9.807358e-01 3.182488e-01 -4.465207e-01 -5.490120e-01 -3.782469e-01 9.712712e-02 -8.023545e-01 -6.969640e-02 4.232066e-01 -8.538777e-03 
-2.070475e+00 1.019856e+01 8.043138e-01 -1.799987e+00 6.396490e+00 -1.014448e+00 5.357061e+00 4.848114e+00 -2.701112e+00 2.583117e+00 -2.627004e+00 1.727368e+00 -6.582737e-03 -6.662757e-01 -2.724275e-01 -1.049515e+00 -7.079185e-01 2.966624e-01 -3.879906e-01 -5.736218e-01 -1.171173e+00 1.272376e+00 -7.037544e-03 -1.923118e+00 -5.051929e-01 -1.909764e-02 
2.478285e-01 1.125280e+01 2.563921e+00 4.973302e-01 4.134537e+00 -2.781435e+00 -2.166843e+00 2.910821e-01 -3.464092e-01 5.678523e+00 -4.516109e+00 8.568857e-01 3.078014e-02 -4.137834e-01 -1.554423e-01 -1.493888e+00 -1.399686e+00 8.393635e-01 2.010375e-01 -5.275888e-01 -1.268429e+00 8.781143e-01 4.336416e-01 -1.419078e+00 -1.217965e-01 -2.450388e-02 
-3.257268e+00 8.285176e+00 -9.095107e-01 4.126263e-02 4.628551e+00 -4.798656e+00 -2.528576e+00 -6.931773e-01 3.153344e-01 3.373013e+00 -7.464626e+00 9.375417e-01 -5.293632e-02 -6.367102e-01 2.458632e-01 3.136861e-01 -5.044975e-02 6.334880e-01 5.013555e-01 -5.799331e-01 -1.009280e+00 6.843876e-01 3.322498e-01 4.439875e-01 1.071208e+00 -6.847948e-03 
-2.291015e+00 1.038160e+01 -1.018841e+00 -3.206604e+00 9.535864e+00 1.992063e+00 3.294346e-01 -3.166609e+00 -2.025414e+00 3.763801e+00 -3.548451e+00 4.087783e+00 -5.261827e-02 -8.193198e-01 -1.111031e-02 2.750061e-01 2.024853e-01 4.022479e-01 6.678048e-01 8.816575e-01 -1.077175e+00 -4.155586e-01 3.936989e-01 1.367532e+00 5.384752e-01 -1.398650e-02 
-3.984604e+00 1.186348e+01 4.164125e+00 -2.002687e-01 6.863267e+00 -8.944198e-01 1.209257e+00 1.530561e+00 1.560329e+00 5.201726e+00 -8.908955e-01 5.467962e+00 8.767247e-04 1.311152e-01 3.145859e-01 1.418068e+00 1.156456e+00 -1.034114e-01 8.230459e-01 5.341604e-01 -2.219001e-01 -5.477672e-01 2.220898e-01 1.334157e+00 -1.435098e-01 8.234357e-03 
-3.485102e+00 9.408098e+00 1.402133e+00 1.630522e+00 5.028419e+00 -1.394529e+00 3.725281e-01 -6.206665e+00 -3.046700e+00 6.732661e+00 -9.653147e-01 1.284051e+00 -6.605887e-02 -2.654552e-03 -5.138053e-01 6.974387e-01 1.319090e+00 -3.182245e-01 2.073417e-01 -1.255058e-01 1.061520e+00 5.485970e-01 4.371338e-02 -8.978729e-01 -1.121590e+00 -8.851588e-04 
-2.004648e+00 1.034485e+01 4.970343e+00 3.404981e+00 6.365216e+00 1.009869e+00 1.206794e-01 -2.826501e-01 -1.912859e+00 2.999032e+00 -2.085411e+00 1.621859e+00 -5.044222e-03 4.409061e-02 -6.015221e-01 -1.049717e+00 -3.802741e-01 4.440972e-01 1.181691e+00 -4.272459e-01 4.128646e-01 -5.570669e-01 -8.271335e-01 -1.501118e+00 -9.232107e-01 -1.476015e-02 
-3.294266e+00 8.571883e+00 2.065243e+00 1.586222e+00 8.193767e+00 2.076627e+00 2.461945e-01 3.047598e+00 2.454164e+00 5.083715e+00 -7.440558e+00 4.028847e-01 -5.408359e-02 -5.280758e-01 -2.385637e-01 -1.151290e+00 -1.081474e+00 9.542592e-02 1.167373e+00 -3.563274e-01 1.661690e+00 -1.253902e-01 -1.269484e+00 -1.123769e+00 1.072818e-01 -1.064843e-02 
-3.859569e+00 9.273979e+00 -1.416013e+00 -2.079489e+00 7.501079e+00 3.278456e+00 -8.638051e-01 -1.032247e+00 -3.975438e+00 1.890532e+00 -5.158863e+00 1.292491e+00 -7.891166e-02 -8.335201e-01 -2.294684e-01 -1.121042e+00 -1.061507e+00 -2.118659e-01 1.215124e+00 7.579979e-01 1.338469e+00 -4.556057e-01 -3.836603e-01 5.793092e-01 -1.287639e-01 -1.808489e-02 
-5.198021e+00 8.750717e+00 -1.161138e+00 -1.034613e+00 4.937617e+00 3.308042e+00 -9.168669e-01 2.476582e+00 -2.642361e+00 9.394889e-01 -5.047433e+00 1.985144e+00 -8.236730e-02 -5.213014e-01 9.065399e-02 2.204995e-02 -2.869360e-01 -3.086728e-01 1.197763e+00 1.384802e+00 1.502265e+00 -5.860766e-01 -2.599431e-01 1.888370e+00 -1.537532e-01 -5.690170e-03 
-5.220372e+00 9.108095e+00 9.783245e-01 -5.921350e-01 6.933962e+00 6.469779e+00 4.492199e+00 6.695201e+00 -1.642625e+00 3.152844e+00 -3.854275e-01 1.869097e-01 -8.132684e-02 -2.743956e-01 2.560997e-03 6.928137e-01 3.417187e-01 8.621099e-02 9.544384e-01 1.612108e+00 1.967352e+00 5.665361e-01 4.737980e-01 1.420888e+00 -4.009398e-01 -3.789902e-04 
