-1.488121e+01 -8.388016e+00 1.155355e+00 -1.446657e-01 4.066372e+00 2.479895e+00 -1.046887e+01 -1.055098e+01 1.169433e+01 -1.276227e+01 3.224589e+00 1.670781e+00 2.263355e-01 1.202672e+00 1.394427e+00 -9.565948e-01 3.769870e-01 5.827137e-01 1.693670e+00 5.089026e+00 2.311115e+00 -2.622395e+00 4.858564e+00 3.175397e-01 1.343644e+00 -8.830461e-02 
-1.216621e+01 -7.073348e+00 2.656791e+00 -1.527625e-01 7.015080e-01 8.485241e+00 2.415745e+00 -4.355064e+00 6.130947e+00 -3.934736e+00 5.329825e+00 2.215801e+00 9.854585e-02 1.901225e+00 2.387186e+00 -1.285173e+00 -4.725100e-02 4.177302e-01 4.270609e-01 4.352927e+00 3.209655e+00 -1.676298e+00 5.108109e+00 4.480096e-01 2.852778e+00 -1.132885e-01 
-1.022535e+01 -2.073212e+00 -4.378337e+00 1.744318e+00 8.662373e+00 7.945571e+00 8.533944e+00 -2.093357e+00 1.364043e+00 7.116782e+00 3.759669e+00 8.116492e+00 -1.512927e-01 1.444913e+00 3.061244e+00 -1.286733e+00 -3.179312e-02 2.429347e-01 -4.173893e-01 3.234685e+00 1.902681e+00 4.146639e-01 2.353068e+00 7.866365e-01 2.869775e+00 -7.636437e-02 
-7.703009e+00 3.905120e-01 -2.503665e+00 -1.325412e+00 3.857023e+00 1.882361e+00 1.794348e+00 1.268487e+00 8.477981e+00 2.838748e+00 5.197097e+00 1.271182e+01 -1.512927e-01 1.086977e+00 2.666770e+00 -1.711304e+00 -5.607964e-01 5.982921e-01 -5.834631e-01 5.634381e-01 4.852335e-01 2.182766e+00 -6.295220e-01 -8.521829e-02 1.812207e+00 -2.835849e-02 
-9.888243e+00 3.186272e+00 -2.698083e+00 2.826936e-01 3.703288e+00 3.694388e+00 6.015246e+00 -3.849350e+00 1.259413e+01 -4.383674e+00 7.224135e+00 1.077165e+01 -3.056705e-02 9.341260e-01 7.581080e-01 -1.016849e+00 -6.992911e-01 -5.236436e-01 1.963248e-01 -8.254042e-02 -2.502725e-01 1.805363e+00 -1.406562e+00 -9.297979e-01 -2.341011e-01 4.768324e-03 
-6.899875e+00 3.630761e+00 -6.739858e+00 -2.225933e+00 6.172510e+00 7.693516e+00 6.492284e+00 -1.050900e+00 1.142974e+01 -1.332117e+00 3.171500e+00 9.949255e+00 -1.036094e-01 1.326748e+00 5.346742e-02 -1.924400e+00 2.097297e-01 1.139201e+00 1.301803e+00 9.791924e-01 4.960839e-01 1.030923e-01 1.891455e-01 -2.075808e+00 -1.147252e-01 -1.207256e-02 
-5.956285e+00 9.720302e-02 -7.344486e+00 -1.301877e+00 4.886411e+00 6.021617e+00 5.772274e+00 -2.185026e+00 8.914979e+00 2.169404e+00 1.234772e-01 8.327268e+00 -1.512927e-01 1.780240e+00 3.348435e-01 -1.454730e+00 -4.480470e-01 2.436064e-01 -3.148582e-01 -9.978178e-01 1.618403e+00 -3.405848e-01 1.980338e+00 -2.304949e+00 2.719884e-01 -2.715642e-02 
-3.035249e+00 2.202384e+00 -9.802465e+00 5.155215e-01 8.961469e+00 7.227761e+00 6.811796e+00 2.916744e+00 1.083302e+01 5.079367e-01 -1.631613e+00 1.336038e+01 -1.512927e-01 1.662645e+00 5.529144e-01 3.233622e-01 -7.347496e-02 -5.537235e-01 -1.271840e+00 -9.070541e-01 4.176275e-01 -4.420968e-01 2.542691e+00 -1.128256e+00 -1.480869e+00 -8.658135e-03 
-2.919355e+00 5.574678e+00 -8.440429e+00 -3.328269e+00 3.526841e+00 2.352974e+00 8.664017e-01 2.258842e+00 1.118957e+01 4.597989e+00 -1.899054e+00 1.042603e+01 -1.425076e-01 1.229880e+00 4.240733e-01 9.194833e-01 3.829452e-01 -1.110171e+00 -9.108868e-01 1.445327e+00 -1.374223e-01 -2.370767e-01 8.594260e-01 4.776543e-01 -2.868964e+00 1.642907e-02 
-1.051149e-01 3.656595e+00 -4.575075e+00 -1.580112e+00 4.083678e+00 3.168637e+00 4.409950e+00 -1.184696e+00 8.081959e+00 1.016704e+01 -1.458515e+00 1.495531e+00 -1.512927e-01 -2.809607e-01 -4.769512e-01 1.631012e+00 1.975958e+00 -9.618901e-01 -3.551328e-01 2.397938e+00 -8.007380e-01 5.675550e-01 1.441528e+00 2.066449e+00 -3.945517e+00 4.098595e-02 
-1.271953e+00 1.490464e+00 -5.360765e+00 1.660665e+00 1.774452e+00 3.496746e+00 1.419983e+01 -8.214171e-01 9.105125e+00 1.636980e+00 2.425200e+00 -8.512592e-02 -6.914735e-02 -5.998033e-01 -1.095216e+00 7.701978e-01 2.350152e+00 1.971244e-01 1.102757e+00 3.618838e+00 -2.762528e-01 6.505845e-01 7.271670e-01 1.705316e+00 -2.719613e+00 4.113939e-02 
-5.263754e+00 1.859735e+00 -3.187236e+00 7.900844e+00 5.028213e+00 4.880212e+00 1.213477e+01 4.531837e-01 1.471301e+01 9.196079e+00 6.538503e+00 -1.111624e+00 1.695698e-02 -6.901004e-01 -5.252604e-01 4.198627e-01 1.819927e+00 -3.053271e-01 1.082923e+00 2.314004e+00 7.685986e-01 2.438840e-01 -1.761214e-01 7.592311e-01 -2.274702e-01 1.572191e-02 
-3.339052e+00 9.970293e-01 -5.283360e+00 3.682012e+00 4.040195e+00 7.010972e+00 1.509818e+01 5.863774e-02 1.112696e+01 8.719307e+00 2.629017e+00 -1.868459e+00 -2.093542e-02 -5.134112e-01 -4.805213e-01 -8.209111e-01 -2.428457e-01 -1.251119e+00 5.026001e-01 8.614389e-01 2.364028e+00 -4.815855e-02 1.555375e+00 -1.770566e-01 1.275939e+00 -2.087259e-02 
-2.522067e+00 1.277010e+00 -2.514465e+00 6.508852e+00 1.424170e+00 6.826141e+00 1.553080e+01 2.218269e+00 8.290461e+00 5.745274e+00 2.235732e+00 1.249846e+00 -9.678912e-02 -4.381807e-01 -3.789877e-01 -8.522447e-01 -1.826529e+00 -8.008139e-01 4.988915e-01 -2.590046e-02 2.408009e+00 -3.857366e-01 4.017510e-01 1.847978e-02 2.612785e+00 -4.322011e-02 
-5.209852e+00 -6.207803e-01 -9.801706e+00 1.142433e+00 -2.679122e+00 5.036781e+00 1.680901e+01 1.011618e+01 1.207561e+01 1.113926e+01 3.691302e+00 5.113833e+00 -1.166372e-01 -1.189511e+00 -4.550634e-02 -1.328252e-01 -9.078957e-01 1.126449e+00 -2.388096e-02 -5.939840e-01 1.595310e+00 1.035669e+00 9.531353e-01 6.756639e-01 1.094671e+00 -3.152181e-02 
-6.519258e+00 7.737017e-01 -5.189286e+00 3.798807e-02 4.383801e+00 8.361764e+00 1.114985e+01 7.464457e+00 1.231001e+01 9.994858e+00 6.099759e+00 8.461156e+00 -1.512927e-01 -1.293957e+00 -3.464208e-01 -3.554235e-01 -2.238648e+00 1.395403e+00 6.051292e-01 -8.088483e-01 5.201892e-01 9.896194e-01 -6.876687e-01 -6.905464e-01 6.027743e-01 -1.436626e-02 
-7.288012e+00 1.021152e+00 -4.610075e+00 2.377965e+00 8.192625e+00 6.123755e+00 1.431873e+01 5.412096e+00 1.429553e+01 1.136019e+01 4.075323e+00 -7.610321e-04 -1.512927e-01 -1.030141e+00 -8.180984e-01 9.150154e-01 -1.249520e+00 1.414720e+00 2.580697e-02 -1.646940e+00 -1.115510e+00 -4.808565e-01 -1.607878e+00 -4.886270e-02 1.741106e+00 -6.931090e-03 
-7.952770e+00 -1.276060e+00 -6.887398e+00 -5.302152e+00 2.965312e+00 9.308300e+00 1.273170e+01 7.171256e+00 1.212860e+01 2.196464e+00 -1.409011e+00 6.821015e+00 -1.512927e-01 -5.767840e-01 -7.570704e-01 -1.699138e-02 -1.378701e-01 2.587237e-02 -6.316903e-01 -9.874716e-01 -1.201083e+00 -8.294617e-01 -5.534025e-01 -1.988100e-01 1.356492e+00 0.000000e+00 
-9.643801e+00 -3.686392e+00 -4.377573e+00 -2.435095e+00 5.103724e+00 4.692548e+00 7.783393e+00 4.685226e+00 9.762032e+00 6.999066e+00 7.201373e+00 1.463943e+01 -1.512927e-01 2.561882e-01 1.999628e-01 -2.061686e-01 5.920095e-01 -1.729379e-01 -4.749194e-01 -4.210216e-01 -8.708229e-01 -1.283746e+00 -2.356390e-01 -7.400217e-01 7.470000e-01 0.000000e+00 
-8.225283e+00 -6.578788e-01 -5.390493e+00 1.755168e+00 6.057614e+00 5.918916e+00 9.480164e+00 1.822479e+00 1.042945e+01 9.408408e+00 3.542684e+00 7.923517e+00 -1.512927e-01 3.857547e-01 -6.030431e-01 -8.285626e-01 -3.480373e-01 2.025337e+00 -1.220878e+00 -2.886577e+00 -2.460758e+00 -1.700904e+00 8.115866e-01 -1.819472e+00 -8.286842e-01 1.855010e-01 
-5.870814e+00 1.711876e+00 -6.389370e+00 1.809353e+00 5.781784e+00 5.443851e+00 1.383939e+01 3.732371e+00 8.726377e+00 6.576024e+00 -2.100632e+00 3.182988e+00 -1.512927e-01 -2.695023e-01 3.610185e-01 -1.359286e+00 -3.604003e+00 1.677980e+00 -1.076406e+00 -3.624054e+00 -1.909804e+00 -1.108855e+00 -3.641132e-01 -2.048532e+00 -8.219830e-01 3.181085e-01 
-7.910490e+00 -6.990409e+00 -1.002431e+01 -9.164563e+00 1.275297e+01 2.828259e+00 -4.729190e+00 -4.656105e+00 4.141904e+00 6.465918e+00 -5.855366e+00 8.405817e+00 7.762125e-01 -2.791049e+00 6.041580e-01 5.354317e-01 -4.878038e+00 9.222780e-01 -9.898579e-01 -3.095465e+00 -2.410977e-01 -2.298617e+00 -1.134291e+00 5.861558e-01 1.334149e+00 3.429375e-01 
-1.114871e+01 1.284966e+00 -8.857096e+00 -1.499524e+01 1.014595e+01 8.558488e-01 -3.232203e+00 -1.624501e+00 7.361530e+00 6.649745e+00 1.657736e+00 1.028837e+01 9.754972e-01 -3.274257e+00 3.003861e-01 1.954179e+00 -2.983507e+00 -4.962901e-01 -2.713526e-01 -2.089347e+00 9.467632e-01 -1.575133e-01 3.952539e-01 3.267026e+00 2.421303e+00 2.293557e-01 
-1.954158e+01 2.576366e+00 -1.479472e+00 -1.423272e+01 8.486922e+00 3.263628e+00 2.538633e+00 3.295426e+00 -3.812113e-01 3.700092e+00 4.594278e+00 1.104157e+01 1.000000e+00 -1.139830e+00 6.944604e-01 3.270834e+00 7.904775e-01 -2.976495e+00 3.358804e-01 2.165412e+00 1.138142e+00 2.827466e-01 -7.931480e-01 1.934346e+00 1.609815e-01 -8.103239e-03 
-1.642656e+01 -1.569581e+00 -8.908930e-01 -1.057410e+01 5.433356e+00 3.869403e+00 -2.412543e-01 4.490421e+00 1.020037e+01 9.935206e+00 9.009673e+00 1.397162e+01 8.835922e-01 1.825607e+00 -1.482383e+00 1.684083e+00 2.865713e+00 -2.858414e+00 1.417156e-01 2.460973e+00 4.247851e-02 -6.972557e-01 -1.899016e+00 8.284660e-02 -9.764379e-01 -9.035860e-02 
-1.097072e+01 -2.090833e+00 2.346757e+00 -7.422747e+00 2.267866e-01 3.000884e+00 4.602397e+00 -2.022857e+00 4.136218e+00 8.574467e-01 1.403987e-01 7.369097e+00 7.816488e-01 4.965854e+00 -4.193985e-01 1.206592e+00 2.995119e+00 -3.491997e+00 -1.742561e+00 5.969853e-01 -1.827858e+00 -2.120098e+00 -3.337690e+00 -2.017843e+00 -2.580205e+00 -1.081046e-01 
-6.306107e+00 -3.793349e+00 -2.349796e+00 -4.071668e+00 -1.605415e-02 1.695799e+00 8.040781e+00 1.247034e+00 1.616537e+00 -1.424010e+00 4.298909e+00 7.242417e+00 6.328799e-01 5.302221e+00 4.765558e-01 8.178431e-01 1.810299e+00 -3.804581e+00 -1.952489e+00 -1.988436e+00 -8.793972e-01 -4.330477e+00 -3.988939e+00 -2.123483e+00 -4.484484e+00 -4.505505e-02 
2.274618e-01 1.591257e+00 5.282939e+00 -2.508346e+00 -6.248360e+00 -4.362376e+00 1.382542e+00 -4.222172e+00 -6.689784e+00 -7.308747e+00 -3.139556e+00 1.505148e+00 5.848333e-01 3.892859e+00 4.872312e-01 -2.442904e-01 1.068360e+00 -4.286736e+00 -1.687748e+00 -4.192671e+00 5.464948e-01 -1.802010e+00 -2.501337e+00 -5.714662e-01 -4.455103e+00 1.709064e-02 
4.485463e+00 -1.027848e+00 1.730232e+00 -3.979808e+00 -1.035197e+01 -2.211415e+00 -8.573509e+00 1.193092e+00 -6.039015e+00 -5.926391e+00 3.223693e-02 -5.518820e+00 7.567247e-01 2.086615e+00 7.825013e-02 1.160378e-01 -6.281835e-01 -3.205357e+00 -1.260760e+00 -3.991988e+00 1.214695e+00 -3.557861e-01 -1.288436e+00 -4.226241e-01 -3.823685e+00 6.080009e-02 
3.097792e+00 -1.037428e+00 -9.147084e-01 -2.126876e+00 -1.603894e+01 -3.484247e+00 -8.053815e+00 7.365873e-01 -1.046056e+00 -9.398046e+00 -5.835963e-01 -8.525800e+00 8.051796e-01 4.591709e-01 -1.808205e+00 -9.456452e-01 -1.698326e+00 -1.558297e+00 -1.248459e+00 -2.513333e+00 1.597817e+00 -4.549054e-01 2.383152e-01 7.913406e-01 -2.269313e+00 5.903904e-02 
2.691803e+00 -2.087756e+00 1.329217e+00 -7.403320e+00 -1.114755e+01 -5.047068e+00 -7.200982e+00 4.841127e+00 -2.984258e+00 -6.821542e+00 9.078088e-01 -6.860533e+00 8.267072e-01 -1.620354e-01 -1.904784e+00 4.541425e-01 -1.164227e+00 -1.611713e-01 -1.946444e+00 -2.716963e-01 5.845318e-01 -1.338318e+00 8.938721e-01 8.478819e-01 -1.121918e-01 2.706164e-02 
3.420146e+00 -6.919816e+00 7.552204e-01 -9.288221e+00 -1.364206e+01 -9.186847e+00 -1.187039e+01 1.942896e+00 -1.049169e+01 -5.669596e+00 3.793610e-01 -9.170560e+00 8.450373e-01 -2.958655e-02 -2.126941e+00 8.424076e-01 -8.870935e-01 4.326014e-01 -2.244796e+00 -8.146846e-01 -3.513664e-01 -2.930445e+00 1.609969e+00 9.158224e-01 9.439335e-01 1.936986e-02 
3.514109e+00 -7.610575e+00 3.165980e+00 -6.220272e+00 -1.235627e+01 -9.092333e+00 -8.023705e+00 3.512597e+00 -8.007786e+00 -3.321256e+00 3.790168e+00 -5.757399e+00 8.721040e-01 -4.152876e-01 -1.654737e+00 3.269939e-02 -5.411262e-02 -1.057677e+00 -2.722538e+00 -1.203622e+00 -2.402627e+00 -2.594565e+00 -3.286304e-02 4.449840e-01 4.048842e-01 1.447502e-02 
2.538706e+00 -8.910726e+00 2.378948e+00 -7.153869e+00 -1.327157e+01 -1.268559e+01 -1.171588e+01 -3.559794e-01 -1.318652e+01 -3.098345e+00 2.554337e+00 -4.357699e+00 8.793305e-01 -3.999022e-01 -6.162690e-01 6.400456e-02 5.628759e-01 -1.011246e+00 -1.522182e+00 -5.668595e-01 -1.762606e+00 -1.292665e+00 -4.641595e-01 3.986802e-01 1.175192e+00 6.704557e-03 
1.056085e+00 -9.365988e+00 6.808500e-01 -8.741059e+00 -1.662118e+01 -1.691039e+01 -1.329635e+01 -6.022570e+00 -1.460967e+01 -8.271482e+00 2.045242e+00 -7.242542e+00 8.819357e-01 -3.900818e-01 -3.430141e-01 -4.951305e-01 1.990805e-01 -1.902523e+00 -1.279944e+00 -1.517468e+00 -1.931437e+00 -1.690666e+00 -1.132630e+00 -5.069667e-01 3.190093e-01 -1.194841e-03 
2.649647e+00 -9.123454e+00 2.317808e+00 -5.213448e+00 -1.656583e+01 -1.288873e+01 -1.206836e+01 -2.102551e+00 -1.365408e+01 -5.515280e+00 3.245225e+00 -2.552027e+00 8.736442e-01 2.886453e-01 1.869071e-01 4.854971e-01 9.722190e-01 -5.932026e-01 3.211187e-01 4.340609e-01 -1.533172e-01 1.841454e-01 3.641765e-01 4.298317e-01 9.065105e-01 -4.396826e-03 
1.508229e+00 -9.219281e+00 7.208972e-01 -6.195080e+00 -2.022175e+01 -1.539048e+01 -1.543480e+01 -5.271303e+00 -1.622733e+01 -7.775939e+00 9.098901e-01 -5.065188e+00 8.689730e-01 5.160378e-01 2.649687e-01 1.115021e+00 7.536338e-01 5.617844e-01 8.654726e-01 6.813468e-01 8.409386e-01 4.197046e-01 1.091866e+00 7.890009e-01 1.127892e+00 -6.717014e-03 
3.755861e+00 -8.049543e+00 4.786410e+00 -3.565763e+00 -1.443729e+01 -1.183995e+01 -8.476345e+00 -1.498199e+00 -1.145696e+01 -1.525234e+00 5.271171e+00 -9.138241e-01 8.638277e-01 1.987881e-01 1.518487e-01 7.691050e-01 -1.230806e-01 3.172672e-01 1.730514e-01 1.579330e-01 1.854680e-01 -1.509092e-01 6.030290e-01 -5.219364e-02 1.355342e-01 -7.705009e-03 
3.083167e+00 -8.578100e+00 5.021654e+00 -5.796733e+00 -1.487652e+01 -1.310741e+01 -1.168562e+01 -2.120053e+00 -1.360970e+01 -4.807176e+00 4.977273e+00 -2.422184e+00 8.532589e-01 2.358491e-01 5.456448e-03 9.224834e-01 2.117624e-01 4.624473e-01 5.174179e-01 2.289973e-01 1.060974e+00 -3.618681e-01 6.974000e-01 2.588995e-01 2.179951e-01 -7.768857e-03 
2.856118e+00 -8.684801e+00 4.012955e+00 -6.028024e+00 -1.765211e+01 -1.316501e+01 -1.315329e+01 -2.750836e+00 -1.571744e+01 -3.984517e+00 9.505649e-01 -3.195858e+00 8.429762e-01 2.024851e-02 -6.510179e-01 2.093406e-01 -4.164968e-01 -9.061785e-01 3.845062e-02 -1.217430e+00 4.568009e-01 -1.416186e+00 -7.494143e-01 -1.150236e+00 -9.126051e-01 -1.000528e-02 
3.137346e+00 -8.874370e+00 5.720042e+00 -3.905138e+00 -1.630210e+01 -1.214086e+01 -1.195135e+01 6.598874e-01 -1.590644e+01 -3.059298e+00 4.364691e+00 -2.834196e+00 8.405544e-01 3.024382e-01 -7.395661e-01 4.189209e-01 -2.715487e-01 -5.705957e-01 4.805050e-02 -3.412109e-01 7.039798e-01 -1.107951e+00 -2.849408e-01 -1.198414e+00 -7.967184e-01 -1.118915e-02 
3.830014e+00 -1.115650e+01 5.483919e+00 -6.594045e+00 -1.825540e+01 -1.213097e+01 -1.443063e+01 -6.041639e-01 -1.738952e+01 -6.146245e+00 -1.737171e-01 -5.270844e+00 8.201535e-01 4.413992e-01 -5.342229e-01 4.054899e-01 -3.260813e-01 5.192833e-02 1.718401e-01 -3.754849e-01 8.026797e-01 -7.942427e-01 -1.813571e-01 -8.243879e-01 -6.997067e-01 -1.405359e-02 
4.108410e+00 -1.104008e+01 6.380776e+00 -6.871466e+00 -1.742786e+01 -1.338418e+01 -1.275301e+01 3.265107e-01 -1.831342e+01 -5.151015e+00 -4.526567e-01 -5.368283e+00 8.087245e-01 2.779348e-01 -3.462492e-01 -2.752523e-01 -5.783323e-01 -2.760334e-01 -2.891935e-01 -9.319414e-01 -3.612626e-02 -7.527086e-01 -8.379558e-01 -1.536563e+00 -1.010313e+00 -1.758328e-02 
4.577582e+00 -1.027306e+01 5.710037e+00 -6.175267e+00 -1.682959e+01 -1.168415e+01 -1.462988e+01 1.429251e+00 -1.848516e+01 -3.845443e+00 -7.627007e-01 -5.427348e+00 7.886232e-01 2.302916e-01 -7.608862e-02 -3.086988e-01 -5.598216e-02 2.170427e-01 -5.602764e-01 -6.690134e-01 6.307921e-01 -8.168381e-01 -8.425401e-01 -6.766183e-01 -7.331997e-01 -1.855182e-02 
4.153236e+00 -1.104733e+01 4.230721e+00 -7.006188e+00 -1.839518e+01 -1.381024e+01 -1.651143e+01 -5.374515e-01 -1.912216e+01 -8.399478e+00 -3.023632e+00 -7.807509e+00 7.684032e-01 4.990944e-01 -1.306598e-01 -3.398519e-01 5.534680e-01 4.443211e-01 2.403870e-02 -2.625704e-01 8.632210e-01 8.567162e-02 -8.838550e-01 -7.666229e-01 -1.394527e-01 -2.520435e-02 
4.959059e+00 -1.153331e+01 5.015452e+00 -6.806595e+00 -1.668653e+01 -1.471932e+01 -1.589649e+01 2.981778e+00 -2.106934e+01 -8.734715e+00 -2.271321e+00 -7.717229e+00 7.475551e-01 8.804860e-01 -1.757653e-01 -6.156306e-01 1.268243e+00 4.884083e-01 4.593475e-01 -5.818508e-01 1.093551e+00 1.502912e+00 -1.541505e+00 -1.494070e+00 1.021760e-01 -3.244132e-02 
6.413144e+00 -1.106325e+01 5.028810e+00 -3.788462e+00 -1.527779e+01 -1.174640e+01 -1.343255e+01 3.866353e+00 -1.659297e+01 -7.125655e+00 -3.531461e+00 -4.920607e+00 7.032368e-01 1.263170e+00 8.990505e-01 -9.714886e-01 2.366483e+00 1.548114e+00 1.770725e+00 -1.992170e-01 1.330675e+00 3.740768e+00 -4.092715e-01 -7.762701e-01 -5.291055e-01 -3.741550e-02 
7.850059e+00 -1.114393e+01 2.232840e+00 -1.442913e+00 -1.594624e+01 -1.041934e+01 -1.907858e+01 4.695106e+00 -1.223520e+01 -1.218988e+01 -7.979136e+00 -6.359920e+00 6.589998e-01 9.610836e-01 2.431243e+00 -2.174000e+00 2.203681e+00 2.451233e+00 2.086364e+00 -3.643309e-01 -7.680812e-01 5.270407e+00 -6.897669e-02 -9.971613e-01 -2.741906e+00 -3.715006e-02 
9.023585e+00 -6.746777e+00 7.645845e-01 2.144386e+00 -1.102474e+01 -7.106613e+00 -1.591647e+01 5.259261e+00 -4.835387e+00 -8.718252e+00 -4.051075e+00 -1.113169e+01 6.256033e-01 7.124106e-01 3.773213e+00 -1.966844e+00 1.865834e+00 3.501230e+00 2.019394e+00 4.511574e-01 -1.425730e+00 4.505894e+00 9.237217e-01 -1.465153e+00 -3.348198e+00 -3.059123e-02 
8.459256e+00 -1.535336e+00 -3.722436e+00 1.245387e+00 -6.556883e+00 -6.607398e+00 -1.647618e+01 -1.555083e+00 -5.960970e-01 -8.283299e+00 -6.997320e+00 -1.832122e+01 6.006216e-01 2.320312e-01 4.215820e+00 -1.330032e+00 2.213712e+00 4.027675e+00 2.275561e+00 2.290464e+00 -3.402796e+00 6.491529e-01 1.104511e+00 -4.011113e-01 -2.438946e+00 -2.583293e-02 
9.670598e+00 2.998515e+00 -1.827773e+00 4.196559e+00 -2.466323e+00 -3.555398e+00 -1.247796e+01 -1.372051e-01 1.169529e-01 -4.460338e+00 -1.134814e+01 -1.568095e+01 5.794698e-01 -4.921634e-01 2.873910e+00 -4.435315e-01 2.879924e+00 2.732522e+00 2.188053e+00 3.453513e+00 -5.027738e+00 -2.711983e+00 7.835096e-01 -3.420846e-01 -1.338150e+00 -3.492793e-02 
8.686708e+00 5.062528e+00 -3.121143e+00 8.599562e+00 -8.707905e-02 -8.171377e-01 -9.345510e+00 -9.620641e+00 -1.146560e+01 -8.796286e+00 -6.336162e+00 -1.628002e+01 5.529019e-01 -7.725650e-01 6.620756e-01 1.047927e+00 2.861971e+00 1.236965e+00 1.293044e+00 4.142416e+00 -3.021472e+00 -3.990329e+00 9.382983e-01 1.353762e+00 5.241276e-01 -5.972465e-02 
6.449042e+00 4.323842e+00 -1.753720e+00 1.286692e+01 -5.970392e-01 9.385226e-01 -2.214245e+00 -1.584665e+01 -1.296055e+01 -4.544211e+00 -6.092077e+00 -1.884304e+01 4.748235e-01 -1.090810e+00 -5.553488e-01 1.663707e+00 1.332608e+00 2.880129e-01 6.092657e-01 4.389295e+00 -5.587323e-01 -3.539967e+00 -4.343399e-01 1.285811e+00 1.243094e+00 -8.533652e-02 
6.207209e+00 1.112379e+00 1.480173e+00 1.122006e+01 -1.306699e+00 -2.389140e+00 -8.959608e-01 -8.807718e+00 -1.400899e+01 -3.549871e+00 -2.856540e+00 -1.411953e+01 3.543215e-01 -7.312725e-01 -2.937198e-01 1.655577e+00 -9.235750e-01 1.786377e+00 2.331558e-01 3.250463e+00 2.913956e+00 5.832819e-01 8.024946e-01 3.356661e-01 1.924800e+00 -1.074183e-01 
5.456298e+00 2.196846e+00 4.190103e+00 9.549347e+00 -4.164486e-01 2.769318e-01 5.243739e+00 -3.337328e+00 -1.631119e+01 -9.255244e+00 -6.658894e+00 -1.054572e+01 2.520774e-01 -7.357766e-01 -6.993894e-02 1.128342e+00 -2.304326e+00 2.555285e+00 8.101338e-01 2.170434e+00 4.697174e+00 2.254243e+00 1.484978e-01 7.989906e-01 3.127713e+00 -1.208361e-01 
5.526718e+00 4.657427e+00 2.184831e+00 5.640473e+00 8.754508e+00 6.794369e-01 3.177814e+00 -1.305519e+00 -6.873875e+00 -2.428296e+00 -4.374423e+00 -1.080468e+01 1.271833e-01 -1.007121e+00 -2.672829e-01 -4.756160e-01 -2.799309e+00 1.998595e+00 1.161770e+00 1.525333e+00 3.088411e+00 4.321122e+00 2.652100e+00 1.237917e+00 3.336840e+00 -1.127076e-01 
3.110405e+00 2.201623e+00 3.535664e+00 4.135085e+00 7.148782e+00 3.454904e+00 6.601037e+00 3.888123e+00 -5.256896e+00 -4.362510e+00 -1.338182e+00 -4.861906e+00 -1.578796e-02 -1.098374e+00 -4.286437e-01 -3.888394e-01 -1.749572e+00 2.030003e+00 2.190969e+00 9.465547e-01 2.319377e+00 4.172601e+00 3.701694e+00 1.146019e+00 2.816132e+00 -8.327328e-02 
2.344552e+00 -2.264240e-01 -5.706873e-01 -6.935346e-02 4.903663e+00 1.830724e+00 6.052057e+00 3.021613e+00 2.069472e+00 7.264261e+00 6.726914e-01 -2.772427e-01 -7.528365e-02 -9.036499e-01 -2.876608e-01 8.470325e-01 1.780748e-01 1.046100e+00 1.724909e+00 1.579349e-01 1.486382e+00 1.587165e+00 2.565462e+00 5.663673e-01 1.833284e+00 -4.504701e-02 
1.555511e+00 2.495553e+00 3.623664e+00 3.656402e+00 1.165899e+01 1.065613e+01 8.539391e+00 6.095994e+00 8.014297e-02 4.406946e+00 -3.452355e+00 -1.728779e+00 -6.305552e-02 -5.507035e-01 4.695324e-01 1.342435e-01 1.075359e+00 1.293700e+00 2.099225e-02 -9.137208e-01 1.040408e+00 1.595086e+00 1.271090e+00 2.524419e-01 1.172694e+00 -2.122819e-02 
1.785915e+00 3.072158e+00 6.375993e+00 6.770189e+00 1.172991e+01 5.703370e+00 2.998312e+00 5.022455e+00 -1.606568e+00 6.014285e+00 -4.855003e-01 -3.204823e+00 -7.441795e-02 -5.583138e-02 8.286983e-01 3.507482e-01 1.618096e+00 8.969522e-01 -8.544037e-01 -5.281191e-01 -4.229627e-02 -3.545474e-01 -1.454956e+00 -2.475841e-01 -7.176496e-01 -5.826533e-03 
6.362057e-01 2.899994e+00 7.335410e-01 6.092111e+00 1.020416e+01 1.623542e+00 3.559306e+00 8.089740e+00 4.556553e+00 2.617927e+00 5.031231e-01 2.465353e+00 -1.223618e-01 7.694364e-02 6.653366e-02 -1.835165e-01 1.062771e+00 -8.639592e-01 -1.917873e+00 -1.082754e+00 -1.227648e+00 8.581110e-01 -3.619123e-01 -2.099594e-01 -1.002048e+00 -3.879571e-03 
2.525048e+00 3.714847e+00 2.628115e+00 6.803271e+00 1.011584e+01 2.075000e+00 5.901504e+00 1.813259e+00 -1.941470e+00 8.839898e-01 -2.542968e+00 -5.962557e+00 -7.476318e-02 1.068356e-01 3.236573e-01 2.069138e-01 2.779283e-01 -6.470579e-01 3.902580e-01 4.094380e-01 -1.675579e+00 6.102513e-01 3.270608e-01 -1.441993e-01 -2.406743e-01 -1.379061e-03 
1.570663e+00 2.506877e+00 4.580021e+00 8.953714e+00 8.146227e+00 2.880952e+00 1.674024e+00 1.562350e+00 4.538149e+00 5.162532e+00 -3.473418e+00 -5.360151e+00 -8.228076e-02 1.652464e-01 6.169685e-01 8.371755e-01 -3.782164e-01 -3.472197e-01 5.081730e-01 7.160180e-01 -1.391685e+00 -6.526198e-02 1.102445e+00 5.406127e-01 1.063355e+00 -1.487327e-03 
1.852865e+00 4.887003e+00 5.487322e+00 6.729029e+00 9.523582e+00 7.025954e+00 5.988142e+00 -9.174657e-02 1.453890e+00 6.377287e+00 7.817734e-01 -4.954424e-01 -1.013538e-01 -1.796907e-01 3.898508e-01 -6.030039e-01 -8.355011e-01 -4.607155e-01 -3.354993e-02 6.416182e-01 5.649034e-02 2.339068e+00 1.413968e+00 1.526712e+00 2.743487e+00 -1.794810e-02 
1.798529e+00 5.398759e+00 3.489815e+00 4.238150e+00 8.764190e+00 1.688930e+00 7.096077e+00 2.083817e+00 2.532563e+00 5.383504e+00 1.543816e+00 5.048571e+00 -1.165031e-01 2.166265e-01 8.348802e-01 -8.495161e-01 -1.423604e+00 -4.339148e-01 -6.516348e-01 1.933882e+00 3.827765e-01 1.620640e+00 9.255503e-01 5.839883e-01 1.172074e+00 -1.048015e-02 
1.512661e+00 4.218160e+00 1.581988e-01 4.983547e+00 7.503278e+00 2.503261e+00 6.398569e+00 1.834977e+00 1.075666e+01 7.843343e+00 2.581977e+00 2.550518e+00 -1.473925e-01 4.761090e-02 2.056956e-01 -7.078428e-01 -4.763452e-01 -1.858354e-01 -2.438043e-01 6.641698e-01 6.398094e-01 1.625611e+00 6.248342e-01 -8.004194e-01 -2.561863e-01 -8.521592e-03 
2.823897e+00 7.015699e+00 2.997002e+00 2.708434e+00 6.986805e+00 1.884125e+00 1.113822e+01 2.512871e+00 7.989963e+00 9.057256e+00 -1.453578e+00 -1.022763e+00 -1.116621e-01 3.677863e-01 4.513676e-01 -9.566464e-02 5.162399e-01 7.635043e-01 1.393438e+00 -1.236168e+00 -3.505922e-01 -7.943403e-01 -4.816831e-01 -7.151365e-01 -6.386579e-01 6.727374e-03 
1.578235e+00 5.107011e+00 2.194514e+00 5.112161e+00 9.483098e+00 5.709335e+00 7.287919e+00 2.892774e+00 6.853247e+00 7.664582e+00 -1.721627e+00 1.259293e+00 -1.463822e-01 4.783688e-01 8.203037e-01 2.362072e-01 6.098329e-01 1.340715e+00 9.200199e-01 -2.104365e+00 -1.818052e+00 -2.599361e+00 -1.107663e+00 -5.762294e-01 2.491475e-01 1.163595e-02 
3.604674e+00 7.211171e+00 1.993334e+00 6.755043e+00 1.159180e+01 7.053081e+00 4.705610e-01 -1.980425e-01 5.125694e-01 3.064469e+00 1.199350e-01 2.500894e+00 -8.337140e-02 1.662390e-01 9.617505e-02 -1.015426e+00 1.126525e+00 1.043663e+00 1.015087e+00 -1.824980e+00 -2.138659e+00 -1.367414e+00 -2.396536e+00 -5.739049e-01 7.689947e-01 -1.670933e-03 
3.514117e+00 8.221943e+00 1.841069e+00 6.009407e+00 1.190435e+01 4.518883e+00 1.210577e+00 -5.899826e+00 1.498558e+00 5.301420e+00 -1.085926e+00 2.034427e+00 -1.033581e-01 2.370993e-01 5.197694e-01 -9.240928e-01 -2.115941e-01 -7.767292e-01 -2.014632e-01 -3.481097e-02 -4.538689e-01 -7.880478e-02 -2.921946e+00 -9.471045e-01 1.036929e-01 -6.440234e-03 
2.687151e+00 5.939109e+00 -1.903405e+00 7.892436e+00 1.099449e+01 7.554787e+00 5.051996e+00 -3.784126e+00 3.830239e+00 -1.743845e+00 -4.640953e+00 2.434644e+00 -1.415288e-01 2.851303e-01 7.618645e-01 -6.714518e-02 -2.343401e-01 -1.081073e+00 -3.932856e-01 1.552507e+00 1.340366e+00 1.928124e+00 -1.390599e+00 -6.630846e-01 1.299616e-01 1.531255e-03 
3.222493e+00 8.341889e+00 -4.775798e-01 3.485494e+00 5.898108e+00 4.451167e+00 4.823147e+00 2.416471e+00 4.800388e+00 -4.540992e+00 -4.076706e+00 1.810883e+00 -1.495047e-01 3.561660e-01 5.880438e-01 5.917182e-02 -1.805074e-01 -1.350935e-01 8.325548e-02 8.351865e-01 8.777752e-01 7.781574e-01 -5.769200e-01 3.786158e-01 -4.266149e-01 8.941245e-03 
5.176137e+00 1.096052e+01 2.816933e+00 6.845299e+00 9.189560e+00 5.120511e+00 6.426811e+00 2.345638e+00 8.502273e+00 1.032682e+00 -1.700098e+00 3.262474e+00 -5.264187e-02 3.409113e-01 6.297766e-01 3.478071e-01 -1.301751e+00 -8.517790e-01 -7.057667e-01 -1.948646e+00 -1.810907e+00 -9.565722e-01 2.169010e-01 1.048493e+00 3.190737e-01 1.049486e-02 
4.050454e+00 8.651456e+00 -2.232411e-01 5.630439e+00 1.213135e+01 6.152298e+00 4.699101e+00 -4.575832e+00 3.053328e+00 1.028556e+00 -6.632742e-01 -5.125628e-01 -1.030954e-01 -3.066989e-01 -4.854285e-01 6.974568e-01 -1.340846e+00 -1.393738e+00 -1.092640e-01 -2.143946e+00 -3.152736e+00 -1.642687e+00 7.939482e-02 2.177907e-01 -5.645635e-01 6.569386e-03 
3.977727e+00 8.933208e+00 -2.915390e-01 3.112092e-01 3.618974e+00 3.175387e+00 -4.629210e+00 -9.342511e+00 -7.909107e-02 -3.444113e+00 -1.105205e+00 5.191735e+00 -1.122591e-01 -5.289115e-01 -3.633604e-01 1.470874e-01 -7.615667e-01 -7.640535e-01 6.717799e-01 -9.127194e-01 -1.137423e+00 -6.735838e-01 -6.908766e-01 -1.075674e+00 1.604592e-01 -1.098227e-03 
2.288203e+00 6.928403e+00 4.563940e+00 4.830897e-02 1.714711e+00 4.877409e+00 -3.685727e-01 -7.503135e+00 8.776369e-01 -1.905620e+00 -3.285198e+00 -1.976565e+00 -8.684909e-02 -1.626902e-01 1.008844e-01 1.474274e+00 1.177235e-01 -3.017458e-01 7.060803e-01 9.325418e-01 1.834037e+00 2.050887e+00 7.009804e-01 -5.525662e-01 1.770720e+00 8.246029e-03 
3.412705e+00 1.000525e+01 1.158779e+00 5.828530e+00 1.057761e+01 9.116856e+00 4.397051e+00 -1.877824e+00 6.222199e+00 -9.546130e-01 -5.767507e+00 4.796771e+00 -6.625617e-02 4.259103e-01 5.601592e-01 5.425753e-01 3.116369e-03 -1.903788e-01 -7.520781e-01 9.807501e-01 2.756179e+00 2.226392e+00 1.287930e+00 3.894802e-01 1.264999e+00 1.116263e-02 
3.519514e+00 8.619860e+00 6.422970e+00 3.460396e+00 7.143303e+00 6.711966e+00 4.848680e+00 8.620106e-01 1.015712e+01 3.288707e+00 -1.094954e+00 8.538521e+00 -8.486676e-02 9.629545e-01 1.093129e+00 -7.163786e-01 -5.808125e-01 -5.749291e-01 -9.609441e-01 1.252396e+00 2.281080e+00 2.855941e+00 1.281337e+00 1.572052e+00 2.172477e+00 6.093514e-03 
5.491624e+00 1.088828e+01 1.491823e+00 -1.379252e+00 -4.721546e-02 -1.502282e+00 -2.334086e+00 2.558083e-01 6.413129e+00 3.983707e-01 -2.529262e-01 6.259186e+00 -5.743718e-02 7.108608e-01 2.583677e-01 -7.506223e-01 -5.490286e-01 -5.164856e-01 -1.001582e+00 7.559222e-01 -1.923290e-01 4.748481e-01 3.058428e-01 1.346321e+00 7.853144e-01 2.334929e-03 
6.063517e+00 1.195253e+01 8.155251e-01 7.481381e-01 4.152479e+00 5.382257e+00 9.258978e+00 2.835446e+00 1.506188e+01 3.824573e+00 1.817773e+00 8.154612e+00 -6.079102e-02 4.554372e-01 7.642450e-02 -1.370959e+00 7.777009e-01 1.423240e+00 2.399750e-01 1.055127e+00 -1.345839e+00 -8.295184e-01 -6.055781e-01 9.660353e-02 3.409668e-01 2.731252e-03 
5.695008e+00 9.630747e+00 2.093902e-01 4.439516e+00 9.490596e+00 4.773800e+00 5.971513e+00 -3.826187e+00 6.144062e+00 3.066685e-01 -4.922664e-01 8.915298e+00 -6.661940e-02 3.825974e-03 -4.836845e-01 -3.171000e-01 1.532892e+00 2.441374e+00 1.194371e+00 1.332374e+00 -1.482562e+00 -9.455950e-01 -3.701308e-01 -2.788720e-01 6.072913e-01 -2.419281e-03 
