-9.689628e+00 8.209590e+00 3.549724e+00 9.368336e-01 8.810552e+00 2.530804e+00 1.001325e+01 9.424095e+00 3.456653e+00 6.338740e+00 5.082379e+00 9.949409e+00 -1.512927e-01 6.429003e-01 8.999106e-01 1.285064e+00 9.143870e-01 -9.098837e-01 5.106269e-01 1.529732e-01 -9.671787e-01 1.160906e+00 3.989884e-01 -2.788014e-01 -1.127029e+00 0.000000e+00 
-7.048519e+00 1.142619e+01 4.734755e+00 5.471366e+00 9.836012e+00 6.341618e+00 1.044663e+01 8.796163e+00 6.336465e+00 7.046814e+00 5.026187e+00 7.072180e+00 -1.512927e-01 7.878631e-01 6.283859e-01 9.291813e-01 1.448392e+00 -6.767288e-01 1.813961e-01 -4.327970e-01 -1.354158e+00 6.740416e-01 -3.487429e-01 -1.299802e+00 -1.023040e+00 0.000000e+00 
-7.795680e+00 1.110084e+01 9.382529e+00 3.241503e+00 3.748403e+00 3.178532e+00 1.056143e+01 4.902168e+00 7.821277e+00 7.979646e+00 3.716468e+00 5.752876e+00 -1.512927e-01 2.476897e-01 1.614079e-01 3.407020e-01 2.069693e-01 -1.077827e+00 -8.516756e-01 -5.577653e-02 -1.646692e+00 -6.989769e-01 -6.451089e-01 -9.820238e-01 -9.680551e-03 0.000000e+00 
-6.697286e+00 9.905894e+00 5.279227e+00 7.026460e+00 7.957982e+00 3.113921e+00 7.575179e+00 4.914270e+00 4.644549e+00 3.774573e+00 -7.336740e-01 6.932473e+00 -1.512927e-01 -5.997267e-01 -6.005356e-01 -1.613164e-02 -9.444512e-01 -1.239998e+00 -1.995053e+00 -5.683509e-01 -1.893911e+00 -2.208262e+00 -2.372642e-01 -5.444788e-01 -6.870562e-01 0.000000e+00 
-8.626796e+00 9.776779e+00 4.980997e+00 1.194134e+00 4.360432e+00 -1.137252e-01 1.117010e+01 3.131580e+00 8.077264e-01 4.749317e+00 3.052191e+00 9.970860e+00 -1.512927e-01 -1.091175e+00 -2.634158e-01 -1.091810e+00 -1.128893e+00 -1.019738e+00 -1.523895e+00 1.225369e-01 -1.919886e+00 -2.192211e+00 -7.495061e-01 1.295878e+00 -9.742423e-01 0.000000e+00 
-9.631595e+00 9.085546e+00 6.854862e+00 1.772795e+00 3.330010e+00 -1.987520e+00 7.300545e+00 2.118995e-01 -1.198069e+00 7.475658e+00 2.635932e+00 1.527907e+00 -1.512927e-01 -1.104669e+00 5.938741e-01 -8.445698e-01 -7.393387e-01 -1.500041e+00 -1.782193e+00 3.474435e-01 -2.599103e+00 1.748443e-02 -5.251221e-01 1.940313e+00 -1.440078e+00 7.636070e-04 
-1.178440e+01 1.019393e+01 3.135664e+00 2.238672e-01 9.636967e-01 -1.890223e+00 1.131143e+01 -2.346076e+00 -2.184694e-01 2.381573e+00 8.511053e+00 3.583948e+00 -1.512927e-01 -7.621994e-02 7.555370e-01 -1.060947e+00 1.244612e+00 -1.801122e+00 -2.613579e+00 -8.383173e-01 -1.696242e+00 1.662032e+00 -2.601941e+00 3.050616e-01 -2.463080e+00 8.926725e-03 
-1.064183e+01 1.266669e+01 1.979045e+00 3.814899e+00 2.156146e+00 -4.908795e+00 9.241732e+00 -5.342418e+00 5.245070e+00 2.332835e+00 6.238459e+00 2.925539e+00 -1.474746e-01 9.699138e-01 6.943784e-01 -1.409367e+00 6.743694e-01 -1.489233e+00 -2.632557e+00 -1.649494e+00 -1.355239e+00 1.163247e+00 -2.116351e+00 -3.481688e-02 -7.274799e-02 4.272461e-03 
-8.502780e+00 1.176389e+01 2.114169e+00 6.396140e+00 -4.058248e+00 -1.172098e+01 6.007917e+00 -2.572473e+00 5.896318e+00 -5.688977e+00 2.776235e+00 -3.043356e+00 -1.085681e-01 1.966083e+00 -2.448768e-01 -1.299755e+00 -3.159550e-01 -1.847406e+00 -1.679701e+00 -2.081529e+00 -1.526144e+00 -1.135267e+00 2.249589e-02 -6.745409e-01 -2.234095e-01 -3.818035e-04 
-6.422836e+00 1.177246e+01 3.187742e-01 2.058506e+00 -1.605181e+00 -1.023493e+01 1.704830e+00 -6.451099e+00 1.560770e+00 9.291797e-01 5.329257e+00 4.477819e+00 -1.512927e-01 1.287485e+00 -5.619596e-01 -3.419129e-01 -1.508269e+00 -1.184027e+00 2.290014e-01 -1.964578e+00 4.604870e-01 -1.789176e+00 9.595817e-01 -7.463142e-01 4.385219e-01 -5.036068e-03 
-4.063481e+00 9.416664e+00 -2.532973e+00 -4.777113e-01 -6.392671e+00 -7.625660e+00 4.672234e+00 -9.422457e+00 -4.052656e+00 3.195880e+00 5.592950e+00 1.690760e+00 -1.512927e-01 4.142431e-01 -3.316612e-01 9.853853e-01 -1.064855e+00 2.501084e+00 2.162692e+00 -1.265828e+00 1.522553e+00 -5.265576e-01 2.756102e+00 -4.500697e-01 2.391874e+00 -8.544922e-03 
-6.424051e+00 1.103050e+01 2.593051e+00 -2.895180e-01 -2.596776e+00 -5.811449e+00 8.668327e-02 3.850095e-01 1.273676e+00 2.688315e+00 1.098530e+00 2.751091e+00 -1.512927e-01 -4.223972e-01 -3.232569e-01 1.528509e+00 2.388477e-01 3.100726e+00 1.513271e+00 -4.557672e-01 2.519876e+00 4.978688e-01 1.129562e+00 -7.051772e-01 1.377857e+00 0.000000e+00 
-6.430957e+00 1.047657e+01 5.903957e+00 2.245877e+00 8.942968e+00 -3.119262e+00 4.878521e-01 1.622237e+00 3.407078e+00 7.211964e+00 2.641249e+00 9.779380e+00 -1.512927e-01 -5.898799e-01 8.714118e-02 1.595653e+00 8.012317e-01 3.039503e+00 1.849928e-01 -5.658926e-01 1.338502e+00 1.173302e+00 5.943482e-02 -9.891146e-01 1.813026e+00 0.000000e+00 
-7.351085e+00 9.626224e+00 3.742855e+00 1.890950e+00 6.230629e+00 -4.921769e+00 1.518185e+00 6.259369e-01 3.202474e-01 4.568947e+00 3.279221e+00 7.322795e+00 -1.512927e-01 1.861980e-01 -1.141901e+00 -7.197410e-01 -7.510706e-01 -3.757493e-01 -1.468352e+00 -1.151677e-01 -1.299726e+00 -6.035427e-01 -6.606789e-01 6.857393e-02 1.369342e+00 0.000000e+00 
-6.549364e+00 1.055451e+01 4.870390e+00 2.438213e+00 4.391142e+00 -7.145536e+00 1.127020e+00 -2.850413e+00 2.290568e+00 2.552738e+00 -4.429679e-01 8.470037e+00 -1.512927e-01 3.399878e-01 -1.924331e+00 -1.613620e+00 -1.155636e+00 -2.808604e+00 -1.706770e+00 -3.141177e-01 -1.907152e+00 -1.663699e+00 -2.016890e+00 -7.004567e-01 1.820496e-01 0.000000e+00 
-5.433858e+00 5.282028e+00 -4.888697e-01 -4.141039e+00 -2.199610e+00 -1.114007e+01 -8.087392e-01 -3.877297e+00 -1.185783e+00 1.714534e+00 2.983509e+00 1.025247e+01 -1.512927e-01 -1.774587e-01 -1.284381e+00 -3.611990e-01 -6.138412e-01 -1.239006e+00 -5.568884e-01 -4.051371e-01 2.706424e-01 -7.030133e-01 -5.639062e-01 6.814471e-01 1.415634e+00 0.000000e+00 
-5.689631e+00 3.027006e+00 -4.828215e-02 -5.163078e-01 -8.849325e-01 -8.543960e+00 8.072567e-02 -5.661906e+00 -4.158404e+00 -1.445278e+00 -7.131782e-01 9.224789e+00 -1.512927e-01 -5.675825e-01 -6.411420e-01 3.562390e-01 4.271495e-01 -4.026880e-02 6.578885e-01 6.494263e-01 1.801936e+00 4.592418e-02 1.748151e+00 1.800138e+00 8.125831e-01 0.000000e+00 
-8.668244e+00 6.968070e+00 4.396196e+00 2.990046e-01 2.673635e+00 -7.006999e+00 1.564646e-02 3.384896e+00 2.966666e-02 3.748424e+00 6.821561e+00 1.402359e+01 -1.512927e-01 -3.520475e-01 -2.191667e-01 1.122919e+00 1.321266e+00 1.490317e+00 1.191250e+00 1.845329e+00 1.797877e+00 1.159594e+00 1.909606e+00 1.188784e+00 5.037175e-01 0.000000e+00 
-7.770083e+00 6.505779e+00 4.209053e+00 2.353939e+00 1.753175e+00 -5.922631e+00 3.961959e+00 2.528172e+00 1.912464e+00 1.027655e+01 6.638694e+00 1.064739e+01 -1.512927e-01 -6.326831e-01 6.269906e-01 1.170148e+00 1.591328e-01 1.569302e+00 2.521973e-01 1.440009e+00 6.764622e-01 1.224759e+00 1.279225e+00 6.833012e-01 5.019308e-01 9.333801e-03 
-6.153870e+00 2.446808e+00 2.997058e+00 1.030165e+00 3.932920e+00 -6.494491e+00 6.477289e+00 1.017048e+00 1.576753e+00 5.401649e+00 5.251493e+00 1.205976e+01 -1.512927e-01 -2.626457e+00 3.895722e-01 2.917014e-01 -3.897243e-02 1.447539e+00 -6.532123e-02 1.365870e+00 -1.630429e+00 7.130774e-01 -9.924240e-02 -2.288042e-01 -3.665935e-01 8.506334e-02 
-1.011023e+01 8.422590e+00 6.502025e+00 -8.622396e-02 6.331937e+00 -7.539227e+00 4.049947e+00 -1.095671e+00 1.191846e+00 4.124236e+00 3.488362e+00 1.271636e+01 -1.046237e-01 -2.230102e+00 4.358452e-01 -1.270758e+00 4.912950e-01 -5.553328e-01 -8.804781e-01 3.287674e-01 -8.624476e-01 1.882633e-01 -8.327869e-01 -2.626837e-01 -6.315780e-01 1.143161e-01 
-2.063046e+01 7.957525e+00 4.708217e+00 1.324224e+00 7.621947e+00 -6.525307e+00 6.801003e+00 -2.955328e+00 3.955362e+00 6.328368e+00 7.252707e+00 1.115614e+01 2.506895e-01 -2.625706e-01 -2.699228e-01 -2.582663e+00 1.886177e+00 -3.652193e+00 9.700201e-01 -1.407129e+00 5.864148e-01 -1.143136e-01 -2.150301e-01 1.939602e-01 -2.088550e+00 1.563667e-01 
-1.168230e+01 5.929646e+00 -3.000317e+00 4.663384e+00 -2.868002e+00 -1.030961e+01 5.443939e+00 2.021217e-01 1.664475e+00 5.649254e+00 4.324668e+00 7.941314e+00 2.192966e-01 3.837348e+00 -2.292503e+00 -2.642482e+00 7.117995e-01 -3.798411e+00 1.072238e+00 -8.390662e-01 1.192684e+00 1.588182e-01 -1.738556e-01 -9.264431e-01 -2.358328e+00 1.524993e-01 
-6.680690e+00 2.343666e+00 -5.165085e+00 8.086246e+00 -9.728071e+00 -2.591972e-01 -1.255351e+00 3.300226e+00 7.688701e-01 3.563989e+00 5.803141e+00 4.004531e+00 4.685808e-01 7.766825e+00 -3.345380e+00 -2.574344e+00 -2.960271e+00 -3.443421e+00 2.260552e+00 -3.140493e+00 1.001451e-01 -4.388200e-01 -3.945242e-01 -1.081986e+00 -4.894142e+00 1.553779e-01 
2.101619e+00 -2.329955e-01 -1.773736e+00 9.176266e-02 -3.985107e+00 -5.311092e+00 3.882792e+00 1.739971e+00 3.579183e+00 4.637148e+00 -4.190707e-01 4.500522e+00 5.489270e-01 6.425231e+00 -3.986575e+00 -2.390946e+00 -4.953096e+00 -1.542807e+00 3.062226e+00 -3.071279e+00 -1.586674e+00 -3.969824e-01 -4.769939e-01 -7.882797e-01 -6.323270e+00 1.870058e-01 
1.131171e+01 -5.688051e+00 -8.776793e+00 -1.119132e+01 -9.036604e+00 2.278194e+00 -8.120890e+00 -3.223528e+00 8.039088e-01 4.861801e+00 4.214644e+00 -1.159417e+01 8.627638e-01 4.482220e+00 -3.563504e+00 -2.098232e+00 -4.704809e+00 -1.593796e-01 2.413581e+00 -1.894595e+00 -1.956838e+00 -1.691581e-01 -1.803557e-01 -1.160229e+00 -5.183934e+00 1.436549e-01 
1.144765e+01 -9.987368e+00 -1.314919e+01 -1.046331e+01 -1.092777e+01 3.732822e+00 -6.479685e+00 -4.469374e+00 -3.379560e-01 2.615378e+00 1.177518e+00 -1.587568e+01 9.572342e-01 1.709953e+00 -3.198977e+00 -1.448725e+00 -1.981974e+00 4.101849e-02 3.659586e+00 -2.109656e+00 -1.248101e+00 -1.973292e-01 -1.604499e+00 1.892097e-01 -3.661687e+00 1.020159e-01 
1.105739e+01 -1.059667e+01 -9.968515e+00 -1.016026e+01 -7.053637e+00 7.286754e+00 -5.547085e+00 -3.379292e+00 1.881649e+00 3.673096e+00 -7.962999e-01 -1.172704e+01 9.827019e-01 -3.981127e-01 -2.069346e+00 6.214470e-01 -1.012268e-02 1.892911e+00 2.013058e+00 4.592272e-01 -1.205523e+00 7.871615e-01 -2.737330e+00 2.606127e-01 -1.270241e-01 3.162757e-02 
1.077854e+01 -1.377357e+01 -8.421501e+00 -1.033364e+01 -4.771498e+00 1.048256e+01 -7.952391e+00 -4.422654e+00 2.053667e+00 -2.790996e+00 3.032450e+00 -1.374148e+01 9.990374e-01 -6.235477e-01 -1.179749e+00 1.084215e+00 -2.135842e-01 1.969127e+00 1.311814e+00 2.168210e-01 -2.038736e+00 8.028103e-01 -3.216277e+00 1.113798e+00 4.752001e-01 9.357452e-03 
9.655702e+00 -1.414168e+01 -8.033403e+00 -1.130677e+01 -2.650186e+00 8.968616e+00 -5.088401e+00 -9.274501e+00 3.543905e+00 -6.121664e+00 4.590242e+00 -1.329639e+01 1.000000e+00 -6.260120e-01 -6.318339e-01 3.148981e-01 1.866181e-01 1.122762e+00 5.948130e-01 4.437340e-01 -2.444579e+00 5.650340e-01 -2.867324e+00 1.340994e+00 6.925468e-02 2.156842e-03 
9.030758e+00 -1.411361e+01 -8.695675e+00 -1.095798e+01 -3.283863e+00 9.450960e+00 -5.624922e+00 -1.171545e+01 2.844968e+00 -8.568629e+00 4.053240e+00 -1.271500e+01 9.953724e-01 -5.822188e-01 7.314281e-02 -1.088351e-01 6.655354e-01 6.896772e-01 1.049885e-01 3.806213e-01 -1.640227e+00 9.534074e-02 -7.917770e-01 1.857163e-01 8.656397e-01 -9.382665e-04 
8.801227e+00 -1.358582e+01 -8.256939e+00 -8.914999e+00 -2.183646e+00 1.077662e+01 -4.492150e+00 -1.195579e+01 4.311169e+00 -7.774707e+00 5.398273e+00 -1.189400e+01 9.953186e-01 -3.534473e-01 1.468763e-01 -4.142732e-01 1.279019e+00 2.620180e-01 2.920117e-01 -3.605021e-01 -5.878454e-01 -3.645428e-01 3.094325e-01 -1.211048e-01 1.120617e+00 -5.090535e-04 
8.294684e+00 -1.368579e+01 -8.853909e+00 -8.201846e+00 -1.556382e+00 1.010350e+01 -6.347411e+00 -1.128314e+01 2.146739e+00 -5.923359e+00 3.557015e+00 -1.011448e+01 9.966868e-01 -2.311467e-01 -4.741230e-02 -5.227698e-01 1.505907e+00 1.057828e-01 -6.958113e-02 -1.288612e-01 -3.677685e-01 -3.359992e-01 8.222569e-01 -3.793996e-01 1.215201e+00 7.075667e-05 
8.256502e+00 -1.362121e+01 -1.002565e+01 -6.289741e+00 -2.203836e+00 1.010240e+01 -6.529667e+00 -1.242988e+01 2.070306e+00 -5.897137e+00 4.232830e+00 -8.993569e+00 9.967976e-01 -1.592125e-01 -2.075794e-01 -6.656836e-01 1.563455e+00 -3.493044e-01 -1.413197e-01 -1.902845e-01 -1.189455e-01 -5.467707e-01 6.973709e-01 -7.952583e-01 9.837581e-01 -5.280852e-04 
8.147387e+00 -1.433298e+01 -1.042517e+01 -4.741071e+00 -2.744854e+00 9.440162e+00 -5.250470e+00 -1.331725e+01 2.285403e+00 -5.396130e+00 2.738964e+00 -8.089214e+00 9.949867e-01 -3.069203e-01 -1.902811e-01 -2.988267e-01 1.496806e+00 -6.067666e-01 2.806387e-01 -5.761795e-02 2.772835e-01 -3.576571e-01 3.250485e-01 -5.594411e-01 4.950477e-01 -1.443237e-03 
8.078814e+00 -1.430012e+01 -1.079973e+01 -2.828112e+00 -3.335932e+00 1.040169e+01 -5.992043e+00 -1.153347e+01 1.507983e+00 -4.551467e+00 1.831008e+00 -7.987844e+00 9.935282e-01 -6.044383e-01 -1.784630e-01 3.449397e-01 6.766770e-01 -2.818538e-01 3.081719e-01 -2.975923e-01 8.303620e-01 -6.547266e-01 9.065972e-02 -7.750384e-01 8.147135e-02 -2.745557e-03 
6.848927e+00 -1.429774e+01 -9.961004e+00 -2.448631e+00 -4.024168e+00 1.135705e+01 -6.904313e+00 -1.034493e+01 6.396146e-01 -4.970951e+00 1.960721e+00 -8.142104e+00 9.911053e-01 -4.847835e-01 6.041813e-02 7.771240e-01 2.962239e-01 3.282243e-01 5.019142e-01 -1.641379e-01 1.244191e+00 -3.862201e-01 -1.789675e-02 -1.509616e-01 -2.637968e-02 -3.613681e-03 
5.883540e+00 -1.453114e+01 -8.533035e+00 -4.052576e+00 -2.973449e+00 1.068482e+01 -7.190708e+00 -9.764226e+00 -3.804326e-01 -5.656427e+00 7.467594e-01 -8.559768e+00 9.850105e-01 -2.640668e-01 2.380554e-01 8.007562e-01 1.343137e-01 6.204778e-01 1.614487e-01 2.346994e-01 1.080470e+00 2.254993e-02 -6.163015e-02 1.916967e-01 1.854076e-02 -4.900241e-03 
6.821106e+00 -1.391537e+01 -7.672893e+00 -2.647720e+00 -1.284974e+00 1.180817e+01 -5.471827e+00 -7.980910e+00 1.298510e+00 -4.933133e+00 2.526280e+00 -7.935151e+00 9.811772e-01 -3.740145e-02 2.372995e-01 4.863938e-01 2.458946e-01 4.142732e-01 -1.313384e-01 9.646311e-02 9.795135e-01 -1.193778e-01 2.412809e-01 -2.585423e-01 1.209384e-01 -6.034506e-03 
6.772390e+00 -1.330102e+01 -7.940003e+00 -2.056999e+00 -1.603140e+00 1.098338e+01 -5.534789e+00 -7.313126e+00 1.291285e+00 -4.878527e+00 2.506711e+00 -7.998617e+00 9.739910e-01 1.292854e-01 1.838326e-01 3.206684e-01 4.891503e-01 2.359395e-01 -2.978358e-01 1.760879e-01 1.106340e+00 -3.434515e-01 7.289104e-01 -6.851605e-01 4.830090e-01 -7.606310e-03 
6.217495e+00 -1.372630e+01 -7.825552e+00 -2.216946e+00 -2.637956e+00 1.055108e+01 -7.249957e+00 -6.672916e+00 -7.931330e-01 -4.153497e+00 -2.119670e-01 -7.817987e+00 9.664425e-01 1.361983e-01 -4.550171e-01 4.957346e-01 -2.480159e-01 -9.301295e-02 -1.003682e+00 -3.555917e-01 7.738429e-01 -9.831879e-01 3.037533e-01 -1.425253e+00 3.429546e-02 -1.050227e-02 
6.831773e+00 -1.370652e+01 -6.853364e+00 -1.822211e+00 -1.117260e+00 9.824183e+00 -5.421203e+00 -4.886520e+00 -1.051869e+00 -2.401693e+00 -1.309919e+00 -6.203304e+00 9.543463e-01 4.597602e-01 -5.044735e-01 3.255654e-01 2.985044e-01 -4.153793e-01 -8.342599e-01 -6.979179e-02 7.937958e-01 -6.539621e-01 -3.968254e-01 -1.128242e+00 -2.598365e-01 -1.404486e-02 
7.472406e+00 -1.598771e+01 -5.737540e+00 -4.005194e+00 -1.992979e+00 7.369354e+00 -7.306578e+00 -5.324998e+00 -2.445853e+00 -4.652783e+00 -2.691669e+00 -8.661330e+00 9.384882e-01 9.066828e-01 -7.223024e-01 1.514730e-02 7.978269e-01 -1.562444e+00 -3.644928e-01 -5.434388e-01 1.063560e+00 -5.209332e-01 -1.693500e+00 -6.009395e-01 -6.714837e-01 -1.758594e-02 
8.443735e+00 -1.469268e+01 -7.356182e+00 3.296459e-01 -4.002525e+00 8.402940e+00 -5.855437e+00 -4.018106e+00 -1.152166e+00 -6.613010e+00 -1.894649e+00 -8.876128e+00 9.177439e-01 8.831125e-01 -4.076048e-01 -4.356897e-01 1.312721e+00 -2.361233e+00 -6.696380e-01 -1.399232e-01 6.365632e-01 -3.862044e-01 -2.400345e+00 -8.293756e-01 -1.351244e-01 -2.079695e-02 
9.944927e+00 -1.684473e+01 -7.498406e+00 6.962595e-01 -9.007545e+00 9.439240e+00 -9.750034e+00 -1.789322e+00 -3.347650e+00 -1.051534e+01 -2.924300e+00 -9.838994e+00 8.968140e-01 6.828430e-01 8.456976e-01 -6.592805e-01 2.028106e+00 -1.898951e+00 -1.284525e+00 1.852566e+00 1.048905e+00 -5.921291e-01 -5.697337e-01 -1.021932e+00 1.231651e+00 -2.735223e-02 
1.001107e+01 -1.531603e+01 -8.151379e+00 2.390669e+00 -9.416142e+00 5.441051e+00 -4.899091e+00 -3.471543e+00 -2.531992e+00 -1.147214e+01 -5.340482e+00 -6.290094e+00 8.711987e-01 2.170387e-01 1.265544e+00 -1.706493e-01 1.116181e+00 -1.671613e+00 -1.926441e+00 1.915510e+00 1.406952e+00 -1.295273e+00 6.435478e-01 -1.260602e+00 1.159458e+00 -3.156006e-02 
1.010295e+01 -1.144755e+01 -8.636343e+00 5.104826e+00 -8.780928e+00 2.427675e+00 1.478079e+00 -3.537519e-01 -4.716585e+00 -5.071887e+00 -6.078412e+00 -3.796093e+00 8.249996e-01 -3.487977e-01 1.321470e+00 7.125185e-01 -6.266745e-01 -1.124537e+00 -2.632545e+00 1.456391e+00 1.940914e+00 -2.333629e+00 1.334026e+00 -1.605913e+00 6.420745e-01 -3.111603e-02 
9.449917e+00 -1.106355e+01 -7.640460e+00 3.706267e+00 -1.247390e+01 2.276518e+00 -1.891945e+00 2.298868e+00 -6.944063e+00 -6.116996e+00 -6.620603e+00 -6.100287e+00 7.958508e-01 -3.554990e-01 4.875792e-01 1.955218e+00 -2.456615e+00 -1.569292e+00 -1.950854e+00 -5.413405e-01 2.884308e+00 -3.110488e+00 7.174460e-01 -1.083148e+00 -6.747689e-01 -2.686848e-02 
8.481518e+00 -1.236362e+01 -4.191273e+00 -3.094912e+00 -1.310135e+01 -2.141221e+00 -3.971652e+00 5.030043e+00 -1.280976e+01 -6.522779e+00 -1.031380e+01 -6.723525e+00 7.789078e-01 -3.508907e-01 1.166941e-01 2.262098e+00 -2.828846e+00 -1.794091e+00 -1.507600e+00 -1.414272e+00 2.896745e+00 -2.899478e+00 -9.940328e-02 -9.922377e-01 -7.731903e-01 -2.086443e-02 
9.044296e+00 -1.242010e+01 -5.978231e-01 -5.792540e+00 -1.510239e+01 -2.028773e+00 -4.880929e+00 8.258102e+00 -1.403785e+01 -7.159464e+00 -8.638527e+00 -8.200223e+00 7.599022e-01 -3.355725e-01 7.284883e-01 1.663570e+00 -2.207361e+00 -9.473326e-01 -2.262987e+00 -5.289847e-01 2.055697e+00 -2.061009e+00 -3.434678e-01 -5.582717e-01 -7.750651e-01 -2.273033e-02 
8.551309e+00 -1.018580e+01 -8.471713e-01 -4.290001e+00 -1.643714e+01 -2.957678e+00 -4.098789e+00 1.115036e+01 -1.566709e+01 -5.047669e+00 -1.003064e+01 -6.612077e+00 7.386518e-01 1.512287e-02 1.618167e+00 9.237509e-01 -3.657884e-01 8.703823e-02 -1.358953e+00 -8.467755e-01 1.778134e+00 -5.127411e-02 -5.311613e-01 7.084370e-03 -4.286097e-01 -3.780455e-02 
7.737159e+00 -8.510019e+00 -9.946618e-01 -6.732994e+00 -1.554267e+01 -8.630188e+00 -4.473300e+00 9.517195e+00 -1.582045e+01 -8.571890e+00 -9.553545e+00 -1.003134e+01 7.023271e-01 -9.635438e-02 2.136236e+00 3.111612e-01 3.607365e-01 6.578409e-01 -1.722007e+00 -1.511258e+00 7.457781e-02 6.039678e-01 -1.598508e+00 -5.095714e-01 -9.808006e-01 -6.363475e-02 
9.210701e+00 -6.227822e+00 6.259003e-01 -4.453627e+00 -1.244602e+01 -5.635277e+00 -8.409344e+00 1.329117e+01 -1.217483e+01 -8.472373e+00 -9.820873e+00 -7.951016e+00 6.186725e-01 -6.046413e-02 2.462801e+00 1.200784e+00 2.017815e+00 1.035816e+00 -1.240421e+00 -1.809711e+00 -1.423870e+00 1.069119e+00 -9.950021e-01 -2.101208e-01 -1.233566e+00 -8.743441e-02 
8.232828e+00 -3.717917e+00 2.214470e-01 -3.907044e+00 -1.380874e+01 -9.300009e+00 -1.028194e+01 7.560588e+00 -1.276414e+01 -1.343965e+01 -1.129127e+01 -1.243476e+01 5.017180e-01 -2.324855e-01 2.607735e+00 1.810163e+00 4.204861e+00 1.549641e+00 -5.712040e-01 -8.792683e-01 -3.163491e+00 1.232053e-01 -1.596989e-01 6.738137e-01 -4.045141e-01 -9.852967e-02 
8.001153e+00 -2.678466e-01 4.548694e+00 4.386099e+00 -1.212502e+01 -8.824874e+00 -1.024302e+01 5.009310e+00 -1.184965e+01 -7.588799e+00 -1.021238e+01 -1.157820e+01 4.017842e-01 -9.917692e-01 1.708379e+00 1.816253e+00 4.385860e+00 2.478094e+00 -1.109864e+00 1.661966e+00 -4.162508e+00 -3.698032e-01 3.752853e-01 7.892537e-01 3.639618e-01 -1.050472e-01 
7.179506e+00 1.548667e+00 6.094756e+00 9.871447e+00 -7.954966e+00 -9.891409e+00 -7.952802e+00 -2.159334e+00 -1.536701e+01 -9.812171e+00 -5.988722e+00 -1.024032e+01 3.181229e-01 -2.248031e+00 7.388129e-01 1.843871e+00 2.734092e+00 4.404014e+00 1.095615e-01 3.268970e+00 -2.655513e+00 3.612742e-01 1.023719e+00 6.331069e-01 1.769617e+00 -1.126695e-01 
4.778516e+00 -3.192201e-01 6.770511e+00 1.058643e+01 -2.982442e+00 -1.088890e+01 -1.264085e+00 -2.661412e+00 -1.272241e+01 -8.409686e+00 -8.525877e+00 -7.228427e+00 1.852340e-01 -3.473996e+00 -4.780492e-01 3.776534e-01 -1.008560e+00 4.340086e+00 8.675863e-01 2.887646e+00 -2.842220e-01 2.818725e+00 1.269459e+00 2.963387e-01 2.655370e+00 -1.028971e-01 
-1.396007e+00 1.834393e-03 8.329895e+00 6.663250e+00 3.640036e+00 -7.720189e+00 1.573442e+00 -1.881613e+00 -1.052138e+01 -7.910613e+00 -8.968985e+00 -5.761554e+00 4.664582e-02 -3.651669e+00 -1.065117e+00 -7.577229e-01 -3.436237e+00 2.399788e+00 1.589682e+00 2.061605e+00 1.866008e+00 4.336029e+00 3.039916e+00 5.933511e-01 3.997112e+00 -8.044256e-02 
-5.081069e+00 -1.884676e+00 5.319391e+00 9.473991e-01 3.777906e+00 -5.572553e+00 -5.679145e-01 3.449339e+00 -1.788337e-01 -2.192282e+00 -7.240556e+00 -5.407305e-01 2.303731e-02 -2.209875e+00 -5.049648e-01 -1.602400e+00 -3.923579e+00 6.342283e-01 1.850534e+00 6.766458e-01 1.760339e+00 3.429765e+00 3.310956e+00 3.127263e+00 4.087736e+00 -4.863325e-02 
-6.149047e+00 -2.994190e+00 3.031701e+00 -2.490226e+00 6.637983e-01 -4.601174e+00 2.007137e+00 4.115332e+00 4.134345e-02 2.278708e+00 -3.664628e+00 6.401394e+00 -2.991557e-03 -1.847347e-01 -1.431723e-01 -7.230704e-01 -1.749355e+00 -3.714344e-01 1.280058e+00 7.634840e-01 1.782789e+00 3.081166e+00 2.809897e+00 3.615189e+00 2.940263e+00 -1.731516e-02 
-3.894340e+00 -1.346032e+00 1.407607e+00 -4.454728e+00 1.676819e+00 -3.195734e+00 1.902296e+00 3.141812e+00 -8.549480e-01 3.050435e+00 4.458259e+00 7.128777e+00 -3.311360e-02 7.091940e-01 2.027614e-01 -6.200985e-01 -4.611263e-02 -9.610575e-01 -1.064157e+00 -5.505143e-01 -5.100489e-03 7.542170e-01 6.765432e-01 1.796391e+00 1.045537e+00 -8.326793e-03 
-2.913045e+00 -9.833493e-01 6.670435e+00 6.175401e-01 2.833408e+00 -2.508307e+00 4.155756e+00 7.186098e+00 5.222505e+00 3.517515e+00 3.257554e+00 5.105007e+00 -1.185453e-02 1.162878e+00 4.769393e-01 -1.116529e-01 1.230647e+00 -3.241984e-01 -1.382926e+00 -8.958565e-01 -9.351865e-02 -5.207198e-01 -8.846588e-01 -1.525751e+00 -1.035540e+00 -2.740157e-03 
-3.153100e+00 -1.876290e+00 3.995316e-01 -8.370470e-01 -2.112186e+00 -1.193977e+01 -4.394796e+00 1.888453e+00 1.001671e+00 5.710311e-01 -1.719691e+00 5.335147e+00 -1.416516e-02 8.051413e-01 -4.269647e-01 -4.805943e-01 8.667433e-01 -7.040104e-01 -3.169526e-01 3.373941e-01 5.882430e-01 5.324715e-01 -2.877250e-01 -3.900602e+00 -9.135213e-01 -2.590728e-03 
-7.052774e-01 -3.443646e-01 2.977474e+00 1.854168e+00 9.373093e-01 -7.143784e+00 6.764002e-01 4.274417e+00 -3.490565e+00 -9.048834e-01 -8.204407e+00 2.120512e+00 -2.616656e-02 4.381574e-01 -1.126904e+00 -1.914418e+00 -7.325877e-01 -6.136838e-01 9.324309e-01 7.119612e-01 6.474788e-01 1.074340e+00 6.422357e-02 -3.027540e+00 6.130362e-02 -9.754002e-03 
-9.725170e-01 -3.800348e+00 8.511162e-01 -7.393259e-01 -8.951836e-01 -2.462758e+00 5.328944e+00 7.538867e+00 6.163944e+00 3.823009e+00 -9.313768e+00 4.053419e+00 -3.891122e-02 5.273660e-01 -5.769321e-01 -6.581962e-01 -5.617034e-01 1.051851e+00 2.781776e+00 8.872645e-01 1.205967e+00 2.008287e+00 -5.287886e-02 -1.367504e+00 1.113957e+00 -1.741013e-02 
-1.812550e+00 -5.655841e+00 -3.127444e+00 -3.094259e+00 -8.435125e-01 -2.584659e+00 2.853691e+00 7.598286e+00 8.013068e+00 2.212644e+00 -8.083107e+00 6.052390e+00 -4.825151e-02 1.736765e-02 1.693604e-01 -4.745539e-01 -3.983150e-01 1.766601e+00 9.810861e-01 -5.899838e-01 1.690555e-02 1.865338e+00 4.624809e-01 6.276439e-01 9.799541e-01 -2.755222e-02 
3.736591e-02 -2.105212e+00 1.610093e-01 -1.171350e+00 4.037480e+00 -3.104525e-01 -1.047119e+00 6.256355e+00 5.291287e+00 -1.252127e+00 -8.617859e+00 8.938995e+00 -9.017336e-02 -3.450745e-01 1.182737e+00 2.152746e-01 8.851663e-01 2.578394e+00 1.168675e+00 -1.948083e-01 -7.884836e-01 -1.167214e+00 -2.160915e-01 1.625658e+00 -5.929214e-01 -3.148080e-02 
-1.123381e+00 -3.451304e-01 9.497578e-01 7.860518e-02 7.303980e+00 -3.314505e+00 9.145126e-01 5.000201e+00 6.272453e+00 3.945089e+00 -5.414142e+00 4.577494e+00 -1.382966e-01 -3.496571e-01 1.761697e+00 1.034425e+00 8.164068e-01 9.346124e-01 4.047805e-01 1.100175e+00 -6.228046e-01 -2.974361e-01 7.124720e-01 2.452817e+00 -5.145801e-01 -2.672017e-02 
-3.042474e+00 -5.420194e-01 -1.111116e-01 2.100073e+00 7.923040e+00 3.745540e+00 5.324492e+00 4.895492e+00 1.198181e+00 1.876329e+00 -2.519962e+00 1.826260e+00 -1.512927e-01 -4.118394e-01 1.330273e+00 -1.350141e-01 2.765249e-01 -9.957647e-01 6.294058e-02 1.090566e+00 -8.828732e-01 2.862802e-01 8.575602e-01 1.947686e+00 -1.154379e+00 -1.352347e-02 
-2.020915e+00 2.371048e+00 2.180745e+00 -6.479372e-01 1.886769e+00 -2.588752e+00 5.168760e+00 5.164694e+00 8.572441e+00 4.210775e+00 1.132030e+00 7.035857e+00 -1.512927e-01 -7.334538e-02 2.041097e+00 -7.096862e-01 3.200536e-02 -1.073365e+00 1.427893e-01 -5.365989e-02 -7.377996e-01 -4.322616e-01 1.937948e-01 1.064693e+00 9.797554e-01 -2.599216e-03 
-1.573064e+00 3.188063e+00 -1.129555e+00 5.745454e-01 1.767262e+00 -3.586261e-01 2.278587e+00 1.759742e+00 5.572695e+00 2.902831e+00 -2.152516e+00 1.937917e+00 -1.512927e-01 2.931732e-01 2.637436e+00 -3.231550e-01 1.679313e-01 5.490874e-01 -3.183056e-01 -3.670728e-01 -1.214487e-01 -8.562361e-01 -1.136661e-01 -2.531436e-01 4.211815e-01 0.000000e+00 
-2.224813e+00 7.995312e+00 -2.089451e+00 1.001396e+00 5.015046e+00 -5.484757e-01 2.169166e+00 2.879078e+00 1.923888e+00 4.400812e+00 -2.743993e-01 9.420442e+00 -1.512927e-01 -2.027276e-01 2.929287e+00 6.595112e-01 5.302479e-01 1.579993e+00 1.450765e+00 5.360059e-01 1.238427e-02 -1.137907e+00 1.225683e+00 6.188179e-01 -2.972263e-01 0.000000e+00 
-1.474659e+00 9.833029e+00 4.082112e-01 2.115063e+00 9.104339e+00 1.133874e+00 4.988925e+00 5.431056e+00 2.412772e-01 1.212981e+00 -3.082466e+00 2.739874e+00 -1.512927e-01 -1.552534e-02 2.766914e+00 2.554410e+00 8.602770e-01 1.777953e+00 1.287339e+00 1.183096e+00 8.318694e-01 6.813452e-01 1.700594e+00 1.154919e+00 -1.542788e-01 0.000000e+00 
-3.083755e+00 1.369500e+01 4.709418e+00 1.233043e+00 6.118196e+00 3.918822e+00 6.493620e+00 3.390958e+00 5.548616e+00 1.118411e+01 4.691094e+00 5.148746e+00 -1.512927e-01 8.077268e-02 1.879448e+00 3.133781e+00 8.910512e-01 8.810862e-01 8.744509e-01 1.082573e+00 1.999082e-01 7.249951e-01 1.178713e+00 7.882544e-01 -2.359420e-01 0.000000e+00 
-1.221219e+00 1.417278e+01 8.243060e+00 4.760107e+00 1.010545e+01 3.844418e+00 6.031840e+00 5.663149e+00 7.167057e+00 8.014147e+00 1.139330e+00 3.302371e+00 -1.512927e-01 -6.549959e-02 1.268218e+00 2.405050e+00 9.333543e-01 2.889359e-01 6.391668e-02 8.529871e-01 -1.204538e-01 -2.361068e-01 -3.459526e-01 7.991765e-01 1.452814e+00 0.000000e+00 
-1.947669e+00 1.522267e+01 9.662031e+00 4.134130e+00 8.919920e+00 2.468507e+00 7.060576e+00 3.762572e+00 2.085974e+00 6.893793e+00 1.555975e+00 7.959484e+00 -1.512927e-01 1.925888e-01 -1.729574e-02 2.248547e-01 9.892613e-01 7.082734e-02 -1.235567e+00 -6.214549e-01 -7.302387e-01 -2.120051e+00 -2.666385e+00 -6.513195e-01 5.075076e-01 0.000000e+00 
-2.370200e+00 1.541028e+01 9.957155e+00 5.331291e+00 9.148156e+00 2.178615e+00 8.970383e+00 4.642980e+00 7.920642e-01 1.628379e+00 2.480976e+00 8.598576e+00 -1.512927e-01 2.456785e-01 3.858947e-01 3.202152e-03 8.703817e-01 -2.541728e-01 -1.494900e+00 -9.529521e-01 -1.468081e+00 -1.910274e+00 -1.986018e+00 -4.594079e-01 -2.486639e-02 0.000000e+00 
-1.546321e+00 1.298977e+01 4.976644e+00 5.893757e+00 6.950981e+00 -1.426110e+00 1.917074e+00 2.498493e-01 -1.864145e+00 1.045073e+00 7.636738e-01 5.038182e+00 -1.512927e-01 1.802640e-01 3.312375e-01 -5.231757e-02 1.150969e+00 2.735359e-01 -1.780203e-01 -1.024914e+00 -1.825227e-01 -1.411397e-01 -1.053346e+00 -1.276538e+00 -1.026614e+00 0.000000e+00 
-1.935005e-01 1.721871e+01 1.060176e+01 8.232203e+00 9.819057e+00 -1.682775e+00 3.838830e+00 7.910705e-02 -4.092538e-01 1.008419e+00 -7.615585e-01 4.638690e+00 -1.512927e-01 -5.819122e-01 1.265169e-01 1.202582e-01 5.541872e-01 6.632446e-01 9.375595e-01 -7.255080e-01 8.324863e-01 1.087079e+00 1.141953e+00 -3.704748e-01 2.025312e-01 0.000000e+00 
-2.134699e+00 1.597465e+01 9.078138e+00 8.438521e+00 9.952148e+00 3.509100e+00 4.501784e+00 5.131895e+00 1.980935e+00 1.937041e+00 -3.205446e+00 4.806355e+00 -1.512927e-01 -7.713758e-01 -7.112980e-03 -1.955870e-02 -5.187967e-01 2.774884e-01 1.326159e+00 1.194312e+00 1.486619e+00 1.027750e+00 1.708580e+00 2.900860e-01 9.323797e-01 0.000000e+00 
-4.985572e+00 1.455043e+01 8.507700e+00 6.829845e+00 1.096380e+01 4.398808e+00 4.050488e+00 6.364389e+00 4.304921e+00 6.892162e+00 2.613163e+00 9.727145e+00 -1.512927e-01 -1.005271e+00 -1.264929e+00 -2.842178e-01 -1.712384e+00 1.317920e+00 1.015869e+00 -1.639333e+00 -1.962427e-01 7.225302e-01 9.395059e-01 2.231954e+00 -5.427157e-01 3.944492e-03 
-3.007164e+00 1.428835e+01 5.925883e+00 4.000952e+00 7.766054e+00 2.163895e+00 7.782804e+00 4.540303e+00 9.175191e-01 6.646101e+00 5.267434e-01 7.155853e+00 -1.512927e-01 -1.498255e+00 -2.137697e+00 3.474986e-01 -1.875932e+00 3.839192e+00 5.860217e-01 -4.076599e+00 -2.502921e+00 2.463294e+00 1.349653e+00 4.535889e+00 -2.246737e+00 5.242068e-02 
-4.783623e+00 1.173721e+01 1.075680e+01 1.889065e+00 1.750171e+01 4.069175e+00 -5.998343e+00 -6.063104e-01 3.735105e+00 3.351418e+00 8.532116e+00 7.503624e-01 -1.315702e-01 -1.620255e+00 -2.331089e+00 6.131955e-01 -1.307289e+00 4.794381e+00 8.850565e-01 -4.845417e+00 -2.896116e+00 3.421958e+00 1.093661e+00 4.379050e+00 -3.242696e+00 7.567264e-02 
-9.726951e+00 6.692774e+00 9.691079e+00 1.529251e+00 2.587915e+01 6.604025e+00 -1.085680e+01 -3.897359e+00 1.458231e+01 1.045568e+01 1.651452e+01 -1.938940e+00 1.009495e-01 -1.838290e+00 -2.023559e+00 6.464669e-01 -5.303217e-01 4.460364e+00 1.141511e+00 -4.213766e+00 -2.016637e+00 3.817680e+00 1.472342e+00 3.995796e+00 -2.087889e+00 7.370040e-02 
