-7.960238e+00 3.542445e+00 2.658887e+00 1.134719e+00 9.151392e-01 8.138180e-03 -7.989178e-01 2.075233e+00 3.872341e+00 9.874175e-01 4.394764e+00 4.645035e+00 -1.075764e-01 1.620663e-01 3.191381e-01 -5.529221e-02 -3.587179e-02 9.197342e-01 1.631392e+00 1.340792e+00 9.550277e-01 2.261700e-01 1.665299e+00 1.186995e+00 1.662191e+00 -1.195037e-03 
-8.340720e+00 3.318235e+00 1.847797e+00 1.218983e+00 4.665193e+00 4.442355e+00 4.042269e+00 4.260535e+00 2.459776e+00 1.143634e+01 1.270120e+01 8.887972e+00 -1.014248e-01 2.474251e-01 1.248565e-01 -1.021083e+00 -5.830033e-02 1.355485e+00 1.413615e+00 9.437832e-01 -1.591126e-01 3.892389e-01 1.039716e+00 -8.336651e-01 1.119221e-01 -2.077353e-03 
-6.959666e+00 5.250240e+00 2.787971e+00 9.132274e-01 3.638783e+00 5.947989e+00 3.484448e+00 5.757720e+00 5.709474e+00 4.089450e+00 6.176520e+00 1.083452e+01 -1.166273e-01 3.252407e-01 -3.447359e-02 -8.319483e-01 -2.968325e-01 4.205859e-01 -2.816789e-02 6.327199e-01 -5.139765e-01 9.232508e-01 8.884543e-01 -2.501385e+00 -1.736685e+00 -3.300345e-03 
-7.223399e+00 3.312830e+00 -2.511069e+00 9.539624e-01 6.330742e+00 4.106287e+00 1.778315e+00 -5.615736e-01 4.899969e+00 4.634979e+00 -6.644399e-01 2.109902e+00 -1.134377e-01 5.520477e-02 -3.584035e-01 -1.631960e+00 -1.037358e+00 -5.666426e-01 -1.643487e+00 -1.486696e+00 -1.422054e+00 9.413785e-02 -1.552202e+00 -3.262706e+00 -1.749296e+00 -2.154732e-03 
-6.892695e+00 3.372779e+00 6.785779e-01 -2.169338e-01 2.185294e+00 3.533244e-02 3.496658e+00 1.916405e+00 7.268498e+00 8.830371e+00 -1.429343e+00 -6.493530e-01 -1.180717e-01 -7.219696e-03 -6.557797e-01 -1.661346e+00 -1.233934e+00 -3.963706e-01 -1.483585e+00 -9.734402e-01 -1.501096e+00 -9.920556e-01 -9.511544e-01 -1.400575e+00 -1.282467e+00 1.089466e-03 
-8.098182e+00 2.464948e+00 -5.257308e+00 -3.402725e+00 2.558724e+00 -8.187537e-01 -3.397318e+00 -9.290774e-01 2.150953e+00 1.304872e+00 1.905959e-01 5.883430e+00 -1.114763e-01 2.248587e-01 -4.037218e-01 -2.753066e-01 3.379665e-02 -1.571737e-01 -5.247005e-01 -1.394535e-01 5.317093e-01 -3.503045e-01 1.561847e-02 7.974440e-01 3.327530e-01 -4.441106e-03 
-6.558373e+00 2.395282e+00 -4.145641e+00 -3.078101e+00 3.542939e+00 9.925838e-01 1.205063e+00 -1.564008e+00 2.123704e+00 9.987326e-01 -1.253875e+00 2.535424e+00 -1.121607e-01 1.559629e-01 -3.382353e-01 2.192930e-01 9.096106e-01 6.741907e-01 7.676591e-01 -3.867722e-01 -1.555291e-01 -7.277096e-01 -1.870836e-01 6.116334e-01 6.669215e-01 -4.741156e-03 
-6.266267e+00 1.782969e+00 -1.475492e+00 2.553529e+00 4.866051e+00 1.004159e+00 2.226845e+00 3.837179e+00 5.720843e+00 8.628891e+00 3.235047e+00 2.181279e+00 -1.385987e-01 -1.424623e-01 -8.269350e-01 4.776293e-01 1.031842e-01 -1.235132e-01 1.342227e+00 7.307636e-01 4.460193e-01 7.240285e-01 1.013590e+00 1.037567e+00 -2.961043e-01 -2.565646e-03 
-7.028838e+00 2.022592e+00 -1.158652e-01 1.352992e+00 4.402584e+00 2.962172e+00 -1.249284e+00 -1.244369e+00 1.845005e+00 4.232944e+00 1.065989e-01 4.536330e+00 -1.282163e-01 -4.338913e-01 -5.167762e-01 5.261942e-01 -2.802951e-01 -7.388662e-01 9.309141e-01 1.754763e-02 6.081623e-01 6.160784e-01 4.019203e-02 1.414527e+00 7.554835e-01 -1.783419e-03 
-8.575261e+00 -1.483382e+00 -4.884049e+00 -5.102351e+00 1.511335e+00 4.907588e+00 1.483674e+00 1.141200e+00 5.910445e+00 4.755719e+00 4.698192e+00 3.402456e+00 -1.162767e-01 -1.420315e-01 1.599523e-01 4.195030e-01 -4.611958e-01 -9.500167e-01 3.715401e-01 1.385086e+00 2.276478e-01 -3.330778e-01 1.683526e-01 2.344281e-01 8.779882e-01 -2.207875e-04 
-7.573333e+00 1.444577e+00 1.896082e-01 -6.516362e-01 1.525966e+00 3.695440e+00 1.664387e+00 2.824792e+00 5.109295e+00 3.136279e+00 5.087185e+00 5.702252e+00 -1.322387e-01 1.943899e-01 8.386393e-01 6.763101e-01 1.151557e+00 -2.571113e-01 -3.195158e-01 9.613522e-01 -6.120980e-01 -1.545185e+00 -5.822206e-02 -3.203168e-01 -5.665987e-02 -9.664178e-04 
-6.704177e+00 2.871738e+00 4.692863e-01 1.249865e+00 1.554277e+00 2.495225e+00 7.695440e+00 2.940837e+00 2.423309e+00 1.001899e+01 1.916894e+00 5.988258e+00 -1.376914e-01 5.476196e-01 1.137848e+00 9.309560e-01 1.731131e+00 -1.062163e-02 -9.748423e-01 -1.305179e+00 -2.996756e+00 -2.995976e+00 -1.272738e+00 -6.147200e-01 -3.395298e-01 -2.422619e-03 
-6.992431e+00 4.038228e+00 5.890173e-01 3.934668e+00 3.095557e+00 2.570774e+00 4.515935e-01 -5.204679e+00 -4.137351e+00 1.310199e+00 -1.043363e-01 2.960130e+00 -1.223410e-01 3.356066e-01 2.691359e-01 -2.217147e-01 4.145576e-01 8.892348e-01 -5.836284e-01 -1.636404e+00 -2.557904e+00 -4.708064e-01 3.156608e-01 2.518860e-01 -4.463192e-01 4.030955e-03 
-6.127614e+00 2.909030e+00 -4.289742e-01 1.260153e+00 6.734314e-01 5.957088e-01 -4.435826e+00 -9.827846e+00 -4.446112e+00 -6.949306e-01 4.220352e+00 3.075869e+00 -1.333387e-01 1.110989e-01 -3.393276e-01 -5.532594e-01 -3.231393e-01 1.540604e+00 5.394646e-01 -9.083073e-01 -7.180017e-01 9.105181e-01 -3.029442e-01 4.110585e-01 7.626476e-02 5.438161e-03 
-6.183581e+00 2.771610e+00 -4.698349e-01 1.416008e+00 6.412563e+00 1.727056e+00 -4.519973e-01 -3.580385e+00 6.189974e+00 1.007154e+01 5.194886e+00 4.926851e+00 -1.142603e-01 3.289905e-01 1.883326e-01 1.568595e-01 -4.852293e-01 4.382699e-01 4.598190e-01 8.260328e-01 2.092842e+00 1.330549e+00 8.685988e-01 9.841352e-01 5.750718e-01 3.869236e-03 
-6.553107e+00 1.808409e+00 -1.767585e+00 8.934978e-01 7.598795e+00 5.614408e+00 3.605700e+00 -1.461318e+00 1.812237e+00 4.123595e+00 1.322575e+00 5.386221e+00 -1.145409e-01 3.525569e-01 5.630889e-01 7.782392e-02 -8.469831e-01 -7.397953e-01 -6.736430e-01 1.470547e-01 9.154015e-01 -7.116695e-01 -2.431262e-01 -8.664125e-01 4.099132e-01 2.328324e-03 
-5.134731e+00 5.530202e+00 2.042620e+00 1.691848e+00 1.824224e+00 2.360520e+00 5.609943e-01 1.076267e+00 -6.137826e-01 3.243930e+00 6.265227e+00 4.680312e+00 -1.123937e-01 5.036932e-01 3.451098e-01 3.327477e-01 -5.484997e-01 -1.736606e+00 -1.531159e+00 -9.884712e-01 2.077560e-01 -2.475257e+00 -1.500102e+00 -1.104262e+00 1.989863e-02 -2.209461e-03 
-4.889255e+00 4.345179e+00 -1.296082e+00 -3.112684e+00 -7.313757e-01 -3.089238e+00 -4.207048e+00 -7.579165e+00 -4.602581e+00 1.503244e+00 -6.468806e-01 5.248704e+00 -1.226304e-01 5.083669e-01 -6.415298e-02 -7.461454e-02 -7.539193e-01 -6.460572e-01 -8.530605e-02 -2.003395e-01 6.939350e-01 -1.527670e+00 -1.142797e+00 -6.689909e-01 4.911165e-01 -2.392864e-03 
-4.497042e+00 3.228775e+00 9.581523e-01 6.766001e-01 1.894618e+00 -1.576915e+00 -1.487980e+00 5.173181e-01 -2.978904e+00 3.881206e+00 6.583066e-01 5.095103e+00 -1.212629e-01 9.944128e-01 -1.024073e+00 1.216455e-01 -1.852086e+00 -1.820736e-02 1.801016e-01 7.920782e-01 1.786984e+00 -4.849899e-01 -6.990298e-01 -7.122342e-01 -2.529698e-01 2.524627e-02 
-4.330117e+00 2.638358e+00 -1.598424e+00 -2.368474e+00 4.333311e+00 7.156594e+00 3.628489e+00 2.287832e+00 -4.643552e+00 -1.909027e+00 7.810814e-01 7.634408e+00 -1.220707e-01 1.717371e+00 -1.247420e+00 1.692384e+00 -2.490941e+00 3.728790e-02 -4.262856e-01 1.278234e+00 2.768247e+00 1.166063e-01 -4.839805e-01 9.075825e-01 -7.011405e-01 9.004237e-02 
-4.422359e-01 1.263249e+00 2.802018e+00 -7.940685e+00 -7.991557e-01 -1.861888e+00 6.036165e-01 5.077691e+00 -3.018246e+00 1.454917e+00 1.990076e+00 2.222611e+00 1.355779e-02 1.765764e+00 4.050063e-01 1.249518e+00 -1.839042e+00 -1.365190e+00 -2.080775e+00 -8.169999e-01 2.095108e-01 -1.842103e-02 -2.560692e-01 1.134008e+00 -1.932319e-01 5.426333e-02 
1.670199e+00 -9.091606e-01 6.243906e+00 -1.125875e+01 8.019509e-01 -5.078179e+00 1.138325e+00 3.981882e+00 -3.999878e+00 2.964861e-01 3.225147e+00 3.179247e+00 2.601711e-01 4.312077e-01 8.278006e-01 -8.994607e-01 -2.982344e-01 -9.591387e-01 -2.173227e+00 -1.878577e+00 -1.729394e+00 -4.333034e-01 9.573365e-03 -5.192232e-01 -3.672695e-02 -3.077352e-03 
1.331620e+00 7.027565e+00 3.284578e+00 -4.073476e+00 -3.165653e+00 -5.863403e+00 -4.327897e+00 7.178474e-01 -3.392846e+00 1.498103e+00 5.106312e+00 6.356524e+00 -4.106712e-02 -1.543077e+00 4.158047e-01 -2.476696e+00 1.374135e+00 5.989493e-01 1.651358e+00 1.871899e-01 -1.145464e+00 1.195070e-01 4.795654e-02 -1.118008e+00 8.214645e-01 -6.132460e-02 
-3.061007e+00 3.895203e+00 -6.337008e+00 -5.793251e+00 7.208664e-01 -1.708784e+00 -3.298638e+00 -4.179215e+00 -6.622769e+00 -1.882753e+00 -3.373153e+00 5.383817e+00 -1.101450e-01 -2.263408e+00 -7.109900e-02 -2.393387e+00 1.569136e+00 1.844528e-01 1.760627e+00 1.134165e+00 4.357541e-01 1.353181e+00 8.436701e-01 -1.039566e+00 3.567648e-01 -8.393812e-02 
-5.792020e+00 9.400907e-01 -3.291006e+00 -3.802759e+00 2.236133e+00 4.710204e+00 3.758048e+00 3.430921e+00 -1.109266e+00 2.784319e+00 -3.008139e-01 5.227650e+00 -1.079072e-01 -1.899879e+00 -1.310596e+00 -6.942630e-01 7.475969e-01 1.228084e+00 1.588995e+00 2.389555e+00 1.751264e+00 2.189076e+00 1.131478e+00 -3.699518e-01 -7.400178e-01 -1.982880e-02 
-6.085021e+00 1.779082e+00 -2.435236e+00 -3.548423e+00 -9.766781e-01 -1.561849e+00 2.766180e+00 4.804115e+00 1.624236e+00 3.871728e+00 7.308798e-01 5.527509e+00 -1.260995e-01 -1.105137e+00 -6.186318e-02 1.461889e+00 1.467325e+00 5.243055e-01 9.927915e-01 8.810538e-01 1.044231e+00 1.677162e+00 1.555580e+00 1.202193e+00 -5.190276e-01 -3.841412e-03 
-6.655766e+00 1.532645e+00 -2.137623e+00 -1.457906e+00 3.823538e+00 2.008104e+00 4.587466e+00 4.982501e+00 3.429034e+00 4.278251e+00 1.204537e+00 2.584589e+00 -1.322339e-01 -9.833956e-01 -9.053244e-02 3.310411e-01 8.298745e-01 7.580919e-01 1.354997e+00 4.164340e-01 -3.511452e-01 1.059877e+00 4.749094e-01 1.263063e+00 -1.256052e-01 -5.854642e-03 
-8.154820e+00 3.289610e+00 3.957457e-01 3.709487e-01 2.548691e+00 4.606224e+00 6.919222e-01 2.661489e-01 -5.061071e-01 5.148183e+00 1.885139e+00 4.110209e+00 -1.171887e-01 -4.626535e-01 -6.343677e-02 1.501901e-01 3.804764e-01 8.936411e-01 2.138547e+00 7.307843e-01 -2.172841e-01 4.857814e-01 1.004048e+00 1.280676e+00 2.749474e-01 -4.031670e-03 
-9.674098e+00 -2.678356e-01 -3.051291e+00 -1.613073e+00 4.263908e+00 8.401154e+00 6.877346e+00 3.944179e+00 5.255289e+00 4.520639e+00 5.437370e+00 5.308273e+00 -1.416358e-01 1.329803e-02 1.354819e-01 1.196425e-01 1.466926e-02 2.742797e-01 9.006532e-01 3.709982e-01 4.703795e-01 9.269258e-01 5.020511e-01 1.224390e+00 1.425202e+00 -6.248581e-03 
-6.889123e+00 2.362138e+00 -1.227451e+00 -1.568458e+00 3.271342e+00 5.934362e+00 5.275161e+00 4.236856e+00 3.140015e+00 8.770775e+00 5.017844e+00 5.540404e+00 -1.415569e-01 1.585785e-01 -2.061244e-01 -2.235642e-01 6.649712e-02 5.350837e-01 -7.263554e-01 -3.598242e-01 1.132972e+00 9.860285e-01 2.830359e-02 1.082916e-01 9.162041e-01 -2.271128e-03 
-7.222125e+00 2.673790e+00 -7.278117e-01 -4.148562e-01 4.833611e+00 5.847301e+00 4.150838e+00 5.349045e+00 6.240602e+00 4.977210e+00 5.760132e+00 8.995502e+00 -1.512927e-01 -3.438187e-02 3.763941e-01 1.757015e-01 8.347947e-01 9.829699e-01 -8.132003e-01 -1.503115e+00 3.170462e-02 -5.601116e-01 -1.018349e+00 -1.583648e+00 -4.520740e-01 8.255231e-03 
-8.587914e+00 7.881752e-01 -1.883815e+00 1.043259e-01 4.939258e+00 2.251373e+00 2.560555e-01 5.228574e+00 3.931379e+00 5.061415e+00 2.265216e+00 6.847615e+00 -1.237159e-01 -1.502022e-01 4.332109e-01 4.416386e-01 7.214261e-01 6.700133e-01 -6.872609e-01 -8.650775e-01 -1.068745e-01 1.201429e-02 -1.559393e+00 -2.126585e+00 -1.640703e+00 6.479991e-03 
-8.996612e+00 2.401116e+00 -1.844602e+00 1.724509e+00 8.344799e+00 6.176647e+00 1.871322e+00 3.606842e+00 2.059049e+00 1.283572e+00 -1.104556e+00 2.394298e+00 -1.092801e-01 9.807776e-01 3.743985e-01 6.433058e-02 -8.865900e-01 -1.517158e+00 -9.185073e-01 4.756225e-01 -1.883496e-01 -1.657514e+00 -1.721273e+00 -2.280504e+00 -2.512348e+00 4.641962e-03 
-6.752891e+00 4.664530e+00 1.539137e+00 9.689904e-01 4.865815e+00 2.333385e+00 2.089532e+00 4.573585e+00 5.290863e+00 2.820630e+00 -2.182734e+00 6.374903e-01 -1.301632e-01 2.481301e+00 -1.385161e-01 -1.683158e+00 -1.728615e+00 -2.575760e+00 -6.147569e-01 1.424524e+00 -2.576798e-01 -2.008765e+00 -1.458133e+00 -2.048402e-01 -8.871559e-01 1.513654e-02 
-3.235749e+00 2.607605e+00 -2.117635e+00 -5.280139e+00 -2.715456e+00 1.213758e+00 5.612212e+00 4.734792e+00 -2.726709e+00 -2.508763e+00 -3.418411e+00 -4.611759e-01 -1.248592e-01 2.394571e+00 -1.493503e+00 -1.815289e+00 -1.365614e+00 -2.735469e+00 -1.360110e+00 5.967872e-01 -4.983906e-01 -7.973459e-01 1.527592e+00 2.281364e+00 9.415506e-01 4.097782e-02 
9.381580e-01 -7.649899e-03 -1.016309e+01 -5.036425e+00 -2.409416e+00 1.659033e+00 5.508230e+00 3.376200e+00 -3.719564e+00 -3.330812e-01 2.397942e+00 3.839572e+00 -4.024363e-02 7.046194e-02 -2.428237e+00 -1.368966e+00 8.536110e-01 -8.732174e-01 -6.586496e-01 5.733681e-01 -1.320577e+00 8.218185e-01 2.745045e+00 3.095398e+00 9.702342e-01 9.388310e-02 
-8.692837e-01 -2.730308e+00 -5.069932e+00 -2.100852e+00 -1.694932e+00 -2.867279e-01 3.145908e+00 1.713581e+00 2.577533e+00 1.049839e+01 8.011923e+00 5.501010e+00 5.064923e-02 -1.626481e+00 -1.273802e+00 -5.295982e-01 2.354768e+00 4.462191e-01 5.846490e-01 3.583589e-01 -1.222336e+00 3.302145e+00 3.146235e+00 2.580288e+00 1.404576e+00 1.356690e-01 
-7.583814e+00 -4.807697e+00 -3.829544e+00 3.647402e+00 -1.053405e-02 -2.096202e-01 6.189524e+00 -5.186937e-01 6.747835e+00 1.004228e+01 7.579089e+00 2.507568e+00 2.514981e-01 -3.099656e+00 -5.195743e-01 -5.906222e-01 2.417613e+00 5.743957e-01 1.236492e+00 5.772469e-02 -6.649033e-01 3.027078e+00 8.264664e-01 1.942939e-01 4.939055e-01 1.574872e-01 
-7.107169e+00 -1.361379e+00 -7.932397e+00 2.151787e+00 -1.683802e+00 5.071330e+00 7.063359e+00 5.705579e-01 8.550318e+00 8.034733e+00 6.892455e+00 7.227705e+00 4.076148e-01 -3.191188e+00 -4.565239e-02 -1.657066e+00 1.694423e+00 3.657330e-01 1.131051e+00 -3.575344e-01 -1.163893e+00 7.674648e-01 -2.781863e+00 -4.032685e-01 1.568352e+00 1.470217e-01 
-1.144118e+01 -3.289986e+00 -1.168497e+01 4.925321e+00 4.569967e-01 5.162463e+00 3.838128e+00 6.231956e-01 8.429436e+00 5.031079e+00 3.929146e+00 5.445752e+00 5.687094e-01 -2.422829e+00 5.745972e-01 -1.261202e+00 5.055743e-01 2.751898e-01 9.739312e-01 -1.084453e+00 -4.664205e-01 -6.367348e-01 -2.196016e+00 -9.020931e-01 6.758794e-01 9.533404e-02 
-1.489654e+01 -3.717426e+00 -9.427549e+00 5.732303e+00 -1.000326e-01 2.682483e+00 2.533935e+00 -4.676826e+00 5.574057e+00 -9.053259e-01 7.820552e+00 1.187368e+01 6.271521e-01 -2.362312e+00 8.888193e-01 1.470690e-02 4.505659e-01 -7.896916e-01 -1.076697e+00 -1.688847e+00 1.428572e+00 -1.160504e+00 -9.398481e-01 -8.787149e-01 -9.406150e-01 6.459267e-02 
-1.580327e+01 -7.566884e-01 -9.387979e+00 4.385016e+00 5.735302e-01 5.854459e+00 3.031971e+00 -2.271042e-01 5.052291e+00 3.532228e+00 2.604576e+00 3.563980e+00 6.183996e-01 -1.028662e+00 1.997870e+00 6.603538e-01 3.240153e-01 -1.354433e+00 -5.400267e-01 -1.236991e+00 2.142084e+00 -6.092872e-01 -1.175859e-01 3.270339e-01 -1.083205e+00 4.418681e-02 
-1.673768e+01 1.816069e+00 -9.007356e+00 4.674768e+00 -5.690526e+00 -6.581528e-01 -9.777954e-01 8.138570e+00 4.436372e+00 4.084918e+00 3.161166e+00 3.465517e+00 7.057330e-01 -2.598959e-01 1.497478e+00 5.371761e-02 -3.915366e-01 -8.220860e-01 3.363387e-01 -9.326780e-01 1.755252e+00 -6.486560e-01 1.294603e+00 4.635533e-01 -1.606728e+00 3.688540e-02 
-1.566392e+01 3.932620e+00 -8.593293e+00 7.074164e+00 -3.519921e+00 4.132648e+00 -5.909598e-01 4.925917e+00 5.951841e+00 1.948028e+00 7.894009e+00 4.233806e+00 7.503530e-01 -2.796778e-01 6.543431e-01 -2.760769e-01 -5.520053e-01 -6.354849e-01 3.373030e-01 2.338943e-02 5.874885e-01 -4.968597e-01 1.905818e+00 7.503353e-01 -3.756206e-01 4.329152e-02 
-1.626570e+01 1.425308e+00 -9.556304e+00 2.430046e+00 -2.163738e+00 5.225082e+00 -3.179901e-01 1.522926e+00 1.881002e+00 6.359788e+00 7.493602e+00 3.505124e+00 7.456025e-01 -1.543772e-01 2.038439e-01 4.417928e-01 -1.456300e+00 1.966124e-01 1.735727e+00 4.960261e-01 -9.367782e-01 -1.379124e+00 7.798578e-01 -7.467037e-01 -1.400578e+00 2.651986e-02 
-1.743765e+01 2.710408e+00 -1.049389e+01 2.747351e+00 -4.367289e+00 4.599357e+00 2.819015e+00 6.018161e+00 3.845678e+00 1.192388e+01 4.190034e+00 1.666074e+00 8.149225e-01 2.273585e+00 4.993812e-01 1.893618e+00 -2.212186e+00 -1.572153e+00 -6.003950e-01 -3.371327e-01 -5.444553e-01 -1.891932e+00 -8.990930e-01 -1.693761e+00 -9.271725e-01 -2.066555e-02 
-1.662270e+01 3.446394e+00 -5.848094e+00 -4.433248e-01 -4.283780e+00 7.787128e+00 -2.026525e-01 2.908556e+00 -1.406165e+00 2.996279e+00 1.279635e+00 -2.253508e+00 8.060476e-01 6.807428e+00 -2.796661e-01 2.949439e+00 -2.449495e+00 -3.097427e+00 -4.485657e+00 -2.627298e+00 -9.911060e-01 -1.238580e+00 -2.892402e+00 -1.898951e+00 -1.586492e+00 -2.910882e-02 
-4.117492e+00 5.418982e+00 -9.793078e-01 -2.550081e+00 -1.032067e+01 -1.503503e-01 -2.334292e+00 1.510824e+00 -1.864234e+00 -8.656826e-01 2.532190e+00 2.477259e+00 6.168027e-01 8.534131e+00 -2.829532e+00 2.621822e+00 -4.752269e+00 -2.412671e+00 -6.955676e+00 -3.606852e+00 -2.745008e+00 -5.373651e-01 -4.538871e+00 -5.613338e-01 -3.386811e+00 -4.086757e-03 
1.111136e+01 -1.327310e+00 4.335996e-01 -7.168715e+00 -1.467418e+01 -1.482835e+01 -1.087783e+01 -1.178936e+00 -1.456943e+00 -1.707442e+00 -1.172231e+00 -4.832928e+00 6.991183e-01 7.152323e+00 -4.246019e+00 1.064220e+00 -4.370263e+00 -2.160287e-01 -6.305117e+00 -1.053662e+00 -7.474694e-01 1.555525e+00 -2.565938e+00 1.007059e-01 -4.215678e+00 4.252796e-02 
1.136597e+01 -9.050398e+00 -5.256265e-01 -1.765130e+01 -1.123544e+01 -1.887128e+01 -9.877655e+00 -5.663134e+00 1.184242e+00 -8.418612e+00 2.609298e+00 -1.397827e+01 8.479533e-01 2.560519e+00 -4.525875e+00 -1.396365e+00 -3.490793e+00 1.216869e+00 -1.906595e+00 7.006749e-01 7.591994e-01 5.948299e-01 -1.884218e+00 -1.493814e+00 -4.546456e+00 8.976185e-02 
1.139718e+01 -1.054901e+01 -7.538334e-01 -1.474403e+01 -4.906536e+00 -1.437799e+01 -1.699283e+00 2.758188e+00 4.847224e+00 -6.056947e+00 1.744610e+00 -1.510413e+01 9.031121e-01 -6.927685e-01 -2.816422e+00 -2.684327e+00 -1.510712e+00 1.854377e+00 1.863355e+00 2.851171e+00 1.346506e+00 -7.586304e-01 -1.857467e+00 -2.067858e+00 -1.453473e+00 6.468235e-02 
8.542189e+00 -1.259954e+01 -7.367415e+00 -1.621639e+01 -9.120143e+00 -9.908508e+00 -3.420190e+00 3.338259e+00 -2.042167e+00 -8.112019e+00 -6.395298e+00 -1.511942e+01 9.636151e-01 -1.831803e-01 -1.778062e+00 -1.493501e+00 2.891285e-01 1.823265e+00 2.670158e+00 3.285028e+00 1.034873e+00 -8.390549e-01 -9.803963e-01 -2.391975e+00 1.599005e+00 3.343401e-02 
9.059409e+00 -1.363485e+01 -9.567141e+00 -1.543973e+01 -6.459947e+00 -9.992964e+00 1.492929e-01 1.052897e+00 -3.636890e+00 -1.114808e+01 -7.009224e+00 -1.152972e+01 9.646991e-01 2.768276e-01 -1.750063e+00 -2.820245e-01 -2.219223e-01 1.853011e+00 1.788923e+00 2.082555e+00 -5.186895e-01 -5.155317e-01 -8.999198e-01 -1.331162e+00 2.194400e+00 2.120156e-02 
1.161896e+01 -1.639779e+01 -3.586479e+00 -1.585781e+01 -1.342410e+00 -7.713010e+00 5.623199e+00 3.638769e-01 1.231024e+00 -1.077503e+01 -4.973662e+00 -7.770450e+00 9.843298e-01 7.772053e-01 -1.537676e+00 1.010580e+00 -3.699630e-01 2.811164e+00 5.196048e-01 1.521169e+00 -5.545928e-01 9.196831e-01 -2.663449e-01 -2.887576e-01 1.768795e+00 1.068332e-02 
1.124294e+01 -1.740020e+01 -4.054424e+00 -1.603293e+01 4.696543e-01 -6.531123e+00 4.191800e+00 1.651932e+00 6.329700e-01 -9.225040e+00 -5.622019e+00 -7.806618e+00 9.987625e-01 5.147978e-01 -1.066876e+00 7.150760e-01 -6.469375e-01 1.734249e+00 3.557229e-01 -4.957802e-01 2.451604e-01 5.496284e-01 7.420903e-01 -8.610528e-01 6.800449e-01 5.634332e-03 
1.133645e+01 -1.840525e+01 -5.070871e+00 -1.776960e+01 1.470875e+00 -9.041405e+00 2.164402e+00 2.657775e-01 4.213178e-01 -1.040526e+01 -8.532688e+00 -8.136995e+00 1.000000e+00 8.831346e-02 8.362808e-02 -3.954515e-01 -7.040851e-01 1.799842e-01 3.665403e-01 -2.296034e+00 7.853974e-01 -4.993768e-01 1.369930e+00 -1.546372e+00 -2.732446e-01 -1.010708e-02 
1.177465e+01 -1.796550e+01 -5.249565e+00 -1.771852e+01 8.046556e-01 -7.550152e+00 -6.002095e-01 2.327749e+00 -4.838951e-01 -7.622508e+00 -9.534975e+00 -7.946224e+00 9.850357e-01 4.665324e-01 7.043415e-01 1.492763e-01 -6.055617e-01 -1.068218e+00 1.089311e+00 -2.759258e+00 3.001247e-01 1.658558e-01 1.297972e+00 -1.743883e-01 -5.866300e-01 -3.368104e-02 
1.179467e+01 -1.569700e+01 -4.966166e+00 -1.853544e+01 -6.099899e-01 -5.370793e+00 -3.460967e+00 3.952955e+00 -7.074273e-01 -4.726645e+00 -1.074905e+01 -9.066870e+00 9.406578e-01 8.611792e-01 1.421899e+00 1.010326e+00 5.358421e-01 -1.691353e+00 1.970144e+00 -2.509490e+00 -6.864862e-01 6.301259e-01 2.462718e+00 1.553873e+00 -9.156644e-01 -7.393004e-02 
1.334649e+01 -1.523262e+01 -3.360395e+00 -1.867783e+01 -3.831004e+00 -2.919871e+00 -6.791803e+00 1.308966e+00 2.026622e+00 -5.574486e+00 -5.385782e+00 -1.027483e+01 8.600284e-01 8.037235e-01 2.424860e+00 1.705854e+00 2.493196e+00 -1.437455e+00 2.058099e+00 -1.642723e+00 -3.101190e+00 4.690279e-01 3.144949e+00 2.511378e+00 -2.552564e-01 -1.175003e-01 
1.485643e+01 -1.266219e+01 -9.638273e-01 -1.461074e+01 -4.668062e+00 -1.505825e+00 -7.287254e+00 -2.657262e+00 2.316689e+00 8.843191e-01 -2.837919e+00 -1.155101e+01 6.928535e-01 3.598133e-01 2.690297e+00 1.679905e+00 4.594642e+00 -5.859307e-01 1.059886e+00 -1.316987e+00 -3.763310e+00 -6.045722e-01 2.695254e+00 2.487499e+00 6.660964e-01 -1.337302e-01 
1.426239e+01 -7.358603e+00 1.278535e+00 -7.214890e+00 -4.353584e+00 8.078591e-01 -6.900681e+00 -9.873094e+00 3.491863e-01 5.296754e+00 -9.336486e-01 -7.980434e+00 5.214366e-01 -2.258468e-01 2.509717e+00 9.251112e-01 5.377358e+00 -1.253076e-01 7.548341e-01 -9.256452e-01 -2.777644e+00 -8.987221e-01 1.169823e+00 1.139580e+00 6.322224e-01 -1.137230e-01 
1.313579e+01 -6.182525e+00 1.113894e+00 -1.293697e+00 -3.278353e+00 -1.935228e+00 -9.991462e+00 -9.272564e+00 -2.891571e+00 3.314006e+00 -5.376184e-01 -6.883586e+00 4.413025e-01 -7.871466e-01 1.728219e+00 -3.915550e-01 3.628201e+00 -3.384859e-01 4.902790e-01 -4.706244e-01 -9.246606e-01 -2.395960e-01 -1.173922e+00 9.942637e-02 -4.356909e-02 -5.701562e-02 
1.307758e+01 -5.923861e+00 2.263001e-01 1.550445e+00 -5.152396e+00 1.069001e+00 -1.006793e+01 -9.271603e+00 1.371410e-01 -9.402151e-01 -8.380332e-01 -9.447432e+00 4.171887e-01 -2.910159e-01 6.393500e-02 -1.370778e+00 7.265707e-01 -1.099222e+00 4.082914e-01 6.867317e-01 1.112258e+00 1.879537e+00 -3.073844e+00 7.149062e-02 -1.141592e+00 7.778353e-03 
1.151310e+01 -4.738468e+00 -2.395484e+00 -8.524030e-01 -5.961085e+00 8.149992e-01 -8.056754e+00 -7.581310e+00 1.224731e+00 -1.866807e+00 -2.388595e+00 -1.103536e+01 4.598993e-01 2.493877e-01 -7.052901e-01 -1.667234e+00 -1.587551e+00 -1.637222e+00 7.699393e-01 2.134823e+00 9.466379e-01 3.808637e+00 -2.955778e+00 4.015243e-02 -1.153990e+00 5.203124e-02 
1.361865e+01 -7.760957e+00 -3.820663e+00 -3.802684e+00 -8.508329e+00 1.474202e+00 -4.434376e+00 -5.157430e+00 7.688721e+00 -7.482059e+00 3.492930e-01 -1.161251e+01 5.510299e-01 1.179295e-01 -9.175113e-01 -1.487071e+00 -2.768571e+00 -7.120335e-01 2.839153e-01 1.813770e+00 1.397231e+00 3.438859e+00 -2.577562e+00 4.133919e-01 -1.099814e+00 7.077514e-02 
1.411219e+01 -8.790427e+00 -5.198795e+00 -6.554885e+00 -9.786498e+00 1.711868e+00 -2.134121e+00 -6.596461e+00 1.237582e+01 -8.193962e+00 -9.305193e-01 -1.157100e+01 6.345381e-01 -2.890792e-02 -8.388020e-01 -8.189965e-01 -2.267680e+00 1.415543e+00 4.984506e-01 2.680258e-01 2.039515e+00 1.626618e+00 -2.930671e+00 -1.542114e-01 -2.654855e-01 5.695386e-02 
1.236768e+01 -8.485437e+00 -5.807400e+00 -9.441170e+00 -6.799857e+00 2.040143e+00 -3.960390e+00 -2.777872e+00 1.175589e+01 -1.066445e+01 4.998884e-01 -1.467868e+01 6.837450e-01 -6.642600e-01 -2.758761e-01 3.904610e-02 -6.056716e-01 2.583495e+00 -2.600793e-01 -2.654457e-01 2.051223e+00 -1.291057e+00 -2.657367e+00 -6.688820e-01 8.384735e-01 2.401968e-02 
1.199405e+01 -8.570238e+00 -5.497099e+00 -9.371561e+00 2.623942e-01 3.024282e+00 -6.953618e+00 1.426487e+00 7.324233e+00 -1.492897e+01 -3.234950e+00 -1.082970e+01 6.783110e-01 -9.431635e-02 5.062124e-01 5.189877e-01 9.574507e-01 3.277924e+00 -1.406810e+00 -3.933592e-01 2.305615e+00 -2.667282e+00 -1.699793e+00 -7.846729e-01 1.628142e+00 -1.715372e-02 
1.135642e+01 -9.250432e+00 -3.476281e+00 -5.422704e+00 -6.153014e-01 -4.824011e-01 -3.351856e+00 1.087209e+00 3.759234e+00 -1.740139e+01 -1.842901e+00 -7.790788e+00 6.492418e-01 6.574579e-01 2.226936e+00 2.021073e+00 1.461867e+00 6.165029e-01 -1.629034e+00 7.397354e-01 4.554142e-01 -3.259755e+00 7.879454e-01 -4.170955e-01 1.855824e+00 -5.050676e-02 
1.414624e+01 -5.876868e+00 -3.769416e+00 -3.776865e+00 3.510846e+00 -4.060908e+00 -4.405184e+00 2.999074e+00 3.037744e+00 -1.332445e+01 -3.682489e+00 -6.874235e+00 5.660211e-01 8.625044e-01 2.614316e+00 3.298025e+00 3.271745e+00 -2.205641e+00 -2.270000e+00 1.033362e+00 -1.698423e+00 -3.043832e+00 3.429107e+00 -7.989751e-01 2.398948e-01 -5.751768e-02 
1.457888e+01 1.302560e+00 3.434122e+00 -4.929182e+00 -5.341568e+00 -2.562433e+00 -1.535930e+00 -1.287095e+00 -2.399637e+00 -7.526977e+00 -1.361819e+00 -7.377291e+00 4.873562e-01 7.483780e-01 3.351151e+00 3.343291e+00 3.655581e+00 -3.509709e+00 -2.074902e+00 1.188295e+00 -2.683590e+00 -3.136218e+00 4.471768e+00 -7.070788e-01 5.104011e-01 -5.259823e-02 
1.469534e+01 -7.751515e-01 7.537824e+00 6.740403e+00 -8.402675e+00 -7.285701e+00 -2.694770e+00 -5.878477e+00 -4.815493e+00 -2.720639e+00 -7.470366e+00 -9.836975e+00 4.716654e-01 -4.499249e-01 2.096767e+00 2.863609e+00 3.088259e+00 -3.132329e+00 -4.327096e-01 1.636355e+00 -2.640277e+00 -3.415307e+00 3.595119e+00 -3.042923e-01 4.302087e-01 -4.062811e-02 
1.482376e+01 4.954461e+00 7.586555e+00 7.596567e+00 -1.220709e+01 -9.244514e+00 1.734414e+00 -7.891968e+00 -7.995238e+00 -3.444586e-01 -3.484357e+00 -3.757413e+00 4.334285e-01 -9.530371e-01 5.968590e-01 8.926042e-01 2.454687e+00 -1.002108e+00 1.400184e-01 1.399763e+00 -1.054737e+00 -2.372039e+00 1.697626e+00 -7.138165e-01 4.948049e-01 -3.031196e-02 
1.177417e+01 2.781016e+00 8.472410e+00 5.401557e+00 -8.718040e+00 -2.883416e+00 2.141419e+00 -6.899874e+00 -1.124099e+01 1.059883e+00 -4.142682e+00 -6.533130e+00 3.898444e-01 -9.161471e-01 1.013100e+00 2.536465e-01 7.994853e-01 5.436509e-01 2.443657e-01 5.841340e-01 2.057727e-01 -2.363185e+00 -6.547276e-01 6.023139e-01 1.219379e+00 -2.592013e-02 
1.127428e+01 2.508771e+00 7.429851e+00 8.013675e+00 -1.019442e+01 -4.063483e+00 3.044790e+00 -6.050079e+00 -1.104708e+01 -9.291091e-01 -6.594744e+00 -6.555189e+00 3.767069e-01 -7.211562e-01 7.548537e-01 6.068238e-01 9.718889e-01 1.255120e+00 -4.200384e-01 -1.515720e+00 1.785049e-01 -1.168474e+00 -2.074501e+00 -8.766559e-01 9.076315e-01 -1.747550e-02 
1.188935e+01 5.513191e+00 8.884409e+00 1.052928e+01 -6.690751e+00 -8.654387e+00 -4.292879e-01 -5.770557e+00 -1.510549e+01 -5.701952e+00 -2.903603e+00 -2.341191e+00 3.704256e-01 -8.419062e-01 1.409452e+00 1.308322e+00 1.709413e+00 5.715172e-01 -1.339980e+00 -1.481750e+00 -5.465674e-01 -1.277151e+00 -3.365496e+00 -9.014812e-01 5.304123e-01 -1.180416e-02 
1.116039e+01 7.362642e+00 1.041467e+01 9.892153e+00 -6.945131e+00 -8.459221e+00 -4.558833e+00 -7.564101e+00 -1.190536e+01 -7.336048e+00 -8.487176e+00 -1.315225e+00 3.557604e-01 -1.411190e+00 9.199773e-01 1.124994e+00 1.191540e+00 1.332986e+00 7.954340e-02 -8.435745e-01 -1.311211e+00 -5.263910e-01 -2.599372e+00 -1.851283e+00 5.232028e-01 -2.560012e-02 
7.621582e+00 7.401342e+00 1.352161e+01 1.300939e+01 -7.485100e+00 -7.385450e+00 -1.465523e+00 -8.875700e+00 -1.719761e+01 -1.256413e+01 -7.703872e+00 -6.501050e+00 3.412969e-01 -2.029046e+00 1.480398e-02 1.758696e-01 1.230906e+00 2.039381e+00 2.093186e-01 8.765499e-02 -1.371133e-01 2.897863e-02 -1.395653e+00 -1.102558e+00 5.534130e-01 -5.378219e-02 
6.352209e+00 6.164582e+00 1.073622e+01 1.273132e+01 -3.132317e+00 -4.300235e+00 -6.549654e-01 -1.105357e+01 -1.263298e+01 -1.049488e+01 -1.345103e+01 -1.859245e+00 2.632707e-01 -2.193508e+00 -8.794176e-01 -6.210351e-01 9.426731e-01 3.168803e+00 1.676227e+00 1.237606e+00 5.059871e-01 -6.199099e-01 2.146036e-01 1.666036e+00 1.966105e+00 -8.651964e-02 
4.148211e+00 6.186241e+00 9.602984e+00 1.526422e+01 1.599748e+00 -9.687287e+00 -1.942947e+00 -4.711392e+00 -1.459679e+01 -1.110080e+01 -5.934468e+00 6.978841e-01 1.477595e-01 -1.879453e+00 -1.590804e+00 -1.963908e+00 -5.213108e-01 2.660432e+00 1.340612e+00 2.112350e-01 2.453810e+00 2.925891e+00 2.939004e+00 2.355623e+00 2.757574e+00 -9.693261e-02 
1.929538e+00 3.573104e+00 9.268811e+00 1.347810e+01 4.356462e+00 1.072832e+00 1.867908e+00 -7.116320e+00 -1.630532e+01 -6.994694e+00 -1.041699e+00 4.915830e+00 1.993090e-02 -1.667088e+00 -1.591037e+00 -1.705521e+00 -8.008873e-01 1.394789e+00 5.490875e-01 1.678870e-01 2.714275e+00 3.450474e+00 3.400589e+00 2.159823e+00 1.699305e+00 -7.506783e-02 
4.356499e-01 7.430614e-01 4.435773e+00 1.002944e+01 2.072670e+00 -3.368925e+00 -1.670785e+00 1.424726e+00 -7.319834e-01 3.807995e-01 -2.130423e+00 3.899280e+00 -2.169633e-02 -7.757007e-01 -8.062428e-01 -1.152926e+00 -1.392393e+00 -3.948712e-01 1.456599e+00 6.632327e-01 2.348451e+00 4.301378e+00 3.660033e+00 1.093419e+00 1.402622e+00 -4.278961e-02 
-1.269484e-01 9.309895e-01 4.792218e+00 1.134427e+01 3.605169e+00 -4.713979e+00 4.838848e-02 -5.502510e-01 -2.313016e+00 7.672627e-01 -4.553934e+00 5.036580e+00 -2.734053e-02 5.939436e-02 9.660872e-01 -3.486503e-01 -1.490848e+00 -4.484507e-01 8.094684e-01 7.558439e-02 2.607583e+00 2.973633e+00 1.845497e+00 2.187825e-01 8.576870e-03 -1.567926e-02 
1.297950e+00 3.476085e+00 6.076650e+00 9.369170e+00 1.038551e-03 4.891139e-01 2.282977e+00 3.747826e+00 -8.605003e-02 3.318388e+00 1.288745e+00 7.650616e+00 -4.255283e-02 1.566036e-01 1.372711e+00 6.702951e-01 -3.231593e-01 1.166295e+00 3.037395e+00 2.221481e+00 1.507949e+00 8.063120e-01 1.399047e-01 1.175544e+00 3.397070e-01 -7.062340e-03 
1.795360e+00 7.037028e+00 6.705121e+00 6.353994e+00 3.150024e+00 3.191154e+00 2.689493e-01 4.760045e+00 -1.760120e+00 7.639980e-01 -1.657370e+00 3.083046e+00 -4.803717e-02 -2.553459e-01 8.384725e-01 4.497685e-01 -2.533789e-01 1.161254e+00 2.023186e+00 6.483101e-01 8.302431e-01 9.599050e-01 -4.131837e-01 5.205377e-01 -2.072703e-01 -4.244721e-03 
2.575140e-01 4.553598e+00 6.830798e+00 1.090878e+01 8.131719e+00 7.865483e+00 9.326341e+00 6.309321e+00 3.023129e+00 1.081955e+00 2.299015e+00 6.574581e+00 -4.665971e-02 -2.401493e-01 3.833541e-01 2.886878e-01 5.182878e-01 8.686018e-01 -6.636851e-01 -2.960069e-01 3.221555e-01 -6.141109e-01 -2.759271e-01 -8.534603e-01 -1.365596e+00 -1.667988e-03 
-8.834600e-01 4.584596e+00 6.663987e+00 9.307572e+00 5.346098e+00 1.713766e+00 -2.317436e-01 2.320217e+00 9.319196e-01 -1.804395e-01 -2.456381e+00 4.538245e+00 -4.651070e-02 -4.092887e-01 -4.014943e-01 4.329085e-01 9.596446e-01 2.294679e-02 -1.875510e+00 -1.280050e-01 2.224373e-01 -4.966063e-01 -1.668826e-02 6.176051e-01 -6.827525e-01 -4.428816e-03 
1.436613e+00 6.619072e+00 7.540656e+00 1.048382e+01 3.246011e+00 -2.090617e+00 1.053289e+00 6.578518e+00 -4.502625e+00 2.410971e+00 -2.579052e+00 9.503865e-02 -5.165601e-02 -7.308511e-02 3.802975e-01 2.077764e-01 -4.111938e-01 -3.256086e-01 -4.528626e-01 -1.719189e+00 -1.444169e+00 -2.239776e+00 -6.962423e-02 -2.992454e-02 -5.215969e-01 -4.678261e-03 
-8.406334e-01 3.996820e+00 8.514734e+00 1.136470e+01 5.707612e+00 -1.208347e+00 3.765450e+00 5.737634e+00 -4.802749e-01 1.604891e-02 3.869689e+00 2.909055e+00 -6.768310e-02 -7.039356e-03 1.627825e-01 -3.067127e-01 -4.320375e-01 3.054644e-01 2.252453e+00 8.976143e-01 -3.170652e-01 -8.260505e-01 2.788308e-01 7.533784e-01 3.323426e-01 -4.811394e-03 
-1.293249e-01 6.748973e+00 6.944306e+00 7.824251e+00 6.322919e+00 7.062226e+00 -1.268202e+00 -2.620230e+00 -7.469653e+00 6.355901e-01 -1.013643e+00 4.781192e+00 -5.946481e-02 -3.353160e-01 -1.733143e-01 -5.493914e-01 -1.248637e+00 -1.657539e-01 2.506371e+00 -1.399007e-01 -1.050796e+00 6.540276e-01 6.768672e-02 -3.595929e-01 -2.751234e-01 -8.017099e-03 
-1.356878e-01 5.333557e+00 5.428598e+00 8.477169e+00 5.334966e+00 8.399607e+00 5.417073e+00 5.334265e+00 -1.714819e+00 2.101405e+00 5.278070e-01 3.856882e+00 -6.666327e-02 -3.118114e-01 -3.263162e-01 -1.084930e+00 -6.549445e-01 -6.532907e-01 3.608843e-01 -1.142156e+00 -7.391672e-01 7.262002e-01 2.876039e-01 -8.655645e-01 -8.953356e-01 -4.915762e-03 
-5.924397e-01 5.084132e+00 6.336767e+00 5.684398e+00 2.603565e+00 5.637259e+00 -4.720261e-01 1.526224e+00 -6.152146e-01 1.706727e+00 -2.706075e+00 -1.754492e+00 -9.225142e-02 -5.129393e-01 -2.774655e-01 -7.137842e-01 -1.069276e-01 1.791466e-01 -1.023237e+00 7.315394e-01 4.659421e-01 1.056932e+00 -7.605011e-01 3.172364e-02 -4.775554e-01 -7.319307e-03 
-2.168133e+00 3.197659e+00 3.393854e+00 9.159904e+00 4.300836e+00 1.308559e+00 -2.343418e+00 -3.142965e-02 -2.764933e-01 9.184999e-01 3.880823e-01 1.700219e+00 -7.586861e-02 -6.582865e-01 4.703212e-02 -7.677725e-01 -5.880786e-01 8.559374e-01 -6.767601e-01 -5.202876e-01 -1.369389e+00 -8.652151e-01 -1.063644e+00 3.990401e-01 1.520324e-01 -6.132102e-03 
-1.677799e+00 6.429595e+00 4.392757e+00 6.948246e+00 7.735717e+00 5.491568e+00 6.269741e+00 2.392328e+00 -2.904154e+00 -2.575463e+00 -7.851622e-01 3.471747e+00 -9.145868e-02 -6.187779e-01 3.726958e-01 -6.544099e-01 -4.642486e-01 8.883175e-01 -7.212914e-01 -9.275793e-01 -1.689967e+00 -5.479089e-01 7.965398e-03 1.389443e+00 1.241436e+00 -4.555202e-03 
-2.884440e+00 4.895987e+00 2.561741e+00 4.904852e+00 7.048576e+00 5.088652e+00 -5.552480e-01 -1.945734e+00 -4.896424e+00 -1.075720e+00 1.562551e+00 2.003924e+00 -9.772015e-02 -3.035294e-01 5.583898e-01 -4.006235e-01 -8.157167e-01 7.212431e-01 9.290323e-01 -1.612478e+00 -9.846599e-01 6.273510e-01 1.615639e+00 6.213067e-01 4.861473e-01 -3.912819e-03 
-3.328176e+00 6.098447e+00 3.480774e+00 5.490681e+00 5.671282e+00 1.407552e-01 -6.004008e+00 -5.966458e+00 -1.044794e+00 2.743664e+00 3.653907e+00 4.300836e+00 -1.041017e-01 -3.006276e-01 -3.162431e-01 -1.958531e-03 -9.659390e-02 -3.958226e-01 -4.370151e-02 -1.874054e+00 -6.302042e-01 1.687451e+00 1.313959e+00 2.850308e-02 -5.140035e-01 -3.777444e-03 
-2.860592e+00 6.155182e+00 1.846728e+00 5.810102e+00 8.939269e+00 8.629127e+00 -4.268931e+00 -7.753360e-01 1.930582e+00 6.337131e+00 1.275081e+00 3.716410e+00 -8.911121e-02 -1.017924e-01 2.204590e-01 5.059043e-01 5.167043e-01 -5.956358e-01 -2.271841e-01 6.583799e-01 1.599929e+00 2.100305e+00 6.605521e-01 -1.228241e+00 -1.429366e+00 -1.803637e-05 
-3.192862e+00 4.218781e+00 4.740471e+00 6.012651e+00 4.811258e+00 3.502823e+00 -1.243687e+00 -1.343892e+00 2.119596e+00 2.879059e-01 -4.989121e-01 4.548669e-02 -1.146504e-01 -4.294430e-01 8.930948e-02 5.317009e-01 4.041815e-01 1.897453e-01 2.912801e-01 2.633858e+00 2.971187e+00 6.563914e-01 -5.704576e-01 -1.285955e+00 -2.049819e+00 6.518483e-04 
-3.461060e+00 6.938114e+00 4.461414e+00 7.227388e+00 4.500410e+00 2.271698e+00 3.564905e-01 3.742629e+00 4.022903e+00 3.454920e+00 -2.502247e+00 -3.015233e+00 -9.253597e-02 -6.611425e-01 1.931440e-01 6.061879e-01 2.775979e-01 3.828518e-01 -6.433467e-01 2.433926e+00 2.278604e+00 -2.407751e-01 -8.964725e-01 -4.712861e-01 -1.522562e+00 -4.517317e-04 
-5.175157e+00 6.153528e+00 4.831935e+00 6.802945e+00 8.839437e+00 4.775869e+00 4.852570e+00 6.630492e+00 1.191003e+00 1.332481e+00 -8.872035e-01 -2.582436e+00 -9.913003e-02 -5.678687e-01 3.084908e-01 5.534511e-02 1.156144e-01 1.239539e+00 5.050265e-01 1.668859e+00 1.883663e+00 -4.689087e-01 -3.328872e-03 8.384609e-02 -4.823049e-01 2.444661e-03 
