-1.212940e+01 2.087504e+00 -2.735853e+00 -9.835423e-01 7.069454e+00 1.022451e+00 1.225962e+00 8.017729e+00 9.196192e+00 6.617443e+00 3.327215e-01 8.014649e+00 -1.512927e-01 1.778870e-02 1.760523e-01 9.540726e-01 1.370090e+00 4.450158e-01 -2.066278e-01 3.332150e-01 4.759029e-01 -3.488325e-01 2.186789e-02 -5.369521e-01 -8.627270e-01 7.643223e-04 
-1.189429e+01 1.788771e+00 -1.358124e+00 3.185433e+00 8.653522e+00 2.168969e+00 5.985950e+00 1.007429e+01 8.226851e+00 7.000767e+00 -4.313030e+00 5.390128e+00 -1.512927e-01 -4.529705e-02 2.484091e-01 8.154890e-01 6.182927e-01 5.148438e-01 1.318555e-01 7.043561e-01 1.072908e+00 5.081172e-01 1.495015e+00 9.457912e-01 2.612172e-01 1.643062e-03 
-1.215801e+01 3.117133e+00 1.345645e+00 3.782422e+00 8.502500e+00 -5.839466e-01 5.120422e-01 9.368962e+00 7.936699e+00 6.535120e+00 -2.916330e-02 5.013275e+00 -1.474711e-01 -3.206831e-01 1.825827e-02 3.205908e-01 -6.903356e-01 -2.279521e-01 5.944225e-01 5.240506e-01 1.237831e+00 -6.348457e-02 1.488252e+00 1.842253e+00 5.312504e-01 1.955152e-03 
-1.234158e+01 2.814736e+00 -6.991572e-01 -2.750609e-01 8.927151e+00 2.484928e+00 5.104702e+00 1.270665e+01 1.236652e+01 1.413368e+01 5.242620e+00 1.082142e+01 -1.449882e-01 -1.996052e-01 -2.044404e-01 -6.486687e-01 -1.751460e+00 -4.059070e-01 7.442496e-01 -3.742252e-01 1.046027e+00 1.828295e-01 5.797452e-01 1.979654e+00 1.007731e-01 2.801895e-04 
-1.350917e+01 1.665813e+00 -1.462383e+00 -2.704973e+00 5.792879e+00 3.836584e+00 4.286839e+00 1.289070e+01 6.808932e+00 1.049224e+01 4.766162e+00 7.955254e+00 -1.446692e-01 2.711716e-02 -6.495627e-01 -6.896771e-01 -1.433218e+00 -4.710743e-01 5.602041e-01 -2.051899e-01 1.181879e+00 3.821566e-01 -1.774509e-01 7.172111e-01 8.461203e-02 -1.394773e-03 
-1.221673e+01 1.492229e+00 -3.197454e+00 -2.328168e+00 7.978797e+00 3.679952e+00 2.227426e+00 1.354356e+01 9.704882e+00 7.920930e+00 3.187578e+00 4.423004e+00 -1.512927e-01 2.608904e-01 -3.939995e-01 -3.046380e-01 -3.123650e-01 -6.458210e-01 -2.362300e-01 -1.409359e+00 -2.718692e-01 -1.590129e-01 -1.771668e+00 -1.377158e+00 -1.095803e+00 -1.923251e-03 
-1.208485e+01 5.305731e-01 -8.535925e-01 -2.357114e+00 6.621305e+00 1.619562e+00 9.247307e-01 1.485991e+01 1.117830e+01 8.754240e+00 4.584414e+00 8.635544e+00 -1.512927e-01 1.247927e-01 -2.870634e-01 -5.091289e-01 -1.567492e-01 -6.073500e-01 -1.027684e+00 -1.383251e+00 -8.510588e-01 6.660277e-01 -9.691043e-01 -2.050843e+00 1.130488e-01 -1.324701e-03 
-1.174929e+01 1.412358e+00 -2.526742e+00 -2.010816e+00 5.283834e+00 2.412288e+00 -2.610410e-01 1.036270e+01 9.386773e+00 6.144341e+00 -1.552295e+00 5.002263e+00 -1.512927e-01 -2.211275e-01 2.016144e-01 2.029708e-01 1.312864e+00 -6.069761e-01 -2.323675e-03 5.173248e-01 -1.314583e+00 1.429021e-02 -8.124435e-02 -1.108817e+00 6.238050e-01 1.016521e-03 
-1.311893e+01 2.704314e-01 -4.343383e+00 -3.647396e+00 4.103611e+00 -6.680071e-01 -1.385183e+00 1.022583e+01 1.029812e+01 6.535018e+00 -3.118117e+00 8.230868e+00 -1.512927e-01 -3.664736e-01 6.152889e-01 1.503079e-01 1.297919e+00 1.983070e-01 -2.358311e-01 2.966190e-01 -1.633246e+00 -7.463700e-01 -1.525220e-01 -3.598346e-01 -6.602535e-02 5.082607e-04 
-1.280533e+01 2.630372e+00 -4.377044e-01 4.881293e+00 6.202764e+00 4.812118e+00 5.969007e+00 9.287676e+00 1.021642e+01 8.624320e+00 1.494759e+00 7.744367e+00 -1.462101e-01 -1.144714e-01 6.077098e-01 7.508401e-01 1.053859e+00 1.072628e-01 1.841404e-01 1.183601e+00 -2.576878e-01 -4.367033e-01 1.108999e+00 1.716974e+00 9.272847e-01 0.000000e+00 
-1.338919e+01 2.998011e+00 -1.146572e+00 6.864269e-01 7.153375e+00 -7.595078e-01 -7.071980e-01 7.231191e+00 7.031629e+00 6.751641e+00 1.261714e+00 6.934365e+00 -1.512927e-01 4.648840e-01 8.308009e-01 7.210778e-01 3.541082e-01 -8.552227e-02 6.063830e-01 9.902005e-01 2.619076e-03 3.020825e-01 1.004616e+00 1.791678e+00 6.666325e-01 -5.082607e-04 
-1.218651e+01 3.087118e+00 -3.709472e-01 1.091567e+00 4.295265e+00 3.378741e+00 5.317969e+00 1.057159e+01 8.836504e+00 1.158102e+01 4.842658e+00 1.028694e+01 -1.512927e-01 7.240047e-01 1.750249e-01 -3.871327e-01 -1.189578e+00 -3.660820e-01 4.971587e-01 -1.444340e-01 -9.561098e-01 -4.336333e-01 3.083623e-01 -2.081472e-01 -3.588092e-02 -1.016521e-03 
-1.110392e+01 4.196063e+00 -7.713728e-01 1.800895e-02 4.629749e+00 3.080596e+00 3.891338e+00 9.596973e+00 1.249850e+01 1.007975e+01 4.166324e+00 1.029275e+01 -1.512927e-01 7.299448e-01 2.168498e-01 -4.313928e-01 -6.924137e-02 3.243284e-01 3.895860e-01 -5.263885e-01 1.744635e-01 -4.082949e-01 7.766314e-02 -8.264818e-01 -1.142204e+00 1.663399e-03 
-1.032794e+01 2.906470e+00 -2.560967e+00 -7.323860e-01 5.634167e+00 5.377860e+00 2.947568e+00 3.324235e+00 5.314822e+00 8.502079e+00 -9.982819e-01 5.885772e+00 -1.512927e-01 1.482544e-02 -4.216754e-03 4.997715e-02 2.595133e-01 5.063202e-02 -1.427528e+00 -2.360024e+00 -4.183877e-01 -1.399289e+00 -1.014552e+00 -1.482061e+00 -1.851072e+00 8.316993e-04 
-1.066875e+01 4.172584e+00 -2.208526e+00 1.252196e+00 8.105566e+00 1.888630e-01 -2.153940e+00 1.172718e+01 6.750996e+00 8.679430e+00 4.977399e-02 3.423929e+00 -1.429757e-01 -1.539431e-01 1.291054e-01 4.692389e-01 -2.317142e-01 -6.006799e-01 -1.247946e+00 -1.462351e+00 -5.013716e-01 -5.112885e-01 2.551264e-01 -8.999753e-01 -1.672442e+00 0.000000e+00 
-1.232997e+01 3.077774e+00 5.975152e-01 1.772040e+00 2.810517e+00 -2.313030e+00 -3.459514e+00 7.414542e+00 4.713807e+00 7.208421e+00 -5.093703e-01 4.465985e+00 -1.512927e-01 -4.215126e-02 3.606695e-01 7.304923e-01 -3.534855e-01 -9.839851e-01 -1.090640e+00 -8.957130e-01 -8.911116e-01 5.418851e-01 -2.103798e-01 -1.365940e-01 -9.857450e-01 -8.316993e-04 
-1.087262e+01 4.755938e+00 -4.419565e-03 -2.392775e+00 3.038174e+00 6.863114e-01 -2.168765e-01 5.044962e+00 1.024256e+01 1.200221e+01 -5.780085e-01 2.640428e+00 -1.512927e-01 6.037396e-01 1.069162e+00 8.197449e-01 -9.152977e-01 -9.920812e-01 2.320577e-01 -1.790464e-01 -2.272744e+00 -1.078930e+00 -1.032732e+00 -7.471153e-01 -9.701406e-01 -1.618910e-03 
-1.043677e+01 4.418140e+00 -1.055938e-02 -6.773278e-01 3.247937e+00 -3.240633e-01 -2.499529e+00 2.209787e+00 6.278465e+00 5.788792e+00 -1.367361e+00 1.348798e+00 -1.512927e-01 1.645470e+00 2.126385e+00 1.676132e+00 4.412786e-01 1.892083e-02 -4.061812e-01 -1.026230e+00 -2.054091e+00 -2.378668e+00 -2.851625e+00 -2.278417e+00 -4.754163e-01 1.439612e-02 
-8.596655e+00 8.848210e+00 2.194235e+00 -2.099608e+00 2.926450e+00 3.546679e-01 -3.529165e+00 2.965839e+00 5.740142e-01 4.225586e+00 -3.256807e+00 1.318192e-01 -1.510702e-01 3.888155e+00 2.513774e+00 1.534161e+00 5.542795e-01 -9.248220e-01 -2.634165e+00 -1.847101e+00 -1.970011e+00 -3.891465e+00 -3.224492e+00 -2.597181e+00 -1.382991e+00 8.725752e-02 
-5.240600e+00 1.166356e+01 7.878850e+00 3.831849e+00 2.960983e+00 -4.178115e+00 -6.934518e+00 -1.816351e+00 -2.345260e+00 -3.161396e+00 -1.056205e+01 3.343208e+00 -7.942331e-02 6.006468e+00 1.793232e+00 1.301355e+00 -4.625800e-01 -4.167958e+00 -3.429454e+00 2.908640e-02 -4.168437e+00 -5.228415e+00 -4.803587e-01 -8.732287e-01 -1.410879e+00 1.828456e-01 
5.970075e+00 1.370210e+01 3.721679e+00 -1.875966e+00 -1.442459e+00 -1.055749e+01 -7.234885e+00 -2.792025e+00 -4.902899e+00 3.548427e-01 -8.966569e+00 -5.271734e+00 2.490602e-01 5.745267e+00 -7.796559e-01 2.897287e-01 -9.670561e-01 -6.628554e+00 -2.492479e+00 1.854694e+00 -4.948466e+00 -5.855779e+00 8.078826e-01 1.109385e+00 -1.026544e+00 2.069998e-01 
1.231221e+01 1.095736e+01 5.732492e+00 -3.102049e+00 -1.540740e+01 -1.201526e+01 -5.012368e-01 -1.575347e+01 -1.712515e+01 5.322370e+00 -2.878623e+00 -3.003823e+00 5.628701e-01 3.856103e+00 -1.958931e+00 -1.474143e-01 -9.794132e-01 -6.295419e+00 -4.660639e-01 2.543587e+00 -2.889484e+00 -4.759407e+00 1.500961e+00 2.649546e+00 -7.267634e-01 1.683354e-01 
1.135328e+01 5.303033e+00 4.716058e+00 -3.467940e+00 -2.103213e+01 -8.189156e+00 2.527664e+00 -1.480793e+01 -2.131493e+01 4.023116e+00 -1.551599e+00 -1.827384e+00 5.627819e-01 6.418254e-01 -2.347255e+00 3.913975e-02 5.946410e-01 -3.866935e+00 -1.619412e-01 1.709902e+00 -1.584125e+00 -2.732139e+00 -7.998770e-01 1.738896e+00 -9.597540e-01 7.954185e-02 
1.134831e+01 6.068440e+00 6.644589e+00 -2.692297e-01 -1.872128e+01 -7.692599e+00 9.021443e-01 -1.025582e+01 -1.793628e+01 2.509272e+00 -1.021809e+00 -2.012784e+00 6.053929e-01 -6.942559e-01 -1.561069e+00 -4.495550e-01 9.979303e-01 7.575989e-04 -1.352278e+00 -1.788907e-01 1.105940e+00 5.083815e-01 -2.387221e+00 2.738784e-01 -2.460149e+00 2.422659e-02 
9.661149e+00 4.410284e+00 3.461329e+00 -3.191704e-01 -1.912019e+01 -1.352852e+01 6.129355e-01 -1.346147e+01 -1.815804e+01 -2.237994e+00 -1.200497e+00 -1.056602e+01 6.255081e-01 -7.507382e-01 -1.666654e+00 -1.210255e+00 8.458077e-01 1.734312e+00 -2.094540e+00 -2.945831e+00 3.523111e-01 3.378284e+00 -3.495372e+00 -4.389660e-01 -3.435165e+00 2.760672e-02 
9.686995e+00 3.598387e+00 4.112081e+00 3.132179e-01 -1.635958e+01 -1.610696e+01 -4.383262e-01 -1.089700e+01 -1.616169e+01 -3.483179e+00 -1.684782e+00 -1.093525e+01 6.526400e-01 -8.871769e-01 -3.620570e+00 -1.935088e+00 -1.183029e+00 1.889331e+00 -1.024531e+00 -4.355224e+00 3.103874e+00 6.253196e+00 -4.212965e+00 -1.128132e+00 -2.378440e+00 4.042766e-02 
8.430248e+00 -1.795212e+00 -6.896219e-02 4.698751e-01 -1.354142e+01 -1.445468e+01 -1.153125e+01 -1.272578e+01 -5.310803e+00 -1.045752e+01 -3.414942e+00 -1.454198e+01 6.771920e-01 -1.071468e+00 -4.659685e+00 -2.044271e+00 -1.805076e+00 2.156896e+00 2.029836e+00 -3.075457e+00 5.548910e+00 7.665707e+00 -3.861199e+00 -1.939830e+00 6.071863e-01 6.918199e-02 
7.527881e+00 -8.931662e+00 -1.265704e+00 -6.578898e+00 -1.206401e+01 -1.235218e+01 -1.480188e+01 4.895708e+00 6.906092e+00 -1.444579e+01 -5.555244e+00 -1.191701e+01 7.816893e-01 -1.360099e+00 -4.580035e+00 -2.485263e+00 -1.326039e+00 2.412369e+00 3.427733e+00 -8.046017e-01 4.931511e+00 6.034059e+00 -3.062392e+00 -2.081343e+00 1.365068e+00 8.531097e-02 
5.383367e+00 -1.262312e+01 -4.071132e+00 -5.898494e+00 -1.048350e+01 -5.256732e+00 -7.582573e+00 6.386721e+00 8.636604e+00 -1.606268e+01 -8.964417e+00 -7.039214e+00 9.068934e-01 -1.115673e+00 -3.093956e+00 -2.199062e+00 -6.077479e-01 2.387862e+00 3.827354e+00 1.753787e+00 2.070257e+00 3.101096e+00 -1.247220e+00 -1.933063e+00 1.886539e+00 8.052585e-02 
4.409942e+00 -1.388784e+01 -6.313150e+00 -3.132792e+00 -5.826694e+00 -3.567271e+00 -6.435675e+00 4.204303e+00 7.034896e+00 -1.599256e+01 -9.316758e+00 -7.861290e+00 9.643442e-01 -7.014439e-01 -1.364205e+00 -2.374573e+00 7.155596e-01 2.253885e+00 3.738420e+00 1.672665e+00 -3.575057e+00 1.455631e+00 -3.111116e-01 -1.229109e+00 1.190949e+00 5.054852e-02 
4.410850e+00 -1.478691e+01 -8.540551e+00 -4.291918e+00 -4.720770e+00 2.896435e-01 -6.945422e+00 -2.028793e+00 1.013027e+01 -1.592023e+01 -1.119950e+01 -7.137137e+00 9.884937e-01 3.362166e-02 -4.876301e-01 -1.884660e+00 9.692431e-02 2.293841e+00 2.878230e+00 -1.849401e-01 -4.850800e+00 1.892488e+00 1.537373e-01 -8.491097e-02 6.398782e-01 1.999189e-02 
4.506920e+00 -1.467079e+01 -1.090386e+01 -3.804389e+00 -3.675951e+00 3.566735e+00 -6.757132e+00 -8.771817e+00 1.343742e+01 -1.607257e+01 -1.058325e+01 -5.913301e+00 9.936317e-01 2.489820e-01 -2.182795e-01 -1.516049e+00 -9.206684e-01 2.160119e+00 1.750968e+00 -4.084300e-01 -4.747968e+00 1.492277e+00 2.996151e-01 5.806713e-01 6.383389e-01 6.566686e-03 
5.502986e+00 -1.466979e+01 -1.119908e+01 -5.078074e+00 -8.966684e-02 5.567413e+00 -8.346545e+00 -1.137922e+01 1.489779e+01 -1.525399e+01 -8.755727e+00 -4.813818e+00 9.922091e-01 1.275215e-01 -9.076538e-02 -9.322896e-01 -1.185200e+00 2.432917e+00 6.146833e-01 5.066027e-02 -3.157741e+00 -2.759805e-01 4.654898e-01 1.870161e+00 1.755708e-01 2.470076e-03 
5.108784e+00 -1.503779e+01 -1.256413e+01 -7.343056e+00 2.658347e+00 2.548683e+00 -7.777264e+00 -1.486032e+01 1.211252e+01 -1.482760e+01 -7.635287e+00 -5.831255e+00 9.953200e-01 1.409254e-01 1.234589e-01 -3.814586e-01 -1.153583e+00 2.565829e+00 2.658138e-02 7.631594e-01 -1.097521e+00 -1.616771e+00 1.073058e+00 2.415617e+00 6.536846e-02 1.064050e-03 
4.747525e+00 -1.505723e+01 -1.237186e+01 -8.448583e+00 4.276666e+00 3.872086e+00 -6.182055e+00 -1.477325e+01 9.412817e+00 -1.421527e+01 -3.322675e+00 -6.300306e+00 1.000000e+00 1.755277e-01 2.331923e-01 -2.375524e-01 -9.457895e-01 2.149576e+00 -3.844010e-01 1.678382e+00 -2.023666e-01 -2.116697e+00 1.090782e+00 2.238385e+00 2.016371e-01 -1.314378e-03 
5.589277e+00 -1.385978e+01 -1.222476e+01 -7.887052e+00 6.970026e+00 4.547305e+00 -4.023580e+00 -1.256241e+01 8.096045e+00 -1.122664e+01 -1.221692e+00 -4.843215e+00 9.950565e-01 3.256326e-01 1.808212e-01 3.489609e-02 -7.769940e-01 1.285802e+00 4.502451e-02 1.606683e+00 5.943243e-01 -1.627859e+00 4.402722e-01 1.965992e+00 4.972306e-01 -6.960714e-03 
6.140378e+00 -1.409284e+01 -1.255653e+01 -9.535023e+00 8.502373e+00 2.646097e+00 -1.831476e+00 -1.354001e+01 6.322541e+00 -1.160056e+01 -7.705973e-01 -4.299653e+00 9.857689e-01 4.549989e-01 5.331020e-02 1.512575e-02 -4.810977e-01 6.160742e-01 -1.989598e-02 1.492164e+00 8.893301e-01 -7.438959e-01 6.161731e-01 1.087019e+00 7.453403e-01 -1.122119e-02 
6.040521e+00 -1.461588e+01 -1.229732e+01 -1.068481e+01 6.974504e+00 3.386800e+00 -1.919139e+00 -1.250532e+01 5.518368e+00 -1.393360e+01 9.186355e-01 -4.345429e+00 9.676319e-01 4.591423e-01 -3.145409e-01 2.118404e-01 -3.625767e-01 -7.319145e-02 -1.258643e-01 8.150877e-01 1.007853e+00 2.834616e-01 8.400631e-01 4.842497e-01 3.672083e-01 -7.620215e-03 
6.796899e+00 -1.441263e+01 -1.225996e+01 -9.455194e+00 7.354798e+00 4.352859e+00 2.265440e-01 -1.035514e+01 6.982176e+00 -9.780924e+00 1.042256e+00 -2.822497e+00 9.576063e-01 5.780416e-01 -2.991917e-01 7.756806e-03 5.695636e-01 -7.087122e-01 -9.497814e-02 8.370940e-02 1.213250e+00 1.038316e+00 1.657473e+00 6.071610e-02 2.868381e-01 -4.534441e-03 
7.556728e+00 -1.527259e+01 -1.131384e+01 -9.739849e+00 7.177856e+00 3.064603e+00 -9.771519e-01 -9.115579e+00 9.183536e+00 -7.936143e+00 2.931298e-01 -3.745751e+00 9.710367e-01 8.391470e-01 -2.949921e-01 -3.344623e-01 1.559291e+00 -9.035238e-01 -3.724600e-01 -2.878690e-03 3.693498e-01 1.897570e+00 1.851265e+00 -1.920125e-01 4.973530e-01 -3.404510e-03 
8.272481e+00 -1.526044e+01 -1.300948e+01 -7.159683e+00 4.857135e+00 2.332305e+00 -1.883923e+00 -9.168629e+00 9.681536e+00 -6.311920e+00 -1.542639e-01 -3.165301e+00 9.613943e-01 7.418767e-01 -3.029056e-01 -2.511521e-01 1.512892e+00 -9.652696e-01 -6.589592e-01 -6.572940e-01 1.121389e-01 1.084919e+00 1.532353e+00 -9.746674e-01 7.727036e-01 -8.371925e-03 
9.498465e+00 -1.566693e+01 -1.359487e+01 -4.036108e+00 3.705717e+00 2.534777e+00 -8.782986e-01 -1.125183e+01 1.365654e+01 -6.411775e+00 5.568327e-01 -1.687262e+00 9.487154e-01 4.470502e-01 2.877170e-01 2.036323e-01 1.406527e+00 -1.185196e+00 8.949804e-01 -1.676135e+00 1.104435e+00 4.089571e-01 9.332188e-01 -6.217254e-01 5.924489e-01 -2.430401e-02 
9.535414e+00 -1.572998e+01 -1.237520e+01 -4.742603e+00 4.264520e+00 1.322976e+00 -3.109353e+00 -8.726322e+00 1.017027e+01 -2.881343e+00 -3.962932e+00 1.177692e-02 9.269074e-01 1.242507e-01 6.728427e-01 8.796918e-01 4.375471e-01 -2.879066e-01 5.046911e-01 -1.960601e+00 1.719171e+00 2.688522e-01 5.823116e-02 -1.251824e+00 6.427609e-01 -3.603480e-02 
9.160513e+00 -1.359923e+01 -1.061282e+01 -3.915756e+00 1.548185e+00 8.044169e+00 -8.745113e+00 -3.814558e+00 1.098395e+01 -4.985338e+00 -9.111630e-01 -2.372045e+00 8.667601e-01 -4.539130e-01 6.788341e-01 1.001435e+00 8.592514e-01 -2.835407e-01 -1.166675e+00 -8.919263e-01 1.923371e+00 -1.056354e-01 -7.355801e-01 -1.623904e+00 3.425393e-01 -3.995093e-02 
9.062710e+00 -1.293008e+01 -1.010205e+01 -5.032124e+00 4.496368e+00 2.101064e+00 -7.753520e+00 -4.291409e+00 1.236209e+01 -6.733983e+00 -5.679389e+00 3.908954e-01 8.221979e-01 -1.052480e+00 -1.177920e-01 1.698634e+00 1.876792e+00 -1.395299e+00 -2.249954e+00 6.532937e-01 2.130598e+00 -1.852061e-01 -1.664107e+00 -8.110255e-01 1.566854e-01 -2.909107e-02 
7.465251e+00 -1.367271e+01 -9.724273e+00 4.049096e-01 2.172089e+00 -3.687644e+00 -3.015846e+00 -3.852428e+00 1.203245e+01 -8.163357e+00 -6.704460e+00 -1.641250e-01 8.013155e-01 -1.230855e+00 -6.984450e-01 1.904026e+00 2.043510e+00 -2.150323e+00 -2.864062e+00 1.561351e+00 3.202030e+00 -1.425244e+00 -1.827139e+00 -3.906793e-01 2.212434e-02 -1.993120e-02 
5.120646e+00 -1.628220e+01 -4.326308e+00 2.481024e+00 -3.023926e+00 -4.060887e+00 -2.707518e+00 1.945604e+00 8.719992e+00 -9.612867e+00 -5.121411e+00 -3.087559e-01 8.141744e-01 -6.271779e-01 4.731215e-01 2.204843e+00 2.154948e+00 -4.240333e+00 -1.221090e+00 1.668204e+00 3.671559e+00 -2.352291e+00 -2.044036e+00 8.726485e-01 -6.338037e-01 -3.206433e-02 
4.977270e+00 -1.541540e+01 -3.980557e+00 2.545221e+00 -5.443282e+00 -3.195166e+00 -3.461360e+00 9.077086e+00 5.678780e+00 -1.268159e+01 -3.143548e+00 -1.911598e+00 7.711159e-01 -7.288744e-02 2.960735e+00 3.520028e+00 -9.558603e-01 -5.330567e+00 1.175322e+00 1.950379e+00 2.804429e+00 -2.699879e+00 -1.640184e+00 1.464007e+00 -1.565142e-01 -5.756377e-02 
7.170812e+00 -9.693132e+00 -1.949689e+00 4.672461e+00 -1.289761e+01 -4.250625e+00 8.102554e-01 7.601627e+00 3.777469e+00 -1.469504e+01 -3.096602e+00 -1.904387e+00 6.769761e-01 1.957438e-01 4.441046e+00 3.696936e+00 -2.098591e+00 -5.157160e+00 2.211187e+00 1.590156e+00 9.470077e-01 -2.668545e+00 -7.453095e-01 1.255659e+00 -4.342365e-03 -6.733419e-02 
6.075731e+00 -2.163575e+00 6.687557e+00 -5.470111e+00 -1.954391e+01 2.283833e+00 4.977160e+00 7.341703e+00 1.004317e+00 -1.382319e+01 -3.968282e-01 -1.488805e-01 5.820957e-01 1.703933e-01 4.217597e+00 4.352233e+00 -2.567206e+00 -4.448165e+00 2.717270e+00 1.061591e+00 -5.188689e-02 -3.717131e+00 1.320543e+00 1.263560e+00 5.844179e-01 -6.416242e-02 
5.550134e+00 -7.028801e-01 8.824313e+00 -4.004265e+00 -2.175941e+01 4.255550e+00 1.024000e+00 7.548334e+00 -2.285504e+00 -1.276862e+01 -2.164739e-01 -1.211826e+00 5.720135e-01 2.851155e-01 3.011448e+00 3.032256e+00 -2.522388e+00 -9.874153e-02 1.892974e+00 -1.094277e+00 -3.384457e-01 -3.974153e+00 1.947691e+00 1.986939e+00 1.183346e+00 -6.529544e-02 
6.639575e+00 1.177460e+00 1.239361e+01 -5.952445e+00 -2.325321e+01 6.138098e+00 1.739725e+00 8.844298e+00 -9.875390e+00 -7.042093e+00 1.734190e+00 6.642118e-01 5.027851e-01 1.255194e+00 2.797657e+00 -2.709465e-02 4.383228e-01 2.837556e+00 -1.067663e+00 -8.044240e-01 -3.219562e+00 -4.998382e+00 3.975891e+00 3.014984e+00 -5.986980e-01 -5.316326e-02 
8.314466e+00 3.693590e+00 1.035857e+01 -7.698313e+00 -1.153666e+01 3.287110e+00 -3.042413e+00 5.158101e+00 -1.065344e+01 -8.347137e+00 5.772586e+00 3.605798e+00 3.901542e-01 1.567684e+00 3.408127e+00 -1.101198e+00 1.393574e+00 4.232568e+00 -2.887167e+00 -2.004843e-01 -5.554573e+00 -3.733171e+00 5.123466e+00 2.756269e+00 -8.745699e-01 -4.089256e-02 
1.096953e+01 9.626472e+00 5.784957e+00 -1.431473e+00 -1.046750e+01 -2.570263e+00 2.988247e+00 -7.560991e+00 -1.980362e+01 3.845527e+00 1.168356e+01 -5.551182e+00 4.072091e-01 5.913214e-01 2.620759e+00 -2.188130e+00 2.131299e+00 3.942249e+00 -2.427087e+00 4.961289e-01 -5.174844e+00 -1.706587e+00 4.178495e+00 5.825626e-01 -1.973914e+00 -3.143916e-02 
1.122357e+01 1.211325e+01 6.622649e+00 7.031186e-01 -6.989430e+00 -5.826104e+00 -6.026828e-01 -1.202189e+01 -1.598724e+01 7.404905e+00 8.590186e+00 -2.476979e+00 4.153387e-01 -7.166641e-01 1.730137e+00 -1.166707e+00 1.786941e+00 2.033149e+00 -7.372497e-01 1.686408e+00 -2.278529e+00 -7.125143e-01 2.326189e+00 -1.661030e+00 -2.001827e+00 -2.538672e-02 
8.141628e+00 1.007142e+01 3.320917e+00 5.033331e-01 -5.815578e+00 -1.440730e+00 3.000504e+00 -8.439930e+00 -1.574142e+01 5.974360e+00 3.238202e+00 -6.163969e+00 3.329970e-01 -1.606770e+00 2.951508e-01 -4.536011e-01 1.106566e+00 2.240357e+00 7.363237e-01 1.122610e+00 6.261622e-01 8.609991e-01 -1.495804e+00 -3.618932e+00 2.284494e-01 -3.482896e-02 
6.145098e+00 1.212180e+01 5.757050e+00 2.689869e-01 -3.696880e+00 -9.639045e-01 5.383499e+00 -5.795075e+00 -1.624712e+01 2.219392e+00 1.690116e+00 -6.096945e+00 3.003266e-01 -1.525053e+00 -4.769490e-01 -5.022997e-01 1.711107e+00 2.295247e+00 2.931348e-01 2.473126e-01 9.146943e-01 -1.747612e-01 -2.843846e+00 -4.022912e+00 -4.063579e-01 -2.576207e-02 
5.474921e+00 1.109795e+01 3.949751e+00 4.318421e+00 -9.119897e-01 -1.319744e+00 5.608208e+00 -7.543586e+00 -1.536869e+01 -1.040738e+00 -2.961058e+00 -2.598952e+00 2.905703e-01 -1.134580e+00 -5.629829e-01 4.541231e-01 2.015000e+00 2.252568e+00 1.476336e-01 -1.561995e+00 -7.172585e-01 -4.485359e-01 -2.398427e+00 -2.536876e+00 -3.058249e-01 -1.602440e-02 
4.931662e+00 9.215240e+00 3.796733e+00 7.351111e+00 2.035009e+00 -4.420922e+00 -6.699716e-01 -7.896586e+00 -1.704742e+01 -3.306777e+00 -8.424743e+00 -6.291276e+00 3.077417e-01 -1.033482e+00 -1.088434e+00 8.432762e-01 1.934608e+00 1.327913e+00 4.012412e-01 -2.147048e+00 -1.829036e+00 -7.012977e-02 -4.684368e-01 -2.520586e-01 -2.874422e-02 -3.281624e-02 
3.075447e+00 8.709789e+00 6.571691e+00 7.037271e+00 2.581317e+00 1.025947e+00 -1.782733e+00 -1.097547e+01 -1.758395e+01 -3.254694e+00 -4.388749e+00 -7.595928e+00 2.491675e-01 -1.247105e+00 -1.325722e+00 5.085067e-01 6.681981e-01 8.573996e-01 9.038492e-01 -5.687184e-01 -8.814249e-01 -2.240189e-01 4.062360e-01 1.949786e+00 1.500634e+00 -6.619924e-02 
2.177423e+00 7.873707e+00 8.662461e+00 8.582601e+00 1.196034e+00 -1.305441e-01 -1.656271e+00 -1.322432e+01 -1.549013e+01 9.841857e-01 1.143668e+00 -3.742178e+00 1.569468e-01 -1.680893e+00 -1.354312e+00 -6.844846e-01 -3.009358e-01 1.288011e+00 1.551648e+00 1.746686e+00 2.166378e+00 1.114595e+00 1.770582e+00 3.753787e+00 3.475351e+00 -8.943115e-02 
6.165166e-01 5.140108e+00 4.059420e+00 7.043667e+00 3.794496e+00 1.054313e+00 3.257766e+00 -9.286845e+00 -1.726743e+01 -1.155039e+00 2.003669e+00 3.629671e+00 3.497154e-02 -1.393431e+00 -8.048153e-01 -1.380481e+00 -1.079066e+00 1.190627e+00 1.168163e+00 2.912025e+00 4.358869e+00 1.927608e+00 2.644045e+00 2.969945e+00 3.696664e+00 -7.816958e-02 
-2.243337e+00 4.228518e+00 1.630446e+00 5.843234e+00 7.868476e+00 3.323137e+00 5.543211e+00 2.090995e+00 -1.163270e+01 4.496307e+00 7.147985e+00 5.472677e+00 -3.231609e-02 -9.958153e-01 -2.278628e-01 -4.812112e-01 -7.993249e-01 4.571579e-01 1.336305e+00 2.554394e+00 4.744308e+00 1.908722e+00 1.552248e+00 1.734507e+00 1.901398e+00 -4.835263e-02 
-1.681327e+00 6.508307e+00 3.185296e+00 3.011626e+00 5.198230e+00 5.139920e+00 9.177653e+00 3.161219e+00 -9.874627e+00 8.209471e+00 7.458818e+00 6.279967e+00 -4.704893e-02 -4.906559e-01 2.122750e-01 8.775047e-01 1.127066e-01 -8.025600e-01 5.523142e-01 1.375815e+00 2.276632e+00 2.022857e+00 1.460911e+00 1.594909e+00 -1.801034e-01 -1.301949e-02 
-1.652731e+00 6.050294e+00 6.693467e+00 6.601996e+00 2.779957e+00 4.508175e+00 8.155755e+00 4.273191e+00 -9.642924e+00 4.063169e+00 7.088628e+00 4.439664e+00 -4.380608e-02 2.096099e-01 2.513884e-01 3.865675e-01 -2.960525e-01 -1.524598e+00 -3.598007e-01 1.168862e-01 -1.032945e+00 5.572435e-01 5.726002e-01 -4.167922e-01 -2.033307e+00 2.889168e-03 
-2.132066e+00 5.290596e+00 5.915433e+00 7.227818e+00 2.325956e+00 3.223365e+00 8.830568e+00 1.005216e+00 -8.148032e+00 6.366083e+00 1.000789e+01 3.245660e+00 -2.438092e-02 -9.181547e-03 -2.701388e-01 -1.493537e-01 -3.051046e-01 8.786942e-02 -8.723243e-01 -5.335186e-01 9.015007e-02 8.745939e-01 3.011975e-01 -1.100092e+00 -3.091163e+00 2.972043e-03 
-9.699183e-01 6.094316e+00 2.198215e+00 2.254875e+00 1.681626e+00 2.482411e+00 6.301185e+00 -1.995729e+00 -9.709783e+00 8.281002e+00 3.789488e+00 -3.176704e+00 -2.920425e-02 -1.233879e-01 -1.690196e-01 -7.174600e-01 -1.250913e+00 7.393811e-01 -6.106487e-01 -1.185295e+00 -1.437215e-01 6.971136e-01 -5.019296e-01 -1.813343e+00 -2.286390e+00 -6.207216e-03 
-2.068642e+00 5.135602e+00 4.686154e+00 3.659664e+00 6.186743e+00 1.791181e+00 7.437345e+00 6.746430e+00 -5.468228e+00 7.606542e+00 3.607926e+00 -5.367664e+00 -3.948963e-02 -2.257415e-01 -1.453654e-01 -2.106650e-01 -9.535219e-01 -1.262727e-01 -1.261238e-01 -1.632734e+00 1.308355e+00 3.797508e-01 -4.632744e-01 -1.484603e+00 -6.986039e-01 -1.009862e-02 
-2.301383e+00 5.282693e+00 3.720807e+00 2.131510e+00 4.546469e+00 2.171024e+00 2.925889e+00 6.839767e-01 -7.497258e+00 9.332919e-01 1.221895e+00 -2.685621e+00 -6.728780e-02 -6.442284e-01 -4.441044e-01 5.430721e-01 -3.627566e-01 -6.498316e-01 8.343501e-02 -8.851297e-01 1.287210e+00 4.308710e-01 -4.855348e-01 9.043907e-01 1.769333e+00 -1.086400e-02 
-2.595041e+00 4.969581e+00 4.100812e+00 2.521892e+00 2.621708e-01 2.748440e+00 2.354544e+00 6.207138e+00 -7.355540e+00 7.723566e+00 3.868673e+00 -4.929008e-01 -5.583227e-02 -3.115708e-01 2.033365e-03 7.568366e-01 3.821893e-01 -6.160221e-01 2.319731e-01 -8.258566e-01 4.835434e-01 1.060012e+00 8.953535e-01 1.242707e+00 2.621475e+00 -8.417213e-03 
-3.927861e+00 3.956804e+00 5.206246e+00 1.009979e+00 1.394754e+00 2.420957e+00 4.416936e+00 4.709968e+00 -6.611772e+00 5.794816e+00 8.181069e+00 3.232581e+00 -7.535291e-02 8.654241e-02 6.417652e-01 1.505936e+00 1.454500e+00 4.392353e-01 3.418638e-01 1.228776e+00 1.943256e+00 2.632690e+00 2.051813e+00 8.867776e-01 6.568030e-01 4.279065e-03 
-2.813257e+00 5.808713e+00 7.727617e+00 6.131376e+00 4.682489e+00 2.826079e+00 2.562539e+00 7.151152e+00 -6.109095e-01 9.652548e+00 6.341875e+00 4.780611e+00 -7.754314e-02 -9.927988e-02 7.731674e-01 1.205371e+00 1.871125e+00 1.188576e+00 -1.175509e+00 2.919583e-02 -3.543279e-01 1.424348e+00 1.241370e+00 -3.284886e-01 4.094013e-01 -6.878853e-04 
-1.759563e+00 8.071953e+00 9.437084e+00 7.599270e+00 4.532486e+00 3.841523e+00 8.965770e+00 9.928248e+00 2.293879e+00 1.022787e+01 4.419181e+00 -2.038362e+00 -3.503704e-02 -9.466581e-02 6.839991e-01 6.802009e-01 1.806122e+00 9.703342e-01 -5.383396e-01 -4.277965e-01 -6.252846e-01 2.472089e-01 1.354709e+00 -1.386709e-01 5.515646e-01 -2.180326e-03 
-4.175589e+00 6.777843e+00 8.012247e+00 8.582869e+00 4.636187e+00 -3.839387e+00 2.261068e-01 1.826358e+00 -4.686625e+00 1.171389e+01 4.107173e+00 4.189577e+00 -7.942963e-02 -4.902124e-01 -3.694986e-01 -2.950422e-01 2.471199e-01 -1.415526e-01 -5.450495e-01 -2.331662e-02 -7.930663e-01 -7.783461e-01 -2.199602e-03 6.366944e-01 7.397552e-01 -7.101429e-03 
-3.720024e+00 6.892234e+00 8.464936e+00 8.814844e+00 6.269577e+00 3.061992e+00 3.446170e+00 4.245942e+00 -3.337870e+00 1.153769e+01 8.605065e+00 6.285921e+00 -8.531129e-02 -6.641213e-01 -2.228457e-01 -5.729797e-01 -9.538666e-01 -8.304103e-01 -2.858563e-01 -6.567882e-01 -1.837678e-01 -6.165136e-01 -2.454494e+00 -2.743357e-01 1.621820e+00 -1.142555e-02 
-4.284089e+00 4.551079e+00 6.738480e+00 6.759189e+00 3.106181e+00 4.905971e-01 5.205755e+00 6.026973e+00 -1.686766e+00 8.986637e+00 7.432405e+00 4.317245e+00 -8.791316e-02 1.507463e-02 3.300121e-01 -2.791242e-01 -1.005129e+00 -6.569449e-01 6.821771e-02 -3.359273e-01 6.723578e-01 1.351245e+00 -2.378652e+00 -1.530067e+00 -1.202421e-01 -5.443370e-03 
-5.025919e+00 8.071106e+00 7.209069e+00 3.741777e+00 1.145438e+00 2.472490e-01 3.192004e+00 6.909101e+00 -2.288619e+00 -6.809745e-01 1.384887e+00 6.006906e+00 -8.792305e-02 -9.957103e-02 3.133233e-01 -4.136996e-01 1.050036e-01 2.119308e-01 3.225553e-01 -6.885010e-01 5.380126e-01 1.125592e+00 -7.507659e-01 -1.267269e+00 -2.559322e-01 -4.437494e-03 
-3.447268e+00 7.838468e+00 7.244560e+00 6.093760e+00 3.913532e+00 -2.090927e+00 -1.326447e+00 3.856567e+00 1.544975e+00 5.929963e+00 6.692815e-02 3.727874e+00 -1.053406e-01 -4.537459e-01 -1.624885e-02 -8.340691e-01 9.821920e-01 1.315321e+00 1.300948e+00 -3.079938e-01 -1.536886e-01 4.998296e-01 6.087229e-01 -9.074930e-01 -7.921484e-01 -4.050291e-03 
-4.636289e+00 6.815157e+00 6.143398e+00 9.672577e+00 6.925555e+00 5.965530e+00 3.269766e+00 8.021208e+00 6.742215e-01 9.312198e+00 5.951460e+00 5.300946e+00 -9.878504e-02 -6.730875e-01 -9.732127e-01 -1.115284e+00 1.137548e-01 1.073319e+00 3.013267e-01 -5.475216e-01 -8.425614e-01 -3.607636e-01 7.308500e-01 -3.022419e-01 -3.221301e-01 -7.546914e-03 
-6.747633e+00 5.097810e+00 3.100971e+00 8.704749e+00 6.792729e+00 4.136197e+00 3.626905e+00 4.702477e+00 -6.690378e-01 7.033666e+00 6.116533e-01 7.094836e-01 -1.027336e-01 -8.692697e-01 -8.765978e-01 -9.519182e-01 -1.284493e+00 4.646865e-02 -5.862716e-01 -6.683713e-01 -8.914323e-01 -1.272046e+00 -1.390785e+00 -7.281370e-01 4.959658e-01 -7.141709e-03 
-6.741174e+00 4.575371e+00 3.704445e+00 3.005057e+00 5.072435e+00 -1.359680e+00 -2.022280e+00 2.273340e+00 -2.985431e+00 2.421424e+00 -3.986846e-01 5.905451e+00 -1.269611e-01 -4.203311e-01 -5.002009e-01 -4.274431e-01 -1.903473e+00 -5.426534e-01 -2.014630e+00 -1.623328e+00 -1.392487e+00 -9.635698e-01 -1.839379e+00 -1.371063e+00 6.404977e-01 -8.057964e-03 
