-8.317204e+00 4.187645e+00 2.285928e+00 5.493490e+00 1.744407e+00 2.605826e+00 5.786551e-01 -1.510212e+00 -5.554374e+00 5.352028e+00 1.879641e+00 4.319374e+00 -1.390713e-01 2.017509e-01 5.351652e-01 -7.487088e-01 -7.667271e-01 -1.795578e-01 -1.368560e+00 -1.180401e+00 -5.857313e-01 4.830517e-01 -1.369404e+00 -2.698248e-01 2.032747e+00 2.558947e-03 
-8.238733e+00 5.393482e+00 5.943871e-01 2.353165e+00 1.964944e+00 -2.025789e-01 -1.155055e-02 -1.475386e+00 -1.502770e+00 1.379360e+00 -1.315942e+00 1.464840e+01 -1.389602e-01 -1.896377e-01 2.998973e-01 -1.001470e+00 -1.187227e+00 -5.780649e-01 -1.427951e+00 -1.418646e+00 -1.283517e+00 7.247539e-02 -1.201046e+00 -1.495146e-02 1.127892e+00 5.933046e-03 
-7.347684e+00 6.260552e+00 -6.118456e-01 3.230017e+00 7.363503e-01 -2.832773e+00 -5.028245e+00 -4.456283e+00 -5.164918e+00 4.913435e-01 2.128309e+00 9.318596e+00 -1.263322e-01 -2.273671e-01 -8.125786e-02 -2.035662e-01 -3.023280e-01 -2.023797e-01 -7.615999e-01 -5.155790e-01 1.577445e-01 1.103571e+00 -7.694820e-02 -4.065944e-01 -8.026878e-01 4.791880e-03 
-9.750152e+00 4.650678e+00 -1.272534e+00 6.890929e-01 -6.418884e-01 -1.814628e+00 -3.711124e+00 -6.454761e+00 -5.386725e+00 1.777142e+00 1.680550e+00 7.459224e+00 -1.157757e-01 -3.016572e-01 -2.847928e-01 5.084373e-01 9.330603e-01 1.081016e+00 2.065881e-01 7.084677e-01 7.757956e-01 -2.191946e-01 2.216968e-01 3.110137e-01 -1.523208e+00 3.981960e-03 
-8.698330e+00 4.152758e+00 2.201558e+00 4.813886e+00 2.035924e+00 -3.961493e-01 -1.494530e-01 1.768198e+00 1.905457e+00 4.768396e+00 -1.651577e+00 3.900524e+00 -1.267042e-01 -2.266388e-02 -4.774707e-01 9.245204e-01 1.265643e+00 1.471240e+00 3.084054e-01 5.457689e-01 1.316779e+00 8.264867e-01 -7.599013e-01 1.177863e-01 9.684284e-01 -5.989075e-05 
-9.071696e+00 5.023416e+00 1.729872e+00 6.226532e+00 6.720235e+00 -3.879505e-01 1.091392e+00 -7.086480e-01 -6.133931e+00 3.493178e-01 2.129069e+00 9.741397e+00 -1.188644e-01 5.571374e-01 5.114328e-01 1.297364e+00 9.940751e-02 1.053319e+00 -3.053910e-01 -4.197597e-01 -4.057278e-01 2.372701e-02 -8.751931e-01 4.542043e-01 4.694722e-01 -3.164148e-03 
-7.800231e+00 3.686830e+00 2.509553e+00 6.789515e+00 4.411489e+00 -2.004085e+00 -4.700659e+00 -7.454411e-01 -6.588814e-01 -2.594251e+00 2.492981e+00 1.301965e+01 -1.250873e-01 2.612324e-01 7.409683e-01 4.886348e-01 -5.008802e-01 -5.447940e-01 -6.802770e-01 -6.089065e-01 -7.633379e-01 -3.955682e-01 -6.387252e-01 4.696950e-01 -2.497428e-01 -2.107000e-03 
-7.413514e+00 7.440805e+00 5.060285e+00 1.983159e-01 3.436923e+00 -2.537615e+00 -3.534320e+00 -7.226581e+00 -3.985921e+00 1.082500e+00 1.879292e+00 5.247021e+00 -1.324049e-01 -2.206795e-01 -1.910472e-01 -3.483415e-01 -4.541920e-01 -1.272814e+00 1.303148e-01 -3.246982e-01 3.676834e-01 1.615826e+00 1.158693e+00 3.509749e-01 -2.932954e-01 -3.580010e-03 
-8.221259e+00 6.648905e+00 2.979525e+00 5.323593e+00 9.536107e-01 -2.722703e+00 -8.811296e-01 1.210474e+00 -1.146389e+00 1.208179e+00 8.217865e-01 4.898998e+00 -1.304690e-01 -7.021006e-01 -5.303458e-01 -1.499622e+00 2.664327e-01 3.007923e-01 2.091103e+00 1.310345e+00 8.893902e-01 1.682229e+00 2.170965e+00 2.494411e-01 5.936403e-01 -9.085179e-04 
-9.964580e+00 2.587142e+00 -2.468212e-01 4.688533e+00 2.085103e+00 6.229324e-01 -2.441863e+00 1.518114e-01 2.188951e+00 4.241567e+00 4.719541e+00 1.233525e+01 -1.340736e-01 -4.350134e-01 -6.595396e-01 -8.987085e-01 1.455713e+00 7.121119e-01 1.813027e+00 1.418055e+00 1.734242e+00 1.651671e+00 8.435354e-02 2.924441e-01 1.785667e+00 2.546310e-04 
-1.003520e+01 3.461933e+00 -2.335002e+00 5.876569e+00 6.591360e+00 6.871155e+00 1.304836e+00 1.231420e-02 4.664829e+00 6.681038e+00 2.320062e+00 1.244374e+01 -1.287955e-01 -1.512998e-01 6.660242e-02 2.790335e-01 1.830001e-01 1.775532e-01 1.315374e+00 1.601062e+00 -9.673147e-02 -1.129727e+00 -4.346734e-01 1.882315e-01 4.968102e-01 4.815280e-03 
-8.681610e+00 5.736594e+00 3.224007e+00 7.200392e+00 4.178608e+00 1.730590e+00 2.462975e+00 2.043709e+00 1.366827e+00 -1.232162e+00 2.592375e+00 1.040298e+01 -1.319685e-01 2.125107e-01 5.620124e-01 1.135998e+00 -1.350880e-03 3.000152e-01 6.407368e-01 5.693105e-01 -3.693080e-01 -1.160330e+00 -6.594202e-01 -1.213040e+00 -8.586556e-01 2.288294e-03 
-9.619243e+00 5.407191e+00 2.639278e+00 4.982664e+00 7.946243e-01 3.300341e+00 4.671763e+00 -2.191316e-01 -6.383960e+00 1.771677e+00 2.826527e+00 8.349180e+00 -1.074451e-01 1.223086e-01 -2.560319e-01 6.800828e-02 -1.064475e-01 -3.822862e-01 -4.966985e-01 -4.779047e-01 -4.498504e-01 -1.436168e+00 -1.571033e+00 -6.431228e-01 -1.142037e+00 -4.948974e-04 
-9.110005e+00 4.424575e+00 2.946031e+00 5.128732e+00 6.483547e+00 5.612023e+00 -1.278774e+00 -1.579006e+00 1.911694e+00 3.399147e+00 -1.598893e+00 1.008925e+01 -1.333073e-01 -1.701132e-01 -1.114025e+00 -1.406099e+00 -7.449113e-01 -1.555472e-01 -6.340200e-01 -2.587595e-02 -1.001512e+00 -2.790906e-01 5.242368e-01 -2.437995e-01 -1.205131e+00 3.937769e-03 
-9.209460e+00 2.837782e+00 -1.855973e+00 6.380162e+00 3.527460e+00 2.446946e+00 7.861865e-01 -4.255805e-01 -2.788445e+00 -3.489782e+00 1.200082e+00 6.890425e+00 -1.306006e-01 5.568634e-01 -8.072828e-01 -1.724796e+00 -1.433399e+00 -1.050594e+00 -2.339435e+00 -7.665297e-01 -6.889656e-01 7.490359e-01 1.150554e+00 5.937773e-01 -1.101438e+00 2.824068e-04 
-9.737067e+00 1.451175e+00 -1.558862e+00 2.777086e+00 2.034454e+00 -1.012813e+00 4.276383e+00 -2.860629e+00 -1.826383e+00 4.019752e+00 2.186600e+00 5.106707e+00 -1.007019e-01 2.687478e-01 1.002485e-01 -1.208737e+00 -2.352121e+00 -2.348024e+00 -2.903091e+00 5.171793e-02 -4.029467e-02 1.166921e-01 1.201504e+00 8.111445e-01 -6.398066e-01 1.904743e-02 
-6.521395e+00 2.857477e+00 -3.732256e+00 -1.008508e+00 -2.233797e+00 -5.084418e+00 -1.938465e+00 -3.023148e+00 -7.697419e-01 7.214147e+00 3.902667e+00 5.333261e+00 -1.223358e-01 -1.031187e+00 -1.251125e+00 1.843477e+00 -1.892319e+00 -2.297585e+00 -7.590877e-01 -7.321720e-01 -2.623126e-01 3.342176e-01 1.445792e+00 3.160083e-01 9.039611e-01 4.613755e-02 
-9.110299e+00 4.915970e+00 -2.159510e+00 -2.937539e+00 -2.375944e+00 -5.137749e+00 3.421410e-01 -4.816953e-01 1.485803e+00 4.054703e+00 1.105537e+00 7.668797e+00 -4.220259e-02 -1.408067e+00 -1.493019e+00 2.410268e+00 2.521790e-01 -7.852655e-01 1.267914e+00 1.931502e-01 1.845636e+00 1.012236e+00 -2.203207e-01 1.836921e-01 1.978255e+00 2.552210e-02 
-1.467878e+01 -5.150238e+00 7.661739e+00 -2.241210e-01 -5.755269e+00 7.139750e-01 -9.075526e-01 -2.926610e+00 -2.773450e+00 3.721700e+00 3.320655e+00 1.012918e+01 7.083750e-02 -2.204136e+00 -1.332568e+00 2.645044e+00 7.181204e-01 2.544230e+00 2.944507e+00 2.062210e+00 4.012420e+00 1.494171e+00 9.274519e-01 1.317341e-01 1.120980e+00 5.192801e-02 
-1.269871e+01 -2.010062e+00 4.795480e+00 3.645788e+00 -1.311374e-01 2.427560e+00 4.726678e+00 6.319280e+00 4.236651e+00 4.664371e+00 3.396066e+00 1.260002e+01 -6.967807e-02 -2.015868e+00 -6.756460e-01 1.786863e+00 6.134275e-01 3.772465e+00 1.806260e+00 3.005309e-01 2.587328e+00 2.476311e-03 1.037194e+00 -1.057669e+00 -2.905941e-01 7.844726e-02 
-1.574787e+01 -3.423481e-01 6.015468e+00 -7.095691e-01 9.364950e+00 5.855465e+00 6.180315e+00 1.363846e+01 5.325688e+00 1.154657e+01 3.416073e+00 8.472548e+00 1.510420e-01 -2.561470e-01 -5.760913e-02 2.322398e-01 1.009384e+00 3.501925e+00 -3.105949e-01 9.706339e-01 1.420197e+00 2.136974e+00 -3.138105e-01 -2.565131e+00 -2.964050e+00 7.511245e-02 
-1.865509e+01 -8.662050e-01 7.597939e+00 3.723230e-01 8.926273e+00 1.322807e+00 -1.699139e+00 4.172410e+00 -2.551385e+00 5.328239e+00 -4.230518e+00 7.044146e+00 3.099315e-01 -5.470200e-02 -1.682093e+00 -1.392427e-02 1.081788e+00 -2.210359e-01 -1.224766e+00 -4.009380e-02 -5.085937e-01 1.085133e+00 -2.403320e+00 -3.678603e+00 -3.397237e+00 8.529375e-02 
-1.298132e+01 -6.010212e+00 7.421709e+00 6.459529e+00 7.225648e+00 -2.866230e-01 7.158525e+00 5.247812e+00 1.130544e+01 1.820714e+00 -5.691707e+00 -1.913129e+00 2.565950e-01 3.078930e-01 -2.064140e+00 -1.420935e+00 1.662061e+00 -2.835036e+00 -1.338144e+00 -1.202747e-01 2.304483e-01 7.326487e-01 -3.560421e+00 -2.151769e+00 -1.422567e+00 4.591525e-02 
-1.435549e+01 -7.586594e+00 4.022738e+00 5.470180e+00 -1.666656e-01 -6.252269e-01 4.037104e+00 7.971636e+00 6.672443e+00 -2.489300e+00 -1.044306e+01 8.066702e-01 3.040142e-01 -7.047787e-01 -3.069638e+00 -2.904332e+00 1.213678e-01 -2.645996e+00 -1.936353e+00 2.685689e+00 3.886134e+00 2.378880e+00 -1.032815e+00 -6.381742e-01 3.763053e-01 7.543629e-02 
-1.635820e+01 -7.302852e+00 6.983904e-01 5.051808e+00 -2.637594e-01 1.387631e-01 2.710820e+00 1.289109e+01 4.377018e+00 -2.346765e+00 -4.236502e+00 4.478452e+00 3.835769e-01 -7.779543e-01 -2.188859e+00 -3.971818e+00 -3.550589e+00 -1.706936e+00 -4.188380e+00 1.824193e+00 5.703798e-01 -2.750798e-01 1.557039e+00 3.849926e-01 2.458893e+00 8.660954e-02 
-2.049055e+01 -1.556808e+01 -3.562063e+00 1.683023e+00 -5.590012e-01 -8.571651e+00 1.395316e+01 1.978144e+01 1.280722e+01 2.247904e+00 -8.148991e+00 5.729881e+00 6.236219e-01 2.951376e+00 -2.129709e+00 -4.530686e+00 -4.596727e+00 -1.207566e+00 -2.008941e+00 1.133430e+00 -1.832264e+00 2.980333e-01 1.674106e+00 1.089642e+00 2.855178e-01 2.051895e-02 
-1.380357e+01 -1.296377e+01 -8.644982e+00 -9.399837e+00 -1.112863e+00 -1.725531e+01 1.132146e+01 2.194809e+00 6.862651e+00 7.237309e+00 -4.913776e+00 7.919730e+00 5.298388e-01 3.886180e+00 3.434494e-01 -3.588104e+00 -3.692495e+00 -2.126026e+00 9.345907e-01 2.878454e+00 -2.253230e+00 7.975879e-02 -8.722740e-01 -2.351517e+00 -1.421005e+00 -7.379045e-02 
-8.759298e-01 -1.540468e+01 -1.395901e+01 -1.028763e+01 -5.779944e+00 -1.972895e+00 5.398931e+00 4.158455e+00 6.919793e+00 1.089191e+00 -4.656207e+00 5.136199e-01 3.334780e-01 3.310336e+00 3.943546e+00 -1.093652e+00 -1.042523e+00 -6.683121e-01 5.225236e+00 2.204245e-01 -9.720298e-01 -1.818133e+00 -2.884623e+00 -1.499358e+00 -1.863251e+00 -1.765507e-01 
-6.734611e+00 -5.667303e+00 -1.204366e+01 -7.425338e+00 -8.283417e+00 1.512339e+00 2.138021e+01 9.436431e+00 7.719527e+00 -6.128778e+00 -1.774048e+01 -1.844072e-02 1.596966e-01 2.934730e+00 1.586867e+00 2.205951e+00 4.326743e-01 1.481431e+00 4.495815e+00 -2.278397e+00 7.187223e-01 -1.798155e+00 -2.608799e+00 -5.091109e-01 -2.038656e+00 -4.027678e-02 
-7.473344e+00 5.014229e-01 -7.330986e+00 -4.516840e+00 -3.152845e-01 8.170706e+00 1.002591e+01 1.130048e+01 3.288122e+00 -5.492167e+00 -9.232431e+00 3.827114e-01 -7.406032e-02 2.442019e+00 -5.234742e-01 3.714366e+00 -4.903163e-01 2.636342e+00 3.014908e-01 -4.147382e+00 -7.757021e-01 -2.152571e+00 -3.476880e-01 1.222035e+00 -1.570074e+00 1.254942e-01 
4.168793e+00 -1.298248e+01 -9.292382e-01 -1.012186e+01 3.561964e+00 1.519612e-01 -2.384010e+00 2.217410e+00 -3.122878e-01 -2.516009e+00 -5.171218e+00 -2.208094e+00 5.322241e-01 4.292227e+00 -3.228500e+00 2.194469e+00 -1.623436e+00 1.959097e+00 -1.689319e+00 -6.247996e+00 -2.694772e+00 -1.945184e+00 4.220181e-01 3.277480e+00 -2.614776e+00 2.279116e-01 
5.882463e+00 -1.436446e+01 -9.443842e-01 -1.139095e+01 1.479074e+00 2.147478e-01 -3.455873e+00 3.889456e+00 1.728441e-01 -2.455634e+00 -4.830663e+00 -6.241924e+00 7.746851e-01 3.161651e+00 -3.276471e+00 -1.538220e-01 -2.227927e+00 -3.615842e-01 -3.391471e+00 -2.406288e+00 -3.003938e+00 -4.649116e-01 -1.079898e+00 7.590834e-01 -3.354187e+00 2.422642e-01 
8.048619e+00 -1.437686e+01 -4.264611e+00 -1.210546e+01 6.148877e-01 -2.956278e+00 -3.118885e+00 -3.319162e-01 -4.487549e-01 -5.536955e+00 -3.553962e+00 -9.780005e+00 8.748820e-01 4.140764e-01 -5.039908e-01 -1.211949e+00 -1.182911e+00 -1.528267e+00 -2.317043e+00 7.217005e-01 -2.146928e+00 -1.061082e-01 -2.174989e+00 -1.170502e-01 -2.537704e+00 1.081971e-01 
6.394997e+00 -1.518374e+01 -6.432409e+00 -1.466467e+01 -6.496675e-01 -7.232533e+00 -1.638091e+00 -2.444551e+00 1.031797e+00 -9.381183e+00 -6.245643e+00 -1.260227e+01 9.659319e-01 4.774356e-03 -4.432699e-01 -7.892178e-01 -8.884179e-01 -1.719411e+00 -2.518066e+00 8.037159e-01 -2.588386e+00 -8.041711e-01 -1.970612e+00 -1.114232e+00 -1.530828e+00 5.083642e-02 
5.982909e+00 -1.509280e+01 -4.244973e+00 -1.439956e+01 -3.014998e+00 -7.709615e+00 3.156016e-01 -5.350228e+00 -1.272305e+00 -9.928181e+00 -5.048979e+00 -1.171644e+01 9.775860e-01 -4.369373e-02 -4.519196e-01 -1.974258e-01 2.218960e-01 -7.024401e-01 -1.988074e+00 7.194018e-02 -8.410261e-01 -6.274041e-01 -8.420192e-01 -1.117903e+00 -2.345091e-01 2.552587e-02 
6.939190e+00 -1.622284e+01 -4.900292e+00 -1.468600e+01 -5.303036e+00 -9.998915e+00 -1.154536e+00 -6.543320e+00 -3.436236e+00 -1.011308e+01 -9.654316e+00 -1.292785e+01 9.775152e-01 4.888972e-01 8.118057e-02 -8.534570e-02 1.171337e+00 -5.306586e-01 -8.058618e-01 -4.833240e-01 2.368699e-01 -4.378993e-01 1.422329e-02 -2.802456e-01 -9.404278e-02 7.584423e-03 
7.558053e+00 -1.611691e+01 -6.017798e+00 -1.098532e+01 -5.706289e-01 -1.151346e+01 -3.000961e+00 -2.487663e+00 -1.351759e+00 -9.381102e+00 -7.439140e+00 -1.078976e+01 9.967197e-01 2.325214e-01 2.014395e-01 -3.719876e-01 1.380192e+00 -9.483760e-01 1.832847e-01 -1.028690e+00 3.786198e-01 9.805726e-01 -6.543180e-01 2.576973e-01 -7.751681e-01 6.159997e-03 
8.051910e+00 -1.426578e+01 -5.972724e+00 -1.051511e+01 -4.525146e+00 -9.359921e+00 -2.396430e+00 -2.691484e+00 -1.117972e+00 -9.583606e+00 -6.451791e+00 -1.353582e+01 9.942871e-01 2.191655e-01 7.092970e-01 -1.543349e-01 1.407240e+00 -5.010269e-01 6.897075e-01 -8.842053e-02 5.416210e-01 1.597792e+00 -4.404032e-01 1.129417e+00 -3.433342e-02 3.446662e-03 
6.589156e+00 -1.506413e+01 -5.568695e+00 -9.584042e+00 -8.145823e+00 -7.112688e+00 -4.206901e+00 -5.383047e+00 2.471426e+00 -1.346451e+01 -5.361756e+00 -1.528830e+01 1.000000e+00 -6.246882e-02 8.498358e-01 -2.430191e-01 5.756835e-01 -1.195805e+00 5.972065e-01 3.569212e-01 -5.612940e-01 1.437506e+00 -1.083479e+00 8.235208e-01 -6.505997e-01 -1.205707e-03 
8.519466e+00 -1.320275e+01 -5.896519e+00 -8.350434e+00 -4.020573e+00 -8.750762e+00 -9.936689e-01 -2.387523e+00 2.641133e+00 -1.027339e+01 -5.045924e+00 -1.085025e+01 9.931084e-01 1.003973e-01 8.920601e-01 -2.460111e-01 5.431449e-01 -4.252615e-02 4.197839e-01 6.498699e-01 -3.453718e-01 1.529255e+00 -7.471619e-01 1.191275e+00 8.960152e-02 -3.114653e-03 
7.011931e+00 -1.239925e+01 -7.270997e+00 -9.189239e+00 -6.801941e+00 -8.832005e+00 -1.917735e+00 -5.446114e+00 3.956218e+00 -1.445360e+01 -4.024469e+00 -1.538555e+01 9.912806e-01 7.719849e-02 9.499087e-01 -6.981592e-01 3.096334e-01 -4.148467e-01 9.665656e-02 3.307047e-01 -5.762239e-01 4.038602e-01 -6.728106e-01 1.142233e+00 -5.646712e-01 -5.857074e-03 
8.342508e+00 -1.113792e+01 -6.351629e+00 -7.996784e+00 -5.409718e+00 -6.401344e+00 -2.916628e-01 -4.386810e+00 5.785907e+00 -1.282487e+01 -1.164062e+00 -1.303919e+01 9.830736e-01 -6.489682e-02 5.089226e-01 -3.622261e-01 -7.582388e-02 -9.476827e-01 4.092158e-01 -3.335937e-01 -7.258058e-01 1.348733e-01 -9.796242e-01 1.485254e+00 -1.185034e+00 -8.468765e-03 
7.063627e+00 -1.134700e+01 -8.831936e+00 -8.212700e+00 -9.525485e+00 -7.804114e+00 -2.904380e+00 -7.264523e+00 2.918340e+00 -1.555282e+01 -1.591521e+00 -1.701718e+01 9.757320e-01 2.991351e-01 4.060121e-01 -1.245772e-01 -3.864980e-01 -3.760365e-01 8.022799e-02 -5.642484e-01 -6.295957e-02 -6.689216e-01 3.320141e-02 1.165579e+00 -4.467283e-01 -1.333811e-02 
8.169134e+00 -1.118426e+01 -6.927180e+00 -9.217823e+00 -7.397215e+00 -7.218628e+00 -2.168315e+00 -5.107347e+00 3.834438e+00 -1.462190e+01 1.163869e+00 -1.595960e+01 9.585388e-01 5.217181e-01 4.443792e-01 3.084898e-01 -2.088128e-01 -5.151390e-01 4.980955e-01 -7.653147e-01 8.956825e-01 -8.568351e-01 9.636601e-01 1.080284e+00 -3.074860e-01 -1.767309e-02 
8.594294e+00 -1.034602e+01 -7.606107e+00 -1.051121e+01 -7.688375e+00 -8.022223e+00 -3.800652e+00 -5.400642e+00 1.587344e+00 -1.338908e+01 6.394598e-01 -1.615899e+01 9.368574e-01 8.018715e-01 5.287479e-01 7.900383e-01 -3.699808e-02 -2.857858e-01 9.832536e-01 -7.857317e-01 1.499795e+00 -4.122387e-01 1.729848e+00 1.155775e+00 1.344757e-01 -2.006892e-02 
1.018577e+01 -9.416516e+00 -5.422094e+00 -7.891593e+00 -8.903968e+00 -3.801812e+00 -3.670101e+00 -8.403378e-01 2.167229e+00 -9.088440e+00 3.121867e+00 -1.500572e+01 9.141455e-01 5.393190e-01 7.103760e-01 3.254671e-01 1.924839e-02 -1.069693e+00 1.201465e+00 -1.597528e+00 1.154238e+00 -5.697718e-01 1.447478e+00 9.925004e-01 -6.502151e-04 -1.956567e-02 
1.006467e+01 -9.587132e+00 -5.634287e+00 -9.060805e+00 -1.020104e+01 -4.596254e+00 -6.082146e+00 -1.899054e+00 1.690751e+00 -9.670317e+00 3.208355e+00 -1.682174e+01 8.975841e-01 5.045580e-01 7.846867e-01 2.782803e-01 1.344462e-01 -4.059806e-01 9.689417e-01 -1.025604e+00 7.403811e-01 2.817325e-01 1.749987e+00 1.316248e+00 4.754764e-01 -1.661983e-02 
1.013054e+01 -8.011821e+00 -6.285755e+00 -9.846783e+00 -1.148935e+01 -2.924288e+00 -9.015208e+00 -1.086952e+00 9.338757e-01 -9.243896e+00 4.841923e+00 -1.563147e+01 8.803471e-01 3.066020e-01 5.028756e-01 -1.522222e-01 -7.833691e-01 1.002757e-01 -4.370222e-02 -1.557501e+00 -3.432899e-01 1.011368e-01 1.387545e+00 7.691392e-01 3.855114e-01 -1.236953e-02 
1.114470e+01 -7.124932e+00 -5.782876e+00 -8.861382e+00 -8.425587e+00 -3.616276e+00 -6.256115e+00 -1.575430e+00 3.612683e+00 -4.561416e+00 6.360671e+00 -1.346872e+01 8.706574e-01 4.742472e-01 7.770816e-01 4.971595e-02 -3.328777e-01 2.774156e-01 3.786260e-01 -1.016719e+00 -3.191619e-01 7.653085e-01 2.041747e+00 1.269163e+00 3.772024e-01 -1.123390e-02 
1.117876e+01 -8.133238e+00 -6.108911e+00 -1.190815e+01 -9.290315e+00 -4.510313e+00 -1.137062e+01 -2.718599e+00 1.711947e+00 -4.705163e+00 5.391405e+00 -1.475467e+01 8.657612e-01 5.745226e-01 6.956360e-01 8.979950e-02 -4.709370e-01 3.639942e-01 4.161640e-01 -1.154922e+00 -8.115929e-01 8.821927e-01 2.208956e+00 9.231604e-01 6.077709e-02 -1.203971e-02 
1.191179e+01 -5.641015e+00 -5.474129e+00 -9.694510e+00 -9.913477e+00 -1.910112e+00 -9.988032e+00 -2.679040e+00 5.128258e+00 -1.730950e+00 9.279430e+00 -1.537413e+01 8.487076e-01 5.335156e-01 8.721072e-01 -1.000054e-01 -9.382623e-01 2.954662e-01 8.224022e-01 -2.161217e+00 -6.237186e-01 -4.695881e-01 2.381788e+00 2.714573e-01 4.641350e-01 -1.674103e-02 
1.261961e+01 -5.275599e+00 -5.991130e+00 -1.178490e+01 -8.925433e+00 -1.696550e+00 -1.292386e+01 -4.593111e+00 4.587052e+00 3.856533e-01 7.998346e+00 -1.437488e+01 8.311235e-01 6.859394e-01 1.285708e+00 8.315849e-03 -5.114009e-01 8.552729e-01 1.305157e+00 -1.669858e+00 -2.855723e-01 -1.502831e+00 3.158281e+00 2.730328e-01 9.589618e-01 -2.764295e-02 
1.309185e+01 -4.193215e+00 -6.341793e+00 -1.361432e+01 -7.130696e+00 -9.111458e-01 -1.628558e+01 -3.756768e+00 -1.728100e-01 4.802115e+00 6.414486e+00 -1.133794e+01 8.042711e-01 7.836460e-01 1.927973e+00 -4.572452e-01 -3.749291e-01 1.275287e+00 1.664145e+00 -1.603921e+00 -2.833531e-01 -2.484681e+00 2.359627e+00 -9.151341e-01 1.733740e+00 -4.600265e-02 
1.401843e+01 -2.428600e+00 -5.633500e+00 -1.250525e+01 -6.405340e+00 1.515990e+00 -1.657114e+01 -3.607597e+00 -3.151673e+00 7.819710e+00 8.189041e+00 -1.197796e+01 7.497646e-01 3.793541e-01 1.605109e+00 3.223872e-01 1.686915e+00 2.339586e-01 1.870475e+00 1.787115e-01 3.318399e-01 -2.781888e+00 3.374107e-01 -1.425706e-01 2.447187e+00 -7.059417e-02 
1.513061e+01 2.575349e+00 -7.939170e+00 -1.120898e+01 -4.797088e+00 4.804345e+00 -1.618400e+01 -4.588563e+00 -3.425782e+00 6.350160e+00 4.608412e+00 -7.903896e+00 6.593738e-01 -6.742072e-02 2.262898e+00 4.856483e-01 2.368273e+00 5.034012e-01 1.998726e+00 2.283343e+00 -8.382954e-02 -2.438860e+00 -1.469826e+00 9.714369e-01 1.864304e+00 -9.187044e-02 
1.349700e+01 -6.343348e-01 -3.580505e+00 -4.552996e+00 -8.922444e+00 4.798079e+00 -1.208109e+01 -2.518014e+00 -7.695904e+00 1.298684e+00 8.188530e+00 -3.855972e+00 5.506014e-01 -5.533133e-01 1.650218e+00 1.173610e+00 3.805551e+00 1.788498e+00 1.264042e+00 3.501881e+00 -3.179747e-01 -1.149937e+00 -1.429692e+00 6.242359e-01 2.494567e+00 -1.026405e-01 
1.301547e+01 6.224141e+00 -4.940048e+00 -5.749078e+00 -3.355138e+00 7.441442e+00 -7.113886e+00 -4.720707e+00 -1.009500e+01 7.134984e-01 1.127193e+01 -6.077413e+00 4.445005e-01 -8.585715e-01 1.700922e-01 2.393995e+00 4.064844e+00 3.017934e+00 -1.191789e+00 2.759106e+00 -2.754845e-01 2.895436e-01 5.733821e-01 4.884587e-01 3.426711e+00 -7.956034e-02 
1.230944e+01 3.998094e+00 -1.265011e+00 3.792552e+00 1.816172e+00 6.517652e+00 -3.596794e+00 -5.131399e+00 -5.566751e+00 3.489580e+00 7.978463e+00 -4.183645e-01 3.439989e-01 -9.149065e-01 -6.034230e-01 1.959138e+00 2.641635e+00 3.828028e+00 -1.531628e+00 2.292876e+00 3.408450e-01 2.302752e+00 1.473372e+00 -1.750511e+00 4.292062e+00 -5.163787e-02 
1.143153e+01 1.109595e+00 2.873057e+00 4.942463e+00 4.923273e+00 -2.014387e+00 -6.630620e+00 -4.659293e+00 -3.042641e+00 8.121622e+00 7.155739e+00 7.510854e+00 3.648733e-01 -8.365237e-01 -7.946630e-01 1.516197e+00 3.319366e+00 3.102868e+00 9.913159e-03 3.176768e+00 9.917524e-01 1.233594e+00 1.205216e+00 -1.568231e+00 3.947694e+00 -3.504550e-02 
9.714430e+00 -1.094177e+00 2.308630e+00 3.309408e+00 6.078488e+00 1.867854e+00 -8.583449e-01 -8.444958e-01 2.916785e-01 4.961482e+00 1.494069e+00 1.081020e+01 3.322256e-01 -1.423159e+00 7.284800e-01 3.514902e-01 1.624305e+00 8.932665e-01 1.513025e+00 4.654240e+00 2.448272e+00 -2.516878e-01 -2.370472e-02 -1.420745e+00 -4.057944e-01 -5.291906e-02 
1.013035e+01 4.796962e+00 8.541175e-01 1.108932e+01 1.002804e+01 9.815907e+00 7.400730e+00 -1.905396e+00 -6.856242e+00 6.003628e+00 6.672969e+00 8.046773e+00 2.751597e-01 -2.210936e+00 8.753656e-01 -3.491908e-01 -3.950261e-01 -3.678725e-02 2.773988e+00 4.898464e+00 3.323821e+00 -1.640480e+00 -9.120303e-01 -1.200506e+00 -2.187922e+00 -8.211793e-02 
5.844233e+00 5.796811e+00 1.501909e+00 8.840649e+00 3.730119e+00 8.167631e+00 1.265873e+01 5.733014e+00 -4.918388e+00 4.430054e+00 1.116121e+00 -2.715296e+00 1.242604e-01 -2.304361e+00 3.800785e-01 -9.759221e-01 -6.353486e-01 -1.036718e+00 1.583360e+00 2.695910e+00 2.307647e+00 -5.267087e-01 2.239990e-01 -1.863386e+00 -2.478028e+00 -8.359754e-02 
2.311951e+00 2.040930e+00 1.530463e+00 2.017128e-01 5.913522e+00 8.705666e+00 1.110316e+01 8.671059e+00 -8.640010e+00 3.827185e+00 1.342183e+00 3.333992e+00 5.826622e-02 -1.712905e+00 -1.208673e-01 -5.451129e-02 -1.005338e+00 -9.122246e-01 3.353009e-02 4.591891e-01 6.717597e-01 4.891554e-01 5.626351e-01 -9.064266e-01 -1.049231e+00 -5.740425e-02 
2.101826e+00 2.184232e+00 -2.909153e+00 5.576469e+00 2.952158e+00 1.033978e+01 1.076999e+01 5.405509e+00 -1.449981e+00 7.169699e+00 -5.157466e+00 7.764530e-01 2.268463e-02 -1.274312e-02 1.551085e+00 1.416350e+00 4.165062e-01 -2.184442e-02 -1.365422e-01 -1.422338e+00 -2.652607e+00 3.413096e-01 9.535946e-01 1.377493e+00 1.232058e+00 -8.685279e-03 
3.437032e+00 5.998915e+00 2.787092e+00 7.694722e+00 5.855902e+00 8.897485e+00 1.064105e+01 1.617155e+00 -6.144669e+00 7.446981e+00 5.277630e+00 1.054743e+00 3.892630e-02 6.128541e-01 2.498147e+00 2.186898e+00 1.422201e+00 -1.067258e+00 -2.003254e+00 -2.463361e+00 -3.223157e+00 1.022906e+00 2.232360e-01 4.701184e-01 4.504779e-01 4.177690e-04 
5.217977e+00 1.157324e+01 7.955343e+00 7.176675e+00 3.649707e+00 7.389010e+00 5.778098e+00 -4.003070e+00 -4.459511e+00 7.388129e+00 6.035861e+00 4.584618e+00 9.050399e-02 4.485549e-01 1.793698e+00 1.898916e+00 2.579678e-01 -9.416010e-01 -2.815379e+00 -2.587756e+00 -2.210430e+00 -4.377801e-01 -1.055467e+00 4.989800e-01 6.750637e-01 -1.475233e-03 
3.818146e+00 9.837159e+00 7.032706e+00 6.512614e+00 2.284586e-01 1.647755e-01 1.282302e+00 -2.740439e+00 -2.020714e+00 4.834150e+00 -1.903889e+00 3.682299e+00 2.644539e-02 -5.281590e-02 6.481976e-01 1.398870e-01 -3.604174e-01 -1.151022e+00 -2.160906e+00 -1.738102e+00 -7.428680e-02 6.566049e-01 -1.217607e+00 -1.457657e+00 -5.222495e-01 -1.047579e-02 
4.154044e+00 9.233598e+00 4.462620e+00 7.457362e+00 1.057875e+00 6.292347e-01 2.510579e+00 -3.467846e+00 -5.700859e+00 3.198781e+00 9.281930e-01 2.837994e+00 2.154893e-02 -5.388077e-01 2.694232e-01 -3.245541e-01 1.277918e+00 3.851513e-02 -8.262112e-01 -3.886248e-01 1.527426e+00 6.956877e-01 -9.123605e-01 -1.060850e+00 -1.448651e+00 -1.476422e-02 
3.704919e+00 1.040972e+01 5.232889e+00 5.752292e+00 1.396708e+00 1.472840e+00 3.584298e+00 9.781084e-01 -2.240970e+00 3.453621e+00 5.431813e-01 -6.831923e-01 2.102488e-02 -8.436996e-01 1.453300e-01 -4.375904e-01 9.767153e-01 -2.322035e-01 7.476438e-01 9.658836e-01 1.123883e+00 1.514447e+00 5.429985e-01 8.437775e-01 6.648091e-01 -1.792357e-02 
2.580552e+00 1.263407e+01 7.232481e+00 1.394643e+01 3.258158e+00 2.603922e+00 2.683977e+00 1.774786e+00 -8.709450e-01 3.516590e+00 -4.919251e-01 -4.758902e-01 1.939315e-02 -1.108416e+00 4.367282e-01 3.855982e-01 2.353091e-02 -3.732998e-02 1.442584e+00 3.981773e-01 2.558572e-01 1.074328e+00 9.468957e-01 1.793105e-01 2.208989e+00 -2.147648e-02 
3.863940e-01 8.863571e+00 3.459823e+00 8.151659e+00 -2.032701e+00 2.915651e+00 6.025021e+00 2.576582e-01 3.136565e+00 7.390238e+00 3.025057e+00 8.663287e+00 -6.209457e-02 -6.743256e-01 3.372127e-01 7.101080e-01 4.455275e-01 9.883893e-02 3.203233e-01 -5.127677e-01 -5.486014e-01 -8.201072e-02 8.305159e-01 4.789966e-01 2.761055e+00 -1.430981e-02 
2.712274e-01 1.219032e+01 7.277144e+00 6.375333e+00 2.585929e+00 7.120749e+00 3.281103e+00 -1.828335e+00 -3.017987e+00 5.964951e+00 5.838075e-01 9.209698e+00 -4.427373e-02 -4.977279e-02 5.585474e-01 1.592331e-02 -9.207584e-01 3.346074e-02 -1.404742e+00 -1.755001e+00 2.828158e-01 -8.248690e-01 4.596140e-02 2.336205e-01 1.032665e+00 -1.170286e-02 
1.487953e+00 1.231767e+01 8.761097e+00 1.176548e+01 2.227017e+00 8.160434e-01 7.218957e-01 3.666151e-02 -1.577503e+00 6.382020e+00 2.400298e+00 8.279287e+00 -1.869071e-02 1.444655e-01 9.351482e-01 3.144379e-01 4.134766e-01 1.156269e+00 -1.958496e+00 -2.033080e+00 5.812188e-01 -3.396823e-02 -2.768017e-02 3.376979e-01 -1.274038e+00 -5.116272e-03 
1.780909e+00 1.369976e+01 4.661460e+00 7.535725e+00 1.295603e+00 -3.369983e+00 -3.439465e+00 3.299363e+00 -2.638256e+00 4.250506e+00 9.885570e-01 4.879436e+00 -6.082308e-02 -1.530875e-01 2.998384e-01 9.451361e-02 7.087206e-01 8.458789e-01 -1.502872e+00 -1.306040e+00 -6.801126e-02 1.072054e+00 -9.045242e-01 -7.172915e-01 -1.345789e+00 -8.798540e-03 
3.538809e-01 1.278459e+01 6.339855e+00 9.638845e+00 4.393808e+00 -1.631464e+00 -7.800928e-01 5.999032e-01 2.776858e+00 8.109059e+00 4.511172e+00 4.458229e+00 -7.940125e-02 -6.201826e-01 6.366110e-02 6.588157e-01 -3.171892e-01 7.056776e-01 6.529859e-01 3.012524e-01 -4.761271e-01 -3.442810e-01 -1.476355e+00 -1.945416e+00 -1.347168e+00 -8.247626e-03 
7.282591e-02 1.345605e+01 8.960333e+00 1.098225e+01 5.731928e+00 8.301452e-01 -2.498102e+00 -2.450012e+00 1.651019e-01 5.788102e-01 -4.058087e+00 4.391284e+00 -5.791116e-02 -1.035352e+00 -4.599548e-01 1.048449e+00 4.088829e-01 9.708796e-01 1.770854e+00 2.025232e+00 -5.874678e-01 -9.493707e-01 -1.574594e+00 -1.803100e+00 3.291269e-01 -5.421865e-03 
-7.589183e-01 1.275783e+01 9.905739e+00 8.456267e+00 3.537243e+00 1.980909e+00 1.757477e+00 5.307131e-01 -4.700587e+00 8.360910e-01 -4.803462e+00 1.787523e+00 -6.138480e-02 -1.022843e+00 -8.163154e-01 3.466740e-01 5.133241e-01 9.514427e-01 2.618015e+00 2.523794e+00 1.193920e+00 -5.361235e-01 -1.618128e+00 -9.172361e-01 1.010522e+00 -7.910406e-03 
-2.839450e+00 1.141337e+01 8.120761e+00 1.017143e+01 6.578283e+00 3.678100e+00 5.417910e+00 3.966191e-01 -3.646387e+00 1.401973e-02 -3.369625e+00 7.860424e+00 -9.694064e-02 -6.073692e-01 -8.410299e-01 -4.803887e-01 1.046097e-01 6.378967e-01 1.920344e+00 1.603955e+00 1.558198e+00 1.481250e+00 3.267215e-01 9.084228e-01 8.224732e-01 -1.369269e-02 
-3.304197e+00 9.724351e+00 8.493011e+00 1.261088e+01 8.727844e+00 1.003463e+01 7.880871e+00 5.146189e+00 2.001985e+00 3.008122e-01 -4.192399e-01 7.776270e+00 -9.943855e-02 -1.761510e-01 -5.774673e-01 -7.316763e-01 4.320171e-01 -1.113183e-01 1.561778e+00 1.797348e-01 1.010346e+00 2.402482e+00 5.027868e-01 7.375420e-01 -7.209875e-02 -7.633364e-03 
-1.691381e+00 1.076764e+01 7.264754e+00 9.427995e+00 6.326111e+00 6.405003e+00 2.459977e+00 3.033243e+00 4.220063e+00 2.480057e+00 -1.708084e+00 5.509277e+00 -1.073477e-01 2.073697e-01 -1.814668e-01 -4.607603e-01 -4.894009e-01 -8.982539e-01 3.081344e-01 -9.816002e-01 -9.626044e-02 5.361545e-01 2.636600e-01 3.252994e-01 -1.046062e+00 -2.927780e-05 
-2.213708e+00 1.019336e+01 6.675361e+00 1.098807e+01 3.106737e+00 8.426348e+00 4.135117e+00 4.264133e+00 3.378599e+00 2.117006e+00 -1.946522e+00 2.602603e+00 -9.434807e-02 -2.073523e-01 1.852128e-01 -8.054503e-01 -1.309519e+00 -7.743724e-01 -1.915295e+00 -2.931516e+00 -1.508067e+00 -2.605816e-01 -3.710192e-01 -5.170363e-01 -1.181889e+00 -2.246141e-04 
-2.347846e+00 1.027153e+01 6.725785e+00 8.535829e+00 4.897567e+00 6.022914e+00 2.382786e+00 3.563444e-01 -1.653921e+00 4.242227e-01 -9.794863e-01 5.216947e+00 -9.963226e-02 -2.902520e-01 6.747866e-01 3.935828e-01 -1.069453e+00 -6.103603e-01 -1.374120e+00 -1.088027e+00 -1.202821e+00 -2.463364e-01 -5.126245e-01 -6.593961e-01 -2.098177e-01 1.213741e-03 
-4.012726e+00 1.089847e+01 4.735244e+00 6.509363e+00 5.570254e+00 6.492009e-01 -6.738115e+00 -1.055699e+00 3.636070e+00 -5.263665e-01 -3.368720e+00 2.012989e+00 -1.044194e-01 -2.074660e-01 4.197634e-01 2.123671e-02 -1.114579e+00 -1.702783e-01 -8.236984e-01 8.965063e-03 -5.599052e-01 -5.207338e-01 6.436984e-02 -4.991124e-01 8.373110e-01 -2.733421e-03 
-2.243132e+00 1.378902e+01 1.020273e+01 6.320081e+00 2.042552e+00 3.422977e+00 2.456460e+00 -3.209462e-01 2.859646e+00 1.238621e+00 -4.293965e+00 4.754995e+00 -9.624338e-02 -1.201768e-01 1.587725e-02 -3.057593e-01 -4.011871e-01 -4.316826e-01 4.128444e-01 1.440186e+00 5.752770e-01 -4.773788e-01 5.772890e-01 -3.026840e-01 8.613518e-01 -2.544499e-03 
-3.303395e+00 1.053343e+01 5.043074e+00 6.523049e+00 3.682854e+00 5.607824e+00 4.143106e+00 1.803253e+00 -1.481854e+00 2.031656e+00 -2.784844e+00 7.020133e+00 -1.097096e-01 3.583975e-02 -3.985652e-01 -4.543993e-01 2.303405e-02 -2.134498e-01 1.210209e+00 2.344909e+00 7.842104e-01 -1.457735e+00 5.909081e-01 2.676872e-01 1.227943e+00 -2.404678e-03 
