-8.794931e+00 4.570473e+00 -3.194778e+00 1.456412e+00 -2.206028e+00 -1.547757e+00 7.999042e+00 -8.713484e-02 6.320269e+00 3.588939e+00 9.199036e-01 4.374640e+00 4.718363e-03 2.006191e-01 5.328970e-02 -7.170230e-01 -8.472655e-01 1.247338e+00 6.847707e-01 -7.117742e-01 4.227699e-01 8.819332e-02 1.292624e-01 3.793291e-01 -8.530533e-01 1.692611e-03 
-8.186132e+00 4.864262e+00 -5.321527e+00 4.157093e-01 1.286985e+00 -7.276721e-01 4.339093e+00 -1.060123e-01 5.548700e+00 3.576539e+00 8.609356e-01 3.918888e+00 1.218414e-02 1.897423e-01 2.449604e-02 -9.997259e-01 -9.004933e-01 1.476837e+00 -2.099048e-01 -1.084844e+00 -5.325408e-02 -2.127146e+00 -1.536254e-01 1.014966e+00 -3.689154e-01 -1.571077e-03 
-8.096235e+00 4.690027e+00 -5.716518e+00 -2.259564e+00 2.284156e+00 1.466055e+00 6.270145e+00 2.036154e+00 7.147019e+00 4.241451e+00 2.846034e+00 3.372499e-01 9.448528e-03 7.036152e-02 3.518865e-01 -5.700479e-01 -4.139859e-01 9.130205e-01 2.688525e-01 -6.274031e-02 -2.667831e-01 -2.207504e+00 -2.854621e-01 8.003367e-01 -3.359917e-01 -5.244183e-03 
-8.195568e+00 4.633176e+00 -6.932537e+00 -1.188067e+00 2.933066e+00 -4.104187e+00 3.439269e+00 -1.415049e+00 -4.728838e+00 2.494556e+00 5.031670e+00 4.548758e+00 -5.502105e-03 -2.031128e-01 -2.374451e-02 -2.627730e-01 -4.968323e-01 -1.046925e+00 -1.181107e-02 8.337218e-01 -1.348683e-01 -1.761485e+00 -1.135856e+00 1.062896e+00 2.510979e-01 -3.312516e-03 
-8.438406e+00 6.445449e+00 -5.239512e+00 1.883702e-01 1.536034e+00 1.484763e+00 8.135252e+00 -7.665317e-01 4.215182e-01 2.702620e+00 2.836220e+00 2.379747e+00 -1.265943e-02 -1.690611e-01 2.066150e-01 9.103589e-02 -1.215848e-01 -8.165906e-01 -3.559740e-01 -1.532796e-01 -6.934292e-01 -3.239614e-01 -3.011352e-01 1.584835e-01 -1.256483e-01 -5.690456e-05 
-9.030611e+00 3.867829e+00 -6.873895e+00 -3.292419e+00 -3.573578e+00 -7.960815e-01 7.575149e+00 6.209886e-01 1.040277e-01 -1.333327e+00 6.180321e+00 4.153129e+00 6.675541e-03 1.456528e-02 -1.695571e-01 5.742114e-01 4.219452e-01 2.306325e-01 1.108955e+00 7.677855e-01 -6.668404e-02 1.424485e+00 1.025665e+00 2.884038e-01 -1.229752e-01 4.117304e-03 
-8.524019e+00 6.105776e+00 -5.290661e+00 -1.815312e+00 1.454524e+00 -1.967868e+00 3.435807e+00 -2.449012e+00 3.110780e+00 4.649716e+00 3.064125e+00 -9.317705e-02 3.075182e-03 -8.380966e-02 -3.454662e-01 8.005892e-01 1.542804e+00 1.469847e+00 -3.894537e-02 -5.120551e-01 -8.341320e-01 4.470400e-01 1.226681e+00 8.059152e-01 1.065789e+00 5.004084e-03 
-8.079935e+00 3.955227e+00 -4.035906e+00 1.923500e+00 4.126984e+00 3.166902e+00 9.627919e+00 -9.072297e-01 1.048958e+00 6.649334e+00 6.359736e+00 5.170344e+00 7.217109e-03 1.082500e-01 2.546926e-01 1.317748e+00 2.028802e+00 1.889994e+00 2.513008e-01 -1.597131e-01 -1.110130e+00 1.073853e+00 9.302008e-01 3.551342e-01 7.974499e-01 -3.104806e-05 
-9.332792e+00 4.674418e+00 -2.655560e+00 5.294430e+00 5.034990e+00 -6.914556e-01 4.548592e+00 -4.173082e+00 2.184253e+00 4.844695e+00 6.776089e+00 7.200082e+00 1.209021e-02 6.365433e-02 -8.384323e-02 5.256367e-01 1.030067e+00 1.983971e-01 -2.428027e-01 -6.421876e-02 -7.655580e-01 -4.597991e-01 -1.226207e+00 7.838973e-01 1.896497e+00 -4.391360e-03 
-8.084974e+00 5.856971e+00 -1.602703e+00 3.296718e+00 4.086158e+00 -1.777836e-01 6.220191e+00 -4.067624e+00 5.936553e+00 3.220188e+00 6.100010e+00 4.493749e+00 2.012789e-03 -1.858316e-01 -6.337555e-02 1.060176e-01 -5.893953e-01 -3.938042e-01 -3.492416e-01 -9.874721e-01 -1.043287e+00 1.152490e-01 -1.029538e+00 -9.641504e-01 4.095479e-01 -5.535829e-03 
-8.203228e+00 4.735688e+00 -3.879079e+00 2.648416e+00 2.466922e+00 -1.509538e+00 4.818578e+00 -4.696605e+00 -1.632013e+00 2.332538e-01 7.113474e+00 9.727607e+00 -1.627946e-02 3.364696e-02 1.258002e-01 -1.985522e-01 -1.345033e+00 -6.638751e-01 2.998367e-01 9.855749e-01 4.655748e-01 3.669032e-01 3.019017e-01 -5.948061e-01 -1.211134e+00 -3.851837e-03 
-9.573875e+00 3.607715e+00 -2.894059e+00 2.995309e-01 3.441997e+00 1.829736e+00 4.555566e+00 -5.861905e+00 3.533336e+00 3.807364e+00 1.370291e+00 5.954321e+00 -6.277204e-03 -9.173413e-02 1.590927e-01 2.235899e-01 -6.399997e-01 -5.805308e-01 -6.035773e-01 7.105979e-01 1.733573e+00 1.166988e+00 4.408280e-01 -1.616203e+00 -2.066803e+00 -1.075816e-03 
-8.420107e+00 6.428047e+00 -3.002643e+00 6.785953e-02 2.037695e+00 -1.960316e-01 1.030878e+01 -9.480681e-01 5.220378e+00 6.060615e+00 6.166918e+00 4.141269e-01 -3.023982e-03 1.325350e-01 5.207675e-01 6.843048e-01 3.593924e-01 -1.533456e-01 -4.274226e-01 6.400558e-01 1.094473e+00 1.770733e+00 5.357175e-02 -1.312585e+00 -2.584452e+00 -5.841136e-04 
-8.435205e+00 5.806255e+00 -9.229715e-01 1.386998e+00 1.398118e+00 -3.852423e+00 7.028080e+00 2.725973e+00 8.345300e+00 2.510647e+00 -1.507728e+00 -1.183527e+00 -9.994030e-03 3.165421e-01 2.162267e-01 2.696889e-02 3.784709e-01 -6.698567e-01 -2.532694e-01 -1.023580e-01 -3.719510e-01 5.844207e-02 -7.601285e-01 -1.250354e+00 -7.868547e-01 -1.817381e-03 
-8.109888e+00 6.240255e+00 -1.443098e+00 3.901644e+00 2.722133e+00 -8.055723e-01 6.782599e+00 -3.518180e+00 4.815669e+00 1.149471e+00 1.989557e+00 3.742687e-01 -1.734161e-02 6.714382e-02 -2.116707e-01 -6.051527e-01 -1.634627e-01 -4.598232e-01 5.832478e-01 -4.165716e-01 -1.862566e+00 -1.193003e+00 -1.489846e+00 -1.117173e+00 7.068063e-01 -1.711404e-03 
-8.146275e+00 4.782744e+00 -3.538987e+00 2.749932e-01 -2.495060e-01 8.681590e-01 5.806866e+00 -6.436604e+00 4.027901e+00 2.462294e+00 -2.792797e+00 2.039977e+00 -8.205295e-03 4.968338e-02 2.946396e-01 -5.304293e-01 -8.040453e-01 5.759667e-01 8.716953e-01 -3.977327e-01 -7.663492e-01 -8.020194e-01 -5.296787e-01 5.721780e-01 1.447197e+00 3.083110e-03 
-8.228853e+00 5.881449e+00 -4.720399e+00 -1.934520e-01 5.623910e-01 3.599167e-01 8.836528e+00 -5.679609e+00 1.414060e+00 -1.364440e+00 1.223585e+00 2.336407e+00 -1.247537e-02 7.415581e-03 3.896883e-01 -7.592095e-02 -4.313831e-01 1.327638e+00 -1.687055e-01 -2.647017e-01 1.809030e+00 8.298161e-02 1.080494e-02 1.482085e+00 1.759439e+00 3.279084e-03 
-8.127306e+00 7.458856e+00 -1.936468e+00 -5.856811e-01 5.357822e+00 -7.669091e-02 4.012453e+00 -2.505898e-02 6.036007e+00 1.119209e+00 1.736148e+00 5.071390e+00 2.988398e-03 2.933865e-02 3.451107e-01 5.051459e-01 2.560161e-01 1.312247e+00 1.541557e-01 5.991139e-02 2.267528e+00 -4.596571e-01 -1.176105e-01 2.438201e+00 4.863614e-01 4.210413e-03 
-8.082294e+00 6.850641e+00 -2.623962e+00 2.175066e+00 6.556660e+00 -1.176675e+00 6.356297e+00 2.321199e+00 4.226524e+00 1.875038e+00 7.135508e+00 7.655760e+00 -6.543040e-03 -1.802444e-04 -3.745254e-02 3.847119e-01 -6.302334e-01 -5.279864e-01 -1.343028e-01 -2.646843e-01 4.427525e-01 -8.384483e-01 -1.972536e-01 1.140530e-01 -1.062128e+00 5.109954e-03 
-8.072861e+00 6.023702e+00 -2.061476e+00 3.708147e-01 3.314594e+00 2.407233e+00 7.346538e+00 9.006326e-01 3.233838e-01 2.545022e-01 6.442247e+00 1.812107e+00 9.880602e-03 1.580127e+00 -2.260502e+00 5.717106e-01 -2.220214e+00 -2.323612e+00 -8.416786e-01 -5.856777e-01 -3.382113e-01 -2.172567e+00 -1.006165e+00 -1.202787e+00 -2.337883e+00 6.095112e-02 
-8.256977e+00 6.411764e+00 -2.734336e+00 -3.822867e+00 -1.055927e+00 -1.553559e+00 5.846064e+00 -3.928692e+00 7.813025e-02 -1.918354e+00 -5.591992e-01 -1.344591e+00 9.628296e-03 2.457747e+00 -2.961745e+00 1.273755e+00 -3.232246e+00 -2.331615e+00 -1.578852e+00 -1.646812e+00 -4.877152e-02 -1.675722e+00 -9.272115e-01 -2.146670e+00 -2.167862e+00 1.260702e-01 
-1.393299e-01 -3.624218e+00 9.772718e-01 -8.687787e+00 -2.453944e+00 -4.096642e+00 1.339180e+00 1.408830e+00 -2.752630e+00 -2.014920e+00 -4.304332e-01 -2.117853e+00 2.996584e-01 4.202964e-01 -1.799626e+00 1.799583e+00 -2.973868e+00 -1.669450e-01 -8.496729e-01 -2.317006e+00 4.900739e-01 -4.398383e-01 -6.124846e-01 -9.931215e-01 1.928401e-03 1.499999e-01 
2.396727e-01 -3.134124e+00 2.225438e+00 -9.456864e+00 -2.217145e+00 -5.818997e+00 1.125916e+00 1.823243e+00 -2.614078e+00 -1.626308e+00 -1.615031e-01 -1.218573e+00 4.789191e-01 -2.708479e+00 -1.216443e+00 1.012894e+00 -2.525387e+00 9.254867e-01 1.813351e-01 -1.609288e+00 1.380890e+00 -3.021463e-01 -7.713786e-01 1.319134e-01 3.582726e-01 1.707747e-01 
-1.021970e+01 1.798515e+00 4.456552e+00 -1.168153e+01 3.060478e+00 2.915878e-01 -1.878418e+00 4.750350e-01 -5.297039e-01 -2.953943e+00 1.277791e+00 1.758740e+00 5.252345e-01 -5.288829e+00 7.649695e-01 -8.973686e-01 -2.504884e+00 1.357327e+00 1.079727e+00 -4.903079e-01 3.053272e-01 6.144172e-01 1.000650e+00 8.525995e-01 4.092793e-01 1.352679e-01 
-1.675919e+01 -2.381815e+00 5.904944e-01 -1.495294e+01 8.142960e-01 -2.840999e+00 -5.915785e-01 3.442654e+00 -2.544064e+00 -5.305736e+00 -7.537440e-01 -1.491524e+00 7.507138e-01 -4.695815e+00 7.498842e-01 -1.824502e+00 -2.766347e+00 5.334284e-01 1.327066e+00 -2.013845e-02 -1.129353e+00 5.404128e-01 1.827235e+00 3.555403e-02 1.824990e-01 1.110822e-01 
-1.808405e+01 -1.755242e-01 -2.692099e+00 -1.846417e+01 2.816969e+00 -1.870041e-01 -2.536116e-01 2.125760e+00 2.844495e-01 4.828042e+00 4.128685e+00 6.501889e-02 8.401005e-01 -2.454223e+00 1.673562e-01 -1.882965e+00 -1.566332e+00 1.912594e-01 -5.396423e-01 -4.221974e-01 5.380049e-02 -1.213474e-01 1.377010e+00 3.059830e-01 -7.474028e-01 1.001447e-01 
-1.930723e+01 1.602317e+00 -3.322746e+00 -1.989727e+01 5.717520e-01 1.055631e+00 2.128205e-01 -4.648885e+00 -3.190904e-01 3.618873e+00 -1.409180e+00 5.407825e-01 8.768970e-01 -1.171107e+00 6.675924e-01 -1.247165e+00 -4.837183e-01 1.210147e+00 4.568821e-01 -1.075709e+00 -1.036336e+00 -7.371089e-01 7.784259e-01 -1.237832e-01 -3.746930e-01 5.458146e-02 
-2.121680e+01 6.432295e-01 -3.001652e+00 -1.704102e+01 4.138047e+00 -4.354939e+00 -4.391604e+00 4.789807e+00 -2.248928e+00 -5.311983e-01 3.135424e+00 -2.994427e+00 9.628665e-01 -4.651522e-01 4.431718e-01 -7.891464e-01 -5.467434e-02 -7.794876e-02 -2.410224e-01 -5.219969e-01 -4.167882e-01 -9.976853e-01 -9.583226e-01 -1.311633e+00 -3.663740e-01 2.423301e-02 
-2.104835e+01 5.467696e-01 -5.490554e+00 -1.808311e+01 6.204494e+00 1.527379e+00 -3.901126e+00 -3.071048e+00 -4.962920e+00 1.266014e+00 -8.760295e-01 -1.835266e+00 9.622381e-01 -8.753624e-02 7.480062e-01 -4.434277e-01 1.814253e-01 -3.706433e-01 -1.700286e+00 -1.174899e+00 9.373918e-01 -3.379115e-01 4.321474e-02 -5.952249e-01 2.159522e-01 1.446899e-02 
-1.953925e+01 2.568109e+00 -5.553927e+00 -1.964463e+01 -3.891459e-01 -1.627990e+00 -8.066225e-01 -7.470994e-01 -2.382062e+00 1.212858e+00 -2.696055e+00 -5.788269e-01 9.185950e-01 2.099386e-01 1.323403e+00 -4.431179e-01 -1.233814e-01 -7.605829e-01 -6.031660e-01 -3.332079e-01 -7.171297e-02 5.284044e-01 1.409081e+00 -1.620527e+00 8.149122e-01 -1.461905e-03 
-2.058368e+01 4.379909e+00 -4.263746e+00 -1.768834e+01 9.821317e-01 -8.809273e+00 -7.454167e+00 2.806526e+00 -1.942081e+00 2.962919e+00 -1.469565e+00 4.127435e-01 9.713777e-01 3.263506e-01 1.387792e+00 1.244709e+00 2.572092e+00 7.595521e-01 -1.355432e+00 5.651800e-01 6.218511e-01 5.491789e-01 7.042187e-01 -1.917344e-01 6.210905e-01 -5.733711e-03 
-2.039944e+01 5.343675e+00 -5.830645e+00 -1.785531e+01 2.946314e+00 -2.202443e+00 -4.281123e+00 1.492455e+00 -1.117325e+00 5.665756e+00 -4.670443e+00 -4.387087e-02 9.509872e-01 2.164299e-01 4.269637e-01 9.858949e-01 3.789739e+00 2.508129e+00 -2.922664e-01 8.267488e-01 -3.430184e-01 5.425026e-02 8.718596e-01 6.692418e-01 4.006088e-01 -2.216869e-03 
-1.898650e+01 6.097947e+00 8.713479e-01 -6.117309e+00 8.334525e+00 -4.962555e+00 6.620245e-01 -1.081570e+00 -2.849394e+00 2.560659e+00 -8.475079e-01 1.002709e+00 9.173735e-01 4.882994e-01 -5.814052e-01 2.150212e-01 2.947335e+00 1.465657e+00 1.946703e-01 2.722058e+00 2.639154e-01 1.595213e-02 -1.287331e-01 4.009691e-01 -1.188020e-01 -1.703908e-02 
-1.925569e+01 3.843907e+00 -3.192000e+00 -6.481450e+00 8.475301e+00 -5.012681e+00 -7.309742e-01 -5.181434e-01 -1.657154e+00 5.773285e+00 3.391249e-01 1.129235e+00 9.345127e-01 1.086654e+00 -1.640153e+00 2.149931e-01 1.613291e+00 1.838494e-01 -9.885715e-01 1.025871e+00 5.257487e-01 -9.908066e-02 -9.947755e-01 9.864092e-01 3.865387e-01 -3.616226e-02 
-1.871406e+01 2.222766e+00 -4.507963e+00 -8.638596e+00 5.545921e+00 -6.430802e+00 4.381049e+00 5.131403e+00 -1.592406e+00 2.265489e+00 -1.969503e+00 -7.678194e-01 8.944196e-01 4.267417e+00 -2.586233e-01 1.568895e+00 1.039352e+00 -2.065084e-01 2.560711e-03 -1.032501e+00 -7.026525e-02 -5.238894e-01 -1.270120e+00 -3.196136e-01 -5.214074e-01 -8.653531e-02 
-1.510239e+01 -9.194980e-01 -2.066024e+00 -8.528207e+00 5.259863e+00 -6.411178e+00 -1.011279e+00 1.014713e+00 -2.241223e+00 8.394637e-01 8.226001e-01 2.774087e+00 7.816528e-01 7.910174e+00 -1.893271e+00 4.248546e+00 2.888130e+00 -2.202349e+00 1.302978e+00 -3.366786e+00 -1.677450e+00 -9.028679e-01 -9.984643e-01 8.484814e-01 -1.913462e-01 -6.113135e-02 
2.739315e-01 7.186534e+00 8.152834e+00 1.028293e-01 8.909701e+00 -4.250503e+00 -4.360329e+00 -2.199324e+00 -5.176806e+00 -1.323028e+00 -2.687314e+00 -2.426754e+00 5.611269e-01 8.915942e+00 -2.908016e+00 4.064971e+00 3.165718e+00 -3.760356e+00 2.008957e+00 -4.702770e+00 -2.370333e+00 -2.400746e-01 6.614943e-01 1.932779e+00 -5.972878e-01 -9.693956e-03 
1.080118e+01 -8.104332e+00 1.172033e+01 3.588489e+00 -4.218336e+00 4.120595e-01 -1.319422e+01 -5.240029e+00 -4.379292e+00 2.575222e+00 4.940437e+00 1.001971e+00 7.955023e-01 7.020757e+00 -3.690266e+00 1.966490e+00 2.564877e+00 -5.786682e+00 1.957181e+00 -3.145704e+00 -6.672546e-01 4.120539e-01 1.436067e+00 2.144607e+00 -7.788907e-01 5.332529e-02 
1.291387e+01 -8.724895e+00 8.923715e+00 1.131647e+00 -8.516759e+00 2.023660e-01 -1.304133e+01 -3.592892e+00 -1.723744e+00 4.705081e+00 5.635474e+00 -2.868201e+00 8.390250e-01 3.140164e+00 -4.242975e+00 -1.056998e+00 9.561304e-01 -6.361005e+00 1.058774e+00 -1.104275e+00 1.292571e-01 1.258009e+00 2.692722e+00 1.410055e+00 3.401372e-01 8.843735e-02 
1.368143e+01 -1.141511e+01 7.380983e+00 3.781770e+00 -1.496032e+01 1.148291e+00 -1.239929e+01 -1.624777e+00 -1.907485e+00 5.005746e+00 7.384243e+00 -8.996431e-01 9.093302e-01 8.457531e-01 -1.277303e+00 -1.861594e+00 4.403025e-01 -3.231894e+00 -2.013044e-01 1.644016e+00 6.348775e-01 1.005399e+00 2.478794e+00 -9.751895e-01 -9.744167e-04 4.064713e-02 
1.453463e+01 -1.237295e+01 5.037515e+00 4.786841e+00 -1.752433e+01 6.752529e-01 -1.027916e+01 -3.360665e+00 -1.226668e-01 1.092532e+01 3.141057e+00 2.247390e-01 9.463997e-01 3.655934e-01 -1.315374e+00 -1.626989e+00 7.725050e-01 -1.419188e+00 -4.012959e-01 2.346985e+00 3.727909e-01 5.301840e-01 2.222965e+00 -1.846053e+00 2.310790e-01 2.890112e-02 
1.421957e+01 -1.266682e+01 4.355461e+00 3.962405e+00 -1.587402e+01 -8.309057e-01 -6.355219e+00 -2.181756e+00 -1.528389e-01 1.185907e+01 1.311698e+00 -5.493714e-01 9.450506e-01 1.581628e-01 -1.311900e+00 -1.087172e+00 5.146156e-02 -9.643821e-02 -1.099604e-01 1.818119e+00 7.332640e-01 6.696241e-01 1.433552e+00 -1.505074e+00 -5.946181e-01 2.006103e-02 
1.447277e+01 -1.467591e+01 2.301530e+00 4.903855e+00 -1.515585e+01 -8.145151e-01 -4.328445e+00 -1.450448e+00 4.985321e-02 1.239324e+01 -5.585169e-01 -1.887942e+00 9.656704e-01 -7.150173e-03 -1.190399e+00 -4.189133e-01 -5.207961e-01 3.452648e-01 3.200565e-01 8.518017e-01 1.610866e+00 3.946538e-01 3.323067e-01 -3.424277e-01 -9.679546e-01 1.291345e-02 
1.450317e+01 -1.682313e+01 3.313118e+00 3.980570e+00 -1.662675e+01 1.343373e+00 -6.284061e+00 1.086435e+00 1.354376e+00 1.143954e+01 1.708660e+00 -2.816393e+00 1.000000e+00 3.258634e-02 -1.071288e+00 1.630636e-01 -8.999206e-01 3.531725e-01 7.022706e-01 4.094418e-01 1.099971e+00 4.964176e-01 -1.715000e-01 2.876918e-01 -8.227932e-01 6.773072e-03 
1.435708e+01 -1.624679e+01 3.464120e+00 2.173778e+00 -1.542164e+01 1.188396e+00 -6.055735e+00 3.059570e+00 1.096995e+00 1.279662e+01 1.230437e+00 -3.481523e+00 9.834923e-01 9.703402e-02 -6.712620e-01 5.933782e-01 -1.175094e+00 4.802490e-01 1.101530e+00 8.847036e-02 6.532704e-01 2.319941e-01 -3.267144e-01 5.894435e-01 -5.042675e-01 -2.926636e-03 
1.444035e+01 -1.723782e+01 4.589484e+00 8.278406e-01 -1.397526e+01 1.678992e+00 -3.444366e+00 1.063089e+00 1.805679e+00 1.079988e+01 1.855680e+00 -3.866547e+00 9.700050e-01 1.866107e-01 -3.715647e-01 -3.669262e-03 -6.612875e-01 4.149172e-01 8.508085e-01 5.817037e-01 -2.414513e-03 1.125925e-01 -2.478570e-01 -1.365888e-01 1.754714e-01 -6.844991e-03 
1.498935e+01 -1.782488e+01 4.630238e+00 6.047482e-01 -1.408035e+01 4.525327e+00 -5.305942e+00 1.827577e+00 9.841723e-01 1.107950e+01 2.315190e+00 -3.884202e+00 9.660347e-01 2.480926e-01 -3.694199e-01 -6.669467e-01 -3.183232e-01 -2.295717e-01 1.393373e+00 5.229683e-02 2.516536e-01 -4.968005e-01 -6.504889e-02 -1.895512e-01 3.968350e-01 -1.803881e-03 
1.512009e+01 -1.789191e+01 2.711713e+00 1.458647e+00 -1.522281e+01 3.928951e+00 -3.750440e+00 1.690359e+00 1.973750e+00 1.105882e+01 4.833393e-01 -1.737697e+00 9.745038e-01 1.665730e-01 -2.223530e-02 -1.298823e+00 -2.497049e-01 -6.265637e-01 1.635011e+00 -5.160723e-01 7.175480e-01 -9.007500e-01 2.586109e-01 -2.084950e-01 4.652267e-01 1.382029e-03 
1.525767e+01 -1.776685e+01 1.068272e+00 2.667581e-01 -1.594572e+01 7.030282e+00 -5.641213e+00 4.004203e+00 -1.471043e+00 1.234191e+01 9.688517e-01 -2.561773e+00 9.722235e-01 1.823526e-02 2.396149e-01 -1.256435e+00 -6.037341e-01 -1.874895e-01 1.206239e+00 -1.574581e-01 6.288316e-01 -1.078957e+00 -1.510429e-02 8.701598e-03 5.855170e-01 -9.640753e-04 
1.513905e+01 -1.737801e+01 -1.236469e-01 -2.516889e-01 -1.617539e+01 8.601572e+00 -5.857091e+00 3.562516e+00 -1.470464e+00 1.146173e+01 1.486375e+00 -2.201628e+00 9.738208e-01 5.573545e-02 4.940823e-01 -6.639056e-01 -1.003795e+00 4.241675e-01 1.007577e+00 -3.237457e-02 1.095314e-01 -1.040703e+00 -8.054200e-01 8.562037e-01 4.220224e-01 -1.042554e-02 
1.507104e+01 -1.688375e+01 -2.342590e-01 -1.558754e+00 -1.454151e+01 8.220213e+00 -5.039907e+00 4.035656e+00 -2.688505e+00 1.080252e+01 1.857181e+00 -7.246516e-01 9.615558e-01 1.585708e-02 9.235218e-01 1.449115e-01 -7.464677e-01 5.901892e-01 1.942627e-01 4.726883e-01 -1.079411e+00 -3.127425e-01 -1.667444e+00 1.271047e+00 1.005061e+00 -2.338632e-02 
1.549208e+01 -1.586304e+01 4.345047e-02 -2.647573e+00 -1.380408e+01 8.371870e+00 -4.212966e+00 2.222289e+00 -2.621035e+00 7.801410e+00 4.320193e+00 -5.461451e-01 9.277099e-01 1.592160e-01 1.426834e+00 6.953383e-01 -7.642141e-02 7.949270e-01 -6.836982e-02 3.100722e-01 -1.652925e+00 -3.075856e-01 -2.486644e+00 1.100190e+00 1.221390e+00 -4.873308e-02 
1.516044e+01 -1.390672e+01 1.709281e+00 -2.267639e+00 -1.418043e+01 8.116446e+00 -4.099834e+00 -7.227397e-01 -2.459470e+00 5.834849e+00 5.907177e+00 1.635791e+00 8.783473e-01 -8.163337e-02 2.381121e+00 6.984283e-01 7.628787e-01 1.160331e+00 -3.882782e-01 5.607991e-01 -2.569111e+00 -2.835808e-01 -3.036293e+00 6.676621e-01 1.490738e+00 -7.444287e-02 
1.589043e+01 -1.173236e+01 2.381274e+00 -2.793537e-01 -1.238129e+01 8.311605e+00 -4.776766e+00 -2.322913e+00 -3.122909e+00 1.512348e+00 4.962327e+00 2.725102e+00 7.717597e-01 -6.716360e-01 2.923375e+00 3.217613e-01 1.064989e+00 2.022763e+00 -6.983165e-01 1.222090e+00 -3.013091e+00 -2.123627e-01 -2.176761e+00 -5.146842e-01 1.594622e+00 -8.338536e-02 
1.446370e+01 -7.043489e+00 2.088971e+00 1.071530e+00 -9.451246e+00 6.308954e+00 -1.954011e+00 -6.537297e+00 -3.855472e+00 -1.234415e+00 4.874424e+00 5.093413e+00 6.673166e-01 -1.261500e+00 2.839266e+00 -1.746617e-01 1.048692e+00 2.737756e+00 -1.233938e+00 1.650512e+00 -2.433313e+00 -1.077817e-01 -1.360669e+00 -9.743710e-01 6.830753e-01 -7.447740e-02 
1.248227e+01 -4.677785e+00 1.462412e+00 1.007787e+00 -6.054859e+00 5.784034e+00 8.245711e-01 -9.935888e+00 -2.984847e+00 4.522359e-01 2.263148e+00 5.698155e+00 6.162984e-01 -1.316743e+00 1.940903e+00 -4.877684e-01 2.734910e-01 2.103809e+00 -5.512030e-01 8.698277e-01 -1.240530e+00 3.536938e-01 1.566873e-01 -8.792087e-01 1.699617e-02 -4.631623e-02 
1.055702e+01 -3.237679e+00 1.295404e+00 2.332253e+00 -3.654869e+00 3.210541e+00 1.352055e+00 -9.082817e+00 -3.067409e+00 -4.384423e-01 2.384912e+00 3.564641e+00 5.836909e-01 1.091688e-01 4.762705e-01 -2.983267e-01 -3.153026e-03 7.415587e-01 3.332989e-01 -1.361357e+00 1.985776e-01 1.333724e+00 8.118249e-01 -5.470229e-01 -8.796536e-01 -9.113610e-03 
1.126006e+01 -3.930753e+00 3.392160e-01 4.577399e-01 -4.760434e+00 7.104797e+00 -2.080660e+00 -7.252802e+00 -1.748471e+00 1.897798e+00 1.811039e+00 3.574470e+00 5.819914e-01 9.219028e-01 -4.796263e-01 5.335734e-01 -1.025242e+00 5.984607e-02 7.812864e-01 -2.652390e+00 1.521347e+00 1.746528e+00 5.175478e-01 -1.614880e-01 -1.482612e+00 1.624836e-02 
1.562065e+01 -5.035653e+00 1.158936e+00 1.330788e+00 -6.390665e+00 7.315067e+00 -7.308182e+00 -6.885952e+00 2.194961e+00 2.101928e+00 2.365364e+00 1.756988e+00 6.389021e-01 9.785917e-01 -4.807242e-01 5.522252e-01 -1.556242e+00 5.543053e-01 7.785721e-01 -2.705327e+00 1.884760e+00 1.882502e+00 3.408935e-01 -4.877020e-01 -1.123788e+00 2.345904e-02 
1.455997e+01 -6.176930e+00 4.198514e+00 -3.617692e+00 -4.387731e+00 7.638203e+00 -8.107259e+00 -3.427584e+00 3.116609e+00 1.769790e+00 1.465482e+00 -8.110815e-01 6.699346e-01 2.466733e-01 8.181705e-02 6.420932e-01 -1.174575e+00 1.367105e+00 -1.078444e-01 -1.721154e+00 1.657383e+00 1.528291e+00 -3.259258e-01 -4.717521e-01 -1.110748e+00 1.309702e-02 
1.380002e+01 -4.518211e+00 2.126881e+00 -3.411241e+00 -1.069695e+00 6.836699e+00 -9.161279e+00 -1.571628e+00 3.912561e+00 1.330029e+00 1.191808e-01 1.384780e-01 6.570145e-01 -6.978210e-01 3.735262e-01 1.829402e-01 -8.860016e-01 2.613371e+00 -3.197092e-01 -1.187504e+00 2.105201e+00 5.125951e-01 -4.669139e-01 -7.656602e-01 -1.161431e+00 -4.987860e-03 
1.340373e+01 -3.780388e+00 3.065709e+00 -3.044120e+00 -5.853951e-01 6.804760e+00 -9.759879e+00 -1.623049e+00 5.034186e+00 6.541189e-01 5.753704e-01 -1.170016e+00 6.384203e-01 -5.221055e-01 4.997357e-01 -4.192824e-01 2.269851e-01 2.532362e+00 -1.789987e-01 -6.856434e-01 1.742967e+00 1.495258e-01 -2.488583e-01 -9.045016e-01 -1.381266e+00 -1.518763e-02 
1.270966e+01 -4.366292e+00 2.640039e+00 -3.386006e+00 4.775024e+00 6.133243e+00 -1.241939e+01 2.737787e+00 3.799147e+00 3.251942e-01 -1.017881e+00 -3.870702e+00 6.297199e-01 -5.489969e-01 1.588413e-01 2.387863e-01 2.367961e-01 2.168907e+00 -1.622128e-01 3.653355e-01 1.012359e+00 1.500843e-01 1.022411e-01 -7.785597e-01 -1.801457e+00 -1.762262e-02 
1.249463e+01 -3.754210e+00 1.845523e+00 -2.495385e+00 5.351719e+00 7.094938e+00 -9.906419e+00 3.132545e+00 3.920945e+00 1.027916e+00 -2.488494e+00 -5.712823e+00 6.076438e-01 -5.248157e-01 -1.538796e-01 1.055062e+00 6.844860e-02 1.785675e+00 -1.796596e-01 2.634303e-01 1.051872e+00 3.835304e-01 -1.587067e-01 -8.056839e-01 -9.595062e-01 -1.678211e-02 
1.150959e+01 -3.737093e+00 3.930906e+00 -2.501628e+00 6.806284e+00 5.880546e+00 -7.261332e+00 1.112369e+00 5.219603e+00 1.654337e+00 -2.241685e+00 -6.597404e+00 5.842897e-01 -5.449360e-01 -1.505284e-02 1.672859e+00 3.670534e-01 2.936638e-01 -4.406110e-01 -8.951378e-03 5.526975e-01 1.321338e+00 -1.621920e+00 -1.551080e-01 6.184188e-01 -1.683625e-02 
1.137969e+01 -4.864386e+00 7.695583e+00 -3.144066e+00 7.327352e+00 6.032810e+00 -1.102176e+01 4.449020e+00 6.241611e+00 -8.039858e-01 -2.841147e+00 -4.604196e+00 5.772249e-01 -9.765860e-01 7.345739e-01 2.125926e+00 1.419693e+00 4.450472e-01 -1.803661e+00 7.024881e-01 1.538551e+00 -4.828844e-01 -2.961115e+00 -1.379030e-01 1.470127e+00 -3.009715e-02 
1.054245e+01 -3.886469e+00 8.079303e+00 -1.226398e+00 5.255527e+00 4.461251e+00 -1.190648e+01 4.843037e+00 9.245506e+00 -6.868455e+00 -1.617095e+00 -1.332922e+00 5.607481e-01 -1.061187e+00 1.708415e+00 1.614507e+00 2.243002e+00 1.264763e+00 -3.162688e+00 1.092961e+00 2.880218e+00 -2.534906e+00 -3.372844e+00 5.754144e-01 8.691019e-01 -3.382806e-02 
8.095267e+00 -6.653309e-03 1.040095e+01 3.965464e+00 8.352334e+00 -1.213722e+00 -4.071404e+00 8.959967e+00 -5.064285e-01 -9.516265e+00 -3.490304e+00 -9.944304e-01 4.689288e-01 -1.042107e+00 2.344357e+00 3.331938e-02 2.993601e+00 1.890140e+00 -2.669353e+00 2.410628e+00 2.330727e+00 -3.484333e+00 -2.706190e+00 1.462855e+00 -3.574384e-01 -4.306100e-02 
7.845870e+00 2.376115e+00 1.065076e+01 5.158618e+00 1.261761e+01 -6.309630e+00 -5.271704e+00 1.325799e+01 -4.080909e+00 -1.085374e+01 9.599653e-01 -4.056777e+00 4.692974e-01 -8.915197e-01 1.760355e+00 -4.517369e-01 2.689889e+00 2.477925e+00 -6.611651e-01 1.283067e+00 7.673647e-01 -2.715430e+00 -5.866668e-01 1.694719e+00 -1.386625e+00 -4.593123e-02 
7.517444e+00 3.726108e+00 6.576453e+00 8.631433e+00 1.309701e+01 -1.928513e+00 -2.286007e+00 1.189518e+01 -4.516847e+00 -1.234229e+01 3.184597e+00 -5.029460e+00 4.076453e-01 -6.529387e-01 5.892417e-01 -1.537868e+00 2.157000e+00 1.713173e+00 2.305076e-01 3.750965e-01 -5.102393e-01 -7.841825e-03 3.521624e-01 1.371040e+00 4.049394e-01 -4.109793e-02 
6.373764e+00 3.048927e+00 7.732868e+00 9.890062e+00 1.527281e+01 1.512822e+00 -6.383846e+00 7.212254e+00 -2.326436e+00 -8.388776e+00 3.519051e+00 -6.248531e+00 3.617337e-01 -6.392784e-01 -2.644297e-01 -1.777905e+00 1.877276e+00 1.440949e+00 -4.204953e-01 2.000626e-01 -4.096263e-01 1.206471e+00 1.363636e+00 -6.702524e-01 8.148085e-01 -2.929440e-02 
5.566627e+00 2.603149e+00 4.170556e+00 1.238474e+01 1.559060e+01 -3.972409e+00 -1.639851e+00 9.431636e+00 -1.422874e+00 -8.987937e+00 2.085352e+00 2.126144e+00 3.172210e-01 -4.553475e-01 -2.005061e-01 -1.152853e+00 1.896210e+00 6.271680e-01 -9.886322e-01 1.715953e+00 6.188437e-01 1.267171e+00 9.341697e-01 -2.241402e+00 6.227167e-02 -2.436345e-02 
5.624887e+00 1.615445e+00 2.964182e+00 1.266835e+01 1.857556e+01 -7.390158e+00 -4.594469e+00 1.244163e+01 4.044611e-01 -5.712742e+00 -1.841675e+00 -3.560536e+00 3.680376e-01 -8.993480e-02 8.730790e-01 -1.431202e+00 3.903994e-01 -1.173373e+00 -4.187522e-01 3.877024e+00 -7.041826e-02 6.650731e-01 3.065327e-01 -2.083215e+00 -6.453414e-02 -3.455526e-02 
5.615145e+00 3.440318e+00 3.196533e+00 1.672334e+01 1.458148e+01 -2.420184e+00 5.399067e+00 1.237471e+01 4.535601e-01 -9.009459e+00 -5.342052e+00 -6.062099e+00 2.826761e-01 -2.236623e-01 1.158688e+00 -8.539413e-01 -5.479563e-01 -1.492212e+00 1.763730e+00 4.081779e+00 -2.063167e+00 -2.195528e-01 -6.932431e-01 -1.482095e+00 -4.686180e-01 -4.611179e-02 
5.899830e+00 6.995738e+00 1.063871e+00 9.672758e+00 9.910506e+00 -1.357052e+00 9.481816e+00 5.388624e+00 6.071258e-02 -6.845352e+00 -3.183322e+00 -2.477080e+00 2.062299e-01 -1.005868e+00 1.201371e+00 -3.274472e-01 -7.842836e-01 -1.674136e+00 1.348349e+00 3.010390e+00 -2.451497e+00 -5.600957e-01 -6.443812e-01 -2.386585e-01 9.027944e-01 -6.176095e-02 
4.310843e+00 5.706442e+00 8.510051e-01 1.114275e+01 1.246206e+01 1.829689e+00 1.173090e+01 2.642302e+00 -2.348764e+00 -1.188785e+01 -4.654297e+00 -7.586744e-01 1.675659e-01 -1.602316e+00 -1.410606e-01 -1.331751e+00 -2.133729e+00 -2.460380e+00 -1.020109e+00 -5.618650e-01 -2.481304e+00 -8.180180e-01 3.797165e-01 2.608646e-01 8.771262e-01 -4.712303e-02 
1.247700e+00 6.489239e+00 2.499710e+00 1.153722e+01 1.126459e+01 -2.773351e+00 7.291561e+00 5.050347e+00 -9.948556e-01 -7.495454e+00 -3.378844e+00 -1.698277e+00 1.167879e-01 -1.960588e+00 -1.243473e+00 -1.927386e+00 -1.342475e+00 -2.129875e+00 -1.801710e+00 -1.817479e+00 -9.038612e-01 -1.120242e+00 -6.270221e-01 -6.974753e-01 -5.220287e-01 -3.102463e-02 
-7.036972e-02 2.988265e+00 -4.180140e+00 5.122467e+00 1.602539e+00 -6.812579e+00 3.684870e+00 1.373317e-01 -3.108746e+00 -6.785826e+00 -3.939969e+00 -2.065870e+00 9.178191e-02 -1.322303e+00 -1.303963e+00 -1.730018e+00 -1.641837e+00 -3.099123e+00 -2.064696e+00 -1.930657e+00 -7.573427e-01 -1.227847e+00 -5.326053e-01 -3.305952e-01 -9.271057e-01 -1.574770e-02 
-1.712502e+00 2.137463e+00 -6.057486e+00 5.970528e+00 4.690896e+00 -6.044466e+00 4.417439e+00 2.121803e+00 -5.160504e+00 -1.253147e+01 -7.027863e+00 -4.433626e+00 8.899868e-02 -5.553974e-01 -8.165339e-01 -1.461393e+00 -5.545002e-01 -1.918989e+00 -4.441767e-01 -1.382182e+00 -1.136419e+00 -6.813537e-01 -1.317531e+00 -1.102269e+00 -1.385979e+00 -2.634180e-03 
-8.205709e-01 1.362514e+00 -3.520488e+00 5.716915e+00 2.532942e-01 -6.858233e+00 3.514680e+00 3.198607e-01 -6.405174e+00 -1.203286e+01 -4.482764e+00 -4.026528e+00 1.027220e-01 -2.812049e-01 2.559648e-01 5.935249e-01 7.629408e-01 -6.406795e-01 7.603949e-01 -3.748249e-01 -8.136526e-01 -2.727639e-01 -1.325457e+00 -8.954867e-01 -4.734981e-01 1.368636e-03 
-1.154186e+00 3.219445e+00 -5.137080e+00 8.467498e+00 2.344266e+00 -4.971407e+00 4.657454e-01 -7.230103e-01 -2.753410e+00 -1.145959e+01 -8.618794e+00 -7.647842e+00 9.814698e-02 1.886136e-01 6.390530e-01 3.019611e-01 -4.255653e-01 -9.528713e-01 1.051854e+00 6.313195e-02 -1.496973e+00 -6.804321e-01 2.640057e-03 -2.134682e-01 1.611117e+00 -4.792201e-03 
-1.755552e+00 3.727098e+00 -1.672718e+00 7.688686e+00 -4.275439e-01 -3.547133e+00 3.786592e+00 -2.508525e+00 -5.676113e+00 -1.394905e+01 -7.621937e+00 -2.826252e+00 9.405094e-02 -1.513183e-01 7.767889e-01 2.519109e-02 -7.823238e-01 -4.192609e-01 5.761889e-01 4.996004e-01 -1.156248e+00 -5.728884e-02 1.002509e+00 8.311912e-01 1.432516e+00 -1.485763e-02 
-3.019438e-01 4.150436e+00 -5.471565e+00 2.856815e+00 2.669582e-01 -2.440746e+00 4.597143e+00 -3.948868e+00 -8.927196e+00 -1.156018e+01 -6.525618e+00 3.021822e+00 6.937319e-02 1.030417e-02 7.870178e-01 6.605558e-01 -1.194880e+00 -6.394804e-01 7.043888e-01 2.114237e+00 4.420752e-01 2.645893e-01 8.366577e-01 1.779793e+00 2.134556e+00 -1.735953e-02 
-2.003284e+00 4.780963e+00 -3.227290e+00 4.610637e+00 -8.043561e-01 -5.242619e+00 3.946983e+00 -3.848449e+00 -3.604726e+00 -6.970026e+00 -1.373396e+00 -2.198781e+00 4.282075e-02 -1.746018e-01 8.706141e-01 7.007955e-01 -7.510847e-01 5.551201e-01 7.958242e-01 1.854477e+00 1.988344e+00 2.929095e+00 1.727229e+00 1.117828e+00 -4.115818e-02 -1.714453e-02 
-9.787998e-01 6.627602e+00 -1.057015e+00 4.032120e+00 -6.647298e-01 -6.017203e-01 1.095674e+01 2.157328e+00 -2.466157e+00 -1.076581e+01 -2.844100e+00 2.711202e+00 3.696442e-02 -4.068226e-01 1.124377e+00 8.512675e-01 -3.290315e-01 -2.214456e-03 6.128277e-01 -1.385621e-01 1.932712e+00 1.739789e+00 -4.118567e-02 -5.911883e-01 1.069510e-01 -3.136152e-03 
-2.290133e+00 6.841586e+00 -3.760153e-01 3.345610e+00 2.813901e+00 -4.875251e-01 9.879178e+00 4.380098e+00 5.738842e+00 -5.710090e+00 -3.873555e+00 -2.876733e+00 2.453268e-02 7.193556e-02 1.134152e+00 3.523188e-02 -5.150276e-01 1.083300e-01 -2.320804e-01 -1.404293e+00 8.579935e-01 -2.957581e-01 -3.196358e-01 -1.028934e+00 1.194995e+00 2.763289e-03 
-2.192632e+00 8.742006e+00 -2.640864e+00 1.844171e+00 -1.553242e+00 -1.754154e+00 9.382358e-01 1.600419e+00 -4.900035e+00 -1.239608e+01 -8.231480e+00 3.895553e+00 6.283647e-02 -2.237725e-01 3.113527e-01 -1.079962e+00 -4.792539e-01 6.348880e-02 -5.848931e-01 -1.570223e+00 -8.434371e-01 -8.295329e-01 1.202207e+00 -1.816424e-01 -1.335377e-01 2.023768e-03 
-1.036690e+00 9.394522e+00 -2.259206e+00 3.129473e+00 1.815503e-01 -5.826804e+00 1.934771e+00 7.199731e-01 -3.866577e+00 -7.753073e+00 -3.824376e+00 3.184019e+00 4.370117e-02 -3.418360e-02 1.354485e-01 -6.414108e-01 2.283019e-01 -2.499006e-01 -8.059567e-01 -1.459783e+00 -2.003440e+00 -2.130155e+00 7.562206e-01 8.672497e-01 7.277181e-01 -2.420712e-03 
-2.724384e+00 6.907897e+00 -5.515229e+00 1.743919e+00 9.688894e-01 -8.565464e-01 7.077826e+00 -2.297947e-01 -1.811112e+00 -3.733283e+00 -3.776902e+00 -9.868619e-01 3.749901e-02 -8.845932e-01 -6.147341e-01 -3.152100e-01 2.124470e-01 1.418380e-01 1.961575e-02 -4.073245e-01 -1.686894e+00 7.580302e-01 1.581009e+00 1.502872e+00 -4.558040e-01 -8.742964e-03 
-2.195175e+00 8.435884e+00 -2.145887e+00 4.537245e+00 3.033319e-01 -4.966113e+00 -4.895325e-01 -4.721994e+00 -6.456393e+00 -6.260384e+00 -1.764595e+00 3.203064e+00 2.509785e-02 -1.104241e+00 -2.320737e-01 5.736582e-01 4.473062e-01 1.260634e-01 8.618606e-01 -5.569601e-02 -1.416450e+00 1.687680e+00 3.947456e-01 -1.007274e-01 3.408260e-01 -1.175087e-02 
-6.036355e+00 6.147656e+00 -4.273574e+00 2.202521e+00 -9.049435e-01 -2.086421e+00 1.137652e-01 -4.113066e+00 1.850240e-01 -5.237379e+00 -1.747012e+00 1.607011e+00 2.842331e-02 -6.026174e-01 2.665176e-01 1.220325e+00 -4.261956e-02 -2.847271e-01 2.717894e-01 1.049422e-01 -7.337435e-01 2.476877e+00 4.975868e-01 -1.927652e+00 2.678154e-01 -1.329789e-02 
-4.901912e+00 8.614274e+00 -1.174223e-02 5.136704e+00 1.748784e+00 -9.025638e-01 5.138322e+00 -4.420643e+00 3.573754e+00 -5.027297e+00 -5.342957e+00 3.591213e+00 -1.051533e-02 -3.422972e-01 2.483411e-01 6.314958e-01 -5.541135e-01 -6.848776e-02 -1.072815e-01 1.214112e+00 -5.563634e-02 2.843871e+00 1.862124e+00 -2.212937e+00 -8.098825e-01 -9.554589e-03 
-4.384103e+00 8.151289e+00 -4.806768e-01 1.231092e+00 -1.177472e+00 -1.529374e+00 4.788610e+00 -4.049188e+00 5.558200e+00 -1.861892e+00 -1.162598e+01 1.581407e-01 -1.118386e-02 5.646416e-01 9.096472e-01 4.480574e-01 5.741549e-01 3.680684e-01 -6.458124e-01 9.604455e-01 7.291272e-01 1.072315e+00 1.468378e+00 -1.229874e+00 -9.149845e-01 5.916202e-03 
-4.732787e+00 8.675772e+00 -8.848566e-01 2.252392e+00 9.715724e-02 -5.781044e+00 3.243602e+00 -5.032115e+00 5.076373e+00 1.362494e+00 -7.889794e+00 -1.219136e-01 -2.871513e-03 7.885380e-02 4.553645e-01 -1.104382e+00 -2.638632e-01 4.430467e-01 8.525745e-01 -1.534288e-01 2.713128e-01 -4.892178e-01 1.637080e+00 6.966135e-01 -7.969091e-01 2.280828e-02 
-3.297709e+00 1.066514e+01 -1.596730e+00 6.515451e+00 1.761212e+00 -2.876243e+00 5.863353e+00 -1.616938e-01 4.795291e+00 -1.090382e+00 -6.622962e+00 -1.111349e+00 5.418241e-02 -3.595026e-01 3.528980e-01 -2.377927e-02 7.225629e-01 1.116916e+00 1.805548e+00 -8.292375e-02 -1.012214e+00 -1.674942e+00 5.462775e-02 2.279870e+00 -2.745958e-01 1.137300e-02 
-5.050839e+00 9.634171e+00 -4.975624e+00 1.175208e+00 2.494675e+00 4.033743e+00 3.833807e+00 -5.007826e+00 1.509119e+00 2.772348e+00 -4.361400e+00 2.414118e-01 7.084292e-02 -5.304486e-01 2.930551e-02 7.703874e-01 5.127259e-01 7.669528e-01 2.221125e+00 -1.138883e-02 -1.714128e+00 -1.804668e+00 -8.515648e-01 1.643006e+00 -2.834326e-01 -2.196759e-03 
-6.022590e+00 9.436581e+00 1.445810e+00 5.382498e+00 3.208352e+00 2.590974e+00 4.078890e+00 -9.122401e+00 -1.032881e+00 -2.293681e+00 -1.990831e+00 -1.396501e+00 8.823931e-03 -6.421511e-01 -2.654713e-01 1.250651e+00 1.941384e-01 3.607956e-01 9.491664e-01 -3.323843e-01 -2.203599e+00 -1.419834e+00 -7.472627e-01 1.163483e+00 -2.208216e-01 -1.527360e-02 
