-7.506033e+00 1.394344e+00 -1.336933e+00 -2.904270e+00 4.724033e+00 3.705211e-01 3.253078e+00 -1.353350e+00 -4.037724e+00 1.131491e+00 4.153945e+00 2.478148e+00 -6.729305e-02 -1.947444e-01 -2.835397e-01 1.609460e-01 2.820748e-02 2.027595e-01 -9.057041e-02 -5.700919e-01 2.096565e+00 1.638697e+00 2.047984e+00 1.528033e+00 -9.064879e-02 -1.984739e-03 
-6.901102e+00 -1.486000e-01 -2.704636e+00 -3.436046e+00 4.561368e+00 1.993475e+00 3.277390e+00 8.755936e+00 1.557986e+00 8.671591e+00 8.405988e+00 4.179083e+00 -7.178581e-02 -3.982605e-01 -1.372882e-01 7.046510e-02 1.555184e-01 7.559703e-02 -7.394794e-01 -6.718630e-01 1.179916e+00 2.935788e+00 2.245375e+00 4.802545e-01 3.853078e-02 -4.880190e-04 
-8.782221e+00 7.481171e-01 1.516479e-01 -2.497345e+00 5.819163e+00 -8.938075e-01 3.904629e-01 4.074831e+00 1.357907e+00 7.601358e+00 9.668090e+00 1.174436e+00 -7.497036e-02 -3.703275e-01 -3.547277e-02 4.234754e-01 1.113703e-01 -3.180311e-01 -6.289502e-01 5.259379e-01 4.647129e-01 1.147071e+00 2.706009e-01 -3.018371e-01 -4.963039e-01 -8.382082e-04 
-8.859241e+00 1.031016e+00 -1.728898e+00 -2.330141e+00 4.554453e+00 -2.694711e+00 1.325071e+00 1.832139e+00 7.943398e+00 9.123431e+00 3.798145e+00 3.322658e+00 -6.589448e-02 -3.653480e-01 -2.758958e-02 7.548225e-02 -1.793154e-01 -7.984796e-01 -5.389238e-01 4.760533e-01 -1.182857e+00 -4.113642e-01 -1.661142e+00 -1.307979e+00 -8.525988e-01 3.821623e-03 
-8.378601e+00 6.271719e-01 2.925749e-01 -2.900372e+00 3.137335e+00 -4.301374e-01 6.858927e+00 4.432113e+00 -1.495074e+00 2.258575e+00 4.948681e+00 4.248412e-01 -7.442975e-02 -5.612545e-02 -5.794994e-01 -5.666222e-01 -6.426219e-01 -1.317949e+00 7.111698e-01 3.674904e-01 -7.341858e-01 -8.846142e-01 -1.061541e+00 -1.379945e+00 -8.969504e-01 7.755458e-03 
-8.929651e+00 -2.260753e-01 -2.397688e+00 -4.131110e+00 1.909884e+00 -9.329793e-01 2.423425e+00 2.663010e+00 9.276558e-01 3.037272e+00 4.225797e+00 2.908862e-01 -5.294800e-02 -3.645965e-01 -7.459488e-01 -8.137511e-01 -9.074017e-01 -1.725835e+00 4.936274e-01 -8.003677e-01 -1.322289e+00 -8.149248e-01 -1.604964e+00 -1.437974e+00 -1.393435e+00 7.245934e-03 
-9.027643e+00 -1.520834e+00 -2.347069e+00 -4.809970e+00 5.517013e-01 1.781176e+00 1.678738e+00 -1.153326e-02 4.427072e-01 5.336731e+00 2.554541e+00 -1.794429e+00 -4.266632e-02 -3.329397e-01 1.341867e-01 -7.397608e-01 -7.403113e-01 -1.166613e+00 -2.484282e-01 -1.532766e+00 -1.653879e+00 1.264334e-01 -9.574091e-02 -1.684462e+00 -5.358576e-01 5.029583e-03 
-1.035770e+01 -1.624725e+00 -4.477832e+00 -5.912350e+00 -2.781903e+00 -1.332231e+00 -8.667326e-02 -2.557485e+00 2.899884e+00 -4.404651e-01 -2.194654e+00 -2.534880e+00 -4.554653e-02 -2.251471e-01 5.573182e-01 -1.576931e-01 -5.682386e-01 6.308953e-02 2.844261e-01 -5.311683e-01 -6.997312e-01 -5.507083e-01 7.330300e-01 2.757904e-01 -3.845769e-03 -3.334773e-03 
-9.329273e+00 1.997430e+00 -2.366157e+00 -5.711308e+00 -3.498359e-01 -1.472653e+00 4.501479e-01 -1.227035e+00 -1.849021e+00 3.518739e+00 -2.634059e-01 -8.415636e-01 -5.298257e-02 6.153324e-01 1.131937e+00 5.940308e-01 7.578862e-01 1.132664e+00 6.941880e-01 6.962392e-01 4.246674e-01 -8.611784e-01 7.538385e-01 4.467978e-01 1.163110e-01 -4.235423e-03 
-9.904572e+00 8.013836e-01 -3.176609e+00 -6.521635e+00 2.676100e+00 2.116065e+00 3.818779e-01 -2.278945e-01 -6.800218e-01 7.611419e+00 7.013722e+00 -2.047756e-01 -6.446373e-02 1.569905e+00 1.245467e+00 1.383901e+00 1.358272e+00 1.338320e+00 1.241590e+00 1.180950e+00 1.350358e+00 -1.249585e+00 -7.337464e-01 3.194807e-02 -6.462020e-01 5.619776e-03 
-6.177547e+00 2.925796e+00 -2.752614e-02 -7.158971e-01 3.486022e+00 3.527968e+00 4.925659e+00 9.470083e-01 -2.073232e+00 5.079982e+00 1.843421e-01 -2.377927e+00 -5.438483e-02 1.268776e+00 3.178018e-01 1.123558e+00 5.983574e-01 1.962133e-01 -3.548742e-01 -7.778971e-01 7.300984e-01 4.802421e-01 -2.326069e+00 -1.271339e+00 -1.009934e+00 2.661358e-02 
-4.084043e+00 4.138426e+00 1.272359e+00 -1.618694e+00 1.991768e+00 2.375407e+00 3.580320e+00 3.107285e+00 -3.235938e+00 -4.889820e+00 -2.258788e+00 -4.997708e+00 -1.674652e-02 1.625330e+00 4.771677e-01 3.640989e-01 -3.780580e-01 -2.019670e+00 -2.310432e+00 -2.942855e-01 1.257164e+00 8.313287e-01 -2.851500e+00 -2.418839e+00 2.314790e-01 1.876565e-02 
-5.895659e+00 1.917918e+00 1.027150e+00 -5.170991e+00 9.733970e-01 -3.376695e+00 -5.038558e+00 7.558671e-01 1.830148e+00 -1.860986e+00 -1.983847e+00 -3.494765e+00 5.622673e-02 1.121796e+00 -4.695349e-01 -3.742655e-01 -3.875602e-01 -2.166748e+00 -2.105319e+00 3.528303e-01 1.359106e+00 1.686297e+00 -9.761742e-01 -9.862744e-01 7.433394e-01 6.844199e-03 
-1.918868e+00 3.691161e+00 -1.883453e+00 -6.184377e+00 -6.165937e+00 -5.983762e+00 3.892559e+00 6.153495e+00 1.524932e+00 -3.175597e+00 -3.996380e+00 1.511039e+00 -2.594125e-02 5.767893e-01 -2.460987e-02 -1.019343e+00 -2.421885e-02 -1.573240e-01 -1.214360e+00 9.963994e-01 1.970042e+00 1.010593e+00 6.540104e-01 -1.013202e+00 3.155294e-01 -7.786381e-03 
-1.651156e+00 8.017536e-01 -3.209475e-01 -3.708563e-01 -3.268867e+00 -2.819044e+00 6.533690e+00 6.219432e+00 3.977819e+00 -6.579992e-01 -3.878234e+00 -1.915603e+00 -1.556647e-02 8.672765e-01 1.193907e+00 -1.479865e-01 8.313708e-01 1.448515e+00 1.026715e+00 1.734682e+00 1.733387e+00 -3.896395e-01 3.491299e-02 -6.385076e-01 -1.459770e+00 -1.665496e-02 
-3.322348e+00 4.573459e+00 -3.150308e+00 -4.139855e+00 3.326280e+00 -3.975217e+00 2.776192e+00 1.022571e+01 7.431912e-01 -2.221261e+00 -6.377604e+00 -4.209643e+00 -1.978183e-02 2.809075e-01 8.918865e-01 3.591660e-01 6.437808e-01 2.898095e+00 2.372149e+00 -4.053834e-01 -1.597838e-01 -1.908750e-01 9.171783e-01 1.281532e+00 -1.611710e+00 3.617883e-04 
-8.575358e-01 7.446305e+00 9.206449e-01 -2.036398e+00 3.469865e+00 7.526063e-01 4.193038e+00 7.386692e+00 2.728207e-01 -2.163589e+00 -3.985773e+00 -7.933273e+00 -3.012776e-02 -4.755201e-02 1.349759e-01 -1.772196e-01 -1.502004e-01 1.558440e+00 1.727863e+00 -8.696554e-01 -1.747711e+00 -7.472750e-01 1.073357e+00 2.963060e+00 5.100552e-01 -4.217672e-03 
-9.111400e-01 4.828318e+00 -7.084190e-01 -2.132703e+00 4.955171e+00 4.091159e+00 3.035969e+00 4.770947e+00 2.423056e+00 2.163090e+00 2.465047e+00 -3.538674e+00 -1.685166e-02 -7.152918e-01 -1.003863e+00 5.007890e-01 4.567547e-01 -2.707461e-02 1.292154e+00 -2.523769e-01 -2.959414e+00 -1.018004e+00 1.153163e+00 3.802078e+00 2.022353e+00 -8.859599e-03 
-3.094520e+00 1.349204e+00 -2.427990e+00 -2.125435e+00 3.708887e+00 1.787082e+00 2.055526e+00 2.082574e-01 -5.984879e-01 2.516612e+00 6.515743e+00 2.991892e-01 -3.811991e-02 -1.507418e+00 -1.301282e+00 -7.341264e-01 -9.310454e-01 -9.299715e-01 3.406312e-01 -2.019768e-01 -1.642582e+00 -9.255900e-01 6.896392e-01 1.247151e+00 1.925086e+00 -4.109204e-03 
-5.780315e+00 2.602696e+00 1.027954e+00 -1.811564e+00 3.071395e+00 1.968316e+00 2.583064e+00 -9.821439e-01 -3.911174e+00 1.204454e+00 7.382028e+00 1.785888e+00 -6.008375e-02 -2.071822e+00 -1.421235e+00 2.858044e-01 -2.717186e-01 -2.381022e+00 -1.541091e-01 -9.829825e-01 -6.050876e-01 -1.255574e+00 -5.096071e-02 -1.268328e+00 1.874804e+00 3.254199e-02 
-5.960039e+00 2.052708e+00 -3.618174e+00 -6.852195e+00 -2.381048e-01 3.517183e+00 3.409606e+00 2.050326e+00 -1.188014e+00 1.763925e+00 -2.085106e-01 -9.701253e-01 -2.905774e-02 -2.061755e+00 -3.671805e+00 1.211634e+00 1.972768e-01 -3.242876e+00 2.210343e+00 -2.280046e+00 8.371390e-01 1.371533e-01 -6.348966e-01 -1.469703e+00 1.034388e+00 1.311749e-01 
-9.837492e+00 -2.629608e+00 1.315695e+00 -1.127915e+00 -4.976443e+00 2.455563e+00 -2.555984e+00 8.244736e-01 -3.560052e+00 2.284630e+00 -5.144653e-01 6.470003e+00 1.413272e-01 -1.127161e+00 -4.708688e+00 1.162107e+00 3.262591e-01 -3.053639e+00 2.562179e+00 -2.746309e+00 5.603946e-01 3.702800e-01 -1.980755e+00 -1.633190e+00 -7.175799e-02 1.992602e-01 
-1.137470e+01 -1.439367e+01 3.486308e+00 -1.480875e+00 -8.481573e+00 1.259517e+01 -6.775178e+00 3.490644e+00 -8.828217e-02 -1.197959e+00 3.115472e+00 3.129073e+00 5.170490e-01 1.072115e-01 -3.221682e+00 7.310879e-01 5.060790e-02 -7.838681e-01 1.648324e+00 -1.259534e+00 -4.734581e-01 -2.215339e-01 -2.845428e+00 -1.617728e+00 -9.768106e-01 9.174298e-02 
-8.708784e+00 -1.271756e+01 3.286248e+00 -2.865928e+00 -8.075066e+00 1.024022e+01 -6.056090e+00 1.099670e+00 -2.609640e+00 -7.218379e+00 -2.445911e+00 -6.225005e-01 6.631637e-01 5.892698e-01 1.439821e+00 -1.602182e+00 -1.470382e+00 1.422055e+00 -1.096391e+00 1.197843e+00 -2.259419e-01 1.005935e+00 1.131359e+00 -4.761513e-01 -2.091386e+00 -6.475594e-02 
-5.988335e+00 -9.011728e+00 -9.480110e-01 -5.730149e+00 -2.608134e+00 7.866477e+00 -1.138009e+00 -4.545625e-01 -2.770890e+00 -7.711712e+00 -7.331425e+00 -2.307926e+00 1.687389e-01 5.151365e-01 4.581927e+00 -2.017527e+00 -1.279539e+00 2.477391e+00 -3.628069e+00 3.251305e+00 -2.684452e-01 3.797036e-01 1.841542e+00 9.519267e-02 -6.822122e-01 -1.866377e-01 
-9.584328e+00 1.878530e+00 -4.478055e+00 -6.355187e+00 -8.028855e-01 -6.620454e-01 6.146474e-01 1.667367e+00 2.810926e+00 1.119830e+01 2.328227e+00 -1.268427e+00 -8.297443e-03 -5.372530e-01 3.232872e+00 -1.672794e+00 -5.811700e-01 1.824968e+00 -3.499286e+00 2.332321e+00 2.846761e-01 8.168020e-02 7.437621e-01 9.954097e-01 7.149373e-01 -1.688240e-01 
-8.361250e+00 1.217921e+00 -2.719178e+00 -6.133939e+00 2.692924e-01 -9.404072e-02 6.145980e+00 1.864569e+00 -9.000477e-01 -1.198589e+00 1.204366e+00 4.097521e-02 -8.040893e-02 -6.547333e-01 1.727014e+00 -7.577616e-01 -1.485135e-01 1.948926e+00 -1.763610e+00 4.312340e-01 5.366942e-01 2.698888e-01 1.637173e-02 1.379351e+00 1.349798e+00 -5.205284e-02 
-1.020859e+01 -1.668021e+00 -4.192137e+00 -5.569882e+00 -3.889380e-01 -3.275954e+00 1.963519e+00 1.363485e+00 -3.136660e+00 -6.756129e+00 -1.736759e+00 1.777735e+00 -5.638242e-02 7.564048e-02 -2.469063e-01 4.039807e-01 3.860912e-01 8.497891e-01 5.298560e-01 1.655045e-02 -1.792263e-02 8.013053e-02 -1.642312e+00 5.171131e-01 7.609790e-01 -1.008539e-02 
-8.949869e+00 1.396616e+00 -4.879778e+00 -6.865368e+00 6.929521e+00 3.553810e-01 3.437247e-01 2.380850e+00 1.552348e+00 1.347362e+00 1.597824e+00 2.917981e+00 -6.748283e-02 -4.310284e-01 4.705963e-02 3.371562e-01 -1.401403e-01 -5.263495e-02 -3.298407e-01 -1.155790e+00 -3.387008e-01 1.521501e+00 1.730157e+00 8.743841e-01 1.853715e-01 5.142999e-03 
-8.911816e+00 5.546511e-01 -1.377851e+00 -4.059016e+00 1.159458e-01 1.762524e+00 3.598527e+00 1.319614e+00 1.985381e+00 1.713767e+00 4.717064e+00 1.097965e+00 -6.518745e-02 -1.132906e-01 1.922726e-01 1.975766e-01 2.617657e-01 -3.236134e-01 -6.892796e-01 -1.126910e-01 -3.052877e-01 1.149908e+00 2.231483e+00 7.506941e-02 -4.442954e-01 -2.782965e-03 
-1.116478e+01 3.418833e-01 -2.440539e+00 -7.590074e+00 -2.463243e-01 -4.262484e+00 -4.504738e-01 1.930010e-01 4.146436e+00 3.217247e+00 2.349376e+00 1.307718e+00 -5.029142e-02 -1.578238e-01 -6.793237e-01 8.783120e-01 6.492904e-01 -1.029523e+00 3.292872e-01 -6.252831e-01 -1.286858e+00 1.090865e-01 5.637070e-01 -1.197029e+00 2.187139e-01 6.864643e-03 
-9.667589e+00 -1.792916e-01 -4.423873e+00 -3.898701e+00 1.580918e+00 -4.413420e+00 1.797164e+00 9.309705e-01 1.315834e+00 3.466346e+00 -1.737188e+00 3.613895e-01 -7.889295e-02 5.097572e-01 -1.623049e+00 1.722956e+00 4.988911e-01 -8.630303e-01 2.777263e+00 -1.089445e+00 -1.921335e+00 1.253484e-01 -9.622505e-01 -1.133135e+00 1.011375e+00 4.515870e-02 
-9.361101e+00 -1.633031e+00 1.034793e+00 -3.699074e+00 1.049423e+00 5.089789e+00 -1.882009e+00 -3.859118e+00 2.432554e+00 3.289608e+00 -1.160197e+00 4.379838e+00 -2.630687e-02 2.261871e+00 -1.765273e+00 1.908585e+00 -5.954425e-01 -2.282337e+00 2.050139e+00 -1.012592e-01 -8.266504e-01 1.368918e-01 -2.884851e+00 3.790901e-01 8.876155e-01 1.890096e-01 
-7.264869e+00 -6.573135e+00 5.499265e+00 -3.510061e+00 -4.847079e+00 1.097270e+01 -1.132929e+00 -6.261003e+00 3.469065e+00 -3.133666e+00 8.061777e-01 4.618779e+00 1.486138e-01 1.504850e+00 -8.994327e-01 1.337260e+00 -2.826040e+00 -2.232621e+00 -2.658442e-01 -4.300027e-01 3.432740e-01 2.356681e-01 -2.867213e+00 1.800377e+00 1.308801e+00 2.912530e-01 
-1.056785e+00 -5.287562e+00 2.140815e+00 -1.076161e+01 -8.444012e+00 -1.704850e+00 5.082767e-01 -3.442644e-01 3.754280e+00 -7.907003e+00 2.973144e+00 3.617101e+00 7.810031e-01 1.245996e-01 4.744043e-02 1.765798e+00 -1.220786e+00 -8.862425e-01 -2.168264e+00 6.794385e-01 2.183469e+00 1.670244e-02 -1.292909e+00 9.330784e-01 -4.451590e-02 2.744753e-01 
-6.295500e+00 -2.849189e+00 1.709414e+00 -1.449763e+01 -4.835473e+00 -2.345321e+00 -1.547992e+00 8.899137e-01 1.833312e+00 -5.271412e+00 5.198028e+00 7.286765e+00 9.737171e-01 5.014448e-02 8.336990e-01 2.065260e+00 1.635734e+00 6.265342e-01 -1.197107e+00 1.244107e+00 1.155912e+00 -1.176212e+00 -1.277122e+00 -1.483276e+00 -8.913209e-01 1.555394e-01 
-9.222788e+00 -3.257802e+00 1.175871e+01 -4.309218e+00 -3.387593e+00 9.074819e-01 1.722716e+00 3.482771e+00 3.333942e+00 -2.106065e+00 1.309269e+00 2.823266e+00 9.335181e-01 2.345491e-01 -7.533440e-01 1.754185e+00 3.818645e+00 6.818954e-01 2.091835e-01 1.260825e+00 5.088375e-01 -4.258234e-01 -8.732069e-01 -3.233221e+00 -1.292511e+00 -7.723421e-03 
-2.931145e+00 -3.419520e+00 1.101662e+01 1.442416e+00 -4.242617e+00 3.681005e+00 4.480389e+00 -2.394961e+00 -2.201829e+00 -1.241974e+01 -5.778267e+00 5.590919e-01 8.500535e-01 1.799971e+00 -1.960748e+00 4.905910e-01 3.939034e+00 2.898040e-01 9.740549e-01 1.994613e+00 5.635856e-01 2.659891e-01 -9.908720e-01 -3.449006e+00 -1.433626e+00 -4.681904e-02 
-1.566217e+00 -8.769116e+00 6.258136e+00 3.615961e-01 -5.330962e+00 -3.672096e+00 3.798209e+00 3.842360e+00 3.642734e+00 -8.698872e+00 -7.704811e+00 5.183834e-01 8.042178e-01 3.072277e+00 -1.106018e+00 -7.304112e-01 1.880914e+00 -1.439144e-01 -2.973290e-01 5.509264e-01 -3.845825e-02 8.571513e-01 5.735357e-01 -1.513903e+00 -3.762317e-01 -2.414815e-02 
-1.123930e+00 -9.897271e+00 6.912655e+00 2.862126e+00 -2.414768e+00 4.814743e+00 7.387327e+00 3.528047e+00 3.008862e+00 -6.929369e+00 -7.539964e+00 1.271074e+00 8.042721e-01 2.981892e+00 9.320140e-02 -1.173728e-01 6.163219e-01 -1.725512e+00 -7.023338e-01 -2.092595e+00 4.942302e-01 2.605075e+00 2.757993e+00 8.322091e-01 6.859580e-01 1.319631e-02 
5.234986e+00 -5.549016e+00 1.015863e+01 4.385499e+00 -5.021089e+00 -1.146032e+00 3.023879e+00 3.289754e-01 5.014354e+00 -1.983575e+00 -5.379396e+00 5.861161e-01 8.356681e-01 3.551163e+00 8.650708e-01 -5.488243e-01 5.181245e-01 -1.779884e+00 -4.909309e-01 -3.590982e+00 -6.586548e-01 1.748667e+00 1.477486e+00 1.534329e+00 1.525056e+00 3.458135e-02 
8.577712e+00 -4.563564e+00 8.479506e+00 2.512074e+00 -1.302511e+01 -1.093696e+00 -5.595421e+00 1.832883e+00 1.013774e+01 -1.987427e+00 -2.779929e+00 3.955016e+00 9.003099e-01 3.085456e+00 -1.345614e-01 -1.239257e+00 9.775190e-02 -1.994318e+00 -1.819125e+00 -4.254699e+00 -9.171923e-01 2.037210e+00 2.532020e-01 1.327914e+00 1.543887e+00 4.619099e-02 
1.133878e+01 -7.110616e+00 2.730589e+00 3.127245e+00 -8.925207e+00 -3.172531e+00 -7.665326e+00 1.396669e+00 8.821632e+00 -3.782412e+00 -2.413184e+00 6.801693e+00 9.291056e-01 1.439197e+00 -1.458423e+00 -1.375597e+00 3.350034e-01 -1.031489e+00 -8.556654e-01 -2.719802e+00 -7.895770e-01 1.368541e+00 -9.559519e-01 5.021502e-01 1.714084e+00 4.168621e-02 
1.125146e+01 -9.789278e+00 4.430390e+00 3.980013e+00 -1.043430e+01 -3.267633e+00 -8.541565e+00 -1.591761e+00 1.129127e+01 -4.763940e+00 -2.383499e+00 5.882724e+00 9.885082e-01 8.303715e-01 -1.551360e+00 -3.933271e-01 1.034678e+00 -2.248688e-02 -9.147936e-01 -9.825667e-01 -1.232019e+00 1.123769e-01 -5.231694e-01 -9.428835e-02 9.270844e-01 2.218603e-02 
1.109410e+01 -1.022828e+01 5.305206e+00 5.326547e+00 -1.147394e+01 -4.337390e+00 -9.102060e+00 -1.906588e+00 1.128029e+01 -5.375078e+00 -3.066859e+00 8.192680e+00 1.000000e+00 4.168926e-01 -8.228030e-01 5.245062e-01 1.316513e+00 -8.386526e-01 -8.543693e-01 -7.056071e-01 -6.138214e-01 -7.164920e-01 5.514485e-01 -2.508305e-01 7.022581e-01 7.592201e-03 
1.285191e+01 -1.076154e+01 5.225561e+00 6.585812e+00 -1.186318e+01 -5.085234e+00 -9.789888e+00 -2.675586e+00 9.470292e+00 -3.806942e+00 -2.924533e+00 7.894944e+00 9.757929e-01 4.584171e-01 1.752663e-01 -2.101444e-01 1.560735e+00 -7.161844e-01 -1.043003e+00 -5.169234e-01 -9.181611e-02 -1.640843e+00 1.234716e+00 -6.240507e-01 9.471475e-01 -9.668946e-03 
1.262301e+01 -1.073850e+01 4.955535e+00 8.406909e+00 -1.240403e+01 -6.535576e+00 -1.056920e+01 -1.130526e+00 6.149662e+00 -1.503669e+00 -3.396820e+00 9.306873e+00 9.734243e-01 4.462217e-01 5.733632e-01 -3.189704e-01 1.555517e+00 -4.015779e-01 -1.584256e+00 -1.884464e-01 3.569758e-01 -1.685758e+00 9.183593e-01 -9.422803e-02 6.728649e-03 -1.526119e-02 
1.277909e+01 -8.657833e+00 3.554504e+00 1.024351e+01 -1.355018e+01 -7.383554e+00 -1.039261e+01 -2.438873e+00 5.652369e+00 -5.260642e-01 -5.338773e+00 1.006137e+01 9.534513e-01 3.469381e-01 9.949995e-01 -4.414963e-01 1.348636e+00 8.285885e-02 -1.578993e+00 5.030786e-01 5.268779e-01 -1.608212e+00 8.203433e-02 7.802479e-02 -3.905326e-01 -2.129577e-02 
1.336162e+01 -8.413311e+00 4.545883e+00 1.127528e+01 -1.263833e+01 -1.110951e+01 -9.742929e+00 -2.400653e-01 4.760461e+00 -2.423720e+00 -2.330880e+00 7.143113e+00 9.348648e-01 5.615994e-01 1.003937e+00 -3.636312e-01 1.058184e+00 7.560760e-01 -5.793881e-01 3.707666e-01 -4.068056e-02 -1.322420e+00 -5.259882e-01 4.297381e-01 -1.393898e+00 -3.138829e-02 
1.421730e+01 -6.949134e+00 3.222906e+00 1.189481e+01 -1.133173e+01 -1.069323e+01 -7.687629e+00 -4.864267e-01 2.123834e+00 -2.936744e+00 -3.067379e+00 7.024161e+00 8.885938e-01 4.793443e-01 1.127356e+00 -4.183784e-01 9.287376e-01 1.345723e+00 4.520455e-01 -8.998012e-03 2.271919e-01 -1.941021e+00 -4.375203e-01 6.234155e-02 -2.085828e+00 -4.033504e-02 
1.471190e+01 -6.573168e+00 3.303178e+00 1.287218e+01 -9.732872e+00 -7.777678e+00 -1.006786e+01 -2.310152e+00 1.301830e+00 -2.928270e+00 -2.383826e+00 3.855988e+00 8.489116e-01 3.254223e-01 1.590729e+00 -8.947164e-01 9.879961e-01 1.797471e+00 1.599478e+00 -3.494015e-02 -3.261608e-01 -1.973702e+00 -6.508187e-01 -2.534981e-01 -2.535622e+00 -5.007147e-02 
1.450066e+01 -3.941125e+00 2.083964e+00 1.408875e+01 -8.274292e+00 -6.789241e+00 -1.027514e+01 -2.678702e-01 -2.323421e+00 -2.461391e+00 -5.000592e+00 1.275787e+00 7.947527e-01 2.076969e-02 1.626820e+00 -5.532221e-01 5.737060e-01 1.979722e+00 1.427003e+00 4.695581e-01 -4.041635e-01 -2.051970e+00 -5.991833e-01 1.218323e-01 -2.457218e+00 -5.177282e-02 
1.484705e+01 -1.963671e+00 6.417712e-01 1.511829e+01 -5.179700e+00 -5.064112e+00 -8.623877e+00 -1.980147e+00 -2.884421e+00 -5.915491e+00 -2.631764e+00 -2.660808e+00 7.314280e-01 -1.101084e-02 1.463950e+00 -6.833716e-01 -1.263353e-01 2.480955e+00 9.496068e-01 7.886199e-01 -8.059400e-01 -1.713608e+00 3.846295e-01 -7.144620e-02 -1.390448e+00 -4.962543e-02 
1.425357e+01 -1.119781e+00 1.787499e+00 1.364028e+01 -3.709712e+00 -4.914999e+00 -6.061829e+00 -2.672246e+00 -6.042893e+00 -4.439051e+00 -2.334249e+00 -2.003529e+00 6.884715e-01 -1.717362e-01 1.559782e+00 -2.500661e-01 -1.123775e+00 2.527279e+00 6.153976e-01 6.999544e-01 -1.717610e+00 -6.786036e-01 9.173455e-01 1.207478e+00 -6.247721e-01 -4.520788e-02 
1.478040e+01 -6.640907e-01 3.455293e-02 1.246474e+01 3.896148e-01 -3.966766e+00 -8.231413e+00 -5.137664e+00 -5.406472e+00 -1.629215e-02 -4.074229e+00 -1.456595e+00 6.539251e-01 -4.695667e-01 1.828502e+00 2.477709e-01 -1.197175e+00 1.575344e+00 1.123694e+00 3.362885e-01 -1.420027e+00 -9.879187e-01 1.237822e+00 2.145977e+00 1.731378e-01 -4.424307e-02 
1.367531e+01 3.207994e+00 1.137242e+00 9.796650e+00 1.577448e+00 -4.260926e+00 -6.971598e+00 -7.277161e+00 -4.455414e+00 -8.242621e-01 1.758030e+00 -2.450179e+00 6.074648e-01 -5.195030e-01 1.845737e+00 -1.679405e-01 -9.460203e-01 9.306704e-01 1.472666e+00 1.461023e+00 -2.534528e-01 -1.583970e+00 2.771383e-01 3.043807e+00 3.148669e-01 -5.016056e-02 
1.278835e+01 5.014953e+00 2.205754e+00 1.105423e+01 5.343938e-02 2.273210e-01 -6.487549e+00 -6.777823e+00 -8.617754e+00 -1.533773e+00 6.051980e+00 -1.571793e+00 5.507160e-01 -8.478246e-01 1.432639e+00 -1.442926e-01 -1.093233e+00 3.767012e-01 4.888168e-01 2.567309e+00 1.364139e+00 -2.143647e+00 7.218789e-02 3.709069e+00 1.535823e+00 -5.616879e-02 
1.265208e+01 5.269381e+00 -1.378043e-01 9.615427e+00 1.111728e+00 3.512863e-01 3.713527e-01 -3.119430e+00 -1.235710e+01 -2.294619e+00 7.821684e+00 -3.715954e-01 4.892733e-01 -6.652382e-01 8.109979e-02 -5.755855e-01 -7.741407e-01 8.255383e-01 4.082421e-01 3.258024e+00 1.498210e+00 -6.522303e-01 1.948943e+00 9.169511e-01 1.162032e+00 -5.821129e-02 
1.105289e+01 5.468413e+00 -4.938662e-02 7.089184e+00 2.505980e+00 -3.828788e+00 9.336588e-01 -3.958343e-01 -1.217386e+01 1.079826e+00 1.143929e+01 5.183227e+00 4.321769e-01 -1.247377e+00 -1.069930e+00 -1.144678e+00 -1.318167e+00 1.184476e+00 7.618609e-02 3.569404e+00 5.087968e-01 6.872569e-01 2.848367e+00 2.879443e-01 9.375466e-01 -7.040188e-02 
1.121685e+01 3.386764e+00 -6.131146e-01 7.908471e+00 4.478869e+00 -1.916611e-01 5.607918e+00 -2.977106e+00 -5.938511e+00 7.613656e+00 3.649130e+00 -1.753092e-02 3.756779e-01 -1.820781e+00 -1.635622e+00 -1.223825e+00 -1.527360e+00 1.544472e+00 1.527866e+00 2.463752e+00 -2.349527e-01 2.436280e+00 1.919563e+00 -7.157577e-01 3.579512e-01 -8.622436e-02 
7.269079e+00 6.066104e-01 -3.279979e+00 5.316875e+00 4.292249e+00 8.797252e-01 8.741189e+00 -4.305002e+00 -8.390766e+00 7.753926e+00 9.577978e+00 2.938908e+00 2.555043e-01 -1.363860e+00 -1.495118e+00 -9.201201e-01 -1.630238e+00 3.142962e-01 1.689144e+00 1.081550e-01 -1.526487e+00 1.356622e+00 -1.160362e+00 -2.349208e+00 -1.101341e+00 -7.366194e-02 
5.440080e+00 -4.778270e-01 -4.641634e+00 2.864779e+00 7.940954e+00 5.636360e+00 8.786348e+00 -2.339610e+00 -2.067252e+00 3.966146e+00 5.173551e+00 2.540320e+00 1.464878e-01 -1.120546e+00 -4.104613e-01 -3.426945e-01 -1.563852e+00 -7.808539e-01 -2.383091e-01 -2.615004e+00 -1.401223e+00 -1.043772e-01 -2.630216e+00 -2.023602e+00 -1.289576e+00 -5.492735e-02 
7.121970e+00 -7.488239e-02 -2.635727e+00 1.459837e+00 2.346419e+00 1.702922e+00 -1.147814e-01 -8.347014e+00 -7.326382e+00 -2.898229e+00 -1.068963e+00 -1.602402e+00 1.784623e-01 -3.476639e-01 -2.517379e-01 8.649375e-02 -7.928955e-01 -1.432887e-01 -6.995701e-01 -2.740372e+00 -8.863815e-01 3.131509e-01 -1.806594e+00 -2.455598e+00 -2.112701e+00 -2.919404e-02 
5.687674e+00 1.675203e+00 -2.648713e+00 2.017730e+00 1.547514e+00 -1.794805e+00 -3.039119e+00 -7.962214e+00 -6.992589e+00 -2.113463e-01 -1.145411e+00 -4.194757e+00 1.395621e-01 -3.965240e-01 -7.017802e-02 -7.398903e-01 -1.067863e+00 -6.345010e-02 -1.292073e+00 -9.255083e-01 -1.056636e-01 -1.924903e-01 -4.406496e-01 -8.348915e-01 -5.105969e-01 -2.025562e-02 
5.406962e+00 -1.728595e+00 -3.843971e+00 1.775922e+00 6.772526e+00 1.097457e+00 9.520624e-01 -5.925608e+00 -4.362342e+00 8.097034e-01 4.594696e-01 -4.257060e+00 1.129969e-01 -7.180168e-01 1.866532e-01 -1.669899e+00 -3.647576e-01 1.045137e+00 -7.297002e-01 1.400942e+00 1.168715e+00 1.332163e+00 3.223115e-01 9.616089e-01 7.892755e-01 -2.834374e-02 
4.314963e+00 -1.860976e-03 -7.736964e+00 -2.632579e+00 5.410650e+00 -5.212736e-01 3.625385e+00 -4.078631e+00 -4.511724e+00 -9.106806e-02 2.348765e-01 1.314665e+00 7.794237e-02 -5.623271e-01 2.857496e-01 -1.446220e+00 -1.388366e+00 -8.889930e-02 1.361191e+00 1.148838e+00 8.414793e-03 1.982229e-01 2.160085e-01 1.213296e+00 8.538257e-01 -2.136700e-02 
4.218242e+00 1.696916e+00 -8.441093e+00 1.961204e+00 5.640537e+00 -2.582345e+00 3.557677e+00 -4.445232e+00 -1.906000e+00 -1.346811e+00 3.048938e+00 -4.107357e-01 6.755352e-02 -6.828843e-01 1.446672e+00 3.821637e-01 -1.101093e+00 -2.322309e-01 1.669419e+00 -3.162183e-01 7.061451e-01 -5.313697e-02 1.368624e-01 3.438124e-01 -2.260395e-01 -1.998573e-02 
3.470399e+00 1.391196e+00 -7.581253e+00 -5.016742e+00 1.669012e+00 6.851048e+00 1.402265e+00 -8.660328e+00 -7.229646e+00 1.946953e+00 3.626333e+00 -1.848791e+00 5.544883e-02 -9.819516e-01 8.405517e-01 7.475076e-01 -6.832853e-01 -2.981461e-01 9.853103e-01 -1.419330e+00 9.987849e-01 2.502292e-01 -2.468698e-01 -3.901694e-01 -4.671999e-01 -2.162076e-02 
2.414823e+00 4.808239e+00 -2.011008e+00 -2.537462e+00 7.482190e+00 5.758391e+00 4.825306e-01 -1.040337e-01 -3.269066e+00 4.750049e-01 4.828033e-01 -3.805529e+00 2.431506e-02 -1.110619e+00 9.532431e-01 1.187888e+00 -8.707252e-01 8.955218e-02 7.929420e-01 -8.650541e-01 2.624783e-01 -2.535689e-01 -6.707020e-01 -1.647477e+00 -1.723568e+00 -2.342579e-02 
3.069143e-01 2.645236e+00 -7.214469e+00 -3.799673e+00 2.999093e+00 2.349094e-01 -1.933692e+00 -1.255306e+00 -2.579044e+00 -2.236325e+00 -4.329031e-01 6.760622e-01 -8.542180e-03 -9.629978e-01 1.161291e+00 9.355808e-01 2.784631e-01 8.621365e-01 -1.033798e+00 9.494332e-01 8.601965e-01 4.801759e-01 2.437972e-01 -1.289147e+00 -2.215427e+00 -1.921999e-02 
2.468882e-01 5.836111e+00 -2.685046e+00 -3.000956e+00 5.423258e+00 4.690435e+00 9.003842e-01 -6.835352e+00 -5.499145e+00 -2.608681e+00 -3.158830e+00 -1.029100e+01 -1.757991e-02 -7.772320e-01 8.251202e-01 -2.094479e-02 -5.811999e-02 4.503965e-02 -8.398436e-01 4.108280e-01 1.055297e+00 1.290231e+00 1.127993e+00 4.608265e-02 -1.130732e+00 -1.231480e-02 
-2.606230e-01 6.683713e+00 -2.566330e+00 -3.392679e+00 7.009161e+00 2.216037e+00 5.940505e+00 -9.936864e-01 -3.713727e+00 4.707782e+00 -9.985851e-01 -9.683190e+00 -1.970363e-02 -7.222106e-01 8.474555e-01 9.514462e-01 4.443591e-02 2.882416e-01 -8.665434e-01 1.772132e-01 2.299529e+00 2.227252e+00 1.555167e+00 5.327511e-02 2.682773e-01 -6.444681e-03 
-1.187568e+00 6.914601e+00 -4.439801e+00 -3.031558e+00 5.702355e+00 5.686094e-01 -1.400427e+00 5.041639e+00 3.749431e+00 2.642917e+00 9.960576e-01 -4.279563e+00 -3.167820e-02 -5.970732e-01 1.249377e-01 1.131099e+00 8.259036e-01 -4.665111e-01 -2.009372e-01 7.275089e-01 2.678541e+00 2.547387e+00 7.191201e-01 -9.247261e-01 5.098535e-01 -4.833007e-03 
-2.586911e+00 6.343269e+00 -1.579860e+00 -3.562192e+00 4.300753e+00 -2.036895e+00 1.027803e-01 4.303843e+00 3.932930e+00 2.913708e+00 -2.243971e+00 -9.882706e-01 -3.371644e-02 -5.308120e-01 -1.360052e-01 1.179987e+00 1.311894e+00 -3.600681e-01 5.087670e-01 4.301506e-01 -2.319440e-01 6.786064e-01 -3.317630e-01 -6.402901e-01 1.136152e-01 -1.135230e-03 
-1.575334e+00 6.631021e+00 2.477216e+00 1.213319e+00 4.444906e+00 5.812215e+00 7.456791e+00 3.908586e+00 3.414460e+00 1.883956e+00 -7.159767e+00 -1.208919e+01 -3.473854e-02 -9.833918e-02 -8.900814e-02 8.122195e-01 5.133803e-01 4.830910e-01 6.472036e-01 1.091750e+00 -8.771824e-01 -7.746759e-01 -1.146264e-02 -3.128318e-01 -4.215653e-01 -4.234040e-03 
-2.720800e+00 6.145477e+00 -1.249034e-01 1.044350e+00 5.837544e+00 2.138069e+00 3.662649e+00 -1.586880e+00 -1.532097e-01 3.428448e+00 -1.221234e-01 -5.210299e+00 -2.384961e-02 2.995836e-01 -9.537344e-02 -5.081682e-02 -1.662703e-01 4.248986e-01 -1.665277e-02 -8.109808e-03 -7.753526e-01 -7.746990e-01 -1.263477e-01 8.753971e-01 1.022543e+00 -7.474220e-03 
-1.612319e+00 6.568457e+00 -1.106182e+00 -2.767928e+00 7.349414e+00 1.717146e+00 2.278389e+00 3.601089e+00 1.919122e+00 2.328234e+00 -1.629025e+00 -4.276376e+00 -5.778182e-02 2.460320e-01 -3.471527e-01 -6.639014e-01 -1.294262e+00 1.371172e-01 -4.836311e-01 -9.820015e-01 -1.094986e-01 1.330850e-01 1.320689e+00 2.147377e+00 2.244308e+00 -7.090854e-03 
-1.070500e+00 5.897684e+00 -4.224527e-02 -2.402920e+00 4.972992e+00 -7.262400e-02 2.651432e+00 5.808293e-01 8.071046e-01 2.059831e+00 -6.323568e-01 2.180358e-01 -5.956590e-02 2.238033e-01 -1.115918e-01 7.303691e-02 -1.929446e-01 -9.489329e-02 1.350964e-01 -6.950811e-01 7.856275e-01 -2.661343e-01 2.401806e-01 1.264713e+00 1.725561e+00 1.415730e-03 
-1.170324e+00 5.019155e+00 -8.836204e-01 -3.534355e+00 5.562769e+00 4.499406e+00 3.052392e+00 2.277238e+00 3.599728e+00 9.171712e+00 3.832232e+00 -3.581820e+00 -5.233467e-02 -3.680590e-01 -3.554420e-01 7.316775e-02 4.728436e-01 -4.566642e-01 4.389363e-01 2.365034e-02 2.049944e-01 -1.554312e+00 -1.942433e+00 -1.443433e+00 -3.191645e-02 1.257712e-02 
-1.822781e+00 6.362169e+00 1.290002e-01 4.628410e-01 6.256401e+00 1.422421e+00 -1.997576e-01 3.003183e+00 -2.324184e+00 1.207612e+00 3.470813e+00 3.070228e+00 -1.949453e-02 -5.923581e-01 -1.289055e-01 -1.817140e-02 5.405086e-01 1.947765e-01 7.661613e-01 4.335681e-01 -5.974782e-01 -1.683062e+00 -1.180462e+00 -1.589627e+00 -7.253440e-01 5.821073e-03 
-3.076474e+00 4.559004e+00 -8.259662e-01 -1.836590e+00 4.424388e+00 3.164304e+00 3.822235e+00 3.414884e+00 -4.286794e+00 -6.957821e+00 -1.089777e+01 -5.862054e+00 -1.493192e-02 -9.891061e-02 2.981287e-01 -3.427357e-01 6.010326e-01 2.138212e-01 -3.813969e-01 8.391748e-02 -1.694126e+00 -8.109566e-01 -1.550960e+00 -2.165203e+00 -2.036341e-01 2.776456e-03 
-3.079216e+00 5.483232e+00 -1.619294e-01 -5.492597e-01 6.516065e+00 4.425733e+00 4.434350e+00 -2.975384e+00 -3.664943e+00 4.222289e+00 -1.215490e+00 -2.268567e+00 -4.916191e-02 3.687513e-01 3.129422e-01 -6.772245e-01 -7.222800e-02 -2.324314e-02 -6.115297e-01 -3.506052e-02 -1.238752e+00 1.990445e+00 3.324954e-01 -9.000118e-01 -1.998675e+00 -5.181670e-03 
-1.036660e+00 6.949266e+00 -2.451834e+00 -2.314186e-02 6.502043e+00 1.090766e+00 1.154925e+00 -3.204110e+00 2.153242e-01 -9.042646e-02 -4.650631e+00 -1.930593e+00 -2.361870e-02 4.872561e-01 7.666060e-01 1.630899e-01 2.936750e-02 2.786604e-01 -9.495218e-01 -7.260765e-01 2.952757e-01 2.459424e+00 1.035769e+00 1.463609e+00 -4.819210e-01 -2.057648e-03 
-9.989314e-01 6.731749e+00 -2.444189e+00 -8.050232e-01 5.101358e+00 -5.984582e-01 9.585950e-01 1.189178e-01 5.376979e+00 -5.636079e-01 -4.152818e+00 -8.888876e+00 -4.105949e-02 4.276530e-01 5.316854e-01 7.163491e-01 -2.331809e-01 -4.125947e-01 -4.751374e-01 -2.080243e-02 1.742572e+00 1.283874e+00 4.467894e-01 1.233780e+00 -9.674524e-01 3.740311e-03 
-1.680336e+00 7.767776e+00 1.130613e+00 -1.561871e+00 6.525044e+00 9.287910e-01 1.929731e+00 3.344111e+00 3.489366e+00 6.139728e-01 -2.111063e+00 -4.961504e+00 -2.927136e-02 1.214913e-01 2.566930e-01 1.223364e+00 -1.986091e-01 -4.780672e-01 4.810026e-01 8.560362e-01 1.367940e+00 -2.455406e-01 1.905657e+00 2.450495e+00 -4.021060e-01 5.394816e-04 
-6.191125e-01 7.732404e+00 1.628592e+00 -9.457994e-01 4.441590e+00 2.131033e+00 3.942935e+00 2.463367e+00 1.117407e+00 6.104036e+00 3.683624e+00 -5.590374e+00 -2.763402e-02 1.820861e-01 1.965939e-01 8.643541e-01 3.345194e-02 -3.402989e-01 6.661224e-01 7.981886e-01 3.808152e-01 -1.089110e+00 1.882535e+00 2.146757e+00 5.968133e-01 2.848828e-03 
