2.354717e-02 -7.698655e-01 -5.385742e-01 -3.191666e+00 -8.086603e-01 1.008552e+00 5.219822e-01 1.851610e+00 -3.980728e+00 -1.360985e+00 -3.458255e+00 1.787830e+00 1.546248e-01 -7.214252e-01 -7.958358e-01 5.109676e-01 -2.234631e-01 3.675860e-01 2.020238e-01 1.026307e-01 5.086203e-01 2.582159e+00 2.714581e-01 4.042270e-01 -8.437636e-01 -1.265264e-03 
-2.155884e+00 -3.993600e+00 1.683925e+00 -2.298010e+00 1.818482e+00 2.464563e+00 1.844297e+00 1.951242e+00 2.114923e+00 -3.992266e+00 -4.269303e+00 -1.219187e+00 1.527942e-01 -7.859785e-01 -1.120790e+00 -3.737269e-01 -8.235957e-01 5.500060e-01 2.543645e-02 8.836731e-01 6.247565e-01 1.513953e+00 1.615408e-01 3.629713e-01 1.917175e-01 3.718507e-03 
-2.493863e+00 -3.137177e+00 9.050142e-01 -4.755809e+00 -2.843015e-01 1.290666e+00 3.739786e-01 4.344896e+00 5.882242e+00 1.311946e+00 -1.031596e+00 -9.274795e-01 1.492138e-01 -5.882387e-01 -9.873970e-01 -6.967599e-01 -9.939810e-01 5.049823e-02 -4.613372e-01 -4.989815e-02 2.129925e-01 -1.787125e-01 -8.878851e-03 1.462272e+00 4.394550e-01 7.863236e-03 
-2.647640e+00 -5.190159e+00 -3.129003e+00 -6.527573e+00 1.679191e+00 9.946775e-01 5.014349e+00 3.728750e+00 -1.342448e+00 -1.889746e+00 -2.856728e+00 4.104073e+00 1.759229e-01 6.809139e-03 -1.534944e-01 -4.725135e-01 4.385705e-02 3.716611e-01 -3.470579e-01 -2.652835e-01 -4.321070e-01 -9.352347e-01 2.212070e-01 1.342488e+00 1.120385e+00 5.959434e-03 
-2.671768e+00 -5.108571e+00 -1.615910e+00 -6.046789e+00 -4.865233e-01 -5.631909e-01 -1.312535e+00 2.027819e+00 -3.145606e+00 -2.456639e+00 3.146819e+00 1.323476e+00 1.823767e-01 2.969445e-01 -5.257864e-02 2.867731e-01 9.768759e-01 2.802650e-01 -4.334717e-01 -3.400689e-01 -4.291162e-01 -8.640472e-01 -1.615019e-02 1.113628e+00 1.110226e+00 3.322524e-03 
-2.032886e+00 -3.775375e+00 5.818194e-01 -1.433235e+00 3.777899e+00 1.656202e+00 1.361136e+00 9.492458e-01 1.952673e+00 -1.001939e+00 3.539267e-01 3.257262e+00 1.660100e-01 4.758689e-01 8.759127e-01 1.398404e+00 9.376122e-01 -9.210947e-01 -6.903726e-01 -7.641351e-01 2.131691e-01 5.356370e-01 5.322188e-01 1.097993e+00 -8.224288e-01 -5.361211e-03 
-1.316518e+00 -4.107462e+00 4.834687e-01 -2.418599e+00 6.766957e-02 -1.207454e+00 5.002410e-01 3.589067e+00 -8.555442e-02 7.872910e-01 2.931214e+00 5.047057e+00 1.707829e-01 5.685395e-01 7.358314e-01 6.945359e-01 -3.821676e-02 -4.382045e-01 -6.235651e-01 -3.409569e-01 1.417425e-01 1.216663e+00 2.530162e-01 1.343806e-01 -6.918029e-01 -6.479192e-03 
-9.459209e-01 -1.311150e+00 2.813327e+00 -3.653608e+00 -3.203379e+00 -2.135054e+00 2.872860e-01 4.013972e+00 -1.942884e-01 -8.506176e-01 2.741038e+00 -1.869862e+00 1.549137e-01 -1.409970e-01 -2.735435e-01 -4.103801e-02 -8.054269e-01 -1.468040e+00 -9.142368e-01 -5.874111e-01 -3.307048e-01 9.288651e-01 -1.178527e-01 -1.979401e-01 -7.622870e-01 -2.717340e-03 
-3.725529e-01 -2.661527e+00 7.410158e-01 -5.127687e+00 8.130934e-01 -1.785388e+00 -2.480394e+00 1.204168e+00 4.011191e+00 -1.267218e+00 2.625167e+00 4.280232e-01 1.555288e-01 -5.569202e-01 -2.477160e-01 -3.438784e-01 3.500716e-01 8.323123e-02 9.209967e-02 -6.157190e-01 -2.914508e-01 1.600759e+00 -3.377829e-01 -4.895874e-01 4.509867e-01 -4.824823e-03 
-3.209853e+00 -5.866061e+00 2.478558e-01 -4.105825e+00 -3.935015e+00 -2.626015e+00 -8.560205e-02 4.881712e-01 4.548625e+00 -5.639474e-01 -4.827502e-01 1.755344e+00 1.600503e-01 -8.339224e-01 -4.562840e-01 -3.667852e-01 7.247385e-01 5.513843e-01 1.024261e+00 8.152354e-01 4.488965e-01 5.566321e-01 -1.263319e+00 -9.161425e-01 9.305776e-01 -1.390386e-03 
-2.969152e+00 -3.068586e+00 4.681218e-02 -4.421320e-01 8.496438e-01 -5.014753e-01 -2.391910e+00 3.894714e+00 5.546784e+00 -1.044959e+00 2.095171e+00 5.489388e+00 1.440905e-01 -5.694485e-01 -6.887674e-02 -9.208283e-01 2.056323e-01 1.461886e-01 2.530743e-01 5.226327e-01 2.551214e-01 -1.771379e+00 -6.428946e-01 -9.303576e-01 -2.818571e-01 -7.853371e-03 
-3.817233e+00 -3.389040e+00 1.326503e+00 -2.372693e+00 -4.647325e-01 2.344297e+00 4.319221e+00 4.913182e+00 1.821076e+00 -7.278344e+00 -1.574677e+00 2.523437e-01 1.536810e-01 1.865816e-01 5.474657e-01 -6.944035e-01 -2.347109e-01 1.626492e+00 3.064585e-01 -6.714839e-01 1.719647e-01 -2.246905e+00 5.040153e-01 8.491783e-01 -7.642111e-01 -1.457879e-02 
-2.916105e+00 -4.244421e+00 -4.402449e+00 -4.966091e+00 -1.911050e-01 -3.005173e+00 -2.069642e+00 2.672702e-01 -3.481931e+00 -1.124493e+00 -1.480658e+00 -2.297622e-01 1.194466e-01 2.509437e-01 3.169266e-01 -1.307801e-01 -8.454523e-02 8.069687e-01 1.491480e-02 -1.018580e+00 -9.585755e-01 -2.049571e+00 2.428116e-01 -3.254248e-01 -1.669713e+00 -1.227670e-02 
-2.303469e+00 -2.540815e+00 -9.995310e-01 -3.017400e+00 4.717820e+00 1.581264e-01 -3.604155e+00 3.161716e+00 -2.171543e+00 1.995896e+00 5.551056e+00 7.938635e-01 9.947824e-02 2.824071e-01 4.973360e-01 -1.321512e-01 3.758149e-01 6.876783e-01 1.553791e-01 -1.405819e+00 -1.192048e+00 -6.030045e-01 5.885612e-01 3.675967e-01 -2.986444e-01 -1.358781e-02 
-2.471316e+00 -1.908066e+00 5.559286e-01 -5.425043e-01 2.293211e+00 6.661842e-01 -3.523121e+00 -2.243149e-02 -2.704761e+00 -4.468021e+00 -3.094820e+00 -3.129937e+00 1.098083e-01 -1.652588e-01 6.696090e-01 1.091516e+00 6.370476e-01 -6.278639e-01 7.286878e-01 9.346125e-01 -5.009837e-01 1.229954e+00 -1.084559e-01 3.612493e-01 5.681990e-01 -7.209140e-03 
-2.627592e+00 -2.070538e+00 -1.813442e+00 -2.705411e+00 1.731501e+00 1.285514e+00 -1.983135e+00 -9.022099e-01 -1.582532e+00 -2.663774e+00 1.070387e+00 2.092091e-01 9.056109e-02 1.333857e-02 5.251501e-01 -8.273082e-01 -7.093176e-01 -1.431463e+00 -2.930440e-01 1.198615e+00 5.351187e-02 7.999359e-01 -3.440013e-01 -8.186854e-01 6.822942e-01 -9.068680e-03 
-3.580338e+00 -1.131515e+00 1.462086e+00 -1.936848e+00 -1.837265e+00 7.457232e-02 1.792910e+00 -2.056851e-01 2.373332e+00 6.630623e-01 2.565923e+00 2.903560e+00 8.785951e-02 1.439368e-01 6.836209e-01 -1.457681e+00 -1.512463e+00 -3.805114e-01 5.309634e-01 6.156394e-01 8.820113e-01 6.300671e-01 1.192383e+00 1.197276e+00 7.042993e-01 -1.616140e-02 
-1.682265e+00 -3.033404e-01 -5.589151e+00 -5.866817e+00 -3.742567e-01 -1.011288e+00 -2.690971e-01 3.520903e+00 -7.109098e-01 -2.289652e+00 -1.372742e+00 1.188586e+00 6.510925e-02 1.677871e-01 8.871521e-01 -7.581212e-01 -7.490159e-01 3.143031e-01 8.292522e-02 -5.400704e-01 1.094965e+00 -1.638352e-01 9.896709e-01 6.825734e-01 -7.398514e-01 -8.728522e-03 
-2.224296e+00 6.264405e-01 -4.844623e+00 -6.524118e+00 1.443532e+00 4.469402e+00 -1.301943e+00 2.176069e+00 9.763598e-03 1.306835e+00 4.113127e+00 -9.812915e-02 4.172724e-02 -2.545500e-01 -1.295206e+00 -2.444455e-01 -1.558614e+00 -1.895319e-01 3.821778e-01 -3.674994e-01 -1.228647e+00 -1.935566e-01 9.079084e-01 9.280897e-01 -1.061709e+00 6.585905e-02 
-2.466678e+00 1.486245e+00 -2.450694e+00 -4.156856e+00 1.662618e+00 -4.972744e-01 -3.136060e+00 3.381740e+00 -1.219924e+00 1.962694e+00 3.709653e+00 -1.989203e+00 6.998461e-02 -9.348986e-01 -2.908696e+00 7.355269e-01 -2.148658e+00 -1.881847e+00 4.375515e-01 4.563134e-01 -3.430798e+00 9.438477e-02 1.549559e-01 3.052464e-01 -5.080280e-01 1.685480e-01 
-4.460881e+00 -8.502337e+00 -1.329370e+00 -1.058490e+01 -3.803362e+00 1.728455e+00 1.388895e+00 -6.279338e+00 1.660055e+00 3.076431e+00 4.665174e+00 -8.160908e-01 4.147171e-01 -6.241634e-01 -2.707638e+00 1.198540e-01 -2.972483e+00 -2.242662e+00 2.854578e+00 1.808691e+00 -3.722462e+00 -3.686513e-01 -2.153164e+00 -2.292283e+00 1.214076e+00 1.484595e-01 
-5.238465e+00 -1.028243e+01 -3.669143e+00 -1.457972e+01 -7.160045e+00 2.546944e+00 6.670513e-01 -9.405385e+00 -1.064132e+00 -2.399671e+00 -1.225340e-01 -9.925724e-01 7.213545e-01 8.084832e-01 -9.495558e-01 -1.140552e+00 -1.530114e-01 -1.334550e+00 3.974779e+00 1.103639e+00 -3.560201e+00 -1.311511e+00 2.362061e-01 -1.109241e+00 1.312447e+00 3.246906e-02 
-3.959219e+00 -7.027412e+00 -3.636128e+00 -1.617510e+01 -5.358448e+00 1.722019e+01 5.839959e+00 -1.004268e+01 -1.911389e+00 -7.277802e+00 -5.432193e+00 5.473936e+00 4.583397e-01 1.034218e+00 2.587811e+00 -1.582274e-01 3.106190e+00 2.283510e+00 2.426772e+00 -1.985459e-01 -7.223263e-02 -1.022954e+00 1.938858e+00 3.866632e-02 -6.987898e-02 -1.186407e-01 
1.324907e+00 -3.998996e+00 -7.000075e+00 -2.126811e+00 -4.232589e+00 1.163075e+01 1.566052e-01 -1.253760e+01 -5.991754e+00 8.320842e+00 3.212132e+00 1.428020e+00 2.105186e-01 -3.967720e-01 1.721581e+00 3.057218e+00 5.100002e+00 2.895530e+00 -4.454540e-01 -1.103438e+00 3.550979e+00 3.607576e+00 1.744526e+00 5.418323e-01 -3.715535e-01 -1.340708e-01 
-2.571478e+00 1.295000e+00 -4.550409e-01 -1.280403e+00 6.150461e+00 9.320407e+00 6.513882e-01 -5.074395e+00 -9.909015e-01 7.410464e+00 3.191173e+00 -2.375782e+00 7.693136e-02 -1.305256e+00 7.100065e-01 2.493538e+00 3.235949e+00 2.091018e+00 -3.030377e+00 -9.940883e-01 5.254002e+00 5.267589e+00 1.291572e+00 8.321770e-01 8.213212e-02 -7.120135e-02 
-7.916196e+00 -5.835731e+00 1.002640e+01 3.472946e+00 1.563152e+00 4.269563e+00 -2.255854e+00 5.865366e+00 1.651351e+01 -1.021172e+00 -1.725055e+00 1.074520e+00 2.417044e-01 -2.000580e+00 1.829596e+00 4.414211e-01 3.308415e-01 -4.813640e-01 -3.851321e-01 -6.247095e-02 5.332248e+00 3.168855e+00 7.330247e-01 -9.830936e-01 5.200768e-01 2.248001e-02 
-5.864945e+00 -2.559012e+00 3.183211e-01 -2.795238e+00 2.198772e+00 5.748899e+00 2.075747e+00 7.025850e+00 1.317393e+01 3.851068e+00 1.197286e+00 6.061347e+00 8.674002e-02 -7.241104e-01 2.228186e+00 -2.166038e+00 1.031158e-01 -2.144416e+00 8.609825e-01 7.678344e-01 2.267693e+00 -1.173192e+00 2.118393e+00 1.401281e-01 6.254346e-01 2.874232e-02 
-7.031260e+00 7.075991e+00 -5.179651e+00 2.848139e-01 -4.663565e+00 1.149085e+01 -8.679290e-01 8.073518e+00 2.770105e+00 1.376566e+01 -7.063930e-01 -1.901604e-01 3.180143e-01 6.697407e-01 2.556904e+00 -2.774392e+00 -1.363364e+00 -1.067013e+00 -9.911919e-03 1.545894e+00 -1.160627e+00 -4.006288e+00 2.559732e+00 1.465239e+00 -5.716282e-01 -3.160118e-02 
-6.634498e+00 5.980068e+00 -3.682206e+00 8.292427e-01 -1.458261e+00 1.001468e+01 3.796598e+00 5.159991e+00 1.483780e-02 1.060901e+01 3.382483e+00 1.383731e+00 1.824880e-01 1.259028e+00 9.903425e-01 1.664902e-01 -1.098894e+00 -6.849215e-01 -2.392150e+00 3.613491e-01 -2.335844e+00 -2.439721e+00 -5.064599e-01 7.975735e-01 -1.432104e+00 -3.415974e-02 
-4.182716e+00 2.679249e+00 -1.845295e+00 -5.156116e+00 -1.943396e+00 2.087114e+00 4.613192e+00 9.951625e-01 3.061613e+00 8.398517e+00 4.508543e+00 5.551869e-01 3.582448e-02 1.228614e+00 -1.082494e+00 1.153695e+00 -1.095128e+00 1.412950e+00 -2.843765e+00 7.492149e-01 -1.685324e+00 -4.404486e-01 -2.733643e+00 5.617626e-01 -8.737900e-02 -6.616638e-02 
-9.940767e-01 4.591071e+00 -5.164061e-01 -5.569245e+00 -2.585920e+00 -1.509986e+00 1.141932e+00 -1.114192e+00 8.295669e-01 4.002342e+00 2.577686e+00 -1.471847e+00 5.703622e-02 3.694944e-01 -1.202512e+00 1.313436e-01 -8.196568e-01 8.189441e-01 -1.447322e+00 -4.278127e-01 -6.115588e-01 -7.062218e-01 -1.397128e+00 1.850943e-01 -6.346969e-02 -2.808934e-02 
-3.708399e+00 2.358021e+00 -9.940759e-01 -1.991584e+00 2.965016e+00 3.034357e+00 4.205478e+00 2.783991e+00 1.604979e-01 3.400784e+00 2.504818e+00 8.007333e-01 4.990834e-02 -5.653484e-01 -4.327090e-01 1.208191e-02 4.517240e-01 1.679080e+00 9.893491e-01 1.115417e+00 1.122298e+00 -3.166847e-02 -5.473064e-01 3.215580e-02 7.082052e-01 1.999885e-03 
-5.024184e+00 1.281213e-01 -3.451097e+00 -4.851307e+00 1.822532e-01 2.304443e+00 1.861391e+00 1.207783e+00 -2.065713e+00 6.122240e+00 5.309816e+00 9.436092e-01 3.499937e-02 -7.587398e-01 -1.764542e-01 9.215937e-02 -2.101483e-01 1.741011e+00 2.199789e+00 2.012467e+00 2.053731e+00 1.043285e+00 2.372089e-01 -2.223158e-01 6.683168e-01 8.496225e-04 
-4.994405e+00 2.747179e+00 -3.175396e-01 -3.256465e+00 5.067915e+00 5.126645e+00 9.830549e+00 5.445667e+00 4.350911e+00 4.602036e+00 3.303256e+00 2.888485e+00 5.684233e-02 -2.210304e-01 2.782683e-01 3.981212e-01 -7.557204e-01 8.799766e-01 1.876588e+00 1.426767e+00 1.879009e+00 2.400281e+00 1.862074e+00 1.013798e+00 1.089560e+00 8.728147e-04 
-4.144773e+00 3.514221e+00 -3.938774e-01 -5.987546e+00 5.067688e+00 8.442815e+00 8.391729e+00 7.823625e+00 3.950787e+00 4.587761e+00 1.066888e+00 8.258617e-01 5.781734e-02 2.288559e-01 3.265128e-01 2.657576e-01 -4.005654e-02 6.810843e-01 1.775116e+00 1.524032e+00 2.074006e+00 2.905871e+00 6.470958e-01 8.821033e-01 4.472644e-01 -1.351655e-04 
-5.253257e+00 2.056313e+00 -5.320798e-01 -5.202066e+00 4.922182e+00 9.348112e+00 8.074144e+00 8.871117e+00 9.153651e+00 1.347839e+01 9.695275e+00 6.307409e+00 4.286343e-02 -2.495648e-01 -4.656077e-01 -4.810430e-01 1.601857e-01 1.776176e-01 8.924006e-01 1.804993e-01 -6.332037e-01 -9.447308e-02 1.282378e+00 1.497829e+00 2.645801e-01 -7.181746e-03 
-3.750479e+00 2.106118e+00 -2.015038e+00 -4.078789e+00 3.660541e+00 9.069288e+00 1.035975e+01 9.865088e+00 1.006227e+01 4.919541e+00 6.524324e+00 1.470469e+00 4.131299e-02 -5.628891e-01 -9.823021e-01 -6.045517e-01 1.081742e+00 4.530595e-01 -1.285486e-01 -3.543329e-01 -1.716716e+00 -3.896253e-01 1.043930e+00 -5.731241e-01 -6.790825e-01 -4.390257e-03 
-6.439376e+00 1.123192e+00 -1.912174e+00 -3.409915e+00 6.659576e+00 9.275411e+00 9.749035e+00 1.258916e+00 8.228032e-01 1.084803e+01 8.063682e+00 3.889082e+00 2.918577e-02 -5.391132e-01 -4.525568e-01 -9.797865e-02 6.584467e-01 6.856680e-01 -6.503996e-01 -9.827160e-01 -2.365384e+00 -1.568899e+00 -8.077809e-01 -2.521949e+00 -9.311731e-01 4.635215e-04 
-6.366158e+00 -9.307290e-01 -2.726589e+00 -1.474915e+00 6.464288e+00 7.836422e+00 5.782620e+00 3.046144e+00 6.168085e+00 1.112259e+01 -9.829357e-01 -1.360387e+00 4.270488e-02 -2.985174e-01 2.340916e-01 2.072126e-01 4.275873e-02 2.797140e-01 -6.757283e-01 -2.374077e+00 -2.546703e+00 -1.015560e+00 4.703210e-01 -1.288266e+00 -2.011903e-01 2.837562e-03 
-6.640983e+00 1.311952e+00 -6.661978e-01 -3.211771e+00 6.948648e+00 6.712547e+00 5.449131e+00 4.536704e-01 3.256251e+00 6.337964e+00 8.391585e-01 3.066972e+00 4.448509e-02 3.085789e-01 2.278079e-01 -3.377411e-01 -5.948846e-02 -6.565290e-01 -4.465502e-01 -1.746661e+00 -5.472140e-01 -2.532456e-01 -1.390996e+00 -3.071946e-01 -4.870664e-01 4.423988e-03 
-5.142262e+00 3.182196e+00 -1.601964e+00 -3.964068e+00 4.914576e+00 6.972079e+00 6.393206e-01 -2.465804e+00 3.767748e+00 9.526181e+00 3.695253e+00 8.755732e-01 4.785115e-02 3.005264e-01 -2.902385e+00 1.023514e+00 1.133192e+00 -2.953810e+00 -1.132084e+00 1.268635e-01 -2.319208e+00 -3.635152e+00 -1.468342e+00 2.433256e-01 1.536747e+00 1.375529e-01 
-5.508430e+00 2.057686e-01 -4.163192e+00 -2.462780e+00 4.151788e+00 7.474832e+00 3.587379e+00 1.278821e+00 7.567437e-01 4.691258e+00 4.188614e+00 3.357699e-01 4.873258e-02 -3.385189e-01 -3.157307e+00 8.769470e-01 1.082066e+00 -5.285148e+00 -1.488272e+00 5.173268e-01 -9.322574e-01 -3.125629e+00 -1.787378e+00 -1.030602e+00 5.347758e-01 2.471346e-01 
-5.429803e+00 -1.488956e+01 4.139475e+00 3.816551e+00 -6.906331e+00 1.794860e+00 7.347814e+00 -8.962470e+00 -1.075792e+01 4.604233e+00 -1.441036e+00 7.688949e+00 7.283456e-01 -2.281297e+00 -1.847065e+00 7.038295e-01 1.172147e+00 -5.395483e+00 -2.417491e+00 -3.163966e-02 4.005934e-01 -3.273752e-01 -1.708764e+00 -1.992064e+00 -3.914897e-01 2.795476e-01 
-8.189807e+00 -5.438706e+00 8.478180e-01 -1.691749e+00 -1.356664e+01 1.859797e+00 4.681518e+00 -9.592834e-01 -5.109058e+00 -1.379497e-01 -1.745706e+00 2.334163e+00 9.399107e-01 -2.995126e+00 3.641694e-01 5.492808e-01 -8.098392e-02 -4.427052e+00 -2.627312e+00 -1.351711e+00 1.175782e+00 1.906066e+00 1.022737e+00 4.831372e-01 -1.020428e+00 2.118614e-01 
-1.520806e+01 -3.230893e+00 -5.883210e-01 1.511149e+00 -1.320363e+01 -2.307861e+00 -6.594706e-02 6.562145e-01 5.063773e+00 3.396966e+00 -3.297904e+00 -2.081072e+00 1.000000e+00 -2.726584e+00 2.471628e+00 2.266234e-01 -8.087935e-01 -1.528343e+00 -2.831269e+00 -3.053822e+00 1.777463e+00 3.037842e+00 5.102744e-01 2.171508e+00 -1.072259e+00 3.376301e-02 
-1.559493e+01 -3.802718e+00 9.471096e-01 -1.714999e+00 -1.483483e+01 -3.610367e+00 5.357070e-01 2.348388e+00 2.376224e+00 1.040857e+01 7.532734e+00 1.186396e-01 9.722122e-01 -6.469685e-01 3.852970e-01 1.436634e+00 9.940392e-01 2.175421e-01 -3.104829e+00 -3.041595e+00 -9.381884e-01 1.367714e+00 -1.018034e-01 1.839049e+00 -8.900609e-02 -4.338234e-02 
-1.536016e+01 -3.349413e+00 5.222947e+00 -2.157912e-01 -1.391395e+01 -9.626400e+00 -5.848389e+00 -1.728992e+00 6.886443e-01 1.882343e+00 4.777284e+00 3.435415e+00 8.810099e-01 3.370824e+00 5.214878e-01 1.980853e+00 2.351597e+00 2.363034e+00 -2.669704e+00 -2.269301e+00 -1.356541e+00 -1.015535e-01 -2.453739e+00 -1.087506e+00 -1.146608e+00 -9.184767e-02 
-1.134860e+01 -3.452961e+00 5.125354e+00 4.141917e+00 -1.212376e+01 -1.000508e+01 -7.635236e+00 -4.457622e+00 3.917078e+00 1.103449e-01 3.411946e+00 -8.691112e-01 7.824941e-01 6.634154e+00 1.193771e+00 1.032906e+00 3.182527e+00 3.137707e+00 -3.385716e+00 -2.067976e+00 -1.722732e+00 1.261778e+00 -4.717009e+00 -4.079689e+00 -3.062164e-01 -6.518067e-02 
-4.771080e-01 -7.983324e-01 7.226823e+00 1.034068e+01 -2.743993e+00 -1.245903e+01 -7.326982e+00 -2.723484e+00 3.785579e+00 -3.722613e+00 -6.675039e+00 -7.320237e+00 6.356207e-01 7.482227e+00 6.146165e-01 -3.603167e-02 2.921947e+00 2.204135e+00 -3.188438e+00 -1.631214e+00 -9.389766e-01 1.092144e+00 -2.820133e+00 -2.634197e+00 1.219951e+00 -8.405423e-03 
1.013432e+01 8.905987e-01 5.109703e+00 8.919401e+00 -4.731274e+00 -1.912263e+01 -9.064879e+00 -5.768028e+00 7.136647e+00 -1.037399e+01 -7.139548e+00 3.965383e+00 7.690034e-01 5.776268e+00 -5.355743e-01 -1.168687e-01 2.154433e+00 -2.826886e-02 -2.536879e+00 -1.902495e+00 1.142436e-01 4.134754e-01 -1.969641e+00 -1.257795e+00 2.553534e+00 4.724670e-02 
1.130952e+01 -2.448110e+00 5.050614e+00 1.200520e+01 -6.589521e+00 -2.100981e+01 -1.328964e+01 -5.768672e+00 4.539582e+00 -6.976155e+00 -3.117953e+00 7.117925e+00 8.457281e-01 2.388848e+00 -2.000137e+00 6.965500e-01 7.821386e-01 -1.735692e+00 -9.724668e-01 -2.124106e+00 1.412828e-01 6.177374e-01 -7.838923e-01 1.121129e+00 2.280238e+00 7.770281e-02 
1.163943e+01 -5.305943e+00 5.629116e+00 1.408182e+01 -1.034235e+01 -1.841408e+01 -1.416638e+01 -2.363810e+00 5.607454e+00 -8.111092e+00 -4.655573e+00 4.679477e+00 9.136739e-01 -1.715963e-01 -2.090432e+00 1.519159e+00 4.805212e-01 -7.096983e-01 6.707712e-01 -1.646396e+00 2.911956e-01 2.239987e-01 5.724459e-01 9.764132e-01 -3.132069e-01 4.215905e-02 
1.071458e+01 -7.700745e+00 1.044987e+01 1.167016e+01 -8.616916e+00 -1.767564e+01 -1.539676e+01 -3.719179e+00 7.638863e+00 -8.773524e+00 -2.311382e+00 3.723908e+00 9.517995e-01 -6.858501e-01 -5.238965e-01 1.135663e+00 -1.042648e-01 1.217804e-02 9.125305e-01 -7.458435e-01 -6.055490e-01 9.118220e-01 -2.630333e-01 6.109379e-01 -5.733826e-01 1.437438e-02 
9.573805e+00 -6.935246e+00 1.000587e+01 1.148953e+01 -7.266068e+00 -1.743587e+01 -1.624330e+01 -5.336797e+00 6.707000e+00 -6.613077e+00 -2.660767e+00 4.096357e+00 9.267629e-01 -7.877682e-01 1.016157e+00 2.163874e-01 -5.551420e-01 1.029244e+00 4.190332e-01 -1.563957e-01 -1.806178e+00 5.330882e-01 3.049970e-01 6.458388e-01 -1.259763e-01 -1.490411e-02 
8.913078e+00 -4.252942e+00 8.540554e+00 1.278002e+01 -8.066770e+00 -1.693626e+01 -1.598040e+01 -7.309924e+00 8.548919e+00 -9.040329e+00 -1.060666e+00 4.542572e+00 9.110554e-01 -5.285912e-01 1.958935e+00 -1.026390e+00 -3.720627e-02 1.148353e+00 2.664421e-01 4.336428e-01 -1.998205e+00 1.536089e-01 1.404698e-01 5.243484e-01 1.678567e-02 -3.047578e-02 
8.601336e+00 -1.949060e+00 7.665709e+00 1.075118e+01 -5.471200e+00 -1.668860e+01 -1.465654e+01 -9.599328e+00 7.817867e+00 -6.452704e+00 -2.051737e+00 3.640263e+00 8.595254e-01 -1.311077e-01 2.257819e+00 -1.156123e+00 -5.649166e-02 1.572739e+00 5.616587e-01 4.875069e-01 -1.836155e+00 -5.116638e-01 1.113808e-01 1.203932e+00 -5.460767e-01 -3.652822e-02 
8.557858e+00 -3.991594e-01 6.487996e+00 1.185330e+01 -3.772586e+00 -1.671706e+01 -1.402193e+01 -1.157894e+01 7.851474e+00 -8.151361e+00 5.845070e-03 4.035883e+00 8.330394e-01 3.070366e-01 1.934361e+00 -9.536232e-01 -4.667181e-01 2.406744e+00 8.309994e-01 6.616682e-01 -1.499789e+00 -1.828225e+00 7.936134e-01 1.217040e+00 -5.293980e-01 -4.069307e-02 
9.095876e+00 2.426960e+00 5.251534e+00 1.167043e+01 -1.549466e+00 -1.473717e+01 -1.478500e+01 -1.238306e+01 4.497404e+00 -6.500657e+00 2.825639e+00 1.619318e+00 7.831299e-01 6.767704e-01 1.799346e+00 -1.019926e+00 -4.083109e-01 2.197828e+00 1.647839e+00 7.206501e-01 -9.416478e-01 -3.184416e+00 6.840760e-01 1.129888e+00 -3.775880e-01 -4.103558e-02 
1.020099e+01 3.230853e+00 4.979526e+00 9.986807e+00 2.006086e+00 -1.375698e+01 -1.260783e+01 -1.341700e+01 1.068027e+00 -5.048285e+00 2.585848e+00 2.906054e+00 7.457879e-01 8.057777e-01 1.799390e+00 -2.022838e-01 -1.630585e+00 1.279856e+00 3.003615e+00 1.385412e+00 -6.745110e-01 -3.851870e+00 9.494117e-01 1.235546e-01 -3.264627e-01 -4.473428e-02 
1.116362e+01 5.232664e+00 3.320315e+00 9.642872e+00 2.628604e+00 -9.929442e+00 -1.176034e+01 -1.338854e+01 -4.712491e+00 -4.583862e+00 2.307704e+00 2.317238e+00 6.979733e-01 6.896099e-01 1.717346e+00 6.723672e-01 -2.430071e+00 2.867675e-01 3.799209e+00 2.517678e+00 -3.585121e-01 -3.637818e+00 2.278708e-01 -8.700932e-01 -3.301974e-01 -4.245815e-02 
1.155287e+01 7.194938e+00 6.442186e+00 4.714155e+00 5.376591e-01 -4.102852e+00 -8.607195e+00 -1.444876e+01 -6.802927e+00 -4.362700e+00 8.825858e-01 2.054610e+00 6.519463e-01 5.988899e-01 1.835073e+00 6.813648e-01 -2.527519e+00 -7.434198e-01 3.686816e+00 3.223356e+00 9.919552e-01 -2.947601e+00 1.581797e-01 -6.872557e-01 -1.105404e+00 -4.367326e-02 
1.186798e+01 9.031650e+00 7.882040e+00 2.156402e+00 6.185851e-01 -5.681949e-01 -4.196928e+00 -1.365975e+01 -9.756209e+00 -5.704096e+00 -6.731956e-01 3.940536e-01 6.177599e-01 9.128979e-01 9.318911e-01 -7.611288e-01 -2.820624e+00 -6.739183e-01 2.094589e+00 3.761814e+00 3.591599e+00 -1.202586e+00 -2.052058e-01 -6.448720e-01 -1.202235e+00 -4.433165e-02 
1.284326e+01 1.050673e+01 6.105487e+00 1.092447e+00 -7.060033e-01 -3.526449e-03 -2.727559e-01 -8.321619e+00 -1.114812e+01 -3.697270e+00 6.400194e-01 -1.659372e+00 5.675282e-01 8.306819e-01 2.549415e-02 -2.331442e+00 -1.142065e+00 2.139333e-01 -6.358862e-02 5.470721e+00 5.736632e+00 -8.851143e-01 -6.000642e-01 5.711566e-01 -2.558304e-01 -4.139005e-02 
1.508292e+01 8.236226e+00 -3.169798e-01 -2.649394e+00 -1.191559e-01 -1.506160e+00 2.881513e+00 1.505890e+00 -8.552826e+00 -5.942606e+00 -7.953732e-01 -1.836945e+00 5.185241e-01 2.425163e-01 -7.354104e-01 -1.965439e+00 1.797704e-01 7.245361e-01 -1.403785e+00 5.640636e+00 4.355884e+00 -2.181517e-01 -2.189098e-01 8.456795e-01 5.126435e-01 -3.199157e-02 
1.409882e+01 7.720120e+00 -1.115516e+00 1.406728e+00 1.976196e+00 -3.951812e+00 1.520719e+01 6.651585e+00 -1.183019e+01 -7.243766e+00 3.799458e+00 1.890957e+00 4.946139e-01 -3.586463e-01 -1.494636e+00 -1.235068e+00 1.340338e+00 1.215491e+00 -1.633458e+00 4.296746e+00 1.353840e+00 1.200610e+00 5.220393e-01 1.331355e+00 1.002076e-01 -2.874603e-02 
1.245279e+01 6.747900e+00 1.665345e+00 2.898113e+00 2.900166e+00 -5.612975e+00 1.626628e+01 6.330701e-01 -1.050593e+01 -5.025397e+00 1.975483e+00 1.182106e+00 4.942592e-01 -1.206911e+00 -9.856528e-01 1.320841e-02 2.060080e+00 1.342823e+00 -1.467910e-01 3.027833e+00 -5.128449e-01 1.129378e+00 1.433322e+00 5.590952e-01 -1.479693e+00 -3.063470e-02 
1.236509e+01 3.777707e+00 -1.061016e+00 5.020385e+00 3.861792e+00 -6.117410e+00 1.451859e+01 -1.116010e+00 -4.168514e+00 -1.545678e+00 5.911368e+00 -2.667860e+00 4.359306e-01 -1.417011e+00 -1.240115e+00 3.506383e-01 1.574228e+00 1.839461e+00 1.975305e+00 -7.669985e-01 -2.342959e-01 1.062893e+00 6.018111e-01 -4.856678e-01 -2.126146e+00 -3.425287e-02 
9.915225e+00 5.279168e+00 -2.781878e-01 5.844178e+00 5.652162e+00 -1.157317e+00 1.836498e+01 2.825463e+00 -6.736773e+00 -1.625042e+00 9.441472e-01 -6.956001e+00 3.946922e-01 -1.700478e+00 -8.031300e-01 6.029597e-01 7.930585e-01 1.579505e+00 2.281218e+00 -2.667332e+00 2.191647e-01 4.011259e-01 3.574385e-01 -6.367251e-01 -1.101673e+00 -4.196842e-02 
8.282542e+00 2.253910e+00 1.609442e+00 7.804834e+00 9.797503e+00 3.696884e+00 1.032285e+01 4.383909e+00 -8.400303e+00 -5.934888e+00 1.886786e+00 -4.670718e+00 3.731331e-01 -2.075305e+00 -5.691495e-01 8.101788e-01 -1.848221e-01 -3.683698e-02 1.474275e+00 -4.239286e+00 3.454192e-02 4.820215e-01 1.045583e+00 -2.090838e-01 7.770193e-01 -4.152660e-02 
5.991672e+00 3.494150e+00 3.344914e+00 5.471181e+00 7.829834e+00 8.859673e-01 5.027492e+00 -1.021066e+00 -6.384407e+00 -1.043600e+00 8.041482e-01 -3.324829e+00 3.158158e-01 -2.580632e+00 -1.311928e+00 -8.386385e-01 -1.654462e+00 4.278584e-01 1.382759e-01 -3.302201e+00 -3.068208e-01 2.650997e+00 1.263812e+00 5.096903e-02 1.346091e+00 -2.618354e-02 
3.950345e+00 1.824469e+00 1.178327e+00 4.282773e+00 2.588772e+00 2.323213e-01 -9.097815e-03 9.799640e-01 -1.934590e+00 3.391519e+00 4.935949e+00 -5.983499e-01 2.677358e-01 -2.099678e+00 -1.074151e+00 -1.895995e+00 -2.217649e+00 -5.289290e-01 -6.649569e-01 -1.071053e+00 2.124483e-01 2.488181e+00 1.345151e+00 -1.700182e+00 -7.618012e-01 -2.564649e-02 
-8.218365e-01 -1.065752e+00 -4.255823e+00 -6.671000e-01 1.139582e+01 1.266344e+00 7.019945e+00 2.993331e+00 3.285357e+00 3.081751e-02 -3.255889e-01 -2.261732e+00 3.164732e-01 -1.150717e+00 -5.473091e-01 -1.193340e+00 -1.596560e+00 -4.310904e-01 5.256943e-01 -2.670310e-02 1.270630e+00 4.598870e-01 -6.878133e-01 -2.770034e+00 -2.645082e+00 -2.146031e-02 
1.190907e+00 -8.368956e-01 -4.070166e+00 -2.142701e-01 5.369865e+00 1.819112e-01 3.971353e+00 3.438952e+00 -7.942798e-01 2.536573e-01 -6.049253e+00 -9.011272e+00 2.445719e-01 -3.446991e-01 1.042172e-01 -5.976473e-01 -1.338160e+00 -8.250887e-01 1.197614e+00 -9.108002e-02 4.333407e-01 -4.710959e-01 -6.180671e-01 -1.456011e+00 -1.708632e+00 -2.177602e-02 
1.617804e+00 2.088286e+00 2.461076e-03 -2.630963e-01 4.283834e+00 3.539644e+00 2.903751e+00 4.102588e+00 -4.655127e+00 -2.913736e+00 -7.553424e+00 -1.234378e+01 2.200962e-01 3.649630e-01 3.313016e-01 -1.345654e-01 -2.290864e-01 -1.653202e+00 1.574821e+00 -1.697416e+00 -7.235620e-01 -1.747372e+00 -8.131874e-02 -2.485810e-01 -2.208681e-02 -3.204784e-02 
1.007030e+00 7.685359e-01 -3.939051e+00 -2.610029e+00 2.019321e+00 5.083740e+00 1.593599e+00 2.592039e+00 -3.198273e-01 1.773460e+00 1.269810e+00 -4.100489e+00 2.070442e-01 -2.853602e-01 -1.731898e-01 -6.350884e-01 7.013656e-01 2.799499e-02 1.539506e+00 -8.625342e-01 -5.231512e-01 -2.214439e-01 1.011958e-01 1.161418e+00 2.025963e+00 -1.912712e-02 
1.094917e+00 -2.119602e-01 -4.994207e+00 -6.146522e-01 4.805080e+00 6.689535e+00 -2.782571e-01 -2.010227e-01 -5.688729e+00 -1.135678e+00 -5.228025e+00 -4.827558e+00 1.749979e-01 -2.113653e-01 1.226764e-01 -4.870145e-01 3.400009e-01 7.793169e-02 1.284883e+00 2.541718e-02 1.593525e-01 3.164853e-01 4.116270e-01 1.173407e+00 1.713792e+00 -1.258311e-02 
2.554989e-02 -5.527216e-01 -4.747274e+00 3.468336e+00 5.249218e+00 6.304495e+00 1.249685e+00 2.975002e+00 -1.384698e+00 -1.293926e-01 -1.404864e+00 -2.639568e+00 1.714855e-01 -1.809556e-01 8.372051e-01 3.463101e-01 2.520380e-01 -3.992218e-01 4.388853e-01 -2.579987e-01 1.710275e-01 -5.564222e-01 -2.914830e-01 -5.561193e-01 -1.296349e-01 -3.662312e-03 
1.051717e+00 3.362297e+00 -2.028500e+00 -1.602274e+00 3.058545e+00 9.353679e+00 3.202794e+00 4.707869e+00 -2.540265e+00 9.582567e-02 -3.490517e-01 -4.505276e+00 1.749600e-01 -2.049098e-01 7.634296e-01 1.144840e-01 1.215348e-01 -7.061673e-01 -1.317968e+00 -1.080909e+00 7.767137e-01 1.903870e+00 1.190802e+00 6.245835e-01 4.193079e-01 -6.946147e-04 
1.238518e-01 3.167433e+00 -3.690354e+00 -8.560281e-01 8.964797e-01 5.946095e+00 -1.436920e+00 9.927308e-01 -4.676170e+00 -2.997067e-01 -3.950273e+00 -4.909804e+00 1.887516e-01 -1.797828e-01 4.958799e-01 -1.710087e-01 -6.718455e-01 -9.147538e-01 -2.497702e+00 -1.749266e+00 3.348137e-01 4.559161e-01 -9.480862e-02 -1.248566e+00 -8.514932e-01 1.752096e-03 
2.121735e-02 1.745111e+00 -4.950247e+00 2.155204e+00 3.450613e+00 2.788975e-01 -4.339498e+00 4.673681e+00 5.476358e+00 4.903489e+00 -8.324029e-01 -1.595901e+00 1.628917e-01 -2.287733e-01 1.477174e-01 -2.826663e-01 -3.246226e-02 -8.841777e-01 -2.228665e+00 -6.703385e-01 -4.072606e-01 -1.007813e+00 -1.024226e+00 -1.167633e+00 1.866082e-01 2.843660e-03 
-3.581142e-01 2.735271e+00 -4.141443e+00 -1.769630e+00 4.794143e-01 -1.646626e+00 -3.725501e+00 4.666164e+00 -3.113429e+00 -3.007267e+00 -7.406016e+00 -8.351722e+00 1.862801e-01 -5.687322e-02 1.380252e-01 -8.682946e-02 -6.948835e-01 -1.092933e-01 2.085889e-01 1.255883e+00 -8.868353e-02 -1.601301e+00 -2.257263e+00 -9.865792e-01 3.576640e-01 -1.529735e-03 
1.488333e-01 4.316965e+00 -3.216287e+00 -1.307785e+00 -1.153811e+00 2.006713e+00 9.953921e-01 8.348496e-01 -8.360700e+00 -3.671525e+00 -4.459344e+00 -1.851276e+00 1.904140e-01 -2.997859e-01 -6.633532e-03 3.603196e-02 -7.787364e-01 3.693981e-01 2.533173e+00 1.842353e+00 2.435069e-01 -1.990068e+00 -1.767297e+00 -1.343935e+00 7.054633e-01 -3.191590e-04 
-2.243223e-01 2.571632e+00 -4.991481e+00 -2.598951e+00 2.652225e+00 6.125132e+00 2.175050e+00 2.468729e+00 -5.764146e+00 -7.298513e+00 -7.069699e+00 -2.993796e+00 1.673418e-01 -5.588509e-01 -4.377275e-01 4.638168e-01 4.797806e-01 1.133579e+00 2.237097e+00 1.036737e+00 3.696128e-01 1.033657e-01 -1.227938e-01 -1.864918e-01 1.422352e+00 -3.623128e-03 
-1.544608e+00 1.793763e+00 -4.345068e+00 -1.323818e+00 4.211198e+00 9.058881e+00 1.921991e+00 6.989933e+00 -3.148626e+00 -1.787374e+00 -7.720239e+00 -7.475473e-01 1.707651e-01 -6.061460e-01 -5.828429e-01 -2.259376e-01 -4.786194e-01 -2.103170e-01 1.427095e-02 -6.684284e-01 1.199830e+00 1.170044e+00 1.263840e+00 7.304255e-01 -6.049558e-02 -1.450580e-03 
-2.305648e+00 1.808235e+00 -1.257968e+00 6.372890e-01 3.464806e+00 6.012775e+00 9.948840e-01 3.436686e+00 -5.202637e+00 -4.563312e+00 -6.708028e+00 -1.791825e+00 1.779889e-01 -3.412133e-01 -2.734182e-01 2.144411e-02 5.475976e-02 -5.684488e-01 -1.224515e+00 -1.026553e+00 -2.033078e-01 9.177238e-01 3.542098e+00 1.476971e+00 6.532867e-02 3.911734e-03 
-1.841234e+00 1.784449e+00 -6.212731e+00 -5.319002e+00 -2.611686e+00 2.134246e+00 -1.756667e+00 6.350023e+00 -2.791233e+00 1.280075e+00 -9.880521e-01 -2.754740e+00 1.778376e-01 1.091716e-01 4.392962e-01 1.963847e-01 7.641492e-01 -1.281179e-01 -1.489630e+00 -7.467439e-01 -1.480018e+00 1.315401e-01 1.845337e+00 1.165842e+00 -9.358994e-02 -2.226251e-03 
-1.782076e+00 1.209198e+00 -3.950429e+00 -3.275604e-01 3.221423e+00 3.464875e+00 -1.118383e+00 1.772145e+00 -1.354223e+00 8.878250e+00 -3.050936e+00 -1.663556e+00 1.833642e-01 1.589264e-01 5.742448e-01 -2.011495e-01 5.340930e-01 3.416315e-01 4.380702e-01 -5.479311e-01 -1.272872e+00 6.538633e-01 1.499945e+00 -5.850225e-02 -9.063735e-01 -4.969627e-03 
-1.260536e+00 4.289762e+00 -2.016915e+00 2.979353e+00 3.692300e+00 2.884678e+00 -7.550945e-01 4.221119e-01 -4.415132e+00 7.185297e-01 -3.719572e+00 -1.279631e+00 1.569462e-01 3.467846e-02 8.552917e-01 5.168464e-01 5.437231e-01 1.304469e-01 1.058356e+00 5.212371e-01 2.016542e-01 5.884808e-01 -3.572667e-01 -1.392720e+00 -8.524977e-01 -4.063487e-04 
-1.801365e+00 3.426802e+00 -4.361624e+00 -8.414235e-01 2.020970e+00 7.827910e+00 -2.245557e+00 3.628010e-02 -1.121372e+00 3.217187e+00 -5.634779e+00 -7.061247e+00 1.635864e-01 -1.499042e-02 8.148156e-01 -3.509323e-02 -9.354597e-01 -1.421282e+00 5.919102e-01 7.231178e-01 2.071228e+00 7.227813e-01 -1.150221e+00 -1.015775e+00 -8.348404e-01 3.340948e-03 
-1.658197e+00 4.952105e+00 -3.422902e+00 -2.343455e+00 -1.359226e+00 5.244510e+00 1.413106e+00 8.226226e+00 3.474486e-02 2.324273e+00 -6.659732e+00 -4.318383e+00 1.856947e-01 -6.521549e-02 2.849987e-01 -1.873252e-01 -1.214765e+00 -1.348325e+00 2.136264e-01 7.995064e-01 2.379817e+00 1.005587e+00 2.318571e-01 -6.905271e-01 -3.334639e-01 7.960528e-03 
