-3.800599e+00 7.877725e+00 5.848400e+00 3.200438e+00 2.590627e+00 3.146302e+00 1.497128e+00 -3.714310e+00 -6.946470e+00 -1.226720e+00 2.134603e+00 1.620415e+00 3.664225e-02 5.678739e-02 -2.408041e-01 -2.786399e-01 -1.121109e+00 7.790672e-01 9.754451e-01 -7.219710e-01 3.132745e-01 -5.479587e-01 6.337651e-01 -9.708920e-01 -3.618987e-01 -9.833580e-03 
-3.238323e+00 7.089080e+00 7.419230e+00 4.660130e-01 2.851990e+00 3.576881e+00 -2.694252e+00 -4.688530e+00 -7.822013e+00 3.886204e+00 1.677783e+00 2.116332e+00 -3.148079e-03 -3.340272e-01 -8.390738e-01 -3.622017e-01 -5.618769e-01 1.466653e+00 1.467240e+00 2.179116e-01 1.048908e+00 4.098268e-01 1.331721e+00 -1.031898e+00 -8.522669e-01 -6.963450e-03 
-3.797800e+00 7.068027e+00 3.669785e+00 -1.037895e+00 6.355281e+00 7.808238e+00 -1.703739e-02 -1.660828e+00 -9.248492e+00 -6.143570e-01 -2.491447e+00 -4.370368e-01 7.369518e-03 -3.610334e-01 -6.375697e-01 -2.572571e-01 -1.218896e-02 1.097785e+00 6.879891e-01 1.155844e-01 4.968540e-01 8.603637e-01 2.190054e-01 -1.258813e+00 -3.642220e-01 -2.885783e-03 
-5.472135e+00 4.087204e+00 5.126698e+00 2.510221e+00 8.041564e+00 8.151537e+00 3.343769e+00 5.034890e-01 -3.746325e+00 5.125704e+00 -7.118616e-01 -1.612193e+00 1.646137e-02 -2.893287e-01 -5.817236e-01 -5.605586e-01 -2.524794e-01 -4.571144e-01 -6.877781e-01 4.332369e-01 7.625608e-01 1.812722e+00 1.181272e+00 1.022911e+00 -3.360827e-02 3.802609e-03 
-4.488860e+00 6.190814e+00 5.708380e+00 2.117390e+00 5.484763e+00 4.298920e+00 -9.439601e-01 -3.826049e+00 -4.682495e+00 -7.514434e-01 -2.964640e+00 1.663568e+00 1.240861e-02 -1.216486e-01 -5.227320e-01 -4.156600e-01 -4.178424e-01 -1.173546e+00 -1.337569e+00 -2.819063e-01 1.578022e-01 1.216475e+00 1.545600e+00 1.312054e+00 -3.754586e-01 -4.012763e-04 
-4.339437e+00 4.619068e+00 3.597140e+00 -2.374027e+00 1.001677e+00 1.892650e+00 -6.460553e-02 2.068851e-01 -1.041402e+00 9.861105e+00 7.028937e+00 8.979882e-01 1.334542e-02 2.728428e-01 1.537616e-01 -4.237733e-01 -7.618436e-01 -7.850175e-01 -1.563750e+00 -1.854284e+00 -1.199124e+00 -1.379995e+00 -6.374504e-01 3.019718e-01 -7.384672e-01 -3.672308e-03 
-4.972392e+00 4.188435e+00 2.356264e+00 -6.849833e-01 4.007497e+00 4.249838e+00 2.776183e-01 -7.235148e-01 -4.518580e+00 4.745944e+00 1.984224e-01 -3.569420e+00 6.921113e-03 2.205725e-01 1.490593e-01 -2.354521e-01 -4.181994e-01 -1.023282e+00 -9.345493e-01 -1.236425e+00 -1.081087e+00 -1.086640e+00 -1.077139e+00 -1.688940e+00 -1.180818e+00 -1.451945e-03 
-3.866155e+00 5.857202e+00 4.683889e+00 1.021895e-01 4.855109e+00 3.573291e-01 -6.538438e+00 -7.043399e+00 -1.072826e+01 -8.102417e-01 -7.835340e-01 -2.688035e+00 8.435845e-04 1.948522e-01 7.457459e-01 5.981580e-01 4.931048e-01 -7.479221e-01 -1.321833e-01 -9.603548e-01 -1.539303e+00 -3.461525e-01 -2.419929e+00 -2.862890e+00 -3.040937e-01 1.245308e-03 
-3.622639e+00 6.317044e+00 3.987745e+00 -1.211715e+00 -1.558361e+00 3.938336e-01 -3.889167e+00 -5.606340e+00 -5.272264e+00 -8.014631e-01 -7.503104e+00 -2.447509e+00 1.139981e-02 2.838100e-01 9.840789e-01 7.443101e-01 3.914123e-01 -3.515702e-01 2.231942e-01 -1.339954e-01 8.858334e-01 1.531152e+00 -3.408741e-01 -1.120081e-01 4.340376e-01 -1.941562e-04 
-4.040052e+00 7.283493e+00 5.772190e+00 3.548636e-01 4.499614e-02 3.159736e+00 -2.782987e+00 -5.048216e+00 -2.395322e+00 5.351629e-01 -3.434751e+00 -1.183436e+00 1.733261e-02 -2.315106e-01 5.830635e-01 8.354418e-01 1.266799e+00 9.173188e-01 1.483858e+00 1.986707e+00 2.921765e+00 1.529923e+00 4.688233e-01 8.096992e-01 8.594195e-01 3.625947e-03 
-3.466393e+00 8.395683e+00 5.533665e+00 1.145741e+00 4.654703e+00 3.964606e+00 -2.270085e+00 2.708061e+00 -1.029288e+00 2.368872e+00 9.639900e-01 -2.151532e+00 -2.294183e-03 -3.514510e-01 1.828525e-02 4.870025e-01 1.298989e+00 2.217852e+00 1.098183e+00 1.876416e+00 2.727765e+00 -1.582718e-01 6.519138e-01 2.221418e+00 1.172963e+00 4.769325e-03 
-5.101830e+00 7.733200e+00 8.088139e+00 5.257455e+00 6.335171e+00 5.991232e+00 2.585554e+00 3.408223e+00 -5.200130e+00 -5.129290e-02 -9.685850e-01 1.461073e+00 2.582031e-02 -3.129731e-01 -3.744883e-01 2.372086e-01 4.763798e-01 8.019016e-01 3.840759e-01 1.604103e+00 1.478538e+00 -7.214086e-01 4.132933e-01 1.384517e+00 1.577547e+00 1.902396e-03 
-4.849005e+00 6.183617e+00 5.264783e+00 2.831934e+00 6.385811e+00 4.469002e+00 2.808645e+00 3.804265e+00 -4.661219e+00 2.751333e+00 2.370903e+00 2.095053e+00 3.100258e-02 -7.576182e-01 -1.188786e+00 -5.945252e-01 -6.551686e-01 -3.375190e-01 -3.497930e-01 6.712353e-01 6.878335e-01 1.372757e+00 1.513428e+00 1.068062e+00 9.584395e-01 4.677421e-03 
-4.913612e+00 6.517085e+00 7.092674e+00 1.893666e+00 3.188950e+00 4.827917e+00 2.698162e+00 1.796373e+00 -4.186399e+00 2.410398e+00 2.784378e+00 4.581009e+00 1.019621e-02 -6.190152e-01 -1.259573e+00 -8.527321e-01 -1.543636e+00 -4.250487e-01 -1.306899e-01 -6.021590e-01 -3.660088e-02 1.132266e+00 5.316613e-01 2.432237e-01 -5.230784e-01 -4.058862e-03 
-7.348594e+00 3.059811e+00 3.058771e+00 -4.482074e-01 4.540218e+00 2.797298e+00 1.029788e+00 6.953154e+00 5.327633e+00 8.705166e+00 4.427819e+00 1.080697e+00 2.890497e-02 -4.974746e-01 -4.288754e-01 -4.219901e-01 -1.394447e+00 -1.078360e+00 6.868444e-02 -5.404087e-01 -1.711532e+00 -6.234933e-01 -1.579237e+00 -1.574499e+00 -1.033847e+00 -7.327312e-03 
-6.947112e+00 2.997238e+00 4.927484e+00 -8.206558e-01 5.132724e+00 6.173635e+00 4.641880e-01 1.650775e+00 -4.533225e+00 -3.699026e-01 -7.809243e-01 -6.471410e-01 6.574810e-03 -1.360566e-01 1.614301e-01 -5.217721e-01 -1.071654e+00 -1.402324e+00 3.996926e-01 -6.561154e-03 -2.041842e+00 -1.295802e+00 -1.731490e+00 -7.781886e-01 -1.311344e+00 -1.566416e-03 
-6.319628e+00 5.799163e+00 4.237427e+00 -2.783141e+00 2.212252e-02 4.139565e+00 1.223589e+00 -4.680594e+00 -7.605272e+00 -3.754702e+00 -3.718940e+00 -4.601083e-01 -3.823280e-03 7.079414e-01 1.193671e+00 3.040541e-01 -2.744793e-01 -1.584112e+00 1.996439e-01 9.406624e-01 -1.902057e+00 -2.048921e+00 -4.879557e-01 8.504005e-02 -3.428279e-01 -4.180366e-03 
-6.108378e+00 5.954559e+00 3.894485e+00 -2.297139e+00 -1.563624e+00 6.155246e+00 2.568456e+00 -2.595961e+00 -4.198956e+00 -1.711702e-02 2.966815e+00 -1.205307e+00 1.872826e-02 2.901177e-01 3.543257e-01 -4.904153e-01 1.116068e-02 -9.091722e-01 -2.925577e-01 4.534565e-01 2.204437e-01 1.082084e+00 2.512592e+00 2.114262e+00 3.906031e-01 -9.118199e-04 
-4.228253e+00 7.549506e+00 5.095541e+00 -1.082362e+00 -3.216939e-02 3.804712e+00 4.680966e+00 -4.337647e-01 -5.084105e+00 6.088994e+00 2.979149e+00 -3.543589e-01 1.926422e-03 -1.352566e-01 -4.282423e-01 -1.605612e-01 2.873366e-01 6.253554e-01 -1.415900e-01 4.217029e-01 8.843422e-01 2.098064e+00 3.377829e+00 1.747734e+00 6.168129e-01 -2.201164e-03 
-6.542211e+00 3.893695e+00 2.046350e+00 -1.615242e+00 6.140090e-01 4.878273e+00 1.002782e+00 6.295788e-01 -3.833885e-01 7.271209e+00 6.441339e+00 1.253000e+00 -8.591413e-04 -8.624897e-02 -2.552921e+00 1.816594e-01 -7.214195e-01 -2.345397e+00 -2.330343e+00 7.441867e-01 1.408509e-01 1.840714e-01 3.585472e-01 2.130504e-01 8.850910e-01 9.645450e-02 
-6.778995e+00 4.688384e+00 4.358689e+00 -1.687407e+00 2.060083e+00 4.070102e+00 4.114940e+00 -1.871653e+00 9.772623e-01 9.490279e+00 3.282471e+00 1.394802e+00 -5.035400e-03 -1.030577e-01 -3.701980e+00 2.468641e-02 -1.638188e+00 -4.391887e+00 -1.544291e+00 1.616137e+00 -9.234983e-01 -1.885461e+00 -2.997682e+00 -8.560178e-02 1.378819e+00 1.866990e-01 
-5.264253e+00 -5.379486e+00 5.171208e+00 -5.601714e+00 -1.433673e+01 -5.629164e+00 6.572402e+00 -1.172762e+00 -6.309282e+00 7.497644e-02 3.880406e+00 2.345567e+00 5.044817e-01 2.799092e-01 -2.886144e+00 -4.071479e-01 -1.464313e+00 -1.430880e+00 1.895638e+00 7.430040e-01 -2.721452e+00 -2.424116e+00 -4.446000e+00 -2.025746e-01 8.972086e-01 1.537388e-01 
-5.382521e+00 -6.323804e+00 3.656544e+00 -7.280066e+00 -1.451623e+01 1.336974e+00 9.976842e+00 -4.150086e+00 -1.154846e+01 -5.301300e+00 3.831607e+00 5.993455e+00 6.827511e-01 -4.736381e-01 -2.124416e+00 -1.620799e+00 -1.077367e+00 2.290079e+00 3.827464e+00 -2.177494e+00 -1.641847e+00 9.271477e-01 -2.449712e+00 1.006197e+00 -1.740737e-01 8.822968e-02 
-5.840901e+00 -5.030929e+00 3.616834e-01 -6.140475e+00 1.747769e+00 1.572302e+01 1.786851e+00 -1.183846e+01 -6.241106e+00 -7.562999e+00 5.153897e+00 3.439717e+00 4.239416e-01 -5.432212e-01 1.711209e+00 -7.526655e-01 1.466920e+00 6.167387e+00 3.167350e+00 -4.551101e+00 -4.077555e-01 3.422029e+00 1.702262e+00 -2.271226e-01 -1.821761e+00 -1.080354e-01 
-8.858861e+00 -6.107974e+00 -1.340545e+00 -6.804861e+00 5.468225e+00 1.253133e+01 -4.379752e+00 -4.748038e+00 5.578913e+00 1.060706e+00 7.676711e+00 -2.264071e-02 4.763830e-01 5.372982e-02 7.049044e-01 -1.613588e+00 2.122897e+00 5.835954e+00 7.538966e-01 -3.245759e+00 1.340792e+00 3.257004e+00 5.949356e+00 4.001672e-01 -1.801540e+00 -1.413791e-01 
-6.242188e+00 3.068645e+00 3.906425e+00 1.495286e+00 6.507970e+00 4.610408e+00 -9.004805e+00 -2.912563e+00 2.237173e+00 5.405284e+00 8.222413e-01 -3.755190e+00 6.748849e-02 4.075812e-01 -1.698346e+00 -2.673556e+00 9.384674e-01 2.758961e+00 -1.907341e+00 -7.800291e-01 1.704428e+00 6.973273e-01 7.382811e+00 6.938141e-01 -9.662978e-01 -2.686989e-02 
-4.913228e+00 -6.849069e+00 -6.183764e+00 -4.834638e-01 1.228344e+01 1.066277e+01 -8.561255e-01 -1.909073e+00 4.974170e-01 1.796134e+01 7.998271e+00 5.832108e-01 1.540823e-01 7.671098e-01 -1.509523e+00 -1.901621e+00 1.656492e+00 3.135494e+00 4.810811e-01 1.646140e-01 -4.454103e-01 -7.302554e-01 5.033500e+00 1.017973e+00 -2.333478e-01 -2.550502e-02 
-5.775812e+00 -1.315211e+01 -1.058449e+01 -4.608836e+00 1.213497e+01 7.120602e+00 -3.875108e+00 -4.735804e+00 -2.137225e-01 2.090074e+01 8.462188e+00 -1.694698e+00 4.507425e-01 -6.889430e-01 3.567045e-01 -8.246349e-01 4.384599e-01 -3.924444e-01 2.321763e+00 1.300404e+00 1.231846e+00 -9.255922e-02 1.840710e+00 9.127603e-01 4.290965e-01 1.456744e-02 
-5.256500e+00 -5.545209e+00 -3.603196e+00 4.529660e+00 1.833219e+01 1.368164e+01 -6.121531e+00 -6.063470e+00 3.153083e+00 1.848048e+01 8.946602e+00 -2.219626e+00 1.572309e-01 -7.212729e-01 4.650538e+00 2.346693e+00 4.864019e-01 -4.105203e+00 -1.821880e-01 1.165060e+00 2.819300e+00 -9.272979e-01 -2.988077e+00 -1.834540e+00 3.013396e-01 -4.047797e-02 
-9.515267e+00 4.200238e+00 -1.507033e+00 1.181023e+00 1.521370e+00 1.470978e+01 1.299180e-01 5.323863e+00 4.465437e-01 1.434927e+01 4.911877e+00 -2.082896e-01 1.387514e-01 1.999886e-01 4.862176e+00 2.373695e+00 1.432152e-01 -3.667979e+00 -1.055634e+00 2.378175e+00 2.582682e+00 -1.406760e+00 -5.214660e+00 -2.738797e+00 9.571878e-01 -9.149772e-02 
-6.649865e+00 7.727451e+00 1.010975e+00 -9.463842e-01 -2.935775e+00 5.957233e+00 2.966661e+00 7.157593e+00 -4.469205e+00 6.296692e+00 6.007276e-01 1.346705e+00 1.076880e-01 6.627842e-01 1.693572e+00 1.145166e+00 -5.483603e-01 -2.072184e+00 -2.338626e+00 2.054298e+00 7.976791e-01 -2.367924e+00 -5.033448e+00 -2.727412e+00 5.643564e-01 -4.192100e-02 
-4.079186e+00 4.522439e+00 -1.023097e+00 -1.154738e+00 4.429059e+00 5.704630e+00 3.471674e+00 1.567073e+00 -3.436379e+00 9.193306e-01 -1.058859e+00 1.308076e+00 1.802540e-02 1.042605e+00 -1.267492e+00 7.432249e-01 9.729850e-02 5.179181e-01 -2.107884e+00 7.846376e-01 -7.854335e-01 -4.872147e-01 -3.652811e+00 -1.266369e+00 -3.362479e-01 -3.335982e-02 
-4.660620e+00 2.761550e+00 1.880664e+00 2.955739e+00 6.517427e+00 6.491083e+00 2.479079e+00 -1.966794e-01 -6.745074e+00 2.820063e-02 -1.705091e+00 -1.560264e-01 7.988930e-03 2.050170e-01 -2.078800e+00 -3.408816e-02 8.367554e-01 -5.185262e-01 -1.557504e+00 5.553657e-01 -2.537515e-01 -1.989483e-01 -1.097490e+00 9.495851e-01 -5.710751e-01 7.100821e-04 
-5.296864e+00 3.457289e-01 1.774247e+00 -2.835460e-01 -6.156408e-01 3.903441e+00 4.296896e+00 5.073832e+00 -8.515956e-01 -7.805443e-01 -2.670574e-01 -1.138164e+00 2.180183e-02 6.998867e-01 -2.080052e-01 4.235417e-01 6.931406e-01 -3.111319e+00 -2.724471e+00 -1.351600e-01 -3.757499e-01 -5.532281e-01 -1.094707e+00 -1.184344e-01 -2.110240e+00 5.119734e-02 
-5.015942e+00 -5.781927e-01 -5.581374e-01 2.801797e+00 -3.006056e+00 -9.296916e-01 5.330878e+00 4.135455e+00 -6.756338e+00 1.659181e+00 4.952752e+00 -2.855515e-01 1.093502e-01 8.104498e-01 9.008890e-01 6.333714e-01 -2.662179e-01 -3.698136e+00 -2.382319e+00 -6.085213e-01 -1.256227e+00 -1.775705e+00 -3.174987e+00 -1.409102e+00 -2.534369e+00 8.680650e-02 
-4.020920e-01 5.152285e+00 2.314013e+00 2.387936e+00 -6.365792e+00 -4.207335e+00 1.369975e+00 -2.477744e+00 -6.196888e+00 -5.369693e+00 -4.979953e+00 -9.178362e+00 2.233315e-01 -1.134223e-01 1.575211e+00 1.181617e+00 9.061258e-01 -2.383111e+00 -1.865993e-01 -1.367783e+00 -2.399254e+00 -1.496382e+00 -2.889125e+00 -2.419658e+00 -1.383597e+00 1.075714e-01 
-3.055757e+00 4.862718e+00 4.777638e+00 2.889085e-01 -9.098179e+00 -1.365124e+00 8.999337e-01 -2.702028e+00 -1.295095e+01 -1.355216e+01 -6.394156e+00 -8.807772e+00 3.412566e-01 -1.762196e+00 5.878347e-01 1.393972e+00 8.490280e-01 -6.550128e-01 2.437672e+00 -1.197977e+00 -2.667756e-02 6.789972e-01 -1.842452e+00 -1.285084e+00 -5.288149e-01 1.043983e-01 
-6.844068e+00 5.501328e+00 5.014447e+00 5.503528e+00 -9.485135e+00 3.188161e+00 -3.265454e-01 -3.503697e+00 -5.236200e+00 -7.620502e+00 -6.691893e+00 -3.795037e+00 4.437057e-01 -2.623308e+00 -1.462584e+00 4.552077e-01 9.749487e-01 5.615954e-01 2.520765e+00 9.536208e-02 1.516318e+00 7.912814e-01 1.860355e+00 5.754443e-01 3.511835e-01 7.559357e-02 
-1.060594e+01 2.186459e+00 5.061503e+00 5.489141e+00 -4.721448e+00 7.560920e+00 1.892537e-01 4.515044e+00 -3.841697e+00 -6.427675e+00 -6.166964e-01 -5.621288e+00 5.211546e-01 -1.766828e+00 -2.308443e+00 -2.541639e-01 9.434358e-01 1.616468e+00 1.198845e+00 4.359125e-01 9.019256e-01 1.489368e+00 4.363838e+00 1.038145e+00 -2.607135e-01 4.326412e-02 
-9.743541e+00 -8.225064e-01 4.448118e+00 4.662563e+00 -5.746180e+00 3.933469e+00 2.202125e+00 1.495308e+00 -6.795109e+00 3.698411e-01 -4.991461e+00 -9.015686e+00 5.113503e-01 -4.356743e-01 -2.372317e+00 -1.450444e+00 -1.790490e+00 -1.144690e-01 -1.849369e+00 -1.046368e+00 -9.354357e-02 4.190961e-01 2.996659e+00 8.837341e-01 1.180480e-01 1.427066e-02 
-1.044016e+01 -3.517578e+00 3.789983e+00 5.426570e+00 -2.885317e+00 4.256448e+00 1.815161e+00 -6.919025e-01 -4.724657e+00 4.271860e+00 -2.053645e+00 -7.501015e+00 5.237550e-01 8.481979e-01 -2.065374e+00 -2.447929e+00 -1.715026e+00 -5.926023e-01 -3.503416e+00 -2.018883e+00 -2.295644e+00 9.922608e-01 2.249645e+00 1.370016e+00 1.855104e+00 8.246303e-04 
-9.105327e+00 -3.508236e+00 -1.602011e+00 -3.417638e+00 -1.097555e+01 -4.406447e+00 -6.371337e+00 -1.367942e+00 -2.699239e+00 2.013023e+00 -1.554748e+00 -2.264934e+00 5.137589e-01 2.538195e+00 -2.704394e-01 -1.807774e+00 -1.204542e+00 -1.358570e-01 -2.519865e+00 -1.363545e+00 -1.516152e+00 3.036474e-01 -7.187766e-01 2.081741e+00 2.530086e+00 -5.746603e-03 
-6.684052e+00 -6.797544e+00 -4.153078e+00 9.541130e-01 -5.069777e+00 -5.786202e+00 -5.618430e+00 -5.531549e+00 -9.283273e-01 3.998958e+00 4.515028e+00 2.788544e-01 5.240735e-01 6.008056e+00 9.574074e-01 -1.670342e+00 -2.647171e+00 5.351545e-01 -1.530335e+00 -5.773455e-01 -1.094687e+00 3.889891e-01 -1.927301e+00 2.081161e+00 4.432157e+00 3.819727e-02 
1.069383e+00 -5.347199e-01 -6.192226e-01 8.760796e-01 -5.333235e+00 -3.644529e+00 -8.988069e-01 -3.665628e+00 -7.175036e+00 -3.087591e+00 2.132909e+00 -2.551892e-01 4.824580e-01 6.589953e+00 9.832306e-01 -4.046937e-01 -2.861928e+00 1.689844e+00 1.630637e-01 1.306615e+00 -7.784827e-01 6.461940e-01 -9.295858e-01 2.102948e+00 4.071891e+00 8.018716e-02 
1.451276e+01 -2.172992e-01 -5.053121e+00 -9.956144e+00 -3.030699e+00 -3.776188e+00 -3.807832e+00 -5.016495e+00 -5.418129e-01 -2.814339e+00 6.508329e+00 1.365490e+01 7.303917e-01 5.164197e+00 2.180066e-01 -2.604341e-01 -3.708774e+00 7.600853e-01 1.365681e-01 1.498712e+00 -5.766000e-01 1.830311e+00 -5.489622e-01 6.613368e-01 3.170323e+00 9.778370e-02 
1.324603e+01 -1.882206e+00 -3.175458e+00 -1.227215e+01 -3.545866e+00 -4.596136e+00 -7.435594e-01 -5.517882e+00 3.384733e-01 7.717428e-01 7.963342e+00 1.140650e+01 8.115355e-01 2.108385e+00 -1.773495e+00 -6.236055e-01 -1.992652e+00 5.050965e-01 1.648879e-01 1.277145e+00 -1.300611e+00 3.329766e+00 1.110374e-01 2.578829e-01 7.066455e-01 9.204598e-02 
1.304861e+01 -5.033769e+00 -4.177131e+00 -1.101564e+01 -2.163035e+00 -4.627559e+00 1.797508e+00 -7.488421e+00 4.466475e+00 -6.755204e-01 4.906495e+00 1.029963e+01 8.484532e-01 -6.577995e-01 -2.275693e+00 -7.306390e-02 1.341445e+00 -2.191331e-01 1.073047e+00 1.061605e+00 -9.024254e-01 2.549997e+00 -9.364334e-01 -1.204518e+00 -2.556978e+00 4.394940e-02 
1.234338e+01 -6.993963e+00 -4.175245e+00 -8.557434e+00 -3.241585e+00 -2.394404e+00 2.684247e+00 -8.932722e+00 6.969649e+00 -3.601813e+00 4.223240e+00 4.955674e+00 8.836572e-01 -4.034756e-01 -2.352414e+00 -1.642046e-02 1.982882e+00 -5.624748e-01 1.844030e+00 9.810736e-02 -6.517481e-01 2.581787e+00 -2.297842e+00 -1.392764e+00 -2.045928e+00 3.291732e-02 
1.167509e+01 -9.039887e+00 -4.918547e+00 -5.106278e+00 -4.278505e+00 4.881804e-01 -2.137080e-01 -7.821201e+00 8.892584e+00 -5.309728e+00 2.355788e+00 4.095420e+00 9.140779e-01 -5.872210e-01 -1.845533e+00 5.404940e-01 1.294194e+00 -3.526784e-01 1.748038e+00 -1.630016e-01 -5.337705e-01 1.650805e+00 -1.562468e+00 -1.489589e+00 -6.951644e-01 3.058252e-02 
1.191541e+01 -1.164121e+01 -2.886853e+00 -5.312422e+00 -5.300505e+00 2.066145e+00 7.525852e-01 -8.610233e+00 1.103435e+01 -8.400364e+00 2.274873e+00 4.278963e+00 9.433098e-01 -5.986829e-01 -1.453064e+00 7.398768e-01 1.907847e-01 5.520726e-01 1.062481e+00 -4.392280e-02 -6.805900e-01 8.047687e-01 -5.215679e-01 -1.237722e+00 2.992167e-01 2.901473e-02 
1.032649e+01 -1.193781e+01 -2.118857e+00 -6.167178e+00 -2.896967e+00 1.882358e+00 1.948331e+00 -1.031852e+01 1.068815e+01 -6.088584e+00 -1.567267e+00 7.162159e+00 9.715395e-01 -3.364374e-01 -9.542555e-01 6.221175e-01 -2.969460e-01 9.501637e-01 3.237644e-01 5.557518e-01 -9.775776e-01 5.217170e-01 -3.786938e-01 -6.270905e-01 3.804613e-01 2.046967e-02 
1.002427e+01 -1.281032e+01 -1.875706e+00 -7.073061e+00 -1.171991e+00 2.220914e+00 1.383613e+00 -1.108701e+01 1.009571e+01 -5.820224e+00 -3.842354e-03 4.918388e+00 1.000000e+00 -2.287826e-01 -5.306508e-01 1.158220e-01 2.182266e-01 9.271510e-01 -4.075724e-01 7.408488e-01 -6.249920e-01 2.099245e-01 -6.590166e-01 2.755902e-01 -4.944149e-01 9.035319e-03 
1.093848e+01 -1.322661e+01 -2.313532e+00 -5.710689e+00 -1.591944e+00 2.029618e+00 2.249537e+00 -1.147070e+01 1.197049e+01 -8.493267e+00 3.596935e-01 5.678014e+00 9.880812e-01 1.562559e-01 -2.019108e-01 -3.338213e-01 7.401037e-01 4.583250e-01 -6.174239e-01 5.288478e-01 3.688511e-01 -1.658792e-01 -8.686635e-01 4.148552e-01 -8.688433e-01 -3.897679e-03 
1.046551e+01 -1.365007e+01 -2.210405e+00 -4.449533e+00 -1.317261e+00 -4.534698e-02 4.306226e+00 -1.115910e+01 1.144280e+01 -1.049310e+01 2.689344e+00 2.548961e+00 9.802155e-01 2.332300e-01 -2.892971e-02 -6.351854e-01 1.026992e+00 1.289849e-01 -7.207321e-01 6.112893e-01 6.639834e-01 -3.803915e-01 -8.615103e-02 -4.894351e-01 -3.601134e-01 -7.564557e-03 
1.088715e+01 -1.252749e+01 -3.620614e+00 -3.778423e+00 -5.327073e-01 -7.163119e-02 3.131263e+00 -8.438219e+00 9.185207e+00 -8.095461e+00 -8.395844e-01 4.002656e+00 9.619433e-01 -6.507483e-02 4.187729e-01 -1.019636e+00 9.014989e-01 5.176191e-01 -1.085183e+00 4.920536e-01 1.028055e+00 -9.409849e-01 5.699164e-01 -4.291509e-01 -1.109796e+00 -6.542629e-03 
1.121608e+01 -1.330453e+01 -4.398092e+00 -2.904232e+00 -1.056685e+00 -3.321218e-01 3.999197e+00 -9.283337e+00 9.586393e+00 -6.449882e+00 -1.851379e+00 3.955500e+00 9.752461e-01 4.064709e-03 5.756656e-01 -8.498820e-01 7.924175e-01 9.884002e-02 -4.142744e-01 4.408167e-02 1.555051e+00 -1.277132e+00 4.672295e-01 -4.626380e-01 -9.398252e-01 -1.163575e-02 
1.023782e+01 -1.130551e+01 -6.317870e+00 -1.975845e+00 8.658637e-01 -3.252910e+00 4.863319e+00 -7.268308e+00 8.193770e+00 -7.665296e+00 4.843006e-01 -5.742364e-01 9.578527e-01 -3.119330e-01 1.097419e+00 -1.165979e+00 1.212679e+00 -1.354280e-02 -3.282252e-01 6.096333e-01 7.656832e-01 -5.909112e-01 -2.695561e-01 -4.141519e-01 -1.291033e+00 -1.777211e-02 
1.081050e+01 -1.138273e+01 -5.111187e+00 -1.388735e+00 -1.522346e+00 -5.260794e-01 3.660606e+00 -3.968803e+00 5.552865e+00 -8.372040e+00 -2.857885e-01 1.382816e-01 9.240821e-01 -4.680983e-01 1.802444e+00 -1.058550e+00 1.363518e+00 9.081562e-02 -9.180934e-01 7.880944e-01 1.164029e+00 -8.190454e-01 -8.639326e-02 -8.505367e-01 -1.206555e+00 -3.383914e-02 
9.530277e+00 -8.001295e+00 -9.093964e+00 1.527222e+00 -3.675907e-01 -1.615778e+00 6.348725e+00 -7.267070e+00 8.247416e+00 -8.482162e+00 -3.693139e+00 -5.438981e-01 8.986648e-01 -4.200785e-01 1.971560e+00 -1.034424e+00 1.499291e+00 3.638544e-01 -2.920104e+00 1.249561e+00 2.031887e+00 -9.356882e-01 6.814342e-01 -2.328742e+00 4.346688e-02 -3.810543e-02 
9.229357e+00 -5.944423e+00 -8.302794e+00 2.161826e+00 1.412001e-02 -5.741155e+00 7.196966e+00 -3.463809e+00 5.464344e+00 -6.473415e+00 -4.015343e+00 -2.092443e+00 8.356444e-01 -6.416065e-01 2.250369e+00 -1.290529e+00 1.034251e+00 4.115980e-01 -3.848479e+00 1.051506e+00 2.703150e+00 -1.315994e+00 6.003954e-01 -1.673621e+00 1.457116e-01 -3.986650e-02 
8.927995e+00 -4.166867e+00 -9.894186e+00 3.745327e+00 1.916903e+00 -1.524589e+01 9.342943e+00 2.638630e+00 3.559590e+00 -5.207438e+00 -9.294631e+00 7.584600e-01 8.115444e-01 -9.152009e-01 1.600904e+00 3.886117e-01 -1.224939e-01 -7.139756e-02 -2.329362e+00 -1.669160e+00 3.724404e+00 -1.900617e-01 -5.284281e-02 -9.921153e-01 1.691942e-01 -3.361214e-02 
7.903608e+00 -2.048093e+00 -1.116372e+01 2.673468e+00 -6.066031e-01 -1.295342e+01 7.421027e+00 4.594095e+00 1.316808e+00 -7.007426e+00 -5.853147e+00 2.156606e-01 7.683098e-01 -7.988650e-01 1.234903e+00 2.758686e-01 3.759390e-01 -3.836781e-01 -1.283942e+00 -1.730268e+00 2.018915e+00 4.127233e-01 5.086775e-02 -4.186006e-01 7.544897e-02 -2.566781e-02 
5.617147e+00 -1.944939e+00 -5.720442e+00 6.589313e-01 -4.142170e-01 -9.656455e+00 -2.109108e+00 7.325999e+00 9.370875e+00 -8.479372e+00 -7.734814e+00 -8.519785e-01 7.642714e-01 -5.606551e-01 9.460192e-01 4.947148e-01 7.307701e-01 -1.444166e+00 1.789166e-01 -8.365504e-01 2.884534e-01 1.534320e+00 -3.549896e-01 2.006412e-01 -5.147043e-01 -2.383519e-02 
6.890456e+00 -8.808737e-01 -9.010323e+00 5.584719e+00 -7.387111e-01 -1.495558e+01 4.271653e+00 4.287080e+00 4.622317e+00 -4.583109e+00 -6.888254e+00 -9.099784e-01 7.309419e-01 -6.041898e-01 5.988534e-01 1.286928e+00 1.369249e+00 -2.592904e+00 8.526656e-01 2.080668e-01 -3.050549e-01 1.748426e+00 -6.428708e-01 3.956990e-01 -2.751231e-01 -1.836595e-02 
6.631295e+00 -2.038145e-02 -8.497311e+00 5.943552e+00 -5.237872e+00 -1.335023e+01 6.734879e+00 4.234405e+00 9.578432e+00 -8.194544e+00 -7.773871e+00 -1.252242e+00 7.110524e-01 -1.350051e-01 1.057654e+00 1.157411e+00 1.856758e+00 -2.257594e+00 -2.507523e-01 6.259251e-01 -4.421111e-01 4.478214e-01 -1.201773e-01 5.547551e-01 2.594072e-01 -3.035928e-02 
4.375585e+00 -1.610518e-02 -3.340644e+00 6.877400e+00 -1.115930e+01 -6.843205e+00 4.039368e+00 4.614618e+00 9.955159e+00 -1.036419e+01 -3.855123e+00 -9.598229e-01 7.030895e-01 -2.774487e-01 1.047557e+00 1.938884e+00 1.024922e+00 -9.127954e-01 2.149495e-01 -1.628806e+00 -3.156897e-01 7.978742e-01 1.168615e+00 1.259751e-01 2.327029e-01 -3.843751e-02 
6.199557e+00 2.910947e+00 -2.768228e+00 9.296380e+00 -6.491896e+00 -1.496640e+01 1.136660e+00 4.951674e+00 8.943562e+00 -6.189716e+00 -6.477604e+00 4.699795e-01 6.264012e-01 2.163870e-02 8.575088e-01 1.201347e+00 3.290275e-01 8.151029e-01 -2.426953e-01 -1.769863e+00 6.853351e-01 -1.233660e+00 2.837717e+00 3.899454e-01 9.442880e-01 -5.242944e-02 
5.719082e+00 2.891245e+00 -2.180443e+00 9.032917e+00 -4.675676e+00 -1.307274e+01 -1.073270e+00 2.349997e+00 8.929124e+00 2.575488e-01 -6.906512e+00 -6.075745e-01 5.810800e-01 6.628240e-01 7.320189e-01 -6.253171e-02 1.387644e-02 1.208729e+00 -1.311412e+00 -1.289801e+00 8.747391e-01 -1.322119e+00 3.286784e+00 6.878980e-01 1.285807e+00 -5.063201e-02 
6.067740e+00 2.813487e+00 -3.070675e+00 6.510931e+00 -4.404167e+00 -1.144893e+01 4.418845e-01 8.793391e+00 3.923151e+00 6.831694e-01 -4.298450e+00 3.293074e+00 5.099100e-01 8.711566e-01 5.297424e-01 -4.673297e-01 2.499819e-02 6.370546e-01 1.193370e-01 -1.867139e+00 -2.966264e-01 3.249516e-01 1.767768e+00 7.576808e-01 5.860109e-02 -3.597143e-02 
7.755613e+00 3.692719e+00 -3.502079e+00 8.339507e+00 -6.159513e+00 -1.515900e+01 -2.062249e+00 7.067455e+00 5.854768e+00 2.633284e+00 -1.505209e+00 4.057666e+00 5.081750e-01 1.058254e+00 5.593458e-01 -3.906703e-01 -1.831486e-01 1.828012e+00 9.978007e-01 -1.551663e+00 1.228195e-01 2.230854e-01 3.451919e-01 6.983366e-01 -5.423561e-01 -5.924426e-02 
9.537075e+00 5.158922e+00 -4.444058e+00 9.768076e+00 -2.564704e+00 -1.332659e+01 -7.704548e+00 1.109814e+00 1.210550e+01 1.461255e+00 -5.389852e+00 -1.569635e+00 4.829965e-01 2.652942e-01 7.714666e-01 9.341752e-01 -5.961465e-01 2.445904e+00 2.949923e+00 -1.242797e+00 -6.525891e-01 -1.024365e+00 -2.786804e-01 1.672950e-01 -1.627720e+00 -7.231256e-02 
9.275685e+00 4.515257e+00 -3.447103e+00 6.488602e+00 3.544654e+00 -7.144911e+00 -4.758368e+00 6.805883e+00 5.953378e+00 1.594466e+00 -2.869128e+00 -8.880005e-01 2.983154e-01 -2.198648e+00 9.960077e-02 1.421476e+00 -1.019799e+00 2.984863e+00 4.662795e+00 -2.995025e-01 -1.200137e+00 -4.221718e+00 -5.688266e-01 1.319859e-01 -9.301752e-01 -6.154919e-02 
6.634175e+00 6.259551e+00 1.572713e+00 4.455651e+00 2.973270e+00 -7.063653e-01 -4.424043e+00 5.661231e+00 -1.247979e+00 -1.908236e-01 -2.780015e+00 -2.372694e+00 2.532770e-01 -4.043700e+00 -5.535410e-01 1.525997e+00 -1.151054e+00 1.823647e+00 3.386763e+00 1.115868e+00 -1.011412e-01 -4.237860e+00 1.747410e-01 5.558672e-02 -3.237427e-01 -2.024099e-02 
-1.786180e+00 3.640409e+00 5.969155e-01 5.896725e+00 5.995816e+00 1.844864e+00 -5.200014e+00 -1.208938e+00 -8.577083e+00 6.151900e-01 -2.150198e+00 -1.916802e-01 3.152888e-01 -4.098413e+00 -1.293383e-01 1.894383e+00 2.266583e-01 1.698720e-01 1.109231e+00 1.586271e+00 -5.316899e-01 -1.990618e+00 5.528644e-01 -1.226412e+00 -1.984158e-01 3.491757e-02 
-5.150493e+00 2.828642e+00 1.163920e+00 4.308743e+00 5.327951e+00 -8.876612e-01 -1.904384e+00 4.611519e+00 -1.818572e+00 2.824598e+00 -5.471383e+00 -3.536509e+00 3.733048e-01 -2.497799e+00 -5.818289e-01 1.291173e+00 3.056064e-01 -1.022027e-02 -2.499214e-01 1.199288e+00 -5.636734e-01 -1.287927e-01 9.973410e-01 -8.019929e-01 8.145352e-02 4.287286e-02 
-5.324041e+00 5.584021e+00 6.229211e+00 7.695348e+00 3.216673e+00 -1.508107e+00 1.913155e+00 4.672290e+00 -3.714417e+00 2.851077e+00 -7.655505e+00 -1.298173e+00 4.128894e-01 -3.972712e-01 -1.415800e+00 9.697447e-01 -3.193735e-01 -1.322839e+00 -1.177394e+00 1.163095e+00 7.445188e-01 1.627723e+00 7.623566e-01 5.738611e-02 -3.278285e-01 2.453203e-02 
-4.085889e+00 2.378601e+00 5.212429e+00 5.084372e+00 4.311740e+00 -2.794869e-01 -1.984188e+00 -9.774995e-02 -4.323276e+00 3.677938e+00 -4.037326e+00 -1.412181e+00 4.188411e-01 1.049294e+00 -2.831550e+00 -1.422541e+00 -1.108364e+00 -1.728208e+00 -2.755993e+00 -1.411630e+00 -5.561986e-02 8.491088e-01 1.137073e+00 1.652257e+00 7.127339e-01 1.837689e-03 
-4.304837e+00 -3.213571e+00 3.421384e+00 3.912043e+00 -1.102762e-01 -4.346194e+00 6.553618e-01 4.868290e+00 8.138855e-01 4.000302e+00 -2.580296e+00 -2.892987e+00 4.151809e-01 1.988630e+00 -3.698569e+00 -3.948378e+00 -2.859533e+00 -2.102214e+00 -3.784300e+00 -2.250981e+00 1.058983e+00 2.178474e+00 1.609896e+00 1.712963e+00 9.136612e-01 -6.142729e-03 
-4.136257e-01 -6.930314e+00 -4.544872e+00 6.585755e-01 -1.649612e+00 -1.324858e+01 -8.333635e+00 4.235419e+00 1.628208e-01 7.935350e+00 2.522988e-01 8.245676e-01 3.813475e-01 2.457902e+00 -2.417346e+00 -4.380580e+00 -3.336866e+00 -1.718726e+00 -2.080057e+00 -1.772991e+00 2.078028e+00 2.522851e+00 8.759451e-02 4.943623e-01 -3.165255e-01 -1.685412e-02 
2.782979e+00 -8.254366e+00 -8.634029e+00 -4.389418e+00 -4.313724e+00 -1.394506e+01 -6.167028e+00 7.800619e+00 4.934903e+00 8.771850e+00 -1.235501e+00 2.151759e+00 4.009225e-01 2.162208e+00 -4.626597e-01 -3.023235e+00 -2.437101e+00 2.769188e-01 1.043000e+00 -2.053010e+00 1.623064e+00 2.053393e+00 -8.739491e-01 1.756298e-01 -6.358355e-01 -2.619234e-02 
4.659715e+00 -7.187728e+00 -1.066276e+01 -7.449228e+00 -2.180165e+00 -5.880339e+00 -7.437950e+00 8.826224e+00 6.230472e+00 1.730137e+00 -2.237912e+00 -5.517181e+00 3.416997e-01 1.000412e+00 8.135529e-01 -6.740766e-01 -8.403651e-01 1.097704e+00 2.960773e+00 1.035982e-01 7.814442e-01 1.338109e+00 -1.680418e+00 -4.881582e-02 -1.438844e+00 -3.418662e-02 
3.969534e+00 -5.398162e+00 -8.635846e+00 -4.219563e+00 1.539594e+00 -2.815315e+00 -1.005753e+01 1.068821e+01 8.047027e+00 2.733164e+00 -4.570417e-01 -2.901290e+00 3.040431e-01 3.575784e-01 1.317245e+00 -1.137257e-01 8.358691e-01 1.603658e+00 2.830730e+00 8.031573e-01 -1.194974e-01 -4.572821e-01 -1.891623e+00 -2.291086e-01 -4.031638e-01 -3.592337e-02 
3.995158e+00 -4.290652e+00 -7.914347e+00 -3.628177e+00 9.122479e-01 -4.009590e+00 -5.870392e+00 6.698847e+00 5.297306e+00 2.552604e+00 -3.810101e-01 -3.843129e+00 2.588541e-01 -2.642671e-01 1.002347e+00 2.514602e-01 1.276300e+00 1.988660e-01 1.273339e+00 1.569866e+00 -1.784583e-01 -4.306034e-01 -6.585979e-03 4.261317e-01 7.630227e-01 -3.432500e-02 
4.903149e+00 -3.116680e+00 -1.057687e+01 -2.120597e+00 2.158360e+00 -7.267871e-01 -2.935020e+00 8.266821e+00 3.115075e+00 -1.097498e+00 -3.309495e+00 -7.010860e-01 2.627284e-01 -3.755531e-01 1.181114e+00 8.792892e-01 3.518792e-01 -1.249488e+00 -3.924310e-01 2.014898e+00 -7.240512e-01 -6.414849e-01 1.016038e+00 4.591251e-01 4.194493e-01 -4.171248e-02 
2.871572e+00 -3.316734e+00 -8.434953e+00 -2.117212e+00 -1.495218e+00 -5.579066e-01 -3.149877e+00 9.144626e+00 6.543430e+00 3.612538e+00 1.318974e+00 -2.802170e+00 1.907320e-01 -6.993679e-01 1.825447e+00 2.453975e+00 4.806592e-01 -1.158318e+00 8.659554e-03 2.525510e+00 -3.758977e-01 -1.259565e+00 -3.326765e-01 -4.145621e-01 1.815502e-01 -5.037047e-02 
2.653562e+00 2.044821e-02 -3.979097e+00 -3.215650e+00 -3.504112e+00 -6.503311e+00 -1.343301e+00 5.845061e+00 4.216540e+00 7.283387e+00 9.885921e-01 -1.324523e+00 1.295418e-01 -1.052245e+00 2.286263e+00 4.093584e+00 1.510105e+00 7.342752e-02 1.914367e-01 2.078938e+00 -8.643860e-01 -1.436991e+00 4.272264e-01 1.091637e+00 7.450603e-01 -5.048994e-02 
1.623113e+00 3.268021e+00 1.056645e+00 -6.773553e-01 -2.048108e+00 -1.078030e+00 5.961297e+00 6.030238e+00 -1.551250e+00 -3.301220e+00 -4.602864e+00 -2.623659e+00 7.359505e-02 -8.541150e-01 2.299290e+00 3.684722e+00 2.213875e+00 1.614340e+00 1.445838e+00 7.776088e-01 -1.741915e+00 -2.977552e+00 -2.523196e-01 1.063055e+00 7.094901e-01 -3.396682e-02 
2.661562e-01 5.022257e+00 5.145253e+00 4.710000e+00 2.801943e+00 4.904585e-01 2.904085e+00 5.502085e+00 -2.254248e-02 4.495513e+00 5.109612e+00 2.934960e+00 6.884718e-02 -1.839157e+00 1.617959e-01 3.179014e+00 6.303883e-01 2.825136e+00 4.765017e+00 -1.990804e+00 2.208807e-01 -1.800260e+00 -1.405727e+00 2.205484e+00 -9.452490e-01 1.897266e-02 
-2.053003e-01 5.678812e+00 5.426485e+00 4.989338e+00 3.423456e+00 3.174401e+00 -1.385526e+00 6.065371e-01 -6.224791e+00 3.744877e+00 4.573737e+00 -1.384461e+00 5.124521e-02 -2.349195e+00 -1.163452e+00 2.423300e+00 -2.421427e+00 1.269867e+00 3.566737e+00 -4.098786e+00 1.485754e+00 -2.483825e-01 -1.312134e+00 3.841449e+00 8.470955e-02 6.487785e-02 
-5.628019e+00 -3.759680e-01 9.731052e+00 -2.897055e+00 7.885786e+00 1.519556e+01 -7.623911e+00 9.661315e+00 -2.447990e+00 -3.268298e+00 7.427711e+00 -6.670367e+00 2.355800e-01 -1.328174e+00 -7.254242e-01 5.121349e-01 -1.544640e+00 -8.919389e-01 8.409182e-01 -1.827562e+00 4.260369e-01 -2.010192e-01 -4.693943e-01 1.768898e+00 6.867708e-01 2.655020e-02 
-7.175775e+00 1.498747e-01 1.088024e+01 -8.980961e+00 1.759306e+00 9.403106e+00 -9.268637e+00 1.137939e+01 -1.580438e+00 -5.979986e+00 1.344533e+01 2.602552e+00 3.146179e-01 -4.664278e-01 4.958844e-01 -3.094584e-01 -3.829544e-01 -1.093403e+00 -1.459394e+00 9.201139e-01 -9.277177e-02 -3.443087e-01 -1.679230e-01 -5.355417e-01 1.585011e+00 -1.612845e-02 
-2.889477e+00 4.159605e+00 4.979048e+00 3.971951e+00 -8.256773e-01 1.580697e+00 -2.292170e+00 2.245841e+00 -3.349815e+00 7.010972e+00 9.518305e+00 4.375308e+00 6.991184e-02 9.145635e-01 2.538884e+00 -1.143572e+00 8.809347e-01 -1.773344e+00 -3.438052e+00 2.814001e+00 -3.119153e+00 -2.063112e+00 -4.557424e-01 -3.266382e+00 8.106211e-01 -6.424262e-02 
-3.906711e+00 5.890448e+00 6.255195e+00 -3.599372e-01 2.312173e+00 2.684859e+00 5.491727e-01 3.850415e+00 -7.495422e+00 -2.234374e+00 8.507323e-01 1.017754e+00 5.343705e-02 9.483923e-01 1.889219e+00 -1.457726e+00 5.942962e-01 -6.219427e-02 -2.162717e+00 2.412344e+00 -2.498863e+00 -2.311644e+00 -3.560063e-01 -3.551736e+00 -1.758870e+00 -6.239907e-02 
-2.689734e+00 9.448162e+00 6.325715e+00 -2.802893e+00 -1.257365e+00 1.364419e+00 1.537191e+00 -2.169964e+00 -9.806059e+00 -7.419816e+00 -2.606900e+00 -1.824862e+00 4.495734e-02 1.527407e-01 5.320107e-01 -6.526117e-02 -7.023043e-01 1.104979e+00 -3.254174e-01 3.998008e-01 -5.272698e-01 -7.162515e-01 -1.343362e+00 -1.712087e+00 -1.926206e+00 -1.773846e-02 
-2.533685e+00 6.951691e+00 2.918282e+00 -2.622058e+00 1.664179e+00 -1.302338e+00 8.784039e-01 1.092980e+00 -9.910535e+00 -5.446234e-01 1.749250e+00 -3.091711e+00 1.509982e-02 -3.438478e-01 -6.019339e-01 -5.067735e-01 1.216409e-01 -7.470298e-02 -1.160669e-01 -2.295208e-01 -3.748430e-01 2.217803e+00 1.512421e+00 -5.395293e-01 1.322635e-02 -9.687489e-03 
-2.812286e+00 6.289036e+00 6.321198e+00 1.591490e+00 5.023215e+00 1.947208e+00 -4.577815e-01 9.882097e-01 -5.723516e+00 -5.507135e-01 5.086083e-01 -3.200990e+00 3.881454e-04 -2.432427e-01 -8.354591e-01 -9.431390e-02 9.370810e-01 -7.262159e-01 2.389741e-01 -1.421472e+00 -1.608347e-01 1.780544e+00 8.844735e-01 -1.872065e-01 -5.131135e-02 2.639008e-03 
-5.564673e+00 4.460341e+00 3.723586e+00 -1.948924e+00 -1.201631e+00 1.813130e+00 3.990551e-01 3.971133e-01 1.552324e+00 1.893179e+00 -3.404668e+00 1.771950e+00 2.728420e-02 7.082987e-02 -6.427918e-02 4.196719e-01 8.290460e-01 -1.871819e+00 3.662135e-01 -1.729050e+00 -1.105278e+00 5.640280e-01 -1.100909e+00 -6.905028e-01 -4.155335e-01 1.255928e-02 
-2.390452e+00 6.516542e+00 5.451494e+00 1.545945e+00 -3.455539e+00 1.001556e+00 -5.330492e+00 -2.626204e+00 -6.634768e+00 -4.216349e+00 -9.659734e-01 -4.513249e+00 5.206019e-02 4.017889e-01 2.511212e-01 -1.150227e-03 3.403778e-01 -1.921142e+00 -2.702878e-01 -1.547497e+00 -1.025214e+00 -1.000960e+00 -1.344080e+00 -5.104685e-02 -8.909715e-01 1.281201e-02 
