-1.320269e+00 4.448566e+00 -4.820516e+00 -2.231345e+00 6.881861e+00 5.901748e+00 4.295347e+00 3.345892e+00 2.985052e+00 3.682839e+00 -4.830435e-01 2.054615e+00 -1.512927e-01 5.201229e-01 8.036277e-02 -7.429421e-03 4.989886e-01 1.162294e-01 -1.150313e+00 -6.121985e-01 -9.460651e-01 -1.962532e+00 -2.048466e+00 -3.102815e-01 -1.751334e-01 0.000000e+00 
1.596859e+00 6.235677e+00 -3.209932e+00 2.072090e+00 6.141604e+00 1.522326e+00 1.016101e+00 1.541407e+00 -3.516860e+00 -5.495808e-01 4.683914e-01 3.615167e+00 -1.512927e-01 4.285216e-01 3.089115e-01 4.833059e-01 5.477154e-02 -2.528434e-01 -4.916431e-01 -5.665262e-01 -1.480143e+00 -1.910657e+00 -1.857594e+00 -8.316994e-01 -1.037221e+00 0.000000e+00 
-1.782179e-01 3.956825e+00 -5.662955e+00 -1.888119e+00 7.833136e+00 2.339895e+00 2.873978e+00 -4.821911e-01 -3.576652e+00 -4.443281e+00 -2.510169e+00 3.986712e-01 -1.512927e-01 3.326816e-02 -1.713528e-01 4.355841e-02 2.172550e-01 1.995634e-01 4.113331e-01 3.073503e-01 -1.187988e+00 -1.311167e+00 -1.276533e+00 -1.218568e+00 -1.028332e+00 0.000000e+00 
2.513142e-01 6.238994e+00 -1.982767e+00 -2.129100e+00 5.142006e+00 5.224458e+00 2.173401e+00 -2.140780e+00 -3.287378e+00 -1.542070e+00 -3.627978e+00 -2.303520e+00 -1.512927e-01 -5.340884e-01 -6.719378e-01 -3.055371e-01 3.313109e-01 2.769930e-01 1.028822e+00 6.678432e-01 -4.544161e-01 7.687005e-01 -1.809311e+00 -1.821947e+00 -9.817214e-01 0.000000e+00 
-4.811554e-01 3.590143e+00 -5.216307e+00 9.555249e-01 8.379477e+00 6.107347e+00 5.253448e+00 -7.529523e-01 -3.685522e+00 -2.203583e+00 -4.527700e+00 -1.276998e-01 -1.512927e-01 -3.949946e-01 -8.282015e-01 -5.503693e-01 7.737983e-01 -3.217757e-01 -3.857188e-01 -7.647529e-01 6.154305e-02 1.035772e+00 -3.045100e-01 -8.520600e-01 -1.685997e-01 0.000000e+00 
-9.221144e-01 3.059328e+00 -4.960942e+00 2.306822e+00 7.253399e+00 4.782711e+00 3.165581e+00 -5.952932e-01 3.810770e-01 -1.071599e+01 -7.632576e+00 -1.030255e+00 -1.512927e-01 -4.373264e-01 -1.263369e+00 -1.182708e+00 3.535729e-02 4.941114e-01 -6.463547e-01 -9.799164e-01 4.604141e-01 1.218055e+00 1.776708e-01 -1.763842e-01 1.831442e-01 0.000000e+00 
-1.566477e+00 1.405650e+00 -6.925714e+00 -2.370887e-01 5.168561e+00 6.321745e-01 -1.445876e+00 -9.472191e-01 -2.320202e-01 -1.378874e+00 -4.768169e+00 -1.080960e+00 -1.512927e-01 -1.187889e-01 1.057012e-01 1.723132e-01 -9.644191e-01 4.340087e-01 -1.098270e-01 -1.017206e+00 5.037197e-01 1.064981e+00 1.448751e+00 5.407307e-01 -1.472729e-01 0.000000e+00 
-1.392657e+00 1.014395e+00 -7.041603e+00 -1.356007e+00 9.218020e+00 4.730270e+00 6.234810e-01 2.584241e-01 1.076147e+00 -1.066071e+00 -4.389664e+00 -9.111690e-01 -1.512927e-01 4.113499e-01 8.323631e-01 4.471568e-01 -7.186882e-01 -4.512044e-01 -2.914093e-01 -4.273061e-01 5.281665e-02 -4.876667e-01 2.212854e+00 9.910639e-01 3.443459e-01 0.000000e+00 
-8.398285e-01 5.141116e+00 -3.314410e+00 -2.035156e+00 9.567209e+00 5.584432e+00 1.438469e+00 1.338788e+00 1.291850e+00 2.152164e-01 -3.445502e+00 -9.236069e-01 -1.512927e-01 1.792754e-01 -8.929517e-01 3.741235e-01 1.637467e+00 -1.077032e+00 -9.861873e-01 1.190726e+00 4.569687e-01 -6.898183e-01 1.075440e+00 1.936892e+00 8.241615e-01 1.381207e-02 
7.713108e-01 5.353411e+00 -4.530809e+00 -3.875856e-01 2.798052e+00 8.495363e-01 -4.131215e-01 -1.474213e+00 -2.819191e+00 -4.487574e-01 -3.338590e+00 6.127983e-01 -1.512927e-01 9.761477e-02 -3.678468e+00 -5.790916e-01 2.909275e+00 -2.573545e+00 -2.714993e+00 1.634804e+00 -2.982983e-01 -1.467757e+00 7.437812e-01 1.727666e+00 6.507519e-01 5.314138e-02 
-1.752084e+00 -5.228617e+00 -6.310493e+00 7.466034e+00 2.993386e+00 -2.358396e+00 5.026054e+00 2.203943e+00 -1.733442e+00 3.689668e+00 4.390754e+00 2.277864e+00 -8.223236e-02 -2.181375e-01 -2.918897e+00 -1.467899e+00 1.479841e+00 -1.092009e+00 -1.125124e+00 1.921698e+00 -2.280265e-01 -9.252909e-01 2.823712e-01 1.284437e+00 1.455172e+00 2.311767e-02 
-4.484558e-01 -1.219308e+01 -8.439020e+00 8.439772e+00 -3.627911e-01 -4.873279e+00 7.003706e+00 -1.665645e+00 -4.749994e+00 9.156091e-01 3.305371e-01 7.418554e-01 7.988405e-02 -5.145764e-01 -3.368726e-02 -4.597777e-01 -1.009519e+00 1.363177e+00 1.361814e+00 2.045655e+00 9.920810e-01 -2.113344e-01 -4.091797e-01 -5.331418e-01 4.899352e-01 -6.906033e-03 
-1.320633e+00 -6.801286e-01 -8.699799e+00 9.503722e-01 5.687584e+00 2.820220e+00 7.338548e+00 2.943707e-01 -2.369204e+00 9.448893e-01 1.142120e+00 6.287723e+00 -1.512927e-01 -1.143901e-01 3.579702e+00 8.102760e-01 -2.522238e+00 1.739730e+00 2.934281e+00 -1.101386e+00 9.465218e-03 -2.410225e-01 -1.023166e+00 -1.669557e+00 5.768171e-01 -3.692974e-02 
-2.017297e+00 2.910730e+00 -5.635045e+00 -2.177351e+00 8.266839e+00 5.069299e+00 8.658906e+00 4.440978e+00 -3.557983e+00 -1.122267e+00 -4.379982e+00 1.057545e+00 -1.512927e-01 -3.593965e-01 3.909599e+00 1.473507e+00 -2.061218e+00 2.298529e+00 3.217487e+00 -1.591543e+00 -9.468129e-02 8.932823e-01 9.814336e-01 -9.573002e-02 3.225271e-01 -4.623535e-02 
-1.539614e+00 5.117991e+00 -3.661100e+00 1.634021e-01 7.377219e+00 7.341720e+00 -1.308476e+00 -8.020425e-01 -3.534560e+00 -4.072244e-01 -1.601771e+00 5.004105e+00 -1.512927e-01 -8.663569e-02 1.566495e+00 9.013752e-01 -8.424693e-01 9.821413e-01 2.033105e+00 -1.063987e+00 -1.828008e-01 1.837831e+00 1.451421e+00 -1.703296e-01 -7.059972e-01 0.000000e+00 
-2.135948e+00 4.455855e+00 -3.590836e+00 -1.472834e+00 1.028503e+01 8.953403e+00 3.369504e+00 -1.590845e+00 2.990960e-01 6.498834e+00 1.223832e+00 2.996300e+00 -1.512927e-01 -2.933359e-02 8.205227e-01 3.795806e-01 -2.924927e-01 1.785322e-01 3.750837e-02 -7.767296e-01 -5.386564e-01 2.050888e+00 1.704921e+00 5.126089e-01 -1.019966e+00 0.000000e+00 
-1.694486e+00 6.379782e+00 -5.215027e+00 -3.614233e+00 9.589192e+00 1.104370e+01 4.663311e+00 2.396278e+00 4.891412e+00 4.391446e+00 -2.511435e+00 1.788359e+00 -1.512927e-01 -4.215584e-01 2.499604e-02 2.030758e-01 -3.060294e-01 3.640375e-01 -1.657225e-01 1.652776e+00 1.197744e+00 1.304751e+00 8.644635e-01 3.861640e-01 -1.569644e+00 0.000000e+00 
-2.086529e+00 6.382449e+00 -2.960178e+00 -1.750997e+00 8.053514e+00 3.405853e+00 1.789365e+00 1.485359e-01 2.483471e+00 5.003006e+00 -1.362105e+00 -2.434410e+00 -1.512927e-01 -5.302112e-01 -3.653930e-01 2.906201e-01 5.541278e-01 5.045961e-01 2.800337e-01 1.758437e+00 2.202430e+00 6.371459e-01 -4.934707e-02 6.139826e-01 -1.582878e+00 0.000000e+00 
-3.672115e+00 4.279675e+00 -2.961051e+00 -1.227664e+00 1.031317e+01 9.286882e+00 7.745471e+00 4.316987e+00 1.897007e+00 4.663007e+00 1.622018e+00 -1.287610e-01 -1.512927e-01 -1.329796e+00 -4.690631e+00 -1.071248e+00 1.915052e+00 9.419702e-01 -2.220098e-01 2.383630e+00 7.468702e-01 -4.569949e-01 1.999187e-01 8.510311e-01 -4.269657e-01 7.710744e-02 
-3.798189e+00 3.678944e+00 -3.264724e+00 1.045203e-01 1.244603e+01 1.123198e+01 1.062061e+01 8.460948e+00 4.982028e+00 6.116318e+00 2.227019e+00 -3.959528e+00 -1.512927e-01 -1.852520e+00 -6.753245e+00 -1.827809e+00 1.311896e+00 5.897411e-01 3.789521e-01 1.474904e+00 -1.006192e+00 -5.336905e-01 -8.968989e-01 -4.677741e-01 1.240402e+00 1.463170e-01 
-7.487637e+00 -1.572162e+01 -1.041900e+01 5.033271e+00 1.210279e+01 6.020583e+00 1.216584e+01 1.974423e+00 1.357159e+00 4.834383e+00 -5.084127e-02 4.160899e-01 2.342445e-01 -1.683393e+00 -4.292151e+00 1.223745e+00 -2.038018e+00 -1.049752e+00 -3.701389e+00 -4.335691e+00 -2.184930e+00 -7.383699e-01 -6.497330e-01 -1.585703e-02 5.720917e-01 1.583724e-01 
-9.441370e+00 -1.738313e+01 -8.370253e+00 1.678015e+00 1.010741e+01 6.933764e+00 6.953701e+00 -3.711142e+00 8.494228e-02 4.328239e-01 -2.864546e+00 3.495175e+00 3.875235e-01 -8.871168e-01 -3.266618e-01 3.331746e+00 -3.184904e+00 -1.776016e+00 -2.108957e+00 -5.338792e+00 -1.306992e+00 -1.443345e+00 -6.007609e-01 1.321171e+00 6.930767e-01 7.572502e-02 
-9.267492e+00 -6.650048e+00 5.710436e+00 -1.220450e+01 6.233714e+00 -7.070957e+00 -1.209953e+01 -5.216162e-01 6.537001e-01 4.256089e+00 4.088515e+00 -9.956540e-01 3.711613e-01 2.082541e-01 2.941881e+00 1.873263e+00 -1.184587e+00 -1.764313e+00 -1.878671e-01 -3.709590e+00 1.069634e+00 8.228316e-01 8.463945e-01 1.472530e+00 1.128936e-02 -6.543999e-02 
-7.343845e+00 -2.490151e+00 5.329291e+00 -7.201112e+00 6.500482e+00 7.232961e+00 -3.940669e+00 3.174006e+00 -1.882969e+00 3.401660e+00 6.763196e+00 2.117276e-01 1.588740e-01 4.892557e-01 1.570775e-01 -1.238487e+00 1.749840e+00 -6.040729e-01 6.855351e-01 -8.946854e-01 2.183346e+00 1.677163e+00 1.877502e+00 9.689896e-01 1.252043e-01 -6.468399e-02 
-7.495129e+00 -8.458702e+00 -7.902452e+00 3.549898e+00 5.084685e+00 4.931649e+00 -9.349277e-01 3.880020e+00 6.455273e+00 7.581937e+00 2.497937e+00 2.114260e+00 2.136928e-02 8.418859e-01 -9.498093e-01 -2.398145e+00 4.212399e+00 1.223871e+00 1.817999e+00 9.077915e-01 4.516746e-01 1.144952e+00 5.276309e-01 -5.076881e-01 8.240894e-01 -7.614280e-02 
-7.881273e+00 -1.569341e+01 -7.756240e+00 2.550018e+00 7.661560e+00 4.360136e+00 -3.102028e+00 5.004772e+00 5.569973e+00 8.157411e+00 2.775691e+00 2.566239e+00 2.389995e-01 2.014072e-01 1.974890e+00 -5.932568e-01 1.820045e+00 -2.283365e-01 1.111305e-01 7.638987e-01 -5.794790e-01 5.586345e-01 -5.362790e-02 -6.301718e-01 2.153678e-01 -3.256641e-02 
-4.789349e+00 -4.797462e+00 2.624745e-01 3.981931e+00 1.177253e+01 3.455451e+00 -7.979894e+00 8.213742e-01 2.651987e+00 4.516368e+00 3.543828e+00 1.947537e+00 -4.961550e-02 -8.706878e-01 4.255054e+00 1.534082e+00 -5.992463e-01 -2.970469e+00 2.128356e-01 2.595625e+00 1.256717e-01 -6.088631e-01 -4.546696e-01 8.400285e-01 -8.203133e-01 5.368042e-03 
-7.689699e+00 5.553680e+00 -1.719456e+00 1.683096e+00 2.014876e+00 8.526712e+00 3.401308e+00 1.805934e+00 2.811847e+00 4.666305e+00 3.089392e+00 1.371928e+00 3.153437e-02 -3.645962e-01 3.802021e+00 1.376724e-01 -1.930551e+00 -3.134079e+00 -1.014006e+00 2.336451e+00 -5.465549e-01 8.294334e-02 -5.831706e-01 1.074485e-01 -9.982723e-01 -5.790269e-02 
-1.194436e+01 2.193018e+00 -3.250434e+00 9.871278e-01 -6.944320e+00 3.912539e+00 8.791528e+00 6.107798e+00 4.790021e+00 7.054142e+00 6.541229e+00 -1.390151e+00 1.519421e-01 -3.382894e-01 -1.408105e-01 -2.049129e+00 -2.470322e+00 -1.573361e+00 -1.907459e+00 2.462249e+00 1.395986e+00 2.576829e-01 -1.801586e-01 7.076691e-01 -5.850061e-01 -3.827034e-02 
-6.126751e+00 -1.785505e-01 -5.311424e+00 -5.605333e+00 1.349588e+00 -9.384351e-01 1.945174e-01 -3.712146e-01 4.915673e+00 3.972670e+00 1.814233e+00 -7.562785e-01 -1.512927e-01 9.005934e-01 -1.577170e+00 -1.648566e+00 -1.906505e+00 1.376859e+00 -1.576590e+00 3.947679e-01 2.130155e-01 -1.256378e+00 -5.728928e-01 -2.174935e-01 3.888530e-01 -6.671499e-02 
-7.262270e+00 -2.635399e+00 -8.187189e+00 -4.725465e+00 4.238369e+00 -1.349267e+00 5.934747e+00 8.889877e+00 2.888488e+00 3.962392e+00 7.719753e+00 8.661020e-02 -1.495537e-01 1.378492e+00 -2.968793e-01 -1.048506e+00 -6.759018e-01 3.202573e+00 1.522447e+00 2.416953e-01 4.267227e-01 -1.718196e-01 -3.789019e-01 -1.187201e+00 1.008371e+00 -6.064695e-02 
-5.527775e+00 8.203793e-02 -7.493909e+00 -4.993133e+00 3.307829e+00 3.274666e+00 6.803538e+00 1.479972e+00 -2.519280e+00 3.347716e+00 1.412663e+00 2.577812e+00 -1.512927e-01 1.590916e-01 4.252573e-01 -4.726687e-01 6.626078e-01 7.557419e-01 2.863179e+00 5.335726e-01 -3.826481e-02 4.369144e-01 1.717790e+00 -6.544065e-02 4.346113e-01 -1.739025e-04 
-5.351385e+00 5.783280e-01 -7.401723e+00 -2.698481e+00 8.089428e+00 9.418224e+00 6.695494e+00 7.315818e+00 7.648399e+00 5.472110e+00 8.060105e-01 1.984659e+00 -1.512927e-01 6.396218e-02 2.004958e-01 6.129365e-02 -1.922996e-02 6.198269e-01 2.526812e+00 3.299561e-01 -9.345895e-01 6.544551e-01 1.291465e+00 -1.398261e+00 6.482725e-01 -3.478050e-04 
-6.286736e+00 3.408724e-01 -8.067501e+00 -3.305787e+00 3.202769e+00 7.993715e+00 2.482007e+00 2.244911e-01 4.720290e+00 1.180676e+01 4.943900e+00 4.677539e-01 -1.512927e-01 -1.629326e-01 -4.957361e-01 -8.807753e-01 -4.847630e-01 -7.442360e-02 9.176648e-02 6.304215e-01 7.407871e-01 -8.453124e-01 -9.957449e-02 -1.055711e+00 -6.321000e-01 0.000000e+00 
-6.562979e+00 -1.762337e+00 -7.593925e+00 -5.665288e+00 7.390034e+00 8.925267e+00 9.745293e+00 4.844670e+00 2.540979e+00 6.190190e+00 -1.037170e+00 4.383001e+00 -1.512927e-01 3.143284e-01 2.756383e-01 -2.759283e-01 -4.607499e-01 -4.205967e-01 -1.390450e+00 8.888079e-01 -4.423212e-01 -2.393253e+00 -1.095052e+00 -1.409352e-01 -1.960170e-01 0.000000e+00 
-5.736641e+00 -1.226310e+00 -1.180168e+01 -5.933544e+00 3.285408e+00 3.979977e+00 8.430746e+00 6.419481e+00 -4.192132e+00 2.490803e+00 -2.944302e+00 -1.781859e+00 -1.512927e-01 6.673247e-01 8.365270e-01 7.299688e-01 -2.856758e-01 -1.609225e-01 -1.106976e+00 4.048443e-01 1.640469e-01 -4.873830e-01 -1.214216e+00 -5.482798e-02 -4.481512e-01 0.000000e+00 
-4.054790e+00 2.740110e+00 -6.914273e+00 -3.688352e+00 5.945124e+00 4.472845e+00 8.165164e+00 2.006717e+00 1.383467e-01 4.654830e+00 4.045435e+00 2.129380e+00 -1.512927e-01 1.154571e+00 1.108713e+00 2.321336e+00 1.362517e+00 -2.652471e+00 -3.480248e+00 -2.677071e+00 -2.242175e+00 -3.757339e-01 -6.623550e-02 1.418578e+00 -1.037531e-01 1.148455e-02 
-4.204206e+00 2.272284e+00 -4.757483e+00 -5.722634e+00 3.120612e+00 4.685046e+00 5.296293e+00 2.463702e+00 3.484691e+00 6.503366e+00 2.128458e+00 -6.461914e-01 -1.512927e-01 1.658130e+00 2.533651e-01 4.259627e+00 2.970561e+00 -3.223296e+00 -4.395841e+00 -2.196595e+00 -2.449001e+00 -2.580816e-01 -1.045687e+00 -5.455053e-01 7.070800e-01 7.640587e-02 
-1.556342e+00 2.031931e+00 4.906540e-01 1.041842e+00 -5.789922e+00 -8.828508e+00 -2.072836e+00 -4.388317e+00 -3.176102e+00 3.852731e+00 3.519339e+00 3.296402e+00 -9.386992e-02 2.115791e+00 6.533764e-02 3.361072e+00 2.228317e+00 -4.400807e+00 -6.049891e+00 -1.098968e+00 -1.076411e+00 -1.980473e+00 -1.525772e+00 -2.762414e+00 -2.530474e-01 1.545955e-01 
1.304786e+00 3.946058e-01 5.793987e+00 6.554162e+00 -6.963550e+00 -1.134855e+01 2.566768e+00 -2.628009e+00 -3.825316e+00 -2.336585e+00 -5.408780e+00 1.170030e+00 2.020253e-01 2.909129e+00 -6.595072e-01 3.009536e+00 1.299304e+00 -4.120639e+00 -4.005599e+00 -9.301960e-01 -1.587363e-01 6.203775e-02 -2.437493e+00 -1.008347e+00 1.080033e+00 2.133384e-01 
3.769670e+00 4.005637e+00 4.615353e+00 1.314834e+00 -1.101683e+01 -1.775982e+01 4.035085e+00 -8.294806e-01 -6.109014e+00 1.445947e+00 -5.998016e+00 -4.396719e-02 4.450259e-01 2.693493e+00 -2.170794e+00 2.598920e+00 -5.533162e-01 -3.651134e+00 1.856317e-01 -1.042117e+00 4.576101e-01 2.629712e+00 -2.154132e+00 9.501902e-01 1.747463e+00 2.297710e-01 
7.678432e+00 -2.012106e+00 8.227846e+00 6.373916e-01 -1.486913e+01 -1.087729e+01 -2.408648e+00 -1.093966e-01 5.261336e+00 -4.480707e+00 1.845402e+00 6.424160e+00 6.459516e-01 1.869813e+00 -2.463226e+00 1.995785e+00 -1.362126e+00 -3.350019e+00 9.999649e-01 -2.682942e+00 -5.308585e-01 3.096682e+00 -1.414062e+00 3.367427e+00 2.781355e+00 1.711569e-01 
8.724302e+00 -7.618684e+00 1.226832e+01 1.233646e+00 -2.009280e+01 -8.135979e+00 -4.795715e+00 -3.359572e+00 5.429130e+00 -5.845869e+00 4.643199e+00 9.406653e+00 8.330219e-01 7.440649e-01 -2.862294e+00 2.030722e+00 1.249790e-03 -2.479045e+00 1.617497e+00 -2.672138e+00 -9.555382e-01 2.076513e+00 -1.116562e+00 2.493570e+00 2.399509e+00 1.180875e-01 
8.176537e+00 -6.109362e+00 1.194643e+01 -2.158742e-01 -1.917566e+01 -1.116064e+01 -6.432541e+00 -4.017256e+00 5.889022e+00 -5.760987e+00 6.107749e+00 1.035149e+01 8.638119e-01 -2.636487e-01 -1.507590e+00 1.515067e+00 2.226339e-01 -1.554769e+00 2.262250e-01 -1.392962e+00 -9.870459e-01 -2.983858e-01 1.044196e-01 8.629900e-01 2.864819e-01 7.551976e-02 
7.240942e+00 -8.257204e+00 1.290967e+01 1.747716e+00 -2.125879e+01 -9.530655e+00 -7.313661e+00 -3.653242e+00 3.959707e+00 -3.496722e+00 4.338658e+00 9.989908e+00 9.265335e-01 -6.850010e-01 -4.789883e-01 9.944528e-01 3.324891e-01 -7.565565e-01 7.302837e-02 -6.721371e-01 -3.479873e-01 -4.703127e-01 1.111270e-01 2.822375e-02 -5.040571e-01 4.469389e-02 
7.101868e+00 -9.230793e+00 1.548251e+01 1.493526e+00 -2.205998e+01 -9.048830e+00 -8.114485e+00 -4.897791e+00 4.504118e+00 -5.133183e+00 6.312623e+00 7.564942e+00 9.767946e-01 -7.235141e-01 -2.934523e-01 1.135074e+00 2.652459e-01 -5.147161e-01 2.761170e-01 -3.652229e-02 -4.116895e-01 -3.899977e-01 -1.515583e-01 -2.680636e-01 -4.540382e-01 3.338711e-02 
5.836631e+00 -8.452909e+00 1.547255e+01 2.041391e+00 -2.243343e+01 -8.826744e+00 -7.315429e+00 -4.659241e+00 3.770018e+00 -5.604136e+00 4.681881e+00 8.279644e+00 1.000000e+00 -7.019235e-01 4.891610e-01 6.567230e-01 8.783088e-02 1.727129e-01 4.356880e-02 3.710870e-01 -5.730428e-01 -5.255884e-01 -3.040499e-01 -2.500245e-01 -1.943173e-01 1.332970e-02 
5.261121e+00 -7.478771e+00 1.634036e+01 9.635177e-01 -2.116192e+01 -1.013202e+01 -6.614268e+00 -5.572704e+00 4.033878e+00 -5.465072e+00 4.595819e+00 8.936436e+00 9.940141e-01 -6.245266e-01 7.216894e-01 3.586307e-01 2.101357e-01 6.095610e-01 1.426819e-01 4.846026e-01 -4.539892e-01 -9.160525e-01 1.429020e-01 -6.013891e-01 -2.825254e-01 -2.786022e-03 
4.651698e+00 -6.687411e+00 1.576436e+01 2.451875e+00 -2.084426e+01 -8.771219e+00 -6.208334e+00 -6.181000e+00 1.566885e+00 -4.851027e+00 3.946937e+00 8.332575e+00 9.845722e-01 -1.996711e-01 5.676302e-01 5.916473e-01 4.550594e-01 2.928003e-01 1.122995e+00 9.225845e-03 -4.701994e-01 -9.542223e-01 -2.799123e-01 2.982147e-02 -1.161733e+00 -1.412367e-02 
4.571701e+00 -6.505096e+00 1.712975e+01 2.338964e+00 -1.980676e+01 -8.363182e+00 -6.245019e+00 -6.406857e+00 1.025422e+00 -4.795227e+00 3.673149e+00 6.125850e+00 9.705784e-01 -5.334725e-02 5.474311e-01 8.974752e-01 4.040308e-01 6.187256e-01 1.087883e+00 -3.011661e-01 -4.943400e-01 -8.680264e-01 -4.885378e-01 -2.376876e-02 -1.709689e+00 -2.562130e-02 
5.182986e+00 -6.101596e+00 1.803609e+01 3.628965e+00 -2.164701e+01 -4.096187e+00 -7.453924e+00 -6.593161e+00 5.031351e-01 -7.338620e+00 5.292324e+00 3.876274e+00 9.410995e-01 1.439056e-02 7.658485e-01 1.145294e+00 3.557275e-01 8.825194e-01 8.652288e-01 -1.050432e+00 -3.378198e-01 -4.956050e-01 -8.671454e-01 1.614029e-01 -1.799650e+00 -3.785578e-02 
4.728741e+00 -5.034523e+00 1.969187e+01 2.395126e+00 -1.766692e+01 -7.030115e+00 -7.497304e+00 -7.838324e+00 2.256213e-01 -6.663964e+00 3.804282e+00 2.616141e+00 8.876440e-01 3.199467e-01 1.050038e+00 1.415293e+00 1.942896e-01 9.557573e-01 9.016880e-01 -1.173621e+00 -8.980942e-02 -9.327320e-01 -1.181970e+00 3.530422e-01 -1.672455e+00 -5.598378e-02 
4.645131e+00 -3.593455e+00 2.020977e+01 4.202431e+00 -1.750158e+01 -5.111609e+00 -1.083435e+01 -7.154366e+00 -5.112398e-01 -8.252386e+00 4.688385e+00 1.089178e+00 8.367605e-01 6.291093e-01 1.141486e+00 1.350463e+00 5.883214e-01 9.297453e-01 6.118993e-01 -1.183110e+00 2.782500e-01 -7.460569e-01 -1.596087e+00 6.351174e-01 -1.637350e+00 -7.336178e-02 
6.440362e+00 -2.508979e+00 2.311938e+01 3.023679e+00 -1.710069e+01 -3.347032e+00 -1.042291e+01 -6.575302e+00 -3.131050e+00 -1.024819e+01 5.740329e+00 -8.428763e-01 7.428290e-01 1.123166e+00 1.723354e+00 -3.180422e-01 2.002409e+00 2.805836e-01 3.680037e-01 -3.619222e-01 1.476853e-01 -8.093526e-01 -6.996316e-01 3.180315e-01 -1.635353e+00 -9.970763e-02 
7.472722e+00 -1.656937e+00 2.307465e+01 6.256296e+00 -1.728139e+01 -2.878232e+00 -1.190667e+01 -5.833422e+00 -1.548813e+00 -1.352694e+01 7.499887e+00 -2.580965e+00 6.466981e-01 9.117349e-01 1.831031e+00 -2.007148e+00 2.318385e+00 5.054833e-01 3.239310e-01 1.126513e-01 7.735578e-01 -5.721517e-02 1.039899e+00 -2.026547e-01 -6.528017e-01 -1.114259e-01 
8.930778e+00 2.613990e+00 1.666922e+01 1.138024e+01 -1.637409e+01 -6.306785e+00 -8.770755e+00 -7.760369e+00 -3.302355e+00 -7.524845e+00 3.988689e+00 -3.725551e+00 4.841371e-01 4.849182e-01 1.813493e+00 -2.830051e+00 2.442321e+00 6.201172e-01 -6.827092e-01 5.502825e-02 3.152229e-01 -6.923878e-01 1.769813e+00 -6.109628e-01 1.365269e-01 -1.038174e-01 
7.958598e+00 3.000217e+00 1.339911e+01 1.161607e+01 -1.533746e+01 -2.012077e+00 -1.109717e+01 -2.694044e+00 -7.116633e-01 -4.414567e+00 4.550931e+00 -7.334933e-01 4.089769e-01 -3.511701e-01 2.180314e+00 -9.317703e-01 1.294310e+00 6.027151e-01 5.096474e-02 -4.672677e-01 1.136398e-02 -1.511020e+00 2.950319e+00 -1.405203e+00 9.064020e-01 -8.686208e-02 
8.622015e+00 4.229908e+00 1.380689e+01 1.255539e+01 -1.497207e+01 -7.193655e+00 -1.055252e+01 -6.568876e+00 -7.011564e+00 -5.955314e+00 4.159993e+00 -1.083978e+00 3.426024e-01 -7.264251e-01 1.130931e+00 1.013849e+00 6.892090e-02 1.531868e+00 4.483499e-01 -2.149689e-01 -1.354727e-01 -1.518681e+00 1.841312e+00 -1.326228e-01 9.062515e-01 -6.328851e-02 
5.871253e+00 8.436672e+00 1.984696e+01 1.214027e+01 -1.496883e+01 -2.179973e+00 -1.335213e+01 -6.372348e+00 -7.249309e+00 4.398870e-01 3.882203e-01 6.302584e-01 2.831550e-01 -4.969689e-01 1.688017e+00 -5.196403e-01 -7.422543e-01 4.089152e+00 -6.624806e-01 2.366711e+00 9.522555e-01 -2.355577e+00 7.469410e-01 2.575137e-01 -1.097702e+00 -8.775330e-02 
6.342325e+00 5.550418e+00 1.851454e+01 1.146275e+01 -8.899069e+00 -3.981088e+00 -8.718122e+00 -6.598580e+00 -7.626938e+00 -7.455122e-01 5.406930e+00 1.238308e-01 2.306054e-01 -8.826054e-01 1.822041e+00 -3.563504e+00 -2.263186e+00 6.706128e+00 2.078107e+00 3.611991e+00 5.017583e-01 -1.123186e+00 -7.561321e-01 -1.741605e+00 -2.390512e+00 -1.122314e-01 
6.613598e+00 1.078005e+01 8.447084e+00 8.451126e+00 2.071800e+00 -6.930764e+00 -1.808164e-01 2.082086e+00 -1.218186e+01 -3.284763e+00 5.215031e+00 -6.825905e+00 2.620888e-02 -9.531563e-01 9.364946e-01 -5.842891e+00 -2.893578e+00 6.145074e+00 2.848384e+00 3.478457e+00 -2.638057e-01 -2.985085e-01 -1.399056e+00 -3.443322e+00 -2.844387e+00 -1.175741e-01 
3.837814e+00 1.216843e+01 1.689310e+00 3.084035e+00 1.003825e+01 5.572274e+00 9.217794e-01 -8.287301e+00 -1.016122e+01 -7.873650e+00 -6.961436e+00 -9.308455e+00 -9.008145e-02 -1.725291e+00 -1.928869e-01 -5.653638e+00 -2.580587e+00 4.122404e+00 3.031334e+00 1.099091e+00 -6.218166e-01 1.370708e+00 -1.257648e-01 -3.811854e+00 -1.385628e+00 -9.343771e-02 
2.357726e+00 9.810141e+00 -9.548764e-01 1.861734e+00 6.287876e+00 7.285267e+00 -7.797930e-01 -6.847016e+00 -7.474711e+00 -2.991323e+00 -1.064421e+01 -8.875533e+00 -1.443720e-01 -2.167988e+00 -1.604086e+00 -3.066572e+00 -1.910354e+00 1.116079e+00 2.434968e+00 5.394710e-01 -1.152102e-01 3.318032e+00 2.251007e+00 -6.125354e-01 8.334817e-01 -4.162144e-02 
-1.561966e-01 5.070936e+00 -5.052668e+00 1.854511e+00 9.604912e+00 4.067570e+00 -2.923180e+00 -5.243113e+00 -3.126977e+00 -1.521056e+00 -5.722721e+00 -5.779495e+00 -1.512927e-01 -2.047628e+00 -2.329815e+00 -1.323976e+00 -4.968398e-01 -3.221812e-01 -3.938616e-01 7.025008e-01 2.554075e+00 3.730291e+00 3.355556e+00 2.794503e+00 2.798713e+00 -1.293432e-02 
-2.229337e+00 6.308360e+00 -3.514784e+00 -4.858794e-01 7.868866e+00 5.996427e+00 4.439018e+00 -1.605982e-02 8.911743e-01 4.793976e+00 1.532996e+00 -4.422977e+00 -1.512927e-01 -1.957643e+00 -2.337236e+00 -2.730922e-01 -1.363065e+00 -3.619129e-01 5.964866e-01 2.184682e+00 2.263301e+00 3.116580e+00 3.103836e+00 3.647562e+00 3.212676e+00 -1.384139e-03 
-4.106796e+00 2.270243e+00 -3.650616e+00 1.773643e+00 7.636854e+00 4.247386e+00 1.824878e+00 1.067593e+00 4.307290e+00 5.011481e+00 9.224769e-01 2.458830e+00 -1.512927e-01 -2.549420e-01 -4.319946e+00 6.977494e-01 -2.947088e+00 -3.532419e+00 -8.270363e-01 5.114682e-01 1.258816e+00 1.237095e+00 1.127652e+00 2.089407e+00 3.121091e+00 1.025136e-01 
-5.455191e+00 -4.756920e-01 -3.021363e+00 -4.913157e+00 5.462341e+00 1.017779e+01 7.769587e+00 1.314136e+00 4.391057e+00 9.261588e+00 4.271001e+00 3.068681e+00 -1.512927e-01 2.626320e-01 -4.362205e+00 6.069878e-01 -3.399580e+00 -4.626319e+00 -2.945887e+00 -2.305071e+00 2.977311e-01 -1.085540e+00 -1.387231e+00 8.989632e-01 2.438917e+00 2.022651e-01 
1.820202e-01 -1.313677e+01 -1.810632e+00 -1.066729e+01 -6.853920e+00 -2.158294e+00 -2.031123e+00 3.858697e-01 1.308554e+00 1.883397e+00 3.355313e+00 6.080130e+00 3.612756e-01 4.375708e-01 -1.866571e+00 1.025535e+00 -2.626143e+00 -5.254452e+00 -4.663206e+00 -2.193623e+00 1.693923e+00 -1.302937e+00 -1.097891e+00 2.080339e+00 1.153389e+00 1.922462e-01 
-3.060585e+00 -7.799160e+00 -1.399837e+00 -1.126332e+01 -8.017344e+00 -5.530169e+00 -5.158337e+00 1.813457e+00 -3.037159e+00 -5.781367e-01 4.811394e+00 5.960958e+00 6.037488e-01 1.972172e-01 -2.524986e-01 1.678115e+00 -3.192899e-01 -2.718559e+00 -4.899728e+00 -1.868891e+00 1.788280e+00 -9.269166e-01 -2.192850e+00 7.678071e-01 -2.163754e-01 1.030691e-01 
-3.116245e+00 -3.400879e+00 6.662989e-01 -8.181992e+00 -1.189556e+01 -1.121466e+01 -2.679273e+00 9.287545e+00 1.506716e+00 4.441888e+00 1.105398e+01 6.779636e+00 4.324178e-01 -1.785996e-01 1.114601e+00 6.118370e-01 4.991156e-01 -3.464636e-01 -1.974687e+00 -4.105241e-01 1.173580e+00 -3.804349e-01 -1.324924e+00 -1.379583e-01 -2.263587e+00 -4.378752e-02 
-2.819972e+00 -6.606131e+00 4.130745e+00 -7.752255e+00 -5.609632e+00 -9.792667e+00 -1.250795e+00 5.804699e+00 -3.426065e-01 -2.981906e+00 4.260705e+00 1.637051e+00 3.284815e-01 1.026730e+00 4.415049e-02 -4.764581e-03 5.402330e-01 -5.618176e-01 1.811687e-01 -1.364059e+00 -5.103287e-01 1.102761e+00 -9.023983e-01 -1.543526e+00 -1.899885e+00 -8.861325e-02 
-8.312845e-01 -8.160280e+00 -1.516738e+00 -9.927241e+00 -9.790093e+00 -9.900478e+00 -6.037515e+00 4.258150e+00 -1.940896e+00 -3.539338e+00 2.940866e+00 -3.075848e+00 2.799716e-01 1.574037e+00 -6.996351e-01 -8.973896e-01 1.405391e+00 3.353483e-01 4.822218e-01 -1.909981e+00 -2.003413e+00 1.069570e+00 -4.351268e-01 -3.115625e+00 -1.688730e+00 -6.091874e-02 
9.305849e-01 -5.198707e+00 -3.321419e-01 -7.689525e+00 -1.187917e+01 -5.281417e+00 -1.029951e+01 1.776512e+00 4.200450e+00 -1.099515e+00 1.150321e+00 1.389276e+00 2.369056e-01 1.214880e+00 -1.065728e+00 -1.461182e+00 2.799929e+00 1.976389e+00 -1.501635e-01 -2.015269e+00 1.458543e-01 3.252204e+00 2.549286e+00 -1.923536e+00 1.879274e-01 -2.722509e-02 
2.878660e+00 -7.602767e+00 -1.589206e+00 -1.186404e+00 -7.084053e+00 -1.105918e+01 -7.704823e+00 1.284576e+00 4.583035e+00 1.325059e+00 -2.968955e+00 -1.540127e+00 1.736120e-01 7.296465e-01 -1.247790e+00 -7.448750e-01 3.568741e+00 4.363564e+00 3.725170e-01 1.225268e+00 1.293820e+00 2.859489e+00 2.635639e+00 -1.098334e+00 2.619314e-01 -4.902321e-03 
1.399453e+00 -1.221353e+01 -3.138933e+00 1.876972e+00 2.919290e+00 -9.964134e+00 -1.049348e+01 8.020758e+00 1.265645e+01 7.332325e+00 -2.402066e+00 1.808828e+00 2.455359e-01 3.621107e-01 -3.869631e-01 -1.107328e+00 2.474051e+00 5.135488e+00 2.968164e+00 2.880671e+00 -4.997520e-01 -1.360634e-01 5.515629e-01 -4.707243e-02 -4.477922e-01 -2.820027e-02 
2.582514e+00 -1.089182e+01 -3.837718e+00 3.133216e+00 4.628502e+00 -5.696535e+00 1.858125e-01 7.605124e+00 8.128551e+00 5.422936e+00 -7.746093e-01 -1.975967e+00 2.511449e-01 2.023074e-01 2.192997e+00 -1.181788e+00 -6.346611e-01 2.969786e+00 4.118201e+00 3.011579e+00 -1.472814e+00 -2.929223e+00 -8.660398e-01 4.918396e-01 -8.439337e-01 -8.043977e-02 
2.889212e+00 -5.488996e+00 -4.744526e+00 2.520922e+00 7.941996e+00 6.878084e+00 1.585245e-01 -3.882523e+00 1.747375e+00 -3.906395e-01 -1.822143e-01 -6.317647e-01 5.713785e-02 3.262162e-01 4.262825e+00 -1.328362e+00 -1.863372e+00 5.343515e-02 2.293959e+00 2.261980e+00 -2.466594e+00 -5.282844e+00 -2.650052e+00 -1.062002e+00 -1.289332e+00 -1.108077e-01 
3.145318e+00 -4.744530e-05 -6.695350e+00 -4.681684e+00 5.253523e+00 1.110717e+00 2.027068e+00 -1.278551e-01 -4.608542e+00 8.563421e-01 -1.619683e+00 -4.539500e+00 -1.343879e-01 -3.385220e-01 4.252055e+00 -1.138410e+00 -1.648311e+00 -4.555193e-01 6.257454e-01 1.308303e+00 -1.072353e+00 -3.391227e+00 -9.564219e-01 -1.783721e+00 -2.243164e-01 -8.868645e-02 
2.749132e+00 3.654707e+00 -8.351927e+00 -3.532436e+00 2.873955e+00 -1.897963e+00 -1.042125e-01 -4.457198e-01 -7.389225e+00 -3.634636e+00 -7.289541e+00 -3.356069e+00 -1.157365e-01 -3.760444e-01 2.521463e+00 -3.548616e-01 -6.198615e-01 -2.160281e-01 -1.470350e+00 9.355429e-01 1.028738e+00 -1.500669e+00 -2.759401e-01 -1.209292e+00 -9.005588e-01 -3.596552e-02 
9.599438e-01 5.796605e+00 -7.726066e+00 -2.081662e+00 4.884926e+00 1.820216e+00 6.858695e+00 5.249568e-01 -4.259282e+00 2.262825e+00 -6.139553e+00 -1.735397e+00 -1.058502e-01 -4.944038e-01 7.956179e-01 -7.608731e-02 3.264094e-01 8.246632e-01 2.849335e-01 3.409068e-01 -7.649638e-02 -2.247127e-01 -2.284228e+00 -1.714134e+00 -9.230334e-01 -3.620338e-03 
2.101677e+00 4.219993e+00 -6.003476e+00 -1.878397e+00 7.046154e+00 -8.284140e-01 2.420426e+00 9.347628e-01 -5.930602e+00 -2.473582e+00 -3.968739e+00 -6.536610e+00 -1.369586e-01 -5.715492e-01 -6.953143e-01 -2.028720e-01 1.991144e-01 1.216352e+00 7.582451e-01 6.385294e-01 -4.420759e-01 6.345552e-01 -2.162541e-01 -4.023676e-02 -1.043476e+00 -1.071407e-02 
9.970264e-01 3.695400e+00 -8.250011e+00 -3.876657e+00 7.290739e+00 2.000609e+00 2.469283e+00 -1.200578e+00 -6.461418e+00 -1.114532e+01 -1.185075e+01 -7.564396e+00 -1.418785e-01 -4.452248e-01 -1.184727e+00 2.630781e-01 -3.964020e-01 7.161108e-02 6.680202e-01 -9.155068e-01 -2.270791e-01 8.357388e-01 -2.908212e-01 5.870761e-01 4.785999e-01 -1.052190e-02 
-1.271553e-01 1.228738e+00 -9.104314e+00 -1.639367e+00 7.752807e+00 1.803066e+00 5.283141e+00 -1.793332e+00 -3.115382e+00 1.988168e+00 -4.635124e+00 -5.658948e+00 -1.512927e-01 -4.325676e-01 -3.140229e-01 7.978998e-01 -1.349089e-01 -6.928779e-01 3.473836e-01 -1.026412e+00 -5.165556e-01 1.324065e+00 1.816768e+00 1.586409e+00 2.169932e+00 -3.418994e-03 
-1.517639e-01 1.368596e+00 -4.860257e+00 -4.183187e+00 4.889655e+00 3.844577e+00 8.498030e-01 7.536088e-01 -1.488198e+00 -1.422155e+00 -2.870980e+00 2.187712e-01 -1.512927e-01 -1.486163e-01 2.158814e-01 7.140021e-01 4.135896e-01 -9.292750e-01 -8.447930e-01 -5.075600e-01 1.909854e+00 2.098965e+00 2.330951e+00 2.721244e+00 1.561670e+00 -1.688218e-03 
5.132341e-01 3.813280e+00 -3.708855e+00 -2.399676e+00 4.782306e+00 -1.347971e-02 -1.901895e+00 -2.625109e+00 -1.796888e+00 1.748672e+00 -5.265797e-01 4.214666e-01 -1.493465e-01 2.913174e-01 1.053922e+00 9.423911e-01 1.304021e+00 -3.230489e-01 -6.508357e-01 -8.541153e-01 6.551958e-01 1.150617e+00 -1.746910e-01 6.193199e-02 -2.562253e-01 0.000000e+00 
-6.624985e-02 3.482536e+00 -7.377731e+00 -1.428555e+00 4.129614e+00 -1.315083e+00 3.524001e+00 8.764580e+00 3.374163e+00 6.291780e-01 -2.988039e-01 -2.796253e+00 -1.512927e-01 7.536750e-01 1.636303e+00 5.960795e-01 1.196562e+00 7.389764e-02 -8.299376e-01 -3.381680e-01 -4.552644e-02 -2.384987e-01 -6.212766e-01 -1.368518e+00 -2.928209e+00 4.771471e-04 
1.286674e+00 5.441378e+00 -3.133621e+00 3.503421e+00 6.517583e+00 1.128717e+00 -3.245347e-01 -2.522838e+00 2.065220e-01 8.904600e-02 -5.611552e+00 -5.432563e+00 -1.512927e-01 6.123406e-01 1.416629e+00 6.821932e-01 4.827953e-01 -4.466740e-01 -6.384918e-01 8.704920e-02 -5.443125e-02 -1.381278e-02 -1.426069e+00 -2.035806e+00 -1.645995e+00 3.012061e-03 
3.229891e+00 8.736059e+00 -2.167476e+00 -1.151925e+00 4.391505e+00 -8.762093e-01 -1.629717e+00 4.748413e-01 -3.682397e+00 -3.698725e+00 -7.171085e+00 -1.149526e+01 -1.479338e-01 2.580582e-01 7.147342e-01 -7.251757e-02 3.687010e-02 3.662764e-01 2.850979e-01 4.639623e-01 -4.367363e-01 -7.207345e-01 -1.302425e+00 -4.068934e-01 9.068848e-01 1.532710e-03 
1.926867e+00 8.269665e+00 -2.903016e+00 -1.240149e-01 2.417990e+00 -3.425375e+00 1.110210e+00 1.247604e+00 1.662328e+00 -3.217722e+00 -7.269471e+00 -3.459002e+00 -1.359656e-01 -1.121200e-01 -2.701581e-01 -1.498863e+00 -7.857494e-02 9.208355e-01 8.133496e-01 1.761896e+00 1.904954e+00 7.199149e-01 -1.311175e+00 -3.075326e-01 1.068922e+00 -3.358841e-04 
9.039450e-01 5.642063e+00 -7.855621e+00 5.695138e-01 8.010793e+00 2.387453e+00 5.126440e+00 4.695677e+00 -9.574121e-01 -4.229561e+00 -1.504312e+00 7.513912e-01 -1.512927e-01 -4.354168e-01 -1.191025e+00 -7.250141e-01 7.712721e-01 1.313482e+00 1.481590e+00 1.302129e+00 -2.184043e-01 9.653732e-01 5.642564e-01 -3.533947e-01 4.099676e-01 -2.204478e-03 
1.889048e+00 5.637586e+00 -7.783862e+00 2.249827e+00 9.312117e+00 3.563634e+00 5.106866e+00 4.891515e+00 2.443604e+00 -6.201409e+00 -9.982601e+00 -6.211278e+00 -1.512927e-01 -3.657008e-01 -9.520887e-01 2.233055e-01 3.068243e-01 8.147947e-01 1.094395e+00 6.474264e-01 -3.493004e-02 3.386494e-01 1.716322e+00 -5.445219e-01 -1.099364e+00 -3.065419e-03 
1.071716e+00 4.096976e+00 -3.352124e+00 1.517515e+00 7.511850e+00 3.037237e+00 2.882599e+00 -2.439136e+00 7.538306e-01 6.144009e-01 -7.581493e+00 -8.069283e+00 -1.512927e-01 -4.164059e-01 -2.797887e-01 1.405338e+00 -1.969748e-01 -7.056997e-01 -5.181920e-01 -7.029215e-01 -8.184279e-01 7.100650e-01 2.733662e+00 -5.491231e-02 -1.002105e+00 0.000000e+00 
1.447678e-02 4.281764e+00 -4.038238e+00 9.361057e-01 6.741435e+00 1.721706e+00 5.469262e+00 4.640360e+00 2.499953e+00 2.941905e+00 -6.953489e+00 -4.545485e+00 -1.512927e-01 -6.660118e-01 -1.342815e-01 1.087813e+00 -2.400299e-01 -4.541534e-01 4.779248e-01 -1.425800e-01 -3.633761e-01 -2.306000e-01 1.894206e+00 1.795285e+00 7.104036e-01 0.000000e+00 
-2.407990e-01 4.921031e+00 -2.701745e+00 2.415004e-01 5.767634e+00 7.174574e-01 1.430634e+00 7.291149e-01 2.564739e+00 4.867094e+00 -3.293429e+00 -5.092030e+00 -1.512927e-01 -4.271486e-01 2.798687e-01 -2.928913e-03 -4.685626e-01 6.777450e-01 1.066178e+00 2.186138e-01 9.034065e-01 5.970257e-01 8.737425e-01 2.355316e+00 1.696352e+00 0.000000e+00 
-7.847538e-01 4.554151e+00 -2.669988e+00 1.687685e+00 7.913457e+00 7.113148e+00 5.119949e+00 1.490509e+00 3.851502e-01 1.143277e+00 -3.150209e+00 -4.147886e+00 -1.512927e-01 -3.932869e-01 -6.996024e-02 -6.913066e-03 -9.443040e-01 -7.945433e-02 3.572559e-01 4.739601e-01 -7.054112e-02 9.055381e-02 -1.209525e+00 -5.066299e-03 -6.376542e-01 0.000000e+00 
-6.644115e-01 5.360126e+00 -4.050893e+00 -1.201087e+00 1.031456e+01 5.672405e+00 4.150325e+00 3.652823e+00 4.796361e+00 5.882427e+00 2.293446e+00 2.136756e-01 -1.512927e-01 1.794938e-01 -2.961814e-03 -1.322555e-01 -9.008621e-01 -6.332932e-01 -9.823494e-02 -4.451018e-01 -8.740695e-01 -1.886984e+00 -9.376787e-01 -1.113118e-01 -1.334693e+00 0.000000e+00 
-1.740151e+00 3.712415e+00 -3.398229e+00 -3.064120e+00 4.070698e+00 1.030511e+00 6.479218e+00 2.825801e+00 1.836911e+00 -3.613384e+00 -9.772258e+00 -1.038661e+01 -1.512927e-01 5.637026e-01 1.512841e-01 3.941622e-02 -7.835005e-01 -1.257383e+00 -1.009590e+00 -1.881375e+00 -1.956048e+00 -2.835485e+00 -4.978897e-02 2.390081e-01 -1.785630e+00 0.000000e+00 
1.134369e+00 5.327089e+00 -2.998902e+00 -1.886907e+00 4.522548e+00 3.267601e+00 -1.474509e+00 -4.308878e+00 -7.596062e+00 2.557030e+00 -5.389640e-01 -8.646133e+00 -1.512927e-01 6.472081e-01 1.548601e-01 2.503309e-01 -1.944270e-02 -1.113218e+00 -2.572520e-01 -1.920340e+00 -2.305808e+00 -3.421782e+00 -4.803796e-02 3.568475e-01 -1.597914e+00 0.000000e+00 
