-2.528938e+00 6.403197e+00 -2.500411e+00 3.755027e+00 3.881796e+00 -1.192900e+00 2.946975e+00 5.862427e-01 5.275065e+00 5.074526e-01 1.011843e+00 4.375988e+00 -1.512927e-01 -2.287461e-01 -1.274308e-01 -5.094553e-01 -4.682675e-01 2.002789e-01 -7.182721e-02 1.036794e+00 -1.072302e-01 2.736352e-01 1.221245e+00 8.596571e-01 8.171875e-01 0.000000e+00 
-2.968333e+00 6.915596e+00 -2.868794e+00 4.458199e+00 4.501660e+00 -6.439429e-01 5.502839e+00 7.782297e-01 6.451952e+00 3.251407e-01 3.689928e+00 7.143489e+00 -1.512927e-01 -4.312726e-01 4.473639e-02 -9.912618e-02 -6.573480e-01 1.372008e-01 -8.077417e-02 1.017045e+00 -4.281709e-02 7.098469e-01 1.793987e+00 1.266631e+00 3.319942e-01 0.000000e+00 
-3.452971e+00 5.509844e+00 -4.863495e+00 1.062104e+00 4.573258e+00 -1.826514e+00 6.853014e+00 -4.590201e-02 6.054798e+00 6.704834e+00 3.971086e+00 7.078175e+00 -1.512927e-01 -1.835648e-01 -9.351937e-02 -1.084545e-01 -8.968123e-01 3.327405e-01 -2.805079e-02 3.318523e-01 -2.214217e-02 -5.594304e-01 1.511056e+00 6.994594e-01 -4.427377e-01 0.000000e+00 
-4.223285e+00 7.073556e+00 -1.814499e+00 1.814748e+00 4.222069e+00 -1.279963e+00 6.079178e+00 6.882296e-01 8.434433e+00 6.378698e+00 5.865374e+00 4.684866e+00 -1.512927e-01 7.541265e-02 -3.516554e-01 2.374809e-01 -2.478963e-01 4.110679e-01 -2.020289e-01 -3.147317e-01 4.277757e-01 -9.511290e-01 3.323498e-01 -4.490013e-02 -1.711332e+00 0.000000e+00 
-2.819286e+00 5.856620e+00 -3.569830e+00 5.926914e-01 5.685294e+00 -1.015144e+00 4.318066e+00 5.205319e-01 1.486672e+00 5.035953e+00 3.421416e+00 3.391612e+00 -1.512927e-01 4.390907e-03 -6.726466e-01 -2.389459e-01 1.479663e-01 -7.221202e-01 -9.767153e-01 -1.135454e+00 4.107441e-01 -7.135903e-01 -1.759606e+00 -1.302600e+00 -1.086401e+00 0.000000e+00 
-2.908113e+00 4.983930e+00 -2.328222e+00 3.453423e+00 6.000982e+00 -2.059773e+00 5.196654e+00 2.633891e+00 3.980370e+00 2.821330e+00 3.740262e+00 4.301103e-01 -1.512927e-01 1.222086e-02 -5.209171e-01 -5.126128e-01 2.584698e-01 -7.072641e-01 -4.375933e-01 -3.378447e-01 -3.730556e-01 -3.135090e-01 -1.151822e+00 -1.445811e+00 -4.833507e-01 0.000000e+00 
-4.088603e+00 3.191423e+00 -5.801363e+00 9.825981e-01 7.320070e-02 -6.320186e+00 1.617005e+00 1.034988e+00 4.713877e+00 -3.145098e-01 -1.479356e+00 3.773548e+00 -1.512927e-01 -7.194062e-02 1.791895e-01 2.239290e-01 7.841066e-01 -9.144877e-01 2.319679e-01 3.271107e-01 -7.849676e-01 1.551977e+00 1.056149e+00 1.133704e-01 -1.249621e-01 0.000000e+00 
-3.527522e+00 5.801569e+00 -3.261797e+00 2.912144e+00 3.491795e+00 -8.154088e-01 5.740485e+00 -1.434277e+00 5.253285e+00 3.294817e+00 1.086706e+00 2.077144e+00 -1.512927e-01 2.550697e-03 6.273130e-01 6.431705e-01 9.437634e-01 -3.447784e-01 8.186774e-01 3.847578e-01 -1.044829e+00 1.333399e+00 1.758301e+00 -2.925402e-01 7.154821e-01 0.000000e+00 
-2.869285e+00 6.343748e+00 -1.983398e+00 4.783864e+00 2.367449e+00 -4.774863e-01 5.681704e+00 -1.370222e+00 8.610100e+00 1.007995e+01 5.315046e+00 1.943284e+00 -1.512927e-01 1.682076e-01 7.278682e-01 4.299146e-01 1.799701e-01 1.845523e-01 7.961851e-01 5.373623e-01 -4.786809e-01 9.285805e-01 7.457053e-01 2.156693e-01 -4.203335e-01 0.000000e+00 
-3.505018e+00 6.544333e+00 -1.021352e+00 6.271606e+00 3.129965e+00 -8.877353e-01 5.088093e+00 -1.387649e+00 8.699255e+00 6.415602e+00 -1.119640e+00 4.922652e+00 -1.512927e-01 -5.993633e-02 -2.804318e-02 -1.730765e-01 -8.536766e-01 -4.688802e-01 -7.564431e-01 -1.250790e+00 -8.979782e-01 2.366579e-01 -6.330135e-01 -3.186972e-01 6.753768e-01 0.000000e+00 
-3.258817e+00 6.459382e+00 -4.772013e+00 2.027173e-01 1.176877e+00 -2.303097e+00 4.630013e+00 -1.381730e+00 7.633795e+00 1.853624e+00 7.021642e-01 2.491263e-01 -1.512927e-01 -4.991808e-02 -3.509637e-01 -5.281817e-01 -1.535970e+00 9.084602e-02 -5.585814e-01 -4.167605e-01 -6.804971e-01 -1.285946e+00 -1.122449e+00 -9.020948e-01 7.891278e-01 0.000000e+00 
-3.632438e+00 5.603536e+00 -2.732872e+00 9.343343e-01 1.742681e+00 -3.684819e+00 1.238060e-02 -5.918414e+00 6.924727e+00 4.242914e+00 1.799661e+00 6.301107e+00 -1.512927e-01 4.134043e-01 -2.161449e-01 -1.980196e-02 -5.371317e-01 -9.564380e-02 6.231490e-01 9.285650e-02 -1.143866e-01 -1.404066e+00 -3.747840e-01 5.738590e-01 -2.786531e-01 0.000000e+00 
-3.055165e+00 5.059328e+00 -3.768547e+00 -2.273517e-01 3.515322e+00 -1.871852e+00 6.135757e+00 -2.507325e+00 3.067633e+00 5.554053e+00 -6.550786e-01 5.199696e+00 -1.512927e-01 4.745050e-01 -1.397220e-01 4.866703e-01 1.129252e+00 3.540714e-01 1.333196e+00 2.341936e-01 -1.483469e-02 -1.244545e+00 1.337502e-01 4.077377e-01 2.489076e-02 0.000000e+00 
-1.539823e+00 6.163635e+00 -1.622095e+00 3.800982e+00 1.482524e+00 2.012387e+00 4.799503e+00 -1.396785e+00 3.962007e+00 2.691468e+00 2.428276e+00 1.054103e+00 -1.512927e-01 3.577927e-01 1.504702e-01 3.478485e-02 8.392733e-01 1.494573e-01 8.802757e-01 1.630388e-01 2.456964e-01 -3.594521e-02 6.495717e-01 6.233205e-01 -1.249645e+00 0.000000e+00 
-1.932599e+00 5.480722e+00 -2.894049e+00 4.415652e+00 3.077312e+00 1.514282e+00 3.407419e+00 -3.716718e+00 2.892429e+00 3.298098e+00 2.426545e+00 2.997082e+00 -1.512927e-01 -1.307924e-01 4.357286e-01 -3.334781e-01 2.826574e-01 -4.638422e-01 -6.063181e-01 -1.058280e+00 6.204786e-01 1.629152e+00 -5.438656e-01 1.206466e-01 -2.485927e-01 0.000000e+00 
-2.404757e+00 6.145189e+00 -2.996197e+00 2.809199e+00 2.708972e+00 -9.765071e-01 2.191744e+00 -4.085236e+00 6.832603e+00 8.618750e+00 3.375452e+00 1.154191e+00 -1.512927e-01 -4.166449e-01 -1.257473e-01 -1.176944e+00 -7.919241e-01 -5.600469e-01 -1.981523e+00 -9.783587e-01 3.307990e-01 1.374149e+00 -4.004962e-01 2.889162e-01 1.652405e+00 0.000000e+00 
-3.276660e+00 7.247194e+00 -4.748887e+00 1.681827e+00 5.828867e-01 -3.408995e+00 2.148238e+00 1.939293e+00 9.778092e+00 -1.289152e-01 -5.254336e-01 3.906688e+00 -1.512927e-01 1.216286e-01 -3.058594e-01 -8.190819e-01 -7.455592e-01 -1.563236e-01 -6.077018e-01 -7.772487e-01 5.191137e-01 5.446560e-01 -1.977082e+00 -7.420422e-01 1.357421e+00 0.000000e+00 
-2.951016e+00 4.651663e+00 -6.579394e+00 1.208274e+00 -7.049751e-02 -5.433589e+00 5.373001e-01 -2.570795e+00 7.389920e+00 2.402494e+00 5.348846e+00 8.861326e+00 -1.512927e-01 2.048129e-01 -5.870285e-01 -3.053280e-01 1.224795e-01 8.217495e-01 1.172245e+00 7.098095e-01 9.897072e-01 -2.056749e-01 -1.570422e+00 -3.840392e-02 1.060202e+00 0.000000e+00 
-1.051327e+00 4.698189e+00 -5.197860e+00 1.488319e+00 3.685429e+00 7.043140e-01 3.483977e-01 -1.878371e+00 5.337051e+00 -3.479186e+00 -2.270363e+00 5.930617e+00 -1.512927e-01 4.448624e-02 -3.429113e+00 2.054890e-01 2.692928e+00 2.029956e-01 1.752368e+00 1.737593e+00 -1.214948e+00 -2.664921e-01 1.913839e-01 9.039927e-02 -3.515620e-01 3.201341e-02 
-2.493360e+00 4.484550e+00 -4.298350e+00 3.518350e+00 5.266448e+00 2.828064e+00 6.640711e+00 2.772132e+00 8.024749e+00 2.441774e+00 4.055897e+00 5.443238e+00 -1.512927e-01 -4.598163e-01 -5.216751e+00 -2.876577e-01 3.897161e+00 -1.727262e+00 1.498586e+00 1.637895e+00 -2.245459e+00 2.450235e-01 -1.018820e+00 -1.138904e+00 -1.734833e+00 1.072169e-01 
-3.283057e+00 -9.814814e+00 -4.861964e+00 1.399143e+01 -1.070608e+00 1.222018e+00 7.784500e+00 -6.806908e+00 8.128218e+00 8.083638e-01 5.730376e-01 3.857922e+00 8.774340e-03 -7.981302e-01 -4.238679e+00 1.793497e-02 3.184696e+00 -1.738494e+00 -7.633804e-01 4.734999e-01 -2.728676e+00 -8.592453e-01 -2.431005e-01 1.627979e-02 -1.890234e+00 6.883199e-02 
-4.134233e+00 -1.417559e+01 -8.185631e+00 1.444253e+01 -6.328790e+00 1.800487e+00 5.008722e+00 -1.133382e+01 7.219454e+00 -4.835382e+00 -1.767376e+00 1.223510e+00 3.047584e-01 -5.874546e-01 -1.324811e+00 4.844239e-01 1.204797e+00 -2.146969e+00 -1.799719e+00 6.298447e-03 -8.647605e-01 -3.576381e+00 -5.021616e-01 2.373510e-01 -9.624752e-01 1.934677e-02 
-4.221541e+00 -7.165134e+00 -3.164545e+00 1.194971e+01 7.905774e-01 -2.598799e+00 3.531892e+00 -8.468775e+00 1.443472e+00 -1.056111e+00 7.226722e-01 -1.410688e+00 -3.515828e-02 1.173330e+00 1.702696e+00 2.426553e+00 -3.193994e+00 -1.786316e+00 -2.574024e-01 -3.135713e-01 1.204211e+00 -2.719802e+00 -2.946286e-01 -1.065614e+00 9.354223e-01 2.524610e-02 
-4.961390e+00 -3.464345e+00 -2.724940e+00 1.056320e+01 -6.398989e+00 -4.260123e+00 8.798508e+00 -7.207372e-01 -6.514783e+00 8.632038e-01 5.167834e+00 3.265167e+00 -3.259254e-02 2.199108e+00 1.742157e+00 3.658815e+00 -3.529412e+00 -1.439145e+00 8.831336e-01 -9.519965e-01 2.065386e+00 -7.436949e-01 -2.386158e-01 -1.607724e+00 1.825904e+00 1.674879e-02 
2.997169e+00 -6.656958e+00 4.540457e+00 -3.887200e-02 -9.967088e+00 2.965311e+00 4.321751e+00 -6.092398e+00 1.396327e+00 -3.514072e+00 -8.222637e+00 7.514205e+00 3.036803e-01 8.404340e-01 7.667795e-01 1.545768e+00 -2.922235e+00 -3.836583e-01 5.513920e-01 -1.099099e-01 3.963246e+00 2.777409e-01 -6.475302e-01 -1.079546e+00 5.677946e-01 5.754556e-02 
3.251951e+00 -5.718894e+00 6.255942e+00 2.789756e+00 -8.145683e+00 3.434100e+00 -1.461897e-01 -2.195081e+00 3.524552e+00 -4.799480e+00 -5.333344e+00 5.890582e+00 2.190830e-01 -6.794262e-03 1.080649e+00 -1.805915e-01 -9.896084e-01 2.624061e+00 -1.352666e+00 -1.546835e+00 2.387737e+00 1.007235e-01 -1.185039e+00 2.340546e-01 -9.974861e-01 -2.160850e-02 
-4.126042e+00 -2.203962e+00 7.385254e-02 1.225254e+00 -2.543669e-01 -3.688951e+00 7.454691e+00 1.208463e+01 -2.187491e+00 -1.462419e+00 5.755317e-01 1.155775e-01 1.267318e-01 -7.896076e-01 2.683122e+00 -1.864385e+00 6.583542e-01 2.946723e+00 -3.732852e-01 6.548160e-01 1.014722e+00 -1.785682e+00 -1.503641e+00 2.183831e+00 -5.055807e-01 -1.149905e-01 
-1.433756e+00 -2.875950e-01 -1.394596e+00 4.983090e+00 1.864958e+00 -7.696321e+00 -5.021377e-01 2.129436e+00 -4.219256e+00 -6.087817e+00 1.939023e+00 1.977050e+00 -5.216074e-02 1.922458e-01 2.426005e+00 -2.451015e+00 -6.164861e-01 1.054723e+00 2.642667e+00 2.846407e+00 -1.832745e+00 -1.388692e+00 -1.286598e+00 3.998717e-01 9.063878e-02 -9.562091e-02 
1.391985e+00 4.043002e+00 -9.561988e-01 2.156231e+00 -2.387915e-01 6.664095e+00 7.773805e+00 -3.181045e+00 -3.660178e+00 -1.038811e+01 -9.396650e-01 6.943067e+00 -1.356503e-01 1.037130e+00 1.563634e+00 -2.185747e+00 -1.220093e+00 2.176066e-01 4.605216e+00 2.723750e+00 -4.053687e+00 1.259691e-01 -5.995547e-01 -1.332655e-01 -1.197817e-01 -6.317186e-02 
1.454166e+00 3.287651e+00 -5.484107e+00 -7.581632e-01 -2.879854e+00 1.147091e+01 1.392629e+01 -3.725969e+00 -2.682562e+00 -6.769629e+00 -2.576387e+00 2.930031e+00 -1.278305e-01 1.535290e-01 2.002470e+00 -4.961051e-01 -8.856206e-02 8.960396e-01 2.942367e+00 2.737852e+00 -6.996913e-01 2.480986e+00 1.681356e+00 -2.648083e-01 -5.250937e-01 -2.139063e-02 
-3.843555e-01 3.826585e+00 -8.810128e+00 -2.004582e+00 3.206072e+00 9.753510e+00 1.385923e+01 -5.256109e+00 -2.325993e+00 -4.119287e+00 2.166910e+00 -9.598210e-01 -1.512927e-01 1.073837e-03 2.037276e+00 1.148325e+00 2.181695e+00 2.986761e+00 -3.337898e-01 7.188300e-01 1.906120e+00 2.344882e+00 2.097860e+00 3.002567e-01 -1.310041e+00 -5.474699e-03 
2.220592e-01 9.832967e+00 5.184352e-02 6.620687e+00 4.622724e+00 5.470805e+00 1.014441e+01 -3.314886e-01 7.518581e+00 -8.154451e-01 -9.383057e-01 3.303026e+00 -1.512927e-01 -1.016797e+00 1.506334e+00 1.930660e+00 3.021768e+00 2.375420e+00 -1.739565e+00 -9.335545e-01 2.985156e+00 3.558020e+00 2.285121e+00 -7.973823e-01 -1.392133e+00 1.483989e-03 
2.013408e+00 1.095673e+01 2.017453e+00 9.375280e+00 1.094373e+01 7.995200e+00 1.325889e+01 4.652316e+00 2.963661e+00 -2.875901e+00 -2.574220e-01 2.063663e-01 -1.512927e-01 -3.002864e+00 4.581217e-01 1.530127e+00 2.248519e+00 -2.616926e+00 -1.278178e+00 -4.103012e-02 1.579167e+00 1.559319e+00 1.408658e+00 1.951108e-01 4.714639e-01 8.330987e-02 
-4.828702e+00 7.254251e+00 -1.244598e+00 8.660746e+00 5.128421e+00 3.652241e+00 9.558685e+00 6.245599e+00 1.246271e+01 4.034282e+00 -5.351133e+00 -4.613730e+00 -1.204106e-01 -3.028003e+00 -1.253835e+00 -6.624393e-01 4.364215e-01 -3.956861e+00 -1.341168e+00 -2.968553e-01 -8.594350e-01 -7.374234e-01 1.260570e+00 1.436726e+00 6.954935e-01 7.129253e-02 
-1.287330e+01 7.406551e+00 -5.112731e-01 8.217987e+00 -1.013141e+01 4.271902e+00 1.394694e+01 -6.488162e-01 2.998538e+00 4.991414e-01 5.348877e+00 5.355877e+00 2.498156e-01 -1.407737e+00 -1.369393e+00 -6.391916e-01 -6.751081e-01 -2.452929e+00 -2.170967e+00 -1.624962e+00 -2.221455e+00 4.259680e-01 1.491490e+00 1.527398e+00 1.035516e+00 1.250264e-02 
-7.474601e+00 5.338879e+00 -1.995990e+00 9.381441e+00 -4.624016e+00 6.266142e-01 8.316113e+00 -1.978098e+00 3.814026e+00 3.799882e+00 3.442173e+00 4.205738e+00 4.615843e-03 1.003760e+00 -6.728121e-01 -6.015888e-01 -1.772125e+00 1.231788e+00 -1.470906e+00 -2.953378e+00 -2.450267e+00 -5.795739e-01 7.895259e-01 1.038668e+00 1.092040e+00 -4.628726e-02 
-3.702327e+00 5.067448e+00 -8.028094e-01 5.639393e+00 3.555302e+00 -1.346821e+00 5.755371e+00 -2.343113e+00 9.417843e+00 4.698747e+00 2.982918e+00 9.742098e-01 -1.512927e-01 2.208068e+00 -2.284627e-01 -4.430567e-01 -1.666337e+00 3.430635e+00 -1.107416e+00 -2.323720e+00 5.774183e-01 1.724480e+00 9.137615e-01 -6.871324e-01 -2.164769e-01 -9.581251e-02 
-4.395389e+00 5.059742e+00 -4.106774e+00 1.089417e+00 4.444009e+00 -8.929300e-01 -1.112422e+00 -5.158589e+00 6.355187e+00 5.882109e+00 1.025189e+00 3.037305e+00 -1.512927e-01 9.662496e-01 1.147467e-01 -6.640279e-02 -8.484413e-01 2.271884e+00 1.821108e-01 -4.446407e-01 1.496800e-01 1.005956e+00 8.579976e-01 2.807586e-01 7.737934e-01 -3.118170e-02 
-3.372562e+00 6.403805e+00 -1.671165e+00 4.032313e+00 2.487755e+00 -5.054079e-01 7.042612e+00 3.828521e+00 1.035036e+01 4.026836e+00 3.121707e+00 4.857709e+00 -1.512927e-01 4.453713e-01 2.035351e-01 7.419129e-02 7.277989e-02 6.682822e-01 9.785587e-01 5.512332e-01 1.074959e+00 -2.761064e-01 5.141310e-01 4.460752e-02 1.059271e+00 0.000000e+00 
-2.808235e+00 5.244433e+00 -1.893826e+00 5.942774e+00 7.269177e+00 1.116462e+00 5.449289e+00 -4.315515e+00 8.377549e+00 8.425826e+00 4.776571e+00 6.132956e+00 -1.512927e-01 1.752659e-01 3.209927e-01 3.103053e-01 2.561192e-01 -4.091153e-01 1.267670e-01 8.208998e-01 1.330700e+00 4.012757e-01 -2.483952e-01 -9.656181e-01 -1.426027e-01 0.000000e+00 
-2.269047e+00 5.992778e+00 -1.538327e+00 3.576614e+00 5.484128e+00 2.541277e+00 5.230681e+00 2.610145e+00 7.026130e+00 5.997544e+00 1.330264e+00 4.722739e+00 -1.512927e-01 1.818423e+00 -2.343636e+00 2.217028e+00 -2.426142e+00 -3.094609e+00 2.143654e-01 -2.245537e+00 -3.254765e-01 -3.170522e+00 -2.001671e+00 -6.645717e-01 -2.529409e+00 8.128498e-02 
-4.070817e+00 6.870220e+00 -2.621667e+00 2.597863e+00 9.002457e-01 -1.782437e+00 3.898042e+00 2.104098e+00 1.002368e+01 3.654779e+00 -2.907181e+00 2.391776e+00 -1.512927e-01 2.575541e+00 -4.263656e+00 4.624766e+00 -4.428440e+00 -6.933140e+00 7.018965e-01 -3.112985e+00 5.430123e-01 -4.633294e+00 -3.578300e+00 4.014874e-01 -5.188160e+00 2.409707e-01 
6.350842e+00 -6.127269e+00 9.777896e+00 -6.425943e+00 -9.800824e+00 2.015869e+00 -3.409448e+00 -1.008668e+00 -6.325317e+00 -3.595996e+00 3.640724e+00 -5.918749e+00 2.551322e-01 2.498617e+00 -4.886739e+00 5.174195e+00 -4.640173e+00 -7.822075e+00 5.718618e-01 -2.906378e+00 -5.840945e-03 -3.872097e+00 -2.393889e+00 2.063186e+00 -6.092729e+00 3.232605e-01 
5.759527e+00 -1.001382e+01 1.557189e+01 -1.119815e+01 -1.975405e+01 4.888648e+00 -5.795570e+00 2.089531e-01 -8.113194e+00 -4.668903e+00 5.628778e+00 -1.448710e+01 8.503481e-01 1.906466e+00 -3.918470e+00 4.000062e+00 -3.558774e+00 -6.755701e+00 4.361628e-01 -2.241548e+00 9.194216e-01 -2.017134e+00 -3.410047e-01 2.017059e+00 -5.267278e+00 2.997361e-01 
5.308868e+00 -9.998892e+00 1.523587e+01 -1.272625e+01 -2.329910e+01 2.065043e+00 -4.454401e+00 3.528513e+00 -3.265917e+00 -1.810062e+00 7.378213e+00 -1.730147e+01 9.641894e-01 -1.567219e-01 -1.051430e+00 9.950960e-01 -1.309378e+00 -4.278987e+00 -7.144223e-01 -1.382071e+00 1.451690e+00 1.197560e+00 1.740765e+00 -5.915871e-02 -2.991092e+00 1.632247e-01 
5.982497e+00 -1.078632e+01 1.464966e+01 -1.204585e+01 -2.612912e+01 3.737894e-01 -6.787219e+00 4.432616e+00 -1.591688e+00 1.056789e+00 5.309370e+00 -1.825325e+01 9.928592e-01 2.535419e-01 -1.733260e-01 1.516016e-01 -2.897798e-01 -1.908039e+00 -1.114402e+00 -1.266521e+00 1.176305e+00 7.438002e-01 2.285569e+00 -9.585114e-01 -4.690317e-01 3.092305e-02 
5.455748e+00 -1.099817e+01 1.521449e+01 -1.254898e+01 -2.800822e+01 7.011865e-01 -9.823978e+00 4.137953e+00 -3.598272e+00 2.244983e+00 3.504635e+00 -1.899113e+01 1.000000e+00 3.548099e-01 4.949427e-02 2.498674e-01 -1.423577e-01 -7.356297e-01 -6.300245e-01 -1.533646e+00 2.519195e-01 -6.617681e-01 2.097532e+00 -1.632190e+00 6.702967e-01 -1.302087e-03 
6.953797e+00 -1.038082e+01 1.634059e+01 -1.273568e+01 -2.693968e+01 -1.433313e-03 -9.443386e+00 5.785758e+00 -4.228016e+00 4.731421e+00 2.773010e+00 -1.598743e+01 9.870580e-01 2.465242e-01 7.227821e-01 6.655826e-02 5.016050e-02 3.010483e-02 1.583948e-01 -9.540993e-01 -2.883893e-01 -7.057772e-01 1.804346e+00 -9.809090e-01 1.022850e+00 -1.492742e-02 
6.597268e+00 -9.954173e+00 1.563974e+01 -1.309312e+01 -2.657197e+01 -8.974677e-01 -1.079455e+01 4.111540e+00 -5.256594e+00 6.840281e+00 4.854453e-01 -1.508290e+01 9.605795e-01 2.698755e-01 1.181484e+00 -9.996700e-03 2.617456e-01 4.460571e-01 7.199847e-01 -5.308501e-01 -8.886652e-01 -1.171771e-01 1.617148e+00 4.908586e-02 6.815525e-01 -2.094529e-02 
6.644358e+00 -7.694408e+00 1.476982e+01 -1.152298e+01 -2.669672e+01 1.965091e+00 -1.107243e+01 3.003877e+00 -4.291413e+00 7.780869e+00 1.914420e+00 -1.509312e+01 9.379324e-01 -4.403448e-03 1.551451e+00 1.125994e-01 2.461556e-01 9.053227e-01 8.453757e-01 3.900642e-02 -2.052787e+00 5.675456e-01 7.974706e-01 7.322639e-01 2.877049e-01 -2.377074e-02 
6.959845e+00 -6.433955e+00 1.594989e+01 -1.184660e+01 -2.589942e+01 3.317848e+00 -1.166371e+01 1.085568e+00 -4.152459e+00 8.805997e+00 4.179359e+00 -1.603053e+01 9.198364e-01 -3.621287e-02 1.553161e+00 5.956925e-01 7.928200e-02 1.108958e+00 1.064735e+00 -2.507612e-01 -1.748014e+00 1.367670e-01 1.998105e-01 6.661572e-01 5.771741e-01 -2.011315e-02 
6.750491e+00 -4.383669e+00 1.674851e+01 -1.212816e+01 -2.274934e+01 2.117787e+00 -8.813774e+00 -2.965189e+00 -1.942355e+00 7.735916e+00 4.587373e+00 -1.407509e+01 8.885759e-01 -1.581896e-01 1.000638e+00 1.035190e+00 2.799788e-02 2.353848e+00 1.117143e-01 -8.725111e-01 -1.790406e+00 -5.676638e-01 1.731080e-01 -2.437709e-01 1.002132e+00 -1.791034e-02 
6.363137e+00 -3.843739e+00 1.762886e+01 -1.239412e+01 -2.300087e+01 4.349861e+00 -1.317768e+01 -1.643997e+00 -5.747288e+00 7.861811e+00 2.479755e+00 -1.270604e+01 8.846920e-01 -4.176791e-01 8.716813e-01 1.267040e+00 1.307416e-01 1.341474e+00 2.421272e-01 -1.050271e+00 -1.305887e+00 -7.169474e-01 -5.706431e-01 -7.905217e-01 1.387713e+00 -1.078429e-02 
6.151764e+00 -3.986326e+00 1.910629e+01 -1.110923e+01 -1.637676e+01 2.007656e+00 -1.467800e+01 -4.583369e+00 -6.332318e+00 9.118503e+00 1.545367e+00 -1.174470e+01 8.659528e-01 -4.804348e-01 4.487220e-01 1.388579e+00 3.038878e-01 1.024273e-01 1.122526e+00 -1.026612e+00 -8.448538e-01 -1.068450e+00 -6.099348e-01 -6.900710e-01 1.317326e+00 -7.249159e-03 
5.170813e+00 -2.274220e+00 2.110620e+01 -1.170236e+01 -2.237834e+01 4.583549e+00 -1.398295e+01 -4.634775e+00 -5.542214e+00 5.261488e+00 1.747754e+00 -1.025715e+01 8.772265e-01 -2.285658e-01 4.603089e-01 9.656448e-01 7.595469e-01 -4.798306e-01 1.644567e+00 -1.134476e-01 -1.330893e+00 -6.583223e-02 -6.923935e-01 1.075115e-02 1.012973e+00 -1.914145e-02 
4.944479e+00 -2.924818e+00 2.195274e+01 -1.095460e+01 -2.254847e+01 7.613571e+00 -1.354420e+01 -5.694069e+00 -7.387142e+00 5.986403e+00 1.503018e+00 -8.712906e+00 8.560629e-01 1.987696e-03 6.308655e-01 3.359587e-01 6.561667e-01 -5.473827e-01 1.909769e+00 2.471899e-01 -1.063604e+00 9.680500e-02 -3.813784e-01 4.653146e-02 5.043360e-01 -3.642389e-02 
5.823950e+00 -2.072949e+00 2.103386e+01 -8.673702e+00 -2.231416e+01 9.769737e+00 -1.431182e+01 -7.743113e+00 -5.549037e+00 5.965893e+00 2.554685e+00 -9.157076e+00 7.939298e-01 4.590273e-02 7.395970e-01 -2.260628e-02 5.772539e-01 1.557026e+00 1.534647e-01 1.830252e-01 -9.503102e-01 -3.584914e-01 7.018793e-01 -7.816787e-02 3.327945e-01 -5.553093e-02 
5.835134e+00 -9.326341e-01 2.082225e+01 -9.342728e+00 -1.914576e+01 8.963408e+00 -1.327761e+01 -8.347218e+00 -5.844882e+00 6.859408e+00 1.374559e+00 -9.773060e+00 7.254817e-01 -3.682342e-01 9.050987e-01 2.540955e-01 3.215190e-01 2.050669e+00 -1.577446e+00 5.683220e-01 -5.321936e-01 -3.653856e-01 1.519460e+00 -2.049876e-01 1.128790e+00 -5.944826e-02 
4.954999e+00 4.276729e-01 2.155842e+01 -9.622027e+00 -1.629456e+01 4.675954e+00 -1.320111e+01 -8.059752e+00 -8.105802e+00 8.334382e+00 1.421144e+00 -8.063103e+00 6.648624e-01 -7.289191e-01 4.008044e-01 4.072165e-01 7.629420e-01 1.808664e+00 -2.382087e+00 6.184847e-01 -2.415709e-01 -2.743860e+00 1.255265e+00 -1.481844e+00 1.926831e+00 -4.016747e-02 
3.537784e+00 3.503644e-01 2.296094e+01 -8.872846e+00 -1.530492e+01 2.273231e+00 -1.125794e+01 -8.196718e+00 -7.935688e+00 1.239946e+01 1.044851e+00 -3.615942e+00 6.233553e-01 -1.837487e+00 1.289272e+00 -7.295475e-01 1.397706e+00 1.206661e-01 -2.775419e+00 -4.915787e-01 -1.390455e+00 -3.805605e+00 1.056479e+00 -1.978123e+00 2.262846e+00 -6.736360e-02 
3.328030e+00 -7.104261e-01 2.200060e+01 -5.093933e+00 -1.519126e+01 1.204390e+00 -1.222923e+01 -9.026217e+00 -1.822293e+01 9.472193e+00 -4.689682e+00 -2.601480e+00 6.441556e-01 -2.127504e+00 2.144967e+00 -3.020955e+00 2.309259e+00 2.059492e+00 -2.019245e+00 7.209009e-01 4.347710e-01 -1.456451e+00 2.950889e-01 -7.551042e-01 1.668662e+00 -1.413355e-01 
-2.538817e+00 6.082774e+00 1.695342e+01 -4.618245e+00 -1.909408e+01 -3.177904e+00 -1.622145e+01 -1.481626e+01 -1.981434e+01 1.157290e+01 -5.460646e+00 -1.189641e+00 3.990172e-01 -1.759142e+00 2.594434e+00 -5.535670e+00 2.472023e+00 4.101726e+00 -1.669070e+00 2.931522e+00 1.786369e+00 2.270009e+00 -2.352821e+00 1.410685e-01 1.399796e+00 -2.123097e-01 
-2.644220e+00 8.286304e+00 9.457401e+00 -2.030330e-01 -4.102526e+00 -2.694702e+00 -7.114857e+00 -2.576126e+00 -9.448730e+00 1.022311e+01 8.983719e-01 -9.329448e-01 7.035404e-02 -1.922163e+00 1.929138e+00 -6.068726e+00 1.869670e+00 5.032862e+00 -2.351956e-01 4.072657e+00 3.540807e+00 5.884032e+00 -3.137165e+00 9.665365e-01 1.271248e+00 -1.995672e-01 
-2.271799e+00 8.824171e+00 1.554187e+00 1.041822e+00 -3.406615e-01 -4.122574e+00 8.424797e-01 -2.489918e+00 -9.727459e-01 2.598975e-01 -1.043833e+00 2.548773e+00 -1.512927e-01 -1.619891e+00 2.771595e-01 -4.766931e+00 2.306124e+00 4.787475e+00 7.728913e-01 3.258044e+00 4.083450e+00 5.202641e+00 -1.404438e+00 8.137010e-01 1.783922e+00 -7.762855e-02 
-6.416295e+00 7.564564e+00 -6.434107e-01 1.424384e+00 5.963387e-01 5.007471e-01 -3.979106e-01 2.514645e+00 1.776424e+00 -5.571337e-01 -2.065405e+00 1.885551e+00 -7.852542e-02 -1.784590e+00 -2.151235e-01 -2.451622e+00 9.689506e-01 1.669685e+00 9.998080e-01 9.076198e-01 2.814581e+00 2.430934e+00 3.589637e-01 -2.666610e-01 1.276607e+00 4.535504e-02 
-8.752233e+00 7.829442e+00 -1.830827e+00 6.098666e+00 2.493861e+00 -9.111714e-01 -3.289701e+00 3.055607e+00 5.862823e-01 9.940826e+00 8.974743e-02 6.320719e+00 8.531415e-02 -4.191933e-02 -1.807941e+00 -1.199327e+00 -1.912894e+00 8.577456e-01 -5.287707e-02 1.652524e-01 1.008513e+00 -1.108921e+00 1.344369e+00 4.803749e-01 4.071335e-01 1.378746e-01 
-8.326953e+00 7.708052e+00 -1.108201e+00 2.113298e+00 2.828637e+00 6.986371e-01 -5.106668e-01 8.724014e+00 1.926429e+00 7.177461e+00 -1.001724e+00 3.564115e+00 1.788259e-01 1.162339e+00 -1.464868e+00 -1.156636e+00 -3.400666e+00 2.090826e-01 -2.055800e+00 2.749354e+00 -1.722692e+00 -1.730385e+00 -1.850623e-01 8.061865e-01 1.274665e-01 1.569920e-01 
-1.526067e+00 -2.872798e-01 -4.210056e+00 -8.867107e+00 2.831918e+00 -4.485904e+00 1.725120e+00 -5.520384e-01 -6.592355e+00 3.114447e+00 8.262002e-01 3.745159e+00 4.094049e-01 3.888363e-01 -1.100446e+00 -1.262774e+00 -3.167286e+00 -1.934655e-02 -1.967830e+00 4.145968e+00 -3.038227e+00 -1.179057e+00 -1.833858e+00 8.026527e-01 -5.395305e-01 1.386600e-01 
-4.217685e+00 4.298584e+00 -5.236978e+00 -8.096063e+00 1.472723e+00 -7.990887e+00 1.084145e+01 -4.294991e+00 -3.286183e+00 1.930745e+00 1.597300e+00 3.810664e+00 5.443889e-01 -1.108175e-01 -5.998299e-01 -1.394706e+00 -1.859150e+00 -1.045141e+00 -1.814696e+00 3.290108e+00 -3.576518e+00 -8.538992e-01 3.569117e-01 8.377763e-01 -5.243121e-01 8.842964e-02 
-8.862685e+00 4.031945e+00 -6.080308e+00 -4.633081e+00 3.075085e+00 -6.405560e+00 1.176408e+01 -5.626023e+00 -2.702695e+00 3.394895e+00 2.803499e+00 3.499792e+00 5.958323e-01 -1.466478e+00 -4.671009e-01 5.549425e-01 8.270023e-01 -1.706040e+00 -8.333565e-01 3.204577e+00 1.428133e-01 -3.822643e-01 -2.154686e-01 2.311926e-01 8.549355e-01 1.256049e-04 
-5.212731e+00 2.549289e+00 -7.146607e+00 -9.299463e+00 -2.518653e+00 -7.415015e+00 1.092039e+01 -6.621584e+00 -4.287897e+00 8.821795e+00 2.198508e+00 1.065237e+00 5.277604e-01 -1.634598e-01 -2.179089e+00 1.565697e+00 8.015747e-01 -5.339077e-01 3.595912e-01 1.505047e+00 5.001594e-01 -1.325836e+00 1.778865e-02 -8.038048e-02 1.323730e+00 -4.990689e-02 
-8.360934e+00 -1.748137e+00 -4.805287e-01 -4.130395e+00 -3.702595e+00 -8.940622e+00 1.770853e+01 1.325324e+00 -8.002819e+00 -1.408421e+00 1.681559e+00 9.392550e+00 4.183472e-01 9.500557e-01 -2.684395e+00 1.654183e+00 8.830603e-01 -1.515264e-01 -5.032495e-01 8.813022e-01 1.047520e+00 -1.130161e+00 -1.277973e+00 -1.255185e+00 2.213484e-01 -6.720297e-02 
-5.285859e+00 -3.706820e+00 -2.083806e-01 -4.339532e+00 2.192025e+00 -4.925400e+00 1.539446e+01 -5.269868e+00 -7.265299e+00 4.421346e+00 1.756368e+00 7.482937e+00 3.835971e-01 1.064666e+00 -2.553566e+00 1.128366e+00 1.609758e+00 1.291039e+00 -5.109397e-01 -8.099977e-01 1.658194e+00 -5.060984e-01 -8.208736e-01 -6.337139e-01 -1.089924e+00 -6.369963e-02 
-4.075843e+00 -6.261975e+00 -1.278505e+00 -2.697746e+00 -3.788567e-02 -1.016662e+01 1.393356e+01 -1.064283e+00 -6.864797e+00 -7.947447e-01 -3.251357e+00 1.397684e+00 3.318992e-01 2.143896e+00 -1.692267e+00 -1.777548e-01 1.112088e+00 1.714861e+00 1.423788e+00 -2.873199e+00 1.193259e+00 3.418372e-01 2.899053e-01 -1.715350e+00 -3.043764e+00 -6.954743e-02 
-2.031948e+00 -7.961619e+00 -1.105786e+00 -1.966995e+00 2.104189e+00 -9.356717e+00 8.757890e+00 2.864188e+00 -7.387401e+00 4.410589e+00 1.496397e+00 -3.869501e-01 2.524863e-01 2.234756e+00 -6.594769e-01 -1.173422e-01 7.283615e-01 9.671541e-01 2.466244e+00 -3.829964e+00 2.188951e+00 1.656331e-01 -8.521842e-01 -4.411888e-01 -2.359769e+00 -6.685019e-02 
7.315903e-01 -8.082074e+00 -9.205998e-01 2.437775e-01 4.915630e+00 3.939771e-01 6.660822e+00 3.224594e+00 -6.232582e+00 4.648384e-02 -6.765207e+00 -1.891328e+00 1.361655e-01 1.847943e+00 4.326958e-01 -6.394081e-02 -3.920960e-02 2.229698e+00 4.344742e+00 -3.768430e+00 1.868051e+00 6.148152e-01 -1.418535e+00 1.322600e+00 -6.278035e-01 -4.593755e-02 
3.484204e+00 -6.094155e+00 -9.740441e-01 -2.168486e+00 4.551038e+00 2.125526e+00 -1.189957e-01 3.530451e+00 -6.753241e+00 -2.601893e-01 1.307349e+00 -2.671402e+00 1.472130e-01 1.017805e+00 4.594806e-01 -2.657746e-01 -1.796570e-02 1.595996e+00 3.115288e+00 -1.809560e+00 1.903490e+00 1.102944e+00 -2.071708e+00 6.638114e-01 6.879724e-01 -2.210602e-02 
2.405794e+00 -5.032228e+00 -1.664080e+00 -2.793048e+00 9.887182e+00 5.815972e+00 -4.701481e-01 7.942841e+00 -4.107800e+00 -5.552033e+00 3.456166e+00 -5.991077e-01 1.548481e-01 4.975891e-03 5.426376e-01 -5.483063e-01 6.700684e-01 7.528213e-01 -6.892372e-01 -2.958285e+00 2.398534e-01 1.306865e+00 -1.545583e+00 1.355285e+00 2.337915e+00 -1.241336e-02 
2.219974e+00 -7.189139e+00 -2.062919e+00 -5.384111e-01 7.598395e+00 3.508728e+00 3.275573e+00 1.002251e+01 -2.935074e+00 -3.148695e+00 -2.952324e-01 2.406802e+00 1.326149e-01 -3.751758e-01 -9.319687e-03 -8.162584e-01 1.366406e+00 8.062699e-01 -2.039038e+00 -3.105050e+00 -4.892721e-01 1.470843e+00 -1.751127e+00 -1.667779e+00 1.684879e+00 -1.267878e-02 
1.388585e+00 -4.821394e+00 -3.117694e+00 2.779082e+00 7.156058e+00 -3.743810e+00 -9.827888e+00 1.177830e+00 -1.607339e+00 -6.237179e+00 8.125073e-01 7.259144e+00 8.139771e-02 1.603642e-01 3.103670e-01 -2.089087e-01 1.066338e+00 7.251079e-01 -2.461908e+00 -2.327020e+00 1.321461e-01 1.412461e+00 -2.412594e+00 -3.119726e+00 1.439107e+00 -6.754684e-03 
2.116930e+00 -6.246171e+00 -4.328529e+00 1.877481e+00 9.947949e+00 -3.289774e+00 -1.096538e+01 4.466596e+00 -6.492562e-01 -8.673250e+00 -5.709718e+00 1.823865e+00 1.205443e-01 3.438425e-01 1.083176e+00 -4.369172e-01 3.995326e-01 2.201071e+00 -8.842748e-01 -1.590893e+00 2.463619e-01 1.349483e+00 -2.962583e+00 -2.331179e+00 1.094602e+00 -7.817477e-03 
3.259137e+00 -3.951877e+00 -1.575819e+00 1.330696e+00 1.233794e+01 -3.094319e+00 -4.984775e+00 1.138153e+01 1.811593e+00 -1.485273e+01 -9.435219e+00 6.887896e+00 1.271100e-01 3.145866e-01 7.556172e-01 -1.005854e+00 -7.243586e-01 2.184744e+00 1.561948e+00 1.151795e+00 6.875793e-01 6.011089e-01 -2.088036e+00 -1.546177e+00 1.597703e-01 -2.031968e-02 
3.003910e+00 -2.208019e+00 -5.018443e+00 2.183445e+00 1.601281e+01 -1.237391e+00 -7.100449e+00 6.152472e+00 2.102876e+00 -1.365384e+01 -6.827264e+00 8.065435e+00 7.067138e-02 1.735116e-01 2.632860e-01 -1.546777e+00 -9.299674e-01 1.497193e+00 1.747808e+00 8.779600e-01 -7.301335e-01 -4.195586e-01 -1.452486e+00 3.915538e-01 5.383820e-02 -2.693579e-02 
2.518028e+00 -3.062383e+00 -7.802009e+00 -9.956934e-01 1.504735e+01 3.039737e+00 -6.001376e+00 3.772789e+00 2.213907e-02 -1.418707e+01 -6.359603e+00 4.937210e+00 4.735768e-03 -8.908682e-02 6.840377e-02 -8.678591e-01 7.217633e-01 5.815390e-01 -3.576362e-01 1.778905e-01 -9.903435e-01 -2.788700e-01 -1.768859e-01 3.361461e-01 -1.900957e+00 -2.847040e-02 
3.355042e+00 -5.374488e+00 -8.949321e+00 -1.609161e+00 1.607921e+01 2.382240e+00 -6.067275e+00 4.620299e+00 -1.852322e+00 -1.626851e+01 -5.289757e+00 3.068399e+00 4.705244e-02 -1.073249e-01 -2.380205e-01 -4.669920e-01 8.604078e-01 4.537068e-01 -1.281736e+00 -1.561529e-01 -5.247230e-02 -2.164305e-01 2.138103e-01 5.557175e-02 -1.955618e+00 -1.337547e-02 
2.638137e+00 -2.026624e+00 -3.949675e+00 6.835815e+00 1.521244e+01 -6.692315e+00 -4.611909e+00 7.195899e+00 2.394842e+00 -1.442982e+01 -8.523243e+00 -1.183721e-01 -3.432512e-03 -1.397478e-01 2.445001e-01 -1.561431e-01 9.242901e-01 1.087899e+00 -6.703449e-01 -2.215804e-01 3.260305e-01 -2.284322e-01 1.075303e+00 7.542318e-01 -9.637451e-01 -6.208283e-03 
2.407231e+00 -3.916002e+00 -9.279570e+00 2.569730e+00 1.819880e+01 -2.780043e+00 -8.575947e+00 4.178555e+00 -1.656275e-01 -1.246341e+01 -5.467586e+00 8.151373e-01 7.878184e-03 -3.603535e-02 8.103228e-01 -9.102085e-01 1.871800e-02 7.508940e-01 -4.071363e-01 -1.624207e+00 -8.062379e-01 2.007842e-01 2.858863e+00 1.569380e+00 -1.007446e+00 -1.223846e-02 
2.293195e+00 -2.569126e+00 -8.417600e+00 1.536311e+00 1.942705e+01 2.269155e+00 -5.854942e+00 5.623813e+00 -1.963369e+00 -1.071310e+01 -2.499530e+00 1.245115e+00 -6.718516e-03 1.384558e-01 2.511418e-01 -1.696443e+00 -1.060206e+00 -1.276195e-01 8.009445e-01 -7.907000e-01 -1.248889e+00 -9.045420e-01 2.239882e+00 2.256191e+00 -8.701050e-01 -8.476662e-03 
3.347337e+00 -1.051623e+00 -1.126640e+01 1.134181e+00 1.772638e+01 -4.134176e+00 -1.356679e+01 1.375152e+00 1.330704e+00 -3.832551e+00 -4.547116e-01 -2.650576e+00 -1.249683e-02 4.683278e-01 4.073536e-01 -8.296078e-01 5.146602e-01 -1.252433e+00 -8.056225e-01 -6.807299e-02 -1.131983e+00 2.387175e-01 1.952645e+00 1.786947e+00 -1.659195e-01 -8.473480e-03 
2.860363e+00 -2.203105e+00 -1.143847e+01 2.252557e+00 1.481055e+01 -2.010525e+00 -6.069985e+00 2.353156e+00 -2.876034e+00 -7.545836e+00 2.512733e-01 -2.736040e+00 -3.562832e-02 1.536414e-01 -5.713511e-02 -9.634148e-01 7.714185e-01 -9.437239e-01 -7.277597e-01 9.749546e-01 -5.884146e-01 4.503501e-01 -3.988318e-01 -4.370514e-01 7.496646e-01 -5.974495e-03 
4.465286e+00 -2.062244e+00 -1.191717e+01 4.784908e+00 1.424488e+01 -4.668315e+00 -8.808790e+00 1.539710e-01 1.484292e+00 -4.283816e+00 2.091749e+00 1.976117e+00 -2.003431e-02 -3.727868e-01 -5.937489e-01 -2.862576e-01 5.078431e-01 -7.604761e-02 1.119807e+00 2.578856e+00 6.417016e-01 -2.895930e-01 -1.968235e+00 -1.119595e+00 1.409230e+00 -3.791726e-03 
2.502427e+00 -2.349491e+00 -1.290929e+01 3.568040e+00 1.644918e+01 -1.102574e+00 -3.359171e+00 3.292330e+00 2.115874e-01 -1.248163e+01 -5.958017e+00 2.680091e+00 -3.282225e-02 -3.485756e-02 -2.142923e-01 1.842034e-01 5.183969e-01 9.169593e-02 8.440423e-01 2.066271e+00 8.658635e-01 6.685284e-01 -2.293361e-01 -1.418231e+00 4.099549e-01 -8.301866e-03 
1.662371e+00 -3.947175e+00 -1.196228e+01 3.015655e+00 1.652682e+01 1.010882e+00 -2.027922e+00 4.114073e+00 -1.661071e+00 -1.120583e+01 -2.948042e+00 1.687508e+00 -3.285849e-02 5.978565e-02 1.222620e-01 -4.124931e-01 3.351111e-01 8.868046e-02 4.959233e-01 2.455362e+00 4.757780e-01 -2.054743e-01 3.130950e-01 -1.142931e+00 3.063637e-01 -8.054805e-03 
4.087533e+00 -2.332101e+00 -1.049490e+01 5.729168e+00 1.412806e+01 -6.299123e-01 8.709364e-01 4.702422e+00 2.039291e+00 -5.231510e+00 -4.319988e+00 -5.419610e-01 -7.072556e-02 1.463306e-01 7.725386e-02 -4.329537e-01 2.140052e-02 -9.101602e-01 -1.224396e+00 5.505322e-01 -1.898213e-01 2.866361e-01 1.018502e+00 -3.946193e-01 -3.627682e-01 -8.976174e-03 
3.971662e+00 -1.459629e+00 -1.518683e+01 5.379899e+00 1.584884e+01 -2.425030e+00 1.352966e+00 1.827815e+00 -4.569306e-01 -6.343401e+00 -4.441919e+00 5.118962e+00 -4.135668e-02 2.486805e-01 8.044464e-01 -2.130401e-01 6.941390e-02 -4.082338e-01 1.787259e-01 6.838571e-01 1.131636e+00 4.372384e-01 -1.331574e-01 -1.055378e+00 -3.114281e-01 -9.918069e-03 
2.079434e+00 -3.206994e+00 -1.346178e+01 2.492921e+00 1.223737e+01 -5.506601e+00 -2.296954e+00 3.486353e+00 1.042697e+00 -9.820333e+00 -7.184175e+00 -8.494763e-01 -7.345402e-02 8.122949e-02 4.431252e-01 -6.121580e-01 -5.712985e-01 -5.964997e-01 9.422224e-01 -5.381821e-01 1.307791e-01 -2.597693e-01 -4.021302e-01 -3.138767e-01 2.485003e-01 -7.798314e-03 
3.909822e+00 5.125041e-01 -1.154404e+01 4.980848e+00 1.543100e+01 4.342856e+00 2.975310e+00 1.038029e+01 1.023417e+00 -9.577206e+00 -6.792840e+00 2.841258e-01 -8.108461e-02 3.732501e-01 7.525668e-02 3.279516e-01 2.771575e-01 -4.793158e-01 1.669111e+00 -5.142205e-01 -9.980025e-02 -9.437179e-03 6.968792e-01 1.250776e+00 -5.131878e-01 -7.761693e-03 
4.524600e+00 -1.102542e+00 -1.537709e+01 3.072201e+00 1.135448e+01 6.972574e-01 -2.631145e+00 1.080082e+00 2.703667e-04 -5.625258e+00 -4.713911e+00 3.117958e+00 -8.985317e-02 2.418683e-01 1.000087e-01 6.124144e-01 1.093354e+00 6.186794e-01 1.399055e+00 -3.325927e-01 -1.904581e+00 -5.522128e-01 6.202816e-01 1.408333e+00 2.920497e-01 1.367092e-04 
4.615329e+00 -2.135572e+00 -1.258942e+01 6.476047e+00 1.389371e+01 2.818593e+00 -1.051041e+00 2.531949e+00 1.709700e-02 -4.956542e+00 5.768265e-01 5.693055e-01 -7.196558e-02 -3.598204e-01 -2.613795e-01 8.731859e-01 7.273811e-01 5.422120e-01 -3.434420e-01 -8.892477e-01 -2.450023e+00 -5.457830e-01 -1.230535e-01 1.136774e+00 1.010973e-01 -5.977082e-03 
2.936023e+00 -1.382912e+00 -9.877022e+00 7.212094e+00 1.609941e+01 2.250805e+00 -1.946743e+00 -2.112385e+00 -1.215206e+00 -9.029257e+00 -3.827342e+00 4.681825e-01 -7.732999e-02 -7.844056e-01 -7.873754e-02 9.338695e-01 -6.152464e-01 -4.912818e-01 3.919508e-01 -1.088531e-01 -5.214814e-01 6.141902e-01 -9.849348e-01 -2.913182e-01 -4.005756e-01 -1.131595e-02 
2.905009e+00 -6.542079e-01 -9.928144e+00 6.547808e+00 1.576960e+01 1.848872e+00 -1.813130e+00 -2.735972e-01 -1.097759e+00 -8.490474e+00 -1.552255e+00 2.114500e+00 -1.172316e-01 -7.793485e-01 -1.056678e-01 -1.059270e-01 -2.028392e+00 -2.000644e+00 1.537624e-01 -4.334274e-01 -3.325170e-01 1.206696e+00 -7.406558e-01 -1.264420e+00 -5.793447e-02 -1.501386e-02 
1.457732e+00 -2.236912e+00 -1.203838e+01 -3.991127e-02 7.960126e+00 3.141872e+00 -2.794366e+00 -1.245520e-01 3.628649e+00 -8.782967e+00 -5.105961e+00 3.424829e-01 -1.237999e-01 -4.403858e-01 -3.290702e-01 -6.432942e-01 -2.109173e+00 -2.408804e+00 3.075134e-01 -2.676482e-01 4.124710e-01 1.441412e+00 2.000875e-02 -6.110946e-01 -2.023416e-01 -9.950817e-03 
