-6.707475e+00 5.862744e+00 7.353098e+00 3.788727e+00 8.352865e+00 9.607672e+00 1.234932e+01 4.452603e+00 3.917099e-01 6.961381e+00 5.134467e+00 3.354738e+00 -9.817982e-02 4.633110e-01 -4.931999e-01 -9.590761e-01 3.601636e-01 9.320025e-01 -3.638076e-01 -7.179178e-01 5.671934e-01 -3.185698e-02 7.863467e-01 -1.319401e+00 9.609090e-02 -5.774713e-03 
-5.478421e+00 5.091295e+00 3.891393e+00 1.675872e+00 1.000209e+01 7.643461e+00 9.312378e+00 7.732171e+00 1.753009e+00 1.272696e+01 1.588114e+00 3.309652e+00 -1.015863e-01 4.090349e-01 -7.793789e-01 -1.583865e+00 -4.739075e-01 -2.133039e-01 -1.539319e+00 -2.286700e+00 1.005279e+00 1.283756e+00 3.340495e-01 -1.373420e+00 -1.359660e-01 -6.252396e-03 
-5.005446e+00 3.782468e+00 4.288569e+00 6.645973e+00 1.218827e+01 8.770739e+00 1.027821e+01 5.648787e+00 -4.482244e-01 8.010324e+00 3.106413e-01 3.857734e+00 -1.253501e-01 3.350266e-01 -8.303354e-01 -1.424015e+00 -3.665910e-01 3.145666e-02 -7.021497e-01 -1.506179e+00 2.725414e-01 1.716103e+00 -1.706013e-01 -9.438990e-01 -3.394966e-01 -8.167839e-03 
-5.513314e+00 3.005987e+00 9.660351e-01 -9.432882e-03 5.368645e+00 2.329541e+00 1.951385e+00 8.880907e+00 7.230457e+00 8.107158e+00 6.792803e-01 2.423409e+00 -1.158566e-01 1.174545e-02 -1.582566e-01 -8.681779e-01 -1.269712e+00 -1.250262e+00 9.437768e-02 -7.391804e-01 -7.508293e-01 1.160271e+00 -9.850397e-01 1.335387e-01 -5.012354e-02 -9.582877e-04 
-5.014895e+00 2.753721e+00 1.695704e+00 2.798424e+00 1.082687e+01 8.753883e+00 8.498926e+00 5.240942e+00 6.233502e+00 8.418278e+00 8.693891e-01 2.100376e+00 -1.318839e-01 -1.470814e-02 4.403892e-01 -3.604080e-01 -1.558599e+00 -2.238952e+00 -1.589355e+00 -1.577366e+00 -1.414371e+00 -5.633286e-01 -6.004346e-01 8.587283e-01 8.814057e-01 5.612671e-03 
-5.414969e+00 4.814386e+00 8.469369e-01 -2.748912e+00 4.431476e+00 8.123777e+00 6.506117e+00 4.181947e+00 4.213503e+00 7.597788e+00 1.976433e+00 3.937714e+00 -1.031109e-01 6.307265e-01 1.653239e-01 -3.727783e-01 -1.863216e+00 -2.496579e+00 -9.265392e-01 1.408195e-02 -1.633468e+00 -7.594129e-01 2.482224e-01 5.619013e-01 4.783947e-01 1.008632e-02 
-5.128160e+00 5.080215e+00 2.546078e+00 2.227179e-01 1.462090e+00 -2.073154e+00 1.140099e-01 9.264129e-01 -1.756390e+00 5.262835e+00 3.955707e+00 7.507610e+00 -1.036596e-01 1.411147e+00 -3.113700e-01 -8.048689e-01 -3.492955e+00 -3.915660e+00 -2.029158e+00 -2.141357e-01 -4.878651e-01 5.698365e-01 1.172266e+00 -5.534844e-01 -4.143677e-02 3.092779e-02 
-2.303050e+00 2.669360e+00 -1.323044e+00 -8.037658e+00 -2.431859e+00 3.110363e+00 6.214252e+00 2.870833e+00 7.428339e+00 1.092599e+01 1.945628e+00 2.111765e+00 -7.953715e-02 8.875692e-01 -5.398037e-01 -5.165700e-01 -1.046481e+00 -1.235829e+00 -7.978593e-01 2.656484e-01 -5.258449e-01 6.172615e-01 8.211535e-01 -5.580351e-01 -7.919220e-01 1.223812e-02 
4.848795e-01 2.269385e+00 -1.243651e+00 -1.202198e+01 -5.319762e+00 1.114799e+00 7.574180e+00 3.457174e+00 7.475266e+00 1.261551e+01 -1.882630e+00 2.806167e+00 1.096821e-02 -7.911434e-02 3.549445e-02 2.917253e-01 1.049222e+00 2.285055e+00 1.804350e+00 1.440608e+00 6.335796e-01 4.175704e-01 -2.914813e-01 -3.827756e-01 -1.261031e+00 2.324700e-04 
-3.783643e+00 3.520783e+00 1.589515e-01 -1.858970e+00 1.643259e+00 2.540505e+00 4.104274e+00 2.873420e-01 2.683982e+00 8.027219e+00 2.105426e+00 2.328825e+00 -9.923422e-02 -1.244616e+00 5.229637e-01 1.191928e+00 2.799235e+00 4.152146e+00 1.898799e+00 3.353252e-01 2.560258e-01 -1.291861e+00 -1.048755e+00 8.199496e-01 5.342552e-01 -1.474445e-02 
-4.783435e+00 4.831975e+00 3.263707e+00 2.379484e+00 1.084980e+01 7.233527e+00 8.372038e+00 5.386056e+00 2.703640e+00 5.254814e+00 1.961929e+00 1.093925e+00 -9.264874e-02 -1.205834e+00 2.829573e-01 8.770115e-01 2.791612e+00 3.786983e+00 2.196645e+00 -6.173847e-01 4.621158e-01 -4.685590e-01 -7.408849e-01 2.081964e+00 1.517859e+00 -2.636002e-02 
-5.891974e+00 4.002883e+00 2.382917e+00 -1.242214e+00 1.024409e+01 9.544992e+00 7.491949e+00 3.186521e+00 3.354848e+00 9.362562e+00 4.123096e+00 5.639162e+00 -1.014509e-01 -6.502735e-01 -1.950650e-01 3.303964e-01 4.024591e-01 1.120284e+00 1.347329e+00 7.088093e-02 4.719283e-01 -3.491251e-01 8.110787e-01 1.300849e+00 1.089082e-01 -4.574728e-03 
-4.490127e+00 3.443121e+00 2.029425e+00 1.627707e+00 9.314734e+00 8.595781e+00 2.793419e+00 4.318163e+00 4.797039e+00 8.243411e+00 7.518353e+00 8.740293e+00 -1.197236e-01 -3.485846e-01 -7.808445e-02 1.350427e-01 -2.859149e-01 -7.383282e-02 2.183754e-01 -7.964269e-01 -6.301705e-01 -1.997010e-01 7.720666e-01 3.049257e-01 1.113565e+00 -1.332700e-03 
-7.181664e+00 3.239885e+00 2.428075e+00 5.292150e-01 8.012211e+00 8.596024e+00 7.247988e+00 3.180930e+00 -1.083425e-01 1.058831e+01 5.831458e+00 -9.498169e-01 -1.085705e-01 -2.558880e-02 3.825255e-01 1.383946e-01 -9.798124e-02 -9.507401e-02 -5.130510e-01 -1.845896e-01 4.179888e-01 -4.932573e-01 -1.788484e-01 -6.089625e-01 -1.361724e-01 3.574634e-03 
-5.881513e+00 4.823052e+00 3.916342e+00 6.419539e-02 1.159658e+01 8.799889e+00 4.511884e+00 2.237999e+00 3.436730e+00 8.502272e+00 2.632376e+00 9.956242e+00 -9.575248e-02 -1.423101e-01 4.818122e-01 4.061833e-01 2.660212e-01 4.202567e-01 -1.707775e-01 4.583419e-01 8.506092e-01 2.082583e-01 -4.581552e-01 -7.049656e-02 1.573511e-01 3.725100e-03 
-5.324225e+00 5.225545e+00 2.131431e+00 -9.503642e-01 8.627798e+00 6.877684e+00 5.709769e+00 6.316547e+00 1.568716e+00 8.338890e+00 3.521272e+00 4.350326e+00 -9.556329e-02 3.791086e-01 -1.507719e-01 -3.294525e-01 3.000494e-01 -3.656805e-01 -3.071654e-01 -5.738244e-02 4.802876e-01 1.657188e+00 -7.012938e-01 4.227695e-01 6.538766e-01 -5.823446e-03 
-6.130397e+00 4.859352e+00 4.208663e+00 3.697602e+00 1.110822e+01 8.601064e+00 5.854238e+00 7.003400e+00 4.999801e+00 7.077347e+00 8.320964e+00 6.876977e+00 -1.076016e-01 1.395288e-01 -5.729229e-01 -2.343159e-01 1.345208e+00 -6.181411e-01 -8.449232e-01 -1.222752e-01 3.969378e-01 -2.870815e-01 -1.295344e+00 4.348500e-02 -1.569985e+00 -8.753395e-03 
-5.161679e+00 2.467876e+00 6.346517e-01 2.127588e-01 6.427986e+00 7.159608e+00 6.289899e+00 3.199668e+00 7.396062e+00 7.794307e+00 5.101012e+00 3.859198e+00 -1.317631e-01 6.979282e-01 3.621822e-01 4.005747e-01 3.058939e-02 1.028027e-01 -7.307566e-01 -8.708784e-01 -1.333613e+00 -1.292798e+00 -1.457048e+00 -1.419757e+00 -1.499737e+00 1.870453e-03 
-5.265141e+00 3.337272e+00 3.493152e+00 6.208676e+00 9.605780e+00 4.434309e+00 3.610442e+00 5.781128e+00 -9.123503e-01 2.297843e+00 2.059931e+00 2.351881e+00 -1.214195e-01 6.695283e-01 5.316064e-01 -4.150648e-01 1.911625e-01 -1.783190e+00 -4.790368e-02 -3.289084e-01 -2.283326e-01 -1.011515e+00 -6.983322e-01 -2.130244e+00 -1.526537e+00 6.879658e-02 
-2.267212e+00 7.797496e+00 4.492060e+00 -2.052954e+00 9.893034e+00 5.307278e+00 2.477275e+00 2.596174e-01 -1.939200e+00 3.443400e+00 -4.469972e-01 -8.858120e-01 -7.930207e-02 -1.143040e+00 -3.077363e-01 -1.282691e+00 1.117251e+00 -2.175526e+00 1.226906e+00 -4.679937e-01 1.656601e+00 -8.117350e-01 1.522654e+00 -6.133288e-01 8.404707e-01 1.469931e-01 
-4.229989e+00 4.852574e+00 2.046351e-01 5.786271e+00 4.597516e-01 9.287710e+00 6.116008e+00 7.331763e+00 4.609855e+00 5.761139e+00 4.437494e-01 1.616796e+00 2.101507e-01 -2.351415e+00 -1.634649e+00 -1.964283e+00 6.419865e-01 -2.952346e+00 1.584808e+00 -5.280461e-01 5.794625e-01 5.922624e-01 2.892968e+00 1.828023e-01 2.038734e+00 1.703175e-01 
-1.139446e+01 1.715436e-01 -4.134545e+00 6.010214e+00 1.233692e-01 1.086744e+01 2.697148e+00 1.070736e+01 5.762848e-01 1.367593e+01 2.842459e+00 8.429094e+00 4.374170e-01 -3.023313e+00 -2.690245e+00 -1.436462e+00 1.266135e+00 -1.976853e+00 8.648129e-01 -5.848955e-01 3.041782e-01 6.938961e-01 1.671555e+00 2.223133e-01 3.674129e+00 1.332933e-01 
-1.245860e+01 -1.022998e+00 -2.014961e+00 5.387025e+00 -2.711201e-01 9.578267e+00 8.602753e-01 3.454571e+00 7.912195e-01 1.164642e+01 1.329215e+00 7.888100e+00 4.718085e-01 -2.736400e+00 -1.948923e+00 2.926484e-01 -9.708269e-01 1.089366e+00 -8.313959e-01 -1.394896e+00 -8.002917e-01 1.455207e-01 -6.770402e-01 -5.787517e-01 3.148826e+00 5.942632e-02 
-1.326947e+01 -2.715943e+00 -1.580452e+00 4.477345e+00 3.742065e-01 9.486064e+00 2.180664e+00 3.719104e+00 3.439598e+00 8.858535e+00 2.218366e-01 1.434918e+01 4.563357e-01 -1.692738e+00 -8.445266e-01 1.126249e+00 -1.760172e+00 2.019047e+00 -6.696664e-01 -3.454321e-01 -1.335382e-01 1.195858e+00 -2.903862e+00 -1.303933e+00 1.896865e+00 2.112750e-02 
-1.697448e+01 -3.448301e+00 3.908300e-01 1.698571e+00 5.781165e+00 5.821419e+00 -6.002302e-01 6.824430e+00 3.905801e+00 4.784634e+00 -1.139698e+00 1.440088e+01 4.978229e-01 -1.430673e+00 -6.313709e-01 1.913621e-01 -1.209650e+00 2.322893e+00 -4.903697e-01 -2.427998e-02 1.609656e+00 4.482261e-01 -1.426202e+00 5.841598e-01 2.388500e-01 1.831425e-02 
-1.760020e+01 -2.838438e+00 2.938049e-01 -9.464160e-01 7.192462e+00 9.397532e+00 1.700240e+00 8.354734e+00 4.998284e+00 2.587512e+00 -2.442752e+00 1.465703e+01 5.300473e-01 -8.136431e-01 -1.047144e-01 3.422759e-02 -6.873286e-01 8.552734e-01 -4.413326e-01 -2.476939e-01 1.135249e+00 -7.493008e-01 -5.621627e-01 1.133915e+00 -1.642675e+00 1.825796e-02 
-1.744660e+01 -4.118605e+00 -1.995280e+00 2.050655e+00 7.934216e+00 7.170685e+00 9.790874e-01 9.185036e+00 2.253007e+00 7.650922e+00 5.582308e+00 8.928427e+00 5.265239e-01 1.075117e-01 1.534990e-01 -1.206850e-01 -8.442464e-02 -5.991864e-01 2.899336e-01 1.327995e+00 1.411717e+00 -1.140304e+00 1.012383e+00 8.499481e-01 -2.251140e+00 7.051575e-03 
-1.710163e+01 -2.904363e+00 -2.162590e-01 8.646597e-01 3.574048e+00 6.604768e+00 1.525354e-01 8.215045e+00 5.194915e-01 4.614578e+00 2.530407e+00 8.872034e+00 5.332750e-01 6.507284e-01 4.036952e-01 -7.496808e-02 8.646496e-01 -6.861202e-01 3.517300e-01 7.329761e-01 6.509730e-01 -1.075659e+00 1.457268e+00 4.165033e-01 -2.195678e+00 4.214740e-03 
-1.668621e+01 -2.647844e+00 4.243708e-02 3.709100e-01 4.594440e+00 8.667468e+00 6.813597e+00 1.395286e+01 4.436773e-01 8.833016e+00 6.234634e-01 6.037677e+00 5.314670e-01 5.377073e-01 1.503753e-01 5.363805e-02 3.611642e-01 -1.010666e-01 7.232898e-01 4.642808e-01 -8.176716e-01 -7.274522e-01 7.866542e-01 -4.551101e-01 -9.022725e-01 -3.091377e-03 
-1.472675e+01 -1.555343e+00 -1.099894e+00 4.216705e+00 5.431749e+00 1.040779e+01 2.447865e+00 9.225689e+00 5.246559e-01 9.282807e+00 2.119186e+00 5.124013e+00 5.486495e-01 2.469648e-01 -2.198200e-01 4.506753e-02 5.750616e-01 4.708422e-01 1.255786e-01 -4.679068e-01 -1.586901e+00 1.012230e+00 2.046967e+00 1.465388e+00 3.210376e-01 -5.737484e-03 
-1.594550e+01 -4.041238e+00 -1.285272e+00 2.180454e+00 6.500032e+00 8.885623e+00 2.152827e+00 4.591356e+00 -1.386836e+00 9.250078e+00 3.512368e+00 6.291075e+00 5.033798e-01 2.044010e-01 -7.306333e-02 -1.735059e-01 7.391338e-02 -8.642618e-01 -6.731740e-01 -1.292147e+00 -2.243148e+00 1.246970e+00 -1.009955e-01 2.316750e+00 2.559502e+00 -3.872776e-03 
-1.623716e+01 -3.306766e+00 6.729331e-01 2.835196e+00 4.975463e+00 7.123584e+00 1.433868e-01 4.961288e+00 6.495895e+00 1.464088e+01 8.412893e+00 1.035052e+01 5.186312e-01 4.950737e-01 1.821126e-01 2.553040e-01 -7.928314e-01 -9.086827e-01 -3.160294e-01 -7.643623e-01 -8.522585e-01 5.457560e-01 -1.696529e+00 3.155721e-01 1.686239e+00 -1.111995e-02 
-1.490900e+01 -2.137449e+00 -1.711506e+00 1.431231e+00 5.012741e-01 6.943701e+00 1.505103e+00 4.869317e+00 3.692910e+00 5.649002e+00 9.060360e+00 1.622193e+01 5.271122e-01 8.253723e-01 6.128290e-01 -2.098932e-01 -9.459354e-01 -1.775658e-01 -6.040390e-01 -2.217358e-01 -1.562059e-01 -3.739273e-01 -1.856647e+00 -1.537088e+00 4.277963e-01 -5.928522e-03 
-1.276964e+01 -1.596674e+00 3.897433e-01 6.271589e-01 3.887715e+00 9.798604e+00 -1.050085e+00 4.825416e+00 7.135628e-01 2.600700e+00 9.230509e-01 8.589779e+00 4.811835e-01 1.101404e+00 2.612801e-01 -6.522808e-01 -1.344743e+00 -6.265105e-01 -1.193287e+00 -6.300674e-01 -6.461322e-01 -1.906831e+00 -1.940522e+00 -1.020872e+00 -2.713808e-01 2.032459e-04 
-1.355240e+01 -1.832139e+00 -2.193143e+00 -1.445205e+00 6.156077e+00 4.527918e+00 1.640883e+00 3.878263e+00 -3.653065e-01 5.986933e+00 -4.281507e-01 9.310429e+00 4.924610e-01 5.790846e-01 -5.103416e-02 -1.383969e-01 -1.141652e+00 -1.266552e+00 -1.830604e+00 -1.708092e+00 -9.594108e-01 -6.893547e-01 -4.725872e-01 -8.165434e-01 -1.441156e+00 1.327949e-02 
-1.140844e+01 -2.153020e+00 -2.347652e+00 -2.450304e+00 -9.844918e-01 2.365039e+00 -3.074841e+00 2.226154e+00 -1.009152e+00 4.769305e+00 8.052788e+00 1.244937e+01 5.369730e-01 2.748208e+00 1.352515e+00 5.555826e-01 -4.361294e-01 -2.486588e+00 -3.177320e+00 -2.158829e+00 -1.581880e+00 -2.690856e-01 -8.648319e-01 -8.629894e-01 -2.288875e+00 9.675699e-03 
-1.269417e+01 -2.114447e+00 -1.034792e+00 -2.738296e+00 -3.395384e+00 1.507462e+00 -6.022979e+00 1.371893e+00 1.107493e+00 2.201764e+00 1.412774e+00 7.086356e+00 5.656149e-01 5.448090e+00 2.042265e-01 1.087988e+00 -2.729080e-01 -3.606935e+00 -4.873706e+00 -3.340636e+00 -1.675859e+00 -6.484170e-02 -2.647545e+00 -6.887192e-01 -4.845775e+00 5.303962e-02 
5.422888e-01 5.307055e+00 2.588481e+00 -9.069429e-01 -3.769493e+00 -4.577770e+00 -8.012298e+00 -1.830798e+00 -1.368265e+00 1.691256e-01 -4.312359e+00 -1.742562e+00 4.929851e-01 5.499542e+00 -9.722041e-01 6.454157e-01 -5.727735e-01 -2.944660e+00 -5.216269e+00 -1.914295e+00 -6.067100e-01 2.617663e-01 -2.708501e+00 -1.125942e+00 -5.176795e+00 9.464543e-02 
7.712683e+00 -4.541044e+00 7.787278e-01 -3.581425e+00 -1.048610e+01 -1.636921e+01 -1.259357e+01 -2.472558e+00 -5.099584e-01 -4.950703e+00 2.310827e+00 -7.822477e+00 7.796531e-01 4.165948e+00 -2.055500e+00 5.263839e-01 -6.987578e-01 -2.023047e+00 -3.491197e+00 5.186058e-01 7.723364e-01 3.061722e-01 -2.201006e+00 1.164218e+00 -3.540473e+00 1.112370e-01 
5.885839e+00 -5.800742e+00 -2.733374e-02 -4.892606e+00 -1.216244e+01 -1.477797e+01 -9.361024e+00 1.114830e+00 1.108406e+00 -5.196966e+00 1.974054e+00 -5.980191e+00 9.031811e-01 7.016220e-01 -2.925461e+00 1.267901e-01 -1.365370e+00 -1.113556e+00 -8.099493e-01 2.450677e+00 1.594111e+00 9.774128e-01 -1.496031e+00 1.813783e+00 -2.428832e+00 1.011972e-01 
5.463790e+00 -6.838046e+00 2.905035e+00 -4.239253e+00 -9.314146e+00 -1.084842e+01 -2.755587e+00 3.760761e+00 1.400019e+00 -6.120220e+00 4.090660e+00 -8.497190e+00 9.167022e-01 -5.494422e-01 -1.302577e+00 1.523902e-01 -9.031374e-01 -2.836658e-01 1.533897e+00 3.190559e+00 1.080700e+00 1.402262e+00 -7.648410e-01 2.260798e-01 -2.461618e+00 3.921763e-02 
5.174845e+00 -8.171747e+00 2.159278e+00 -7.404878e+00 -9.923248e+00 -1.138791e+01 -6.779017e-01 3.023100e+00 2.563811e+00 -6.726272e+00 3.866642e+00 -1.354936e+01 9.304463e-01 -2.682728e-01 -1.828498e+00 -7.873258e-01 -1.483494e+00 -8.049635e-01 6.103336e-01 1.445598e+00 -6.725662e-01 8.471737e-01 -1.906301e+00 -7.627569e-01 -3.721954e+00 2.094842e-02 
5.320969e+00 -9.868424e+00 4.473732e-01 -6.840976e+00 -1.302402e+01 -1.039475e+01 -9.823332e-01 1.976807e+00 5.773650e+00 -8.010255e+00 2.494932e+00 -1.634598e+01 9.621086e-01 -1.483625e-01 -1.597487e+00 -1.567829e+00 -1.175378e+00 -5.906639e-01 7.453911e-01 7.290584e-01 -9.040717e-01 1.268182e+00 -1.807143e+00 -1.035052e+00 -2.250938e+00 2.213693e-02 
4.615886e+00 -1.342804e+01 -2.735132e+00 -1.100921e+01 -1.433232e+01 -1.195314e+01 -3.019663e+00 -1.356024e+00 3.157459e+00 -1.378345e+01 -1.041867e+00 -2.066557e+01 9.852200e-01 8.806071e-02 -9.110903e-01 -9.363908e-01 1.049662e-02 9.904745e-01 1.972023e+00 1.507828e+00 -8.230925e-02 1.843993e+00 -1.080998e+00 -2.534039e-02 1.507168e-02 1.730543e-02 
5.001457e+00 -1.219733e+01 -2.486903e+00 -8.313976e+00 -1.006293e+01 -6.838853e+00 2.060586e+00 1.429964e+00 7.444103e+00 -1.162734e+01 1.369654e+00 -1.619378e+01 1.000000e+00 3.347013e-01 -2.562364e-01 -1.703832e-01 4.332529e-01 2.232679e+00 2.347733e+00 1.962621e+00 5.063962e-01 1.877450e+00 -1.943083e-01 1.056815e+00 1.344513e+00 6.374240e-03 
5.774905e+00 -1.156274e+01 -1.055537e+00 -6.615895e+00 -6.451420e+00 -3.305740e+00 5.339778e+00 2.884975e+00 1.094855e+01 -1.032272e+01 4.302578e+00 -1.355011e+01 9.980278e-01 6.156088e-01 2.756214e-01 2.507459e-01 9.990280e-01 1.891436e+00 2.085528e+00 1.351164e+00 7.808170e-01 1.893378e+00 6.902599e-01 1.456296e+00 1.781999e+00 -4.535568e-03 
6.414966e+00 -1.208226e+01 -1.244340e+00 -6.871371e+00 -5.801075e+00 -2.979785e+00 4.651052e+00 2.388288e+00 1.126536e+01 -1.071216e+01 5.106785e+00 -1.318115e+01 9.875759e-01 8.026056e-01 -1.811285e-02 8.409815e-02 3.218406e-01 3.783899e-01 3.226508e-01 -2.447583e-01 -9.448177e-02 1.008558e+00 1.058042e-01 9.779316e-01 7.474739e-01 -1.212906e-02 
6.987175e+00 -1.210747e+01 -2.102684e+00 -6.735376e+00 -7.006064e+00 -3.455031e+00 2.440923e+00 2.068899e+00 1.071372e+01 -1.078974e+01 4.371047e+00 -1.326188e+01 9.687542e-01 1.057832e+00 1.825621e-01 -1.135907e-01 3.606018e-01 -8.466308e-01 -6.191415e-01 -1.830083e+00 4.116621e-02 2.025791e-01 5.160730e-01 6.592849e-01 6.245116e-01 -2.080215e-02 
8.408350e+00 -1.201553e+01 -1.542839e+00 -6.645032e+00 -7.893659e+00 -5.150954e+00 2.286222e+00 1.365594e+00 1.260431e+01 -1.086481e+01 6.225078e+00 -1.260052e+01 9.539915e-01 1.248229e+00 3.417982e-01 -1.581428e-01 2.013437e-01 -1.212973e+00 -9.964991e-01 -3.201222e+00 -5.616731e-01 -1.169456e+00 1.140898e-01 5.156477e-01 7.790748e-01 -4.404265e-02 
1.006737e+01 -1.068330e+01 -1.474241e+00 -4.926056e+00 -9.638283e+00 -5.315863e+00 -2.628222e+00 3.602154e+00 1.129197e+01 -7.666030e+00 7.039857e+00 -1.071786e+01 9.108092e-01 1.723942e+00 1.339154e+00 5.575823e-01 1.352346e+00 2.553534e-01 3.466699e-01 -3.426662e+00 -4.278230e-01 -2.240284e+00 6.318294e-01 1.333144e+00 1.862175e+00 -8.795772e-02 
1.111601e+01 -1.108535e+01 -2.349276e+00 -6.769313e+00 -1.054983e+01 -7.031865e+00 -8.820486e+00 -1.186705e+00 5.128953e+00 -1.170357e+01 6.350618e+00 -1.055779e+01 7.963351e-01 1.292018e+00 2.554581e+00 4.832488e-01 1.706173e+00 1.475444e+00 1.095766e+00 -3.859754e+00 -1.866650e+00 -4.429136e+00 6.630489e-01 3.319769e-02 1.705249e+00 -1.330632e-01 
1.425305e+01 -5.876795e+00 1.088445e+00 8.849320e-02 -4.401210e+00 -7.812262e-01 -9.139031e+00 1.205934e+00 3.249978e+00 -7.211215e+00 1.097400e+01 -4.972378e+00 6.077938e-01 5.893790e-01 3.605505e+00 7.792062e-01 2.111923e+00 3.283806e+00 1.387803e+00 -2.208817e+00 -3.268930e+00 -5.206627e+00 9.265612e-01 -1.704843e+00 1.074250e+00 -1.464556e-01 
1.277560e+01 -1.645880e+00 -4.079387e-01 -6.214446e-01 -3.134975e+00 -1.939441e+00 -1.375714e+01 -6.769547e+00 -5.520378e+00 -7.776973e+00 4.423997e+00 -6.947018e+00 4.401835e-01 -4.891579e-01 4.307841e+00 1.003651e+00 2.050432e+00 4.112609e+00 1.853630e+00 -9.175110e-01 -3.541229e+00 -5.375605e+00 1.937014e+00 -3.309860e+00 5.814117e-01 -1.179125e-01 
1.218447e+01 2.624493e+00 1.451121e+00 2.559627e+00 3.073319e+00 -9.230618e-01 -1.120398e+01 -9.951078e+00 -9.416502e+00 -4.996523e+00 -5.210476e-01 -7.151997e+00 3.566068e-01 -1.537828e+00 3.092084e+00 6.584112e-01 1.249497e+00 2.581037e+00 6.179615e-01 -2.768940e-01 -3.611895e+00 -5.219386e+00 3.967179e-01 -3.822952e+00 -1.735012e-01 -6.662177e-02 
9.704513e+00 6.203209e+00 2.487641e+00 2.247278e+00 6.275949e+00 2.307204e+00 -1.237557e+01 -1.331434e+01 -1.541583e+01 -3.125847e+00 -4.451158e+00 -6.560919e+00 3.323659e-01 -8.376414e-01 1.060591e+00 -3.101290e-01 3.996961e-01 1.334681e+00 5.031220e-01 6.784336e-01 -9.397827e-01 -2.264212e+00 -1.100738e-01 -1.986969e+00 4.283838e-02 -1.611726e-02 
8.099455e+00 5.659080e+00 2.932711e+00 4.901615e+00 3.798511e+00 1.852584e-01 -1.121429e+01 -1.358114e+01 -1.789923e+01 -7.553188e+00 -3.703188e+00 -6.032933e+00 3.285937e-01 2.469122e-01 -1.828487e+00 -1.650700e+00 -1.101392e+00 -1.236169e+00 -8.629992e-02 2.364323e-01 1.038604e+00 1.071180e+00 -1.334513e+00 6.550210e-01 -4.433671e-01 3.227373e-02 
1.062990e+01 2.139781e+00 -2.699379e+00 2.060418e-01 3.175835e+00 2.200890e-02 -1.035982e+01 -9.653429e+00 -1.260007e+01 -7.049009e+00 -3.919778e+00 -7.292357e+00 3.736037e-01 7.448443e-01 -3.842871e+00 -2.139760e+00 -1.934545e+00 -3.197314e+00 -8.258425e-01 -1.850719e-02 2.938131e+00 3.554247e+00 -1.600768e+00 2.385546e+00 -1.765137e+00 7.528965e-02 
1.295634e+01 -4.486229e+00 -4.208870e+00 -1.926716e+00 -1.557467e+00 -2.119637e-01 -1.102969e+01 -6.588514e+00 -5.468478e+00 -9.707509e+00 2.488368e+00 -9.003113e+00 4.973566e-01 3.599349e-01 -3.958055e+00 -1.563606e+00 -2.330717e+00 -3.808074e+00 -1.294006e+00 1.097916e-01 3.494976e+00 3.979043e+00 -6.435769e-01 2.155411e+00 -2.691020e+00 1.018641e-01 
1.100029e+01 -7.938493e+00 -4.640365e+00 -4.011282e+00 -7.032630e+00 -1.623397e+00 -1.256040e+01 -2.120000e+00 -3.859968e+00 -1.005253e+01 4.380794e+00 -1.390151e+01 6.244327e-01 -6.637506e-01 -2.493425e+00 -5.972624e-02 -7.541512e-01 -3.823623e+00 -1.363545e+00 1.043139e+00 2.874116e+00 2.733381e+00 1.397791e-01 1.340555e+00 -1.973617e+00 9.543245e-02 
9.713934e+00 -9.092062e+00 -3.914827e+00 -4.643310e+00 -1.013762e+01 -5.462070e+00 -9.565041e+00 1.270221e-01 -2.374060e+00 -9.269315e+00 2.923581e+00 -1.618346e+01 7.125000e-01 -1.136929e+00 -3.141985e-01 5.816509e-01 5.771173e-01 -2.657967e+00 -6.899943e-01 2.385504e+00 2.179967e+00 2.441644e+00 6.213886e-01 5.180229e-01 -4.345209e-01 6.286279e-02 
8.932352e+00 -8.024430e+00 -3.145032e+00 -2.206417e+00 -1.165220e+01 -4.170662e+00 -5.876451e+00 1.359386e+00 -4.803793e-01 -6.569211e+00 2.565390e+00 -1.357027e+01 7.431942e-01 -1.016459e+00 8.774076e-01 1.719408e-01 1.537099e+00 -1.832957e+00 -3.700516e-01 3.025093e+00 4.567385e-01 2.494843e+00 8.394756e-02 -1.787514e-01 1.301609e+00 2.913281e-02 
8.305664e+00 -6.014253e+00 -2.048282e+00 5.643815e-02 -1.253752e+01 -2.388302e+00 -2.444143e+00 2.571629e+00 5.049948e+00 -8.342223e+00 5.986184e+00 -1.134134e+01 7.522898e-01 -8.617691e-01 1.099560e+00 -3.255223e-01 1.417257e+00 -1.595886e+00 -3.285698e-01 2.177319e+00 -8.973780e-01 1.695635e+00 -3.089670e-01 -8.629535e-01 2.321068e+00 6.715536e-03 
6.622128e+00 -5.090360e+00 -4.713933e+00 1.324337e+00 -1.499747e+01 -5.010539e+00 -9.953856e-01 -1.058611e+00 4.902241e+00 -1.009633e+01 1.955735e+00 -9.814526e+00 7.502018e-01 -5.218982e-01 1.138961e+00 -5.636182e-01 1.374407e+00 -1.249358e+00 -5.850599e-01 1.841881e+00 -1.692800e+00 1.665868e+00 -5.998049e-02 -1.181724e+00 2.921285e+00 -4.066050e-03 
6.560201e+00 -5.061298e+00 -4.757988e+00 6.775979e-01 -1.644442e+01 -6.684981e+00 -1.118978e+00 -3.150869e+00 3.412806e+00 -9.050589e+00 -1.086359e+00 -6.455991e+00 7.425739e-01 -1.787126e-01 9.895515e-01 -6.214460e-01 1.037266e+00 -9.904125e-01 -1.169451e+00 1.551150e+00 -2.481204e+00 1.188733e+00 1.123186e+00 -2.245412e+00 3.206529e+00 -1.025926e-02 
7.195593e+00 -2.806102e+00 -4.608271e+00 4.355039e+00 -1.594554e+01 -4.947623e+00 2.670372e+00 -4.243363e+00 8.667531e+00 -6.514931e+00 1.930432e-01 -1.406516e+00 7.277219e-01 7.877712e-02 9.262609e-01 -3.125044e-01 4.585572e-01 -1.019875e+00 -1.424449e+00 5.114157e-01 -2.491539e+00 1.014288e+00 1.431059e+00 -2.061894e+00 2.591363e+00 -1.467712e-02 
7.125369e+00 -2.208623e+00 -5.208344e+00 3.727418e+00 -1.701554e+01 -8.267017e+00 3.478730e+00 -8.242016e+00 9.110970e+00 -4.516994e+00 -4.359531e+00 4.873028e-01 7.122334e-01 1.644303e-01 1.039629e+00 -4.045223e-01 -9.204409e-02 -9.363773e-01 -2.364265e+00 -7.650207e-01 -2.508464e+00 1.621073e-01 1.342980e+00 -2.327040e+00 1.469427e+00 -1.979573e-02 
6.733430e+00 -1.885392e+00 -6.051277e+00 2.092213e+00 -1.981128e+01 -1.134177e+01 -7.371607e-01 -1.097073e+01 7.124598e+00 -5.207834e+00 -6.717151e+00 -3.293576e-01 6.919864e-01 6.036726e-01 1.274686e+00 1.967871e-01 -7.799413e-01 -7.760967e-01 -2.640610e+00 -2.893570e+00 -1.849858e+00 -7.553845e-01 8.896128e-01 -2.789307e+00 5.389055e-01 -3.236588e-02 
7.613434e+00 -3.235092e-01 -6.059096e+00 1.348790e+00 -1.919344e+01 -1.530924e+01 -3.240314e+00 -1.232951e+01 4.994808e+00 -2.989238e+00 -9.266461e+00 3.525648e-01 6.614630e-01 1.574692e+00 1.886909e+00 1.371432e+00 -8.600763e-01 6.610277e-01 -1.267330e+00 -2.986287e+00 -4.945800e-01 -2.522323e+00 -2.203706e-01 -3.603749e+00 -7.032055e-01 -4.805252e-02 
9.969924e+00 2.624768e+00 -3.198959e+00 1.644646e+00 -1.873708e+01 -1.462956e+01 -8.437957e+00 -1.144891e+01 6.948689e+00 -2.830745e+00 -1.130003e+01 1.355380e+00 5.912778e-01 2.029678e+00 1.925078e+00 2.126372e+00 -5.317405e-01 3.428472e+00 3.115053e-01 -1.650381e+00 8.487765e-01 -4.957316e+00 -1.273200e+00 -3.448510e+00 -1.633643e+00 -4.532718e-02 
1.338058e+01 4.970841e+00 2.226586e-01 -3.491799e-01 -1.424751e+01 -1.295977e+01 -7.602307e+00 -1.047583e+01 -3.412692e+00 -6.807391e+00 -2.008684e+01 -3.871094e+00 5.223252e-01 1.685144e+00 1.531679e+00 1.192465e+00 -7.668696e-01 3.631182e+00 8.050848e-01 -1.088802e-01 6.708633e-01 -6.323622e+00 -3.242136e+00 -1.600370e+00 -6.525313e-01 -2.587595e-02 
1.399825e+01 5.092822e+00 1.439704e+00 2.824956e-01 -5.141884e+00 -1.095897e+01 -6.808072e+00 -7.653690e+00 -1.345823e+01 -9.664758e+00 -1.854951e+01 -6.385744e+00 5.349194e-01 6.726853e-01 6.987647e-01 -1.246257e-01 -1.129120e+00 3.278652e+00 -2.861538e-02 1.090818e+00 -3.060679e-01 -6.138333e+00 -3.361699e+00 -2.874943e-01 5.633453e-01 -3.244358e-03 
1.402499e+01 6.100861e+00 -2.416103e+00 -1.804482e+00 -7.835124e+00 -1.311911e+01 -4.599658e+00 -1.087280e+01 -1.641984e+01 -1.578291e+01 -1.364357e+01 9.604702e-01 5.602624e-01 -5.616226e-01 3.876621e-01 -3.064883e-01 -9.381069e-01 1.826997e+00 -5.661202e-03 7.647630e-01 -1.489675e+00 -3.441300e+00 -2.597922e+00 1.734934e+00 1.735380e+00 6.207532e-03 
1.301114e+01 5.553582e+00 -2.502706e+00 -3.273304e+00 -5.550006e+00 -1.469297e+01 -4.485193e+00 -1.278076e+01 -1.723940e+01 -1.515148e+01 -1.595914e+01 1.756324e+00 5.560874e-01 -1.047316e+00 2.269239e-01 4.925088e-01 9.237665e-01 1.000612e+00 2.043911e-01 -3.113553e-01 -1.956914e+00 -1.613217e+00 -1.249006e+00 6.172345e-01 1.034438e+00 -3.829140e-03 
1.106602e+01 6.678771e+00 6.614220e-01 -3.261815e+00 -4.908459e+00 -1.112108e+01 -4.939932e+00 -1.536067e+01 -1.872861e+01 -1.705364e+01 -1.270736e+01 7.347734e-01 5.427788e-01 -8.393971e-01 6.630846e-02 6.547418e-01 1.501527e+00 1.049298e+00 5.015114e-01 -9.040552e-01 -3.379332e-01 -4.806291e-01 2.135124e-02 -6.282293e-01 -9.844356e-01 -1.498145e-02 
1.024116e+01 5.938486e+00 2.363485e+00 5.629995e+00 -1.602159e+00 -1.093603e+01 -8.194712e+00 -1.519433e+01 -2.036993e+01 -1.527442e+01 -1.593145e+01 -1.100705e+00 5.245155e-01 -4.406515e-01 5.948567e-01 4.870958e-01 9.417189e-01 1.257324e+00 2.251402e-01 -3.040257e-02 6.018646e-01 1.845611e+00 1.260490e+00 -4.033212e-01 -3.673229e-01 -2.664341e-02 
1.121300e+01 6.239951e+00 -1.575490e+00 1.251502e+00 -4.562560e+00 -1.249002e+01 -7.265175e+00 -1.135568e+01 -1.725772e+01 -1.561468e+01 -1.679856e+01 -2.533193e+00 5.011411e-01 -4.205998e-01 2.313018e-01 6.013205e-02 3.006648e-01 1.571851e+00 -2.416954e-02 3.501997e-01 1.056893e+00 3.545640e+00 2.973928e+00 -1.947578e-01 6.718670e-01 -5.266341e-02 
1.073439e+01 8.747276e+00 1.051229e+00 -8.213672e-01 5.636649e-01 -1.288280e+01 -3.474585e+00 -1.177393e+01 -8.746789e+00 -9.568511e+00 -1.593014e+01 1.553693e+00 4.436892e-01 -8.502728e-01 -2.330138e-01 1.516139e-01 -5.630563e-01 5.783252e-01 -7.160549e-02 6.917011e-01 7.979244e-01 3.844731e+00 2.973211e+00 1.544308e+00 1.343791e+00 -7.477541e-02 
8.716399e+00 6.430885e+00 1.618211e+00 1.467190e+00 1.867882e+00 -1.026854e+01 -5.548997e+00 -1.178640e+01 -6.811981e+00 -5.036955e+00 -1.368180e+01 2.766909e+00 3.198749e-01 -1.606333e+00 -8.222071e-01 9.907869e-01 7.057678e-01 3.029204e-01 5.840853e-01 3.672718e-01 7.885371e-01 1.953151e+00 3.043884e+00 2.433937e+00 9.397991e-01 -9.329789e-02 
7.238092e+00 4.677949e+00 1.524704e+00 2.706869e+00 -1.925754e+00 -1.240480e+01 -5.594296e+00 -1.098935e+01 -6.369148e+00 -5.697231e+00 -9.768285e+00 2.968197e+00 2.412716e-01 -1.970516e+00 -1.322333e+00 -6.590190e-02 6.757872e-01 -3.243361e-02 1.179149e+00 -7.648329e-01 1.729975e+00 9.998289e-01 1.410412e+00 2.583709e+00 -7.406648e-01 -9.999836e-02 
4.929489e+00 4.163579e+00 3.141707e+00 3.016222e+00 -1.803248e+00 -9.808594e+00 -4.368960e+00 -7.805290e+00 -8.680788e+00 -2.330902e+00 -7.709803e+00 1.458551e+00 1.358604e-01 -1.828573e+00 -1.262762e+00 1.035881e-02 8.862523e-01 1.163686e+00 1.811178e+00 1.451843e-01 2.498490e+00 1.241001e+00 1.075893e+00 3.367392e+00 6.374127e-01 -8.337432e-02 
2.775269e+00 3.269266e+00 -4.002881e-02 1.783052e+00 2.237062e+00 -7.217029e+00 -7.888767e+00 -5.114609e+00 -2.813241e+00 -3.869476e+00 -5.997593e+00 -1.495452e+00 3.570467e-02 -1.677069e+00 -1.413065e+00 -5.711746e-01 4.784205e-01 1.866438e+00 3.302693e+00 2.498316e+00 3.446400e+00 1.568697e+00 2.156845e+00 2.646884e+00 2.577548e-02 -6.406240e-02 
1.804945e+00 8.214173e-01 2.452371e+00 6.360360e+00 5.604904e+00 -3.806538e+00 -3.675839e+00 -2.231316e+00 -2.384928e+00 -5.713663e-01 1.269816e+00 8.185798e+00 5.786777e-03 -1.622980e+00 -1.755896e+00 -8.920881e-01 -2.350328e-01 1.387783e+00 3.789959e+00 4.023773e+00 3.081256e+00 1.763061e+00 2.703702e+00 2.324540e+00 -5.619757e-01 -4.069974e-02 
4.150200e-01 -7.162952e-01 -9.865010e-01 3.426903e+00 3.702360e+00 1.107636e+00 6.550725e+00 3.455667e+00 -1.673593e+00 4.207226e+00 -1.023674e+00 -2.665489e-01 -1.400363e-02 -1.110543e+00 -1.380679e+00 2.519204e-01 -2.095867e-01 -3.799555e-02 2.688574e+00 3.658292e+00 2.002363e+00 6.340469e-01 1.982553e+00 7.224776e-01 -1.148566e+00 -1.784717e-02 
-2.005285e+00 -2.623119e+00 -8.454974e-01 1.019133e+00 4.403017e+00 4.978868e+00 8.530160e+00 3.315852e+00 -4.353087e-01 7.149255e+00 1.425936e+00 -1.965779e+00 -4.278409e-02 -7.143437e-01 -5.905704e-01 -3.238090e-01 -6.269518e-01 -8.799591e-02 1.292188e+00 1.738944e+00 6.694900e-01 -4.411696e-01 8.724982e-01 -1.422168e-01 -1.488580e+00 -1.732318e-02 
-8.723307e-01 -1.911859e+00 2.868508e+00 3.405732e+00 2.648027e+00 1.833139e+00 4.299696e+00 2.123622e+00 -6.178156e-01 2.182976e+00 -2.463264e+00 -2.162493e+00 -2.924573e-02 -4.326609e-01 5.453274e-01 5.277244e-01 6.934911e-01 1.087759e+00 1.167139e-01 -1.265758e+00 -4.742201e-01 -3.525247e-01 -7.406778e-01 -4.659077e-01 5.168914e-01 -1.435343e-02 
-1.123098e+00 -1.533653e+00 -1.094178e+00 3.236186e+00 5.692091e+00 2.291652e+00 6.144394e+00 1.782156e+00 -5.118664e+00 4.803249e+00 1.278527e+00 1.690867e+00 -7.320809e-02 -1.951660e-01 1.106574e+00 5.153503e-01 6.911095e-01 8.487003e-01 -2.520752e-01 -3.988435e-01 6.892152e-01 -4.127033e-01 -6.511886e-01 -3.947457e-01 6.431786e-01 -1.680733e-02 
-2.189378e+00 1.465609e+00 1.776461e+00 5.785832e+00 8.496617e+00 3.034814e+00 1.414818e+00 1.851414e+00 -1.094539e+00 1.676840e+00 -3.279508e+00 4.895847e-01 -7.055879e-02 -6.076013e-01 1.192166e+00 -4.827433e-02 -4.744918e-01 1.187237e+00 2.168887e-01 6.778440e-01 1.063598e+00 1.490396e-01 3.602427e-01 9.411768e-01 7.101221e-01 -1.895876e-02 
-2.322592e+00 1.221015e+00 2.277277e+00 3.284631e+00 5.722224e+00 3.117654e+00 7.978381e+00 6.898032e+00 -2.260464e+00 4.146380e+00 -1.396708e-01 -7.592511e-02 -1.061642e-01 -5.261006e-01 1.032015e+00 2.017576e-01 -1.290429e+00 -2.219976e-01 1.222245e-01 2.001546e-01 -7.861173e-02 1.201254e+00 5.536672e-01 6.289265e-01 4.628755e-01 -1.428481e-02 
-3.310591e+00 2.671635e+00 9.414084e-01 1.009051e+00 8.569143e+00 2.504581e+00 6.771923e+00 4.883674e+00 -1.301718e+00 4.312624e+00 2.951719e+00 2.271514e+00 -1.075615e-01 -2.854984e-01 8.876531e-01 -2.600082e-01 -6.952041e-01 -1.780562e-01 6.138408e-01 3.365507e-01 -1.220628e+00 2.070496e-01 -2.264819e-01 8.610266e-01 9.084689e-01 -1.178913e-02 
-3.192995e+00 3.023410e+00 3.321364e-01 -8.275670e-01 4.545839e+00 3.167890e+00 4.466615e+00 -1.270320e-01 9.911945e-01 6.253694e+00 1.307546e+00 3.114280e+00 -1.261308e-01 -3.015508e-01 7.500985e-01 -6.069755e-01 -9.210514e-01 -4.785871e-01 -3.256836e-02 -1.547317e+00 -2.210568e+00 -3.847105e-01 -1.513898e-01 7.280148e-01 6.168358e-01 -5.987751e-03 
-3.181668e+00 5.002676e+00 1.448991e+00 4.365911e+00 8.194529e+00 6.078899e+00 4.853455e+00 -7.391951e-01 -1.685120e+00 -5.092263e-01 3.020167e-01 3.436827e+00 -1.195211e-01 -1.953889e-01 3.209235e-01 5.310274e-01 -1.416930e-01 -1.681424e-01 3.615583e-01 -6.559075e-01 -1.020738e+00 -1.128618e+00 2.733048e-01 2.812321e-01 6.594980e-01 -4.119134e-03 
-3.894807e+00 3.805987e+00 -1.011391e+00 -2.999055e+00 3.516596e+00 1.167654e+00 1.201029e+00 -1.343372e+00 -3.992315e+00 5.800356e+00 4.825254e+00 2.425597e+00 -1.301231e-01 -2.189938e-01 2.970311e-01 1.126615e+00 5.474684e-01 1.015219e+00 3.566708e-01 -3.341335e-01 2.030707e-01 -3.293887e-01 2.174697e-01 3.496905e-01 7.750254e-01 4.980683e-04 
-3.936629e+00 3.884964e+00 4.268309e+00 1.386330e+00 8.243053e+00 5.312491e+00 5.125177e+00 3.881520e-01 -4.453052e+00 5.905816e+00 2.599025e+00 5.913345e+00 -1.261610e-01 -2.830702e-01 -2.325496e-01 4.609185e-01 1.039419e-02 1.867900e-01 3.084641e-01 -1.189509e-01 8.977338e-01 6.306712e-01 7.894124e-01 4.290715e-01 4.202142e-01 1.284218e-03 
-3.910483e+00 5.067421e+00 4.555553e+00 3.399565e+00 9.597672e+00 5.334449e+00 2.660086e+00 3.246478e-01 7.282169e-01 4.133521e+00 1.907495e+00 5.751148e+00 -1.203206e-01 -4.093647e-02 2.628948e-01 2.183561e-01 1.551653e+00 1.251139e+00 1.630496e+00 6.668193e-01 9.797357e-01 1.572493e+00 -6.292049e-01 -5.781811e-01 -1.033004e+00 5.690598e-03 
-4.589181e+00 3.209212e+00 9.701107e-01 1.218571e+00 6.087940e+00 5.537823e+00 3.529172e+00 2.915464e+00 -8.920296e-01 4.271254e+00 3.906254e+00 3.875123e+00 -1.180013e-01 -3.525461e-01 3.665477e-01 -5.861000e-01 5.592264e-01 6.432927e-01 1.052306e+00 8.213747e-01 9.653568e-01 1.473822e+00 -2.230579e-01 -1.434418e-01 -1.040982e+00 7.039225e-03 
-3.773213e+00 5.458337e+00 1.729488e+00 4.843090e+00 1.084985e+01 9.207468e+00 5.333129e+00 2.291651e+00 2.089641e+00 3.471613e+00 1.280733e+00 -1.720311e+00 -1.057500e-01 8.519743e-01 2.059983e-01 -1.979590e+00 -1.584042e+00 -2.249715e-01 -1.926725e-02 4.257016e-01 3.911169e-01 4.862488e-01 6.680584e-03 2.485910e-01 2.537172e-01 4.634917e-03 
-5.767995e+00 5.522244e+00 2.750842e+00 3.460700e+00 1.083343e+01 8.637510e+00 7.895530e+00 4.231435e+00 2.235346e+00 5.121480e+00 2.195197e+00 4.444168e+00 -9.825015e-02 1.764553e+00 4.499447e-01 -1.311948e+00 -2.212814e+00 -7.168497e-01 -4.307893e-01 -4.326401e-01 -8.877765e-01 1.796841e-01 1.722626e-01 3.496401e-01 1.167589e+00 3.601277e-03 
9.387951e-01 4.940896e+00 -6.232761e+00 -5.641710e+00 6.100070e+00 3.688268e+00 2.605415e+00 1.622247e+00 1.595773e+00 3.741811e+00 4.005979e+00 6.735211e+00 -1.070216e-01 4.171032e-01 -2.889472e-01 -1.379310e-01 -9.971651e-01 6.091076e-01 2.236594e-01 -1.096738e+00 -1.029479e+00 2.964990e-01 1.207666e+00 9.626840e-01 1.172445e+00 -2.625525e-03 
1.877582e+00 5.717656e+00 -1.608503e+00 -4.603101e+00 4.878582e+00 6.143476e+00 2.729828e+00 -1.188717e+00 2.533247e-01 4.997468e+00 4.291832e+00 5.485304e+00 -9.935915e-02 -5.934262e-01 -4.237699e-01 1.038959e+00 1.038780e+00 2.285151e+00 1.375506e+00 -1.109961e+00 -1.052212e+00 7.622973e-01 1.473107e+00 6.741134e-01 -4.759508e-01 -5.144739e-03 
-5.510486e+00 3.915895e+00 3.219506e+00 3.889165e+00 1.687281e+01 1.157278e+01 2.432289e+00 -1.456690e-01 4.563146e+00 9.571947e+00 5.045835e+00 3.621346e+00 -1.183231e-01 -2.028663e+00 -3.851762e-01 2.373254e+00 2.755402e+00 3.353971e+00 2.119833e+00 -6.437914e-02 -2.492784e-01 1.024457e+00 1.623475e+00 2.833716e-01 -8.091689e-01 -4.156697e-03 
