-8.977457e+00 1.604923e+00 1.867864e+00 -3.775983e-01 7.882072e+00 7.564368e+00 9.585482e-02 -1.505486e+00 -1.643731e+00 3.439935e+00 -1.176293e+00 7.428666e+00 -1.512927e-01 -1.919849e-01 -2.332577e-01 -1.655617e+00 -9.197949e-01 -2.570132e-01 -2.818034e+00 8.416048e-01 2.112880e+00 4.493503e-01 5.637110e-01 9.220354e-01 -1.822072e+00 0.000000e+00 
-9.383123e+00 -6.837157e-01 -3.118527e+00 -1.871439e+00 7.035093e+00 -2.270137e+00 1.621278e+00 3.760005e+00 -2.424875e+00 3.805017e+00 7.154359e-01 3.274558e+00 -1.512927e-01 -4.674583e-01 -7.388381e-02 -1.478403e+00 -9.402424e-01 -7.946770e-01 -3.678205e+00 8.255737e-01 2.178424e+00 -3.813831e-01 7.813867e-01 1.730495e+00 -4.843280e-01 0.000000e+00 
-9.734549e+00 1.582953e+00 -3.917027e+00 -4.229652e+00 7.020496e+00 -1.608548e+00 3.541168e+00 6.426167e+00 9.935927e-01 6.075949e+00 2.488020e+00 3.953604e-01 -1.512927e-01 -3.205572e-01 -2.949941e-01 -1.287432e+00 -1.193592e+00 -5.984333e-01 -1.929133e+00 1.845083e+00 2.736258e+00 6.407256e-01 1.442336e+00 1.321142e+00 7.627099e-01 0.000000e+00 
-1.093620e+01 1.246488e+00 -2.631707e+00 -3.152783e+00 4.339476e+00 -6.240201e+00 2.501067e+00 5.420807e+00 -4.869308e+00 6.028861e+00 5.644027e+00 8.523680e+00 -1.512927e-01 -2.755671e-01 -3.225578e-01 -2.098381e-01 -2.606933e-01 7.039713e-01 4.823799e-01 1.091746e+00 1.204382e+00 9.773663e-01 1.495422e+00 5.068827e-02 7.152401e-01 0.000000e+00 
-9.803703e+00 -8.351499e-01 -4.812708e+00 -5.704885e+00 6.237715e+00 -9.626532e-02 8.881375e+00 1.134540e+01 2.782113e+00 9.539694e+00 2.965123e+00 8.617655e+00 -1.512927e-01 -1.184191e-01 -5.419288e-01 8.765722e-03 3.234951e-01 3.652209e-01 4.113984e-01 7.115777e-01 -1.907438e-01 -1.329796e-01 1.275284e-01 -1.183464e+00 4.468589e-01 0.000000e+00 
-1.072638e+01 -1.087453e+00 -3.719877e+00 -2.437289e+00 1.094634e+01 -6.143785e-01 4.409904e+00 7.322296e+00 1.567696e+00 9.550255e+00 7.303258e-01 2.739611e+00 -1.512927e-01 -5.061531e-03 -3.361316e-01 2.099647e-01 -7.162339e-01 5.533612e-01 1.908225e+00 -8.812730e-01 -1.201274e+00 4.286175e-01 -4.852346e-01 -4.922911e-01 -4.597341e-01 0.000000e+00 
-1.043155e+01 4.028042e-02 -3.329114e+00 -2.969923e+00 5.543169e+00 -2.364467e+00 6.144638e+00 4.521703e+00 -2.889807e+00 4.952894e+00 -9.724520e-01 5.521689e+00 -1.512927e-01 -4.692299e-01 2.098742e-01 1.986929e+00 -5.204530e-01 8.559548e-01 1.523967e+00 -2.544708e+00 -2.760399e+00 -7.735527e-01 -2.220358e+00 1.261007e+00 -4.058479e-01 2.335739e-03 
-1.064758e+01 -8.718847e-01 -2.323681e+00 -8.101434e+00 7.453555e+00 4.435026e+00 -5.369288e-01 2.826289e+00 1.097398e-01 5.896088e+00 5.151359e+00 7.772992e+00 -1.512927e-01 -2.107195e-01 1.027690e+00 6.740223e-01 2.879086e-02 1.028776e-01 7.011732e-01 -2.033493e+00 -1.113021e+00 -8.083194e-01 -2.108101e+00 1.036334e+00 1.019440e+00 4.108333e-03 
-1.218925e+01 1.064373e-01 4.423838e+00 -5.475078e+00 1.226388e+01 4.998867e+00 -1.368749e+00 -2.085875e-01 -3.566723e-01 2.649881e-01 7.059641e+00 4.071725e+00 -1.396140e-01 -9.011288e-02 1.295092e+00 -2.666350e-01 9.030142e-01 4.291819e-01 3.912973e-01 -3.931085e-01 9.253122e-01 1.439857e-01 -1.447438e-01 -2.628896e-01 -1.047888e+00 1.470232e-03 
-1.090113e+01 4.017918e+00 -4.226241e+00 -1.040757e+00 8.100372e+00 -7.901793e-01 -2.000867e+00 4.122335e+00 -3.740468e+00 1.353705e+00 1.895949e+00 8.561794e+00 -1.365904e-01 1.328221e+00 1.211853e+00 -1.617821e+00 6.557097e-01 -1.188307e+00 -1.835088e+00 1.734887e+00 1.571638e+00 -4.851288e-01 9.702730e-03 -3.832570e+00 -2.710188e+00 -1.167870e-03 
-1.075535e+01 4.070837e+00 -3.711008e+00 -1.985191e+00 7.365670e+00 2.204622e+00 4.911064e+00 8.500241e+00 -2.447748e-01 6.500367e+00 -6.591954e-01 -1.121516e-01 -1.512927e-01 2.382677e+00 6.115931e-01 -1.936819e+00 -1.245313e+00 -2.384120e+00 -1.627670e+00 2.084697e+00 1.568660e+00 -5.445023e-01 -2.525887e-01 -4.660405e+00 -2.825556e+00 -3.805971e-03 
-4.723435e+00 3.205181e+00 -6.345364e+00 -6.567828e+00 3.961128e+00 -3.343293e+00 4.997599e+00 6.330067e+00 -2.371853e+00 2.826912e+00 -1.015207e+01 -3.686010e+00 -1.512927e-01 2.170129e+00 -3.758488e-01 -1.032187e+00 -2.722415e+00 -1.886801e+00 -1.136005e+00 4.200121e-01 6.221388e-01 6.366023e-01 -1.067937e+00 -2.020787e+00 -3.087659e+00 -2.940464e-03 
-3.364716e+00 3.570771e+00 -4.200695e+00 -8.938107e+00 2.412905e+00 -1.862925e+00 5.555500e+00 6.530845e+00 -3.763491e+00 -1.734559e+00 -1.021837e+01 -3.932154e+00 -1.512927e-01 1.780380e+00 -3.359014e-01 -1.202903e+00 -1.097160e+00 -1.785540e+00 -1.258805e+00 -9.105461e-01 -5.960824e-01 -6.295230e-01 -1.750953e+00 -1.277313e+00 -1.528525e+00 0.000000e+00 
-3.745800e+00 2.388707e+00 -9.142333e+00 -1.117638e+01 1.142751e+00 -4.436431e+00 -2.230252e-01 8.217728e+00 1.201901e+00 1.314829e-01 -3.428396e+00 -4.966502e+00 -1.512927e-01 6.033474e-01 -2.316008e-01 -5.968375e-01 -7.652115e-01 -1.762580e+00 -6.499520e-01 -4.401288e-01 7.389098e-01 6.525555e-01 -5.941561e-01 1.028204e+00 2.413785e-01 0.000000e+00 
-2.342263e+00 2.799567e+00 -8.327039e+00 -5.166716e+00 -1.528416e-01 -3.542832e+00 2.968646e+00 4.575999e+00 -5.179267e+00 -9.066821e-01 -1.040760e+01 -7.114530e+00 -1.512927e-01 5.686156e-01 -3.833582e-01 -6.370243e-01 -2.835636e-01 -1.852528e+00 -5.672237e-01 -6.249169e-01 8.322291e-02 6.424783e-01 1.690051e-01 1.649219e+00 9.024166e-01 0.000000e+00 
-2.217925e+00 2.432779e+00 -7.266379e+00 -1.227958e+01 -3.568900e+00 -5.753099e+00 4.090383e+00 1.100204e+01 1.598812e+00 -5.578072e-01 -4.916440e+00 -8.879297e-01 -1.512927e-01 7.680531e-01 1.454647e-01 5.202054e-01 1.123971e-01 -1.233015e+00 -4.579192e-03 2.994305e-01 -8.813701e-02 -4.657249e-01 2.441577e-01 9.015781e-01 7.721347e-01 0.000000e+00 
-1.285576e+00 1.631944e+00 -8.323793e+00 -9.804323e+00 -4.493910e+00 -4.040709e+00 2.742119e-01 5.554804e+00 -7.495546e-01 -5.448891e-01 -1.228257e+00 -1.459358e+00 -1.512927e-01 4.399136e-01 2.944728e-01 1.139734e+00 4.712894e-02 -5.279877e-01 -6.177415e-01 -1.399492e+00 -1.263453e+00 -3.234131e-01 9.495579e-01 3.866891e+00 1.691229e+00 0.000000e+00 
-4.338784e-01 3.699842e+00 -6.542929e+00 -8.295589e+00 -2.851792e+00 -4.210389e+00 2.621344e+00 7.287640e+00 -3.341579e+00 1.171375e+00 -3.510179e+00 -3.933415e+00 -1.512927e-01 5.463557e-01 9.788927e-01 2.112868e+00 1.583228e+00 1.790995e+00 -3.816412e-02 -1.002898e+00 -2.396476e+00 -1.964584e+00 3.180606e-02 4.492451e+00 5.763178e-01 2.204323e-03 
-1.034718e+00 3.638400e+00 -2.990094e+00 -6.923067e+00 -3.151334e+00 -7.402895e+00 -3.294296e+00 1.159307e-01 -4.326136e+00 2.976516e+00 8.223721e+00 2.864355e+00 -1.512927e-01 9.311317e-01 1.706353e+00 2.672894e+00 2.434755e+00 3.417576e+00 2.023788e-01 -2.617180e-01 -9.501559e-01 -8.462771e-01 -3.622306e-01 3.584512e+00 1.433543e+00 1.548653e-02 
3.884249e-01 6.324015e+00 6.311107e-01 -5.804070e+00 4.714785e+00 -4.262827e+00 8.601462e-01 1.739094e+00 -6.435816e+00 -2.159480e+00 1.281983e+01 -1.681968e-01 -1.402711e-01 2.902469e+00 2.875280e+00 2.395913e+00 1.777963e+00 1.100904e+00 -6.525365e-01 3.248357e-01 -1.530651e+00 -1.053074e+00 -1.885818e+00 1.528377e+00 1.733534e+00 9.110111e-02 
2.958931e+00 8.851624e+00 1.453657e+00 1.123692e+00 8.810681e+00 -3.002596e+00 -1.537791e-01 3.578298e+00 -3.433822e+00 -6.906152e-01 8.529297e+00 3.825751e+00 -7.937086e-02 4.866023e+00 1.516855e+00 2.476555e-01 2.193813e+00 -1.511896e+00 -1.164743e+00 1.211259e+00 -1.959460e+00 -1.238164e+00 -1.716715e+00 2.671604e-02 1.256239e-01 1.673698e-01 
1.208164e+01 1.546963e+01 3.214760e+00 -3.429154e+00 -3.328282e+00 -9.673221e+00 2.675264e+00 -2.096798e+00 -9.053106e+00 -6.424149e+00 3.978920e+00 4.253556e+00 2.682520e-01 4.469202e+00 -9.961349e-01 -8.860377e-01 2.263886e+00 -4.716602e+00 -1.829841e+00 7.547665e-01 -3.842073e+00 -2.104433e-01 -1.385356e+00 2.328850e-01 2.107621e-01 1.849401e-01 
1.744879e+01 6.649868e+00 -3.043641e+00 2.858539e+00 -6.689279e+00 -1.052141e+01 1.854437e+00 -7.763423e+00 -9.208313e+00 -3.474725e+00 1.277775e+01 1.281598e+00 4.812950e-01 2.737161e+00 -3.295621e+00 -7.016379e-01 1.286284e+00 -5.782797e+00 -1.753996e+00 1.372017e+00 -3.483735e+00 1.754937e-01 -1.125394e+00 6.398863e-01 -8.173620e-01 1.554576e-01 
1.548951e+01 2.444218e+00 -1.550429e+00 4.647937e+00 -1.111825e+01 -9.652626e+00 3.629870e+00 -1.180041e+01 -4.600787e+00 -7.694202e+00 1.186002e+01 2.157691e+00 5.040967e-01 1.258452e-01 -4.127815e+00 2.457740e-01 1.225248e+00 -3.933529e+00 -2.232449e-01 1.159863e+00 -2.138669e+00 1.643052e+00 9.739790e-02 6.099985e-01 -4.965695e-01 8.141917e-02 
1.494080e+01 -1.113780e+00 3.280627e-01 3.516566e+00 -1.620832e+01 -1.178287e+01 6.229001e+00 -8.988574e+00 -4.782513e+00 -5.682556e+00 7.788177e+00 7.868741e-01 5.799946e-01 -1.691501e-01 -1.082034e+00 7.135908e-01 -7.496155e-01 -2.542697e+00 -1.238737e-01 6.102141e-01 -1.326825e+00 1.548092e+00 4.856600e-01 -3.498217e-01 -4.833557e-01 4.703255e-02 
1.396486e+01 -1.287624e+00 2.757778e+00 2.368073e+00 -1.823641e+01 -1.015872e+01 6.287298e+00 -1.217757e+01 -3.050746e+00 -4.833244e+00 9.523701e+00 2.018071e+00 6.259980e-01 7.890364e-01 8.616999e-01 -3.039288e-01 -1.608700e+00 -1.671941e+00 2.640080e-01 -3.361216e-01 -1.571527e+00 2.416144e+00 1.957358e+00 -9.371964e-01 -8.290378e-01 4.538812e-02 
1.736536e+01 3.105620e+00 -1.629791e+00 2.503929e-01 -1.584369e+01 -1.088774e+01 3.576794e+00 -1.420897e+01 -2.242872e+00 -2.476904e+00 1.219681e+01 -1.065371e+00 6.555071e-01 8.776556e-01 1.348399e+00 -3.423459e-01 -2.152915e+00 -2.670553e+00 2.262044e+00 -1.125981e+00 -5.546991e-01 3.226396e+00 1.325373e+00 -1.561499e+00 -1.448326e-01 4.023720e-02 
1.822241e+01 4.643018e+00 -2.091146e+00 -1.762475e+00 -1.966027e+01 -8.780153e+00 3.275366e+00 -1.704785e+01 6.210114e+00 4.897639e-01 4.969726e+00 -1.061376e+00 6.932811e-01 3.707388e-01 2.579391e-01 -1.491853e-01 -2.990214e+00 -3.468255e+00 3.756813e+00 -3.872795e-01 8.434427e-01 3.849755e+00 1.031634e-01 -2.843788e+00 -2.293715e-02 4.464342e-02 
1.720031e+01 2.662895e+00 1.040796e+00 -5.182734e+00 -2.884915e+01 -1.161931e+00 2.105062e+00 -9.326930e+00 6.719039e+00 -1.717193e+00 2.257669e+00 1.602434e+00 7.475390e-01 -7.286202e-01 -1.122002e+00 3.141426e-01 -2.841564e+00 -3.822395e+00 5.118039e+00 8.116611e-01 1.701096e+00 2.698966e+00 -1.048789e+00 -3.163978e+00 2.987032e-01 4.536303e-02 
1.590108e+01 2.234347e-01 6.765590e-01 -9.866433e+00 -2.907495e+01 3.762448e+00 5.086766e+00 -1.040137e+01 1.171707e+01 -4.697283e+00 2.743294e-01 5.694823e-01 8.031992e-01 -1.043032e+00 -1.779290e+00 2.046974e-01 -2.754626e+00 -1.979576e+00 4.776231e+00 1.187761e+00 1.697527e+00 1.297870e+00 -2.347472e+00 -2.240841e+00 -1.355550e-01 4.366741e-02 
1.488292e+01 -2.945979e-01 -1.442930e+00 -9.905446e+00 -3.024833e+01 8.431154e+00 6.729399e+00 -9.026727e+00 8.498480e+00 -5.127326e+00 -1.275386e+00 -3.872838e-01 8.273632e-01 -6.714646e-01 -2.297372e+00 -4.721613e-01 -1.849636e+00 -1.247631e-01 4.365957e+00 1.575098e+00 -8.253361e-01 1.030274e+00 -2.751591e+00 -1.253350e+00 -9.632575e-02 4.315399e-02 
1.416594e+01 -2.774687e+00 1.742036e-01 -1.317425e+01 -2.885857e+01 1.030446e+01 6.902000e+00 -8.710315e+00 1.180974e+01 -9.542527e+00 -4.467953e+00 -7.442917e-01 8.717060e-01 -3.389035e-01 -2.256636e+00 -6.591487e-01 -9.241344e-01 7.273639e-01 4.169108e+00 2.502357e-01 -8.289436e-01 -7.830482e-01 -1.578154e+00 -1.801935e-01 2.391870e-01 3.345961e-02 
1.471055e+01 -7.324905e+00 -1.068833e+00 -1.277701e+01 -2.958116e+01 1.739685e+01 9.072933e+00 -1.429914e+01 1.182407e+01 -1.305253e+01 -1.637938e+00 1.777693e+00 9.290556e-01 -2.860184e-01 -1.840350e+00 -8.307438e-01 -7.377120e-01 2.359310e+00 2.825511e+00 -9.873700e-02 -1.462862e+00 -1.494259e+00 2.558403e-01 -8.019485e-02 5.361210e-01 1.977139e-02 
1.429275e+01 -7.544590e+00 -2.806233e+00 -1.305132e+01 -2.577171e+01 2.012514e+01 5.166178e+00 -1.190989e+01 6.139037e+00 -8.625453e+00 -4.453616e-01 6.829290e-01 9.196510e-01 -3.384331e-01 -1.277142e+00 -1.297463e+00 -2.567148e-02 3.139714e+00 1.521338e+00 -8.653498e-02 -1.836306e+00 -2.106253e+00 1.597337e+00 3.036962e-01 4.414971e-01 1.131861e-02 
1.338943e+01 -7.111398e+00 -4.106431e+00 -1.365547e+01 -1.999520e+01 1.764837e+01 7.103625e+00 -1.474125e+01 3.862537e+00 -4.306661e+00 -3.687656e+00 1.579711e+00 9.022476e-01 -5.060688e-01 -1.156035e+00 -8.064303e-01 -1.103804e-01 3.594156e+00 1.222446e-01 -1.408522e-01 -1.901161e+00 -1.381003e+00 1.977804e+00 4.562677e-01 -6.359363e-01 1.432678e-02 
1.313434e+01 -9.267149e+00 -4.794312e+00 -1.286338e+01 -1.795297e+01 1.778539e+01 7.453979e+00 -1.767079e+01 5.259249e+00 -5.928773e+00 -1.924613e+00 1.562185e+00 9.417030e-01 -7.392361e-01 -1.263769e+00 -5.182270e-01 1.703331e-01 3.046071e+00 -6.652851e-02 -5.754697e-01 -2.341448e+00 -6.559162e-02 1.854506e+00 7.850109e-01 -1.737679e+00 2.120703e-02 
1.275941e+01 -1.224380e+01 -4.106946e+00 -1.342288e+01 -1.551975e+01 1.917795e+01 7.224771e+00 -2.092449e+01 5.358952e+00 -4.511850e+00 1.383026e+00 -1.841617e+00 9.896635e-01 -9.260464e-01 -1.104164e+00 -7.278379e-01 1.174216e+00 2.021638e+00 -1.384321e-01 -1.788492e+00 -1.646237e+00 6.802509e-01 1.991935e+00 1.108901e+00 -2.664589e+00 2.232823e-02 
1.091157e+01 -1.129723e+01 -5.397111e+00 -1.231595e+01 -1.277909e+01 1.902771e+01 2.228256e+00 -2.052551e+01 5.062872e+00 7.496738e-01 9.443525e-01 -6.294800e+00 9.819782e-01 -7.334154e-01 -6.153701e-01 -1.222891e+00 2.556422e+00 1.112629e+00 -7.773277e-01 -2.939344e+00 -6.971844e-01 1.648558e+00 1.955238e+00 2.434179e-01 -2.945817e+00 8.309769e-03 
9.870579e+00 -1.161718e+01 -7.444221e+00 -8.058104e+00 -1.247396e+01 1.633505e+01 7.740290e-01 -2.154508e+01 7.361980e+00 2.313793e+00 4.223663e-01 -7.814744e+00 9.937512e-01 -4.242598e-01 -6.508943e-01 -6.238075e-01 2.745292e+00 5.069858e-01 -1.491053e+00 -3.565269e+00 1.032430e+00 1.858389e+00 1.700497e+00 -1.530130e+00 -1.957450e+00 8.535028e-04 
1.091168e+01 -1.265731e+01 -9.240130e+00 -2.763657e+00 -1.391273e+01 1.532020e+01 -4.017370e+00 -2.084642e+01 1.250052e+01 4.345943e-01 -2.271941e-01 -1.018034e+01 9.812080e-01 -6.133408e-02 -9.810300e-01 4.559560e-01 2.503107e+00 -2.182232e-01 -2.089104e+00 -3.202671e+00 2.764762e+00 1.612938e+00 6.059098e-01 -2.284950e+00 -1.373884e+00 -9.437203e-04 
1.063806e+01 -1.481823e+01 -5.304473e+00 -4.472572e+00 -1.241800e+01 1.357644e+01 -7.478763e+00 -1.560189e+01 1.093207e+01 4.148173e+00 -5.681849e+00 -9.686098e+00 9.943161e-01 -9.217241e-02 -8.003706e-01 1.310855e+00 1.754852e+00 -2.733501e-01 -2.304638e+00 -2.584180e+00 3.930005e+00 1.609955e-02 7.484223e-01 -2.639585e+00 -1.226134e+00 -1.873136e-03 
1.022116e+01 -1.460186e+01 -4.187204e+00 -1.593186e+00 -1.389818e+01 9.961493e+00 -9.658702e+00 -9.673288e+00 1.134252e+01 2.862032e+00 -7.428292e+00 -1.222854e+01 9.769772e-01 -3.291981e-01 -6.927629e-01 1.904384e+00 8.496000e-01 1.593750e-01 -2.413726e+00 -1.932428e+00 4.217977e+00 -1.463733e+00 3.615541e-01 -2.163493e+00 -3.163922e-01 2.976876e-03 
9.754975e+00 -1.464676e+01 -3.416406e+00 1.309209e-01 -1.384798e+01 7.491210e+00 -9.326205e+00 -7.481615e+00 8.021482e+00 4.842185e+00 -9.175012e+00 -1.292131e+01 9.865009e-01 -2.417551e-01 -9.694605e-02 1.218460e+00 1.012379e+00 9.851780e-02 -2.024104e+00 -2.063339e+00 3.860885e+00 -1.532384e+00 -1.242662e+00 -7.095057e-01 8.705082e-01 -6.559795e-03 
9.707233e+00 -1.620686e+01 -6.622459e-01 -8.174033e-01 -1.240086e+01 6.294182e+00 -1.275579e+01 -3.816669e+00 6.637151e+00 1.895359e+00 -9.298077e+00 -1.014469e+01 1.000000e+00 -2.510711e-01 3.314652e-01 9.946848e-01 6.192757e-01 3.185270e-01 -1.697807e+00 -1.972665e+00 2.923408e+00 -1.840696e+00 -1.409262e+00 3.720423e-01 1.783402e+00 -1.143570e-02 
9.686252e+00 -1.450046e+01 -9.746506e-01 2.014341e-01 -1.267407e+01 5.289575e+00 -1.624691e+01 7.742265e-01 5.622832e+00 -1.581800e+00 -8.294486e+00 -6.375482e+00 9.500057e-01 -4.058011e-02 5.424245e-01 1.310763e+00 3.655341e-01 5.954100e-01 -1.712628e+00 -2.415112e+00 1.846664e+00 -1.570573e+00 -1.500544e+00 1.041598e+00 2.096316e+00 -2.265503e-02 
9.000169e+00 -1.301768e+01 -4.346581e-01 1.467937e+00 -1.289250e+01 2.573275e+00 -1.606167e+01 8.158308e-01 3.338363e+00 -9.722859e-01 -6.008343e+00 -6.584449e+00 9.380463e-01 2.822387e-01 1.010433e+00 1.764848e+00 2.304998e+00 8.311418e-01 -1.711813e+00 -1.434136e+00 -8.739014e-02 -1.152137e+00 -1.782095e+00 1.794037e+00 1.729072e+00 -5.338042e-02 
9.905607e+00 -1.352923e+01 3.023613e+00 8.159213e-01 -1.062511e+01 7.885218e-01 -1.974883e+01 -5.645453e-01 1.818008e+00 -1.226713e+00 -5.611889e+00 -4.219855e+00 9.042026e-01 1.800407e-01 1.401328e+00 2.369685e+00 3.848317e+00 1.934477e+00 -2.996183e+00 5.589138e-01 -1.305455e+00 -2.406325e+00 -2.309276e+00 3.073406e+00 1.366228e+00 -6.591414e-02 
1.100875e+01 -1.164032e+01 6.162864e+00 1.040034e+01 -9.269630e+00 -1.435661e-02 -1.817551e+01 -3.584233e+00 2.778877e+00 -7.192658e+00 -1.669193e+00 -2.577146e+00 7.559994e-01 -3.841909e-01 2.340036e+00 1.819023e+00 4.251465e+00 2.639244e+00 -2.740524e+00 1.350728e+00 -9.193609e-01 -2.731641e+00 -1.887682e+00 2.853079e+00 8.931810e-01 -7.471617e-02 
9.582165e+00 -8.182501e+00 7.575012e+00 1.497681e+01 -4.813118e+00 -8.397524e+00 -1.239542e+01 -3.553017e+00 -6.129048e+00 -1.001799e+01 4.902969e+00 -1.547992e+00 7.114584e-01 -9.750029e-01 3.251785e+00 8.249178e-01 2.982750e+00 2.418216e+00 -1.500792e+00 2.670338e+00 3.198534e-01 -1.941018e+00 -9.677480e-01 2.941256e+00 -1.939281e-01 -7.105730e-02 
7.240936e+00 -3.990861e+00 6.384758e+00 1.564481e+01 -2.602277e+00 -6.536323e+00 -1.298473e+01 -2.286738e+00 -6.346313e+00 -6.015053e+00 2.999622e+00 -3.454476e+00 6.608375e-01 -9.076155e-01 3.677546e+00 -5.506225e-01 2.275534e-01 2.557331e+00 -8.096232e-02 2.262314e+00 2.174887e+00 -5.915883e-01 3.882779e-01 1.403083e+00 -1.388534e+00 -5.135022e-02 
6.914500e+00 -1.095029e+00 7.037255e+00 1.310744e+01 -1.867708e+00 -3.454457e+00 -8.992527e+00 3.859738e-01 -3.324486e+00 -6.654256e+00 6.759984e+00 -4.750831e+00 5.964971e-01 -1.168517e-01 2.984786e+00 -1.342015e+00 -9.655434e-01 2.423936e+00 1.631614e+00 1.709044e+00 3.436352e+00 1.117106e+00 1.870684e-01 -1.083118e+00 -1.806847e+00 -4.808685e-02 
7.804504e+00 3.203680e+00 3.678630e+00 1.247280e+01 2.044321e+00 -2.890702e+00 -8.565392e+00 5.320708e+00 -1.581346e+00 -6.933138e+00 4.417715e+00 -7.918398e+00 5.567290e-01 2.581785e-01 1.500782e+00 -9.308417e-01 -5.323456e-01 2.425851e+00 9.418745e-01 1.816796e+00 2.396402e+00 1.414565e+00 -2.282200e+00 -3.012959e+00 -9.615375e-01 -4.132538e-02 
8.716123e+00 3.144159e+00 2.218001e+00 1.173511e+01 4.983265e+00 -2.062264e+00 -6.059875e+00 9.825024e+00 -2.926001e+00 -8.623610e+00 -1.221666e+00 -8.350265e+00 5.230784e-01 -7.795798e-02 1.169234e+00 1.400204e-02 1.075319e-01 2.654723e+00 -1.592943e+00 1.022104e+00 6.372492e-01 1.444409e+00 -1.528550e+00 -4.812155e+00 1.318090e-01 -4.772499e-02 
7.631017e+00 1.393457e+00 4.140176e+00 1.366925e+01 6.101490e+00 -2.523047e+00 -5.367076e+00 4.975746e+00 5.272703e-01 -1.644138e+01 -8.074347e+00 -6.462447e+00 4.909199e-01 -9.747182e-01 6.124952e-01 7.389223e-01 3.101210e-01 2.491367e+00 -2.046415e+00 1.882990e+00 -1.030736e+00 2.719822e-02 -1.122638e+00 -3.760643e+00 1.070551e+00 -7.457093e-02 
6.611454e+00 5.656252e+00 6.876493e+00 1.304687e+01 9.377324e+00 -1.160300e+01 -5.481164e+00 3.744700e+00 2.843252e+00 -9.542888e+00 -1.105476e+01 -4.819761e+00 3.907766e-01 -2.046079e+00 7.274278e-01 -9.925661e-02 8.082104e-02 1.981221e+00 -1.908289e+00 1.068482e+00 -2.303420e+00 -5.400617e-01 1.171137e+00 -1.320263e+00 1.558762e+00 -1.094011e-01 
3.983248e+00 5.010110e+00 5.043996e+00 1.336752e+01 1.230413e+01 -8.352406e+00 5.602010e-01 3.207188e+00 -4.329981e+00 -1.208669e+01 -9.468954e+00 -4.330894e+00 2.500253e-01 -2.606381e+00 2.080948e-01 -1.661156e+00 -8.364037e-01 7.848710e-01 -4.729038e-01 1.402268e+00 -1.984738e-01 -6.661510e-02 2.730684e+00 5.443814e-01 1.689961e+00 -1.208669e-01 
3.096123e-01 4.972972e+00 1.269808e+00 1.229008e+01 1.178805e+01 -8.689028e+00 -3.681105e+00 -8.077983e-01 -3.197683e+00 -4.945269e+00 -7.125678e+00 -1.622233e+00 9.652048e-02 -2.386577e+00 -4.568937e-01 -1.751694e+00 -1.176975e+00 -2.719119e-01 2.013585e+00 9.735613e-01 5.435452e-01 -3.840413e-02 2.539826e+00 3.057369e+00 2.234445e+00 -9.996762e-02 
-2.249966e+00 2.775571e+00 -1.362263e+00 9.865631e+00 8.820481e+00 -6.344553e+00 7.442341e-01 6.259627e+00 3.214663e+00 -5.086768e+00 -7.316980e+00 3.885922e-01 3.371334e-02 -1.473250e+00 1.524880e-01 -3.711321e-02 -6.077399e-01 -4.807374e-01 9.314059e-01 -6.354676e-01 5.195315e-01 2.004112e+00 4.016351e+00 4.549498e+00 2.317949e+00 -6.375597e-02 
-2.204823e+00 4.489053e+00 1.321151e+00 8.912942e+00 9.759588e+00 -2.539004e+00 -7.053736e-01 4.936207e+00 -1.121090e+00 -3.437178e-01 3.156099e+00 3.992721e+00 -9.055138e-04 -4.585692e-01 7.368787e-02 5.565182e-01 -7.928451e-01 4.714668e-01 3.062451e-01 -6.004642e-01 -4.112257e-01 -4.293649e-01 2.216897e+00 2.960310e+00 1.656039e-01 -3.959103e-02 
-2.125786e+00 6.014509e+00 4.832759e+00 1.201739e+01 1.091467e+01 -6.770388e+00 -4.105002e+00 2.932843e+00 4.652284e+00 5.694293e+00 8.137647e+00 4.451376e+00 -2.004158e-02 4.176103e-01 9.305374e-01 1.418012e+00 -7.157428e-01 8.721344e-01 -4.492499e-01 -1.212389e+00 -1.504857e+00 -2.466163e+00 8.259667e-01 1.239555e+00 -1.096075e+00 -3.420497e-02 
-2.045324e+00 3.721942e+00 9.548883e-01 7.249973e+00 1.309829e+01 -6.944885e+00 -4.258807e+00 -1.200535e+00 -6.063318e+00 7.486833e-01 -5.144072e-02 -2.825605e+00 -7.455719e-02 6.262070e-01 8.145893e-01 6.035322e-01 -1.474793e+00 1.536583e-01 1.861044e-01 -2.929420e-01 -8.666221e-01 -1.595265e+00 -5.544654e-01 -1.259796e+00 -7.707849e-01 -3.646464e-02 
-2.416644e-01 7.811814e+00 5.910926e+00 7.118402e+00 1.151180e+01 -6.387862e+00 -3.540992e+00 1.803713e+00 -6.645037e+00 -1.503135e+00 4.845666e-01 -1.682620e+00 -1.004857e-01 2.661618e-01 8.024057e-01 1.298919e-01 -1.673230e+00 -3.627949e-01 2.446859e+00 7.664787e-01 2.777068e-01 -1.400185e+00 -1.180315e+00 -1.574623e+00 1.420492e-01 -3.309517e-02 
-1.584911e-02 7.663348e+00 3.799728e+00 3.988469e+00 1.022931e+01 -1.799744e+00 -2.452089e+00 1.167662e+00 -3.448756e+00 4.826694e-01 6.836596e-01 3.205794e+00 -1.430067e-01 -6.009531e-01 5.301185e-01 3.828811e-01 -9.381462e-01 -4.257378e-01 2.669849e+00 1.459747e+00 1.266493e+00 4.696186e-01 1.510966e-01 -3.186712e-01 6.680788e-01 -2.042780e-02 
-1.809715e+00 8.055835e+00 4.059798e+00 5.281989e+00 1.053519e+01 2.891336e+00 -1.175968e+00 3.137278e+00 -3.655923e+00 -7.427442e-02 -1.030175e-01 2.145922e+00 -1.512927e-01 -1.508611e+00 -7.195346e-01 -9.829280e-01 -7.614933e-01 3.037516e-01 1.411865e+00 1.265007e+00 9.423794e-01 4.932736e-01 1.514037e+00 2.294172e-01 1.009361e-01 -1.099000e-02 
-4.266064e+00 6.250524e+00 3.794858e+00 3.477448e+00 1.145791e+01 1.764760e+00 1.857417e+00 4.465146e+00 -5.209782e+00 7.897362e-01 -1.351005e+00 -1.399482e+00 -1.512927e-01 -1.964781e+00 -1.122553e+00 -1.172211e+00 -8.096246e-01 -3.326429e-01 -8.708116e-01 -4.123241e-01 5.093309e-01 -4.049087e-02 4.594511e-01 -1.242429e+00 -1.064680e+00 -1.657200e-03 
-5.659613e+00 4.920553e+00 9.987216e-01 3.566445e+00 1.241626e+01 -1.110786e+00 6.292905e-01 4.866868e+00 -3.298156e+00 5.913519e+00 2.648984e+00 1.124699e+00 -1.512927e-01 -3.655692e+00 -4.042016e+00 1.802071e+00 -1.193877e+00 -1.394099e+00 -5.113170e-01 -1.979815e-01 5.680978e-03 2.356961e+00 4.402514e-01 1.803277e+00 -1.064554e+00 9.577718e-02 
-7.914807e+00 3.618222e+00 -5.307870e-01 7.981181e-01 7.625562e+00 -4.152741e+00 -5.416339e+00 2.849522e+00 -3.830094e+00 -2.139717e-01 -6.904486e+00 -1.606996e+00 -1.512927e-01 -4.120812e+00 -4.959159e+00 3.907729e+00 -6.765253e-01 -2.084219e+00 5.281593e-01 -6.369227e-01 -7.052413e-01 3.316835e+00 -3.852446e-02 3.672129e+00 -8.298094e-01 1.435710e-01 
-1.826380e+01 -1.083809e+01 1.523298e+01 6.522703e-01 5.480866e+00 3.293502e+00 1.471003e+00 3.973495e+00 7.439035e+00 2.628836e+00 1.169011e+01 -3.073093e+00 3.275932e-01 -1.204598e+00 -1.605946e+00 1.839610e+00 -3.343007e-01 -5.841234e-01 1.387726e+00 5.981714e-01 -6.582242e-01 5.157764e-01 -8.235911e-01 1.228079e+00 -2.338820e-01 4.784123e-02 
-1.856803e+01 -1.066595e+01 1.621638e+01 1.551909e+00 4.504516e+00 2.203413e+00 -1.748053e+00 1.385625e+00 6.005798e+00 2.239455e+00 1.248908e+01 -3.449633e+00 3.271196e-01 7.198455e-01 -3.743456e-01 2.236962e-01 4.489526e-01 -2.338252e-01 1.177323e+00 8.047333e-01 7.133554e-01 -2.353805e-01 -1.821498e+00 1.230431e-02 2.450855e+00 -3.925660e-02 
-6.355995e+00 4.032907e+00 1.823189e+00 1.518046e+00 1.105617e+01 2.649766e+00 1.786004e+00 2.307695e+00 -5.637220e+00 5.688508e-01 -9.074038e-01 8.766074e-01 -1.512927e-01 2.519323e+00 1.524630e+00 -2.332792e+00 9.891755e-01 -6.147935e-02 4.823302e-01 -2.959339e-01 1.873686e+00 -1.165825e+00 -4.162920e+00 -4.678339e+00 3.005614e+00 -1.255997e-01 
-1.026948e+01 -5.689006e+00 7.292589e+00 2.609993e+00 3.668785e+00 2.055742e+00 -1.550173e+00 7.249199e+00 1.531131e+00 -8.291471e+00 -5.442097e-01 8.672429e+00 -1.081327e-01 2.127544e+00 2.098715e+00 -3.455907e+00 -7.716999e-02 -1.267734e-02 -3.802686e-01 -5.606804e-01 2.001483e+00 -2.474096e-01 -4.581455e-01 -2.739864e+00 1.202388e+00 -8.883113e-02 
-9.816460e+00 -5.703413e+00 8.030911e+00 5.069106e+00 5.591335e+00 5.778988e+00 -1.076064e-01 1.041014e+01 3.847245e+00 -1.292030e+01 -5.184940e+00 5.893945e+00 -8.277929e-02 -1.562400e-01 9.975266e-01 -1.011123e+00 3.184091e-01 4.093463e-01 -8.429993e-01 6.138952e-01 9.254719e-01 8.590170e-01 3.095110e+00 8.243397e-02 -1.060394e+00 -4.315996e-03 
-6.200077e+00 4.695787e+00 -4.167022e+00 -6.094704e-01 7.173546e+00 -1.262542e+00 -3.604650e+00 7.341821e+00 2.651787e-02 6.693302e+00 9.285251e-01 5.363619e-02 -1.512927e-01 3.210621e-01 2.376122e+00 -2.028407e+00 -3.846038e-01 2.162204e+00 -5.611445e-01 2.115532e+00 -1.491189e+00 -1.765344e+00 4.939449e+00 2.046648e-01 -1.699347e+00 -1.548333e-02 
-9.171898e+00 3.828144e+00 2.497379e+00 4.719824e+00 1.135052e+01 9.391165e-02 5.882719e+00 6.888743e+00 -5.898285e-01 8.552014e+00 -1.231601e+00 -1.159662e-01 -1.512927e-01 7.623205e-02 8.454596e-01 -1.404977e+00 -1.055176e+00 1.311803e+00 -1.411047e+00 9.859563e-01 -1.861210e+00 -1.737663e+00 4.326981e+00 2.209137e+00 3.242070e-01 -1.370268e-02 
-8.986454e+00 1.425823e+00 -8.267808e-02 8.616152e-01 1.160021e+01 2.092558e+00 6.032323e+00 1.553950e+00 -5.077050e+00 5.669618e+00 -1.497555e+00 3.180648e+00 -1.512927e-01 -5.098673e-01 -1.352893e+00 4.564810e-02 -8.413962e-01 9.036219e-02 -4.004349e-01 1.135961e+00 -3.097699e-01 1.570675e-01 -1.710511e-01 8.404690e-01 1.087674e+00 0.000000e+00 
-8.042110e+00 1.588669e-01 -1.036148e+00 -9.423175e-01 9.937018e+00 -2.953794e+00 3.688633e-03 3.998025e+00 -2.289284e+00 9.226448e+00 7.073783e+00 5.951474e+00 -1.512927e-01 -3.631992e-02 -7.798544e-01 -8.486400e-01 -1.663803e+00 -5.770448e-01 -4.935837e-02 -5.328739e-01 6.597102e-01 -1.518779e-01 -1.335907e+00 1.144021e+00 1.339539e+00 0.000000e+00 
-9.314306e+00 -2.340377e-01 -2.172018e+00 -1.985381e+00 8.332108e+00 -1.740863e+00 5.014670e+00 7.238330e+00 1.661583e+00 5.500829e+00 9.781777e-01 2.458288e+00 -1.512927e-01 -5.435715e-02 -8.151688e-02 -2.809525e-01 -1.616512e-01 -6.690363e-01 -2.865027e-01 -3.079073e-01 7.899505e-01 6.474850e-01 -3.268531e-01 -8.782073e-01 -3.402369e-01 0.000000e+00 
-9.189571e+00 7.588022e-01 -7.011511e-01 -2.175692e+00 1.009935e+01 1.763830e+00 3.727176e+00 7.345104e+00 -4.718534e+00 1.956875e+00 3.250638e+00 6.942910e+00 -1.512927e-01 -2.353403e-01 1.528923e-01 -3.926470e-01 -2.654113e-01 -9.558719e-01 9.695437e-02 3.266280e-01 6.691768e-01 3.143058e-01 -1.934293e-01 -1.323356e+00 -9.319371e-01 0.000000e+00 
-8.684509e+00 7.182713e-01 -1.654939e+00 6.700463e-01 8.173868e+00 -1.698768e+00 2.631043e+00 3.830163e+00 -6.250000e-01 7.670138e+00 -3.977019e+00 9.837454e-01 -1.512927e-01 -9.658505e-01 6.643192e-01 5.715961e-02 2.514744e-01 -5.835119e-01 -8.276787e-01 -8.798027e-01 -8.253365e-01 9.564142e-01 -4.169159e-01 -8.497024e-02 7.035971e-01 2.281804e-02 
-9.533710e+00 4.471738e-01 -3.257922e+00 -3.597088e+00 5.236779e+00 -2.490070e+00 2.828642e+00 9.047993e+00 4.255366e-01 7.174647e+00 2.934603e+00 2.029060e+00 -1.512927e-01 -4.606869e-01 1.096141e+00 5.060242e-02 7.234121e-01 2.534888e-02 -7.734121e-01 -5.812811e-01 -9.919592e-01 1.919733e+00 -9.734195e-01 -1.199537e-01 6.585756e-01 1.421301e-02 
-1.397149e+01 3.243372e+00 -6.078346e-01 -1.731110e-02 7.845833e+00 -3.752306e+00 1.064924e+00 2.260204e+00 3.871618e+00 8.073640e-01 7.113444e-01 8.433199e+00 -3.720248e-02 3.780107e-01 1.046334e+00 2.543409e-01 1.572915e-01 -2.864149e-01 -3.812354e-01 4.433054e-02 -3.786356e-01 9.047284e-01 -1.542219e+00 1.334187e-01 1.074715e+00 1.401997e-03 
-8.849516e+00 4.976956e+00 -9.716911e-01 1.785047e+00 1.039011e+01 -1.076461e+00 1.603830e+00 3.170288e+00 2.631823e+00 5.211645e-01 3.066878e-01 6.511062e+00 -1.372727e-01 1.104409e+00 4.485064e-01 -3.535145e-01 8.850765e-01 -5.061643e-01 -7.091880e-01 -1.631577e-01 3.639058e-01 -9.751517e-01 -1.191870e+00 -1.452214e+00 -3.705387e-01 -1.140902e-02 
-7.136553e+00 3.685051e+00 -1.526350e+00 -1.234564e+00 4.165127e+00 -4.311749e+00 3.465102e+00 4.875837e+00 2.795499e+00 3.285785e+00 -1.995968e+00 4.116319e+00 -1.512927e-01 1.539082e+00 -1.504138e-01 -2.861296e-01 2.666504e-01 -6.380623e-01 -1.129448e-01 9.044404e-02 1.437963e+00 -1.762241e+00 -2.596099e-01 -1.549763e+00 -1.897655e+00 -2.422004e-02 
-7.429132e+00 2.468866e+00 -4.566237e+00 1.436921e+00 4.546310e+00 -5.756289e+00 8.127642e-01 9.559705e+00 -3.912162e+00 -2.391601e-02 -2.972812e+00 2.334806e+00 -1.512927e-01 7.846465e-01 -6.290150e-03 7.616322e-01 2.509026e-01 3.112279e-01 7.254683e-01 -5.183468e-01 4.789446e-01 -8.583217e-01 8.445948e-01 -3.476860e-01 -9.364083e-01 -2.803993e-03 
-6.986272e+00 3.745348e+00 -2.412096e-01 1.490004e+00 7.577422e+00 -1.977117e+00 1.912677e+00 6.255311e+00 -1.667592e+00 -2.181453e-01 -5.397721e+00 1.033050e+00 -1.512927e-01 1.068698e+00 7.208465e-01 1.611169e+00 1.334398e+00 2.481647e+00 2.103835e+00 -1.259305e-01 -9.406956e-01 -1.599081e-01 7.750853e-01 1.027532e+00 1.848628e-01 0.000000e+00 
-5.001424e+00 4.915357e+00 2.193900e+00 1.677276e+00 1.024010e+01 1.383564e+00 -2.116916e-01 4.875274e+00 5.717602e-01 6.496103e+00 2.691344e-01 3.370655e+00 -1.512927e-01 1.052041e+00 9.781596e-01 1.701941e+00 3.847291e-01 2.065625e+00 2.079526e+00 4.533650e-01 -1.686255e+00 2.773749e-01 1.845922e+00 1.248631e+00 1.809475e-01 0.000000e+00 
-3.006917e+00 6.066039e+00 3.149427e+00 5.317247e+00 1.372646e+01 2.637498e+00 3.347678e+00 2.514575e+00 -2.460032e-01 3.901202e+00 1.520720e+00 4.522709e+00 -1.512927e-01 5.529060e-02 1.860124e-01 4.391339e-01 1.182023e-01 1.418778e+00 9.312904e-01 6.060669e-01 -6.934456e-01 -7.258551e-01 7.210228e-01 6.375307e-01 -4.053519e-01 0.000000e+00 
-4.158603e+00 6.199319e+00 2.248152e+00 1.446945e+00 1.179992e+01 2.334033e+00 2.362089e+00 2.998797e+00 -3.236082e+00 7.146021e+00 -1.888766e-01 1.494714e+00 -1.512927e-01 -1.072711e+00 -3.763936e-01 -4.565702e-01 -8.141470e-01 -3.775573e-01 -5.551717e-01 1.267670e+00 4.041995e-01 -1.298116e+00 -2.895167e-01 -7.521798e-01 -5.142415e-01 0.000000e+00 
-7.131230e+00 4.033429e+00 1.927334e+00 2.196181e+00 1.389141e+01 2.204101e+00 3.656121e+00 3.726322e+00 -3.392947e+00 3.062010e+00 -1.981062e+00 -5.573976e-02 -1.512927e-01 -1.050886e+00 -4.757161e-01 -5.898600e-01 -1.252310e+00 -2.089989e+00 -1.709439e+00 7.173102e-01 1.119114e+00 -9.289962e-01 4.932585e-01 -2.038147e-01 -1.531933e+00 0.000000e+00 
-8.302822e+00 4.049693e+00 5.220952e-01 -8.329258e-01 8.269844e+00 -1.175596e+00 5.972437e+00 6.290398e+00 -4.345346e+00 5.468115e+00 -1.740874e+00 3.088672e+00 -1.512927e-01 -4.723229e-01 -2.553623e-02 -3.839620e-01 1.550975e-01 -1.936220e+00 -1.680027e+00 8.985456e-01 1.328202e+00 4.729278e-01 -9.776681e-01 -3.518870e-01 -4.809409e-01 0.000000e+00 
-6.189236e+00 4.762271e+00 1.063156e+00 1.956348e-01 5.041555e+00 -4.154881e+00 5.129055e+00 6.464343e+00 -4.336352e+00 7.206447e+00 1.277645e+00 -3.933933e+00 -1.512927e-01 2.133933e-01 -4.148234e-01 1.423254e+00 7.798206e-01 -3.416716e+00 -1.105820e+00 -5.145839e-01 -1.845063e+00 -9.222893e-01 -4.965676e-01 2.620132e-01 1.952690e-01 6.954098e-03 
-6.991214e+00 5.707217e+00 7.604315e-01 3.222706e+00 6.543743e+00 -2.886610e+00 6.118351e+00 8.270794e+00 -3.997402e-01 1.854623e-01 -3.577665e+00 1.029106e+00 -1.512927e-01 5.197787e-01 -1.057949e+00 2.544308e+00 1.701956e+00 -2.930693e+00 -5.082238e-02 -2.055998e+00 -4.572243e+00 -2.240676e+00 -7.685868e-01 6.114757e-02 -4.312065e-01 3.661822e-02 
-6.720068e+00 1.130550e+00 8.924434e+00 4.067468e+00 -2.329123e+00 -2.469492e+00 1.010245e+00 -6.489191e+00 -9.977196e+00 3.220499e+00 2.473997e-01 1.950388e+00 -1.165222e-01 1.142869e-01 -4.593014e-01 9.537047e-01 4.770597e-01 -3.927552e-01 1.022165e+00 -1.406018e+00 -3.001318e+00 -1.472549e+00 -1.817510e-02 -4.149101e-01 1.377640e-01 1.657059e-02 
-5.438513e+00 5.758096e-01 9.312996e+00 5.740936e+00 -2.698279e+00 -2.272402e+00 -2.248147e+00 -1.009405e+01 -1.272830e+01 3.618156e+00 -9.200131e-01 -2.009522e+00 1.441318e-02 5.080805e-02 -1.860597e-02 -1.507729e+00 -6.365666e-01 5.280723e-02 1.418135e-01 -7.840205e-01 5.113368e-01 7.998190e-01 1.370799e+00 3.222246e-01 3.533922e-01 -3.477049e-03 
-6.394152e+00 5.031468e+00 1.555397e+00 1.321818e+00 7.698790e+00 6.488409e-01 2.282213e+00 6.401727e-01 -5.534814e+00 5.399225e+00 -2.125731e+00 -1.725799e+00 -1.512927e-01 -5.091812e-01 4.705122e-01 -3.785667e+00 -5.513347e-01 2.659919e+00 3.974853e-02 4.554338e-01 4.733139e+00 4.213679e+00 7.034249e-01 -2.895557e-01 2.030807e+00 -2.352468e-02 
-6.900132e+00 3.663728e+00 -3.093696e+00 1.412698e+00 1.793823e+00 -3.736708e+00 1.562264e+00 7.262796e+00 1.378164e+00 5.950096e+00 -7.799765e-01 4.634161e+00 -1.512927e-01 -8.334314e-01 -3.656337e-02 -3.158306e+00 -2.378950e-01 2.387103e+00 -7.198260e-02 6.360704e-01 4.504217e+00 4.310533e+00 4.079424e-01 1.545663e-02 3.209259e+00 -3.314117e-02 
-8.535164e+00 1.939151e+00 -3.800558e+00 3.474914e+00 8.724422e+00 -1.538596e+00 1.382208e+00 8.498081e+00 4.037969e+00 5.571653e+00 -1.270397e+00 8.782583e+00 -1.512927e-01 -5.917057e-01 -7.909210e-01 -1.141877e+00 6.368407e-01 8.981863e-01 -2.176763e-01 -1.980067e-01 1.695110e+00 2.180537e+00 -3.358507e-03 1.220248e-01 2.516519e+00 0.000000e+00 
