-1.323835e+01 3.729006e+00 1.453367e+00 7.814857e+00 1.325181e+01 6.830518e+00 -1.166564e+00 -2.393911e+00 -4.423141e-02 -4.197065e-01 -6.314607e-01 4.020116e+00 -1.329780e-03 8.858684e-01 -4.740742e-01 -4.652699e-01 -1.167827e+00 -1.769176e+00 -7.143406e-01 4.736246e-01 1.507775e+00 -6.052831e-01 1.141221e+00 4.434549e-01 -9.236128e-01 -4.498887e-02 
-1.070164e+01 1.698324e+00 1.203602e+00 3.297076e+00 1.060040e+01 6.245984e+00 1.740662e-01 -1.902443e-01 -2.532309e+00 2.681622e+00 1.585111e+00 2.047859e+00 -1.512927e-01 1.041458e+00 -1.086043e+00 -7.153988e-01 -1.603420e+00 -2.275599e+00 -1.932364e+00 -1.763797e-01 9.840549e-01 -5.255343e-01 1.117873e+00 5.973951e-01 -3.679185e-01 -4.498887e-02 
-1.007737e+01 2.373976e+00 -7.480996e-01 4.234615e+00 5.731638e+00 3.551083e+00 5.312432e-01 4.043129e+00 -1.826608e+00 3.735736e+00 4.775281e-01 3.881809e-01 -1.512927e-01 6.865719e-01 -9.250876e-01 -7.755585e-01 -1.814644e+00 -1.933293e+00 -2.503075e+00 6.846435e-02 1.560625e+00 1.376891e-01 1.094337e+00 6.863303e-01 7.863094e-01 -2.999258e-02 
-9.611556e+00 -1.023695e+00 -1.022894e+00 1.587878e+00 5.633903e+00 -1.191584e+00 -2.897367e+00 -6.921567e-01 -1.780714e+00 3.091937e+00 1.801021e+00 3.996491e+00 -1.512927e-01 -1.436090e-01 -5.697756e-01 -2.960556e-02 -7.662992e-01 -7.378300e-01 -1.690766e+00 -2.898369e-01 1.815127e+00 1.632980e+00 6.002647e-01 -2.097299e-01 1.192288e+00 0.000000e+00 
-1.035053e+01 4.645767e-01 -1.311178e+00 -4.037656e-01 6.068590e+00 -1.966073e+00 7.114738e-01 5.660172e+00 2.684166e-01 4.846824e+00 2.692236e+00 6.977347e+00 -1.512927e-01 -9.736732e-01 -1.684226e+00 1.919097e+00 -1.451710e+00 9.205914e-01 5.237215e-01 -1.465030e+00 1.620607e-01 1.314712e+00 2.127009e+00 2.228690e-01 -9.979861e-01 1.325967e-02 
-1.128310e+01 -1.958547e-01 1.337113e+00 1.784770e+00 6.742770e+00 5.507309e-01 -1.365234e+00 8.076872e+00 4.585080e+00 5.127401e+00 -5.708922e-01 4.714718e+00 -1.512927e-01 -8.858463e-01 -9.278606e-01 1.926040e+00 -1.913588e-01 1.079823e+00 1.470816e+00 -3.950159e-01 -3.830000e-01 4.537477e-02 1.280136e+00 1.542218e-01 -1.912148e+00 6.629837e-03 
-1.410996e+01 -6.461074e+00 7.667380e+00 -3.122382e+00 9.780161e+00 5.298533e+00 -7.559975e+00 4.689185e-01 1.564053e+00 1.335305e+01 2.777830e+00 -4.960863e+00 -8.499432e-02 -4.091814e-01 -4.483188e-01 1.255733e+00 7.478865e-01 -3.653317e-02 1.182089e+00 9.935881e-01 -2.799893e+00 -1.526987e+00 9.017715e-01 4.978003e-02 -2.012696e+00 0.000000e+00 
-1.216107e+01 -2.200172e+00 4.118030e+00 1.990392e+00 9.177230e+00 2.530193e+00 -7.367224e-01 -1.153013e-02 -2.201659e+00 5.239503e+00 2.529333e+00 4.048544e-01 -1.512927e-01 2.023771e-01 2.325190e-01 -1.035996e+00 -4.884266e-01 -1.330533e+00 -4.607047e-01 2.192881e+00 -1.938801e+00 -2.528988e+00 -5.162656e-01 1.197846e-01 8.949983e-02 -6.629837e-03 
-1.195745e+01 -7.748588e-01 3.577028e+00 3.232856e+00 4.668694e+00 2.954643e+00 5.365159e+00 -4.295091e+00 -3.973147e+00 9.299631e+00 1.391024e+00 -9.312021e-01 -1.512927e-01 7.235975e-01 1.116477e+00 -1.638933e+00 -3.834690e-01 -9.741318e-01 -9.869801e-01 1.570138e+00 1.462220e+00 4.335343e-01 -2.541988e+00 -2.086726e+00 1.158913e+00 -1.325967e-02 
-1.134747e+01 -1.876367e+00 -1.797691e+00 -3.834982e+00 2.645838e+00 -5.808477e-01 3.136606e+00 7.648731e-01 -5.291258e+00 4.572783e+00 7.214338e-01 3.147386e+00 -1.512927e-01 2.626573e-01 3.288900e-02 -6.718710e-01 -1.411693e+00 -5.510192e-01 -4.384349e-01 -1.268013e+00 1.317483e+00 2.577932e+00 1.974840e-02 -1.557725e+00 4.948882e-01 0.000000e+00 
-1.089878e+01 -1.040593e+00 2.430574e+00 -2.127040e+00 8.175198e+00 1.919153e+00 -1.645949e+00 7.391816e+00 5.276525e+00 9.764707e-01 -6.751850e+00 -5.375644e-01 -1.512927e-01 2.980556e-01 4.127059e-01 -9.171438e-02 -2.600304e-01 3.209236e-01 -2.089432e-01 -2.247535e+00 8.832518e-01 3.092266e+00 3.452570e-01 3.084434e-01 1.096595e+00 0.000000e+00 
-1.137712e+01 -1.902860e+00 1.331901e+00 -2.388127e+00 4.668882e+00 8.557634e-01 -3.571233e+00 7.324331e-01 6.063166e+00 9.499825e+00 -1.187857e+00 2.682476e+00 -1.512927e-01 2.456402e-01 8.386967e-01 1.868312e-01 1.765316e+00 1.023205e-01 3.559626e-01 -1.521341e+00 -7.710293e-01 1.980717e+00 1.010945e+00 1.771973e+00 6.531563e-01 0.000000e+00 
-1.045235e+01 1.301917e+00 1.553660e+00 1.209276e+00 5.261791e+00 1.191622e+00 -2.518596e+00 1.373889e-01 5.810972e+00 8.562395e+00 3.887886e+00 4.784230e+00 -1.512927e-01 8.058319e-02 9.146600e-01 -2.961183e-01 1.763133e+00 6.387984e-01 1.017809e+00 5.978193e-01 -1.818423e+00 -1.492340e+00 -9.940138e-02 1.500637e+00 6.709694e-01 0.000000e+00 
-1.034248e+01 1.145861e+00 -4.250779e-01 3.323440e+00 4.614144e+00 1.562731e+00 -4.033777e+00 5.369402e-01 4.345103e+00 5.834545e+00 4.261432e+00 3.752270e+00 -1.512927e-01 3.246420e-01 7.592796e-01 5.706003e-01 1.009866e+00 1.168646e+00 1.519387e+00 1.626534e+00 4.917865e-01 -1.834463e+00 -2.250618e+00 -1.689674e+00 -7.861100e-01 0.000000e+00 
-1.101318e+01 2.008347e+00 1.828472e+00 3.832844e+00 1.139656e+01 6.654713e+00 1.574420e+00 -1.602553e+00 -1.326144e+00 2.312104e+00 -1.973310e+00 2.282386e+00 -1.512927e-01 8.711740e-01 5.748897e-01 5.825577e-01 -5.909587e-01 7.257824e-01 1.008534e+00 1.928690e+00 1.021609e+00 -1.571690e+00 -2.067523e+00 -2.101647e+00 -2.146508e+00 0.000000e+00 
-9.473496e+00 1.540323e+00 4.047497e+00 1.349420e+00 7.444728e+00 5.721151e+00 2.514927e+00 4.061337e+00 4.594114e-01 1.371882e+00 -6.705628e+00 2.848268e-03 -1.512927e-01 1.518631e+00 7.045202e-01 -2.369066e-01 -1.093859e+00 1.050787e-01 3.087096e-01 1.357768e+00 1.218146e+00 -6.635274e-01 -1.498277e+00 -2.533602e+00 -3.096843e+00 0.000000e+00 
-6.530971e+00 3.979134e+00 2.230162e+00 -7.585068e-01 7.475411e+00 4.155084e+00 3.850501e+00 3.483235e+00 -1.046324e-01 4.561121e-01 -1.136820e+00 -4.073598e+00 -1.512927e-01 1.878621e+00 4.109159e-01 -1.846912e+00 -1.351483e+00 -1.468486e+00 -5.390655e-01 -2.433349e-01 1.978161e+00 8.517512e-01 -1.108704e-01 -5.937486e-01 -2.847308e+00 0.000000e+00 
-4.990432e+00 3.683069e+00 -1.810456e+00 1.498213e-01 7.100111e+00 4.356093e+00 1.617022e+00 4.084778e+00 4.167104e-01 -7.288456e-01 -8.824823e+00 -8.553953e+00 -1.512927e-01 2.235908e+00 1.140466e+00 -1.481143e+00 -2.363684e-01 5.321536e-01 -4.647438e-01 -2.352264e-01 6.093278e-01 4.336323e-01 1.668625e+00 1.214035e+00 -9.866657e-01 0.000000e+00 
-3.861609e+00 2.991554e+00 -4.477113e+00 -2.324773e+00 4.226438e+00 4.641914e+00 8.066982e-01 8.276531e+00 2.953962e+00 2.808116e+00 -3.882455e+00 -7.675754e+00 -1.512927e-01 2.348315e+00 8.041536e-01 -1.478551e-01 9.784066e-01 -1.870924e-01 -1.236716e+00 -1.728195e-01 4.527196e-01 -3.123964e-01 2.263377e+00 1.738041e+00 1.628677e+00 0.000000e+00 
3.713617e-01 7.736445e+00 -4.580259e-03 9.507105e-01 1.172998e+01 3.154017e+00 2.860697e+00 4.711327e+00 1.098275e+00 8.539007e+00 7.373651e-01 -3.129403e+00 -1.512927e-01 1.405738e+00 -1.088215e+00 1.145136e+00 6.666320e-01 -4.631014e-01 -1.850580e+00 -1.359463e+00 -3.176101e-01 -4.234474e-01 1.386825e+00 2.855698e+00 3.125225e+00 5.499315e-03 
2.529706e+00 5.973214e+00 5.879487e-01 3.733082e+00 4.225013e+00 -1.427455e+00 2.364566e+00 5.433558e+00 -2.007397e+00 7.139068e+00 2.772293e+00 1.357513e+00 -1.512927e-01 3.700275e-01 -3.218776e+00 9.352503e-01 -2.812237e-03 -5.109049e-01 -1.233045e+00 -1.351812e+00 -2.353273e+00 -1.206861e+00 1.246392e-01 9.973650e-01 1.558048e+00 5.374937e-02 
-1.157398e+00 -3.248838e+00 1.382696e+00 4.540539e-01 4.785317e+00 -1.862123e+00 -5.959228e+00 3.918214e+00 7.801530e-01 4.039804e+00 2.126292e+00 2.555536e+00 -1.237961e-01 -2.193769e+00 -4.487240e+00 -2.412084e-01 -2.976076e-01 -4.829909e-01 -5.431825e-01 -8.456358e-01 -1.841420e+00 -2.582909e-01 -1.313176e+00 -1.302444e+00 -4.290923e-01 1.218138e-01 
-1.247091e+00 -7.609683e+00 -4.944994e-01 -2.090505e+00 5.144247e+00 9.847612e-01 -1.542397e+00 -3.093279e+00 -2.921279e+00 5.680913e+00 4.099064e-01 -2.727983e+00 1.037059e-01 -2.976490e+00 -2.716918e+00 1.072556e-01 -6.995217e-01 -5.681475e-01 1.783331e-01 1.680073e-01 -1.113067e+00 -1.527352e-01 -1.672842e+00 -1.457313e+00 -9.228166e-01 1.627936e-01 
-8.709083e+00 -7.908307e+00 -6.693983e-01 2.374466e+00 8.855412e+00 -7.680039e-01 5.859991e-01 -2.323546e-01 2.637622e-01 2.702203e+00 -4.593659e+00 -3.232116e+00 3.302768e-01 -1.826656e+00 -5.019282e-01 -3.819380e-01 -3.265368e-01 -2.453920e+00 -9.905554e-01 4.167087e-01 -4.788124e-01 -1.056945e+00 -1.582117e+00 -8.713977e-01 -2.552993e-01 1.526656e-01 
-8.576902e+00 -5.281645e+00 2.150274e+00 -7.247324e-01 -6.507716e-01 -1.082849e+00 -6.801093e-02 1.943510e+00 -2.512878e+00 -5.563387e-01 -1.154298e+00 -3.627442e-01 4.356389e-01 -1.882895e+00 4.675649e-01 -9.033854e-02 1.077439e+00 -1.912101e+00 -1.749469e+00 -5.574280e-01 1.287890e+00 1.961632e-01 -1.396183e+00 1.356819e-01 5.823699e-01 1.011755e-01 
-6.625772e+00 -6.922498e+00 -1.849381e+00 -1.861517e+00 -4.586777e+00 -5.781095e+00 -4.612878e+00 -9.942416e-01 -4.708772e+00 -7.521569e-01 -1.448595e+00 9.642053e-02 4.735653e-01 -1.376349e+00 2.151112e-01 -7.564761e-01 3.683745e-01 -7.755682e-01 -2.509424e-01 -6.832410e-01 7.729918e-01 -8.663543e-01 -1.152833e+00 4.862754e-01 -1.375133e-01 6.616241e-02 
-1.170322e+01 -5.764762e+00 -3.562009e-01 5.414681e+00 2.304836e+00 -5.256037e+00 -1.730099e+00 3.727116e+00 5.458038e-01 4.271775e-01 -4.842162e-01 -1.480402e+00 5.379391e-01 -1.037346e+00 -5.818124e-02 -2.924923e+00 3.942815e-01 4.619885e-01 4.703065e-01 -1.131791e+00 -5.977360e-01 -8.613318e-01 -3.511778e-01 -3.315615e-01 -5.497441e-01 5.852105e-02 
-1.402767e+01 -6.591192e+00 -3.198541e+00 1.146632e+00 3.499766e+00 6.387782e-02 -1.999162e+00 2.740801e+00 -5.597350e+00 -3.553722e+00 -2.497323e+00 -3.360854e+00 6.099388e-01 -9.482170e-01 5.219618e-01 -2.705232e+00 -3.656336e-01 3.980299e-01 1.375620e+00 -9.468216e-01 -1.548496e+00 -9.138813e-01 -2.437225e-01 -9.786895e-01 4.161677e-01 4.315100e-02 
-1.006268e+01 -5.738204e+00 -1.179976e+01 -2.573992e-01 -2.384100e+00 -1.653802e+00 -7.033825e+00 -2.912692e+00 -6.375247e+00 -9.114448e-01 -2.287741e+00 -1.382828e+00 6.600574e-01 -1.651539e-01 4.530504e-01 -1.545075e+00 -1.655255e+00 -5.123796e-01 1.559519e+00 -1.384554e-01 -6.900459e-01 -1.726224e+00 -2.991985e-01 -6.724316e-01 1.067726e+00 1.697999e-03 
-1.218713e+01 -4.325968e+00 -9.653763e+00 -8.536445e-01 -2.521591e-01 -7.041135e-01 -6.695123e+00 -5.416819e+00 -5.817653e+00 -1.301458e+00 -5.440279e+00 2.128472e+00 6.282611e-01 -5.383684e-01 -1.553628e-01 5.495306e-01 1.042257e-01 9.367637e-02 7.972611e-01 1.005225e-01 1.191620e-01 -4.977765e-01 9.270573e-01 4.513061e-02 1.239372e+00 -3.380201e-02 
-1.344926e+01 -4.632123e+00 -4.853963e+00 -1.861455e+00 1.618901e+00 2.925553e+00 -7.439554e-02 4.355696e+00 -7.975164e+00 -2.194947e+00 -2.374896e+00 1.113564e+00 5.372679e-01 -1.215427e+00 -1.816263e-01 2.072165e+00 -4.295301e-01 -1.049287e-01 3.417479e-01 4.295214e-01 1.671583e+00 -1.356168e-02 -2.025595e-01 -5.436925e-01 1.899481e-01 -3.590255e-02 
-1.502622e+01 -7.921047e+00 -3.923787e+00 2.469788e+00 1.966648e+00 1.760505e+00 -4.976264e+00 -2.975826e-01 -7.286274e+00 1.723315e+00 -2.228092e+00 1.587809e+00 5.023235e-01 -5.510340e-01 -1.379627e-01 9.329573e-01 -7.238078e-01 -1.144312e+00 -4.945489e-01 -9.105764e-02 9.469026e-01 9.219483e-01 7.166675e-02 2.498874e-01 -9.224952e-01 -1.525119e-02 
-1.472027e+01 -4.848796e+00 -4.303921e+00 -4.066766e+00 -4.018147e+00 -1.177372e+00 -5.745647e+00 2.885603e+00 -5.708745e+00 -3.436629e+00 -6.612298e+00 -1.627555e-01 5.435135e-01 5.364845e-01 5.997753e-02 4.510976e-01 -7.789568e-01 -2.875084e-01 -8.324358e-01 -1.239845e+00 -6.864936e-01 1.677012e+00 7.691117e-02 1.428069e+00 -1.112892e+00 4.720735e-03 
-1.430679e+01 -4.907444e+00 -5.263997e+00 -3.370028e+00 -3.155193e+00 -1.125395e+00 -4.314785e+00 5.274102e-02 -2.341121e+00 -3.222833e-01 -2.072142e+00 -1.845844e+00 5.488824e-01 2.607624e+00 4.539235e-01 1.289028e+00 -9.112659e-01 5.468122e-01 8.660374e-02 -1.256345e-01 -2.152166e-01 1.120389e+00 7.066029e-01 2.829929e+00 1.831078e-01 -2.951749e-02 
-1.112656e+01 -5.839036e+00 -1.928370e+00 -2.836331e+00 2.742279e+00 2.063243e-01 -6.604358e+00 7.480664e-01 -2.062680e+00 -7.875921e-01 4.687477e+00 -2.734068e+00 5.375922e-01 5.694732e+00 1.298292e+00 1.844267e+00 -1.924223e-01 -5.364411e-01 2.355047e-01 2.811196e-01 -8.688985e-01 -4.074853e-01 6.837177e-01 1.340960e+00 1.806148e-01 -2.690657e-02 
-3.784960e+00 -5.156309e+00 1.333576e+00 -2.701758e+00 1.320495e+00 1.501676e+00 -5.175081e+00 -3.048973e-01 -3.507364e+00 3.931811e+00 6.271667e+00 3.789005e+00 3.576967e-01 8.428446e+00 7.630906e-01 2.332104e+00 -3.078528e-01 -6.320396e+00 1.278929e+00 1.353122e+00 -1.408773e+00 -7.104400e-01 -2.381637e+00 8.301484e-01 6.628881e-01 5.155262e-02 
8.492469e+00 1.767096e+00 1.618628e+00 -5.363012e+00 -8.938197e+00 -1.313384e+00 -3.909901e+00 -1.280070e+00 -7.163051e+00 -2.145088e+00 -4.079403e+00 -2.077106e+00 5.045735e-01 7.713071e+00 2.977964e-01 7.928561e-01 -3.611998e-01 -1.039359e+01 1.122319e+00 3.261903e+00 -2.716598e+00 7.353348e-01 -4.532148e+00 4.113218e-01 7.063786e-01 1.198114e-01 
1.802592e+01 -4.895058e+00 4.623026e+00 -3.645951e+00 -2.891693e+01 6.029103e+00 1.103593e+00 -5.977054e+00 -3.343135e+00 -1.155172e+01 6.462040e+00 1.140115e+00 8.231548e-01 4.610682e+00 -9.307627e-02 -1.308366e-01 -7.642282e-01 -9.655615e+00 7.845982e-01 3.365102e+00 -2.821131e+00 2.024478e+00 -4.584050e+00 9.355990e-01 2.216541e-01 1.549233e-01 
1.653336e+01 -4.480680e+00 3.911854e-01 -4.170234e+00 -3.410696e+01 3.554207e+00 6.565817e+00 -9.998844e+00 1.531880e+00 -1.570657e+01 6.648899e+00 2.122269e+00 9.039204e-01 1.072564e+00 -6.219897e-01 -2.926435e-01 -9.736153e-01 -5.665998e+00 2.154753e-01 2.862987e+00 -2.272066e+00 2.751641e+00 -1.824854e+00 1.352623e+00 1.152231e+00 9.982809e-02 
1.524800e+01 -2.497803e+00 1.293115e+00 -7.119288e+00 -3.437320e+01 2.990871e+00 6.412569e+00 -1.005116e+01 2.267561e+00 -1.220770e+01 5.585511e+00 2.797588e+00 9.326399e-01 -1.011211e+00 1.007651e+00 -1.664760e-01 -1.756864e+00 -1.188447e+00 -1.497687e+00 1.435925e+00 -3.489200e-01 1.431121e+00 9.386973e-01 -1.290315e+00 5.368796e-02 3.199813e-02 
1.524425e+01 -2.541480e+00 1.820366e+00 -8.494420e+00 -3.454005e+01 1.283108e+00 7.750547e+00 -1.060334e+01 3.789805e+00 -1.094137e+01 3.121975e+00 2.855315e+00 9.489714e-01 -7.185634e-01 1.269564e+00 6.805002e-01 -1.653072e+00 -3.608158e-01 -1.452332e+00 5.541345e-01 9.868520e-01 -9.644604e-02 2.033146e+00 -1.884566e+00 -5.169371e-01 1.372700e-02 
1.361442e+01 -8.264048e-01 3.076055e+00 -1.026818e+01 -3.464262e+01 -3.237848e-01 7.690851e+00 -7.419404e+00 2.683508e+00 -9.240831e+00 1.773927e+00 1.042032e+00 9.606199e-01 -3.307557e-01 1.258162e+00 5.881140e-01 -1.129982e+00 -9.981193e-02 -2.058247e+00 1.117460e+00 1.133085e+00 -8.963757e-01 1.697610e+00 -1.929404e+00 -8.380543e-01 3.636813e-03 
1.375733e+01 1.031442e+00 2.902216e+00 -1.086115e+01 -3.577633e+01 -2.050122e+00 8.697349e+00 -6.380464e+00 8.416765e-01 -7.024272e+00 -8.681371e-01 4.153620e-01 9.585654e-01 -7.919073e-03 1.159143e+00 5.142959e-01 -6.320766e-01 -1.990982e-01 -1.510382e+00 8.985327e-01 8.717893e-01 -1.055376e+00 1.197708e+00 -1.035577e+00 -8.756631e-01 -3.610641e-03 
1.433768e+01 2.006549e+00 3.692760e+00 -1.158583e+01 -3.425412e+01 -5.633750e+00 1.152647e+01 -6.497180e+00 -7.402532e-01 -5.678195e+00 -2.066454e+00 -1.727070e-01 9.460270e-01 3.725117e-01 5.615889e-01 1.766187e-01 -7.043076e-03 -2.600784e-01 -7.951887e-01 6.566242e-01 -3.294558e-01 -2.186387e-01 2.468734e-01 -1.386379e-01 -3.525792e-01 -6.971669e-03 
1.484303e+01 1.837757e+00 4.083494e+00 -1.099597e+01 -3.572979e+01 -3.613822e+00 1.032540e+01 -6.705510e+00 2.248054e-01 -6.734148e+00 -1.357182e-01 -9.156312e-01 9.382147e-01 3.150543e-01 -1.130623e-01 4.162000e-02 4.950010e-01 -4.820949e-01 -2.826803e-02 4.744196e-01 -7.879100e-01 8.606328e-01 -7.558349e-01 6.833047e-01 1.032680e-01 -4.912895e-03 
1.493414e+01 1.578382e+00 3.368510e+00 -1.023598e+01 -3.596628e+01 -3.517879e+00 1.015995e+01 -8.904160e+00 1.898750e+00 -8.151526e+00 7.145280e-01 -5.536783e-02 9.359369e-01 1.242716e-01 -5.501862e-01 -4.011617e-01 8.768223e-01 -6.677437e-01 4.438159e-01 3.335729e-01 -9.373515e-01 1.382452e+00 -1.175663e+00 9.288160e-01 5.546129e-01 5.405426e-04 
1.503438e+01 6.802134e-01 3.272441e+00 -9.061070e+00 -3.733072e+01 -3.249398e+00 1.175271e+01 -9.116525e+00 3.825339e+00 -9.566780e+00 1.157895e+00 8.730326e-01 9.390459e-01 -5.101485e-02 -9.234953e-01 -8.892668e-01 9.463867e-01 -1.495743e-03 4.260439e-01 4.602223e-01 -9.240197e-01 9.234595e-01 -1.189394e+00 1.066599e+00 1.142442e+00 4.953611e-03 
1.486336e+01 -1.656104e-01 2.092478e+00 -8.169174e+00 -3.679238e+01 -3.596882e+00 1.248068e+01 -9.978431e+00 4.371741e+00 -1.014019e+01 1.930819e+00 1.706026e+00 9.483141e-01 -1.388019e-01 -1.218510e+00 -1.162628e+00 9.705642e-01 8.330833e-01 8.246417e-01 -9.613457e-02 -5.008830e-01 2.323629e-01 -1.389310e+00 1.414503e+00 1.912314e+00 7.690847e-03 
1.462334e+01 -1.907724e+00 2.751760e-01 -7.297442e+00 -3.532422e+01 -1.444100e+00 1.146615e+01 -1.078847e+01 3.605607e+00 -1.168678e+01 4.589132e+00 3.915883e+00 9.567941e-01 -1.981973e-01 -1.557482e+00 -1.914519e+00 5.490236e-01 2.781640e+00 1.031691e+00 -4.420078e-01 -4.722038e-01 -9.372902e-01 -6.088365e-01 1.260999e+00 2.147519e+00 1.391112e-02 
1.444565e+01 -3.220201e+00 -9.459996e-01 -6.264970e+00 -3.280411e+01 -2.973189e-01 9.822554e+00 -1.057260e+01 3.170430e+00 -1.403807e+01 6.071427e+00 7.984777e+00 9.655170e-01 2.308842e-01 -2.054448e+00 -1.968905e+00 2.850362e-01 3.905402e+00 8.961581e-01 -5.245129e-01 -3.224332e-01 -8.674474e-01 3.298783e-01 8.788298e-01 2.085764e+00 1.277575e-02 
1.425225e+01 -5.579899e+00 -4.780914e+00 -7.268054e+00 -2.541665e+01 2.592773e-01 1.087173e+01 -1.118046e+01 -2.604566e-01 -1.066202e+01 5.392587e+00 8.471250e+00 1.000000e+00 3.560311e-01 -2.032975e+00 -1.956479e+00 2.205753e-03 4.972247e+00 -2.558807e-01 -9.073414e-01 6.449960e-01 -8.722534e-01 1.286037e+00 -1.638536e-01 1.946245e+00 7.802325e-03 
1.620333e+01 -8.601763e+00 -5.224002e+00 -6.758687e+00 -2.221915e+01 3.221965e-02 1.015532e+01 -1.139460e+01 1.967536e+00 -9.003182e+00 5.923241e+00 9.857162e+00 9.905899e-01 3.879299e-01 -1.694407e+00 -1.375057e+00 1.573569e-01 5.394947e+00 -1.661705e+00 -2.619891e+00 1.513431e+00 -1.419006e-01 1.945034e+00 2.583956e-01 -3.145310e-01 -8.227551e-03 
1.552465e+01 -9.381821e+00 -7.368217e+00 -7.039556e+00 -1.575547e+01 -2.888273e+00 6.763055e+00 -7.152491e+00 -1.542127e-01 -7.774041e+00 3.843957e+00 1.271091e+01 9.832693e-01 2.759121e-01 -1.111002e+00 -5.299266e-01 5.102393e-01 5.202632e+00 -2.201840e+00 -4.979395e+00 2.042964e+00 6.627361e-01 2.195936e+00 7.642433e-01 -2.147933e+00 -2.088326e-02 
1.574909e+01 -9.791275e+00 -6.527631e+00 -5.592435e+00 -1.065997e+01 -7.032070e+00 -1.222563e+00 -5.019429e+00 2.407805e+00 -5.756897e+00 8.137719e+00 4.292290e+00 9.327446e-01 1.612043e-02 -6.527983e-01 -4.307164e-01 4.492547e-01 5.417169e+00 -2.136855e+00 -6.028180e+00 1.371788e+00 8.950531e-01 2.646334e+00 9.342025e-01 -3.447199e+00 -1.753486e-02 
1.585893e+01 -1.054015e+01 -6.778733e+00 -5.299984e+00 -5.183084e+00 -7.217776e+00 -8.336301e+00 -4.153230e+00 2.833090e+00 -1.305486e+00 8.106564e+00 5.140195e-01 9.245064e-01 -1.552420e-02 -2.936521e-01 -6.849087e-01 3.348538e-01 4.461590e+00 -1.229272e+00 -5.194839e+00 6.170821e-02 1.911050e+00 2.945087e+00 1.341944e-02 -3.609382e+00 -1.168199e-02 
1.611679e+01 -1.128659e+01 -7.672326e+00 -5.382199e+00 -4.195004e-01 -8.487301e+00 -1.243590e+01 -6.035293e+00 4.949150e+00 9.942096e-01 8.462950e+00 -1.280388e+00 9.322971e-01 -3.085651e-01 2.229503e-01 -1.568782e+00 4.307309e-01 3.263085e+00 -3.525522e-01 -3.109722e+00 -5.178947e-01 1.517137e+00 3.465432e+00 -1.701257e+00 -1.561450e+00 -1.943058e-03 
1.526318e+01 -1.010242e+01 -1.022041e+01 -5.470404e+00 1.432249e+00 -8.307016e+00 -1.360448e+01 -6.336018e+00 8.130363e+00 3.575842e+00 3.748439e+00 -2.549658e+00 9.250832e-01 -6.736105e-01 1.022573e+00 -1.210076e+00 4.111777e-01 1.659425e+00 5.744233e-01 -2.076867e+00 -7.217286e-01 1.338046e+00 3.044786e+00 -1.749465e+00 -6.565024e-01 -1.552891e-02 
1.450414e+01 -8.895388e+00 -1.265070e+01 -3.353570e+00 2.347788e+00 -8.250212e+00 -1.413708e+01 -6.517508e+00 7.344853e+00 9.129600e+00 1.810497e+00 -1.983123e+00 9.227409e-01 -3.780796e-01 2.002125e+00 -9.043608e-01 3.079111e-01 1.928691e+00 1.236052e+00 -1.653783e+00 6.901038e-01 1.963739e-01 1.449730e+00 -4.587174e-01 -6.466008e-01 -4.944881e-02 
1.329720e+01 -6.622887e+00 -1.033993e+01 -4.258410e+00 1.730396e+00 -4.464205e+00 -1.787004e+01 -7.520765e+00 8.325469e+00 9.850751e+00 2.685467e+00 -2.417125e+00 8.516399e-01 -1.628762e-01 2.186041e+00 -4.901288e-01 2.335680e-01 3.594720e+00 1.697638e+00 -1.233019e+00 2.577590e+00 -1.103292e-01 -6.462346e-01 3.694779e-01 -1.527086e+00 -7.897147e-02 
1.520939e+01 -3.015731e+00 -1.213437e+01 -4.448641e+00 9.074880e+00 -4.228446e+00 -1.857203e+01 -1.992400e+00 5.833467e+00 5.105406e+00 6.700850e+00 -4.579659e+00 7.217747e-01 -4.978561e-01 2.760758e+00 -2.816476e-01 1.293212e-01 5.084685e+00 8.265659e-01 1.174086e-01 4.854439e+00 6.239616e-01 -1.148959e+00 5.394944e-01 -2.401708e+00 -1.147794e-01 
1.409618e+01 -2.112049e+00 -1.292922e+01 -3.755028e+00 1.604230e+01 -1.829710e+00 -1.755210e+01 4.289379e+00 8.334411e+00 2.356765e+00 3.150653e+00 -8.886820e+00 6.307089e-01 -1.055946e+00 2.307884e+00 2.656094e-01 1.737714e+00 5.675289e+00 -3.928505e-01 3.112034e+00 4.677782e+00 -1.508747e-01 -1.232299e+00 -1.455342e+00 -1.022266e+00 -1.323747e-01 
1.161537e+01 2.652985e+00 -1.276429e+01 -2.958655e+00 2.061526e+01 -5.434629e+00 -1.370901e+01 1.184962e+01 1.046019e+01 7.131794e+00 4.275376e+00 -1.075682e+01 4.593096e-01 -1.715122e+00 1.575198e+00 1.383458e+00 2.069660e+00 3.181149e+00 -1.325961e-01 4.218240e+00 2.527683e+00 5.333002e-01 -6.711680e-01 -3.530204e+00 1.997824e-01 -1.258258e-01 
9.814480e+00 2.082175e+00 -8.696921e+00 3.685168e+00 2.433665e+01 -5.825365e+00 -4.741379e+00 8.947134e+00 5.257733e+00 2.676060e+00 -3.378507e+00 -4.439875e+00 3.209991e-01 -2.137574e+00 -3.936166e-01 1.879593e+00 2.773222e+00 6.644459e-02 -2.606712e-01 5.831163e+00 6.747103e-03 -1.274480e+00 -4.393722e-01 -1.676103e+00 1.761785e+00 -1.042535e-01 
8.774629e+00 2.763147e+00 -7.333233e+00 2.179561e+00 2.083345e+01 -2.893598e+00 -3.886191e+00 8.317139e+00 1.003831e+01 1.589919e+00 -7.685590e+00 -5.804219e+00 2.475007e-01 -1.863536e+00 -1.597153e+00 1.988124e+00 3.223949e+00 -1.244207e+00 1.354101e+00 5.674994e+00 -1.779395e+00 -2.541982e+00 -1.682042e+00 -9.566426e-01 7.709346e-01 -6.710874e-02 
4.828682e+00 -4.135213e+00 -6.246784e+00 7.541972e+00 1.626543e+01 -4.403582e+00 6.692305e+00 6.089353e+00 2.172952e+00 2.930842e+00 7.506223e-01 -2.554193e+00 2.153459e-01 -2.287944e+00 -3.957160e-01 1.306632e+00 1.454481e-01 8.313751e-03 -3.169222e-01 2.000864e+00 -2.003574e+00 1.859749e-01 -3.184313e+00 1.462483e+00 4.927267e-01 -3.541655e-02 
4.790590e+00 -2.224085e+00 -4.048742e+00 1.123269e+01 1.842983e+01 6.249850e-01 8.949121e+00 4.381529e+00 -7.073293e-01 -1.405807e+00 -2.572402e+00 -7.844985e+00 1.765925e-01 -1.772296e+00 1.265857e-01 8.925403e-01 -1.777398e-01 -1.562928e-01 -1.513749e+00 -5.895708e-01 -2.213767e+00 -5.193853e-01 -3.292914e+00 4.518892e-01 8.814953e-01 -5.308520e-02 
3.667769e-01 2.597211e+00 -3.806005e+00 -1.141565e-01 2.558003e+01 -9.169268e+00 -1.154716e+00 8.970667e-01 1.156043e+01 -1.174764e+01 1.377315e+00 -9.558586e-01 1.793705e-01 -1.438691e-01 1.599575e+00 4.567993e-01 -8.112799e-01 -5.405711e-01 -3.105291e-01 -3.121420e+00 4.040895e-01 4.276592e-01 -1.414680e+00 -1.460339e+00 1.091345e+00 -6.910256e-02 
2.144103e+00 2.986342e-02 -4.090920e+00 5.118926e+00 1.539469e+01 -8.079500e+00 -2.910534e+00 -1.555534e-01 2.747643e+00 -7.535409e+00 -5.739491e+00 -2.195910e+00 6.246567e-05 6.064233e-01 1.408199e+00 1.851805e-01 -1.220974e+00 -1.987217e+00 1.271896e-02 -3.152092e+00 1.112974e+00 2.206257e-01 1.618682e+00 -1.394030e+00 1.043014e+00 -7.379918e-02 
5.432580e+00 2.735688e+00 -3.941698e+00 6.542455e+00 1.508015e+01 -1.603984e+00 -2.984967e+00 1.037834e+01 2.583762e+00 -1.077756e+00 -4.967530e+00 7.799482e-02 -4.190183e-02 4.095050e-01 2.867886e-01 1.465499e+00 6.242976e-01 -4.981554e+00 3.317444e+00 1.122840e+00 9.111805e-01 -2.572126e+00 4.366086e+00 -1.554288e+00 4.597483e-01 -6.445594e-02 
5.289804e+00 4.747670e+00 -3.054993e+00 1.799512e+00 1.374369e+01 -3.094062e+00 -5.896209e+00 5.205760e+00 4.884130e+00 1.352660e+00 -6.370129e+00 -3.146840e+00 -8.176720e-02 -1.023891e+00 7.070300e-01 3.030172e+00 -3.306195e-01 -3.813781e+00 2.576854e+00 1.300422e+00 -1.399119e+00 -1.925759e+00 4.094851e+00 1.628570e+00 -2.633923e-01 -3.025368e-02 
8.414512e-01 1.672250e+00 3.003525e+00 4.667039e+00 1.497755e+00 4.925234e+00 5.952322e+00 2.772313e+00 -2.368448e+00 5.638753e+00 -6.078807e+00 1.818348e+00 -1.019944e-01 -1.926156e+00 7.264990e-01 3.054109e+00 -5.504136e-01 -2.679952e+00 1.925183e+00 1.946338e+00 -1.587705e+00 -2.132761e+00 1.984058e+00 9.234865e-01 -1.523106e+00 -2.581742e-02 
-6.797891e-01 4.096732e+00 7.587329e+00 4.403537e+00 3.116978e+00 1.540162e+00 -8.770692e-01 -3.348135e+00 -4.405048e+00 9.580590e+00 2.958998e+00 -4.383048e+00 -1.211597e-01 -1.636066e+00 1.258833e+00 2.200574e+00 7.109845e-01 -3.754897e-01 1.071160e+00 1.266025e+00 -8.791625e-02 -2.790546e+00 2.644929e-01 1.783116e+00 -1.614506e-01 -1.883492e-02 
-1.213403e+00 6.693652e+00 6.007685e+00 2.488374e+00 6.993748e+00 5.704817e+00 4.237153e+00 6.716763e+00 -3.435455e+00 4.728571e+00 -5.014661e+00 -6.919433e+00 -1.512927e-01 -6.495564e-01 2.033945e+00 1.192549e+00 8.922603e-01 2.368503e+00 -7.187965e-01 -1.365355e+00 2.102521e-01 -9.751288e-01 -1.160881e+00 7.431149e-01 5.362845e-03 -1.287296e-02 
-1.863100e+00 8.531136e+00 6.445796e+00 6.443767e+00 9.118246e+00 1.871948e+00 1.291502e+00 2.793953e+00 -8.535094e+00 3.130216e+00 2.013376e+00 4.147980e-01 -1.512927e-01 -2.405774e-01 1.411951e+00 3.354790e-01 9.494654e-01 1.301324e+00 -9.201521e-01 -8.662149e-01 6.786632e-01 5.777320e-01 -1.451611e+00 -8.975868e-01 1.977695e+00 -6.026602e-03 
-1.814675e+00 9.624773e+00 9.537034e+00 8.108225e+00 1.033964e+01 1.165359e+00 -1.958740e+00 7.525294e-01 -5.179069e+00 3.059535e+00 -1.890421e+00 -5.537611e-01 -1.512927e-01 -2.122632e-01 7.499357e-01 5.336546e-01 5.446101e-01 -4.279954e-01 -5.874382e-01 -1.100413e+00 -1.309063e+00 1.279209e+00 -4.309521e-01 6.050591e-01 1.592552e+00 0.000000e+00 
-1.582040e+00 9.690926e+00 7.500050e+00 6.340939e+00 7.950654e+00 -7.908697e-01 -2.110198e+00 3.027298e+00 -6.445811e-01 3.157052e+00 -3.091056e+00 2.322589e+00 -1.512927e-01 -4.846414e-01 2.170563e-01 6.114506e-01 -5.533748e-02 -7.050066e-02 2.293580e-01 3.701220e-01 -6.294230e-01 1.673542e+00 -1.738205e-01 -3.357868e-01 -2.251407e-01 0.000000e+00 
-2.415249e+00 9.863436e+00 8.148830e+00 5.262839e+00 5.437567e+00 4.099035e+00 4.359370e-01 5.477381e-02 -9.846649e-01 2.560392e+00 5.628501e-01 8.943200e-02 -1.512927e-01 -9.258026e-01 -2.696169e-01 -3.149676e-01 1.288900e-02 -6.376233e-02 -2.203679e-02 1.233386e+00 -2.850648e-01 6.201078e-02 -2.141221e-01 2.854679e-01 -1.026590e-01 0.000000e+00 
-3.986020e+00 9.497086e+00 1.019715e+01 7.589772e+00 1.121678e+01 1.551900e+00 1.944774e+00 -4.283637e-03 -2.264584e+00 2.510684e+00 -8.921939e-01 -1.032502e+00 -1.512927e-01 -1.215308e+00 -6.571406e-01 -7.699321e-01 -2.576587e-01 4.269361e-01 8.215278e-01 1.211707e+00 4.187525e-01 -6.468420e-01 -7.611881e-01 -5.081655e-01 -6.954854e-01 0.000000e+00 
-5.241698e+00 8.373608e+00 6.613646e+00 7.548253e+00 8.387762e+00 -1.162102e-01 2.180703e+00 8.429962e-01 -4.059013e+00 2.312109e+00 -1.562513e+00 6.104894e-01 -1.512927e-01 -1.152262e+00 -7.166936e-01 -1.184755e+00 -1.302023e+00 4.402544e-01 -1.269278e-01 3.633769e-01 1.325776e+00 -9.409357e-01 -9.589901e-01 -1.758147e+00 5.392670e-02 0.000000e+00 
-6.245358e+00 7.150136e+00 4.417982e+00 3.909938e+00 8.610236e+00 5.424392e+00 3.075953e+00 4.726950e+00 -2.341617e+00 -5.247465e-01 -4.569202e+00 -1.415367e+00 -1.512927e-01 -3.061429e-01 -1.270870e-01 -2.663646e-01 -4.118582e-01 -4.710095e-01 8.973472e-02 6.506784e-01 1.448054e+00 4.275667e-01 -6.218875e-01 -7.296753e-01 5.642219e-01 0.000000e+00 
-7.046890e+00 7.453443e+00 5.114640e+00 5.926433e-01 8.942109e+00 1.528150e+00 1.687232e+00 4.318036e+00 -5.650827e+00 -7.168425e-01 -6.389378e+00 5.504978e-01 -1.512927e-01 3.944864e-02 -3.610226e-01 6.407430e-01 9.073372e-01 9.132259e-01 5.021986e-01 1.144101e+00 1.127205e+00 2.244244e-01 -4.685148e-02 5.365015e-01 3.967090e-01 0.000000e+00 
-4.614139e+00 9.321733e+00 9.614830e+00 9.008286e+00 8.584557e+00 1.178393e+00 5.444901e+00 5.498468e+00 6.691563e-01 9.157224e-01 -2.127137e+00 1.818603e+00 -1.512927e-01 2.169549e-01 -4.942717e-01 3.848373e-01 1.514334e+00 4.954924e-01 3.444048e-01 -1.124530e-01 1.236334e-02 4.997608e-01 3.400452e-01 1.327057e+00 1.576622e-01 0.000000e+00 
-5.860065e+00 5.482697e+00 7.218936e+00 9.535765e+00 1.296673e+01 4.517782e+00 6.716734e+00 6.093264e+00 -4.442278e+00 1.357617e+00 -1.010379e-01 9.770492e-01 -1.512927e-01 -1.672311e-01 -6.611775e-01 -8.997055e-01 1.395910e+00 4.488945e-01 1.047815e+00 -9.322786e-01 3.875966e-02 9.231345e-01 5.331747e-01 5.620847e-01 -2.599578e-01 0.000000e+00 
-5.753996e+00 5.664151e+00 5.290020e+00 7.010045e+00 9.075386e+00 5.651600e+00 -1.063347e-03 3.901153e+00 -4.470878e-01 1.382500e-01 -1.078088e+00 -8.403312e-01 -1.512927e-01 -4.904633e-01 -7.606189e-01 -1.244973e+00 -2.536713e-01 2.510216e-01 4.675204e-01 -1.272547e+00 3.103592e-01 3.843524e-02 9.637908e-01 7.396031e-01 5.314536e-01 0.000000e+00 
-7.313117e+00 5.976346e+00 2.778517e+00 8.571315e+00 1.094117e+01 4.530619e+00 -2.511787e-01 5.310492e+00 -4.770322e-01 2.337767e+00 -4.103480e+00 5.801762e-01 -1.512927e-01 -3.245805e-01 -3.381051e-01 -3.659853e-01 -7.708931e-01 -5.949227e-01 -6.077284e-01 -5.806606e-01 5.974871e-01 -1.830432e-01 4.981380e-01 4.820769e-01 4.783025e-01 0.000000e+00 
-6.339929e+00 5.271813e+00 5.610173e+00 8.222155e+00 1.085245e+01 3.509577e+00 2.566123e+00 7.441649e+00 -1.121290e+00 5.244601e+00 3.572099e+00 4.674308e+00 -1.512927e-01 -1.302347e-02 3.033124e-01 6.043358e-01 -6.484221e-01 -2.318115e-02 -9.342039e-01 9.617919e-01 1.063691e+00 2.976437e-01 7.024668e-02 4.131768e-02 -4.972767e-01 0.000000e+00 
-7.190001e+00 3.988340e+00 5.228933e+00 5.075245e+00 9.103588e+00 2.550152e+00 2.529838e+00 7.310451e+00 -5.020392e+00 1.295131e+00 -1.574647e-02 6.112422e-01 -1.512927e-01 1.010351e+00 5.972239e-01 5.556141e-01 -1.719606e+00 -1.059492e+00 -8.589712e-01 -5.151101e-01 -1.492743e+00 -1.560206e+00 -1.282352e+00 -8.715696e-01 -1.032503e+00 0.000000e+00 
-5.880672e+00 8.174716e+00 7.086492e+00 5.515970e+00 9.878269e+00 1.970815e+00 3.417388e+00 8.219629e+00 3.312811e+00 1.010801e+00 -2.915366e+00 -3.342248e+00 -1.512927e-01 1.172010e+00 9.356397e-01 5.502197e-01 -7.240790e-01 -9.137287e-01 -1.967436e-01 -1.036973e+00 -3.105633e+00 -2.383554e+00 -1.725621e+00 -1.585828e+00 -1.199046e+00 0.000000e+00 
-2.490989e+00 7.511015e+00 4.818429e+00 1.326378e+00 6.130797e+00 1.005144e+00 -3.252361e+00 -2.542215e+00 -1.049511e+01 -1.957095e+00 -5.217596e+00 -5.740613e-01 -1.512927e-01 5.388187e-01 7.303224e-01 1.086111e+00 -6.531911e-02 -1.327865e+00 2.866106e-01 4.531739e-01 -1.629662e+00 -1.159650e+00 -1.060282e+00 -5.078768e-01 6.359869e-01 0.000000e+00 
-2.829384e+00 8.188675e+00 8.566524e+00 6.476193e+00 7.770199e+00 3.298363e+00 2.723595e-01 -3.160186e+00 -1.030170e+01 -1.757390e+00 -1.756115e+00 -7.282720e-01 -1.512927e-01 -3.812322e-01 -9.615302e-02 1.076701e+00 4.472942e-02 -1.533245e+00 5.011519e-01 1.552225e+00 6.590986e-02 -8.164665e-01 -7.931054e-01 1.644060e-01 1.471112e+00 0.000000e+00 
-6.021551e+00 7.632972e+00 9.919474e+00 4.268538e+00 3.518297e+00 3.319431e+00 6.368222e+00 4.852047e+00 -4.011386e+00 -2.622182e+00 -3.134756e+00 2.484189e+00 -1.512927e-01 -1.025329e+00 -3.117881e-02 1.155504e+00 3.676663e-01 -9.476904e-01 4.649642e-01 2.533703e+00 2.280076e+00 1.925777e+00 -2.194967e-01 2.787038e-01 9.328960e-01 0.000000e+00 
