-4.923490e+00 9.126796e+00 -1.404095e-02 2.720468e+00 7.902331e+00 -2.162669e+00 5.902962e+00 1.049783e+01 5.988788e+00 7.034822e+00 3.520040e+00 9.472715e-01 -1.512926e-01 -4.640667e-01 2.134317e-01 -1.649422e-01 -1.094634e+00 -7.427036e-01 1.169818e-01 -7.642207e-02 -1.626694e+00 -1.259543e+00 -2.200660e-01 7.516659e-01 1.252472e+00 0.000000e+00 
-5.863114e+00 8.501647e+00 -1.817161e+00 -1.651162e+00 7.494555e+00 -2.573335e+00 6.168478e+00 7.405536e+00 -6.746619e-01 5.578621e+00 2.606103e+00 3.831446e+00 -1.512926e-01 -1.182190e-01 4.570656e-01 4.600715e-01 -6.670392e-01 -3.665392e-01 1.447204e-01 -1.022787e+00 -1.875502e+00 -1.225861e+00 -8.186156e-01 1.361556e+00 1.544146e+00 0.000000e+00 
-6.774011e+00 1.050653e+01 6.280816e-02 -5.668855e-01 4.392702e+00 -1.372426e+00 5.388093e+00 3.910513e+00 3.022798e+00 6.662592e+00 7.735338e+00 5.767543e+00 -1.512926e-01 3.311556e-01 1.757113e-01 -1.143826e-01 -1.332245e-01 -2.730021e-01 6.789640e-01 -1.420760e+00 -2.090712e+00 -2.236702e+00 -5.736939e-01 1.611112e+00 1.423556e+00 0.000000e+00 
-4.589324e+00 1.072226e+01 2.247892e+00 1.028949e+00 7.824450e+00 -1.834188e+00 1.046461e+00 4.413986e+00 1.342476e+00 3.127859e+00 8.220169e+00 6.257865e+00 -1.512926e-01 3.641186e-01 1.745290e-01 2.102787e-01 4.181717e-02 3.281526e-01 2.468947e-01 -7.434849e-01 -3.379782e-01 -5.496875e-01 -9.423256e-04 9.484557e-01 4.850746e-01 0.000000e+00 
-3.904607e+00 8.895047e+00 -2.618480e+00 7.142901e-01 6.372373e+00 8.625774e-01 1.360170e+00 1.540049e+00 -6.203290e+00 5.391734e+00 8.768565e+00 6.851843e+00 -1.512926e-01 1.400953e-01 -8.351870e-02 6.718040e-03 -5.797061e-01 8.255019e-01 -3.215781e-01 -2.301195e-01 2.933466e-01 -3.037232e-01 -4.349736e-01 -1.586571e+00 -7.298603e-01 0.000000e+00 
-5.477223e+00 1.018003e+01 5.748767e-01 -2.082664e+00 8.145482e+00 -2.456364e+00 4.465015e+00 6.900877e+00 1.189945e+00 6.209339e+00 6.831768e+00 5.714670e+00 -1.512926e-01 -6.519858e-01 -6.829295e-01 -2.719716e-01 -5.625588e-01 1.480686e-01 -7.847260e-01 1.198799e+00 7.228749e-01 1.203197e+00 7.161829e-01 -7.845028e-01 -1.358833e+00 0.000000e+00 
-5.629584e+00 1.036005e+01 9.329060e-01 -1.909609e+00 8.359695e+00 -2.669229e+00 2.528219e+00 4.133800e+00 1.580447e+00 2.946985e+00 4.966819e-01 2.389839e+00 -1.512926e-01 -4.881725e-01 -3.199987e-01 1.931337e-01 5.066291e-01 -2.919843e-01 -5.022057e-01 1.246170e+00 -9.469390e-03 1.572466e+00 -3.654777e-01 -1.287031e+00 -8.200014e-01 0.000000e+00 
-6.986764e+00 6.575110e+00 -8.876592e-01 -4.718952e-01 7.571132e+00 -3.991914e+00 6.456433e+00 6.731485e+00 3.466594e+00 7.931148e+00 8.433597e+00 1.694701e+00 -1.512926e-01 -1.011953e-01 -9.282802e-01 -7.057005e-01 8.247334e-01 -4.503522e-01 7.804857e-01 1.627742e+00 -1.456828e+00 -1.561965e+00 -8.503731e-01 -2.171309e-01 -1.130361e-01 0.000000e+00 
-5.590699e+00 9.097515e+00 -9.215438e-01 2.442051e+00 5.199627e+00 -8.806758e-01 6.595310e+00 1.577398e+00 5.207179e-01 2.703441e+00 1.532496e+00 4.761820e+00 -1.512926e-01 -2.400064e-01 -4.997411e-01 4.686624e-01 1.270930e+00 2.913311e-01 8.900210e-01 -9.650793e-02 -1.014137e+00 -1.558169e+00 -8.916022e-01 1.368706e+00 9.913033e-01 0.000000e+00 
-6.002643e+00 6.169898e+00 -2.026401e+00 -1.348274e-01 7.473756e+00 5.517888e-01 1.057018e+01 8.949397e-01 -6.090016e+00 2.079246e+00 5.228207e+00 3.963499e+00 -1.512926e-01 -7.961331e-02 -1.184605e-02 3.457576e-01 4.528689e-02 2.984808e-01 1.164249e+00 -9.146298e-01 -8.358766e-01 7.971096e-03 -1.459619e+00 -6.484343e-01 1.345241e+00 0.000000e+00 
-7.321677e+00 8.063948e+00 3.845589e+00 4.276507e+00 9.865040e+00 -4.909749e-01 -1.119447e-02 1.981386e+00 -1.432090e+00 1.414926e+00 8.942908e+00 6.211957e+00 -1.512926e-01 -3.415743e-01 -4.351972e-01 1.219991e-01 -9.380776e-01 -1.485565e-01 3.521117e-01 -5.393810e-02 1.248351e+00 1.629596e+00 2.723478e-01 4.019543e-01 4.263560e-01 0.000000e+00 
-6.519341e+00 7.032664e+00 -1.542438e+00 -1.162689e+00 6.730829e+00 1.634480e+00 5.186536e+00 2.350108e+00 4.482854e+00 1.277313e+00 1.486219e+00 7.695837e+00 -1.512926e-01 2.614002e-01 1.133922e-01 -2.166575e-01 -1.129200e+00 -1.256313e+00 -4.775953e-01 8.655004e-02 1.301523e+00 1.306441e-01 -1.179806e-01 -9.229229e-01 -2.865132e-01 0.000000e+00 
-7.040221e+00 6.490147e+00 -5.535297e-01 -1.734406e+00 4.828308e+00 3.385367e-01 9.017441e+00 7.091569e+00 3.382263e+00 4.466146e+00 5.413261e+00 5.027431e+00 -1.512926e-01 1.218635e+00 1.558607e-01 -1.027301e+00 -1.276406e+00 -1.152180e+00 -2.014334e-02 1.832286e+00 3.215325e-01 -1.091404e+00 2.293912e-01 5.356562e-02 6.977248e-02 0.000000e+00 
-4.836370e+00 7.523759e+00 -9.101292e-01 -2.775369e+00 3.710557e+00 -2.250943e+00 6.488613e+00 4.847465e+00 -7.843972e+00 -3.626746e-02 2.378416e+00 3.123196e+00 -1.512926e-01 2.935443e+00 -8.965352e-01 -2.633006e-01 -6.025438e-01 -8.026271e-01 8.898652e-01 -2.978314e+00 -1.693038e+00 -1.890175e+00 2.588077e-02 7.411484e-01 -1.636305e+00 0.000000e+00 
-2.069988e+00 8.597704e+00 -1.607069e+00 -1.299182e+00 5.614275e+00 1.351020e+00 8.499195e+00 2.340371e+00 -7.256966e-01 3.218672e+00 8.764638e+00 8.847139e+00 -1.512926e-01 3.828098e+00 -1.749202e+00 -3.194918e-01 -4.120602e-01 -6.789799e-01 2.825217e+00 -6.161205e+00 -2.849912e+00 -7.710342e-01 8.942141e-02 1.750176e-01 -2.608431e+00 4.155441e-02 
5.672758e+00 1.496209e+00 -2.332171e+00 -4.393021e+00 2.324710e+00 5.577565e+00 -9.445910e+00 -3.739482e+00 -2.914041e+00 2.030454e+00 3.516273e+00 -2.395544e+00 -1.512926e-01 2.960941e+00 -1.505858e+00 5.307488e-01 7.395309e-01 -2.812059e-02 1.392411e+00 -5.980502e+00 -2.676013e+00 1.804106e+00 7.290266e-01 -2.494989e-01 -2.425862e+00 2.077721e-02 
6.845702e+00 7.579136e-01 -1.439968e+00 -2.985882e+00 2.126332e+00 1.055037e+01 -1.382133e+01 -2.864517e+00 -2.937874e+00 3.879893e+00 5.719420e+00 -5.255353e+00 5.647951e-02 4.768338e-01 -1.035926e+00 1.745348e+00 1.338673e+00 8.458570e-01 -8.888224e-01 -4.532095e+00 -9.917795e-01 -1.132172e-01 -1.241510e+00 -2.329587e+00 -2.525906e+00 0.000000e+00 
5.510491e+00 3.914363e+00 1.660064e+00 1.765635e+00 5.313926e+00 1.114397e-01 -1.225364e+01 -5.930157e+00 2.282649e+00 3.278255e+00 2.653530e+00 -1.954865e+00 -1.512926e-01 -1.858404e+00 -6.508049e-01 2.011783e+00 1.180336e+00 1.446888e+00 -2.596118e+00 4.134234e-01 2.027689e+00 6.867299e-01 -2.243959e+00 -1.861030e+00 6.972480e-02 -2.077721e-02 
3.953142e-01 2.208998e+00 5.123553e+00 2.314855e+00 8.348951e+00 -3.600287e-01 -1.275742e+01 -1.523190e+00 -3.890127e+00 -3.612778e+00 -2.451924e+00 -4.002729e+00 -1.512926e-01 -2.013018e+00 -1.489264e+00 1.245600e+00 -2.183146e-01 2.756044e-01 -3.082533e+00 1.754306e+00 3.299807e+00 9.298593e-01 -1.827929e+00 -6.462321e-01 1.265932e+00 -3.441113e-02 
-3.940668e-01 -2.483357e+00 4.444984e+00 -1.141708e+00 6.447839e+00 -1.947826e+00 -7.910747e+00 5.728302e+00 9.957354e-01 -5.443005e+00 -1.703207e+00 -2.673232e+00 -1.512926e-01 -1.170275e+00 -2.106571e+00 2.310386e-02 -1.371038e+00 -8.188294e-01 -9.434649e-01 6.112753e-01 2.385970e+00 1.763881e-01 -1.322662e+00 1.429223e-01 4.904451e-01 1.548256e-02 
-2.671118e-01 -3.489545e+00 3.395574e+00 -2.623783e+00 2.937397e+00 -3.832664e+00 -7.221242e+00 7.805291e+00 2.354880e+00 -8.991202e-01 4.666628e+00 1.433491e+00 -1.155761e-01 -8.087147e-01 -2.034715e+00 -9.098682e-01 -1.545817e+00 -1.631895e+00 -1.160810e+00 -1.803147e-01 3.989615e-01 7.460804e-01 1.545163e-01 1.830271e+00 4.966876e-01 2.873521e-02 
-9.673119e-03 -3.769222e+00 2.639573e+00 -2.620238e+00 3.925556e+00 -2.869567e+00 -1.196535e+01 1.335453e+00 4.208612e-02 -4.691883e+00 -1.911347e-01 -2.220750e+00 -9.173799e-02 -8.539048e-01 -1.579942e+00 -1.116855e+00 -6.956613e-01 -1.213554e+00 -5.220128e-01 -1.147415e+00 -1.867830e+00 -1.630957e+00 -5.829270e-01 5.231296e-01 -1.384299e-01 3.706468e-02 
-3.840456e+00 -7.321646e+00 1.476917e+00 -4.674966e+00 1.450620e+00 -5.703211e+00 -1.163169e+01 2.668042e+00 3.170998e-01 -3.215757e+00 5.943395e+00 -1.745532e+00 -3.739381e-02 -7.616210e-01 -5.851623e-01 -1.337117e-01 9.138638e-01 1.334037e-01 2.990790e-01 -1.429502e+00 -3.487160e+00 -1.612740e+00 -1.832776e+00 -2.421072e+00 -3.393403e-02 3.280640e-02 
-2.876919e+00 -8.467017e+00 -1.799642e-01 -3.594423e+00 1.123455e+00 -3.622616e+00 -1.144260e+01 -1.042221e+00 -6.140159e+00 -7.199322e+00 2.740576e-01 -1.775869e+00 -5.060315e-03 -3.092623e-01 3.585368e-01 6.285452e-01 7.125772e-01 -4.620179e-01 5.819156e-01 -6.777026e-01 -2.346926e+00 3.371136e-02 -8.774482e-01 -2.318198e+00 1.434002e-02 2.440789e-02 
-2.641594e+00 -4.066459e+00 4.136784e+00 2.432628e+00 5.005466e+00 -1.960744e+00 -1.463013e+01 -8.441671e+00 -2.617697e+00 -8.809282e+00 -7.671328e+00 1.041381e+00 5.116999e-03 3.486346e-01 9.353627e-01 5.242297e-01 8.726155e-01 -2.360104e-01 1.033131e-01 -4.524260e-01 -1.659045e+00 1.323172e+00 3.028655e-01 -2.471124e+00 -4.280338e-01 1.277560e-02 
-2.155416e+00 -3.604132e+00 4.452366e+00 -2.611149e+00 -1.619558e-01 -1.831223e+00 -1.385464e+01 -4.844323e+00 1.678041e+00 -6.282361e+00 -4.974765e+00 -3.542507e+00 9.046078e-03 -5.463047e-02 3.893121e-01 -2.658323e-01 -3.329125e-01 -1.436391e+00 -1.142262e+00 4.833384e-01 -3.407024e-01 1.144325e+00 1.840342e+00 1.477787e-01 -9.128237e-03 5.040008e-03 
-2.458035e+00 -5.076275e+00 1.781901e+00 -8.035264e-01 9.132738e-01 -6.082342e+00 -1.268780e+01 -3.726134e+00 3.023860e+00 -2.159910e+00 -3.787816e+00 -3.002383e+00 1.943099e-02 -1.935318e-01 -2.588243e-01 -9.764773e-01 -5.409315e-01 -1.332029e+00 -6.033438e-01 1.885149e+00 7.278340e-01 -7.650785e-01 2.075957e+00 7.045834e-01 8.424177e-02 1.987827e-03 
-3.241851e+00 -6.015549e+00 -3.316843e-01 -3.640908e+00 -4.012405e+00 -7.273129e+00 -9.997072e+00 -5.103502e+00 -3.239311e+00 -1.322299e+00 -9.288046e-01 2.003714e-01 1.298273e-02 -5.898379e-01 -2.213027e-01 -1.287452e+00 -2.899902e-01 -1.062433e+00 2.237367e-01 2.201759e+00 3.340203e-01 -1.446890e+00 8.912430e-01 1.114790e+00 1.401100e+00 1.880962e-03 
-3.066035e+00 -4.154872e+00 1.646423e+00 2.428505e-01 2.705472e-01 -2.256510e+00 -7.133167e+00 -4.672912e+00 -3.984413e+00 -9.095293e-01 -6.171391e+00 -4.088496e-01 1.308781e-02 -4.116279e-01 4.388370e-02 -5.538127e-01 1.806888e-01 -1.048115e+00 1.189061e+00 1.599599e+00 5.640011e-01 8.322179e-01 2.109568e-01 7.457868e-01 2.483951e-01 3.739053e-03 
-4.800605e+00 -5.171347e+00 -1.917156e+00 -4.584288e+00 -5.152755e+00 -2.625455e+00 -5.623163e+00 -2.700832e+00 -2.052269e+00 -2.451336e+00 1.790974e+00 2.166229e+00 2.162248e-02 -4.217625e-03 -1.883154e-02 -1.536650e-01 2.460149e-01 1.529469e-01 1.060382e+00 3.322167e-01 3.101449e-01 9.711272e-01 -1.300783e+00 -8.807270e-01 3.133342e-01 5.384147e-03 
-3.736797e+00 -5.278957e+00 -1.944273e-01 5.716074e-01 -3.757129e+00 -2.460873e+00 -6.876759e+00 -2.107464e+00 6.591429e+00 -5.406081e-01 -1.418771e+00 -2.743336e+00 3.380638e-02 2.096417e-01 -1.015849e-01 -9.378457e-03 -4.358294e-02 -2.211666e-01 5.179356e-01 1.830398e-01 4.745464e-01 8.597102e-01 -1.082282e+00 -9.978136e-01 2.373371e-01 4.002488e-03 
-2.927558e+00 -5.547664e+00 -1.795844e-01 -2.575212e+00 -1.233833e+00 -1.869039e+00 -8.464191e+00 -4.835502e+00 -3.671596e+00 -8.010675e+00 -7.708750e+00 2.934286e+00 2.954417e-02 2.892907e-01 -2.853115e-01 1.144753e-01 -2.711287e-01 1.884331e-01 4.780208e-01 -7.629315e-01 1.257209e-01 -6.963561e-01 6.686518e-01 -1.413257e+00 -7.512704e-01 -3.069740e-03 
-2.954350e+00 -4.474638e+00 7.307446e-01 -9.796023e-01 -2.794747e+00 -4.503965e-02 -4.797453e+00 -1.232845e+00 1.123801e+00 -3.541268e+00 -6.410597e+00 3.938073e-01 2.913940e-02 4.347048e-02 -2.255350e-01 2.043961e-01 -7.292069e-01 -5.052401e-01 1.394927e-01 -1.253496e+00 -1.013949e-01 -2.316764e-01 1.991749e+00 4.749317e-01 2.106461e-01 -2.993494e-03 
-3.745375e+00 -7.000064e+00 -1.807366e+00 -5.164327e+00 -4.691780e+00 -1.443268e+00 -1.047747e+01 -2.509537e+00 -2.800236e+00 2.392253e+00 -2.779397e+00 -3.158695e+00 8.607268e-03 1.292968e-01 4.537287e-02 4.126379e-01 6.406621e-01 6.219926e-02 -4.058037e-02 -1.624475e+00 9.505489e-02 2.020118e+00 2.640397e+00 1.994636e+00 -4.336884e-01 -1.007404e-02 
-3.110537e+00 -5.680432e+00 1.641444e+00 -1.779870e+00 -4.554356e+00 -1.976295e+00 -1.213760e+01 -3.777421e+00 4.997367e+00 4.216671e+00 -1.508789e+00 1.356385e+00 2.930737e-02 2.610892e-01 -1.454203e-01 7.445459e-01 1.349672e+00 8.840343e-01 -3.184667e-01 -1.270351e+00 1.407796e-01 2.674477e+00 4.886980e-01 4.922335e-02 -1.660883e-01 -6.937778e-03 
-2.202981e+00 -4.717902e+00 1.428256e+00 1.028232e+00 -4.303217e-02 -1.106313e+00 -1.291649e+01 -3.087939e+00 4.492210e+00 1.312336e+00 -1.864748e-01 2.845550e-01 -2.091002e-02 4.351045e-01 2.423405e-01 2.037383e-01 1.631242e+00 6.922895e-01 3.323319e-02 6.210641e-01 -6.052654e-02 2.274916e+00 -1.417318e+00 -1.993831e+00 5.583097e-01 -1.024473e-02 
-2.420101e+00 -6.342820e+00 2.835663e+00 2.672476e+00 -6.989493e-01 -1.805851e+00 -9.929701e+00 -2.397457e-01 1.084997e+01 -5.578200e-01 -7.460941e+00 -2.158259e+00 9.209156e-03 4.077010e-01 2.229185e-01 -5.336596e-01 3.961336e-01 -1.558045e-01 -7.049096e-01 6.362295e-01 -8.873308e-01 -1.212559e+00 -1.814402e+00 -2.333200e+00 -7.895577e-01 -2.287934e-02 
-1.915070e+00 -5.457168e+00 -1.385784e+00 7.657115e-01 -3.158036e+00 -1.362324e+00 -8.476101e+00 -4.581007e+00 5.648045e+00 -2.307090e+00 -9.772475e+00 1.390176e+00 -3.256726e-02 2.721723e-01 5.858458e-01 -6.142710e-01 -5.390915e-01 -8.894000e-01 -1.110595e+00 -5.509351e-01 -1.336744e+00 -1.976329e+00 -7.860071e-01 -1.337077e+00 -3.987791e-01 -3.002213e-02 
-1.215987e+00 -4.196207e+00 3.801650e-01 3.320587e-01 -3.775877e+00 -5.372838e+00 -1.117665e+01 -7.467541e+00 -1.643346e+00 -3.045624e+00 -8.381788e+00 -3.144214e+00 -7.926071e-02 4.002181e-01 9.397880e-01 -4.503540e-01 -6.541127e-01 -1.578717e-01 1.171731e-01 -4.469379e-01 -2.115520e+00 -2.599623e+00 -1.802917e-01 1.284814e+00 4.479288e-01 -4.152219e-02 
-1.444177e+00 -2.861979e+00 -4.153502e-01 -4.970162e-01 -2.951569e+00 -4.875797e+00 -1.504770e+01 -6.157762e+00 8.572218e-01 -1.373797e+00 -6.411437e+00 -1.216363e+00 -1.267858e-01 3.799462e-01 2.590770e-01 -6.716415e-03 3.545218e-02 2.408116e-01 7.154596e-01 6.242455e-01 -1.147355e+00 -1.165766e+00 1.107403e-01 1.440368e+00 3.471637e-02 -3.094825e-02 
-6.544571e-01 -2.941474e+00 9.867683e-02 3.327632e-02 -1.591541e+00 5.367508e-01 -8.878593e+00 -1.002897e+01 2.472627e-01 -1.925925e+00 -2.717392e+00 1.384654e+00 -1.512926e-01 4.653656e-01 3.662376e-01 3.430611e-01 9.950928e-02 5.005614e-01 1.927781e+00 2.717348e+00 -8.087403e-01 -2.591831e-01 -1.730653e-01 -7.057935e-01 -7.000816e-01 -1.685705e-02 
-2.961035e-01 -4.789149e+00 -1.278622e+00 1.092364e+00 -3.046145e+00 -7.398210e-01 -6.503901e+00 -9.037066e+00 -1.126090e+00 -2.313237e+00 -5.402832e+00 -7.006766e-01 -1.512926e-01 3.587219e-01 5.978614e-01 3.773916e-01 -8.585846e-01 -3.838456e-01 8.610464e-01 3.069754e+00 -2.387890e-01 5.821929e-02 6.234666e-01 -6.891974e-01 -2.446774e+00 -4.901362e-03 
5.368042e-01 -1.401434e+00 2.527106e+00 3.491521e-02 -1.225781e+00 2.198080e+00 -1.861804e+00 -1.007159e+01 -1.947606e+00 -3.441231e+00 -1.241506e+01 -6.902465e+00 -1.512926e-01 5.100708e-02 1.523944e+00 2.045218e-01 -8.468252e-01 4.643262e-01 -1.191190e+00 1.056045e+00 2.066015e+00 5.940982e-01 9.270961e-01 -5.209969e-01 -1.365036e+00 0.000000e+00 
-2.461977e-01 -6.426926e-01 2.573931e-01 -4.790758e+00 -5.053677e+00 -1.401229e+00 -3.207318e+00 -7.330397e+00 2.245753e+00 2.501188e+00 -5.008591e+00 -9.306671e+00 -1.512926e-01 2.281926e-01 2.378741e+00 4.738441e-01 -6.276016e-01 5.969974e-01 -7.492433e-01 1.359890e+00 2.606431e+00 1.103496e+00 1.663437e+00 1.045130e+00 1.366329e-02 0.000000e+00 
-4.243746e-01 2.605017e+00 3.532783e-01 -1.259289e+00 1.733855e+00 -5.088494e+00 -5.246659e+00 -5.522318e-01 1.531832e+00 3.023427e-01 -5.519497e+00 -1.137531e+00 -1.512926e-01 -2.295972e-01 1.705917e+00 -1.211750e+00 -7.104233e-01 -6.606001e-01 -9.922509e-01 1.516834e+00 3.214223e+00 1.234686e+00 1.216733e+00 2.356117e+00 2.028997e+00 0.000000e+00 
1.325449e+00 5.101329e+00 2.177513e+00 -1.398542e+00 -1.540977e+00 -8.427505e-01 1.987975e+00 -7.645923e-01 2.651670e+00 4.132158e+00 -3.624963e+00 -3.514827e+00 -1.512926e-01 -6.733885e-02 1.709484e+00 -7.681110e-01 8.066540e-01 4.465103e-02 -6.095716e-01 2.233412e+00 2.045695e+00 -5.012668e-01 -5.892910e-02 1.510343e+00 1.867678e+00 0.000000e+00 
-1.397005e+00 4.256140e+00 -4.491705e+00 -5.213309e+00 -6.285131e+00 -3.042414e+00 3.124722e+00 2.716620e+00 4.022865e+00 1.826947e+00 -1.326289e+00 3.465965e-01 -1.512926e-01 -2.265432e-01 1.519856e+00 -6.738175e-01 3.473330e-01 4.602939e-01 -1.982541e-01 1.768249e+00 9.393266e-01 -1.213873e+00 6.339145e-02 1.380224e+00 2.451304e-01 0.000000e+00 
-9.657669e-02 7.079168e+00 -1.160670e+00 1.219522e+00 -8.209281e-01 -5.472127e+00 3.774051e+00 1.263651e+00 -1.506098e+00 1.444241e+00 4.465189e-01 -7.103451e-01 -1.512926e-01 -4.357394e-01 1.604424e+00 -1.642756e-01 1.500933e-01 1.463573e+00 -7.795060e-01 9.622005e-01 1.570798e+00 -2.112077e+00 -7.509897e-01 7.622840e-01 -4.916170e-01 0.000000e+00 
-8.460779e-01 9.215376e+00 -1.346718e+00 -8.316557e-01 3.675301e+00 -3.765076e+00 2.701549e+00 3.130280e+00 -2.458647e+00 1.963259e+00 -6.541202e-01 -1.314120e+00 -1.512926e-01 -4.408377e-01 1.782026e+00 1.408855e+00 6.604875e-01 2.800910e+00 -2.459346e-01 -1.133302e-01 7.501044e-02 -1.914048e+00 5.214095e-03 3.944595e-01 -7.779625e-01 0.000000e+00 
-1.128712e+00 1.064383e+01 -2.163594e-01 -2.838902e+00 7.966726e-01 -4.378949e+00 7.010564e+00 6.882569e+00 -4.667957e+00 3.090541e-01 -1.496270e-01 -5.142554e+00 -1.512926e-01 -1.360492e+00 7.153563e-01 6.939064e-01 -1.505318e-01 1.406851e+00 -5.899470e-01 -1.168041e+00 -3.201205e-01 4.793329e-01 3.742998e-01 4.173846e-01 5.551026e-01 0.000000e+00 
-3.085126e+00 1.138394e+01 2.080413e+00 1.183407e-01 6.910619e+00 -4.818676e+00 9.398140e-01 2.822137e-01 -3.966443e+00 2.420611e+00 9.440815e-01 -1.327111e+00 -1.512926e-01 -1.310519e+00 2.605223e-01 1.105288e+00 1.041503e+00 1.851747e+00 1.109749e+00 -6.455784e-01 1.156641e-01 1.057882e+00 2.416446e-01 9.103055e-01 1.533500e+00 0.000000e+00 
-5.779513e+00 9.571668e+00 5.952969e-01 -8.135319e-03 4.595666e+00 -7.895062e+00 -1.185285e+00 1.087082e+00 1.644465e+00 3.087064e+00 1.734341e+00 2.071664e+00 -1.512926e-01 -8.754438e-01 -2.936002e-01 5.698725e-01 1.742408e+00 2.092077e+00 2.102683e+00 -2.792538e-01 8.329864e-02 3.130142e-01 -7.151569e-01 2.485555e-01 1.999795e+00 0.000000e+00 
-5.073270e+00 1.105407e+01 3.773892e+00 2.960473e+00 1.103454e+01 3.541725e+00 3.571581e+00 6.606344e+00 -3.254468e-01 1.782477e+00 2.955423e+00 2.746269e+00 -1.512926e-01 1.056790e+00 -1.363424e+00 -1.767974e+00 1.361079e-01 2.388581e-01 1.166363e+00 1.024448e+00 6.734973e-01 -1.134234e+00 -1.472375e+00 -2.209875e-01 5.529276e-01 0.000000e+00 
-4.511859e+00 9.340765e+00 1.786263e+00 4.452070e+00 9.195098e+00 1.954265e+00 4.298412e+00 4.136997e+00 -4.923385e+00 -2.947664e+00 8.747935e-02 2.819732e+00 -1.512926e-01 2.054561e+00 -2.763264e+00 -1.762501e+00 -1.027337e-01 -1.662410e+00 1.019300e-01 -2.019725e-02 -7.760103e-01 -1.727258e+00 -1.160085e+00 -1.740626e-01 -5.677000e-01 0.000000e+00 
1.564996e+00 4.682274e+00 -7.354943e+00 -1.431222e+00 5.805193e+00 -3.911522e+00 3.320207e+00 2.124743e+00 -6.353689e+00 -1.923901e+00 6.625750e-01 1.063492e+00 -1.512926e-01 1.066500e+00 -3.952672e+00 -1.293154e+00 -1.181911e+00 -3.169315e+00 -2.829734e+00 -1.821180e+00 -1.976979e+00 2.446092e-01 6.524758e-02 -4.321960e-01 -1.142039e+00 0.000000e+00 
1.174159e+00 -1.058758e+00 -2.652790e+00 1.674044e+00 -1.101712e+00 -3.658788e+00 -1.160584e+00 -5.521688e-01 -3.977705e+00 -8.601733e-01 2.010452e+00 7.455182e-02 -1.512926e-01 -7.546140e-01 -3.422220e+00 -5.022597e-02 -1.221348e+00 -2.138714e+00 -1.662861e+00 -2.596790e+00 -6.172161e-01 1.035831e-01 2.804096e-01 1.412515e-01 -2.180108e+00 1.097624e-02 
-2.583778e+00 -3.509527e+00 -4.723538e-01 -1.560066e+00 3.363667e-01 -7.800418e+00 -2.804822e+00 -9.339685e-01 4.247596e-01 1.064970e+00 -1.670427e-01 -1.591335e+00 -1.512926e-01 -3.306876e+00 -1.655904e+00 1.367930e+00 -5.044616e-01 -5.669511e-01 -7.075779e-01 -1.079940e+00 -5.334294e-01 4.376101e-01 -3.895198e-01 -5.525798e-01 -2.301507e+00 4.268448e-02 
-6.210542e+00 -3.674435e+00 -1.906161e+00 -1.590248e+00 1.235943e+00 -4.415589e+00 -5.623025e+00 2.580272e+00 -7.794693e+00 -3.040051e+00 1.208546e+00 -6.753395e+00 -9.641135e-02 -3.093050e+00 8.639350e-01 -8.236122e-02 -9.543226e-02 1.308446e+00 3.431119e-01 4.980995e-01 -4.115672e-01 8.226975e-01 -3.901400e-01 1.274731e-01 3.641696e-02 5.720929e-02 
-1.127704e+01 -2.289410e+00 -8.886088e-01 -2.321384e+00 1.801611e+00 -7.071012e+00 1.517266e-01 -2.108625e+00 -2.257145e+00 -2.781561e+00 -1.699371e+00 -7.030073e+00 3.468925e-02 -1.164118e+00 2.553728e+00 -3.771592e-01 9.155287e-01 -3.956787e-01 9.284221e-01 6.362654e-01 -7.781459e-01 -9.623852e-01 -9.668689e-01 5.557424e-01 2.338402e+00 5.244855e-02 
-9.944465e+00 2.650858e+00 -2.856468e+00 1.577542e+00 4.707895e+00 -2.307932e+00 -1.483610e-01 -2.022676e+00 1.476734e+00 -8.876078e-01 3.413982e+00 2.976005e+00 4.176301e-02 1.022985e-01 1.893412e+00 -8.447822e-01 7.224721e-01 -2.641965e-01 6.541564e-01 3.436310e-01 -3.627289e-01 2.444202e-01 1.948423e-01 6.431660e-01 2.763950e+00 4.906751e-02 
-6.537406e+00 6.096468e+00 -1.882996e+00 1.433682e+00 -3.378003e+00 -4.212136e+00 -2.360827e+00 -2.523224e+00 -9.022880e+00 -4.845596e+00 1.508951e+00 5.235977e+00 4.186302e-02 1.066329e+00 3.757261e-01 -1.227687e+00 -1.032555e-01 -5.247847e-01 2.458987e-01 -1.175304e+00 1.544504e+00 -1.362396e+00 -3.221841e-01 1.015435e+00 1.129141e+00 4.323576e-02 
-8.068864e+00 1.599689e+00 -5.632879e+00 1.445787e-01 2.504767e+00 -2.574245e+00 -2.648593e+00 9.739268e-01 -3.189725e+00 -1.033822e+00 2.820215e+00 9.333298e-01 1.453393e-01 1.402780e+00 -1.065635e+00 -1.751698e+00 -3.197406e-01 -1.503605e+00 -1.167591e+00 -6.840193e-01 1.241636e+00 -1.404659e+00 1.801558e-01 4.055302e-01 -1.892874e+00 7.735220e-02 
-6.883189e+00 1.148057e-01 -5.638840e+00 -2.121180e+00 2.792511e-01 -5.708362e+00 -4.474675e+00 4.115592e+00 -6.735894e+00 -4.319375e+00 3.674687e+00 -3.630298e-01 1.990799e-01 -1.612378e-01 -1.363971e+00 -1.465060e+00 -3.799635e-01 -9.173999e-02 -1.154627e+00 6.976415e-01 8.966431e-02 -6.329350e-02 9.899829e-01 4.132716e-01 -9.413508e-01 6.037171e-02 
-2.757673e+00 3.135161e-01 -9.737038e+00 1.756270e+00 -4.638758e+00 -7.397777e+00 -2.511534e+00 8.660958e-01 -6.690054e+00 -2.499397e-01 4.358765e+00 -3.688863e+00 3.499156e-01 -5.207809e-01 -2.202008e-01 -2.378160e-01 -7.838881e-03 -1.060356e+00 -9.249115e-01 1.169029e+00 -4.595323e-01 2.936799e-01 9.564335e-01 2.672941e-01 6.240215e-01 2.667484e-02 
-9.999190e+00 -8.030224e-02 -7.156219e+00 -1.271981e+00 -2.649407e-01 -7.573507e+00 1.058850e+00 -2.020987e+00 -7.589183e+00 -2.876228e-01 2.806034e+00 2.840319e+00 2.414334e-01 -1.181037e+00 2.500294e-01 -1.207819e-02 5.811319e-01 5.525782e-01 5.667552e-01 1.166339e+00 -6.287034e-01 7.059047e-01 2.934378e-01 -3.428459e-01 3.549907e-01 8.984184e-03 
-9.114768e+00 5.962386e-01 -6.063269e+00 -3.192153e-01 -2.524916e+00 -6.266230e+00 4.297878e-01 1.744555e+00 -1.294681e+00 1.732470e+00 4.591012e+00 2.451763e+00 2.575367e-01 -1.056374e+00 3.486153e-01 3.544893e-01 -7.996842e-01 6.489756e-01 1.086895e+00 -1.757390e-01 -8.038405e-01 9.022610e-01 -6.118223e-01 -5.187165e-01 2.196837e-01 -7.170481e-03 
-9.609828e+00 1.223591e+00 -7.536115e+00 1.822222e+00 1.985221e+00 -3.440359e+00 -1.136386e-01 5.328450e-01 -5.904058e+00 -3.843390e+00 1.844334e+00 -1.658389e+00 2.901902e-01 5.913445e-01 3.352461e-01 4.769927e-01 -8.569423e-01 1.896437e-01 4.801314e-01 -1.031809e+00 -6.528777e-01 4.636639e-01 3.787446e-01 1.479667e-01 -3.337824e-02 1.833580e-02 
-8.234225e+00 1.404646e+00 -7.774643e+00 -3.789253e+00 -2.518960e+00 -4.029878e+00 -2.803984e+00 -4.430023e+00 -3.021312e+00 -1.531168e+00 2.246032e+00 -3.410906e-01 2.896848e-01 1.044582e+00 3.465068e-01 2.001980e+00 -7.373711e-01 7.362192e-01 -1.166313e-01 -7.247195e-01 -1.166848e-01 -5.516427e-01 1.038158e+00 9.136536e-01 6.054119e-01 1.025856e-02 
-7.482739e+00 1.191725e+00 -3.915568e+00 -3.821674e+00 6.803000e-01 -6.291026e+00 -2.483311e+00 -2.198087e+00 -4.407548e+00 3.237919e+00 4.718357e+00 4.069855e+00 3.170384e-01 5.758471e+00 -4.729626e-01 1.050412e+00 -1.031027e+00 -1.241033e+00 -6.244612e-03 1.151917e+00 -7.091649e-01 9.000800e-02 1.837584e+00 1.775777e+00 8.955975e-02 4.607377e-02 
-4.955403e+00 2.344706e+00 2.136360e+00 -1.184123e+00 1.808641e+00 -5.424053e+00 -2.008974e+00 2.526597e+00 -4.801149e+00 3.382607e+00 7.722267e+00 2.614700e+00 2.954054e-01 7.766008e+00 -2.731750e+00 3.751558e-01 2.065931e-01 -3.534564e+00 2.050416e+00 2.544535e+00 -1.340127e+00 5.412034e-01 3.521694e-01 1.352315e+00 -1.312743e+00 1.288815e-01 
1.754312e+01 -1.611252e+00 -7.239557e+00 -4.635480e+00 -6.383744e+00 -2.774494e+00 5.248439e+00 -6.491289e+00 -4.564099e+00 2.887644e+00 7.985102e+00 -2.688486e+00 5.176988e-01 7.090533e+00 -4.287953e+00 -8.171976e-01 -2.314447e-02 -5.063159e+00 3.241300e+00 3.242480e+00 -2.984924e+00 1.915202e+00 -1.215593e+00 1.213903e-01 -2.382995e+00 1.712028e-01 
1.808288e+01 -1.085261e+01 -4.236870e+00 -2.349384e+00 -1.665976e+01 4.463933e+00 6.052818e+00 -8.984056e+00 -2.370198e-01 4.048168e-01 7.374234e+00 -3.525636e+00 8.337622e-01 3.830807e+00 -4.536856e+00 -1.143649e+00 -3.438746e-01 -4.149834e+00 3.592085e+00 2.594773e+00 -3.205463e+00 2.118421e+00 -8.523763e-01 -1.582652e+00 -2.065923e+00 1.693899e-01 
1.645079e+01 -1.364938e+01 -4.814941e+00 -3.354765e+00 -1.540129e+01 4.971482e+00 9.698193e+00 -1.136738e+01 2.886400e+00 -1.351149e+00 5.499326e+00 -4.774952e+00 9.038742e-01 -1.103101e+00 -2.835617e+00 2.112485e-01 7.653201e-03 -9.449514e-01 3.044481e+00 1.081998e+00 -1.353728e+00 1.579758e+00 -3.806427e-01 -2.277328e+00 -1.136152e+00 1.050841e-01 
1.474480e+01 -1.432051e+01 -4.794190e+00 -3.543853e+00 -1.443175e+01 8.663383e+00 8.740012e+00 -1.106267e+01 2.065707e+00 1.240122e+00 1.051893e+00 -6.671683e+00 9.492670e-01 -1.301054e+00 -9.492136e-01 -4.898176e-01 -3.177832e-01 1.315402e+00 2.249216e+00 5.111622e-01 -1.364708e+00 4.962449e-01 3.835659e-02 -2.219367e+00 -8.440422e-01 4.139685e-02 
1.369666e+01 -1.405539e+01 -5.904655e+00 -3.999980e+00 -1.222250e+01 1.034819e+01 9.314833e+00 -1.222062e+01 2.183328e+00 5.667778e-01 -2.403667e-01 -6.796222e+00 9.853670e-01 -8.209688e-01 -4.303085e-01 -2.390280e-01 -8.406451e-02 1.109361e+00 2.314175e+00 -4.685218e-01 -1.156727e+00 -3.877070e-01 3.061519e-01 -1.886628e+00 -5.210552e-02 1.890020e-02 
1.295468e+01 -1.539568e+01 -6.141102e+00 -3.615693e+00 -1.167214e+01 1.302166e+01 8.800309e+00 -1.538098e+01 2.595741e+00 -3.623634e-01 -8.527517e-01 -6.735212e+00 1.000000e+00 -5.267473e-01 -1.514194e-01 4.585319e-02 -2.462507e-01 1.058548e+00 1.439127e+00 -3.784586e-01 -1.009866e+00 -6.025745e-01 2.706453e-02 -1.208735e+00 5.841473e-01 1.389486e-03 
1.324100e+01 -1.526334e+01 -5.336626e+00 -3.739168e+00 -1.123429e+01 1.436322e+01 7.325436e+00 -1.499187e+01 6.828482e-01 9.808535e-01 -2.981492e+00 -5.003715e+00 9.730088e-01 -2.674385e-01 -9.782181e-02 3.806157e-01 -1.119809e-01 4.332116e-01 1.259591e+00 -8.900915e-01 -3.927342e-01 -5.356970e-01 8.256598e-02 -8.596476e-01 6.287325e-01 -8.658523e-03 
1.233889e+01 -1.447363e+01 -4.848938e+00 -4.905513e+00 -9.633120e+00 1.385150e+01 7.842418e+00 -1.472638e+01 -1.969256e-01 1.168407e+00 -3.621218e+00 -4.647200e+00 9.623936e-01 -1.699054e-01 2.138781e-01 2.992503e-01 2.994160e-02 1.409430e-01 7.141136e-01 -6.945394e-01 2.815742e-02 -2.073896e-01 -8.812024e-02 -4.109843e-01 2.506515e-01 -8.904916e-03 
1.266736e+01 -1.500552e+01 -4.647658e+00 -3.914975e+00 -1.107596e+01 1.623122e+01 5.343321e+00 -1.451159e+01 9.011767e-01 2.142225e-01 -3.154371e+00 -4.696566e+00 9.608776e-01 -1.953861e-01 2.507788e-01 1.824287e-01 1.452619e-01 -1.630668e-01 5.604323e-01 -6.630486e-01 7.596330e-02 2.630740e-01 -6.146616e-02 -4.867372e-01 3.996144e-01 -4.182518e-03 
1.239197e+01 -1.445520e+01 -4.989334e+00 -3.378082e+00 -1.104660e+01 1.565823e+01 6.318669e+00 -1.548033e+01 1.449628e+00 -4.196491e-01 -2.821234e+00 -5.635529e+00 9.615410e-01 -5.429762e-02 2.032562e-01 9.039340e-02 3.422919e-01 -2.772275e-01 2.916536e-01 -8.579375e-01 4.111235e-01 1.478738e-01 3.886584e-01 -9.681942e-01 7.154883e-01 -5.190217e-03 
1.223753e+01 -1.401866e+01 -4.354284e+00 -3.776574e+00 -1.134289e+01 1.626202e+01 4.772067e+00 -1.423508e+01 1.174941e+00 1.467551e+00 -5.815170e+00 -2.511478e+00 9.525225e-01 -1.319049e-01 2.368130e-01 1.545786e-01 3.523276e-01 -1.206456e-01 -3.262281e-01 -7.750464e-01 8.145558e-01 1.399576e-01 4.111159e-01 -1.166929e+00 7.277252e-01 -8.363145e-03 
1.228232e+01 -1.395078e+01 -4.543658e+00 -3.263253e+00 -1.088579e+01 1.529437e+01 3.838357e+00 -1.280902e+01 4.055610e-01 2.485035e+00 -7.131790e+00 -2.162302e+00 9.406201e-01 -4.343430e-02 7.713947e-02 4.474869e-01 2.267333e-01 -9.661846e-02 -4.865536e-01 -1.018939e+00 1.264068e+00 2.609619e-01 1.872265e-01 -1.040095e+00 6.039874e-01 -1.178095e-02 
1.206266e+01 -1.407366e+01 -4.097603e+00 -2.210751e+00 -1.175959e+01 1.478201e+01 2.708245e+00 -1.177446e+01 2.122998e+00 8.174601e-01 -6.833740e+00 -2.794553e+00 9.295223e-01 -3.317872e-02 9.036960e-02 3.157164e-01 4.069890e-01 -1.956300e-01 -6.812765e-01 -8.008043e-01 9.654325e-01 7.563621e-01 -3.574414e-01 -2.712561e-01 -3.704337e-01 -1.143820e-02 
1.226223e+01 -1.404200e+01 -2.880240e+00 -3.027327e+00 -1.132134e+01 1.396546e+01 2.255883e+00 -1.039030e+01 2.280409e+00 8.415290e-01 -7.512423e+00 -2.474055e+00 9.141363e-01 -3.474950e-02 1.034061e-01 2.890304e-01 3.286128e-01 -3.484727e-01 -6.568035e-01 -5.078667e-01 9.406151e-01 5.042427e-01 -2.423909e-01 3.901482e-03 -5.984505e-01 -6.896079e-03 
1.208168e+01 -1.352120e+01 -3.607411e+00 -1.859592e+00 -1.210327e+01 1.352009e+01 1.559283e+00 -1.061728e+01 4.019327e+00 5.020966e-01 -6.981134e+00 -4.207771e+00 9.085733e-01 -3.020882e-02 9.108925e-02 2.210986e-01 3.173662e-01 -4.695321e-01 -7.078394e-01 -4.509229e-01 1.305435e+00 4.551435e-02 -9.333869e-02 -2.090029e-01 -3.952134e-01 -3.658962e-03 
1.209906e+01 -1.370998e+01 -3.343602e+00 -1.795768e+00 -1.245631e+01 1.264132e+01 1.873505e+00 -8.684538e+00 1.978610e+00 1.430762e+00 -7.038586e+00 -4.447946e+00 9.166142e-01 3.785486e-02 -1.310925e-01 1.719156e-01 5.224401e-01 -6.600445e-01 -7.702610e-01 -2.606856e-01 1.465441e+00 -5.513801e-02 -4.317643e-01 -8.751487e-03 -6.002289e-01 -8.633375e-04 
1.199321e+01 -1.378423e+01 -2.760428e+00 -1.239699e+00 -1.353976e+01 1.190489e+01 6.448195e-01 -6.100164e+00 2.501470e+00 5.615014e-02 -8.115673e+00 -3.783674e+00 9.099886e-01 1.210853e-01 -3.365297e-01 5.150254e-01 3.206791e-01 -6.030352e-01 -7.827050e-01 -2.953905e-02 1.567573e+00 1.153859e-01 -9.784693e-01 -1.029558e-01 -4.750710e-01 -1.054168e-04 
1.249574e+01 -1.456595e+01 -2.444154e+00 -7.250733e-01 -1.390331e+01 1.092176e+01 1.409687e+00 -5.321648e+00 2.763648e+00 -1.094319e+00 -6.988911e+00 -5.687248e+00 9.091120e-01 1.662899e-01 -3.145865e-01 4.176660e-01 5.025411e-01 -6.112970e-01 -7.764822e-01 -1.558071e-01 1.444168e+00 5.712224e-01 -9.324644e-01 -6.394326e-01 -7.618723e-02 -1.958728e-04 
1.248876e+01 -1.477587e+01 -1.482008e+00 -7.915440e-01 -1.439494e+01 1.046634e+01 1.643497e+00 -4.460859e+00 4.203738e+00 -3.127709e+00 -7.520751e+00 -5.963475e+00 9.117973e-01 -2.241060e-02 -4.480133e-02 3.453296e-01 3.737925e-01 -1.410906e-01 -1.376660e+00 6.091028e-02 1.734723e+00 1.270380e-01 -2.598312e-01 -9.565387e-01 3.405649e-01 -6.587029e-04 
1.268273e+01 -1.478709e+01 -1.894482e+00 4.928594e-01 -1.508521e+01 9.478176e+00 5.951310e-01 -2.283348e+00 3.983588e+00 -1.639630e+00 -1.053321e+01 -3.738982e+00 9.147304e-01 -5.344477e-02 1.332699e-01 4.707099e-01 5.781046e-01 -5.502615e-01 -1.713425e+00 -1.917394e-01 2.060731e+00 4.950690e-02 7.431146e-02 -1.218318e+00 8.231876e-01 -4.030091e-03 
1.178766e+01 -1.389766e+01 -1.308616e+00 2.029705e-02 -1.365427e+01 5.743375e+00 1.356649e+00 1.054301e+00 2.526690e+00 -9.703504e-01 -1.112622e+01 -3.054983e+00 9.038858e-01 -2.656618e-02 3.266161e-01 5.011076e-01 8.851405e-01 -1.128894e+00 -1.719070e+00 -3.259118e-01 2.014894e+00 4.142807e-01 1.291997e-01 -9.424378e-01 8.205509e-01 -9.406698e-03 
1.257907e+01 -1.433870e+01 -1.773005e-01 1.759529e+00 -1.702496e+01 4.716116e+00 5.944139e-01 2.224429e+00 3.849706e+00 -1.801442e+00 -1.127777e+01 -3.025556e+00 8.929173e-01 1.104881e-01 3.556305e-01 1.079628e+00 6.456763e-01 -1.620171e+00 -1.586454e+00 -4.144011e-01 1.822246e+00 1.030736e+00 -2.979450e-01 -2.939535e-01 3.560301e-01 -1.552558e-02 
1.240776e+01 -1.336698e+01 1.649386e-01 3.000824e+00 -1.906954e+01 4.252018e+00 1.429582e-02 3.359724e+00 6.342082e+00 -2.400805e+00 -1.186066e+01 -2.217434e+00 8.756704e-01 2.761139e-01 3.749039e-01 1.254184e+00 5.760179e-01 -1.403403e+00 -1.792231e+00 -5.690320e-01 1.587896e+00 1.219199e+00 3.343819e-01 -6.421773e-01 6.704409e-01 -1.709878e-02 
1.292512e+01 -1.327428e+01 2.766882e+00 2.230977e+00 -2.047843e+01 2.291584e+00 -8.056979e-01 5.675172e+00 7.229573e+00 -2.414128e+00 -1.163576e+01 -2.377605e+00 8.512102e-01 1.993913e-01 6.135982e-01 1.031316e+00 3.510106e-01 -8.320631e-01 -1.674060e+00 -7.036948e-01 1.110705e+00 8.299891e-01 6.055347e-01 -1.031692e-01 1.298971e+00 -1.980336e-02 
1.299520e+01 -1.255535e+01 3.490210e+00 2.664663e+00 -1.894455e+01 -2.005513e+00 -7.884555e-01 7.268407e+00 6.932753e+00 1.007902e+00 -1.415811e+01 -2.675366e-02 8.392454e-01 2.887909e-01 4.550903e-01 1.114226e+00 1.354174e-01 6.886081e-02 -1.940508e+00 -1.275953e+00 8.775743e-01 2.761542e-01 1.104102e+00 6.933209e-01 2.124880e+00 -2.005975e-02 
1.328231e+01 -1.167652e+01 3.316645e+00 3.682663e+00 -2.124777e+01 -5.254192e-01 -2.522685e+00 5.823611e+00 7.704317e+00 -4.781217e-01 -1.064489e+01 2.373958e+00 8.121130e-01 2.653655e-01 5.978413e-01 9.560727e-01 1.874050e-01 1.116119e+00 -1.831983e+00 -2.133861e+00 5.424485e-01 1.457373e-01 7.358776e-01 2.182945e+00 2.033717e+00 -3.096297e-02 
1.367312e+01 -1.189041e+01 5.461185e+00 2.952068e+00 -1.834056e+01 -4.042017e+00 -5.506977e+00 7.673376e+00 7.485481e+00 2.151704e+00 -8.889489e+00 6.031183e+00 7.949203e-01 6.157709e-01 1.559498e+00 9.907109e-01 -8.373266e-01 2.404134e+00 -9.826353e-01 -3.146374e+00 1.157970e+00 -8.853688e-01 8.866061e-02 3.331902e+00 1.560850e+00 -7.338429e-02 
1.391299e+01 -1.061755e+01 6.561758e+00 3.024299e+00 -1.519983e+01 -5.850080e+00 -9.115744e+00 8.184931e+00 7.681895e+00 6.933596e-01 -3.355342e+00 4.762011e+00 7.185580e-01 3.654408e-01 3.640831e+00 -1.013699e+00 -1.703153e+00 5.261865e+00 -1.484675e+00 -1.587298e+00 9.124414e-01 -1.555938e+00 -1.896319e-01 3.011087e+00 -5.827930e-01 -1.231575e-01 
1.575872e+01 -5.287353e+00 6.821208e+00 -1.192789e+00 -9.947851e+00 -4.256359e+00 -1.322379e+01 1.187760e+01 2.517119e+00 8.654646e-01 -1.143372e+00 6.583470e+00 5.191015e-01 -2.254752e+00 4.828012e+00 -1.199588e+00 -7.495880e-01 6.206538e+00 1.576487e-01 1.514783e+00 -2.765618e-01 -1.557692e+00 -3.210365e-01 2.677080e+00 -1.180170e+00 -1.454464e-01 
1.406672e+01 3.226105e+00 -2.431863e+00 -2.760672e+00 8.651991e-01 -7.841625e+00 -6.600765e+00 8.283708e+00 2.408808e+00 -7.831617e-01 5.374873e-01 -8.161498e-01 3.342348e-01 -5.146480e+00 2.598370e+00 -8.807999e-01 2.248878e-01 6.012823e+00 1.213617e+00 2.864498e+00 -1.549079e+00 -1.313292e+00 -1.323839e-01 2.042957e+00 -6.181223e-01 -9.138547e-02 
2.322498e+00 5.327827e+00 3.960057e+00 2.096614e+00 4.659613e+00 -2.258001e+00 8.094480e-01 6.241179e+00 2.333567e+00 1.284782e+00 2.549496e+00 2.919415e+00 2.598499e-01 -6.782097e+00 -2.898368e-01 2.691160e-01 1.804500e+00 4.956380e+00 9.891869e-01 3.087307e+00 -1.934008e+00 -6.985022e-01 -6.181277e-01 3.969606e-01 -1.199328e+00 -9.627068e-03 
-5.101300e+00 -2.933286e+00 3.588334e+00 2.504037e+00 7.560559e+00 -7.811751e-01 -1.809875e+00 3.257743e+00 1.207212e+00 -1.782187e-01 5.013010e+00 3.503428e+00 3.912564e-01 -5.602107e+00 -1.919308e+00 1.346244e+00 1.913058e+00 2.705677e+00 3.724653e-01 9.080681e-01 -1.572364e-01 -1.320221e-01 -4.450687e-01 -1.932559e-01 -3.929147e-01 3.672618e-02 
-8.567761e+00 -3.656841e+00 5.156690e+00 5.197358e+00 1.148637e+01 -2.840650e+00 -1.827025e-01 4.720541e+00 -3.745942e-01 -2.527646e+00 -1.396330e+00 -1.572959e+00 4.424554e-01 -2.339725e+00 -6.974505e-01 -4.739743e-01 -3.608732e-01 1.677847e-01 -1.495500e+00 -7.024267e-01 -3.928339e-01 -5.350616e-01 -1.185771e-02 -3.092792e-01 -2.083651e+00 2.806243e-02 
-8.498691e+00 -1.878099e+00 3.701041e+00 5.254244e+00 1.098021e+01 -5.687974e+00 -1.564349e+00 8.257845e+00 3.102778e+00 -1.102291e+00 1.544120e+00 -5.345365e-01 4.265630e-01 -5.315495e-01 1.270843e+00 -1.752935e+00 -1.371234e+00 -1.242096e+00 -2.054749e+00 -6.225027e-01 1.658471e-01 -1.052161e-01 -4.265208e-01 1.736490e-01 -1.145639e+00 -1.378015e-02 
-7.677434e+00 1.312982e+00 1.533832e+00 -1.082856e+00 3.788714e+00 -7.282103e+00 -2.825449e+00 1.776958e+00 -1.289524e+00 1.687530e+00 2.737545e+00 -5.479857e+00 3.825088e-01 1.149338e-01 1.032595e+00 -1.887568e+00 -1.770235e+00 -1.585411e+00 -2.505213e-01 -1.275884e-01 -7.218952e-01 -5.755464e-01 -6.140893e-01 3.493414e-01 6.697235e-01 -3.535583e-02 
-8.204211e+00 9.360185e-01 -3.364912e+00 -1.212024e+00 5.198906e+00 -8.834196e+00 -3.601016e+00 5.558770e+00 1.138596e+00 -4.418410e+00 3.814317e+00 -2.713178e-01 3.523290e-01 1.227585e+00 9.889326e-01 -3.847434e-01 -5.154582e-01 -3.906321e-01 1.185291e+00 9.523513e-01 -2.374343e+00 -1.962010e+00 -1.877063e+00 -8.391533e-01 6.674048e-01 -5.084958e-02 
-8.140332e+00 9.907627e-02 -7.481762e-01 -4.206839e-01 6.449965e+00 -2.520146e+00 1.976886e-01 2.460602e+00 -2.270236e+00 -3.940032e+00 -7.847216e-01 1.644049e+00 3.027932e-01 1.426313e+00 5.569594e-02 1.060021e+00 -2.384346e-01 2.978222e-01 1.782675e+00 1.351886e+00 -1.039920e+00 -9.032118e-01 -1.165776e+00 -1.042989e+00 1.171886e+00 -7.332054e-02 
-2.129315e+00 3.673516e+00 2.918328e+00 2.345867e+00 7.696419e+00 -2.142498e+00 1.685839e+00 -3.955694e+00 -6.216916e+00 -7.673827e+00 -8.905127e-01 -7.594656e-01 2.121729e-01 1.970330e+00 -7.941209e-01 7.873884e-01 -1.703498e+00 -1.646314e+00 4.506049e-01 -6.114110e-01 -8.535441e-01 -6.589127e-02 8.526509e-01 -1.155779e+00 -4.372991e-01 -1.065222e-01 
-3.583316e+00 2.227125e-01 3.692318e+00 -4.053974e+00 4.029068e+00 -1.714578e+00 1.290553e+00 1.334588e+00 -2.127827e+00 -2.513641e+00 -1.249874e-01 6.236480e-01 8.598411e-02 1.585588e+00 -1.926968e+00 -5.856554e-01 -6.280274e-01 -2.946313e+00 -1.134863e+00 -1.008195e+00 5.272985e-02 1.291160e-01 9.951022e-01 1.864285e+00 -1.566936e+00 -9.662928e-02 
-6.310682e-01 -3.096404e+00 -1.648217e+00 -7.912870e+00 -1.822215e+00 -6.983955e+00 -7.204503e+00 1.854056e+00 7.379353e-01 -8.683517e-01 -2.294447e+00 -1.947613e+00 -7.187736e-02 -5.066640e-01 -2.019783e+00 4.766441e-01 1.885360e+00 -3.034858e+00 -7.510418e-01 1.082015e+00 2.017221e+00 -4.447791e-01 3.070211e-01 2.911025e+00 -1.199528e+00 -5.598421e-02 
-9.615135e-01 -6.150805e+00 -1.393181e+00 1.568548e+00 -3.522282e+00 -5.773730e+00 -3.981130e-01 -1.806240e-01 -5.102081e+00 -2.367259e+00 9.238672e+00 -5.596556e+00 -3.832805e-02 -3.193756e-01 2.029643e+00 7.740757e-01 3.123156e+00 -2.240846e-02 2.871070e-01 1.802407e+00 6.848727e-01 -1.210564e+00 6.066346e-02 1.009454e+00 -8.531452e-01 -4.082681e-02 
-5.973536e+00 -3.238643e+00 7.844298e+00 8.961405e+00 -3.702196e+00 -3.868132e+00 7.940247e+00 6.888015e+00 -6.953684e+00 -6.211913e+00 8.982783e+00 -3.647002e+00 -5.592108e-03 -5.776757e-01 4.159430e+00 1.911471e+00 2.880123e+00 2.720703e+00 1.358774e+00 2.752429e+00 9.486120e-01 -4.868343e-01 -2.043616e-01 -5.517542e-01 8.091798e-01 -2.717949e-02 
-2.508960e+00 1.044205e+01 2.816440e+00 3.124669e+00 4.857017e+00 -1.836955e+00 2.730210e+00 2.241972e+00 -4.334836e+00 4.614568e-01 -7.163308e-01 -2.792383e+00 -1.512926e-01 5.078212e-01 5.110438e+00 6.666549e-01 2.645799e-01 3.643635e+00 1.549839e+00 4.709689e-01 9.808733e-01 1.671390e+00 1.695422e+00 -1.920558e+00 2.266156e+00 -3.716295e-02 
-2.745724e+00 9.404318e+00 5.804327e+00 5.709682e+00 7.591649e+00 -2.158472e+00 4.993478e+00 5.385818e+00 -2.079859e+00 -3.304518e+00 -7.571626e-02 6.961997e-01 -1.512926e-01 1.269741e+00 3.236033e+00 -4.591240e-01 3.732739e-01 4.362273e+00 7.655121e-01 -1.272219e+00 -1.204088e+00 7.804342e-01 8.681999e-01 -3.515956e-01 1.096325e+00 -2.914009e-02 
-3.631401e-02 1.307990e+01 2.960079e+00 4.517308e+00 9.048971e+00 1.120634e+00 3.430116e+00 5.474841e+00 8.179543e-01 4.656154e+00 4.165130e+00 3.562624e+00 -1.512926e-01 6.226307e-01 1.089765e+00 7.244099e-01 9.189249e-01 2.083761e+00 8.616307e-01 2.650072e-01 -1.392919e+00 -4.063830e-01 -3.254695e-01 1.200925e+00 5.897677e-01 0.000000e+00 
-8.611526e-01 1.162260e+01 5.476858e+00 1.013145e+01 1.601320e+01 -1.519366e+00 1.229201e+00 -7.488600e-01 -5.627908e+00 -3.968262e+00 4.784075e+00 -1.342879e+00 -1.512926e-01 3.120238e-01 1.183488e+00 7.222497e-01 2.468642e-01 2.816700e-01 8.759311e-01 1.896341e-01 -1.925188e+00 -1.689114e+00 -4.285652e-01 -5.378156e-01 -5.991305e-01 0.000000e+00 
-3.380919e-01 1.478173e+01 6.602223e+00 5.508408e+00 1.106505e+01 2.151645e+00 5.937385e+00 -1.655283e+00 -4.592726e+00 -8.340186e-01 2.858401e+00 1.175995e+00 -1.512926e-01 -3.454048e-01 3.757774e-01 1.088039e+00 1.736608e-01 -6.914945e-01 3.248895e-01 4.327419e-01 -2.022095e-01 -1.618738e+00 -8.659105e-01 -9.082611e-01 6.373882e-03 0.000000e+00 
-1.034716e+00 1.447084e+01 7.594503e+00 6.448454e+00 7.991960e+00 1.705678e+00 4.688014e+00 -6.750592e-01 -7.820090e+00 -2.702257e+00 -2.111429e+00 -1.106138e+00 -1.512926e-01 -5.172785e-01 -4.414636e-01 -8.589275e-01 -1.396141e+00 -9.876396e-01 6.748890e-01 5.760475e-01 7.938610e-01 6.395472e-01 8.168171e-01 1.941095e-01 1.073008e+00 0.000000e+00 
-1.676557e+00 1.353467e+01 7.341449e+00 7.227113e+00 9.602116e+00 1.132559e+00 3.864419e+00 4.426893e+00 -6.179646e+00 -3.064005e-01 3.071577e+00 3.476122e+00 -1.512926e-01 -8.175108e-01 -1.084265e+00 -1.473942e+00 -1.149340e+00 -1.146996e-01 1.076291e-01 1.966971e-01 5.674351e-01 1.194495e+00 1.462706e+00 2.280322e+00 1.139546e+00 0.000000e+00 
-2.778313e+00 1.003881e+01 8.126075e-01 2.291397e+00 1.180646e+01 2.364623e+00 5.145922e+00 1.793568e-01 -1.636713e+00 -1.479856e-01 5.648034e+00 2.872099e+00 -1.512926e-01 -9.061089e-01 -1.336072e+00 -1.638673e+00 -2.128566e+00 -2.657943e-01 2.894543e-01 3.707332e-01 6.331795e-01 2.279983e+00 8.616220e-01 2.567790e+00 1.302184e+00 0.000000e+00 
-3.553847e+00 1.157642e+01 2.623460e+00 1.840235e+00 8.584300e+00 2.360319e+00 6.691916e+00 7.546850e-01 -1.711940e+00 5.202376e+00 1.038028e+01 4.884605e+00 -1.512926e-01 -5.756429e-01 -2.116989e+00 -6.692648e-04 -2.011582e+00 -3.397287e+00 -9.390198e-01 -4.761354e-01 4.121154e-01 2.167852e+00 -4.062212e-01 3.502851e-01 1.090952e+00 0.000000e+00 
-4.626615e+00 8.769608e+00 1.760134e+00 -1.500935e+00 7.171897e+00 2.539070e+00 5.127931e+00 4.326942e+00 1.345974e+00 -1.148535e+00 7.073167e+00 4.700543e+00 -1.512926e-01 -4.307236e-01 -1.569939e+00 1.304868e+00 -5.586960e-01 -3.990973e+00 -2.484359e+00 -3.380299e-01 1.189386e+00 1.064073e+00 -8.769344e-01 -1.290658e+00 6.694659e-01 0.000000e+00 
-3.630620e+00 3.584325e+00 6.864340e+00 -9.346321e-01 -5.067038e+00 -3.649763e+00 1.492737e+00 4.413677e+00 3.168273e+00 -1.837231e+00 4.110436e+00 8.016659e+00 -1.512926e-01 -5.412747e-01 -1.576008e+00 -1.249649e-01 5.665278e-02 -1.718547e+00 -1.380293e+00 -2.169299e-01 5.252665e-01 -2.806834e-01 -6.923205e-01 -2.410851e+00 -1.305598e+00 0.000000e+00 
-4.893544e+00 6.185163e+00 5.216507e+00 8.853509e-01 -1.322732e+00 -7.052131e+00 6.055362e+00 4.296793e+00 1.243545e+00 -1.012854e+00 2.329668e+00 4.653401e+00 -1.512926e-01 -4.407845e-01 -7.831659e-01 -1.038790e+00 2.937796e-01 1.106489e+00 7.351851e-01 1.231071e+00 1.767155e-01 -3.255789e-01 9.724165e-01 -1.703580e-01 -6.005923e-01 0.000000e+00 
-6.126756e+00 4.988605e+00 2.704484e-01 9.303558e-01 4.238882e+00 2.544551e-01 5.143552e+00 3.396092e+00 -3.064143e+00 1.672933e+00 6.977764e-01 -1.619812e+00 -1.512926e-01 -5.967916e-01 -8.464942e-02 -1.567584e+00 2.422559e-01 3.599721e+00 2.267912e+00 1.020045e+00 5.791897e-01 -4.486175e-01 4.187664e-01 -3.056269e-02 -7.083036e-01 0.000000e+00 
-5.582469e+00 4.151639e+00 -1.368731e-01 -9.645312e-01 8.051382e+00 4.262887e+00 9.457879e+00 5.719312e+00 2.834287e+00 1.958465e+00 7.927707e+00 6.515817e+00 -1.512926e-01 -9.793091e-03 -1.069121e-01 -1.156007e+00 2.328206e-01 2.143327e+00 1.824380e+00 8.931491e-01 1.245385e+00 1.335125e+00 7.336837e-01 -1.165810e-01 -3.635456e-01 0.000000e+00 
-6.270116e+00 4.177840e+00 1.703109e+00 1.201588e+00 8.244513e+00 2.032289e+00 4.891702e+00 6.598366e+00 1.298141e-01 -1.229059e+00 1.158603e+00 3.543933e+00 -1.512926e-01 -7.721710e-03 5.816879e-01 -4.323623e-02 5.732014e-01 -5.569841e-02 -3.332962e-01 -1.532885e-01 1.481771e-01 1.200725e+00 1.081260e+00 4.050665e-02 2.817796e-01 0.000000e+00 
-4.870830e+00 6.055984e+00 -1.279857e+00 1.913838e+00 7.391089e+00 1.180854e+00 1.064703e+01 8.922581e+00 6.322191e+00 4.106560e+00 1.516349e+00 2.538009e-01 -1.512926e-01 1.791248e-01 1.433745e+00 2.488700e-01 3.044215e-01 -3.352887e-01 -5.278819e-01 -3.602812e-01 -4.516138e-01 -8.928364e-01 3.084128e-01 -1.637417e+00 -9.605795e-01 0.000000e+00 
-6.521184e+00 6.944871e+00 6.257592e-01 2.357178e+00 4.290537e+00 1.289902e-01 3.782533e+00 2.535344e+00 1.195532e+00 6.005183e+00 4.105989e+00 2.920094e+00 -1.512926e-01 5.069456e-01 1.353250e+00 -1.113063e+00 -1.429331e+00 -2.772344e-01 -6.473049e-01 1.122838e-01 -6.849962e-01 -5.119014e-02 5.273923e-01 8.186638e-01 6.377171e-01 0.000000e+00 
-4.561311e+00 9.936848e+00 1.646151e+00 -2.021885e-02 8.351927e+00 2.575127e+00 8.211058e+00 5.492754e+00 -2.162754e+00 -1.165923e-01 -1.733072e+00 2.024839e+00 -1.512926e-01 3.849609e-01 1.273588e+00 2.515187e-02 -9.266906e-01 1.864888e-01 -3.653427e-01 2.561440e-01 1.211272e-01 -7.867457e-01 -1.206835e+00 5.213356e-01 1.001308e+00 0.000000e+00 
-3.890147e+00 9.003659e+00 -5.325211e+00 -4.978036e+00 6.377921e+00 -1.901372e+00 6.671108e+00 4.888298e+00 4.116336e+00 3.519479e+00 6.876632e+00 5.847000e+00 -1.512926e-01 2.755612e-01 7.533299e-01 7.307322e-02 2.270571e-01 1.637606e+00 1.055528e-01 1.389044e+00 9.043134e-01 2.364850e-01 -1.222941e-01 8.734456e-01 7.815357e-02 0.000000e+00 
-4.261543e+00 1.139453e+01 1.821387e+00 9.479921e-01 7.279840e+00 3.693218e-01 1.048347e+01 8.351740e+00 9.280608e-01 -6.847629e-01 2.737705e+00 3.796889e+00 -1.512926e-01 8.084736e-02 1.868457e-01 1.762865e+00 2.204530e+00 1.065424e+00 -1.534336e-01 -1.939934e-01 4.136222e-01 7.729352e-01 1.251694e+00 1.683772e-01 -7.630526e-01 0.000000e+00 
-5.293262e+00 9.982679e+00 9.035075e-01 3.008359e+00 1.301461e+01 1.759656e+00 9.591551e+00 5.627419e+00 8.325498e-01 5.677798e+00 6.237828e+00 2.424837e+00 -1.512926e-01 6.128025e-02 3.056079e-01 2.673801e+00 2.702216e+00 6.259281e-01 6.050091e-01 -3.732932e-01 4.399068e-01 8.978524e-02 -1.422825e-01 -1.644086e+00 -1.183184e+00 0.000000e+00 
-3.455517e+00 1.038157e+01 7.346117e+00 7.009235e+00 1.036070e+01 -2.255535e-02 5.780869e+00 7.191305e+00 3.343815e+00 5.062720e+00 -5.717838e-01 -7.934225e-02 -1.512926e-01 5.060800e-01 3.647195e-01 2.821988e-01 7.312636e-01 -3.851978e-01 -2.473646e-01 -1.470497e+00 -3.124489e-01 5.472781e-01 -2.522348e-01 -1.105683e+00 -8.039948e-01 0.000000e+00 
-3.986759e+00 1.103818e+01 5.281428e+00 5.502421e+00 7.967130e+00 1.319613e+00 7.155940e+00 7.668049e+00 3.357385e+00 -6.567508e-02 3.109453e-01 1.869194e+00 -1.512926e-01 5.976041e-01 7.911761e-01 1.651282e-01 1.645993e-01 -9.278191e-01 -8.931160e-03 -1.224087e+00 -1.009543e-01 6.434895e-01 -8.954331e-01 -2.720522e-01 3.859921e-01 0.000000e+00 
-2.384395e+00 1.269038e+01 1.043421e+00 3.357279e+00 7.877592e+00 -6.474791e-01 4.348785e+00 5.769179e+00 2.402034e+00 9.257999e-01 1.727333e-01 5.473661e-02 -1.512926e-01 -3.451266e-01 -2.568690e-01 -1.189975e+00 -7.769977e-01 -5.650624e-01 -1.483471e-01 -2.384682e-01 3.456405e-01 5.965998e-01 -1.003333e+00 1.308362e+00 1.533222e+00 0.000000e+00 
-2.840802e+00 1.278415e+01 4.880497e+00 5.657333e+00 9.617071e+00 2.027462e+00 4.187155e+00 5.833710e+00 4.520887e+00 3.269094e+00 4.505309e+00 4.287758e+00 -1.512926e-01 -4.641407e-01 -4.940656e-01 -8.003306e-01 -4.840619e-01 1.975934e-01 -5.451804e-01 -5.606263e-01 -2.376072e-01 -1.744052e-01 -4.266066e-01 9.712875e-01 4.006290e-01 0.000000e+00 
-5.754128e+00 8.224236e+00 1.596710e+00 3.046790e+00 6.710422e+00 -1.118216e+00 6.072921e+00 9.836678e+00 5.745063e+00 -1.621330e+00 3.872847e+00 6.377484e+00 -1.512926e-01 -6.628988e-01 -6.963907e-01 -7.916557e-01 -4.869364e-01 4.877639e-01 -1.060967e+00 -6.106340e-01 -1.094328e+00 -2.376326e+00 -6.888157e-01 3.816689e-01 -1.539077e-01 0.000000e+00 
-4.622596e+00 1.080093e+01 1.003130e+00 3.237356e+00 9.538682e+00 -1.170921e+00 3.490741e+00 4.446264e+00 8.138449e-01 -9.251429e-01 3.317326e+00 7.109655e-01 -1.512926e-01 -2.988243e-01 -3.192423e-01 -1.428623e+00 -7.963699e-01 5.122253e-01 -1.599608e+00 -9.515764e-01 -1.853032e+00 -3.766506e+00 -6.180338e-01 -4.858257e-01 -1.173222e+00 0.000000e+00 
-4.807992e+00 1.020004e+01 -9.761745e-01 2.132586e+00 1.035561e+01 -4.353124e+00 1.643823e+00 9.912605e-01 -7.626075e+00 -4.211600e-01 2.675069e+00 1.073594e+00 -1.512926e-01 1.706877e-01 3.350722e-01 -7.125074e-01 -2.933179e-01 8.107292e-01 -9.652017e-01 -1.070511e+00 -2.114584e+00 -3.518219e+00 2.904323e-01 -3.037813e-01 -1.024515e+00 0.000000e+00 
