-1.201680e+00 -8.835827e+00 -8.716631e+00 -4.854083e+00 -1.443597e+00 4.414308e+00 -4.457024e+00 -3.946642e+00 5.179109e+00 5.987720e-01 -7.502052e+00 -1.606881e+00 -6.122720e-02 9.690361e-02 5.240790e-01 5.499993e-01 -1.319499e-01 6.308174e-02 -1.145080e+00 1.006544e+00 -8.801265e-02 -9.183272e-01 -7.158088e-03 -4.036077e-01 5.626572e-01 -2.261866e-02 
-6.451654e-01 -9.134227e+00 -8.142791e+00 -7.081753e+00 -1.582381e+00 -2.702726e-01 -4.844676e+00 -5.123497e+00 1.091285e+00 -3.984652e-01 -8.602233e+00 1.066287e+00 -1.072831e-01 -1.297340e-02 9.411885e-01 4.829141e-01 5.799772e-01 2.247973e-01 -1.267689e+00 7.837478e-01 -1.523808e-01 -4.736536e-01 6.181232e-01 8.996074e-01 1.519885e+00 -2.701961e-02 
-9.954195e-01 -6.066232e+00 -6.253554e+00 -4.399998e+00 -1.058796e+00 1.031198e+00 7.695205e-01 -3.798277e+00 2.631384e+00 1.061600e+00 -8.970000e+00 -1.301786e-01 -1.512926e-01 3.339918e-01 2.266528e+00 5.597066e-01 1.323571e+00 2.104135e-01 -1.192351e+00 1.799329e+00 2.671573e-01 -4.294586e-02 5.410733e-01 6.298504e-01 6.836027e-01 -2.241402e-02 
-1.369678e+00 -5.514682e+00 -7.533599e+00 -2.181240e+00 -5.120106e-01 -2.325835e-01 -3.151557e+00 -4.782728e+00 4.084703e+00 3.457974e+00 -2.270041e+00 5.254191e+00 -1.512926e-01 5.095100e-01 2.844511e+00 -4.314001e-01 6.742271e-01 2.591162e-02 -7.602206e-01 1.384315e+00 8.105191e-01 -5.815200e-01 4.072203e-01 2.582116e-01 -7.357695e-01 -8.801890e-03 
8.305349e-01 6.870410e-01 -6.222694e+00 -6.864867e-01 -9.267149e-01 -1.566292e+00 3.693063e+00 -2.781240e+00 3.467670e+00 1.375919e+00 -7.518896e+00 -2.828193e-01 -1.512926e-01 3.569464e-01 2.476094e+00 -1.746960e+00 -9.285520e-01 3.209828e-01 -1.392623e+00 1.263245e+00 9.043074e-01 -2.122854e+00 -1.930646e+00 -1.671598e+00 -8.783926e-01 0.000000e+00 
9.894075e-01 1.711690e+00 -1.031522e+01 -5.567373e+00 -1.518864e+00 -2.772631e+00 6.151268e-01 -1.579420e+00 -2.234457e+00 1.480477e+00 -8.036727e+00 -2.536240e+00 -1.512926e-01 -3.189821e-02 1.780997e+00 -2.517051e+00 -2.679682e+00 -2.625007e-01 -2.348592e+00 7.937533e-01 1.180452e+00 -1.908624e+00 -2.122048e+00 -2.416844e+00 -1.898929e+00 0.000000e+00 
-3.902302e-01 2.701053e+00 -1.359754e+01 -7.349691e+00 1.049545e+00 -4.661892e+00 5.202405e+00 -8.783944e-01 -4.823304e+00 -7.602880e+00 -1.444465e+01 -6.269259e-01 -1.512926e-01 -8.484192e-01 4.011499e-01 -2.809745e+00 -3.671830e+00 -4.321004e-01 -8.520381e-01 8.058459e-01 1.883504e+00 5.444301e-01 -5.647240e-01 3.405511e-01 -7.470441e-01 0.000000e+00 
-9.187860e-01 2.383296e+00 -1.643143e+01 -1.224805e+01 -2.812644e+00 -1.042774e+01 6.253803e-02 1.681087e-01 -1.312928e+00 -2.662864e+00 -1.089139e+01 -4.068403e+00 -1.512926e-01 -1.218498e+00 7.902071e-01 -3.420309e-01 -1.876347e+00 6.085241e-01 7.544343e-01 5.977918e-01 1.750400e+00 2.271251e+00 4.184549e-01 1.059506e+00 -5.022407e-02 0.000000e+00 
-2.457464e+00 2.356988e+00 -1.721331e+01 -1.570530e+01 -2.440327e+00 -1.998925e+00 7.998586e+00 5.762515e+00 5.729056e+00 6.239696e-01 -4.388811e+00 -3.251959e+00 -1.512926e-01 -1.691529e+00 6.240913e-01 1.210726e+00 4.148768e-01 1.414926e+00 1.992283e+00 -3.354270e-01 9.038245e-01 1.469655e+00 2.331383e+00 2.403306e+00 4.499761e-01 0.000000e+00 
-4.069465e+00 5.834758e+00 -1.021749e+01 -1.077130e+01 3.268692e+00 -3.319429e-01 2.205995e+00 3.852127e+00 3.845618e+00 -5.406742e-01 -7.767115e+00 -1.474844e+00 -1.512926e-01 -1.976239e+00 4.960501e-01 1.972857e+00 2.734708e+00 2.911646e+00 1.636168e+00 -7.765040e-01 -7.085761e-01 -8.029114e-01 1.450339e+00 2.238162e+00 1.390491e+00 0.000000e+00 
-7.272534e+00 4.095778e+00 -1.065088e+01 -6.013682e+00 5.083506e+00 2.516202e-01 2.453542e+00 1.798719e+00 -5.430031e-02 2.992942e+00 -3.990252e+00 3.261752e-01 -1.512926e-01 -1.610212e+00 4.949780e-01 2.472985e+00 4.071855e+00 3.143299e+00 2.979675e-01 -1.792665e+00 -7.089337e-01 -1.696467e+00 1.274445e+00 2.124680e+00 1.184554e+00 0.000000e+00 
-8.392447e+00 3.994152e+00 -9.848364e+00 -3.420320e+00 7.983672e+00 -3.372175e+00 -1.047460e+00 -1.392874e+00 -2.435807e+00 3.404344e+00 1.001420e-01 1.094986e+00 -1.512926e-01 -1.180526e+00 -6.051180e-01 1.335273e+00 2.911870e+00 2.572618e+00 1.839367e+00 -9.835847e-02 2.688473e-01 -4.592733e-01 4.615518e-01 2.200672e+00 1.898042e-01 0.000000e+00 
-8.347032e+00 5.752181e+00 -5.032952e+00 9.784799e-01 1.091868e+01 1.011028e+00 6.619881e-01 4.840346e+00 3.874323e-01 5.023686e+00 2.300961e+00 1.385894e+00 -1.512926e-01 -4.991120e-01 1.377213e-02 1.086705e+00 1.092478e+00 1.446069e+00 3.113797e+00 1.127995e-01 1.628108e-01 1.365255e+00 6.384981e-02 1.514375e+00 -4.962032e-01 0.000000e+00 
-9.434844e+00 1.980967e+00 -6.350091e+00 2.919698e-01 1.321420e+01 8.485190e+00 2.609979e+00 3.675550e+00 1.328385e+00 7.517128e-01 9.063649e-02 -1.055682e+00 -1.512926e-01 -7.035591e-01 -2.207526e-01 -8.710344e-02 2.184436e-01 -3.226621e-01 3.138140e+00 5.358931e-01 -6.318526e-02 1.963305e+00 6.226553e-01 8.742541e-01 -7.798735e-01 0.000000e+00 
-9.246896e+00 5.171231e+00 -6.966491e+00 -2.407437e+00 9.698586e+00 9.891922e+00 1.188819e+00 7.856131e-02 4.889880e+00 4.638506e+00 3.586377e+00 -1.079507e+00 -1.512926e-01 -2.997852e-01 -2.615174e-01 -3.162908e-01 3.668700e-01 3.899391e-01 5.331119e-01 2.235902e-01 -2.085073e+00 -2.376017e-01 6.542750e-02 -1.125460e-01 2.663896e-01 0.000000e+00 
-1.146031e+01 3.180863e+00 -9.317112e+00 -6.351428e-01 6.980408e+00 7.878080e+00 1.368590e+00 6.720924e-01 5.129493e+00 6.710211e+00 3.828705e+00 -1.571681e+00 -1.512926e-01 3.542118e-02 3.774063e-01 2.125261e-01 7.385556e-01 1.285804e+00 -9.367148e-01 1.851243e-01 -7.317861e-01 -1.484405e+00 -5.371467e-01 -7.321962e-01 6.390553e-01 0.000000e+00 
-8.833224e+00 3.844646e+00 -5.130896e+00 3.276386e+00 1.598527e+01 3.980143e+00 2.400634e+00 -4.083287e+00 -2.701130e+00 2.371575e+00 -1.308029e-01 2.975841e+00 -1.512926e-01 3.145128e-01 -6.432764e-02 1.763790e-01 1.563044e-01 1.500293e+00 -1.119627e+00 1.127136e+00 5.364786e-01 -1.444497e+00 -8.280606e-01 -6.373688e-01 1.176188e+00 0.000000e+00 
-9.464574e+00 4.531291e+00 -6.205258e+00 1.142836e+00 1.649988e+01 6.757506e+00 2.929694e+00 2.097544e+00 -2.298136e+00 -8.005552e-01 -1.711754e+00 1.119199e-01 -1.512926e-01 1.075345e+00 -5.511428e-01 3.982618e-01 6.448793e-02 -1.493344e+00 -2.731565e+00 -1.892121e-01 1.319649e+00 -1.324490e+00 -9.449655e-01 1.507394e-01 2.294394e+00 0.000000e+00 
-8.672200e+00 4.174379e+00 -7.640522e+00 -2.514904e+00 1.244031e+01 4.854074e+00 6.043949e+00 2.048229e+00 1.381212e+00 4.253587e+00 3.169763e+00 3.959635e+00 -1.512926e-01 6.903731e-01 -1.686756e+00 -5.001744e-01 -2.669154e-01 -6.370623e+00 -3.360630e+00 -2.406951e+00 1.868904e+00 -1.124279e-01 -1.602722e+00 -1.832429e-01 5.060580e-01 1.397579e-02 
-6.164097e+00 2.602825e-01 -6.070990e+00 2.582942e+00 1.286166e+00 -6.216710e+00 -1.399128e+00 4.204577e+00 -3.534130e+00 1.044377e+00 2.932119e+00 9.408393e+00 -1.512926e-01 9.922082e-01 -3.622063e+00 1.930156e-02 -1.079979e-01 -7.572807e+00 -2.180829e+00 -3.401493e+00 2.243514e-01 -1.101990e+00 -1.626543e+00 -4.133133e-01 -2.032827e+00 5.119183e-02 
-7.031597e+00 -2.453630e+00 -7.698902e+00 1.221756e+00 -8.260991e+00 -6.335898e+00 -7.469709e+00 4.207720e+00 -2.645273e+00 -6.564500e+00 -3.368954e+00 8.578947e-01 -8.141363e-02 9.843230e-01 -4.207143e+00 8.907872e-01 1.263856e-01 -7.426987e+00 1.041630e-01 -3.076586e+00 4.807517e-01 -3.298384e-01 -2.352399e+00 -1.271700e+00 -3.665196e+00 8.966246e-02 
-5.323834e+00 -1.026502e+01 -6.079561e+00 -1.265484e+00 -1.101351e+01 1.448346e+00 -7.320940e+00 2.139555e+00 -5.794841e+00 -3.524227e+00 -5.089622e-01 -8.501348e+00 6.972712e-02 1.627399e+00 -2.197320e+00 2.178027e+00 3.100452e-02 -3.636494e+00 2.900518e+00 -1.378426e+00 1.149301e+00 1.728344e+00 -7.657068e-01 1.071931e-01 -4.152753e+00 1.041852e-01 
-4.170716e+00 -1.159868e+01 -3.182301e+00 4.123688e-02 -1.854478e+01 1.542361e+00 -6.378074e+00 5.484498e+00 8.623755e-01 -5.224107e+00 -1.468198e+00 -5.411474e+00 1.865099e-01 3.648671e+00 -5.127371e-01 2.995775e+00 1.783488e-01 -2.023077e+00 1.337515e+00 -6.423219e-01 1.874390e+00 1.807906e+00 6.381446e-01 1.639702e+00 -1.143754e+00 1.347926e-01 
5.424585e-01 -6.153788e+00 2.560843e+00 3.328224e+00 -1.175441e+01 4.346751e+00 -8.837077e+00 9.312694e+00 3.353766e+00 -3.454354e+00 2.517706e+00 -8.220689e+00 2.356719e-01 4.406213e+00 -2.555671e-01 2.416975e+00 6.897489e-01 -2.333147e+00 -6.470662e-01 -4.353434e-01 9.431316e-01 2.433163e+00 7.683463e-01 9.460929e-01 7.895454e-01 1.767768e-01 
8.278610e+00 -7.072930e+00 2.959772e+00 -1.833539e-01 -1.800593e+01 -1.097523e+00 -9.923251e+00 9.993099e+00 1.819953e+00 -3.408713e+00 3.316224e+00 -5.001204e+00 5.095768e-01 4.124367e+00 -1.189035e+00 9.202808e-01 -7.334709e-03 -2.796905e+00 -9.404365e-01 5.644125e-01 -8.369564e-01 1.816622e+00 8.160915e-01 7.058078e-01 1.138884e+00 1.912201e-01 
1.048257e+01 -1.380573e+01 2.934281e+00 2.295556e+00 -2.294867e+01 -4.670427e-01 -7.725070e+00 4.600913e+00 5.892186e+00 -5.901918e-01 1.829291e+00 -4.758755e+00 7.920777e-01 2.264201e+00 -2.314630e+00 -3.204175e-01 -8.929142e-01 -3.703405e+00 -9.453011e-01 2.004475e+00 -2.209801e+00 1.697370e+00 -9.856196e-02 2.235375e-01 1.612683e+00 1.746866e-01 
1.148106e+01 -1.371789e+01 1.232384e+00 5.208974e-01 -2.693217e+01 -7.529249e-01 -4.112015e+00 3.655606e+00 8.676273e+00 -2.575730e+00 2.405049e+00 -1.448020e+00 8.644077e-01 2.550003e-01 -1.498217e+00 -3.907719e-02 -6.721331e-01 -2.035045e+00 1.335021e-01 2.105787e+00 -1.399145e+00 9.425605e-01 -2.645539e-01 1.593355e-01 1.037018e+00 1.039960e-01 
1.026224e+01 -1.440446e+01 1.822449e+00 -1.488472e+00 -2.580831e+01 -5.520530e-01 -1.720322e+00 1.432435e+00 8.412458e+00 -4.363655e+00 4.090981e+00 -1.933867e+00 9.316894e-01 -4.220557e-01 -5.994415e-02 3.188866e-01 -8.954170e-01 -7.960281e-01 -1.911512e-01 1.413045e+00 -2.594955e-01 -4.108510e-02 -3.841852e-01 1.577197e-01 1.091873e+00 4.542416e-02 
9.663777e+00 -1.426465e+01 3.320302e+00 -1.652005e+00 -2.675134e+01 -3.875073e-01 -2.396693e+00 4.581614e+00 5.272619e+00 -2.844751e+00 2.982056e+00 -1.228559e+00 9.597511e-01 -5.656561e-01 2.687836e-02 7.677214e-01 -1.384261e-01 -3.933769e-01 -8.476670e-02 4.719864e-01 -3.152362e-01 -1.014921e-01 -2.064435e-01 5.440302e-01 3.478120e-01 2.926586e-02 
9.280933e+00 -1.383207e+01 3.484755e+00 -1.095078e+00 -2.701923e+01 -1.605507e+00 -1.517506e+00 2.840431e+00 7.388587e+00 -2.376607e+00 2.329386e+00 5.908787e-01 9.715267e-01 -3.298275e-01 4.800909e-01 2.509542e-01 4.587711e-01 -5.979351e-01 -1.454675e-01 -1.574906e-01 -1.453147e-01 2.267327e-02 -1.956956e-01 7.478531e-01 4.086995e-01 1.317558e-02 
9.143435e+00 -1.386969e+01 4.239838e+00 -3.679304e-01 -2.829360e+01 -6.500313e-01 -1.853491e+00 1.375427e+00 8.680748e+00 -4.601472e+00 6.005997e+00 -9.713328e-01 9.908184e-01 -3.403955e-01 6.088646e-01 5.361605e-02 1.349110e-01 -7.761307e-02 -5.325481e-01 2.959351e-01 -1.428214e+00 5.799413e-01 -5.120345e-01 1.142487e+00 5.144303e-01 8.083403e-03 
8.873272e+00 -1.220149e+01 2.617452e+00 1.633458e-01 -2.802686e+01 -1.148129e+00 -2.779375e+00 2.308955e+00 6.821760e+00 -4.463773e+00 6.318276e+00 -1.898214e-02 9.820337e-01 -3.638293e-01 4.814773e-01 4.030534e-01 -6.987958e-02 4.004860e-02 -6.564192e-01 -8.901550e-02 -1.311346e+00 -3.686340e-01 1.995564e-02 8.269426e-01 1.247678e+00 6.104278e-03 
8.165631e+00 -1.203562e+01 4.022033e+00 -1.606662e+00 -2.663559e+01 -3.278938e+00 -2.860825e-01 -2.293719e+00 8.455740e+00 -4.361341e+00 6.700048e+00 1.648523e+00 9.949147e-01 -3.415335e-01 4.575318e-01 7.427593e-01 2.692061e-02 6.630478e-02 -8.514250e-01 -1.747019e-01 -1.760620e+00 -3.462876e-01 -1.272383e-02 7.240070e-01 1.844494e+00 3.603005e-03 
7.950689e+00 -1.234172e+01 5.608924e+00 -8.251100e-01 -2.764799e+01 -3.573150e+00 -2.746288e+00 -1.881727e+00 5.657922e+00 -2.396894e+00 6.117074e+00 5.519339e+00 1.000000e+00 -3.046497e-01 2.532206e-01 1.463666e+00 4.935073e-01 -7.917557e-02 -8.020846e-01 -5.083350e-01 -2.440591e+00 1.284839e-01 -5.362986e-01 1.150179e+00 1.937801e+00 2.416360e-03 
7.897058e+00 -1.151191e+01 6.457899e+00 2.609005e-01 -2.815150e+01 -3.694645e+00 -2.743545e+00 -5.332331e+00 7.531229e+00 -5.698530e+00 9.726633e+00 5.481974e+00 9.998503e-01 -3.670589e-01 5.242027e-01 1.633109e+00 1.263580e+00 -2.264263e-01 -5.061942e-01 -9.468778e-01 -2.351697e+00 6.502052e-02 -9.414495e-01 1.226272e+00 1.736126e+00 -4.596794e-03 
7.484309e+00 -1.119723e+01 8.717852e+00 1.697101e+00 -2.766478e+01 -4.950698e+00 -4.092319e+00 -8.374691e+00 7.926434e+00 -6.476671e+00 1.055588e+01 7.753298e+00 9.916477e-01 -3.707907e-01 8.163306e-01 2.078332e+00 7.465949e-01 4.749832e-01 -4.800199e-01 -4.111186e-01 -2.592569e+00 -3.325698e-01 -6.045413e-01 9.299940e-01 8.370263e-01 -1.169811e-02 
6.563526e+00 -9.986846e+00 1.063312e+01 3.450133e+00 -2.775933e+01 -5.121135e+00 -4.347456e+00 -1.080572e+01 7.646586e+00 -7.028701e+00 1.061201e+01 9.212174e+00 9.761068e-01 -3.198522e-01 6.422762e-01 2.629926e+00 1.433003e-01 8.933640e-01 -2.388125e-01 1.213303e-02 -1.982258e+00 -1.665417e+00 2.820775e-01 -1.933345e-01 5.730939e-01 -1.315362e-02 
6.763501e+00 -9.022599e+00 1.391298e+01 1.313248e+00 -2.546917e+01 -5.260005e+00 -3.999925e+00 -1.210788e+01 3.937395e+00 -4.754516e+00 1.032436e+01 7.839370e+00 9.533812e-01 -1.887947e-01 6.215221e-01 2.509656e+00 -1.274674e-01 8.911442e-01 2.201687e-01 4.793307e-01 -1.583184e+00 -2.119700e+00 -1.339270e-01 -6.290196e-01 -3.272733e-01 -1.545709e-02 
6.658201e+00 -9.387851e+00 1.700997e+01 1.169328e+00 -2.478249e+01 -4.734055e+00 -2.729076e+00 -1.337703e+01 1.198666e+00 -5.149220e+00 8.875722e+00 8.304407e+00 9.532154e-01 3.241625e-02 2.551020e-01 2.512651e+00 -1.635903e-01 7.774032e-01 6.541688e-01 6.708642e-01 -1.249975e+00 -2.519798e+00 -5.841295e-01 -8.760416e-01 -1.149999e+00 -1.328199e-02 
6.492998e+00 -8.389121e+00 1.807771e+01 2.200167e+00 -2.469748e+01 -4.043395e+00 -2.504855e+00 -1.500496e+01 5.518937e-01 -8.086046e+00 8.278924e+00 6.570816e+00 9.258080e-01 -9.983418e-02 3.920332e-01 2.114417e+00 5.516180e-01 5.546429e-01 9.814470e-01 3.319419e-01 -1.091837e+00 -2.125722e+00 -9.198993e-01 -1.205691e+00 -1.122579e+00 -1.628291e-02 
6.860859e+00 -9.028075e+00 2.111401e+01 2.188723e+00 -2.425816e+01 -2.458596e+00 -1.740670e+00 -1.560706e+01 -3.259653e+00 -8.283583e+00 7.254516e+00 4.096458e+00 9.234835e-01 -2.782980e-01 8.334182e-01 1.566487e+00 6.680613e-01 9.975580e-01 8.076874e-01 3.027337e-01 -7.662010e-01 -1.827510e+00 -5.625679e-01 -1.486103e+00 -1.031496e+00 -2.376685e-02 
6.163002e+00 -7.242321e+00 2.243304e+01 3.561641e+00 -2.295811e+01 -1.490499e+00 -2.834419e+00 -1.645205e+01 -4.462057e+00 -7.786831e+00 5.106504e+00 4.330449e+00 8.868326e-01 -4.837523e-01 8.435476e-01 1.286300e+00 4.207594e-01 1.748739e+00 5.742256e-01 1.118354e-01 3.614054e-02 -1.903519e+00 6.945801e-02 -1.673406e+00 -7.065861e-01 -2.617400e-02 
5.431710e+00 -5.794160e+00 2.266474e+01 3.828897e+00 -2.066438e+01 -1.972065e+00 -1.050626e+00 -1.648449e+01 -5.431911e+00 -8.111668e+00 3.031418e+00 4.267112e+00 8.538688e-01 -6.453815e-01 9.303471e-01 6.549006e-01 3.588848e-01 2.159529e+00 4.052402e-01 -6.876338e-02 4.174300e-01 -1.622456e+00 5.443926e-02 -1.021512e+00 -7.623460e-01 -3.930924e-02 
4.788812e+00 -5.788341e+00 2.373384e+01 3.483876e+00 -1.775067e+01 -1.415532e+00 -2.290700e+00 -1.438554e+01 -7.879571e+00 -7.824714e+00 2.023443e+00 2.952558e+00 8.297453e-01 -4.873213e-01 7.001960e-01 4.424248e-02 1.433633e-01 2.068232e+00 4.905385e-01 1.241440e-01 1.034315e+00 -1.922792e+00 2.575275e-01 -3.140038e-01 -1.767946e+00 -5.281071e-02 
4.321047e+00 -5.103330e+00 2.373811e+01 4.022029e+00 -1.606424e+01 -4.698780e-01 -2.356346e+00 -1.455316e+01 -9.663174e+00 -7.992445e+00 3.688487e+00 9.736737e-01 7.554809e-01 -2.593625e-01 1.544622e+00 -2.967785e-01 3.017218e-01 1.695282e+00 4.383741e-01 2.191530e-01 1.696458e+00 -2.413667e+00 7.353489e-01 -7.839920e-02 -1.736714e+00 -8.791745e-02 
4.281726e+00 -4.086757e+00 2.211757e+01 4.181891e+00 -1.491703e+01 2.111002e-01 -1.560839e+00 -1.224614e+01 -1.196038e+01 -6.558805e+00 3.207951e+00 -2.862559e+00 6.719730e-01 2.845252e-01 2.540834e+00 -1.469564e+00 3.732057e-01 1.778813e+00 -1.053021e+00 -5.714826e-01 1.196829e+00 -2.961941e+00 1.585936e+00 -3.108055e-01 -9.996186e-01 -1.151362e-01 
4.388440e+00 1.078160e+00 2.198898e+01 4.988499e+00 -1.360479e+01 -5.935106e-01 -3.197914e-01 -9.071898e+00 -1.545984e+01 -5.067878e+00 2.047168e+00 -1.508898e+00 4.931678e-01 -5.556704e-01 2.231969e+00 -1.813570e+00 1.208025e+00 1.468319e+00 -1.516230e+00 -1.413609e+00 1.215377e-01 -3.211874e+00 6.499286e-01 -1.058220e+00 -1.621358e-01 -1.471403e-01 
6.177741e+00 3.825087e+00 1.726059e+01 4.866670e+00 -1.008633e+01 -6.618822e+00 -6.166390e+00 -1.114203e+01 -1.979094e+01 -1.357315e+00 1.290075e+00 -8.042492e-01 3.852210e-01 -1.807743e+00 1.026188e+00 -1.504791e+00 1.699738e+00 8.386843e-01 -6.255749e-01 -8.163368e-01 8.610424e-01 -1.393313e+00 6.214333e-01 -1.454858e+00 -2.513435e-01 -1.211755e-01 
5.946875e-01 2.100595e+00 1.709875e+01 9.719765e+00 -1.113799e+01 -4.636067e+00 -7.121617e+00 -1.449753e+01 -2.180726e+01 -7.343547e+00 -6.436729e-01 -8.661605e-01 1.631556e-01 -1.160430e+00 2.041430e-01 -2.005479e+00 1.875250e+00 1.711893e+00 -7.495420e-01 1.993614e-01 5.568720e-01 7.558461e-01 -4.506951e-01 -1.497713e+00 1.684341e-01 -1.228205e-01 
-2.860114e+00 5.329657e-01 1.703873e+01 1.031495e+01 -1.195701e+01 -8.954967e-01 -2.241610e+00 -5.228111e+00 -1.575324e+01 -2.313804e+00 -2.720918e+00 -4.440645e+00 2.311014e-01 -1.590074e+00 1.198851e+00 -4.197088e+00 -7.572272e-01 4.761743e+00 5.081221e-01 2.081738e+00 2.542860e+00 3.880212e+00 7.989014e-01 -1.132773e+00 -2.698165e-01 -1.280058e-01 
3.105217e+00 3.744936e+00 1.207252e+01 1.164061e+01 -4.109983e+00 -7.202883e+00 -1.285375e+00 -9.244495e+00 -1.369946e+01 -6.843109e+00 -3.435901e+00 1.151471e+00 -4.387498e-02 -1.342531e+00 2.005935e+00 -5.804470e+00 -2.997795e+00 7.244836e+00 1.467333e+00 2.032199e+00 3.065238e+00 5.270253e+00 2.663532e+00 8.102940e-01 -6.487516e-02 -1.011290e-01 
-3.027892e+00 8.997173e+00 -1.211738e+00 1.201105e-01 1.020838e+01 -2.794803e+00 1.324179e+00 -1.054242e+00 -4.443786e+00 2.386973e+00 -2.977674e+00 -3.162147e+00 -1.512926e-01 -1.490394e+00 1.226016e+00 -6.247931e+00 -3.762206e+00 6.360406e+00 2.337285e+00 1.287331e+00 1.995339e+00 5.059721e+00 3.291564e+00 1.783559e+00 5.517644e-01 -8.722055e-02 
-6.034081e+00 7.898167e+00 -2.798369e+00 -1.717920e-01 1.400349e+01 3.650252e+00 1.256486e+00 -1.258274e+00 -1.110726e+00 3.623725e+00 3.536175e+00 -1.829785e+00 -1.512926e-01 -2.035268e+00 -2.010551e-02 -4.401151e+00 -3.343035e+00 3.456118e+00 2.769530e+00 1.061084e+00 2.214033e+00 3.526984e+00 2.695630e+00 1.459311e+00 -2.072914e-01 -2.148352e-02 
-5.742434e+00 4.586430e+00 -6.765481e+00 -2.589883e+00 1.078829e+01 5.364361e+00 2.924115e+00 7.554734e-01 3.250999e+00 8.910597e+00 2.710839e+00 -1.911956e-01 -1.512926e-01 -1.055707e-01 -4.193789e+00 -6.733626e-01 -3.373701e+00 -4.618426e-01 9.165273e-01 1.497389e-01 2.343463e+00 1.737483e-01 2.476992e-01 2.084778e-01 5.981199e-01 8.314723e-02 
-5.713851e+00 5.849780e+00 -7.156369e+00 -3.719568e+00 1.288066e+01 2.565182e+00 3.220076e+00 9.208131e-01 8.806396e-02 3.373228e+00 1.016397e+00 -1.370462e+00 -1.512926e-01 6.355435e-01 -4.850070e+00 4.784585e-01 -4.293159e+00 -2.322885e+00 -2.346041e+00 -1.019910e+00 2.297485e+00 -1.302629e+00 -1.218128e+00 -1.789413e-01 1.234546e+00 1.908908e-01 
-3.715860e+00 -1.094758e+01 -2.399551e+00 -1.497451e+01 8.460589e+00 2.330368e+00 1.091078e+00 9.573528e+00 -4.174439e+00 3.750717e+00 -6.753967e-01 -4.012097e-01 2.644436e-01 4.112975e-01 -2.146026e+00 2.720315e+00 -1.879811e+00 -4.798551e-01 -4.444981e+00 -1.080143e+00 2.996200e+00 -1.361335e+00 -1.984584e+00 -2.964683e-02 9.905027e-01 1.981666e-01 
-3.869650e+00 -8.585178e+00 -2.589042e+00 -1.544528e+01 3.552915e+00 -6.562959e+00 -2.926545e+00 5.820120e+00 -3.911152e+00 1.130252e-01 4.334586e+00 4.447954e+00 5.952933e-01 5.407720e-01 -6.734086e-01 3.474813e+00 1.665000e+00 1.388330e+00 -2.521207e+00 1.122006e-01 3.844046e+00 -4.401851e-02 -1.585908e+00 -1.452163e+00 -9.157024e-02 1.367536e-01 
-4.608047e+00 1.073780e+00 4.552432e+00 -6.126084e+00 1.305288e+01 -1.229647e+01 5.967132e-01 1.328682e+01 -1.556070e+00 6.177778e-01 9.035105e-01 1.852110e+00 4.662477e-01 1.347902e+00 3.085191e+00 3.122038e+00 5.164633e+00 2.310802e+00 -5.299971e-01 1.355987e+00 1.648437e+00 1.287428e+00 -5.737908e-01 -1.331510e+00 -7.772135e-01 -7.368308e-03 
-2.563898e+00 -3.527945e+00 6.741705e+00 1.812229e-01 1.752616e+01 -2.727433e+00 4.028262e+00 1.828440e+01 -1.441213e+00 -2.989841e+00 -7.033871e+00 -2.954973e+00 4.315732e-01 2.233657e+00 1.637132e+00 2.140369e+00 3.670619e+00 1.507803e+00 2.156169e+00 2.083585e+00 8.311409e-01 1.667485e+00 1.115941e-01 -1.546184e+00 -5.460788e-01 -9.794097e-02 
2.370773e+00 1.949754e+00 8.545267e+00 3.035409e+00 1.302798e+01 -2.237380e+00 4.393608e+00 1.158357e+01 1.027729e+00 2.433197e+00 -1.648717e+00 -5.858135e-01 3.094621e-01 2.603724e+00 -5.180181e-01 -3.274713e-01 9.464003e-01 -1.791187e+00 1.924300e+00 1.257960e+00 -1.645918e+00 7.806747e-01 7.370205e-01 -3.482262e-01 4.034911e-01 -9.498470e-02 
3.809225e+00 -8.375046e-01 6.116387e+00 -1.672925e+00 1.110438e+01 -8.116596e-01 5.592934e+00 1.082745e+01 3.134371e+00 -2.367139e-01 -2.120220e+00 2.936522e+00 1.839812e-01 1.303607e+00 1.151684e-01 -1.710498e+00 -7.389470e-01 -2.519479e+00 -6.735945e-01 -8.905413e-02 -2.489703e+00 -2.036904e+00 3.213221e-01 2.297602e-01 8.575881e-01 -7.975060e-02 
5.224010e+00 -2.861530e+00 3.227734e+00 -4.670091e-01 7.307834e+00 -3.632858e+00 6.104175e+00 8.785703e+00 5.951118e-02 2.926317e+00 -3.294446e+00 9.238183e-01 1.151202e-01 4.549835e-01 -7.387055e-01 -2.525190e+00 -8.746847e-01 -1.625969e+00 -8.518942e-01 -1.190324e+00 -2.358829e+00 -3.161117e+00 -1.569476e+00 -9.355156e-01 3.330033e-01 -5.687845e-02 
2.527520e+00 -5.464604e-01 8.479800e-01 -1.762303e+00 7.788840e+00 -5.397667e+00 2.727707e+00 7.234818e+00 -1.114162e+01 -1.629790e+00 -5.062205e+00 5.781512e-01 1.299911e-01 6.705041e-01 -5.094774e-01 -1.645393e+00 1.115262e+00 -1.257397e+00 -3.613852e-01 -1.496831e+00 -1.943560e+00 -7.072375e-01 -1.195170e+00 -5.625929e-01 -1.191097e-01 -3.385282e-02 
5.286543e+00 -1.889295e+00 -1.446480e+00 -1.293325e+00 6.555902e+00 -4.203847e+00 -1.253988e-01 1.585740e+00 -7.639857e+00 -4.717644e+00 -4.855302e+00 2.258388e+00 5.206490e-02 5.605241e-01 -3.081698e-01 -4.103717e-01 1.693727e+00 -5.431393e-01 3.137069e-01 -1.315265e+00 -9.762844e-01 9.772481e-01 -2.272674e+00 -6.205443e-01 -8.274199e-02 -3.109490e-02 
7.130479e+00 -3.871009e+00 2.265286e-01 4.316544e+00 5.193367e+00 -2.333091e+00 1.223564e+00 4.709627e+00 3.447868e+00 -2.390584e+00 -4.152756e+00 1.673688e+00 4.624480e-02 4.981833e-01 -1.787441e-01 -6.887836e-01 1.457005e+00 -1.271896e+00 1.369812e-01 -1.446592e-01 -1.449011e-01 2.062119e+00 -1.485983e+00 -1.339039e+00 -6.875860e-01 -5.560772e-02 
5.725152e+00 -2.740105e+00 1.486601e+00 4.962202e+00 5.889874e+00 -3.596611e+00 2.799198e-01 5.166877e+00 -2.348994e+00 -8.056654e+00 -6.851892e+00 -3.766008e-02 1.518905e-03 -2.065298e+00 6.034063e-01 1.112301e+00 6.947705e-01 -1.346541e+00 1.078317e+00 1.693608e+00 -2.298815e+00 3.917552e+00 -1.525295e+00 3.685934e-01 -1.559289e+00 3.715426e-03 
4.799132e+00 -1.014776e+00 -4.062479e+00 2.394958e+00 1.762375e+00 -5.016379e+00 1.801752e+00 4.719745e+00 -3.476460e+00 -7.390199e+00 -1.075910e+01 -1.711755e+00 -1.227745e-01 -3.188322e+00 8.383976e-01 1.472476e+00 -5.608865e-01 -1.378474e+00 1.760266e+00 1.872482e+00 -5.043239e+00 3.555627e+00 -1.610963e+00 2.096811e+00 -1.482849e+00 3.056262e-02 
-3.874271e+00 -3.003800e-01 6.259527e+00 3.141320e+00 1.538694e+00 2.529381e+00 8.053548e+00 -9.913397e+00 1.541007e+01 -9.844312e+00 2.908388e-01 -3.845337e+00 1.551517e-01 -1.188842e+00 1.518777e+00 -2.238758e-01 -1.094648e+00 4.062022e-01 1.926863e+00 7.167850e-01 -2.128463e+00 2.185483e+00 1.221641e+00 1.811626e+00 -1.275688e+00 -6.060696e-03 
-4.011421e+00 -8.988836e-01 5.202448e+00 2.422552e+00 4.765863e-01 3.405241e+00 6.699159e+00 -1.296643e+01 1.234648e+01 -9.551569e+00 2.759934e+00 -3.836719e+00 1.222415e-01 7.088712e-01 2.178707e+00 -1.166509e+00 -7.340431e-02 2.871201e+00 9.191517e-01 -7.238495e-01 2.228110e+00 -1.453034e+00 1.321354e+00 -5.094436e-01 4.236911e-01 -3.634804e-02 
4.186218e+00 4.795835e+00 -4.265241e+00 -5.248327e-01 8.563780e+00 1.826896e+00 1.415141e+00 3.367648e+00 6.669550e-01 -8.677645e-01 -4.553280e+00 -5.353619e+00 -1.512926e-01 2.095382e+00 2.402301e+00 -4.101669e+00 -6.807087e-01 3.011131e+00 -1.255723e+00 -1.293709e+00 5.482281e+00 -4.517095e+00 2.078700e+00 -2.367259e+00 1.274189e+00 -8.864225e-02 
4.313243e+00 7.330653e+00 -4.632639e+00 3.861012e+00 1.260584e+01 -6.937850e-02 1.501709e+00 9.219774e+00 -3.370073e+00 -5.271702e+00 -1.088426e+01 1.160841e+00 -1.512926e-01 1.109835e+00 2.106510e+00 -3.156539e+00 -1.146841e-03 2.762604e+00 -8.596942e-01 -6.405746e-01 4.117600e+00 -1.433089e+00 2.371918e+00 -1.486172e+00 7.975069e-01 -5.470681e-02 
2.440308e+00 7.596357e+00 -9.331275e+00 -9.814534e-01 1.052972e+01 -2.011925e+00 4.183729e+00 6.404905e+00 6.828661e-01 -1.590747e+00 -4.723358e+00 2.682956e-02 -1.512926e-01 -8.482865e-01 6.513075e-01 -1.179604e+00 -1.054600e-01 7.796137e-01 -6.708869e-01 -6.408331e-01 4.995207e-01 1.703112e+00 1.182427e+00 8.684448e-01 8.342415e-01 0.000000e+00 
2.410707e+00 8.233407e+00 -8.047231e+00 2.645128e+00 1.330664e+01 1.026181e+00 2.111992e+00 6.102943e+00 5.173072e+00 2.669512e+00 -4.585889e+00 -2.539409e+00 -1.512926e-01 -9.800083e-01 4.402055e-01 -1.221561e-01 -5.324674e-01 -2.285353e-01 -4.982172e-01 -1.196252e+00 -3.564282e-01 2.251586e+00 2.411618e+00 1.576353e+00 -1.280451e-01 0.000000e+00 
8.960533e-01 7.600995e+00 -8.455964e+00 -4.441905e-01 1.211145e+01 -2.075317e+00 -2.094166e+00 7.423667e+00 4.910944e+00 1.073763e+00 -3.360243e+00 6.677131e-01 -1.512926e-01 -2.045523e-01 1.152941e+00 8.410023e-01 6.698962e-02 1.194968e-01 -4.428857e-01 -1.240265e+00 -1.052448e+00 9.864750e-02 7.284195e-01 1.349826e-01 1.230891e-01 0.000000e+00 
1.853285e-01 9.529362e+00 -5.681075e+00 9.300442e-01 1.067230e+01 -2.528768e+00 -1.340605e+00 6.928252e+00 5.773818e+00 5.454130e+00 -3.684052e+00 2.001743e-01 -1.512926e-01 -1.127093e-01 1.220867e+00 1.038529e-01 3.270602e-02 6.768612e-01 -6.152995e-01 -1.226173e+00 -1.765748e+00 -1.303725e+00 9.911011e-01 6.615936e-01 -7.101941e-02 0.000000e+00 
2.530236e+00 1.271309e+01 -6.309341e+00 2.110367e-01 1.244437e+01 -2.448879e+00 -2.912995e-01 7.300093e-01 8.757303e-01 6.590409e-01 -4.499363e+00 -7.275167e-01 -1.512926e-01 -7.589345e-02 7.978058e-01 1.323896e-01 -8.203478e-02 3.891870e-01 1.386783e-02 -6.217060e-01 -2.064265e+00 -1.216450e+00 1.121687e+00 -2.026872e-01 -1.460569e+00 0.000000e+00 
1.030070e+00 1.178170e+01 -8.601277e+00 2.481045e+00 1.652448e+01 -1.863536e+00 -4.920308e+00 6.210332e-01 6.720564e-01 7.832378e+00 -7.083607e-01 -2.196891e+00 -1.512926e-01 -4.818631e-01 -3.402742e-01 8.416796e-02 -5.957265e-01 4.038699e-01 5.712525e-01 -4.798090e-01 -8.997329e-01 -7.424971e-01 1.783412e+00 -8.836345e-02 -1.466647e+00 0.000000e+00 
9.421539e-02 1.046386e+01 -6.333915e+00 -1.629865e+00 1.113129e+01 -2.338594e+00 -3.412845e+00 2.559509e-01 1.379574e+00 5.493071e+00 -5.861525e+00 -5.436597e+00 -1.512926e-01 -7.263447e-01 -6.424908e-01 8.432312e-01 1.890821e-01 2.106485e-01 1.060767e+00 -4.148558e-01 5.040160e-01 2.952765e-01 1.326951e+00 8.007504e-01 -1.230019e+00 0.000000e+00 
-1.005977e+00 8.952605e+00 -5.247949e+00 -1.128138e+00 1.334819e+01 2.723525e-01 -2.178878e+00 2.666617e+00 1.809411e+00 1.195417e+01 -3.444789e+00 -4.778520e+00 -1.512926e-01 -6.610689e-01 -5.542258e-01 1.635934e+00 5.594951e-01 -4.409912e-01 1.230729e+00 9.772240e-01 6.107355e-01 6.048510e-01 1.212654e-01 1.392197e+00 -7.017145e-01 0.000000e+00 
-8.346462e-02 1.091518e+01 -3.769850e+00 2.961039e+00 1.508576e+01 1.787013e+00 -3.736293e+00 2.227297e+00 1.783435e+00 5.232900e+00 8.726032e-01 -5.586796e+00 -1.512926e-01 -6.247265e-01 -1.641250e-01 8.201977e-01 1.042001e+00 6.271803e-01 1.494399e+00 1.463947e+00 -1.579139e-01 -6.379355e-01 -6.694208e-01 9.199098e-01 -6.958232e-02 0.000000e+00 
-2.186435e+00 8.784908e+00 -1.703640e+00 2.983068e+00 1.234229e+01 2.227305e+00 1.275359e-01 2.689037e+00 3.494381e+00 8.568790e+00 2.885562e+00 -5.630364e+00 -1.512926e-01 -3.289420e-01 -1.424462e-01 -2.263410e-01 -2.004048e-01 -7.476808e-01 1.304801e+00 1.469663e+00 -1.072172e+00 -1.109571e+00 -1.538262e+00 8.678756e-01 1.348556e-01 0.000000e+00 
-2.439188e+00 9.727079e+00 -4.005080e+00 1.524537e+00 1.477014e+01 4.155926e+00 2.753682e+00 -5.448287e-01 -2.652588e+00 3.838659e+00 -4.427151e+00 -5.358587e+00 -1.512926e-01 -5.603613e-01 -8.463989e-01 -1.303483e+00 -1.358047e+00 -8.147415e-01 2.489950e-01 8.281120e-01 -1.558676e+00 -1.763160e+00 -3.210488e-01 -3.930185e-01 9.687489e-01 0.000000e+00 
-1.472825e+00 8.834423e+00 -6.262038e+00 -1.411911e+00 9.767592e+00 5.611900e+00 1.924450e+00 -1.308178e+00 -1.520430e+00 4.959986e+00 3.544466e+00 -4.218347e+00 -1.512926e-01 -2.914508e-01 -5.372493e-01 -1.330179e+00 -1.366782e+00 -7.691050e-02 -6.752517e-01 -1.958922e-01 -7.447104e-02 -6.725388e-01 -4.664972e-02 2.176349e-01 1.620678e+00 0.000000e+00 
-3.242076e+00 6.658425e+00 -8.008064e+00 -1.631707e+00 1.229940e+01 1.339690e+00 -4.941902e-01 -3.567473e+00 -4.524960e+00 5.432058e+00 -1.421942e+00 -1.449060e+00 -1.512926e-01 -8.706868e-01 -1.201803e+00 -6.549560e-01 -3.912427e-01 -1.992538e-01 -1.140943e+00 1.087047e-01 1.599276e+00 1.202361e+00 1.265375e+00 4.652562e-01 1.139126e+00 0.000000e+00 
-3.242245e+00 7.632989e+00 -6.353041e+00 -2.272721e+00 1.319311e+01 2.591643e-01 7.720109e-01 3.828004e+00 1.067873e+00 7.538843e+00 2.471132e+00 5.182605e-01 -1.512926e-01 -1.056221e+00 -9.340349e-01 -5.483714e-02 5.802304e-01 1.207663e+00 4.027504e-01 -5.536174e-01 3.323666e-01 4.022062e-01 1.359241e+00 -1.504461e-01 9.256913e-01 0.000000e+00 
-5.907912e+00 4.318783e+00 -7.234359e+00 -1.271248e-03 1.206112e+01 1.127581e+00 3.873425e+00 4.883461e+00 2.065068e+00 8.876104e+00 -1.564203e+00 -2.031262e+00 -1.512926e-01 -9.504451e-01 -9.958353e-02 1.262036e+00 1.264924e+00 5.689461e-01 2.270599e+00 2.058682e-01 -9.515285e-02 3.066885e-01 5.145023e-01 9.864694e-01 8.280195e-01 0.000000e+00 
-5.421014e+00 5.334070e+00 -6.923076e+00 6.740232e-01 1.592505e+01 7.731707e+00 -3.027444e+00 -3.871812e+00 -2.804413e+00 1.003417e+01 2.863366e+00 7.012112e-01 -1.512926e-01 -6.902812e-01 -2.151856e-01 9.474195e-01 1.080152e+00 1.100944e+00 2.694475e+00 1.062849e+00 -4.394488e-01 -1.782601e-01 -8.708069e-01 3.902031e-01 6.646072e-01 0.000000e+00 
-6.904917e+00 7.309967e+00 -1.412865e+00 3.219543e+00 1.377816e+01 8.956412e+00 2.434878e+00 -1.933292e-01 -1.055375e+00 6.756908e+00 3.314288e+00 2.599562e+00 -1.512926e-01 3.184505e-01 6.452497e-01 7.733270e-01 3.575475e-01 1.569222e+00 2.265750e+00 1.988194e+00 7.496130e-01 4.815550e-01 -1.885606e+00 2.242870e-01 4.119895e-01 0.000000e+00 
-6.195148e+00 5.061470e+00 -4.526690e+00 1.517631e+00 1.783930e+01 9.817122e+00 6.805527e+00 4.169156e+00 1.736794e+00 4.244407e+00 1.982902e+00 1.525884e+00 -1.512926e-01 5.443689e-01 8.298923e-01 5.261062e-01 4.789247e-01 8.345486e-01 3.027305e-01 2.548118e+00 1.643782e+00 1.128818e+00 -4.625157e-01 -3.374503e-02 -1.161927e-01 0.000000e+00 
-3.928593e+00 7.681333e+00 -4.565917e+00 1.364662e+00 1.895010e+01 1.141363e+01 8.897911e+00 4.611042e+00 2.202240e+00 2.342953e+00 -2.535582e-03 -3.836512e-01 -1.512926e-01 8.617717e-01 5.247155e-01 -2.087086e-01 3.786346e-01 8.571477e-01 -7.317549e-01 5.030134e-01 6.960461e-01 2.464961e-01 1.312187e+00 8.912823e-01 2.285523e-01 0.000000e+00 
-4.187331e+00 9.297850e+00 -2.716019e+00 3.996087e+00 1.751182e+01 8.016752e+00 6.481629e+00 1.944913e+00 1.210872e+00 9.928565e+00 4.353053e+00 1.611854e+00 -1.512926e-01 1.186208e-01 4.471234e-01 2.210922e-01 6.505602e-01 -8.619400e-01 -2.717886e+00 -1.942767e+00 -5.516136e-01 1.287473e-01 1.527795e+00 7.044814e-01 7.436530e-01 0.000000e+00 
-3.599967e+00 7.815355e+00 -3.361743e+00 3.873488e+00 1.822764e+01 6.197823e+00 5.111894e+00 4.399022e+00 4.400666e-01 1.047576e+01 6.585624e+00 3.699338e+00 -1.512926e-01 -4.433303e-01 1.373697e-01 -8.486722e-02 -1.046739e-01 -1.710656e+00 -2.229080e+00 -1.169663e+00 8.350851e-01 -4.138320e-01 7.970382e-01 3.883147e-03 -1.147781e-01 0.000000e+00 
-5.766357e+00 7.230075e+00 -4.023316e+00 3.516019e+00 1.389083e+01 -1.164405e+00 -1.015298e+00 1.517097e+00 3.261617e+00 7.816977e+00 2.211229e+00 3.202654e+00 -1.512926e-01 -3.138716e-01 2.058424e-01 -3.433978e-01 -7.711254e-01 -9.779028e-01 -2.927577e-01 -4.903305e-01 8.923735e-02 -4.293200e-01 -1.103186e+00 -1.040416e+00 -2.680281e-01 0.000000e+00 
-5.355731e+00 9.402068e+00 -4.336605e+00 1.081327e+00 1.220732e+01 4.858804e+00 6.798060e+00 9.000376e+00 -8.922927e-01 7.383938e+00 1.087792e+00 -1.752942e+00 -1.512926e-01 -3.277451e-01 1.730480e-02 -1.397258e-01 -4.997438e-01 -7.292757e-02 1.071814e+00 -3.042477e-01 -6.636959e-01 -1.346325e+00 -9.240271e-01 -9.518806e-01 -3.820983e-01 0.000000e+00 
-4.878807e+00 9.533705e+00 -3.945578e+00 1.536541e+00 1.563247e+01 7.222473e+00 3.186893e+00 9.042335e-02 -2.695484e-01 5.958546e+00 1.899888e+00 2.997854e+00 -1.512926e-01 2.210579e-02 -4.023120e-01 -5.073810e-01 -7.038446e-02 1.446650e+00 1.725050e+00 3.767765e-01 -6.491978e-01 -4.840709e-01 -6.763105e-01 3.019469e-01 -1.911706e-01 0.000000e+00 
-5.682467e+00 6.750064e+00 -4.099242e+00 2.364509e+00 1.699218e+01 7.363452e+00 1.489560e+00 1.793880e+00 -4.525978e+00 6.784843e+00 1.981892e+00 1.891248e+00 -1.512926e-01 -8.871116e-02 -8.704290e-01 -7.417923e-01 3.868322e-01 1.614784e+00 1.685479e-01 -6.214509e-01 -1.246810e+00 1.002845e+00 -6.521506e-01 5.746268e-01 1.782150e-01 0.000000e+00 
-5.492460e+00 6.544517e+00 -6.678903e+00 2.522506e+00 1.873165e+01 6.208520e+00 3.522835e+00 1.874357e+00 2.658105e+00 4.734972e+00 3.273913e+00 4.247067e-01 -1.512926e-01 -1.037299e-01 -6.183923e-01 -8.046312e-01 2.129927e-01 7.937819e-01 -3.182839e-01 2.705157e-01 3.648344e-01 1.303939e+00 -4.497019e-01 4.040073e-01 -6.612835e-01 0.000000e+00 
