-6.192200e+00 7.276249e+00 4.523978e-01 6.682951e+00 8.758992e+00 -4.101790e+00 -1.155509e+00 4.600165e+00 -7.712775e+00 4.131048e+00 3.624826e+00 6.047606e+00 -1.512926e-01 -6.867554e-01 -5.764574e-01 -2.221106e-01 -1.636493e+00 -1.139853e+00 -1.631517e+00 -1.860079e-02 4.243174e-01 2.046561e+00 -9.819496e-02 -3.752156e-01 -1.172345e+00 0.000000e+00 
-8.421852e+00 5.422204e+00 2.934689e-01 1.933343e+00 6.678612e+00 -9.182703e+00 -1.902738e+00 6.640381e+00 -2.032759e-01 2.267853e+00 9.674861e-01 7.216980e+00 -1.512926e-01 -8.113644e-01 -6.912605e-01 -2.357674e-01 -7.607552e-01 -7.623253e-01 -3.207436e-01 7.266830e-01 2.546177e-01 1.726625e+00 9.966591e-01 1.065935e-01 -1.609457e+00 0.000000e+00 
-8.511150e+00 5.320985e+00 -5.786908e-01 8.752889e-01 4.099919e+00 -9.718922e+00 -8.748977e-01 5.701643e+00 -1.234722e+00 4.571671e+00 3.077418e+00 -3.988054e-01 -1.512926e-01 -8.307838e-01 -8.791138e-01 -3.694248e-01 2.917046e-02 2.357459e-02 9.193795e-01 9.348203e-01 -1.964056e-01 2.077796e+00 1.758652e+00 8.165563e-01 -6.861057e-01 0.000000e+00 
-9.089546e+00 4.797579e+00 -2.108947e-01 5.783006e+00 7.276902e+00 -2.896943e+00 2.337600e+00 5.322514e+00 -2.318678e+00 8.894032e+00 4.431498e+00 1.223524e+00 -1.512926e-01 -5.894715e-01 -6.413324e-01 -8.934069e-02 6.941501e-01 6.651772e-01 2.319878e+00 9.860500e-01 7.872803e-01 6.639790e-01 2.184566e-01 6.391374e-01 -1.751569e-01 0.000000e+00 
-1.001227e+01 3.192993e+00 -1.142545e+00 4.903972e+00 8.577721e+00 -2.647773e+00 1.398423e+00 4.277071e+00 3.733907e+00 9.611222e+00 5.975601e+00 5.613805e+00 -1.512926e-01 -2.779884e-01 -6.453844e-01 -5.136804e-01 -3.173422e-01 -5.113152e-01 1.061379e+00 7.698721e-01 2.279998e-01 -1.160476e+00 -1.400377e+00 -3.506587e-01 1.326791e+00 0.000000e+00 
-1.061865e+01 3.279538e+00 1.286923e-01 3.389752e+00 7.765597e+00 -1.118887e+00 1.890851e+00 1.128907e+01 6.323042e-01 8.403609e-01 2.714082e+00 3.334891e+00 -1.512926e-01 5.706596e-03 -5.945638e-01 -1.320450e+00 -1.755218e+00 -1.409555e+00 -9.733205e-01 2.840341e-01 -3.793814e-01 -1.900989e+00 -2.954855e+00 -6.059448e-01 8.554353e-01 0.000000e+00 
-9.136541e+00 2.853083e+00 -3.316886e+00 4.852046e-01 1.298995e+00 -5.301054e+00 3.197838e+00 3.858365e+00 -8.512593e+00 1.596621e+00 2.182832e+00 5.179468e+00 -1.512926e-01 1.601017e-01 -7.417077e-01 -1.041572e+00 -1.178819e+00 -4.794138e-01 -7.885927e-01 1.775641e-01 -4.351090e-01 -1.924397e+00 -2.317762e+00 -1.088055e+00 -4.905224e-03 0.000000e+00 
-9.498878e+00 1.994715e+00 -5.725971e+00 -7.837009e-01 3.868490e+00 -6.436904e+00 2.858063e+00 3.634960e+00 -5.700375e+00 -1.872944e+00 3.298158e+00 5.717869e+00 -1.512926e-01 -1.044653e-01 -2.874380e-01 -2.005228e-01 5.471686e-01 9.061678e-01 1.797375e-01 2.420387e-01 -1.032600e+00 3.298086e-01 7.754673e-01 -1.816910e-01 -2.060655e-01 0.000000e+00 
-9.771648e+00 1.268659e-01 -3.423071e+00 1.096605e+00 8.129206e+00 -3.931727e+00 1.802637e+00 5.928580e+00 -2.721736e+00 -6.209373e-01 2.432902e-01 4.397790e+00 -1.512926e-01 -3.769859e-01 -6.833402e-02 8.434399e-01 1.007298e+00 1.509017e+00 1.095344e+00 4.010262e-01 3.056804e-01 1.615143e+00 1.054646e+00 -5.304000e-01 -1.100358e+00 0.000000e+00 
-1.082342e+01 3.205456e+00 -8.208294e-01 5.819895e+00 8.881332e+00 -9.048629e-01 3.798645e+00 5.090963e+00 -6.140814e-01 5.826476e+00 2.775398e+00 2.695402e+00 -1.512926e-01 -2.795269e-01 3.490015e-01 7.805764e-01 1.371336e-01 -3.200607e-01 3.627084e-01 -1.946505e-01 -1.999879e-03 9.649950e-01 1.425366e+00 -1.566703e-01 -2.519256e-01 0.000000e+00 
-1.035920e+01 1.906042e+00 -1.552258e+00 2.219898e+00 6.337657e+00 -2.590356e+00 4.732678e+00 4.658765e+00 -2.980025e+00 3.020142e+00 -2.077881e-01 1.188909e+00 -1.512926e-01 -2.408218e-03 6.609949e-01 -4.235066e-01 -1.143939e+00 -1.239471e+00 -3.949951e-01 -5.049047e-01 -3.442647e-01 -5.077486e-02 5.967972e-01 9.822881e-02 6.621173e-01 0.000000e+00 
-1.060274e+01 2.850134e+00 -2.758496e+00 -6.596797e-01 3.163960e+00 -5.294048e+00 4.197905e-01 4.259868e+00 -7.462552e-01 3.433347e+00 2.740346e+00 6.062681e+00 -1.512926e-01 7.788467e-02 -2.314545e-01 -6.668549e-01 -8.715202e-01 -3.539513e-01 -2.511915e-01 -5.194095e-01 -7.209424e-01 -4.852487e-01 4.390204e-02 8.501238e-02 6.947795e-01 0.000000e+00 
-9.894032e+00 3.609501e+00 -4.571771e+00 -1.383302e+00 4.790536e+00 -3.712110e+00 9.675408e-01 4.622804e+00 -2.909523e+00 3.559613e+00 7.519602e-01 6.024737e+00 -1.512926e-01 2.658705e-01 1.383633e-01 1.939951e-01 4.159977e-01 6.175486e-01 2.545658e-01 -2.054410e-01 -3.674173e-01 8.730140e-02 1.600755e-01 -2.067728e-01 1.720254e-02 0.000000e+00 
-1.066658e+01 1.196454e+00 -2.645347e+00 3.263894e+00 7.885136e+00 -1.599943e+00 3.084165e+00 1.504231e+00 -3.075576e+00 5.776251e+00 2.720585e+00 3.751386e+00 -1.512926e-01 2.368801e-01 1.201305e-01 1.260177e+00 1.715017e+00 1.457770e+00 9.907958e-01 1.128055e+00 3.665303e-01 -1.614518e-02 -5.168692e-01 -2.779663e-01 3.489009e-01 0.000000e+00 
-8.997925e+00 3.424699e+00 -6.388567e-01 2.338100e+00 7.064813e+00 -3.164579e+00 2.373286e+00 4.199497e+00 -1.378858e+00 2.649067e+00 -1.231772e+00 2.430570e+00 -1.512926e-01 2.355402e-01 1.431747e-01 1.742130e+00 3.527748e-01 -2.497426e-01 1.104167e+00 8.968111e-01 5.317154e-02 -8.611012e-02 -1.480963e+00 -2.551002e-01 1.234832e+00 0.000000e+00 
-9.866390e+00 3.543188e+00 1.575933e+00 6.054706e+00 9.315674e+00 -6.138349e-01 5.357193e+00 6.304173e+00 -1.592314e+00 1.304274e+00 2.342380e+00 9.604269e+00 -1.512926e-01 3.654280e-01 5.445856e-01 6.254162e-01 -9.378904e-01 -1.444865e+00 -4.815951e-01 -7.350875e-01 4.618515e-01 -1.686286e-01 -1.797083e+00 -8.273932e-01 8.674949e-01 0.000000e+00 
-9.116426e+00 3.152008e+00 2.028236e+00 -1.014833e+00 2.826554e+00 1.315670e+00 4.315083e+00 2.488691e+00 -4.081705e+00 -1.609214e+00 -3.344381e-01 9.272455e+00 -1.512926e-01 2.633749e-01 -1.138620e-01 -3.752772e-01 -8.071680e-01 -1.258204e+00 -3.160784e-01 -8.967616e-01 -5.090551e-01 3.028819e-01 7.052158e-01 2.361700e-01 -1.768577e-01 0.000000e+00 
-8.780191e+00 4.055728e+00 -8.518122e-01 2.509086e-01 2.779938e+00 -6.248044e+00 -1.562170e+00 4.668892e+00 -2.567295e+00 -1.080024e+00 -1.865048e+00 4.667918e+00 -1.512926e-01 6.843134e-01 -1.397714e-01 -1.213627e+00 -9.295790e-01 -1.250612e+00 -1.642273e+00 -2.642576e+00 -1.508029e+00 -4.954396e-01 -8.438434e-02 -4.065416e-01 -2.006870e+00 0.000000e+00 
-8.224150e+00 2.599119e+00 -1.301370e+00 1.204159e+00 4.041660e+00 -1.927867e+00 1.349160e+00 2.471862e+00 6.230421e-01 7.367296e+00 2.052792e+00 4.014457e+00 -1.512926e-01 2.774708e+00 -2.446231e+00 4.019589e-01 -6.124100e-01 2.206164e-01 -5.313405e-01 -4.829615e+00 -8.429450e-01 5.833403e-01 -3.291713e-01 5.000218e-01 -2.241718e+00 5.057461e-02 
-6.890962e+00 3.120776e+00 -2.827396e+00 2.973148e-01 2.455063e+00 -7.203430e+00 -6.372727e+00 -1.227555e+00 -6.421885e+00 -3.605902e+00 -8.839427e-01 2.198920e+00 -1.512926e-01 3.988708e+00 -3.918463e+00 2.076941e+00 -1.687073e+00 9.413180e-01 1.312781e+00 -5.332242e+00 -1.267442e+00 7.590017e-01 -1.040597e+00 1.067479e+00 -1.584900e+00 1.118504e-01 
3.812500e+00 -8.611671e+00 5.025823e+00 -4.100087e+00 4.092074e+00 -8.633389e-01 -1.742771e+01 1.222189e+00 7.622919e-01 -1.992132e+00 1.675119e+00 -7.016349e-01 1.015805e-01 3.365719e+00 -1.952552e+00 4.831886e-01 -1.306602e+00 2.112888e+00 9.876837e-01 -5.359656e+00 -1.842143e+00 2.722237e-01 -1.404270e+00 -3.175268e-02 -1.373568e+00 5.744248e-02 
5.145023e+00 -9.931194e+00 6.369297e+00 -5.532333e+00 7.461322e+00 -2.164021e-01 -1.883494e+01 -1.043483e+00 1.158089e+00 -1.603294e+00 3.661186e+00 -8.985348e-01 2.815228e-01 -6.783199e-01 -2.604675e-03 -1.125069e-02 -4.310748e-01 1.641265e+00 1.033154e+00 -1.403872e+00 6.002326e-01 4.214301e-02 3.795854e-01 -9.520842e-01 -1.011068e+00 3.545790e-02 
2.586454e+00 -6.376572e-01 -3.483774e+00 -2.414025e+00 1.210297e+01 -4.829621e-01 -1.921801e+01 -6.830890e+00 -1.805827e+00 -6.553572e-01 -3.785363e-01 -1.304655e+00 -8.048785e-02 -3.255428e+00 1.554802e+00 -1.738614e+00 7.472478e-01 -5.969843e-01 -1.605796e+00 1.501060e+00 1.577641e+00 -8.582632e-01 1.568947e-01 -2.240673e+00 -6.008188e-01 -3.620405e-02 
-9.669538e+00 -8.792551e-01 1.371148e+00 -2.701090e+00 6.655941e+00 -2.227850e+00 -1.249694e+01 5.800148e+00 -4.927111e+00 -2.376363e+00 -4.617537e+00 -2.554913e+00 1.170311e-01 -2.160862e+00 -5.090682e-01 -1.825477e+00 -2.359827e-01 -3.560847e+00 -1.651562e+00 1.747941e+00 1.029026e+00 3.125786e-01 -5.326061e-01 -3.240788e+00 -5.707608e-01 -5.758474e-02 
-5.057357e+00 -5.363631e+00 -1.168171e+00 -1.779469e+00 1.509843e+00 -7.886594e+00 -1.309142e+01 5.688581e+00 -4.864242e-01 -8.211244e-01 -5.388885e+00 -2.877540e+00 2.806067e-03 -1.810612e-01 -2.611213e+00 -1.070801e-01 1.948185e-01 -3.109565e+00 -8.564665e-01 7.528019e-01 -5.722190e-01 1.470774e+00 -1.328549e+00 -2.649948e+00 -7.062557e-01 -4.306972e-03 
-1.837381e+00 -1.011355e+01 -3.915890e+00 -7.029524e+00 -5.046348e+00 -4.772395e+00 -1.315854e+01 -2.158088e+00 2.061281e+00 -4.183442e+00 -1.003758e+01 -2.965897e+00 -4.804790e-02 1.423157e+00 -2.716327e+00 -9.222247e-01 3.804291e-01 -1.191170e+00 1.186289e+00 -9.777117e-02 -2.829006e+00 2.207440e+00 2.139759e-01 -4.485944e-01 5.807123e-01 -1.473366e-02 
-2.234930e+00 -9.076577e+00 -1.375655e+00 7.242847e-01 2.406289e+00 -3.493022e+00 -1.512320e+01 -5.712867e+00 2.053847e+00 -6.394564e+00 -1.091826e+01 -4.630441e+00 -1.948321e-02 5.340689e-01 -1.602425e+00 -4.933121e-01 1.528821e-01 -4.528128e-01 1.515884e+00 -8.985813e-01 -2.354741e+00 3.615515e-02 2.621366e-01 -8.003848e-01 5.761306e-01 2.370500e-02 
-3.964966e+00 -1.260442e+01 -3.136234e+00 -2.050821e+00 2.518668e-01 1.506808e+00 -1.196990e+01 -2.644157e+00 4.839954e+00 1.480237e+00 -4.095822e+00 1.225100e+00 5.450743e-02 4.242671e-01 -5.679792e-01 -2.515222e-01 4.362112e-01 -2.675935e-01 7.614155e-01 8.253860e-03 -2.055216e-01 -1.367247e+00 -2.015883e-01 -1.364113e-01 2.469942e-01 2.847787e-02 
-1.323220e+00 -1.213033e+01 -4.024559e+00 -3.504411e+00 -3.403328e+00 -3.446778e+00 -1.817864e+01 -5.842087e+00 -1.694985e+00 -2.342280e+00 -1.236169e+01 -2.092385e+00 7.005340e-02 2.303529e-01 -4.153764e-01 -2.431206e-01 -6.859519e-02 -5.317793e-01 6.024253e-01 8.256792e-01 2.151040e-01 -8.514999e-01 -2.770447e-01 -6.356936e-01 6.132804e-01 1.191762e-02 
-1.719007e-01 -1.142657e+01 -3.849049e+00 -2.734121e+00 -3.479506e+00 -9.884396e-01 -1.158955e+01 -3.121086e+00 -2.900540e+00 -7.217525e+00 -9.997920e+00 -2.999954e+00 4.957312e-02 1.786128e-01 6.891815e-01 1.018798e+00 1.246194e+00 7.761114e-01 1.045402e-01 2.747938e-01 -4.015238e-01 1.725294e-01 7.954586e-01 5.479389e-01 -5.139464e-01 -9.350067e-03 
-2.979698e+00 -1.174238e+01 -2.234850e+00 7.229584e-01 1.613079e+00 7.667279e-01 -1.118498e+01 -4.398883e+00 1.666594e+00 -3.430907e+00 -1.114568e+01 5.484869e-01 4.257202e-02 -7.648935e-01 2.463094e-01 1.313892e+00 1.046941e+00 5.700319e-01 1.198546e+00 1.869052e+00 -3.157224e-01 1.269994e+00 1.765403e+00 2.089486e+00 3.953336e-01 -6.294859e-03 
-2.243663e+00 -9.352480e+00 1.062899e+00 2.066466e+00 1.624220e+00 -7.724428e-02 -1.409276e+01 -5.373378e+00 4.021811e+00 6.001842e+00 -1.964134e+00 -2.665069e+00 2.149779e-02 -7.446079e-01 6.085510e-02 2.444705e-01 3.692245e-01 8.269958e-02 3.367926e-01 1.181380e+00 5.914006e-01 1.732681e+00 1.784139e+00 1.165508e+00 1.411031e+00 -1.025194e-02 
-4.111807e+00 -1.193582e+01 8.892858e-02 -6.699981e-01 -3.105032e+00 2.090356e+00 -7.581778e+00 -6.294553e+00 1.193812e+00 -1.249470e-01 -5.931149e+00 -2.831595e-01 5.261678e-02 -2.439833e-02 2.620180e-01 8.658385e-02 2.501246e-01 -4.751720e-01 -3.966056e-01 1.294142e+00 9.203552e-01 1.001475e+00 5.731260e-01 1.220628e-01 5.801396e-02 -1.689040e-02 
-3.328886e+00 -1.102557e+01 -3.788586e+00 -1.915197e-01 -7.069530e-01 3.370905e-02 -7.484252e+00 7.837520e-01 5.999256e+00 5.019015e-02 -6.777643e+00 4.471024e+00 -6.708980e-03 1.537474e-01 1.170416e-01 -4.818555e-01 -1.955886e-02 -2.205997e-01 -1.076615e+00 4.206873e-01 4.780031e-01 2.017279e-02 -9.013985e-01 -1.866226e+00 6.567709e-02 -2.612490e-02 
-2.559078e+00 -9.595745e+00 6.238112e-01 3.102574e+00 4.028053e-01 -1.271777e+00 -8.018528e+00 -2.875672e+00 5.685249e+00 2.410550e+00 -8.128607e+00 -2.729489e+00 -2.777660e-02 5.061004e-01 6.611052e-01 -2.950632e-01 4.670595e-01 1.182400e+00 -1.087792e+00 -1.361808e+00 -1.106628e+00 3.196475e-01 5.545405e-01 -1.698128e+00 -9.490766e-02 -3.347379e-02 
-2.251290e+00 -9.937311e+00 -1.613819e+00 8.238578e-02 -1.232697e+00 -3.779252e+00 -1.177095e+01 -4.692803e+00 1.876957e+00 2.271016e-01 -1.019654e+01 -1.113518e+00 -6.893003e-02 1.986047e-01 6.084255e-01 -6.777198e-01 -5.499216e-01 5.703070e-02 6.454253e-02 -5.584381e-01 -1.792957e+00 -8.813966e-01 1.695650e-01 -2.048328e+00 -2.341986e-02 -3.011494e-02 
-2.120103e+00 -9.174429e+00 -2.473771e+00 1.528347e+00 3.069839e+00 -1.442122e+00 -1.224747e+01 -9.089415e+00 4.853199e+00 2.559300e+00 -1.271235e+01 2.034573e+00 -8.364165e-02 -7.589550e-02 8.115018e-01 -1.586021e+00 -1.379944e+00 9.990201e-02 1.815476e-01 -2.243522e-01 -7.266129e-01 -1.125241e+00 -1.057225e+00 -1.480668e+00 4.241917e-01 -3.074530e-02 
-2.555350e+00 -8.194104e+00 -5.628394e+00 -2.154014e+00 -1.755316e+00 4.415941e-01 -8.161973e+00 -5.074162e+00 2.008298e+00 8.236403e-01 -1.472742e+01 1.971893e+00 -1.293511e-01 -4.602404e-02 1.581113e+00 -7.198896e-01 3.339591e-01 -1.163491e-01 -2.037597e-02 9.178424e-01 -3.198255e-01 -2.027017e-01 -8.048220e-01 -1.972576e-01 2.839733e-01 -2.323760e-02 
-2.786526e+00 -6.409840e+00 -5.299006e+00 -2.678946e+00 1.163625e+00 -2.474462e+00 -1.094478e+01 -6.318057e+00 -6.628036e-03 -3.173845e+00 -1.326651e+01 -2.151237e+00 -1.512926e-01 -5.300321e-02 1.975480e+00 1.515599e-01 1.158132e+00 -4.224357e-01 -7.525563e-01 1.338405e+00 2.742134e-01 -2.881437e-01 -2.516145e-01 9.338095e-01 -3.388034e-01 -1.572433e-02 
-2.148199e+00 -3.414043e+00 -3.800650e+00 3.855828e+00 -8.613353e-01 -3.364962e+00 -7.833082e+00 -7.677609e+00 3.293362e+00 -9.304361e-01 -1.090574e+01 2.399253e+00 -1.512926e-01 4.603290e-03 2.449588e+00 7.048345e-01 1.118332e+00 7.152466e-01 -4.082417e-01 1.550358e+00 -2.886333e-01 -6.223533e-01 -4.075122e-01 1.371109e+00 -9.831803e-02 -4.388285e-03 
-2.588695e+00 -1.687057e+00 -2.629843e+00 4.314085e+00 5.106697e-01 -3.301625e+00 -5.719886e+00 -6.416624e+00 2.769948e+00 2.178265e+00 -9.954134e+00 1.268766e-01 -1.512926e-01 3.554559e-01 2.135349e+00 2.402801e-01 5.937185e-01 1.174184e+00 3.175959e-01 2.272754e+00 9.542700e-01 -7.056500e-01 -2.138418e-01 7.260210e-01 3.391764e-01 0.000000e+00 
-2.631249e+00 1.692447e+00 -3.438803e+00 -5.887043e-02 2.147394e+00 -1.186033e+00 -3.022627e+00 -6.468045e+00 -2.491756e+00 -3.889976e+00 -9.528055e+00 3.412464e-01 -1.512926e-01 4.232467e-01 2.043563e+00 -4.156807e-01 -1.513830e+00 9.688034e-01 -3.825648e-02 2.260516e+00 2.753798e+00 -2.145696e+00 -7.308239e-01 -2.369732e-01 -1.026303e+00 0.000000e+00 
-7.677212e-01 1.713658e+00 -4.278529e+00 2.246996e+00 5.530180e+00 -1.975946e+00 -1.986235e+00 -2.151489e+00 -6.423187e-01 -2.763284e+00 -1.032524e+01 5.736490e-01 -1.512926e-01 5.840391e-01 1.180629e+00 -1.496131e+00 -1.609679e+00 4.258286e-01 -4.978233e-01 1.806438e+00 4.055026e+00 2.706614e-01 -9.523616e-01 -8.848445e-01 -1.982535e+00 0.000000e+00 
-9.424524e-01 5.103413e+00 -5.054710e+00 -2.679776e+00 1.472927e+00 -4.219083e+00 1.602670e+00 3.958810e+00 -5.728987e+00 -2.113781e+00 -1.190505e+01 -2.955646e+00 -1.512926e-01 3.496595e-01 -3.916865e-01 -2.734933e+00 -1.181197e+00 5.000537e-01 -4.998010e-01 -3.223302e-02 3.993727e+00 3.008570e+00 1.725576e+00 -1.083374e-01 -2.253421e+00 0.000000e+00 
-5.128975e-01 2.510607e+00 -9.302543e+00 -2.423857e+00 2.977046e+00 -4.274217e+00 9.996539e-01 8.645078e+00 5.741870e+00 -3.471640e+00 -1.318986e+01 -8.137352e+00 -1.512926e-01 -3.040171e-01 -1.115486e+00 -3.293846e+00 -1.004457e+00 7.876633e-01 -3.525716e-01 -4.521105e-01 3.095477e+00 3.547294e+00 2.712576e+00 1.194546e+00 -2.570215e+00 0.000000e+00 
-1.010364e+00 -6.644597e-01 -1.460146e+01 -3.629427e+00 5.924230e+00 -2.535903e+00 -4.676736e+00 8.102306e+00 9.358999e+00 5.092081e+00 -8.637436e+00 -6.570359e+00 -1.512926e-01 -5.832474e-01 -9.282986e-01 -1.565666e+00 6.721153e-01 1.522841e+00 3.289936e-01 1.506248e-02 7.296131e-01 2.684122e+00 2.967160e+00 1.852602e+00 -1.371521e+00 0.000000e+00 
-2.253851e+00 -9.798331e-01 -1.597438e+01 -2.300466e+00 7.242846e+00 -4.580395e+00 -1.107084e+00 1.125415e+01 9.550158e+00 7.196663e+00 -5.986326e+00 -1.047007e+01 -1.512926e-01 -2.008804e+00 7.820702e-01 2.308125e+00 2.333738e+00 -6.501473e-01 2.303148e+00 9.791552e-01 -7.582524e-01 -1.899271e-01 1.851382e+00 2.294634e+00 1.065402e+00 2.412796e-03 
-2.988213e+00 2.207140e+00 -9.547119e+00 6.191048e-01 6.954231e+00 -2.421026e+00 2.731351e+00 6.302341e+00 5.787480e+00 7.387865e+00 -6.243810e+00 -8.646893e+00 -1.512926e-01 -3.125968e+00 1.104164e+00 4.244359e+00 3.016510e+00 -2.263034e+00 3.789778e+00 2.291154e+00 -7.945845e-01 -8.153172e-02 1.194244e+00 3.074630e+00 2.112976e+00 9.719634e-03 
-9.567993e+00 4.985157e+00 -2.890927e-01 7.120569e+00 -7.886901e-01 7.184085e+00 2.191386e+00 5.753798e+00 6.577995e+00 4.637380e+00 -2.913500e+00 -1.772074e+00 -1.392286e-01 -2.428298e+00 6.635654e-01 4.000144e+00 1.359065e+00 -3.472547e-01 3.011598e+00 6.171612e-01 -7.316736e-01 3.245144e-01 -2.936540e-01 2.948308e+00 4.255250e+00 4.256618e-03 
-1.298313e+01 1.873863e+00 -1.222312e+00 6.742606e+00 -1.375172e+00 1.053075e+01 5.129797e+00 6.879559e+00 1.043742e+01 1.234294e+01 5.199301e+00 -3.544776e-01 -1.087264e-01 -1.192437e+00 3.057118e-01 2.774315e+00 6.975234e-01 1.906068e+00 3.400686e-01 -6.880747e-01 -2.086252e-01 -7.192849e-01 -1.198332e+00 1.621328e+00 1.381598e+00 -1.206398e-03 
-9.397882e+00 2.504632e+00 -1.360632e-01 1.433108e+00 9.671273e+00 4.001711e+00 7.794988e-01 7.307171e+00 8.847757e+00 3.250855e+00 3.033661e+00 6.659968e+00 -1.512926e-01 4.407410e-01 1.843395e-01 8.431961e-01 -2.689175e-01 2.787078e+00 -3.296870e+00 -9.677339e-02 1.132878e+00 -1.438088e+00 -3.185431e-01 -9.543362e-02 -2.615654e-01 -6.669414e-03 
-9.035452e+00 4.975962e+00 4.247941e+00 6.950452e+00 1.125459e+01 8.705039e-01 -3.078260e-03 4.482529e+00 1.056174e+00 2.089468e+00 -1.110749e+00 -5.954927e+00 -1.512926e-01 2.106325e-01 6.067058e-01 -1.174987e-01 6.399662e-01 1.191023e+00 -3.181145e+00 -5.445890e-01 8.126542e-01 -1.620012e+00 -1.321448e+00 -1.213305e+00 7.673653e-01 -8.513236e-03 
-9.338127e+00 4.355805e+00 1.191761e+00 5.672059e+00 6.831819e+00 -4.470142e+00 4.273957e+00 1.261670e+01 4.078180e+00 8.171401e+00 -2.356434e-01 -2.796762e-01 -1.512926e-01 -4.177410e-01 7.522255e-01 -8.378742e-01 9.075391e-01 -1.901526e+00 -1.440597e+00 3.612629e-01 9.648468e-01 -3.658727e-01 4.197044e-01 -5.012218e-02 2.516100e-01 0.000000e+00 
-1.195984e+01 3.981806e+00 -2.473717e+00 7.822962e+00 5.999669e+00 -1.139051e+00 6.596230e-01 8.288063e+00 4.722154e+00 3.275428e+00 7.674286e-01 6.952171e+00 -1.512926e-01 -2.225250e-01 -3.063046e-01 -8.907385e-01 -1.528094e+00 -1.881567e+00 3.113843e-01 -5.746148e-01 -3.615633e-01 -1.485220e-01 -8.451044e-01 1.041577e+00 2.356936e+00 0.000000e+00 
-1.002439e+01 6.762838e+00 -9.646053e-01 5.534549e+00 2.791106e+00 -2.196496e+00 2.254463e+00 1.022864e+01 5.185404e+00 4.756397e+00 1.843961e+00 1.464469e+00 -1.512926e-01 2.420467e-01 -5.101742e-01 -3.697462e-01 -1.336484e+00 -5.257951e-01 1.454985e+00 1.269305e-02 -1.704306e+00 -8.318701e-01 -1.292533e+00 1.820405e-01 5.834071e-01 0.000000e+00 
-9.804945e+00 2.240922e+00 8.724318e-01 -6.212602e-01 3.867113e+00 1.290603e+00 -1.866405e+00 3.868745e+00 -2.400486e-01 -4.285524e-01 3.057335e+00 4.957681e+00 -1.512926e-01 2.810389e-01 -7.141361e-01 3.114902e-01 -2.010396e+00 1.010424e+00 1.001920e+00 5.032674e-01 -1.860410e+00 -9.947481e-01 -9.256940e-01 -1.067881e+00 -6.543808e-01 0.000000e+00 
-9.205343e+00 2.675376e+00 -2.330045e+00 3.211749e+00 5.269121e+00 1.589959e+00 5.600437e+00 6.304833e+00 2.399931e+00 3.560724e+00 -4.703939e-01 3.634605e+00 -1.512926e-01 -9.794235e-02 -6.450023e-01 6.430461e-01 -1.449865e+00 1.244470e+00 1.059596e+00 2.339582e-01 -2.443408e+00 -1.740066e+00 -1.546080e+00 -1.480603e+00 -2.982233e-02 0.000000e+00 
-1.096417e+01 2.454856e+00 -2.335465e-01 -1.067617e+00 9.812782e+00 1.977318e+00 1.502973e+00 9.479134e-01 1.141150e+00 -7.552049e-01 -3.414799e+00 2.595200e+00 -1.512926e-01 3.264549e-01 4.797764e-01 -2.593358e-01 -7.033190e-01 2.687238e-01 -8.365676e-01 1.468637e+00 -4.945799e-01 -9.534155e-01 -2.257204e-02 -1.833449e-01 7.839289e-02 0.000000e+00 
-9.934488e+00 3.430860e+00 2.803614e+00 -1.491597e+00 6.040622e+00 2.758125e+00 1.739565e+00 -5.279838e-01 -4.205525e+00 -2.810677e+00 -2.322988e+00 2.496598e+00 -1.512926e-01 1.148396e+00 -4.831545e-01 -8.028843e-01 -1.650843e+00 -1.553418e+00 -4.037393e-01 5.642799e-01 -3.065261e-01 -1.009943e+00 7.547194e-01 9.124627e-01 -9.586955e-01 0.000000e+00 
-7.808098e+00 4.262063e+00 -2.991077e+00 -1.786182e+00 4.824982e+00 -3.476319e+00 7.407214e+00 4.812254e+00 -1.704398e+00 2.644288e+00 3.066907e+00 5.918649e+00 -1.512926e-01 1.995569e+00 -1.876596e+00 -1.732977e+00 -1.361280e+00 -3.580331e+00 1.117136e+00 1.370761e-02 2.845816e-01 1.336920e-01 3.104523e+00 2.564117e+00 -2.504247e+00 9.337425e-03 
-5.041404e+00 -6.439998e-01 -4.965701e+00 -4.683186e+00 -4.066944e-03 2.298081e+00 5.469716e+00 2.840032e+00 -1.227008e+00 5.634574e+00 8.510668e-01 -2.820597e+00 -1.512926e-01 2.282794e+00 -3.614027e+00 -1.296296e+00 -1.820325e-01 -2.911051e+00 3.144955e+00 -2.448652e+00 -7.047578e-01 1.226474e+00 2.203646e+00 1.306374e+00 -2.595728e+00 5.573262e-02 
-3.432875e+00 -4.890692e+00 -5.013771e+00 -6.278221e+00 -5.066527e+00 7.793022e+00 -2.935642e-01 6.868136e-01 3.203521e-01 1.054478e+01 7.818758e+00 -7.267437e+00 -1.046054e-01 2.349601e+00 -3.605329e+00 1.033216e+00 3.784150e-01 -2.817678e+00 3.849134e+00 -2.526671e+00 -1.129623e+00 8.835753e-01 1.062818e-02 -5.476880e-02 -3.480635e+00 1.275450e-01 
-7.081299e-01 -1.006290e+01 -2.666521e+00 -1.557404e-01 -3.568878e+00 1.284823e+01 -6.653306e+00 -1.989053e+00 9.144716e-01 4.257303e+00 1.832959e+00 -3.888998e+00 1.040270e-01 3.522541e+00 -1.631078e+00 1.998640e+00 2.410166e-01 -2.504103e+00 4.483151e-01 -8.024634e-01 -1.461168e+00 -2.944264e-01 -1.272889e+00 3.719761e-01 -6.067645e-01 1.907149e-01 
1.773269e+00 -9.055134e+00 1.025411e+00 -2.157830e+00 -7.481004e+00 1.049428e+01 8.353680e-01 1.578679e+00 1.642738e+00 3.386065e+00 2.302117e+00 -1.095033e+01 3.587728e-01 4.460649e+00 -1.931460e+00 1.357848e+00 1.853619e-01 -3.381274e+00 -1.410476e+00 1.344255e+00 -2.161781e+00 -5.566208e-01 -1.177836e+00 -1.761879e-01 2.907988e-01 2.459043e-01 
9.968230e+00 -6.717168e+00 2.007908e+00 -5.538298e+00 -1.131735e+01 3.189029e+00 8.929328e-01 -4.911739e+00 -3.360333e+00 2.849488e+00 5.469268e+00 -4.012975e+00 5.705931e-01 3.958581e+00 -2.066008e+00 1.138205e-01 -8.566245e-01 -3.630488e+00 -2.036022e+00 2.322696e+00 -2.656073e+00 -2.641692e-01 6.710091e-01 1.513787e+00 -1.903470e-01 2.204874e-01 
1.353219e+01 -1.622085e+01 -5.617443e-01 -2.660132e+00 -1.809867e+01 5.570241e+00 2.654590e+00 -8.660748e+00 -3.253496e-01 5.359512e+00 5.119664e+00 -5.751454e+00 8.916330e-01 2.576975e+00 -2.581599e+00 -8.717535e-01 -2.085665e-01 -2.479213e+00 -8.649116e-01 9.952888e-01 -2.828144e+00 1.118280e-01 9.742836e-01 1.667059e+00 6.734303e-01 1.619635e-01 
1.320532e+01 -1.681007e+01 -1.303841e+00 -4.187712e+00 -1.641249e+01 5.130139e+00 4.050565e+00 -1.014970e+01 5.776696e-01 6.625625e+00 7.993120e+00 -7.440169e+00 9.400339e-01 4.833913e-01 -2.032431e+00 -4.171969e-01 -2.130123e-01 -6.731407e-01 9.982834e-02 4.871446e-01 -9.178537e-01 5.773506e-01 5.252331e-01 1.388696e+00 -5.971984e-01 9.168917e-02 
1.303960e+01 -1.691668e+01 -1.677481e+00 -3.875956e+00 -1.732949e+01 5.199163e+00 4.232996e+00 -9.943059e+00 2.328770e-01 6.369414e+00 9.375484e+00 -5.869577e+00 9.838699e-01 -9.101806e-02 -7.396011e-02 3.167292e-01 -9.318563e-01 5.754713e-01 -3.657615e-01 1.566227e-01 -1.186038e-01 -2.735861e-01 -2.893148e-01 1.269474e+00 -4.771824e-01 2.492880e-02 
1.263148e+01 -1.653141e+01 4.797925e-01 -5.995448e+00 -1.506763e+01 3.873710e+00 2.539452e+00 -8.859853e+00 -7.526934e-01 4.970703e+00 1.028484e+01 -6.939906e+00 9.829205e-01 -2.290221e-01 2.283119e-01 4.234985e-01 -4.882213e-01 9.275875e-02 -3.826247e-01 4.582920e-02 -5.329357e-01 2.539326e-01 -7.025323e-01 4.339208e-01 4.189086e-01 1.308960e-02 
1.336402e+01 -1.672999e+01 1.300854e-01 -6.415545e+00 -1.589374e+01 4.369648e+00 4.193260e+00 -9.898692e+00 -1.028098e+00 4.740399e+00 1.032117e+01 -8.387497e+00 9.948338e-01 -6.563671e-02 4.082104e-01 2.788755e-01 -5.403044e-01 4.166945e-01 -5.912838e-01 4.132059e-01 -1.228225e+00 1.034425e+00 -7.100593e-01 8.872099e-02 2.946477e-01 2.341813e-03 
1.189800e+01 -1.576186e+01 -9.013206e-02 -5.359024e+00 -1.666657e+01 3.631773e+00 4.299580e+00 -1.283656e+01 2.477820e+00 3.927471e+00 9.689878e+00 -4.086666e+00 1.000000e+00 -1.616743e-01 4.781624e-01 7.808472e-02 4.575453e-02 -3.118191e-02 -5.469418e-01 6.601272e-01 -1.728040e+00 1.840274e+00 -7.645648e-01 4.983376e-01 4.399595e-01 2.011794e-03 
1.307816e+01 -1.526040e+01 1.858354e-03 -6.895689e+00 -1.444655e+01 2.363713e+00 5.418962e+00 -1.409583e+01 3.789747e+00 3.340734e+00 1.011657e+01 -5.822958e+00 9.870392e-01 -2.144001e-01 6.058905e-01 3.356974e-01 6.013708e-02 -2.689268e-01 -3.861830e-01 -1.121675e-01 -8.625116e-01 1.261026e+00 -5.302493e-01 5.874938e-01 5.471365e-01 -9.546876e-04 
1.196604e+01 -1.487539e+01 9.343296e-01 -5.526603e+00 -1.594714e+01 2.141969e+00 5.227237e+00 -1.540149e+01 6.039752e+00 1.847711e+00 1.287883e+01 -6.022377e+00 9.968767e-01 -1.726583e-01 6.680595e-01 4.669673e-01 -2.052948e-01 -5.142466e-01 -6.149798e-02 -9.592819e-03 -6.127942e-01 4.697579e-01 -2.156204e-01 7.450174e-01 2.942249e-01 -1.477599e-04 
1.225799e+01 -1.414377e+01 1.296342e+00 -6.031070e+00 -1.759809e+01 3.183635e+00 3.168593e+00 -1.292879e+01 3.496066e+00 3.129033e+00 1.166417e+01 -4.683959e+00 9.916220e-01 -2.506811e-01 7.998399e-01 3.925828e-01 -1.496220e-01 -1.142306e+00 4.353628e-01 -1.937002e-01 -1.108027e-01 -5.145616e-02 -2.948239e-01 7.485908e-01 4.306633e-01 -3.614700e-03 
1.144479e+01 -1.297988e+01 1.597463e+00 -6.817807e+00 -1.766204e+01 2.914321e+00 5.376800e+00 -1.648406e+01 4.973450e+00 2.955219e+00 1.264117e+01 -3.185041e+00 9.969698e-01 1.521144e-01 8.760216e-01 2.460488e-01 -6.296822e-01 -1.132133e+00 8.226047e-01 -2.445608e-01 5.668468e-02 -5.214440e-01 -1.580254e-01 2.802370e-01 6.814221e-01 -1.473694e-02 
1.208538e+01 -1.220896e+01 1.633206e+00 -6.998198e+00 -1.930063e+01 4.154351e+00 4.375680e+00 -1.410856e+01 4.065618e+00 1.312860e+00 1.397836e+01 -5.088310e+00 9.689192e-01 5.892992e-02 1.165520e+00 -1.006320e-02 -4.022886e-01 -1.350347e+00 7.361974e-01 8.181372e-02 -4.735840e-01 -1.275034e-02 -7.783305e-01 1.438306e-01 1.297884e+00 -2.029583e-02 
1.281292e+01 -1.146269e+01 1.996141e+00 -8.191451e+00 -2.075653e+01 5.769635e+00 3.400890e+00 -1.452818e+01 3.147757e+00 1.965670e+00 1.312292e+01 -2.413091e+00 9.345434e-01 3.654554e-01 1.308894e+00 -3.218982e-01 -1.065479e-01 -1.561030e+00 7.768348e-01 2.620660e-01 -8.303388e-01 -2.764326e-01 -1.247247e+00 -5.159416e-02 1.915592e+00 -2.386467e-02 
1.186858e+01 -9.074762e+00 1.046687e+00 -7.355691e+00 -2.280258e+01 5.436965e+00 4.565617e+00 -1.627465e+01 4.345161e+00 -2.678456e-01 1.214244e+01 1.419486e+00 9.213560e-01 2.157969e-01 1.530581e+00 -5.088008e-01 1.268206e-01 -1.491461e+00 4.244178e-01 1.139578e+00 -1.771445e+00 -4.391318e-01 -1.238444e+00 -3.685158e-01 2.561639e+00 -1.967502e-02 
1.338047e+01 -8.002506e+00 2.812317e-01 -7.171800e+00 -2.371622e+01 6.157188e+00 6.592162e+00 -1.955271e+01 3.451516e+00 -2.490664e+00 1.330115e+01 3.139019e+00 9.014280e-01 6.262227e-01 1.316771e+00 -1.959864e-01 -1.201058e-01 -1.314595e+00 4.113702e-01 1.296988e+00 -1.754033e+00 -6.420444e-01 -1.770268e+00 -5.154917e-01 2.421512e+00 -2.042108e-02 
1.288059e+01 -6.286145e+00 -5.334324e-02 -6.873920e+00 -2.527810e+01 6.082663e+00 8.477934e+00 -2.045352e+01 1.718079e+00 -2.651192e+00 1.204666e+01 4.943830e+00 8.871018e-01 9.133336e-01 1.204859e+00 2.891969e-01 -4.380712e-01 -8.765284e-01 -1.950531e-01 1.255140e+00 -1.127661e+00 -1.381305e+00 -1.193618e+00 -1.102597e+00 1.951056e+00 -2.531310e-02 
1.543803e+01 -6.273142e+00 1.566224e+00 -9.032866e+00 -2.609175e+01 7.503637e+00 7.929670e+00 -2.120891e+01 1.251076e+00 -5.693996e+00 1.059335e+01 7.932295e+00 8.495651e-01 3.334737e-01 1.516742e+00 7.010714e-01 -7.508163e-01 -5.654209e-01 -6.624042e-01 3.340457e-01 1.468346e-01 -1.414673e+00 -1.042891e+00 -1.739221e+00 1.243303e+00 -2.721274e-02 
1.540647e+01 -3.915148e+00 1.850175e+00 -8.615515e+00 -2.599746e+01 3.788476e+00 1.017256e+01 -2.108485e+01 -1.461143e+00 -4.634270e+00 7.983357e+00 8.778126e+00 8.207220e-01 2.566276e-01 1.630191e+00 9.263422e-01 -4.772367e-01 -4.691261e-01 -1.112318e+00 -3.154181e-01 1.134827e+00 -1.109147e+00 -7.434019e-01 -2.050219e+00 2.665184e-01 -2.795777e-02 
1.378490e+01 -1.604293e+00 2.834830e+00 -1.005509e+01 -2.618364e+01 3.992260e+00 7.415077e+00 -1.850287e+01 -2.032237e+00 -6.713579e+00 6.636699e+00 7.438384e+00 7.985542e-01 4.454212e-02 1.558677e+00 1.305129e+00 -4.132680e-01 -2.061449e-01 -1.195947e+00 -5.518079e-01 1.436096e+00 -7.646686e-01 -3.783883e-01 -1.855369e+00 -9.054922e-01 -2.847353e-02 
1.499029e+01 -4.696116e-01 3.944065e+00 -8.748994e+00 -2.757778e+01 2.276763e+00 7.158141e+00 -1.613241e+01 -2.186001e+00 -5.858410e+00 3.773895e+00 6.523377e+00 7.728184e-01 5.092621e-01 1.074313e+00 1.433190e+00 -5.125889e-01 -9.847641e-03 -2.668265e-01 -1.684017e+00 1.959664e+00 -3.956300e-01 -9.987149e-02 -1.886834e+00 -1.713129e+00 -3.104503e-02 
1.586882e+01 -2.025247e-01 7.044927e+00 -1.103247e+01 -2.633231e+01 2.279756e+00 6.677841e+00 -1.650465e+01 -2.209837e+00 -6.973868e+00 3.421240e+00 4.532208e+00 7.311493e-01 5.445906e-01 1.028844e+00 8.792141e-01 -4.321831e-01 8.207035e-02 -2.450929e-01 -7.899295e-01 1.639304e+00 -2.845660e-01 -3.665625e-01 -1.508254e+00 -1.759034e+00 -2.945996e-02 
1.691081e+01 7.555318e-01 6.911077e+00 -1.068977e+01 -2.597236e+01 3.310595e+00 2.121092e+00 -1.228564e+01 -3.350493e+00 -5.003483e+00 1.569166e-01 1.665569e+00 6.991993e-01 -1.023485e-01 2.080000e+00 5.642408e-01 -9.854819e-01 5.786705e-03 4.115008e-01 -4.754361e-01 1.802516e+00 1.950514e-01 -1.228281e+00 -4.937409e-01 -2.606656e+00 -3.613664e-02 
1.554759e+01 2.927358e+00 5.747395e+00 -1.124561e+01 -2.657600e+01 2.249880e+00 5.983953e+00 -1.222973e+01 -2.872821e+00 -8.973855e+00 9.039178e-01 1.072118e+00 6.880640e-01 -1.417681e-01 1.964311e+00 -3.273292e-02 -8.774238e-01 9.056622e-01 2.882822e-01 -7.865760e-01 3.805520e+00 -2.691476e-02 -1.955307e+00 4.366074e-01 -2.700454e+00 -4.629450e-02 
1.463917e+01 8.365447e+00 7.414035e+00 -1.356983e+01 -2.742700e+01 4.349205e+00 5.127904e+00 -9.257283e+00 -8.792522e-01 -1.099982e+01 2.563851e+00 -4.779854e+00 6.136779e-01 -5.821795e-02 2.120339e+00 -2.015715e+00 -5.082768e-01 4.526405e+00 -9.173256e-01 7.455683e-03 4.264289e+00 -2.884698e-01 -9.012782e-01 -2.960930e-01 -2.835639e+00 -6.432538e-02 
1.629580e+01 5.814072e+00 6.629783e+00 -1.397955e+01 -2.107668e+01 3.201862e+00 1.241555e+00 1.008769e+00 -3.580032e+00 -1.375223e+01 4.400809e+00 -5.747353e+00 5.424376e-01 1.020482e-01 1.717509e+00 -3.591706e+00 1.967967e-01 6.598939e+00 -1.218117e+00 -2.094256e-01 4.509571e+00 5.055660e-01 7.119970e-01 -1.236853e+00 -2.255065e+00 -8.105977e-02 
1.624562e+01 9.913873e+00 -3.608692e+00 -1.186418e+01 -6.089993e+00 -1.752024e+00 4.529570e+00 2.416557e+00 -4.439237e+00 -7.120686e+00 -3.071994e+00 -9.102890e+00 4.503856e-01 -4.667374e-01 9.622914e-01 -3.446938e+00 1.508778e+00 6.813533e+00 -5.274737e-01 1.472260e+00 3.063858e+00 1.436897e+00 2.964216e+00 -1.089541e+00 3.849329e-01 -9.306896e-02 
1.525461e+01 1.074069e+01 -6.699772e+00 -1.111445e+01 -4.249804e+00 -7.900877e-01 5.235992e+00 4.481205e+00 1.435001e+00 -7.353439e+00 -2.462426e+00 -8.041687e+00 3.644112e-01 -1.298004e+00 8.852993e-01 -1.263384e+00 1.073898e+00 5.373669e+00 1.555673e+00 1.527212e+00 2.983471e+00 2.114555e+00 2.429913e+00 2.383486e-01 2.193804e-01 -8.998062e-02 
1.282608e+01 1.071359e+01 -3.155875e+00 -7.458489e+00 -1.772773e+00 3.707812e+00 1.049199e+01 4.325787e+00 3.797716e+00 6.218634e-01 5.477643e-01 -1.708023e+00 2.373462e-01 -1.500580e+00 -4.031065e-01 1.600812e+00 2.895582e+00 2.871563e+00 1.606563e+00 9.471302e-01 3.152346e+00 4.335295e-01 -6.530105e-01 6.072391e-01 6.493095e-01 -8.584471e-02 
1.151556e+01 9.840708e+00 8.645272e-02 -1.081291e+01 3.633059e+00 8.250309e+00 5.896408e+00 1.497151e+01 2.874266e+00 -5.473943e+00 3.782674e+00 -8.347885e+00 1.990541e-01 -1.542943e+00 -1.197725e+00 2.497984e+00 3.394859e+00 3.251529e+00 1.411335e+00 -8.253382e-01 2.220197e+00 -7.601500e-01 -1.494804e+00 3.226922e-01 3.248929e-01 -8.087146e-02 
1.061224e+01 8.348331e+00 1.002257e+00 2.462959e+00 4.326390e+00 1.760593e+00 8.935013e+00 1.293314e+01 -2.991222e+00 -1.132549e+01 -3.158349e+00 -5.703244e+00 1.038406e-01 -1.477488e+00 -1.536309e+00 6.652618e-01 2.061137e+00 2.138447e+00 -4.802111e-01 -2.528799e+00 1.076904e+00 -9.679292e-01 -2.456886e+00 -2.022810e+00 4.895807e-01 -8.037478e-02 
8.646811e+00 5.934699e+00 3.711082e+00 8.991176e-01 8.958258e+00 7.240196e+00 1.887788e+00 1.127852e+01 1.028720e+00 -8.853784e+00 1.004091e+00 -4.419612e+00 2.680671e-02 -1.898727e+00 -1.783462e+00 -1.303900e+00 1.358804e+00 1.155611e+00 -1.305589e+00 -1.804984e+00 -1.172201e+00 -8.311785e-01 -1.551918e-01 -1.164417e+00 2.029736e+00 -8.352526e-02 
6.873014e+00 4.985051e+00 -1.641881e+00 -3.008817e+00 6.256864e+00 1.811813e+00 -1.476971e-01 1.155680e+01 -1.191578e-01 -9.972647e+00 -8.176994e+00 -1.224255e+00 -7.840395e-02 -1.743016e+00 -6.200283e-01 -6.656747e-01 -1.613851e-02 1.568447e+00 -1.106503e+00 -1.582836e+00 -1.261043e+00 -8.543324e-01 8.414356e-01 9.888975e-02 1.917460e+00 -6.146795e-02 
3.891536e+00 2.605036e+00 -5.110979e+00 -1.283004e+00 8.445879e+00 1.696752e+00 1.412841e+00 9.798675e+00 -2.717658e+00 -6.926322e+00 4.699137e-01 -4.387016e-01 -1.274499e-01 -1.631316e+00 1.980768e-01 -1.125754e-01 1.745387e+00 9.997908e-01 -2.238457e+00 1.318963e-01 -7.014035e-01 -9.833496e-01 2.117392e-01 -6.765620e-01 8.332159e-02 -4.041654e-02 
4.274799e+00 6.913021e+00 2.084914e+00 3.473327e+00 1.242481e+01 -1.000201e+00 1.258306e+00 7.367840e+00 -5.389695e+00 -8.082039e+00 -2.396811e+00 1.893603e+00 -1.263708e-01 -1.569108e+00 4.309857e-01 1.578117e+00 2.501955e+00 1.213804e+00 -1.748163e+00 1.708711e-01 -7.367616e-01 -7.322613e-01 -1.331818e+00 -8.662373e-01 -9.306219e-01 -1.696199e-02 
1.789336e+00 5.961098e+00 1.284808e+00 6.384982e+00 1.087324e+01 -2.546083e+00 1.844268e+00 9.865980e+00 -1.252759e+00 -8.740392e+00 -5.268810e+00 -5.561934e+00 -1.512926e-01 -8.937165e-01 1.382771e+00 1.721460e+00 1.396014e+00 5.047365e-01 -1.661091e+00 -5.808124e-01 -1.188929e+00 3.021765e-01 1.464293e-01 -7.962959e-01 3.681676e-01 -7.260716e-03 
7.857323e-02 5.461948e+00 3.050810e+00 5.666965e+00 1.111221e+01 -4.807583e+00 4.909448e-01 7.839343e+00 -4.512914e+00 -1.572470e+01 -9.638819e+00 -3.315749e+00 -1.512926e-01 -1.333117e+00 8.167696e-01 1.429206e+00 1.544293e+00 3.449567e-01 -1.169321e+00 -1.350647e+00 -1.863382e+00 2.685491e-01 1.121152e+00 1.110525e+00 1.561424e+00 -4.984355e-03 
1.521067e+00 1.024443e+01 3.013374e+00 4.600248e+00 1.162586e+01 -4.705013e+00 -1.107541e+00 3.618277e+00 -1.645166e+00 -2.372843e+00 1.094379e-01 4.006813e+00 -1.512926e-01 -4.879505e-01 1.157236e+00 1.784037e+00 1.158477e+00 6.934777e-01 -5.487462e-01 -1.806604e+00 -2.165419e+00 1.962770e-01 2.740731e+00 1.882682e+00 2.254797e+00 0.000000e+00 
-2.256651e+00 8.855206e+00 8.366660e+00 1.208716e+01 1.377328e+01 -5.767340e+00 -4.019023e+00 1.174781e+00 -3.850746e+00 -5.660052e+00 4.666913e-01 4.916350e+00 -1.512926e-01 -1.880649e-01 1.495214e+00 1.153316e+00 8.258610e-01 2.981978e-01 1.029593e+00 -4.471995e-01 -7.894953e-01 1.482432e-01 2.977594e+00 1.620348e+00 -9.036137e-01 0.000000e+00 
5.171957e-01 1.005065e+01 7.547068e+00 8.967270e+00 1.301009e+01 -4.809937e+00 -4.933769e+00 2.371166e+00 -6.024580e-01 -6.906283e-02 -9.081563e-01 1.596004e+00 -1.512926e-01 -4.551107e-01 4.832985e-01 -3.778458e-03 -3.432169e-02 -3.423437e-01 2.114312e+00 1.332526e+00 1.155001e+00 -3.859650e-01 2.989880e-01 -5.371474e-01 -2.385246e+00 0.000000e+00 
-3.598156e-01 1.303491e+01 6.550541e+00 7.612758e+00 1.191109e+01 3.928432e-01 1.680613e-01 4.515422e+00 -4.293052e+00 -1.988622e+00 -1.028283e+00 -6.628414e+00 -1.512926e-01 -3.368912e-01 1.801295e-01 -1.174772e+00 -8.639601e-01 -8.395818e-01 1.498744e+00 2.741916e+00 2.054457e+00 7.036824e-01 1.278597e+00 -3.346574e-03 -7.440444e-01 0.000000e+00 
-1.702905e+00 1.057107e+01 3.902541e+00 6.665840e+00 1.084525e+01 2.786454e+00 3.461546e+00 7.722961e+00 -3.353838e+00 -2.713618e+00 -1.828812e+00 -2.147033e+00 -1.512926e-01 -6.596380e-01 1.233291e-01 -2.865067e-02 8.942139e-01 -2.915439e-01 -1.101524e+00 1.351677e+00 7.386619e-01 5.013559e-01 5.219519e-01 -5.590340e-01 3.630688e-01 0.000000e+00 
-2.831057e+00 9.495645e+00 4.315062e+00 8.918073e+00 1.065779e+01 -2.071814e+00 5.492901e+00 8.771167e+00 1.043356e+00 2.055212e+00 9.102862e-01 3.067647e+00 -1.512926e-01 -4.126983e-01 7.862882e-02 1.749587e-01 1.117772e+00 3.166166e-01 -1.726508e+00 -2.752138e-01 -1.496442e+00 -3.305614e-01 -2.586729e-02 -7.240846e-01 1.262390e+00 0.000000e+00 
-1.545374e+00 1.243693e+01 8.521554e+00 1.278568e+01 1.217901e+01 -9.085226e+00 -8.378046e-01 3.936603e+00 -7.638826e-01 5.187794e-01 -4.672611e+00 -1.436682e+00 -1.512926e-01 -6.924742e-01 -2.352826e-01 4.534274e-01 4.714290e-01 3.953017e-01 -5.628482e-01 -1.118855e+00 -2.242969e+00 -1.923985e+00 -4.951130e-01 -7.320427e-01 7.655940e-01 0.000000e+00 
-2.502072e+00 1.249512e+01 5.115829e+00 1.014170e+01 1.282728e+01 -2.303859e+00 9.416680e-01 -1.073606e+00 -7.240837e+00 -3.734157e+00 -3.226806e+00 -6.716378e-01 -1.512926e-01 -6.089011e-01 -7.853257e-01 -1.205904e-01 -7.007909e-01 5.420242e-01 9.960560e-01 -8.451478e-01 -8.942959e-01 -2.191183e+00 -3.390742e-01 6.506780e-01 1.109058e+00 0.000000e+00 
-5.329768e+00 7.894914e+00 5.769295e+00 8.411171e+00 1.173701e+01 8.823538e-02 1.428874e-01 1.430503e+00 -8.831663e+00 -2.294498e+00 -3.420479e+00 3.550580e+00 -1.512926e-01 -3.819698e-01 -1.289022e+00 -9.894032e-01 -1.304716e+00 1.410517e-01 1.148687e+00 8.208636e-01 8.119450e-01 5.545413e-01 1.675125e+00 1.647435e+00 1.677842e+00 0.000000e+00 
-3.983365e+00 7.840022e+00 5.088240e+00 7.601374e+00 1.358892e+01 -1.678265e+00 7.768162e-01 5.552737e+00 -5.878669e+00 1.766480e+00 3.537610e+00 6.119308e+00 -1.512926e-01 3.165541e-02 -7.729489e-01 -1.060448e+00 -8.713605e-01 -1.461150e-01 1.669354e-01 7.447828e-01 1.755043e+00 2.061166e+00 1.952835e+00 1.465219e+00 9.155083e-01 0.000000e+00 
-2.714577e+00 8.319366e+00 3.588332e+00 7.532265e+00 1.250346e+01 -3.654587e+00 3.348939e+00 4.683156e+00 1.327740e+00 6.144086e+00 1.823571e-01 3.557054e+00 -1.512926e-01 1.790251e-01 1.255151e-01 -8.153719e-01 -1.787379e-01 -6.997828e-01 -7.025642e-01 6.868297e-01 1.080626e+00 1.287764e+00 -1.465858e-01 2.174347e-01 -8.049908e-02 0.000000e+00 
-3.651391e+00 8.418153e+00 9.040692e-01 6.224350e+00 1.171349e+01 4.022293e-01 3.062556e+00 6.075281e+00 -2.014710e+00 1.810725e+00 2.297870e+00 3.902666e+00 -1.512926e-01 -1.290537e-01 1.361482e-01 -5.189837e-01 2.898701e-01 -1.043862e+00 -2.087752e-01 6.952178e-01 6.096388e-01 8.521496e-01 7.898713e-03 -9.686872e-01 -1.123072e-01 0.000000e+00 
-4.600630e+00 8.233424e+00 3.784520e+00 8.205994e+00 9.175810e+00 -4.464833e+00 2.434166e+00 6.572363e+00 -4.324824e+00 -3.049550e+00 -1.713435e+00 4.256405e+00 -1.512926e-01 -7.505137e-01 -6.168889e-01 -3.484134e-01 -1.595716e-01 -2.435643e-01 3.632835e-01 4.461164e-01 1.186073e+00 7.519628e-01 1.787078e-01 5.809334e-01 6.017892e-01 0.000000e+00 
-3.685607e+00 8.563734e+00 2.395227e+00 8.713860e+00 1.003343e+01 -2.317019e+00 4.710292e+00 7.656328e+00 1.208361e+00 6.402792e+00 -3.579292e-01 5.208097e+00 -1.512926e-01 -2.901089e-01 5.463896e-02 9.669756e-01 6.822681e-02 6.437640e-02 -1.340668e-01 -1.726362e-01 1.754686e-01 9.411559e-01 7.542676e-01 -4.282723e-02 -4.971649e-01 0.000000e+00 
-6.450037e+00 5.162130e+00 1.100686e+00 5.489652e+00 1.212566e+01 -4.785457e-01 4.755653e+00 9.822997e+00 3.476018e+00 4.741592e+00 4.414924e+00 5.913285e+00 -1.512926e-01 -1.720943e-02 4.378500e-01 5.582456e-01 -2.815208e-02 5.610881e-02 7.621483e-01 4.476252e-01 -1.265030e-01 5.288302e-01 4.650741e-01 6.037207e-01 -1.078900e+00 0.000000e+00 
-4.177232e+00 1.022699e+01 7.080864e+00 7.923655e+00 1.056044e+01 -2.261248e+00 1.038632e+00 5.327307e+00 -1.209352e+00 1.686492e+00 -9.804456e-01 5.884019e-01 -1.512926e-01 1.053009e-01 9.169396e-01 8.035234e-01 8.333769e-01 2.352206e-01 2.585789e-01 -1.712234e-01 -3.776631e-01 -1.273783e+00 -1.584958e+00 -1.477097e-01 -1.513468e+00 0.000000e+00 
-4.440865e+00 9.591044e+00 4.232929e+00 8.460336e+00 9.192847e+00 -6.819768e-01 6.508122e+00 7.104358e+00 -4.718165e-01 1.633970e+00 1.616426e+00 1.171753e+00 -1.512926e-01 3.941697e-01 5.539051e-01 -2.802587e-03 1.161615e+00 1.341699e-01 3.357093e-01 -3.167941e-01 -9.377718e-01 -1.695081e+00 -1.605244e+00 -1.643786e+00 -1.284171e+00 0.000000e+00 
-4.163689e+00 1.093397e+01 4.846723e+00 1.139540e+01 1.267594e+01 -9.224086e-01 2.977941e+00 7.127332e+00 -3.186638e+00 3.181362e-02 3.027709e-01 1.152539e-02 -1.512926e-01 2.963449e-01 -5.277416e-01 -1.120836e+00 4.503713e-01 1.039818e+00 1.604047e+00 -3.037068e-01 -1.153952e-01 -1.009400e+00 -6.039447e-01 -8.933021e-01 1.917217e-01 0.000000e+00 
-4.485960e+00 7.578166e+00 2.203743e+00 9.561852e+00 1.173876e+01 5.305810e-01 2.202028e+00 4.234126e+00 -4.010743e+00 -2.457290e+00 -4.445615e+00 -2.191300e-01 -1.512926e-01 1.602405e-01 -2.505122e-01 -3.565338e-01 -7.693730e-02 6.725450e-01 1.048919e+00 -1.084922e-01 1.223741e+00 3.055878e-01 1.144725e-01 -9.442266e-01 2.232794e-01 0.000000e+00 
-2.672959e+00 8.594726e+00 2.491277e+00 9.624753e+00 1.448658e+01 5.152708e+00 1.673145e+00 6.185447e+00 -4.486891e+00 7.123989e-01 -2.415935e+00 2.242452e+00 -1.512926e-01 -3.417435e-02 -9.217910e-02 -1.013239e-01 -5.469734e-01 -2.139879e-01 5.889422e-01 1.169627e+00 2.259322e+00 1.550277e+00 7.991783e-01 -1.395988e-01 3.714139e-01 0.000000e+00 
-4.385027e+00 9.508108e+00 3.627983e+00 8.960974e+00 1.165025e+01 1.525062e+00 6.618059e+00 1.369400e+01 1.706249e+00 1.866040e+00 -1.745354e+00 1.172686e+00 -1.512926e-01 -1.510201e-01 4.773267e-01 3.985186e-01 -1.865535e-01 -3.013341e-01 -1.638683e-01 1.377698e+00 2.642831e+00 1.762712e+00 9.800302e-01 6.071104e-01 1.713868e-01 0.000000e+00 
