-6.276022e+00 3.313600e+00 -4.201834e+00 2.144184e+00 6.112143e+00 -6.009394e+00 -2.293126e+00 3.324176e+00 2.443481e+00 -8.401232e-01 -6.324780e+00 7.991850e-01 -1.512927e-01 -1.973991e-01 5.703286e-01 1.696269e-01 -6.697146e-01 -1.824725e-01 2.804244e-01 2.422389e-01 -1.879813e-01 -1.766290e+00 -6.473088e-01 -7.948295e-01 -1.699942e-01 0.000000e+00 
-6.361120e+00 5.623298e+00 -5.944626e+00 -1.039824e-01 6.886274e+00 -4.977644e+00 8.618307e-01 1.935935e+00 -5.479113e+00 -2.765411e+00 -1.170122e+01 -1.681915e+00 -1.512927e-01 -8.445019e-01 -3.948522e-01 -9.191810e-02 -7.640110e-01 -1.029398e+00 8.107848e-01 1.325541e+00 1.117962e+00 -1.025667e+00 3.203048e-01 2.674282e-01 2.852583e-03 0.000000e+00 
-7.220469e+00 5.010395e+00 -2.482303e+00 -8.030510e-02 4.812715e+00 -5.123147e+00 -2.659410e+00 3.078390e+00 -2.426675e+00 -3.114023e+00 -7.610709e+00 1.189764e+00 -1.512927e-01 -1.244761e+00 -8.314449e-01 1.988809e-02 1.452611e-01 -6.135578e-02 2.424096e-01 8.383401e-01 9.421433e-01 8.867614e-01 1.060834e+00 1.702514e+00 1.443852e+00 0.000000e+00 
-1.002631e+01 4.909422e-01 -5.521190e+00 -5.636261e-01 1.614866e+00 -2.398593e+00 4.517721e+00 9.036878e+00 -2.497778e-01 1.898351e+00 -4.344675e+00 6.181583e-01 -1.512927e-01 -1.656509e+00 -1.599131e+00 9.861719e-01 4.025882e-01 -7.796925e-01 -2.956802e-01 2.252959e-01 5.959949e-01 1.954062e+00 1.109319e+00 2.393307e+00 5.526444e-01 0.000000e+00 
-1.066723e+01 1.722554e+00 -4.314112e+00 3.100312e+00 8.441068e+00 -6.086871e+00 7.062900e-02 4.484421e+00 4.262620e+00 2.132168e+00 -1.490483e+00 6.868407e+00 -1.512927e-01 -1.251294e+00 -8.303049e-01 1.087794e+00 5.838253e-01 -4.270716e-01 -5.070196e-01 3.482533e-01 4.675221e-02 -2.663391e-02 2.369045e-01 4.860440e-01 -6.755168e-01 0.000000e+00 
-1.292028e+01 -7.284372e-01 -9.786272e-02 3.186501e-01 1.173635e+00 -5.974183e+00 6.232908e-01 4.212894e+00 9.465494e-01 1.580873e-01 -2.794793e+00 -1.758015e+00 -1.512927e-01 -7.917318e-01 9.242208e-02 1.668311e+00 -1.985529e-01 3.797811e-01 3.372136e-01 -8.565437e-01 1.668570e-01 -1.831346e-01 -8.213117e-02 -4.632965e-01 -9.099894e-01 0.000000e+00 
-1.202995e+01 1.468560e+00 2.450025e-01 2.397684e+00 2.897972e+00 -5.870450e+00 1.029072e+00 5.724142e+00 -3.158008e+00 -1.059369e+00 -5.955430e+00 -9.997334e-01 -1.512927e-01 -4.270441e-01 9.772544e-02 6.506987e-01 -3.374913e-01 4.287244e-01 1.704859e+00 4.173609e-01 2.422256e-01 -9.450982e-02 4.606813e-01 -6.693419e-01 -5.385187e-02 0.000000e+00 
-1.330361e+01 1.080050e+00 5.408058e-01 -1.205076e+00 6.285320e+00 -8.207359e-01 -2.442188e-01 9.251302e+00 2.544863e+00 3.083463e+00 -4.428684e+00 2.281904e-03 -1.512927e-01 7.589035e-02 -4.262323e-02 -2.622877e-01 7.262524e-01 1.774748e+00 1.511473e+00 3.036602e-01 -1.729633e+00 8.226002e-01 2.609872e+00 1.167827e+00 1.148646e+00 0.000000e+00 
-1.261079e+01 1.306938e+00 -1.379952e+00 2.174718e+00 8.028848e+00 -1.392980e-01 2.591188e+00 3.176344e+00 2.990914e+00 2.972886e+00 -4.020247e+00 5.718999e+00 -1.512927e-01 1.167471e-01 -2.188143e-01 -9.422971e-01 -1.585978e-01 1.515117e+00 1.661664e+00 1.862677e+00 -7.034084e-01 1.224118e+00 1.664558e+00 1.017811e+00 4.754952e-01 0.000000e+00 
-1.225041e+01 -8.607424e-01 -5.968239e-01 4.061395e+00 7.481939e+00 -1.282393e+00 1.360534e+00 -3.161374e+00 1.985090e+00 1.119132e+01 2.076748e+00 6.258471e-01 -1.512927e-01 4.979664e-01 3.795672e-01 -5.820187e-01 2.779244e-01 1.355397e+00 1.001340e+00 1.456943e+00 4.624016e-01 -2.511936e-01 -1.977104e-01 3.110630e-01 -5.296993e-03 0.000000e+00 
-1.197281e+01 1.344884e+00 -3.897668e+00 -1.028541e+00 9.875250e+00 2.668697e+00 9.540081e+00 8.413439e+00 3.242471e+00 3.209493e+00 -4.119092e+00 1.065960e+00 -1.512927e-01 5.553730e-01 6.281585e-01 3.919072e-02 -1.669170e-01 6.305541e-01 3.748656e-01 -9.671180e-02 1.768050e+00 -1.820821e-01 -8.074236e-02 1.018141e+00 1.546164e-01 0.000000e+00 
-1.113277e+01 2.958913e+00 -1.110430e+00 1.786175e+00 1.213910e+01 2.781968e+00 3.566050e+00 8.944763e+00 1.163117e+00 1.976608e+00 -2.823946e+00 2.302316e+00 -1.512927e-01 3.598608e-01 8.565124e-01 3.077772e-01 -4.447427e-02 -2.101863e-01 -1.199485e+00 -1.019862e+00 1.528618e+00 3.228891e-01 -2.308274e+00 -1.035659e+00 1.127643e+00 0.000000e+00 
-1.039275e+01 2.537902e+00 -9.271955e-01 2.477743e+00 8.853036e+00 -2.971506e-01 1.004871e+00 5.963525e+00 2.491490e+00 7.176529e+00 3.520803e+00 5.653847e+00 -1.512927e-01 -3.845659e-01 -5.186800e-01 4.881735e-01 5.523847e-01 -6.180762e-01 -3.671203e-01 -1.671654e+00 -1.341097e+00 -7.893080e-01 -1.795563e-01 9.985310e-01 1.268793e+00 0.000000e+00 
-1.124114e+01 2.825310e+00 -5.431740e-01 2.085882e+00 6.942114e+00 -5.796894e+00 5.288306e-01 5.706672e+00 3.975026e+00 -2.333570e+00 -6.921495e+00 3.970121e+00 -1.512927e-01 -7.966805e-01 -1.545950e+00 -7.572287e-01 -6.060780e-01 -1.365334e+00 4.071133e-01 -3.014899e-01 -8.007194e-01 -9.304234e-01 5.808001e-01 8.143134e-01 -3.577592e-01 0.000000e+00 
-1.384146e+01 -1.181714e+00 -1.740428e+00 1.583529e+00 9.383364e+00 5.122527e+00 2.700419e+00 3.326999e+00 -2.110023e+00 4.466801e+00 2.922338e+00 6.576025e+00 -1.512927e-01 -4.925447e-01 -1.058604e+00 -1.822956e+00 -8.749679e-01 -1.117404e+00 5.718712e-01 2.017958e-01 -9.420083e-02 -4.186277e-01 4.771827e-01 -2.907384e-01 -2.237985e+00 0.000000e+00 
-1.339181e+01 -2.911030e+00 -4.489957e+00 -7.971076e-01 5.047269e+00 2.107696e+00 1.210827e+00 6.259428e+00 -1.188244e+00 6.235473e+00 1.546854e+00 5.243134e-02 -1.512927e-01 1.268120e-01 -1.473653e+00 -2.421758e+00 -1.858284e+00 -1.181212e+00 1.794345e+00 -3.507828e-01 -2.304074e-01 6.667602e-01 3.875210e-01 1.358675e+00 -2.429327e+00 0.000000e+00 
-1.178014e+01 1.130550e-01 -8.068586e+00 -4.556023e-01 4.213440e+00 -1.390089e+00 1.672852e+00 5.216143e+00 2.979986e+00 5.277922e+00 -2.167063e+00 -3.577233e+00 -1.512927e-01 5.624710e-01 -8.512224e-01 -2.427030e+00 -1.430360e+00 -2.527890e+00 8.521667e-01 -1.534510e+00 -7.758510e-01 1.161136e+00 -1.737373e-01 2.040870e-01 -2.776995e+00 1.579218e-02 
-1.163774e+01 -5.190339e+00 -9.487888e+00 -6.185975e+00 3.621018e+00 6.431141e+00 -7.113000e-01 3.610063e+00 4.763823e+00 -8.015251e-01 2.416580e+00 -3.099884e+00 -1.512927e-01 9.744654e-01 -1.811094e-01 -5.243746e-01 -2.737857e-01 -7.337287e-01 1.573733e+00 -2.142902e+00 -2.539680e+00 -2.416064e-01 -9.265580e-02 -1.784348e-01 -1.593070e+00 1.572728e-02 
-1.190614e+01 -4.298172e+00 -1.137661e+01 -2.873838e+00 -2.542964e+00 7.221638e+00 -4.011066e+00 7.724268e-01 7.196233e-01 7.116613e+00 3.507909e+00 -5.732794e+00 -7.233179e-02 1.686066e+00 -7.838221e-01 3.463622e-01 2.882021e-01 -8.637163e-01 2.530154e+00 -2.079517e+00 -5.204908e-01 -1.225708e+00 -1.479149e-02 -9.966130e-01 -1.000617e+00 3.973202e-02 
-8.456486e+00 -1.610964e+00 -5.457817e+00 -9.569181e-01 4.756827e+00 5.670498e+00 -6.661726e+00 -4.217113e+00 -1.266095e+00 4.852848e+00 -2.182807e+00 -6.835138e+00 -1.121367e-01 3.204533e+00 5.110730e-01 1.656748e+00 1.511936e+00 -1.683436e-01 1.963284e+00 -2.794416e+00 -7.038736e-01 -1.234326e+00 1.058647e-01 -1.482935e+00 -4.162142e-01 8.103843e-02 
-4.940434e+00 -5.595743e+00 -8.351810e+00 -1.629120e+00 -6.730456e-01 1.164100e+01 -5.749517e+00 6.527278e+00 -1.335962e-01 2.376778e+00 -4.850435e+00 -6.712689e+00 2.778941e-02 5.081243e+00 -2.145154e+00 2.395922e+00 4.967179e-01 -2.467882e+00 4.052291e-01 -1.165204e+00 -1.443238e-01 -6.059912e-01 -6.487361e-01 4.430194e-02 -8.631294e-01 1.959538e-01 
9.020753e-01 -1.986189e+00 -2.716548e+00 7.513441e-01 1.844341e+00 1.403788e+01 -1.381416e+01 -2.786730e+00 -9.811991e-01 2.097716e+00 -8.189223e-01 -4.691007e+00 2.038389e-01 4.861472e+00 -4.024160e+00 1.610933e+00 -5.023606e-01 -5.258842e+00 -1.181656e+00 6.193553e-01 -1.816498e-01 -4.876439e-01 1.103575e+00 1.820471e+00 -1.101075e+00 2.837357e-01 
8.820796e+00 -1.483633e+01 -7.676349e-01 -1.244380e+00 -1.342613e+01 5.064092e+00 -6.260870e+00 -6.643839e-01 -2.452781e+00 5.250499e+00 3.047477e+00 -1.112051e+01 7.494494e-01 4.063028e+00 -3.781960e+00 1.293699e+00 -8.102087e-01 -4.985362e+00 -2.849326e+00 1.717770e+00 -1.954772e+00 -1.469641e-01 2.135667e+00 2.233304e+00 -8.343524e-01 2.621578e-01 
8.970261e+00 -1.711147e+01 -1.195241e+00 -3.661091e+00 -1.516084e+01 3.050672e+00 -3.309273e+00 -1.529532e+00 -2.544722e+00 8.933863e+00 2.970592e+00 -1.013660e+01 9.457119e-01 2.501345e+00 -3.284921e+00 1.273133e-01 -1.687708e+00 -3.031457e+00 -3.208737e+00 3.281642e+00 -1.303678e+00 6.168224e-01 2.033977e+00 1.305578e+00 2.484652e-01 1.758623e-01 
1.134061e+01 -1.694290e+01 -2.643971e+00 -3.473946e+00 -1.709726e+01 2.887976e+00 -2.413111e+00 -3.875182e+00 -8.665538e-02 9.637041e+00 4.421329e+00 -8.161652e+00 9.676420e-01 8.661354e-01 -3.403898e-01 -3.457757e-02 -1.536353e+00 9.311392e-01 -1.694520e+00 1.907370e+00 -1.858285e+00 6.800812e-01 7.914745e-01 9.320623e-01 1.582090e+00 4.833578e-02 
1.214890e+01 -1.735751e+01 -1.141814e+00 -6.572411e+00 -1.147738e+01 -9.177470e-01 6.701777e-01 -7.699722e+00 9.198506e-01 1.007433e+01 5.022039e+00 -4.928109e+00 9.740542e-01 6.144807e-01 1.958521e-01 3.176863e-01 -1.310226e+00 1.100988e+00 -6.891704e-01 8.849014e-01 -1.278064e+00 4.133331e-01 -5.993948e-01 1.246370e+00 8.417982e-01 7.759023e-03 
1.156216e+01 -1.641526e+01 -9.672365e-01 -7.470484e+00 -1.061216e+01 -1.424299e+00 1.286253e+00 -6.870713e+00 -7.846614e-01 8.637636e+00 6.682065e+00 -5.814305e+00 9.769571e-01 -1.814275e-01 2.459309e-01 2.995809e-01 -1.084335e+00 6.776743e-01 2.390702e-01 5.659714e-01 -1.487513e+00 3.364840e-01 -1.089959e+00 1.317379e+00 1.750722e-01 7.051128e-03 
1.193189e+01 -1.639603e+01 -4.451773e-01 -8.213950e+00 -1.289845e+01 1.760957e+00 -7.344481e-01 -6.422085e+00 -1.290534e-01 6.436591e+00 8.072075e+00 -7.101287e+00 9.798495e-01 -3.414916e-01 3.429150e-01 -7.666565e-02 -4.855900e-01 -4.051929e-01 9.895870e-01 2.160169e-01 -1.485815e+00 5.836353e-01 -8.865250e-01 1.201173e+00 -3.116913e-02 6.493360e-03 
1.054198e+01 -1.619399e+01 -1.494384e+00 -8.074854e+00 -1.299836e+01 2.743975e+00 1.119059e+00 -1.195157e+01 2.120216e+00 6.006115e+00 9.483204e+00 -6.199702e+00 1.000000e+00 -1.798320e-01 4.159128e-01 -9.882549e-02 -1.215680e-01 -3.907057e-01 1.010622e+00 -2.363178e-01 -1.552398e+00 4.774676e-01 -5.029221e-02 7.571837e-01 5.720698e-01 2.245867e-03 
1.095153e+01 -1.575357e+01 -1.261568e+00 -8.698175e+00 -1.231025e+01 1.946052e+00 1.833859e+00 -1.258837e+01 2.385588e+00 6.957467e+00 9.627337e+00 -4.891256e+00 9.949995e-01 -1.555253e-01 5.236564e-01 -5.784190e-03 2.664565e-01 -7.819182e-01 1.058321e+00 -7.119526e-01 -1.170333e+00 3.761328e-01 4.810777e-02 8.827884e-01 8.506961e-01 -1.630402e-03 
1.115318e+01 -1.465693e+01 -1.053169e+00 -7.836211e+00 -1.285979e+01 3.536262e+00 -1.179490e+00 -1.154956e+01 3.453557e-01 8.125738e+00 9.690352e+00 -4.058972e+00 9.806114e-01 -1.280785e-02 6.738955e-01 3.155650e-01 3.996849e-04 -8.401194e-01 9.024685e-01 -9.755611e-01 -4.411291e-01 4.071731e-02 -4.316950e-03 8.245443e-01 5.299619e-01 -8.504110e-03 
1.084866e+01 -1.454628e+01 -6.947062e-01 -7.000988e+00 -1.687732e+01 6.656419e+00 -3.144937e+00 -1.247475e+01 2.639041e+00 5.617318e+00 1.238244e+01 -3.918172e+00 9.813917e-01 -5.767136e-02 9.571630e-01 2.095941e-01 1.524267e-02 -8.468338e-01 2.916840e-01 -2.716473e-01 -9.778296e-01 2.494711e-01 -1.559766e-01 4.680423e-01 9.929409e-01 -1.182477e-02 
1.052937e+01 -1.342816e+01 -1.999903e-01 -8.921449e+00 -1.491542e+01 4.901134e+00 -1.269349e+00 -1.421402e+01 2.197077e+00 6.654604e+00 1.222837e+01 -4.036434e+00 9.642833e-01 3.102410e-01 8.021944e-01 1.466469e-01 1.005793e-01 -1.029364e+00 -4.386257e-01 9.718761e-01 -1.756557e+00 1.087980e+00 -1.237529e+00 4.580683e-01 1.183167e+00 -1.542066e-02 
1.097507e+01 -1.158214e+01 -6.401870e-01 -8.079344e+00 -1.551660e+01 2.722035e+00 5.205528e-01 -1.614529e+01 2.707083e+00 6.913150e+00 1.069854e+01 6.218028e-02 9.440397e-01 5.390238e-01 8.902479e-01 1.160291e-01 4.969136e-01 -1.374949e+00 -3.145376e-01 1.130834e+00 -1.815328e+00 1.142166e+00 -1.554111e+00 -2.420230e-01 1.605704e+00 -2.192030e-02 
1.264118e+01 -1.212802e+01 -3.471937e-01 -6.794137e+00 -1.868697e+01 3.310325e+00 1.847147e+00 -1.849708e+01 5.751232e+00 1.290175e+00 1.282265e+01 -1.333139e-01 9.221842e-01 4.625527e-01 1.165495e+00 -5.425381e-03 6.172930e-01 -1.968418e+00 4.081689e-01 6.202544e-01 -1.234128e+00 7.780468e-01 -2.256385e+00 4.264660e-02 1.335238e+00 -2.444078e-02 
1.248788e+01 -1.074511e+01 -4.095888e-02 -5.580076e+00 -2.186629e+01 5.879135e+00 9.509850e-01 -1.940986e+01 6.572793e+00 5.289776e-01 1.087519e+01 2.158786e+00 8.928398e-01 2.796180e-01 1.205405e+00 6.018567e-01 -2.932673e-01 -1.345967e+00 1.850972e-01 4.498946e-01 -4.129408e-01 -3.395855e-01 -2.207794e+00 -4.638753e-01 1.407801e+00 -2.581752e-02 
1.208573e+01 -8.019200e+00 -5.267313e-01 -7.084618e+00 -2.158266e+01 5.363428e+00 1.616707e+00 -1.875237e+01 4.154456e+00 -1.435233e+00 1.235328e+01 1.591450e+00 8.676794e-01 1.171573e-01 1.577300e+00 8.780354e-01 -1.159754e+00 -2.920221e-01 -2.303787e-01 5.028634e-01 3.885822e-02 -1.950247e+00 -8.172010e-01 -1.106687e+00 9.220676e-01 -2.479044e-02 
1.265089e+01 -7.609528e+00 2.458865e+00 -9.400440e+00 -2.079859e+01 2.620970e+00 2.885246e+00 -1.808234e+01 1.807544e+00 -2.763116e+00 8.613845e+00 6.238802e+00 8.422045e-01 4.355703e-01 1.449069e+00 6.253862e-01 -9.764813e-01 3.176460e-02 -7.414618e-01 5.370075e-01 3.563667e-01 -2.572046e+00 -6.126777e-01 -1.407794e+00 9.196657e-01 -2.351480e-02 
1.314546e+01 -5.809314e+00 2.793071e+00 -1.068273e+01 -2.068093e+01 3.787514e+00 3.394333e+00 -1.896655e+01 -1.617377e+00 -1.149783e+00 8.419883e+00 2.437016e+00 8.235496e-01 4.987787e-01 1.287079e+00 5.135646e-01 -5.929354e-01 -1.973625e-01 -3.242994e-01 3.465219e-01 3.189310e-01 -2.074139e+00 -9.320760e-01 -1.654079e+00 1.046857e+00 -2.264130e-02 
1.413587e+01 -4.604703e+00 1.426071e+00 -8.663428e+00 -2.215833e+01 2.959784e+00 2.747209e+00 -1.752094e+01 -3.401522e+00 -2.677135e+00 5.802918e+00 6.334332e+00 7.973307e-01 2.904224e-01 1.651066e+00 -2.257876e-02 -5.942364e-02 -5.750443e-01 2.126052e-01 -1.284411e-01 8.321524e-01 -1.519281e+00 -8.185563e-01 -1.290951e+00 3.263774e-02 -2.534158e-02 
1.383714e+01 -3.086216e+00 2.557489e+00 -1.041780e+01 -2.188960e+01 3.572524e+00 3.418335e+00 -1.743842e+01 -3.611707e+00 -6.138603e+00 5.488347e+00 6.777972e+00 7.769098e-01 6.808023e-02 1.539860e+00 5.677501e-01 -5.604076e-03 -7.779016e-01 2.371042e-01 -1.004188e+00 2.141547e+00 -8.745823e-01 -7.927520e-01 -1.116515e+00 -1.102678e-01 -3.162612e-02 
1.375716e+01 -7.157453e-01 2.463762e+00 -9.830021e+00 -2.306948e+01 3.791491e+00 2.231040e+00 -1.468564e+01 -4.791698e+00 -4.361488e+00 3.624859e+00 4.231513e+00 7.388164e-01 -4.115458e-01 2.008193e+00 4.067778e-01 -3.565477e-01 3.810535e-01 8.918344e-01 -1.292272e+00 2.775561e+00 -6.263016e-01 -1.282024e-01 -1.378372e+00 -1.710679e+00 -4.988860e-02 
1.367521e+01 -5.449080e-02 5.112976e+00 -1.012745e+01 -2.411487e+01 4.557181e+00 -1.368523e+00 -9.676461e+00 -5.295200e+00 -4.271367e+00 3.926337e+00 2.937087e+00 6.946762e-01 -8.468689e-01 2.339462e+00 -1.901593e-01 -3.673566e-01 1.954421e+00 1.341829e+00 -1.624774e+00 3.905645e+00 3.877557e-01 -4.527983e-01 -1.587170e+00 -3.105670e+00 -7.185875e-02 
1.215910e+01 3.920396e+00 2.182217e+00 -1.059134e+01 -1.914043e+01 6.926627e+00 -1.320720e+00 -7.524118e+00 -5.691284e+00 -4.251765e+00 -3.079348e-01 -2.986214e-01 5.890045e-01 -7.601187e-01 2.106697e+00 -6.016700e-01 -1.174548e+00 3.993228e+00 7.025835e-01 -2.484107e-01 4.764277e+00 1.635724e+00 -9.522222e-01 -2.757439e+00 -3.142920e+00 -8.110373e-02 
1.040182e+01 6.293021e+00 1.747465e+00 -1.187392e+01 -1.408202e+01 8.714099e+00 -2.929657e+00 -1.490958e+00 -1.223135e+00 -8.457455e+00 -4.811082e-01 -6.485310e+00 4.925221e-01 -5.543659e-01 2.664176e+00 -1.929581e+00 -1.418540e+00 5.248647e+00 -9.376659e-02 1.554649e+00 4.917315e+00 2.069086e+00 -4.021491e-01 -2.865173e+00 -2.987506e+00 -8.049111e-02 
1.159326e+01 6.643983e+00 1.138167e+00 -1.482952e+01 -8.119757e+00 5.225949e+00 1.769553e+00 5.042994e+00 1.350888e+00 -7.029554e+00 -7.958614e+00 -6.771886e+00 4.343748e-01 -3.242230e-01 1.624056e+00 -2.074339e+00 -2.047638e-01 3.861293e+00 -5.268385e-01 2.922419e+00 3.280338e+00 2.507510e+00 3.515174e-01 -2.280153e+00 -1.072541e+00 -8.341672e-02 
1.118630e+01 1.190459e+01 -4.012906e+00 -1.510106e+01 -3.381971e+00 4.938687e+00 4.859584e+00 8.626558e+00 1.529144e+00 -4.893218e+00 -6.574190e+00 -8.763809e+00 3.695354e-01 -5.262727e-01 5.932593e-01 -2.010829e+00 1.926391e+00 3.900787e+00 -1.331340e+00 2.352073e+00 1.524432e+00 8.481575e-01 4.878813e-01 -9.148268e-01 1.962536e+00 -1.024890e-01 
1.014575e+01 9.234891e+00 -5.309293e+00 -1.000159e+01 -5.183997e+00 6.180140e+00 9.396756e+00 3.818811e+00 5.470126e+00 -4.276298e+00 -8.662160e+00 -4.522075e+00 2.334142e-01 -1.873425e+00 -1.288377e+00 -3.535457e-01 4.865775e+00 3.013989e+00 -2.966750e+00 -1.586677e-01 1.049469e+00 -2.521921e-01 2.612966e-01 1.696885e+00 2.968197e+00 -1.229236e-01 
8.494219e+00 7.963863e+00 -5.082952e+00 -4.655935e+00 3.954036e+00 1.580302e+00 5.017109e+00 6.743292e+00 9.580331e-01 -7.394677e+00 -4.703469e+00 2.202465e+00 8.055753e-02 -2.390581e+00 -2.748591e+00 4.928997e-01 4.508706e+00 2.638983e+00 -2.939254e+00 -1.103235e+00 3.042333e-01 -8.164102e-01 2.906003e-02 2.822536e+00 3.727357e+00 -1.185846e-01 
3.572179e+00 2.172462e+00 -9.453797e-02 4.276792e+00 3.282188e+00 -7.928610e+00 8.974526e-01 1.123197e+01 3.754830e-01 -4.472342e+00 -4.095514e-01 2.585964e+00 -3.575420e-02 -2.331826e+00 -1.759791e+00 8.614831e-01 3.870629e+00 2.981524e+00 -3.291520e+00 -1.779564e+00 1.754756e+00 -5.360811e-01 1.437970e-01 2.180169e+00 1.024620e+00 -8.102857e-02 
2.520175e+00 1.692852e+00 -4.155785e+00 3.032787e-01 5.579854e+00 -2.703206e+00 3.593063e+00 6.441144e+00 -5.585432e-03 -4.649896e+00 3.412188e+00 6.318959e+00 -8.880353e-02 -1.847424e+00 -4.806755e-01 1.240296e+00 2.645119e+00 2.293952e+00 -1.499029e+00 -1.200979e+00 8.408726e-01 7.282416e-01 9.499563e-01 5.731475e-01 -1.351883e+00 -4.069906e-02 
1.473636e+00 3.571440e+00 -1.465461e+00 6.871944e+00 8.910715e+00 -8.135704e+00 1.210962e+00 1.274366e+01 3.271530e+00 -4.929704e+00 -1.819144e+00 -1.457221e+00 -8.704805e-02 -8.440037e-01 1.436205e+00 1.788576e+00 2.015148e+00 2.908100e+00 -4.206552e-01 -1.486262e+00 -2.905707e-01 3.295433e-01 -9.392473e-01 -2.561856e+00 -2.714087e+00 -6.573069e-03 
3.063722e-01 4.860997e+00 1.803988e+00 7.272084e+00 1.260953e+01 -5.811296e+00 -1.144539e+00 1.019181e+01 3.151218e+00 -2.416215e+00 -1.132935e+00 -2.535359e+00 -9.729087e-02 -7.058777e-01 1.295924e+00 2.810939e+00 3.287791e+00 2.234806e+00 -1.733144e+00 -2.476662e+00 -1.062424e+00 -8.196970e-01 -1.173565e-01 -1.831203e+00 -2.210654e+00 -1.543212e-03 
4.590621e-01 7.769416e+00 5.868454e+00 1.086813e+01 1.430785e+01 -8.477840e+00 -4.165057e+00 7.903787e+00 4.447978e-01 -1.028542e+01 -1.094627e+01 -6.557314e+00 -6.437588e-02 -8.355817e-01 4.140011e-01 1.372578e+00 1.645957e+00 9.577094e-01 1.010553e-01 -1.974336e+00 -1.883152e+00 -1.270129e+00 2.538913e-01 2.482245e-01 -4.091903e-01 -1.390541e-02 
-5.019259e-01 6.073483e+00 6.231952e+00 1.474414e+01 1.405532e+01 -1.119785e+01 -6.102241e+00 3.548960e+00 -2.690704e+00 -2.558820e+00 -1.180268e+00 -2.184265e+00 -1.078557e-01 -1.286664e+00 -8.663003e-01 5.219002e-02 1.045369e+00 8.322414e-01 1.871207e+00 2.938726e-02 5.549420e-01 -3.703704e-01 5.203272e-01 8.227415e-01 -3.686905e-04 -1.949204e-02 
-2.300123e+00 5.035203e+00 3.183448e+00 1.136570e+01 1.297637e+01 -4.937148e+00 -6.181869e+00 6.649327e+00 -1.581562e-01 -3.588944e+00 -5.543559e-01 -3.678720e+00 -1.512927e-01 -9.688522e-01 -5.647193e-01 -1.023953e-01 -3.218723e-01 -3.228201e-01 1.318045e+00 8.311463e-03 -3.790085e-01 -8.647991e-01 5.600324e-01 1.858431e+00 2.296048e+00 -2.172706e-02 
-4.747356e+00 1.896602e+00 3.407442e+00 1.225014e+01 1.743648e+01 1.774392e+00 1.080298e-02 1.359375e+01 1.600842e+00 -3.162816e+00 -2.215184e+00 -3.976500e+00 -1.512927e-01 -2.559298e-01 7.600273e-01 6.679510e-01 -1.336824e+00 -9.609116e-01 -6.318816e-01 -3.098103e-01 -1.699344e+00 -4.685017e-01 -9.101759e-01 -4.865193e-01 1.854662e+00 -8.687401e-03 
-2.262484e+00 7.034260e+00 6.768734e+00 1.050577e+01 1.100317e+01 -8.373742e+00 -7.180021e+00 9.863493e-01 -6.024971e+00 -7.183259e+00 -1.136657e+00 5.819043e+00 -1.512927e-01 4.973745e-01 1.659500e+00 1.409256e+00 -6.928140e-01 -1.767798e+00 -2.371678e+00 2.546729e-01 -2.325547e+00 -1.393997e+00 -1.256689e+00 -7.743660e-01 1.697234e+00 0.000000e+00 
-1.800395e+00 8.874090e+00 7.779065e+00 8.489992e+00 1.023736e+01 -1.263897e+01 -7.152216e+00 -2.116273e+00 -2.099805e+00 -5.312542e+00 -3.321714e+00 2.340165e+00 -1.512927e-01 3.564301e-01 1.319006e+00 2.204905e-01 -4.651047e-01 -1.512786e+00 -1.813632e+00 7.051997e-02 -1.706303e+00 -1.433143e+00 -1.095630e+00 1.349407e-01 1.045225e+00 0.000000e+00 
-1.286732e+00 9.843958e+00 8.043915e+00 9.781708e+00 7.736941e+00 -9.588859e+00 -1.326994e+00 2.876605e+00 -5.277820e+00 -8.797526e+00 -3.872921e+00 1.649117e+00 -1.512927e-01 -2.470795e-01 5.047036e-01 -8.217246e-01 5.470371e-02 5.670404e-01 1.558253e+00 1.752318e+00 7.022243e-01 -4.438358e-01 8.135381e-02 -5.207289e-01 -5.605549e-01 0.000000e+00 
-3.453082e+00 7.086783e+00 3.872303e+00 1.028665e+01 1.150566e+01 -6.686207e+00 -2.563111e+00 4.117106e+00 -5.938451e+00 -7.833831e+00 -1.723487e-01 3.334587e+00 -1.512927e-01 -6.450008e-01 8.038807e-02 -6.740027e-01 6.739416e-01 2.029379e+00 2.581084e+00 1.810275e+00 1.161550e+00 -3.127618e-01 1.760312e+00 5.010557e-02 -2.092335e-01 0.000000e+00 
-2.671537e+00 1.045143e+01 4.613491e+00 9.880957e+00 1.320422e+01 -3.558856e+00 -7.129848e-01 1.380781e+00 -6.324828e+00 -5.515846e+00 -5.314985e+00 2.519058e+00 -1.512927e-01 -8.212318e-01 1.627466e-01 -8.273030e-03 8.451700e-01 2.323729e+00 2.187218e+00 8.503038e-01 5.550759e-01 1.453863e+00 2.823362e+00 3.264133e-01 6.560665e-01 0.000000e+00 
-4.332995e+00 8.972294e+00 6.124263e+00 1.181008e+01 1.765062e+01 -2.748546e+00 1.592156e+00 4.439392e+00 -3.140110e+00 1.848178e+00 -2.350154e+00 8.590274e-01 -1.512927e-01 -8.880285e-01 3.465855e-01 3.371257e-01 6.556205e-02 4.041546e-01 1.585904e+00 7.408570e-01 3.554320e-01 1.324800e+00 2.264412e+00 1.897636e-01 1.014015e+00 0.000000e+00 
-4.952934e+00 9.714935e+00 6.876570e+00 1.324584e+01 1.628311e+01 -6.216002e-01 8.468912e-01 5.490842e+00 5.923252e-01 4.782773e-01 -1.151952e+00 6.167229e+00 -1.512927e-01 -9.120951e-01 -3.292347e-01 -1.864398e-01 -8.554405e-01 -1.244642e+00 1.241833e-01 -9.150920e-02 2.639011e-01 8.355399e-01 1.065129e+00 -2.749510e-02 3.216906e-01 0.000000e+00 
-6.752526e+00 9.187958e+00 4.426393e+00 8.932014e+00 1.198699e+01 -2.253127e-01 3.612361e-01 3.839236e+00 -2.773027e+00 4.911658e-01 -1.305047e+00 6.580574e+00 -1.512927e-01 -5.066835e-01 -1.868582e-01 -8.496566e-01 -1.870342e+00 -2.063818e+00 -4.674931e-01 1.809117e-01 9.220473e-01 -2.385379e-01 -1.116146e+00 -8.337497e-01 3.142906e-01 0.000000e+00 
-6.022247e+00 8.697426e+00 4.530227e+00 7.042785e+00 9.812822e+00 -4.199556e+00 -5.550706e-01 3.000365e+00 -2.330670e+00 4.883062e-01 -5.975014e+00 1.266738e+00 -1.512927e-01 -4.949992e-01 -3.219814e-01 -1.240353e+00 -1.604118e+00 -1.249038e+00 -6.687781e-01 1.159062e-01 1.168917e+00 1.055643e-01 -1.826147e+00 -2.083515e+00 -2.720169e-01 0.000000e+00 
-6.331757e+00 8.546758e+00 3.049152e+00 5.559897e+00 1.056667e+01 -3.297033e+00 3.197696e+00 1.029487e+01 -2.871302e+00 -3.737566e+00 -4.107371e+00 4.880726e+00 -1.512927e-01 -2.699705e-01 -3.792254e-01 8.009873e-02 -9.248491e-02 -8.028998e-02 8.984220e-02 9.252110e-01 9.106401e-01 1.187754e+00 -9.734964e-01 -1.629098e+00 3.895990e-01 0.000000e+00 
-7.638315e+00 8.425629e+00 1.363425e+00 6.911311e+00 1.074808e+01 -2.429631e+00 8.192182e-03 8.107613e+00 1.169284e+00 -6.538092e+00 -1.016837e+01 5.657068e+00 -1.512927e-01 -6.268855e-01 -4.916252e-01 -4.291124e-02 -3.061121e-01 1.999984e-02 1.789445e+00 1.349976e+00 2.830491e-01 4.389887e-01 -2.706499e-01 1.511130e-01 1.504114e+00 0.000000e+00 
-7.294345e+00 7.427730e+00 6.410287e+00 8.535327e+00 1.111791e+01 -6.610646e-01 4.705660e+00 5.838813e+00 1.415766e+00 -8.631172e-01 -7.353860e+00 6.333404e+00 -1.512927e-01 -6.168842e-02 -2.375370e-01 -3.897174e-01 -7.530418e-01 -9.173697e-01 5.523968e-01 4.754715e-02 -6.097603e-01 3.044049e-01 7.933005e-01 6.231003e-02 -1.165860e+00 0.000000e+00 
-8.675381e+00 6.798814e+00 2.635103e+00 4.024509e+00 9.637203e+00 3.429682e+00 5.440828e+00 6.643638e+00 -2.279261e+00 -2.302167e+00 -3.596204e+00 8.060968e+00 -1.512927e-01 4.067807e-01 -1.902742e-01 -9.890404e-01 -2.382725e-01 -1.987805e-01 -4.544225e-01 -3.023728e-01 -1.336026e-01 -2.985096e-03 2.996447e-01 1.176024e+00 -5.737000e-01 0.000000e+00 
-6.121666e+00 8.172481e+00 4.647255e-01 3.238089e+00 6.535265e+00 -3.464705e+00 7.191136e-01 7.978052e+00 3.749955e-01 -1.889026e+00 -7.081903e+00 -2.150522e+00 -1.512927e-01 6.665601e-01 2.110593e-01 -1.439307e+00 2.664422e-01 -4.161489e-01 -1.294240e+00 -9.278154e-01 -3.108369e-01 6.866878e-01 7.579452e-01 1.607175e+00 -2.855352e-01 0.000000e+00 
-6.190751e+00 7.101882e+00 -6.089964e-01 8.368567e+00 1.204550e+01 -3.299923e+00 4.896010e-01 6.369980e+00 1.674744e+00 -4.526914e+00 -4.424225e+00 7.030531e+00 -1.512927e-01 9.389027e-01 5.012716e-01 3.717430e-02 1.177596e+00 2.610687e-01 -9.404160e-01 -1.244436e+00 -7.589099e-01 1.225983e+00 1.661532e+00 1.071423e+00 3.370347e-01 0.000000e+00 
-5.203859e+00 8.331492e+00 8.358009e-01 7.695509e+00 7.833015e+00 -3.767461e+00 2.542196e+00 4.421457e+00 2.872203e+00 4.038982e+00 1.096026e+00 5.420946e+00 -1.512927e-01 5.864683e-01 5.044883e-01 8.848286e-01 8.708717e-01 9.979208e-01 2.744691e-01 -1.083285e+00 -8.903402e-01 -8.673695e-01 -2.843951e-01 9.076313e-01 6.772660e-01 0.000000e+00 
-4.439771e+00 9.225666e+00 2.635437e+00 7.683779e+00 1.029367e+01 -1.121020e+00 -1.692891e+00 4.627386e+00 2.602050e+00 3.041489e+00 -2.328053e+00 5.960408e+00 -1.512927e-01 5.390918e-01 6.363834e-01 1.018215e+00 -6.281205e-02 5.278332e-01 8.218720e-02 -1.433959e+00 -3.968472e-01 -1.949820e+00 -1.627076e+00 -3.023073e-01 -1.416940e+00 0.000000e+00 
-4.064815e+00 9.633030e+00 3.266652e+00 7.934841e+00 1.240078e+01 -3.181812e+00 -3.606065e+00 4.397648e+00 -4.425504e+00 -7.095203e+00 -3.591833e+00 1.770870e+00 -1.512927e-01 2.653046e-01 3.010440e-01 5.492916e-01 7.297268e-02 1.124265e+00 -8.894923e-02 -1.420969e+00 -2.773552e-02 -2.162297e+00 -3.240506e+00 -1.063950e+00 -1.148969e+00 0.000000e+00 
