-1.216370e+01 -1.654258e+00 -2.048465e+00 -8.930969e-01 -6.339256e-01 1.910001e+00 1.164553e+00 -4.682014e+00 -1.039822e+01 -5.004745e-01 2.086656e+00 3.541122e+00 1.274317e-01 -4.559846e-01 -1.055959e+00 -2.246568e-01 -1.408297e+00 -7.493557e-01 -9.824784e-02 -2.651934e-01 2.685792e+00 3.268090e+00 1.628571e+00 2.042438e-01 -1.355042e-01 5.415881e-03 
-1.447150e+01 1.345328e+00 -2.164345e+00 -3.080377e+00 -1.972588e+00 1.228081e-01 4.378437e+00 3.888413e+00 -2.685927e+00 6.227238e+00 2.656516e+00 -1.353404e+00 1.113024e-01 -2.832843e-01 -2.722366e+00 3.621824e-01 -2.725961e+00 -1.775805e+00 2.714154e-01 -1.660363e+00 2.125810e+00 3.165069e+00 -9.145563e-01 5.677311e-01 5.960525e-01 4.871647e-02 
-1.328971e+01 -8.433845e+00 -3.113809e+00 -6.840944e+00 -3.711372e+00 2.312358e+00 -1.768356e+00 4.461734e+00 2.086093e+00 4.278524e+00 2.822946e+00 5.310865e+00 1.625757e-01 7.010485e-01 -1.843307e+00 -6.805749e-02 -1.506711e+00 -1.533985e+00 -2.190311e-01 -2.659498e+00 1.579073e+00 1.654258e+00 -3.051202e+00 -1.825188e-01 1.743760e-01 4.147620e-02 
-1.301711e+01 -1.187629e+01 2.951190e-01 -1.154898e+01 -7.974228e+00 3.065899e+00 -5.670810e+00 1.375163e+00 -8.150259e-01 -7.462755e+00 4.557167e+00 5.636514e+00 3.534420e-01 1.188301e+00 -1.549579e+00 -2.143301e-01 1.226203e+00 -5.544862e-01 -1.299045e+00 -3.318568e+00 -4.446391e-01 -5.175870e-01 -4.446699e+00 7.592154e-03 1.380618e+00 3.163911e-02 
-9.385651e+00 -4.259981e+00 -3.618484e+00 -4.192353e+00 -5.303032e+00 -6.567000e-01 -7.108315e+00 4.469976e+00 -3.062374e+00 -8.911487e+00 2.237368e-01 9.180436e-01 2.137429e-01 5.499225e-01 1.216894e+00 1.932704e-01 3.471268e+00 1.769259e+00 -2.442174e+00 -1.229707e+00 -4.840897e-01 -1.691066e+00 -2.887381e+00 -1.100140e+00 -3.266928e-01 -1.640225e-02 
-1.048203e+01 -8.489501e+00 -2.983658e+00 1.726341e+00 -3.949189e+00 -4.887885e+00 -9.544425e+00 1.661096e+00 -2.699628e+00 -9.411251e+00 3.994081e+00 7.746095e+00 2.439144e-01 4.051194e-01 2.105793e+00 -2.141729e-01 3.485359e+00 3.309996e+00 -1.849240e+00 6.974430e-01 2.608467e-01 -1.283329e+00 1.353429e+00 -9.763334e-01 -3.759616e-01 -5.695167e-02 
-1.180764e+01 -4.042770e+00 -5.080688e-01 3.877737e+00 3.122404e+00 -5.921618e+00 -5.980084e+00 1.898319e+00 -5.426938e+00 -9.184134e+00 -2.396210e+00 2.622610e+00 1.353283e-01 2.830664e-01 1.935787e+00 6.155781e-01 1.616334e+00 3.054935e+00 9.874096e-01 2.583202e+00 1.261695e+00 3.232424e-01 4.177545e+00 -4.403940e-01 -4.585436e-01 -2.846465e-02 
-9.780516e+00 -1.455936e+00 -2.330953e+00 1.842770e+00 4.363035e+00 -3.547843e+00 -2.747710e+00 3.965225e+00 -6.049389e+00 -5.592847e-01 9.854732e-01 2.904423e+00 1.078910e-01 1.726635e+00 3.275190e+00 1.033785e+00 7.628095e-01 2.707424e+00 2.928715e+00 3.503093e+00 2.106908e+00 1.058569e+00 4.781942e+00 4.282875e-01 -1.864815e+00 -1.011658e-02 
-8.321077e+00 1.902171e+00 -8.669461e-01 3.831101e+00 5.815529e+00 3.610327e+00 2.409339e+00 9.626387e+00 2.287180e-01 7.550255e+00 -4.739294e-01 1.046161e+00 1.394314e-01 4.108487e+00 2.800215e+00 1.137524e+00 1.192173e+00 8.952354e-01 9.485084e-01 1.889174e+00 8.299791e-01 6.903858e-01 1.917221e+00 6.683782e-01 -1.033330e+00 7.884637e-02 
-3.592136e+00 4.913980e+00 2.364705e+00 5.563706e+00 8.241370e+00 4.989720e+00 3.776326e+00 8.331601e+00 -2.346106e-01 6.131267e+00 5.174378e+00 -7.897564e-01 1.912799e-01 5.198740e+00 6.330730e-01 9.997282e-01 2.433404e+00 -8.022240e-01 -1.939965e+00 1.270395e+00 -1.554622e+00 -5.880836e-01 -1.771392e+00 -1.900284e+00 -6.094037e-01 1.425785e-01 
5.640603e+00 6.773347e+00 2.831723e+00 7.978135e+00 5.659413e+00 -5.447858e+00 2.037649e-01 3.865026e+00 -4.882398e+00 -2.943303e+00 -1.148771e+00 -6.969488e-01 4.878656e-01 4.653076e+00 -8.710811e-01 4.098335e-01 2.282700e+00 -2.135015e+00 -3.827909e+00 5.213797e-01 -2.903576e+00 -1.464359e+00 -4.032283e+00 -2.976856e+00 1.362489e-01 1.581909e-01 
9.232343e+00 -7.261595e-01 8.183529e-01 1.193627e+01 4.299726e-01 -8.718576e+00 4.707049e+00 -9.272053e-01 -6.434249e+00 -4.169468e+00 -8.178525e+00 7.289592e-01 6.465662e-01 2.386943e+00 -1.219726e+00 4.163485e-02 8.448622e-01 -2.707947e+00 -2.609031e+00 3.625807e-01 -1.412701e+00 -1.133287e+00 -3.732848e+00 -2.513243e+00 3.091793e-01 1.279416e-01 
8.532064e+00 3.668352e-01 1.955398e+00 1.205832e+01 -9.538447e-01 -8.675072e+00 4.550876e+00 -2.620883e-01 -3.993259e+00 -7.460793e+00 -8.681759e+00 9.680483e-01 7.027426e-01 -6.974841e-01 -5.640617e-01 -1.116414e-01 -1.908811e+00 -2.426881e+00 1.643086e-01 -1.240571e+00 -4.533266e-01 1.422132e-01 3.212325e-01 1.544120e+00 -1.453734e-01 6.728283e-02 
6.896851e+00 2.018606e+00 3.011042e+00 7.747927e+00 -1.991736e+00 -6.441829e+00 3.415674e+00 3.331656e+00 -6.345615e+00 -1.027423e+01 -3.625342e+00 -7.635832e-02 7.235494e-01 -1.704874e-01 1.363195e+00 -5.567420e-01 -3.919875e+00 -2.616642e+00 -1.036826e+00 -2.137962e+00 1.077926e+00 2.152739e+00 2.719880e+00 3.043835e+00 -2.581365e-01 4.047088e-02 
3.320928e+00 2.580656e+00 1.177172e+00 5.282531e-01 -5.264138e+00 -5.764688e+00 -5.353403e+00 -5.310371e-01 -4.215649e+00 1.715238e+00 4.295236e+00 -1.021157e+00 7.857882e-01 1.308552e+00 1.232308e+00 -1.453648e+00 -4.237109e+00 -3.215562e+00 -2.110495e+00 -1.009555e+00 7.197583e-01 3.557198e+00 4.283287e+00 1.791750e+00 5.397319e-02 3.875173e-02 
1.098547e+01 4.982907e+00 -1.576244e+00 -1.898067e+00 -1.049809e+01 -1.535790e+01 -1.030622e+00 4.596899e+00 4.440640e+00 4.841916e+00 5.521555e-01 4.328793e-01 8.073977e-01 2.200218e+00 7.474848e-01 -1.563545e+00 -3.758376e+00 -2.708401e+00 -2.424724e+00 8.619019e-01 -6.225552e-02 4.446635e+00 4.016112e+00 -6.756617e-01 1.862081e-01 4.149663e-02 
1.303051e+01 5.046226e+00 -3.019198e+00 -4.304235e+00 -1.277848e+01 -1.476952e+01 1.726250e+00 2.704082e+00 8.399601e+00 6.397571e+00 -1.811759e+00 9.832954e-01 8.545771e-01 2.078452e+00 2.319154e-01 -1.072644e+00 -2.916636e+00 -1.486898e+00 -9.252013e-01 2.579386e+00 1.738343e-01 3.066532e+00 1.568656e+00 -2.972021e+00 3.070215e-01 3.607047e-02 
1.304315e+01 4.523245e+00 -2.708498e+00 -8.627707e+00 -1.177657e+01 -1.406303e+01 4.185357e+00 1.402819e+00 9.579935e+00 7.465171e+00 -3.950153e+00 -1.475438e-01 8.966381e-01 -1.393978e-01 -5.805038e-01 -3.725271e-01 -2.882981e+00 -7.954254e-02 1.547706e+00 2.038507e+00 -1.026035e+00 1.193288e+00 1.770538e-01 -2.822087e+00 -1.291922e-01 3.469845e-02 
1.268435e+01 3.970064e+00 -3.619919e+00 -1.069011e+01 -1.205939e+01 -1.103813e+01 4.935537e+00 1.935175e+00 8.547363e+00 8.246892e+00 -8.313714e+00 8.041623e-01 9.215204e-01 -1.034134e+00 -8.627540e-01 -1.001623e-01 -3.033772e+00 6.212000e-01 2.480822e+00 1.801384e+00 -6.880001e-01 -1.914959e-02 -1.253306e+00 -2.803689e+00 -1.451227e-02 2.812379e-02 
1.046157e+01 2.618469e+00 -3.138519e+00 -1.312003e+01 -1.125535e+01 -9.485062e+00 7.557269e+00 -1.488237e-01 1.033320e+01 4.802525e+00 -1.030730e+01 -1.235149e-01 9.474183e-01 -1.376999e+00 -8.512884e-01 -1.641860e-01 -2.523660e+00 5.506218e-01 3.535513e+00 1.289544e+00 -5.222194e-01 -7.198361e-01 -2.190010e+00 -2.309510e+00 3.923276e-01 1.986203e-02 
9.150634e+00 1.684844e+00 -3.304999e+00 -1.722693e+01 -9.933090e+00 -4.654389e+00 9.047214e+00 3.990257e-02 7.927221e+00 1.462364e+00 -1.265163e+01 8.987197e-01 9.698059e-01 -1.323529e+00 -8.258107e-01 -1.925268e-01 -2.161122e+00 7.038128e-01 4.203104e+00 3.905295e-01 -7.764997e-01 -1.117097e+00 -2.304973e+00 -9.661548e-01 6.907371e-01 1.521280e-02 
7.925015e+00 1.409414e+00 -3.686888e+00 -1.797759e+01 -1.008661e+01 4.226640e-01 8.577236e+00 -2.606425e-01 6.290826e+00 -9.261608e-02 -1.332875e+01 1.766816e+00 9.718055e-01 -7.943317e-01 -9.004573e-01 -4.237938e-01 -1.179266e+00 3.406626e-01 4.713181e+00 -6.790105e-01 -1.040811e+00 -1.466927e+00 -1.337562e+00 4.954912e-01 9.134341e-01 9.778184e-03 
7.334981e+00 4.455379e-01 -4.308369e+00 -1.906694e+01 -9.124697e+00 5.023530e+00 6.378201e+00 -1.891414e+00 4.983065e+00 -8.304048e-01 -1.163377e+01 3.312682e+00 9.853908e-01 -4.699544e-01 -1.114169e+00 -3.454293e-01 -1.471844e-01 4.555693e-01 3.887720e+00 -1.383415e+00 -1.856050e+00 -5.953933e-01 -4.510548e-01 1.688554e+00 7.413315e-01 6.554103e-03 
7.397733e+00 -1.264165e+00 -4.755804e+00 -1.809636e+01 -9.956233e+00 9.241883e+00 5.496723e+00 -4.387218e+00 4.470642e+00 -7.389002e-01 -8.338778e+00 3.236674e+00 9.885168e-01 -2.311406e-01 -1.426142e+00 -1.499363e-01 4.170466e-01 7.470659e-01 2.954193e+00 -1.649300e+00 -2.404031e+00 3.762591e-01 -2.244597e-02 2.014288e+00 7.551457e-01 5.754173e-03 
7.064503e+00 -2.549215e+00 -4.497688e+00 -1.790347e+01 -7.720432e+00 1.037460e+01 3.670395e+00 -7.177058e+00 5.860347e+00 -4.697680e-01 -6.703849e+00 3.870448e+00 9.942207e-01 -6.605621e-02 -1.455850e+00 -1.198057e-01 1.228511e+00 6.129017e-01 2.462328e+00 -1.834392e+00 -2.469212e+00 1.320365e+00 3.032020e-01 1.375289e+00 9.333273e-01 3.686297e-03 
6.904551e+00 -4.223921e+00 -4.341910e+00 -1.647409e+01 -7.053412e+00 1.251809e+01 1.684637e+00 -9.637976e+00 7.733480e+00 -3.851643e-01 -5.722264e+00 5.263661e+00 9.961613e-01 -3.172348e-02 -1.408911e+00 -1.837267e-01 1.724360e+00 4.563482e-01 2.177554e+00 -2.192488e+00 -2.005948e+00 1.941422e+00 1.271767e-01 4.871120e-01 1.426731e+00 1.803935e-03 
7.251291e+00 -5.353833e+00 -5.114344e+00 -1.373551e+01 -7.511598e+00 1.569706e+01 -8.877187e-01 -1.161209e+01 9.953472e+00 5.087371e-01 -6.065578e+00 6.965826e+00 1.000000e+00 1.173347e-01 -1.167188e+00 -2.045094e-01 2.221677e+00 -6.887092e-02 1.852233e+00 -2.246309e+00 -1.489690e+00 2.737305e+00 -1.083925e-01 -1.262724e-01 1.174741e+00 -6.025535e-03 
7.145721e+00 -6.906409e+00 -5.366109e+00 -1.155854e+01 -7.778908e+00 1.746842e+01 -3.186663e+00 -1.219944e+01 1.213119e+01 -5.922694e-01 -6.222354e+00 8.822641e+00 9.946468e-01 4.267196e-01 -9.712656e-01 -3.870723e-02 2.129221e+00 3.400301e-01 5.971069e-01 -1.975246e+00 -1.250182e+00 3.259939e+00 -3.458959e-01 5.203247e-04 2.423139e-02 -1.591065e-02 
7.530591e+00 -7.043913e+00 -5.008136e+00 -9.252865e+00 -7.702038e+00 1.716060e+01 -5.125501e+00 -1.334477e+01 1.734802e+01 -9.081779e-01 -7.085166e+00 7.964663e+00 9.648503e-01 7.335514e-01 -9.757608e-01 5.775979e-01 1.708500e+00 1.074135e+00 -6.096730e-01 -1.952322e+00 -6.249794e-01 3.028228e+00 -6.382388e-01 5.863663e-01 -1.502906e+00 -2.389759e-02 
8.898499e+00 -8.235209e+00 -4.588551e+00 -8.069313e+00 -5.258041e+00 1.477186e+01 -6.072702e+00 -1.502254e+01 2.033591e+01 -1.406186e+00 -5.209868e+00 4.885399e+00 9.341829e-01 3.426020e-01 -4.298923e-01 1.075520e+00 1.155002e+00 2.008827e+00 -1.518321e+00 -2.206697e+00 2.284308e-01 2.372910e+00 -9.634339e-01 9.643650e-01 -2.369531e+00 -2.284725e-02 
1.004266e+01 -9.568236e+00 -2.615134e+00 -6.937626e+00 -3.401355e+00 1.399698e+01 -9.206308e+00 -1.332544e+01 2.099225e+01 -2.275498e+00 -3.639989e+00 1.419918e+00 9.107440e-01 -1.676201e-01 -8.042884e-02 1.726345e+00 4.778118e-01 2.571545e+00 -1.584573e+00 -3.237890e+00 2.214409e+00 5.280817e-01 -1.155462e+00 9.884126e-01 -1.864928e+00 -1.974374e-02 
7.602697e+00 -7.793709e+00 -1.185011e+00 -6.941148e+00 1.148865e-01 1.145863e+01 -1.217974e+01 -1.106695e+01 2.217362e+01 -4.725779e+00 -3.123117e+00 2.473571e-01 9.074637e-01 -3.062565e-01 4.546592e-01 2.012754e+00 1.066148e+00 2.660536e+00 -2.072083e+00 -2.915095e+00 3.008142e+00 -1.198133e+00 -2.031456e+00 1.538419e+00 -4.853555e-01 -3.267043e-02 
7.340392e+00 -7.666808e+00 1.921821e+00 -7.427889e+00 2.469221e+00 1.089435e+01 -1.826143e+01 -4.250526e+00 1.906957e+01 -5.025690e+00 -3.186479e+00 9.590452e-01 8.794912e-01 -1.286570e-01 1.652856e+00 1.327209e+00 3.291214e+00 1.959433e+00 -4.059856e+00 2.904788e-01 1.435999e+00 -4.422895e+00 -2.180578e+00 2.580307e+00 8.608095e-01 -4.587335e-02 
8.718350e+00 -6.912627e+00 3.206743e+00 -2.493441e+00 5.109350e+00 5.962759e+00 -1.612062e+01 -4.519293e+00 1.530658e+01 -1.018837e+01 2.255473e+00 2.689058e+00 7.864572e-01 2.490212e-01 1.954679e+00 7.797884e-01 3.799540e+00 1.033492e+00 -4.439077e+00 2.720579e+00 -8.495150e-02 -5.933669e+00 -1.361817e+00 3.340348e+00 4.910555e-01 -5.042557e-02 
8.841547e+00 -1.744497e+00 1.825032e+00 7.294588e+00 3.898578e+00 -3.554366e+00 -5.783477e+00 -9.419271e+00 2.311295e+00 -1.044709e+01 6.572253e+00 4.503115e+00 7.418805e-01 -1.380619e-01 2.233429e+00 -1.802893e-01 3.531291e+00 4.119228e-01 -4.445087e+00 4.315173e+00 -1.022710e+00 -5.277066e+00 -9.062532e-01 3.305990e+00 -8.702934e-01 -4.160141e-02 
8.097225e+00 -9.814685e-01 2.762325e+00 4.695312e+00 4.567669e+00 -3.512398e+00 -4.815825e+00 -8.907337e+00 8.844113e-01 -8.824163e+00 8.699259e+00 9.305995e-01 7.241412e-01 -5.793918e-01 1.925793e+00 -5.373669e-03 1.528219e+00 -2.149201e-01 -2.290165e+00 2.709209e+00 8.161859e-02 -3.518447e+00 -1.777494e-01 2.167843e+00 -1.897066e+00 -2.714884e-02 
6.960645e+00 5.347608e-01 1.242584e+00 6.634192e+00 4.799675e+00 -6.593508e+00 -2.337964e+00 -7.170054e+00 -1.046746e-01 -1.023906e+01 1.012158e+01 -2.513193e+00 7.026421e-01 -6.104730e-01 1.003336e+00 4.910997e-01 -2.090092e-02 -3.895526e-02 -2.018232e-02 -9.917679e-02 1.769518e+00 -1.571200e+00 4.103651e-01 9.567547e-01 -2.665237e+00 -2.592428e-02 
6.761843e+00 1.576709e+00 3.471099e+00 5.477855e+00 3.584201e+00 -3.968498e+00 -4.297327e+00 -5.235809e+00 -1.077670e+00 -1.118113e+01 1.132003e+01 -3.288116e+00 6.703322e-01 -4.075421e-01 1.162485e+00 4.078271e-01 4.130565e-01 4.374172e-01 1.730309e-01 -5.319804e-01 1.866989e+00 -1.998548e+00 1.531353e+00 1.420870e-01 -2.514047e+00 -3.281020e-02 
6.456874e+00 1.993093e+00 3.926144e+00 6.798812e+00 4.195536e+00 -3.427228e+00 -6.538610e+00 -2.407448e+00 -4.563663e+00 -7.216782e+00 1.004564e+01 -6.713710e+00 6.391637e-01 -5.041860e-01 1.791094e+00 1.005258e+00 4.535928e-01 1.633557e-01 -2.373412e-01 1.649790e-01 2.053300e+00 -2.252656e+00 2.966583e+00 -9.473871e-01 -1.922322e+00 -4.094250e-02 
6.311400e+00 4.101793e+00 3.459680e+00 6.678284e+00 7.056825e+00 -4.230383e+00 -5.375403e+00 -1.953696e+00 -6.878836e+00 -2.678538e+00 9.447660e+00 -9.539375e+00 5.918295e-01 -5.516534e-01 1.115639e+00 -1.748853e-01 8.339654e-01 5.224632e-01 -1.075341e-01 2.340300e+00 1.738602e+00 -2.442034e+00 2.371199e+00 -1.477391e+00 -1.091716e+00 -4.741096e-02 
4.664937e+00 8.227690e+00 6.274583e+00 8.301941e+00 3.880141e+00 -7.649271e+00 -9.740307e-01 1.455388e+00 -8.467372e+00 3.425560e-01 6.320824e+00 -8.999171e+00 5.371810e-01 -7.151718e-01 7.488087e-01 -5.294813e-01 1.077692e+00 8.075467e-01 4.424000e-01 3.070634e+00 1.420012e+00 -1.496797e+00 1.346104e+00 -1.724463e+00 -6.789148e-01 -4.964768e-02 
4.899544e+00 4.037608e+00 1.422453e+00 8.896117e+00 6.354214e+00 -2.395147e+00 4.621882e+00 1.525785e+00 -1.133599e+01 -3.104807e+00 5.795481e+00 -7.603965e+00 4.842687e-01 -1.409137e+00 -1.704020e-02 -9.482507e-02 1.493327e+00 1.572297e+00 1.809012e+00 2.216364e+00 9.124880e-01 -5.510030e-01 1.378881e+00 -2.015231e+00 4.089792e-01 -6.103208e-02 
3.586943e+00 5.769229e+00 2.297352e+00 1.107835e+01 8.584575e+00 -2.132847e+00 3.815917e+00 2.952871e+00 -9.819074e+00 -2.731280e-01 3.249414e+00 -1.107599e+01 4.447057e-01 -1.579354e+00 -5.931668e-01 1.004121e-01 7.263069e-01 1.346229e+00 2.484305e+00 1.325134e+00 9.733447e-02 -4.049196e-01 5.754464e-01 -1.988968e+00 4.901172e-01 -6.613705e-02 
-1.952868e-01 5.245822e+00 4.974171e+00 1.275671e+01 1.256610e+01 2.056462e+00 3.311444e+00 1.860003e+00 -8.957999e+00 4.523709e+00 9.072092e-01 -6.456070e+00 3.329068e-01 -2.254799e+00 -3.796016e-01 9.610454e-01 3.756283e-01 -9.213018e-03 1.191109e+00 1.521539e-01 2.287134e-01 -3.022999e-01 2.291487e-01 -1.881864e+00 1.035642e+00 -6.577161e-02 
-6.844172e-01 4.657748e+00 5.000785e+00 1.000318e+01 7.505344e+00 2.546450e+00 6.306858e+00 1.774952e+00 -1.168096e+01 -5.944700e-01 -1.179878e+00 -7.122533e+00 2.821767e-01 -2.496314e+00 -1.597950e+00 -2.678723e-02 -1.055146e+00 -1.714892e+00 1.004171e+00 9.415867e-01 1.759230e+00 -1.797072e-01 -1.007400e+00 -1.064454e+00 1.495207e+00 -6.134912e-02 
-4.238770e+00 2.695340e+00 4.875963e+00 1.131185e+01 6.847764e+00 1.220751e+00 4.137181e+00 3.258312e+00 -1.191654e+01 -1.798392e+00 -1.399191e+00 -4.402481e+00 2.366751e-01 -2.094983e+00 -1.800785e+00 -1.260624e+00 -2.622943e+00 -2.671275e+00 -1.469592e+00 -6.084768e-01 1.437744e+00 7.349082e-01 -1.050329e+00 -7.047052e-01 4.573182e-01 -4.240928e-02 
-6.872887e+00 -9.452795e-01 2.212519e+00 6.525057e+00 2.869280e+00 3.305866e+00 8.110981e+00 1.104987e+01 -9.238339e+00 -2.149077e+00 -9.196558e-01 -4.626748e+00 1.860759e-01 -1.793596e+00 -1.424909e+00 -1.650850e+00 -1.889169e+00 -1.237609e+00 -1.959060e+00 -2.134890e+00 6.228484e-02 8.234800e-01 8.765041e-01 2.576857e-01 9.221823e-01 -2.688366e-02 
-7.575965e+00 -9.565895e-01 6.518507e-02 1.381057e+00 1.527753e+00 -5.671204e+00 -6.330016e-01 4.411266e+00 -6.504770e+00 4.936838e-02 -2.746428e+00 -5.417371e+00 1.689108e-01 -1.037207e+00 -7.005653e-01 -1.396868e+00 -1.679459e+00 -8.299001e-01 -1.828478e+00 -1.391329e+00 -1.728233e-01 1.456705e+00 1.563072e+00 1.105412e+00 6.053618e-01 -1.654175e-02 
-7.983798e+00 -6.408303e-01 -8.480738e-01 5.522729e+00 3.977308e+00 -3.802872e+00 -1.982501e+00 1.509899e+00 -1.026945e+01 2.864171e+00 7.821689e-01 -2.004177e+00 1.816406e-01 -3.619421e-01 2.425537e-01 1.760192e-02 4.818092e-01 1.047298e+00 -5.520636e-01 -4.699627e-01 -5.773455e-01 1.507010e+00 1.978498e+00 8.531378e-01 3.537546e-01 -6.211281e-03 
-8.869352e+00 -9.597108e-01 -5.780802e-01 3.415713e+00 2.144250e+00 -4.367270e+00 2.227278e+00 7.164180e+00 -4.117464e+00 3.510344e+00 3.276956e+00 -2.686958e+00 1.561840e-01 -1.601397e-01 6.953998e-01 7.593674e-01 1.311369e+00 8.084289e-01 3.032236e-01 1.512212e+00 1.228234e+00 1.573433e+00 1.762993e+00 1.197932e+00 1.999588e+00 9.450316e-05 
-8.035904e+00 2.690495e-01 2.622161e+00 7.916775e+00 7.797519e+00 -1.064197e-01 4.331028e+00 6.786684e+00 -2.896943e+00 6.012922e+00 3.343410e-01 -4.223182e+00 1.613829e-01 1.927559e-01 1.111341e+00 1.600265e+00 7.957214e-01 2.624856e-01 1.065232e+00 1.778485e+00 2.198535e-01 9.101374e-01 7.199071e-01 4.323312e-01 2.166333e+00 1.879930e-05 
-8.350611e+00 2.065469e+00 2.126905e+00 6.740879e+00 3.659792e+00 -6.003313e+00 3.771292e+00 7.914043e+00 -2.323858e+00 7.289956e+00 3.467144e+00 5.690072e+00 1.795122e-01 3.579409e-01 1.240050e+00 9.421070e-01 5.955328e-01 2.147112e-01 1.650521e+00 4.010997e-01 -1.857746e+00 -5.348837e-02 -3.647919e-01 -2.940306e-01 4.225321e-01 -1.417273e-03 
-7.279389e+00 3.403286e+00 5.800757e+00 7.838753e+00 4.531965e+00 2.341309e+00 6.137919e+00 2.234235e+00 -6.615563e+00 4.573900e+00 2.848731e+00 4.638972e+00 1.700705e-01 1.330842e-01 5.672578e-01 -3.526018e-01 -5.502590e-01 -5.673200e-01 1.607278e+00 -6.567009e-01 -2.035882e+00 -6.769534e-01 -7.769678e-01 1.326461e+00 -7.758961e-01 -1.931173e-03 
-7.457905e+00 3.673422e+00 2.543157e+00 6.432388e+00 4.850584e+00 2.661468e+00 3.329331e+00 1.516716e-01 -2.525595e+00 2.405896e+00 5.496082e-01 -5.005374e+00 1.447538e-01 -6.482105e-02 -1.193758e-01 -8.212928e-02 -5.257789e-01 1.512237e-01 1.330754e+00 -7.196630e-01 -8.082789e-01 6.031080e-01 -7.274014e-02 8.737515e-01 -2.611428e+00 -7.579893e-03 
-7.816836e+00 2.301362e+00 6.510262e-01 5.319725e+00 4.365523e+00 3.597580e+00 1.268504e+00 4.884582e-01 -6.180841e+00 4.570114e+00 8.425415e+00 -2.754940e+00 1.691062e-01 -3.277629e-01 -1.339246e-01 -7.794384e-01 -1.042613e+00 -2.257797e-01 -9.825704e-01 -4.220591e-01 1.612428e+00 1.105458e+00 9.773436e-01 2.866214e-01 -6.244500e-01 -2.741498e-03 
-8.405993e+00 2.019552e+00 4.291123e+00 5.371498e+00 4.499131e+00 2.232140e-02 2.607684e+00 4.745537e+00 4.743207e-01 6.928148e+00 5.047559e+00 -3.670114e+00 1.420949e-01 -2.309508e-01 7.409897e-02 -2.368162e-01 -4.817904e-01 -2.036976e-01 -8.135237e-01 1.968407e-01 1.520615e+00 -4.231750e-01 4.579344e-01 -4.625842e-01 9.374744e-01 -1.322258e-03 
-8.444160e+00 3.560598e+00 1.029582e+00 3.156132e+00 3.578793e+00 -1.251970e+00 4.388447e+00 7.999441e+00 -2.588232e+00 7.199492e+00 2.032862e+00 8.490921e-01 1.576925e-01 -5.194473e-02 4.123805e-01 -4.696652e-01 -5.483737e-01 -5.003693e-02 -7.508398e-01 4.662092e-01 3.545713e-01 -1.168977e+00 -4.871356e-01 -1.609109e+00 1.283254e+00 -5.109590e-03 
-8.298998e+00 3.414299e+00 1.169798e+00 5.105233e+00 4.225461e+00 1.018625e+00 2.753563e+00 3.999255e+00 -6.437775e+00 3.380879e+00 1.432963e+00 -2.120018e+00 1.438494e-01 -5.895643e-02 3.608273e-01 -8.935774e-01 -2.059860e-02 2.340308e-01 5.312290e-01 3.524582e-01 -4.899549e-01 -1.351316e+00 -1.741557e+00 -9.626021e-01 1.092724e+00 5.559796e-03 
-8.130056e+00 3.665891e+00 -1.366372e-01 2.710989e+00 4.252174e+00 -6.547711e-01 3.526610e+00 2.634456e+00 -8.569678e+00 3.908070e+00 2.187168e+00 2.886283e+00 1.426810e-01 2.539602e-01 -2.200792e-01 -7.250919e-02 6.516482e-01 6.563172e-01 2.778666e-02 -9.478561e-01 -5.155068e-02 1.762612e-01 -1.382262e+00 -1.188396e+00 -1.004233e+00 3.101468e-03 
-8.857826e+00 3.771042e+00 4.063461e-01 5.491076e+00 5.332595e+00 2.379867e+00 4.800894e+00 4.978255e+00 -3.291538e+00 -1.339235e-01 1.573954e-01 7.749101e-01 1.773996e-01 1.358857e-01 -5.343006e-01 -3.325683e-01 -5.908882e-01 -2.964350e-01 -6.488336e-01 -1.544362e+00 -6.257657e-01 1.353620e+00 1.574805e+00 1.359120e-01 -5.694618e-01 3.452426e-03 
-6.894945e+00 2.281830e+00 1.048762e+00 6.221451e+00 6.306812e+00 -1.793658e+00 -1.374499e+00 7.252187e+00 -3.280044e+00 2.045580e+00 -3.271333e+00 -5.619538e+00 1.564247e-01 -6.407928e-02 -2.085268e-01 4.458477e-01 -5.257371e-01 -1.355901e+00 -9.036139e-01 -9.320857e-01 3.204913e-01 1.070198e+00 1.996343e+00 8.587288e-01 1.303424e-01 4.073071e-03 
-8.237125e+00 1.434826e+00 -1.085743e+00 3.955612e-01 1.715967e+00 -1.656100e+00 -2.517694e+00 -1.438440e+00 -2.314493e+00 1.218615e+01 4.841774e+00 -7.144161e-01 1.542397e-01 4.133056e-01 -1.557240e+00 -4.092011e-01 -1.410732e+00 -2.276149e+00 -4.039348e-01 -7.164308e-01 -7.260367e-01 -1.193888e-01 1.652647e+00 1.958476e+00 1.218417e+00 1.404061e-02 
-8.760803e+00 3.791365e+00 2.838646e+00 2.630061e+00 -7.190198e-01 -3.154857e+00 2.525476e+00 7.445260e+00 -3.707209e+00 7.729747e+00 4.138623e+00 4.282658e+00 1.746264e-01 1.856761e-01 -1.000508e+00 -4.080423e-01 -1.474198e+00 -8.661038e-01 1.060847e+00 7.317471e-03 -1.305124e+00 -5.358330e-01 -5.548812e-01 1.487543e+00 1.056627e+00 1.489983e-02 
-5.858368e+00 -4.769925e+00 -2.534602e+00 2.331119e-01 -2.535233e+00 1.040793e+00 -7.312474e-01 1.251535e+00 -3.674900e+00 5.287230e+00 6.244799e+00 1.915896e+00 2.385018e-01 3.767226e-01 -5.516015e-01 -1.468222e-01 -6.626127e-01 9.592764e-01 1.295345e+00 -4.183492e-01 -6.423637e-01 -7.500821e-01 -2.394014e+00 -3.427555e-01 -7.808505e-01 8.327263e-03 
-7.155942e+00 3.816677e-01 -2.670205e-01 -1.068315e+00 4.101893e+00 2.162132e+00 -2.231135e+00 -6.184187e-01 -5.279006e+00 2.720634e+00 3.464872e+00 -1.651560e+00 1.887928e-01 1.912148e-01 -1.667802e-01 -3.943751e-01 -8.698177e-01 1.627895e+00 1.175532e+00 -1.101311e+00 -1.799731e+00 -4.747699e-01 -1.258482e+00 -4.127429e-01 -1.543589e+00 -2.137625e-03 
