-9.204580e+00 2.344095e+00 2.967795e+00 2.733537e+00 8.212404e-01 3.849644e+00 2.808402e+00 5.454860e-01 3.298672e+00 1.153855e+01 7.849328e+00 7.632560e+00 3.295761e-02 -1.021088e-01 4.126315e-01 1.038096e+00 7.557856e-01 9.495225e-01 1.814492e-02 -1.473419e-01 1.512441e-01 -5.077103e-01 1.356343e-01 7.480608e-01 -1.699726e-01 -9.322184e-03 
-8.902494e+00 2.394703e+00 5.191170e+00 3.212916e+00 4.294798e+00 1.628319e+00 3.660541e+00 3.756783e+00 1.657539e+00 1.016210e+01 9.183067e+00 6.708039e+00 -1.239169e-02 -1.309940e-01 1.780901e-01 5.767187e-01 6.019378e-01 8.217875e-01 2.835448e-02 4.494060e-01 -1.115479e-01 -5.275692e-01 3.233919e-01 8.875338e-01 -7.340573e-02 -1.016930e-02 
-9.866167e+00 4.381949e+00 7.046586e+00 6.272776e+00 3.832074e+00 5.051031e+00 1.645623e+00 -3.039422e-01 1.580687e+00 1.290495e+01 1.092276e+01 7.244957e+00 9.021342e-03 1.224911e-01 3.208238e-01 1.244332e-01 1.882637e-01 6.013929e-01 -3.623234e-01 1.431183e+00 5.187237e-01 -8.263346e-01 2.388604e-01 5.205844e-01 9.016458e-01 -5.567372e-03 
-9.528757e+00 2.215619e+00 3.811994e+00 3.973607e+00 3.424761e+00 3.390723e+00 5.636822e+00 4.124608e-01 1.519819e+00 1.247231e+01 1.075028e+01 7.459332e+00 -5.920768e-03 1.013115e-01 2.893791e-01 -8.646675e-01 -1.223870e-01 -5.737101e-01 -5.719988e-01 9.531204e-01 1.156087e+00 -1.243679e-01 3.100666e-01 1.191398e-01 1.056584e+00 1.840925e-02 
-8.278994e+00 4.037756e+00 4.279550e+00 3.294510e+00 4.263224e+00 1.156825e+00 8.976179e+00 4.811266e+00 -7.641408e-01 1.157775e+01 9.668644e+00 1.176514e+01 1.885295e-03 1.824745e-01 3.382377e-02 -4.543177e-01 -7.404838e-01 -7.993984e-03 -8.066700e-01 1.011861e+00 1.820797e+00 8.722741e-01 -1.128972e-01 -4.305120e-01 7.777557e-01 8.927232e-03 
-9.189524e+00 4.013695e+00 2.251351e+00 4.090114e+00 1.210672e+00 7.154278e-01 4.760865e+00 6.979616e+00 2.208114e+00 1.237603e+01 1.040583e+01 9.730867e+00 8.322257e-02 1.520388e-01 8.443671e-01 1.071284e+00 1.625216e-01 -4.261786e-02 1.985471e-01 2.513414e-01 1.236972e+00 4.956550e-01 -2.889642e-01 -3.516123e-01 1.116578e+00 9.616798e-03 
-9.123411e+00 3.652030e+00 5.555319e+00 2.512103e+00 4.899148e+00 2.355328e+00 7.142905e+00 5.516462e+00 5.597910e+00 1.238860e+01 8.942429e+00 9.997969e+00 9.085834e-03 -2.393426e-01 2.466137e-01 6.522464e-01 -4.562070e-02 5.031004e-01 4.186577e-01 -3.810952e-01 -9.383554e-01 1.959732e-01 -6.292824e-01 -7.760929e-01 1.094071e+00 -1.756203e-03 
-8.346355e+00 6.630317e+00 8.530530e+00 5.177419e+00 2.893709e+00 3.784206e+00 7.810165e+00 6.244721e+00 8.170682e-01 1.062206e+01 9.355326e+00 1.392581e+01 3.856295e-02 -2.129036e-01 -6.785452e-02 7.567809e-01 -7.509660e-01 3.841328e-01 8.891875e-03 -5.581584e-02 -1.897026e+00 -3.542409e-01 -1.777750e+00 -1.230891e+00 -6.966338e-02 -1.715631e-02 
-9.897291e+00 3.962513e+00 4.401191e+00 2.522754e+00 5.937207e+00 1.715724e+00 5.546053e+00 4.869359e-01 9.112480e-01 9.308319e+00 6.313429e+00 1.513803e+01 1.543409e-02 1.739707e-01 -8.058641e-02 -6.082495e-01 -8.417233e-01 -1.398149e-01 1.552042e-01 -6.383432e-01 -1.675498e+00 -3.260426e-01 -1.395248e+00 -9.189041e-01 -2.522019e-01 -2.611834e-03 
-9.867102e+00 3.519181e+00 6.612319e+00 3.299580e-01 2.612307e+00 1.079689e+00 5.280212e+00 9.249449e-03 2.780240e+00 5.027422e+00 5.565873e+00 6.812522e+00 -5.733132e-03 1.133855e-01 -6.458133e-01 -8.303072e-01 -9.012417e-01 -4.387301e-01 -3.053963e-01 -3.777522e-01 -9.817235e-01 6.156687e-01 -3.558215e-01 -3.660851e-01 -1.399274e+00 -6.644809e-03 
-7.493185e+00 4.804666e+00 3.473177e+00 7.272177e-01 4.340775e+00 4.483608e+00 5.216166e+00 2.567080e-01 2.986112e+00 8.209681e+00 6.242634e+00 1.229360e+01 1.817471e-02 6.163499e-01 -1.714732e-01 -9.874271e-01 1.249815e-01 -9.866151e-01 9.856910e-02 -6.269212e-01 1.374293e+00 1.380621e+00 1.456194e+00 2.037708e-01 -1.873571e+00 3.778171e-03 
-8.981482e+00 2.980174e+00 4.843001e+00 1.568978e+00 1.498275e+00 8.732830e-01 6.086348e+00 1.451217e+00 2.857980e+00 9.392277e+00 7.560298e+00 8.351652e+00 3.968596e-03 2.830749e-01 9.303475e-03 -1.291181e+00 3.654024e-01 4.686658e-01 5.858438e-01 7.780647e-03 6.491297e-01 3.239251e-01 1.827444e+00 -5.289637e-01 -1.060107e+00 2.356112e-03 
-7.258353e+00 3.374650e+00 3.487148e-01 2.528152e+00 1.561148e+00 2.311773e+00 2.008379e+00 6.637418e+00 7.775484e+00 1.440686e+01 6.335071e+00 5.000607e+00 2.947408e-02 -2.339049e-01 -2.333760e-02 -2.138069e-01 -2.915115e-01 6.172323e-03 -6.717798e-01 -3.053316e-01 1.691013e-01 2.973772e-01 5.429422e-01 -7.338704e-01 -1.165830e+00 -3.439087e-03 
-8.569143e+00 4.280706e+00 1.718644e+00 1.256503e+00 6.345450e+00 5.094826e+00 6.923008e+00 6.454289e-02 2.005179e+00 1.106605e+01 2.874836e+00 5.158488e+00 3.977418e-04 -4.355373e-02 1.773706e-02 4.044451e-01 -5.773528e-01 -1.096776e+00 -1.470616e+00 -1.093802e+00 -9.413803e-01 -4.732273e-01 -1.036608e+00 -8.912188e-01 9.508064e-01 1.884037e-03 
-8.868877e+00 4.037712e+00 3.966321e+00 -5.741022e-01 1.948050e+00 -9.860625e-01 3.271178e+00 1.795552e+00 4.899398e+00 1.008750e+01 4.916013e+00 8.061035e+00 2.764702e-03 4.748647e-01 2.442928e-01 1.756572e+00 1.603679e-01 -1.867636e+00 -2.468061e+00 -2.184115e+00 -2.875717e+00 -3.218169e+00 -3.548533e+00 -5.416877e-01 1.374921e+00 6.217313e-03 
-8.393988e+00 2.737329e+00 5.056423e+00 2.333409e-01 -4.179053e+00 -4.830877e+00 -1.406145e-02 -8.347511e-01 1.929886e+00 6.368915e+00 3.813733e+00 1.157547e+01 2.674347e-02 2.525033e+00 1.219239e+00 1.712017e+00 -3.677360e-01 -3.188472e+00 -3.457779e+00 -4.567309e+00 -3.396705e+00 -3.243173e+00 -3.761971e+00 -1.340094e+00 -4.968841e-01 5.669044e-02 
-4.971608e+00 5.367803e+00 7.462685e+00 3.841572e+00 -2.514784e+00 -5.065682e+00 -5.443660e+00 -7.291519e+00 -8.277713e+00 -9.872332e-01 3.157184e+00 8.666721e+00 4.738778e-02 4.214380e+00 2.928705e+00 1.783781e-01 -2.100259e+00 -2.862098e+00 -3.568479e+00 -4.314374e+00 -3.392860e+00 -4.011033e+00 -4.671455e+00 -2.886366e+00 -3.326502e+00 1.174370e-01 
2.107384e+00 9.711855e+00 8.530548e+00 -2.790015e+00 -7.365493e+00 -1.015426e+01 -1.155612e+01 -1.237545e+01 -7.622130e+00 -2.206433e+00 -2.946221e+00 2.371224e+00 2.615384e-01 4.286189e+00 3.284717e+00 -4.049493e-01 -3.373237e+00 -2.040463e+00 -2.303899e+00 -2.866746e+00 -1.846575e+00 -2.456008e+00 -2.989950e+00 -2.738747e+00 -5.273318e+00 1.315585e-01 
6.952336e+00 1.519397e+01 3.121150e+00 -9.563718e+00 -1.076922e+01 -1.616676e+01 -1.252966e+01 -9.398398e+00 -1.037976e+01 -8.982100e+00 -6.135842e+00 -3.969352e+00 4.725522e-01 2.908921e+00 2.335210e+00 -4.718355e-01 -2.449369e+00 -1.813843e+00 -6.493667e-01 2.723736e-01 -6.421183e-01 -1.131348e+00 -6.423182e-01 -2.084951e+00 -3.831756e+00 1.051157e-01 
7.074983e+00 1.424783e+01 5.202444e+00 -9.930200e+00 -1.025415e+01 -1.079983e+01 -1.080479e+01 -9.014189e+00 -9.299134e+00 -4.583401e+00 -5.233491e+00 -8.473082e+00 4.719539e-01 1.196754e+00 9.303097e-01 -5.750400e-01 3.379413e-01 -4.524859e-01 8.115056e-01 1.729301e+00 -7.116680e-02 -7.125316e-01 5.622217e-01 -4.042881e-01 -2.264726e+00 4.280200e-02 
7.089195e+00 1.477587e+01 6.767559e+00 -4.835181e+00 -1.013967e+01 -7.989731e+00 -4.457458e+00 -1.218274e+01 -1.309595e+01 -3.010340e+00 -6.123934e+00 -5.069907e+00 4.677585e-01 5.100580e-01 2.111833e-01 1.938879e-01 1.360399e+00 -8.207493e-02 1.854214e+00 1.218377e+00 -1.226242e+00 7.710735e-01 1.734684e+00 5.461146e-01 -1.807847e-01 8.305943e-03 
8.022722e+00 1.457246e+01 3.832143e+00 -3.464576e+00 -9.942697e+00 -1.018525e+01 -6.945715e+00 -1.133911e+01 -9.826691e+00 -2.381204e+00 -4.973615e+00 -8.402130e+00 4.779452e-01 8.775770e-01 6.039926e-01 -1.038858e+00 -5.878482e-02 -5.181936e-01 -4.820085e-01 -9.392939e-02 -3.094481e-01 8.403341e-01 6.811377e-01 1.379664e+00 6.418126e-01 2.528156e-02 
9.028757e+00 1.608758e+01 4.775740e+00 -5.994536e+00 -1.133532e+01 -7.202985e+00 -8.367317e+00 -1.436715e+01 -6.260612e+00 -1.409776e+00 -3.535207e+00 -4.908752e+00 5.110862e-01 1.460473e+00 4.547071e-02 -1.776947e+00 -1.348323e+00 -3.638183e-01 -7.312875e-01 -1.714065e+00 2.153392e+00 3.169488e+00 6.950961e-01 2.849854e+00 7.713627e-01 5.358545e-02 
1.049309e+01 1.661194e+01 1.004065e+00 -9.644446e+00 -1.224729e+01 -1.360324e+01 -9.319506e+00 -9.469225e+00 -8.515134e+00 -1.977994e+00 3.704629e-01 -5.344596e+00 5.766978e-01 1.638044e+00 -5.169708e-01 -1.976502e+00 -1.965513e+00 -1.162900e+00 8.010721e-01 -1.226359e+00 2.298972e+00 3.553525e+00 6.352981e-01 3.653688e+00 1.206452e+00 8.281273e-02 
1.315638e+01 1.398348e+01 -7.031388e-01 -8.486860e+00 -1.080647e+01 -9.937170e+00 -1.184089e+01 -2.350720e+00 2.095708e+00 2.635355e-01 5.453294e+00 -2.741860e+00 6.863095e-01 1.167578e+00 -1.960033e+00 -2.267210e+00 -1.863873e+00 -1.461645e+00 2.318894e+00 -8.287951e-01 1.517436e+00 1.795539e+00 -6.296615e-01 4.065059e+00 1.192636e+00 9.327812e-02 
1.414913e+01 1.303965e+01 -3.310926e+00 -1.204598e+01 -1.602162e+01 -4.812795e+00 -1.134073e+01 -5.852464e+00 3.762773e+00 -4.136944e-02 8.800576e+00 -3.453316e+00 8.043972e-01 4.356572e-01 -2.674100e+00 -2.440115e+00 -1.535241e+00 -9.603012e-01 4.858241e+00 5.306715e-01 2.461043e-01 2.950150e-01 -2.008621e+00 2.596981e+00 8.011090e-01 7.334359e-02 
1.303862e+01 8.073555e+00 -4.402818e+00 -1.411314e+01 -1.675638e+01 -3.741503e-03 -1.150068e+01 -8.588348e+00 -3.421868e+00 -5.526396e+00 1.257503e+01 1.087890e-01 8.636271e-01 -4.986847e-01 -3.195769e+00 -2.658147e+00 -1.030222e+00 -5.622606e-01 5.331861e+00 2.052219e+00 -1.168515e+00 -2.032854e+00 -3.234070e+00 1.859090e+00 -7.462149e-01 4.424596e-02 
1.273025e+01 6.196400e+00 -9.346670e+00 -1.450751e+01 -1.407384e+01 5.721242e+00 -6.836251e+00 -5.119889e+00 -4.281270e+00 -9.126135e+00 9.794497e+00 -2.764376e+00 8.547570e-01 -1.117320e+00 -3.719468e+00 -2.546490e+00 -9.540749e-02 1.006582e+00 3.902573e+00 1.143823e+00 -9.372069e-01 -1.966628e+00 -2.435780e+00 7.679790e-01 -2.113233e+00 1.924829e-02 
1.137239e+01 1.426260e+00 -1.097600e+01 -1.240720e+01 -1.459166e+01 1.145511e+01 -3.832031e+00 -8.559584e+00 -4.046540e+00 -1.136443e+01 1.425178e+01 -6.817404e+00 8.823594e-01 -1.098993e+00 -3.238891e+00 -2.155385e+00 2.016832e-01 1.823084e+00 2.778740e+00 -2.233690e-01 -1.412599e+00 -4.617606e-01 -5.819845e-02 4.084741e-01 -3.525630e+00 2.805216e-02 
9.395647e+00 -2.234044e+00 -1.275679e+01 -1.337598e+01 -1.207108e+01 8.970640e+00 -9.455938e+00 -1.055288e+01 -5.758032e+00 -9.301250e+00 1.180210e+01 -1.055638e+01 8.912725e-01 -1.014056e+00 -2.747634e+00 -1.481128e+00 9.408145e-01 2.138393e+00 1.261431e+00 -1.393225e+00 -1.817460e+00 6.342729e-01 1.368773e+00 1.099777e-01 -2.795913e+00 3.542267e-02 
9.210960e+00 -3.905677e+00 -1.347469e+01 -1.367049e+01 -8.642344e+00 1.226526e+01 -1.130768e+01 -1.293485e+01 -4.992290e+00 -5.729831e+00 1.361360e+01 -1.362336e+01 9.856302e-01 -6.298808e-01 -1.309955e+00 -9.070013e-01 1.614573e+00 2.918939e+00 6.904567e-01 -1.474449e+00 3.247804e-01 2.545868e+00 1.353429e+00 -6.592184e-01 -1.728154e+00 2.247500e-02 
8.740688e+00 -4.875803e+00 -1.550297e+01 -9.171800e+00 -6.356533e+00 1.162332e+01 -1.006455e+01 -1.201956e+01 -6.370308e-01 -5.099569e+00 1.066348e+01 -1.334097e+01 9.802349e-01 -4.189108e-01 -5.753810e-01 -2.851200e-01 1.829182e+00 2.756692e+00 6.758331e-01 -4.243647e-01 1.071179e+00 3.265989e+00 4.437378e-01 -9.233564e-01 -1.840688e+00 1.065047e-02 
8.550469e+00 -3.802637e+00 -1.413792e+01 -6.436431e+00 -2.854237e+00 1.358106e+01 -1.089997e+01 -6.202342e+00 6.122300e+00 -6.698129e+00 1.152500e+01 -1.406588e+01 9.502532e-01 -5.178818e-01 -7.098484e-01 -2.277451e-02 1.053109e+00 2.227641e+00 -2.119197e-01 -1.456116e+00 1.140995e+00 2.229298e+00 -6.687602e-01 -2.295586e+00 -1.494307e+00 -1.836008e-03 
7.631338e+00 -5.162469e+00 -1.385077e+01 -7.847101e+00 -1.181668e+00 1.169191e+01 -1.178162e+01 -8.563237e+00 5.014619e+00 -6.598412e+00 8.229614e+00 -1.953856e+01 9.622134e-01 -5.143490e-01 -1.082121e+00 3.793163e-02 4.589347e-01 1.088812e+00 -5.906211e-01 -1.845752e+00 -2.614623e-01 9.761043e-01 -1.543447e+00 -2.807959e+00 -9.362026e-01 -2.978265e-04 
7.176226e+00 -7.311586e+00 -1.441466e+01 -9.067289e+00 -9.157324e-02 1.117137e+01 -1.772973e+01 -8.958035e+00 3.328376e+00 -8.324211e+00 3.352605e+00 -1.799610e+01 9.854609e-01 -2.586022e-01 -1.249780e+00 7.095814e-02 9.667791e-01 4.741357e-01 -1.176281e+00 -7.179928e-01 -6.033916e-01 4.660559e-01 -1.654316e+00 -3.172783e+00 1.174090e+00 -5.372012e-03 
6.856065e+00 -8.531931e+00 -1.517494e+01 -5.561697e+00 -2.293803e+00 9.875061e+00 -1.587844e+01 -1.194903e+01 5.640452e+00 -1.200377e+01 7.098765e-01 -1.605687e+01 9.611419e-01 -2.663111e-01 -1.160858e+00 -9.118881e-02 1.489217e+00 1.245320e-01 -2.357625e+00 4.332077e-01 2.948974e-01 -3.010139e-01 -1.897006e+00 -2.748263e+00 1.973628e+00 -1.340959e-02 
7.645095e+00 -8.366806e+00 -1.312104e+01 -2.745238e+00 7.250977e-02 8.608075e+00 -1.244153e+01 -7.526406e+00 8.139663e+00 -1.226703e+01 -5.790448e-01 -9.936274e+00 9.239289e-01 -5.692961e-01 -9.602828e-01 4.214390e-01 1.559073e+00 -1.685104e-02 -2.608564e+00 1.995007e+00 1.649452e-01 -2.705454e-01 -6.391867e-01 -2.668173e+00 1.809071e+00 -9.630060e-03 
6.065348e+00 -1.043915e+01 -1.495352e+01 -3.562040e+00 -6.410494e-01 1.185433e+00 -1.225968e+01 -7.804564e+00 1.103906e+00 -1.411203e+01 -3.545873e+00 -1.370033e+01 9.259315e-01 -9.202845e-01 -8.796279e-01 1.527583e+00 1.278352e+00 7.139649e-01 -1.414740e+00 1.806501e+00 1.360346e+00 4.295912e-02 1.177028e+00 -1.767686e+00 1.823124e+00 9.734887e-03 
4.725103e+00 -1.115939e+01 -1.241817e+01 -2.271752e+00 -1.002205e+00 2.473364e+00 -9.564074e+00 -1.020554e+01 4.243922e+00 -1.046601e+01 -7.860386e+00 -1.012901e+01 9.549158e-01 -1.656201e+00 -7.506111e-01 1.778870e+00 1.228124e+00 -5.872531e-02 -5.058174e-01 9.948903e-01 1.035775e+00 2.812560e-01 1.345426e+00 -1.203481e+00 1.021646e+00 2.071352e-02 
3.714638e+00 -1.153378e+01 -7.888462e+00 5.933198e-01 1.813379e+00 5.868715e+00 -8.284657e+00 -3.807731e+00 7.803119e+00 -7.019135e+00 -4.487883e+00 -6.844884e+00 9.943229e-01 -1.804315e+00 -2.353881e-01 2.141125e+00 1.608115e+00 -6.650116e-01 2.084257e-01 9.473818e-01 1.578003e+00 9.878496e-01 1.204527e+00 -5.106474e-01 1.426323e+00 1.563885e-02 
5.394454e-01 -1.157255e+01 -7.759224e+00 1.317701e+00 -1.448331e+00 3.737347e+00 -9.454588e+00 -4.345950e+00 6.196337e+00 -9.086353e+00 -6.125443e+00 -8.255764e+00 9.933007e-01 -1.543428e+00 -1.384411e-02 1.677079e+00 1.438771e+00 -1.218311e+00 -1.057378e+00 5.673897e-01 2.210669e+00 4.007234e-02 2.999013e-01 -3.419863e-01 6.359833e-01 8.077872e-03 
-8.633981e-01 -1.140951e+01 -6.577367e+00 2.683808e+00 -3.743045e+00 1.595570e+00 -7.577513e+00 -2.844342e+00 5.066947e+00 -8.779226e+00 -6.966582e+00 -7.505338e+00 9.849333e-01 -5.993235e-01 3.135982e-01 1.318353e+00 9.832447e-01 -1.560100e+00 -2.166725e+00 5.131526e-01 1.868345e+00 -5.440475e-01 3.421062e-01 -8.806580e-01 3.130589e-01 -9.194905e-03 
-7.030196e-01 -1.129074e+01 -4.688321e+00 3.876858e+00 -4.315550e+00 -6.769526e-01 -7.080697e+00 3.661116e-01 5.812370e+00 -8.086458e+00 -8.330969e+00 -6.618869e+00 1.000000e+00 7.931901e-01 4.240733e-01 1.620903e+00 1.074299e-01 -1.168539e+00 -2.597312e+00 7.906904e-02 2.209365e+00 -1.044189e+00 1.021406e+00 9.499206e-02 -1.806551e-01 -3.744910e-02 
1.339253e+00 -1.010669e+01 -2.832150e+00 4.229965e+00 -4.553514e+00 -2.757762e+00 -6.905839e+00 3.177961e+00 5.274864e+00 -5.808551e+00 -7.788411e+00 -6.098037e+00 9.449987e-01 2.027565e+00 8.386917e-01 2.688790e+00 4.326556e-01 -1.635597e+00 -2.354223e+00 9.406837e-01 1.349981e-02 -2.724511e+00 2.006795e+00 1.159471e+00 -3.243172e-01 -8.415409e-02 
3.404071e+00 -1.010359e+01 -1.527318e+00 1.081772e+00 -6.885791e+00 -7.072547e+00 -9.395079e+00 3.689725e+00 8.714346e-01 -5.464662e+00 -5.239568e+00 -9.862690e+00 8.260225e-01 2.252458e+00 1.448676e+00 3.508268e+00 1.190522e+00 -1.976893e+00 -1.727127e+00 3.049683e+00 -3.176783e+00 -4.657842e+00 1.211188e+00 1.559302e+00 1.424058e+00 -1.026697e-01 
7.220881e+00 -7.809629e+00 5.286082e+00 6.244630e+00 -1.063591e+01 -6.977749e+00 -1.716903e+00 -4.438650e+00 -6.085138e+00 -5.615044e-02 -2.714928e+00 -7.505014e+00 6.511515e-01 1.797110e+00 1.421411e+00 3.201860e+00 1.475396e+00 -1.774579e+00 -1.083034e+00 4.390764e+00 -4.696020e+00 -5.223197e+00 3.537523e-01 4.747848e-01 2.969328e+00 -8.653081e-02 
7.618458e+00 -5.195895e+00 8.793900e+00 8.822138e+00 -1.115882e+01 -7.202594e+00 5.573252e+00 -1.170950e+01 -1.179683e+01 -4.906719e+00 -3.071198e+00 1.204909e+00 6.335751e-01 1.202484e+00 1.449603e+00 2.480882e+00 1.368210e+00 -8.738972e-01 -4.811495e-01 5.062886e+00 -3.783136e+00 -3.932988e+00 3.866228e-01 -2.836759e-01 4.313776e+00 -5.256855e-02 
8.217608e+00 -5.453485e+00 8.016543e+00 7.736760e+00 -1.128990e+01 -8.107910e+00 7.563815e+00 -1.260253e+01 -1.450699e+01 -4.318761e+00 -6.498672e+00 3.214803e+00 6.085684e-01 8.129078e-01 1.549103e+00 3.662903e-01 3.185535e-01 8.832491e-01 -3.450421e-01 2.463577e+00 -4.815702e-01 -5.261292e-01 3.769763e-01 -4.254865e-01 3.223127e+00 -3.050790e-02 
8.918129e+00 -4.033648e+00 9.511864e+00 7.176757e+00 -1.092828e+01 -8.913214e+00 1.127899e+01 -1.114402e+01 -1.458258e+01 -1.400242e+00 -4.766076e+00 6.346279e+00 5.844713e-01 5.871654e-01 1.305911e+00 -5.156589e-01 8.900309e-03 9.809707e-01 -3.076220e-01 9.027423e-01 1.213242e+00 1.628832e+00 9.735245e-01 -4.533691e-01 9.244899e-01 -3.700474e-02 
1.063558e+01 -6.452383e-01 6.758553e+00 8.660088e+00 -6.334931e+00 -7.847650e+00 7.748109e+00 -7.129242e+00 -7.322913e+00 7.549286e-02 -3.994921e+00 6.039935e+00 5.231639e-01 -6.707289e-02 1.548579e+00 -1.326616e-02 2.782143e-01 6.301416e-01 2.424368e-01 3.662456e-01 1.755414e+00 1.230441e+00 2.425924e-01 3.557324e-01 -9.279775e-03 -4.843977e-02 
9.345297e+00 -1.070461e+00 6.844602e+00 8.404976e+00 -8.731447e+00 -8.870834e+00 9.994816e+00 -8.379929e+00 -7.244713e+00 -2.236224e+00 -6.589919e+00 4.414792e+00 4.912537e-01 -4.745739e-01 1.206144e+00 3.903371e-01 -6.749711e-02 3.239439e-01 1.194034e+00 -9.856496e-02 1.514996e+00 -9.012222e-04 -7.683200e-01 -1.277805e-01 -6.053420e-01 -4.087815e-02 
7.668660e+00 8.078182e-01 9.283843e+00 8.513722e+00 -9.237607e+00 -6.916916e+00 1.003713e+01 -5.207500e+00 -1.202372e+01 -2.687809e+00 -3.808089e+00 4.134148e+00 4.129784e-01 -5.828316e-01 1.030916e+00 8.297702e-01 -6.027048e-01 -1.942583e-01 1.102072e+00 5.391140e-01 2.314250e-01 -1.539382e+00 -1.296625e+00 8.670425e-02 9.815432e-02 -2.167068e-02 
8.028722e+00 1.270546e+00 1.020090e+01 6.912454e+00 -7.857225e+00 -3.408411e+00 9.641658e+00 -4.529904e+00 -1.223668e+01 -3.860192e+00 -5.498394e+00 4.272463e+00 4.351734e-01 -3.865221e-01 1.676266e+00 3.127860e-02 -1.038202e+00 1.439178e-01 1.282512e+00 1.604438e-01 -2.717152e-01 -1.047486e+00 -1.494078e+00 9.330626e-02 -4.010737e-02 -6.737244e-03 
8.379714e+00 3.338840e+00 9.229252e+00 6.392824e+00 -7.743334e+00 -5.068501e+00 1.062026e+01 -7.897129e+00 -1.252384e+01 -5.595650e+00 -4.107162e+00 6.601871e+00 4.428506e-01 -5.299190e-01 9.915732e-01 -5.938319e-01 -1.556738e+00 -4.465155e-01 6.014593e-01 -9.781066e-01 -1.120682e+00 -1.199266e+00 -3.001135e+00 -1.037469e+00 -1.056556e+00 1.278415e-02 
7.057159e+00 6.045359e+00 7.028291e+00 4.274416e+00 -8.758995e+00 -3.382483e+00 1.050547e+01 -8.393690e+00 -1.223208e+01 -8.252693e+00 -5.973851e+00 2.980393e+00 4.426313e-01 -1.180695e+00 2.638681e-01 6.052073e-01 2.813829e-01 -7.715966e-01 -2.728150e-01 -2.469008e+00 -1.447947e+00 -1.435153e+00 -3.020408e+00 -1.640948e+00 -2.544235e+00 4.588383e-03 
5.504847e+00 3.378278e+00 7.900990e+00 2.049054e+00 -1.101930e+01 -3.922583e+00 4.714692e+00 -8.879016e+00 -1.802235e+01 -1.549723e+01 -8.757708e+00 -5.025988e-01 4.731702e-01 -2.291276e+00 4.348646e-01 1.236246e+00 1.107508e+00 2.122764e+00 -1.051971e+00 -1.715550e+00 -4.828416e-01 -3.676414e-01 -1.442843e+00 -2.619105e+00 -2.887528e+00 -1.482334e-02 
3.562681e+00 2.570167e+00 1.389107e+01 1.049125e+01 -1.007723e+01 -5.345445e+00 2.493997e-01 -1.127870e+01 -1.666319e+01 -1.401144e+01 -1.137786e+01 -4.896478e+00 4.429556e-01 -3.272169e+00 2.864207e-01 -4.594011e-01 -8.112189e-01 4.563016e+00 -1.751793e+00 -8.515110e-01 1.722905e+00 2.254585e+00 1.352950e+00 -5.786330e-01 -1.387530e+00 -1.827393e-02 
-1.329426e+00 7.250759e+00 1.197909e+01 8.821945e+00 3.529602e+00 -9.346876e+00 7.170545e+00 -8.868834e+00 -1.214649e+01 -9.930490e+00 -1.450068e+01 -3.897333e+00 3.685718e-01 -2.835122e+00 -1.545179e+00 -2.157579e+00 -2.843869e+00 5.318147e+00 -1.073765e+00 -1.413970e-01 7.043855e+00 5.370313e+00 2.471918e+00 -7.534504e-02 -2.024055e-01 -2.942022e-02 
-5.886549e+00 5.541222e+00 2.692233e+00 -3.168124e+00 6.781637e+00 -9.429300e+00 5.019990e+00 2.157409e-01 -3.897081e+00 -4.271315e+00 -5.995528e+00 -2.259888e+00 4.035608e-01 -2.371247e+00 -3.632261e+00 -3.538113e+00 -4.802752e+00 3.985331e+00 8.168815e-01 2.655147e-01 1.038020e+01 7.388843e+00 2.655240e+00 9.070002e-01 1.252664e+00 -2.439803e-02 
-3.946149e+00 -5.833147e+00 2.712515e+00 -5.340602e+00 7.142002e+00 -7.249482e+00 1.622412e+00 2.059304e+01 2.446163e+00 -8.007706e+00 -1.182560e+01 -2.832922e+00 3.457664e-01 -1.179932e+00 -4.580324e+00 -2.484143e+00 -2.525033e+00 1.978625e+00 2.368131e+00 -1.192779e+00 7.715121e+00 4.646580e+00 1.566872e+00 1.666308e+00 2.310395e+00 -2.651596e-02 
-6.985194e+00 -9.049183e+00 8.337946e-01 -6.441229e+00 8.043226e+00 -2.309734e+00 4.351039e+00 2.589136e+01 1.298469e+01 -1.696634e+00 -8.180401e+00 8.346348e-01 3.323681e-01 -1.448363e-01 -2.750316e+00 -2.908052e-01 5.366416e-01 1.284517e+00 1.369498e+00 -1.363324e+00 3.487469e+00 1.333687e+00 8.188714e-01 1.311152e+00 1.382479e+00 -3.826306e-02 
-6.679764e+00 -8.355659e+00 4.875965e-01 -2.166664e+00 1.279193e+01 -1.066002e+00 1.541123e+00 1.686896e+01 2.645520e+00 -3.383472e+00 -5.076706e+00 6.107380e+00 2.715884e-01 8.325978e-02 -6.657934e-02 -3.806419e-01 1.020484e+00 7.900993e-01 3.195122e-01 -1.461017e+00 -1.930939e+00 -2.820083e-01 1.369648e+00 1.599679e+00 6.843942e-01 -3.064697e-02 
-5.243924e+00 -6.949101e+00 2.350666e+00 -2.071885e+00 1.037926e+01 -5.673550e+00 -1.755986e+00 1.951513e+01 2.671677e+00 -2.489075e+00 -2.814216e+00 1.823568e-01 2.493345e-01 6.282216e-01 7.518985e-01 1.777544e-01 1.303432e+00 -1.694500e-01 -4.964313e-01 -1.580194e+00 -2.946508e+00 -1.563876e+00 4.850832e-01 1.037635e+00 -1.995034e-02 -3.453172e-02 
-4.400486e+00 -7.216084e+00 5.086946e-02 -2.422852e+00 9.924482e+00 -3.970013e+00 -2.629159e+00 1.412646e+01 6.192630e+00 -7.632470e-01 -6.510298e+00 9.151888e-01 2.340484e-01 8.865167e-01 4.733566e-01 -9.030933e-01 1.094103e+00 -5.048062e-01 -2.889302e-01 7.284135e-01 -1.106250e+00 6.549778e-01 4.754495e-01 2.089734e-01 -1.116338e+00 -2.568735e-02 
-4.983725e+00 -5.859478e+00 1.940930e+00 2.040241e-01 8.629701e+00 -3.339885e+00 -1.464789e+00 1.253007e+01 3.391759e+00 -5.813303e-01 -2.275429e+00 3.330979e+00 1.784795e-01 1.966371e-01 3.031588e-01 -1.405923e+00 1.380712e+00 -7.152871e-01 8.543955e-01 1.065969e+00 -2.073160e+00 4.175174e-01 -1.801987e-01 -1.666555e-02 5.675160e-01 -2.948487e-02 
-2.377280e+00 -6.533688e+00 -3.823002e+00 2.165895e+00 1.114268e+01 -3.677485e+00 5.037592e+00 1.483024e+01 5.560368e+00 -1.960097e+00 -4.301233e+00 -1.048620e+00 1.785792e-01 -1.167522e-01 3.129297e-01 -1.558382e+00 4.639463e-01 -1.151364e+00 -3.989172e-01 1.054316e+00 -5.843555e-01 -1.019485e-01 5.609955e-01 9.770603e-01 1.055858e+00 -2.422806e-02 
-5.272341e+00 -5.774506e+00 -2.742016e+00 2.537303e+00 6.193726e+00 -1.547837e+00 -2.595158e-01 8.797435e+00 5.075395e+00 -2.791644e+00 -4.002077e+00 4.001841e+00 1.296448e-01 -2.278283e-01 9.981165e-02 -1.041832e+00 1.518756e-01 -6.663162e-01 -2.221911e-01 6.719718e-01 -5.123409e-01 8.112015e-01 8.780645e-01 -4.668463e-01 2.461803e-01 -1.012632e-02 
-4.839939e+00 -5.693922e+00 -5.399568e+00 -1.269759e+00 5.385651e+00 -6.860623e+00 2.039785e+00 1.307100e+01 4.841070e+00 3.146887e+00 -7.616730e-01 5.859049e+00 1.373255e-01 -4.035605e-01 3.831964e-01 2.616064e-01 -4.776477e-01 -3.332993e-01 7.848147e-01 -8.808541e-02 -8.270884e-01 9.813747e-01 1.811880e+00 -3.006242e-01 -2.348218e-01 -9.556132e-03 
-4.891537e+00 -5.780302e+00 -2.479948e+00 2.681230e+00 8.176633e+00 -2.859271e+00 3.393974e+00 1.084799e+01 7.807416e+00 1.255500e+00 -6.379441e+00 1.108046e+00 1.484748e-01 -1.019602e-02 5.856544e-01 -2.420435e-02 -2.444113e-01 1.713339e+00 1.335290e+00 8.148762e-01 -1.807342e-01 3.643913e-01 1.669128e+00 -2.782303e-01 -1.665535e+00 -5.340802e-03 
-4.585484e+00 -4.614807e+00 -2.646004e+00 -2.943072e-01 8.484728e+00 9.023058e-01 2.770421e+00 9.669523e+00 9.101231e+00 5.075730e+00 -4.615672e+00 -7.758317e-01 1.213835e-01 -4.357243e-02 6.570418e-01 4.848537e-01 4.574187e-01 1.262827e+00 2.015336e+00 4.603561e-01 -8.560137e-01 -6.068979e-01 -4.901841e-02 -1.478935e+00 -1.676182e+00 -9.301824e-03 
-5.450549e+00 -3.385791e+00 -4.239820e+00 8.275201e-01 1.321088e+01 1.247148e+00 3.449548e+00 9.594501e+00 4.767271e+00 4.589576e+00 -3.466229e+00 -1.008393e+00 1.109117e-01 2.042646e-02 2.990217e-01 3.669792e-01 1.646847e-01 6.607968e-01 1.187637e+00 3.588220e-01 -2.594574e-01 -7.397431e-01 4.190817e-01 2.299528e-01 1.769920e-01 -1.180927e-02 
-4.778295e+00 -3.605968e+00 -2.095364e+00 1.944189e+00 9.182661e+00 1.162848e+00 4.313778e+00 9.417674e+00 3.326653e+00 1.234757e+00 -9.612953e+00 -1.463642e+00 1.095979e-01 3.326422e-01 1.993785e-01 3.909930e-01 1.483814e-01 3.225211e-01 7.161071e-01 2.394109e-01 -1.490032e+00 -6.422113e-01 -1.425208e-01 -4.485644e-01 1.122853e+00 -3.044731e-03 
-4.692999e+00 -4.789613e+00 -9.203720e-01 2.385405e+00 1.113165e+01 2.948642e+00 4.416405e+00 9.676626e+00 6.995990e+00 5.271395e+00 -2.731036e+00 2.336910e+00 9.532124e-02 5.006329e-01 -3.269486e-01 3.392572e-01 8.974542e-02 -5.834675e-01 1.099737e+00 -1.634227e-01 -1.402325e+00 2.695044e-01 -5.512986e-01 1.024136e-01 1.072496e+00 1.595020e-05 
-3.301048e+00 -2.916003e+00 -2.350762e+00 -3.313427e-01 1.113695e+01 3.632094e+00 3.484046e+00 2.178301e+00 4.775815e+00 4.022217e+00 -7.226090e+00 3.165782e+00 1.139551e-01 4.054311e-01 1.875362e-01 -8.833885e-04 2.414612e-01 4.932442e-01 8.791454e-01 -5.654801e-01 -9.297544e-01 9.423155e-01 1.306684e-01 -3.953985e-01 -4.336764e-01 1.128924e-03 
-3.686008e+00 -5.365516e+00 -2.415834e+00 2.414013e+00 9.316400e+00 5.511212e+00 3.047300e+00 6.202564e+00 5.390212e+00 4.393535e-01 -4.147593e+00 2.039372e+00 1.088129e-01 3.320794e-01 9.422802e-01 -3.766248e-01 4.851417e-01 1.736941e-01 2.954114e-01 -8.360285e-01 1.486466e-01 -1.084879e-01 -6.506262e-01 -1.137305e+00 -1.372047e+00 -1.652557e-03 
-3.254635e+00 -2.380336e+00 -1.352049e+00 3.137191e+00 1.255651e+01 4.277291e+00 2.170930e+00 6.505933e+00 8.841119e+00 4.304121e+00 -1.088167e+01 -3.483255e+00 1.084967e-01 -2.259247e-01 8.164284e-01 3.448429e-01 1.124938e+00 -2.265470e-01 -5.083519e-01 -4.078703e-02 1.262763e+00 -2.587121e-01 2.657685e-01 1.500530e+00 -6.604018e-02 -1.167372e-02 
-3.055809e+00 -3.460455e-01 -3.302853e+00 3.076847e+00 1.129034e+01 4.103101e+00 8.928204e-01 8.256042e+00 4.420898e+00 1.877312e+00 -6.589775e+00 -1.198806e+00 8.978766e-02 -3.553104e-01 6.673871e-01 5.205485e-01 2.032967e-01 -5.981030e-02 4.763846e-01 8.376268e-01 8.869956e-01 -1.436724e-01 2.318506e+00 3.346749e+00 1.325279e+00 -1.703165e-02 
-4.745771e+00 -1.343597e+00 -1.830387e-01 4.961928e+00 9.017242e+00 1.794390e+00 4.357351e+00 7.465379e+00 3.966912e+00 4.632080e+00 1.497652e+00 4.454671e+00 6.509906e-02 -4.689494e-01 2.613886e-01 9.971470e-01 3.880398e-02 1.285441e-01 7.903101e-01 8.164827e-01 1.057499e+00 -3.191932e-01 1.230993e+00 3.493942e+00 1.665186e+00 -2.212295e-02 
-4.716992e+00 -2.546950e+00 -3.975973e-01 2.518128e+00 1.078698e+01 9.134585e+00 6.142224e+00 1.015782e+01 7.108953e+00 1.186791e+01 6.396490e+00 4.696805e+00 4.535341e-02 -1.148396e-01 4.021450e-01 5.862166e-01 -3.642774e-02 -2.285259e-01 7.654327e-01 2.530169e-01 1.541266e-01 1.360517e+00 3.333599e-01 1.081240e+00 -6.768558e-02 -1.090440e-02 
-4.768791e+00 2.705920e-02 2.181058e+00 3.610570e+00 1.345091e+01 5.713099e+00 3.628642e+00 1.084254e+01 5.901125e+00 5.463790e+00 9.490585e-02 1.894869e+00 2.009904e-02 1.413065e-01 1.007087e+00 -2.361884e-02 -7.289955e-01 -4.493230e-01 6.315899e-01 5.510385e-01 -7.546280e-01 1.945715e-01 4.254867e-01 -6.376189e-01 -9.325966e-01 -2.835315e-03 
-3.618496e+00 9.793513e-01 -1.553818e+00 3.570387e+00 7.930879e+00 5.970910e+00 2.522259e+00 7.338096e+00 1.025638e+01 3.128257e+00 -4.822035e-01 -2.573333e-01 5.776566e-02 -3.750199e-01 1.460540e+00 -2.943124e-01 -4.873427e-01 -1.848243e+00 -3.581613e-01 3.532945e-01 -1.313915e+00 -1.443020e+00 2.217131e-01 5.272088e-01 8.974039e-01 1.129549e-02 
-4.588486e+00 1.928688e+00 2.769775e-01 7.908207e-01 8.198679e+00 6.534177e+00 8.922525e+00 5.102100e+00 3.366057e+00 1.112934e+01 1.748904e+00 2.268757e+00 4.471636e-02 -4.707662e-01 4.844310e-01 -2.416264e-01 -2.228212e-01 -1.923231e+00 2.735266e-01 1.254750e+00 -1.390803e+00 -1.450497e+00 1.330867e+00 2.102557e+00 1.023641e+00 8.539403e-03 
-6.682244e+00 3.804936e+00 -9.171190e-01 1.491288e+00 4.171878e+00 6.933240e+00 5.261755e+00 6.458462e+00 1.161386e+00 1.014370e+01 8.205535e+00 8.996881e+00 8.952218e-02 -2.054228e-01 1.005539e-01 2.045405e-01 -2.156870e-02 -8.294681e-01 -6.831652e-01 4.631484e-01 -1.559571e+00 -1.940399e+00 4.112554e-01 3.203765e-01 1.385245e-01 -2.031124e-03 
-5.590748e+00 1.036422e+00 6.545763e-01 3.536013e+00 5.714255e+00 6.599567e+00 8.532644e+00 4.328341e+00 3.196138e+00 8.610403e+00 6.263823e+00 2.385968e+00 4.691780e-02 3.844781e-01 -1.300406e-01 -1.795885e-01 9.715785e-01 -4.763535e-01 -7.438852e-01 -1.894378e-01 -7.505635e-01 -6.774353e-01 -8.308053e-01 -6.965242e-01 -5.546740e-01 -4.076815e-03 
-4.144479e+00 1.928254e+00 -7.199149e-01 2.089947e+00 5.025750e+00 2.522389e+00 5.032942e+00 -7.287741e-02 6.393406e-01 6.444002e+00 -1.137780e+00 3.766837e-01 4.650933e-02 5.206441e-01 -2.739097e-01 1.437156e-01 8.523315e-01 5.428209e-01 5.291009e-03 1.021318e+00 -4.733958e-02 3.893287e-01 -1.551768e-01 -1.063400e+00 -1.141876e+00 -9.438229e-03 
-3.934978e+00 2.216826e+00 -7.195668e-01 5.349384e+00 5.389976e+00 5.020177e+00 8.089744e+00 4.614952e+00 2.399035e-01 8.825159e+00 2.937941e+00 3.805486e+00 4.583871e-02 -3.022031e-01 1.302004e-01 -4.238019e-01 -6.564081e-01 6.428455e-01 4.966950e-01 8.881060e-01 1.332762e+00 4.559614e-01 -2.065862e-01 8.619414e-02 1.473386e+00 -5.621743e-03 
-4.906909e+00 1.845185e+00 4.885306e-01 4.846261e+00 7.048123e+00 7.749390e+00 1.058979e+01 6.078458e+00 4.586147e+00 9.260435e+00 4.551476e+00 2.577742e+00 4.287058e-02 -7.937711e-01 -8.864602e-02 -4.046571e-01 -1.290183e+00 8.310412e-01 9.343670e-01 1.242862e+00 1.928026e+00 8.989041e-01 -3.205399e-01 1.088812e+00 2.139825e+00 -7.697201e-03 
-6.720549e+00 1.728958e+00 -2.068656e+00 -1.124184e+00 7.917296e+00 6.469542e+00 1.019475e+01 7.916484e+00 3.502542e+00 6.169254e+00 3.850165e+00 8.652369e+00 2.062845e-02 -7.384783e-01 -1.091964e-01 -5.255365e-01 -1.891758e+00 5.923814e-01 1.618881e-01 3.814965e-01 8.441089e-01 5.441672e-01 -8.402990e-01 1.123137e-01 1.576839e+00 -7.266265e-03 
