1.847537e+00 3.597204e+00 1.432052e+00 -3.606427e-01 1.141372e-01 -1.037152e+00 -3.369612e+00 -5.103794e-01 8.167118e-01 2.965546e+00 -1.107862e+00 4.153298e+00 -7.787192e-02 -2.274552e-01 4.449091e-02 3.792376e-01 -2.701982e-01 -3.558182e-01 3.312460e-01 3.372840e-01 2.647704e-01 1.566772e-01 -6.746086e-01 1.883163e+00 6.681646e-01 -1.938438e-03 
5.165653e-01 2.303474e+00 1.923762e+00 -8.353072e-01 -1.612630e+00 9.381838e-01 -1.167214e+00 1.322845e+00 2.969342e+00 6.320150e-01 2.862250e+00 4.053925e+00 -1.006197e-01 -1.571520e-01 1.414088e-01 4.239860e-01 1.480134e-01 -8.217636e-02 8.342043e-01 3.723158e-01 1.781598e-01 4.034106e-02 -4.546443e-01 8.107403e-01 -5.947720e-01 3.637326e-03 
1.375747e+00 4.466524e+00 3.082385e+00 -1.474301e+00 -8.015703e-01 -3.685896e-01 -2.784391e+00 -1.031395e-01 5.237827e-01 7.592681e-01 6.322897e+00 7.543808e+00 -7.619023e-02 -4.744915e-01 -1.686134e-01 6.985971e-01 -4.989396e-01 4.617451e-01 1.435959e+00 -1.342078e-01 -4.057334e-01 6.941255e-01 4.680756e-01 1.136552e-01 -5.901698e-01 4.552328e-03 
1.297672e+00 3.869588e+00 2.726815e+00 9.362538e-01 1.611091e-01 2.799588e+00 -1.800643e+00 1.767995e-01 1.164882e+00 1.795463e+00 -7.695405e-01 -5.158174e-01 -6.052613e-02 -3.460780e-01 -1.001524e-01 9.529583e-01 -7.418697e-01 6.045685e-01 6.430478e-01 -9.123039e-01 -2.649648e-01 -7.447038e-01 -9.177203e-02 -1.288609e+00 -3.984394e-01 4.890573e-03 
-9.154739e-01 1.971080e+00 4.523511e+00 -3.741121e+00 1.535993e+00 5.211939e+00 -3.723936e+00 -1.966024e+00 5.189570e+00 4.724200e+00 1.276309e+00 3.487320e+00 -7.515705e-02 -3.663336e-01 -2.903409e-01 7.009226e-01 -3.194679e-01 3.070224e-01 4.832675e-02 -9.742464e-01 3.476037e-01 8.319521e-02 1.624931e-01 -6.606108e-01 -1.174013e+00 -5.111349e-03 
-6.821442e-02 3.050434e+00 5.967990e+00 -3.411246e+00 2.414310e-01 1.363159e+00 -5.258961e+00 9.294626e-01 -3.087070e+00 -1.809311e+00 -1.057501e+00 4.089971e+00 -7.668340e-02 1.253057e-01 -7.560675e-02 4.481651e-01 1.435622e-01 -8.162227e-02 1.010113e-01 7.207783e-01 1.233544e+00 2.595703e-01 3.979540e-02 1.440961e+00 1.181899e+00 -1.119695e-02 
2.270222e-01 3.424397e+00 4.966411e+00 -8.978909e-01 6.933810e-01 5.912590e-01 -5.926464e+00 1.258547e+00 3.065735e+00 3.374120e+00 3.163824e+00 -6.291538e-01 -9.366834e-02 8.700699e-01 6.352992e-01 -4.611702e-01 8.928522e-01 -9.705779e-01 7.365064e-02 1.479445e+00 4.324645e-01 2.579371e-01 8.119131e-01 1.933634e+00 5.228697e-01 1.510322e-03 
1.352953e+00 2.764896e+00 4.746192e+00 2.324495e-01 1.743038e-01 5.614985e+00 2.904512e+00 4.732231e+00 3.524651e+00 2.669480e+00 5.491506e+00 7.451915e+00 -1.072552e-01 2.293660e-01 2.280155e-01 -1.768623e-01 1.033103e+00 -1.601128e+00 -8.142405e-01 1.783380e+00 -2.103909e-01 1.709122e+00 2.114883e+00 1.568095e+00 3.481104e-01 1.327360e-03 
2.724292e+00 5.290345e+00 2.828560e+00 -1.098708e+00 -3.283333e+00 3.454279e+00 -4.084490e-01 -1.705086e+00 3.173395e+00 6.544370e+00 7.669973e+00 4.420696e+00 -5.231953e-02 -8.646488e-02 -5.796423e-02 2.180925e-01 -2.023444e-01 -2.077856e+00 -1.819131e+00 4.632138e-01 -4.299150e-02 4.422403e-02 -2.100843e-01 -1.066135e+00 -1.431771e-01 6.896222e-03 
-1.700191e-01 3.257537e+00 6.152604e+00 1.854676e+00 -5.775852e+00 -4.139554e+00 8.989301e-01 1.359325e+00 5.404710e+00 7.179980e+00 4.529898e+00 3.305598e+00 -9.072101e-02 -4.774056e-02 -7.259908e-02 -2.416902e-02 -3.646711e-01 -8.084780e-01 -8.979679e-01 -1.039171e+00 2.385741e-01 -1.212002e+00 -6.615125e-01 -1.763349e+00 -1.407568e+00 1.246440e-02 
5.561838e-01 2.888255e+00 5.353667e+00 -2.720726e+00 -6.720819e+00 -3.627125e+00 -2.607604e+00 2.730043e+00 2.346825e+00 6.844884e-02 -1.686049e+00 7.281190e-01 -6.745434e-02 -9.834385e-03 -7.797148e-02 3.378708e-01 -4.018350e-01 7.662742e-01 7.675112e-01 -6.809235e-01 4.217770e-01 -1.430741e+00 -1.640194e+00 -1.215067e+00 -2.001571e-01 -2.818370e-03 
2.198304e+00 3.602946e+00 3.362793e+00 -7.798964e-01 -2.149343e+00 4.665847e+00 -1.191763e+00 3.707537e+00 -2.122074e+00 2.599878e+00 1.352773e+00 2.260365e+00 -3.736579e-02 4.011175e-01 9.835483e-02 -6.547986e-01 1.120037e-01 2.444153e+00 1.765295e+00 -1.206112e+00 -4.900072e-01 -9.612360e-01 -8.269428e-01 5.331135e-03 4.744291e-03 4.607189e-03 
1.490958e+00 4.727783e+00 5.912819e+00 -1.790596e+00 -1.265217e+00 2.889134e+00 -2.767720e+00 -7.703072e-01 -2.169156e-01 6.334519e-01 3.183200e+00 3.942527e+00 -9.308898e-02 -5.650816e-02 2.042986e-02 -3.552380e-01 8.250864e-01 2.350275e+00 4.566000e-01 1.432736e-01 -5.970152e-01 2.645440e-02 2.631887e-01 1.228806e+00 3.774551e-01 -5.336082e-03 
1.368181e+00 2.829547e+00 2.599035e+00 1.949630e+00 3.717110e+00 1.428791e+00 -5.051573e+00 6.594640e-01 1.880401e+00 2.762764e+00 2.121929e+00 1.722116e+00 -5.486774e-02 -1.311361e-01 -3.198061e-01 2.235800e-01 3.035330e-01 1.602661e-01 -1.067263e+00 4.401859e-01 -1.335299e-01 6.169035e-01 -5.513266e-02 -3.527568e-01 -2.881547e-01 -1.059318e-02 
6.887045e-01 3.377104e+00 3.959356e+00 3.994262e-02 2.097329e+00 2.744031e-01 3.866947e-02 1.269004e+00 4.778597e-01 1.302949e+00 4.073405e+00 2.884520e+00 -8.538377e-02 2.353310e-01 4.064648e-02 1.939881e-01 6.463364e-01 -5.599284e-02 4.418804e-01 1.514981e+00 8.699411e-01 1.801437e-01 2.528591e-01 -1.018432e+00 -1.055549e+00 4.184973e-03 
1.943750e+00 2.679255e+00 5.457425e+00 -1.775007e-01 -3.029285e+00 6.368997e-01 -3.940285e-01 2.020232e+00 6.150558e-01 1.989466e+00 -8.561135e-01 1.348596e+00 -9.418428e-02 -1.037415e-01 -5.569286e-02 4.469587e-01 3.182469e-02 -6.225308e-01 1.225952e+00 1.743643e+00 5.893021e-01 1.412831e-01 7.125790e-02 1.642712e-01 3.053680e-02 -3.332615e-03 
2.379828e+00 5.006162e+00 5.453565e+00 2.504651e+00 1.828017e+00 5.494482e+00 2.478411e+00 2.899014e+00 1.316475e+00 2.284396e+00 -4.199390e-01 -1.148460e+00 -5.250585e-02 -5.305532e-01 -3.046659e-01 3.516029e-01 1.644592e-01 -1.014766e-01 8.832273e-01 7.867440e-01 -1.716644e-01 5.674771e-01 8.196700e-01 2.978889e-01 -6.836126e-02 -3.238332e-03 
3.911972e-03 1.736554e+00 4.086724e+00 8.763988e-01 7.391123e-01 4.948512e+00 2.446771e+00 2.790969e+00 2.167508e+00 2.628330e+00 5.189957e+00 3.891290e+00 -8.796978e-02 -2.800710e-01 -3.443721e-01 1.099999e-01 8.205914e-02 7.652454e-02 3.432543e-01 2.200791e-01 -1.560932e+00 -1.699766e-01 7.007153e-01 1.075900e+00 1.059592e+00 -5.685604e-03 
-9.941425e-01 2.325125e+00 6.402721e+00 3.352890e-01 -2.942523e-01 2.534734e+00 2.551990e+00 2.531341e-02 2.539020e+00 5.081867e+00 2.539814e+00 1.271366e+00 -1.046827e-01 4.305420e-01 4.502047e-01 5.995640e-01 -7.493944e-01 -5.958263e-01 -1.781762e-01 -4.588714e-01 -9.934611e-01 -7.375542e-01 -7.769523e-01 -9.669353e-02 1.017314e+00 -3.354669e-04 
2.230381e+00 2.297913e+00 5.532846e+00 1.317476e+00 -1.585528e+00 3.833045e+00 6.695780e-01 -4.347577e+00 -8.460991e-01 4.094307e+00 3.043509e+00 5.436641e+00 -9.652388e-02 -3.405394e-01 -6.420376e-01 4.206019e-01 -1.660773e+00 2.630135e+00 2.949560e+00 -2.338023e+00 -2.121439e+00 -6.997006e-01 -2.399889e-01 2.407483e-01 6.076223e-01 6.371213e-02 
3.419304e+00 6.976505e+00 7.728324e+00 -1.462860e+00 1.120555e-02 5.161334e+00 1.072651e+00 1.500982e+00 -8.644922e-01 -2.333354e+00 1.698176e-01 3.165435e+00 -4.990613e-02 -4.135374e-01 -8.989722e-01 -1.353460e-01 -1.480076e+00 3.646358e+00 3.659082e+00 -3.544277e+00 -2.073843e+00 -4.000135e-01 4.948781e-01 1.706255e+00 1.497976e+00 6.554587e-02 
-3.905508e+00 -3.799325e+00 5.526932e+00 -6.528393e+00 1.373706e+01 1.838301e+01 -8.503673e+00 -8.554061e+00 3.707609e-01 5.135996e+00 7.578697e+00 5.982367e+00 2.032026e-01 -6.126112e-01 -2.037558e-01 -5.186768e-01 -2.005709e-02 1.139822e+00 8.257178e-01 -1.889179e+00 -1.798794e-01 8.036033e-01 1.142856e+00 1.130265e+00 7.937148e-01 2.013502e-02 
6.114960e-03 8.788829e-01 5.728948e+00 -3.142155e+00 1.027625e+01 1.355516e+01 -1.058277e+01 -8.240662e+00 -6.947803e-02 7.035413e+00 8.803493e+00 8.488384e+00 7.318342e-02 6.221495e-02 6.072434e-01 -6.130884e-01 1.304331e+00 -2.151178e+00 -1.321034e+00 6.132594e-01 6.167885e-01 5.516044e-01 9.656160e-01 2.786697e-01 1.513322e+00 -1.836871e-02 
8.739195e-01 4.327945e+00 3.939151e+00 2.056839e+00 -1.018940e+00 3.764721e+00 -2.948606e+00 -3.761521e-01 2.774410e+00 5.124204e+00 4.377997e+00 6.743740e+00 -5.739355e-02 1.406479e+00 2.086946e+00 3.249335e-01 2.580269e+00 -4.120082e+00 -3.608030e+00 3.616815e+00 2.842931e+00 -3.785531e-01 -1.340688e+00 -2.173218e+00 -6.691705e-01 -6.108916e-02 
1.340665e+00 5.949088e+00 5.456773e+00 7.661793e-01 -3.366688e+00 5.865307e+00 1.361415e+00 4.959696e-01 6.917056e-01 2.500623e+00 3.163516e+00 1.035136e+01 -1.145160e-02 6.123496e-01 6.487700e-01 2.358458e-01 1.087813e+00 -1.838760e+00 -2.043217e+00 2.619410e+00 1.440851e+00 -1.044431e+00 -1.077719e+00 -2.177839e+00 -1.698213e+00 -2.674385e-02 
2.459610e+00 4.100306e+00 7.287687e+00 4.418786e+00 -4.188454e-02 4.187788e+00 3.608311e+00 1.292276e+00 -1.902596e+00 6.999502e-01 -4.674045e-01 1.705028e+00 -5.992568e-02 5.145546e-01 -3.059379e-01 1.739254e-01 -7.315624e-01 2.481369e-01 -1.107310e+00 2.743385e-01 1.147512e+00 -1.105760e+00 -1.190521e+00 -8.481085e-01 -1.686625e+00 -5.458427e-03 
2.275018e+00 4.236552e+00 5.233909e+00 1.115933e+00 5.939195e-01 3.127541e+00 -7.641805e-01 -1.870622e+00 -2.953130e+00 3.858946e+00 3.370004e-01 2.516677e+00 -5.926979e-02 1.467326e+00 -1.207271e+00 -3.367666e-01 -1.503671e+00 6.377006e-01 -2.666403e+00 -8.060447e-01 1.793063e+00 1.934756e-01 -1.850948e+00 -7.390763e-01 -2.037666e+00 2.577132e-02 
2.979516e+00 3.654523e+00 4.920210e+00 -1.775851e+00 -1.758559e+00 -4.029448e-01 -5.141153e-01 6.544702e+00 -9.319730e-01 -1.507563e+00 1.550712e+00 2.227955e+00 -6.077659e-02 1.429381e+00 -4.659247e-01 -6.757919e-01 -1.098633e+00 -1.693840e-01 -1.958574e+00 -6.827133e-01 1.798790e+00 1.398691e+00 -1.649899e+00 -1.231197e+00 -1.465935e+00 2.131382e-02 
8.417342e+00 1.356245e-01 4.956679e+00 -3.654859e+00 6.801521e-01 -5.171340e+00 -6.075953e-01 6.835069e+00 1.173772e+00 -5.650362e+00 -1.540924e+00 -9.843659e-02 1.178305e-01 3.374848e-01 -3.951370e-01 -9.166603e-01 5.595194e-01 5.571676e-01 -7.933543e-01 4.905311e-01 6.211749e-01 2.816406e-01 -1.689724e+00 -1.488805e+00 -1.124587e+00 -9.609699e-04 
6.535355e+00 3.821146e+00 4.047342e+00 1.311018e+00 -9.319206e-01 -1.455642e+00 1.164522e-01 5.933382e+00 3.027406e+00 -2.794891e+00 -5.684428e+00 -4.317090e+00 -4.190671e-02 -1.275250e+00 1.048924e-01 -8.906120e-01 4.608137e-01 9.489892e-01 5.880837e-01 -4.181700e-01 -1.965544e+00 -5.350956e-01 8.893760e-01 1.366669e-01 3.708517e-01 -2.556496e-02 
2.184523e+00 2.177556e+00 1.087041e+00 2.370096e+00 2.966439e+00 -3.128817e-01 1.373192e+00 1.540912e+00 -3.524616e+00 -3.946007e+00 -3.489457e+00 1.662618e-01 -7.350957e-02 -2.252812e+00 8.391496e-01 1.006388e-01 3.560993e-01 -3.379886e-01 1.269070e+00 -9.370247e-01 -1.999574e+00 3.224416e-01 1.472810e+00 6.568272e-01 9.617119e-01 -4.283182e-02 
-2.803249e-01 3.158020e+00 2.401968e+00 -2.484259e+00 1.843244e+00 1.082447e-01 -3.595359e+00 -6.359389e-01 -1.258257e+00 2.087140e+00 3.208313e+00 3.949864e+00 -9.293139e-02 -1.660575e+00 -2.976497e-01 -8.630654e-01 6.979793e-01 6.058160e-01 1.027621e+00 -8.475283e-01 -1.810667e+00 8.894128e-01 2.099045e+00 1.911485e+00 1.549936e+00 3.617544e-02 
5.611229e-01 4.662935e+00 6.282560e+00 2.327681e-02 -2.397373e+00 3.920650e-01 -3.436813e+00 1.218591e-01 4.928811e+00 -7.273266e-01 -2.703158e+00 5.766459e-01 -7.081628e-02 -2.342499e-01 -5.672244e-01 -1.365731e+00 2.196175e+00 1.217489e+00 1.283641e+00 -2.950708e-01 -9.287076e-01 1.178767e+00 2.373833e+00 1.911288e+00 7.092371e-01 6.208612e-02 
-9.558220e-01 1.090208e+00 -2.865744e+00 5.974325e+00 4.779066e+00 3.329990e+00 -1.716187e+00 -2.410428e+00 3.247756e+00 6.090993e+00 3.479849e+00 3.227399e+00 1.376238e-01 -2.773376e-01 -2.719565e+00 -1.237036e+00 2.605325e+00 -5.297516e-01 -3.336593e-01 2.724593e+00 5.944305e-01 -3.340287e-01 4.231885e-01 1.165207e-01 -4.303234e-01 6.988598e-02 
1.351022e+00 3.753396e-01 -3.107758e+00 9.121678e+00 7.585974e+00 4.494452e+00 -1.041748e+00 -2.215382e+00 1.162117e-01 5.921234e+00 5.931214e+00 4.073679e+00 1.216434e-01 -1.327617e+00 -2.273779e+00 -2.725063e-01 1.763344e-01 -2.353717e+00 -7.307760e-01 2.355443e+00 5.252894e-01 -8.867604e-01 -1.949121e-01 4.631009e-01 -4.466553e-01 8.213225e-02 
-2.061962e+00 -8.296010e+00 9.119482e-01 5.993165e+00 -5.797188e+00 -3.611245e+00 8.830074e+00 3.504834e+00 -5.221009e-01 8.788025e-01 -5.262696e-01 4.973018e-02 1.602687e-01 -2.560809e+00 1.295354e-01 8.949009e-01 -2.964726e+00 -3.354088e+00 -1.232074e+00 2.428998e+00 2.391483e-01 -2.602589e-01 8.665104e-01 -1.750004e+00 -2.342823e-01 9.590413e-02 
-5.523891e+00 -2.012851e+00 3.031182e+00 8.955289e-01 -8.877832e+00 2.088025e-01 3.067269e+00 -2.093250e-01 2.379938e+00 9.042084e-01 1.615406e+00 -6.779599e-02 3.285226e-01 -3.491515e+00 1.704221e+00 -7.356580e-01 -3.428460e+00 -1.440036e+00 1.893361e-01 1.315349e+00 -4.895411e-01 1.516815e+00 8.403515e-01 -1.431673e+00 1.273846e+00 1.262780e-01 
-1.032241e+01 2.931980e+00 -1.460710e+00 -4.736231e+00 -3.759472e+00 -6.875532e-01 8.374291e+00 -2.217715e+00 8.145984e-01 1.293206e+01 -3.112267e+00 4.126726e+00 5.137049e-01 -2.775717e+00 3.097476e+00 -1.952344e+00 -1.034895e+00 2.356248e+00 3.609733e-01 -2.192961e+00 -1.397581e+00 2.723372e+00 3.905433e-01 2.352090e-02 1.598796e+00 1.238753e-01 
-1.197633e+01 3.282451e+00 -5.599720e+00 -2.655923e+00 -6.330622e-01 3.979286e+00 5.762886e+00 -1.801813e+00 7.031936e+00 4.096364e+00 6.584930e-02 8.404412e+00 5.763151e-01 -1.929313e+00 1.164577e+00 -2.614746e+00 1.167235e+00 3.169741e+00 4.290058e-02 -1.659095e+00 -2.335669e-01 6.996946e-01 -1.746665e+00 -5.003756e-01 5.023222e-01 9.559409e-02 
-1.271433e+01 4.543715e+00 -4.534322e+00 2.594415e+00 1.861670e+00 -3.691621e+00 -3.482541e+00 -2.686826e+00 1.076876e+01 1.235442e+00 3.661130e-01 3.807605e+00 6.557490e-01 -9.513176e-01 4.940707e-01 -1.702581e+00 1.932719e+00 1.716285e+00 3.571284e-01 -2.074170e+00 -6.512955e-01 -1.290982e-01 -3.064699e+00 1.628885e-01 -5.484525e-01 7.072668e-02 
-1.397450e+01 3.004166e+00 -8.505743e+00 3.066382e+00 4.160305e+00 1.925339e+00 7.002088e-01 -1.142604e+00 9.013311e-01 -1.980810e+00 -2.625662e+00 2.603375e+00 7.354710e-01 -5.940059e-01 4.964787e-01 -1.180725e+00 1.112712e+00 3.394850e-02 1.056361e-01 2.962328e-01 -4.609860e-01 -1.346860e+00 -4.896393e-01 -5.836424e-01 -1.323512e+00 6.743030e-02 
-1.407992e+01 5.541476e+00 -8.520605e+00 2.066209e+00 2.425269e+00 2.125062e+00 5.347825e-01 -5.803797e+00 3.234410e+00 6.471516e-01 -9.520689e-01 4.284982e+00 7.877604e-01 -3.709810e-01 2.198635e-01 -1.385104e+00 6.966182e-01 -1.029306e+00 1.282705e+00 1.473310e+00 -8.162457e-01 -1.259755e+00 4.505250e-01 -4.192306e-01 -3.546689e-01 6.183475e-02 
-1.426357e+01 5.265965e+00 -9.510204e+00 3.171738e+00 -7.451195e-01 1.599126e+00 5.235388e+00 -2.548257e+00 4.064812e+00 1.942312e+00 -2.193271e+00 1.548163e+00 8.474609e-01 1.150980e-01 6.179570e-01 -2.562313e-01 1.147380e+00 -1.132914e+00 -5.413405e-01 3.307557e-01 -4.498837e-02 5.760341e-01 7.977624e-01 1.916707e-01 -3.591245e-01 4.780647e-02 
-1.442470e+01 4.512134e+00 -1.095761e+01 6.024828e+00 -8.321499e-01 2.885011e+00 1.616420e+00 -6.065228e+00 2.888244e+00 1.526505e+00 -1.946235e+00 2.561866e+00 9.089277e-01 2.645727e-01 4.329881e-01 -8.410101e-02 5.229746e-01 -1.082433e-01 -3.235772e-01 2.101276e-01 7.871560e-01 -4.795907e-01 -3.658041e-01 3.504953e-01 2.830051e-01 3.462801e-02 
-1.322662e+01 6.608622e+00 -8.568396e+00 6.823970e+00 1.244426e-01 -1.161338e+00 1.813168e+00 -1.236830e+00 3.954585e+00 1.568325e+00 -1.170226e+00 1.669311e+00 9.139196e-01 -1.252033e-01 1.074774e-01 -1.735988e-01 7.146464e-02 1.123984e+00 -9.011370e-01 -3.803127e-01 1.072012e-01 2.890953e-01 -7.803663e-01 -5.140221e-02 1.436348e+00 1.783522e-02 
-1.327553e+01 7.035088e+00 -9.412016e+00 2.854966e+00 1.449271e+00 1.887408e+00 3.296530e+00 -2.523730e+00 8.915702e-01 -9.948756e-01 2.888848e-01 5.639433e+00 9.276711e-01 4.336357e-03 7.174329e-01 5.754482e-01 3.002543e-02 1.131339e+00 -8.575419e-01 6.997710e-01 -2.025595e-01 -3.475939e-01 -1.156559e+00 5.135286e-01 1.027408e+00 9.323502e-03 
-1.546417e+01 4.541874e+00 -1.115100e+01 5.113992e+00 3.734090e+00 -2.407758e+00 2.493769e+00 -3.783000e+00 6.508626e+00 -6.988292e-01 -3.567842e+00 7.191120e+00 9.272653e-01 -3.554020e-02 5.913036e-01 4.314161e-01 9.082133e-01 8.346764e-01 -3.309295e-01 4.476549e-01 -2.777920e-01 -5.136645e-01 -1.095730e+00 4.456531e-01 7.526573e-01 1.123748e-02 
-1.328424e+01 9.132672e+00 -6.789072e+00 7.029944e+00 3.019720e+00 -7.794886e-01 4.774975e+00 -5.804940e+00 -1.267459e-01 -3.122715e+00 1.820216e+00 4.938002e+00 9.488724e-01 -7.590605e-01 -3.628348e-01 -3.427931e-01 6.935610e-01 3.366151e-01 -7.242525e-01 2.069737e-01 6.295050e-01 -1.079505e+00 -6.682864e-01 9.295130e-02 -2.325356e-01 1.163104e-02 
-1.339996e+01 8.516348e+00 -7.722786e+00 9.277547e+00 3.512600e+00 -1.482537e+00 3.312220e+00 -9.851855e-01 1.895420e+00 -2.846404e+00 2.923747e-01 5.783313e+00 9.595064e-01 -6.541735e-01 -3.773880e-01 -6.137311e-01 -2.632664e-01 -1.109530e+00 -5.376198e-01 1.591091e-02 1.230387e+00 -1.243395e+00 -4.650733e-03 5.571132e-01 -6.951448e-01 1.663027e-02 
-1.810294e+01 3.233678e+00 -1.284009e+01 4.240993e+00 3.243092e+00 -2.196465e+00 3.922174e+00 -7.751122e-01 -2.199352e+00 -3.262520e+00 -1.176467e+00 5.180658e+00 9.697058e-01 -8.244812e-01 -8.406288e-01 -1.106545e+00 -7.807359e-01 -9.920498e-01 -6.050247e-01 -2.814052e-02 7.313719e-01 3.302471e-01 1.144860e+00 -1.744999e-01 -7.135977e-01 6.278706e-03 
-1.632569e+01 5.604432e+00 -1.119415e+01 5.192136e+00 -1.925246e+00 -4.387368e+00 2.999724e+00 -1.459758e-01 1.327952e+00 -6.521802e-01 7.160652e-01 3.594068e+00 1.000000e+00 1.662598e-02 -5.016391e-01 2.731459e-01 -1.866222e+00 -3.976722e-01 -1.599079e-01 -1.168108e+00 -1.531363e-01 5.798825e-01 1.229142e+00 9.703609e-01 -3.870591e-01 -1.516946e-02 
-1.594378e+01 6.385486e+00 -1.058611e+01 5.168971e+00 7.783933e-01 -2.352196e+00 4.790520e+00 -2.567685e+00 1.808224e+00 1.504472e+00 7.358711e-01 2.464637e+00 9.600191e-01 2.854177e+00 9.975214e-01 3.765813e+00 -1.301262e+00 -1.316892e+00 -1.071538e+00 -2.783623e+00 -9.016264e-01 -8.538810e-01 -1.567012e-02 3.431270e-01 5.438617e-01 -5.782939e-02 
-1.439641e+01 4.432248e+00 -7.484043e+00 -5.175511e-01 2.756589e+00 -2.204211e+00 -2.962493e+00 -8.545802e-01 2.791046e+00 9.158080e-01 4.188010e+00 5.206028e+00 8.885024e-01 5.958865e+00 -6.527012e-01 4.656798e+00 -1.520301e+00 -2.677985e+00 -4.073113e+00 -5.455716e+00 -1.908795e+00 -2.404682e+00 -1.074174e+00 -1.012384e+00 -1.146390e+00 -9.248719e-02 
-4.796696e+00 8.807377e+00 4.133930e+00 5.895237e-01 -5.682285e+00 -8.645735e+00 -7.014834e+00 -4.928942e+00 -7.200303e+00 -4.124865e+00 -1.196805e+00 7.093987e+00 7.363076e-01 7.466087e+00 -3.246389e+00 4.487027e+00 -2.035340e+00 -4.770487e+00 -5.117480e+00 -5.359335e+00 -1.082279e+00 -2.432756e+00 -1.750896e+00 -1.222993e+00 -3.377533e+00 -6.375663e-02 
7.895087e+00 1.129981e+00 4.729823e+00 -1.196463e-01 -1.208483e+01 -2.160617e+01 -1.837618e+01 -8.509320e+00 -6.191193e+00 -3.208383e+00 -3.379519e+00 -4.452557e+00 6.494198e-01 6.400510e+00 -4.442644e+00 3.074461e+00 -1.450068e+00 -4.325785e+00 -3.372379e+00 -1.726797e+00 3.763906e-01 -4.418101e-01 -8.450097e-01 -6.457690e-01 -5.084500e+00 -9.247869e-03 
1.024091e+01 -8.195327e+00 5.742087e+00 -5.206684e+00 -1.565333e+01 -1.823862e+01 -1.429931e+01 -4.151712e+00 -5.864439e+00 -5.187912e+00 -1.595329e+00 -9.593738e+00 7.607773e-01 3.222915e+00 -4.935660e+00 1.250623e+00 -1.809612e+00 -1.843821e+00 -3.451982e-01 1.090376e+00 2.676286e+00 2.049698e+00 6.200479e-01 8.895441e-01 -3.922048e+00 4.458936e-02 
1.008734e+01 -9.279619e+00 7.084184e+00 -4.869788e+00 -1.388681e+01 -1.426966e+01 -7.954237e+00 6.387582e-01 -8.593690e-02 -2.777717e+00 1.158427e+00 -1.187261e+01 8.300282e-01 4.144389e-01 -3.433934e+00 8.029060e-01 -2.007328e+00 -1.422529e+00 1.014797e+00 1.597836e+00 2.820353e+00 3.809540e-01 9.734774e-03 3.465776e-01 -1.014375e+00 6.357322e-02 
1.022176e+01 -1.066612e+01 9.209864e+00 -6.083466e+00 -1.400040e+01 -1.403998e+01 -6.773927e+00 3.878450e+00 -4.440069e-03 -1.239959e+00 9.819425e-01 -8.806227e+00 8.689502e-01 -7.290234e-02 -1.728137e+00 9.950688e-02 -6.347625e-01 -1.832990e+00 2.383530e-01 -3.992501e-01 1.312065e+00 -6.197549e-01 -2.720937e-01 2.761316e-01 5.288142e-01 4.509968e-02 
9.976860e+00 -1.480429e+01 7.010465e+00 -9.717895e+00 -2.002394e+01 -1.863150e+01 -1.414969e+01 1.577364e+00 -7.216422e+00 -5.133686e+00 -2.935267e+00 -9.918187e+00 9.131994e-01 -4.742690e-01 -6.389834e-01 4.068391e-01 -3.485314e-01 -7.538525e-01 -1.807339e-01 1.578357e-01 -1.413614e-01 -8.247321e-01 -7.564922e-01 1.000077e+00 1.317640e+00 3.394150e-02 
9.931639e+00 -1.407368e+01 6.276481e+00 -5.956443e+00 -2.174971e+01 -1.486593e+01 -1.319784e+01 1.939308e+00 -5.397971e+00 -5.370396e+00 1.832176e+00 -7.926877e+00 9.446901e-01 -8.295918e-01 5.222314e-01 -1.778232e-01 1.774668e-01 5.279198e-02 -1.484360e-01 1.067015e+00 -8.573200e-01 -5.807911e-01 -1.225775e+00 1.038532e+00 2.836266e-01 1.163427e-02 
7.861053e+00 -1.077076e+01 1.058507e+01 -6.675956e+00 -1.378142e+01 -1.476036e+01 -3.953103e+00 9.015221e-01 -1.512832e+00 -4.494959e+00 5.733693e+00 -5.724083e+00 9.618658e-01 -6.858948e-01 1.465153e+00 -2.903777e-01 6.834576e-01 1.479736e+00 -5.069866e-02 2.459561e+00 4.219074e-01 8.984309e-01 -3.194695e-01 1.533074e+00 3.593311e-02 -9.306568e-03 
7.131700e+00 -1.007173e+01 6.533444e+00 -6.717101e+00 -1.685770e+01 -1.671773e+01 -6.537144e+00 -7.022926e-02 -5.760191e+00 -7.688196e+00 1.840124e+00 -9.485146e+00 9.027883e-01 3.470251e-01 5.880842e-01 -8.418837e-01 3.062728e-01 7.793415e-01 -8.767647e-01 2.126233e+00 1.641648e+00 7.087724e-01 3.235889e-01 6.056215e-01 -7.640909e-01 -3.063823e-02 
7.947355e+00 -9.479497e+00 5.430094e+00 -5.920278e+00 -1.507127e+01 -1.795910e+01 -5.182232e+00 4.691669e+00 -2.543158e+00 -5.572133e+00 4.726130e+00 -8.959388e+00 8.876175e-01 1.076089e+00 -9.505526e-01 -1.098341e+00 2.903258e-01 8.969764e-02 -1.458882e+00 5.435038e-01 2.074721e+00 1.998976e-01 1.689760e-01 5.007394e-01 -1.285546e+00 -3.243226e-02 
1.162361e+01 -1.177889e+01 4.644552e+00 -4.802918e+00 -1.720808e+01 -1.765039e+01 -1.952109e+00 8.252472e+00 -1.338947e+00 -3.213865e+00 5.364064e+00 -1.012968e+01 8.286231e-01 1.464244e+00 -3.795051e-03 -4.316088e-01 1.445049e+00 5.891657e-01 -1.609108e+00 4.350057e-01 1.778118e+00 -7.774387e-02 3.630241e-01 1.233725e+00 6.044388e-04 -5.640966e-02 
1.099554e+01 -1.466995e+01 6.037810e+00 -6.181418e+00 -1.315774e+01 -2.158844e+01 -3.528102e+00 7.113777e+00 -2.723966e+00 -5.887244e+00 6.475420e+00 -1.182955e+01 8.367871e-01 1.229294e+00 1.222019e+00 -4.627012e-02 2.718040e+00 6.951244e-01 -1.731248e+00 -4.097611e-01 7.165085e-01 -1.370044e+00 -2.079318e-01 9.911101e-01 6.363095e-01 -8.136298e-02 
1.292883e+01 -7.495481e+00 4.071542e+00 6.387129e-01 -1.486864e+01 -2.294860e+01 -5.189180e+00 7.609308e+00 -6.058506e+00 -5.715519e+00 7.134104e+00 -8.047044e+00 6.461552e-01 1.038368e+00 3.130781e+00 -5.102501e-01 4.633029e+00 2.508482e+00 -1.013324e+00 -2.180962e+00 -3.803690e-01 -1.785053e+00 -1.723897e-01 -2.020414e-01 1.616360e+00 -1.359283e-01 
1.344122e+01 -5.511106e+00 5.485249e+00 4.949110e+00 -1.276537e+01 -2.396623e+01 -5.612502e+00 8.595795e+00 -7.033595e+00 -5.360964e+00 8.796661e+00 -6.819158e+00 5.720365e-01 -7.582151e-01 4.900951e+00 -7.362960e-02 3.190647e+00 2.799064e+00 3.559330e+00 -2.017371e+00 -2.097880e+00 7.665676e-01 1.419824e+00 -1.261832e+00 4.485434e+00 -2.169518e-01 
1.559261e+01 -7.043988e-01 2.369582e+00 1.279696e+01 -4.861856e+00 -2.152811e+01 -1.181472e+01 5.609618e+00 -8.109395e+00 -4.338953e+00 3.193236e+00 -4.553075e+00 2.813567e-01 -2.853753e+00 3.879902e+00 4.513475e-01 2.062466e-01 4.317481e+00 7.717332e+00 -5.827429e-01 -3.533662e+00 2.102518e+00 2.276882e+00 -8.549439e-01 4.100579e+00 -2.069625e-01 
5.872574e+00 6.439269e+00 6.520642e+00 3.692692e+00 -4.165812e+00 -4.502032e+00 -1.030219e+01 -2.375777e+00 2.134316e+00 5.235938e-01 2.136692e+00 8.850637e+00 -6.557262e-02 -3.899644e+00 2.522629e+00 6.596665e-01 -1.953434e+00 2.658334e+00 8.156601e+00 1.305099e+00 -2.681496e+00 3.029286e+00 2.031436e+00 -1.697131e-01 3.723043e+00 -1.702732e-01 
2.444384e+00 5.928843e+00 5.810583e+00 2.298155e+00 2.418991e+00 5.905962e+00 -5.758051e+00 -4.573220e+00 -1.298728e-01 2.726612e+00 6.189369e+00 4.620955e+00 -6.985259e-02 -3.487785e+00 7.923929e-01 9.305693e-01 -2.089237e+00 1.120109e+00 6.257188e+00 3.049496e+00 -9.275265e-01 2.684768e+00 1.187208e+00 7.296729e-02 2.072726e+00 -7.078652e-02 
5.171089e-01 3.785420e+00 7.063081e+00 4.313465e-01 -3.114123e+00 3.099739e+00 -2.115341e+00 2.797337e-01 4.123073e+00 1.263433e+00 6.450029e+00 7.209041e+00 -1.037248e-01 -5.576716e-02 -3.059151e+00 -3.073719e+00 3.536886e-01 2.003948e+00 4.621114e-01 1.462881e+00 3.998731e-01 5.557645e-01 3.383068e-01 -1.337283e+00 -1.367804e+00 6.676581e-02 
8.314238e-01 4.584490e+00 6.751209e+00 3.981450e+00 2.128438e-01 5.956938e+00 -6.606622e-01 -3.557691e-01 4.320065e+00 1.227165e+00 1.401404e+00 6.631351e+00 -5.349982e-02 1.175225e+00 -3.758323e+00 -5.270228e+00 1.517193e+00 1.724781e+00 -1.889543e+00 -8.654919e-01 3.340291e-01 4.726780e-01 8.066570e-01 -2.579820e+00 -1.403605e+00 1.415457e-01 
6.400218e+00 -8.184312e+00 -9.318264e+00 4.619487e+00 6.957004e+00 -2.216964e+00 -5.536479e+00 -2.485137e+00 2.688170e+00 2.964851e+00 -2.155742e+00 1.006419e+00 2.600800e-01 1.441420e+00 -1.451850e+00 -6.115275e+00 7.461611e-01 1.415916e+00 -9.344494e-01 -8.407354e-01 -2.037896e+00 1.300794e-02 9.307208e-01 -1.498661e+00 -1.937229e+00 1.593342e-01 
5.378957e+00 -6.877906e+00 -1.234988e+01 7.790051e+00 6.007334e+00 -8.834016e-01 -8.374942e+00 -1.520639e+00 2.950969e+00 5.909189e+00 -2.406848e+00 7.042420e-01 4.559735e-01 5.505781e-02 -2.772222e-01 -3.309008e+00 -2.042476e-01 -4.448206e-01 -1.389621e+00 3.973159e-01 -1.923741e+00 1.838689e-01 6.366051e-01 1.024318e+00 -1.527742e+00 1.364675e-01 
5.450443e+00 2.257367e+00 -1.396275e+01 2.257851e+00 1.068213e+00 1.847661e+00 -2.461878e+00 -9.327312e+00 4.872661e+00 3.576026e+00 8.608523e-01 4.864526e-01 4.382095e-01 -3.605029e+00 8.406378e-01 9.913430e-01 -1.697164e-02 -1.297897e+00 -1.084777e+00 1.355511e+00 -8.552886e-01 6.343998e-01 -1.176080e+00 8.964400e-02 -1.505727e+00 1.086580e-01 
1.581600e+00 -2.022459e+00 -7.471588e+00 4.141030e+00 9.331361e-01 -3.023480e+00 -2.113832e-01 -6.553384e+00 4.147164e+00 4.104604e+00 5.014699e+00 -7.473756e-01 5.397730e-01 -5.143433e+00 -8.830988e-01 1.744670e+00 -3.469261e-01 -9.312027e-01 -1.564654e+00 9.439272e-01 7.220842e-01 2.262797e+00 4.796909e-01 6.778253e-01 -1.129215e+00 9.846805e-02 
-9.726246e+00 -6.408846e+00 -6.800697e+00 6.359140e+00 3.004619e+00 -6.570807e+00 -2.840701e+00 -4.245207e+00 5.262072e+00 -2.013255e+00 -5.418295e+00 -5.796406e+00 7.614701e-01 -5.560574e+00 -1.613993e+00 1.399637e+00 1.348508e-01 2.271096e-01 -7.833718e-01 3.970154e-01 2.062051e+00 7.708274e-01 8.411209e-01 3.561587e-01 5.137292e-01 9.853582e-02 
-1.274986e+01 -6.960294e+00 -7.207559e+00 4.004776e+00 3.831177e-01 -4.497438e+00 -3.465894e+00 -4.512708e-01 1.407025e+01 1.110228e+01 4.121852e+00 -1.800401e+00 7.866834e-01 -3.443044e+00 9.432018e-01 -6.063293e-01 -6.011408e-01 1.084723e+00 1.642640e+00 1.917279e+00 1.503647e+00 -7.094479e-02 1.006956e-02 -1.024958e-01 1.367149e+00 5.535330e-02 
-1.518670e+01 -3.343679e+00 -7.096578e+00 3.000232e+00 2.478770e+00 -1.332218e+00 1.150454e+00 -2.068112e+00 3.765257e+00 4.282791e+00 3.088069e+00 3.581612e+00 8.074334e-01 -8.185188e-01 2.622499e+00 -1.639341e+00 -4.665635e-01 1.050706e+00 5.646144e-01 2.325443e+00 1.116385e+00 -6.821756e-02 6.300495e-01 1.950803e+00 2.295310e+00 1.029822e-02 
-1.290340e+01 1.160966e+00 -1.035529e+01 2.814780e+00 6.619677e+00 2.570426e+00 7.379432e+00 -1.236970e-01 4.540848e+00 1.006929e+00 2.490379e-01 1.399358e+00 7.935578e-01 1.869682e-01 2.865056e+00 -1.233836e+00 2.752146e-01 7.961201e-01 -5.171258e-01 9.153460e-01 -2.560822e-01 -1.965776e+00 -6.388014e-01 6.443247e-01 7.485066e-01 4.603141e-03 
-1.374207e+01 2.643017e+00 -1.342353e+01 4.621321e+00 5.139868e+00 -7.281668e+00 3.363849e+00 1.172933e+00 9.685683e+00 6.184670e+00 6.272128e+00 4.080266e+00 8.095241e-01 3.530241e-01 1.914234e+00 -8.728550e-01 1.147914e-01 5.742503e-01 -3.426239e-01 -1.052602e+00 -5.815594e-01 -1.045040e+00 1.910004e-01 4.962554e-01 -1.821823e-01 5.587322e-03 
-1.253733e+01 4.371635e+00 -1.021326e+01 4.570305e+00 3.033169e+00 -4.108342e+00 4.137933e-03 -3.352205e+00 1.281151e+00 6.957337e+00 5.751447e+00 1.692804e+00 8.086538e-01 -4.970112e-01 2.279024e-01 2.256483e-01 -5.481350e-01 5.064744e-01 3.701267e-02 -1.455666e+00 -5.356244e-01 -1.405763e+00 -2.847604e-01 2.013907e-01 -3.818580e-01 9.477144e-03 
-1.360461e+01 4.622157e+00 -1.153187e+01 2.696426e+00 7.143276e+00 2.940462e-01 -4.249110e-01 -3.361655e+00 1.699069e-01 2.262589e+00 2.818141e+00 2.523977e+00 8.278220e-01 -8.483963e-01 -7.206149e-01 7.261503e-01 -1.627532e+00 7.256000e-01 1.438531e+00 -1.268285e-01 2.172196e-01 -5.070244e-01 -1.993579e+00 -2.001969e+00 -9.304004e-01 7.441026e-03 
-1.545719e+01 1.310908e+00 -1.017288e+01 1.036552e+00 8.150345e+00 -1.032368e+00 1.995482e+00 -5.345247e-01 2.269922e+00 1.544167e+00 2.982984e+00 2.682133e-01 8.317946e-01 -7.345451e-01 -1.719289e+00 2.544515e-01 -2.363413e+00 -2.702315e-01 -5.543982e-01 2.331348e-01 8.272872e-01 1.526413e+00 -1.313284e+00 -1.464830e+00 -3.890550e-01 2.082103e-03 
-1.652413e+01 5.703061e-01 -9.812971e+00 -1.749464e+00 6.209280e+00 -1.627002e+00 1.734034e+00 8.501914e-01 6.656176e+00 -1.076638e+00 -2.353484e+00 1.405603e-01 8.351588e-01 1.888628e-01 -1.979780e+00 8.585943e-01 -1.421542e+00 -1.920966e+00 -9.946339e-01 7.379633e-01 6.009925e-01 2.096825e+00 -4.693830e-01 -1.380371e+00 -2.803966e-01 -9.184891e-03 
-1.475030e+01 -2.198885e+00 -9.800451e+00 -5.023814e+00 2.149009e+00 -5.919809e+00 9.033936e-02 -1.321692e+00 5.670080e+00 2.060530e+00 1.013108e+00 9.392381e-01 8.153960e-01 1.283649e+00 -1.585740e+00 1.198525e+00 -2.311631e-01 -2.305710e+00 9.546976e-02 9.708978e-01 -5.022625e-02 2.385803e+00 1.124571e+00 -1.567104e+00 -4.544507e-01 -1.976800e-02 
-1.301374e+01 -3.521849e+00 -7.425115e+00 -1.381100e+00 5.391144e-01 -2.235402e+00 4.217477e+00 3.689086e-02 8.953951e+00 -3.425077e-01 -3.098777e+00 7.864820e-01 7.900969e-01 2.635371e+00 -1.064259e+00 1.227123e+00 1.462015e+00 -1.374878e+00 -1.237164e+00 -1.620183e-02 -1.498445e+00 5.085930e-01 9.373549e-01 -2.460437e+00 -8.186586e-01 -3.339003e-02 
-1.079414e+01 -4.571714e+00 -5.374185e+00 -3.034447e-01 -5.431229e-01 -2.508187e-01 5.608250e+00 -3.790056e-01 1.305005e+01 6.799957e+00 -4.479888e+00 -2.327001e+00 7.554855e-01 2.674752e+00 -1.102842e+00 4.943721e-01 1.602191e+00 1.023820e+00 -1.150714e+00 6.251075e-01 1.787464e-01 -6.320065e-01 -1.886443e-01 -2.840240e+00 -1.245185e+00 -5.136533e-02 
-5.325352e+00 -3.564575e+00 -5.890490e+00 3.200426e+00 6.809546e-01 -1.064732e+01 -1.105930e+00 -7.113378e+00 5.509154e+00 1.240423e+00 -1.190917e+01 -2.319613e+00 6.981639e-01 2.847774e+00 -7.452508e-01 1.630162e-01 -2.346758e-01 1.999175e+00 -2.361879e+00 -1.720954e+00 4.308271e-01 -2.878501e+00 -7.810014e-01 -1.134185e+00 -1.586872e+00 -8.203380e-02 
-5.220732e+00 -7.691730e+00 -8.095903e+00 6.963761e-01 7.197188e+00 -7.467422e+00 5.877580e+00 3.147175e+00 4.232446e+00 3.258429e-01 -8.782892e+00 -3.733638e+00 6.045358e-01 2.563200e+00 -7.495551e-01 -5.800056e-02 -1.998447e+00 2.357254e+00 -8.014184e-01 -4.012108e-01 1.141410e+00 -3.483430e+00 -4.214489e-01 4.955856e-01 -1.194289e+00 -9.546582e-02 
-1.561569e+00 -5.688096e+00 -5.249175e+00 -3.054390e+00 6.664835e+00 -1.043650e+01 -4.521957e+00 4.279364e-01 -1.029752e+00 -1.010458e+00 -6.618197e+00 -6.444559e+00 4.554027e-01 2.199636e+00 -7.725528e-01 1.340231e+00 -2.866199e+00 1.613010e+00 6.694986e-01 -4.878566e-02 1.466736e+00 -1.533998e+00 1.349810e+00 1.541901e+00 -1.719147e+00 -9.137954e-02 
1.399727e-01 -7.257730e+00 -5.984846e+00 -7.168272e+00 8.251207e+00 -4.363320e+00 5.310209e+00 1.557389e+00 -1.097647e+00 5.818153e+00 -4.647447e+00 -6.235972e+00 3.995370e-01 2.877908e+00 3.379010e-01 3.644122e+00 -1.664793e+00 4.492921e-01 1.366358e+00 4.851623e-01 -1.453255e+00 -2.022085e+00 1.102589e+00 1.188739e+00 -1.174824e+00 -6.933586e-02 
2.992474e+00 -7.644340e+00 -2.448645e-01 -7.198248e+00 8.218994e+00 -8.851873e+00 -1.066173e+00 1.015195e+00 5.042126e-01 5.243320e+00 -6.267387e+00 -9.664182e+00 3.437656e-01 2.340263e+00 4.946799e-02 2.352532e+00 -1.408346e-01 9.358631e-01 2.008317e+00 1.049666e+00 -1.088422e+00 -2.899691e+00 1.032198e+00 4.498132e-01 -8.059871e-01 -6.038259e-02 
6.891787e+00 -5.024103e+00 7.622550e+00 -5.555661e+00 8.666570e+00 -1.427942e+00 6.575500e+00 -4.412727e+00 -6.644963e+00 2.711897e+00 -3.014601e+00 -7.997949e+00 3.136751e-01 1.494402e+00 5.979858e-02 8.068069e-01 2.074344e-01 1.359284e-01 2.405190e+00 -5.724812e-01 -2.339014e-01 -3.541956e+00 -1.614137e+00 -1.532989e-02 -2.284646e-01 -6.172200e-02 
6.763840e+00 -6.557569e+00 -2.902126e-01 -4.564869e+00 1.113647e+01 -1.862604e+00 9.372926e-02 -2.029117e+00 -1.275455e+01 5.703658e+00 -5.185555e+00 -9.593506e+00 1.964207e-01 5.918536e-01 2.284029e-01 -7.180734e-01 1.876000e-01 -4.314887e-01 2.503019e+00 -3.791521e-01 6.885003e-01 -3.943218e+00 -2.137715e+00 1.225246e-01 1.493734e-01 -5.542652e-02 
5.726300e+00 -7.502122e+00 -1.928137e+00 -7.447790e+00 7.472111e+00 4.167992e+00 1.867852e+00 1.910038e+00 -1.217805e+01 -2.482701e+00 -5.265012e+00 -7.413633e+00 1.645994e-01 -1.881027e-03 2.447642e-01 -1.345389e+00 -7.343161e-02 -1.296905e+00 7.058582e-01 -1.815081e+00 -8.537691e-01 -2.707737e+00 -2.235125e+00 -6.602587e-01 -1.219709e+00 -4.711764e-02 
6.534485e+00 -5.263316e+00 9.401126e-01 -5.314183e+00 6.658780e+00 8.652556e-01 -6.081095e-01 1.296314e+00 -1.644534e+01 -2.847954e+00 -4.529558e+00 -9.209473e+00 1.411709e-01 -1.289244e-02 5.059664e-01 -1.753783e-02 -3.352312e-01 -1.667744e+00 1.305555e+00 -1.430101e+00 -1.681998e+00 -5.918495e-01 -2.035401e+00 3.096161e-01 -7.362968e-01 -2.834054e-02 
6.997059e+00 -4.447408e+00 2.804432e-01 -5.548162e+00 4.420891e+00 7.374196e-01 -2.148988e+00 -1.034429e+01 -1.833826e+01 -4.187922e+00 -6.643892e+00 -1.428851e+01 1.057118e-01 8.496161e-02 2.624055e-01 -1.305809e-01 4.946861e-01 -6.123731e-01 2.096879e+00 -1.108196e-01 -1.183910e+00 1.025665e+00 5.159029e-01 1.535553e+00 6.286520e-01 -1.982581e-02 
6.063998e+00 -5.555094e+00 -1.482192e+00 -7.190839e+00 4.323360e+00 6.380457e+00 -5.048355e+00 -4.311945e+00 -1.263369e+01 -3.620736e+00 -2.948034e+00 -9.837551e+00 8.416182e-02 2.156568e-01 -7.170077e-02 -5.502613e-01 4.597451e-01 -5.232952e-01 3.067981e+00 1.908037e+00 6.831193e-01 3.356714e+00 5.499463e-02 2.701060e-01 1.893739e+00 -1.901223e-02 
6.386352e+00 -6.044205e+00 -1.369889e+00 -4.036031e+00 5.577956e+00 1.189479e+01 3.533877e+00 -1.205382e+00 -8.955544e+00 4.832044e-01 1.621990e+00 -3.956334e+00 9.397489e-02 2.402332e-01 -3.748025e-01 -7.538937e-01 7.422692e-01 -1.113753e+00 2.833172e+00 2.750752e+00 2.495942e+00 3.464209e+00 -4.054224e-01 -7.985248e-02 2.625853e+00 -1.543823e-02 
7.918122e+00 -4.823421e+00 -9.860277e-01 -3.771523e+00 3.463772e+00 1.062648e+01 6.090643e+00 1.424569e-01 -4.353125e+00 -4.908544e+00 -7.311969e+00 -4.906867e+00 5.197817e-02 2.879755e-01 4.054168e-01 -1.756725e-01 7.015299e-01 -1.822493e+00 1.030709e+00 2.525620e+00 1.373279e+00 2.208403e+00 -1.115912e+00 -1.506086e+00 3.898733e-01 -1.927923e-02 
7.271163e+00 -6.687257e+00 -3.737108e+00 -3.546474e+00 -7.180785e-01 1.278027e+01 6.035274e+00 -9.178105e-02 -5.157495e+00 -5.571129e+00 -4.861187e+00 -3.624588e+00 4.461247e-02 -1.028960e-01 5.888811e-01 2.809594e-01 3.679198e-01 -1.469380e+00 2.521719e-01 6.819934e-01 8.156592e-01 9.397101e-01 -1.574006e+00 -1.493000e+00 -7.153346e-01 -1.831527e-02 
7.061470e+00 -3.206484e+00 -1.176945e+00 -3.927968e+00 -1.641087e+00 1.109126e+01 6.329045e+00 1.997648e+00 -3.490699e+00 -6.173128e+00 -7.236876e+00 -8.054057e+00 1.244688e-02 -4.204602e-01 8.058220e-01 3.810832e-01 5.522009e-02 -8.465745e-01 -1.034026e-01 4.333448e-02 2.226385e-01 -1.520346e-01 6.817266e-01 6.819743e-01 4.324695e-01 -1.328014e-02 
6.300198e+00 -3.908268e+00 1.303663e-01 -2.118209e+00 7.834864e-01 1.292326e+01 6.824643e+00 1.945319e+00 -4.688207e+00 -6.754535e+00 -5.880557e+00 -5.959412e+00 2.216417e-02 -2.663397e-01 1.393232e+00 4.565603e-01 5.639973e-02 -4.892471e-01 -1.347041e+00 -2.474997e-01 -2.288295e-01 -8.910477e-01 3.920066e-01 -2.708374e-01 1.206853e+00 -1.363679e-02 
6.301304e+00 -2.183806e+00 -1.014349e+00 -4.209555e+00 -1.519883e+00 1.003797e+01 5.912631e+00 2.370993e-01 -5.347942e+00 -9.082079e-01 -3.392413e+00 -1.577108e+00 -3.198385e-03 8.290806e-02 9.490760e-01 3.817856e-01 9.249773e-01 6.733209e-01 -8.979531e-02 9.917809e-01 6.951607e-01 -3.756298e-01 9.427812e-01 1.104408e+00 2.817859e+00 -9.053916e-03 
6.319548e+00 -2.324343e-01 -1.535604e+00 -3.123682e+00 -3.224916e+00 6.571710e+00 5.005982e+00 -3.556543e-01 -8.684113e+00 -6.243556e+00 -8.137606e+00 -8.287963e-01 -1.574886e-02 3.800909e-01 1.189853e+00 8.819150e-01 1.279817e+00 1.153459e+00 2.283283e-01 6.439602e-01 8.280791e-01 1.262663e+00 7.022353e-01 2.819567e-01 9.710600e-01 -1.255199e-02 
7.466335e+00 -2.990210e-01 1.564968e+00 1.199655e+00 3.729719e+00 1.381806e+01 1.219728e+01 6.623938e+00 -3.370895e+00 -1.714712e+00 -5.863108e-01 3.469930e+00 -1.386619e-02 1.421945e-01 5.021052e-01 1.301242e+00 2.085406e+00 2.486059e+00 1.906583e+00 9.563433e-01 6.196815e-01 2.289557e+00 -2.635146e-01 9.162542e-01 3.061249e-02 -1.066338e-02 
7.618136e+00 1.098606e+00 3.250283e+00 1.576270e+00 3.925982e+00 1.217485e+01 6.902120e+00 2.892295e+00 6.365827e-01 -2.840107e+00 -5.873824e+00 -3.627631e+00 -3.526187e-02 7.597256e-02 2.647615e-01 6.144447e-01 1.021937e+00 2.343117e+00 8.069957e-01 9.034408e-01 5.261346e-01 1.620055e+00 3.802051e-01 1.385250e+00 2.620566e-02 -8.482015e-03 
6.362982e+00 -3.388000e-01 3.098920e+00 3.867499e+00 7.334965e+00 1.676931e+01 9.746279e+00 1.711532e+00 1.439498e+00 -3.927506e+00 5.696774e-02 -2.462780e-02 -4.675877e-02 8.548536e-02 8.284383e-01 4.054336e-01 2.392370e-01 1.473016e+00 -3.730015e-01 -6.033916e-02 -1.336385e-01 8.189455e-01 -2.105062e-01 -2.825476e-01 -3.589798e-01 -6.508672e-03 
7.251087e+00 1.111263e+00 7.696433e-01 6.520827e-01 6.688045e+00 9.131061e+00 1.074869e+01 4.731222e+00 -2.989034e+00 -3.236135e+00 -1.532993e+00 1.049511e+00 -4.171264e-02 3.762055e-01 1.363001e+00 5.269486e-01 -1.773841e-01 6.154002e-01 -1.833232e-01 1.431847e-01 6.579875e-01 7.132127e-01 -2.533908e-01 -5.369918e-01 1.236748e+00 2.396297e-03 
8.077287e+00 3.836842e+00 4.832456e+00 2.857933e+00 9.713769e+00 1.347495e+01 9.972301e+00 5.036282e+00 2.536641e+00 -2.569229e+00 -4.169464e+00 -6.635394e-01 -4.318416e-02 4.174774e-01 1.344225e+00 4.638234e-01 -5.641121e-01 -1.065313e+00 7.757239e-02 -1.896721e-01 1.335280e-02 -8.683914e-01 -1.229706e+00 -5.386964e-01 3.736833e-01 6.298995e-03 
8.642012e+00 5.825789e+00 5.018258e+00 1.194132e+00 5.813581e+00 1.290542e+01 7.505032e+00 4.519857e+00 3.654075e+00 -4.786199e+00 -6.445567e+00 2.875566e+00 -2.506769e-02 -2.115757e-01 2.887164e-01 5.446278e-01 -1.304164e-01 -1.994278e+00 3.206699e-01 -9.632743e-01 -4.068971e-02 -3.110288e-01 -1.275537e+00 7.050245e-01 -2.006531e-02 -1.058936e-04 
7.754907e+00 4.025063e+00 3.293729e+00 7.759138e-01 2.445633e+00 1.527000e+01 1.041975e+01 1.883978e+00 -6.224013e+00 -9.301003e+00 -1.802273e-01 9.307609e-01 -2.358627e-02 -4.397383e-01 -4.714898e-01 -7.824529e-01 -7.592580e-01 -1.783079e+00 -7.229053e-01 -1.768018e+00 -5.038385e-01 -9.645131e-01 -1.653750e-01 8.925611e-01 -7.617315e-02 -4.988158e-03 
6.354399e+00 2.460735e+00 4.262146e+00 1.041010e+00 3.507214e-01 9.836886e+00 5.708593e+00 6.103926e+00 -1.638508e-01 -6.247934e+00 -2.489269e-03 1.520343e-01 -5.204105e-02 -5.496799e-01 -8.673538e-01 -8.761737e-01 -4.418318e-01 -2.756858e-01 -4.909809e-01 -2.132084e+00 -1.039358e+00 1.799423e-01 1.080436e+00 9.143932e-01 3.269263e-01 -1.084574e-02 
7.022402e+00 3.161920e+00 1.298247e+00 -8.617960e-01 3.529805e+00 1.139469e+01 2.030432e+00 1.725055e+00 -3.769622e-01 -2.665236e+00 -2.928197e+00 3.173609e-01 -5.463827e-02 -4.637903e-01 -2.968515e-01 -2.469564e-01 -2.210297e-01 7.014649e-01 -1.170186e+00 -2.486380e+00 -9.643801e-01 1.238886e+00 1.582692e+00 5.222762e-01 1.253456e+00 -9.819591e-03 
6.259865e+00 1.920591e+00 1.635131e+00 -1.961719e-01 3.893066e+00 1.238817e+01 1.039269e+00 -5.974691e-01 1.630261e+00 -2.701903e+00 -4.996154e-01 4.816898e+00 -6.377041e-02 -3.942315e-01 -1.264732e-01 -3.166284e-02 -3.419257e-01 7.030139e-01 -5.417358e-01 -1.186877e+00 -1.793187e+00 -8.590909e-01 3.165208e-01 1.911100e-01 5.962877e-01 -9.076595e-04 
5.483222e+00 2.810877e+00 3.372454e+00 2.893566e-01 4.181786e+00 8.143424e+00 3.225046e-01 4.127750e-01 -9.266374e-01 -3.160556e+00 2.679717e+00 4.865608e+00 -6.681955e-02 -8.165282e-01 -4.745261e-01 3.136193e-01 -5.639135e-02 -3.350912e-01 -1.274977e+00 -6.487408e-02 -2.448102e-01 -6.498579e-01 -4.344828e-01 1.623794e-01 -2.311806e-01 1.765370e-04 
5.152831e+00 2.003891e+00 3.066728e+00 -1.244195e+00 3.539801e+00 8.753840e+00 6.281710e-01 -2.205867e+00 -4.184468e+00 -4.417671e+00 -1.850896e+00 8.593494e-01 -5.048871e-02 -2.788111e-01 2.312433e-01 2.975427e-01 -3.499539e-01 -9.435414e-01 -1.012598e+00 9.216588e-01 6.248747e-01 -2.631584e-01 1.553147e-02 -1.017591e+00 -1.812734e+00 7.191896e-05 
3.493278e+00 7.476401e-01 2.150545e+00 -6.197414e-01 2.030981e+00 6.836967e+00 1.911610e+00 1.305203e+00 -7.188871e-01 -3.979767e+00 -1.440660e+00 1.140232e+00 -6.039643e-02 -1.171101e-01 1.602242e-01 6.594221e-01 -2.793239e-01 -8.417741e-01 -7.390180e-01 9.343332e-01 1.144468e+00 3.449357e-01 4.369768e-01 -1.501532e+00 -1.178705e+00 -7.657635e-03 
5.860782e+00 4.108426e+00 3.733799e+00 -1.491392e+00 2.507610e-01 7.978409e+00 4.853010e+00 2.080690e+00 2.105933e-01 -2.214641e+00 -3.527383e+00 -2.384085e+00 -6.662238e-02 -5.304193e-01 -6.905881e-02 7.960669e-01 -4.339513e-01 -8.827907e-01 -1.088928e+00 1.147980e+00 1.654048e+00 1.612082e+00 8.544899e-01 1.707174e-01 -1.057250e-01 -1.149967e-02 
4.543696e+00 2.559731e+00 6.336030e+00 -9.836640e-01 1.617435e+00 4.836050e+00 2.881751e+00 3.991837e+00 -1.399489e+00 -2.077187e+00 -3.989700e+00 5.937976e-01 -9.704089e-02 -6.920762e-01 -3.346052e-01 6.828072e-01 -6.965094e-01 -6.314861e-01 -8.723366e-01 8.972772e-01 9.472073e-01 1.387590e+00 6.884640e-01 7.240335e-01 1.915446e-01 -8.157921e-03 
1.975525e+00 7.525513e-01 4.954320e+00 -3.231990e+00 -6.673793e-01 4.309659e+00 5.883001e+00 4.721056e+00 4.216241e+00 -1.096511e+00 2.772107e-01 6.039417e-01 -8.966482e-02 -1.033869e+00 -8.518928e-01 1.059334e-01 -5.729520e-01 -4.121095e-01 -7.863889e-01 5.061232e-01 6.009952e-01 1.362703e+00 3.216935e-01 1.187610e+00 5.986197e-01 -3.870881e-03 
