-8.037511e+00 3.334541e+00 5.219172e+00 2.897980e+00 9.829245e-01 3.076488e+00 3.197781e+00 3.631080e+00 4.925601e+00 4.057745e+00 4.025928e+00 6.062784e+00 -6.073725e-02 9.961186e-02 3.682936e-01 -2.945976e-01 -1.160988e+00 -8.105289e-01 -7.076185e-01 3.311306e-01 -1.646171e-01 -1.072055e+00 3.827392e-01 1.396321e+00 -6.153505e-02 6.233168e-03 
-7.478599e+00 5.220881e+00 7.119586e+00 3.240292e+00 1.254009e+00 2.661958e+00 4.353845e+00 1.638268e+00 7.663069e-01 6.566675e+00 9.039484e+00 8.162903e+00 -5.398524e-02 -2.630806e-01 5.971951e-01 2.730336e-01 -8.900730e-01 -1.004544e+00 -6.467637e-01 -6.050848e-02 7.569263e-02 -9.372743e-01 1.109886e+00 1.697945e+00 -9.143245e-03 7.165551e-03 
-7.818908e+00 4.232840e+00 2.795977e+00 -3.078116e+00 -3.205263e+00 -2.543401e-01 4.275401e+00 3.804400e+00 1.644971e+00 4.716975e+00 8.500755e+00 4.705049e+00 -3.294742e-02 -2.117663e-02 4.730069e-01 -2.198185e-01 -2.577040e-01 4.007036e-01 -1.031238e-01 -4.836578e-01 -3.116418e-01 -1.912846e-01 1.092853e+00 9.467890e-01 -6.035304e-01 1.113422e-02 
-9.462215e+00 5.871368e+00 7.795938e+00 1.435664e+00 -1.945702e+00 1.508084e+00 2.356428e+00 3.922883e+00 1.879544e+00 9.277559e+00 1.027824e+01 6.695935e+00 -3.880441e-02 -4.113598e-02 -1.301885e-01 -5.369571e-01 -1.520294e-01 4.428748e-01 3.743125e-01 -7.287241e-01 -4.039316e-01 4.323975e-01 1.040323e+00 -8.121324e-03 -2.371990e-02 2.533197e-03 
-7.151586e+00 5.374332e+00 3.781904e+00 2.511775e+00 4.586298e+00 3.137806e+00 1.778200e+00 9.305630e-01 3.412559e+00 8.166569e+00 8.140496e+00 3.778616e+00 -1.265657e-02 4.118237e-01 2.633297e-01 1.625770e-01 9.557851e-01 9.632789e-01 7.514857e-01 -8.709547e-01 -1.351992e+00 -8.673725e-02 1.480131e+00 -5.239400e-01 3.529110e-02 -2.574658e-03 
-8.017940e+00 3.999192e+00 3.941837e+00 -3.148005e-01 -4.273973e-01 2.837448e+00 1.958825e+00 1.055528e+00 2.044500e+00 1.004349e+01 9.179007e+00 8.507521e+00 -5.146468e-02 5.868133e-01 2.241071e-01 -2.564419e-01 9.586869e-01 1.065310e+00 -1.261734e-01 -6.795515e-01 -5.321757e-01 3.499047e-01 9.250905e-01 -7.513889e-01 4.278644e-01 -2.541280e-03 
-6.481927e+00 6.485576e+00 5.535913e+00 2.576041e+00 8.519800e-01 2.838407e+00 1.194291e-01 -1.521885e+00 1.128806e+00 1.173466e+01 6.430671e+00 3.975711e+00 -3.949058e-02 8.822469e-02 2.615387e-02 2.712393e-01 1.319826e+00 3.448966e-01 -5.158052e-01 -6.223840e-01 4.684986e-01 -5.787196e-01 -5.207813e-01 -2.320281e-01 1.080817e+00 -2.909124e-03 
-6.862978e+00 6.436282e+00 5.636724e+00 6.196966e+00 5.248007e+00 1.026917e+00 -2.119443e-01 2.488228e+00 4.770944e+00 1.211897e+01 7.376206e+00 8.736710e+00 -3.809381e-02 3.124057e-01 -7.543526e-02 -4.236566e-01 1.412143e+00 8.003464e-01 -4.899085e-02 1.445675e-03 1.327257e+00 1.244901e+00 -3.696133e-01 -2.059895e-01 2.567539e-01 8.501423e-03 
-7.287943e+00 4.286557e+00 4.290657e+00 5.855021e+00 3.473079e+00 1.464046e+00 -2.483351e-01 2.556706e+00 -8.442605e-01 4.524927e+00 7.881756e+00 9.068106e+00 -3.388762e-02 -2.736188e-01 -4.469191e-01 -2.338457e-01 -1.959882e-02 1.628169e-01 8.010616e-01 5.109118e-01 1.663150e+00 1.857530e+00 -3.857046e-01 2.560496e-01 4.699480e-01 5.466604e-03 
-6.052903e+00 4.721525e+00 2.446182e+00 5.106427e+00 2.263785e+00 3.279674e+00 2.149935e+00 5.652516e+00 9.255540e+00 1.180029e+01 7.423517e+00 7.245092e+00 -1.175904e-02 -9.743805e-02 1.726851e-01 2.303064e-01 -7.028019e-01 -8.101139e-01 1.279232e+00 7.877973e-01 -1.416750e-02 -2.123390e-01 -6.312590e-01 -6.732719e-02 -2.800221e-01 1.030082e-02 
-8.255058e+00 5.108358e+00 5.961955e+00 3.023316e+00 3.158175e+00 5.717336e+00 1.493048e+00 5.211723e+00 8.174160e+00 9.965475e+00 7.687263e+00 7.071259e+00 -2.532494e-02 8.951225e-02 4.020458e-01 7.561203e-01 -9.561166e-01 -2.711447e-01 4.937471e-01 4.752232e-01 -7.307482e-01 -2.937785e-01 7.674699e-02 4.070693e-01 -3.372286e-01 -1.795280e-03 
-6.866611e+00 6.888806e+00 5.952607e+00 4.098808e+00 1.354889e+00 5.296432e+00 2.856350e+00 1.089882e+00 -7.999613e-01 6.242396e+00 7.136817e+00 8.335022e+00 9.128928e-03 1.807519e-01 -3.623612e-02 5.021130e-01 -8.940431e-01 -3.641217e-01 -1.899123e+00 -6.508286e-02 -1.389760e+00 -1.916661e+00 -1.167572e+00 1.625510e-01 -3.654997e-01 -1.357802e-02 
-6.433528e+00 5.213145e+00 6.318046e+00 1.578248e+00 2.571804e+00 2.924402e+00 1.774574e+00 1.184282e+00 2.714598e+00 7.687612e+00 1.006045e+01 6.836998e+00 -5.330801e-02 2.470777e-01 -5.401355e-01 -9.522362e-01 -7.336443e-01 -4.063669e-01 -2.096039e+00 3.496090e-01 -1.150875e+00 -7.664081e-01 -1.578979e+00 -6.209894e-01 -1.551508e-01 -1.620749e-02 
-6.059909e+00 4.487951e+00 4.778701e+00 1.358746e+00 7.363622e-01 -4.819473e+00 1.683758e+00 7.174356e-01 2.402015e+00 7.101365e+00 7.049677e+00 5.534725e+00 -6.565762e-02 -2.033283e-01 -1.009256e+00 -8.835564e-01 -6.571361e-01 8.875734e-02 -1.037349e+00 6.242893e-01 1.749693e-02 -6.236374e-03 -5.012249e-01 -3.699217e-02 4.533916e-02 -1.609300e-02 
-7.423020e+00 3.608109e+00 1.787726e+00 7.251262e-01 1.435604e+00 2.950935e-01 3.827389e+00 -3.564303e-01 2.741131e+00 1.641096e+00 4.625886e+00 7.695654e+00 -6.896913e-02 -1.631679e-01 -5.123544e-01 -1.167076e+00 1.663655e-01 -3.052384e-01 1.903395e-01 3.871710e-01 1.085471e+00 -1.048209e-01 3.331599e-02 -5.610950e-01 1.258939e+00 1.065036e-02 
-7.388506e+00 2.645043e+00 3.799985e+00 1.239689e+00 2.366775e+00 1.424342e+00 4.951389e+00 1.947723e+00 -8.444099e-01 6.759529e+00 9.669139e+00 8.132389e+00 -6.350553e-02 -2.544212e-03 -2.870255e-01 -1.120754e+00 1.479328e-01 -1.897990e-01 1.648511e+00 8.719632e-01 1.197124e+00 2.616980e-01 1.056941e+00 2.376894e-01 1.695183e+00 9.820974e-03 
-6.585069e+00 3.572828e+00 9.720244e-01 2.469604e+00 2.304053e-01 7.541922e-01 2.076614e+00 5.996491e+00 3.813706e+00 8.025109e+00 5.945247e+00 1.183286e+01 -1.132250e-03 4.055130e-01 3.291892e-01 -5.007182e-01 7.701721e-01 -6.956142e-02 -9.890511e-02 -1.251503e+00 9.394377e-02 1.002305e+00 8.629133e-01 1.683195e-01 -2.077308e-01 9.308720e-03 
-6.491606e+00 3.070464e+00 -4.172182e-01 1.226171e+00 3.899665e-01 3.193532e+00 6.918962e+00 3.526593e+00 3.174218e+00 9.194065e+00 7.578444e+00 1.194204e+01 -5.047119e-02 3.742014e-01 1.952499e-01 -3.118277e-01 5.325856e-01 2.763811e-01 -3.846816e-01 -8.468811e-01 -1.510739e-01 6.960586e-01 -8.753074e-01 -1.051817e+00 -1.423888e+00 -2.463424e-03 
-5.843905e+00 5.041344e+00 1.392737e+00 4.582746e+00 2.076201e+00 -1.084027e+00 -3.413913e+00 -6.761464e-01 5.743340e+00 4.738394e+00 6.512831e+00 4.752175e+00 -2.894270e-02 -1.066244e+00 -7.688001e-01 9.747909e-01 -1.084421e+00 1.857857e+00 -1.922544e+00 -1.023487e-01 1.420023e-02 -3.013244e-01 -1.095707e+00 -1.507924e+00 -1.935794e+00 2.144445e-02 
-5.888081e+00 2.887034e+00 2.030490e+00 2.846046e+00 2.825783e+00 4.200433e-01 3.462247e+00 4.528672e+00 1.671066e+00 4.026350e+00 4.126262e+00 4.553289e+00 -6.191742e-02 -1.560758e+00 -7.292391e-01 1.829303e+00 -1.304958e+00 2.915562e+00 -2.778719e+00 -3.555891e-01 1.518350e+00 7.776063e-01 -5.140094e-01 -2.451818e+00 -9.820275e-01 6.096398e-02 
-1.221805e+01 -1.794581e-01 4.622125e+00 -3.762438e+00 8.301783e+00 -7.471781e+00 3.293228e+00 5.566453e+00 3.058660e+00 5.130431e+00 1.317182e-01 5.848265e+00 1.118131e-01 -3.537914e-01 -2.225606e-01 1.031006e+00 1.161332e-02 1.464732e+00 -4.301220e-01 -5.769187e-02 2.172338e+00 5.782477e-01 6.854188e-01 -1.034460e+00 3.871712e-01 2.778597e-02 
-1.110832e+01 2.034669e+00 7.114600e+00 -1.126024e+00 1.185499e+01 -7.506186e+00 1.787446e+00 7.997045e+00 8.404590e+00 6.427999e+00 -1.490089e+00 6.483856e+00 1.839708e-01 5.877452e-01 4.782576e-01 -1.472314e-01 9.233283e-01 5.716290e-02 8.951769e-01 -1.418121e+00 1.058960e-02 6.812118e-01 3.335420e-01 3.611378e-01 6.733961e-01 -1.079826e-02 
-5.002742e+00 4.354723e+00 4.005709e+00 6.626847e+00 4.885260e+00 7.284774e-01 -2.864972e+00 8.451356e+00 5.267817e+00 6.964664e+00 4.148708e+00 5.722748e+00 -1.295698e-02 1.410884e+00 8.904434e-01 -6.541274e-01 1.618323e+00 -1.692131e+00 1.856555e+00 -6.081611e-01 -4.321172e-01 6.974227e-01 7.060076e-01 1.414707e+00 4.673953e-01 -5.167669e-02 
-6.557010e+00 3.011231e+00 1.602541e+00 2.268044e+00 4.819859e+00 7.957984e-01 -5.492580e-01 3.139169e+00 3.972547e+00 4.776943e+00 3.923456e+00 7.983028e+00 -5.352366e-02 5.664864e-01 1.871003e-01 -1.024028e+00 6.593167e-01 -1.962709e+00 1.319371e+00 1.417719e-01 1.392552e-01 -9.491024e-02 8.181994e-02 1.110458e+00 -1.628309e-01 -4.078383e-02 
-7.439288e+00 3.784478e+00 4.107518e+00 2.632144e+00 3.358693e+00 -2.339997e+00 1.420775e+00 5.834805e+00 8.761795e+00 9.485997e+00 4.498481e+00 7.435656e+00 -2.782309e-02 -3.591433e-01 4.803723e-01 7.296822e-01 -5.790070e-01 -7.414739e-01 1.539458e-01 5.294160e-01 -1.148319e+00 1.399175e-01 4.866936e-01 9.156671e-01 -6.572077e-01 -5.857813e-03 
-7.057617e+00 3.255294e+00 1.943557e+00 4.167911e+00 2.804723e+00 6.249084e-01 3.534317e-01 1.000160e+01 6.183049e+00 5.576432e+00 3.887316e+00 4.813248e+00 -1.251531e-02 -2.820546e-01 6.417125e-01 1.257021e+00 3.283734e-01 -9.913684e-01 -3.288966e-01 3.349334e-01 -7.599236e-01 2.813470e-01 7.852737e-01 3.344033e-01 -5.209567e-01 -4.943204e-03 
-6.548155e+00 6.634554e+00 7.483612e+00 2.781879e+00 2.185459e+00 1.583651e+00 -6.692374e-01 -7.214540e-01 4.862153e+00 8.998386e+00 8.745113e+00 4.021600e+00 -6.275022e-02 -1.300743e-01 1.858081e-01 7.122278e-01 -3.749491e-01 -1.018578e+00 -5.324953e-01 -3.985788e-01 -1.473543e+00 -1.004232e+00 2.452427e-01 3.545097e-01 -4.402627e-01 -1.635205e-02 
-8.412849e+00 4.794756e+00 6.199600e+00 3.835044e+00 4.496336e-01 -2.810509e+00 2.170415e+00 2.617680e+00 7.329103e+00 8.947117e+00 3.472156e+00 7.085273e+00 -6.077611e-02 -7.416315e-02 9.875846e-02 2.872348e-01 -3.059586e-01 -4.673212e-02 -5.310062e-01 1.096507e+00 -1.013318e+00 -4.197233e-01 9.189742e-01 8.176748e-02 8.632424e-01 -1.052275e-02 
-7.412044e+00 3.943787e+00 5.540636e+00 9.238321e-01 -5.566511e-01 -3.284765e+00 -1.480611e+00 2.159048e+00 3.167608e+00 9.026869e+00 6.478610e+00 4.098329e+00 -8.545291e-02 -2.269163e-01 -7.935779e-02 -9.663242e-01 -4.368029e-01 4.522843e-02 -1.191003e-01 7.656318e-01 7.677239e-01 -1.116652e+00 4.431486e-03 -3.116112e-01 6.869613e-01 9.891903e-03 
-6.996489e+00 5.094470e+00 4.351220e+00 3.567141e+00 3.942117e+00 4.040862e-01 6.241655e+00 3.494754e+00 4.931705e+00 1.015706e+01 5.429406e+00 9.091095e+00 -5.377769e-02 -6.794272e-02 2.105320e-01 -2.305866e-01 -2.701066e-02 5.288116e-01 8.903214e-01 8.381235e-01 2.929192e-01 -1.512084e-01 4.227431e-01 8.239099e-01 1.799026e-01 1.210910e-02 
-8.390917e+00 6.087908e+00 3.576181e+00 7.318157e-01 6.653593e-01 -6.191479e-01 1.123302e+00 2.678628e+00 4.775925e-01 8.415571e+00 6.208433e+00 6.453495e+00 -1.678991e-02 -1.961575e-02 5.985364e-01 1.288164e-01 1.145959e+00 1.091785e+00 1.796181e+00 -2.878609e-02 -4.434055e-01 -9.414782e-02 -8.885137e-01 3.128500e-01 8.332580e-01 2.230296e-02 
-8.263126e+00 4.775355e+00 6.028894e+00 3.795999e+00 2.482687e+00 3.082895e-01 5.059076e+00 3.822486e+00 7.918069e+00 1.136648e+01 7.726794e+00 6.807203e+00 -3.456211e-02 6.403188e-01 7.417864e-01 7.667401e-01 5.444422e-01 3.505704e-01 2.183283e+00 -1.217883e+00 -7.448121e-01 -1.457361e-01 -1.088636e+00 -3.353041e-01 -6.282147e-01 6.568038e-03 
-6.876803e+00 7.096026e+00 5.345881e+00 6.539201e+00 5.631988e+00 5.744040e+00 -1.033252e+00 -2.218459e-01 1.203687e+00 3.979591e+00 6.894165e+00 9.406566e+00 1.645410e-02 2.940240e-01 -6.902833e-02 7.423587e-01 7.008985e-01 7.745795e-01 -2.356304e-01 1.101184e+00 -2.930092e-01 -8.864250e-01 -1.890048e+00 -9.572797e-01 2.465686e-01 4.084015e-03 
-4.551951e+00 8.299342e+00 7.300071e+00 3.385660e+00 3.211655e+00 8.138906e+00 1.230518e+00 1.220931e+00 3.839977e+00 6.931874e+00 3.410019e+00 4.473487e+00 -3.755951e-02 -1.298992e+00 -1.188889e+00 4.301784e-01 6.856855e-01 7.657286e-01 -5.553194e+00 1.095889e+00 9.167099e-01 -2.455448e+00 -1.464290e+00 -4.783974e-02 2.003660e-01 5.142193e-02 
-8.776384e+00 3.980773e+00 6.652386e+00 4.441478e+00 4.173773e+00 -5.712608e+00 8.543502e+00 2.514359e+00 -1.915487e+00 1.182634e+00 3.580422e+00 8.853196e+00 5.128860e-03 -1.211203e+00 -1.413422e+00 -5.265173e-01 -4.499152e-01 -6.889590e-01 -4.578301e+00 1.514556e+00 9.077350e-01 -1.661918e+00 7.735388e-02 4.148914e-01 2.496833e-01 2.325050e-02 
-1.380830e+01 3.885360e-01 7.526534e+00 8.273288e+00 7.040437e+00 -2.172935e+01 5.750147e+00 7.037933e+00 -2.799584e+00 5.443507e+00 9.144467e+00 8.085717e+00 2.282102e-01 -4.492165e-01 -5.411024e-01 -1.446734e+00 -7.561780e-01 -1.312544e+00 -8.058821e-01 -3.137084e-01 -3.501630e-01 -2.084517e-01 8.810438e-01 8.403049e-01 3.252729e-01 1.701868e-03 
-8.304647e+00 3.984320e+00 2.600063e+00 1.845811e+00 2.728012e-01 -2.213339e+00 4.279713e+00 1.408329e+00 -3.786122e+00 5.110544e+00 6.101398e+00 8.848867e+00 -1.782179e-04 2.051900e+00 1.705063e+00 -3.112926e-01 -9.704193e-01 -2.184331e+00 2.834616e+00 -3.577363e+00 -3.208085e+00 9.992943e-02 1.151266e+00 -5.083809e-01 -1.266950e+00 -3.096851e-02 
-7.033902e+00 5.592057e+00 2.092563e+00 9.026032e-01 -1.400579e+00 2.359861e+00 1.793870e+00 2.313137e-02 3.733036e+00 9.373138e+00 6.351055e+00 6.102016e+00 -2.639663e-02 4.705890e+00 3.015979e+00 6.269569e-01 -2.203255e+00 -4.676560e+00 2.414277e+00 -3.210330e+00 -4.117459e+00 -1.557559e+00 -2.345337e+00 -3.667542e+00 -2.706327e+00 5.931032e-03 
-1.904079e+00 9.904326e+00 7.812909e+00 3.274724e+00 -2.527375e+00 -3.584137e+00 -7.365178e+00 -1.001867e+01 -4.682150e+00 4.974148e+00 2.435223e+00 3.510296e+00 -2.241027e-02 5.134753e+00 2.574426e+00 2.080999e+00 -5.996993e-01 -4.755826e+00 -1.234329e+00 -6.017551e-01 -2.814270e+00 -2.524004e+00 -3.997756e+00 -4.047884e+00 -2.334587e+00 1.068634e-01 
6.520869e+00 1.250843e+01 8.054895e+00 -3.457445e+00 -1.494228e+01 -8.972570e+00 -4.479060e+00 -7.835868e+00 -1.013937e+01 -6.214982e+00 -7.360156e+00 -2.776634e+00 2.689813e-01 5.170655e+00 1.234012e+00 1.346217e+00 -4.733442e-02 -4.351292e+00 -1.734632e+00 1.081811e+00 -2.597187e+00 -4.140995e+00 -3.265910e+00 -3.047558e+00 -1.236001e+00 1.426508e-01 
1.059173e+01 1.339827e+01 1.002389e+01 1.027338e+00 -1.673549e+01 -2.718766e+00 4.407403e+00 -8.733519e+00 -9.469938e+00 -7.084176e+00 -7.282414e+00 1.615257e+00 3.864500e-01 3.387247e+00 2.925277e-01 3.138940e-01 5.301208e-02 -2.430488e+00 1.587586e-01 2.437455e+00 -1.161824e+00 -2.249834e+00 -3.726735e-01 -1.511047e+00 -9.446117e-01 1.273200e-01 
1.257147e+01 1.001515e+01 7.718157e+00 1.789624e+00 -1.605299e+01 -6.745983e+00 1.316636e+00 -1.360537e+01 -1.457804e+01 -9.272485e-01 -4.027914e+00 8.695302e-01 4.824270e-01 1.291017e+00 -1.508304e-01 -2.402732e-02 1.348407e+00 4.715298e-01 7.265462e-01 1.091196e+00 -1.327584e+00 -8.536800e-01 1.327969e+00 5.403444e-01 2.736253e-01 6.303202e-02 
1.200686e+01 1.261360e+01 9.550748e+00 9.162498e-01 -1.412446e+01 -3.903637e+00 1.924246e+00 -1.294303e+01 -1.371198e+01 4.669137e-01 -6.786134e+00 -3.035844e+00 5.074668e-01 -2.890544e-02 -1.320029e+00 -1.347585e+00 5.793563e-01 1.928122e+00 -1.596845e+00 -1.686015e+00 1.099427e-01 3.651441e-01 7.736062e-01 -3.011627e-02 -1.129891e+00 3.797951e-02 
1.226839e+01 1.214661e+01 8.171329e+00 3.340133e+00 -1.389014e+01 -4.747404e+00 2.218495e+00 -1.236903e+01 -1.228674e+01 -3.350682e+00 -4.906574e+00 9.170432e-01 5.236330e-01 -1.315396e+00 -2.882445e+00 -2.789574e+00 -5.416632e-01 3.169500e+00 -2.022815e+00 -3.366099e+00 3.224387e+00 2.328001e+00 1.639972e-02 -1.916611e+00 -1.200393e+00 3.879126e-02 
1.059874e+01 5.732391e+00 3.059378e+00 3.148865e+00 -8.176300e+00 -1.170228e+01 -4.473602e+00 -8.801977e+00 -8.789867e+00 -2.004428e+00 -6.993666e+00 -4.057954e+00 5.557445e-01 -1.455009e+00 -5.475536e+00 -4.273187e+00 -1.363496e+00 3.010991e+00 -1.920430e+00 -4.287777e+00 4.276723e+00 2.793606e+00 4.205264e-01 -2.655827e+00 -1.058587e+00 6.680614e-02 
6.698545e+00 -9.564687e-01 -2.984031e+00 -2.035000e+00 -3.179566e+00 -1.296074e+01 -1.231494e+01 4.460318e-01 -5.399094e+00 3.904209e-01 -1.350720e+01 -4.621381e+00 6.522444e-01 -1.008563e+00 -5.812047e+00 -4.769742e+00 -1.883967e+00 2.978029e+00 -1.734404e-01 -3.349404e+00 3.986627e+00 2.332259e+00 7.618505e-01 -2.863350e+00 -1.406244e+00 9.140585e-02 
7.516733e+00 -8.212541e+00 -6.237508e+00 -3.213662e+00 -4.424791e+00 -9.399120e+00 -1.224792e+01 2.033054e+00 -3.187775e+00 6.989946e-01 -1.576496e+01 -5.559566e+00 7.771918e-01 -3.369928e-01 -3.962709e+00 -3.957977e+00 -1.664775e+00 2.494558e+00 2.618191e+00 -2.354290e+00 2.062410e+00 1.586400e+00 -8.358620e-01 -4.360443e-01 -7.256175e-01 9.405360e-02 
8.766582e+00 -9.941164e+00 -1.102894e+01 -2.898440e+00 -8.757482e-01 -6.766185e+00 -1.064137e+01 2.146590e+00 -3.426497e+00 -8.931403e-01 -1.483768e+01 -5.363369e+00 8.699387e-01 2.504845e-01 -1.897505e+00 -2.553707e+00 -1.082764e+00 2.452552e+00 4.132709e+00 -2.145647e+00 -2.705050e-01 7.476526e-01 -2.045609e+00 2.476897e+00 -9.081085e-01 7.358303e-02 
7.879762e+00 -9.588805e+00 -1.270805e+01 -4.743287e+00 3.144581e+00 -1.708604e+00 -1.708184e+01 6.597958e-01 -1.844166e+00 -5.541957e+00 -8.508649e+00 -7.315047e+00 9.171654e-01 2.278582e-02 -1.623774e-02 -1.596967e+00 -1.451128e+00 2.707716e+00 4.413306e+00 -2.836715e+00 -1.143703e+00 7.596933e-01 -2.717435e+00 3.855997e+00 -1.509695e+00 4.195976e-02 
7.769453e+00 -9.755862e+00 -1.251729e+01 -6.684006e+00 5.298510e+00 3.857543e+00 -2.062621e+01 -2.198639e-01 -2.332635e+00 -6.717149e+00 -4.750871e+00 -8.284183e+00 9.501728e-01 -1.455897e-01 1.022243e+00 -4.330429e-01 -1.525388e+00 1.735874e+00 4.221190e+00 -1.628757e+00 -1.525257e+00 6.870310e-01 -1.597687e+00 3.561304e+00 -1.516653e+00 1.389077e-02 
8.129227e+00 -8.386380e+00 -1.347816e+01 -8.576522e+00 6.026661e+00 7.355549e+00 -2.143907e+01 -2.502235e+00 6.376004e-02 -9.976177e+00 -1.528377e+00 -1.164763e+01 9.468735e-01 -3.026421e-02 1.111232e+00 -7.017795e-01 -1.327643e+00 3.048633e-01 1.842180e+00 4.292566e-01 -2.151612e+00 -3.345587e-01 -1.380114e+00 1.368737e+00 -1.365662e+00 -2.327454e-03 
7.913901e+00 -5.431162e+00 -1.280910e+01 -8.608763e+00 6.362582e+00 9.807692e+00 -1.660653e+01 -3.898677e+00 -9.453053e-01 -6.664466e+00 -5.212970e-01 -1.078034e+01 9.245385e-01 -1.058715e-01 6.885190e-01 -5.690304e-01 -1.031175e+00 -8.913271e-01 1.958377e-02 1.203011e+00 -2.419049e+00 -9.627285e-01 -1.383315e+00 -3.049043e-01 -7.887663e-01 -1.083702e-02 
7.656217e+00 -6.194994e+00 -1.607105e+01 -1.041913e+01 4.136861e+00 4.527222e+00 -1.694539e+01 -8.258860e+00 -4.210625e+00 -1.246887e+01 -3.779749e+00 -1.289528e+01 9.183453e-01 -1.657224e-01 -1.893997e-03 -4.359524e-01 -1.658746e-01 -1.529866e+00 -8.704724e-01 1.251064e+00 -2.249872e+00 -1.329196e+00 -8.585079e-01 -8.836708e-01 -3.702324e-01 -7.786972e-03 
7.476601e+00 -7.408960e+00 -1.406600e+01 -1.091858e+01 1.786774e+00 5.369626e+00 -1.685800e+01 -9.436796e+00 -5.009085e+00 -1.238738e+01 -5.149706e+00 -1.160419e+01 9.102518e-01 1.206232e-01 -5.321349e-01 3.560619e-02 1.877663e-01 -9.572294e-01 -2.551796e-01 4.867989e-01 -1.203138e+00 -7.758598e-02 -9.287931e-01 4.233367e-01 -3.124390e-01 5.695164e-04 
7.519266e+00 -7.406951e+00 -1.502947e+01 -8.250987e+00 6.652346e-01 5.222219e+00 -1.505802e+01 -1.098254e+01 -4.550329e+00 -1.140726e+01 -3.632526e+00 -1.308687e+01 9.150820e-01 4.814956e-01 -5.223071e-01 2.156401e-01 4.586475e-01 2.590335e-01 1.852295e-01 2.746879e-01 2.645394e-01 1.611830e-01 2.719328e-01 1.632465e+00 1.192980e-01 9.132683e-03 
8.585492e+00 -7.485858e+00 -1.315185e+01 -8.754001e+00 3.312248e+00 8.184295e+00 -1.511623e+01 -8.552530e+00 -1.163383e+00 -1.183924e+01 1.521775e+00 -1.224674e+01 9.290177e-01 5.881923e-01 -2.630406e-02 -5.496407e-02 3.833811e-01 1.221979e+00 4.220552e-01 2.164938e-01 1.127702e+00 7.284757e-01 5.151412e-01 1.874298e+00 9.954087e-01 1.302428e-02 
9.509249e+00 -8.768081e+00 -1.544992e+01 -9.208177e+00 4.669292e+00 4.046035e+00 -1.644284e+01 -7.378294e+00 -5.327560e+00 -1.138328e+01 1.046835e+00 -1.197751e+01 9.546257e-01 5.629949e-01 3.863835e-01 -8.240356e-02 1.269386e-01 1.235994e+00 6.067857e-01 1.284443e-01 1.331037e+00 7.855188e-01 6.649178e-01 1.314921e+00 1.386599e+00 8.878833e-03 
9.422571e+00 -6.859916e+00 -1.413060e+01 -8.523078e+00 5.894642e+00 8.067994e+00 -1.508312e+01 -5.600408e+00 -9.780905e-01 -9.823666e+00 1.882105e+00 -7.181828e+00 9.556013e-01 4.374151e-01 5.185357e-01 -5.998138e-01 3.251877e-01 6.616929e-01 -2.704642e-01 6.633478e-01 1.216706e-01 1.062527e+00 -1.238600e-01 6.283598e-01 8.143385e-01 -5.254924e-04 
9.915701e+00 -5.788004e+00 -1.495212e+01 -7.731755e+00 5.554006e+00 8.314299e+00 -1.443235e+01 -5.803415e+00 -7.153811e-01 -9.090458e+00 2.761911e+00 -8.686332e+00 9.461843e-01 4.073411e-01 6.647283e-01 -2.894169e-01 9.599457e-02 3.027738e-01 -9.651808e-02 7.728910e-01 -5.361450e-01 1.990497e+00 -1.106838e+00 4.557027e-01 1.896569e-01 -1.216264e-02 
1.056934e+01 -6.383218e+00 -1.639982e+01 -7.866273e+00 6.178356e+00 4.697842e+00 -1.280473e+01 -8.731617e+00 1.843163e+00 -1.360494e+01 3.806036e+00 -9.820640e+00 9.306110e-01 2.967781e-01 4.398332e-01 -3.941503e-01 -4.182490e-01 -2.032178e-01 -4.989584e-01 2.586119e-01 -1.620319e+00 1.581202e+00 -1.642377e+00 -4.812967e-01 -5.760654e-01 -1.650249e-02 
1.097257e+01 -5.682788e+00 -1.576239e+01 -9.056606e+00 6.041304e+00 5.248520e+00 -1.371758e+01 -8.493414e+00 3.214299e+00 -1.502682e+01 2.363383e+00 -9.709823e+00 9.063077e-01 7.779436e-02 6.430971e-01 7.457161e-03 -3.227110e-01 -1.730030e-01 3.113064e-01 -8.205967e-02 -1.243529e+00 1.863380e+00 -1.073798e+00 -1.296763e+00 3.303119e-01 -1.727038e-02 
1.037803e+01 -4.713358e+00 -1.569621e+01 -9.951898e+00 4.634904e+00 7.106091e+00 -1.414745e+01 -1.235700e+01 4.963081e+00 -1.506737e+01 -3.251143e-01 -9.550409e+00 8.930272e-01 -2.295459e-01 7.930313e-01 -8.098106e-02 1.117434e-01 -2.007643e-01 2.114671e-01 -3.406809e-01 -2.490236e-01 9.880179e-01 -2.407721e-01 -1.618934e+00 8.539426e-01 -1.517633e-02 
1.040033e+01 -3.407449e+00 -1.526664e+01 -8.302498e+00 5.460717e+00 8.666706e+00 -1.417129e+01 -1.020837e+01 7.041560e+00 -1.372824e+01 -1.656329e+00 -7.169888e+00 8.786243e-01 -4.048247e-01 6.950951e-03 -3.350412e-01 1.208058e+00 -4.963002e-01 -9.436300e-01 -2.713484e-01 7.685977e-01 3.222674e-01 -1.001425e-01 -1.479434e+00 8.173145e-01 -6.912130e-03 
9.707732e+00 -3.555731e+00 -1.705261e+01 -7.684610e+00 5.464828e+00 4.046084e+00 -1.428128e+01 -9.119259e+00 4.869622e+00 -1.545810e+01 -2.278780e+00 -6.820894e+00 8.685710e-01 -3.964317e-01 -1.507743e+00 1.780983e-01 2.467112e+00 -1.041677e+00 -2.042570e+00 6.888088e-01 1.656559e+00 -6.958746e-01 9.393612e-01 -1.023083e+00 -2.106944e-01 9.225965e-03 
9.283593e+00 -6.226847e+00 -1.675940e+01 -4.149961e+00 3.144841e+00 2.060374e+00 -1.500740e+01 -6.269298e+00 4.872366e+00 -1.533217e+01 -4.056955e+00 -6.988008e+00 8.839751e-01 -6.341127e-01 -3.130409e+00 1.481916e+00 2.854299e+00 -2.113815e+00 -1.481683e+00 1.255201e+00 9.430479e-01 -5.418705e-01 1.685230e+00 -1.038931e+00 -8.280608e-01 2.294757e-02 
8.954238e+00 -1.084237e+01 -1.405934e+01 3.073921e-01 5.844584e-01 1.964098e-01 -1.028535e+01 -6.043744e+00 2.568305e+00 -9.568592e+00 -4.240216e+00 -1.069482e+01 9.364816e-01 -1.396484e+00 -3.278163e+00 3.228284e+00 2.326427e+00 -1.693549e+00 -3.785546e-01 1.893620e+00 8.116988e-01 4.655797e-01 2.848116e+00 -1.343701e+00 -1.973487e-01 3.382897e-02 
7.606514e+00 -1.541617e+01 -9.353693e+00 1.972997e+00 -2.668170e+00 3.183126e+00 -9.893252e+00 -7.030885e+00 5.482866e+00 -8.246838e+00 -5.870264e+00 -9.373228e+00 9.594069e-01 -2.279418e+00 -2.099592e+00 3.424037e+00 1.353161e+00 -9.078501e-01 -4.858152e-01 2.364509e+00 4.371557e-01 1.020421e+00 2.105133e+00 -1.319487e+00 6.608555e-01 2.873928e-02 
3.563849e+00 -1.535188e+01 -4.614041e+00 8.860460e-01 -9.641123e-02 1.591935e+00 -7.370256e+00 -4.679972e+00 6.892270e+00 -4.760186e+00 -8.090629e+00 -6.615027e+00 1.000000e+00 -2.317184e+00 -9.424923e-01 2.988160e+00 2.578747e-01 -6.633093e-01 -1.225608e+00 2.349883e+00 7.565397e-01 5.734777e-01 2.898247e-01 -1.361809e+00 2.022858e+00 8.163506e-03 
5.816970e-01 -1.447005e+01 -4.361867e+00 2.326519e+00 -1.053974e+00 -1.066465e+00 -4.642405e+00 -4.765406e+00 7.812488e+00 -7.210710e+00 -8.729182e+00 -5.723627e+00 9.959124e-01 -1.532827e+00 -9.996529e-02 2.404418e+00 -3.234108e-02 -1.221195e+00 -2.283592e+00 3.289922e+00 1.239856e+00 -8.487102e-01 -8.558544e-01 -6.495349e-01 2.255171e+00 -1.259506e-02 
8.807235e-01 -1.602789e+01 -1.614450e+00 1.420005e+00 -3.539186e+00 -3.806835e+00 -1.161359e+00 -3.393785e+00 4.270883e+00 -8.637531e+00 -9.619804e+00 -2.405332e+00 9.590464e-01 -3.117904e-01 2.417795e-01 2.097379e+00 -4.386340e-02 -2.666518e+00 -1.918869e+00 3.768805e+00 8.871073e-01 -1.620780e+00 -1.957119e+00 4.231930e-01 1.996116e+00 -3.637509e-02 
1.283940e+00 -1.557800e+01 1.168602e+00 1.544312e+00 -7.052756e+00 -5.535447e+00 3.451908e+00 -1.474699e+00 2.550008e+00 -1.058744e+01 -8.353351e+00 -2.022204e-01 9.169084e-01 5.133252e-01 9.865376e-01 2.296589e+00 -4.467317e-01 -3.363015e+00 -8.127943e-01 3.725089e+00 6.742881e-01 -1.484456e+00 -1.685946e+00 1.885782e+00 1.225380e+00 -5.325649e-02 
1.653776e+00 -1.358902e+01 3.107618e+00 1.057832e+00 -1.042961e+01 -5.767919e+00 7.426612e+00 -1.889788e+00 1.419608e+00 -1.285742e+01 -6.162580e+00 6.048489e-01 8.576266e-01 1.257955e+00 2.359327e+00 1.410102e+00 -3.527340e-02 -3.283716e+00 2.145300e-01 3.205224e+00 -1.492198e-01 3.014287e-02 -8.717507e-01 2.933788e+00 -1.457424e-02 -7.226338e-02 
2.761796e+00 -1.075681e+01 4.760044e+00 2.739463e-01 -1.442384e+01 -4.149895e+00 9.689055e+00 -2.145964e+00 1.815845e+00 -1.353050e+01 -1.028888e+00 -1.101818e+00 7.803398e-01 1.668578e+00 2.873751e+00 5.653821e-01 -2.743697e-01 -3.068424e+00 1.837951e-01 2.246831e+00 -5.853675e-01 5.664346e-01 8.413460e-01 2.738179e+00 -6.585792e-01 -8.016743e-02 
6.431571e+00 -6.641853e+00 3.640339e+00 1.878821e+00 -1.627222e+01 -3.426961e+00 1.174619e+01 -3.804252e+00 4.788679e+00 -1.152476e+01 1.386905e+00 -2.028404e+00 6.660137e-01 7.254729e-01 2.398713e+00 2.029048e+00 -1.219160e+00 -2.450305e+00 1.045503e+00 1.512514e+00 -2.852082e-01 4.872216e-01 2.213750e+00 2.427587e+00 -1.133183e+00 -5.616709e-02 
7.237934e+00 -4.682824e+00 3.729152e+00 -2.380308e-01 -1.947357e+01 -5.786950e+00 1.252627e+01 -3.444304e+00 3.697646e+00 -7.047039e+00 1.562801e+00 -2.178490e+00 6.118777e-01 3.237177e-01 2.039781e+00 2.324687e+00 -1.678341e+00 -1.607335e+00 1.200916e+00 7.398297e-01 -6.305264e-01 2.026713e-02 2.490600e+00 9.950968e-01 -8.771492e-01 -3.675473e-02 
3.043072e+00 -4.632440e+00 1.376831e+01 -4.781981e+00 -2.015627e+01 2.781223e-01 1.357057e+01 -2.666659e+00 2.914815e+00 -5.030397e+00 4.679512e+00 -4.522731e+00 6.610222e-01 -4.210943e-01 2.325163e+00 2.563248e+00 -2.083983e+00 -1.322668e+00 2.358042e+00 -2.077615e-01 -5.034111e-01 -1.133414e+00 1.803863e+00 2.137877e-01 -6.050987e-01 -2.510121e-02 
6.074635e+00 -1.562609e+00 1.131950e+01 -4.787359e+00 -2.051849e+01 2.143860e-03 1.247601e+01 -5.867393e+00 2.854113e+00 -4.324673e+00 2.300292e+00 -4.240400e+00 5.990620e-01 -8.111909e-01 2.438582e+00 1.728163e+00 -1.343237e+00 -6.868254e-01 2.373695e+00 -4.389375e-01 -3.157291e-01 -2.513746e+00 2.385572e+00 -9.232447e-01 3.503466e-02 -1.901922e-02 
4.907750e+00 3.423852e+00 1.266141e+01 -6.266429e+00 -2.236310e+01 5.468705e+00 1.073251e+01 -5.109764e+00 -4.566251e-01 -3.866624e+00 2.087098e+00 -4.022943e+00 5.469155e-01 -6.559998e-01 2.546007e+00 -1.512589e-01 -1.027395e+00 4.654121e-01 3.157645e-01 -7.346198e-01 6.394321e-01 -3.425140e+00 1.767894e+00 -1.350081e+00 1.667766e+00 -4.081079e-02 
2.249640e+00 3.481943e+00 1.292341e+01 -6.211993e+00 -2.180428e+01 3.486231e+00 1.175062e+01 -3.801397e+00 -7.185365e+00 4.298934e+00 -1.757215e+00 -2.253211e+00 5.738349e-01 4.655582e-01 1.237022e+00 -1.188847e+00 8.847151e-01 2.072273e+00 -1.753702e+00 1.837776e-01 1.405677e-01 -4.588581e+00 8.457361e-01 -4.458748e-01 1.300944e+00 -5.600449e-02 
1.675570e+00 5.575319e+00 1.221005e+01 -9.206636e+00 -1.718631e+01 1.149012e-01 1.026017e+01 -5.024956e-01 -9.191147e+00 -5.027294e-01 -4.213762e-02 2.822503e+00 4.695818e-01 1.744060e+00 5.329066e-01 -2.090418e+00 2.580992e+00 3.321690e+00 -2.992912e+00 3.623790e-01 -1.064059e+00 -4.155668e+00 -2.963297e-01 3.754149e-02 4.906498e-01 -6.475426e-02 
1.001852e+01 3.546767e+00 5.600939e+00 1.106320e+00 -1.274552e+01 -6.089465e+00 1.363107e+01 -7.468188e+00 -1.572153e+01 -1.777940e+00 1.135536e+00 -1.158403e+00 3.577064e-01 2.314748e+00 8.018901e-01 -1.861333e+00 3.238045e+00 2.894735e+00 -1.910677e+00 3.331041e-01 -1.842447e+00 -2.145659e+00 -1.612696e+00 8.108702e-01 -2.264745e-01 -6.145990e-02 
9.743610e+00 6.055973e+00 5.870558e+00 2.979377e+00 -1.028403e+01 -4.708007e+00 1.160418e+01 -8.596663e+00 -1.696688e+01 -2.309836e+00 8.284292e-01 -2.117098e+00 3.312085e-01 1.755113e+00 3.100211e-01 -1.041794e+00 2.832527e+00 1.538245e+00 -4.710140e-01 7.057314e-01 -1.923469e+00 -1.235315e+00 -4.557673e-01 2.531827e-01 -8.071731e-01 -2.930096e-02 
9.789359e+00 7.251067e+00 6.786499e+00 3.885227e+00 -1.078175e+01 -3.655699e+00 1.274413e+01 -8.966549e+00 -1.402579e+01 -2.860993e+00 1.861852e+00 -9.157829e-01 3.357220e-01 2.288645e-01 9.615890e-01 5.017370e-03 6.464549e-01 1.932445e-01 1.038629e+00 1.631893e-01 -5.460587e-01 3.546804e-01 -2.789866e-01 -1.651058e-01 2.362901e-01 -2.233631e-03 
1.056571e+01 5.273275e+00 6.408303e+00 3.566545e+00 -1.047698e+01 -3.457051e+00 1.423230e+01 -9.370657e+00 -1.621559e+01 -2.240039e+00 8.606181e-01 -1.334673e+00 3.340691e-01 6.699693e-02 7.148978e-01 -2.312029e-01 -5.434700e-01 3.254204e-01 1.165200e+00 2.914250e-01 3.991861e-01 -5.892329e-01 -1.144845e+00 -1.240006e+00 -5.975928e-02 1.525567e-02 
1.075179e+01 8.746061e+00 5.357153e+00 4.045011e+00 -1.168283e+01 -1.521799e+00 1.313296e+01 -9.811483e+00 -1.432378e+01 -3.207772e+00 2.939129e-01 -3.681645e-01 3.451079e-01 -5.455131e-01 4.743841e-01 -2.701483e-01 -1.612577e+00 -4.358259e-01 3.836822e-01 -6.114632e-01 -5.906011e-01 -2.383881e+00 -2.774013e+00 -3.600047e+00 -1.183456e+00 2.609524e-02 
9.597382e+00 8.882964e+00 5.429215e+00 1.821351e-01 -8.206387e+00 5.104566e-02 1.286689e+01 -6.178265e+00 -1.976405e+01 -7.860673e+00 -4.587631e+00 -2.689703e+00 4.027939e-01 -1.243389e+00 4.893453e-01 8.926819e-01 -7.872030e-01 -7.393686e-01 5.212786e-02 -1.748002e+00 -4.260162e-01 -1.122324e+00 -3.013251e+00 -4.535859e+00 -2.242133e+00 2.031400e-02 
7.545959e+00 7.818142e+00 5.925301e+00 -2.485456e+00 -1.409617e+01 -3.491337e+00 1.036952e+01 -1.351575e+01 -2.417097e+01 -1.392074e+01 -1.341426e+01 -6.155548e+00 4.318358e-01 -1.803529e+00 -7.630290e-01 1.953831e+00 8.939577e-01 -3.107089e-01 -1.092947e+00 -2.767304e+00 7.110719e-02 1.997339e-01 -1.210942e+00 -3.740418e+00 -2.390080e+00 -1.258105e-02 
5.951683e+00 8.183961e+00 1.058764e+01 2.895764e+00 -1.296715e+01 -2.211643e+00 6.874005e+00 -9.648605e+00 -1.690362e+01 -1.194981e+01 -1.496459e+01 -9.651649e+00 3.922752e-01 -2.056507e+00 -1.465543e+00 9.582218e-01 1.385715e+00 1.140243e+00 6.539212e-01 -1.991639e+00 1.331492e+00 2.351093e+00 -1.499472e-02 -2.611786e+00 -1.079085e+00 -7.276343e-02 
3.556990e+00 5.280418e+00 1.254710e+01 7.157985e+00 -1.085599e+01 -5.855188e+00 2.292883e+00 -7.720778e+00 -1.475532e+01 -7.217913e+00 -1.321970e+01 -8.837594e+00 2.874621e-01 -2.463094e+00 -2.585865e+00 -2.071895e+00 5.130223e-01 3.624658e+00 7.194500e-02 -1.995264e+00 4.583085e+00 4.705601e+00 2.352401e+00 1.182145e+00 1.804267e+00 -1.058440e-01 
1.309333e+00 2.824113e+00 6.909426e+00 2.288991e+00 -4.125263e+00 4.502577e+00 6.947018e+00 -2.418291e+00 -1.271641e+01 -1.128706e+01 -1.774384e+01 -6.744104e+00 1.111637e-01 -2.424713e+00 -3.320845e+00 -2.751491e+00 -1.049092e+00 2.807145e+00 -1.735994e+00 -8.679179e-01 5.329114e+00 4.515943e+00 2.761479e+00 3.324502e+00 2.823622e+00 -4.810952e-02 
-2.448338e+00 -2.431259e+00 -2.595070e+00 3.830417e-01 -3.938246e-01 -6.488722e+00 3.566902e-01 5.784515e+00 -2.736567e+00 -2.490109e+00 -6.113906e+00 1.412016e+00 4.317141e-02 -1.827508e+00 -2.677151e+00 -2.107070e+00 -1.192449e+00 2.573589e+00 -1.839735e+00 1.516424e-01 5.541915e+00 4.310280e+00 2.318907e+00 3.223669e+00 2.551410e+00 1.509213e-02 
-3.169218e+00 -4.564426e+00 4.401269e+00 1.037776e+00 -4.162508e+00 -1.057485e+01 3.502512e+00 1.024432e+01 -3.332840e-01 -5.063157e-01 -1.894979e+00 -6.583447e-01 2.738729e-01 -1.266784e+00 -1.952994e+00 -6.999402e-01 -4.779989e-01 1.892739e+00 -2.844134e+00 -7.574840e-01 4.196322e+00 3.034504e+00 1.470522e+00 1.707450e+00 2.024591e+00 4.616601e-02 
-3.341276e+00 -4.411069e+00 3.265828e+00 1.821345e+00 2.030577e+00 -7.515151e+00 4.773347e+00 1.365749e+01 6.045137e-01 -1.013750e+00 -5.025784e+00 8.765745e-01 2.815681e-01 -5.064934e-01 -9.955772e-01 2.993584e-02 -7.524707e-01 2.557536e+00 1.131920e-01 -5.125659e-01 1.059248e+00 2.076019e-01 -5.846583e-01 -2.416482e-01 9.835373e-01 1.942912e-02 
-4.578119e+00 -5.950951e+00 4.792757e-01 -8.201549e-01 4.126231e+00 -9.204880e+00 9.512687e-01 1.462683e+01 7.855698e-01 -4.672630e+00 -9.750650e+00 3.646574e+00 2.227954e-01 8.531151e-02 -6.119371e-01 -2.269104e+00 -1.446729e+00 3.253490e+00 1.407059e+00 -2.062243e+00 -6.397882e-01 -5.982115e-01 -1.716858e+00 -1.300101e+00 1.178727e-01 -3.139224e-02 
-4.276354e+00 -6.715883e+00 -4.843941e-01 -2.450346e+00 8.249485e+00 -6.607746e+00 -9.305174e-01 8.889502e+00 -2.257985e+00 -3.330244e+00 -3.394311e+00 4.177243e+00 1.658558e-01 3.951777e-01 -2.600569e-01 -1.577264e+00 -8.269469e-01 2.427186e+00 1.840865e+00 -1.639194e+00 -9.109580e-01 1.142496e-01 -5.908734e-01 -5.430782e-01 -4.337162e-01 -3.041689e-02 
-2.275122e+00 -6.471704e+00 -5.069138e+00 -4.060021e+00 8.995490e+00 -3.993255e+00 -3.956768e+00 9.429375e+00 -1.893092e+00 -7.932360e+00 -9.211222e+00 -1.719316e+00 1.747679e-01 8.873625e-02 1.086946e-01 -1.843945e+00 -3.100562e-02 1.619275e+00 2.363610e+00 -7.022175e-01 2.708585e-01 2.252957e+00 2.366914e+00 1.675059e+00 -5.621830e-01 -1.926732e-02 
-2.516887e+00 -5.450977e+00 -1.846284e+00 -6.934561e-01 1.173188e+01 -9.166399e-01 -9.686043e-01 1.170143e+01 2.515093e+00 -2.338252e+00 -8.010890e+00 1.390938e+00 1.534974e-01 -1.668880e-01 5.764526e-01 -1.173226e+00 8.109660e-01 -2.109096e-01 7.034624e-01 2.685946e-01 3.591188e-01 2.476973e+00 2.749544e+00 1.080665e+00 -8.138255e-01 -1.722359e-02 
-5.014172e+00 -6.039931e+00 -8.059505e+00 -1.853628e+00 1.048141e+01 -2.323855e-01 -2.540776e+00 1.457516e+01 9.663815e+00 6.665944e+00 9.329338e-01 2.228812e+00 1.326380e-01 -3.089563e-01 4.669406e-01 -1.965080e-01 3.964737e-01 -4.259674e-01 1.376837e-01 5.350887e-01 -9.900557e-01 1.388754e+00 1.828289e+00 1.169156e+00 -3.737924e-01 -2.118152e-02 
-3.741269e+00 -4.049507e+00 -4.855342e+00 5.012871e-01 6.451976e+00 -4.970869e+00 -2.955406e-01 8.112204e+00 4.348426e+00 3.118324e+00 -3.063064e+00 -1.865948e+00 1.008028e-01 5.228901e-02 4.539751e-01 -7.748629e-01 -4.018751e-01 -7.773801e-01 5.268205e-01 3.625405e-01 -8.963282e-01 6.131663e-01 1.295717e+00 1.148448e+00 -6.741679e-01 -1.988739e-02 
-3.207712e+00 -4.837736e+00 -4.547149e+00 -2.675025e+00 9.505604e+00 -1.277722e+00 -1.617856e+00 6.273709e+00 4.134012e+00 -1.519205e+00 -5.839353e+00 -1.959835e+00 9.520757e-02 4.569981e-01 6.472609e-01 7.539938e-01 8.533692e-03 -1.135894e+00 6.170540e-01 2.122240e-01 -1.001125e+00 -1.869519e-02 5.185916e-01 7.759456e-01 -2.736351e-01 -2.086787e-02 
-3.158671e+00 -3.782198e+00 -7.476777e+00 -2.292133e+00 8.332880e+00 2.240131e+00 3.826385e-01 1.137051e+01 8.345825e+00 8.232908e+00 1.117491e+00 1.144218e-01 7.277566e-02 2.217187e-01 1.069958e-01 4.154384e-01 5.432934e-01 4.413237e-01 1.022403e+00 -1.205029e-01 1.878322e-01 -8.551650e-02 1.210132e+00 1.321895e+00 9.237803e-01 -9.548753e-03 
-3.020480e+00 -2.937281e+00 -2.978819e+00 -4.142494e-01 3.861492e+00 -7.526156e-01 -1.818745e+00 7.940375e+00 7.571639e+00 6.701610e+00 2.722385e+00 -1.295490e-01 4.231220e-02 4.801989e-02 -2.534890e-02 4.997720e-01 1.863942e+00 4.008320e-01 8.570524e-02 3.223815e-01 2.822834e-01 2.778166e-01 1.586738e+00 8.757167e-01 6.740505e-01 -6.568909e-04 
-2.726292e+00 -4.464756e+00 -3.562315e+00 2.087367e+00 1.148065e+01 -1.214081e-01 -7.976110e-01 8.218031e+00 2.202030e+00 5.058575e+00 -7.344589e-01 1.837811e+00 7.950670e-02 -1.962492e-01 -2.345442e-01 4.854088e-01 9.401037e-01 9.374595e-02 -7.626076e-01 7.127393e-01 -4.460281e-01 -2.411030e-01 -3.421187e-01 -3.696838e-01 5.556839e-01 -2.603710e-04 
-3.183803e+00 -4.623202e+00 -4.005520e+00 4.454937e+00 9.935879e+00 3.315737e-01 5.841758e-01 9.261368e+00 8.594993e+00 8.001655e+00 -5.347943e-01 5.487237e-01 8.855760e-02 1.780209e-01 2.726373e-01 -1.056866e-01 -1.700822e-01 -1.257185e-01 8.339932e-02 1.436898e+00 8.161569e-02 -3.062086e-02 -7.770593e-01 -5.269274e-01 -6.576901e-01 -8.919716e-04 
-4.058256e+00 -4.111959e+00 -4.536383e+00 -2.620804e-02 5.764417e+00 -2.115001e+00 2.744875e+00 8.479877e+00 6.628633e+00 5.872293e+00 8.976612e-01 2.553705e+00 4.835111e-02 2.257337e-01 4.866076e-01 -4.477844e-02 -8.025681e-01 -6.070367e-01 8.625582e-01 4.906214e-01 -7.874928e-02 3.362603e-01 -7.284505e-01 -5.679844e-01 -5.766398e-01 -6.137186e-03 
-1.464394e+00 -1.750493e+00 -3.020218e+00 -2.078730e-01 6.091016e+00 6.611776e-01 3.594501e+00 8.217531e+00 5.205234e+00 2.409454e+00 -7.283120e-01 -3.775947e+00 5.343014e-02 4.670610e-01 5.190006e-01 2.299685e-01 -1.908115e-01 -2.278621e-01 -3.115110e-01 -1.180253e+00 -1.721769e+00 -1.615853e+00 -8.953236e-01 1.161541e-01 -4.632721e-01 -4.427278e-03 
-2.457328e+00 -3.468072e+00 -4.278858e+00 4.059311e-01 1.036790e+01 4.026581e+00 1.503334e-01 8.346203e+00 5.578212e+00 4.212422e+00 -3.477622e+00 1.116947e+00 6.638449e-02 3.351465e-01 6.817912e-01 3.112503e-01 9.759113e-01 7.013363e-01 1.108765e+00 -6.196634e-01 -1.960160e+00 -1.969983e+00 -1.241842e+00 -1.048826e+00 -4.062568e-01 -2.879924e-03 
-1.648962e+00 -2.350142e+00 -2.984440e+00 3.284811e+00 6.494828e+00 -4.296772e+00 -4.019816e+00 7.193589e-01 1.040939e+00 4.354971e+00 2.233618e+00 -1.049258e+00 5.740452e-02 -2.560626e-01 4.102506e-01 3.707992e-01 1.074073e+00 5.511691e-01 1.583114e+00 -4.589322e-01 -1.810047e+00 -1.359237e+00 -5.873038e-01 2.095835e-01 7.364025e-01 -9.803861e-03 
-2.290239e+00 -4.031783e-01 -2.998020e+00 3.107007e+00 9.069193e+00 5.907798e+00 3.453716e+00 2.428165e+00 -1.139135e+00 -1.309675e+00 -5.827432e+00 -8.409233e-01 3.196430e-02 -5.067463e-02 9.027214e-01 5.168186e-01 4.217501e-01 -6.181183e-02 1.656462e+00 1.816028e+00 -8.363445e-01 -1.126837e+00 3.547808e-01 1.216845e+00 -2.325611e-01 -1.491132e-02 
-2.828251e+00 -1.231687e+00 -1.806641e+00 3.811954e+00 9.496214e+00 7.636139e+00 -3.518517e-01 2.126317e+00 1.767720e+00 2.233984e+00 1.494510e+00 8.850007e-01 2.162093e-02 -8.394937e-02 1.058561e+00 5.577622e-02 -2.835369e-01 3.184977e-01 2.065783e+00 2.620495e+00 1.264980e+00 1.048101e+00 1.521638e+00 -7.043951e-01 -9.269407e-01 -1.166672e-02 
-2.121057e+00 4.863070e-01 -2.283665e+00 2.251109e+00 8.558146e+00 6.342438e+00 7.396493e+00 3.461002e+00 -4.193624e-01 7.046820e+00 2.976159e+00 -1.012988e+00 9.719670e-03 2.013192e-01 6.552014e-01 5.915551e-02 -1.007613e-02 -7.049345e-01 -1.012595e+00 1.285225e+00 2.689910e-01 7.567316e-01 2.387521e+00 1.103733e+00 -1.306462e+00 -6.591266e-03 
-2.153300e+00 2.497919e+00 -3.062737e+00 2.295075e+00 8.342840e+00 5.814823e+00 7.111269e+00 6.527839e+00 5.921557e+00 7.784916e+00 -5.690153e+00 -5.597929e+00 1.019323e-02 3.905732e-01 6.178612e-01 -1.520168e-01 -3.332758e-01 -1.225848e+00 -8.412612e-01 1.037030e+00 -2.940114e-01 2.479118e-02 3.633519e-01 3.380187e-01 5.835929e-02 -1.223006e-02 
-1.621119e+00 1.008026e+00 -2.074195e+00 3.815066e+00 6.121207e+00 1.755480e+00 6.148279e+00 1.572359e+00 5.676042e-01 7.852462e+00 3.283567e+00 -4.131768e+00 4.721820e-03 1.388195e-01 5.475667e-02 9.569073e-03 1.031038e-01 -1.460318e-01 -5.728230e-01 -1.092519e+00 -3.121672e-01 -6.933753e-02 -1.211411e+00 5.185046e-01 1.145430e+00 -6.083453e-03 
-1.125354e+00 1.596760e+00 -2.671460e+00 1.363597e+00 4.585443e+00 5.723311e+00 5.457406e+00 1.600581e+00 1.398193e+00 3.647923e+00 3.030899e+00 2.736187e+00 -3.703046e-02 -1.937827e-01 -4.618985e-01 3.277973e-01 -1.751646e-01 -5.491164e-02 7.408108e-01 -7.350225e-01 5.128764e-01 1.514885e-01 -2.117114e+00 1.712604e-01 1.562842e+00 -4.871833e-03 
-1.940932e+00 1.210670e+00 -2.431458e+00 3.232367e+00 9.706684e+00 3.524078e+00 2.760828e+00 4.363794e+00 1.495632e+00 3.058262e+00 1.208156e+00 5.471058e-01 2.914250e-03 -1.729699e-01 4.913739e-01 6.697987e-01 -5.952290e-01 -3.561231e-01 5.795749e-01 2.426633e-02 1.480324e+00 1.994499e+00 -5.728258e-01 -9.685114e-01 1.145385e+00 -5.914450e-03 
-2.962307e+00 8.710444e-02 -1.245119e+00 1.710602e+00 6.275543e+00 8.634578e+00 5.129882e+00 7.696503e+00 6.214986e+00 -4.035525e-01 -3.796145e+00 -1.231580e-01 -1.326215e-02 -2.653487e-01 1.713549e-01 6.500754e-01 5.186281e-02 -4.990586e-01 -3.541640e-01 3.288549e-01 1.458316e+00 1.398835e+00 1.476921e+00 9.075842e-01 7.822803e-01 -5.045158e-03 
-1.567492e+00 4.219723e+00 5.616279e-01 6.654190e-01 3.495542e+00 3.197722e+00 6.433372e+00 5.926020e+00 8.131701e+00 7.014071e+00 1.854533e+00 3.024829e+00 -3.673458e-02 -4.547267e-01 4.244973e-01 3.289348e-01 -1.554632e-01 -1.178305e+00 2.352742e-01 7.450545e-01 3.367539e-01 -6.889649e-02 1.503628e+00 8.914154e-01 6.483599e-01 -5.208516e-03 
-2.638818e+00 9.490074e-01 -9.176259e-01 2.906385e+00 5.195722e+00 4.115670e+00 5.265408e+00 8.111048e+00 5.074333e+00 9.054623e+00 7.245631e+00 5.408727e+00 -4.243183e-02 -4.850473e-01 3.058099e-01 1.420617e-02 -1.706089e-02 1.845030e-01 -9.089926e-01 -9.375930e-01 -1.390927e+00 -6.213995e-01 1.991495e+00 1.352675e+00 2.191026e-01 -4.360628e-03 
-4.376310e+00 2.902205e+00 -9.505301e-01 1.857159e+00 4.355068e+00 6.959903e+00 6.418337e+00 5.840292e+00 1.721476e+00 5.847314e+00 1.443443e-01 1.022963e+00 -8.543491e-03 -6.050431e-01 -2.236309e-01 6.715901e-01 4.403902e-01 2.904757e-01 2.849819e-01 -1.983076e+00 -2.615644e+00 -1.146597e+00 5.088042e-01 3.836214e-01 -1.288417e+00 -1.218307e-03 
-3.983134e+00 2.274913e+00 -4.180088e-01 1.029427e+00 6.768294e+00 2.208524e+00 4.494348e-01 7.847338e-01 6.313101e+00 1.013730e+01 3.822323e+00 1.973288e+00 -4.916084e-02 -2.107699e-01 2.515627e-01 1.379509e+00 3.747616e-01 -2.261610e-01 1.537370e-01 -2.017122e+00 -3.252953e+00 -6.532140e-01 3.093695e-01 1.817275e-01 -1.693902e+00 -2.497768e-03 
-3.920548e+00 2.438616e+00 3.669770e+00 3.805849e+00 4.161634e+00 5.576204e+00 -1.074023e+00 -3.489046e+00 1.779334e+00 9.016751e+00 5.484294e+00 -1.699533e+00 -3.946161e-02 9.741096e-02 -7.634759e-02 1.332838e+00 6.673800e-01 -2.993529e-01 6.002829e-02 -1.650818e+00 -2.293246e+00 -4.418051e-01 5.218321e-01 1.234187e+00 -9.117814e-01 -5.213702e-03 
