-5.959943e+00 1.646664e+00 -2.521586e-01 8.558935e+00 1.083731e+01 -6.989355e-01 7.692289e-01 -2.015953e+00 3.670348e+00 7.591429e+00 2.257882e+00 -7.052746e-01 1.148487e-01 -8.304793e-01 -2.508420e-01 1.300905e+00 2.882990e-02 -1.082704e+00 -1.119182e+00 -7.112443e-01 1.509166e+00 4.631393e-01 -1.538266e+00 6.038372e-01 1.893966e+00 -1.198189e-02 
-9.546366e+00 1.664330e+00 5.781398e+00 8.028389e+00 7.769988e+00 -5.804340e+00 3.081068e+00 4.859409e+00 6.123514e+00 4.145932e-01 -9.408415e-01 2.929773e+00 9.343851e-02 -9.043126e-01 -2.425804e-01 1.365487e+00 6.499549e-02 -2.024009e+00 -9.178157e-01 -7.953795e-01 6.702397e-01 -7.865642e-01 -1.344960e+00 8.241451e-01 2.306927e+00 -1.204230e-02 
-8.319128e+00 3.836201e-01 3.235591e+00 8.968358e+00 6.957450e+00 -3.742141e+00 -3.942912e+00 2.092196e+00 4.759461e+00 3.488516e+00 6.876429e+00 6.947032e+00 6.564432e-02 -3.104877e-01 5.076466e-02 7.778207e-01 3.798037e-02 -1.977919e+00 -1.989459e-01 -1.318566e-01 6.459607e-01 -1.008132e+00 7.197466e-02 5.508988e-01 1.974418e+00 -1.113456e-02 
-9.301914e+00 1.065283e+00 4.831401e+00 8.679201e+00 2.657193e+00 -3.766411e+00 -8.515980e-01 -7.188294e-01 -8.070302e-01 2.918083e+00 4.069334e+00 7.003209e+00 7.923937e-02 2.102980e-01 9.827562e-02 -2.245066e-01 5.565608e-02 -1.263995e+00 7.151014e-01 -1.360530e-01 -5.622579e-01 8.944885e-01 2.089826e+00 1.138328e-01 7.449220e-01 -6.657279e-03 
-7.634608e+00 2.200011e+00 4.111942e+00 8.423430e+00 3.504110e+00 -2.712629e+00 2.076279e+00 4.002969e+00 2.094960e+00 6.699557e+00 2.507288e+00 7.130099e+00 6.627542e-02 -1.898874e-01 1.645136e-01 -7.796790e-02 3.035599e-01 -7.950470e-01 1.761353e-01 5.675044e-01 1.029342e+00 1.926608e+00 1.274215e+00 -8.362948e-01 2.670596e-01 2.357882e-03 
-8.837137e+00 1.247513e+00 4.220689e+00 8.579133e+00 3.176683e+00 -2.743589e+00 -6.087928e-01 1.092733e+00 1.192821e+01 9.258204e+00 1.812893e+00 6.562849e+00 5.983657e-02 -1.095303e-01 9.989751e-03 5.536098e-02 9.009904e-01 6.249490e-01 1.811837e-01 8.741262e-02 9.989294e-01 2.433654e+00 4.122024e-01 4.960463e-01 8.128973e-01 -1.172423e-04 
-9.500954e+00 1.115073e+00 3.151108e+00 1.053619e+01 2.722470e+00 -3.372875e+00 -1.226793e+00 6.333126e+00 8.024881e+00 6.689530e+00 3.823176e+00 8.502510e+00 8.713514e-02 -5.301488e-01 -2.090116e-01 6.885229e-01 3.386773e-01 2.430669e-01 -6.598489e-01 2.317183e-01 1.348980e-01 1.469241e-01 -3.082005e-01 1.413450e+00 3.652019e-02 1.716161e-03 
-8.916391e+00 1.657701e+00 5.588624e+00 1.212777e+01 6.172758e+00 -2.530370e+00 1.237001e+00 3.110739e+00 8.396277e+00 4.984108e+00 5.891621e+00 1.038149e+01 6.822330e-02 -2.360458e-02 7.513683e-02 9.962456e-02 -9.067535e-03 2.611379e-01 -4.161825e-01 6.105918e-01 1.202917e+00 -7.260745e-01 3.353360e-02 9.636124e-01 -3.267615e-01 1.047075e-02 
-1.024572e+01 9.498588e-01 6.870590e+00 8.342498e+00 3.221407e+00 -6.118484e+00 2.311974e+00 3.668456e+00 4.595545e+00 7.295603e+00 7.535172e+00 5.403379e+00 7.066286e-02 2.971503e-01 5.801585e-02 6.930461e-02 -5.476395e-01 2.988142e-01 2.839989e-01 2.736751e-01 3.680671e-01 2.877076e-01 9.413714e-01 5.359920e-01 -5.427948e-01 3.017402e-03 
-8.582775e+00 1.705805e+00 2.859070e+00 9.630642e+00 4.232904e+00 -3.451697e+00 6.747828e-01 8.439653e+00 1.001250e+01 9.122836e+00 4.774957e+00 6.478606e+00 1.204265e-01 4.037203e-01 1.581602e-01 -7.020763e-01 -1.788181e-01 -5.395914e-01 1.378389e+00 3.113285e-01 9.635738e-01 1.093122e+00 7.297027e-02 -6.792195e-01 -1.256341e-01 8.671934e-03 
-8.182011e+00 1.381100e+00 4.862407e+00 9.046560e+00 5.186468e+00 -1.492217e+00 4.226918e-01 5.509005e+00 8.655307e+00 9.327024e+00 7.061468e+00 7.739977e+00 7.612056e-02 2.914560e-01 4.473319e-01 -2.735476e-01 1.674987e-02 5.717298e-01 1.166085e+00 3.576022e-01 1.213916e-01 1.430500e+00 -1.221535e+00 -5.486781e-01 1.120293e+00 -3.200352e-03 
-7.929647e+00 2.232881e+00 3.082334e+00 1.088165e+01 2.492270e+00 2.048443e+00 3.738284e+00 7.008333e+00 1.183201e+01 4.333249e+00 2.732376e+00 8.585020e+00 1.088541e-01 -1.954130e-01 4.230855e-01 7.562831e-01 -2.444284e-01 -1.117065e-01 -1.633202e-01 -1.684346e-02 -1.028393e+00 -1.335477e-01 -1.635513e+00 -7.364516e-01 7.700686e-01 -7.460749e-03 
-9.115007e+00 2.922980e+00 5.391220e+00 7.800743e+00 6.950373e+00 -3.038126e+00 2.568234e+00 4.991074e+00 1.083829e+01 3.582719e+00 5.813072e+00 9.951635e+00 6.044728e-02 -3.984098e-01 2.130681e-01 1.138614e+00 1.026075e-01 -6.872299e-02 -6.661690e-01 -1.906964e-01 -9.440733e-01 -7.916283e-01 -1.133978e+00 -3.614073e-01 -1.011953e-01 -2.023697e-03 
-9.093342e+00 3.050292e+00 6.376080e+00 9.031409e+00 2.792419e+00 -3.495344e+00 -4.822056e-01 3.556652e+00 8.253271e+00 3.817420e+00 1.716897e+00 9.223121e+00 9.095937e-02 -3.150505e-01 -7.456579e-02 6.341187e-01 3.270626e-03 4.445545e-01 -1.042494e+00 3.800154e-04 1.268412e-01 -1.480916e+00 -1.853622e-01 1.035967e+00 -7.460025e-01 -3.700137e-04 
-9.592213e+00 2.037735e+00 8.908606e+00 1.048472e+01 4.692779e+00 -2.051168e+00 1.579455e+00 2.514479e+00 6.486534e+00 3.915050e+00 5.762171e+00 6.914950e+00 7.494944e-02 -1.672635e-01 -6.769962e-01 5.422820e-01 -1.227994e-01 -9.200312e-01 -8.949979e-02 -2.727056e-01 9.411645e-01 -4.921443e-01 -3.207186e-01 5.720246e-01 -1.609779e+00 1.335678e-02 
-9.266296e+00 2.302674e+00 4.494234e+00 9.556016e+00 5.843840e+00 -3.657507e+00 4.234574e+00 8.880836e+00 6.603306e+00 3.240273e+00 7.937661e+00 6.373350e+00 9.975296e-02 -1.021809e-01 -3.725339e-01 2.736236e-01 -5.941385e-01 -2.200445e-01 3.081017e-01 -2.542133e-02 8.567047e-01 -7.586312e-03 9.603022e-02 8.116423e-01 -3.006457e-01 4.829502e-03 
-9.864847e+00 -8.819208e-02 9.043552e+00 6.924442e+00 8.245068e-01 -3.404543e+00 -1.153684e+00 7.034804e+00 9.202555e+00 2.267700e+00 5.562813e+00 3.327625e+00 1.228344e-01 3.119511e-01 4.942530e-01 4.726624e-01 1.985324e-01 -6.058621e-01 -2.128743e-01 -1.480191e-01 8.448184e-01 4.051819e-01 1.811606e+00 -4.934976e-01 4.611484e-01 2.824736e-03 
-9.467928e+00 2.250587e+00 7.676724e+00 7.840855e+00 3.626333e+00 -1.278148e+00 7.572572e-01 5.580013e+00 6.857329e+00 5.121246e+00 5.874786e+00 9.513556e+00 9.116441e-02 5.119594e-01 9.550970e-01 2.350503e-01 8.888046e-01 -1.563193e-01 -3.688796e-01 -4.962951e-01 6.740523e-03 1.149829e+00 1.610229e+00 -1.039911e+00 1.102700e+00 -4.323435e-03 
-7.931642e+00 4.535044e+00 9.680674e+00 1.233496e+01 2.772222e+00 -4.305220e+00 2.578018e+00 8.388983e+00 8.385431e+00 1.203259e+01 4.326120e+00 7.650590e+00 9.336740e-02 4.688357e-01 6.596372e-01 -1.851382e+00 1.331053e+00 8.748282e-01 1.080091e-01 2.920587e-01 1.770550e-01 -1.958264e-01 1.944200e-01 -6.355567e-02 9.348398e-01 1.093417e-03 
-7.673103e+00 4.766541e+00 5.350925e+00 1.129478e+01 4.088386e+00 -5.051568e+00 -1.127524e-01 8.237450e+00 1.276101e+01 6.408970e+00 3.356455e+00 9.725367e+00 9.286928e-02 1.313070e+00 -2.918458e+00 -2.276677e+00 -3.831887e+00 -9.252611e-01 1.471806e+00 -2.450175e-01 -1.039479e+00 -1.595062e+00 -1.015490e+00 9.704860e-01 -2.560585e+00 8.427884e-02 
-8.418081e+00 1.952017e+00 9.495420e-01 1.185274e+01 4.967621e+00 -9.777880e-01 7.416141e-01 6.591361e+00 5.271580e+00 2.595938e+00 6.504201e+00 7.895918e+00 1.274490e-01 1.625897e+00 -4.506150e+00 -2.335699e+00 -7.378390e+00 -1.435941e+00 2.974199e+00 2.858671e-01 -2.152112e+00 -2.875523e+00 -1.001100e+00 2.302441e+00 -3.545110e+00 1.455116e-01 
-2.659359e+00 -1.105019e+01 6.589060e-01 -1.107747e+01 -2.097672e+00 4.417167e+00 4.503715e-01 1.281427e+00 4.389443e-01 4.762124e+00 9.638177e+00 -3.412035e+00 4.955178e-01 2.516207e+00 -2.680194e+00 -5.838820e-01 -6.812873e+00 -1.422202e+00 2.532689e+00 6.441474e-01 -3.019407e+00 -3.705750e+00 -1.581144e-02 1.879132e+00 -3.743465e+00 1.291959e-01 
-2.309031e+00 -1.008734e+01 3.481855e-01 -1.337086e+01 -1.314454e+00 5.831409e+00 3.725791e+00 1.106432e+00 1.688504e-01 7.850517e+00 1.269746e+01 -3.506259e+00 6.196010e-01 4.129360e+00 -1.071091e+00 -5.377359e-02 -4.665732e+00 -2.279221e+00 3.930275e-01 -2.933894e-01 -3.018661e+00 -2.255921e+00 -1.014207e+00 -6.756901e-01 -2.792985e+00 1.512128e-01 
1.853408e+00 -2.614751e+00 2.732193e+00 -1.015778e+01 1.184149e-01 4.207279e+00 1.615896e+00 -4.117118e+00 -3.216372e+00 3.702624e+00 9.655485e+00 -3.290873e+00 4.927726e-01 3.740961e+00 5.609632e-01 -1.127669e+00 -4.261221e-01 -1.782293e+00 -1.378261e+00 -1.130837e+00 -2.143018e+00 -1.869280e+00 -2.800643e+00 -2.344899e+00 -1.513689e+00 1.274249e-01 
9.972333e+00 -7.621157e+00 -3.559694e-01 -1.193576e+01 -7.536526e+00 1.092294e+00 -1.308095e+00 -5.802673e+00 -4.180366e+00 -1.945347e+00 3.117096e+00 -6.129588e+00 8.848857e-01 3.356078e+00 -9.983735e-02 -2.578880e+00 -6.456995e-01 -2.080578e+00 -2.743630e+00 -2.280375e+00 -2.315088e+00 -2.073590e+00 -3.544960e+00 -4.433432e+00 -2.050692e+00 1.235761e-01 
9.904763e+00 -9.478465e+00 -4.627363e+00 -1.392563e+01 -7.898099e+00 -1.045821e-01 -2.686872e+00 -5.979108e+00 -6.732849e+00 -4.343162e+00 2.703863e+00 -9.668814e+00 1.000000e+00 1.724174e+00 -1.694043e-01 -2.229028e+00 -1.067208e+00 -4.716366e-01 -1.590294e+00 -9.712909e-01 -1.158927e+00 -1.787481e-02 -1.149522e+00 -3.948200e+00 -6.919596e-01 1.055470e-01 
1.044568e+01 -7.154673e+00 -8.866438e+00 -1.471544e+01 -7.709089e+00 -5.730812e+00 -5.524698e+00 -9.538011e+00 -8.440863e+00 -5.851389e+00 -5.993886e+00 -1.057075e+01 9.838678e-01 2.881289e-01 1.524348e+00 -1.648558e+00 -3.034161e-01 3.215879e-01 -5.068078e-01 -1.298353e+00 -1.226007e+00 4.247156e-01 -4.925930e-01 -2.382677e+00 -8.487368e-02 1.254408e-02 
1.023760e+01 -3.695014e+00 -4.157710e+00 -1.410398e+01 -2.153487e+00 -3.326411e-01 -1.132257e+00 -8.044084e+00 -1.175497e+00 -9.196424e-02 -5.530023e+00 -4.530090e+00 9.710165e-01 3.833169e-01 2.219585e+00 -5.977489e-01 5.459541e-01 4.082443e-01 3.321808e-01 -8.583509e-01 -5.126675e-01 7.737435e-01 3.190322e-01 -1.026753e+00 7.700030e-01 -1.008307e-02 
1.124656e+01 -2.891145e+00 -8.833588e+00 -1.336366e+01 -8.800894e+00 -1.327716e+00 -8.577169e+00 -1.090022e+01 -4.835464e+00 -6.533911e+00 -4.679346e+00 -9.123318e+00 9.620978e-01 2.501297e-03 1.398249e+00 -4.741282e-01 -1.878843e-01 -2.870971e-01 -1.092343e-01 -9.490113e-01 -7.815992e-01 -8.836598e-01 2.899894e-01 -6.028857e-01 4.389507e-01 -6.054235e-03 
1.142091e+01 -5.123060e-01 -7.632533e+00 -1.187175e+01 -5.310976e+00 -6.452260e-01 -5.452391e+00 -7.861341e+00 -4.666831e+00 -2.406740e+00 -3.087172e+00 -6.542514e+00 9.604696e-01 -1.956240e-01 5.916446e-01 -9.138358e-01 -3.852821e-01 -6.382170e-01 -1.241599e+00 -1.043654e+00 -1.008906e+00 -2.060528e+00 -1.945273e-01 -8.516013e-01 2.855331e-01 -3.053147e-03 
9.866533e+00 -1.754780e+00 -9.499667e+00 -1.677097e+01 -7.565830e+00 -6.120691e+00 -8.109688e+00 -1.353738e+01 -1.111349e+01 -3.244054e+00 -1.022974e+01 -7.369783e+00 9.588701e-01 -6.185002e-01 1.709091e-01 -6.480320e-01 -6.411734e-01 3.744326e-02 -1.237705e+00 -3.347305e-01 -1.318443e+00 -1.343420e+00 4.214673e-02 -1.252720e+00 1.024575e+00 -1.102996e-03 
9.949495e+00 -1.304973e+00 -8.393849e+00 -1.432674e+01 -5.962103e+00 -4.144151e+00 -6.584267e+00 -1.177003e+01 -8.339123e+00 -2.709529e+00 -7.012832e+00 -3.979192e+00 9.573647e-01 -1.086883e-01 -8.966649e-03 -8.539435e-01 -3.432276e-01 -3.106517e-01 -6.067721e-01 -1.279763e+00 -1.486878e-01 -8.211476e-01 -9.093477e-01 -1.362738e-01 2.419915e-01 -2.264827e-03 
8.889763e+00 -1.640266e+00 -1.169309e+01 -1.534204e+01 -8.288113e+00 -5.766776e+00 -9.684885e+00 -1.553809e+01 -9.716417e+00 -6.171782e+00 -8.980115e+00 -5.282105e+00 9.581353e-01 8.738685e-01 4.148981e-01 1.134895e-01 1.262210e+00 2.017904e-01 1.265091e+00 -2.994427e-01 2.325720e+00 1.240207e+00 2.473013e-01 1.516062e+00 5.401536e-01 -4.367364e-03 
1.136585e+01 -6.143963e-01 -1.080554e+01 -1.430236e+01 -6.503092e+00 -3.856044e+00 -1.106361e+01 -7.604425e+00 -9.471107e+00 -5.489614e+00 -4.393353e+00 -6.376396e+00 9.495128e-01 8.635759e-01 5.335274e-02 -6.841902e-01 8.320972e-01 -1.383166e+00 3.447304e-01 -7.575219e-01 1.076329e+00 4.450012e-01 -7.112464e-01 -7.665429e-02 -5.527365e-01 -5.404222e-03 
1.352770e+01 -2.557826e-02 -7.726375e+00 -1.047212e+01 -6.286383e+00 6.070924e-02 -7.367230e+00 -3.991581e+00 -4.346466e+00 -6.175051e-01 -3.959167e+00 -3.470413e+00 9.409592e-01 4.500477e-01 -3.427825e-01 -3.974388e-01 9.266526e-01 -2.038785e+00 -9.029150e-02 -2.661107e-01 3.571300e-01 -1.388944e-01 -7.474602e-01 -5.278981e-01 -7.449847e-01 -5.927330e-03 
1.194841e+01 -1.845554e+00 -1.379816e+01 -1.260121e+01 -1.387880e+01 -5.334242e+00 -1.153070e+01 -1.216164e+01 -8.799092e+00 -9.042900e+00 -9.906577e+00 -7.648720e+00 9.389316e-01 7.143021e-03 9.229429e-02 -2.821464e-02 1.427045e+00 -9.395322e-01 1.819482e-01 1.108180e+00 1.194043e-01 4.387081e-01 -8.680601e-02 3.175519e-01 3.760955e-01 -4.972381e-03 
1.084872e+01 -2.738600e+00 -1.218397e+01 -1.155935e+01 -1.479418e+01 -5.479135e+00 -1.078189e+01 -1.147383e+01 -1.074690e+01 -8.132441e+00 -8.862993e+00 -8.370867e+00 9.337893e-01 -7.418318e-01 -2.902640e-01 9.370764e-01 1.765693e-01 -1.750626e-01 3.609847e-01 4.200366e-01 1.891728e-01 -2.007736e-01 -4.162734e-01 1.562491e+00 -6.584060e-01 -5.295950e-03 
1.274105e+01 1.203586e+00 -8.717813e+00 -6.623517e+00 -6.946853e+00 -1.763811e-01 -3.815376e+00 -3.266281e+00 -4.077352e+00 -2.166177e+00 -3.536801e-01 -2.045691e+00 9.282359e-01 -1.110033e+00 -2.305527e-01 2.553742e+00 -1.758091e-01 8.127998e-01 1.514761e+00 4.557826e-01 1.293579e+00 2.884487e-01 1.009613e+00 1.998781e+00 -3.448136e-01 -7.176417e-03 
9.422215e+00 -3.001468e+00 -5.581165e+00 -1.257812e+01 -1.062767e+01 -7.132978e-01 -9.124710e+00 -7.493399e+00 -7.711205e+00 -6.137234e+00 -9.231604e-01 -9.563957e+00 9.198273e-01 -1.123700e+00 -2.401635e-01 2.630198e+00 -7.516799e-01 1.508110e-01 1.612577e+00 4.562535e-02 6.605130e-01 5.297595e-01 2.488401e-01 1.388515e+00 -4.617852e-01 -1.207892e-02 
7.111498e+00 -2.866883e+00 -4.330853e+00 -1.297087e+01 -1.189806e+01 -1.433549e-01 -1.008038e+01 -7.683963e+00 -8.874695e+00 -4.992440e+00 -3.882589e+00 -8.776243e+00 9.100305e-01 -9.115118e-01 -3.597617e-01 1.959013e+00 -9.076675e-01 -9.965950e-01 8.549519e-01 -3.895574e-01 1.061059e-01 -1.506078e-01 -4.976160e-01 2.318556e-02 -4.069970e-01 -1.718033e-02 
8.045000e+00 -1.904183e+00 -1.226465e+00 -1.214407e+01 -1.156453e+01 2.567237e+00 -7.421261e+00 -5.962421e+00 -5.699428e+00 -5.475108e+00 -1.559628e-01 -7.314517e+00 8.824973e-01 3.464132e-01 1.110050e+00 8.630980e-01 4.772289e-01 -3.007309e-01 5.472238e-01 1.308998e+00 1.172470e+00 7.302042e-01 5.157005e-01 4.875219e-01 1.910108e+00 -1.695985e-02 
8.872102e+00 -1.143865e+00 -1.100096e+00 -1.137888e+01 -1.146140e+01 2.458111e+00 -6.614888e+00 -3.501240e+00 -5.836279e+00 -4.985319e+00 -6.213511e-01 -5.205397e+00 8.609992e-01 1.642629e+00 1.700945e+00 -2.388382e-03 6.907839e-01 1.206923e-01 -5.873585e-02 1.997958e+00 1.930476e+00 1.399684e+00 5.313295e-01 9.175615e-01 1.265929e+00 -2.145504e-02 
1.027398e+01 1.687271e+00 -2.881054e+00 -1.098797e+01 -1.234965e+01 7.220883e-01 -4.312466e+00 -3.722410e+00 -5.579391e+00 -3.562291e+00 -1.161696e-01 -1.798841e+00 8.595437e-01 1.537557e+00 1.170290e+00 3.975377e-01 5.009899e-01 -1.721483e-01 -1.638668e-01 1.237436e+00 1.818797e+00 1.386121e+00 9.747089e-01 4.626050e-02 8.296730e-01 -2.921515e-02 
1.421016e+01 3.842113e+00 -3.515500e+00 -1.009500e+01 -1.090203e+01 4.855402e-01 -1.644989e+00 8.484118e-01 -1.936292e+00 -3.292201e+00 6.853220e-01 -5.204435e+00 8.142322e-01 9.091751e-01 1.312842e+00 1.039016e+00 5.220186e-01 -1.525784e-01 -1.609054e-01 3.889643e-01 1.126260e+00 1.669909e+00 7.444519e-01 2.557291e-02 -3.818649e-01 -3.956812e-02 
1.306376e+01 1.454280e+00 1.968925e+00 -1.028106e+01 -1.270495e+01 2.734188e+00 -3.719031e+00 9.567381e-01 -7.188172e-01 -1.448123e+00 -5.779968e-01 -3.166633e+00 7.598051e-01 9.241591e-02 1.243499e+00 1.400313e+00 3.971935e-01 -2.958374e-02 -1.834831e-02 1.118654e-01 5.205805e-01 1.950975e+00 7.077853e-01 1.255291e-02 -5.343049e-01 -4.987810e-02 
1.202309e+01 5.536843e+00 1.669997e+00 -9.122242e+00 -1.204664e+01 6.475341e-01 -4.966784e+00 -2.095120e-01 8.297920e-02 -2.320144e+00 -2.625729e-01 -6.430826e+00 7.130280e-01 -4.330119e-01 1.439172e+00 7.660353e-01 5.790102e-01 2.011490e-02 -1.190928e+00 -2.432678e-01 -5.719782e-01 1.041381e+00 3.289490e-01 -7.058423e-01 5.553331e-02 -4.917894e-02 
1.182959e+01 7.057401e+00 1.527762e+00 -9.488380e+00 -1.192527e+01 5.493498e-01 -2.092241e+00 -5.905457e-01 3.165848e+00 -5.093935e-01 4.205424e-01 -3.857170e+00 6.607553e-01 -3.401512e-01 2.515513e+00 -8.554211e-01 3.172220e-01 4.877548e-01 -2.277744e+00 -1.214555e-01 -1.202480e+00 4.967924e-01 -8.059672e-01 -1.443803e+00 -1.077841e-01 -4.694505e-02 
1.266218e+01 8.236415e+00 5.352583e-01 -7.596289e+00 -1.119130e+01 -4.376681e+00 -3.674722e+00 -1.237837e+00 1.328279e+00 -2.116821e+00 -3.343159e+00 -4.581500e+00 6.178624e-01 -4.838601e-01 2.172579e+00 -6.423199e-01 3.669666e-01 4.704849e-01 -2.384026e+00 -5.157905e-02 -8.868091e-02 2.051738e-01 -1.437257e+00 -1.510296e+00 8.038183e-01 -4.535613e-02 
1.104346e+01 1.268206e+01 -1.740810e+00 -9.457924e+00 -1.069385e+01 -6.142423e+00 -4.972339e+00 -4.541497e+00 1.142495e+00 -5.579620e+00 -6.256721e+00 -4.630216e+00 5.726626e-01 -1.722105e+00 5.496534e-01 1.037854e+00 1.483135e+00 -4.044012e-01 -3.415197e+00 1.679605e-01 1.348954e+00 -1.194483e+00 -1.292409e+00 -4.455876e-01 -4.154814e-01 -5.669687e-02 
9.996854e+00 1.358741e+01 9.268379e-02 -7.302637e+00 -1.030993e+01 -7.926709e+00 -3.784630e+00 1.322559e+00 2.120524e+00 -6.971314e+00 -4.475423e+00 -2.025211e+00 5.302936e-01 -3.016395e+00 -2.079393e+00 2.311015e+00 2.443988e+00 7.702497e-01 -1.595998e+00 1.849937e+00 2.600735e+00 -1.528090e+00 2.727198e-01 1.219436e+00 -3.996959e-01 -8.734169e-02 
4.551732e+00 7.130170e+00 6.938320e+00 -2.219532e+00 -1.438796e+01 -1.475162e+01 -1.197485e+00 4.874029e+00 -3.202689e+00 -4.544193e+00 -1.241263e+00 -7.212721e+00 4.210553e-01 -3.406662e+00 -3.502182e+00 2.795354e+00 3.862705e+00 2.782973e+00 9.832487e-01 4.291471e+00 2.836930e+00 -1.801577e+00 9.324711e-01 9.742780e-01 -1.998378e-01 -1.027341e-01 
8.260689e-01 6.153938e-01 7.750768e+00 1.004455e+00 -5.492996e+00 -8.052073e+00 3.687536e+00 7.058076e+00 -4.139581e+00 -1.270935e+00 2.462909e-01 -5.288726e+00 2.569576e-01 -2.569335e+00 -2.734090e+00 1.425181e+00 2.630251e+00 3.570499e+00 2.786988e+00 4.217139e+00 1.676261e+00 -3.078604e-01 1.757648e+00 3.148345e-01 4.056863e-01 -9.721257e-02 
-1.404460e+00 1.657156e+00 8.406920e+00 5.702052e+00 8.125539e-01 -1.163497e+00 1.274894e+01 6.775395e+00 -4.735338e+00 -3.767454e+00 -3.746188e+00 -3.997648e+00 1.956602e-01 -1.538326e+00 -1.801303e+00 -1.823701e+00 5.536236e-01 3.541997e+00 4.406121e+00 3.132964e+00 9.584094e-01 1.357219e+00 2.161988e+00 7.298866e-01 1.820017e+00 -5.685197e-02 
1.282763e-01 2.653468e+00 6.484287e+00 1.887826e+00 -5.768824e-02 -7.858276e-01 1.032785e+01 8.753179e+00 1.347547e+00 1.428558e+00 -1.648788e+00 -1.604317e+00 1.569284e-01 -9.123742e-01 -8.965725e-01 -2.324509e+00 -4.772486e-01 1.695970e+00 2.728276e+00 6.600043e-01 -3.798211e-01 1.296207e+00 1.327102e+00 -1.004069e+00 1.024236e+00 -1.329200e-02 
-2.791000e+00 -2.895381e+00 -1.546944e+00 1.069002e-01 6.043725e-01 3.645865e+00 1.114718e+01 8.818524e+00 8.398404e-01 4.915999e+00 3.355709e+00 4.515743e-02 1.868101e-01 -5.075396e-01 -1.247626e+00 -1.963856e+00 -7.048934e-01 1.494509e+00 3.621158e-01 -3.144862e+00 -1.328718e+00 8.244673e-01 1.305360e+00 -1.152197e+00 -3.206328e-01 5.321860e-04 
-3.042532e+00 -1.591200e+00 1.105153e+00 1.415788e+00 3.090946e+00 3.184624e+00 7.788436e+00 4.137406e+00 -4.461336e-01 1.022847e+00 -8.325005e+00 -2.188946e+00 1.949226e-01 -3.688166e-01 -1.102851e+00 -1.525346e+00 3.563960e-01 9.803697e-01 5.509261e-01 -3.557313e+00 -2.339100e+00 -1.341568e+00 -9.528045e-02 -2.072732e+00 -1.092361e+00 7.562351e-03 
-2.356754e+00 -2.458640e+00 1.277208e+00 2.413604e+00 6.710784e+00 -1.338144e+00 -1.705667e+00 2.439690e+00 2.838387e-01 2.962203e+00 -6.169066e+00 -5.308497e+00 1.793240e-01 -1.048903e-01 -9.827158e-01 -5.692127e-01 6.044525e-01 1.096743e+00 7.295005e-01 -1.661582e+00 -1.630277e+00 -1.208217e+00 -1.109108e+00 -1.158635e+00 1.533594e-01 6.375647e-03 
-1.932930e+00 -3.079155e+00 -2.554519e+00 2.516455e+00 1.790955e+00 4.460808e+00 -1.032290e+00 2.470942e-01 -5.082293e+00 1.929054e+00 -7.250060e+00 -4.389294e+00 1.984832e-01 -4.096738e-01 -1.461271e+00 -1.500936e+00 3.312100e-01 9.595405e-01 8.247119e-01 -2.850618e-02 -4.591360e-01 -7.006334e-01 -2.318448e+00 8.912534e-01 6.275966e-01 3.146029e-03 
-3.870253e+00 -7.064982e+00 -2.563171e+00 2.578829e+00 6.738084e+00 6.655275e+00 7.249629e+00 2.612293e+00 -2.883166e+00 -1.082644e+00 -2.974941e+00 1.912128e+00 2.169080e-01 -6.703255e-01 -6.020235e-01 -1.364631e+00 2.737074e-02 1.315322e+00 1.562221e+00 1.674999e+00 -6.482540e-01 -7.911949e-02 -2.039177e+00 1.050470e+00 1.458441e+00 2.964234e-03 
-4.334152e+00 -6.594382e+00 -4.479337e+00 2.989225e+00 7.874999e+00 3.311473e+00 3.168257e+00 1.755424e+00 -2.365798e+00 -8.546970e+00 -5.465801e+00 -2.661276e+00 1.918607e-01 -7.864997e-01 -2.423135e-01 -2.504322e-01 3.994620e-01 1.692546e+00 1.004678e-01 3.240805e-01 -9.881395e-01 2.393223e-01 -1.016869e+00 2.151604e+00 2.277582e+00 -6.106526e-03 
-4.507770e+00 -3.711144e+00 -4.583536e+00 2.314073e+00 1.024537e+01 7.047626e+00 4.569054e+00 -1.555745e+00 -1.470006e+00 -1.995671e+00 -1.808847e+00 1.119700e+00 1.974564e-01 -1.392270e-01 1.267706e+00 5.049814e-01 1.046190e+00 4.767518e-01 5.789959e-01 -7.596995e-01 -1.245656e+00 3.197098e-03 6.095146e-01 9.621567e-01 7.920638e-01 -1.103944e-02 
-5.546669e+00 -5.967642e+00 -2.796497e+00 4.646143e+00 8.500044e+00 4.766972e+00 1.928400e+00 -2.609585e+00 -4.592261e+00 -2.698777e+00 2.924912e+00 7.394832e+00 1.776764e-01 -2.104333e-01 8.556535e-01 1.180462e+00 1.405994e+00 5.328144e-01 1.473372e+00 1.237318e+00 1.365137e+00 1.152345e+00 1.936579e+00 3.172325e-01 1.018502e+00 -1.354478e-02 
-3.960129e+00 -1.039823e+00 -8.796840e-01 6.981320e+00 8.809321e+00 8.822506e+00 4.071060e+00 -1.433483e+00 -1.753949e+00 -9.591670e-01 -2.359513e+00 8.443935e-01 1.688030e-01 -8.126459e-02 6.356946e-01 1.296652e+00 1.704332e+00 1.854049e-01 5.399523e-02 9.209862e-01 2.673167e+00 1.043529e+00 3.484422e-01 -4.991450e-01 -4.694958e-02 -1.456617e-02 
-5.660139e+00 -3.651776e+00 -4.289522e-01 7.685571e+00 1.125710e+01 9.790894e+00 9.603842e+00 8.519979e+00 3.537898e+00 6.176755e-01 -3.604305e+00 2.568888e+00 1.384635e-01 1.415786e-01 9.679993e-01 7.900712e-01 8.647519e-01 -1.652099e-01 -5.230941e-01 1.616374e+00 2.773619e+00 6.901352e-01 3.438249e-01 -1.578009e-01 -7.876216e-01 -1.103334e-02 
-4.857358e+00 -1.690604e+00 7.159500e-01 9.316021e+00 9.793869e+00 4.805641e+00 5.336264e+00 6.245307e+00 -3.174410e-01 -1.911686e+00 -1.039964e+00 3.297924e+00 1.442320e-01 -1.254334e-01 2.228392e-01 4.588614e-02 -2.310835e-01 -7.511358e-01 -1.054826e+00 -2.953387e-01 4.176951e-01 2.451952e-01 7.038398e-01 1.119637e+00 6.007616e-01 -1.048288e-02 
-4.390162e+00 -8.022551e-01 3.560419e-01 7.802552e+00 7.181720e+00 4.159934e+00 9.377666e+00 7.419117e+00 -1.859839e+00 -5.033934e-01 1.476133e+00 2.229959e+00 1.347952e-01 1.310838e-01 9.912184e-01 -1.660920e-01 -2.081769e-01 -6.809479e-01 -1.510132e-01 -1.195315e+00 -2.694958e+00 -6.092235e-01 -5.181393e-01 1.326542e+00 7.067829e-01 -6.709695e-04 
-5.222285e+00 -1.350387e+00 -1.042750e+00 5.767412e+00 7.091330e+00 6.363858e+00 2.707454e+00 1.205424e+00 2.170896e+00 3.120567e+00 6.984504e-01 4.017666e+00 1.182228e-01 1.701479e-01 2.367054e-01 3.944054e-02 -5.523279e-01 -1.820252e-01 2.396172e-01 -7.044162e-01 -2.421039e+00 -5.260373e-01 -1.421859e+00 -7.214969e-02 -6.421737e-01 -2.095854e-03 
-4.822257e+00 1.134208e+00 -3.800621e-01 8.418990e+00 9.203626e+00 8.256719e+00 4.941669e+00 -2.434869e+00 -7.523885e-01 -4.489147e+00 2.159195e+00 5.742932e+00 1.481133e-01 -7.234001e-03 1.012119e-01 3.491857e-01 -4.635797e-02 3.454311e-01 -8.602160e-01 -1.552165e+00 -2.043653e+00 -6.015116e-01 -1.416193e+00 -1.330499e+00 -9.731706e-01 -2.151352e-03 
-3.790572e+00 -1.475308e+00 1.281205e+00 6.246162e+00 7.872790e+00 3.955334e+00 4.032182e+00 -9.328952e-01 -3.501353e+00 -7.028106e+00 -1.742244e+00 -1.669431e+00 1.270937e-01 4.949827e-02 3.150447e-01 4.925752e-01 4.461544e-01 3.321566e-01 -3.222556e-01 -6.105067e-01 -2.978608e-01 1.641784e-01 -4.684463e-01 9.064779e-02 -1.985531e-01 1.757741e-05 
-5.142189e+00 -2.337350e-01 9.399929e-01 7.331388e+00 8.518146e+00 1.063116e+00 9.544797e-01 -1.729991e+00 -2.031273e+00 -2.510024e+00 -3.956016e+00 2.076545e-01 1.196030e-01 4.354877e-02 2.952741e-01 -6.256479e-01 2.077212e-01 2.719021e-02 7.171868e-01 3.040906e-01 4.353737e-01 8.582611e-01 1.484509e+00 6.876607e-02 3.899570e-01 5.755484e-04 
-4.814827e+00 9.088084e-01 7.600980e-01 8.541986e+00 9.094852e+00 8.349381e+00 1.648516e+00 -6.363194e-01 3.631230e+00 -2.112267e-01 4.209295e+00 5.792540e+00 1.325658e-01 -1.070186e-01 7.779835e-01 -6.153629e-01 6.931856e-01 5.269794e-01 1.435353e+00 1.529253e+00 -2.061050e-02 9.788491e-01 1.032189e+00 -3.603969e-02 7.857791e-01 -3.163779e-03 
-4.092385e+00 1.418521e+00 -3.247748e+00 8.309685e+00 8.728546e+00 9.645629e+00 7.653955e+00 -4.062881e-01 -2.737427e-02 -4.750435e-01 -4.727443e-01 3.961732e+00 1.482549e-01 1.200666e-02 3.942471e-01 1.975712e-01 8.050658e-01 8.338349e-01 1.154128e+00 1.670174e+00 5.020618e-01 3.365780e-01 6.292572e-01 -7.474865e-01 -1.316953e+00 -7.657397e-03 
-4.850566e+00 1.588482e+00 2.982607e-01 9.222941e+00 1.040249e+01 6.840842e+00 8.328711e+00 -1.697799e+00 3.909426e-01 -2.884651e+00 -3.664078e+00 3.824253e-01 9.694880e-02 -5.525242e-01 -1.790386e-01 1.087187e+00 -1.053091e-01 4.799113e-01 -5.349110e-01 6.939256e-01 5.869772e-01 -1.268250e+00 3.251317e-01 -1.137559e+00 -9.626616e-01 -1.429017e-02 
-5.064286e+00 1.397664e+00 2.158768e+00 1.101624e+01 1.203350e+01 7.588025e+00 5.965252e+00 1.311058e+00 1.271760e+00 1.972974e+00 -3.756762e+00 -3.672054e+00 9.912449e-02 -6.828389e-01 1.112904e-01 1.860404e+00 5.504698e-01 -3.071706e-02 -1.769722e+00 -1.251332e+00 7.311589e-01 2.039411e-01 6.895990e-01 1.161748e+00 1.652308e+00 -1.516006e-02 
-7.091498e+00 2.404386e-02 3.492774e+00 6.662164e+00 9.841930e+00 6.703629e+00 5.962495e+00 1.439893e+00 -3.359585e+00 1.904233e-01 1.635100e-01 4.796124e+00 8.568019e-02 -4.392923e-01 3.696947e-01 1.061575e+00 7.565144e-01 -6.272761e-01 -1.867283e+00 -1.488146e+00 7.126520e-01 6.549138e-01 8.102571e-01 2.135152e+00 3.295647e+00 -5.875528e-03 
-6.386114e+00 2.757191e+00 4.457014e+00 1.234242e+01 8.855239e+00 8.656249e-01 2.580405e+00 1.680660e+00 2.867595e+00 1.435414e+00 3.422200e+00 1.001642e+01 7.808894e-02 -1.938272e-01 5.452203e-01 5.560731e-01 8.332626e-01 -7.343220e-01 -1.928280e+00 -1.015178e+00 9.799701e-02 9.418848e-01 1.698711e-02 1.761662e+00 3.259725e+00 -4.966235e-03 
