-4.213170e+00 3.636448e+00 -2.350561e+00 2.988357e+00 -5.327344e-01 -1.112646e+01 -4.288168e+00 -9.621174e-01 2.919903e+00 3.792261e+00 -2.741532e+00 -7.798573e+00 -1.512927e-01 3.766827e-01 -9.194139e-01 -4.101071e-01 4.112435e-01 3.595541e-01 1.952746e-01 -8.517275e-02 -1.913341e-01 -1.343273e+00 -1.131042e+00 2.017373e+00 2.018755e+00 1.026248e-02 
-2.507937e+00 2.880175e+00 -4.169758e+00 2.161483e+00 -8.758941e-01 -1.224829e+01 -4.139663e+00 -4.054303e+00 -4.378218e+00 -3.123507e-01 2.683999e+00 -1.142228e+00 -1.367683e-01 5.746457e-01 -1.487492e+00 -2.502050e-01 8.423581e-01 9.724281e-01 9.744315e-01 2.721117e-01 8.803908e-01 -5.704177e-01 -1.069405e+00 2.682917e+00 1.948565e+00 1.477661e-02 
-3.182373e+00 -5.824842e-01 -3.491498e+00 5.458011e+00 1.436616e+00 -9.589170e+00 -4.788284e+00 -3.726954e-01 -1.473999e-01 1.893561e-01 4.632565e+00 -1.032969e+00 -1.072425e-01 3.144251e-01 -1.841612e+00 1.853106e-01 1.124506e+00 1.338174e+00 1.066754e+00 4.436688e-01 2.362642e+00 3.990235e-01 -8.064343e-01 1.671259e+00 1.489903e+00 2.660018e-02 
-1.855340e+00 -1.691543e+00 -3.031117e+00 5.965320e+00 3.344731e+00 -7.022944e+00 -2.677551e+00 3.145126e+00 1.601466e+00 2.466887e-01 6.986004e+00 -1.438549e+00 -9.943473e-02 6.573115e-02 -2.070042e+00 1.001042e-01 8.133796e-01 1.534046e+00 2.035431e+00 2.533439e-01 1.110023e+00 4.810951e-01 1.151904e-01 2.804241e-01 1.017439e+00 2.649548e-02 
-2.967343e+00 -3.285755e+00 -1.993328e+00 6.708970e+00 4.047825e+00 -8.405362e+00 -2.800879e+00 7.251376e+00 1.925179e+00 -5.194306e-01 3.463761e+00 -2.008972e-01 -3.695858e-02 1.372582e-01 -1.219701e+00 3.078412e-01 -1.744035e-01 -2.876148e-01 1.111568e+00 8.738812e-01 2.003002e-03 -7.724892e-01 -6.483462e-01 -2.272162e-01 1.257522e+00 1.621470e-02 
-2.286797e+00 -6.118400e+00 -4.418322e+00 5.602902e+00 5.488732e+00 -2.663035e+00 -3.866646e+00 -2.316224e+00 -3.009031e+00 6.179945e-01 4.670521e+00 3.528930e+00 -3.943288e-02 9.554186e-02 -4.491332e-01 7.195951e-01 -4.692152e-01 -8.202887e-01 3.613330e-01 2.085248e-01 -6.025926e-01 -1.310505e+00 -2.559333e+00 -1.884910e+00 9.372711e-02 8.044195e-03 
-2.280354e+00 -4.467559e+00 -1.258689e+00 4.767202e+00 -1.073458e+00 -6.211284e+00 1.756687e-01 2.367994e+00 -1.704597e+00 -3.238028e+00 4.654225e+00 2.770902e+00 -5.616987e-02 5.521075e-01 6.428991e-02 3.169845e-01 -6.611685e-01 3.620913e-01 -1.355710e-01 -3.452633e-01 -1.098400e+00 -9.331069e-01 -1.375409e+00 -1.108974e+00 -3.350883e-01 3.714395e-03 
-1.721126e+00 -3.346307e+00 1.995382e-01 4.590128e+00 1.803930e+00 -6.313318e+00 -3.123201e+00 2.573854e+00 -3.136169e+00 -1.119068e+01 -3.033780e+00 -2.455813e+00 -4.960811e-02 6.424764e-01 6.135458e-01 5.102213e-01 -6.126688e-01 -4.154774e-01 -1.893845e+00 -1.464901e+00 -3.684245e-01 4.205118e-01 -2.733385e-01 -2.767259e-01 -9.778315e-01 7.102215e-03 
-4.896412e-01 -4.350351e+00 -2.717336e+00 3.909514e+00 7.700683e+00 -7.258076e+00 -4.898918e+00 -6.856619e-01 -2.676787e+00 -1.492140e+00 1.771044e+00 1.116033e+00 -1.329899e-02 1.677411e-01 7.922335e-02 3.170967e-01 1.955461e-01 2.653159e-01 -5.979255e-01 -2.521945e+00 -1.243891e+00 6.550695e-01 1.429013e+00 3.224517e-01 -8.155753e-01 1.329445e-02 
3.022957e-02 -3.109274e+00 -1.137892e+00 2.968402e+00 -9.757252e-01 -1.160886e+01 -8.653857e+00 -2.631518e+00 -4.203774e-01 -1.621642e+00 4.728482e+00 -5.327928e-01 -2.535725e-02 -2.841980e-01 -3.248267e-01 6.992443e-02 -1.016044e-01 -6.297741e-02 4.385563e-01 -3.248571e-01 -3.936900e-01 6.047336e-01 2.101001e+00 5.623255e-01 -4.573185e-01 5.511224e-03 
-2.317326e+00 -4.189959e+00 9.955099e-01 6.555796e+00 1.642949e+00 -6.553139e+00 -9.668729e+00 -1.248773e+00 2.128543e-01 -8.774812e-01 2.385353e+00 -2.268485e+00 -1.823068e-03 -2.498718e-01 4.205365e-01 3.633275e-02 -8.932030e-03 2.631679e-02 1.129617e+00 6.010293e-01 2.306964e-01 2.287686e-01 -1.871659e-01 -4.538867e-01 1.982392e-01 -4.353201e-03 
-2.228273e+00 -5.050637e+00 -1.307262e+00 2.758965e+00 4.517910e+00 -4.473005e+00 -2.362581e+00 8.869594e-01 -1.557321e+00 -9.930027e-01 -5.293069e-01 -3.050146e+00 -2.778995e-02 -1.320444e-01 6.467662e-01 -4.087924e-01 -4.257548e-02 5.337884e-01 1.075152e+00 1.430292e+00 2.812287e-01 4.252968e-01 3.633875e-01 -1.406370e+00 1.314888e-01 -7.524156e-03 
-6.097488e-01 -1.276988e+00 -2.450987e+00 3.969573e+00 5.085449e+00 -5.177920e+00 -5.039410e+00 -1.291419e+00 -9.644727e-01 -2.742289e+00 2.130505e+00 3.365905e+00 -3.384864e-02 1.407636e-01 8.395563e-01 -8.181100e-01 -1.895536e-01 -4.988708e-01 -1.614550e-01 -4.634199e-02 -6.323977e-01 1.697104e-02 -6.584560e-01 -1.430632e+00 4.435951e-01 -1.194460e-02 
-1.483781e+00 -1.331929e+00 -1.458606e+00 4.048636e+00 -2.803326e-02 -6.920713e+00 -3.817056e+00 -1.204052e+00 2.294770e+00 1.127700e+00 -2.175945e+00 -2.692544e+00 -4.696524e-02 -1.273287e-01 1.517974e-01 -2.543615e-01 2.835890e-01 -7.631854e-01 -6.600274e-01 -1.506970e+00 -2.689234e-01 3.689992e-01 -7.551681e-01 -2.562658e-01 1.506125e-01 -1.008918e-02 
-1.985754e+00 -1.851532e+00 -3.019368e+00 4.963192e+00 1.421566e+00 -6.136560e+00 -9.173202e+00 -3.365256e+00 -1.628336e+00 -5.230112e+00 -3.944487e+00 -2.293110e-01 -5.195844e-02 -1.277402e-01 -2.402358e-02 5.507486e-01 -4.330875e-01 -1.293816e+00 -1.358829e+00 2.236957e-02 4.448633e-01 9.878338e-01 1.090616e+00 2.645435e-01 9.483980e-01 -1.362585e-02 
-2.176914e+00 -4.004378e+00 -2.294879e+00 3.680100e+00 2.533925e+00 -7.293823e+00 -7.830533e+00 5.792607e-01 6.196065e-01 -3.524931e+00 1.226860e+00 -4.994757e-01 -6.918097e-02 3.248130e-01 2.360526e-01 3.289081e-01 -3.057004e-01 -2.467701e-01 -4.034328e-01 1.159243e+00 -5.582318e-02 8.268263e-01 1.311209e+00 3.298271e-01 1.332981e+00 -1.332974e-02 
-9.018831e-01 -6.088066e-02 7.208929e-01 1.988403e+00 -2.664610e+00 -1.178551e+01 -2.920823e+00 4.124165e-02 4.812278e+00 5.037108e+00 1.751820e+00 7.011361e+00 -9.087002e-02 3.262711e-03 8.792591e-02 4.697242e-01 -3.443023e-01 -2.007922e-01 4.289826e-01 2.463633e+00 4.102197e-02 1.593770e+00 1.892280e+00 -3.815856e-01 -8.971910e-01 -1.257265e-02 
-4.016514e-01 -1.046991e+00 -1.684196e+00 4.007529e+00 7.812040e-01 -6.113403e+00 -1.147028e+00 -3.186416e+00 3.208594e+00 2.550134e+00 -3.374963e+00 3.520279e-01 -9.415817e-02 -1.714157e-01 5.819013e-01 -4.674849e-01 -7.051543e-01 -4.998130e-01 1.251499e+00 1.256310e+00 -8.210498e-01 4.075407e-01 8.846790e-01 2.063034e-01 -8.941666e-01 -1.346864e-02 
-2.857072e+00 -2.890595e+00 -9.760890e-01 3.077966e+00 1.293965e+00 -4.581858e+00 -1.967878e-01 -1.277308e+00 5.046022e+00 1.193755e+00 -3.551504e+00 -5.141018e+00 -1.023331e-01 -1.650639e-01 1.022319e+00 -9.594828e-01 -4.458626e-01 8.089808e-01 1.508657e+00 2.755943e-01 -9.114159e-01 -1.030593e+00 -4.877169e-01 9.058668e-01 -1.978036e+00 -1.561902e-02 
-2.056398e+00 3.199854e-01 -3.783813e+00 -3.904525e-01 -1.944428e+00 -4.638153e+00 -2.911003e+00 -2.866714e+00 2.540438e+00 2.820140e+00 4.910039e+00 1.105881e+00 -1.307926e-01 -1.453716e+00 5.896096e-01 3.150521e+00 -1.897741e+00 8.626078e-01 3.981116e+00 -1.766895e+00 -6.932273e-01 -2.233071e-01 9.370428e-01 2.274246e+00 -2.336855e-01 5.336207e-02 
-8.998289e-01 4.367227e+00 -3.026713e+00 1.958081e+00 2.743110e+00 -4.979847e+00 -6.608639e-01 -4.675689e+00 -6.607771e-03 2.463521e+00 2.138653e+00 -3.255743e+00 -1.506479e-01 -2.889066e+00 -1.489828e+00 4.544335e+00 -2.761961e+00 1.594386e+00 5.735125e+00 -2.911205e+00 -1.626293e+00 -5.374396e-02 8.334160e-01 1.364502e+00 -1.606989e-01 1.219126e-01 
-8.648850e+00 -1.727855e+00 1.509372e+01 -4.921233e+00 4.369670e+00 1.399117e+01 -9.749463e+00 -4.953362e+00 4.618374e+00 6.600465e+00 5.151188e+00 -1.759037e+00 1.968096e-01 -2.214552e+00 -6.373106e-01 3.673428e+00 -2.105584e+00 8.384441e-01 3.953313e+00 -1.064119e+00 -1.817669e+00 -9.881736e-01 -8.417656e-01 -1.269292e+00 -9.489056e-01 5.044380e-02 
-1.400618e+01 -9.315813e+00 1.230682e+01 -8.466448e+00 6.108848e+00 1.477910e+01 -1.133358e+01 -8.365450e+00 3.738335e+00 3.470673e+00 3.150433e+00 -4.512053e+00 3.434287e-01 -9.027603e-01 1.199270e+00 3.923502e-01 6.573155e-02 3.535185e-01 6.332644e-01 2.595915e+00 -2.154853e-01 -1.427173e+00 -1.645456e-01 1.382332e-01 -3.930162e-01 -3.237111e-02 
-6.575984e+00 3.974953e+00 6.916561e+00 -5.706107e+00 5.649235e-01 5.248940e+00 -2.895239e+00 -1.011018e+01 -4.272901e+00 -1.892264e+00 -1.942314e+00 -3.010492e+00 -1.256119e-01 1.017338e+00 3.223972e+00 -3.646227e+00 2.509874e+00 1.881656e-02 -4.204925e+00 5.316595e+00 1.640739e+00 -2.098296e+00 -4.214559e-02 2.234049e-01 -7.592472e-02 -1.190926e-01 
-6.450064e+00 7.512174e+00 3.023618e+00 2.679176e+00 6.413075e+00 2.557590e+00 8.891600e+00 -3.174706e+00 -2.696835e+00 5.887157e+00 6.376570e+00 -4.595097e+00 -1.512927e-01 1.421180e+00 3.456158e+00 -2.255690e+00 3.339251e+00 -7.184327e-01 -3.521706e+00 4.302764e+00 2.155287e+00 -1.662822e+00 1.743048e+00 1.489570e+00 1.469251e+00 -1.015124e-01 
-7.340219e+00 5.978012e+00 1.504187e+00 2.055323e+00 4.311639e+00 -9.226961e-01 6.720921e+00 6.549597e-01 -2.655523e+00 5.181495e+00 4.655144e+00 -2.097139e+00 -1.512927e-01 -2.200489e-02 4.634922e-01 -6.875760e-01 2.458028e+00 -5.735148e-01 -1.465900e+00 1.045356e+00 1.430163e+00 1.734672e-01 1.575743e+00 1.411970e+00 6.244949e-01 -5.136156e-03 
-6.518158e+00 6.963448e+00 3.734553e+00 4.349090e+00 6.433265e-01 2.563905e-01 5.372157e+00 -2.971583e+00 -5.384462e+00 8.649033e+00 7.299553e+00 2.377524e+00 -1.512927e-01 8.162489e-01 -9.614280e-01 6.257619e-01 7.089656e-01 -2.185743e+00 -7.274225e-01 -1.209544e+00 1.380254e-01 8.656100e-01 -1.665926e-01 2.891645e-01 3.917134e-01 7.443619e-03 
-6.651961e+00 6.566777e+00 3.123214e+00 5.749075e+00 5.822239e-01 -9.299634e-01 4.091261e+00 -3.060926e+00 -2.061751e+00 4.605513e+00 4.656044e+00 -3.374328e+00 -1.512927e-01 4.696821e-01 -1.943928e+00 8.090299e-01 1.116067e+00 -2.348805e+00 -1.437815e+00 -9.864432e-01 1.401026e-01 1.020767e+00 -4.199990e-01 2.464794e-01 -1.113798e+00 6.768431e-02 
-2.712948e+00 2.410651e+00 5.342915e+00 4.377128e+00 -2.650930e+00 -1.075889e+00 4.158707e+00 -6.266366e-01 1.334330e+00 5.342185e+00 7.821942e+00 -1.997935e+00 -1.140746e-01 -7.985717e-01 -2.162491e+00 -2.391044e-01 1.126519e+00 -3.094510e-01 -3.850804e-01 -8.985694e-01 9.834892e-01 5.397494e-01 -8.026272e-01 -6.913437e-01 -1.146956e+00 1.245111e-01 
-6.894413e+00 -1.465233e+00 4.745156e+00 7.621638e+00 -5.785259e+00 -7.445633e+00 2.395430e+00 1.829993e-01 -9.110841e-01 4.734923e+00 5.626347e+00 -5.478402e+00 1.685198e-01 -1.812589e+00 -9.198259e-01 -1.529751e+00 1.191719e+00 6.620144e-01 1.281310e+00 -1.451271e+00 1.384984e+00 -3.899691e-01 3.353543e-01 4.998791e-01 8.687491e-01 1.545348e-01 
-1.038979e+01 1.669984e-01 1.728060e+00 9.045403e+00 2.279813e+00 1.588823e+00 1.727226e+00 3.238997e-01 -3.261049e+00 4.571192e+00 3.357684e+00 -2.305218e+00 3.113566e-01 -2.441219e+00 8.818684e-01 -2.854753e+00 7.116978e-01 1.021636e+00 2.435170e+00 -1.213330e+00 -8.205712e-02 -1.552295e+00 -7.558376e-01 -5.098082e-01 6.935942e-01 1.378042e-01 
-1.187648e+01 3.089474e+00 -2.718116e+00 9.373533e+00 1.426924e+00 4.144229e+00 -1.949355e+00 3.388726e+00 -1.713907e+00 6.667781e+00 9.387569e+00 1.123059e+00 4.086657e-01 -1.648318e+00 1.992767e+00 -2.299819e+00 5.408654e-01 1.138287e+00 2.843735e+00 -6.206270e-01 -1.176304e+00 -1.647545e+00 -1.665021e+00 -1.092023e+00 9.490983e-01 8.661041e-02 
-1.242800e+01 4.542639e+00 -5.199217e+00 7.059669e+00 -1.148842e+00 5.305030e+00 2.644501e-01 -2.639786e+00 -6.025736e+00 5.965689e-01 3.392289e+00 -1.830694e+00 4.548733e-01 -1.121884e+00 1.175457e+00 -8.247682e-01 3.350405e-01 -5.918177e-01 9.478947e-01 2.771322e-01 -1.682126e+00 -9.731377e-01 -1.946783e+00 -1.513779e+00 -4.564535e-01 6.557016e-02 
-1.411689e+01 6.310781e+00 -3.290303e+00 1.131883e+01 1.620505e+00 4.914939e+00 2.368259e-02 -4.216680e+00 -7.766467e+00 -1.602870e+00 1.489296e-01 -9.701719e-01 5.298135e-01 -7.063717e-01 4.527697e-01 -7.430124e-03 1.542018e-01 -7.108021e-01 1.374668e-01 1.308382e+00 -3.213159e-01 -1.201011e+00 -1.916633e+00 -1.846078e+00 -1.786693e+00 5.181314e-02 
-1.487900e+01 4.433630e+00 -2.109688e+00 9.747955e+00 -7.760658e-01 5.942942e+00 2.126369e+00 -4.284026e+00 -5.100457e+00 -1.027397e+00 4.081092e-01 -3.540870e+00 5.786335e-01 -6.586239e-01 1.673072e-01 2.313523e-01 3.311853e-01 -1.033200e+00 -1.031850e-01 9.158022e-01 5.174370e-01 -4.876423e-03 1.635299e-01 5.335028e-01 -5.376254e-01 4.673700e-02 
-1.418284e+01 5.407827e+00 -4.300031e+00 8.800398e+00 -2.313475e+00 4.512607e+00 3.661597e+00 2.604267e+00 -8.181600e+00 -2.103401e+00 1.649268e+00 -6.955317e+00 6.058513e-01 2.437784e-01 -1.066399e-01 -3.385961e-01 -3.964321e-01 -9.856876e-01 2.263716e-01 1.086213e+00 8.486553e-01 1.196445e-01 8.814695e-02 1.019339e+00 -3.476680e-01 3.329485e-02 
-1.568815e+01 5.830652e+00 -3.537591e+00 9.974812e+00 -4.347853e+00 4.990272e+00 3.024504e+00 -3.463074e+00 -5.842552e+00 1.664484e+00 5.309634e+00 -1.526249e+00 6.505394e-01 1.831777e+00 -6.138748e-01 4.549316e-01 -1.020470e+00 1.699991e-01 -2.464386e-01 -2.509387e-01 7.029988e-01 -1.391259e-01 8.545848e-01 -3.153183e-01 -3.459725e-01 2.734206e-02 
-1.249343e+01 5.079071e+00 -4.269331e+00 9.223244e+00 -1.522039e+00 6.523132e+00 5.005679e+00 -3.838798e-01 -6.797197e+00 -2.508076e+00 2.794861e+00 -3.715823e+00 6.603348e-01 3.459199e+00 -3.754492e-01 1.315825e+00 -2.079444e+00 6.797124e-01 -7.870032e-01 -1.215596e+00 -1.085067e+00 -1.897352e-01 5.570165e-01 -7.484216e-01 -1.649450e-01 6.806314e-03 
-6.564825e+00 1.528634e+00 1.496201e-01 4.434181e+00 -3.217878e-01 3.705486e+00 1.996346e-01 7.250407e-01 -6.488288e+00 3.447865e+00 -1.741279e+00 -6.890480e+00 6.881020e-01 6.064076e+00 -5.353165e-01 1.663250e+00 -4.288114e+00 -1.937850e+00 -8.376991e-01 3.093261e-01 -1.177337e+00 5.615120e-02 -3.050480e+00 -1.758614e+00 1.777664e+00 2.922894e-02 
-1.448512e+00 5.681590e+00 4.354858e-01 1.173494e+00 -9.279451e-01 1.219984e+00 -1.003946e+00 -4.915127e+00 -8.807407e+00 -2.100093e-01 1.432616e+00 -5.097927e+00 6.211016e-01 5.914450e+00 -6.873394e-01 1.815721e+00 -5.236909e+00 -4.247550e+00 -9.906939e-01 2.310537e+00 -2.261687e+00 1.719804e+00 -4.179276e+00 -1.870087e+00 4.982997e+00 6.845029e-02 
9.109774e+00 2.852810e+00 2.426251e+00 -7.440885e+00 -1.433415e+01 3.453350e+00 7.575947e+00 -7.084137e+00 -4.556691e+00 -1.473695e+01 -2.802314e+00 8.053123e+00 8.163007e-01 4.120490e+00 -7.652802e-01 9.173418e-01 -4.968895e+00 -5.089163e+00 -7.129714e-01 3.899574e+00 -2.051886e+00 1.728091e+00 -5.027800e+00 -2.057951e+00 5.865567e+00 8.702210e-02 
9.241520e+00 9.802861e-01 3.670956e+00 -1.102377e+01 -1.575361e+01 1.695731e+00 1.287021e+01 -7.787726e+00 8.360262e-01 -1.431205e+01 -6.025056e+00 1.372736e+01 9.384869e-01 2.057514e+00 -1.601773e+00 5.249478e-01 -4.267017e+00 -4.084506e+00 -4.285928e-01 2.818212e+00 -8.451227e-01 1.095238e+00 -2.514101e+00 -2.536161e+00 3.321132e+00 8.706488e-02 
8.692607e+00 5.288506e-02 3.118594e+00 -1.431166e+01 -1.835477e+01 -9.724450e-02 1.276042e+01 -8.098091e+00 -2.669551e+00 -1.464012e+01 -8.302198e+00 1.302471e+01 9.645199e-01 4.227073e-02 -1.210632e+00 1.518321e-01 -2.684367e+00 -1.259886e+00 -5.875327e-01 2.694443e-01 -1.502569e-01 -3.089051e-01 5.879135e-01 -1.474175e+00 -5.916716e-01 4.082716e-02 
9.047642e+00 -9.273100e-01 2.714053e+00 -1.672620e+01 -1.934016e+01 8.523173e-01 1.049487e+01 -8.633764e+00 -4.274786e+00 -1.282893e+01 -8.498247e+00 9.021937e+00 9.823164e-01 2.306623e-01 -8.648787e-01 4.831354e-01 -1.860619e+00 -3.166927e-01 -1.595517e-02 -4.830615e-01 7.821447e-01 -7.042727e-01 1.008021e+00 -8.194785e-01 -1.426620e+00 1.570282e-02 
9.418066e+00 -2.246550e+00 3.663863e+00 -1.801150e+01 -1.884030e+01 9.373932e-01 1.011084e+01 -7.412402e+00 -3.545810e+00 -1.253894e+01 -8.936592e+00 7.447475e+00 9.985218e-01 6.806013e-01 -8.090517e-01 1.205584e+00 -1.371146e+00 6.292719e-01 -2.241369e-01 -3.062730e-02 1.767392e+00 3.945959e-02 1.014624e+00 -2.628714e-01 -9.248620e-01 4.722166e-03 
1.003210e+01 -2.194390e+00 5.813998e+00 -1.847695e+01 -1.709431e+01 1.098636e+00 1.177970e+01 -4.219847e+00 -2.247208e+00 -1.032253e+01 -9.805252e+00 9.382879e+00 1.000000e+00 1.062873e+00 -8.812929e-01 1.737212e+00 -1.171522e+00 6.065323e-01 -9.279736e-01 1.170353e-01 2.268593e+00 3.348081e-01 6.959745e-01 -1.608361e-01 -5.634966e-02 -5.783302e-03 
1.160338e+01 -3.358834e+00 7.596543e+00 -2.029202e+01 -1.633134e+01 -1.341089e+00 1.196488e+01 -1.468092e+00 -3.486042e+00 -1.082019e+01 -8.963053e+00 8.219932e+00 9.792889e-01 1.276164e+00 -7.801572e-01 1.760647e+00 -7.684027e-01 4.419619e-01 -1.077955e+00 -5.044532e-02 2.018241e+00 6.482583e-01 8.076215e-01 6.986874e-01 8.528872e-02 -1.341962e-02 
1.326935e+01 -4.777633e+00 9.433771e+00 -2.144355e+01 -1.756198e+01 -2.648310e+00 1.015303e+01 -2.629536e-01 -2.630630e+00 -1.020843e+01 -9.289198e+00 8.353961e+00 9.630163e-01 1.335016e+00 -6.912209e-01 6.686470e-01 5.179539e-02 -3.945370e-02 -8.348835e-02 -9.398500e-01 1.731330e+00 2.931540e-01 7.029826e-01 1.083314e+00 1.416234e-01 -1.238790e-02 
1.418026e+01 -4.855715e+00 1.065721e+01 -2.037021e+01 -1.639665e+01 -2.578907e+00 1.067194e+01 7.003565e-01 -1.128075e-01 -8.557883e+00 -5.701183e+00 8.388378e+00 9.499155e-01 1.154075e+00 -5.175384e-01 -3.636481e-01 1.057723e+00 1.057327e-01 1.280127e+00 -1.050519e+00 1.857336e+00 4.237029e-01 6.823250e-01 9.564962e-01 4.420052e-01 -6.941116e-03 
1.541874e+01 -4.902054e+00 7.626900e+00 -1.817887e+01 -1.725892e+01 1.300104e+00 7.726913e+00 3.352580e+00 -2.468055e+00 -7.938772e+00 -6.019619e+00 1.000677e+01 9.527472e-01 7.086911e-01 -4.967829e-01 -1.538790e+00 1.301140e+00 1.199479e+00 2.345850e+00 -1.113925e+00 1.644542e+00 -1.235341e-01 2.878312e-01 9.704989e-01 6.421087e-01 1.905620e-03 
1.629906e+01 -5.884315e+00 6.681739e+00 -1.663574e+01 -1.595421e+01 3.085339e+00 7.925340e+00 6.010822e+00 -1.448815e+00 -8.543398e+00 -5.815361e+00 9.603552e+00 9.497179e-01 2.721764e-01 -5.471715e-01 -2.389472e+00 9.720696e-01 1.967066e+00 2.172263e+00 -1.095394e+00 1.291768e+00 -2.227211e-01 2.936306e-01 8.472300e-02 9.780179e-01 4.329461e-03 
1.575340e+01 -6.747247e+00 3.727559e+00 -1.680509e+01 -1.178581e+01 6.248817e+00 5.956709e+00 5.304525e+00 -2.580297e+00 -8.776516e+00 -4.379614e+00 1.095692e+01 9.726433e-01 2.444391e-02 -5.291212e-01 -2.514558e+00 9.400457e-01 2.997987e+00 1.343765e+00 -1.246569e+00 5.943289e-01 3.064385e-01 4.280062e-01 5.138291e-01 7.502007e-01 -2.553707e-03 
1.537381e+01 -6.668976e+00 6.595211e-01 -1.619675e+01 -9.297876e+00 5.808051e+00 6.080073e+00 6.183223e+00 -1.170292e+00 -6.670858e+00 -6.097570e+00 1.280340e+01 9.616148e-01 -6.028748e-02 -1.025410e-01 -2.752298e+00 9.502013e-01 3.679706e+00 6.243715e-01 -1.863286e+00 -2.543312e-01 6.584627e-01 7.208263e-01 5.037758e-01 2.787844e-01 -7.734060e-03 
1.600358e+01 -7.155330e+00 -1.934780e+00 -1.369814e+01 -5.597155e+00 6.657575e+00 2.416703e+00 6.238024e+00 -1.075124e+00 -6.735011e+00 -3.309369e+00 1.215786e+01 9.340302e-01 -5.467534e-02 2.933779e-02 -2.476989e+00 1.061123e+00 3.523280e+00 2.065457e-01 -2.739123e+00 -5.047809e-01 1.493575e+00 8.607847e-01 4.410240e-01 -6.117646e-01 -1.198871e-02 
1.587253e+01 -6.192979e+00 -4.248583e+00 -1.343821e+01 -6.500106e-01 6.002818e+00 3.789110e-01 4.272417e+00 1.090912e+00 -5.960019e+00 -3.831604e+00 1.039701e+01 9.303541e-01 -1.028839e-01 -1.181154e-02 -2.149332e+00 1.118937e+00 3.006877e+00 8.406334e-01 -3.921135e+00 -9.139555e-01 1.669461e+00 1.204174e+00 5.021734e-01 -1.485952e+00 -1.159830e-02 
1.523067e+01 -6.838556e+00 -6.203336e+00 -1.287875e+01 1.506655e+00 7.184162e+00 -4.888327e+00 3.736024e+00 3.756978e+00 -4.828012e+00 -3.307477e+00 9.101290e+00 9.283301e-01 -1.633272e-01 -9.789562e-02 -1.823944e+00 8.523035e-01 2.176577e+00 1.075532e+00 -3.950212e+00 -8.004861e-01 1.394145e+00 2.168000e+00 -3.506685e-01 -1.845421e+00 -1.119881e-02 
1.524585e+01 -6.886420e+00 -7.952861e+00 -1.101177e+01 2.184604e+00 9.747924e+00 -9.873086e+00 2.864445e+00 4.760964e+00 -1.603486e+00 -3.587649e+00 6.901919e+00 9.064733e-01 -1.039366e-01 -1.303243e-01 -1.747381e+00 1.030274e+00 1.419510e+00 1.428079e+00 -3.829295e+00 -2.402403e-01 5.768033e-01 2.550653e+00 -3.865507e-01 -2.364614e+00 -1.203890e-02 
1.550029e+01 -7.298087e+00 -9.202360e+00 -1.064984e+01 3.868422e+00 1.016268e+01 -1.220836e+01 2.939579e+00 4.060576e+00 1.926722e+00 -5.184689e+00 4.678293e+00 8.899765e-01 -6.162270e-01 1.038790e-01 -6.789649e-01 9.087674e-01 1.964311e+00 1.682324e-01 -2.502117e+00 -2.101443e-01 4.727383e-02 2.487778e+00 -3.100317e-01 -2.147197e+00 -1.587504e-02 
1.521804e+01 -6.614835e+00 -1.148598e+01 -9.401295e+00 5.266655e+00 1.165396e+01 -1.510755e+01 3.469438e+00 3.823129e+00 3.415879e+00 -4.825752e+00 7.854304e-01 8.893364e-01 -9.045900e-01 1.096269e+00 2.263420e-01 8.232180e-01 2.710538e+00 -8.746066e-01 -1.448633e+00 -2.991583e-02 -6.620087e-02 2.197180e+00 -1.115481e-01 -1.665678e+00 -3.936951e-02 
1.216344e+01 -6.454954e+00 -7.831603e+00 -9.140148e+00 9.787187e+00 7.072309e+00 -1.478168e+01 2.382806e+00 4.462264e+00 5.101199e+00 -4.238584e+00 1.423547e+00 8.575233e-01 -6.199039e-01 1.228400e+00 3.279092e-01 5.494474e-01 2.650979e+00 -7.093461e-01 -1.634939e+00 9.970438e-01 -5.422787e-01 9.138340e-01 6.707064e-01 -1.493425e+00 -3.851029e-02 
1.239133e+01 -1.826643e+00 -7.506530e+00 -7.650525e+00 1.277791e+01 6.920078e+00 -1.582959e+01 2.993253e+00 4.229115e+00 7.795177e+00 -4.618442e+00 2.009034e-01 7.258524e-01 -4.722850e-02 1.614629e+00 1.748766e-01 7.055437e-01 2.602557e+00 -4.691156e-01 -1.975120e+00 2.222830e+00 -4.956974e-01 7.963500e-02 1.156279e+00 -1.304537e+00 -4.762381e-02 
1.381413e+01 -3.550185e+00 -9.552538e+00 -8.777992e+00 1.336769e+01 8.982891e+00 -2.002203e+01 8.162890e+00 1.146189e+00 4.306243e+00 -1.934812e+00 -2.496569e+00 7.791671e-01 2.328340e-01 1.444391e+00 6.001003e-01 2.175827e+00 1.260179e+00 -3.072089e-01 4.553478e-01 1.596733e+00 -8.383279e-02 2.040776e-01 1.222649e+00 -1.990282e+00 -7.579871e-02 
1.415655e+01 5.926609e-03 -9.751127e+00 -6.054654e+00 1.648919e+01 8.353086e+00 -2.236298e+01 1.169355e+01 3.002679e+00 4.211532e+00 -1.962428e-01 -3.777198e+00 6.903955e-01 -1.433500e+00 -1.817665e-01 2.519635e+00 5.126409e+00 2.033968e-01 -1.379568e+00 2.469075e+00 3.443139e-01 1.090782e+00 2.691615e-02 1.319556e+00 -6.525741e-01 -8.172590e-02 
1.244500e+01 -1.492825e-01 -3.708803e+00 9.410511e-01 1.423244e+01 4.819760e+00 -9.238246e+00 6.016325e+00 4.656318e+00 7.913409e+00 -3.364401e-01 -6.538814e+00 4.962583e-01 -3.438199e+00 -1.158008e+00 3.710704e+00 5.782275e+00 -1.844773e+00 -2.376109e+00 3.364265e+00 -9.634975e-01 8.081717e-01 -6.498767e-01 7.088112e-01 1.419218e+00 -9.233167e-02 
5.908396e+00 -4.435927e+00 2.169775e+00 1.312200e+01 1.336252e+01 2.103802e+00 -8.876107e+00 5.788105e+00 7.927962e+00 6.126174e+00 1.180154e+00 -1.040845e+00 4.586773e-01 -4.702051e+00 -3.019232e+00 2.342295e+00 3.590084e+00 -4.047904e+00 -2.257795e+00 2.598742e+00 -6.417176e-01 7.433285e-01 -1.739164e+00 -4.285304e-01 2.496705e+00 -5.682859e-02 
7.472091e-01 -7.119299e+00 3.040530e+00 1.054506e+01 5.707160e+00 2.269892e-01 -9.944140e+00 6.298123e+00 2.724407e+00 9.953845e-02 9.210455e-01 3.231345e+00 4.333678e-01 -4.202096e+00 -3.095794e+00 3.512905e-01 2.757563e-01 -4.159965e+00 -9.012070e-01 8.117332e-02 9.665726e-01 9.784441e-02 -2.008237e+00 -1.192629e+00 1.963228e+00 -1.935048e-02 
-3.504808e+00 -1.160523e+01 -1.414317e+00 7.093762e+00 5.123072e-01 -6.395007e-01 -9.016316e+00 8.344059e+00 7.685277e+00 -5.773513e-01 -2.967638e+00 3.821246e+00 4.376978e-01 -2.298748e+00 -2.169401e+00 -1.267693e+00 -1.558919e+00 -3.710983e+00 -7.809336e-01 8.754806e-02 5.447262e-01 -1.776774e+00 -6.790326e-01 -1.176114e+00 -7.099298e-01 -1.889929e-02 
-3.858881e+00 -1.204360e+01 -1.603041e-01 5.333949e+00 -1.422739e-01 1.685377e+00 -8.762275e+00 9.571211e+00 5.266882e+00 1.223985e+00 -4.225689e+00 8.462825e-01 4.099956e-01 -1.144461e+00 -2.140450e+00 -1.613955e+00 -9.568254e-01 -2.008302e+00 3.111554e-02 2.987823e+00 -4.431366e-01 -7.587669e-01 1.319253e+00 -1.075338e+00 -1.863224e+00 -3.454785e-02 
-3.282299e+00 -1.282078e+01 -2.568273e+00 7.932957e+00 -2.267679e+00 -2.530059e+00 -9.029300e+00 6.875192e+00 -2.227146e+00 2.168788e+00 -2.127048e+00 -3.397963e+00 3.758669e-01 2.317524e-01 -8.835554e-01 -2.932972e-01 1.186181e-01 -6.841027e-01 2.491374e-01 3.369699e+00 -2.724112e-01 -9.015859e-01 1.107277e+00 -2.713257e-01 -1.718803e+00 -4.873697e-02 
-5.086349e+00 -1.721377e+01 -4.452266e+00 5.341335e+00 -2.944359e+00 1.327846e+00 5.001464e+00 4.816874e+00 3.886784e+00 5.322736e+00 -4.875937e+00 -2.475173e+00 2.915440e-01 4.015433e-01 8.638922e-01 5.969263e-01 3.813673e-01 -3.072463e-01 -2.751568e-01 2.838590e+00 6.166377e-02 5.665404e-01 1.401463e-01 5.214366e-01 -1.580294e+00 -6.125603e-02 
-1.732312e+00 -1.343792e+01 -7.348223e-01 7.683160e+00 -1.507164e+00 7.849517e-01 9.503117e-01 9.359172e+00 3.867397e+00 2.909659e+00 -3.999142e+00 -3.112044e+00 2.532387e-01 6.392754e-01 2.026465e+00 1.378139e+00 1.880437e-01 1.195420e+00 5.030954e-02 1.886370e+00 -4.246957e-01 1.538106e+00 -3.947404e-01 6.747478e-01 -1.157294e-01 -7.241449e-02 
-2.626158e+00 -7.415573e+00 1.907602e+00 7.365684e+00 -2.058763e+00 -1.347913e+00 4.408693e-01 8.637540e+00 5.052313e+00 1.554281e+00 -6.824594e-01 -7.198146e+00 1.650296e-01 9.616150e-01 3.231763e+00 1.009125e+00 7.793794e-01 1.755259e+00 -6.522584e-01 4.120219e-01 -1.180354e+00 9.123989e-01 -1.067514e+00 5.338532e-01 -1.285766e-01 -7.511280e-02 
-1.316018e+00 -7.587555e+00 1.142488e+00 7.861001e+00 3.266625e+00 -9.406321e-01 2.682848e+00 2.841381e+00 4.880621e+00 2.079313e+00 -8.500481e-01 -1.615124e+00 7.705170e-02 4.256310e-01 2.580725e+00 -3.930243e-01 4.164610e-02 9.595562e-01 -1.235384e+00 9.061912e-01 -2.181901e+00 -1.020036e-01 -1.057478e+00 2.114964e-01 5.456665e-01 -7.714754e-02 
-4.864216e-01 -3.980140e+00 -3.452945e-01 9.149311e+00 3.445040e+00 -1.070654e+00 6.195306e+00 2.173999e+00 7.942167e+00 4.003390e-01 -3.781218e+00 -3.866517e+00 4.073441e-03 2.368853e-01 2.054676e+00 -1.429548e+00 -7.925471e-01 4.563610e-01 -8.959953e-01 7.895598e-01 -1.978426e+00 -1.203063e+00 -5.710640e-02 4.274175e-01 6.940888e-01 -7.239760e-02 
-6.740255e-01 -2.252009e+00 -1.573495e+00 6.999577e+00 5.387161e-01 -5.530596e+00 2.604049e+00 1.681436e+00 1.912452e+00 -1.800761e+00 -1.392281e+00 -2.049526e+00 -5.202091e-02 -1.501762e-01 2.588819e+00 -8.228687e-01 -1.076149e+00 -2.265486e-01 1.064196e-02 -4.541295e-01 -6.844324e-01 -1.366385e+00 -1.085614e-01 5.411676e-01 2.387729e-01 -5.508102e-02 
-1.762728e+00 1.900339e-01 -3.882144e+00 3.833661e+00 1.586996e+00 -3.532907e+00 4.428068e+00 -6.746182e-01 5.210831e-01 3.208786e+00 1.725744e+00 -3.510501e+00 -1.324221e-01 -1.357931e-01 2.390618e+00 -2.351789e-01 -1.556455e+00 1.678516e-01 8.824690e-01 -1.404948e-01 2.571180e-01 -7.750186e-01 -4.392061e-01 3.680747e-01 1.145250e+00 -3.888170e-02 
-1.428746e+00 3.271452e+00 -1.203431e+00 5.138080e+00 3.062904e+00 3.437039e-01 1.295819e+00 8.435272e-01 1.759241e+00 1.322823e-01 -8.976917e-01 -5.992670e-01 -1.301056e-01 -1.288458e-01 2.002793e+00 2.250342e-01 -6.601095e-01 1.548506e+00 2.453380e+00 1.717209e+00 1.054268e+00 1.799475e-01 -2.075241e-01 2.346726e-01 7.153164e-01 -2.174141e-02 
-7.880268e-01 5.211218e+00 -1.706221e+00 2.297785e+00 3.022204e+00 4.045406e-01 6.146946e+00 3.878544e+00 4.143680e+00 -2.762213e+00 -2.188139e+00 1.134605e+00 -1.512927e-01 -1.329764e-01 1.244576e+00 7.872905e-01 -4.426065e-01 1.023180e+00 8.635090e-01 8.965677e-01 -4.149556e-02 -1.135082e+00 -1.307731e+00 4.851293e-01 -1.892730e-02 -5.892825e-03 
-1.805605e+00 5.251364e+00 -1.536286e+00 4.466967e+00 7.563641e+00 4.767579e+00 1.033066e+01 4.676197e+00 1.000892e+00 1.471182e-01 1.738024e+00 -7.954972e-01 -1.512927e-01 -5.620767e-01 5.971247e-01 -3.312602e-02 -1.144603e+00 6.445953e-01 -5.282722e-02 1.086860e+00 -4.649288e-01 6.130133e-02 8.845021e-01 1.625544e+00 -1.436834e+00 -4.237413e-03 
-2.239181e+00 5.422958e+00 2.207355e-01 1.956185e+00 4.452530e+00 -1.427300e+00 4.393488e+00 -2.798431e+00 -4.775152e+00 -3.337287e+00 2.833533e+00 -3.507022e+00 -1.512927e-01 -6.722795e-01 1.843680e-01 -2.247198e-01 -3.203632e-01 8.912819e-01 -1.646128e-01 -4.677651e-02 -1.136894e+00 5.998992e-01 1.331987e+00 5.699912e-01 -2.039269e+00 0.000000e+00 
-3.513553e+00 6.151206e+00 -2.332539e+00 -4.141357e-01 5.570717e+00 9.954880e-01 7.606847e+00 1.857370e+00 6.525163e+00 4.842329e+00 4.719191e+00 -5.462624e+00 -1.512927e-01 -2.169621e-01 4.590191e-01 1.352567e-01 2.367800e-02 -3.748331e-02 -7.420962e-01 -2.505537e-01 -7.600392e-01 1.333041e+00 2.061762e+00 -2.416838e-01 -1.076425e+00 0.000000e+00 
-3.295450e+00 5.683137e+00 -2.431694e+00 3.136521e+00 8.475075e+00 1.467522e+00 7.274968e+00 -3.965130e-01 4.381040e+00 1.550117e+00 -8.287663e-01 -6.728179e+00 -1.512927e-01 1.142719e-01 3.484089e-01 -2.570640e-01 1.019306e-01 -4.814782e-01 -6.322387e-01 7.432780e-01 7.339342e-01 7.114023e-01 1.609116e+00 -6.129265e-02 6.462927e-01 0.000000e+00 
-2.362281e+00 7.416369e+00 4.662123e-01 3.995189e+00 5.364952e+00 -3.903131e-01 7.637147e+00 -3.249576e-01 3.088000e+00 8.012227e+00 2.360754e+00 -4.567046e+00 -1.512927e-01 4.418267e-01 5.923687e-01 1.160870e-01 5.579168e-01 -9.593874e-01 -6.368869e-01 -1.315617e+00 -8.793751e-01 -2.227114e+00 -3.272084e-01 -6.165252e-01 2.495532e-01 0.000000e+00 
-2.243457e+00 6.532421e+00 -2.463960e+00 2.611753e-01 2.148022e+00 -3.895593e+00 8.094728e+00 1.962404e+00 5.004405e-01 3.123341e+00 3.706288e+00 -7.233477e-01 -1.512927e-01 2.914685e-01 5.443163e-01 3.782513e-01 -4.835774e-01 -7.989842e-01 -3.461384e-01 -2.116794e+00 -1.893785e-01 -3.601659e-01 -2.305140e-01 1.589309e-01 5.062001e-01 0.000000e+00 
-1.830416e+00 8.688408e+00 -1.735971e+00 3.813121e+00 3.937307e+00 4.926112e-01 6.188827e-01 -3.718963e+00 -2.670107e+00 2.419675e+00 -6.309624e-01 -7.217274e+00 -1.512927e-01 -1.427043e-01 -8.539677e-04 -2.076059e-01 -6.118838e-01 -1.029193e+00 -2.994788e-01 -2.768988e+00 -8.013405e-01 -6.373934e-02 -6.722668e-01 -1.160117e+00 -2.525755e-01 0.000000e+00 
-2.104040e+00 7.768700e+00 5.606546e-01 8.096679e-01 5.193976e+00 -7.046318e-01 2.001305e-01 3.535972e-01 5.459264e+00 3.193823e+00 1.461746e+00 -2.872064e+00 -1.512927e-01 -4.160754e-01 3.540782e-01 1.355802e+00 5.641742e-01 5.622657e-01 1.291319e+00 -1.412456e+00 -2.275007e+00 1.828959e-02 4.559657e-01 7.474556e-02 7.445450e-02 0.000000e+00 
-3.145511e+00 6.793961e+00 -2.084125e+00 6.615241e-01 -1.303990e+00 -3.483188e+00 -2.260493e+00 -3.527256e+00 2.898920e-01 4.615652e+00 -2.317560e+00 -4.755565e+00 -1.512927e-01 -6.210974e-01 1.018919e-01 2.037935e+00 1.552270e+00 1.237115e+00 5.095940e-02 1.743808e-02 -1.081240e+00 4.544010e-02 1.837718e-01 7.122182e-01 1.061606e+00 0.000000e+00 
-3.666286e+00 9.250035e+00 4.489125e+00 4.657845e+00 7.579999e+00 4.548903e+00 2.472136e+00 -9.508485e+00 -8.881109e-01 4.305181e+00 4.923315e+00 -1.581929e+00 -1.512927e-01 -5.182624e-01 3.946057e-01 9.474071e-01 1.344994e+00 7.369118e-01 7.951465e-02 2.954695e-01 -1.541426e+00 -1.851353e-01 -1.576188e-01 6.548946e-01 7.751089e-02 0.000000e+00 
-4.154779e+00 8.457199e+00 6.489466e+00 9.650383e+00 8.929873e+00 -1.879359e+00 -4.299297e-01 -4.194121e+00 7.307813e-01 2.782855e+00 1.199344e+00 -2.554310e+00 -1.512927e-01 -3.451551e-01 3.626787e-01 6.475701e-01 3.782618e-01 1.081288e-01 7.195807e-02 1.061331e+00 7.816311e-01 1.097442e+00 -3.855792e-01 1.888794e-01 4.927599e-01 0.000000e+00 
-4.190718e+00 8.910109e+00 1.010895e+00 3.040211e+00 3.761604e+00 -1.108973e+00 7.621961e-01 -7.020102e+00 4.313143e+00 3.322128e+00 2.977767e+00 -3.585137e+00 -1.512927e-01 -3.769040e-01 -8.246048e-02 -7.730930e-02 -1.071897e+00 -2.297132e+00 -9.071120e-01 1.218231e+00 2.166574e+00 4.954792e-01 4.104103e-01 2.314752e-01 -3.421342e-01 0.000000e+00 
-4.609071e+00 8.777317e+00 2.892842e+00 3.361650e+00 1.145852e+00 -2.944601e-01 3.901134e+00 -8.632928e-01 3.176474e+00 3.179283e+00 -4.003892e-01 -1.290162e+00 -1.512927e-01 -1.557086e-01 3.733706e-01 3.942285e-01 -1.223364e+00 -1.743199e+00 6.018752e-01 1.712520e+00 6.391836e-01 -8.167217e-01 2.830519e-01 8.283993e-01 -2.790037e-01 0.000000e+00 
-5.323661e+00 8.677673e+00 5.900891e+00 2.442725e+00 -1.365137e-02 -7.791075e-01 6.397760e+00 -3.410271e-01 3.664386e-01 6.159019e+00 6.880558e+00 -3.924675e+00 -1.512927e-01 2.269306e-02 7.323678e-01 8.369015e-01 -4.175367e-01 -9.191408e-01 5.770219e-03 1.507704e+00 1.281782e+00 -1.761862e+00 4.071251e-02 9.676911e-01 1.822364e-01 0.000000e+00 
-4.366851e+00 1.044027e+01 6.015611e+00 3.832306e+00 2.101503e+00 9.650840e-01 5.314888e+00 -4.337741e+00 -1.379475e+00 2.779669e+00 3.389946e+00 -3.779560e+00 -1.512927e-01 -5.244226e-02 3.016686e-01 3.836320e-01 -1.857645e-01 -2.465140e-01 -8.477173e-01 -2.600513e-01 -1.185752e-01 -1.899970e+00 4.753296e-01 1.009878e+00 -9.354525e-01 0.000000e+00 
-4.198362e+00 1.174047e+01 3.634018e+00 7.171996e-01 -1.311925e+00 -1.709894e+00 7.593836e+00 1.126032e+00 -2.218194e+00 3.725497e+00 5.921055e+00 -1.429256e+00 -1.512927e-01 -1.159772e-01 -5.278677e-01 -9.500047e-01 -8.146826e-01 -2.695866e-01 -6.662005e-01 -9.642259e-01 -6.510705e-01 -1.337909e+00 -9.521047e-01 -6.570282e-01 -1.133315e+00 0.000000e+00 
-5.433931e+00 8.754261e+00 5.944438e+00 3.295591e+00 5.624187e-01 -4.067654e+00 2.002839e+00 -2.189698e+00 -5.031062e+00 6.772692e+00 5.128751e+00 -7.215134e+00 -1.512927e-01 -4.342720e-01 -1.021518e+00 -7.912967e-01 -8.146659e-01 -1.685503e-01 -1.340183e+00 -1.724632e+00 -6.982344e-01 -3.587626e-01 -2.624442e-01 -1.133294e-01 -3.503385e-01 0.000000e+00 
-5.370007e+00 6.881340e+00 1.186454e+00 -1.362330e+00 -5.920424e-01 -1.593742e+00 3.232656e+00 -4.670401e+00 -4.497313e+00 -5.980167e-01 2.726014e+00 -7.873461e+00 -1.512927e-01 -5.172230e-01 -8.470229e-01 -6.263760e-01 -5.474464e-01 4.454512e-01 -2.488251e-02 -1.557912e+00 -1.372074e+00 2.401392e-01 -2.054552e-01 -8.069358e-01 5.410760e-01 0.000000e+00 
-5.952389e+00 7.762247e+00 3.282909e+00 7.987412e-01 8.988099e-01 -5.793904e+00 -1.127682e+00 -4.930696e+00 -2.033728e+00 3.629205e+00 4.420819e+00 -2.309150e+00 -1.512927e-01 -3.337876e-01 -3.857691e-02 -7.576624e-01 -7.543675e-01 1.708610e-01 6.815506e-01 -3.129723e-01 -4.041719e-01 7.010944e-01 -1.374722e-02 -6.262490e-01 1.877312e+00 0.000000e+00 
-6.525249e+00 8.001364e+00 1.832902e+00 -7.716080e-01 7.471349e-01 -9.711809e-01 1.369537e+00 -4.363839e+00 -2.516164e+00 4.269965e+00 2.240342e+00 -1.176868e+00 -1.512927e-01 -2.883344e-01 2.479166e-01 -1.571102e-02 -3.889048e-02 2.526680e-01 6.067845e-01 -1.229019e-01 1.179981e-01 3.479862e-01 1.037672e+00 -3.151821e-01 1.452547e+00 0.000000e+00 
