-6.167096e+00 8.034665e+00 4.645682e+00 -3.646441e-01 1.937187e+00 -4.572224e+00 1.572578e+00 3.731881e+00 6.804877e+00 6.889202e+00 7.330071e+00 2.574869e+00 -2.409899e-02 -9.023406e-01 -9.877298e-01 -6.106931e-01 -8.576738e-01 -1.947033e+00 -1.031908e+00 -2.410653e-01 1.032791e+00 -4.874568e-01 -2.668296e+00 -8.595794e-01 4.302213e-01 -1.044825e-02 
-9.341719e+00 4.352053e+00 2.318123e+00 -2.161184e+00 -5.698741e+00 -1.111028e+01 -1.456982e+00 7.198648e+00 7.077488e+00 -1.584821e+00 3.607088e+00 1.636127e+00 -5.613470e-02 -9.617726e-01 -1.098559e+00 -5.771247e-01 -9.933559e-01 -1.441796e+00 -4.133552e-01 9.060068e-02 -1.463496e-01 -2.164762e-01 -2.471743e+00 -6.619954e-01 4.768424e-01 -8.520675e-03 
-9.091488e+00 4.937323e+00 2.755996e+00 -3.754743e+00 -3.980015e+00 -6.462733e+00 1.882031e+00 7.162454e+00 4.231288e+00 -2.215264e+00 4.893666e+00 5.195346e+00 -6.032240e-02 -5.044615e-01 -9.426125e-01 -2.474087e-01 -1.597640e-01 -2.568823e-01 -5.627537e-03 7.475136e-01 -9.880613e-01 -5.224660e-01 -9.357738e-01 -5.183370e-01 -4.120491e-02 -6.776762e-03 
-9.513763e+00 4.090541e+00 2.704901e+00 -3.636374e+00 -2.313191e+00 -5.693746e+00 1.870855e+00 1.284846e+00 7.009292e+00 -9.172810e-01 5.238297e+00 3.648842e+00 -4.859066e-02 2.822059e-01 1.496210e-01 2.403565e-01 8.027398e-01 1.274545e+00 2.500079e-02 1.028513e+00 -1.790934e+00 -6.360048e-01 1.180787e+00 9.772683e-01 8.361813e-01 2.621818e-03 
-8.603381e+00 3.452358e+00 3.215249e+00 -4.258690e-01 -1.039999e+00 -7.308632e+00 3.646227e+00 1.748475e+00 4.226646e+00 1.876563e+00 3.922782e+00 1.362487e+00 -6.175482e-02 4.912042e-01 8.170488e-01 6.819742e-01 1.902546e+00 1.715434e+00 -6.532497e-01 -1.096648e+00 -1.130995e+00 -3.697872e-01 1.787661e+00 1.384931e+00 1.009102e+00 5.440295e-03 
-8.174743e+00 5.842640e+00 3.290279e+00 1.880778e-01 -7.960234e-01 -1.056233e+01 2.803483e+00 9.509671e-01 3.899786e+00 2.273202e+00 8.978872e+00 7.733463e+00 -4.230940e-02 2.044105e-01 7.651186e-01 6.301244e-01 4.681217e-01 1.321581e+00 -2.243613e-01 -1.335109e+00 5.874878e-01 -5.966669e-01 1.409953e+00 1.530897e+00 1.444393e+00 -4.697919e-04 
-7.304977e+00 8.146517e+00 5.873178e+00 3.845760e+00 3.838571e+00 -7.294689e+00 -4.067525e+00 1.674420e+00 3.937105e+00 5.127797e+00 9.948036e+00 8.198546e+00 -3.626156e-02 -3.138704e-02 4.234801e-01 4.881082e-01 4.372849e-01 5.789571e-01 3.966883e-01 -1.765336e-01 5.296376e-01 -1.450380e-01 5.361665e-01 1.177858e+00 1.295563e-01 -3.870439e-03 
-9.140913e+00 5.569055e+00 4.526559e+00 -3.431580e+00 1.855431e+00 -6.822524e+00 -9.478164e-01 4.259313e+00 4.170727e+00 4.506869e+00 9.880156e+00 7.452776e+00 -6.368625e-02 -2.066507e-01 -4.831051e-01 7.151752e-01 4.629332e-01 -9.246905e-02 5.472342e-01 1.121449e+00 5.237539e-01 -2.140213e-01 2.444776e-01 -1.049499e+00 -9.314089e-01 -6.833553e-03 
-8.277231e+00 5.706552e+00 5.037650e+00 3.570384e+00 5.290585e-01 -7.195094e+00 4.639209e+00 2.742491e+00 3.365985e+00 3.440562e+00 9.361428e+00 2.150611e+00 -7.041860e-02 -2.515086e-01 -8.318453e-01 -2.181976e-01 7.427831e-02 -7.855336e-01 1.125358e-01 1.237242e+00 -2.201399e-01 -4.361177e-01 -2.432633e-01 -8.102118e-01 -9.947042e-01 -4.189551e-03 
-8.721869e+00 4.647097e+00 7.283919e+00 2.640432e+00 3.963875e-01 -7.875957e+00 4.057361e+00 3.035702e+00 3.115239e+00 4.339208e+00 4.024682e+00 6.100387e+00 -5.939865e-02 -3.161857e-01 -5.524350e-01 -3.010110e-01 1.020565e+00 -4.377118e-02 4.822468e-01 2.330628e-01 -1.091006e+00 -4.948649e-01 -4.878078e-01 -2.317160e-01 -8.561336e-01 4.881931e-03 
-8.772042e+00 4.448270e+00 3.403510e+00 1.181145e+00 6.404245e-01 -6.205293e+00 -3.839016e-01 1.185526e+00 2.284261e+00 3.995311e+00 8.824715e+00 3.901221e+00 -5.935311e-02 -4.578643e-01 -1.861935e-01 -3.265227e-01 -9.225243e-01 -4.676890e-02 4.732334e-01 -1.158158e+00 -5.714360e-01 7.149736e-01 -5.846338e-01 -4.088593e-02 -7.865806e-02 4.083085e-03 
-1.047444e+01 3.436021e+00 3.838573e+00 2.865863e+00 1.580893e+00 -4.906190e+00 2.729053e+00 -4.172361e-01 2.237265e+00 1.790455e+00 8.989932e+00 2.296804e+00 -4.480934e-02 -1.790948e-01 -1.309921e-01 -7.564735e-02 -6.305731e-01 -2.112973e-01 4.483140e-01 -6.525288e-01 -5.933931e-02 3.388585e-01 -7.392937e-01 -8.408363e-02 -1.737061e+00 -8.401513e-04 
-9.690269e+00 5.381122e+00 5.127709e+00 -1.154952e+00 -2.970386e-01 -6.313810e+00 -4.874277e-01 1.611779e+00 7.379840e+00 1.791769e+00 6.674374e+00 3.659112e+00 -5.729783e-02 2.812149e-01 -2.838944e-02 1.784205e-01 -1.011414e+00 -1.227867e+00 -6.289242e-01 -2.711408e-01 4.998423e-01 7.936074e-01 -1.033943e+00 -1.644230e+00 -1.350755e+00 -1.945317e-03 
-9.158230e+00 3.525711e+00 6.043583e+00 6.556153e-01 -1.913676e-01 -5.580129e+00 8.464799e-01 2.525879e+00 2.261742e+00 1.744510e+00 4.679434e+00 -2.463865e+00 -6.462705e-02 8.614448e-01 2.785131e-01 -1.135257e-01 -1.359636e+00 -1.059651e+00 -8.189384e-01 -3.745335e-01 6.983091e-01 -6.898724e-01 -2.477448e-01 -1.554061e+00 -1.089118e+00 -5.447817e-03 
-8.024071e+00 4.261477e+00 3.193108e+00 -2.770802e+00 -4.612783e+00 -9.012944e+00 -7.983189e-01 2.213180e+00 6.240059e+00 -1.151430e+00 2.758813e+00 -4.722193e-01 -5.917084e-02 4.956079e-01 3.625216e-01 -2.706982e-01 -1.012015e-01 1.110907e-01 -7.410105e-01 8.131309e-02 5.631228e-01 -1.118885e+00 5.809675e-01 -5.377741e-02 1.772141e-01 7.535815e-04 
-7.000311e+00 5.388409e+00 4.238245e+00 -3.124394e+00 -1.559490e+00 -7.651316e+00 1.011831e+00 2.773609e+00 -6.422067e-01 2.023331e+00 3.177408e+00 -1.083122e+00 -7.111192e-02 1.797047e-01 4.952375e-01 -2.616567e-01 -4.513372e-01 1.003264e-01 -7.490272e-01 2.250659e-01 5.480915e-01 3.550196e-03 -6.704722e-02 2.669888e-01 1.231337e+00 3.049386e-03 
-8.291189e+00 6.262381e+00 4.676887e+00 2.290448e-01 9.424759e-01 -8.983270e+00 -1.635380e-01 4.303528e+00 3.237391e+00 4.557197e+00 7.156499e+00 3.854811e+00 -5.028749e-02 -8.861704e-02 1.894836e-01 4.850393e-01 5.835349e-01 1.582923e-01 -3.071507e-01 7.852203e-01 2.666199e-01 -3.002195e-02 -1.050098e-02 1.367172e+00 2.174371e+00 8.059979e-04 
-8.126147e+00 5.001447e+00 3.993410e+00 -3.100994e+00 -2.467365e+00 -9.340102e+00 1.654419e+00 4.221162e+00 3.780827e+00 -1.445039e+00 3.815535e+00 1.529304e+00 -5.382180e-02 -2.997776e-01 -2.612388e-01 -1.530232e-01 5.938054e-01 -4.555094e-01 1.031097e+00 1.166736e+00 3.129234e-01 2.449814e+00 2.732929e-01 1.059267e+00 1.911007e+00 6.568325e-03 
-7.904238e+00 5.402376e+00 5.740722e+00 1.351732e-01 -3.367384e+00 -9.704305e+00 2.806489e+00 2.822504e+00 3.878432e+00 5.302502e-01 9.275610e+00 9.093422e+00 -6.378591e-02 1.209197e-01 2.432041e-02 -9.200423e-01 2.722952e-02 -2.558064e-01 1.679942e+00 1.088313e+00 -6.157001e-01 1.076427e+00 5.805737e-01 4.241061e-01 6.199209e-01 6.524277e-03 
-8.692675e+00 4.512217e+00 2.941212e+00 -1.084311e-01 -1.682107e+00 -2.135311e+00 5.360499e+00 5.078738e+00 1.128634e+01 5.403268e+00 7.414189e+00 5.852605e+00 -3.152108e-02 -2.005076e+00 1.826520e+00 -1.516013e+00 8.550392e-01 -5.616285e-01 2.186440e+00 -2.624124e-01 -4.987612e-01 -5.872284e-01 3.109643e-01 3.364695e-01 6.809820e-01 1.240947e-01 
-7.403327e+00 6.628598e+00 6.027741e-01 -1.131089e+00 -7.291853e-01 -4.185957e+00 3.424987e+00 7.962394e-01 4.866770e+00 4.035912e+00 7.477703e+00 4.792765e+00 -2.881646e-02 -4.579567e-01 8.369725e-01 -2.076955e+00 6.852115e-01 -9.138692e-01 1.424824e+00 -1.339009e+00 1.054190e+00 -2.745723e+00 -2.032186e+00 1.247323e-01 -8.265104e-01 1.587604e-01 
-1.840198e+01 1.352094e+01 -1.017683e+00 1.807333e+00 -6.594607e+00 -1.167075e+00 3.310823e-02 2.740489e+00 3.505161e-01 -1.643048e+00 6.396836e+00 7.084542e+00 5.491672e-01 1.753006e+00 -7.567029e-01 -3.590570e-01 1.116184e-01 -3.206570e-01 -9.770590e-01 -1.637869e+00 9.788008e-01 -3.821598e+00 -3.591796e+00 9.747437e-01 -1.350485e-01 1.003894e-01 
-5.339368e+00 5.082880e+00 -2.664607e+00 2.603349e+00 -5.480480e+00 -3.064304e+00 -1.224860e+00 9.262580e+00 -4.382267e+00 -6.107522e+00 1.040795e+01 4.344902e+00 4.396718e-01 2.568260e+00 -1.812980e+00 6.298705e-01 5.425315e-01 1.624708e+00 -1.051616e+00 -2.572103e-01 -1.966877e-01 -2.067597e+00 -2.072278e+00 5.482960e-03 9.176023e-02 -2.298632e-02 
-9.596252e-01 1.501561e+00 2.779617e+00 -1.417558e+00 -9.097445e-01 -7.581432e+00 -5.039210e-01 5.739572e+00 -3.197128e+00 -7.483995e+00 1.082278e+01 5.401295e+00 2.361816e-01 3.191062e+00 -2.685393e+00 1.247935e-01 2.261523e-01 3.639861e+00 -2.886024e-01 1.012840e+00 -1.764590e+00 -6.488398e-01 2.797018e-01 -1.153900e+00 -1.979840e+00 -1.500254e-01 
-3.283203e+00 3.573386e+00 1.853477e+00 3.194014e+00 4.551922e+00 -6.236859e+00 2.407450e+00 -1.686741e+00 -3.697392e+00 -3.405004e+00 5.292143e+00 6.093190e+00 1.274472e-02 2.909701e-01 2.351296e-03 4.382690e-01 6.432546e-01 2.512361e+00 -2.181647e-01 -1.432887e-01 -2.195454e+00 1.229346e+00 2.278312e+00 -1.440744e+00 -6.738704e-01 -1.081714e-01 
-3.474751e+00 8.487192e-01 -2.652757e+00 2.642761e+00 6.588499e+00 -1.023809e+00 3.281155e+00 -6.078029e-01 -3.236120e+00 -1.595798e+00 3.185238e+00 -3.688802e+00 1.250380e-02 -6.101354e-01 9.525521e-01 -1.889106e-01 1.048429e+00 3.438496e-01 7.759659e-02 7.364397e-02 -5.609004e-01 1.272833e+00 1.140833e+00 -1.446758e+00 -1.764638e-01 -4.796486e-02 
-2.626954e+00 5.421057e+00 2.242925e+00 3.789462e+00 3.332204e+00 -7.433939e+00 -3.833841e+00 1.458999e+00 1.783960e+00 2.339942e+00 7.023003e+00 5.520598e+00 1.065367e-02 2.959185e-02 1.135966e+00 4.943493e-01 -9.011248e-01 -1.884109e+00 -8.594345e-01 6.102614e-02 6.085889e-01 1.198096e+00 -7.033420e-02 1.280015e-01 9.326050e-01 -1.206302e-02 
-4.338427e+00 5.340486e+00 1.640340e+00 3.526860e+00 1.419363e+00 -6.594910e+00 2.984944e+00 1.362200e+00 4.263606e-01 -4.652302e+00 2.723566e+00 4.805272e+00 -2.597213e-03 -1.390883e+00 1.110498e+00 1.750856e+00 -1.862910e+00 -1.353552e+00 -1.254340e+00 -1.204049e+00 1.129614e+00 4.094142e-01 -7.945243e-01 1.407731e+00 1.019331e+00 1.943495e-02 
-2.703406e+00 7.007333e+00 2.178675e+00 -1.753660e+00 -2.284055e+00 -7.748482e+00 2.860686e+00 3.712020e-01 4.618442e-01 -2.228423e+00 6.162987e+00 6.509178e+00 -4.001987e-02 -1.579985e+00 -1.120635e-01 9.354781e-01 -1.755024e+00 7.579859e-01 9.088963e-01 -8.364857e-01 6.865358e-03 -9.697769e-01 -1.622194e+00 6.018189e-01 -5.764192e-01 2.100084e-02 
-1.039094e+01 5.608071e+00 6.133649e+00 -3.900227e+00 2.628869e+00 -7.138238e+00 -6.086354e+00 5.584163e+00 -5.279913e-01 -3.284236e+00 1.065390e+01 9.135653e-01 1.350153e-01 -6.826909e-01 -1.624349e-01 1.873728e-01 -7.454201e-01 8.167149e-01 4.401309e-01 -1.408810e+00 1.472467e-01 7.926836e-01 6.813143e-01 8.146749e-01 -7.333021e-01 3.337753e-03 
-7.500620e+00 4.726947e+00 4.673661e+00 -1.272112e+00 6.517380e+00 -2.617793e+00 -3.480620e+00 -6.176558e-01 -2.587749e+00 -6.455061e+00 6.066930e+00 4.584356e+00 4.685163e-02 -2.230195e-01 -2.262076e+00 -1.017831e+00 1.497289e+00 1.396709e+00 2.164516e-01 -4.487845e-01 9.395760e-01 2.703473e+00 -1.020863e-01 -1.508385e+00 -9.967611e-01 2.589506e-03 
-5.353274e+00 5.668504e+00 1.329711e+00 -4.410141e-01 1.102220e+00 -6.959599e+00 -8.884516e-01 2.592863e+00 5.914575e+00 8.675886e-01 6.844969e+00 2.101172e+00 -2.934420e-02 8.359348e-01 -1.800338e+00 -1.103901e+00 2.446982e+00 -9.235251e-02 -4.408317e-01 6.342741e-01 -6.992488e-02 2.883777e+00 7.019834e-01 -2.720770e+00 -3.251005e-01 -2.534882e-02 
-6.337337e+00 -4.333264e+00 -5.085115e-01 4.003181e+00 5.462817e+00 -6.755543e+00 -1.982187e+00 6.564733e+00 1.075793e+01 -4.814767e+00 5.255260e-01 9.315692e-01 5.510741e-02 -6.217508e-01 -1.002332e+00 1.152098e+00 1.472156e+00 -7.322109e-01 -2.666058e-01 -2.197684e-01 1.487092e+00 2.968517e+00 2.667219e-01 -6.279268e-01 5.622153e-01 1.068765e-03 
-6.792909e+00 1.136485e+00 3.205229e+00 5.697039e+00 2.694388e+00 -7.273521e+00 -3.664199e+00 1.643344e+00 7.218054e+00 -5.944666e-01 -1.792459e-01 1.114456e+00 4.143298e-03 -1.250600e+00 2.826835e-01 1.810751e+00 2.070121e-01 -1.155519e+00 1.669083e-01 3.854558e-01 1.147143e+00 4.634446e-01 -1.017401e+00 -1.185112e-01 1.779555e+00 -2.457237e-03 
-9.889557e+00 1.981297e+00 9.496390e+00 3.019642e+00 2.060241e+00 -3.793861e+00 -3.191588e+00 7.292562e+00 1.160310e+01 -4.390424e+00 6.439403e+00 7.888791e+00 3.545171e-02 -6.616847e-01 2.570392e+00 1.524166e+00 -4.915880e-01 -1.491750e+00 6.131067e-01 1.878633e+00 7.703952e-01 -8.093712e-01 2.961574e-01 1.441077e+00 1.323396e+00 -1.611918e-02 
-9.830164e+00 3.924641e+00 5.381017e+00 1.085816e+00 -2.974089e+00 -7.605899e+00 1.643528e+00 7.964664e+00 7.809214e+00 -4.431587e+00 3.295475e+00 7.520339e+00 -3.180254e-02 6.078461e-01 1.283037e+00 -1.157972e+00 -6.564053e-01 7.525126e-01 2.130396e+00 3.012421e+00 -2.580965e-01 -1.153395e+00 6.153817e-01 5.908804e-02 -1.498200e-01 -7.003361e-03 
-8.127133e+00 7.124619e+00 6.024423e+00 3.850852e+00 8.383080e-01 -3.523821e+00 4.757114e+00 7.256049e+00 6.415492e+00 -1.415420e+00 5.993550e+00 4.345611e+00 -7.515550e-03 2.077309e+00 1.870270e-01 -3.456015e+00 -6.199353e-01 1.633376e+00 1.987458e+00 1.871364e+00 -3.262533e+00 -2.639689e+00 1.271888e+00 -1.812840e+00 -3.101443e+00 -5.383134e-03 
-4.634890e+00 4.980007e+00 -8.486447e-01 1.999407e+00 7.067917e+00 3.243441e+00 7.423555e+00 3.711178e-01 4.044880e+00 9.949399e-01 3.391209e-01 2.136946e+00 -9.389877e-03 2.251402e+00 -5.276254e-01 -1.932464e+00 -1.055043e+00 6.492089e-01 1.886769e+00 6.640194e-01 -3.379974e+00 -2.242318e+00 -5.220410e-02 -1.238759e+00 -2.293756e+00 3.350413e-03 
-2.100649e+00 2.388749e+00 -4.668852e+00 -5.368297e-01 5.206116e+00 7.187581e-01 3.275218e+00 -5.223330e+00 2.868202e-01 -7.442469e-01 -1.146623e+00 -4.926728e+00 -2.670288e-03 1.322298e+00 -1.183299e+00 -9.868357e-01 -1.557355e+00 -1.814951e+00 -2.642661e-01 -7.137816e-02 -7.738186e-01 -2.360484e+00 -8.586534e-01 9.780526e-03 9.038206e-02 3.669679e-03 
-1.586395e+00 3.654449e+00 1.065333e+00 -1.995557e+00 -1.911948e+00 -2.933462e-01 5.704573e+00 -2.695515e+00 -3.380418e-01 -5.028194e+00 6.717641e-01 6.877292e-01 -1.747310e-02 -5.280094e-02 -8.150684e-01 7.721869e-01 -2.518758e-01 -3.260754e+00 -2.003510e+00 -1.157883e+00 1.067836e+00 -1.583357e+00 -2.277206e-01 1.566953e+00 6.036831e-01 6.343210e-03 
-3.039890e+00 1.870902e+00 1.332555e-01 -1.938442e+00 -3.746516e+00 -3.076758e+00 5.259715e+00 4.920273e+00 -3.195468e+00 -2.697119e+00 5.876131e+00 5.522130e+00 1.487446e-02 -9.455036e-01 -3.810693e-01 2.517176e+00 5.281753e-01 -1.962625e+00 1.227356e+00 -1.014569e+00 1.918268e-03 6.399409e-01 1.129373e+00 1.798932e+00 7.428392e-01 1.684505e-02 
-4.429274e+00 1.163588e+00 6.112361e-01 1.440834e+00 -4.759535e+00 -4.876350e+00 6.418920e-01 6.384981e-01 -2.130760e+00 8.327733e-01 4.662507e+00 -6.906700e-02 1.355380e-02 -1.254994e+00 -5.776073e-01 2.332158e+00 4.350263e-01 -4.885661e-01 2.405921e+00 -1.548901e+00 -3.322308e+00 1.201080e+00 6.537296e-01 4.186745e-01 4.725486e-01 2.351424e-02 
-5.406728e+00 1.728833e+00 8.144074e+00 3.858511e-01 -3.183215e+00 9.147041e+00 7.337141e-01 -6.880745e+00 4.382884e+00 1.972134e+00 5.852666e+00 -8.341335e-01 6.604153e-02 -1.105727e+00 4.829919e-01 2.307559e+00 8.967173e-01 8.365742e-01 2.433282e+00 9.502001e-01 -2.630452e+00 2.143833e+00 1.416698e-01 -2.443958e-01 -4.983188e-01 2.636218e-03 
-6.677948e+00 8.374467e-01 8.720714e+00 -9.825721e-01 -4.636429e+00 5.624362e+00 2.230692e-01 -1.340655e+01 1.878182e+00 -4.094173e+00 2.776869e+00 6.228604e+00 7.451457e-02 -6.311355e-01 1.092483e+00 8.060368e-01 4.280363e-01 1.259693e+00 -2.388633e-01 2.300267e+00 1.813842e+00 2.521294e+00 2.674182e-01 4.803834e-01 7.368318e-02 -1.144252e-02 
-7.444189e+00 4.448932e+00 7.616315e+00 3.756847e+00 3.748022e-01 3.839297e+00 1.022013e+01 -1.209467e+00 5.519226e+00 4.747027e-01 5.596971e+00 -1.183002e-01 -2.424836e-03 -6.056741e-01 1.033343e+00 -9.253451e-01 1.428699e+00 8.159197e-01 -2.931252e+00 1.697280e+00 4.366587e+00 1.491596e+00 6.715336e-01 5.759259e-01 7.103491e-03 -7.452243e-03 
-6.566220e+00 5.265952e+00 4.905300e+00 1.895518e+00 -2.400806e-01 -3.416794e+00 7.400023e+00 6.872069e+00 9.907538e+00 2.918581e+00 7.192271e+00 -5.856776e-02 -9.425640e-03 -4.413268e-01 8.096582e-01 -1.034078e+00 2.022158e+00 1.262879e+00 -6.903235e-01 1.922812e-02 3.820840e+00 2.052754e-01 1.320141e+00 5.825729e-01 8.017374e-01 3.418470e-02 
-8.490962e+00 4.681295e+00 5.425056e+00 6.090301e+00 -1.301791e+00 -9.886394e-01 5.631635e+00 4.812884e+00 7.826187e+00 1.823426e+00 6.524594e+00 2.344970e+00 7.075042e-02 -1.747562e-01 -3.268198e-01 -1.157624e+00 1.353945e+00 -1.999306e-01 3.662490e-01 -2.404501e+00 6.243967e-01 -1.600845e+00 -9.330028e-01 -1.269753e+00 1.056794e+00 6.732461e-02 
-8.361196e+00 4.769556e+00 4.645951e+00 7.961493e+00 2.516262e+00 4.586713e+00 2.613456e+00 2.686477e+00 1.751079e+00 1.832169e+00 5.225922e+00 9.005656e+00 2.088504e-01 3.626084e+00 -1.756537e+00 -3.241681e+00 -1.367846e+00 -1.440659e+00 5.382762e-01 -2.372693e+00 -1.606963e+00 -3.515062e+00 -2.166927e+00 -1.365844e+00 -1.084166e-01 1.183035e-01 
-7.420483e+00 3.063031e+00 1.957867e+00 7.493587e+00 -2.003022e+00 1.668789e+00 5.909033e-01 4.005313e+00 1.593229e+00 -3.647106e+00 2.313805e-01 6.335558e-01 2.250602e-01 6.406056e+00 -3.702591e+00 -4.736150e+00 -3.333740e+00 -3.224929e+00 1.074874e+00 -3.211459e+00 -1.177303e+00 -3.829847e+00 -1.554304e+00 -1.140502e+00 -2.822551e+00 1.951129e-01 
1.102896e+01 -2.707602e+00 -9.569510e+00 -5.645356e+00 -7.092761e+00 -2.054127e+00 -1.943076e+00 -7.589591e-01 -4.551296e+00 -5.180788e+00 3.509657e+00 2.550563e-01 5.049368e-01 5.712920e+00 -3.720417e+00 -4.297272e+00 -2.949855e+00 -3.755079e+00 1.918544e+00 -2.897827e+00 -2.355654e-01 -2.823546e+00 -6.648146e-01 -7.969164e-01 -4.548748e+00 1.956495e-01 
1.384424e+01 -1.009308e+01 -1.114796e+01 -3.774975e+00 -1.262192e+01 7.706153e+00 -8.147396e+00 6.490852e-01 -8.171864e+00 -2.441617e+00 1.680215e+00 -7.392483e+00 8.982717e-01 3.166857e+00 -2.434697e+00 -2.200866e+00 -1.589229e+00 -1.295671e+00 3.151407e+00 -1.727482e+00 3.893206e-01 -1.844215e+00 1.286939e+00 -1.663829e-01 -2.680693e+00 1.644591e-01 
9.571039e+00 -7.254474e+00 -1.028750e+01 -1.153503e+00 -1.094968e+01 1.116075e+01 -7.506530e+00 3.186764e+00 -7.484104e+00 -2.094649e+00 5.169227e-01 -9.725063e+00 8.504923e-01 -9.612460e-01 -1.139607e+00 8.406236e-01 1.404076e-01 4.615650e-01 2.497610e+00 -1.196556e+00 1.630824e+00 -5.166016e-01 9.580353e-01 -9.908714e-01 -1.858075e+00 8.482844e-02 
9.142765e+00 -6.837017e+00 -8.687471e+00 -2.698487e+00 -6.552916e+00 1.081839e+01 -5.264781e+00 3.979054e+00 -6.161439e+00 1.244521e+00 8.958330e-01 -7.779849e+00 8.745781e-01 -1.261112e+00 -4.758278e-01 9.257161e-01 -7.950466e-01 1.683830e+00 1.133366e-01 -8.187200e-01 1.498205e+00 -4.459868e-02 4.571738e-01 -6.856960e-01 -2.520722e-01 2.754613e-02 
8.573468e+00 -1.003367e+01 -6.596636e+00 -5.481562e+00 -7.819439e+00 8.877808e+00 -9.367167e+00 5.730176e+00 -8.139515e+00 -2.233680e+00 -1.052509e+00 -8.841640e+00 9.409258e-01 -6.971147e-01 -1.377621e+00 6.138493e-01 -1.246959e+00 1.213896e+00 -5.575438e-01 -1.124447e+00 6.829262e-01 -8.872002e-01 2.941181e-01 -9.545889e-01 1.124000e-01 3.810893e-02 
8.037467e+00 -1.108262e+01 -8.364811e+00 -5.586179e+00 -5.767896e+00 9.414307e+00 -1.131068e+01 6.868405e+00 -8.067150e+00 -8.623171e-02 -9.635491e-01 -9.094557e+00 9.907856e-01 -6.673070e-01 -1.094511e+00 2.407787e-01 -7.942464e-01 6.430105e-01 -1.888740e-01 -1.078605e+00 3.208563e-02 -1.129806e+00 3.864745e-01 -1.240955e+00 -3.854170e-01 2.877452e-02 
6.638114e+00 -1.201978e+01 -7.379580e+00 -5.944452e+00 -5.272711e+00 9.075070e+00 -1.010581e+01 5.156719e+00 -1.096725e+01 4.131794e-02 -3.326331e+00 -8.505710e+00 9.829332e-01 -3.132730e-01 -3.716145e-01 2.764231e-01 -2.981127e-01 9.665375e-01 2.032379e-01 4.315395e-01 -9.424256e-01 -2.933907e-01 1.199160e+00 -1.039030e+00 1.534811e-01 1.248099e-02 
6.773906e+00 -1.131652e+01 -7.092105e+00 -6.438274e+00 -4.611228e+00 9.775385e+00 -1.028848e+01 4.426210e+00 -1.039660e+01 2.039394e+00 -4.172029e+00 -9.874899e+00 9.974470e-01 -1.085507e-01 6.134033e-04 4.461318e-01 -1.925236e-01 8.394716e-01 1.052017e-01 1.240056e+00 -1.272656e+00 5.325812e-01 7.286373e-01 -1.098431e+00 5.826325e-01 -9.919107e-04 
7.638883e+00 -1.177479e+01 -5.850873e+00 -6.546078e+00 -3.565086e+00 9.713458e+00 -7.720566e+00 2.239145e+00 -8.441744e+00 2.699305e+00 -4.643421e+00 -7.684062e+00 1.000000e+00 2.200328e-02 3.176578e-01 7.626887e-02 3.354726e-01 3.811219e-01 3.682740e-01 1.079562e+00 -9.053612e-01 1.368076e+00 1.995218e-01 -5.395209e-01 9.856084e-01 -4.536795e-03 
6.994328e+00 -1.120205e+01 -6.898505e+00 -6.247984e+00 -2.424350e+00 9.621121e+00 -6.303023e+00 1.963911e+00 -6.666997e+00 2.227961e+00 -5.797160e+00 -6.592217e+00 9.772927e-01 1.072740e-01 2.134118e-01 -2.244607e-01 5.458212e-01 2.198784e-01 1.946223e-01 1.263257e+00 -1.152343e+00 1.145244e+00 9.818001e-02 -6.752369e-01 1.218217e+00 -6.420231e-03 
6.637920e+00 -1.048872e+01 -7.095036e+00 -4.362234e+00 -4.460540e+00 1.099357e+01 -6.700734e+00 1.861063e+00 -5.991672e+00 9.446439e-01 -5.211370e+00 -5.219008e+00 9.703264e-01 2.355204e-02 6.482668e-02 -4.321739e-01 7.951148e-01 -8.790250e-02 1.797173e-01 3.808592e-01 -7.178226e-01 5.814053e-01 -7.260804e-02 -8.300993e-01 7.779158e-01 -3.216362e-03 
7.810758e+00 -1.089249e+01 -7.592328e+00 -4.801090e+00 -3.064109e+00 1.010844e+01 -4.482115e+00 -1.146465e+00 -5.895417e+00 3.407625e+00 -7.264239e+00 -5.016341e+00 9.801826e-01 4.573883e-01 -1.679050e-01 -2.273672e-01 5.367745e-01 2.019077e-01 1.369986e-01 -1.133199e-01 -1.634281e-01 1.260855e-01 8.722105e-02 -3.383107e-01 3.194216e-01 2.368277e-03 
7.348429e+00 -1.160544e+01 -7.664832e+00 -3.293950e+00 -3.684719e+00 1.036839e+01 -6.726724e+00 2.052207e-01 -5.920507e+00 1.746433e+00 -8.060377e+00 -4.582421e+00 9.824732e-01 3.249950e-01 -3.944220e-01 3.823090e-03 3.019624e-01 5.800402e-01 -1.445611e-01 1.815504e-01 3.407328e-01 -2.185924e-01 8.354428e-01 -5.523354e-01 3.584527e-01 3.219896e-03 
8.926016e+00 -1.148321e+01 -7.750443e+00 -4.098253e+00 -1.802722e+00 1.061871e+01 -6.856627e+00 1.974692e+00 -6.072153e+00 2.263172e+00 -6.064209e+00 -5.313402e+00 9.830607e-01 -9.762689e-03 -3.657092e-01 4.610205e-01 6.274033e-02 2.874857e-01 6.592636e-02 4.495808e-01 5.618335e-01 1.753276e-01 4.879278e-01 -1.055840e-01 3.683726e-01 2.080023e-04 
7.705266e+00 -1.216547e+01 -6.996863e+00 -3.203840e+00 -2.191032e+00 1.001563e+01 -4.605726e+00 2.004149e+00 -6.996266e+00 5.694085e+00 -8.573061e+00 -3.278214e+00 9.849869e-01 -2.273602e-01 -1.579684e-01 8.295209e-01 -5.858573e-01 3.025723e-01 2.373647e-01 7.929409e-01 8.919001e-02 5.832047e-01 3.329134e-01 -3.722610e-02 5.889245e-01 -1.576811e-03 
7.583526e+00 -1.244102e+01 -5.621210e+00 -4.532443e+00 -2.373524e+00 1.061445e+01 -3.294711e+00 7.632378e-01 -4.480899e+00 3.873438e+00 -7.535817e+00 -3.826581e+00 9.799658e-01 -5.667303e-01 -2.139502e-02 3.374761e-01 -7.045373e-01 5.288138e-02 6.807133e-01 8.175430e-02 -6.356861e-02 4.695264e-01 -6.712476e-01 -2.401938e-01 2.002016e-01 -1.185937e-02 
6.882873e+00 -1.191638e+01 -4.581844e+00 -6.006142e+00 -1.886457e+00 1.155734e+01 -4.542978e+00 1.256898e+00 -3.800110e+00 2.605866e+00 -7.510705e+00 -2.381209e+00 9.761366e-01 -6.365879e-02 8.423977e-02 -2.080050e-01 -8.411804e-01 -2.390270e-01 1.067452e-01 -1.000574e+00 -2.517379e-01 2.905340e-01 -2.088436e+00 -1.584026e-01 -7.273579e-02 -1.541588e-02 
6.503561e+00 -1.171474e+01 -7.270572e+00 -6.219789e+00 -1.690603e+00 1.325142e+01 -6.479229e+00 2.030474e+00 -5.322599e+00 4.510430e-01 -7.796357e+00 -4.760896e+00 9.281890e-01 1.626806e-01 4.501219e-02 -3.604400e-01 1.639932e-01 -5.070622e-01 -4.320746e-02 -8.481770e-01 -5.590320e-01 -3.260037e-01 -1.838309e+00 -2.604126e-01 -2.181663e-01 -1.656895e-02 
7.926954e+00 -1.210741e+01 -7.212206e+00 -6.566070e+00 -3.727628e+00 9.230872e+00 -8.016336e+00 1.118412e-01 -5.122746e+00 -3.036897e+00 -9.234804e+00 -3.174735e+00 9.337959e-01 4.528817e-01 9.395341e-01 -2.165043e-01 4.602815e-01 -2.736436e-01 -9.955635e-02 -4.162826e-02 -6.596398e-01 -3.088217e-02 -9.483896e-01 -1.352887e-01 -2.470824e-01 -3.096162e-02 
7.874888e+00 -1.212044e+01 -6.108228e+00 -3.432513e+00 -3.988249e+00 1.156164e+01 -5.798916e+00 -1.459394e+00 -5.449600e+00 -2.496726e+00 -7.975830e+00 -4.520650e+00 9.182914e-01 5.093021e-01 1.678564e+00 5.609339e-01 1.937617e-01 -5.296176e-01 6.848631e-02 8.492262e-01 -9.632248e-01 1.389273e-01 -4.983363e-02 -2.480800e-01 8.144974e-01 -3.426777e-02 
8.461617e+00 -7.015852e+00 -6.245537e+00 -5.098372e+00 -2.105852e+00 1.190445e+01 -5.091276e+00 -2.963674e-01 -3.891020e+00 -6.621972e-01 -8.097412e+00 -3.736744e+00 8.262773e-01 3.171577e-01 1.032715e+00 3.727394e-01 9.919207e-01 -5.170341e-01 -5.125704e-02 1.034754e+00 -6.256231e-01 1.869630e-01 6.691940e-01 -3.787222e-01 1.187098e+00 -2.776015e-02 
8.782740e+00 -5.867696e+00 -4.949237e+00 -5.984829e+00 -5.149579e+00 1.225707e+01 -3.695629e+00 -2.581545e+00 -5.243825e+00 -9.854752e-01 -9.605453e+00 -4.074050e-01 8.106095e-01 2.114518e-01 -3.489499e-01 2.963142e-01 4.798893e-01 1.587760e-01 -9.699842e-01 9.740738e-01 -2.287281e-01 3.607852e-01 6.910510e-01 -8.452509e-01 1.371073e+00 -2.426082e-03 
9.058818e+00 -1.007021e+01 -5.928005e+00 -3.303087e-01 -5.732133e+00 8.626876e+00 -3.894212e+00 -2.455199e+00 -4.290818e+00 -4.465526e-01 -1.031360e+01 7.041301e-01 8.488361e-01 7.827295e-02 -3.824998e-01 8.631067e-02 3.841686e-02 -3.333867e-01 -2.650508e-01 6.358035e-01 -7.463031e-01 7.878268e-01 3.735520e-01 -9.392039e-01 4.930950e-01 2.506644e-03 
8.633547e+00 -1.233801e+01 -4.785424e+00 -3.417098e+00 -1.381229e+00 8.350508e+00 -1.527079e+00 -1.523618e+00 -3.445775e+00 8.507069e-01 -1.109399e+01 1.142808e-01 8.948815e-01 2.251710e-01 3.159092e-01 -3.955902e-01 -1.941237e-01 6.682189e-01 -1.177560e+00 1.344211e+00 2.220677e-01 5.083457e-01 8.519030e-01 -6.711553e-01 -2.683379e-01 -1.220666e-02 
8.927578e+00 -5.693192e+00 -5.895891e+00 -6.190153e+00 -5.656961e+00 1.253247e+01 -2.996533e+00 -4.556847e+00 -8.509116e-01 2.874719e-01 -1.204916e+01 -1.532112e+00 7.966744e-01 2.530870e-01 1.379104e+00 2.258856e-01 -1.360211e+00 8.531420e-01 -1.013255e+00 1.406940e+00 5.046893e-01 2.549565e-01 1.296583e+00 -5.668060e-01 -4.343880e-01 -3.226150e-02 
9.974215e+00 -6.476659e+00 -6.943245e+00 -4.025526e+00 -1.846071e+00 4.416469e+00 2.576589e+00 -4.203827e-01 -4.422050e+00 2.907028e+00 -1.209345e+01 -6.309732e-01 7.756570e-01 4.078263e-01 1.239103e+00 5.169099e-01 -5.790759e-01 2.150445e-01 -1.075085e+00 9.890464e-01 5.415009e-01 8.866215e-02 1.026188e+00 3.519003e-01 -5.661658e-01 -3.910318e-02 
9.653919e+00 -6.105367e+00 -3.719666e+00 -6.827150e+00 -1.234002e+00 5.527619e+00 1.088655e+00 -4.833701e-01 -2.527898e+00 5.008204e+00 -1.264790e+01 -1.095183e+00 7.471409e-01 7.267842e-01 -1.850443e-01 1.156492e+00 9.362037e-02 6.169118e-01 -1.859368e+00 1.011608e+00 -1.317924e-01 -3.896307e-01 6.183396e-01 5.502334e-01 -3.906376e-01 -2.442994e-02 
1.030951e+01 -5.936410e+00 -3.288987e+00 -5.993979e+00 -2.517486e+00 6.477509e+00 1.375559e+00 -8.528521e-01 -2.163971e+00 3.621282e+00 -9.035116e+00 -2.935013e+00 7.241324e-01 6.990458e-01 4.267836e-02 8.150359e-01 1.315507e-01 -6.972626e-01 -1.190578e+00 1.368778e+00 -1.570918e+00 -3.033942e-01 6.024139e-01 -2.516872e-01 -4.662183e-01 -3.905587e-02 
1.239385e+01 -6.888538e+00 -1.940563e+00 -4.737824e+00 -2.236695e+00 2.205111e+00 2.662024e+00 -4.999574e+00 -3.928105e+00 3.022043e+00 -1.082716e+01 -2.333280e+00 7.002870e-01 8.534907e-01 1.658614e+00 8.069648e-01 1.103268e+00 -9.716207e-01 -2.183629e+00 1.020652e+00 -2.756726e+00 -7.278976e-01 -1.401613e-01 3.977881e-02 -2.329242e-01 -5.566686e-02 
1.209948e+01 -5.871681e+00 -3.757617e+00 -4.412435e+00 -4.831038e+00 1.248348e-01 8.633796e+00 -6.016871e+00 -5.238918e+00 6.912178e+00 -1.426226e+01 -2.343016e+00 6.038046e-01 8.166277e-01 2.975983e+00 1.144109e+00 1.641986e+00 -2.432579e-01 -2.505928e+00 3.184003e-01 -2.787909e+00 -8.522129e-01 -5.249561e-01 2.207165e-01 -1.356831e-01 -5.831398e-02 
1.302639e+01 2.155338e+00 5.494733e-01 -2.101582e+00 -4.935330e+00 -2.214189e+00 2.562799e+00 -1.168499e+01 -4.629913e+00 2.661950e+00 -9.835440e+00 -2.555802e+00 5.289705e-01 3.722628e-01 3.565732e+00 1.237142e+00 2.257541e+00 5.955054e-01 -1.422336e+00 -1.014063e+00 -1.630091e+00 -9.310681e-01 -1.992218e+00 1.966467e+00 -5.712465e-01 -5.150246e-02 
1.407638e+01 4.421569e+00 1.186543e+00 8.978269e-01 -2.384458e+00 -3.842480e+00 3.017173e+00 -1.144969e+01 -6.074131e+00 1.176548e+00 -8.427397e+00 -3.502167e+00 5.182208e-01 -7.380371e-02 2.424803e+00 1.364670e+00 2.323592e+00 1.465537e+00 -5.193368e-01 -1.966265e+00 -1.068847e+00 -9.915398e-01 -2.646340e+00 2.143704e+00 -1.324958e-01 -3.630658e-02 
1.326672e+01 5.793499e+00 1.773067e+00 3.894749e+00 -4.824579e-01 -2.922912e+00 4.000216e-01 -1.043362e+01 -8.165838e+00 -4.071233e+00 -3.912256e+00 -4.609937e+00 4.855667e-01 -8.731394e-01 4.093474e-02 7.460085e-01 2.060290e+00 1.439955e+00 -2.031044e-01 -9.415524e-02 7.730044e-01 -8.269445e-01 -3.121834e+00 2.728367e-01 -6.664230e-01 -2.802578e-02 
1.161029e+01 4.433255e+00 2.453933e+00 4.207361e+00 2.702127e-01 -2.117487e+00 -1.161437e-01 -1.198679e+01 -8.428654e+00 -2.952931e+00 -6.505327e+00 -1.978428e+00 4.439736e-01 -1.747607e+00 -4.700412e-01 9.291958e-01 1.319821e+00 1.802324e+00 -5.639385e-01 -9.358692e-01 1.420933e+00 1.282143e-01 -3.390900e+00 -3.908339e-01 -2.146362e+00 -3.638943e-02 
9.893734e+00 2.354168e+00 3.645820e+00 6.545100e+00 9.371126e-01 -4.092207e+00 3.658681e+00 -7.551416e+00 -7.587374e+00 -1.088248e+01 -9.432291e+00 -6.649787e+00 4.259652e-01 -2.366126e+00 -6.136731e-01 1.020287e+00 5.872510e-01 1.676971e+00 -1.405338e+00 5.328497e-01 1.224078e+00 6.720904e-01 -1.707611e+00 -1.341291e+00 -1.689435e+00 -5.997223e-02 
7.024833e+00 3.791028e+00 4.896145e+00 6.171757e+00 5.917379e+00 -6.077525e+00 -3.291503e+00 -5.786127e+00 -5.722292e+00 -1.237233e+01 -7.621548e+00 -1.321405e+01 3.660744e-01 -2.988384e+00 -1.134075e+00 6.067114e-02 2.333953e-01 1.193614e+00 -1.160381e+00 1.005251e+00 1.133400e+00 4.947510e-02 2.059425e-01 5.618371e-01 1.213333e+00 -8.142599e-02 
3.728817e+00 3.046247e+00 5.653398e+00 5.848806e+00 5.078813e+00 -7.969583e+00 4.651950e+00 -7.413561e+00 -6.158568e+00 -7.899590e+00 -1.006060e+01 -7.439300e+00 2.246552e-01 -2.837326e+00 -2.387065e+00 -1.653590e+00 -1.183066e+00 6.012029e-01 -3.714361e-01 1.565707e+00 2.531438e+00 5.239779e-01 2.992270e+00 2.122759e+00 3.263417e+00 -6.662754e-02 
-2.491689e-01 -1.583160e+00 1.753500e+00 5.722485e+00 4.167435e+00 -5.980704e+00 4.413479e+00 -6.388718e+00 -8.895681e+00 -3.414663e+00 -3.381986e+00 4.482992e+00 1.374987e-01 -1.877180e+00 -3.505386e+00 -2.240884e+00 -1.790179e+00 -7.681850e-01 9.361154e-01 1.185528e+00 2.007215e+00 9.832907e-01 3.631738e+00 2.145713e+00 3.295644e+00 -2.074351e-02 
-6.558948e-01 -6.894061e+00 -3.050807e+00 8.544052e-01 4.818099e+00 -5.997798e+00 7.634724e+00 5.407070e+00 -3.380790e+00 -3.999623e-01 -9.382787e-01 8.187752e-01 2.071154e-01 -5.711845e-01 -3.063203e+00 -1.912766e+00 -1.292986e+00 -7.650536e-01 1.993620e+00 -4.369402e-01 8.742549e-01 2.512465e+00 1.982608e+00 1.026395e+00 -3.574000e-01 2.412840e-02 
-1.687136e-01 -8.765749e+00 -1.956172e+00 -2.819369e-01 2.206811e+00 -2.382839e+00 1.144749e+00 -2.160366e+00 -2.194728e+00 2.036550e+00 -1.454146e+00 -8.648692e-01 2.711267e-01 1.388350e-01 -1.510472e+00 -1.401049e+00 -1.719436e-01 -5.463170e-01 6.197139e-01 -6.871335e-02 -1.546391e+00 3.689957e+00 1.689290e+00 1.840015e-01 -1.987614e+00 2.762021e-02 
8.326674e-01 -8.678476e+00 -2.055597e+00 2.386087e+00 2.233856e+00 1.995828e-01 4.101614e+00 -5.156462e+00 3.053278e+00 -7.121580e-01 -5.892545e+00 -6.552370e+00 2.784831e-01 3.136221e-01 3.805084e-01 -5.238107e-01 4.004303e-01 -3.664461e-01 6.878988e-01 -1.874984e-01 -2.986307e+00 2.916357e+00 1.615292e+00 4.193590e-01 1.178349e-01 -7.018602e-03 
-2.992749e-01 -8.243312e+00 -5.749351e+00 4.096926e+00 2.727972e+00 -5.980825e+00 5.836467e+00 -8.838907e+00 6.337070e+00 5.187883e+00 1.515532e-02 -1.769504e+00 2.399158e-01 1.320427e-01 1.060576e+00 -1.183412e+00 7.542852e-02 5.635741e-01 2.218160e-01 5.744595e-01 -9.991280e-01 2.169511e+00 7.487782e-01 1.138053e+00 1.471161e+00 -2.738540e-02 
9.774966e-01 -5.252738e+00 -3.773270e+00 6.671253e-01 2.725288e+00 -7.593117e-01 4.351373e+00 -6.185197e+00 6.935095e+00 6.100831e+00 4.238658e-01 1.860267e+00 1.876278e-01 1.051090e-01 1.433983e+00 -6.464090e-01 -1.089956e+00 -5.597795e-01 8.609243e-02 -2.607378e-01 -6.990147e-02 -1.410468e-01 5.906113e-01 7.409191e-01 1.474645e+00 -3.657875e-02 
4.190855e-01 -5.175739e+00 -7.014396e+00 9.546865e-01 4.778965e+00 -7.943120e-01 3.892167e+00 -6.641639e+00 6.711916e+00 2.373947e+00 1.077912e+00 2.284620e+00 1.796274e-01 5.809667e-01 1.536766e+00 2.911390e-01 -1.301290e+00 -4.845895e-01 1.687806e+00 5.299615e-02 1.684677e-01 -1.874478e+00 -2.104999e+00 -1.161110e+00 2.340391e-01 -2.756600e-02 
9.990320e-01 -3.042349e+00 -4.655119e+00 -1.492571e+00 -1.590538e+00 -1.963212e+00 3.770074e+00 -6.604604e+00 2.160620e+00 3.647867e+00 -2.719328e+00 -1.206208e+00 1.257336e-01 5.465331e-02 8.737977e-01 4.300705e-01 -2.693103e-01 -3.187549e-01 8.559243e-01 -5.079780e-02 4.677622e-01 -2.838606e+00 -2.675141e+00 -2.112495e+00 -6.587826e-01 -2.219389e-02 
2.594791e+00 -1.664674e+00 -3.852731e+00 -1.329675e+00 2.462937e+00 3.060157e+00 6.392097e+00 -7.786865e+00 -6.480823e-01 -4.110631e+00 -4.218797e+00 9.339295e-01 1.330330e-01 -2.786493e-01 8.895119e-01 7.904181e-01 -6.424344e-01 -2.190880e-01 1.048360e+00 -6.629466e-01 4.367061e-01 -2.112765e+00 -2.174852e+00 -1.821272e+00 -1.592716e-01 -2.602950e-02 
1.629105e-01 -2.639282e+00 -3.203750e+00 4.627542e-01 2.289528e+00 1.593076e+00 2.847419e+00 -3.273772e+00 -3.577935e+00 -4.032586e+00 -7.490257e+00 -7.583009e-01 9.995556e-02 -6.960629e-01 6.315383e-01 1.827755e-02 4.037783e-01 1.846841e+00 7.479194e-01 -1.768734e+00 5.852476e-01 -3.168246e-01 -2.496982e-01 2.404103e-01 5.101121e-02 -1.456213e-02 
-5.561004e-01 -9.297137e-01 -3.787990e+00 -3.235148e+00 1.743492e+00 2.669346e+00 1.038762e+00 -6.123524e+00 -9.826312e-01 -4.660087e+00 -5.642986e+00 1.264308e+00 6.236893e-02 -4.925677e-01 1.217570e+00 6.118906e-01 1.314705e+00 1.550875e+00 -1.059256e-01 -1.769771e+00 8.751583e-01 1.910695e+00 1.585696e+00 9.931005e-01 -1.604083e-01 -1.745675e-02 
-9.058371e-01 -2.521372e-01 -4.596102e+00 1.479057e+00 8.003387e+00 1.971791e+00 -2.396928e+00 -4.510036e+00 7.437716e-01 2.674104e+00 -8.051825e-01 -1.116342e+00 8.825493e-02 2.377941e-01 1.739697e+00 1.057581e+00 2.190322e+00 2.976099e+00 5.943926e-01 1.385712e-01 8.983864e-01 2.494749e+00 6.756930e-01 1.461332e+00 2.886477e-01 -1.117033e-02 
6.663260e-01 3.229601e+00 -9.710217e-02 4.735701e+00 7.360382e+00 2.341172e+00 1.654139e-01 -2.792942e+00 6.744541e+00 4.645061e-01 -2.595831e+00 3.109086e-01 5.159956e-02 5.652503e-01 2.068413e+00 1.253891e+00 2.330190e+00 2.240142e+00 2.093957e-01 8.251498e-01 1.093605e+00 1.549304e+00 -2.362441e-01 9.473498e-01 -5.605663e-01 -6.746429e-03 
7.406678e-01 3.979548e+00 2.387104e-01 7.428942e+00 1.436158e+01 4.729126e+00 3.976948e+00 -4.471316e-01 5.032222e+00 -3.216417e+00 -1.707175e+00 1.161637e+00 4.948860e-02 5.229442e-01 1.991895e+00 1.246984e+00 1.096314e+00 7.983966e-01 -3.967609e-01 8.797703e-01 1.512446e+00 1.377497e+00 -4.114712e-01 6.390511e-01 4.630500e-01 -1.053618e-02 
1.446898e+00 7.296512e+00 6.405640e-02 5.440861e+00 9.765110e+00 2.337657e+00 1.977573e+00 -2.686952e+00 4.619665e+00 -2.896047e+00 -4.552402e-01 -2.677513e+00 4.801995e-02 3.858912e-01 1.665363e+00 1.355317e+00 5.490469e-01 5.505274e-01 -1.303898e+00 -8.512639e-01 8.218939e-01 7.329901e-02 1.015687e+00 1.396202e+00 3.223853e-01 9.783507e-05 
1.318598e+00 7.673881e+00 1.558241e+00 6.608048e+00 1.079301e+01 -1.025629e-02 1.095844e+00 2.999197e+00 8.693695e+00 2.297024e+00 1.319777e+00 2.693119e+00 3.736383e-02 2.398229e-01 1.628236e+00 2.706173e+00 5.593452e-01 -7.352940e-01 -1.685252e+00 -2.062626e+00 4.624367e-01 3.288306e-01 2.393050e+00 1.763803e+00 2.576015e-01 1.718003e-03 
2.306817e+00 9.709250e+00 6.019717e+00 7.891382e+00 1.189730e+01 -1.808628e+00 -2.650353e+00 -4.066367e-01 5.280300e+00 2.786219e+00 2.871703e+00 1.157094e+00 5.815113e-02 2.552166e-02 1.347998e+00 2.530609e+00 6.163199e-01 3.991160e-01 -1.596974e-01 -1.242477e-01 8.116488e-02 -7.286388e-01 7.824453e-01 4.685064e-01 3.939074e-01 1.875162e-05 
1.509823e+00 1.091436e+01 1.079174e+01 9.000407e+00 9.619009e+00 -1.623992e+00 -4.022218e+00 7.248940e-01 6.346058e+00 5.907700e+00 5.448371e+00 5.323410e-01 5.301303e-02 1.292677e-02 1.201831e+00 1.759219e+00 2.433023e-01 2.000147e-01 3.401952e-01 1.551381e+00 -6.341885e-01 -1.317873e+00 7.821450e-02 4.078511e-01 -1.488872e-01 1.873654e-03 
1.478894e+00 1.241626e+01 8.100351e+00 7.326282e+00 1.234769e+01 2.346038e+00 3.915365e+00 -1.143976e+00 2.150290e+00 -7.891583e-01 -1.770048e-01 3.724132e-01 4.028910e-02 -3.467411e-01 6.804165e-01 5.693797e-01 -3.942029e-01 -1.506239e+00 -5.020705e-01 7.475514e-01 -9.912933e-01 -8.257532e-01 -8.075487e-01 -6.474344e-01 3.504637e-01 -9.523898e-03 
1.797193e+00 1.232953e+01 9.314019e+00 8.107111e+00 1.156789e+01 -3.866136e-01 5.569888e+00 1.969235e-01 3.669336e+00 4.475785e+00 4.883387e+00 2.341024e+00 5.566311e-02 -3.726826e-01 7.520620e-01 2.345171e-02 -1.447153e+00 -2.650416e+00 -1.399102e+00 6.962629e-01 1.901035e-01 -3.762936e-01 -1.832763e+00 -4.736319e-01 2.854290e-01 -1.407547e-02 
4.294267e-01 1.240375e+01 9.605478e+00 6.367016e+00 3.391671e+00 -4.937670e+00 -3.708649e+00 -5.099117e+00 2.489895e+00 -5.355675e-01 -8.297729e-02 2.005071e+00 9.206593e-03 -4.241551e-01 6.880723e-01 4.954595e-01 -1.602684e+00 -3.372845e+00 -1.923841e+00 -3.587307e-01 1.304998e+00 4.914446e-01 -1.304621e+00 4.570216e-01 3.436210e-02 -1.417105e-02 
1.711435e-01 1.468093e+01 1.015644e+01 2.244277e+00 8.449367e-01 -4.977648e+00 3.271104e+00 3.652982e+00 4.294787e+00 -3.382913e+00 3.033198e+00 1.143157e+00 -1.823068e-03 -3.510382e-01 6.979968e-01 2.235802e-01 -1.584841e+00 -2.399263e+00 -9.222047e-01 2.382185e-01 1.566422e+00 3.055794e-01 -1.856474e+00 -5.842030e-02 -3.257648e-01 -1.260020e-02 
