-5.465168e+00 1.375920e+00 -5.301537e+00 -3.250437e+00 5.930371e-01 -1.150668e+00 1.529402e+00 -3.225061e+00 -1.543775e-01 4.208377e+00 5.673250e+00 3.751817e+00 -1.512927e-01 2.126925e-01 -2.456403e-03 -4.547068e-01 -4.877369e-01 7.546868e-02 -2.671788e-02 -6.918935e-01 -8.115608e-01 3.572030e-02 -6.046048e-01 -1.840013e+00 -1.035568e+00 0.000000e+00 
-4.500250e+00 1.347358e+00 -6.189541e+00 -6.132344e+00 5.472012e-01 -2.729511e-01 1.510193e-01 -3.925385e-01 1.294734e+00 4.903007e+00 1.724838e+00 9.777948e-01 -1.512927e-01 3.610237e-01 1.321146e-01 -6.376688e-01 -7.913201e-01 4.413629e-02 -1.508033e+00 -1.326273e+00 -2.282190e-02 5.800306e-01 -1.134832e-01 -2.135247e+00 -1.022316e+00 0.000000e+00 
-4.884165e+00 1.377920e+00 -7.131068e+00 -4.248168e+00 9.932985e-01 -1.723116e+00 -1.240875e+00 -8.699127e+00 -7.003319e-01 8.380375e-01 -1.552608e+00 -3.900963e-02 -1.512927e-01 1.506215e-01 1.203259e-01 -1.008910e-01 -7.790047e-03 -5.133849e-01 -2.248105e+00 -8.764048e-01 5.576046e-01 1.385272e-01 6.887009e-01 -6.211165e-01 -3.216451e-01 0.000000e+00 
-3.950551e+00 2.035494e+00 -7.575115e+00 -6.708172e+00 6.135879e-01 -8.404611e+00 -3.716826e+00 -6.021381e-01 3.018752e+00 5.326130e+00 -1.390059e+00 5.356495e-01 -1.512927e-01 -1.897331e-01 -4.943693e-02 6.156429e-01 4.959210e-01 3.214220e-01 -2.524532e-01 6.863167e-01 1.397468e-01 -4.209554e-01 -3.765302e-01 8.560308e-01 8.426207e-01 0.000000e+00 
-4.986910e+00 1.633482e+00 -5.113205e+00 -3.001473e+00 -2.007081e+00 -8.325364e+00 -9.186993e-01 -3.322386e-01 -3.237503e-01 7.440320e+00 4.125115e+00 2.364664e+00 -1.512927e-01 3.211013e-01 4.956974e-01 8.565486e-01 7.113769e-02 1.687979e-01 1.072226e-01 5.868067e-01 7.332045e-01 -1.992725e-01 -7.778103e-01 9.031762e-01 2.190625e+00 0.000000e+00 
-5.397543e+00 9.723918e-01 -4.120258e+00 -4.276086e+00 3.654501e+00 1.765906e+00 3.421515e+00 -3.877249e+00 -9.983335e-01 -2.807850e-01 3.166130e+00 3.989061e+00 -1.512927e-01 5.933729e-01 6.144972e-01 6.248766e-01 2.395990e-01 6.915297e-01 9.844992e-01 5.133797e-01 -8.106800e-01 -5.934346e-01 -2.788140e+00 5.316406e-01 1.884440e+00 0.000000e+00 
-2.555162e+00 4.387958e+00 -4.575754e+00 -5.108521e+00 3.168311e-01 -6.272263e+00 -1.876012e+00 -3.395549e+00 3.118486e-01 -2.475563e-01 6.851783e-01 9.187408e+00 -1.512927e-01 8.077030e-01 7.128315e-01 1.022723e-01 -2.519982e-01 5.507395e-01 1.743193e-01 -5.824924e-01 -7.373420e-01 -3.744134e-01 -2.514362e+00 -4.812952e-01 -7.410502e-02 0.000000e+00 
-2.199560e+00 3.730742e+00 -4.719457e+00 -4.456653e+00 2.909280e+00 -4.508665e+00 -6.712713e-01 -3.123883e+00 -2.662201e-01 -4.770631e+00 2.988113e+00 6.546476e+00 -1.512927e-01 2.331247e-01 1.823456e-01 -4.190206e-01 1.938295e-01 3.832639e-01 -1.289729e-01 6.641657e-01 9.854970e-01 8.333324e-01 9.986063e-01 1.433962e-01 -1.522951e+00 0.000000e+00 
-2.547386e+00 3.818464e+00 -4.302244e+00 -4.171181e+00 1.119227e+00 -4.316482e+00 -1.784768e+00 -4.395632e+00 -2.561874e+00 -2.886566e+00 1.807648e+00 7.154318e-01 -1.512927e-01 -5.734714e-01 -5.678267e-01 2.756408e-01 5.098445e-01 5.505627e-01 1.365952e+00 1.308076e+00 7.830227e-01 8.388983e-01 2.229057e+00 2.482311e-01 -1.419949e+00 0.000000e+00 
-4.235807e+00 2.168866e+00 -6.352117e+00 -3.775609e+00 5.169623e+00 1.431516e-01 6.696722e+00 1.550277e+00 4.605189e+00 6.031752e+00 3.321876e+00 6.102952e-01 -1.512927e-01 -5.876896e-01 9.254201e-02 7.910252e-01 3.169205e-01 6.829114e-02 -1.426628e-01 1.223506e-01 -1.195938e-01 5.852815e-01 2.105707e+00 -8.337216e-01 3.967013e-02 0.000000e+00 
-4.404396e+00 2.329762e+00 -2.381220e+00 -2.899821e+00 1.939474e+00 -1.768411e+00 9.803710e-01 -1.817515e+00 2.070635e+00 5.496540e+00 1.759452e+00 5.055753e+00 -1.512927e-01 -4.998245e-01 3.786709e-01 9.030008e-01 7.466448e-01 1.332207e+00 6.676696e-01 -6.212546e-01 -4.555803e-01 9.117308e-02 4.145451e-02 -1.239772e+00 4.963148e-01 0.000000e+00 
-4.209503e+00 4.937803e+00 -1.724843e+00 -3.507730e+00 2.840613e+00 -6.496015e+00 -1.442088e+00 -5.010910e+00 3.439326e-01 1.566352e+00 -1.156397e+00 4.574667e+00 -1.512927e-01 -1.864818e-01 5.049155e-01 8.384641e-01 8.993918e-01 7.461107e-01 3.595436e-02 -1.500936e+00 -7.381598e-01 -5.278416e-02 -8.750418e-01 -5.558476e-01 5.259951e-01 0.000000e+00 
-5.059661e+00 4.327350e+00 -2.100876e+00 -5.718966e-01 8.944769e+00 2.341449e+00 -8.216362e-01 -3.392939e+00 2.461982e-02 -4.465941e-01 -2.152074e+00 1.214820e+00 -1.512927e-01 1.297117e-01 3.023970e-01 -5.351178e-02 9.701970e-01 1.105506e+00 7.695457e-01 -6.142611e-02 2.386316e-01 1.580310e+00 2.955692e-01 6.920077e-01 -7.047882e-02 0.000000e+00 
-4.840584e+00 3.694650e+00 -2.299968e+00 -4.426122e-01 5.397529e+00 -1.732007e+00 9.304667e-02 -1.352809e+00 5.364276e+00 4.628109e+00 2.498401e+00 5.160738e+00 -1.512927e-01 1.364752e-01 -2.130566e-01 -7.748429e-02 9.510187e-01 2.827525e-02 7.299846e-01 -9.351692e-02 7.396604e-01 1.099661e+00 2.147472e-01 2.312759e+00 -2.170746e-02 0.000000e+00 
-3.440297e+00 4.463324e+00 -2.361217e+00 4.186051e-01 6.188545e+00 -3.026867e-01 -9.432697e-02 -2.453407e+00 7.462013e+00 5.443507e+00 3.392091e+00 4.410323e+00 -1.512927e-01 1.781708e-01 -2.190388e-01 3.704169e-02 1.186449e-01 -1.661002e+00 -1.555637e+00 -5.575180e-01 -1.541715e-01 3.482556e-01 7.468390e-01 1.934627e+00 3.924803e-01 0.000000e+00 
-4.336809e+00 3.804533e+00 -1.982094e+00 7.521122e-01 4.360101e+00 -1.524024e+00 -2.273327e+00 -1.782374e+00 2.123542e+00 -3.049622e-01 7.635316e+00 2.868378e+00 -1.512927e-01 2.474835e-01 -1.806979e-01 -4.662624e-01 -5.272578e-01 -1.202417e+00 -7.024137e-01 2.341237e-02 3.724820e-01 -1.032209e+00 -1.405502e-01 7.574576e-01 -1.284561e-01 0.000000e+00 
-4.420694e+00 3.177214e+00 -2.074604e+00 -5.760341e-01 1.158475e+00 -5.540727e+00 -2.426039e+00 -3.949015e+00 3.386265e+00 5.754137e+00 4.952603e+00 4.323401e+00 -1.512927e-01 9.325495e-02 -4.854836e-01 -5.403270e-01 -8.174837e-01 -1.756795e+00 -1.911100e+00 -8.142144e-01 6.685708e-02 -4.747749e-01 -7.366306e-01 -1.923744e-01 1.511763e-01 0.000000e+00 
-3.112967e+00 3.434215e+00 -4.774586e+00 -2.581582e+00 1.900478e+00 -2.625055e+00 1.375965e+00 1.257404e+00 2.241106e+00 3.770044e+00 5.505433e+00 4.561918e+00 -1.512927e-01 9.932136e-03 -5.082241e-01 -2.580416e-01 -3.227126e-01 9.895220e-02 -6.194848e-01 -7.080668e-01 2.962794e-01 1.149445e-01 8.942948e-02 -6.061361e-01 -1.530459e-01 0.000000e+00 
-3.585943e+00 2.221065e+00 -3.666606e+00 -2.001967e+00 -1.365617e+00 -9.307670e+00 -5.990045e+00 -3.639011e+00 5.029357e+00 -2.771486e-01 3.495161e+00 4.319435e+00 -1.512927e-01 1.099752e+00 -1.134585e+00 3.550476e-01 -1.805287e-01 2.783999e+00 -5.251144e-01 -6.862915e-01 7.610980e-01 1.428411e-01 -7.346432e-01 -1.451991e+00 -8.383139e-01 2.539806e-02 
-4.704524e+00 1.741488e+00 -2.476302e+00 -1.484845e-01 6.116908e+00 -2.737977e+00 -4.031659e+00 -4.559788e-01 1.876719e+00 3.157828e+00 5.333356e+00 2.105132e+00 -1.512927e-01 1.822771e+00 -1.514999e+00 1.537834e+00 -1.937596e-01 4.442987e+00 -1.419087e+00 -6.908889e-01 4.442557e-01 5.389919e-01 3.286158e-01 -2.098012e+00 -3.137289e-01 6.471130e-02 
1.873846e+00 -1.649346e+00 -1.448509e+00 -2.695226e+00 1.297025e+01 -8.109838e+00 -3.153685e+00 7.131668e-01 4.282664e+00 2.387029e+00 -2.221315e+00 1.360225e+00 -2.430236e-02 1.139845e+00 3.820607e-01 1.192854e+00 1.609050e-01 2.424530e+00 5.299886e-01 4.219651e-01 -2.411421e-01 -2.279998e-01 8.378431e-01 -1.431146e+00 2.227611e-01 2.600613e-02 
3.270993e+00 -2.205573e+00 1.805536e+00 -3.203750e+00 1.694748e+01 -1.031940e+01 -3.496660e+00 1.302594e+00 5.309412e+00 4.081034e+00 -2.126390e+00 4.472878e+00 1.087686e-01 -3.855233e-01 1.312165e+00 -8.013873e-02 -1.178139e-01 -8.302222e-01 1.446513e+00 1.634890e+00 -4.468074e-01 -1.416552e-01 -3.799416e-01 -8.561425e-02 8.498081e-01 -1.269903e-02 
-1.874476e+00 6.104898e+00 1.567471e-01 3.301911e-01 5.341749e+00 -2.867013e+00 -4.147719e+00 -5.724008e+00 2.173011e+00 3.450464e+00 6.930399e-02 4.249367e+00 -1.512927e-01 -1.837355e+00 2.181338e+00 -1.059108e+00 7.173852e-01 -3.528880e+00 2.719348e+00 1.883701e+00 1.611598e-01 -1.420847e+00 -1.884237e-01 1.608699e+00 6.937470e-01 -4.422265e-02 
-4.757979e+00 4.425191e+00 -3.679623e+00 -2.250263e+00 5.780049e+00 1.873175e+00 4.639806e+00 5.285713e-01 2.223269e+00 7.264024e-01 3.759975e+00 4.909601e+00 -1.512927e-01 -1.487698e+00 1.210006e+00 -1.210742e+00 7.110947e-01 -2.529481e+00 2.202300e+00 1.038485e+00 -2.475755e-01 -1.341784e+00 -9.795071e-01 1.310351e+00 -4.417016e-01 -4.842149e-02 
-3.298445e+00 5.941962e+00 -4.001469e+00 4.149559e-01 9.095669e-01 -6.093845e-01 2.196588e+00 1.905977e+00 -1.278497e+00 3.122227e+00 2.878995e+00 4.610599e+00 -1.153849e-01 -6.160081e-01 -9.579986e-01 -9.368148e-01 -4.189936e-01 -3.737745e-01 -2.651688e-01 1.587363e-01 5.234184e-02 -1.131590e+00 -5.592588e-01 2.828063e-01 -5.036449e-01 0.000000e+00 
-3.455511e+00 3.925924e+00 -2.169064e+00 3.093410e-01 6.516162e+00 -4.367166e-01 -1.476388e+00 -3.750276e+00 3.262460e-01 -6.523826e-01 3.020518e+00 2.083755e+00 -1.512927e-01 -2.612631e-01 -8.037807e-01 -2.943257e-01 -4.990856e-01 3.227357e-01 -4.400249e-01 -5.322483e-01 -4.416779e-01 2.019984e-02 7.823020e-01 1.355907e-01 9.829976e-02 -3.590774e-03 
-5.605751e+00 1.564539e+00 -5.282606e+00 -3.044579e+00 3.104820e+00 -3.037911e+00 -2.959409e-01 -3.322875e+00 -2.536429e+00 1.343562e+00 1.853064e+00 3.144066e+00 -1.512927e-01 -3.767100e-01 -5.808004e-01 4.723620e-02 -1.138895e+00 4.903935e-01 1.078041e-01 -1.877547e-01 -6.761279e-02 1.130424e+00 5.075518e-01 8.328013e-02 2.837405e-01 -7.181549e-03 
-4.910642e+00 2.594999e+00 -4.510683e+00 -3.015924e+00 6.296101e+00 8.873138e-01 3.224829e+00 9.346077e-01 2.953234e+00 5.527244e+00 4.950894e+00 6.134367e+00 -1.512927e-01 -3.924603e-01 -2.580789e-01 7.858217e-02 -4.833048e-01 -4.989893e-01 2.349598e-01 2.801944e-01 1.025082e+00 1.194813e+00 9.038802e-02 6.238946e-01 1.319038e+00 0.000000e+00 
-4.454430e+00 3.703423e+00 -2.594479e+00 -3.616889e+00 3.471565e+00 -7.323794e-01 -1.092793e+00 -7.745287e-01 3.060126e+00 2.570172e+00 2.330208e+00 4.003995e+00 -1.512927e-01 -6.666708e-02 5.057306e-02 -2.192422e-02 1.696290e-01 5.374084e-02 9.274904e-01 5.417010e-01 1.087414e+00 8.693673e-01 1.673873e-01 1.361670e+00 -5.577319e-02 0.000000e+00 
-5.993473e+00 1.566087e+00 -3.120217e+00 -1.821028e+00 3.837844e+00 -4.146836e-01 3.230107e-01 1.009629e-01 3.502035e+00 -8.137474e-01 5.901420e+00 8.248978e+00 -1.512927e-01 -1.331737e-01 -1.353642e-01 -3.711250e-01 3.437602e-01 -3.962779e-01 -2.299778e-01 4.687168e-01 3.049145e-01 -9.524649e-01 5.170128e-02 3.513010e-01 -8.526262e-01 0.000000e+00 
-5.397671e+00 2.331860e+00 -6.087461e+00 -2.793882e+00 4.602654e+00 2.250539e+00 3.863473e+00 2.531020e+00 1.536007e+00 5.350995e+00 8.186152e+00 1.807894e+00 -1.512927e-01 -1.425004e-01 -2.039603e-01 -8.530357e-01 5.877556e-02 6.049085e-01 -4.152892e-01 8.031894e-01 2.344376e-01 3.179849e-01 1.295912e+00 8.572995e-01 3.010296e-01 0.000000e+00 
-5.104890e+00 2.603959e+00 -4.619817e+00 -1.708626e+00 3.749167e+00 -1.754035e+00 3.090279e+00 8.064062e-01 -1.047030e+00 4.395339e+00 3.779427e+00 2.969286e+00 -1.512927e-01 3.015822e-01 -1.200785e-01 -5.333156e-01 -3.709742e-01 4.371793e-01 -8.630597e-01 -1.496342e-01 -9.186755e-02 9.890051e-02 5.883919e-01 -1.221155e+00 -3.989152e-01 0.000000e+00 
-5.611223e+00 2.164685e+00 -6.109858e+00 -3.379212e+00 6.540445e+00 -2.139150e+00 1.539519e+00 4.493761e-02 6.924583e+00 6.445187e+00 7.677702e+00 8.148989e+00 -1.512927e-01 6.086036e-01 2.006365e-01 5.938627e-01 1.234620e+00 1.487888e+00 5.440095e-01 -2.800328e-01 9.429822e-02 1.404055e+00 -8.895136e-01 -1.911848e+00 -5.566216e-01 1.599550e-04 
-4.378786e+00 1.049282e+00 -5.775597e+00 -3.383234e+00 5.054844e+00 -2.535137e+00 7.368166e-01 8.846661e-01 1.302250e+00 1.581116e+00 4.986918e-02 3.083854e+00 -1.512927e-01 1.069685e+00 -5.685109e-01 8.923582e-01 2.438515e+00 1.814098e+00 1.005337e+00 9.646980e-01 1.520049e+00 1.085221e+00 -1.327126e+00 -2.541963e+00 -2.248682e+00 5.010831e-03 
-2.717705e+00 4.112381e+00 -2.540257e+00 4.216520e+00 1.138926e+01 5.361138e+00 3.640041e+00 2.963381e+00 7.381641e+00 2.310539e+00 4.916900e-01 -1.032498e+00 -1.504929e-01 8.038204e-01 -7.270584e-01 8.929216e-01 2.081725e+00 -3.442001e-02 7.743659e-02 9.514238e-01 8.161894e-01 -5.654104e-01 -1.521092e+00 -3.150658e+00 -2.528770e+00 2.465427e-03 
-1.203226e+00 -1.212443e+00 -1.942826e+00 6.686084e+00 1.039525e+01 -4.774930e-01 6.863509e+00 6.947431e+00 4.150545e+00 -1.729661e-01 -5.337382e+00 -3.683381e+00 -1.266384e-01 -1.627096e-01 -2.425247e-01 5.524698e-01 2.930304e-01 -1.128128e+00 -6.351444e-01 -7.259040e-01 -2.038076e-01 -1.090282e-01 2.539132e-01 2.251487e-01 -6.316845e-01 -7.997752e-05 
-3.179901e+00 -3.397442e-01 -3.561635e+00 1.994755e+00 3.698140e+00 -2.780789e+00 3.233292e+00 1.094502e+00 2.673384e+00 -2.832341e-01 -5.381962e+00 -1.111246e+00 -1.512927e-01 -8.529738e-01 -4.005963e-01 -8.426394e-02 -1.740326e+00 -3.145351e+00 -1.478074e+00 -1.987643e+00 -1.400055e+00 -6.457327e-01 1.167938e+00 1.507886e+00 8.345801e-01 -2.625382e-03 
-4.961236e+00 2.062721e+00 -2.502559e+00 -8.071990e-01 3.259761e+00 -1.639895e+00 -2.689329e+00 8.000674e-01 3.111238e+00 4.147568e+00 4.112439e+00 -3.519437e-02 -1.512927e-01 -9.462452e-01 8.195127e-01 7.797667e-02 -1.554925e+00 -1.542581e+00 5.865520e-01 -1.963708e+00 -1.999259e+00 -3.923318e-01 1.451784e+00 2.634401e+00 1.337478e+00 -4.930854e-03 
-5.103569e+00 4.718167e-01 -2.681711e+00 -7.384678e-01 -7.697506e-01 -1.448031e+00 -1.521758e+00 -9.632117e-01 4.672632e+00 5.989960e+00 3.306207e+00 1.316309e+00 -1.512927e-01 -5.428661e-01 5.219507e-01 4.811299e-01 -6.091602e-01 2.113464e-01 4.973608e-01 -7.068785e-01 -3.127532e-01 6.417018e-01 1.324483e+00 2.141980e+00 -1.653871e-01 0.000000e+00 
-4.972618e+00 2.479339e+00 -1.992905e+00 2.780678e-01 4.916293e+00 1.788888e+00 -5.775056e-01 -2.020005e+00 1.189262e+00 3.949356e+00 3.490540e+00 1.790231e+00 -1.512927e-01 1.460243e+00 -3.091480e+00 6.349019e-01 1.179714e+00 -9.320967e-01 -1.384093e-01 1.256313e+00 3.966105e-01 8.142446e-01 -5.798070e-01 -7.885473e-01 -1.136241e+00 6.260918e-02 
-5.888540e+00 2.061700e+00 -1.410812e+00 -1.593680e+00 3.926607e+00 -2.008377e+00 -1.357012e+00 9.407721e-01 6.842881e+00 6.438288e+00 5.638889e+00 -2.850894e+00 -1.512927e-01 2.313873e+00 -7.378312e+00 -2.177754e-01 6.609299e-01 -3.280825e+00 1.650507e+00 1.234353e+00 3.424131e+00 2.035284e-02 -2.291170e+00 -1.743609e+00 -1.571596e+00 1.946504e-01 
2.732464e+00 -1.418962e+01 3.650093e-02 5.518980e+00 -3.748901e+00 -2.051769e+00 3.509862e+00 1.831128e+00 6.097336e+00 1.024369e+00 -9.966389e-01 -3.632800e+00 1.617532e-01 3.400045e+00 -6.711664e+00 -9.330877e-01 -7.441221e-01 -7.547845e+00 5.178942e-01 -1.252548e+00 2.446422e+00 -1.654021e+00 -4.856869e+00 -3.254705e+00 -1.948100e+00 2.230385e-01 
2.613256e+00 -2.808527e+01 -4.785291e+00 -5.427432e-02 -1.284128e+01 8.724833e+00 2.606323e+00 1.423188e+01 2.320359e+00 -4.003398e+00 -3.168250e+00 -3.830158e+00 6.654364e-01 4.010992e+00 -3.706263e+00 -1.231879e+00 -1.009375e+00 -7.525816e+00 1.071056e+00 -2.191191e+00 1.072285e+00 -3.265751e+00 -5.406151e+00 -3.644287e+00 -1.643161e+00 2.013810e-01 
7.776708e+00 -1.600550e+01 -4.971104e+00 -4.212245e+00 -2.443899e+01 -9.882452e-01 -8.821911e+00 3.566555e+00 -4.819579e+00 -1.511415e+01 -8.379415e+00 -7.460637e+00 5.555350e-01 2.300241e+00 8.897123e-01 -1.077406e+00 -1.258130e+00 -4.434960e+00 6.473708e-01 -2.302209e+00 6.037903e-01 -2.783627e+00 -3.668442e+00 -1.803757e+00 -2.600850e+00 1.165049e-01 
1.164430e+01 -1.556167e+01 -5.066405e+00 -1.774941e+00 -2.335743e+01 2.815140e+00 -6.147083e+00 5.434484e+00 -4.027415e+00 -1.252321e+01 -8.891159e+00 -9.152781e+00 6.587216e-01 1.592052e+00 1.357959e+00 1.502725e-01 -3.914290e-02 -1.727388e+00 -5.897104e-01 -1.796981e+00 -3.828046e-01 -2.444323e+00 -1.225024e+00 -9.445630e-01 -2.370947e+00 6.861978e-02 
9.718150e+00 -1.600285e+01 -5.209974e+00 8.866429e-02 -2.066563e+01 4.139931e+00 -3.624479e+00 9.248775e+00 -4.646912e+00 -1.305794e+01 -7.153972e+00 -1.397574e+01 7.476351e-01 2.449751e-03 -1.684514e+00 1.101864e+00 5.038077e-01 3.115143e-01 1.053653e+00 2.700901e-01 2.094411e+00 -1.429615e+00 1.316463e+00 2.649288e-02 -6.820922e-01 1.142694e-01 
9.602797e+00 -2.129679e+01 -3.914493e+00 -2.400444e+00 -2.336490e+01 3.212192e+00 -8.977297e+00 9.476744e+00 -9.987590e+00 -1.115662e+01 -8.503786e+00 -1.242734e+01 9.124853e-01 -9.684677e-01 -1.355063e+00 1.653069e+00 -1.752528e-01 5.567934e-01 8.676866e-02 -1.150448e-01 1.777779e+00 -6.310410e-01 1.152712e+00 6.176602e-01 4.534394e-01 9.075513e-02 
8.809708e+00 -2.156051e+01 -3.773785e-02 -1.380455e+00 -2.287768e+01 4.081496e+00 -6.056354e+00 1.201748e+01 -8.987570e+00 -9.215126e+00 -8.440637e+00 -9.233818e+00 1.000000e+00 -9.932357e-01 -1.702328e-01 1.743861e+00 -4.799015e-01 3.556767e-01 -4.389499e-01 -1.493083e-01 6.851622e-01 -2.851397e-01 1.523189e+00 5.148762e-01 1.097520e+00 5.117986e-02 
7.256182e+00 -1.955816e+01 6.128216e-01 -1.916645e+00 -1.946744e+01 3.278201e+00 -5.506369e+00 1.293902e+01 -5.012291e+00 -8.681055e+00 -5.159526e+00 -9.256544e+00 9.863148e-01 -1.006357e+00 1.253454e+00 1.349963e+00 6.372104e-02 5.092783e-01 -4.160061e-01 6.699876e-01 4.350701e-01 6.809041e-01 1.147765e+00 1.256957e+00 6.299138e-01 4.780823e-03 
5.925279e+00 -1.772334e+01 1.245674e+00 -2.552742e+00 -2.083598e+01 1.912177e+00 -6.106484e+00 1.094345e+01 -8.560260e+00 -6.679772e+00 -6.251720e+00 -1.007353e+01 9.666197e-01 -7.000641e-01 1.197165e+00 7.931034e-01 -2.110811e-01 -2.350573e-01 -8.412896e-01 -1.900175e-01 -2.076731e-01 4.277711e-02 1.090273e+00 1.556138e+00 2.419208e-01 -1.612786e-02 
6.013224e+00 -1.694811e+01 2.193616e+00 -1.495695e+00 -2.183936e+01 2.216820e+00 -5.602293e+00 1.218911e+01 -6.796724e+00 -6.685474e+00 -3.313457e+00 -8.857913e+00 9.530796e-01 -2.305342e-01 1.000865e+00 1.282299e+00 -2.186493e-01 -1.114729e+00 -5.802683e-01 -4.719639e-01 -3.427233e-01 -5.813313e-01 1.093578e+00 1.686144e+00 5.631956e-01 -1.912093e-02 
5.930866e+00 -1.687971e+01 3.137382e+00 -2.646336e+00 -2.286700e+01 4.057381e-01 -6.958479e+00 1.135407e+01 -7.881468e+00 -4.761551e+00 -1.582981e+00 -8.223530e+00 9.359783e-01 -1.987970e-01 1.158793e+00 1.786140e+00 1.603866e-03 -1.283800e+00 -5.485517e-01 -2.512429e-01 -8.491006e-01 4.501977e-01 7.737604e-01 2.747741e+00 6.095318e-01 -2.158979e-02 
6.100717e+00 -1.497565e+01 6.078462e+00 -2.963095e+00 -2.402557e+01 1.130079e+00 -7.440191e+00 1.102009e+01 -8.258344e+00 -4.172278e+00 9.368230e-01 -7.365569e+00 9.060308e-01 -3.759232e-01 1.994356e+00 2.324377e+00 1.339333e-01 -1.487340e+00 -1.764482e-01 -4.480680e-01 -1.763052e+00 7.037687e-01 6.075732e-01 3.091338e+00 2.077832e-01 -3.786791e-02 
4.887547e+00 -1.291560e+01 8.233952e+00 -1.811023e+00 -2.616187e+01 -2.872107e-01 -6.443750e+00 7.282452e+00 -5.578462e+00 -4.067568e+00 5.361845e+00 -7.772048e+00 8.821951e-01 -2.359546e-01 2.622727e+00 2.663000e+00 4.608342e-01 -1.227362e+00 5.583794e-01 -6.985188e-02 -2.548010e+00 -3.865235e-01 2.321074e-01 1.937223e+00 -4.109812e-03 -4.633967e-02 
4.655267e+00 -8.958385e+00 1.126722e+01 -1.243685e+00 -2.762863e+01 1.681054e+00 -8.099998e+00 5.409660e+00 -4.429383e+00 -3.994600e+00 8.670822e+00 -8.044738e+00 7.906316e-01 3.576614e-01 2.979533e+00 2.163630e+00 5.682738e-01 -6.689522e-01 4.255870e-01 -7.768000e-01 -3.899132e+00 -1.801032e+00 2.004124e-01 3.377866e-01 -3.965187e-03 -5.605800e-02 
5.473818e+00 -6.774706e+00 1.385800e+01 -1.201870e+00 -2.720229e+01 2.922148e+00 -6.977835e+00 1.419238e+00 -1.172857e+01 -3.689853e+00 4.236133e+00 -7.904494e+00 7.619796e-01 4.986880e-01 2.033066e+00 2.463912e+00 7.164212e-01 1.102489e-01 1.020167e+00 -6.400164e-01 -3.036195e+00 -2.295573e+00 1.204313e+00 -6.815321e-01 7.723191e-01 -4.051010e-02 
7.595889e+00 -3.148431e+00 1.408459e+01 -4.263029e-01 -2.685012e+01 1.653335e+00 -1.105715e+01 -5.543958e+00 -1.418845e+01 -3.359073e+00 3.188612e+00 -7.319171e+00 6.858486e-01 4.952408e-01 2.190264e+00 1.568693e+00 2.246733e-01 9.665791e-01 -8.878889e-02 -3.464001e-01 -2.162914e+00 -2.463721e+00 1.135199e+00 -1.232879e+00 5.286018e-01 -4.124361e-02 
5.910677e+00 -5.655245e+00 1.914483e+01 1.362392e+00 -2.599988e+01 4.827483e+00 -8.165257e+00 -2.421714e+00 -1.217679e+01 1.636234e+00 4.695290e+00 -4.273236e+00 7.320361e-01 -2.979862e-01 1.638890e+00 1.476352e+00 -2.312347e-01 1.090147e+00 4.317274e-01 -2.870537e-01 3.890622e-01 -1.153042e+00 1.645778e+00 -3.966226e-01 1.230773e+00 -4.244334e-02 
6.913042e+00 1.433203e+00 1.646727e+01 -1.402450e+00 -2.339693e+01 2.844419e-01 -9.238287e+00 -3.484434e+00 -1.652387e+01 -9.816473e-01 2.276849e+00 -7.217358e+00 5.993853e-01 -5.386153e-01 1.237566e+00 1.434821e+00 4.790182e-02 6.499695e-01 9.444782e-01 -3.207158e-01 1.067214e+00 -6.530701e-01 1.347716e+00 -6.954893e-01 1.392814e+00 -4.509731e-02 
4.325311e+00 -8.710724e-01 2.004842e+01 -1.869970e+00 -2.347815e+01 5.765231e+00 -9.322535e+00 2.334787e+00 -1.632606e+01 3.350326e+00 2.708901e+00 -1.801536e+00 5.929946e-01 -6.399009e-01 1.377130e+00 1.146491e+00 3.573110e-01 -6.914913e-01 8.860842e-01 -4.642227e-01 2.030297e-01 -9.297405e-01 3.597093e-02 -7.213784e-01 1.177000e+00 -5.255530e-02 
5.695496e+00 6.473143e-01 2.080689e+01 1.429387e+00 -2.486114e+01 5.906852e+00 -1.208209e+01 -2.586139e+00 -1.537917e+01 2.522460e+00 7.043598e-01 -1.590952e+00 5.298828e-01 -1.744155e+00 3.466657e-01 -1.271059e-01 1.416212e+00 -2.914799e-01 6.810107e-02 -5.016491e-01 -1.731429e+00 3.911474e-01 -1.184890e-01 -5.668028e-01 8.162293e-01 -8.212416e-02 
3.319946e+00 1.623350e+00 2.270747e+01 1.733029e+00 -2.872523e+01 6.446699e+00 -9.064470e+00 -1.855713e+00 -1.739785e+01 6.403571e-02 1.874642e+00 -1.201438e+00 5.040109e-01 -1.193354e+00 2.586581e-01 1.005554e-03 1.021795e+00 2.002056e-01 -2.269199e+00 1.022327e-01 -3.062253e+00 8.290842e-01 -1.028914e+00 -3.596424e-01 -9.610876e-01 -6.080444e-02 
-1.305050e+00 1.919320e+00 1.450222e+01 3.877112e+00 -2.223079e+01 2.842135e-01 -1.187556e+01 -1.004633e+01 -1.403225e+01 6.905276e-02 -1.400353e-01 -3.436261e+00 2.332563e-01 -6.550592e-01 3.895635e-01 -6.490135e-01 1.081532e+00 1.553101e+00 -2.780703e+00 1.989494e+00 -2.404501e+00 1.571655e+00 -7.070516e-02 2.881913e-01 -2.060997e+00 -7.184969e-02 
1.858812e+00 -2.137848e-01 2.320579e+01 2.015142e+00 -2.379229e+01 -2.769445e+00 -8.914633e+00 -9.246385e+00 -1.285410e+01 -5.675437e-01 1.332886e+00 -5.684320e+00 4.372856e-01 -1.999646e-01 1.159580e+00 -3.642108e+00 -1.241560e-02 5.149448e+00 -2.396637e+00 2.450107e+00 -3.110375e+00 1.661295e+00 1.205944e-01 1.746948e-02 -1.603584e+00 -1.231835e-01 
3.150766e+00 3.513699e+00 1.731267e+01 6.695992e+00 -1.956211e+01 -3.388593e+00 -2.209537e+00 -1.091331e+01 -9.792763e+00 2.484723e+00 2.416194e+00 -9.654493e+00 2.039970e-01 -8.769468e-01 1.148371e+00 -5.430720e+00 -1.506302e+00 6.664479e+00 -2.632217e-01 3.122154e+00 1.109954e-01 3.533112e+00 7.173996e-02 6.041154e-02 1.047978e+00 -1.303661e-01 
9.221458e-02 6.624060e+00 3.091704e+00 2.615104e-01 -4.312333e+00 -3.700084e+00 -1.646947e+00 -1.697410e+01 -1.121111e+01 -5.408276e-01 6.838744e-01 -6.110240e+00 -9.727693e-02 -2.114054e+00 8.408608e-01 -7.047910e+00 -1.490623e+00 7.199094e+00 2.056577e-01 3.010793e+00 3.209160e+00 5.933201e+00 4.034976e-01 5.161707e-01 2.865017e+00 -1.532446e-01 
-4.806485e+00 4.242254e+00 -2.594346e+00 -2.777582e+00 1.351626e+00 -5.665758e-01 1.013644e-01 -5.627496e+00 2.811818e+00 4.143945e-01 4.865283e-01 2.016590e+00 -1.512927e-01 -1.817992e+00 -5.335433e-01 -4.471543e+00 -1.094980e+00 5.509443e+00 9.013904e-01 2.456672e+00 4.574102e+00 4.104251e+00 7.160573e-02 7.871706e-01 3.932455e+00 -7.645950e-02 
-4.732832e+00 3.626242e+00 -2.080257e+00 -7.011878e-01 1.746307e+00 -3.152165e+00 4.983884e+00 4.156509e+00 1.050961e+01 2.485109e+00 4.878572e+00 2.805225e+00 -1.512927e-01 -5.557200e-01 -1.097116e+00 -1.661981e+00 -2.788696e-01 2.003352e+00 1.073479e+00 1.004009e+00 3.999441e+00 2.276825e+00 3.085722e-01 4.251945e-02 1.769102e+00 -1.080315e-02 
-3.526672e+00 2.344891e+00 -2.459068e+00 1.702439e+00 4.955787e+00 8.443995e-01 6.758409e+00 1.391899e+00 -1.318684e-01 1.329784e+00 4.254698e+00 5.550048e+00 -1.512927e-01 4.187416e-01 -3.696940e-01 -5.936459e-01 2.465269e-01 8.456949e-01 5.246364e-01 8.023872e-02 1.049689e+00 -1.189198e+00 -2.619740e-01 -9.249983e-01 -8.174610e-01 0.000000e+00 
-3.326292e+00 2.087162e+00 -5.285840e+00 -3.372848e+00 3.902347e+00 9.618219e-01 4.457450e-02 -4.865886e-01 1.644856e+00 5.443386e-01 -9.876131e-01 9.685408e-01 -1.512927e-01 5.552664e-02 -4.448897e-01 -7.465986e-01 -3.947512e-01 5.395497e-01 3.237896e-01 -5.738473e-01 -1.692497e-01 -1.047545e+00 -5.607624e-01 -1.182244e+00 -2.838007e-01 0.000000e+00 
-3.416047e+00 3.163324e+00 -3.959785e+00 -2.091179e-01 4.502081e+00 -3.868341e-04 2.972213e+00 1.942497e+00 1.298209e+00 7.490957e-02 -1.205370e+00 -1.152373e+00 -1.512927e-01 -3.585010e-01 -2.665740e-01 -7.725078e-01 -1.080985e+00 -2.945040e-01 -1.659567e-02 7.094630e-01 1.000442e+00 1.357913e+00 2.870339e-01 -3.471228e-01 -6.320850e-01 0.000000e+00 
-4.510511e+00 9.925769e-01 -5.062892e+00 -1.719166e+00 4.670908e+00 -1.110824e+00 4.007745e+00 3.034962e+00 4.556849e+00 3.087339e-01 1.697389e+00 4.737432e+00 -1.512927e-01 -4.217450e-01 -6.245119e-01 -7.629518e-01 -6.097922e-01 -2.323323e-01 -2.713123e-01 1.006165e+00 5.060881e-01 6.408007e-01 4.350964e-01 2.475423e+00 1.596295e+00 0.000000e+00 
-4.727068e+00 1.559314e+00 -6.433081e+00 -4.529329e+00 3.098986e+00 1.797744e+00 8.324139e+00 4.633332e+00 5.201700e+00 2.882756e+00 1.176583e+00 5.051774e-01 -1.512927e-01 -3.426752e-01 -1.069578e+00 -8.979808e-01 -8.677570e-01 -1.932006e-02 2.290411e-01 1.939705e-01 -6.535802e-01 8.114886e-03 2.432868e-01 2.027878e+00 1.254908e+00 0.000000e+00 
-4.779507e+00 -2.333929e-01 -7.863951e+00 -4.261703e+00 3.442234e+00 -1.293805e+00 2.399437e+00 6.984348e-01 2.897114e+00 1.315897e+00 1.019853e+01 8.121242e+00 -1.512927e-01 7.850572e-01 -1.432657e+00 1.501110e-01 -1.559582e+00 -3.310543e-01 -1.190724e+00 2.392960e-03 -1.042014e+00 -1.035842e+00 -6.525480e-01 1.620965e-01 2.286003e-01 1.099893e-01 
-4.994925e+00 -1.571581e+00 -7.049160e+00 -3.276634e+00 5.019818e+00 1.236310e+00 4.746219e+00 -1.571403e-01 2.168651e+00 7.877616e-01 4.683452e+00 3.430262e+00 -1.512927e-01 5.462363e-01 -1.505942e+00 1.240602e+00 -1.733069e+00 -2.861187e-01 -3.323125e+00 4.087954e-01 -1.175596e+00 -7.585275e-01 -1.498712e+00 -1.481109e+00 9.900383e-01 2.102846e-01 
-4.512968e-01 -4.605258e+00 -4.004297e+00 -1.014342e+01 2.055221e+00 -6.783728e+00 5.808670e+00 2.201290e-01 8.941613e-01 -1.906509e+00 7.544366e-01 4.417892e+00 3.986538e-01 -5.180710e-01 -5.146284e-01 3.309983e+00 7.311199e-01 6.022784e-01 -3.937581e+00 1.844002e+00 -9.896763e-01 7.296582e-01 -7.005093e-01 -3.531850e+00 -1.129103e-03 2.275079e-01 
-4.159991e+00 -3.784463e+00 -2.159899e+00 -1.025381e+01 2.361898e+00 -1.207292e+01 8.663498e+00 -1.005497e+00 2.410539e+00 -2.999602e+00 -1.506917e+00 7.307044e+00 6.251571e-01 -1.064985e+00 -1.189626e-01 3.410038e+00 1.794918e+00 1.334604e+00 -2.818005e+00 1.231745e+00 -8.314374e-01 2.441883e-01 -8.385875e-01 -1.561483e+00 7.237714e-01 1.494196e-01 
-7.787329e+00 -1.700094e+00 6.241335e+00 2.882486e+00 7.782586e+00 -1.432709e+01 9.660807e+00 -3.825769e+00 6.424461e+00 -2.929669e-01 -4.365539e+00 6.177205e+00 5.980222e-01 -7.151406e-01 3.685110e-01 2.867830e+00 3.458562e+00 2.476158e+00 3.422503e-01 1.309738e+00 -1.617730e-01 5.979762e-01 4.608478e-02 -1.577083e+00 -1.322138e+00 -5.415881e-03 
-6.651836e+00 -3.618976e+00 4.878214e+00 -8.149960e-01 8.829155e+00 -9.082035e+00 8.978875e+00 -2.291378e+00 6.244426e-01 -4.211947e+00 -5.639763e-01 6.169462e+00 4.961210e-01 9.180487e-01 -5.478554e-01 1.772256e+00 2.070523e+00 1.586398e+00 1.107761e+00 1.088359e-01 8.915080e-01 1.008143e+00 1.049943e-01 -1.266455e+00 -9.188855e-01 -6.606744e-02 
-2.781077e+00 -2.845447e+00 6.815794e+00 2.429979e+00 1.120238e+01 -6.567918e+00 1.219967e+01 5.420494e-02 4.777091e+00 -1.069913e+00 -7.602449e+00 -1.624008e+00 4.360924e-01 1.983302e+00 -1.656772e+00 -4.235930e-01 -7.309046e-01 1.736647e-01 1.206266e+00 -9.257760e-01 5.957297e-01 1.210649e+00 4.479369e-01 -3.606246e-01 -2.455912e-02 -7.899576e-02 
-2.072873e+00 -5.951063e+00 6.414149e+00 3.250537e-01 8.583989e+00 -1.041370e+01 7.938246e+00 1.512057e+00 8.274939e+00 -2.086158e+00 -6.220737e+00 6.613223e+00 3.757848e-01 2.112185e+00 -1.671861e+00 -1.273049e+00 7.366534e-01 -6.485301e-01 1.341511e+00 -7.007352e-01 1.266052e+00 2.446210e+00 7.758270e-01 -2.008561e+00 -7.750702e-01 -9.014098e-02 
-1.602993e-01 -8.817908e+00 3.355403e+00 -1.342062e+00 8.773492e+00 -7.629931e+00 5.552241e+00 -2.748837e+00 8.652461e+00 8.838232e-01 -3.340281e+00 5.832529e+00 2.632115e-01 1.653462e+00 -1.291619e+00 -3.200872e+00 9.678712e-01 -1.560586e+00 2.395457e+00 -2.379312e+00 -5.729715e-01 1.140963e+00 -6.324055e-01 -2.527167e+00 1.169327e-01 -1.005323e-01 
2.598697e+00 -8.992052e+00 2.431664e-01 4.754292e+00 6.800949e+00 -1.843476e+00 8.798914e+00 5.440403e+00 1.091781e+01 -1.309680e+00 -1.273787e+01 -1.434157e+00 1.318565e-01 1.561336e+00 2.194185e-01 -4.525549e+00 6.043919e-01 -5.394193e-01 4.645857e+00 -1.923613e+00 -1.963633e+00 -1.573762e-01 -5.069727e-01 -3.313041e+00 -2.251265e+00 -9.535974e-02 
3.150446e+00 -7.783047e+00 -6.103072e+00 5.054716e+00 4.290971e+00 1.124252e+00 -1.272225e-01 -4.774825e+00 9.160471e+00 -4.620179e+00 -1.697972e+01 2.984345e+00 5.539519e-02 7.172916e-01 1.397705e+00 -3.983508e+00 2.917286e-01 9.630440e-01 2.867815e+00 -3.079962e+00 -2.207851e+00 -1.740871e+00 -1.249688e+00 -2.074719e+00 -2.645965e+00 -7.315291e-02 
4.078436e+00 -5.371401e+00 -1.148436e+01 1.486244e-01 8.128153e+00 8.438493e+00 1.159913e+00 -7.293114e+00 7.234052e+00 -1.869020e+00 -1.596622e+01 -3.219008e+00 2.894223e-03 -1.530006e-01 1.719484e+00 -2.829864e+00 -8.614775e-01 1.428308e+00 1.320859e+00 -3.367687e+00 -4.170089e+00 -4.701657e+00 -1.475418e+00 1.176144e+00 -4.514712e-01 -4.635503e-02 
2.686289e+00 -3.639710e+00 -1.069838e+01 2.419415e+00 1.292511e+01 1.568157e+00 -6.028071e+00 -7.421336e+00 1.789984e+00 -5.084949e+00 -1.209970e+01 -6.504871e+00 -3.807187e-02 -3.046289e-02 1.738399e+00 -1.157816e+00 -3.832047e-01 1.718644e+00 -2.719855e-01 -4.911465e-01 -6.780993e-01 -3.268825e+00 -2.161293e-02 3.684618e+00 3.523830e-01 -3.445705e-02 
2.065772e+00 -2.466299e+00 -1.160850e+01 1.764555e+00 9.625419e+00 4.538869e+00 -5.089095e+00 -1.408679e+01 -8.905236e+00 -8.454384e+00 -9.297160e+00 1.053095e+00 -5.318511e-02 -8.449483e-02 1.886286e+00 1.296160e+00 1.073255e+00 1.580673e+00 -8.201299e-01 4.765897e-01 2.186636e+00 -1.608222e+00 -7.776050e-02 3.501769e+00 2.735325e+00 -2.807846e-02 
4.004464e+00 -5.436053e-01 -1.183008e+01 2.330728e+00 1.213556e+01 1.714136e+00 5.415485e-01 -4.768484e+00 8.859891e-01 -1.435562e+00 -1.891162e+00 2.610209e+00 -8.885038e-02 3.395332e-01 1.546989e+00 1.662293e+00 1.141689e+00 6.775034e-01 1.165936e+00 2.960918e+00 3.463673e+00 7.037534e-01 1.514000e+00 2.991954e+00 2.033467e+00 -2.073176e-02 
2.996875e+00 2.511977e+00 -4.437705e+00 5.559243e+00 1.642630e+01 4.264853e+00 2.580519e-01 2.313640e+00 -3.550596e-01 -4.082516e+00 -3.561645e+00 5.900076e+00 -1.121088e-01 3.354599e-01 1.160131e+00 1.891414e+00 1.830697e+00 1.098664e+00 1.425833e+00 2.008154e+00 3.040387e+00 2.174556e+00 1.693138e+00 8.426428e-01 -9.863430e-01 -1.189225e-02 
3.918404e+00 1.606095e+00 -5.972312e+00 6.230516e+00 1.291219e+01 7.534846e+00 6.102945e+00 1.696814e+00 1.033663e+00 2.991160e-01 -7.683516e-03 1.238974e+00 -1.122688e-01 2.568668e-01 1.174021e+00 1.870829e+00 1.542813e+00 3.156727e-01 6.751276e-01 2.285570e-01 6.179327e-01 2.125451e-01 5.690250e-01 -3.209219e-01 -2.036845e+00 -2.066505e-03 
3.786101e+00 2.259506e+00 -5.080315e+00 8.968146e+00 1.473042e+01 8.757682e+00 2.170978e+00 -2.117501e+00 1.893707e+00 -8.560319e-01 -6.025685e+00 -3.193003e+00 -1.009371e-01 3.205577e-01 1.214299e+00 7.873117e-01 -8.130932e-03 -3.807563e-01 1.220041e-01 -6.233672e-01 -5.421277e-01 -1.455177e-01 -9.481505e-02 4.218618e-01 -8.515940e-01 -2.128017e-03 
4.894184e+00 5.452737e+00 -2.154633e+00 8.340343e+00 1.456186e+01 2.843360e+00 7.278705e-01 5.367501e-01 8.243313e-01 -2.036791e-01 -2.263751e+00 -3.027479e+00 -1.047688e-01 -1.675077e-01 1.293917e+00 1.392173e+00 -2.948795e-01 3.011493e-01 3.189287e-01 -9.003889e-01 -3.766767e-01 -1.750523e-01 -9.944816e-02 1.039313e-01 -1.366681e-01 -5.654049e-03 
4.111773e+00 6.660152e+00 -2.409986e+00 4.463675e+00 1.369768e+01 7.220617e+00 -1.712470e-01 1.830333e-01 -9.779823e-01 -4.305194e+00 -3.243022e-01 3.775332e+00 -1.264989e-01 9.877582e-02 1.868072e+00 1.865578e+00 -4.348264e-01 4.578834e-02 5.596380e-02 2.935255e-02 -4.277659e-01 7.028721e-02 -2.095973e-01 7.305546e-01 2.679800e-01 8.854019e-03 
2.918029e+00 5.875356e+00 -3.466105e-01 7.008354e+00 1.493431e+01 9.898022e+00 2.772113e+00 -1.336838e+00 1.594246e+00 1.526456e+00 -2.338718e+00 -2.928535e+00 -1.277581e-01 -6.500578e-03 1.630201e+00 1.923940e+00 -6.167016e-01 -3.421227e-01 3.727212e-01 -8.724930e-02 -7.562002e-01 1.081111e+00 8.360012e-01 -3.016205e-02 -3.887184e-01 1.677312e-02 
5.268058e+00 1.138855e+01 3.343563e+00 7.460009e+00 1.477314e+01 5.510170e+00 1.295619e+00 -3.319537e+00 1.860186e+00 -2.769086e+00 -2.335429e+00 -1.902575e+00 -4.517233e-02 1.863862e-01 1.785749e+00 2.026930e+00 -4.011588e-01 -1.163838e+00 -1.863106e+00 3.956939e-01 3.725192e-01 4.474067e-01 7.035092e-01 1.238360e-01 -3.660680e-01 1.361253e-02 
4.283539e+00 1.123954e+01 4.588293e+00 3.758668e+00 1.231352e+01 5.562190e+00 -4.418092e-01 -1.492966e+00 4.810802e+00 3.208273e+00 -1.408998e+00 -2.132117e+00 -6.156647e-02 -6.934514e-02 1.203642e+00 1.072848e+00 -3.451911e-01 -1.672080e+00 -2.739951e+00 2.070993e-01 1.010714e+00 -5.473818e-01 3.207136e-02 -7.446992e-02 5.927424e-01 -3.591108e-03 
4.360949e+00 1.290681e+01 5.257211e+00 4.082725e+00 9.188883e+00 7.300043e-02 3.414183e+00 2.123693e+00 -3.492272e-01 -1.628556e+00 -1.699822e-01 1.546784e+00 -9.153211e-02 -3.363957e-01 -2.288084e-02 -4.417046e-01 -9.323036e-01 -2.237794e+00 -1.533050e+00 1.728051e+00 2.089516e+00 5.217082e-01 1.412182e+00 1.152553e-01 4.337263e-01 -1.755833e-02 
3.024858e+00 1.113444e+01 4.060806e+00 6.971041e+00 9.366035e+00 -1.083147e+00 2.748327e+00 9.951194e-01 -3.795671e-02 1.116548e+00 -3.793791e+00 -1.689502e+00 -1.225338e-01 3.185544e-02 -6.082010e-02 -9.112265e-01 -1.015547e+00 -1.494335e+00 -2.274819e-01 2.233695e+00 1.722980e+00 9.319472e-01 6.840571e-01 8.859652e-01 6.600694e-01 -8.217478e-03 
4.215420e+00 1.132670e+01 1.398783e+00 1.192304e+00 5.057908e+00 1.167587e+00 8.340809e+00 5.883999e+00 6.893106e+00 5.337685e+00 -5.667558e-01 4.474898e-02 -1.024803e-01 -3.470702e-01 -2.887737e-01 -7.094325e-01 -6.850419e-01 2.153920e-01 1.299858e+00 1.066278e+00 3.526439e-01 1.222282e+00 4.820437e-01 1.403859e+00 -2.138513e-01 -4.158485e-03 
4.515581e+00 1.172549e+01 1.961374e+00 1.261430e-01 6.907330e+00 3.877487e+00 8.263351e+00 5.241784e+00 5.849372e+00 3.145437e+00 3.219214e+00 1.919247e+00 -9.717977e-02 -3.835548e-01 -2.098893e-01 -3.429647e-01 -2.729763e-01 9.823743e-01 2.182743e+00 3.160602e-01 1.675496e-01 9.247785e-01 -3.219970e-01 1.547013e+00 5.786068e-01 -1.450062e-04 
1.880237e+00 1.116741e+01 2.759765e+00 4.079964e+00 1.149520e+01 4.091975e+00 5.988059e+00 1.763581e+00 2.818517e+00 -2.327820e-01 3.342809e+00 -1.326847e+00 -1.250015e-01 -4.711145e-01 -1.061882e-01 1.844980e-01 1.228670e+00 9.744225e-01 5.104505e-01 -4.007138e-01 -1.280646e+00 -2.517148e-01 -4.361817e-01 8.969235e-02 -9.272684e-02 -1.970124e-03 
2.274675e+00 1.016464e+01 1.665492e+00 4.162329e+00 1.105926e+01 8.368372e+00 5.505003e+00 3.893076e+00 6.623230e+00 2.291797e+00 1.986492e+00 1.889331e+00 -1.119982e-01 -2.580409e-01 -3.433914e-01 2.928851e-01 5.789906e-01 3.479586e-02 -4.744803e-01 -5.051135e-01 -1.822936e+00 -1.071611e+00 -7.484260e-01 -1.509888e+00 -8.438624e-01 -6.821871e-03 
2.980300e+00 1.157619e+01 2.469214e+00 5.317562e+00 7.854054e+00 1.474397e+00 7.716413e+00 1.551229e-01 5.247603e+00 3.583597e+00 4.980674e-01 -4.039269e-01 -1.049217e-01 2.837214e-01 -3.237363e-01 1.698954e-01 -7.507701e-02 -3.873843e-01 -3.208526e-01 -1.024824e+00 -1.911908e+00 -1.955378e+00 -1.427473e+00 -2.473843e+00 -1.619815e+00 -4.967534e-03 
2.675344e+00 9.804147e+00 3.571075e+00 2.402297e+00 8.901880e+00 2.813875e+00 4.873607e+00 -3.068667e+00 -7.232268e-01 -2.504882e+00 -2.907855e+00 -2.761525e+00 -1.413291e-01 4.140601e-02 -1.789092e-01 4.005226e-01 1.312528e-01 1.037138e-01 -3.074428e-01 -1.269531e+00 -1.548340e+00 -1.646721e+00 -1.587429e+00 -1.177571e+00 -6.379051e-01 -8.100236e-03 
3.098509e+00 9.728974e+00 2.656450e+00 4.584595e+00 1.063696e+01 5.264961e+00 1.179637e+00 -4.315086e+00 -3.285142e+00 -4.971807e+00 -6.579232e+00 -7.100494e+00 -1.351738e-01 -1.667047e-01 -5.840396e-01 -1.715753e-01 1.212407e-01 1.066508e+00 7.140905e-01 -1.044721e+00 2.372723e-01 -1.334574e-01 -3.075239e-01 5.630258e-01 1.417588e+00 -6.759226e-03 
2.422601e+00 1.019370e+01 3.574487e+00 5.185077e+00 1.018638e+01 4.935876e+00 2.425735e+00 -1.613522e+00 2.656001e+00 -1.367648e+00 -3.627142e-01 2.048089e+00 -1.373733e-01 -4.983593e-01 -3.888575e-01 -4.757061e-01 3.823349e-01 -2.526961e-01 -1.363846e-01 -6.079081e-01 9.332222e-01 1.506122e+00 3.371307e+00 3.204461e+00 2.083993e+00 6.926656e-04 
2.273149e+00 8.461213e+00 1.609632e+00 4.532375e+00 1.254435e+01 3.983849e+00 3.716744e+00 6.139119e-01 2.890703e+00 1.477361e+00 2.040626e+00 4.279208e+00 -1.406957e-01 -4.679666e-01 9.560223e-02 3.091865e-02 -2.605762e-01 -3.204463e-01 6.918113e-02 3.524683e-01 8.680948e-01 1.202227e+00 3.239559e+00 3.040693e+00 1.239316e+00 -1.740837e-03 
5.962286e-01 8.493740e+00 1.715953e+00 4.340081e+00 6.684709e+00 2.772508e+00 5.655124e-01 -8.670548e-01 3.719460e+00 1.112707e+01 8.804523e+00 1.968591e+00 -1.351048e-01 -2.102762e-01 4.322284e-01 2.462324e-01 -3.789895e-01 -5.603967e-02 6.222052e-01 3.048058e-01 1.569596e-01 -1.619907e-01 1.619384e+00 1.080665e+00 -1.096789e+00 -1.959443e-03 
1.671863e+00 1.105696e+01 3.740310e+00 3.704211e+00 1.078557e+01 6.692551e+00 3.872091e+00 -3.478452e-01 2.194266e+00 4.978633e+00 4.040617e+00 -8.641677e-01 -1.450123e-01 -1.269379e-02 7.754728e-01 6.285712e-01 -2.292199e-01 5.833006e-02 9.337447e-01 3.617272e-01 -1.404305e-01 -2.918068e-01 8.541127e-02 -7.639241e-02 -1.311951e+00 -1.854062e-03 
