-8.869573e+00 1.861584e+00 -6.268694e-01 4.166975e+00 4.323550e+00 -9.611290e-01 2.784462e+00 -2.549258e+00 4.191701e+00 5.053784e+00 2.295580e+00 4.564177e+00 -1.161476e-01 -2.435246e-01 -1.819212e-01 6.395179e-01 -1.053340e+00 -9.926585e-01 -5.062999e-01 -9.973681e-03 6.987739e-01 8.238446e-01 -1.825987e-01 -9.985700e-02 -6.208776e-01 -2.051222e-03 
-8.933019e+00 1.168291e+00 2.570467e+00 3.834258e+00 3.732445e+00 -2.501741e+00 3.857064e+00 1.706459e+00 6.014576e+00 6.221187e+00 2.447594e+00 8.116344e-02 -1.363966e-01 -5.315037e-02 8.737417e-02 4.753318e-01 -1.000569e+00 -7.559186e-01 -4.603647e-01 1.984710e-02 -3.971024e-01 -2.397315e-01 -6.520475e-01 -1.363347e+00 -5.152984e-01 -4.660129e-04 
-1.005547e+01 1.298625e+00 9.720518e-01 -9.333652e-01 -3.441904e-01 -2.722322e+00 2.198293e+00 -1.183247e+00 7.399487e+00 3.557089e+00 1.720288e+00 3.701296e+00 -1.162792e-01 -1.085869e-01 6.803687e-02 -2.932132e-01 -1.103268e+00 -6.293849e-01 -1.310632e+00 -9.820776e-01 -9.295837e-01 -4.749557e-01 -5.844901e-02 -1.620454e+00 -1.146569e+00 3.046715e-03 
-8.542375e+00 2.579935e+00 9.503292e-01 1.714299e+00 2.877827e+00 -2.382356e+00 3.176782e+00 -5.217775e+00 1.389151e+00 2.541894e+00 -4.233508e+00 2.419126e+00 -1.184119e-01 1.010820e-01 4.472081e-01 -6.174790e-01 -1.243679e+00 1.783907e-02 -7.181332e-01 -8.398174e-01 -1.450795e+00 -1.207816e+00 9.242470e-01 -6.234486e-01 -1.093413e+00 5.579555e-03 
-9.607829e+00 1.495947e+00 -1.282867e+00 -2.893877e-01 1.603934e+00 -7.573979e+00 -1.785785e+00 -3.735060e+00 4.129635e+00 6.601185e+00 -2.466139e+00 -2.337648e+00 -1.099064e-01 -1.067796e-01 1.934463e-01 2.816882e-01 -4.308558e-01 3.769464e-01 7.662157e-01 2.901286e-01 1.212638e-01 -8.378903e-01 2.037782e+00 2.344345e+00 -2.431386e-01 3.154957e-03 
-8.651430e+00 3.305671e+00 6.105314e-01 -2.706124e+00 2.847578e+00 -3.666578e+00 1.650015e+00 -4.271609e+00 1.610420e+00 9.320374e+00 1.423564e+00 -2.366431e+00 -1.116853e-01 -1.408600e-01 -1.294385e-01 3.486370e-01 -1.860220e-01 -1.297520e-01 1.206365e+00 2.214198e-01 1.370106e+00 -6.827021e-03 1.130650e+00 2.336048e+00 -6.184568e-02 4.352927e-03 
-1.053484e+01 1.902988e+00 2.550392e+00 -8.774330e-01 1.555666e+00 1.750868e+00 4.412319e+00 -1.050011e+00 3.099401e+00 1.035676e+01 1.061348e+01 4.878382e+00 -1.038678e-01 -6.374445e-02 -1.859713e-01 3.770360e-01 6.322271e-01 1.946558e-01 1.066624e+00 7.418898e-01 1.287761e+00 1.237457e-01 -6.568031e-02 1.134455e+00 1.316238e+00 4.170251e-03 
-8.783168e+00 1.729222e+00 7.768847e-01 1.078212e+00 2.253201e+00 -1.012955e+00 1.184829e+00 2.902296e-01 1.870133e+00 6.317358e+00 9.069225e-01 -1.498118e+00 -9.966660e-02 3.365536e-02 4.719212e-02 4.996989e-01 1.356183e+00 7.724430e-02 -4.928208e-01 -3.015938e-01 8.996668e-01 9.267993e-01 -1.888964e+00 -7.964110e-01 2.823834e-01 -2.123201e-03 
-9.860682e+00 1.354315e+00 5.191369e-01 9.795802e-01 2.874402e+00 -3.567671e+00 2.156257e+00 4.228272e-01 4.618507e+00 7.774291e+00 3.464456e+00 3.809385e+00 -9.506452e-02 2.255358e-01 2.574843e-01 2.867467e-01 8.919533e-01 1.117254e-01 -8.066838e-01 -6.691073e-01 -3.994026e-01 4.994736e-01 -1.312636e+00 -7.695547e-01 4.336880e-01 -5.011070e-03 
-8.820233e+00 3.815968e+00 4.124654e+00 3.146284e+00 2.574432e+00 -3.471413e+00 1.270078e+00 -5.096948e-01 5.484864e+00 1.166785e+00 1.016020e+00 -4.200152e-01 -1.267029e-01 -2.247866e-01 -4.272185e-01 -2.857535e-01 -3.070135e-02 -1.186435e-01 -3.940430e-01 -3.867011e-02 -1.732606e+00 -1.077040e-01 2.929643e-01 1.136825e+00 1.154928e+00 -3.579068e-03 
-9.388631e+00 2.147037e+00 2.310241e+00 2.548298e+00 1.953678e+00 -1.053322e+00 1.024158e+00 -2.647062e+00 3.789403e+00 6.368869e+00 6.711155e+00 6.507771e+00 -1.154050e-01 7.356453e-03 -5.177670e-01 -6.739801e-01 -1.044317e-01 2.707302e-01 6.433476e-01 3.758696e-01 -1.070596e+00 -8.880134e-01 5.649047e-02 -1.449479e-01 1.007724e+00 -3.805208e-03 
-1.014313e+01 -8.032321e-01 -1.547435e+00 1.403462e-01 2.120345e+00 -4.240344e+00 1.557528e+00 -6.837855e+00 1.746165e+00 8.484890e+00 4.967696e+00 2.927328e+00 -1.073917e-01 4.121714e-01 -4.628133e-01 -1.913123e+00 -6.713998e-01 2.544638e-01 1.326051e+00 2.659570e-01 -6.846541e-01 -1.908032e+00 2.357213e-01 -3.285871e-01 5.493405e-01 8.754003e-03 
-9.162454e+00 1.075080e+00 -1.471984e-02 1.960390e+00 4.455096e+00 3.353310e-02 3.891880e+00 -1.766072e+00 2.047790e+00 4.397691e+00 7.638787e-01 7.174331e+00 -1.237462e-01 6.691613e-01 8.470646e-01 -3.214750e-01 -5.916008e-01 4.116143e-02 1.456930e-01 4.086272e-01 5.904387e-02 -3.974917e-01 3.739843e-01 -1.076693e+00 -1.416276e+00 3.584874e-03 
-6.872465e+00 2.037879e+00 -4.278480e+00 8.323872e-02 2.596042e+00 2.615417e+00 1.166002e+00 -4.373461e+00 -3.184491e+00 3.330981e+00 2.346723e+00 1.993407e+00 -7.876229e-02 7.836487e-01 1.136373e+00 2.013714e-01 -5.192528e-01 1.417272e-01 7.124932e-01 6.190936e-01 1.310497e+00 4.843666e-01 4.227224e-01 -5.591503e-01 -4.396728e-01 4.457104e-03 
-7.678155e+00 4.961804e+00 2.068388e+00 -3.811527e-01 1.921637e+00 -3.752738e+00 3.263057e+00 -3.584040e+00 4.267272e+00 1.081575e+01 2.638176e+00 -1.066463e-01 -1.117953e-01 1.071561e-01 4.791315e-02 4.394357e-02 -4.653656e-01 -5.965637e-02 -9.104105e-01 4.971756e-01 1.103938e+00 1.832043e+00 9.169649e-01 8.639817e-02 -1.173565e+00 3.250599e-03 
-6.967032e+00 2.935270e+00 -1.582132e+00 -1.285146e+00 4.095711e+00 1.215257e+00 4.967407e+00 6.236119e-01 3.058256e+00 7.389475e+00 1.234796e+00 4.369453e+00 -9.108162e-02 -2.211771e-02 -4.992518e-01 6.053443e-01 5.292083e-01 -3.272196e-01 -1.824036e+00 5.374628e-01 1.133929e+00 1.248581e+00 -4.935909e-01 -1.041728e+00 -7.100381e-01 -7.791257e-03 
-8.579390e+00 8.659511e-01 -1.143176e+00 3.177548e-01 3.406980e+00 -3.818439e+00 4.477055e+00 1.255081e+00 8.086634e+00 6.953269e+00 1.751833e+00 1.184832e-01 -1.013335e-01 -2.957185e-01 -1.657528e+00 -2.046072e-01 1.197917e+00 -3.734190e-01 -1.033447e+00 -6.144918e-01 4.638875e-01 -9.596716e-01 -7.073998e-01 9.707077e-02 2.539563e-02 8.987630e-03 
-6.532436e+00 1.589548e+00 3.540242e-01 2.379827e+00 2.172723e-01 -6.471911e+00 3.246317e+00 -1.123376e+00 1.148731e+00 2.794265e+00 -2.418746e+00 -1.669348e+00 -1.229495e-01 -3.779710e-01 -9.880053e-01 2.666302e-01 9.057191e-01 -1.965602e-01 -1.539565e+00 -1.453924e+00 -7.459596e-01 -1.413177e+00 7.290822e-01 1.504694e+00 -3.898520e-02 1.787417e-02 
-9.374045e+00 -2.652976e+00 7.727456e-02 3.775947e+00 1.993761e+00 -5.076389e+00 1.051143e+00 -3.911085e-01 4.236772e-01 9.576351e+00 4.950300e+00 3.039733e+00 -5.092323e-02 -4.178220e-01 -2.813309e-01 -3.640099e-01 6.384156e-01 -2.648725e-01 2.289961e-01 -3.329681e-01 -1.925141e+00 -1.263660e+00 1.015544e+00 1.831428e+00 1.597311e+00 1.994634e-02 
-8.459559e+00 -2.452935e-01 -8.592060e-01 1.514353e+00 3.819519e+00 -5.853591e+00 -5.892549e-01 -2.283091e+00 -1.761525e-01 9.723345e+00 7.159033e+00 2.713902e+00 -2.691591e-02 -7.015038e-01 5.611938e-01 -7.826614e-01 -6.759171e-02 4.143313e-01 5.129419e-02 1.469357e-01 -1.794034e+00 4.860576e-01 9.867147e-01 1.545809e+00 1.075630e+00 2.148552e-02 
-9.704938e+00 3.767173e-01 -2.356611e+00 3.942569e+00 2.814937e-01 -2.982619e+00 4.730000e+00 -7.790766e+00 2.430775e+00 8.566449e+00 6.120081e+00 5.913411e+00 -4.961860e-02 -2.821882e-01 1.098950e+00 -2.142307e+00 -6.540899e-01 1.209210e+00 1.471639e+00 1.317364e+00 -2.753120e+00 3.282179e-01 -5.555570e-01 5.277034e-01 -9.038925e-02 3.289330e-02 
-9.874509e+00 2.880670e+00 -2.342340e+00 1.958557e+00 3.145062e+00 -7.262325e+00 2.141567e+00 -6.393716e+00 2.575470e+00 8.232789e+00 4.725410e+00 2.271964e+00 -1.617420e-02 1.085283e+00 -1.521537e+00 -4.139178e+00 -1.320876e+00 2.259955e+00 2.185460e+00 1.370823e+00 -2.963448e+00 -9.042886e-01 -6.537595e-01 1.599928e-01 -5.259746e-01 6.033623e-02 
-1.007751e+01 1.278794e+00 -9.892691e+00 2.833957e-01 8.377037e+00 2.986173e+00 6.272551e+00 -1.210140e+01 6.889554e-01 7.543844e+00 8.805629e+00 2.808756e+00 1.081724e-01 1.521653e+00 -1.842299e+00 -3.287706e+00 -2.275244e+00 2.700412e+00 2.217453e+00 -1.280050e+00 -1.441685e+00 -2.592329e+00 4.987555e-01 1.113438e+00 -8.251742e-01 4.455928e-02 
-2.846859e+00 -8.304015e+00 -1.778706e+01 -3.260440e+00 1.107152e+01 2.089310e+00 5.493584e+00 -1.494502e+01 -3.826686e+00 6.965849e+00 6.616223e+00 1.636358e+00 1.958697e-01 1.469459e+00 -5.822881e-01 9.347785e-01 -2.375256e+00 6.194158e-02 -8.147108e-01 -1.340346e+00 3.557139e+00 -2.904069e+00 -2.477398e+00 -6.372854e-01 6.726815e-01 5.504460e-02 
-5.610497e+00 -3.242434e+00 -1.107278e+01 -4.824154e+00 9.820323e+00 3.428830e+00 -3.346258e+00 -1.072354e+01 -7.329790e+00 1.169370e+01 1.074186e+01 2.105344e+00 6.715584e-02 1.697915e-01 1.291100e+00 6.163680e+00 -1.806930e+00 -3.381728e+00 -4.196773e+00 -1.448608e+00 6.034756e+00 -2.752604e+00 -2.123116e+00 -3.386646e+00 6.909047e-01 5.148098e-02 
-4.760720e+00 2.229843e+00 2.921598e+00 -7.363951e+00 2.733128e+00 -1.155721e+01 2.492404e-01 1.070305e+01 -7.935505e+00 -6.229126e+00 5.708653e-01 5.987077e+00 2.795571e-01 -1.224517e+00 3.148298e+00 6.815573e+00 -2.052109e-01 -3.553731e+00 -3.474608e+00 -9.147575e-01 5.124515e+00 -4.647274e-01 -1.409697e+00 -2.781898e+00 9.462656e-01 -1.334718e-02 
-8.271624e+00 2.467366e+00 1.057138e+01 -6.699499e+00 -4.362406e+00 -1.117443e+01 1.651683e+00 5.248347e+00 -1.101966e+01 3.525752e+00 -5.104921e+00 4.087919e+00 3.237336e-01 -8.773591e-01 1.943025e+00 3.472762e+00 8.138350e-01 -2.506498e+00 -2.153844e+00 -6.824532e-01 1.294902e+00 1.877339e+00 -3.673693e-01 -1.930329e+00 4.235165e-01 -5.042287e-02 
-7.638882e+00 4.582576e+00 5.468726e+00 -3.348822e+00 3.942301e-01 -7.982100e+00 -1.579175e+00 2.691611e+00 -4.305390e+00 4.001339e+00 6.301281e-01 5.376398e+00 8.449554e-04 -1.099178e+00 -2.833035e+00 -2.490804e+00 4.022094e+00 1.924045e+00 -9.924271e-01 -1.159788e+00 -1.653007e+00 2.961531e+00 1.065054e+00 2.438861e-01 3.741384e-01 -4.025256e-02 
-8.558211e+00 5.296328e+00 5.017465e+00 -2.762543e+00 -1.542719e+00 -9.127941e+00 -5.844316e+00 -2.433093e-01 2.418480e-01 4.741618e+00 1.060588e+00 4.528265e+00 -4.560244e-02 -1.364362e+00 -5.951815e+00 -3.586360e+00 5.041714e+00 4.209302e+00 -1.154021e+00 1.063436e-01 1.673296e+00 3.230115e+00 -1.694257e+00 1.167768e+00 1.597914e+00 5.948852e-02 
-1.011331e+01 -1.334981e+01 -6.755467e+00 1.077804e+01 1.094351e+01 -1.754259e+01 -1.801699e+00 5.183849e+00 1.241399e+00 -1.511788e+00 -1.292459e+00 7.637596e+00 2.629623e-01 -2.033142e+00 -6.641912e+00 -1.450321e+00 4.769180e+00 2.565575e+00 -2.277609e+00 5.976909e-01 1.266151e+00 2.181093e+00 -2.636143e+00 1.355095e+00 9.819199e-01 1.381783e-01 
-1.385622e+01 -1.832551e+01 -1.248321e+00 1.144564e+01 1.140946e+01 -1.216429e+01 2.294663e+00 1.236871e+01 2.357528e+00 -2.188972e+00 1.695212e+00 1.094689e+01 4.901175e-01 -9.061375e-01 -2.946514e+00 -6.781759e-02 2.315028e+00 3.515466e-01 -3.364765e-01 1.716805e-01 -2.288980e-01 1.419969e+00 -2.058244e+00 4.196374e-01 -1.150602e+00 2.705156e-02 
-1.515559e+01 -1.681606e+01 1.350015e+00 1.339299e+01 6.746015e+00 -1.785197e+01 -2.660211e+00 2.716356e+00 5.542234e+00 -5.714084e+00 7.088288e+00 7.076684e+00 4.238763e-01 3.876629e-02 2.668792e+00 1.271205e+00 -1.788111e+00 -2.405656e+00 2.259498e+00 -1.426453e+00 -2.885079e+00 6.955074e-01 2.342525e-01 -1.152872e-01 -3.187387e+00 -1.176710e-01 
-1.056776e+01 -7.703120e+00 6.256359e-01 7.505123e+00 2.313761e+00 -1.065563e+01 -4.556657e+00 -1.540527e-01 5.191276e+00 -3.448456e+00 -1.031599e+00 -9.442885e-01 9.198368e-03 9.405602e-01 1.909210e+00 1.863833e-01 -1.418534e+00 -9.375210e-01 3.103679e+00 -2.816086e+00 -1.730233e+00 8.036762e-01 1.369285e+00 4.061440e-01 -4.017667e+00 -1.177497e-01 
-1.156371e+01 -5.317047e+00 -1.336422e+00 3.807744e+00 3.463081e+00 -6.999427e+00 -5.508306e+00 -2.980165e+00 3.302062e+00 2.892160e-01 -5.054889e-01 -2.353747e+00 -8.493304e-02 9.596577e-01 1.977133e+00 -4.264159e-02 -9.729092e-01 8.681810e-01 4.245823e+00 -1.310786e+00 4.559571e-01 7.285918e-01 2.554127e+00 9.726241e-01 -1.931241e+00 -7.553115e-02 
-1.094936e+01 -1.452897e+01 1.026814e+00 9.145590e+00 8.363324e+00 -2.072168e+00 -1.036172e+01 6.565803e+00 7.495996e+00 1.655802e+00 7.522820e+00 -4.426229e+00 1.557738e-01 7.853680e-01 2.613412e+00 5.850768e-02 -6.225948e-01 7.257206e-01 3.767179e+00 2.339003e+00 1.221462e+00 8.954496e-01 2.907300e+00 1.603423e+00 1.688565e+00 -1.206161e-02 
-1.016650e+01 -3.517470e+00 9.362178e-01 7.708210e+00 8.062139e+00 -9.145856e-01 -6.311612e+00 1.636214e+00 8.032833e+00 4.504422e+00 7.674199e+00 -8.385516e-01 -2.706718e-02 1.405044e+00 3.583265e+00 8.846090e-02 -1.182661e+00 -3.905033e-01 2.675182e+00 4.563132e+00 1.149736e-01 -7.567699e-02 1.469953e+00 -6.843057e-01 1.154968e+00 -2.893607e-02 
-7.339526e+00 4.464151e+00 -2.181458e-01 2.441916e+00 3.642835e+00 5.137843e+00 7.540008e+00 3.645066e+00 7.303138e+00 8.980438e+00 2.895670e+00 6.740938e+00 -8.004260e-02 1.122623e+00 4.214043e+00 -2.664662e-01 -1.901373e+00 -4.472682e-01 1.338857e+00 3.975985e+00 -2.602851e+00 -1.130366e+00 1.034214e-01 -2.381189e+00 1.612740e+00 -6.372662e-02 
-6.343406e+00 3.102718e+00 -2.716378e-01 1.246276e+00 3.870810e+00 2.771477e+00 8.356493e+00 -9.449291e-01 3.020106e+00 3.976663e+00 -1.613442e+00 -2.162492e+00 -1.117052e-01 5.080477e-01 1.039488e+00 -4.124720e-01 -1.344286e+00 -7.041113e-01 -4.462878e-01 3.894832e-01 -2.010496e+00 -8.854954e-01 -3.755820e-01 -1.108132e+00 6.916459e-01 -2.203096e-02 
-7.247790e+00 3.231151e+00 2.984110e-01 2.869694e+00 8.222649e+00 2.779085e+00 2.184152e+00 -5.157879e+00 4.350530e+00 2.436789e+00 2.606943e-01 4.299441e+00 -1.205403e-01 -4.256904e-01 -6.516153e-01 -3.945813e-01 -3.540500e-01 -3.953209e-01 -2.163949e+00 -2.519241e+00 -1.783526e+00 -5.009435e-01 -9.054422e-03 1.559212e+00 4.783397e-01 -8.258974e-03 
-7.672132e+00 2.296472e+00 -1.384421e+00 7.728934e-01 2.251676e+00 -1.966646e+00 -1.686267e+00 -4.014791e+00 5.081660e+00 5.898337e+00 3.451030e+00 3.840426e+00 -1.169732e-01 -1.565109e-01 -1.608866e-01 -1.116818e+00 -6.044793e-01 -1.604119e+00 -2.250556e+00 -1.476743e+00 -6.392184e-01 -1.146350e+00 6.053734e-03 2.358694e-01 2.542146e-01 9.594774e-03 
-8.803615e+00 1.609198e+00 -1.634661e+00 9.083572e-01 2.475798e+00 -3.312843e+00 -3.481460e-02 -3.737631e+00 3.767643e+00 7.974329e+00 8.159495e+00 6.131178e+00 -1.187035e-01 3.734983e-01 2.782853e-02 -9.479677e-01 -1.091215e+00 -1.479930e+00 -5.569882e-01 3.417737e-01 -3.136065e-01 -2.066392e+00 3.053393e-02 -7.423556e-01 -1.370017e+00 9.798205e-03 
-6.348048e+00 3.109262e+00 -4.889193e+00 -7.954525e-01 -1.276362e+00 -5.435338e+00 2.082263e+00 -4.851146e+00 -2.420198e+00 1.238161e+00 -4.383496e+00 -1.807287e+00 -6.464970e-02 1.080598e+00 6.818029e-01 -1.380804e-01 -3.977174e-01 1.010419e-01 9.005091e-01 8.937581e-01 -8.217455e-01 -2.163377e+00 -1.741870e+00 -7.530336e-01 -1.335412e+00 7.407284e-03 
-6.042341e+00 2.963898e+00 -2.689041e+00 -1.802210e+00 2.587019e+00 1.728491e+00 2.008755e+00 -6.307734e+00 -2.230499e+00 4.919546e+00 4.661789e-01 2.732136e-01 -9.771097e-02 1.791582e+00 1.713938e+00 9.071727e-01 9.137223e-02 9.434503e-01 1.801150e+00 1.959526e-01 -1.793132e-01 -1.086015e+00 -1.281457e+00 -8.040802e-01 -9.281346e-01 1.174574e-02 
-3.649781e+00 5.028136e+00 -1.547632e+00 1.395899e-01 2.701274e+00 1.523256e-02 1.760738e+00 -6.838467e+00 -2.736154e+00 -1.283623e+00 3.532520e+00 9.235078e-02 -9.043300e-02 3.536757e+00 2.658354e+00 1.900943e+00 1.817939e-01 7.105283e-01 4.835787e-01 -9.227613e-01 2.359721e-01 -6.137120e-01 -1.309138e+00 9.730350e-01 1.258913e+00 5.886539e-02 
-1.194839e+00 9.219448e+00 1.230422e+00 8.976972e-01 5.204231e+00 2.967621e+00 1.105711e+00 -3.640536e+00 -1.504453e+00 2.827936e+00 1.810865e-01 5.406863e-01 -4.708314e-02 5.247422e+00 2.511702e+00 7.290650e-01 -1.170598e+00 -1.087182e+00 -4.462241e-01 -9.058364e-01 -1.683819e-01 -1.365191e+00 -2.307778e+00 -1.731552e-01 1.015983e+00 1.259589e-01 
8.911984e+00 1.327326e+01 2.655789e+00 -1.236436e+00 9.676735e-01 -3.637010e+00 -2.080021e+00 -5.004885e+00 -5.851781e+00 -4.261724e+00 6.242254e-01 4.353544e+00 2.043633e-01 4.757138e+00 9.268603e-01 4.258927e-01 -9.512068e-01 -1.416466e+00 3.312955e-02 1.851263e-01 -7.038188e-01 -9.332091e-01 -9.287008e-01 -3.483097e-01 -2.658046e-01 1.276014e-01 
1.391389e+01 1.139985e+01 -1.145427e+00 -6.967187e+00 -1.982093e+00 1.323491e+00 -6.000471e-01 -8.066435e+00 -7.498637e+00 -5.130293e+00 1.054550e+00 3.222534e+00 3.846854e-01 3.555762e+00 -9.850065e-01 1.293553e-01 -1.088598e+00 -1.860665e+00 6.989684e-01 -4.133243e-02 -9.046090e-01 -7.780282e-01 -1.568158e+00 1.266229e+00 -8.989785e-01 1.125338e-01 
1.258155e+01 8.572238e+00 1.769756e+00 -6.840020e-01 -7.878916e-01 1.002945e+00 3.539249e+00 -8.144611e+00 -4.405107e+00 -1.948013e+00 1.354240e+00 -2.577596e+00 3.316898e-01 8.553692e-01 -1.473359e+00 1.088879e+00 -4.766684e-01 -8.364090e-01 9.465672e-01 -3.919689e-01 7.483129e-02 3.374321e-01 4.163775e-01 1.452237e+00 -1.618709e+00 5.599355e-02 
1.474919e+01 6.644926e+00 2.320216e+00 -4.821511e+00 -3.221313e+00 4.142486e+00 -1.910586e+00 -6.593718e+00 -6.117930e+00 -6.169711e+00 6.147225e+00 -4.886364e-01 4.519228e-01 -4.849935e-02 -8.673226e-01 1.809372e+00 -1.342662e-01 -5.153358e-01 -1.714130e-01 -1.054633e+00 5.480367e-01 1.107527e+00 6.726254e-01 7.848306e-01 -5.945600e-01 3.526571e-02 
1.277118e+01 8.283923e+00 6.367364e+00 -4.692616e+00 -2.594762e+00 -3.136716e-01 -3.384596e+00 -5.367086e+00 -4.854974e+00 -1.660128e+00 5.339074e+00 -1.884416e+00 4.507124e-01 -2.390082e-01 -3.545329e-01 1.534579e+00 -1.057328e+00 -9.235781e-01 -9.386243e-01 -1.240226e+00 1.041944e+00 1.481369e+00 4.728928e-01 -4.104504e-01 5.248966e-01 4.749725e-02 
1.357657e+01 7.207391e+00 5.602629e+00 -5.634211e+00 -3.655337e+00 1.124735e+00 -2.411291e+00 -6.715014e+00 -1.736067e+00 -1.911108e+00 2.986286e+00 -9.685606e-02 5.015027e-01 -6.580030e-01 -1.144830e-01 8.591055e-01 -1.072372e+00 -3.653074e-01 -1.687464e+00 -3.703984e-01 6.076810e-01 2.690330e+00 2.009037e+00 -2.102698e+00 -3.046401e-01 3.852292e-02 
1.197281e+01 6.518342e+00 7.801445e+00 -5.564291e+00 -5.188769e+00 -2.181301e+00 -2.411531e+00 -2.874243e+00 8.108054e-01 -1.712850e+00 8.824580e-01 -1.490036e-01 5.443861e-01 1.538809e-01 -4.214517e-01 1.448199e-01 -1.867841e+00 -1.623283e+00 -1.414902e+00 1.919283e-01 9.823112e-01 2.323462e+00 4.171943e-01 -1.580185e+00 1.046337e-01 4.962362e-02 
1.185836e+01 6.955302e+00 5.898703e+00 -9.747534e+00 -3.750846e+00 -3.361020e+00 -4.249111e+00 -4.801735e+00 4.500828e+00 3.901834e+00 -2.137956e+00 -2.879543e+00 5.977005e-01 5.046926e-01 -1.134980e-01 -1.969934e-01 -2.963983e+00 -2.215910e+00 -1.416797e+00 7.167401e-02 1.352436e+00 1.153159e+00 5.064239e-02 -1.081636e+00 2.050653e-01 4.963375e-02 
1.439969e+01 6.302710e+00 6.943427e+00 -1.197516e+01 -1.066342e+01 -5.145305e+00 -1.506044e+00 -1.412170e+00 3.643887e+00 -2.480628e+00 2.708435e-04 3.009573e-02 6.507316e-01 1.078392e+00 3.492838e-01 -1.136449e+00 -3.603070e+00 -2.968180e+00 5.566155e-01 -3.404178e-01 1.553196e+00 -6.294073e-01 -9.166142e-01 5.209811e-01 -6.840407e-01 4.999354e-02 
1.488660e+01 6.747717e+00 5.046671e+00 -1.724869e+01 -1.199756e+01 -4.477250e+00 -2.505664e+00 -6.838690e-01 2.613186e+00 -1.274008e+00 -1.980799e+00 8.389209e-01 6.964988e-01 6.860352e-01 3.244976e-01 -1.316229e+00 -2.970092e+00 -2.560098e+00 1.919248e+00 -8.725009e-02 2.393589e+00 -1.326835e+00 -2.119366e+00 1.794813e+00 -8.971149e-01 5.077239e-02 
1.585066e+01 8.368552e+00 2.545216e+00 -1.982906e+01 -1.590631e+01 1.159892e+00 -4.985343e+00 2.832804e+00 -1.392410e+00 -3.708000e+00 3.408785e+00 -5.428440e+00 7.449547e-01 -4.873738e-02 3.645124e-02 -1.835116e+00 -2.494168e+00 -4.844098e-01 3.394965e+00 -1.159894e+00 2.707600e+00 -9.657366e-01 -1.453832e+00 1.185876e+00 -1.196370e+00 5.158298e-02 
1.456305e+01 7.544869e+00 1.516665e+00 -2.067105e+01 -1.392989e+01 3.082621e+00 -2.945712e+00 5.043720e+00 3.848033e-01 -6.081307e+00 5.131850e+00 -4.635850e+00 8.044509e-01 -5.814223e-01 -6.777138e-01 -1.816812e+00 -1.223251e+00 4.761620e-01 3.467916e+00 -6.856324e-01 2.597072e+00 -8.498858e-01 -2.029394e+00 6.890822e-01 -4.633472e-01 5.137618e-02 
1.431778e+01 6.086390e+00 -4.671489e-01 -2.273482e+01 -1.211931e+01 8.049585e+00 -7.085491e+00 9.262033e+00 -7.060456e-02 -7.346138e+00 2.373328e+00 -3.214369e+00 8.546704e-01 -9.519518e-01 -1.278115e+00 -1.871125e+00 -7.669443e-01 1.752385e+00 2.760760e+00 -9.530248e-02 1.186623e+00 -5.525537e-01 -2.036829e+00 -7.558885e-01 1.494220e+00 4.702984e-02 
1.274593e+01 4.500230e+00 -2.531206e+00 -2.191206e+01 -1.151025e+01 9.417482e+00 -4.883752e+00 9.086877e+00 -2.297146e+00 -9.601908e+00 1.982341e+00 -2.584851e+00 8.985218e-01 -8.966484e-01 -1.508726e+00 -1.778908e+00 -6.723620e-01 2.231437e+00 2.275621e+00 5.581827e-02 5.791330e-02 -1.599878e+00 -1.803656e+00 -1.264174e+00 2.287331e+00 4.040899e-02 
1.199946e+01 3.500300e+00 -4.786472e+00 -2.304327e+01 -8.354205e+00 1.179626e+01 -4.492836e+00 6.744339e+00 -2.814204e+00 -1.213185e+01 1.204098e+00 1.017162e+00 9.330685e-01 -8.920525e-01 -1.537341e+00 -1.582423e+00 -1.182596e-01 2.731366e+00 1.668697e+00 2.797472e-01 -1.131322e+00 -1.672887e+00 -1.297601e+00 -7.388794e-01 2.516234e+00 3.372578e-02 
1.123897e+01 1.294284e+00 -5.218213e+00 -2.387863e+01 -4.655257e+00 1.258739e+01 -3.962948e+00 6.592134e+00 -6.242786e+00 -1.270673e+01 -6.044065e-01 4.685038e+00 9.672968e-01 -6.540191e-01 -1.646943e+00 -1.381948e+00 5.309864e-01 3.039624e+00 1.463480e+00 -7.040905e-01 -1.336039e+00 -1.191396e+00 -4.316387e-01 -2.953718e-01 2.606908e+00 2.506382e-02 
1.061099e+01 2.654970e-03 -7.035763e+00 -2.234284e+01 -1.889977e+00 1.480812e+01 -6.147157e+00 4.852797e+00 -6.462221e+00 -1.228173e+01 -2.769536e-02 5.731855e+00 9.889118e-01 -6.283150e-01 -1.501288e+00 -1.251464e+00 1.431549e+00 2.625818e+00 1.167453e+00 -1.683775e+00 -1.144906e+00 -8.824053e-01 6.518130e-01 1.885753e-01 1.686097e+00 1.549451e-02 
1.017006e+01 -1.985663e+00 -8.316300e+00 -1.960735e+01 4.557517e-01 1.522896e+01 -7.577044e+00 3.352455e+00 -6.430120e+00 -1.168516e+01 1.121378e+00 8.092342e+00 9.959192e-01 -6.342549e-01 -1.188290e+00 -1.199139e+00 2.018691e+00 2.205404e+00 6.537021e-01 -2.197584e+00 -1.103407e+00 -4.583907e-01 1.487386e+00 5.278102e-01 7.052140e-01 7.272440e-03 
9.392338e+00 -2.366169e+00 -9.494751e+00 -1.802117e+01 2.219378e+00 1.631274e+01 -1.110466e+01 2.639650e+00 -7.132564e+00 -9.383570e+00 1.284082e+00 7.743993e+00 9.962298e-01 -6.314063e-01 -8.550299e-01 -9.013907e-01 2.123096e+00 1.747205e+00 -4.661331e-02 -2.005215e+00 -7.710103e-01 -1.151611e-01 1.739546e+00 4.817002e-02 -2.226505e-02 -7.387280e-04 
8.677023e+00 -3.462756e+00 -9.984416e+00 -1.594601e+01 4.317082e+00 1.510359e+01 -1.247211e+01 2.181674e+00 -8.199569e+00 -6.718886e+00 1.378756e+00 7.205039e+00 1.000000e+00 -5.034755e-01 -7.435317e-01 -6.841602e-01 2.118993e+00 1.357440e+00 -5.927862e-01 -1.773893e+00 -4.531814e-01 1.757784e-01 1.770124e+00 -3.224947e-01 -1.024064e+00 -5.186462e-03 
8.200482e+00 -3.533947e+00 -1.070866e+01 -1.355803e+01 4.915386e+00 1.463773e+01 -1.372569e+01 1.583136e+00 -6.153302e+00 -6.067137e+00 8.446574e-02 6.064181e+00 9.831778e-01 -2.588423e-01 -8.124138e-01 -5.451047e-01 2.242829e+00 1.036324e+00 -1.093829e+00 -1.158808e+00 -4.582339e-01 8.263438e-01 1.352412e+00 -6.943349e-01 -1.176859e+00 -8.936619e-03 
8.248613e+00 -5.119431e+00 -1.113015e+01 -1.124396e+01 5.894950e+00 1.310253e+01 -1.513599e+01 1.614805e+00 -6.040858e+00 -4.492754e+00 1.087123e-01 3.811927e+00 9.765129e-01 -1.029950e-01 -1.005228e+00 -9.262419e-02 2.016834e+00 9.088423e-01 -1.530542e+00 -6.775612e-01 -5.547002e-01 1.563429e+00 9.768610e-01 -9.233612e-01 -1.497425e+00 -1.089371e-02 
8.312331e+00 -5.599900e+00 -1.164741e+01 -9.158050e+00 6.612063e+00 1.184413e+01 -1.556676e+01 6.319149e-01 -4.080200e+00 -3.734578e+00 -1.552571e+00 3.556255e+00 9.632902e-01 -9.230036e-02 -1.110473e+00 5.038121e-01 1.696449e+00 7.193642e-01 -2.137656e+00 1.607536e-01 -6.590718e-01 1.841009e+00 7.434512e-01 -1.087895e+00 -1.678937e+00 -1.091763e-02 
8.106123e+00 -7.455919e+00 -9.978162e+00 -8.061826e+00 8.012955e+00 8.847680e+00 -1.493939e+01 -1.162169e-01 -1.418977e+00 -3.000861e+00 -2.419532e+00 9.718786e-01 9.554752e-01 -2.972261e-01 -9.926532e-01 9.095895e-01 1.840031e+00 9.034729e-03 -2.553334e+00 9.155872e-01 -4.823903e-01 2.236724e+00 7.933927e-02 -1.133408e+00 -1.727184e+00 -9.432221e-03 
7.810225e+00 -7.918068e+00 -8.765591e+00 -6.666853e+00 7.453204e+00 6.076878e+00 -1.302023e+01 -8.467125e-01 7.408015e-01 -3.095828e+00 -4.090886e+00 -9.104811e-01 9.391085e-01 -5.167648e-01 -6.583086e-01 1.022849e+00 2.320831e+00 -1.333115e+00 -2.362557e+00 1.088770e+00 -6.560896e-02 2.398357e+00 -8.722194e-01 -8.124722e-01 -1.588460e+00 -9.738940e-03 
7.013535e+00 -8.923614e+00 -8.023109e+00 -3.289401e+00 5.519553e+00 3.219488e+00 -1.183132e+01 -5.783272e-02 2.732260e+00 -4.415433e+00 -4.289170e+00 -2.590623e+00 9.414427e-01 -5.828070e-01 -3.425126e-02 9.732110e-01 2.432488e+00 -2.331943e+00 -2.077056e+00 1.065169e+00 7.402238e-01 1.442126e+00 -1.021284e+00 -8.483656e-01 -7.320408e-01 -1.365377e-02 
6.274802e+00 -8.157596e+00 -7.510688e+00 5.989468e-02 1.193191e+00 2.845435e+00 -1.167694e+01 2.746780e-01 5.835969e+00 -7.388390e+00 -4.680113e+00 -2.604793e+00 9.216118e-01 -4.359191e-01 4.617977e-02 1.426688e+00 1.861103e+00 -2.566082e+00 -1.936330e+00 1.206739e+00 1.050388e+00 7.261474e-01 -1.129363e+00 -1.259063e-01 -4.698859e-01 -1.439217e-02 
5.959800e+00 -7.507411e+00 -5.739558e+00 7.372407e-01 -5.167549e-01 7.811904e-02 -1.028519e+01 3.024207e+00 3.244071e+00 -5.960999e+00 -6.366746e+00 -1.841169e+00 8.959547e-01 -7.422876e-02 2.066545e-01 1.629699e+00 1.219659e+00 -2.585609e+00 -1.484744e+00 1.491944e+00 3.227315e-01 5.127791e-01 -9.626157e-01 -1.505818e-01 3.721402e-01 -1.877939e-02 
6.157497e+00 -8.395270e+00 -2.773925e+00 6.253434e-01 -2.359050e+00 -2.034090e+00 -7.759604e+00 2.864206e+00 4.115633e+00 -7.969859e+00 -3.681629e+00 -3.634637e+00 8.898916e-01 3.619429e-01 3.395378e-01 1.913776e+00 1.111427e+00 -2.811761e+00 -5.612673e-01 1.136584e+00 -4.597908e-01 5.921384e-01 -1.369949e+00 1.256202e+00 -7.741088e-02 -3.086102e-02 
6.701043e+00 -7.771503e+00 -2.242994e+00 2.526172e+00 -5.632372e+00 -1.764470e+00 -6.330273e+00 2.610605e-01 6.156323e+00 -8.937777e+00 -5.541321e+00 -2.149995e-01 8.634058e-01 7.771134e-01 6.135406e-01 2.997061e+00 1.969664e+00 -2.612823e+00 1.394223e-01 1.110010e+00 -1.623637e+00 -6.028183e-01 -6.060298e-01 1.673514e+00 -6.717609e-01 -5.738772e-02 
7.713894e+00 -6.327861e+00 3.099121e-01 4.722565e+00 -1.030780e+01 9.603932e-01 -7.971480e+00 -6.427025e-01 7.340535e+00 -1.274975e+01 1.188183e+00 -3.804932e+00 7.835811e-01 1.032616e+00 1.515643e+00 3.415514e+00 3.424606e+00 -3.281015e+00 -1.399821e-02 1.480562e+00 -2.673366e+00 -3.515943e+00 2.315189e+00 1.366846e+00 -9.495012e-01 -6.943353e-02 
9.067168e+00 -5.473413e+00 7.703827e+00 8.536952e+00 -9.606496e+00 -7.220111e-01 -4.629200e+00 -3.340525e+00 -1.382472e+00 -6.601204e+00 -4.340814e-01 -5.114826e+00 6.621714e-01 8.099575e-01 1.602214e+00 3.254148e+00 3.297518e+00 -2.794265e+00 -7.722169e-01 2.221070e+00 -2.637876e+00 -4.752200e+00 3.579211e+00 1.583428e+00 -1.608570e+00 -5.822221e-02 
1.013752e+01 -1.966103e+00 9.330233e+00 1.474299e+01 -1.677706e+01 -2.625310e+00 -1.207331e+00 -8.701832e+00 -9.694685e+00 2.437801e+00 5.989808e-01 -5.932230e+00 6.433412e-01 3.341316e-01 1.350784e+00 1.749542e+00 2.408571e+00 -1.965153e+00 -1.030172e+00 2.842667e+00 -2.394845e+00 -4.102515e+00 3.942998e+00 3.347309e-01 -5.089828e-01 -3.127225e-02 
9.539021e+00 -1.941310e+00 9.517587e+00 1.400355e+01 -1.636907e+01 -3.832703e+00 1.393004e+00 -8.898754e+00 -9.087069e+00 1.364503e+00 2.670421e+00 -7.194203e+00 6.424147e-01 -2.213415e-01 9.293278e-01 -1.451473e-01 7.603413e-01 -1.403893e+00 -2.142406e-01 2.179891e+00 -1.339535e+00 -1.351922e+00 1.743768e+00 6.307038e-01 -1.862711e-01 -5.098605e-03 
9.148626e+00 -1.339995e+00 8.150742e+00 1.403212e+01 -1.675228e+01 -2.635119e+00 3.230755e+00 -9.837810e+00 -9.319738e+00 2.982390e+00 1.309586e+00 -5.310158e+00 6.370982e-01 -4.393780e-01 -5.539398e-02 -6.782061e-01 -6.962377e-01 2.966374e-01 4.689215e-01 1.186793e+00 5.573878e-02 4.690146e-01 4.187157e-02 4.320281e-02 -8.591418e-02 -6.627441e-05 
8.454906e+00 -1.139828e+00 7.567836e+00 1.269409e+01 -1.663835e+01 -1.788310e+00 4.051214e+00 -9.470213e+00 -8.329554e+00 1.845343e+00 2.364135e+00 -6.357218e+00 6.397998e-01 -4.597610e-01 -4.404239e-01 -6.342710e-01 -8.010060e-01 5.687668e-01 9.507052e-01 3.768269e-01 7.152431e-01 5.413653e-01 -3.005307e-01 -3.874079e-02 -3.234807e-01 2.370036e-03 
8.482683e+00 -2.643814e+00 6.914078e+00 1.191653e+01 -1.515923e+01 -1.302899e+00 3.397528e+00 -8.137408e+00 -7.728370e+00 2.406739e+00 9.681379e-01 -6.780293e+00 6.443173e-01 -4.972228e-01 -9.216896e-01 -3.882570e-01 -5.264881e-01 8.916954e-01 9.684042e-01 -4.219020e-01 1.083644e+00 4.683590e-01 -5.550821e-01 -4.588590e-02 -6.264334e-01 6.988561e-03 
7.573187e+00 -3.491520e+00 6.964563e+00 1.105632e+01 -1.432176e+01 2.547135e-01 3.193752e+00 -6.172739e+00 -7.175926e+00 1.496758e-01 2.647441e+00 -8.076538e+00 6.506554e-01 -3.947128e-01 -1.213921e+00 -2.136462e-01 -1.670947e-01 1.045180e+00 7.277297e-01 -8.390480e-01 6.405843e-01 3.622080e-01 -6.957305e-01 -2.151389e-01 -7.375148e-01 1.031556e-02 
7.103372e+00 -4.772596e+00 6.511093e+00 1.221857e+01 -1.345210e+01 1.185391e+00 1.549976e+00 -6.068326e+00 -7.554757e+00 1.054814e+00 9.385033e-01 -7.582664e+00 6.666132e-01 -9.031053e-02 -1.402842e+00 1.554666e-01 1.003055e-01 7.500294e-01 9.064918e-01 -1.358955e+00 6.137646e-01 -1.899492e-01 -6.707838e-01 -3.964297e-01 -8.194235e-01 8.023036e-03 
7.170997e+00 -6.145043e+00 6.701097e+00 1.170760e+01 -1.226602e+01 6.061938e-01 7.797501e-01 -7.301833e+00 -6.605320e+00 -9.573469e-01 1.303258e+00 -9.643606e+00 6.802297e-01 1.004788e-01 -9.898927e-01 1.782391e-01 7.611503e-02 5.243721e-01 4.562842e-01 -1.200117e+00 3.542500e-01 -4.962121e-01 -7.854123e-01 -1.047188e+00 -6.815092e-01 2.265847e-03 
8.232225e+00 -8.331264e+00 7.823144e+00 1.209241e+01 -1.243696e+01 3.053819e+00 -2.190245e+00 -4.504038e+00 -8.963419e+00 -3.936687e-01 -3.419192e-01 -1.009388e+01 6.696453e-01 2.108414e-02 -2.955014e-01 2.019005e-02 -2.953329e-02 3.527712e-01 2.848523e-02 -3.966127e-01 -2.036206e-01 -6.302719e-02 -1.315205e+00 -1.028009e+00 -7.757207e-01 -6.068408e-03 
7.511154e+00 -6.661649e+00 7.199734e+00 1.149997e+01 -1.220747e+01 1.601921e+00 -9.367204e-01 -5.183633e+00 -8.952656e+00 -3.053144e+00 -1.948287e+00 -1.022848e+01 6.604686e-01 -1.010580e-01 3.234515e-01 -1.470120e-01 -1.799608e-01 3.448497e-01 8.189783e-02 -4.278920e-01 1.246918e-01 -1.405623e-01 -7.962398e-01 -1.653280e+00 -7.456141e-01 -1.517251e-02 
7.038714e+00 -5.991800e+00 6.362725e+00 1.217471e+01 -1.171752e+01 8.299534e-01 4.251475e-01 -8.145529e+00 -6.696225e+00 -4.473312e+00 -2.575771e+00 -1.116883e+01 6.461517e-01 1.201010e-02 6.732377e-01 -4.252395e-01 -5.217730e-01 3.831033e-01 -2.741243e-01 -4.532393e-01 4.504468e-02 -1.499468e-01 -3.909410e-01 -1.572946e+00 -3.532053e-01 -2.256963e-02 
7.262463e+00 -5.697518e+00 6.696247e+00 1.076664e+01 -1.090149e+01 2.127616e+00 -2.667406e+00 -4.857629e+00 -8.441729e+00 -2.898724e+00 -5.846213e+00 -1.283420e+01 6.161139e-01 3.901268e-01 9.833382e-01 -7.430161e-01 -5.890449e-01 7.759408e-01 -1.013365e-01 -1.251366e+00 7.903311e-01 -2.727433e-01 3.468237e-01 -8.081651e-01 -3.253779e-01 -3.702394e-02 
8.416622e+00 -5.447142e+00 5.948690e+00 9.850211e+00 -1.117443e+01 1.420350e+00 -3.591098e+00 -4.441817e+00 -9.968616e+00 -2.425584e+00 -6.257687e+00 -1.055704e+01 5.789745e-01 2.002564e-02 1.375956e+00 3.389380e-01 -1.789468e+00 1.834402e+00 -5.604811e-01 -6.739562e-01 2.684783e+00 -5.792682e-01 4.776363e-02 -6.916312e-01 9.895229e-01 -5.351890e-02 
8.772835e+00 -2.017287e+00 3.691670e+00 9.716996e+00 -8.599308e+00 8.000398e-01 -5.185430e+00 -3.083833e+00 -8.680177e+00 -2.342890e+00 -4.148155e+00 -1.216126e+01 5.089375e-01 -4.614009e-01 1.102515e+00 1.389787e+00 -2.282940e+00 3.132850e+00 -1.163054e+00 1.106198e+00 3.731724e+00 -3.324723e-01 -1.053826e+00 -8.302882e-01 1.953070e+00 -4.826405e-02 
6.383657e+00 -9.521359e-01 9.559703e+00 3.752198e+00 -3.696596e+00 -1.308664e+00 -1.685621e+00 4.391485e+00 -9.473342e+00 -4.512411e+00 -6.882957e+00 -6.557685e+00 4.321454e-01 -1.028859e+00 1.307588e+00 3.555262e-01 -8.560984e-01 3.946277e+00 -7.963865e-01 7.509955e-01 3.839100e+00 1.247198e+00 -3.445763e+00 -9.124821e-01 3.351100e+00 -4.783698e-02 
5.971941e+00 -2.432446e+00 1.183967e+01 2.400952e+00 1.023847e+00 -2.323148e+00 1.910847e+00 9.384338e+00 -1.035173e+01 -7.124439e+00 -9.685019e+00 -5.068526e+00 4.482082e-01 -9.446170e-01 1.259671e-01 -1.623978e+00 -2.644680e-01 4.646691e+00 3.525716e-01 1.035496e+00 3.771959e+00 3.099821e+00 -2.548426e+00 -4.891096e-01 2.310444e+00 -5.827313e-02 
4.672773e+00 1.298375e+00 3.652319e+00 9.227741e+00 3.745375e+00 -9.999887e-01 -3.384259e+00 8.519595e+00 -2.896853e+00 -1.726363e+01 -8.051665e+00 2.652088e+00 3.701542e-01 -6.600501e-01 -6.595523e-01 -3.300021e+00 9.015247e-01 3.129128e+00 6.106144e-01 1.707470e-03 2.138160e+00 3.262339e+00 -2.044327e+00 5.457996e-01 2.068102e+00 -6.822269e-02 
4.905190e+00 -2.512708e+00 -1.474525e+00 5.656885e+00 1.091316e+01 2.408560e+00 8.413694e-01 1.371190e+01 3.530684e+00 -8.709415e+00 -6.009349e+00 -5.213929e+00 2.485675e-01 -8.891033e-01 -9.026794e-01 -3.128293e+00 -2.676362e-01 1.003059e+00 2.302077e-01 4.333713e-02 1.003979e+00 3.544992e+00 -6.995382e-01 2.109382e+00 1.957172e+00 -8.572552e-02 
3.616781e+00 -4.209766e+00 -2.833010e-01 6.631855e+00 7.004385e+00 -6.214458e-01 -1.142345e+00 1.291850e+01 -1.028516e-01 -1.394156e+01 -5.991794e+00 3.855529e+00 1.908523e-01 -1.075683e+00 -1.391583e+00 -1.278500e+00 -1.917387e+00 -3.166936e-01 -1.475821e-01 1.189128e+00 -4.941444e-01 1.363429e+00 1.436554e+00 2.409720e+00 1.048263e+00 -7.661457e-02 
2.054421e+00 -4.191772e+00 -1.833982e+00 2.360715e+00 4.409638e+00 -1.361381e+00 1.006576e+00 1.220478e+01 5.976229e+00 -1.228316e+01 -1.680456e-01 4.115612e+00 1.092315e-01 -1.231474e+00 -2.605218e-01 1.071229e-01 -8.302835e-01 -1.388961e+00 -8.995868e-01 -7.964311e-02 -2.887938e+00 -7.753992e-01 -3.063400e-01 8.647090e-01 1.787014e+00 -5.488184e-02 
7.197442e-01 -4.820006e+00 -2.560450e+00 1.288893e+00 5.413670e+00 1.470711e-01 2.478776e+00 6.802435e+00 2.697520e+00 -8.293982e+00 1.076285e+00 3.228633e+00 5.674934e-02 -8.925903e-01 4.055233e-01 6.570685e-02 -8.385944e-01 -1.393358e+00 -1.391460e+00 3.446965e-01 -2.115645e+00 -7.334253e-01 1.340738e+00 -8.004256e-02 -4.687776e-01 -4.461930e-02 
1.963410e-01 -3.510197e+00 1.996636e-01 4.176949e+00 4.763714e+00 -2.473632e+00 -1.367406e+00 2.330251e+00 -1.746497e+00 -1.306491e+01 -5.219843e+00 4.034591e+00 4.120976e-02 -6.637768e-01 8.824522e-01 -1.868279e-01 5.408328e-02 -5.838478e-01 -1.403480e+00 4.042694e-01 -9.682246e-01 -3.630559e-01 9.180166e-01 -2.388139e+00 -1.253679e+00 -3.471063e-02 
8.286953e-02 -2.522938e+00 -9.715896e-01 1.530766e+00 -1.394436e-01 -7.022622e+00 1.768128e+00 7.277545e+00 9.138536e-02 -6.847000e+00 -3.866107e+00 1.552151e+00 1.766741e-03 -6.337672e-01 1.484345e+00 -2.603987e-01 1.862369e-01 -6.235064e-01 -5.104122e-01 1.787717e+00 1.261002e+00 1.200291e+00 1.627844e+00 -2.677421e+00 -1.292813e+00 -2.782194e-02 
-9.460258e-01 -9.280457e-01 -3.562552e+00 2.510195e+00 4.266956e+00 -4.793934e+00 3.383246e+00 7.126102e+00 5.464017e+00 -8.416571e+00 -9.637543e+00 -1.314542e+00 -3.683031e-02 -7.837168e-01 1.280758e+00 -6.790597e-01 -8.981905e-02 2.795896e-01 1.977310e+00 3.081136e+00 2.034812e+00 1.927409e+00 2.933203e+00 -7.717704e-01 -9.219248e-01 -2.576743e-02 
-1.877909e+00 1.310644e+00 -1.981336e+00 3.053455e+00 2.544517e+00 -1.244839e+00 9.042036e+00 1.070952e+01 5.093718e+00 -2.478927e+00 -1.010197e+01 -5.608664e-01 -4.334033e-02 -7.756491e-01 1.150317e+00 6.527284e-01 3.477283e-01 1.131580e+00 2.966651e+00 3.066176e+00 9.615728e-01 5.995661e-01 1.778606e+00 2.226683e-01 -6.620844e-02 -2.143832e-02 
-2.741854e+00 9.768019e-01 -2.690762e+00 2.966509e+00 4.819682e+00 4.524024e+00 1.040132e+01 1.078832e+01 5.389380e+00 -5.829239e-01 -5.960764e+00 4.814761e-01 -6.507385e-02 -5.839356e-01 9.377556e-01 9.987636e-01 -2.107929e-01 5.017061e-01 2.955975e+00 2.519297e+00 5.724594e-01 8.219957e-01 2.573332e+00 2.643944e+00 1.252699e+00 -1.493918e-02 
-2.897462e+00 2.276223e+00 1.856157e+00 3.041250e+00 5.242092e+00 3.151654e+00 1.358998e+01 1.025430e+01 3.126534e+00 -1.870795e+00 -4.591155e+00 3.231002e-01 -9.130311e-02 -4.284192e-01 6.454609e-01 6.621703e-01 3.260343e-02 8.588266e-01 1.457791e+00 1.417674e+00 -2.804992e-01 1.750678e+00 2.115267e+00 1.751832e+00 -1.700966e-01 -1.310682e-02 
-3.355927e+00 3.277942e+00 -4.874804e-01 1.462332e+00 5.426699e+00 7.787693e+00 1.370576e+01 1.021601e+01 1.055759e+01 4.146026e+00 8.267691e-01 4.506968e+00 -8.754480e-02 -4.873470e-01 4.106565e-01 6.089160e-01 -3.571661e-01 4.271053e-01 -3.187221e-01 -8.366227e-01 -1.082019e+00 1.475906e+00 1.669042e+00 4.652957e-01 -8.461713e-01 -6.360424e-03 
-3.712968e+00 3.387378e+00 2.278750e-01 3.968560e+00 6.535142e+00 4.412284e+00 1.447819e+01 9.593181e+00 1.126300e+01 5.732934e+00 -4.736578e+00 -3.424095e+00 -9.763896e-02 -8.898362e-01 -2.700578e-01 -5.407313e-01 -7.294210e-01 -3.813515e-01 -1.464507e+00 -2.335117e+00 -1.875009e+00 5.594860e-01 5.389495e-01 -6.917707e-01 -9.317196e-01 -5.015624e-03 
-4.770836e+00 2.474507e+00 1.167960e+00 7.170240e-01 6.308684e+00 2.300099e+00 5.774099e+00 5.708787e+00 8.700675e+00 3.960421e+00 -3.561574e+00 -1.875783e+00 -9.370804e-02 -9.680880e-01 -4.385188e-01 -3.773568e-01 -8.324398e-01 -8.853785e-01 -2.708002e+00 -2.144601e+00 -2.997488e+00 -2.641481e+00 -1.034705e+00 -1.175075e+00 -6.716123e-01 -8.551061e-03 
-6.639189e+00 1.327652e+00 -1.675220e+00 -2.332008e-01 2.894342e+00 -1.427082e+00 5.880219e+00 3.132866e+00 6.852421e+00 9.167547e-01 -5.855837e+00 -1.144122e+00 -1.132996e-01 -6.482561e-01 -4.442764e-03 -5.207664e-01 -7.150862e-01 -6.291820e-01 -1.571377e+00 -1.271126e+00 -2.663505e+00 -2.643950e+00 4.409962e-02 8.455395e-01 7.917396e-01 -6.065833e-03 
-6.733257e+00 2.115211e+00 -1.422717e+00 -5.989866e-01 2.820206e+00 -2.832634e+00 7.281739e+00 -1.541272e+00 -4.445274e-01 1.380592e+00 -4.488976e+00 8.919835e-03 -1.224698e-01 1.382450e-01 2.284628e-01 -9.824095e-01 -1.288291e-01 -7.318225e-01 -8.254096e-01 3.821791e-01 -7.931169e-01 -3.645209e-01 1.958484e+00 1.451137e+00 6.116350e-01 -1.993024e-03 
-5.973038e+00 3.544812e+00 -1.080619e+00 1.051135e+00 5.133471e+00 -8.782351e-01 7.368738e+00 -9.931517e-02 2.615856e+00 7.243346e+00 -4.517955e-02 -4.077485e-01 -1.135873e-01 2.156568e-01 5.643332e-01 -1.654921e-01 -2.453230e-02 -3.285855e-01 -1.508774e-01 -9.681332e-02 -1.730765e-01 -2.104563e-01 1.693617e+00 1.137495e+00 -6.598841e-02 8.102179e-03 
-4.412686e+00 2.508241e+00 -4.041389e+00 -5.692891e-01 1.530007e+00 -2.101373e+00 6.940736e+00 3.359293e+00 8.996353e+00 1.058955e+01 7.887838e-01 8.142052e-01 -1.035293e-01 -3.132207e-01 -1.253160e-01 -3.973813e-01 2.572185e-01 -4.711551e-01 -2.815777e-01 -6.483340e-01 3.664366e-02 3.690095e-01 1.351967e-01 3.445043e-02 -2.020833e-01 1.317362e-02 
-6.721190e+00 3.952803e+00 -1.193344e+00 -3.707111e-01 1.896514e+00 -2.547099e+00 5.566654e+00 -1.827989e-01 1.079700e+00 4.780364e+00 -2.807243e+00 -1.876707e+00 -8.225894e-02 -1.499210e-01 -8.996783e-02 -1.792863e-01 -2.415659e-01 -7.501458e-01 -1.843313e-01 -1.356458e+00 -8.523941e-01 -1.401411e-01 -7.985678e-01 -1.110008e+00 -2.830002e-01 7.497132e-03 
-7.925284e+00 1.284636e+00 -3.353261e+00 1.398029e+00 2.082909e+00 -3.406090e+00 4.941111e+00 -1.316312e+00 2.168599e+00 3.288067e+00 -2.935693e+00 -2.670177e-01 -7.226586e-02 2.665285e-01 3.685707e-01 1.783069e-01 7.225789e-01 1.312208e+00 5.163152e-01 -6.606641e-01 -8.774022e-01 -9.650825e-01 -1.575596e+00 -1.319351e+00 -6.024777e-01 8.937955e-04 
-4.966344e+00 3.706776e+00 -2.321114e+00 -1.140354e+00 1.106292e+00 -1.147533e+00 1.586262e+00 -2.023484e+00 5.329028e+00 6.901247e+00 -3.732981e+00 -1.282138e+00 -9.173334e-02 6.766760e-01 -1.350415e-01 -2.407909e-01 3.246939e-01 1.085953e+00 1.158125e+00 2.620250e-01 7.072822e-01 8.949250e-01 3.039882e-01 2.708488e-01 1.182933e-01 -9.347463e-03 
-3.957467e+00 4.474109e+00 -2.585969e+00 3.428427e+00 8.486156e+00 -2.195801e-01 5.627611e+00 -1.073759e-01 2.046276e+00 1.651127e+00 -5.345104e+00 -2.495468e+00 -9.432316e-02 5.154827e-01 6.481713e-01 9.992472e-01 9.373732e-01 5.104383e-01 1.267421e+00 -3.261385e-02 8.281586e-01 -4.099448e-01 2.038513e-01 4.880337e-01 1.001767e+00 1.009929e-03 
-5.321719e+00 1.682859e+00 -2.780945e+00 2.375595e-01 4.124657e+00 1.650270e+00 6.533529e+00 2.749144e+00 5.615486e+00 7.118775e+00 -2.482929e-01 -1.710153e-01 -1.179676e-01 -1.175447e-01 2.329930e-01 1.147908e+00 9.416035e-01 -1.588099e-01 8.984392e-01 1.379105e+00 1.389039e+00 -4.262230e-01 4.055502e-01 7.583407e-01 9.719843e-01 4.621601e-03 
-5.170183e+00 5.537451e+00 1.872891e+00 5.395937e+00 3.125917e+00 1.532113e+00 2.304408e+00 4.381671e-01 -2.435470e-02 4.198559e+00 -2.237868e+00 4.186256e+00 -5.409908e-02 -4.382269e-01 2.073552e-01 6.139511e-01 -3.567979e-01 -4.549829e-01 1.609341e+00 1.826404e+00 5.227354e-01 -6.509390e-01 1.123899e+00 7.626492e-01 6.503717e-01 4.410184e-03 
-4.947709e+00 4.340070e+00 1.188997e+00 2.583908e+00 2.992362e+00 2.468817e+00 1.014339e+01 4.648942e+00 4.233228e+00 7.655282e+00 -1.494895e+00 2.369207e-01 -8.873737e-02 -3.318156e-01 5.079945e-01 8.889700e-01 -3.689784e-01 2.164617e-01 1.846186e-01 1.241811e+00 -7.543874e-02 -7.467409e-01 2.545825e-01 7.335116e-01 2.434325e-03 -2.141643e-03 
-6.335607e+00 4.182280e+00 -1.501184e+00 4.712632e-01 6.777390e+00 7.417850e+00 1.295470e+01 1.556402e+00 -5.172901e-01 7.002370e+00 -9.085565e-01 5.524225e-01 -8.688736e-02 -3.556545e-01 2.380220e-01 6.325530e-01 -4.292343e-02 4.398549e-01 2.249423e-01 1.130262e+00 1.540173e+00 1.380832e+00 3.941117e-01 1.278330e+00 -4.866334e-01 -1.127434e-03 
-6.398086e+00 4.900417e+00 3.350943e+00 8.550047e-01 3.381229e+00 -3.695054e-01 7.417434e+00 1.812833e+00 2.128249e+00 6.989782e+00 2.754609e+00 1.658073e+00 -1.122817e-01 -2.438778e-01 6.479743e-01 1.098724e+00 1.249824e+00 2.630162e-01 -1.275268e-02 -5.285399e-01 1.781697e+00 1.584772e+00 -2.807332e-01 9.985431e-01 2.101275e-01 1.204698e-02 
-6.223268e+00 6.447387e+00 3.954683e+00 6.045772e+00 5.130758e+00 4.075986e+00 9.318693e+00 9.557085e+00 7.932295e+00 6.501867e+00 2.029028e+00 1.042513e+00 -4.796410e-02 3.994961e-02 6.077185e-01 1.151548e+00 1.633979e+00 -1.543734e-01 -2.238239e-01 -5.370759e-01 2.374562e+00 2.270322e+00 -1.488920e-01 5.149589e-01 3.646208e-02 1.421641e-02 
