-1.171192e+01 5.905983e-01 -1.831775e+00 5.340595e-01 1.035196e+00 1.079131e+00 4.181444e+00 -2.919981e+00 3.955219e+00 5.745008e+00 7.311027e+00 6.100071e+00 3.017175e-02 4.043148e-01 -9.125371e-02 3.856671e-02 5.882406e-01 -3.768360e-01 -7.026073e-01 5.096291e-01 1.348955e-01 6.415343e-01 8.586743e-02 -4.426533e-01 -1.543148e-01 -5.052865e-03 
-9.301401e+00 7.946640e-01 -5.524969e-01 5.024416e+00 2.139441e+00 -3.058344e+00 6.776693e+00 9.602594e-02 4.586671e+00 5.027039e+00 2.770672e+00 6.029814e+00 1.389253e-02 5.954372e-01 -1.331540e-01 -6.084572e-01 -2.638823e-01 -4.371339e-01 -6.325769e-01 5.687932e-02 -8.858181e-01 2.200506e-02 -1.958064e-01 -1.196950e+00 8.666940e-01 -7.802016e-03 
-1.089561e+01 3.229690e-02 -2.278581e+00 1.230084e+00 -1.401106e+00 -3.651677e-01 5.431965e+00 -3.753507e+00 6.847165e+00 6.533330e+00 7.367937e+00 5.363626e+00 1.304704e-02 1.766172e-01 -8.503403e-02 -1.242235e-02 1.590517e-01 -3.574023e-01 -3.926539e-03 5.530857e-01 4.657016e-01 1.749861e+00 2.110128e-01 -4.308627e-01 1.973362e+00 -3.140903e-03 
-9.142891e+00 2.039788e-01 -4.650659e+00 -1.133364e+00 6.767768e-02 -1.361604e+00 3.840580e+00 -6.932309e+00 2.619272e+00 4.371815e+00 1.297822e+00 1.080176e+01 -2.759695e-04 -2.529982e-01 -2.291176e-01 5.616030e-01 -2.355838e-01 -3.214281e-01 1.375286e+00 -2.496202e-01 -4.123644e-01 1.754284e+00 2.061498e-01 -6.364923e-01 9.840954e-01 2.568859e-03 
-1.090809e+01 4.607708e-01 1.551936e-01 4.408208e+00 2.840662e-01 2.111287e-01 8.414929e+00 2.922694e+00 1.368822e+01 7.127684e+00 5.893138e+00 1.358090e+01 2.155149e-02 6.705475e-03 5.459280e-02 7.416833e-01 6.736237e-01 5.609706e-01 6.676905e-01 5.890131e-02 1.256791e+00 1.211906e+00 -7.848397e-01 -4.039025e-01 -2.334501e-01 5.503553e-03 
-1.056015e+01 -5.651607e-01 1.038630e+00 2.257435e+00 -3.102857e-01 3.529939e+00 4.037110e+00 -5.303897e+00 9.937562e+00 5.760611e+00 3.256106e-01 6.841651e+00 2.248460e-02 -4.023386e-01 1.083202e-01 7.197479e-01 7.430564e-01 9.792617e-01 8.717729e-01 -4.751388e-01 5.530456e-01 3.215884e-01 -3.605308e-02 8.573116e-01 -1.697702e+00 3.775805e-03 
-1.015345e+01 6.898307e-01 -1.414809e+00 2.902803e+00 1.592728e+00 5.275133e-01 5.628206e+00 1.716241e+00 9.247550e+00 1.914734e+00 5.834530e+00 6.176432e+00 2.918452e-02 -2.349453e-02 1.239449e-01 -1.059464e+00 -6.937717e-01 1.459502e+00 8.004085e-01 -6.149602e-01 -2.076999e-01 -1.250914e+00 -4.651504e-02 9.330521e-01 -2.184850e+00 -1.548839e-03 
-1.153190e+01 6.310499e-01 -2.669177e-01 3.334620e+00 4.309655e+00 2.839068e+00 2.858248e+00 -3.563854e+00 6.447551e+00 6.798025e+00 5.613684e+00 6.015490e+00 1.478654e-02 -2.093830e-02 4.622216e-02 -1.418888e+00 -3.255938e-01 1.497096e+00 3.290246e-01 8.187278e-02 2.885402e-01 -1.102266e+00 -3.117259e-01 1.378563e+00 -3.721475e-01 -2.598637e-03 
-1.053968e+01 4.823897e-01 -4.489354e+00 4.007578e-01 5.271605e+00 4.558607e+00 5.929560e+00 1.014174e+00 9.178660e+00 6.376402e+00 7.914361e+00 3.069733e+00 1.765633e-02 1.611267e-01 9.270220e-02 -4.980757e-01 -2.810293e-01 4.649330e-01 3.804387e-01 -5.880399e-02 -1.390375e+00 -1.541747e+00 -6.381845e-02 -4.279290e-01 3.036968e-01 -1.644850e-03 
-1.047172e+01 -2.303295e-01 -4.518538e+00 1.880489e+00 5.335758e+00 3.159515e+00 4.295797e+00 -3.510162e+00 4.460677e+00 1.971147e+00 6.178511e+00 6.534263e+00 1.525551e-02 4.802473e-01 1.607143e-02 1.034860e-01 -1.698570e-01 -7.532424e-01 -9.534651e-01 -2.162100e-01 -4.757586e-01 -1.536523e+00 -1.502319e-01 1.095902e+00 2.134079e+00 -1.344997e-03 
-9.877905e+00 1.584031e+00 -1.779377e+00 2.224722e+00 3.404342e+00 2.269484e+00 4.615412e+00 -5.262481e+00 2.532252e+00 4.009080e+00 3.412472e+00 7.435530e+00 2.072579e-02 -6.208801e-02 1.490099e-01 1.474641e+00 7.630051e-01 -2.966497e-01 -9.266248e-01 -9.764265e-01 3.894011e-01 4.894175e-02 9.046382e-01 1.473274e-01 1.572318e+00 3.315866e-04 
-9.461557e+00 1.605862e-01 -1.104476e+00 1.573353e+00 1.477074e+00 -7.836953e-01 2.434272e+00 -2.804320e+00 2.088139e+00 7.230526e+00 1.334414e+01 1.450299e+01 6.526828e-03 -1.385055e-01 -1.803323e-01 3.007196e-01 -3.526823e-01 -5.294729e-01 -5.285476e-01 -1.723033e-01 2.151411e+00 1.887222e+00 2.253308e+00 -4.928174e-02 2.785480e-03 -4.072535e-03 
-1.135521e+01 1.031982e+00 1.176822e+00 4.369351e+00 5.717698e+00 1.897089e+00 1.978190e+00 2.608258e+00 1.060964e+01 8.269903e+00 5.068185e+00 6.946963e+00 2.367860e-02 -9.332619e-02 -2.302528e-01 -5.917985e-01 -8.480834e-01 -2.938137e-01 2.215064e-01 1.361654e+00 1.741576e+00 1.437698e+00 6.329125e-01 -6.732038e-01 -9.250709e-01 -5.581915e-03 
-1.042560e+01 -8.559660e-01 -4.493040e+00 -9.552373e-01 1.531715e+00 7.029748e-01 4.752892e+00 3.311523e+00 9.858093e+00 1.110728e+01 5.104246e+00 6.792474e+00 -6.583571e-03 -1.456736e-01 4.351947e-01 -7.169901e-01 -6.845932e-01 -1.080460e+00 4.736861e-01 2.389345e+00 1.080886e+00 -6.070614e-04 -8.929783e-01 -9.908262e-01 -4.926929e-01 3.636235e-03 
-9.862514e+00 9.410436e-01 -3.044088e+00 -7.513998e-01 1.907953e+00 2.633681e+00 1.026437e+01 3.874784e-01 5.835763e+00 5.235268e+00 4.166400e+00 6.665431e+00 -6.285906e-04 3.824217e-01 6.726714e-01 -4.965603e-01 -1.316071e-01 -1.343318e+00 -5.533056e-01 1.551203e+00 5.314660e-02 -1.153984e+00 -1.157912e+00 4.834970e-01 7.835982e-01 4.597384e-03 
-1.093627e+01 2.382029e+00 -2.578971e+00 7.107627e-01 -2.020354e+00 1.216439e+00 1.023791e+01 3.710499e+00 4.472041e+00 4.282953e+00 8.840899e+00 1.218029e+01 3.686160e-02 4.160442e-01 6.154324e-01 3.288793e-01 7.531096e-01 -4.360192e-01 -2.157784e-03 4.204388e-01 -1.912538e-01 -4.265748e-01 -9.481071e-01 8.312041e-01 -1.606694e-02 6.561667e-03 
-9.187763e+00 2.776341e+00 -2.263014e+00 2.878315e+00 7.771412e-01 -1.126171e+00 6.991699e+00 2.674503e+00 7.532743e+00 5.892507e+00 5.617343e+00 8.171047e+00 2.494293e-02 6.974079e-01 -9.552762e-02 -1.422840e-01 1.779113e-01 1.238112e-01 -5.438018e-01 -1.561591e+00 -5.896124e-01 -4.542404e-01 -1.998623e-01 -2.452120e-01 -7.189052e-01 1.159310e-03 
-8.682755e+00 1.303548e+00 -3.239181e+00 9.954532e-01 -8.297515e-02 2.572112e+00 8.491423e+00 1.211742e+00 6.876729e+00 6.038121e+00 8.534795e+00 5.959331e+00 1.343900e-02 7.289547e-01 -4.090360e-01 2.375321e-01 7.972014e-02 9.345853e-01 6.678234e-02 -8.580036e-01 -8.881957e-01 -1.415243e+00 -1.281314e+00 -2.010485e+00 -2.017358e+00 -3.097260e-03 
-7.502233e+00 1.002646e+00 -3.425403e+00 -4.188523e-03 1.558319e+00 -7.631648e-01 3.329660e+00 -1.311205e+00 2.362217e+00 3.358372e+00 3.093392e+00 6.181383e+00 1.687926e-02 3.362151e-01 -3.141686e-02 7.589110e-01 -1.520928e-01 2.129553e-01 -7.433648e-02 8.521948e-02 -3.714624e-01 -2.290756e+00 -1.625424e+00 -1.194257e+00 -2.140813e-01 -1.896274e-03 
-8.134262e+00 1.223697e+00 -8.101162e-01 2.550615e+00 2.261983e+00 1.368847e+00 7.778907e+00 1.262374e+00 -1.891136e-02 -8.565476e-01 5.044746e-02 3.088331e+00 2.540714e-02 7.758719e-01 1.095426e+00 -1.038687e+00 -4.500347e-01 -1.956638e-01 -9.103281e-01 -8.566208e-01 -1.034594e+00 -2.151120e+00 -1.807772e+00 -5.191991e-01 -1.067322e+00 3.684979e-02 
-7.780933e+00 2.659182e+00 3.170092e-01 1.340271e+00 6.694385e-01 -8.962215e-01 7.774054e+00 7.918744e-01 -4.732168e-01 1.212723e+00 3.888229e+00 8.536141e+00 9.477496e-03 9.644986e-01 1.634428e+00 -1.912093e+00 -2.819493e-01 -7.921734e-01 -1.502592e+00 -1.106310e+00 -8.206745e-01 -3.070448e+00 -2.606987e+00 5.444835e-01 -3.442350e+00 7.854050e-02 
-4.664045e+00 5.952412e+00 -1.030382e+01 -1.926950e+00 -6.168534e-01 -1.913000e+00 1.986121e+00 -5.012770e+00 -2.461154e+00 -1.927917e+00 5.541380e+00 -5.546565e-01 2.013888e-01 1.913037e+00 2.407116e+00 1.847157e-01 2.189353e-01 -4.294469e-01 -1.962906e+00 -3.127627e+00 -2.454166e+00 -3.471450e+00 -2.768078e+00 -1.083075e+00 -3.681398e+00 6.396446e-02 
-4.414849e+00 6.810429e+00 -8.239014e+00 8.248475e-01 -9.631293e-01 -6.635201e+00 6.945033e-01 -2.277006e+00 -1.176890e+01 -9.140878e+00 3.070343e+00 -9.208872e+00 3.215909e-01 3.514664e+00 3.259041e+00 2.336018e+00 -6.976250e-01 -1.521566e+00 -2.342614e+00 -3.350567e+00 -2.978571e+00 -1.669428e+00 -2.566438e+00 -3.074754e+00 -3.011184e+00 7.592539e-02 
-2.521186e-01 1.118365e+01 4.391473e+00 3.903003e+00 9.310327e-01 -5.576194e+00 -4.319452e+00 -9.474015e+00 -1.172832e+01 -9.520139e+00 -4.955982e+00 -6.446153e+00 1.891727e-01 3.998736e+00 2.689149e+00 5.173745e+00 -2.368532e+00 -2.622289e+00 -1.596024e+00 -4.167638e+00 -2.517504e-01 1.485088e+00 -1.561024e+00 -1.956793e+00 1.096344e-02 6.358244e-02 
7.586426e+00 1.633877e+01 4.649453e+00 -5.062831e+00 -7.712334e+00 -1.077769e+01 -5.825995e+00 -1.187036e+01 -4.186773e+00 -7.823354e+00 -6.236858e+00 -3.574033e+00 3.952125e-01 4.479654e+00 1.889334e+00 1.842631e+00 -3.245828e+00 -2.495205e+00 -1.748051e+00 -3.077495e+00 7.462867e-01 3.778882e+00 4.695875e-01 -4.129977e-01 2.286868e+00 7.460768e-02 
9.328997e+00 1.463399e+01 9.120670e+00 -1.082577e+01 -1.035370e+01 -7.821872e+00 -1.559182e+01 -1.474847e+00 1.173223e+00 -1.039180e+01 4.110179e-01 -3.317258e+00 4.824902e-01 3.358377e+00 -2.125472e-01 -2.076946e+00 -3.090430e+00 -1.788560e+00 -2.078134e+00 -1.729657e+00 3.228410e+00 2.411098e+00 5.089091e-01 1.034104e+00 2.193669e+00 1.055289e-01 
1.319286e+01 1.453193e+01 -1.390455e+00 -8.039906e+00 -7.796791e+00 -1.425261e+01 -9.056789e+00 -2.545156e+00 6.747382e-01 -6.357111e+00 -1.678145e+00 6.610231e-01 5.479705e-01 1.752208e+00 -1.984254e+00 -2.702045e+00 -1.969674e+00 -8.936214e-02 -2.768599e-01 -8.130492e-01 3.805772e+00 -7.413460e-01 7.087995e-01 7.420808e-01 1.316423e+00 8.097814e-02 
1.373655e+01 1.102433e+01 -2.973301e+00 -1.006061e+01 -7.969539e+00 -1.422940e+01 -1.135234e+01 2.005435e+00 -2.103584e+00 -7.708714e+00 -2.064819e+00 2.404664e+00 6.404383e-01 1.151189e+00 -2.716696e+00 -2.473912e+00 -2.353326e+00 -3.190967e-01 1.256629e+00 1.112131e+00 2.563659e+00 -2.308620e+00 5.556251e-01 4.385401e-01 6.844000e-01 7.918075e-02 
1.414369e+01 8.222322e+00 -2.813785e+00 -1.529378e+01 -9.351224e+00 -8.958229e+00 -1.201098e+01 5.418361e+00 -6.255100e+00 -5.620898e+00 -1.288536e+00 1.471186e-01 7.211292e-01 2.655612e-01 -3.414731e+00 -6.197330e-01 -3.357186e+00 -1.073740e+00 3.355192e+00 1.042672e+00 2.458997e+00 -2.387730e+00 7.468071e-02 1.212202e+00 -6.739506e-01 7.577533e-02 
1.460953e+01 4.205309e+00 -2.537222e+00 -1.896546e+01 -1.117196e+01 -4.185919e+00 -8.554066e+00 7.361689e+00 -6.904957e+00 -7.981778e+00 2.408914e+00 3.616939e-01 7.918147e-01 1.246305e-02 -3.317935e+00 -3.729066e-01 -2.574288e+00 -1.607985e+00 3.244228e+00 2.510821e+00 1.149974e+00 -1.688413e+00 7.409594e-01 1.347125e+00 -4.004956e-01 6.568287e-02 
1.408418e+01 8.677911e-01 -4.707160e+00 -2.037341e+01 -1.156428e+01 -2.498398e+00 -5.242567e+00 7.071700e+00 -8.863224e+00 -5.847176e+00 2.145998e+00 -1.687245e+00 8.511590e-01 -2.487752e-01 -3.123209e+00 -6.759782e-01 -9.333706e-01 -1.114765e+00 2.481289e+00 2.127475e+00 2.926109e-01 -7.725604e-01 1.185951e+00 1.527876e+00 9.371073e-01 5.787387e-02 
1.382862e+01 -1.888073e+00 -3.891147e+00 -2.039224e+01 -1.490294e+01 -1.238180e+00 -2.182442e+00 6.928635e+00 -9.241589e+00 -3.890779e+00 2.953538e+00 1.319368e+00 9.038378e-01 -5.531312e-01 -3.029114e+00 -8.059930e-01 3.463936e-02 -2.086981e-01 1.767997e+00 1.131622e+00 -9.746308e-01 -6.736983e-01 2.055027e+00 9.747923e-01 1.628943e+00 4.748572e-02 
1.329027e+01 -4.347034e+00 -5.516714e+00 -1.924725e+01 -1.305956e+01 1.974348e+00 -4.559418e+00 7.097943e+00 -8.949587e+00 -1.736642e+00 6.078534e+00 4.353818e+00 9.544870e-01 -5.803431e-01 -2.898775e+00 -4.693786e-01 6.138182e-01 6.510285e-01 1.825947e+00 3.139456e-01 -1.529920e+00 -8.787533e-01 2.085677e+00 7.276009e-01 2.079585e+00 3.454524e-02 
1.224083e+01 -8.332851e+00 -6.162410e+00 -1.935535e+01 -1.146781e+01 2.417694e+00 -3.237532e+00 2.475413e+00 -1.023027e+01 2.380910e-01 5.316607e+00 5.485879e+00 9.775793e-01 -6.382098e-01 -2.741348e+00 -5.147311e-01 9.588095e-01 1.483747e+00 1.608062e+00 -2.321587e-01 -2.197390e+00 -9.723743e-01 1.766487e+00 5.528953e-02 9.838676e-01 2.248519e-02 
1.197636e+01 -1.040369e+01 -5.918421e+00 -1.782276e+01 -1.002670e+01 4.803401e+00 -3.145294e+00 1.648710e+00 -1.276265e+01 2.516775e+00 4.602468e+00 6.627425e+00 9.870144e-01 -5.313929e-01 -2.241444e+00 -2.645554e-01 1.586431e+00 9.994728e-01 8.307067e-01 -7.302026e-02 -2.243688e+00 -2.644728e-01 1.104967e+00 -4.617379e-01 -5.496992e-01 8.073444e-03 
1.129453e+01 -1.256648e+01 -6.263948e+00 -1.631043e+01 -9.000633e+00 5.387602e+00 -4.050298e+00 -1.333700e+00 -1.219693e+01 2.814950e+00 3.968019e+00 5.101902e+00 1.000000e+00 -3.343692e-01 -1.579802e+00 -2.610723e-01 2.248986e+00 1.112793e+00 8.585669e-01 6.720157e-02 -2.647161e+00 1.023040e+00 7.097706e-01 -8.493344e-01 -1.662068e+00 3.895342e-04 
1.110645e+01 -1.343744e+01 -6.788722e+00 -1.283755e+01 -9.295787e+00 4.642927e+00 -4.518137e+00 -2.215939e+00 -9.288620e+00 2.499765e+00 4.444139e+00 1.797310e+00 9.836438e-01 -3.432937e-01 -1.165558e+00 -4.361610e-01 2.441456e+00 1.300462e+00 9.012755e-01 5.138303e-01 -3.041285e+00 1.421374e+00 1.150271e+00 -1.591061e+00 -2.098859e+00 -7.622123e-04 
1.100394e+01 -1.471499e+01 -7.032622e+00 -1.060302e+01 -6.269302e+00 6.790765e+00 -2.215103e+00 -8.828066e+00 -6.852082e+00 3.795449e+00 1.149100e+00 -4.094033e-01 9.812123e-01 -3.337827e-01 -6.367675e-01 -4.417139e-01 2.177820e+00 1.478682e+00 1.339876e+00 6.993822e-01 -2.686711e+00 1.280187e+00 1.862523e+00 -1.966655e+00 -1.681643e+00 5.309641e-04 
1.040518e+01 -1.515723e+01 -7.714890e+00 -8.469190e+00 -4.890053e+00 8.608196e+00 -1.493740e+00 -9.810532e+00 -8.328201e+00 7.777882e+00 -1.943378e+00 -1.111216e+00 9.925972e-01 -2.191730e-01 -4.468052e-01 -1.983525e-01 1.806546e+00 1.099486e+00 1.418360e+00 1.770725e-01 -1.699691e+00 6.903709e-01 2.082866e+00 -1.808249e+00 -9.689853e-01 8.502364e-04 
9.976247e+00 -1.489042e+01 -8.009434e+00 -7.605514e+00 -3.810087e+00 1.010435e+01 -2.065585e+00 -1.096996e+01 -6.276201e+00 9.488507e+00 -2.671497e+00 -1.852048e+00 9.981781e-01 -1.696370e-02 -4.199047e-01 1.353034e-01 1.765947e+00 -3.329743e-01 8.254585e-01 -1.168640e+00 3.979574e-01 4.778576e-01 1.099364e+00 -8.029730e-01 -9.013308e-01 -8.202314e-03 
1.052443e+01 -1.558375e+01 -7.292078e+00 -5.303575e+00 -5.027963e+00 1.007793e+01 -3.707533e+00 -9.643447e+00 -6.124707e+00 1.006756e+01 -2.686806e+00 -2.326293e+00 9.794121e-01 2.075246e-01 -1.925116e-01 5.868149e-02 1.951549e+00 -4.612007e-01 -7.692713e-01 -1.474167e+00 1.571935e+00 8.184228e-01 -1.454167e-01 -4.087778e-01 -5.785496e-01 -1.914089e-02 
1.085949e+01 -1.660125e+01 -6.567511e+00 -3.356091e+00 -7.865219e+00 1.018319e+01 -6.951406e+00 -6.921821e+00 -5.564541e+00 8.147426e+00 -2.494051e+00 -4.308518e+00 9.467933e-01 1.325691e-01 -2.704735e-02 2.346154e-01 1.860751e+00 -1.949804e-01 -1.892403e+00 -1.437561e+00 1.824921e+00 1.415481e+00 -8.683860e-01 -7.944478e-01 -1.669896e-01 -2.455288e-02 
1.100118e+01 -1.526437e+01 -8.142444e+00 -8.361564e-01 -5.168491e+00 4.722419e+00 -6.421661e+00 -3.974923e+00 -4.591918e+00 7.721339e+00 -4.075990e+00 -2.775729e+00 9.225852e-01 -1.320421e-01 4.541607e-01 2.168209e-01 1.488960e+00 -8.951807e-03 -2.072245e+00 -1.404670e+00 1.529153e+00 2.154232e+00 -1.680480e+00 -8.879727e-01 -3.178557e-01 -2.554998e-02 
1.040072e+01 -1.518535e+01 -6.411174e+00 -5.354681e-01 -4.714725e+00 3.320091e+00 -7.896325e+00 -4.679618e+00 3.481007e-02 6.319691e+00 -5.949144e+00 -2.462279e+00 9.038272e-01 -3.797973e-01 5.928307e-01 7.666957e-01 8.944803e-01 -2.939904e-01 -1.419924e+00 -1.210450e+00 9.953135e-01 2.604709e+00 -2.539829e+00 -3.274781e-01 -1.591229e-01 -2.241204e-02 
1.009361e+01 -1.402089e+01 -6.286142e+00 7.309129e-01 -6.647969e+00 3.148257e+00 -1.025843e+01 -3.118783e+00 1.846779e+00 2.579033e+00 -5.399123e+00 -4.838691e+00 8.731452e-01 -5.831007e-01 6.231722e-01 1.666087e+00 2.577886e-02 -7.484168e-01 -1.021734e+00 -5.197493e-01 4.379632e-01 2.464897e+00 -2.678331e+00 -2.165426e-01 4.079458e-01 -2.210477e-02 
9.414292e+00 -1.425884e+01 -3.662183e+00 3.327758e-01 -8.595432e+00 3.870652e+00 -1.108528e+01 -2.373324e+00 4.239655e+00 -1.980566e+00 -3.469875e+00 -4.072651e+00 8.594530e-01 -6.554845e-01 1.039472e+00 2.267794e+00 -1.089899e+00 -2.010374e-01 -1.630238e+00 -8.718252e-02 6.303093e-01 1.065601e+00 -1.907352e+00 -1.753824e-01 1.027610e+00 -2.856606e-02 
8.578893e+00 -1.261176e+01 -1.186503e+00 -1.141384e+00 -6.970222e+00 -6.615331e-01 -7.425932e+00 -2.938253e+00 5.630144e+00 -1.520189e+00 -6.398337e+00 6.918669e-02 8.342484e-01 -1.096652e-01 1.686095e+00 3.762428e+00 -1.076213e+00 8.194925e-01 -2.527147e+00 -8.389528e-01 8.327821e-01 -9.443425e-01 -1.519524e+00 1.016912e+00 3.237472e-02 -4.865357e-02 
7.880653e+00 -1.069255e+01 2.377976e+00 -5.048816e+00 -5.558786e+00 -2.926203e+00 -9.748485e+00 -1.618336e+00 3.471134e+00 -1.167459e+00 -6.326449e+00 2.218313e-01 7.804453e-01 2.404323e-01 2.546410e+00 4.115704e+00 6.935624e-02 1.448926e+00 -4.056566e+00 -7.657394e-01 2.246791e+00 -2.795929e+00 -1.015828e+00 1.554216e+00 -3.020263e+00 -5.495485e-02 
1.031211e+01 -7.373561e+00 9.505919e+00 -1.959357e+00 -4.068829e+00 -6.089051e+00 -1.512159e+01 6.676335e-01 -2.490674e+00 -5.425140e+00 1.113727e+00 -6.824059e+00 6.693813e-01 3.949049e-01 2.787399e+00 3.279089e+00 1.236877e+00 8.758538e-01 -3.452733e+00 -5.907210e-01 2.877188e+00 -3.753613e+00 -5.774044e-01 1.991830e+00 -4.218203e+00 -5.017505e-02 
9.749848e+00 -4.145893e+00 1.157012e+01 1.088544e+00 -2.801497e+00 -1.369842e+01 -1.106615e+01 7.057687e+00 -5.679580e+00 -5.107232e+00 5.451727e-01 -1.572734e+01 6.671124e-01 1.323623e-01 2.081754e+00 1.813488e+00 1.748421e+00 5.224940e-01 -2.656461e+00 5.857857e-01 1.952746e+00 -2.971006e+00 2.510331e-01 4.910663e-01 -3.001393e+00 -2.985802e-02 
9.618820e+00 -1.948100e+00 1.061287e+01 1.974321e+00 -3.969597e+00 -1.253909e+01 -9.720706e+00 7.109677e+00 -8.562565e+00 -2.437324e+00 1.249998e-01 -1.304724e+01 6.400396e-01 -3.146633e-01 1.057163e+00 1.975937e-02 5.599428e-01 5.359694e-01 -1.376556e+00 1.826722e+00 2.253639e-01 -1.380664e+00 4.546644e-01 -1.157824e+00 -9.759111e-01 -7.406724e-03 
8.889107e+00 -2.996513e+00 1.089194e+01 1.726449e+00 -2.995932e+00 -1.298349e+01 -9.519996e+00 4.924372e+00 -8.347952e+00 -1.406202e+00 -3.376754e+00 -1.167354e+01 6.458260e-01 -1.520290e-01 4.026068e-01 -6.026376e-01 -2.904469e-01 6.491767e-01 8.456502e-01 1.082048e+00 -1.465636e+00 -8.426574e-01 3.759027e-02 -1.877030e+00 -9.571324e-02 -6.941801e-03 
9.169159e+00 -2.662437e+00 9.943809e+00 5.214042e-01 -1.291765e+00 -1.332930e+01 -6.761054e+00 2.861111e+00 -8.059809e+00 -5.002334e+00 -2.714431e+00 -1.373051e+01 6.429908e-01 -7.182996e-01 3.536858e-01 -7.805420e-01 9.929905e-01 2.909555e-01 1.524976e+00 1.106143e+00 -1.527941e+00 7.140474e-01 -1.375909e+00 -2.994014e+00 3.147715e-01 -6.872541e-03 
9.214534e+00 -1.775690e+00 8.891467e+00 3.627672e-01 -8.945301e-01 -9.075066e+00 -7.135733e+00 1.853791e+00 -1.014425e+01 -3.636776e+00 -7.420264e+00 -1.586427e+01 6.309277e-01 -7.510492e-01 1.203047e+00 -4.658228e-01 2.025598e+00 -2.727745e-01 1.359784e+00 1.017752e+00 -6.425115e-01 1.383782e+00 -1.877222e+00 -3.385042e+00 3.466587e-01 -1.568451e-02 
5.864609e+00 -7.900830e-01 7.710395e+00 7.621114e+00 -3.565521e+00 -6.868424e+00 -5.382123e+00 1.005261e+00 -4.094180e+00 -8.201583e+00 -1.282331e+01 -9.378017e+00 6.131260e-01 -6.852008e-01 1.615793e+00 -1.309236e-01 2.118241e+00 9.119504e-01 1.103741e+00 2.030409e-01 -4.800456e-01 1.150693e+00 -9.051752e-01 -2.684626e+00 -5.364744e-01 -2.235966e-02 
6.786137e+00 2.082543e+00 9.679531e+00 8.304582e+00 -3.222927e+00 -9.415007e+00 -5.120702e+00 2.639740e+00 -3.411856e+00 -9.192687e+00 -1.524752e+01 -1.211650e+01 5.823358e-01 -4.358752e-01 1.991509e+00 -5.937033e-02 1.731616e+00 1.991307e+00 9.343454e-01 2.359602e-01 -1.841394e+00 6.052112e-01 -6.414558e-01 -1.129882e+00 -1.107509e+00 -2.650795e-02 
6.957354e+00 3.487410e+00 8.895159e+00 7.141701e+00 4.432185e+00 -7.640621e+00 -6.753365e+00 6.790829e-02 -5.672536e+00 -6.750254e+00 -1.222393e+01 -1.828677e+01 5.554885e-01 -1.040471e-03 1.734888e+00 -4.214145e-01 -1.843023e-02 2.610190e+00 1.721365e+00 7.240625e-02 -1.906125e+00 -9.494665e-01 -7.892776e-01 -3.336372e-02 -1.834718e+00 -3.302783e-02 
6.488785e+00 6.043110e+00 8.002234e+00 9.260556e+00 5.063151e+00 -4.017240e+00 -5.270310e+00 -6.884501e+00 -6.329011e+00 -7.569719e+00 -1.336937e+01 -1.694744e+01 5.272068e-01 -9.643484e-01 9.796483e-01 -2.148515e-01 -3.699508e-01 1.742293e+00 2.734269e+00 -2.392382e-01 -2.134620e+00 -3.561669e-01 -1.191641e+00 8.015805e-01 -4.965778e-01 -4.648318e-02 
6.008082e+00 5.904074e+00 6.441971e+00 7.050976e+00 5.342389e+00 -9.604843e-01 -4.945287e+00 -3.763242e+00 -7.382935e+00 -1.295945e+01 -1.392921e+01 -1.613614e+01 4.755514e-01 -1.493498e+00 6.764975e-01 -3.302813e-01 4.451280e-02 6.871718e-01 1.864298e+00 7.541789e-01 -1.007741e+00 4.331929e-01 -1.072190e+00 9.218258e-01 1.294639e+00 -6.865504e-02 
2.439030e+00 5.772452e+00 9.831867e+00 6.500190e+00 5.033434e+00 9.162683e-01 -7.220932e+00 -6.117785e+00 -4.337492e+00 -1.204629e+01 -1.038698e+01 -1.567471e+01 3.898885e-01 -1.857133e+00 9.526730e-04 -7.167877e-01 5.423679e-02 1.014516e+00 7.075531e-01 5.553027e-01 1.254208e+00 8.509800e-01 -2.774923e-01 2.354262e+00 1.596451e+00 -8.830965e-02 
1.514742e+00 7.005226e+00 6.328936e+00 8.744448e+00 7.882903e+00 -7.858856e-01 -2.007159e+00 -5.354156e+00 -4.502332e+00 -9.872920e+00 -9.105994e+00 -1.244995e+01 2.808724e-01 -1.843149e+00 -5.167999e-02 -6.409463e-01 -2.097104e-01 9.478059e-01 3.573163e-01 2.363857e+00 2.702383e+00 1.415766e+00 1.559156e+00 2.429532e+00 2.647315e+00 -9.444216e-02 
-5.502086e-01 5.497297e+00 4.474813e+00 8.685004e+00 8.865472e+00 -5.667731e-01 -3.962861e+00 1.819940e-01 -3.514413e+00 -1.050045e+01 -4.009665e+00 -1.080828e+01 1.829981e-01 -1.324979e+00 -6.197155e-01 -1.926326e+00 -1.073509e+00 3.172395e-01 -2.622326e-01 2.130897e+00 3.233732e+00 1.234293e+00 1.356192e+00 2.115004e+00 3.888763e+00 -7.892511e-02 
-1.713045e+00 5.783252e+00 5.915767e+00 4.910017e+00 8.165400e+00 1.567618e+00 5.244961e+00 6.598783e+00 -7.156448e-01 -5.936598e+00 -4.970208e+00 -5.332773e+00 1.067858e-01 -9.320129e-01 -6.963122e-01 -1.341513e+00 -8.945649e-01 -1.217778e-01 8.812017e-01 2.069686e+00 2.852553e+00 1.935006e+00 7.019444e-01 2.139056e+00 3.345599e+00 -4.781800e-02 
-2.571971e+00 3.284863e+00 4.068234e-01 3.049859e+00 6.478384e+00 -1.571646e+00 -1.925058e-01 4.074407e+00 -5.936956e-02 -7.233494e+00 -1.879856e+00 2.105246e-01 8.230621e-02 -8.087646e-01 -6.224739e-01 -1.085114e+00 9.447165e-02 -5.076380e-02 2.222399e+00 2.693703e+00 1.781474e+00 1.665491e+00 9.613656e-01 1.607646e+00 2.464142e+00 -1.721293e-02 
-2.134441e+00 4.629883e+00 1.655364e+00 7.089196e+00 8.467558e+00 4.122560e+00 6.456094e+00 6.962403e+00 3.445176e+00 -7.996675e+00 5.243833e-01 -1.231352e+00 9.212834e-02 -7.699548e-01 -7.292067e-01 -9.183633e-01 7.327288e-01 6.143773e-01 1.959171e+00 1.326407e+00 1.851688e+00 1.926320e+00 1.746366e+00 1.773960e+00 9.933696e-01 -1.906610e-03 
-4.383334e+00 2.961612e+00 1.179443e+00 8.067773e+00 8.460574e+00 9.267754e+00 8.900087e+00 8.907555e+00 2.732634e+00 -4.663582e+00 1.281270e+00 -5.382786e-01 1.042622e-01 -7.392562e-01 -1.250701e-02 1.088564e-01 6.185842e-01 6.283840e-01 9.510311e-01 8.749274e-01 1.487752e+00 1.576126e+00 1.815979e+00 4.228473e-02 3.502658e-01 -6.504953e-03 
-4.657137e+00 2.298843e+00 9.376401e-01 6.064703e+00 1.024619e+01 5.943772e+00 7.330700e+00 1.344065e+01 7.519952e+00 1.510274e+00 2.319028e+00 8.476734e-03 8.627480e-02 -6.699666e-01 1.951443e-01 2.317294e-01 -2.187586e-02 4.156447e-03 -9.391779e-01 -5.341539e-01 -1.325075e+00 9.025189e-01 1.465197e+00 -8.750345e-01 7.658436e-01 -1.097822e-02 
-5.006904e+00 4.387847e+00 1.309967e+00 6.655026e+00 8.730987e+00 2.272903e+00 3.744828e+00 8.274042e+00 5.783873e+00 -2.907073e+00 -2.565755e+00 1.341939e+00 5.270821e-02 -1.701489e-01 4.841201e-01 6.076321e-01 -7.285357e-03 -7.333466e-01 -2.142029e+00 -5.499346e-01 -1.796060e+00 8.217043e-01 8.214231e-01 -1.812696e+00 -6.157546e-02 -1.581336e-02 
-5.172489e+00 4.892487e+00 2.748749e+00 7.686190e+00 8.353133e+00 2.924095e+00 6.362954e+00 6.537833e-01 6.432151e+00 -1.548944e+00 -1.927277e+00 1.657757e+00 6.301421e-02 -1.486560e-01 5.228559e-01 -3.709749e-01 3.654064e-01 -1.381607e+00 -9.386435e-01 1.743176e-01 -1.810462e+00 -4.283301e-01 1.113363e+00 -8.378989e-01 2.847355e-01 -2.692014e-03 
-4.976403e+00 4.085391e+00 3.312050e+00 7.220603e+00 5.740370e+00 6.744909e-02 6.634288e+00 6.320687e+00 7.385056e+00 9.731426e-01 -5.659060e+00 -1.670796e+00 3.682566e-02 -1.894310e-01 -1.436758e-01 -1.259458e+00 -6.246567e-06 -1.802409e-01 1.249206e+00 3.923869e-01 -1.004250e-01 -1.385264e-01 1.987853e+00 3.199618e-01 4.480292e-01 5.328012e-03 
-5.415668e+00 5.064351e+00 -1.918275e+00 7.608947e+00 4.833465e+00 2.353282e+00 6.757558e+00 5.365018e+00 4.577710e+00 5.136982e+00 -3.238134e-01 2.938522e+00 8.075601e-02 -6.147941e-01 -4.308914e-01 -7.951579e-01 -1.563239e-01 3.468480e-01 1.099798e+00 -4.888250e-01 -1.184808e+00 -1.426234e+00 1.206822e+00 9.242417e-01 9.316877e-01 -5.694711e-03 
-5.832469e+00 3.583536e+00 -2.653812e+00 6.693616e+00 9.589617e+00 8.804340e+00 5.509460e+00 5.416299e+00 6.018461e+00 3.689228e+00 -1.767677e+00 2.941702e+00 7.047737e-02 -7.161482e-01 -1.396426e-01 -1.387425e-01 -5.182071e-01 8.174292e-01 1.196461e+00 -5.035415e-02 -2.403494e+00 -1.558817e+00 -8.135512e-01 1.157297e+00 4.990868e-01 -1.230772e-02 
-7.818426e+00 2.988957e+00 1.755890e+00 7.168064e+00 8.162749e+00 4.054639e+00 4.481243e+00 -4.818063e+00 -1.572180e-02 3.127123e+00 7.482405e-01 4.009946e+00 1.771480e-02 -6.204408e-01 -3.578750e-01 1.050518e-01 -1.554415e+00 -7.920824e-01 -1.058751e+00 -7.112486e-01 -2.582379e+00 -2.709623e-01 -1.108742e+00 3.401131e-01 -1.550372e-01 -1.841711e-02 
-7.355765e+00 4.424875e+00 7.812545e-01 4.850009e+00 8.162872e+00 5.199076e+00 7.520675e+00 -6.052442e-01 1.887686e+00 -2.089684e+00 -4.085999e-01 2.889261e-01 6.807685e-03 -4.033303e-01 1.659445e-01 4.115849e-01 -8.266878e-01 -1.413860e+00 -1.903647e+00 -1.571651e-01 -4.027339e-01 7.150422e-01 -4.088320e-01 1.027670e+00 1.460114e+00 -9.404344e-03 
-7.756224e+00 2.854306e+00 -3.110550e+00 7.586743e-01 1.586425e+00 -1.137843e+00 2.195707e+00 -4.536106e+00 5.288286e+00 2.482730e+00 6.972132e-01 3.489724e+00 2.050531e-02 -2.403611e-01 4.701526e-01 2.580289e-01 2.066164e-01 -1.065796e+00 -7.836456e-01 -2.076478e-01 1.923497e+00 2.716412e+00 8.947698e-01 9.564959e-01 2.236603e+00 7.077920e-03 
-7.880222e+00 4.480584e+00 1.837332e+00 5.764872e+00 5.808481e+00 1.882344e+00 5.866403e+00 3.261652e+00 6.941668e+00 1.967264e+00 3.396185e+00 1.050238e+01 2.206039e-02 -5.133551e-01 1.874914e-02 6.575170e-01 6.675060e-01 -8.090021e-01 -2.543800e-01 8.303022e-01 1.451627e+00 9.805989e-01 1.311634e+00 1.318915e-02 1.342082e+00 2.814502e-03 
-8.758003e+00 5.311866e+00 2.517995e+00 7.743715e+00 4.010968e+00 1.794777e+00 4.270141e+00 2.865973e+00 1.103935e+01 5.572498e+00 3.628328e+00 1.008623e+01 4.547805e-02 -4.536198e-01 2.599797e-01 1.057496e+00 9.572489e-01 2.498808e-01 1.428832e+00 2.459040e+00 1.135025e+00 -5.303863e-01 -7.098089e-01 -7.481374e-01 -1.332432e+00 -9.266317e-04 
-9.421652e+00 3.289841e+00 1.254567e+00 4.695019e+00 2.905591e+00 2.460866e+00 1.063497e+01 2.951851e+00 3.915150e+00 2.923603e+00 -1.808211e+00 3.701081e+00 8.393824e-03 -3.511471e-01 -5.252641e-01 3.037396e-02 2.813061e-01 9.664563e-01 1.295121e+00 1.316087e+00 -4.499046e-01 -1.655464e+00 -4.263109e-01 2.046816e-01 -2.063062e+00 -3.434282e-03 
-9.253609e+00 4.749577e+00 2.468312e+00 6.079845e+00 4.287274e+00 5.717058e+00 1.210663e+01 1.293921e+00 4.149613e+00 -1.544484e+00 -4.412754e-01 2.282138e-01 2.270544e-02 3.236136e-01 -2.538428e-01 -1.514376e-01 -6.535468e-02 8.030979e-01 2.450919e-01 6.475390e-01 -3.222825e-01 -2.208774e+00 -8.461781e-01 9.195663e-01 -4.565040e-01 -4.042524e-03 
-9.388155e+00 2.135408e+00 2.014044e+00 8.003337e+00 1.050261e+01 6.396807e+00 8.528593e+00 1.798154e+00 2.109214e+00 3.394201e+00 6.454395e+00 5.116080e+00 1.627529e-02 3.792874e-01 -1.294730e-01 -4.900590e-01 -1.343203e-01 3.654459e-01 2.840450e-01 -6.422168e-01 -1.917325e-01 -9.022448e-02 1.064282e-01 9.854950e-01 4.399155e-01 5.302638e-03 
-7.156683e+00 4.619869e+00 1.381069e+00 5.762783e+00 4.227947e+00 1.052266e+00 8.561024e+00 1.831409e+00 8.984454e-01 1.106309e+00 4.094856e+00 7.096211e+00 2.132469e-02 2.019978e-02 2.091591e-01 -1.605079e-01 -5.506353e-01 2.284381e-01 -3.893337e-01 -1.288031e+00 -2.214967e-01 1.073973e+00 1.610234e+00 7.527695e-02 3.443511e-01 4.966957e-03 
-8.573677e+00 2.707330e+00 -6.521066e-01 4.181949e+00 4.762484e+00 6.213487e+00 9.196687e+00 1.724445e+00 5.089612e+00 2.130348e+00 8.511977e-01 2.466660e+00 3.559738e-02 -4.585023e-01 -1.895440e-01 -1.603774e-01 -5.459690e-01 5.100470e-02 4.489195e-02 -1.081038e+00 -1.225861e+00 1.299596e+00 7.482959e-01 -1.073783e+00 -1.105552e+00 1.674199e-03 
-9.559849e+00 5.509411e+00 2.998847e+00 5.237362e+00 8.299527e+00 3.862049e+00 5.332426e+00 2.232924e-01 8.029282e+00 7.138611e+00 2.736708e+00 3.274679e+00 3.787917e-02 -8.550207e-01 -9.718319e-01 -9.002290e-02 9.010915e-02 1.294715e+00 7.331107e-01 -1.210563e+00 -1.596854e+00 8.238822e-01 8.015622e-01 -3.747242e-01 -1.216183e+00 -2.913964e-03 
-1.047908e+01 7.429163e-01 4.032674e-01 5.536202e+00 8.721843e+00 5.216375e+00 4.737702e+00 -3.527094e+00 5.041775e+00 4.119530e+00 1.764556e+00 1.499084e+00 1.636904e-02 -4.730049e-01 -8.695322e-01 -4.848318e-02 3.007345e-01 8.341035e-01 -6.398974e-02 -9.512694e-01 -1.425346e+00 -3.083181e-01 9.592824e-02 8.545643e-02 -3.710748e-01 -5.996680e-03 
