-8.759603e+00 1.045500e+01 1.790842e+00 3.342788e+00 3.416688e+00 5.406781e+00 2.285143e+00 1.576174e+00 4.269473e+00 6.914669e+00 3.933623e+00 8.378073e+00 -5.350149e-02 -4.640154e-01 -3.510089e-01 -2.512608e-01 -4.423384e-01 6.668487e-01 -2.434510e-01 3.293277e-01 -5.893896e-01 2.931260e-01 -1.152037e-01 -7.817516e-01 -2.344964e-01 -3.147936e-03 
-9.832450e+00 8.540408e+00 2.161322e-01 2.073916e-01 7.475053e-01 3.319239e+00 8.035137e+00 2.882996e+00 2.254828e+00 5.341846e+00 3.851908e-01 6.256691e+00 -4.961193e-02 -4.306721e-01 -3.328711e-01 2.859513e-01 2.268017e-01 1.068478e+00 -1.305025e+00 -1.848089e-01 -1.084375e+00 1.964130e-01 -3.519363e-01 -5.930034e-01 -8.570230e-02 3.517628e-04 
-1.054326e+01 9.657258e+00 1.321892e+00 2.698794e+00 8.085523e+00 5.233297e+00 1.056785e+00 -2.024186e+00 6.742425e+00 7.125063e+00 1.799081e+00 8.266283e+00 -7.118595e-02 -1.085724e-01 2.793834e-01 5.746824e-01 -9.352656e-02 5.680203e-01 -1.107543e+00 4.403734e-01 -1.415880e+00 -1.085109e+00 -4.078407e-01 -1.338344e+00 -5.228344e-01 6.573201e-05 
-1.002114e+01 9.189522e+00 3.455073e+00 4.798793e+00 6.424660e+00 -1.031603e+00 1.975278e+00 -2.045521e+00 4.015061e+00 5.049791e+00 2.035877e+00 8.005457e+00 -4.290044e-02 3.405062e-01 7.478775e-01 8.406346e-01 -1.513042e-01 -2.034393e-01 -7.524640e-01 -2.230366e-01 -1.524544e+00 -1.251966e+00 -1.090953e+00 -1.424179e+00 -9.907717e-01 4.299283e-04 
-9.208121e+00 1.152736e+01 3.044783e+00 5.794544e-01 3.418212e+00 2.044488e+00 7.516939e+00 -3.038966e+00 -2.036191e+00 5.021493e+00 -3.583439e+00 4.889518e+00 -5.652857e-02 3.264620e-01 1.422179e-02 1.230670e-01 -6.229498e-01 -1.841071e+00 -1.300886e+00 4.795755e-01 -1.322548e-01 -1.791792e+00 -1.357686e+00 6.153708e-02 -1.024586e+00 3.477895e-03 
-8.797486e+00 1.134474e+01 3.557860e+00 5.105405e-01 2.063964e+00 1.151323e+00 3.689876e+00 -4.232335e+00 3.843056e-01 9.388628e-01 -4.044444e+00 2.991214e+00 -5.479097e-02 1.691210e-01 -6.880222e-02 2.958017e-01 -4.770815e-01 -4.794554e-01 9.244902e-01 -6.041466e-01 -9.066075e-02 -2.905713e-01 -7.416776e-01 2.761390e-01 -1.005966e+00 -3.740895e-03 
-9.522771e+00 8.650756e+00 1.885834e+00 1.728172e+00 1.060518e+00 -2.362597e+00 2.597363e+00 -1.592053e+00 -4.011570e-01 2.392096e+00 5.146927e+00 5.650472e+00 -4.785120e-02 2.132601e-01 -2.992100e-01 2.017740e-01 1.139144e+00 1.784692e-01 1.173217e+00 -5.878636e-01 -4.235373e-01 1.213552e+00 4.781366e-01 3.214961e-01 -7.327927e-01 2.291858e-03 
-9.018207e+00 1.028382e+01 5.513556e+00 1.839028e+00 5.206230e+00 5.794391e+00 1.414333e+00 -3.222282e+00 1.744688e+00 2.656101e+00 -9.486108e-01 2.595148e+00 -6.594360e-02 2.228069e-01 3.002436e-02 -1.596817e-01 7.518702e-01 4.868235e-01 8.499537e-01 8.030493e-01 1.771522e-02 1.854615e+00 1.815508e+00 -7.630161e-01 -5.115641e-01 4.977799e-03 
-8.031461e+00 1.056178e+01 3.075805e+00 5.610931e+00 2.739425e+00 5.589037e+00 5.715393e+00 -5.661679e+00 3.351379e+00 6.553557e+00 -3.523875e+00 1.423588e+00 -3.949296e-02 1.008541e-01 2.789853e-01 -1.224271e-01 6.631451e-01 3.528878e-01 3.201175e-02 1.626246e+00 4.336607e-01 1.230978e+00 6.470892e-01 -1.975156e+00 -4.079881e-01 2.068877e-03 
-8.429107e+00 1.053935e+01 2.164466e+00 2.328511e+00 3.658628e+00 1.425274e+00 6.146108e+00 -2.108946e+00 7.781115e+00 7.935672e+00 -3.524124e+00 2.546835e+00 -3.408110e-02 -2.882042e-02 -4.450280e-01 -1.078597e+00 -5.278390e-01 -1.826165e-01 -1.739369e+00 5.701766e-01 4.130980e-01 3.204443e-01 7.673577e-01 6.567504e-01 1.579218e+00 1.139951e-03 
-9.313050e+00 9.917913e+00 2.948244e+00 4.799155e+00 3.598758e+00 -1.798028e-02 8.362706e+00 1.958275e-02 2.735518e+00 2.987756e+00 -3.441095e+00 3.634687e+00 -5.343807e-02 -1.117516e-02 -1.379936e-01 1.403734e-01 -2.884450e-01 1.016323e+00 -5.785347e-01 -1.646179e-01 8.212792e-01 3.130344e-01 -1.031056e+00 4.098817e-01 1.561041e+00 -7.732975e-03 
-8.521514e+00 8.380608e+00 1.843538e-01 -3.942795e-01 3.863482e+00 -9.894526e-02 2.941559e+00 -3.997422e+00 3.654840e+00 8.275790e+00 2.293751e+00 9.385687e+00 -5.327129e-02 3.771284e-01 9.243155e-02 7.320271e-02 -1.743149e-01 1.918085e-01 5.555614e-01 -7.465144e-02 -2.484152e-01 5.565693e-01 -8.690715e-03 7.450073e-01 9.050042e-01 -5.687773e-03 
-8.041133e+00 1.095118e+01 4.767728e+00 5.530102e+00 7.718615e+00 3.458474e+00 6.494578e+00 -6.110454e-01 6.979689e+00 1.228219e+00 -4.383403e+00 5.809369e+00 -6.856275e-02 2.390480e-01 -1.351425e+00 6.715283e-01 -1.320431e-01 -1.893996e+00 7.972461e-01 -4.487383e-01 -7.506871e-01 2.350669e+00 1.138234e+00 -3.399673e-01 -7.623395e-01 2.566981e-02 
-7.179423e+00 1.048488e+01 1.620737e+00 1.091464e+00 2.557742e+00 2.464854e+00 6.706915e+00 -3.035708e+00 8.441875e+00 8.771988e+00 6.720673e-01 5.984515e+00 -5.495763e-02 -2.733154e-01 -2.502902e+00 1.687248e+00 1.357518e+00 -3.338364e+00 1.237103e+00 1.280573e+00 -5.543790e-01 1.682534e+00 1.536727e+00 -1.280399e+00 -1.613684e+00 5.107418e-02 
-8.788856e+00 2.108652e+00 5.587694e+00 3.396068e+00 -5.218354e+00 2.686351e+00 4.236337e+00 -4.214710e+00 1.209535e+01 8.430826e+00 -4.330089e+00 1.523576e+00 7.575417e-02 -5.022658e-01 -2.865054e+00 9.234611e-01 1.110352e+00 -1.205487e+00 7.720263e-01 6.386734e-01 -9.303800e-01 -1.474092e+00 1.764327e+00 8.257319e-01 -8.243901e-01 4.310071e-02 
-9.514230e+00 2.873621e-01 8.210609e+00 7.460327e+00 -6.359853e+00 6.472631e+00 1.047355e+01 -4.967485e+00 9.509682e+00 1.235812e+01 -4.134903e+00 3.460160e+00 1.299412e-01 -7.319080e-01 -1.538810e+00 1.169096e+00 1.257253e+00 1.227503e+00 4.009368e-01 1.403109e-01 3.578890e-01 -2.219256e+00 -2.823919e-01 1.386448e+00 3.345189e-01 1.255257e-02 
-9.385058e+00 1.724673e+00 6.090097e+00 7.897429e+00 6.149979e+00 5.314717e+00 7.804630e+00 -4.297057e+00 -9.246749e-01 8.256784e+00 2.148741e+00 2.949596e+00 5.449140e-02 -2.760004e-01 4.254561e-01 1.760260e-01 5.946501e-01 2.377582e+00 -5.471354e-02 -8.812822e-01 9.688109e-01 -1.145156e+00 -7.047094e-01 3.000482e+00 1.743338e+00 -2.023448e-02 
-1.054086e+01 2.982819e+00 7.215016e+00 5.127048e+00 3.011091e+00 3.155355e+00 5.624323e+00 -1.205089e+00 3.855608e+00 7.447049e+00 4.364891e+00 6.944099e+00 1.843661e-02 -1.626699e-01 -2.956288e-01 -3.334416e-01 3.016548e-01 1.338394e+00 -2.291270e-01 -1.257672e+00 8.361691e-01 1.136287e+00 -5.491852e-01 2.356010e+00 1.769008e+00 3.552258e-04 
-9.655541e+00 2.888204e+00 6.965621e+00 7.535958e+00 1.984086e+00 4.071421e+00 2.254536e+00 -1.251853e+00 9.196605e+00 7.362817e+00 6.422424e+00 8.498296e+00 3.033406e-02 -2.669302e-01 -1.835702e+00 -3.450653e-01 -3.849525e-01 -6.858723e-01 -1.377466e+00 -1.508149e+00 -6.418176e-02 1.413267e+00 -5.010709e-01 -1.916912e-01 1.826075e+00 5.108544e-02 
-1.019234e+01 -1.772548e+00 6.105640e+00 9.149336e+00 2.415065e+00 5.948644e+00 6.960232e+00 -2.309241e+00 1.013048e+01 1.005918e+01 5.508305e+00 9.530853e+00 1.437960e-01 4.295109e-01 -2.111382e+00 -1.264708e+00 -4.944813e-01 -9.936689e-01 -1.961519e+00 -8.032562e-01 -1.559795e+00 -1.414357e+00 -1.461732e+00 -9.769886e-01 -6.043623e-01 8.568086e-02 
-1.089397e+01 -5.076152e+00 4.919458e+00 3.961523e+00 3.018631e+00 -2.969255e+00 -4.040711e-01 -4.065889e+00 3.004228e+00 4.445364e+00 6.185772e-01 1.078659e+01 2.472389e-01 4.363609e+00 -4.362116e-01 -3.008667e+00 -3.896514e+00 -1.561264e+00 -2.405123e+00 -8.889788e-01 -1.310696e+00 -3.381791e+00 -2.985737e+00 -2.299356e+00 -2.530992e+00 1.194019e-01 
-7.774093e+00 -3.591912e+00 1.914556e+00 4.441859e+00 -2.474527e+00 -3.131903e+00 2.937345e+00 -7.597048e+00 -1.199886e-01 1.597114e+00 2.381871e+00 2.778139e+00 3.383885e-01 7.291987e+00 -2.568887e-01 -3.946167e+00 -5.733737e+00 -1.940927e+00 -2.151593e+00 -3.008125e+00 -1.333328e-01 -3.989378e+00 -3.893283e+00 -1.815358e+00 -4.140811e+00 1.715246e-01 
1.095338e+01 1.616828e+00 -5.982173e+00 -9.592876e+00 -3.377437e+00 -3.413918e+00 -1.789148e-01 -5.161433e+00 -2.587117e+00 -3.334834e+00 -3.511140e+00 -7.803087e-01 5.300472e-01 6.910181e+00 -1.395455e+00 -3.269833e+00 -4.904110e+00 -1.229070e+00 2.095290e-01 -2.403715e+00 1.354847e+00 -2.248971e+00 -3.454829e+00 -4.258656e-01 -4.265018e+00 1.901760e-01 
1.534392e+01 -6.403481e+00 -8.174377e+00 -1.274215e+01 -4.091537e+00 -4.586987e+00 -8.192972e+00 -2.428133e+00 -7.020742e+00 -5.517136e+00 -1.503628e+00 -5.389754e+00 8.600147e-01 3.889210e+00 -2.792760e+00 -1.777687e+00 -3.166033e+00 7.050828e-01 8.333731e-01 -2.341952e+00 1.942194e+00 -1.259515e+00 -2.761414e+00 7.400224e-01 -2.273571e+00 1.680335e-01 
1.209793e+01 -1.064764e+01 -6.385242e+00 -1.196703e+01 -2.318212e+00 -1.194069e+00 -6.857487e+00 1.238868e-01 -4.790250e+00 -9.271659e+00 4.319989e-01 -6.454552e+00 9.373057e-01 -6.130514e-01 -3.321856e+00 -1.222921e-01 2.660096e-01 1.492296e+00 1.598604e+00 -8.869487e-01 7.776877e-01 -3.684727e-01 -1.516578e+00 2.279788e+00 -1.188737e+00 1.045188e-01 
1.109969e+01 -1.142348e+01 -6.772347e+00 -1.020123e+01 5.212743e-01 -7.496268e-02 -5.433128e+00 -5.287375e-01 -5.315999e+00 -9.241543e+00 4.110414e+00 -5.752596e+00 9.749268e-01 -1.339662e+00 -1.458123e+00 -4.267073e-02 1.304914e+00 1.373712e+00 1.962373e+00 6.014814e-01 -2.837315e-01 1.426454e-01 -5.114886e-01 1.882023e+00 -5.080696e-01 3.378499e-02 
1.001024e+01 -1.248245e+01 -7.294650e+00 -9.533287e+00 1.777638e+00 2.323089e+00 -5.993580e+00 -2.222692e+00 -5.281852e+00 -9.055519e+00 5.080777e+00 -6.542572e+00 9.951851e-01 -5.724453e-01 -3.595333e-01 -5.762793e-01 1.448125e+00 2.292621e-01 1.001376e+00 4.553313e-01 -8.002502e-01 -7.717296e-01 3.905391e-01 1.330244e+00 -3.824483e-01 1.412805e-02 
9.689449e+00 -1.277669e+01 -7.933028e+00 -7.434448e+00 7.290990e-01 3.466297e+00 -5.617519e+00 -2.673501e+00 -6.061714e+00 -8.182649e+00 5.582100e+00 -7.886092e+00 1.000000e+00 -7.923919e-02 -7.397957e-02 -2.975381e-01 1.223925e+00 -5.664549e-01 4.380725e-01 4.566893e-01 -6.328248e-01 -6.909224e-01 5.449628e-01 5.227585e-01 -1.763783e-01 1.747817e-03 
9.940817e+00 -1.176870e+01 -8.686298e+00 -6.109791e+00 -1.275814e+00 2.042183e+00 -4.488635e+00 -2.804983e+00 -8.276041e+00 -7.848411e+00 6.347376e+00 -7.300045e+00 9.954094e-01 1.990545e-01 7.885361e-02 9.009667e-02 9.425089e-01 -5.699275e-01 -1.454884e-01 6.062168e-01 -3.509902e-01 -1.897674e-01 3.149667e-01 2.417558e-01 1.497678e-01 -3.682214e-03 
1.073820e+01 -1.215025e+01 -7.564213e+00 -5.793353e+00 -7.842739e-01 2.255853e+00 -3.902154e+00 -3.401717e+00 -7.273516e+00 -7.120283e+00 6.090907e+00 -6.255751e+00 9.835537e-01 2.447255e-01 2.943573e-01 5.748854e-01 5.427592e-01 -4.831753e-02 2.114699e-01 7.443241e-01 -1.616471e-02 5.378066e-01 5.082134e-01 1.417218e-01 5.122069e-01 -6.481147e-03 
1.048114e+01 -1.240141e+01 -7.028574e+00 -5.641290e+00 -3.153126e-01 2.200869e+00 -3.820179e+00 -3.613536e+00 -5.624787e+00 -8.011868e+00 6.035152e+00 -6.608904e+00 9.849972e-01 2.369328e-01 1.766691e-01 6.551821e-01 1.809342e-01 1.949496e-01 6.624049e-01 4.882969e-01 -2.371571e-02 8.101618e-01 6.328785e-01 -3.035756e-01 4.113374e-01 -6.867713e-03 
1.064292e+01 -1.098855e+01 -5.887463e+00 -4.954903e+00 7.260799e-03 4.444303e+00 -2.230127e+00 -2.350048e+00 -4.698307e+00 -5.559853e+00 6.446821e+00 -5.670629e+00 9.728004e-01 3.450793e-01 3.109466e-01 3.356423e-01 2.021602e-01 1.120685e-01 6.983646e-01 4.148467e-01 2.432726e-01 2.807169e-01 9.656436e-01 -4.820054e-01 2.929924e-01 -6.639636e-03 
1.117313e+01 -1.146621e+01 -6.248763e+00 -5.624345e+00 -6.968331e-01 4.259982e+00 -2.883164e+00 -3.449395e+00 -5.512836e+00 -5.464233e+00 4.651541e+00 -5.535919e+00 9.664475e-01 -4.983764e-02 1.024713e+00 -6.217589e-01 4.368927e-01 2.755194e-01 -9.508466e-03 8.363150e-01 -3.034936e-01 3.361502e-01 7.378057e-01 -4.463985e-01 4.996874e-01 -7.710659e-03 
1.211761e+01 -1.106312e+01 -6.275907e+00 -4.791025e+00 -3.317118e-02 4.718120e+00 -2.296428e+00 -2.267425e+00 -5.925907e+00 -3.565883e+00 4.372685e+00 -5.327281e+00 9.596304e-01 -6.610556e-01 1.187012e+00 -1.454764e+00 2.424698e-01 1.817457e-01 -8.214570e-01 4.249927e-01 -9.954695e-01 3.223704e-01 -1.821231e-01 -5.849636e-01 9.958343e-02 -5.840308e-03 
9.494605e+00 -7.240559e+00 -9.943146e+00 -3.538765e+00 1.082500e+00 2.016418e+00 3.945467e-01 -5.172317e+00 -3.330236e+00 -5.319825e+00 4.840228e+00 -4.282141e+00 9.530289e-01 -5.816082e-01 7.393234e-01 -9.351119e-01 -4.610176e-02 -4.518487e-02 -3.508787e-01 -3.258184e-01 -3.734289e-01 3.971534e-02 -2.656746e-01 -3.141887e-01 -3.281152e-01 -6.187946e-03 
8.176897e+00 -7.166319e+00 -1.131409e+01 -4.785344e+00 2.632260e-02 1.458800e+00 -1.744019e+00 -6.465935e+00 -4.177755e+00 -6.542672e+00 3.427660e+00 -5.799601e+00 9.503081e-01 -2.682535e-01 -1.641464e-03 -1.920847e-01 -5.687996e-01 -1.719971e-01 1.766534e-01 -1.173787e+00 1.957865e-01 -3.954725e-01 -9.405031e-02 -4.095895e-01 -5.023234e-01 -4.518002e-03 
1.023544e+01 -9.717987e+00 -8.405230e+00 -5.857694e+00 -9.525044e-01 4.135248e+00 -4.788460e+00 -3.217284e+00 -6.188336e+00 -5.304212e+00 3.553110e+00 -6.940335e+00 9.401689e-01 3.871727e-01 -6.968719e-01 7.172853e-01 -7.368778e-01 -8.545838e-02 7.371570e-01 -1.273524e+00 6.226165e-01 -6.349729e-01 3.962081e-01 -2.219187e-01 -6.698367e-01 -4.256242e-03 
1.040592e+01 -9.832609e+00 -8.005289e+00 -6.475558e+00 1.243455e-01 4.541971e+00 -5.573858e+00 -2.266008e+00 -6.474220e+00 -4.043941e+00 2.968297e+00 -6.509801e+00 9.434704e-01 5.239502e-01 -2.462055e-01 7.609624e-01 -2.229776e-02 5.031165e-01 6.370082e-01 -5.047069e-02 5.467628e-01 1.062743e-01 7.329704e-01 3.653390e-01 -9.261675e-02 -4.821199e-03 
1.031596e+01 -9.391773e+00 -8.011122e+00 -6.378047e+00 6.061970e-01 4.160617e+00 -4.058155e+00 -4.159198e+00 -5.356868e+00 -4.588150e+00 3.960316e+00 -7.276224e+00 9.351665e-01 1.294526e-01 1.805340e-01 1.132037e-01 3.169839e-01 3.470061e-01 -5.166366e-02 5.490470e-01 -2.654746e-01 4.953137e-01 2.819204e-01 1.925528e-01 3.787041e-04 -4.907203e-03 
1.075639e+01 -8.560453e+00 -7.706334e+00 -4.636656e+00 1.762555e+00 4.631156e+00 -2.361525e+00 -3.261164e+00 -4.062117e+00 -3.235851e+00 5.050752e+00 -6.094740e+00 9.287033e-01 1.005339e-01 1.353273e-01 3.859178e-01 3.312023e-01 7.106527e-02 -4.794502e-03 5.704617e-01 -7.093412e-02 2.455355e-01 5.183010e-01 -1.566185e-01 1.832149e-01 -6.629825e-03 
1.070747e+01 -9.451395e+00 -7.988689e+00 -5.192225e+00 -3.657842e-02 3.832338e+00 -3.649392e+00 -4.047079e+00 -4.917819e+00 -4.298655e+00 3.474647e+00 -7.145972e+00 9.230164e-01 -2.474306e-02 1.531601e-03 5.135363e-01 3.421554e-01 -6.826495e-02 -1.588408e-01 5.160261e-01 3.081655e-01 1.255275e-01 6.896698e-01 -6.365008e-01 1.783677e-01 -5.356044e-03 
1.071284e+01 -9.126162e+00 -6.086915e+00 -5.412457e+00 8.010596e-01 4.682139e+00 -2.925931e+00 -2.676738e+00 -5.466067e+00 -1.597184e+00 2.428039e+00 -5.658853e+00 9.163963e-01 -1.300648e-01 -5.785883e-01 3.333351e-01 3.340256e-01 -4.545784e-01 -7.740966e-01 -1.190255e-01 3.559949e-01 -1.631603e-02 -6.932998e-02 -9.313537e-01 -6.092885e-01 -1.189292e-04 
1.021402e+01 -9.101261e+00 -6.253149e+00 -4.279369e+00 7.456198e-01 3.340922e+00 -1.195822e+00 -2.910583e+00 -4.027256e+00 -1.959135e+00 2.089169e+00 -6.602329e+00 9.145398e-01 -1.894413e-01 -6.636223e-01 6.541336e-01 1.979098e-01 -1.715237e-01 -1.269026e+00 -1.892401e-01 9.612986e-01 6.129980e-02 -1.791338e-01 -1.161840e+00 -5.776461e-01 9.618819e-04 
1.035279e+01 -1.162846e+01 -6.907428e+00 -3.422956e+00 -9.014366e-01 1.006381e+00 -4.183437e+00 -2.049438e+00 -4.588979e+00 -4.752261e+00 1.086723e+00 -9.413004e+00 9.323469e-01 -3.461626e-01 -5.308254e-01 6.416625e-01 1.247764e-01 -5.673342e-01 -1.398974e+00 -5.017414e-01 1.828471e+00 -3.116708e-01 -3.511265e-01 -1.362966e+00 -8.512766e-01 -9.363174e-04 
9.940285e+00 -1.151836e+01 -4.307765e+00 -5.197427e+00 -4.294896e-02 -6.749122e-01 -3.966839e+00 4.457643e-01 -5.049864e+00 -3.616785e+00 -1.663893e+00 -8.157127e+00 9.198505e-01 -4.056798e-01 -7.582321e-02 8.593529e-01 5.550885e-02 -1.141104e+00 -1.038092e+00 -7.771791e-01 2.452967e+00 -6.785364e-01 -1.948891e-01 -1.464294e+00 -4.027012e-01 -5.093002e-03 
9.118890e+00 -1.057174e+01 -3.851295e+00 -4.329546e+00 -1.641327e+00 -3.048131e-01 -4.049129e+00 4.787443e+00 -6.513117e+00 -2.523991e+00 -2.510258e+00 -9.137836e+00 9.090594e-01 -3.870735e-01 4.636953e-01 1.551469e+00 3.039885e-01 -1.668844e+00 -5.770162e-01 1.709962e-02 2.609245e+00 1.310205e-03 -2.107076e-01 -5.758780e-01 3.152484e-01 -1.343859e-02 
8.802570e+00 -1.000874e+01 -3.484451e+00 -3.548530e+00 -4.589952e+00 -1.193942e+00 -5.148871e+00 5.935812e+00 -6.457868e+00 -4.047715e+00 -3.433810e+00 -8.753419e+00 9.007186e-01 -1.996541e-01 2.518551e-01 1.656185e+00 7.197543e-01 -2.586308e+00 -9.586403e-01 2.321599e-01 1.866342e+00 9.475818e-02 -5.530801e-01 1.013466e-01 5.342167e-01 -1.323133e-02 
8.986281e+00 -1.006479e+01 4.382608e-01 -2.727463e+00 -6.972152e+00 -1.619185e+00 -3.506923e+00 8.251764e+00 -3.878426e+00 -5.590334e+00 -9.077088e-01 -7.538616e+00 8.747199e-01 -2.601244e-01 3.180200e-01 2.064156e+00 5.609792e-01 -2.677901e+00 -1.974587e+00 6.580443e-01 1.199708e+00 1.768534e-01 -1.916091e-01 1.173350e-01 8.187154e-01 -1.115787e-02 
9.008318e+00 -1.051255e+01 1.828382e+00 -2.399697e+00 -1.030908e+01 -4.810927e+00 -3.077142e+00 8.045314e+00 -5.893419e+00 -4.849014e+00 -1.958435e+00 -6.285654e+00 8.708636e-01 -2.939556e-01 8.681772e-01 2.029809e+00 7.555559e-01 -2.628504e+00 -2.426379e+00 6.878825e-01 8.708627e-01 -1.457729e-01 3.303843e-01 8.233368e-01 3.277873e-01 -1.439094e-02 
7.715394e+00 -8.729733e+00 3.813068e+00 -2.099066e+00 -1.217127e+01 -8.369256e+00 -1.794772e+00 9.731231e+00 -5.911075e+00 -3.081387e+00 -2.661270e+00 -6.278142e+00 8.681976e-01 -4.795653e-01 1.308298e+00 1.679245e+00 4.210892e-01 -2.357522e+00 -2.404576e+00 -3.061337e-01 3.980023e-01 -5.350035e-01 6.603981e-01 9.685019e-01 -3.776979e-01 -1.613364e-02 
7.968236e+00 -6.335382e+00 4.977191e+00 -8.494797e-02 -1.513292e+01 -9.950801e+00 -2.565534e+00 9.550392e+00 -6.170408e+00 -3.650267e+00 1.559655e+00 -7.744720e+00 8.320251e-01 -2.141862e-01 1.791632e+00 1.218667e+00 9.154661e-02 -1.800302e+00 -1.750952e+00 -1.035414e+00 3.576194e-01 -3.599344e-01 6.052838e-01 9.375570e-01 -4.413209e-01 -2.564843e-02 
7.108496e+00 -5.611888e+00 7.260081e+00 -1.779391e+00 -1.634785e+01 -1.107213e+01 -5.293396e+00 9.489237e+00 -6.414949e+00 -2.887717e+00 2.175756e+00 -8.697573e+00 8.134710e-01 4.613259e-01 1.898708e+00 5.036993e-01 -1.970713e-01 -5.659447e-01 -1.035984e+00 -1.875448e+00 1.746016e-01 -4.477009e-01 4.767967e-01 3.779126e-01 -3.709514e-01 -4.195037e-02 
8.240836e+00 -3.113318e+00 6.198209e+00 -2.101802e+00 -1.722230e+01 -1.221425e+01 -6.504902e+00 9.954408e+00 -7.441154e+00 -1.919430e+00 3.108370e-01 -7.282543e+00 7.699847e-01 7.285812e-01 2.303180e+00 2.306734e-01 2.613617e-01 1.046667e+00 -1.046311e+00 -6.316382e-01 -1.644003e-01 3.602581e-02 6.105075e-01 -1.021894e+00 -3.280161e-01 -6.665367e-02 
9.885723e+00 -8.472242e-01 5.721056e+00 -2.075996e+00 -1.395630e+01 -1.241745e+01 -9.202330e+00 1.040223e+01 -7.514206e+00 -1.562822e+00 -1.472982e-01 -8.363987e+00 6.894659e-01 4.923081e-01 2.659816e+00 6.569031e-01 2.078949e+00 2.873456e+00 -1.081584e+00 7.138444e-01 -7.028551e-01 7.972170e-01 1.660571e-01 -1.854336e+00 -4.287223e-01 -9.887482e-02 
1.022253e+01 2.798186e+00 6.900071e+00 1.370163e+00 -1.109536e+01 -1.450970e+01 -3.769258e+00 8.271894e+00 -5.440650e+00 -1.260177e+00 -2.388287e+00 -9.551593e+00 5.607592e-01 -1.044345e+00 2.552889e+00 1.988598e+00 2.609890e+00 4.736143e+00 3.181257e-01 3.479778e-01 -2.814099e+00 1.226345e+00 1.342268e-01 -2.646580e+00 7.594820e-01 -1.201277e-01 
8.579189e+00 4.731441e+00 1.019367e+01 6.879374e+00 -5.044038e+00 -1.533233e+01 -3.091995e+00 6.816218e+00 -3.429116e+00 -2.387058e+00 -5.746361e+00 -9.706659e+00 4.237096e-01 -2.938278e+00 1.529912e+00 2.258995e+00 1.590911e+00 4.893886e+00 1.629612e+00 4.282635e-01 -3.621192e+00 5.907723e-01 -7.081419e-01 -2.496891e+00 1.928686e+00 -1.114423e-01 
3.672379e+00 6.861794e+00 1.390489e+01 6.469961e+00 2.002285e+00 -9.166183e+00 -7.820180e+00 -2.323080e+00 -3.351975e+00 -8.361783e-01 -1.012253e+01 -2.813797e+00 3.022246e-01 -3.672373e+00 -4.545665e-01 4.691731e-01 -4.608427e-01 2.937145e+00 2.087670e+00 3.267017e-01 -1.994474e+00 6.547834e-01 -9.430639e-01 -2.967324e-01 2.913522e+00 -8.218911e-02 
-1.530590e+00 4.770534e+00 1.351362e+01 3.328660e+00 3.964311e+00 -6.941148e+00 -5.035551e+00 -2.406245e+00 -5.604682e+00 -5.315531e+00 -8.764631e+00 -2.089455e+00 2.615215e-01 -3.626796e+00 -2.601206e+00 -2.183882e+00 -1.856840e+00 3.193181e-02 1.710386e+00 1.824999e+00 3.760823e-01 9.823252e-01 3.252025e-01 2.537162e+00 3.338968e+00 -4.389561e-02 
-3.084449e+00 5.058069e-01 7.585960e+00 8.413066e-01 -9.138088e-01 -8.266937e+00 -1.163972e+00 2.910756e+00 -1.078950e+00 -4.511261e+00 -2.362813e+00 1.207414e+00 2.309077e-01 -2.308157e+00 -3.138496e+00 -3.057029e+00 -1.444311e+00 -1.577516e+00 3.517869e-01 1.620111e+00 7.215837e-01 6.698409e-01 5.580627e-01 2.782542e+00 1.789185e+00 -6.935901e-03 
-6.176374e+00 -5.096595e+00 2.433723e+00 4.095030e-01 -3.426332e+00 -7.230019e+00 2.704895e+00 6.079712e+00 3.459975e-01 1.076495e+00 3.059589e+00 4.977572e+00 2.398900e-01 -6.445678e-01 -1.587335e+00 -2.221336e+00 -8.904568e-01 -1.402152e+00 -3.246492e-01 -5.670515e-01 1.534762e+00 2.227387e+00 1.831370e+00 1.842817e+00 1.122547e+00 -2.631164e-03 
-5.545516e+00 -3.897121e+00 4.159699e+00 7.079831e-01 -2.189974e+00 -7.262812e+00 -3.589849e+00 -2.958139e+00 -2.978110e+00 -1.241878e+00 -2.121928e+00 2.598614e+00 2.783609e-01 4.004839e-01 -2.483843e-01 -1.328489e+00 3.495424e-01 3.003984e-02 8.210143e-01 -1.472398e+00 8.230896e-01 9.535073e-01 2.840566e-01 4.879796e-01 4.308085e-01 -5.758256e-03 
-3.522896e+00 -9.646788e-01 4.120070e+00 -1.056962e+00 -2.408368e+00 -9.066457e+00 -6.657870e+00 8.202014e+00 6.481835e+00 2.206625e+00 3.290116e-01 2.827680e+00 2.246391e-01 1.060586e+00 4.232071e-01 -1.223724e+00 8.010218e-01 7.923403e-01 1.545198e+00 -2.951612e-01 5.016989e-01 6.557751e-01 -1.457093e+00 -2.211587e-01 2.011119e-02 -1.393381e-02 
-2.408769e+00 -2.802073e+00 1.003428e-01 3.322251e+00 -1.272592e+00 -3.243647e+00 -3.844578e+00 5.965054e+00 6.206684e-01 -3.656043e+00 1.442373e+00 4.436403e+00 2.097419e-01 8.238215e-01 2.154826e-01 -1.748223e+00 8.165476e-01 6.171038e-01 2.272492e+00 1.795401e+00 9.944801e-01 1.201437e+00 -6.039113e-01 1.054514e+00 -1.316910e-01 -2.546322e-02 
-2.441819e+00 -3.528084e+00 -1.655219e+00 3.107478e+00 7.667804e-02 -1.513614e+00 1.356454e+00 4.126610e+00 1.825483e+00 -5.001884e+00 1.716447e-01 4.159234e+00 2.045304e-01 1.587233e-01 1.382616e-01 -1.527066e+00 8.774829e-01 1.037978e+00 2.761092e+00 2.648092e+00 -5.066006e-01 7.212299e-01 -1.174099e+00 -4.276240e-01 -1.242195e+00 -1.928421e-02 
-1.966947e+00 -1.538006e+00 -1.693769e+00 2.708501e+00 -3.469782e-01 3.232263e-01 1.379996e+00 4.051964e+00 5.357249e+00 -6.571794e-01 3.229324e+00 1.274382e+00 1.610991e-01 -1.551151e-01 5.751389e-01 -1.524935e+00 -4.298232e-01 7.438611e-01 1.194649e+00 5.407635e-01 1.802568e-01 2.942265e+00 2.758989e-02 -2.453336e+00 -3.148353e-01 -1.853034e-02 
-2.950191e+00 -9.054041e-01 -2.618201e+00 3.637328e+00 2.318716e+00 2.955568e+00 3.970301e+00 6.625556e+00 7.719694e+00 -5.163303e+00 -2.702584e+00 -1.802284e+00 1.525394e-01 4.551230e-02 1.016462e+00 -9.158617e-01 -1.082197e+00 -5.627026e-02 5.972605e-01 -1.099370e+00 -4.945498e-01 2.268656e+00 8.793604e-01 -1.506378e+00 1.056499e+00 -2.014369e-02 
-2.930159e+00 -1.237718e+00 -7.042842e+00 9.082102e-01 1.325695e+00 4.950085e-01 -2.447684e+00 5.616864e+00 1.238489e+01 -3.437384e+00 -9.387195e+00 5.842986e+00 1.430857e-01 -8.603001e-02 1.041726e+00 -3.305917e-01 -1.951897e-01 2.085605e-02 -7.476181e-01 -7.519151e-01 -1.111603e+00 -5.129010e-01 8.390874e-01 -1.047615e+00 2.188141e+00 -2.773470e-02 
-1.732652e+00 1.404084e+00 -3.559991e+00 -1.403363e+00 -1.041010e+00 1.386798e+00 -2.226554e+00 8.714106e-01 9.654941e+00 7.850196e-01 -1.051987e+00 7.157425e+00 1.128187e-01 -5.233717e-02 1.188408e+00 7.107972e-01 -3.111747e-01 -6.145923e-01 -1.450192e+00 -1.077780e+00 -2.289820e+00 -1.225860e+00 2.959796e+00 6.290508e-01 1.913967e+00 -3.695901e-02 
-3.005866e+00 2.515880e+00 -2.875833e+00 4.252898e+00 1.437165e+00 -2.630479e+00 7.188485e-01 1.371023e+00 1.825120e+00 5.640960e-01 -2.834050e+00 7.735234e+00 4.228598e-02 -9.924249e-02 1.854787e+00 1.361184e+00 5.322551e-01 1.099645e-01 -5.934252e-01 6.177729e-01 -1.231620e+00 -4.520553e-01 3.237937e+00 1.048183e+00 6.249154e-02 -3.721306e-02 
-3.174023e+00 3.159839e+00 -1.147720e+00 4.091102e-01 -8.099802e-01 -2.732651e+00 -3.001867e+00 -2.700623e+00 6.870281e+00 7.634935e+00 -2.833902e+00 6.821429e+00 1.814419e-02 -3.599760e-01 1.617049e+00 3.475782e-01 1.759711e-01 7.801341e-01 -1.999263e-01 6.189186e-01 -3.021635e-01 -5.020123e-01 1.446497e+00 -6.277338e-01 -1.651592e+00 -2.949827e-02 
-2.705686e+00 7.158342e+00 -1.443058e+00 2.663249e+00 1.760002e+00 -4.123929e-01 1.028837e+00 1.244781e+00 1.151694e+01 9.327343e+00 -3.255324e+00 6.323442e+00 4.357636e-03 -6.304555e-01 1.853932e+00 5.642695e-01 2.016904e-01 1.244750e+00 1.416155e+00 1.287226e+00 2.924672e-01 -8.222308e-02 3.541392e-01 -1.192206e-01 -1.987893e+00 -1.822128e-02 
-3.682622e+00 7.168100e+00 -2.538487e+00 2.713170e-01 2.698242e+00 -7.218766e-01 7.130449e-01 -5.762861e-01 2.298968e+00 3.635879e+00 -3.980019e+00 -3.946366e-01 -1.570845e-02 -1.110603e+00 1.551409e+00 1.052803e+00 1.708594e+00 1.817109e+00 1.134699e+00 1.946588e+00 6.565298e-01 -1.655299e+00 -1.058545e+00 8.029639e-01 -9.413477e-01 -1.789802e-02 
-5.903844e+00 9.781410e+00 6.408985e-01 5.330247e+00 5.906804e+00 3.444907e+00 5.297521e+00 1.771190e+00 3.699661e+00 4.334320e+00 -2.857095e+00 1.403805e+00 -3.189409e-02 -1.280478e+00 8.581762e-01 1.232197e+00 1.277700e+00 1.340721e+00 7.541010e-01 8.316412e-01 -8.206749e-01 -2.811929e+00 -1.612265e+00 1.380893e+00 3.215935e-01 -1.389366e-02 
-7.127959e+00 9.605349e+00 3.074317e+00 7.618582e+00 6.202162e+00 1.012195e+00 4.596730e+00 3.188210e-01 2.502425e+00 4.838719e+00 9.818029e-01 4.574509e+00 -5.322003e-02 -9.249891e-01 9.668986e-01 1.614219e+00 1.026850e+00 -4.008700e-01 -2.485786e-01 -2.296772e-01 -4.915625e-01 -4.128512e-01 -3.194929e-01 5.008749e-01 7.323396e-01 -9.125519e-03 
-7.385409e+00 1.023060e+01 1.911525e+00 5.378118e+00 6.711645e+00 2.491076e+00 3.245200e+00 -3.306147e+00 -2.644432e+00 6.645992e-01 1.168229e+00 5.446836e+00 -4.635489e-02 -6.122122e-01 4.765593e-01 1.509769e-01 -8.750273e-01 -8.592478e-01 2.031826e-01 -1.126590e+00 -5.120113e-01 3.849863e-01 -8.494179e-01 -1.198459e+00 7.063460e-02 -2.660525e-03 
-7.566785e+00 1.177800e+01 4.897294e+00 5.381632e+00 2.914716e-01 -1.487854e+00 5.908191e-01 -4.954298e-01 3.406759e+00 3.873275e+00 -3.488307e+00 1.245546e+00 -5.410564e-02 -2.805334e-01 4.605326e-01 -7.419586e-04 -9.809362e-01 -3.200342e-01 1.270129e+00 5.728873e-01 8.385893e-01 1.109627e+00 -3.826785e-01 -6.115676e-01 3.931534e-01 1.423788e-03 
-8.745492e+00 1.107788e+01 4.842947e-01 2.073586e+00 4.565910e+00 5.710845e+00 1.667528e+00 -3.817410e-01 5.172426e+00 5.699530e-01 -6.614333e+00 3.421459e+00 -4.475391e-02 -6.593551e-02 9.099385e-01 1.537876e-01 -2.373722e-01 -4.215741e-01 8.425657e-01 1.103883e+00 1.969843e+00 2.633462e+00 9.552471e-01 -3.121781e-01 7.128924e-01 1.213642e-02 
-7.850585e+00 1.148437e+01 3.784223e+00 4.366167e+00 5.674858e+00 5.752956e+00 8.250003e+00 3.049564e+00 4.142131e+00 2.972650e+00 1.815246e+00 7.552964e+00 -4.690158e-02 -1.231187e-01 -1.594389e-01 -8.641123e-01 -5.595244e-01 7.978718e-01 6.164455e-01 1.176904e+00 7.853559e-01 8.037044e-01 6.378339e-01 1.506850e+00 1.504762e+00 6.079608e-03 
-7.573187e+00 1.492710e+01 3.236999e+00 4.698989e+00 1.912082e+00 3.083500e+00 4.935023e+00 4.770570e+00 1.015519e+01 5.891148e+00 -3.044438e+00 5.857589e+00 1.072520e-02 -5.065861e-01 -4.514337e-01 -2.136590e-01 -6.568572e-01 -4.538594e-01 -1.002185e+00 -6.382347e-01 -1.596182e+00 -1.369961e+00 4.216725e-01 6.729187e-01 2.779678e-01 -6.742835e-04 
-8.768531e+00 9.056192e+00 -7.996197e-01 1.271309e+00 5.607745e+00 2.908046e+00 4.841591e+00 8.551948e-01 4.933899e+00 4.401847e+00 2.260998e+00 7.551291e+00 -5.144715e-02 -6.757928e-01 -8.588873e-01 -9.295236e-01 -1.357220e+00 -6.061446e-01 -7.035850e-01 -1.309641e+00 -2.570776e+00 -1.204053e+00 -1.839962e-02 -1.126249e+00 1.504918e-01 -2.449995e-03 
-1.081945e+01 1.003480e+01 1.707921e+00 3.367290e-01 2.330170e+00 2.122373e+00 1.805604e-01 -7.265469e+00 -2.073260e+00 1.963717e+00 -3.472615e+00 4.812135e+00 -4.585254e-02 1.502934e-02 -8.157714e-01 -1.698565e-01 4.048281e-02 1.118621e+00 6.476995e-01 9.733498e-01 -1.226510e+00 -1.634904e+00 -8.898083e-01 -4.599881e-01 2.486989e-02 -6.476379e-03 
-9.606418e+00 9.636085e+00 -9.885645e-02 -2.388041e-01 2.435091e+00 2.715594e+00 4.079028e+00 -3.786295e+00 4.236093e+00 4.844368e+00 -3.601909e+00 8.828150e+00 -3.086269e-02 5.955618e-01 4.762693e-01 1.091350e+00 1.551368e+00 1.581614e+00 1.478916e+00 1.066955e+00 5.976099e-01 -4.146903e-01 -1.143239e+00 -1.344200e+00 -2.297238e-01 4.633188e-03 
-7.079097e+00 1.055830e+01 2.037335e+00 5.656460e+00 9.091515e+00 6.418223e+00 1.018305e+01 9.587629e-01 2.329574e+00 1.220846e+00 -2.412925e+00 5.343509e+00 -3.194892e-02 8.262622e-01 3.821676e-01 1.016029e+00 1.867019e+00 2.330999e+00 1.750377e+00 1.108521e+00 1.751062e+00 1.887518e-01 -1.160053e+00 -4.422401e-01 -4.146338e-03 1.686871e-03 
-7.660898e+00 1.117579e+01 4.492424e+00 6.368281e+00 1.013514e+01 8.154702e+00 5.175118e+00 -2.688715e-01 6.590302e-01 -9.429111e-01 -4.989847e+00 6.136985e+00 -3.523302e-02 3.309237e-01 3.696894e-01 1.163765e+00 1.392599e+00 1.644373e+00 1.261469e+00 -2.815754e-01 5.807213e-01 -8.824669e-01 -1.373832e+00 -5.352798e-01 -4.588854e-01 -1.202476e-03 
