-8.524714e+00 8.937424e+00 -2.197438e+00 -1.344021e+00 4.323484e+00 2.405633e+00 1.042672e+01 -2.921460e-01 -2.128208e-02 7.059958e+00 2.228370e+00 7.251325e+00 -1.312973e-01 -5.006908e-01 -5.450317e-01 3.447492e-01 1.646935e-01 -8.316504e-01 -9.650754e-01 -5.272546e-01 2.790799e-02 9.395189e-01 2.281038e-01 1.827602e+00 4.012228e-01 -4.788351e-03 
-1.035746e+01 7.077207e+00 -1.308166e-01 -4.894831e-01 6.066549e-01 4.257804e-01 7.707379e+00 7.198443e-01 4.371619e-01 6.943532e+00 4.482992e+00 5.049322e+00 -1.414559e-01 -6.735455e-01 -8.440229e-01 3.277625e-01 4.249548e-01 -5.768437e-01 -3.135651e-01 1.917403e-01 -5.208956e-02 1.056361e+00 1.662213e-01 1.806793e+00 5.021334e-01 -4.661513e-03 
-1.011180e+01 7.142375e+00 -1.507003e+00 -9.478216e-01 2.023647e+00 -1.429818e+00 9.150114e+00 -6.586012e-01 4.447091e+00 8.258690e+00 1.023907e+01 1.035844e+01 -1.501598e-01 -3.902346e-01 -5.554695e-01 -1.581564e-01 -2.844029e-01 -4.360473e-02 -4.158592e-02 3.303194e-03 -5.816090e-01 -7.951470e-02 -2.918731e-01 1.164829e+00 4.639035e-01 -3.139746e-03 
-1.109890e+01 5.614834e+00 -9.038435e-01 5.826539e-01 2.589184e+00 2.755533e+00 1.202372e+01 -3.693662e-01 3.026337e+00 7.291698e+00 7.256985e+00 8.208434e+00 -1.451737e-01 1.057739e-02 -2.312996e-01 -6.792733e-01 1.441980e-01 7.416503e-01 -3.872962e-02 -2.436338e-01 -1.051332e+00 1.880154e-01 -6.498960e-01 -3.218973e-01 9.783021e-01 -1.465094e-03 
-1.010517e+01 6.891263e+00 -2.601707e+00 -3.302104e+00 3.114196e+00 1.032827e+00 8.285063e+00 -2.655586e+00 -1.713443e+00 5.426509e+00 6.665519e+00 7.991286e+00 -1.451372e-01 1.023581e-01 2.277023e-01 2.283105e-01 1.534008e+00 1.652336e+00 2.360753e-01 -2.677166e-01 -2.455305e-01 8.303830e-01 -2.752835e-01 -1.476286e+00 3.831859e-02 -8.384705e-04 
-1.030789e+01 6.046264e+00 -2.979831e+00 1.408648e+00 3.769632e+00 -9.991901e-01 6.921736e+00 -3.538325e+00 4.457506e+00 5.110142e+00 4.660283e+00 1.112441e+01 -1.512927e-01 7.706703e-01 8.559033e-01 1.130621e-01 1.109413e+00 1.373872e+00 2.583780e-01 -1.044433e+00 -2.207350e-01 1.477623e+00 1.144790e-01 -7.232721e-01 9.552072e-01 -1.715851e-03 
-9.995513e+00 8.065170e+00 6.725432e-01 6.309221e+00 9.695105e+00 1.627920e+00 1.036252e+01 -3.017741e-01 7.883422e+00 7.973050e+00 4.155994e+00 9.092046e+00 -1.512927e-01 4.187500e-01 5.678045e-01 6.647688e-01 4.960130e-01 4.640292e-01 1.092986e+00 2.048283e-01 9.902616e-01 1.722398e+00 3.133671e-01 -3.166316e-01 9.813099e-01 -1.169348e-03 
-7.300376e+00 9.307396e+00 -1.975658e+00 1.324058e+00 6.168091e+00 3.749876e+00 5.762824e+00 -2.649947e+00 5.616021e+00 6.590822e+00 4.895386e+00 1.243409e+01 -1.506752e-01 2.462141e-01 2.273847e-01 6.984211e-01 -1.494326e+00 -1.095375e+00 9.304506e-01 -3.539064e-01 7.088305e-01 -4.550599e-01 -1.944322e-01 4.749863e-02 -2.209098e-01 6.167650e-04 
-9.515172e+00 8.099719e+00 2.200503e-01 -7.797443e-01 4.235113e+00 4.123223e+00 9.888660e+00 1.851533e+00 6.319290e+00 6.253004e+00 4.964809e+00 1.224300e+01 -1.512927e-01 -1.278872e-01 -6.694115e-01 2.262542e-02 -1.533968e+00 -1.959385e+00 -6.164330e-01 -3.120455e-01 7.581588e-01 -1.604885e+00 -2.425335e-01 -1.722679e-01 -7.050809e-01 2.466321e-04 
-9.316987e+00 7.165914e+00 7.385209e-01 -2.518501e+00 1.022753e+00 2.405411e+00 5.389135e+00 -1.070826e+00 2.964272e+00 4.998004e+00 4.493368e+00 8.444386e+00 -1.482089e-01 -8.137907e-01 -4.547677e-01 5.333816e-01 3.362555e-01 -7.035659e-01 -1.089012e+00 8.408849e-01 8.528799e-01 -1.562400e+00 -4.072507e-01 -1.246642e+00 -2.461920e+00 8.965492e-04 
-9.626643e+00 5.788854e+00 -5.714194e-01 5.606600e-01 2.470848e+00 -7.820128e-01 8.989141e+00 2.699459e+00 1.184872e+00 7.556792e+00 3.495664e+00 7.561494e+00 -1.512927e-01 -2.028242e-01 -2.710040e-01 3.566419e-01 8.941204e-01 -4.941750e-01 -2.246161e+00 -3.986716e-01 -3.445606e-01 -1.102694e+00 -7.864393e-01 -1.094580e+00 -2.363602e+00 2.016425e-04 
-1.131359e+01 8.188991e+00 1.086984e+00 2.335134e+00 3.532394e+00 7.574338e-01 1.041701e+01 1.190489e+00 3.712331e-01 3.902675e+00 -6.032529e-01 2.465243e+00 -1.461924e-01 -7.844734e-02 3.082100e-01 4.996522e-01 1.042481e+00 4.926832e-01 -6.664203e-01 3.071314e-01 -4.959978e-01 7.030687e-01 -5.543860e-01 -4.834921e-01 -1.208996e+00 2.365732e-03 
-9.530990e+00 6.233161e+00 1.829028e+00 1.264041e+00 5.094173e-01 -6.283595e+00 5.381366e+00 -1.001928e+00 2.102338e+00 2.868472e+00 2.040217e+00 3.414555e+00 -1.512927e-01 1.514711e-01 8.436276e-01 3.306023e-01 -1.626289e-01 3.951189e-01 4.929025e-01 -3.006165e-01 -1.192773e+00 5.080173e-01 -4.766026e-01 -1.566618e-01 2.398775e-01 4.223692e-03 
-9.757051e+00 8.484810e+00 2.036558e+00 2.342215e+00 4.466884e+00 1.824101e+00 8.728680e+00 -1.700122e+00 6.020883e+00 4.570234e+00 2.803631e+00 4.472873e+00 -1.363802e-01 4.514446e-01 6.139705e-01 -3.328214e-01 -9.288629e-01 -2.103117e-01 4.036340e-01 4.847686e-01 6.101539e-01 5.705630e-01 4.644600e-02 1.005278e+00 2.278646e+00 6.011844e-04 
-9.647559e+00 9.859082e+00 6.068052e-01 -2.560252e-01 3.979198e+00 1.149166e+00 8.330221e+00 -1.819102e+00 9.001334e-01 4.839999e+00 1.008912e+00 7.757067e+00 -1.350803e-01 -1.021034e-01 1.583876e-01 -1.097322e+00 -1.978534e-01 5.389434e-01 8.496408e-01 7.449516e-01 1.136845e+00 -7.509000e-01 -6.447041e-01 5.227062e-01 1.454901e+00 -1.491249e-03 
-8.998086e+00 9.445882e+00 3.398836e-02 -1.549148e+00 7.459457e-01 -9.407765e-01 1.136642e+01 4.649846e+00 3.825150e+00 3.149141e+00 4.938788e+00 1.168722e+01 -1.512927e-01 4.327850e-02 -8.630819e-01 -1.083335e+00 -4.439015e-01 -7.471255e-01 -4.895832e-01 -7.881132e-01 2.903912e-02 -7.564794e-01 -1.687899e-01 1.755820e-01 3.318457e-02 -4.603731e-03 
-1.042099e+01 6.544563e+00 -2.656295e+00 2.220456e+00 5.064604e+00 -6.529518e-01 7.787252e+00 1.507311e+00 -5.542960e-01 3.554978e-01 3.586170e+00 7.081889e+00 -1.512927e-01 3.535498e-01 -4.598255e-01 2.479419e-01 1.166279e+00 3.838221e-01 -3.915221e-01 -2.020804e+00 -1.724129e+00 -2.980370e-01 -8.305372e-01 -1.181790e+00 -2.375167e+00 -2.687073e-03 
-9.153943e+00 5.826660e+00 -1.748565e+00 -1.115533e+00 1.885536e-01 2.772435e-01 5.059598e+00 -3.218133e+00 2.965700e+00 5.968535e+00 2.392913e+00 4.976384e+00 -1.512927e-01 1.804824e+00 1.532278e+00 1.559986e+00 1.924832e+00 1.296224e+00 -9.252494e-01 -3.482470e+00 -3.596657e+00 -2.838758e+00 -1.995647e+00 -2.851138e+00 -3.138927e+00 1.601118e-02 
-7.801882e+00 9.369565e+00 2.737792e+00 5.358564e+00 6.177004e+00 -1.417454e+00 1.379616e+00 -6.505759e+00 -1.603265e-01 -7.223833e-01 -3.627100e+00 -7.633538e-01 -1.485157e-01 4.763057e+00 2.715773e+00 1.223513e+00 -1.906266e-01 -2.297408e-01 -2.318777e+00 -4.675206e+00 -2.577251e+00 -1.046268e+00 -1.830972e+00 -4.490791e+00 -3.345395e+00 8.572282e-02 
-1.283522e+00 1.569477e+01 5.136874e+00 6.505956e+00 6.670864e+00 -5.184772e+00 -2.842110e+00 -9.326904e+00 -1.056563e+01 -6.290155e+00 -5.710269e+00 -8.479738e-02 -7.262528e-02 5.527006e+00 1.025769e+00 4.584666e-01 -1.073964e+00 -2.961938e-01 -2.017777e+00 -3.801024e+00 -6.833737e-01 -5.024853e-01 -1.525606e+00 -4.851844e+00 -4.341414e+00 1.343643e-01 
9.459085e+00 1.518937e+01 1.855111e-02 -2.543422e+00 6.747441e-01 -9.515827e+00 -1.163792e+01 -8.324557e+00 9.800280e-01 -2.670020e+00 -1.481620e+01 -7.114494e+00 2.379877e-01 4.600518e+00 -1.280411e+00 -2.483398e-01 -2.369136e+00 -1.849566e+00 -1.184345e+00 -2.163567e+00 8.586823e-01 3.781482e-01 9.144017e-01 -2.977939e+00 -4.674933e+00 1.419708e-01 
9.850602e+00 8.045601e+00 1.903388e+00 -2.534358e+00 1.458715e+00 -5.762456e+00 -7.436754e+00 -5.725602e+00 -1.169035e-01 -6.856768e-01 -1.627176e+01 -1.355512e+01 3.272770e-01 2.175352e+00 -2.980039e+00 4.079188e-01 -1.708082e+00 -1.665859e+00 -5.024496e-01 -2.230787e-02 1.857444e+00 -1.238850e-01 2.340051e+00 -4.932369e-01 -5.077628e+00 1.103688e-01 
9.633647e+00 6.792098e+00 3.112836e+00 -1.966962e+00 -4.647477e-01 -7.050340e+00 -7.140895e+00 -4.012999e+00 -3.493947e+00 1.047385e+00 -1.323605e+01 -1.740286e+01 3.613871e-01 1.102543e-01 -2.545129e+00 1.885392e+00 1.421277e-01 -7.046331e-01 -1.196982e+00 1.774448e+00 2.007874e+00 -3.751193e+00 9.943863e-01 3.184831e+00 -3.776982e+00 5.385365e-02 
9.505959e+00 4.993212e+00 5.629326e+00 -2.322686e+00 -1.088686e+00 -8.929764e+00 -5.202163e+00 -2.195461e+00 -8.948065e+00 3.551396e+00 -8.966527e+00 -2.032876e+01 4.175192e-01 -4.387038e-01 -2.462564e+00 5.274206e-01 -3.120225e-02 -2.799121e+00 -3.274004e-01 -4.347349e-01 2.444183e+00 -2.966771e+00 -1.064505e+00 2.696850e+00 -7.554875e-02 6.323495e-02 
1.018268e+01 3.989921e+00 7.582541e+00 -1.938619e+00 -1.574721e+00 -1.391708e+01 -3.882976e+00 -5.025733e-02 -1.336036e+01 1.833760e-01 -2.544657e+00 -2.261259e+01 4.621349e-01 -1.114658e+00 -3.998470e+00 -1.175154e+00 -1.296032e+00 -4.369362e+00 1.787307e+00 -1.277059e+00 3.258990e+00 -1.008121e+00 -2.152880e+00 1.340317e+00 1.860257e+00 1.133141e-01 
7.382567e+00 -2.866132e+00 2.305639e+00 -2.704540e+00 -1.198190e+01 -3.966086e+00 -1.123939e+01 4.513941e+00 -1.001756e+01 -5.576196e+00 -8.133208e+00 -1.132800e+01 5.930778e-01 -1.512769e+00 -5.207718e+00 -2.685262e+00 -1.740004e+00 -3.600129e+00 3.446227e+00 -8.859240e-01 2.320112e+00 1.136173e+00 -2.316481e+00 6.791501e-02 3.250565e+00 1.363538e-01 
5.122053e+00 -9.270580e+00 -1.101092e+00 -8.256195e+00 -1.686495e+01 -5.956424e-01 -1.050758e+01 8.927248e+00 -7.999808e+00 -5.153222e+00 -6.951124e+00 -1.260196e+01 8.401780e-01 -1.401608e+00 -5.090713e+00 -3.298791e+00 -9.793173e-01 -1.163441e+00 4.061292e+00 6.123447e-03 1.746580e-01 1.993183e+00 -1.971190e+00 3.311775e-01 3.677222e+00 1.271389e-01 
4.472424e+00 -1.441513e+01 -3.455167e+00 -7.863918e+00 -1.144422e+01 1.640649e+00 -6.319482e+00 4.916344e+00 -5.947472e+00 -5.362712e+00 -6.423718e+00 -9.081245e+00 9.102665e-01 -4.631213e-01 -3.451065e+00 -2.203754e+00 2.175463e-01 2.694150e+00 2.292659e+00 1.460733e+00 -1.689268e+00 1.297232e+00 -8.643713e-01 1.764496e+00 2.386441e+00 8.547807e-02 
4.629709e+00 -1.568914e+01 -6.031013e+00 -4.255517e+00 -7.660772e+00 3.586010e+00 -6.312312e+00 6.218312e-01 -5.429482e+00 -9.779315e+00 -1.743515e+00 -5.349853e+00 9.392351e-01 7.981012e-02 -1.927117e+00 -1.675108e+00 1.559581e+00 3.703249e+00 1.511420e+00 6.670297e-01 -2.766294e+00 8.916820e-01 -3.700883e-01 1.389500e+00 2.402122e+00 3.638296e-02 
5.313133e+00 -1.691218e+01 -6.248170e+00 -3.617148e+00 -3.113244e+00 5.406382e+00 -6.033357e+00 2.203064e-01 -4.816559e+00 -7.585006e+00 -1.914534e+00 -3.021846e+00 9.709396e-01 9.946070e-02 -9.538265e-01 -9.355537e-01 9.103950e-01 2.879611e+00 4.517030e-01 3.242953e-01 -2.774006e+00 1.091931e+00 1.739417e-01 1.533756e+00 9.177791e-01 2.235160e-02 
5.100749e+00 -1.765764e+01 -8.080130e+00 -2.581676e+00 -2.514193e+00 5.078590e+00 -7.315492e+00 -2.556204e+00 -4.106854e+00 -5.892517e+00 -2.258218e+00 -3.621043e+00 9.917563e-01 -4.913244e-02 -2.668125e-01 -4.722709e-01 3.142447e-01 2.056718e+00 1.161890e-01 1.009683e+00 -2.761943e+00 1.652932e+00 1.273761e+00 1.461116e+00 -2.111097e-01 1.454825e-02 
4.734207e+00 -1.820001e+01 -7.108377e+00 -4.148864e+00 3.805480e-01 3.152874e+00 -4.196415e+00 -7.364670e+00 -1.149131e+00 -6.436403e+00 1.502414e+00 -5.356756e+00 9.957640e-01 -1.843334e-01 4.941645e-01 -3.343236e-01 2.669388e-01 1.182747e+00 3.209542e-01 1.566030e+00 -3.105231e+00 1.929574e+00 1.268216e+00 2.037570e+00 -7.138480e-01 6.592864e-03 
4.673510e+00 -1.637929e+01 -7.962265e+00 -2.418435e+00 8.759210e-01 5.293709e+00 -2.182367e+00 -9.395395e+00 1.001465e+00 -3.984812e+00 3.853589e+00 -5.237947e+00 9.995642e-01 -1.184212e-01 8.670372e-01 -3.148661e-01 4.279131e-02 6.540799e-01 9.555516e-01 1.631441e+00 -2.642963e+00 1.742395e+00 1.361861e+00 1.628427e+00 -4.954582e-01 9.661257e-04 
4.605086e+00 -1.508053e+01 -7.978721e+00 -2.364074e+00 1.105433e+00 6.903593e+00 -7.697687e-01 -1.188625e+01 2.277153e+00 -2.197776e+00 5.217412e+00 -5.782634e+00 1.000000e+00 3.957970e-02 8.511524e-01 -8.408517e-01 -1.033730e-01 -2.688549e-01 1.394170e+00 4.744202e-01 -1.990438e+00 8.301144e-01 1.376280e+00 6.818727e-02 -1.500811e-01 -3.192753e-03 
4.573203e+00 -1.488219e+01 -9.219288e+00 -3.260114e+00 3.937643e-01 7.980989e+00 -8.716121e-01 -1.351023e+01 2.891981e+00 -1.202527e+00 4.026419e+00 -5.885395e+00 9.944689e-01 4.377992e-02 7.722452e-01 -1.023649e+00 -6.077392e-01 -4.105178e-01 8.460253e-01 5.132232e-02 -1.854658e+00 5.659321e-01 7.526377e-01 -9.983028e-01 2.123257e-01 -8.797300e-03 
4.982259e+00 -1.469279e+01 -1.068412e+01 -4.244889e+00 -7.226484e-01 8.780086e+00 -2.479692e+00 -1.525944e+01 2.056183e+00 -9.461455e-01 1.756935e+00 -5.783437e+00 9.823478e-01 2.961630e-01 7.792763e-01 -8.911091e-01 -2.888977e-01 -4.859416e-01 1.024980e+00 -4.127504e-01 -8.162730e-01 3.761045e-01 4.003833e-01 -1.045827e+00 6.888711e-01 -1.200809e-02 
4.703823e+00 -1.271193e+01 -1.172781e+01 -4.516723e+00 -2.626271e-01 8.585589e+00 -1.070794e+00 -1.698209e+01 3.941610e+00 -8.474391e-01 5.923133e-01 -4.175917e+00 9.644037e-01 3.446260e-01 6.966154e-01 -3.381830e-01 -3.205532e-01 -2.859119e-01 1.112248e+00 -5.177585e-01 -7.080106e-02 3.165960e-02 6.058659e-01 -8.604533e-01 7.488642e-01 -1.180574e-02 
6.020592e+00 -1.226928e+01 -1.118001e+01 -3.180258e+00 -9.960792e-01 1.172619e+01 -2.733930e+00 -1.423168e+01 3.632861e+00 -3.734035e-01 1.705329e+00 -3.193017e+00 9.549921e-01 3.023556e-01 4.279453e-01 -7.939911e-03 -3.687927e-01 -3.619393e-01 1.098950e+00 -7.521211e-01 4.801223e-01 -2.672513e-01 6.157913e-01 -6.077697e-01 4.840946e-01 -1.009195e-02 
5.777167e+00 -1.261087e+01 -1.066226e+01 -5.395195e+00 -8.990796e-01 1.206917e+01 -3.333286e+00 -1.437811e+01 2.261940e+00 1.540432e+00 -2.500446e-01 -3.436284e+00 9.491180e-01 1.820806e-01 4.562321e-02 -1.781082e-03 -3.814868e-01 -8.005684e-01 1.024484e+00 -1.378055e+00 8.587974e-01 -7.959199e-01 5.467033e-01 -8.501068e-01 1.801906e-01 -8.956701e-03 
5.957365e+00 -1.260360e+01 -1.125660e+01 -5.649617e+00 -2.214118e+00 1.253305e+01 -5.109051e+00 -1.416082e+01 1.559761e+00 9.388757e-01 -8.607342e-01 -3.732781e+00 9.395310e-01 9.288987e-02 7.538815e-02 -1.951673e-01 -3.105682e-01 -8.171676e-01 5.643470e-01 -1.019759e+00 7.512689e-01 -4.438046e-01 3.968076e-01 -1.128359e+00 3.622721e-01 -9.599286e-03 
5.645839e+00 -1.231666e+01 -1.169842e+01 -5.189478e+00 -3.656449e+00 1.330459e+01 -6.773509e+00 -1.272354e+01 9.985603e-01 1.229938e+00 -2.375190e+00 -3.005083e+00 9.273508e-01 1.783113e-01 1.962431e-01 -1.755325e-01 2.045078e-01 -7.136816e-01 5.290674e-01 -9.045033e-01 1.055353e+00 -2.235135e-02 1.098625e-01 -8.842907e-01 5.604988e-01 -8.768636e-03 
6.550705e+00 -1.203945e+01 -1.163776e+01 -4.835958e+00 -3.703233e+00 1.393022e+01 -6.112615e+00 -1.130263e+01 2.045528e+00 1.765882e+00 -2.873896e+00 -1.597258e+00 9.178793e-01 4.976654e-02 1.472258e-01 5.375319e-02 1.279932e-01 -3.486527e-01 1.592626e-01 -3.524648e-01 9.729654e-01 1.567770e-01 3.652861e-01 -8.193060e-01 4.778211e-01 -6.816697e-03 
6.372054e+00 -1.191173e+01 -1.134934e+01 -4.779486e+00 -3.722930e+00 1.401592e+01 -7.354021e+00 -1.053044e+01 1.907300e+00 1.676242e+00 -3.664917e+00 -1.701551e+00 9.161007e-01 -5.088587e-02 2.504158e-02 4.003901e-01 2.316604e-02 -2.151908e-01 -1.921326e-01 8.069114e-02 7.030231e-01 1.412302e-01 3.061470e-01 -4.614925e-01 1.237690e-01 -6.691873e-03 
5.843090e+00 -1.206993e+01 -1.116237e+01 -5.214647e+00 -3.924141e+00 1.297369e+01 -6.581119e+00 -1.039254e+01 1.889277e+00 2.542154e+00 -4.312400e+00 -1.995441e+00 9.110726e-01 -3.050471e-01 -2.499123e-02 6.869723e-01 1.829320e-01 -3.731796e-01 -3.763680e-01 2.177107e-01 8.863872e-01 -1.153047e-01 4.518623e-01 -5.898525e-01 2.338965e-01 -7.252789e-03 
5.745217e+00 -1.217621e+01 -9.934166e+00 -4.884304e+00 -4.621949e+00 1.282219e+01 -6.135801e+00 -9.663463e+00 1.782837e+00 2.372536e+00 -3.963400e+00 -2.187146e+00 8.972948e-01 -3.627567e-01 -2.241096e-02 8.087509e-01 5.815269e-01 -1.872370e-01 -6.341304e-01 2.091348e-01 1.242869e+00 4.184482e-02 6.443372e-01 -8.255039e-01 5.154246e-01 -3.784376e-03 
5.338888e+00 -1.203217e+01 -8.910490e+00 -3.868889e+00 -5.119621e+00 1.264525e+01 -5.633172e+00 -7.304181e+00 1.531236e+00 3.677046e+00 -5.673917e+00 -1.849780e-01 8.910183e-01 -4.841310e-01 -6.936798e-02 1.030595e+00 1.104283e+00 6.962061e-02 -9.381559e-01 -4.007154e-01 1.663092e+00 3.714863e-01 3.458105e-01 -7.197396e-01 2.304581e-01 3.592163e-03 
4.810371e+00 -1.204267e+01 -8.431528e+00 -2.544730e+00 -4.061376e+00 1.100949e+01 -6.782320e+00 -5.860278e+00 2.295544e+00 4.330482e+00 -7.111678e+00 -2.965975e-02 9.072059e-01 -6.667730e-01 -1.356474e-01 1.190614e+00 1.374404e+00 -1.656156e-01 -1.718228e+00 -7.086228e-01 1.914877e+00 6.789528e-01 -4.874325e-01 -6.531193e-01 5.739212e-02 9.259087e-03 
3.889858e+00 -1.248354e+01 -6.760716e+00 -8.630173e-01 -3.856325e+00 9.189260e+00 -8.261436e+00 -3.978672e+00 3.490354e+00 3.292234e+00 -6.336959e+00 -1.921894e+00 9.240778e-01 -7.036483e-01 4.808216e-02 1.630715e+00 1.382360e+00 -9.660670e-01 -2.411102e+00 -2.116377e-01 1.897636e+00 1.011927e+00 -1.829362e+00 -2.728935e-01 2.718670e-01 7.586539e-03 
3.135868e+00 -1.262876e+01 -5.055983e+00 4.847826e-01 -6.081676e+00 5.959043e+00 -8.364782e+00 -1.751835e+00 4.198042e+00 1.277801e-01 -6.897475e+00 -1.031727e+00 9.270605e-01 -3.951488e-01 2.803776e-01 2.376179e+00 1.015648e+00 -2.164308e+00 -2.496040e+00 1.086034e+00 1.992552e+00 2.293820e-01 -2.160124e+00 4.671400e-01 9.519625e-01 -1.157554e-02 
2.657898e+00 -1.149871e+01 -2.444686e+00 1.528156e+00 -8.939806e+00 3.114962e+00 -5.900129e+00 1.297770e-01 5.639623e+00 -3.368413e+00 -7.145486e+00 1.675391e+00 9.190237e-01 5.438733e-01 6.027033e-01 3.086319e+00 -3.801382e-03 -2.825324e+00 -1.963022e+00 2.124120e+00 1.802630e+00 -1.115009e+00 -1.178196e+00 8.333767e-01 1.646344e+00 -4.455116e-02 
3.450607e+00 -1.113319e+01 1.291354e+00 1.337923e+00 -1.234118e+01 1.566442e+00 -2.532805e+00 2.048257e+00 2.367820e+00 -3.139816e+00 -4.371715e+00 2.931510e+00 8.518553e-01 1.056264e+00 1.586637e+00 2.839489e+00 -5.904372e-01 -2.790457e+00 -8.373874e-01 2.353655e+00 9.317752e-01 -2.267465e+00 7.352789e-01 1.346353e+00 1.180987e+00 -7.583904e-02 
6.451854e+00 -1.021781e+01 5.497211e+00 -1.308594e+00 -1.485319e+01 1.570449e+00 -5.568271e-01 3.134432e+00 -1.169581e+00 -9.649470e-01 -3.432956e+00 4.328208e+00 7.389246e-01 9.282473e-01 2.120663e+00 2.508216e+00 -8.822706e-01 -2.479818e+00 -4.812922e-01 2.426517e+00 -1.961608e-01 -2.821998e+00 1.412319e+00 2.162160e+00 -1.661892e-01 -7.908200e-02 
6.520212e+00 -5.336027e+00 5.170516e+00 -1.049028e+00 -1.707726e+01 2.544363e+00 7.318397e-01 1.404714e+00 -3.734682e+00 2.602441e+00 -2.021974e+00 3.546801e+00 6.379148e-01 9.321296e-02 2.823487e+00 1.448261e+00 -7.040905e-01 -1.043502e+00 -1.191294e+00 2.963266e+00 -2.413785e+00 -1.361970e+00 8.139340e-01 2.242516e+00 -8.289217e-01 -6.385684e-02 
5.764333e+00 -3.793979e+00 8.156812e+00 -1.689721e+00 -1.897085e+01 2.195405e-01 4.600131e+00 -5.292555e-01 -5.419115e+00 8.220538e-01 2.490446e+00 5.367994e-01 6.305839e-01 -3.370476e-01 1.169040e+00 1.849541e+00 -7.319357e-01 -8.562945e-01 -2.313683e-01 7.921762e-01 -2.724415e+00 -7.391473e-01 2.951248e-01 2.683156e+00 -1.603512e+00 -1.497762e-02 
4.260433e+00 -2.276745e-01 7.202861e+00 -1.991966e+00 -1.549986e+01 -3.714573e+00 9.705047e+00 -8.188828e+00 -2.317260e+00 3.635287e-02 3.879164e+00 6.826062e-01 5.867414e-01 3.946629e-01 1.011293e-01 2.291856e+00 6.797292e-02 1.872087e+00 -1.719638e+00 -1.853924e+00 -4.480718e-01 -7.335864e-01 -1.193203e+00 7.602016e-01 -2.476386e+00 -2.545825e-02 
5.896505e+00 -6.926782e+00 1.372875e+01 -4.496804e+00 -1.992337e+01 3.543076e+00 -1.082550e+00 -5.690872e+00 -5.574028e+00 1.793721e+00 7.032255e+00 -2.257252e+00 6.896232e-01 1.105757e+00 2.451056e-01 1.147738e+00 9.856464e-01 4.640162e+00 -3.038211e+00 -3.757039e+00 2.308434e+00 -1.559835e+00 -1.249506e+00 -1.011314e-01 -2.748025e+00 -5.098294e-02 
8.427440e+00 -3.263978e+00 1.384383e+01 6.943775e-01 -7.240569e+00 -7.715594e+00 -5.696441e+00 1.745163e+00 -7.325158e+00 -3.849407e+00 -4.918706e-01 -7.438103e+00 4.811039e-01 1.391056e+00 9.086124e-01 6.760330e-02 1.596121e+00 5.046859e+00 -3.791801e+00 -3.880485e+00 3.770610e+00 -1.785939e+00 -1.162794e+00 -1.706407e-01 -3.261023e+00 -6.404118e-02 
9.209615e+00 -1.050299e+00 1.057502e+01 1.895339e+00 1.003156e-01 -1.297100e+01 -6.484321e+00 6.045918e+00 -1.071434e+01 -3.482598e+00 4.170306e+00 -9.142971e+00 4.284880e-01 8.747183e-01 2.560747e+00 -1.343958e+00 1.605013e+00 4.880327e+00 -3.757834e+00 -1.073778e+00 2.651366e+00 -4.045550e-01 -1.191106e+00 -4.752427e-01 -1.650961e+00 -7.191074e-02 
9.559159e+00 1.377146e+00 9.117741e+00 2.792568e+00 -2.774074e-01 -1.441654e+01 -6.996492e+00 4.795827e+00 -8.676801e+00 -3.139457e+00 4.456935e+00 -1.217965e+01 3.971032e-01 -1.045733e-01 1.553527e+00 -1.446671e-01 4.243649e-01 1.720152e+00 -7.069470e-01 -2.887839e-01 7.766655e-01 -9.038506e-02 3.220914e-01 9.700961e-01 -1.224410e-01 -2.381833e-02 
9.704237e+00 3.556390e+00 9.372002e+00 2.479168e+00 9.966869e-01 -1.189562e+01 -5.801413e+00 6.040624e+00 -6.920982e+00 -4.516782e+00 2.181639e+00 -8.141287e+00 3.720699e-01 -3.507863e-01 1.755129e+00 9.715861e-01 3.229954e-01 -3.705659e-01 1.008176e+00 6.221283e-01 -4.323168e-02 5.967533e-01 1.169421e-01 3.799356e-01 1.253762e+00 -1.962771e-02 
7.657262e+00 2.200314e+00 1.372200e+01 2.524287e+00 9.120035e-01 -1.178802e+01 -7.481815e+00 5.631138e+00 -9.673762e+00 -1.721858e+00 5.352943e+00 -8.551149e+00 3.902213e-01 -5.837573e-01 1.998147e+00 1.308716e+00 1.413934e+00 -2.444782e-01 1.018919e+00 1.308682e+00 -5.639005e-01 1.615980e+00 7.426909e-01 -1.040482e+00 1.900698e+00 -2.518861e-02 
8.406632e+00 7.313762e+00 1.313082e+01 3.644456e+00 -2.347219e+00 -9.244383e+00 -3.131018e+00 5.412105e+00 -7.232093e+00 -3.606687e+00 5.621981e+00 -4.688411e+00 3.337904e-01 -1.080371e+00 2.019244e+00 3.918400e-01 2.729401e+00 1.212442e+00 1.701176e+00 1.978166e+00 -1.367450e+00 1.444906e+00 5.573697e-01 -1.931437e+00 1.130297e+00 -3.862459e-02 
7.289175e+00 9.489197e+00 1.378191e+01 9.279594e+00 1.721549e-01 -1.064757e+01 -1.788280e+00 2.290584e+00 -4.413449e-01 1.189499e-01 -2.465643e+00 -4.402597e+00 2.902999e-01 -1.499354e+00 1.585997e+00 -7.258151e-01 2.923143e+00 2.757256e+00 1.762174e+00 2.072015e+00 -4.362441e-01 1.201848e+00 1.367460e-01 -1.691659e+00 4.416252e-01 -6.534686e-02 
4.486424e+00 1.000817e+01 1.130125e+01 1.274852e+01 7.428822e+00 -3.959970e+00 1.242648e+00 8.736515e-01 -4.312661e+00 -2.650338e+00 -3.566254e+00 -4.564081e+00 2.289076e-01 -2.189821e+00 -1.065039e-01 -1.316723e+00 1.337213e+00 3.571027e+00 2.633307e+00 7.313000e-01 -3.669814e-01 7.643618e-02 1.463232e-01 -1.583819e+00 -3.610460e-01 -7.832693e-02 
2.120595e+00 8.783097e+00 1.100771e+01 1.258797e+01 9.810263e+00 -5.619355e+00 6.914258e-01 5.719144e+00 -5.124240e+00 -1.516303e+00 1.488765e+00 -6.405189e+00 1.159284e-01 -2.257512e+00 -1.213007e+00 -2.438004e+00 -2.165886e+00 8.423678e-01 2.114030e+00 4.277611e-01 1.028052e+00 3.946647e-01 -7.111613e-01 -9.458922e-01 -5.839558e-02 -8.184178e-02 
4.181910e-02 7.134292e+00 7.934305e+00 8.676331e+00 1.068886e+01 1.408045e+00 -7.143712e-01 1.862918e+00 -4.508464e+00 -2.057445e+00 -4.274316e+00 -5.492345e+00 2.934152e-02 -1.879332e+00 -1.485764e+00 -3.087642e+00 -3.762328e+00 -1.692841e+00 7.680801e-01 7.241066e-01 1.234329e+00 1.722643e+00 -9.583285e-02 1.767500e-01 9.961677e-01 -6.638284e-02 
-1.776081e+00 4.861101e+00 3.275363e+00 4.862562e-01 2.753974e+00 -2.761426e+00 1.329035e+00 6.936211e+00 1.629880e+00 -3.733303e+00 -6.841073e+00 -4.230443e+00 -1.912594e-02 -1.516532e+00 -1.294655e+00 -2.949316e+00 -3.413300e+00 -1.474730e+00 4.262233e-01 6.297323e-01 8.101875e-01 2.207856e+00 1.342866e+00 1.545787e+00 1.351494e+00 -3.581215e-02 
-2.961898e+00 4.540344e+00 -2.707896e-01 -1.226270e-02 2.492761e+00 -1.548533e+00 4.544376e+00 6.436763e+00 9.234943e-01 -2.021002e+00 1.482415e+00 -6.706157e-01 -3.547943e-02 -5.936737e-01 -4.844381e-01 -2.110652e+00 -1.661653e+00 -6.151437e-01 -1.524299e+00 6.957960e-01 1.677859e+00 1.457404e+00 7.827700e-01 3.363334e+00 2.013304e+00 -1.463650e-02 
-3.960204e+00 3.606796e+00 3.636807e-01 -1.342326e-01 6.534663e+00 -2.009949e+00 1.210713e+00 7.483159e+00 3.199062e+00 5.179805e+00 6.339335e+00 -2.058585e+00 -3.072190e-02 -1.990867e-01 2.872213e-01 -2.679888e-01 1.137791e-01 6.773368e-01 -1.211130e+00 -1.230478e-01 1.407028e+00 2.554381e-01 -6.929465e-02 2.508043e+00 1.968684e+00 -9.293973e-03 
-1.834488e+00 5.339254e+00 -1.163112e+00 6.783103e-01 5.722797e+00 -6.589188e+00 2.823769e+00 9.978739e+00 1.993964e+00 -2.600148e+00 5.952149e+00 3.488244e+00 -3.804302e-02 -1.328697e-02 6.318804e-01 5.599507e-01 6.253532e-01 6.693597e-01 -1.200874e-01 -2.863483e-01 9.970941e-02 3.290002e-01 -1.817379e-02 -5.676637e-02 2.051567e+00 -1.435755e-02 
-3.335219e+00 5.897752e+00 2.381581e+00 7.098652e-01 4.525640e+00 -6.296750e+00 1.574099e+00 1.220037e+01 2.371836e+00 -3.790203e+00 3.464272e+00 3.533548e+00 -6.431401e-02 -1.527738e-01 3.078278e-01 3.079708e-01 8.039597e-01 -6.611560e-02 3.878284e-01 1.324321e-01 -8.578154e-01 -1.643470e-01 -1.492853e-01 -1.113478e-01 1.855392e+00 -1.638035e-02 
-3.340825e+00 6.554267e+00 1.520014e+00 2.692455e+00 6.844071e+00 -5.570650e-03 2.930942e+00 4.576707e+00 2.982109e+00 2.373133e+00 2.636115e+00 6.791152e+00 -9.047115e-02 -2.382294e-01 -1.432738e-01 -3.759885e-03 1.735360e-01 -4.234918e-01 1.130848e+00 1.093910e+00 -4.862716e-01 3.120139e-02 1.116368e+00 -8.607441e-01 -6.334758e-01 -8.749401e-03 
-3.970904e+00 4.538428e+00 5.619715e-01 2.878494e+00 5.643448e+00 -3.362616e+00 1.819288e+00 5.895099e+00 1.883255e+00 1.946738e+00 7.440614e+00 5.566920e+00 -8.640957e-02 -1.135436e-01 -3.821975e-01 -6.724272e-01 -3.191720e-01 -5.014225e-01 6.764202e-02 1.248030e+00 4.281388e-01 -1.035113e-01 -6.275352e-01 -8.460230e-01 -4.949583e-01 2.142811e-03 
-2.707792e+00 5.302547e+00 -2.721072e-01 4.616760e-01 3.046435e+00 -2.402014e+00 8.170725e+00 1.070001e+01 2.394262e+00 1.132224e-01 -3.397415e-01 -6.958213e-01 -7.074225e-02 -4.487174e-01 -7.989623e-01 -7.061748e-01 -4.914408e-01 -1.159839e-01 -6.856283e-01 3.449446e-01 1.470975e+00 -1.040111e+00 -2.697571e+00 -9.404133e-01 -8.254747e-01 1.178777e-02 
-4.219454e+00 4.612625e+00 -8.449471e-02 2.293944e-01 3.917346e+00 -4.760318e+00 5.194360e+00 1.127941e+01 2.148203e+00 -5.797924e+00 7.220855e-01 4.802244e+00 -6.346440e-02 -5.541924e-01 -3.217020e-01 -9.134529e-01 1.066906e-01 6.890935e-01 6.103553e-01 -8.572923e-01 -4.414344e-01 -8.091205e-01 -7.685876e-01 -7.465066e-01 1.636260e-01 8.840275e-03 
-5.460137e+00 2.522357e+00 -1.687627e+00 1.559801e+00 7.127203e+00 -2.734861e+00 2.968129e+00 9.239429e+00 -2.350919e+00 -7.242391e+00 1.293312e+00 3.046117e+00 -4.300487e-02 -7.471136e-01 -4.950287e-02 -2.441029e-01 7.736833e-01 8.776096e-01 1.073994e+00 -2.350430e+00 -2.033438e+00 -3.396670e-01 -3.258485e-01 -6.064816e-01 4.549703e-01 2.542317e-03 
-5.365694e+00 4.320013e+00 -3.297534e+00 2.862885e+00 7.048532e+00 -1.444159e-01 1.341243e-01 4.418219e+00 2.102424e-01 1.781606e+00 2.891554e+00 4.514081e+00 -5.607688e-02 -7.302094e-02 5.125781e-01 1.138347e+00 4.938959e-01 1.797426e-01 -2.507235e-01 -2.496393e+00 -1.713885e+00 2.373917e-01 1.148022e+00 -2.608595e-01 -4.227571e-01 1.697648e-03 
-5.870240e+00 5.201339e+00 1.138976e-01 3.013348e+00 5.868890e+00 6.600062e-01 -1.051307e+00 3.963415e+00 1.664907e+00 -5.305785e+00 -4.456883e+00 1.723111e+00 -6.172442e-02 3.217630e-01 1.108454e+00 1.656224e+00 6.499068e-01 -9.251732e-01 -1.962089e+00 -8.381848e-01 6.384120e-02 1.289383e+00 1.064103e+00 -1.880557e-01 6.368822e-01 -6.225622e-03 
-4.379507e+00 5.836025e+00 4.706477e+00 1.972100e+00 5.445215e+00 -7.711370e+00 -5.277886e+00 5.347990e+00 1.327249e+00 -1.026114e+00 2.292886e+00 3.349961e+00 -4.561639e-02 4.103194e-01 6.097008e-01 1.553495e+00 8.906260e-01 -4.602613e-01 -1.629066e+00 -1.964744e-01 5.025620e-01 6.323379e-01 9.880485e-02 -1.138017e-01 2.382877e-01 -2.696455e-03 
-4.344416e+00 7.306624e+00 2.591490e+00 5.254726e+00 3.302995e+00 -8.761830e+00 1.483210e+00 9.093750e+00 3.537491e+00 -5.180161e-01 6.523676e-01 6.812588e+00 -7.936323e-02 2.944128e-01 2.280388e-01 2.299641e-01 2.923050e-01 1.883165e-01 2.795238e-01 5.981046e-01 2.977523e-01 -2.514098e-02 -3.889839e-01 2.000508e-01 7.910177e-01 7.844925e-04 
-4.077009e+00 6.315874e+00 3.231143e+00 6.195325e+00 6.030173e+00 -3.578828e+00 -2.115506e+00 4.365862e+00 2.435639e+00 -1.182544e-01 -2.320802e-01 3.160781e+00 -6.073976e-02 -1.913252e-01 -4.564051e-01 -9.268071e-01 -1.076657e+00 -2.674004e-01 2.042693e+00 4.343511e-01 8.461588e-01 6.589786e-01 -4.825985e-01 2.585766e-01 2.141606e-01 -5.035996e-04 
-4.549425e+00 6.101608e+00 2.001385e+00 2.363260e+00 6.517994e+00 -8.645058e-03 3.580260e-01 5.943241e+00 9.850067e-01 -7.704635e+00 -2.194147e+00 5.772789e+00 -5.024028e-02 -6.580038e-02 -6.120985e-01 -1.485882e-02 -1.985357e+00 -7.043245e-01 1.044673e+00 -5.710726e-02 9.984328e-01 7.986598e-02 -2.598562e-02 2.773844e-01 -5.946302e-01 4.233635e-03 
-5.233628e+00 4.156507e+00 3.674941e-01 -1.965451e+00 2.500714e+00 -1.874496e+00 -2.543539e+00 1.115404e+01 5.898383e+00 1.542027e-01 5.009026e+00 4.940663e+00 -6.269586e-02 5.898647e-02 -6.511264e-02 1.257991e-01 -7.065261e-01 -8.575056e-01 -4.551450e-01 1.014848e+00 1.141701e+00 1.923243e-01 2.734211e-01 8.774085e-01 4.803855e-01 -2.060998e-03 
-4.095108e+00 5.325815e+00 3.949020e+00 -5.916712e-01 1.546102e+00 -4.390632e+00 1.411690e+00 1.069182e+01 2.205449e+00 -7.841728e-01 -5.812633e-01 2.949496e+00 -5.721700e-02 1.567716e-01 -1.319317e-01 1.855395e-01 8.433267e-01 -2.939264e-01 -1.683748e+00 7.131602e-01 2.616121e-01 4.839314e-01 1.590917e+00 8.088471e-01 8.011557e-01 -5.223834e-03 
-4.009235e+00 6.378208e+00 2.886321e+00 4.140160e+00 4.228591e+00 -3.663560e+00 2.431902e+00 7.700073e+00 2.787039e+00 -2.211380e+00 3.348520e+00 6.974356e+00 -6.755638e-02 1.968485e-01 2.728047e-01 2.117545e-01 1.268517e+00 1.233209e+00 -5.881745e-01 1.828444e+00 1.901789e-01 3.738341e-02 -6.269652e-01 -9.080744e-01 1.093899e+00 -6.403255e-03 
-4.377764e+00 4.331100e+00 1.669669e+00 3.527088e+00 4.184423e+00 -7.532850e+00 1.436107e+00 8.978284e+00 4.960336e+00 1.432741e+00 2.680341e+00 8.761722e+00 -7.392919e-02 -1.888169e-01 4.031175e-03 -5.683509e-01 -7.001705e-02 1.044927e+00 1.100307e+00 2.005247e+00 -5.863269e-01 1.256546e+00 -2.665840e-01 -5.768892e-01 2.003585e+00 -6.744874e-03 
-4.108058e+00 6.017888e+00 2.565942e+00 2.317753e+00 7.347598e+00 -3.244259e+00 6.586474e+00 1.296170e+01 4.707857e+00 -4.089081e+00 -1.162148e+00 7.504048e+00 -8.635604e-02 1.844832e-01 7.222287e-02 -5.794230e-01 -9.261136e-01 2.252373e-02 8.028604e-01 1.041065e+00 1.643848e-03 6.698529e-01 5.997638e-01 2.343754e-01 1.462047e+00 -4.077852e-03 
-4.989781e+00 5.526131e+00 1.267455e+00 -3.055310e-02 5.211232e+00 9.012510e-01 9.360638e+00 5.129375e+00 7.527771e+00 -1.178242e+00 -1.210375e+00 1.270258e+01 -8.154154e-02 4.521154e-01 3.745333e-01 -5.334341e-01 -5.506692e-01 -4.233028e-01 6.711034e-01 1.566192e-01 -2.020031e-01 -7.076955e-03 7.502391e-01 1.519873e+00 1.191500e+00 -1.820397e-03 
-2.780810e+00 6.141807e+00 1.903130e-01 1.288412e+00 3.827806e+00 -3.866309e+00 3.674960e+00 9.632747e+00 4.852586e+00 2.092931e+00 6.465755e+00 1.231417e+01 -8.413947e-02 4.863466e-01 8.635131e-02 -5.828401e-01 -7.397159e-02 -8.423011e-01 -6.011659e-01 -1.150871e+00 -2.154542e-01 -2.385727e-01 1.563520e+00 2.293194e+00 9.231822e-01 1.835227e-04 
