-1.354281e+01 -1.442842e+00 -7.364268e-01 3.286007e+00 -1.744192e+00 -6.343549e-01 -1.645709e+00 -5.650834e+00 6.495939e+00 3.232951e+00 3.013284e+00 1.741834e+00 -8.154809e-02 1.532005e-01 1.156919e+00 1.013349e+00 1.689073e+00 1.419852e+00 8.071359e-01 5.529671e-01 -6.279200e-02 -5.640451e-01 -3.824567e-01 -1.766917e+00 8.034683e-01 6.773746e-03 
-1.376805e+01 2.148720e+00 -5.420804e-02 5.833811e+00 -1.034067e-01 -1.373280e+00 -3.009063e+00 -5.353775e+00 5.039531e+00 -1.805208e-01 -2.410924e+00 -3.530447e-01 -5.890751e-02 1.397015e-01 1.220979e+00 1.519700e+00 1.471884e+00 1.287598e+00 1.031886e+00 2.193625e+00 1.028723e+00 -1.108480e+00 -3.963426e-01 -1.645464e+00 6.515075e-01 5.137110e-03 
-1.266418e+01 2.545971e+00 3.989209e+00 1.045747e+01 4.534677e+00 3.770787e+00 1.800804e+00 -6.113323e+00 4.403918e+00 3.027403e+00 -3.109198e+00 6.806615e+00 -5.899966e-02 1.635481e-01 6.934680e-01 6.338218e-01 5.603332e-01 -3.515058e-01 2.258912e-01 3.197045e+00 1.200883e+00 -1.406515e+00 -4.667342e-01 -1.943888e-01 1.119099e+00 3.377342e-03 
-1.328361e+01 2.667646e+00 4.499254e+00 7.059697e+00 1.554364e+00 2.322505e+00 7.599162e+00 -2.759767e-01 1.999548e+00 1.354012e+00 -2.152796e+00 2.466981e+00 -6.713676e-02 -1.014963e-01 1.859216e-01 7.585379e-01 5.036324e-01 -2.787996e-01 -3.737149e-01 1.391042e+00 1.886646e-01 -2.595250e-01 9.467735e-01 1.455916e+00 8.559380e-01 1.335025e-03 
-1.296729e+01 1.765035e+00 1.559510e-01 5.474730e+00 -4.330606e+00 -1.352792e+00 9.035405e+00 -2.185316e+00 9.833560e-01 1.320136e-01 1.912276e+00 5.927315e+00 -6.054676e-02 -4.928503e-01 5.671061e-01 1.750600e-01 -1.984472e-01 -5.792082e-02 -8.208343e-01 -2.096305e-01 -8.918129e-01 -4.048186e-01 -4.952679e-02 1.472310e+00 -5.370283e-01 7.455826e-03 
-1.412398e+01 3.468795e+00 5.655110e+00 1.084334e+01 2.935237e+00 -6.800650e-01 3.288472e-01 -6.374455e+00 5.452187e+00 6.001041e+00 2.357920e+00 4.366295e+00 -5.145884e-02 -1.247126e-01 3.487694e-01 4.149275e-02 -2.237256e-01 1.537827e+00 4.914517e-01 -8.583363e-01 -1.761613e+00 2.457342e-01 1.056469e+00 1.371588e+00 7.380784e-02 4.431439e-03 
-1.470825e+01 4.980927e+00 4.286581e+00 7.573412e+00 3.554637e+00 1.167901e+00 4.387809e+00 -7.523148e+00 6.535048e-01 4.562542e-01 1.996996e+00 3.171817e+00 -2.955949e-02 2.141918e-01 1.886730e-01 5.465999e-02 -2.312307e-02 1.918692e+00 1.237984e+00 -2.057214e-01 3.593189e-02 2.228810e+00 1.584762e+00 9.241102e-01 -5.787839e-01 7.694483e-04 
-1.303669e+01 2.803547e+00 2.641403e+00 4.891728e+00 5.300879e+00 3.519418e+00 5.631279e+00 -6.415128e+00 3.393144e+00 6.474235e+00 4.662783e+00 4.213769e+00 -6.047320e-02 8.126150e-01 -1.048745e-01 -9.901067e-01 -6.619873e-01 -6.587740e-01 3.164882e-01 1.321896e+00 2.037973e+00 1.662724e+00 8.937271e-01 1.362540e-01 -5.097997e-01 -2.589965e-03 
-1.243997e+01 3.041024e+00 1.936105e+00 8.334923e+00 4.080032e+00 2.737388e+00 5.355582e+00 -1.985320e+00 1.315693e+01 7.819225e+00 5.380395e+00 3.109658e+00 -5.219233e-02 5.819572e-01 -6.672496e-01 -1.003935e+00 -1.750152e-01 -8.931816e-01 -4.076885e-01 1.677789e-01 1.900362e+00 1.664125e+00 7.380594e-01 -6.224846e-01 5.841900e-01 -6.259012e-03 
-1.119505e+01 3.914374e+00 1.879815e+00 7.152651e+00 -6.213310e-01 1.176329e-01 6.454442e+00 1.046494e+00 7.514095e+00 6.788191e+00 1.347490e+00 1.848376e+00 -5.309224e-02 7.017956e-02 -4.485730e-01 1.523267e-01 5.782880e-01 -7.332522e-01 -4.540334e-01 -1.763147e-01 1.136965e+00 1.817080e-01 -1.749140e+00 -6.276557e-01 1.172644e+00 -5.666924e-03 
-1.271929e+01 1.089265e+00 -3.522983e-01 5.567875e+00 2.049834e+00 8.303511e-01 4.815123e+00 -1.752148e+00 6.913657e+00 3.989573e+00 5.422198e-01 7.275463e+00 -6.454504e-02 -1.819303e-01 -3.572538e-01 6.153115e-01 -6.645562e-02 -1.216948e+00 -1.768939e-01 -9.596562e-02 -3.961150e-01 -1.667426e-01 -3.097216e-01 -3.283619e-01 1.314648e+00 -3.476918e-03 
-1.254614e+01 1.536562e+00 4.547238e+00 9.166692e+00 2.649717e+00 2.202769e+00 5.019936e+00 -8.468890e-01 7.423319e+00 -3.566394e-01 3.943593e+00 7.994086e+00 -8.263147e-02 -3.092146e-01 -2.338744e-01 3.779379e-01 -3.594709e-01 -7.482405e-02 1.850224e-01 3.712430e-02 3.802193e-01 1.382966e+00 1.354210e+00 1.662290e-01 9.045249e-01 -2.404356e-03 
-1.267408e+01 2.443661e+00 3.678951e+00 6.995624e+00 -3.640233e+00 8.103499e-01 5.593007e+00 -3.019203e+00 1.236860e+01 9.843033e+00 2.440535e+00 6.610043e+00 -5.480731e-02 1.056963e-01 1.806215e-01 3.135017e-01 -1.743851e-01 2.292812e-02 -3.261869e-02 2.722286e-01 9.392274e-01 1.831663e-01 1.083765e+00 -8.590770e-03 -6.293355e-01 6.456852e-04 
-1.276373e+01 2.067805e+00 1.753880e+00 4.641422e+00 1.849582e+00 1.052746e+00 6.251121e+00 3.581119e+00 1.170145e+01 1.063251e+01 1.229478e+00 6.703711e+00 -6.998289e-02 1.436398e-01 9.269422e-03 -2.781014e-01 -3.759910e-01 9.891046e-01 -1.378012e-01 -2.026635e-01 7.193702e-01 -5.663956e-01 7.964824e-01 -8.672806e-01 -1.450244e+00 4.872489e-03 
-1.208201e+01 1.726751e+00 2.611889e+00 6.958584e+00 2.564542e+00 1.242270e+00 5.560673e+00 7.299852e-01 5.690422e+00 3.913822e+00 1.856323e+00 4.773973e+00 -6.764090e-02 -1.146240e-02 -6.627364e-02 2.717186e-01 3.237424e-02 1.481098e+00 1.031095e-01 -5.046562e-01 4.291246e-01 -1.224914e+00 -2.248782e+00 -1.181581e+00 -1.142934e+00 2.141357e-04 
-1.212397e+01 1.941363e+00 3.690262e+00 7.305257e+00 4.492853e+00 1.297804e+00 4.022785e+00 8.753681e-01 7.930430e+00 6.590379e+00 -1.007045e-01 1.660902e+00 -5.185223e-02 1.128502e-02 -1.461574e-01 3.286023e-01 5.981778e-01 6.938632e-02 2.748778e-02 -2.222759e-01 -1.124911e+00 -3.557977e-01 -1.867862e+00 -1.895277e+00 -4.031682e-01 9.164572e-04 
-1.305127e+01 2.175514e+00 4.069353e+00 5.825577e+00 2.443623e+00 1.203368e+00 4.183894e+00 4.792948e-01 8.129543e+00 6.201891e-01 -2.802281e+00 3.416775e+00 -6.280196e-02 -2.787115e-01 -1.269013e-01 -3.842402e-01 1.475968e-01 -6.309179e-01 5.092154e-02 2.438960e-01 4.291368e-03 6.584916e-01 8.809690e-01 -3.293856e-01 3.190152e-01 -4.912138e-04 
-1.222267e+01 1.112637e+00 2.668159e+00 8.198814e+00 2.256973e+00 1.209635e+00 5.828131e+00 -1.918091e+00 8.702902e+00 2.940023e+00 -5.917607e+00 5.366469e+00 -6.782007e-02 -1.188318e-01 6.347939e-02 -8.212269e-01 2.775741e-03 -6.933057e-01 -3.769217e-01 7.953122e-01 2.986999e-01 -1.988363e-02 9.859117e-01 1.896953e+00 1.015603e+00 1.689374e-03 
-1.342622e+01 1.506608e+00 1.201739e+00 7.249789e+00 5.278919e-01 1.540962e+00 5.877480e+00 2.148171e+00 8.596643e+00 1.014385e+01 3.117846e+00 4.516266e+00 -6.211305e-02 2.584431e-01 1.653499e-01 -5.151856e-01 3.808406e-01 -1.139993e-01 -7.930961e-01 -7.272806e-01 -2.180111e-01 -4.742463e-02 1.113370e+00 1.773023e+00 -2.888601e-01 8.407903e-03 
-1.253065e+01 2.593213e+00 1.017934e+00 6.607029e+00 1.984190e+00 -7.556015e-01 7.152554e+00 1.534430e+00 7.597462e+00 6.758109e+00 6.423997e+00 6.189171e+00 -4.374981e-02 4.279457e+00 -2.579041e+00 -2.918728e+00 -1.678208e+00 1.364562e-01 -2.544049e+00 -4.372880e+00 4.417514e-01 -2.420928e+00 -1.337186e+00 8.804871e-01 -1.448167e+00 1.346779e-01 
-1.160506e+01 2.261975e+00 2.318538e+00 8.525673e+00 2.010018e+00 -1.779494e+00 -1.147206e-01 -2.337021e+00 8.445140e+00 4.277995e+00 -1.079686e-01 1.561124e+00 -3.279757e-02 6.800548e+00 -3.775699e+00 -3.642761e+00 -2.705733e+00 -2.034298e-01 -2.871931e+00 -5.407345e+00 4.070900e-01 -2.887140e+00 -3.714000e+00 -1.913845e+00 -2.693948e+00 2.005298e-01 
8.264030e+00 -1.216025e+01 -1.248388e+01 -8.301659e-01 2.198191e+00 -9.850382e+00 -1.304017e+01 2.533263e+00 -3.325985e+00 -8.129835e-01 9.773612e-02 -3.967969e-01 5.909116e-01 6.596483e+00 -5.260314e+00 -3.145472e+00 -3.542535e+00 4.327191e-01 -1.724749e+00 -4.483038e+00 1.691682e+00 -2.483007e+00 -2.888443e+00 -1.465040e+00 -3.006263e+00 2.626308e-01 
1.017918e+01 -9.995155e+00 -1.026116e+01 -2.560278e+00 -5.962577e-01 -8.271304e+00 -1.106288e+01 3.684205e+00 -3.773327e-01 -4.640607e+00 -3.288249e+00 -5.660488e+00 6.232052e-01 4.172028e+00 -4.092434e+00 -1.998434e+00 -3.598885e+00 7.158967e-01 -5.331483e-02 -2.170562e+00 2.578447e+00 -1.804518e+00 -1.693346e+00 1.817884e-01 -2.155535e+00 2.341219e-01 
9.559641e+00 -1.757979e+01 -8.419577e+00 -5.562673e+00 5.450923e+00 -6.133439e+00 -9.788555e+00 6.982226e+00 -4.063382e-01 -3.224803e+00 6.889380e-01 -5.231336e+00 9.414028e-01 -7.154672e-02 -1.058370e+00 7.547911e-01 -1.675545e+00 5.995385e-01 1.583273e+00 1.427837e-01 9.536055e-01 1.371083e-01 -4.495096e-02 5.384649e-01 -9.706763e-01 1.121184e-01 
8.607273e+00 -1.549043e+01 -9.705784e+00 -7.102501e+00 3.963135e+00 -3.904539e+00 -1.259334e+01 8.330731e+00 -2.037276e+00 -2.982824e+00 5.053722e-01 -6.799285e+00 9.625662e-01 -2.085177e-01 -7.740017e-01 1.393979e-01 -8.351682e-01 2.357686e-01 1.654955e+00 -1.513418e-01 2.193028e-01 -8.511437e-01 8.153437e-01 1.217647e+00 2.884977e-01 7.940098e-02 
8.692248e+00 -1.470446e+01 -8.987612e+00 -6.936781e+00 2.916187e+00 -4.117398e+00 -1.156102e+01 4.978027e+00 -1.810472e+00 -1.866630e+00 8.932501e-01 -4.680780e+00 9.818230e-01 1.817986e-01 4.451698e-01 -2.974897e-01 -6.438561e-02 -1.152001e+00 7.472075e-01 -1.756068e-01 -4.274618e-01 -1.918762e+00 9.582251e-01 1.017637e-01 2.633486e-01 1.486296e-02 
9.570283e+00 -1.530283e+01 -9.280149e+00 -6.049065e+00 1.849953e+00 -1.004548e+00 -1.093336e+01 5.782819e+00 -3.930984e+00 -1.242975e+00 2.697833e+00 -4.493278e+00 1.000000e+00 6.368486e-01 -1.704451e-01 3.253927e-02 4.401177e-01 -1.613399e+00 7.408286e-01 3.712393e-01 -8.193482e-01 -1.405393e+00 6.221957e-01 3.509018e-01 3.350119e-01 8.513272e-03 
9.987128e+00 -1.544774e+01 -1.011984e+01 -6.411319e+00 7.475106e-01 -3.847397e+00 -1.149658e+01 6.118874e+00 -9.053293e+00 6.963977e-01 1.015261e-01 -5.067596e+00 9.970007e-01 6.882994e-01 -6.248512e-02 -1.070416e-01 5.003194e-01 -1.496989e+00 6.916431e-01 5.700121e-01 -6.674279e-01 -1.097717e+00 7.876390e-01 6.405151e-02 1.741770e-01 2.192724e-03 
1.114408e+01 -1.597101e+01 -8.976971e+00 -5.164644e+00 -3.019522e+00 -3.353969e-01 -1.076936e+01 3.663568e+00 -5.442832e+00 -1.153359e+00 2.655743e+00 -4.930817e+00 9.975437e-01 3.470765e-01 7.413960e-02 7.440489e-01 -4.628311e-01 -2.525195e-01 -3.359021e-01 1.291963e+00 -9.757116e-01 -2.266372e-01 8.363209e-01 2.166049e-01 3.471057e-01 -1.099491e-03 
1.134685e+01 -1.468280e+01 -9.674408e+00 -4.877395e+00 -2.134020e+00 -9.937583e-01 -8.792961e+00 2.700513e+00 -6.543134e+00 2.026757e+00 1.234552e+00 -3.591125e+00 9.940147e-01 -2.401629e-01 2.621569e-01 1.223145e+00 -1.200351e+00 4.988488e-01 -3.784573e-01 1.638792e+00 -9.286712e-01 3.469922e-01 4.938910e-01 9.873573e-01 1.669860e-01 -1.458371e-03 
1.062580e+01 -1.531460e+01 -5.782622e+00 -9.130182e+00 2.028121e+00 -4.110878e+00 -5.825350e+00 2.613441e+00 -6.319250e+00 2.273449e+00 3.214344e+00 -3.495985e+00 9.959955e-01 -9.531553e-01 6.675566e-01 1.102360e+00 -1.785233e+00 8.920344e-01 -8.255450e-01 1.171934e+00 -2.970235e-01 -7.333911e-01 8.639177e-01 6.526269e-01 -5.529003e-02 -3.150761e-03 
9.045449e+00 -1.446516e+01 -5.601293e+00 -1.043030e+01 7.179331e-01 -3.851943e+00 -5.774626e+00 2.000581e+00 -6.880124e+00 1.452448e+00 4.759012e+00 -4.950082e+00 9.904829e-01 -1.204551e+00 8.284216e-01 7.753243e-01 -1.501654e+00 -8.630178e-02 -1.103994e-01 4.638683e-01 -2.775805e-01 -7.233268e-01 4.791015e-01 7.616077e-01 -2.470568e-01 -5.772591e-03 
7.528999e+00 -1.274205e+01 -5.501728e+00 -1.131436e+01 1.467329e-02 -3.034029e+00 -6.418858e+00 2.528416e+00 -8.941292e+00 3.453383e+00 4.156648e+00 -4.527789e+00 9.835558e-01 -7.114279e-01 1.062206e+00 7.089023e-02 -5.985012e-01 -1.078535e+00 9.008968e-01 2.770329e-02 -4.312304e-01 -8.547174e-01 7.712728e-01 3.706387e-01 6.622257e-02 -1.235179e-02 
6.872495e+00 -1.182697e+01 -5.938234e+00 -1.129358e+01 -1.558805e+00 -2.084179e+00 -6.176866e+00 1.355123e+00 -8.848747e+00 3.832298e+00 4.571439e+00 -4.310507e+00 9.713717e-01 -4.023986e-02 1.044363e+00 2.957988e-01 -3.760506e-01 -9.744512e-01 1.213303e+00 1.438790e-01 -4.110612e-01 -4.386110e-01 9.410890e-01 3.615490e-01 2.863820e-01 -2.036703e-02 
8.155143e+00 -1.132267e+01 -5.259700e+00 -1.169105e+01 -2.226186e+00 -4.902754e-01 -5.485713e+00 7.800174e-01 -9.608524e+00 4.939889e+00 5.161324e+00 -3.484660e+00 9.437922e-01 4.764791e-01 6.884249e-01 7.853383e-01 -5.493072e-01 -8.592651e-01 7.798719e-01 3.161896e-01 -4.708179e-01 -1.423655e-01 4.987107e-01 2.140175e-01 6.338763e-02 -2.728942e-02 
8.531178e+00 -9.953039e+00 -4.243313e+00 -1.212221e+01 -3.033893e+00 9.426939e-01 -5.521803e+00 8.194742e-01 -8.739563e+00 5.414640e+00 6.064419e+00 -4.039737e+00 9.085296e-01 7.811338e-01 5.132329e-01 1.202077e+00 -7.605606e-01 -5.824422e-01 2.512507e-01 3.505538e-01 -1.815232e-01 3.769197e-02 -6.643822e-02 1.905651e-02 1.850792e-01 -3.059186e-02 
9.082052e+00 -1.023689e+01 -2.422496e+00 -1.364658e+01 -3.544108e+00 -6.481065e-01 -5.165441e+00 4.421511e-01 -9.707712e+00 5.155766e+00 4.480245e+00 -4.346236e+00 8.785297e-01 7.039582e-01 4.620759e-01 1.101314e+00 -4.939995e-01 -7.088620e-01 -2.515207e-01 6.818944e-01 -3.880634e-01 3.674316e-01 -6.631188e-01 -1.690146e-01 5.918721e-01 -2.738106e-02 
1.031471e+01 -9.803693e+00 -1.346451e+00 -1.411862e+01 -3.812055e+00 -7.490104e-01 -4.584232e+00 6.164403e-01 -8.610693e+00 3.392168e+00 5.007261e+00 -2.954323e+00 8.510436e-01 5.690434e-01 4.089356e-01 8.420656e-01 -4.125006e-01 -7.970479e-01 -3.795274e-01 6.162185e-01 -2.892141e-01 1.190317e-01 -1.072647e+00 -3.354730e-02 8.837312e-01 -1.937758e-02 
1.078317e+01 -9.086962e+00 -1.201560e+00 -1.316284e+01 -5.381415e+00 -9.020265e-01 -2.545027e+00 -1.058783e+00 -7.835802e+00 2.635530e+00 4.844830e+00 -1.068006e+00 8.356299e-01 5.208057e-01 6.804024e-01 2.564479e-01 6.952973e-02 -1.212891e+00 6.227956e-02 4.692186e-01 2.961984e-02 -2.707481e-01 -1.007951e+00 4.012409e-01 8.194124e-01 -1.242712e-02 
1.052584e+01 -8.483323e+00 -6.434531e-01 -1.442658e+01 -6.100480e+00 -8.279833e-01 -3.750917e+00 1.238708e-01 -9.080359e+00 1.311524e+00 5.714390e+00 -1.260195e+00 8.330916e-01 4.672293e-01 9.332790e-01 -5.243874e-03 1.838636e-01 -1.280356e+00 2.349036e-01 3.222071e-01 3.498168e-01 -6.795985e-01 -8.484853e-01 6.960557e-01 4.835795e-01 -7.534427e-03 
1.158052e+01 -7.495059e+00 -1.491755e+00 -1.314495e+01 -8.464353e+00 -2.972223e-01 -3.236006e+00 8.365350e-01 -1.082662e+01 1.156332e+00 6.132885e+00 -1.096238e+00 8.253701e-01 4.069125e-01 1.162009e+00 -3.605113e-02 -1.229097e-01 -1.177153e+00 2.589472e-01 -1.255124e-01 6.108677e-01 -7.636153e-01 -8.466421e-01 6.057796e-01 3.847168e-01 -7.080895e-03 
1.225218e+01 -5.933249e+00 -1.227572e+00 -1.320825e+01 -8.672367e+00 1.231055e-01 -2.627708e+00 1.417865e+00 -1.051328e+01 -1.106591e-01 7.843512e+00 -5.223098e-01 8.185014e-01 3.788885e-01 1.359513e+00 -5.561705e-02 4.384804e-02 -1.031744e+00 -1.446512e-01 1.863507e-01 -4.441791e-02 -4.256935e-02 -3.818727e-01 1.417305e-01 2.379931e-01 -9.984064e-03 
1.195456e+01 -4.551954e+00 -1.089756e+00 -1.438656e+01 -9.981238e+00 -8.283472e-02 -3.734193e+00 1.348558e+00 -1.093742e+01 -8.865886e-01 6.809167e+00 4.866356e-01 8.075206e-01 2.425355e-01 1.381540e+00 1.956376e-01 -1.860828e-01 -7.567645e-01 -7.016230e-01 -1.328441e-01 -9.352303e-02 5.271568e-01 -1.769630e-02 -7.932903e-01 3.120747e-01 -1.162151e-02 
1.223326e+01 -3.157313e+00 -1.122538e+00 -1.358653e+01 -1.050076e+01 -1.658433e+00 -2.570070e+00 -3.542304e-01 -9.237806e+00 4.236206e-01 6.084901e+00 -8.616667e-01 7.920960e-01 1.309027e-01 1.334385e+00 2.523804e-01 -2.247500e-01 -6.063887e-01 -1.207246e+00 -3.560066e-02 3.185387e-02 7.484829e-01 1.079372e-01 -1.384988e+00 -7.646762e-02 -1.231801e-02 
1.280266e+01 -1.975329e+00 -5.660849e-01 -1.388622e+01 -1.133398e+01 -2.914568e+00 -3.929045e+00 1.254968e+00 -8.828571e+00 8.007109e-01 3.045739e+00 6.338141e-01 7.804652e-01 7.018805e-03 1.126868e+00 5.442373e-01 -4.800661e-01 -3.486298e-01 -1.251577e+00 -1.131145e-01 5.338110e-01 9.781057e-01 -7.106041e-01 -1.301044e+00 -4.749932e-01 -1.205423e-02 
1.248265e+01 -5.496362e-01 -2.275059e-01 -1.458216e+01 -1.102794e+01 -4.497256e+00 -2.708285e+00 1.623930e+00 -7.825286e+00 -4.146228e-01 2.800286e+00 -9.782372e-01 7.704390e-01 -2.724784e-01 1.017169e+00 6.796376e-01 -9.016997e-01 -1.071992e-01 -9.693741e-01 -3.935917e-01 1.295028e+00 5.455742e-01 -1.543310e+00 -1.244689e+00 -4.843175e-01 -1.265295e-02 
1.186496e+01 -2.214514e-01 1.183914e+00 -1.628907e+01 -1.146080e+01 -4.921309e+00 -4.230658e+00 3.028533e+00 -6.753150e+00 -4.020487e+00 1.946256e+00 -1.830045e+00 7.580779e-01 -4.371744e-01 9.500219e-01 5.194629e-01 -8.032408e-01 -1.289501e-01 -5.173699e-01 -2.846279e-01 1.080774e+00 1.385080e-01 -1.749051e+00 -9.688236e-01 -9.890982e-01 -1.714770e-02 
1.133972e+01 1.051592e+00 1.400651e+00 -1.689361e+01 -1.097335e+01 -5.501933e+00 -4.387222e+00 5.234125e+00 -7.547645e+00 -4.882331e+00 4.111979e-01 -2.051324e+00 7.400249e-01 -4.162234e-01 7.747842e-01 2.748151e-01 -2.326771e-01 -1.523262e-01 -2.873110e-01 -2.087069e-01 5.917181e-01 -6.779834e-01 -9.483225e-01 -1.381906e+00 -9.804109e-01 -2.425901e-02 
1.118825e+01 1.974167e+00 1.217152e+00 -1.674670e+01 -1.200603e+01 -4.999079e+00 -4.512716e+00 4.853741e+00 -8.274851e+00 -5.710692e+00 -6.038356e-01 -3.775133e+00 7.099338e-01 -3.396637e-01 6.360385e-01 -4.380488e-02 2.930113e-01 1.543146e-01 -2.583814e-03 -3.063137e-01 7.190247e-02 -1.098492e+00 -2.579041e-01 -1.748406e+00 -1.314062e+00 -2.932838e-02 
1.073988e+01 2.226475e+00 1.129951e+00 -1.551674e+01 -1.151696e+01 -5.894926e+00 -3.610790e+00 3.669917e+00 -1.045435e+01 -4.311132e+00 -2.834200e+00 -4.907748e+00 6.732160e-01 -2.695023e-01 6.639051e-01 -2.568720e-01 4.027864e-01 2.583236e-01 -2.481538e-01 -2.108326e-02 -7.150666e-01 -1.025018e+00 -6.550935e-01 -1.770975e+00 -1.667118e+00 -2.789900e-02 
1.046656e+01 2.371299e+00 1.100240e+00 -1.551245e+01 -1.041742e+01 -4.737731e+00 -6.150442e+00 4.170150e+00 -1.079226e+01 -5.595607e+00 -5.173076e+00 -6.972142e+00 6.448405e-01 -1.749080e-01 1.567112e+00 -6.534534e-01 1.881683e-01 -2.398250e-01 -4.815633e-01 5.625868e-03 -9.215176e-01 -1.587328e+00 -6.744034e-01 -1.928831e+00 -8.776644e-01 -2.218628e-02 
1.035305e+01 4.172551e+00 1.747468e-01 -1.549680e+01 -1.047603e+01 -6.873376e+00 -3.673775e+00 2.000587e+00 -1.141404e+01 -8.215341e+00 -6.159055e+00 -8.788408e+00 6.330765e-01 7.676077e-03 2.765007e+00 -7.660977e-01 4.966335e-02 -5.212412e-01 -1.095551e-01 1.514902e-01 -1.380252e+00 -9.199432e-01 -1.006378e+00 -1.088788e+00 2.053137e-02 -2.816321e-02 
1.050713e+01 8.836689e+00 -1.572513e+00 -1.581583e+01 -1.372561e+01 -6.917670e+00 -4.453094e+00 1.080818e+00 -1.573165e+01 -7.130605e+00 -8.585562e+00 -6.223125e+00 6.190721e-01 -3.014908e-01 3.445132e+00 1.287462e-01 2.137455e+00 2.354197e-01 -6.487416e-01 9.322357e-01 -1.579072e+00 6.874683e-01 -2.359868e-01 -5.858189e-01 9.131259e-01 -5.294070e-02 
1.075798e+01 1.281881e+01 -1.364161e+00 -1.511673e+01 -1.246906e+01 -5.352732e+00 -3.702013e+00 -1.686679e+00 -1.258437e+01 -8.575522e+00 -6.571897e+00 -5.179600e+00 5.452842e-01 -1.170296e+00 1.686182e+00 7.640937e-01 4.315700e+00 1.812934e+00 4.685736e-02 4.881310e-01 -9.288556e-01 2.580165e+00 -2.027089e+00 -7.476217e-01 1.547871e+00 -8.484925e-02 
8.756638e+00 1.527383e+01 2.513425e+00 -5.015209e+00 -8.243804e+00 -8.741761e+00 -1.475144e+00 -1.881580e+00 -6.769745e+00 -6.595449e+00 -7.895750e+00 -4.210917e+00 4.240332e-01 -2.196705e+00 -4.970740e-01 5.082297e-01 5.315543e+00 4.187779e+00 1.681055e+00 1.266781e+00 -1.674430e+00 3.023852e+00 -2.357157e+00 -1.786464e+00 -3.426087e-01 -1.041150e-01 
5.376812e+00 9.384892e+00 1.952247e+00 6.813908e-01 -4.152267e+00 -5.727044e+00 -2.722096e+00 -1.162492e+00 -2.994164e+00 -1.861837e+01 -1.024207e+01 -2.055157e+00 3.063498e-01 -2.358669e+00 -1.453715e+00 3.260283e-01 4.542791e+00 4.928870e+00 3.076566e+00 2.603205e+00 -9.557497e-01 2.198932e+00 -1.027591e+00 -9.917498e-01 -3.701677e-01 -1.005492e-01 
2.214183e+00 8.068280e+00 -6.895685e-01 2.862823e+00 3.054886e+00 1.674762e+00 1.390852e+00 -7.553426e+00 -5.407495e+00 -1.389497e+01 -1.568279e+01 -9.498389e+00 2.179645e-01 -2.091351e+00 -2.153538e+00 -3.494899e-01 2.850465e+00 4.329856e+00 3.972026e+00 2.336177e+00 2.767410e-01 1.399938e+00 3.360262e-01 -1.770079e-01 -1.765794e-01 -8.439784e-02 
2.235860e+00 9.153014e+00 1.867477e+00 3.658211e+00 6.525942e+00 4.821835e+00 7.881012e+00 -3.629504e+00 -2.270838e+00 -1.006372e+01 -7.637123e+00 -4.386702e+00 1.455722e-01 -1.627997e+00 -1.713872e+00 -7.783210e-01 9.254268e-01 1.910233e+00 2.254507e+00 9.014200e-01 1.494792e+00 1.988791e+00 2.538696e+00 1.055614e+00 -7.961349e-02 -6.245860e-02 
-1.296430e-01 4.622077e+00 8.083599e-01 7.748708e+00 8.066372e+00 5.843931e+00 4.904185e+00 7.356315e-01 -1.317201e-01 -9.192643e+00 -1.008326e+01 -3.928041e+00 8.243275e-02 -1.305237e+00 -2.379032e+00 -1.408357e+00 -8.988291e-01 -8.291799e-01 4.453067e-01 4.783726e-02 2.343439e+00 2.067519e+00 2.038736e+00 3.216901e+00 2.057584e+00 -3.871556e-02 
-1.591262e+00 2.538635e+00 -2.688323e+00 2.865583e+00 2.893153e+00 3.460907e+00 2.833796e-02 2.166938e+00 4.311904e+00 -8.276051e+00 -7.763765e+00 -5.238399e+00 6.182259e-02 -1.470120e+00 -2.921114e+00 -2.477510e+00 -1.776747e+00 -1.513331e+00 -8.465177e-01 -3.409991e-01 1.944156e+00 1.939588e+00 2.278424e+00 4.212067e+00 2.460757e+00 -1.353775e-02 
-2.398443e+00 -5.196902e-01 -5.453453e+00 -1.235008e+00 7.253814e-01 4.581760e+00 5.556376e+00 1.265548e+00 1.638727e+00 -4.595127e+00 4.650335e-01 1.215381e+00 6.626147e-02 -1.401357e+00 -2.744516e+00 -1.903301e+00 -1.878659e+00 -1.860715e+00 -1.726556e+00 -3.447694e-01 2.552372e-01 1.196726e+00 1.281347e+00 4.224751e+00 2.487006e+00 -3.569996e-03 
-3.980341e+00 -2.881672e+00 -7.389165e+00 -7.336688e-01 2.629783e+00 1.220332e+00 5.849921e+00 5.826316e+00 6.541880e+00 -9.703541e-01 8.149064e+00 5.345372e+00 8.596915e-02 -1.051382e+00 -1.619454e+00 -6.909040e-01 3.406810e-01 -8.332068e-01 -1.163359e+00 -4.553534e-01 -1.085459e+00 6.139449e-01 2.049421e+00 3.202373e+00 1.928214e+00 -7.627845e-03 
-5.941886e+00 -6.390350e+00 -6.357726e+00 1.550384e-01 -1.105519e+00 -1.668564e+00 2.695458e-01 1.821284e-01 4.736924e+00 -6.438756e+00 3.084075e+00 3.215104e+00 5.250949e-02 -4.068658e-01 5.839298e-01 1.153970e+00 1.718172e+00 5.934073e-01 -5.740259e-01 -1.724955e+00 -1.223185e+00 1.394876e+00 9.809498e-01 -2.223538e-01 1.146868e-02 -1.141092e-02 
-5.076453e+00 -2.623304e+00 -5.690706e+00 3.873964e+00 -3.574310e-01 7.692723e-01 3.949858e-01 -2.718645e+00 5.832530e+00 2.892868e+00 6.938578e+00 3.402809e+00 3.055936e-02 3.747657e-01 2.317803e+00 2.010399e+00 2.124582e+00 1.313570e+00 5.685193e-01 -8.003701e-01 -7.820994e-01 1.797845e+00 1.393375e+00 -1.583681e+00 -1.014981e+00 -1.311551e-02 
-3.884717e+00 2.270775e+00 -5.328317e-01 5.052036e+00 5.186025e+00 1.937160e+00 -3.409324e-01 -5.778954e-01 8.967784e+00 -1.621989e+00 -4.149246e-02 2.244006e+00 3.691179e-02 8.413640e-01 3.136305e+00 1.715598e+00 2.037921e+00 2.005976e+00 5.464327e-01 1.070832e+00 6.094198e-01 1.498296e+00 2.164661e+00 -1.146019e+00 -5.945072e-01 -1.086022e-02 
-3.135098e+00 4.376782e+00 -2.496176e-01 7.440742e+00 6.051860e+00 2.260067e+00 2.153310e+00 2.295831e+00 1.341568e+01 3.588136e+00 1.793441e+00 7.560174e-01 2.819043e-02 6.434587e-01 1.958336e+00 1.458991e+00 1.951318e+00 2.318206e+00 1.166657e+00 1.357746e+00 -1.969078e-02 -4.759122e-02 7.095647e-01 -1.920792e+00 -8.300567e-03 -9.143895e-03 
-2.705744e+00 5.791132e+00 -5.002809e-01 8.561256e+00 5.719718e+00 3.182030e-01 4.744542e+00 7.219892e-01 8.436829e+00 4.036916e+00 -7.345182e-02 1.565964e+00 -6.071329e-04 6.002078e-02 9.145080e-01 9.222058e-01 1.199680e+00 6.024047e-01 8.283710e-01 1.249530e+00 -6.718636e-01 -6.455911e-01 4.198540e-01 -3.241310e-01 9.951001e-01 -1.840882e-02 
-2.448646e+00 5.408197e+00 1.587976e+00 1.187595e+01 1.096675e+01 7.412037e+00 4.640978e+00 -3.467041e+00 5.860051e+00 3.611239e+00 -2.649404e+00 3.700328e+00 3.599346e-03 -6.241916e-01 4.970070e-01 6.719834e-01 1.445255e-01 -8.080042e-01 -1.407856e-01 8.906316e-01 -1.216965e+00 -9.057187e-01 -5.178264e-01 -2.437051e-02 1.754474e+00 -1.632084e-02 
-3.927839e+00 6.327608e+00 3.159401e+00 8.832833e+00 5.740602e+00 3.503030e+00 4.662885e+00 -1.055777e+00 9.517641e+00 4.657295e-01 5.592750e-01 5.747352e+00 -4.283679e-02 -5.667557e-01 5.738062e-01 4.011953e-01 -1.307473e-02 -1.666084e+00 1.039189e-01 2.070131e-01 -4.887743e-01 -2.623761e-01 -1.078241e+00 -2.684635e-01 2.356271e-01 -5.244118e-03 
-5.645009e+00 6.593579e+00 1.280459e+00 8.027581e+00 2.001397e+00 -3.627539e-02 6.647297e+00 -2.900111e+00 8.346677e+00 2.784597e+00 1.355225e+00 7.437696e+00 -3.229892e-02 -4.964606e-01 9.964336e-01 7.002482e-01 1.330423e-02 -1.692652e+00 9.421492e-03 1.524737e-01 -2.811328e-01 -3.053432e-01 -2.747915e-01 8.474047e-02 -5.305931e-01 -2.685678e-03 
-3.941341e+00 8.067472e+00 1.659454e+00 1.042006e+01 1.871975e+00 4.561954e+00 4.776448e+00 -2.005347e+00 5.881636e+00 -9.409680e-01 -3.418084e+00 8.754153e-01 -8.878589e-03 -2.611764e-01 8.607752e-01 1.047785e+00 1.587458e+00 1.817825e+00 2.527450e+00 6.613001e-01 4.330947e-01 -1.146420e+00 3.059629e-01 -4.728704e-01 2.959209e-02 1.057906e-02 
-4.924198e+00 9.520432e+00 5.839190e+00 1.114885e+01 4.437807e+00 6.929683e+00 5.346564e+00 -4.397920e+00 6.151338e+00 2.940630e+00 -2.370225e-01 3.483330e+00 -2.680814e-02 7.780428e-02 7.078431e-01 1.270638e+00 1.583272e+00 3.153013e+00 2.809845e+00 1.196606e+00 8.297901e-01 -3.644095e-01 5.704246e-01 3.705490e-01 -6.974517e-01 1.021923e-02 
-5.594126e+00 9.168056e+00 6.118958e+00 1.520949e+01 1.361152e+01 1.265730e+01 8.619751e+00 1.858601e+00 4.883213e+00 1.917527e+00 -1.008954e+00 7.872495e+00 7.313132e-03 2.883927e-01 3.082102e-01 1.236436e+00 1.086481e+00 2.014366e+00 1.024184e+00 1.783733e+00 6.033684e-01 1.609955e-01 4.104975e-01 2.726781e-01 -8.139542e-01 8.741123e-03 
-4.429595e+00 9.582501e+00 5.403896e+00 1.354923e+01 1.189669e+01 9.965277e+00 1.070868e+01 -6.831346e-01 7.023841e+00 4.207472e+00 2.003405e+00 4.518976e-01 1.070136e-02 5.617574e-01 8.705902e-03 -1.958175e-02 2.840329e-01 -3.211881e-01 -8.418368e-01 4.472050e-01 -2.840267e-01 -4.193625e-01 -1.667790e+00 -1.131999e+00 -6.804622e-01 2.869070e-03 
-2.746679e+00 9.577488e+00 8.059283e+00 1.465228e+01 8.214366e+00 8.165078e+00 1.101406e+01 -8.458984e-01 6.250361e+00 4.780983e-01 -3.174907e+00 -1.678639e+00 1.607227e-02 3.553231e-01 4.204194e-01 8.773246e-01 -7.732751e-01 -2.979709e+00 -2.648862e+00 -1.709918e+00 -1.158242e+00 -7.946131e-01 -2.718068e+00 -1.808589e+00 -4.984675e-01 -8.350462e-03 
-3.539135e+00 9.359246e+00 4.771119e+00 1.284762e+01 5.530444e+00 4.966610e+00 6.385436e+00 -4.465805e+00 3.370951e+00 -4.678605e+00 -4.814043e+00 4.856586e+00 -1.684237e-02 9.738731e-03 2.119178e-01 7.255970e-01 -5.449187e-01 -1.974454e+00 -2.041899e+00 -1.758369e+00 -3.950989e-01 -7.358602e-01 -1.582246e+00 -1.295768e+00 1.524501e+00 -4.576588e-03 
-4.262741e+00 1.138178e+01 1.082197e+01 1.169392e+01 1.896099e+00 1.912323e+00 2.231779e+00 -2.041276e+00 2.736593e+00 -7.229776e+00 -6.643177e+00 3.177813e+00 -2.066731e-02 -9.125128e-02 2.835094e-01 6.352359e-01 2.171099e-01 -3.337172e-01 -6.593233e-01 -7.704291e-01 -8.176014e-01 -2.789497e-01 5.377625e-01 6.337585e-01 1.574201e+00 2.626461e-03 
-3.622870e+00 9.739944e+00 7.650538e+00 1.230382e+01 5.183551e+00 2.882160e+00 6.307973e+00 -2.060940e+00 5.101424e+00 1.501799e-01 -2.741299e+00 5.646177e+00 6.188214e-03 4.655527e-01 7.477523e-01 1.635727e+00 1.297927e+00 7.888933e-01 -2.884758e-01 -4.121351e-01 -5.125376e-01 -2.133587e-01 1.568760e+00 -1.901757e-01 -1.154109e+00 2.177606e-02 
-3.161067e+00 1.080469e+01 9.795753e+00 1.600974e+01 6.719227e+00 5.910686e+00 7.200644e+00 -6.136337e+00 3.990376e+00 7.525181e-01 -1.042486e+00 5.797570e+00 1.768929e-02 3.168644e-01 3.427638e-01 4.042190e-01 1.486704e+00 2.137577e+00 1.046513e+00 6.124681e-01 -3.127468e-01 2.462294e-01 9.881298e-01 -1.215017e+00 -2.354544e+00 1.736749e-02 
-1.762208e+00 1.338656e+01 1.346286e+01 1.717935e+01 7.063347e+00 1.525049e+00 1.840328e+00 -4.980962e+00 1.677266e+00 -8.259501e-01 -8.565266e+00 -2.223838e+00 7.285964e-02 -5.181121e-01 -2.134285e-02 4.258917e-01 1.487044e-01 7.407265e-01 -1.130860e-01 -1.601091e+00 3.189377e-01 -8.137818e-02 -2.307788e-01 -9.597325e-01 -2.359857e+00 -6.335503e-03 
-3.608750e+00 1.127229e+01 9.936905e+00 1.668967e+01 1.164409e+01 7.823442e+00 7.527942e+00 -2.144999e+00 5.679819e+00 -1.801063e+00 -9.806276e+00 -4.659902e+00 3.283441e-02 -9.884425e-01 -6.797651e-01 -3.926104e-01 -1.107671e+00 -1.227542e-01 -9.265366e-01 -2.182501e+00 9.867874e-01 1.891418e-01 1.401433e-02 1.176039e-01 -1.214442e+00 -2.074238e-02 
-5.989589e+00 9.399426e+00 9.709421e+00 1.270737e+01 6.424753e+00 1.360352e+00 -1.861131e+00 -2.461921e+00 3.849812e+00 2.730764e-01 -3.158066e+00 -9.243727e-01 -3.306186e-02 -1.083560e+00 -9.847128e-01 -7.734362e-01 -1.292626e+00 -6.496521e-01 -6.792485e-01 -1.679199e+00 4.721159e-01 2.515085e-01 4.272192e-01 1.746261e+00 6.334459e-01 -2.777393e-02 
