-8.018136e+00 2.435997e+00 3.414613e+00 1.093980e+00 4.620412e+00 3.867935e+00 5.911592e+00 5.070469e+00 7.389908e-01 2.801669e+00 4.521661e+00 1.197886e+00 1.288349e-01 -3.923942e-01 2.870780e-01 -9.064098e-02 1.024598e-01 8.383678e-01 -1.682379e-01 -2.706050e-01 -2.882261e-01 7.483898e-01 -6.825868e-01 -1.264224e+00 -8.025501e-01 -2.354491e-03 
-9.575597e+00 2.711459e+00 5.053368e+00 3.440130e+00 4.567400e+00 -8.787090e-01 3.674259e+00 6.637738e+00 3.722458e+00 3.604383e+00 3.275752e+00 -4.400362e+00 1.093466e-01 -4.280092e-01 -1.153663e-01 -5.134051e-01 -6.012192e-01 1.715922e-01 -8.821772e-01 -5.124354e-02 3.163719e-01 4.807506e-01 -2.708701e-01 2.779586e-01 1.412538e+00 -3.230554e-03 
-9.201377e+00 3.733656e+00 2.142031e+00 4.332043e-01 8.838757e+00 5.400067e+00 5.677233e+00 2.845704e+00 2.989206e+00 -1.012623e+00 -1.176504e+00 -1.574111e-02 1.268066e-01 -2.952173e-01 -1.401425e-01 1.341032e-01 1.202119e-01 4.018831e-01 -1.041640e+00 -4.708538e-01 -3.546047e-02 4.244437e-01 -1.498995e-01 8.309532e-01 1.775368e+00 -7.229090e-04 
-9.566562e+00 1.210336e+00 1.483879e+00 -1.581728e+00 3.369200e+00 -1.309017e+00 5.772553e+00 7.764711e+00 2.017636e+00 3.354464e+00 8.760536e+00 8.867391e+00 1.136963e-01 3.837929e-02 -3.458742e-01 4.454178e-01 -3.700175e-01 8.095686e-02 -6.471474e-01 -1.139938e+00 -1.173876e+00 -1.742415e-01 4.024964e-01 1.236155e+00 1.326936e+00 2.282125e-03 
-9.498740e+00 2.485847e+00 5.869874e+00 4.205969e+00 7.228928e+00 -1.125110e+00 2.508175e+00 4.329680e+00 3.713620e+00 2.177131e+00 5.934035e+00 3.440849e+00 1.230455e-01 -1.055449e+00 -9.683841e-01 2.568232e+00 -6.882406e-01 -8.973982e-01 -2.422194e-01 -1.726615e+00 -1.159807e+00 -3.079236e-01 -1.627045e+00 1.223118e+00 -1.387472e+00 4.186769e-02 
-9.235019e+00 1.605993e+00 5.416535e+00 -2.963398e-01 5.777099e+00 -8.518571e-01 -4.409044e-01 2.636968e-02 2.489044e+00 4.021989e+00 5.901257e+00 5.060244e-01 1.226377e-01 -9.213619e-02 4.162522e-01 2.757503e+00 2.486137e-01 1.293774e-02 9.193521e-01 -2.239253e+00 -1.621995e+00 -1.612907e+00 -2.262922e+00 -5.782977e-01 -1.988594e+00 3.008026e-02 
-1.464439e+01 -1.306092e+00 1.301686e+01 -3.650693e+00 3.147816e+00 3.960391e+00 1.508861e-01 9.158397e-01 1.213884e+00 -9.481611e+00 6.368724e+00 -2.772419e+00 3.316743e-01 4.266321e-01 4.886216e-01 6.836530e-01 -4.560633e-02 -1.141327e+00 4.779902e-01 4.350688e-01 3.184965e-01 -2.458909e+00 -9.133585e-01 -7.247713e-01 4.444882e-01 1.035100e-03 
-7.454415e+00 5.187567e+00 1.169790e+01 3.589671e+00 5.474444e+00 7.449927e-01 -4.245068e+00 1.361655e+00 -4.797032e+00 -2.130775e+00 5.651703e+00 2.031055e+00 1.597832e-01 1.247815e+00 3.385212e-01 -1.233185e+00 6.616119e-01 -6.360439e-01 -7.173077e-01 4.224651e-01 8.037831e-01 -1.073243e+00 9.377071e-01 -6.106589e-01 8.316050e-01 -2.043114e-02 
-8.255881e+00 3.138168e+00 6.147457e+00 2.034932e+00 1.673618e+00 4.664161e-01 6.585601e+00 5.254520e+00 -4.937886e+00 6.867199e-01 2.434955e+00 4.900775e+00 1.096483e-01 1.405046e+00 5.404488e-01 -2.528714e+00 6.938094e-01 -2.869644e-01 -7.823076e-01 5.826865e-01 -6.053650e-02 6.016882e-01 3.833761e+00 -6.054154e-01 -1.811649e-02 -3.942739e-02 
-6.190201e+00 1.076469e+00 2.685311e+00 1.689077e-01 3.333979e+00 -2.691408e+00 -1.545936e+00 1.875945e+00 1.987131e-01 3.626359e+00 4.814847e+00 8.274517e-01 1.314951e-01 -4.463512e-01 -4.388561e-01 -1.818868e+00 -6.018139e-01 -1.085808e+00 3.116855e-01 4.981809e-01 -5.291745e-01 1.599344e+00 7.406176e-01 -1.100427e+00 -1.059460e+00 4.272151e-03 
-8.251273e+00 3.451700e+00 4.879586e+00 1.528736e+00 2.783227e+00 1.767053e+00 1.714753e+00 3.560123e-01 1.724452e+00 6.808627e+00 3.760075e+00 -2.261200e+00 1.486815e-01 -4.941623e-01 -8.458711e-01 -1.543358e+00 -4.133252e-02 -1.951599e-03 -5.091497e-01 -1.509571e+00 -4.949784e-01 1.023337e+00 -1.501354e+00 -1.652130e+00 -1.858709e+00 7.323611e-03 
-9.688476e+00 2.836520e+00 3.237494e+00 8.337001e-01 -5.093999e-01 1.653102e+00 6.812605e-01 1.165036e+00 -1.314845e-01 -1.488641e+00 -5.129941e-01 3.147438e-01 1.616274e-01 -7.052452e-01 -1.571718e+00 -1.148112e+00 4.112000e-01 5.000483e-01 -8.956135e-01 1.105446e+00 1.013507e+00 -3.366969e-01 -1.692933e+00 -1.383833e+00 -8.825825e-01 3.924900e-03 
-8.977555e+00 -1.971213e+00 -1.845424e+00 1.495873e+00 3.585549e+00 -4.251587e+00 -2.075853e+00 3.135082e+00 3.438997e-01 -4.262549e+00 -3.161775e+00 -4.136415e+00 1.312002e-01 -5.647431e-02 -2.387992e+00 -6.329983e-01 4.955686e-01 5.684477e-01 -9.305881e-01 7.445998e-01 4.417904e-01 -1.124935e+00 -1.641834e+00 -4.414448e-01 3.539138e-01 8.969093e-03 
-9.353286e+00 -4.070664e+00 3.072567e-01 2.241339e+00 5.433059e+00 -4.160155e+00 5.876595e+00 5.553943e+00 -7.944951e-01 6.972809e-01 1.356605e+00 -2.647853e+00 1.598602e-01 -1.649427e-01 -2.057369e+00 1.197384e-01 8.673899e-01 1.118559e+00 5.424169e-01 9.538436e-02 -1.302773e+00 -1.136199e+00 -1.689251e-01 1.381705e+00 9.008816e-01 1.902465e-02 
-8.701240e+00 -5.034667e+00 3.179713e+00 3.302759e+00 2.654237e+00 2.074122e-02 2.840084e+00 3.705108e-01 -3.568718e+00 -2.493505e+00 6.180514e-01 9.896674e-01 1.944105e-01 -8.089565e-01 -1.201799e+00 3.356046e-01 8.376138e-01 -4.125557e-01 8.782942e-01 -1.445570e+00 -1.461246e+00 -1.400285e+00 3.242008e-01 1.530959e+00 1.891832e+00 4.181259e-02 
-1.065135e+01 -5.918598e+00 1.323617e+00 4.267206e+00 5.549050e+00 2.229022e+00 -1.299786e+00 -3.966542e+00 -3.856172e+00 -3.217788e+00 4.505616e+00 2.256111e+00 2.251455e-01 -1.000215e+00 -1.160971e+00 -5.291911e-01 1.130943e+00 -3.741808e-01 1.578069e+00 -2.450997e+00 -3.586832e-01 -5.485165e-01 -9.289153e-01 5.318459e-01 1.555625e+00 5.732450e-02 
-1.237331e+01 -7.056240e+00 -6.755815e-01 4.671009e+00 1.464775e+00 -3.054705e+00 -5.715513e+00 5.890925e-01 -5.126684e+00 -6.840105e-01 2.918514e+00 2.870765e+00 3.076205e-01 -1.227383e+00 -1.771831e-01 -7.523893e-01 8.266968e-01 -6.963775e-01 1.482649e+00 -1.029294e+00 8.468439e-01 5.095736e-01 1.741231e-01 9.193781e-01 7.782494e-01 6.965388e-02 
-1.251833e+01 -8.864732e+00 -4.110513e-01 7.211930e+00 4.156886e+00 5.267911e+00 -2.100592e+00 3.651237e+00 -2.758094e+00 -4.852043e+00 2.865603e+00 4.189723e+00 3.898777e-01 -1.179474e+00 3.074577e-01 -5.712214e-01 5.963567e-01 -1.046984e+00 7.078916e-01 -1.533031e-04 7.534871e-01 -7.028924e-01 -1.185405e-01 2.766631e-01 7.511741e-01 6.445292e-02 
-1.390466e+01 -4.447515e+00 2.851014e-01 5.963881e+00 -1.315689e-01 5.914539e+00 -1.905982e+00 7.958412e-01 -1.569889e+00 -8.057618e-01 6.034948e+00 3.914108e+00 4.603138e-01 -1.070965e+00 7.143453e-01 -1.006637e+00 1.205827e-01 3.125971e-01 1.405543e+00 1.291000e+00 6.335481e-02 -7.209274e-01 1.132362e+00 9.085857e-01 -3.986162e-01 5.469114e-02 
-1.578304e+01 -5.685672e+00 -2.012831e+00 6.602553e+00 1.112300e+00 1.283858e+00 -3.205318e+00 -3.024803e-01 -9.149032e+00 -3.749616e+00 4.330714e+00 5.490310e+00 4.710634e-01 -8.326767e-01 9.379713e-01 -7.521107e-01 5.040239e-01 4.388599e-01 -1.244256e-01 -1.518405e-01 -7.198871e-01 -1.184394e+00 1.265068e+00 5.636555e-01 -1.737394e-01 3.889037e-02 
-1.609578e+01 -5.074043e+00 -4.907876e+00 5.578610e+00 4.550054e+00 5.965034e+00 1.291848e+00 2.882725e+00 -5.535852e+00 4.426583e+00 6.728887e+00 2.273910e-01 5.404834e-01 3.031187e-01 6.138515e-01 3.447533e-03 6.769059e-01 2.211729e-01 -4.664029e-01 -1.678413e+00 3.753478e-01 6.397263e-01 1.141834e+00 -9.470434e-01 -4.336318e-01 2.898075e-02 
-1.558615e+01 -3.861611e+00 -1.575116e+00 9.924685e+00 4.010374e+00 4.620536e+00 -4.458710e+00 -9.916409e-01 -6.697082e+00 -1.142873e+00 5.336912e+00 5.164385e+00 5.442448e-01 7.051857e-01 5.672246e-01 7.029296e-01 1.387559e+00 5.709509e-01 1.694383e+00 -2.273116e-01 1.378616e+00 2.164429e+00 8.535180e-01 -1.141355e+00 -9.246975e-01 1.112188e-02 
-1.248751e+01 -2.290288e+00 8.348179e-02 7.687345e+00 -4.747415e-01 1.914186e+00 -9.671351e+00 3.017161e+00 4.027684e-01 3.600037e+00 7.966323e-01 1.908911e+00 5.686269e-01 4.267563e-01 -9.061341e-02 9.506512e-01 1.635997e+00 4.731376e-01 1.440900e+00 5.244482e-01 8.518184e-01 5.670783e-01 -1.168702e+00 -1.683833e+00 -7.631754e-01 -5.752212e-03 
-1.406124e+01 -4.241426e+00 -9.938617e-01 1.248598e+01 6.479452e+00 1.178120e+01 1.139723e+00 6.523384e+00 -1.296194e+00 9.312477e-01 1.590068e+00 2.606201e-02 5.126011e-01 -1.381624e-01 -2.371747e-01 2.620671e-01 4.202749e-01 1.026432e+00 1.652531e+00 2.132400e+00 1.169105e+00 -5.375265e-01 -1.156398e+00 -1.261349e+00 -9.109557e-01 4.751384e-03 
-1.472445e+01 -5.337203e+00 -4.452472e-01 1.247795e+01 5.681202e+00 9.589206e+00 1.114872e+00 3.384305e+00 -5.400905e+00 -2.453985e+00 1.831435e-01 -1.019325e+00 5.275441e-01 3.219040e-01 1.474047e-02 -5.624254e-01 -3.191953e-01 1.099601e+00 3.893041e-01 2.629158e+00 9.619070e-01 -1.873381e+00 -2.526844e+00 -4.305736e-01 1.749816e-02 1.703157e-02 
-1.515850e+01 -3.524027e+00 -4.162788e-04 9.630758e+00 6.064563e+00 9.045680e+00 8.101758e-01 4.670310e+00 -6.482878e+00 -3.897854e+00 -6.630878e-01 2.073724e+00 5.885431e-01 5.102648e+00 2.173148e+00 -7.157040e-02 -3.974267e+00 -2.769487e+00 -3.344493e+00 -4.963875e-03 -1.044204e+00 -1.279025e+00 -2.364412e+00 -1.059585e+00 -8.708133e-01 3.957304e-02 
-1.032936e+01 -2.575285e+00 -3.225368e+00 7.518980e+00 5.230707e+00 5.228465e+00 3.639214e+00 8.753234e+00 -6.370795e+00 -6.619633e+00 -2.296574e-01 9.725709e-01 6.158137e-01 8.580995e+00 2.665016e+00 3.728050e-01 -4.842223e+00 -6.045600e+00 -4.350546e+00 3.858057e-01 -3.027406e+00 1.528314e+00 -1.759753e+00 -1.347004e+00 -1.489030e+00 7.870679e-02 
9.254456e+00 5.243353e+00 3.834677e-02 -4.905870e+00 -7.142736e+00 -2.760896e+00 -1.472665e-01 -1.382102e+00 -7.206375e+00 -8.807988e+00 -3.501458e+00 -5.323952e+00 6.663315e-01 9.610460e+00 1.634906e+00 5.484308e-01 -3.525171e+00 -8.306917e+00 -4.053712e+00 2.353421e-01 -4.018353e+00 2.298288e+00 -6.127375e-01 -2.028014e+00 -7.278982e-01 9.752370e-02 
1.597404e+01 3.604186e+00 1.399396e+00 -4.464850e+00 -1.794315e+01 -6.260236e+00 3.522622e+00 -8.726517e+00 2.602417e+00 -8.797684e+00 -5.132692e+00 -4.765637e+00 8.821838e-01 6.796750e+00 2.794099e-01 1.146985e+00 -1.183925e+00 -7.741111e+00 -3.054994e+00 1.185992e-02 -2.881160e+00 9.208706e-01 1.208881e+00 -2.552861e+00 1.105974e+00 9.386569e-02 
1.974210e+01 1.560766e+00 4.293556e-01 -2.003181e+00 -2.388309e+01 -5.478530e+00 2.045182e+00 -6.681579e+00 5.219548e-01 -5.872516e+00 -8.351640e+00 1.303337e+00 9.429765e-01 2.014745e+00 -9.417418e-01 9.867067e-01 1.390635e+00 -4.226249e+00 -1.717874e+00 3.417548e-01 3.399382e-02 -2.369875e-01 1.406196e+00 -1.147286e+00 2.042874e+00 5.986873e-02 
1.841056e+01 6.630576e-01 2.314053e+00 1.480085e-01 -2.510467e+01 -8.687688e+00 2.602289e+00 -3.002831e+00 -5.630608e+00 -2.042966e+00 -1.056887e+01 3.188795e+00 9.468197e-01 3.717593e-01 -4.112377e-01 1.380692e+00 1.087394e+00 -9.258312e-01 -1.780133e+00 -2.163816e-01 3.578342e-01 -1.513542e+00 8.550726e-01 1.714199e-01 1.404124e+00 9.096229e-03 
1.810992e+01 2.005208e+00 4.514552e+00 -2.591264e-01 -2.469322e+01 -1.013654e+01 2.021674e+00 -4.073976e+00 -4.274801e+00 -5.154369e+00 -6.519798e+00 9.132009e-01 9.333572e-01 -9.983196e-02 5.375827e-01 1.161369e+00 5.041234e-01 1.474114e+00 -2.927142e+00 -4.498715e-02 -2.116423e-01 -1.355784e+00 4.302760e-01 1.575496e+00 -4.073910e-01 -4.249143e-03 
1.864893e+01 1.325777e+00 6.260260e+00 1.000904e-01 -2.216724e+01 -1.283189e+01 2.452468e+00 -8.241147e+00 -2.566916e+00 -4.881394e+00 -5.191513e+00 2.450053e+00 9.324746e-01 2.604354e-01 9.195545e-01 4.699353e-01 3.820435e-01 1.530041e+00 -2.394273e+00 -2.097816e-01 -3.151957e-01 -7.391926e-01 -6.714053e-02 1.521803e+00 -4.851108e-01 -5.690771e-03 
1.912376e+01 3.917320e+00 4.263096e+00 5.413948e-01 -1.798124e+01 -1.804213e+01 1.895157e+00 -5.120632e+00 -7.788812e+00 -2.301922e+00 -3.162840e+00 -3.642471e-01 9.289033e-01 -1.408339e-01 1.209601e+00 -6.274346e-02 1.263923e-01 1.756722e+00 -2.752921e+00 5.092913e-01 1.617358e-01 -8.625746e-01 6.988540e-01 4.404555e-01 2.915249e-02 -4.761636e-03 
1.920582e+01 4.304774e+00 4.789458e+00 1.657966e+00 -2.081046e+01 -1.670625e+01 1.616639e+00 -4.055482e+00 -7.569565e+00 -3.804892e+00 -4.638331e+00 1.401964e+00 9.205928e-01 -5.159863e-01 1.415564e+00 -5.006340e-01 -2.047476e-01 1.496268e+00 -2.078103e+00 3.422587e-01 1.131012e+00 -2.280890e-01 8.296269e-01 -2.206301e-01 -4.245667e-01 -5.482244e-03 
1.712731e+01 6.563715e+00 4.936236e+00 -4.061024e-01 -1.658801e+01 -2.196396e+01 4.986044e+00 -5.358130e+00 -6.086349e+00 -2.198350e+00 -4.594111e+00 1.583008e+00 9.154900e-01 -3.757099e-01 2.749522e-01 -1.786876e-03 -2.850402e-01 -2.245922e-01 -2.497975e-01 4.651104e-01 7.265466e-01 8.864781e-01 9.636877e-01 -5.735403e-01 -6.888030e-01 -3.696960e-03 
1.706722e+01 7.080401e+00 3.420520e+00 -4.498991e-01 -1.538252e+01 -2.126149e+01 2.618318e+00 -2.467340e+00 -4.558593e+00 -7.850454e-01 -5.579027e+00 -6.464081e-01 9.117700e-01 -3.341590e-01 -8.926844e-03 -1.820301e-01 -4.742703e-01 -1.038655e+00 9.089608e-01 -1.961954e-01 1.197124e+00 9.921200e-01 1.394151e+00 -5.951642e-01 -6.183311e-01 -2.595127e-04 
1.831451e+01 3.904268e+00 4.938631e+00 1.701263e-01 -2.181817e+01 -1.701350e+01 3.719870e+00 -2.281970e+00 -4.861908e+00 1.006594e+00 -5.560194e+00 -2.784076e+00 9.148299e-01 2.122925e-01 -7.293814e-01 -4.796656e-01 -6.268567e-01 -1.906966e+00 2.164505e+00 -2.660765e-01 1.479131e+00 1.020043e+00 -1.013625e-01 -4.569871e-01 -4.577065e-02 4.824346e-03 
1.694143e+01 5.589864e+00 3.878109e+00 -1.001500e+00 -2.338865e+01 -1.463668e+01 1.268750e+00 3.920596e-01 -3.221186e+00 1.563390e+00 -7.131111e+00 4.938507e-01 9.196253e-01 3.467726e-01 -1.060560e+00 -8.327926e-01 -9.292355e-01 -1.313383e+00 1.498837e+00 8.217333e-01 1.124894e+00 3.567840e-01 -7.408081e-01 -5.590646e-01 7.455942e-01 1.200519e-02 
1.825167e+01 3.662077e+00 2.309113e+00 -3.264586e+00 -2.211977e+01 -1.445385e+01 4.330446e+00 6.078233e-01 -1.654837e+00 -3.879381e+00 -6.103005e+00 7.840252e-01 9.356841e-01 4.540359e-01 -1.129431e+00 -1.858433e+00 -1.354987e+00 4.385349e-01 3.558036e-01 1.090412e+00 1.266550e+00 8.018371e-01 -1.436408e+00 -1.209803e+00 1.011836e+00 1.972491e-02 
1.883251e+01 1.898697e+00 5.713158e-01 -3.378721e+00 -2.179864e+01 -1.504714e+01 6.421696e+00 1.712235e+00 -4.378208e+00 -2.046098e+00 -8.102944e+00 1.297513e+00 9.613689e-01 5.718493e-01 -1.817964e+00 -2.331436e+00 -1.308802e+00 1.574677e+00 8.582217e-01 1.024877e+00 1.247392e+00 -1.306809e-01 3.223298e-01 -1.896835e+00 6.849803e-01 2.176480e-02 
1.963915e+01 1.026964e-01 -2.700136e+00 -5.416197e+00 -2.042050e+01 -1.502926e+01 6.595456e+00 3.390693e+00 -2.742109e-01 -4.370701e+00 -1.112329e+01 1.873274e+00 9.925826e-01 9.901562e-02 -1.910823e+00 -2.083231e+00 -7.579446e-01 1.734937e+00 1.873490e+00 4.347460e-01 2.333793e-01 -2.907656e-01 2.042529e+00 -2.352843e+00 5.829705e-01 1.474758e-02 
1.910693e+01 -1.720267e+00 -5.274446e+00 -6.469706e+00 -1.636490e+01 -1.005787e+01 5.260630e+00 5.237583e+00 -4.564903e+00 3.420699e+00 -1.410514e+01 3.374128e+00 1.000000e+00 5.657434e-02 -2.095223e+00 -1.712958e+00 -7.701854e-01 2.206823e+00 3.112114e+00 -3.648625e-02 -7.442277e-01 6.712886e-01 1.147184e+00 -2.133085e+00 1.321463e-01 6.650150e-03 
1.860954e+01 -4.082557e+00 -5.184162e+00 -5.508816e+00 -1.616195e+01 -7.581033e+00 7.084709e+00 1.204596e-02 -3.015317e+00 3.599865e+00 -1.486612e+01 2.660570e+00 9.901064e-01 1.012611e-02 -1.587762e+00 -1.154999e+00 -6.955159e-01 2.269043e+00 4.402578e+00 -5.326887e-01 -2.005120e+00 1.076781e+00 5.895959e-01 -8.514704e-01 -2.958737e-01 -7.657325e-03 
1.963018e+01 -6.484792e+00 -6.751462e+00 -7.183338e+00 -1.289380e+01 -3.210680e+00 5.994638e+00 -3.195797e-01 3.487880e-01 -2.954612e-01 -1.689696e+01 1.564596e+00 9.958577e-01 -5.681067e-02 -8.713894e-01 -8.300303e-01 -1.001413e+00 2.481550e+00 5.030002e+00 -1.530317e+00 -2.643467e+00 1.694196e+00 -8.562632e-01 7.631943e-01 -1.298393e-01 -1.649073e-02 
1.942815e+01 -5.453852e+00 -7.736621e+00 -8.536960e+00 -1.081084e+01 3.560040e+00 3.565008e+00 -3.856323e+00 2.652848e+00 4.353585e-01 -1.398473e+01 1.298671e+00 9.563671e-01 -4.134890e-01 1.340682e-01 -1.020299e+00 -1.224636e+00 3.106755e+00 5.559918e+00 -2.777175e+00 -2.468965e+00 9.521502e-01 -2.441231e-01 2.101119e+00 4.179646e-01 -2.201992e-02 
1.841357e+01 -5.391566e+00 -8.148367e+00 -9.962696e+00 -6.632708e+00 9.521605e+00 -6.311040e-01 -6.045567e+00 1.071996e+00 7.216368e-01 -1.072986e+01 3.405881e+00 9.344160e-01 -6.997113e-01 7.715422e-01 -1.000051e+00 -1.224181e+00 3.469941e+00 4.918316e+00 -3.181094e+00 -2.471368e+00 4.107131e-01 -1.223646e-01 3.205954e+00 5.335075e-01 -2.238570e-02 
1.715039e+01 -3.958829e+00 -9.587202e+00 -1.024232e+01 -3.758720e+00 1.385241e+01 -3.488296e+00 -9.469784e+00 1.383830e+00 1.870700e+00 -7.444074e+00 3.829751e+00 9.107277e-01 -8.101366e-01 5.687915e-01 -6.661690e-01 -9.321572e-01 3.385868e+00 3.539066e+00 -3.279533e+00 -1.579725e+00 4.373477e-01 -6.181455e-01 2.941688e+00 -3.185954e-02 -2.793366e-02 
1.727051e+01 -3.374593e+00 -1.082643e+01 -1.245156e+01 9.298463e-01 1.623471e+01 -6.384182e+00 -9.869686e+00 3.036863e+00 -1.624955e+00 -4.137515e+00 2.966593e+00 9.067490e-01 -8.138567e-01 5.881184e-01 -3.513107e-02 -8.892705e-01 3.022059e+00 2.230075e+00 -3.357421e+00 -4.193495e-01 1.263220e+00 -1.074950e+00 2.838161e+00 -1.408556e+00 -4.304682e-02 
1.594900e+01 -3.618381e+00 -9.728436e+00 -1.195331e+01 2.337225e+00 1.789881e+01 -9.956116e+00 -9.842885e+00 3.857153e+00 -1.482073e+00 -2.572466e+00 1.359017e+00 8.305324e-01 -6.192523e-01 7.081298e-01 -6.274624e-02 -4.724409e-01 2.839553e+00 4.539377e-01 -2.061407e+00 2.599970e-01 8.827756e-01 -1.190583e+00 1.943319e+00 -7.929770e-01 -5.163605e-02 
1.494498e+01 -2.621198e+00 -8.253407e+00 -1.355355e+01 5.429615e+00 1.864878e+01 -1.418430e+01 -7.955763e+00 6.151433e+00 -2.976725e+00 1.025141e+00 -2.401532e+00 7.592795e-01 -7.160150e-01 1.098378e+00 3.679569e-01 -2.215651e-01 2.576313e+00 -1.178540e+00 -8.654706e-01 3.412638e-02 2.045905e-01 -7.473009e-01 2.252661e+00 -2.604091e-01 -5.838599e-02 
1.521689e+01 -7.948781e-01 -1.118744e+01 -1.205353e+01 8.189161e+00 1.491507e+01 -9.895268e+00 -9.126760e+00 4.240423e+00 -3.406330e+00 -3.088054e-01 2.548929e+00 7.262821e-01 -7.191131e-01 1.400137e+00 8.990793e-02 -4.683657e-02 2.341149e+00 -1.243872e+00 4.246280e-01 -7.807660e-01 6.360231e-01 -4.481025e-01 1.376483e+00 -8.399320e-03 -4.977856e-02 
1.405648e+01 7.055454e-01 -8.257139e+00 -1.350928e+01 1.088545e+01 1.183389e+01 -1.074196e+01 -1.005712e+01 3.868180e+00 -4.399331e+00 5.993958e+00 1.069592e+00 6.669441e-01 -7.008764e-01 5.967586e-01 -1.643042e-01 7.687117e-01 1.324620e+00 -8.281425e-01 1.242567e+00 -4.317994e-01 9.631608e-01 -7.075842e-02 -7.541394e-03 5.220087e-01 -4.146876e-02 
1.279769e+01 1.718931e+00 -9.277029e+00 -1.220963e+01 1.131505e+01 1.508690e+01 -9.554148e+00 -1.269604e+01 8.178894e+00 -3.011282e+00 1.825542e+00 -4.185414e-01 6.278073e-01 -1.375738e+00 7.990290e-01 3.116097e-01 1.691414e+00 9.874331e-01 -8.994362e-01 6.112925e-01 1.297130e+00 1.229072e+00 1.553533e+00 -6.490566e-01 -7.615091e-01 -6.788423e-02 
1.265021e+01 -8.943094e-01 -1.003013e+01 -9.631942e+00 1.048977e+01 1.442215e+01 -8.142026e+00 -8.330121e+00 8.998001e+00 -3.528041e+00 -7.973951e-02 1.692246e+00 6.011732e-01 -2.442396e+00 4.627784e-01 7.629701e-01 3.768822e+00 1.346764e+00 -1.156383e+00 1.834711e+00 3.088544e+00 3.371070e-01 1.731172e+00 -8.629187e-01 -1.326749e+00 -1.027859e-01 
9.041344e+00 4.000194e+00 -8.742899e+00 -5.535128e+00 1.332417e+01 9.123754e+00 -8.138772e+00 -3.504607e+00 7.820874e+00 3.925692e+00 -5.172394e-01 -1.569943e+00 4.197465e-01 -3.186406e+00 -4.992726e-01 7.434842e-01 4.989849e+00 1.342559e+00 -1.634527e+00 1.963892e+00 3.296185e+00 -5.618100e-01 1.720647e+00 2.791166e-02 -1.710273e+00 -1.023288e-01 
3.722678e+00 1.878806e+00 -4.709354e+00 1.997578e+00 1.661471e+01 9.033544e+00 -2.276093e+00 7.898889e-01 5.732726e+00 7.880411e-01 2.850756e+00 -4.988450e+00 2.570448e-01 -3.843854e+00 -1.134342e+00 8.124869e-01 4.081423e+00 1.297233e+00 -1.467161e+00 1.561623e+00 1.394553e+00 -9.876994e-01 5.544024e-01 1.909401e-01 -1.887767e+00 -8.772148e-02 
1.329422e+00 -2.163990e+00 -8.219999e+00 6.924856e+00 1.496538e+01 9.608571e+00 -2.667655e+00 -7.751186e-01 7.002482e+00 3.433914e+00 4.998524e-01 -5.629558e+00 2.882274e-01 -3.152280e+00 -2.152126e+00 -6.971283e-02 1.933921e+00 1.796522e-02 -8.240091e-01 1.059502e+00 -6.604689e-01 -1.015990e+00 6.413725e-01 1.096808e+00 -1.168383e+00 -3.373709e-02 
-2.713104e+00 -3.483930e+00 -6.229150e+00 4.545180e+00 1.615532e+01 6.843941e+00 -3.069468e+00 -2.722103e+00 4.468699e+00 -5.101407e-01 3.664151e-01 -5.716783e+00 2.283252e-01 -2.103476e+00 -1.610561e+00 -1.205739e+00 -1.423009e+00 -1.676478e+00 -1.370029e+00 2.993771e-01 -7.878653e-01 -2.476222e-01 2.047799e+00 1.477063e+00 -3.008948e-01 -1.102027e-02 
-3.502163e+00 -4.079065e+00 -8.331566e+00 2.860677e+00 1.364368e+01 6.098510e+00 -2.444575e+00 -5.050956e+00 3.372940e+00 7.781645e+00 6.208972e+00 -7.047694e+00 2.654208e-01 -1.572684e+00 -3.374337e-01 1.974494e-01 -1.358028e+00 -1.344497e+00 -1.639518e+00 3.735523e-01 -5.861966e-02 -4.083056e-01 2.345779e+00 1.657524e+00 -2.435937e-01 -2.298996e-02 
-4.378909e+00 -5.216463e+00 -1.068227e+01 -3.085378e+00 8.893163e+00 3.938429e+00 -8.907474e-01 -1.011519e+00 6.309386e+00 8.853172e+00 7.381510e+00 -5.783856e+00 2.133468e-01 -1.329705e+00 1.992995e-01 6.175374e-01 -1.390516e+00 -1.368830e+00 -7.999399e-01 4.458187e-01 -2.941302e-01 -3.319414e-01 1.814430e+00 5.870050e-01 -4.094642e-01 -3.065903e-02 
-5.701096e+00 -2.984891e+00 -5.006194e+00 3.949994e+00 1.187397e+01 2.863740e+00 -1.889254e+00 -1.923508e+00 4.040611e+00 1.048115e+01 5.279923e+00 -6.813990e+00 1.807669e-01 -1.231843e+00 1.302293e+00 2.583096e+00 -7.586627e-01 -1.171612e+00 -1.842310e+00 1.427957e-01 6.217015e-01 -1.491419e+00 -9.545148e-01 -6.108522e-01 -2.007612e-01 -4.267723e-02 
-8.262164e+00 -3.034519e+00 -4.804149e+00 -2.952059e+00 1.019603e+01 4.461627e+00 -1.118036e+00 -5.756477e+00 2.475157e+00 7.212253e+00 3.765965e+00 -7.880956e+00 1.173571e-01 -1.476898e+00 1.483015e+00 3.106933e+00 -4.179251e-01 -1.999994e+00 -2.153540e+00 2.035389e-01 8.680161e-01 -2.114000e+00 -2.414059e+00 -1.062038e+00 4.358687e-02 -2.930465e-02 
-7.719752e+00 1.341426e+00 1.644853e+00 -9.992969e-01 7.134189e+00 -3.374640e+00 -1.616953e+00 4.300309e-01 -2.167043e+00 3.829531e+00 4.962483e+00 -7.002950e+00 1.000295e-01 -8.077799e-01 1.600623e+00 2.708453e+00 1.090566e-01 -1.936250e+00 -2.272779e+00 8.860677e-01 2.489311e+00 -1.373798e+00 -3.579461e+00 -1.000335e+00 1.008269e+00 -1.909661e-02 
-1.075407e+01 3.545451e-02 1.526873e+00 -2.700359e+00 1.263083e+00 -3.710083e+00 -9.203315e-03 2.151791e+00 -1.156785e+00 1.086879e-01 2.230038e+00 -5.471442e+00 1.071922e-01 -1.614481e-01 1.560227e+00 2.126717e+00 1.838200e+00 -8.229658e-01 -1.296087e+00 -2.438041e-01 3.278199e+00 -1.649545e-01 -2.500588e+00 2.651515e-02 2.531608e+00 3.465855e-03 
-8.494042e+00 3.483237e+00 5.370559e+00 4.369427e+00 6.659194e+00 -4.414303e+00 1.986669e+00 6.568914e+00 -1.012411e+00 -3.864371e+00 1.046210e+00 -2.977403e+00 9.036624e-02 -1.442560e-01 5.664065e-01 6.730974e-01 1.062748e+00 7.156488e-01 5.093821e-01 -4.305589e-01 1.213243e+00 9.247036e-01 -4.161541e-01 -6.222066e-01 2.163428e+00 5.857098e-03 
-8.682260e+00 3.695709e+00 3.966583e+00 3.554578e+00 6.318699e+00 -1.498974e+00 -4.138867e+00 7.565077e+00 1.073068e+00 -1.443737e+00 5.856677e+00 2.764312e+00 1.395180e-01 1.269127e-01 2.737052e-01 4.552805e-02 4.920511e-01 7.060149e-01 3.461984e-01 3.349357e-02 3.509651e-01 2.068958e+00 1.076252e+00 9.085487e-01 2.028048e+00 5.062395e-03 
-9.476937e+00 2.343331e+00 3.790486e+00 1.186974e+00 8.184625e+00 -1.933284e+00 -1.704916e+00 3.789601e+00 1.341548e+00 2.524972e+00 3.813046e-02 -3.036888e-01 1.131521e-01 -3.225946e-01 -3.381348e-01 -2.103842e-01 1.025118e-01 -7.171159e-01 9.581725e-02 6.148362e-01 -1.286000e+00 1.612345e+00 1.634978e+00 2.563376e-01 -9.308306e-02 2.039677e-03 
-9.628058e+00 1.973934e+00 2.544550e+00 1.351123e+00 4.030442e+00 -3.219601e+00 2.004057e+00 5.296273e+00 8.011023e+00 2.295277e+00 7.276822e+00 3.331941e+00 1.211113e-01 -1.238844e-01 -2.612743e-01 2.879149e-01 1.011442e-01 -7.774487e-01 -3.079948e-01 2.011254e+00 -6.248163e-01 -1.017327e-01 4.197148e-01 -9.616272e-01 -8.930379e-01 -8.330464e-03 
-9.634116e+00 2.653451e+00 5.029654e+00 5.983713e+00 4.217743e+00 -3.074903e+00 1.989388e+00 1.273316e+00 3.580337e+00 2.441012e+00 1.617826e+00 -3.726633e+00 1.097680e-01 -1.611967e-01 -2.669011e-01 2.019265e-02 4.312107e-01 -2.817706e-01 3.879252e-01 4.959794e-01 -5.471088e-01 -4.501814e-01 7.681490e-01 3.384580e-01 -9.434744e-01 -3.203637e-03 
-9.223092e+00 2.234277e+00 4.786573e+00 1.661929e+00 4.414897e+00 -2.468139e+00 4.070253e+00 5.699138e+00 -5.549898e-01 6.968174e-01 2.586932e-01 1.059508e-02 9.955770e-02 -2.337986e-01 -8.089194e-02 -1.055462e-01 -4.038145e-01 1.085873e+00 1.759389e+00 -1.075079e-02 -9.581510e-01 -1.889773e+00 5.719832e-01 -8.291200e-01 -6.236472e-01 9.579539e-04 
-1.048540e+01 8.786537e-01 2.770437e+00 3.187624e+00 6.583544e+00 -3.693891e-01 -2.581171e-01 8.526250e-01 3.373648e+00 7.164948e+00 5.239485e+00 -3.360388e+00 1.079107e-01 -1.745083e-01 -3.404516e-01 -9.141733e-01 -1.597049e+00 3.164794e-01 1.093781e+00 -9.269409e-01 1.068929e-01 -1.029141e+00 -7.875571e-01 4.372487e-01 1.186760e+00 2.466965e-03 
-1.037141e+01 2.456872e+00 3.146428e+00 7.300951e-01 8.276907e+00 4.224586e+00 3.074055e+00 7.158643e-01 -1.334496e+00 2.793225e+00 1.320392e+00 3.058267e-02 1.268297e-01 2.453882e-01 2.572710e-02 -1.215942e-01 1.423247e-01 -1.284523e-01 -3.618473e-03 -1.483917e-02 -1.112733e-01 -5.085587e-01 -1.481879e+00 4.939058e-01 1.039680e+00 -2.645659e-03 
-9.932500e+00 8.398954e-01 1.278860e+00 -1.535615e+00 3.869134e+00 -9.523588e-01 -2.147217e+00 4.299417e+00 -1.175615e+00 -2.544977e+00 3.273220e+00 2.197173e+00 1.084668e-01 4.557682e-01 3.952102e-01 1.202780e+00 9.084234e-01 -1.362575e-01 -1.198625e+00 4.657599e-01 9.844196e-01 -8.103927e-01 -1.669440e+00 1.868069e-02 1.225438e+00 -7.767254e-03 
-8.272603e+00 2.382292e+00 4.924391e+00 4.735172e+00 5.129840e+00 -2.194746e+00 4.940608e+00 3.419375e+00 -8.231518e-01 -1.857616e+00 3.711355e+00 2.430213e+00 8.605134e-02 2.840040e-01 1.925745e-01 1.222052e+00 1.058780e+00 -3.224025e-01 -1.264415e+00 2.784526e-01 7.194505e-01 1.521459e+00 5.915490e-01 8.739120e-01 2.044699e-01 -9.378118e-03 
-9.255965e+00 2.891995e+00 7.895355e+00 5.727203e+00 7.475790e+00 -3.152848e+00 1.137406e+00 4.422967e+00 -9.339869e-01 1.143170e+00 4.137407e+00 1.566985e+00 8.946359e-02 -6.446495e-02 4.858211e-01 8.401476e-01 4.891581e-01 5.939682e-01 7.698881e-01 1.028880e+00 9.351057e-01 3.048019e+00 2.746891e+00 8.141498e-02 -5.804214e-01 -1.083612e-04 
-9.289655e+00 2.393695e+00 5.948439e+00 2.392588e+00 4.861567e+00 -9.972416e-01 2.824007e+00 4.251341e+00 6.151985e+00 3.906897e+00 5.257858e+00 1.368026e+00 8.944070e-02 -3.574650e-01 2.829778e-01 -5.590497e-01 -1.297327e+00 6.771095e-01 -2.235268e-01 -1.645559e+00 5.549325e-01 1.905850e+00 1.451542e+00 -1.565690e-01 -1.097923e+00 7.043534e-03 
-9.746299e+00 3.263299e+00 4.967574e+00 2.081468e+00 6.973112e+00 2.298329e+00 4.055481e+00 8.558963e+00 1.057691e+01 8.307220e+00 2.907043e+00 -1.738408e-01 1.062303e-01 -1.179295e-02 1.945483e-02 -1.092846e+00 -1.211852e+00 9.436078e-02 7.451467e-02 -5.693924e-01 -7.383013e-02 2.376063e-01 3.384465e-01 4.318256e-02 -1.047367e+00 6.630653e-03 
-9.814761e+00 3.611529e+00 3.593032e+00 7.140251e-02 8.766726e+00 -6.037969e+00 -4.746227e+00 4.126040e+00 2.950651e+00 1.818069e+00 3.543692e+00 -2.188988e+00 1.128857e-01 7.036571e-02 -1.361129e-01 -3.894085e-01 -2.027149e-01 2.891850e-01 3.337905e-01 -4.912178e-01 -4.232682e-01 -2.366608e+00 -9.358428e-01 1.532630e-01 -5.339791e-01 3.735638e-03 
-9.052377e+00 2.380352e+00 3.608828e+00 8.285354e-01 5.995014e+00 -2.599111e-01 2.075561e+00 4.116467e+00 1.854712e+00 3.879816e+00 5.210403e+00 -1.891343e+00 1.108944e-01 1.452997e-01 -3.674315e-01 5.141270e-02 1.782100e-01 -2.323329e-01 7.293802e-01 7.088976e-02 -8.175220e-01 -2.806434e+00 -1.410836e+00 5.259702e-01 1.207315e-01 -7.985711e-04 
-9.284787e+00 2.154604e+00 4.680769e+00 2.005479e+00 6.796541e+00 1.950831e+00 1.357877e+00 4.356248e+00 -1.319957e+00 1.441384e+00 4.872493e+00 -4.431183e-01 1.057869e-01 8.275376e-02 -3.139598e-01 3.247415e-01 5.045097e-01 -3.138845e-01 1.818834e+00 1.149053e+00 7.001963e-02 -1.171588e+00 -3.191801e-01 2.319694e-01 4.939964e-01 -1.930511e-03 
