2.121368e+00 2.728751e+00 2.100689e+00 4.451704e+00 3.196637e+00 3.640133e+00 5.451221e+00 -3.921696e+00 -2.963545e-01 1.280030e+00 -8.022394e-01 1.692910e+00 -6.309021e-02 -2.109432e-01 -7.156134e-04 -9.454454e-01 -5.573339e-01 -4.331177e-01 -1.386434e+00 -5.142690e-01 1.096705e+00 -3.290728e-01 -3.820258e-01 -2.080100e-01 -1.075968e+00 1.372552e-03 
8.273659e-01 3.234386e+00 -8.864445e-01 3.158717e+00 3.814385e+00 -2.707440e-02 3.811027e+00 -8.327758e-01 1.942009e+00 1.440789e+00 -5.442808e+00 -1.983683e+00 -4.940093e-02 -3.161587e-01 2.859537e-01 -6.440014e-01 -6.068773e-01 -7.265012e-01 -2.002728e+00 1.284348e-01 1.313267e+00 1.647865e-01 5.130049e-01 2.666349e-01 -1.480592e-01 1.878262e-03 
1.713654e+00 2.472355e+00 -1.132971e+00 2.311528e+00 7.221745e-01 -1.458432e+00 3.699972e+00 1.737070e-02 -3.060900e+00 -7.104781e-01 4.779949e-01 -1.848632e+00 -6.307209e-02 -1.601011e-01 1.045117e-01 -4.351032e-01 -7.798251e-01 -9.347357e-01 -1.341092e+00 -5.339743e-01 4.487446e-01 -2.651018e-01 -7.252166e-02 5.162706e-01 -5.860639e-02 2.059865e-03 
7.444324e-01 4.286717e+00 4.975120e-01 2.487406e+00 8.013623e-01 -3.824226e+00 6.969018e+00 6.751077e-01 1.909851e+00 4.840309e+00 -1.091824e-01 2.723385e+00 -5.370796e-02 2.762724e-01 -5.754232e-01 -3.571780e-01 -1.197116e-01 -1.340916e+00 2.985145e-01 -1.174963e+00 -1.001339e+00 -5.310582e-01 2.540925e-01 1.946429e+00 7.711529e-01 3.588438e-04 
1.362329e+00 2.725144e+00 -7.668054e-01 8.882343e-01 2.946985e-02 -1.166752e+00 1.202353e+00 -2.431915e+00 -1.605784e+00 -7.823384e-01 -8.876994e-01 -9.536561e-01 -5.063736e-02 -6.027374e-02 -4.453533e-01 -4.919059e-01 8.066557e-02 -4.401231e-01 6.043956e-01 -1.404959e+00 -9.953390e-01 -2.920380e-01 5.805948e-01 7.028750e-01 6.978483e-02 5.701852e-03 
2.384390e+00 2.308758e-01 -2.855417e+00 3.271806e+00 -2.543843e+00 1.319658e+00 -8.149788e-01 -4.614830e+00 -1.440840e+00 2.747181e+00 4.972181e+00 1.424593e+00 -5.382407e-02 5.088844e-02 -4.879108e-01 -5.440492e-01 4.087266e-01 -2.063714e-01 6.033511e-01 -9.034342e-01 -1.102565e+00 -5.586926e-01 4.303279e-01 8.536787e-01 -3.805477e-01 4.852629e-03 
5.923061e-01 2.273510e+00 -1.916036e+00 2.322656e+00 1.941620e-01 -1.008396e+00 5.671747e-01 -2.314355e+00 -2.845745e+00 3.239060e+00 1.451688e+00 -8.503124e-01 -3.450477e-02 3.086090e-03 -1.098627e-01 -1.119769e-03 2.915875e-01 7.564803e-01 2.574589e-02 4.712206e-01 2.041585e-01 3.420755e-01 6.977139e-01 -1.881737e-01 -6.592868e-01 -7.840276e-04 
1.383886e+00 2.072980e+00 -1.648119e+00 3.813828e+00 -3.128409e-01 -8.866489e-01 2.769436e+00 -4.896494e+00 -2.636322e-01 4.981249e+00 2.989517e+00 7.689743e-01 -3.751111e-02 2.109108e-02 8.704244e-02 4.587858e-01 4.362039e-01 1.018081e+00 -3.130692e-01 -3.140921e-01 3.341459e-01 4.356565e-01 -1.094765e+00 -1.085367e+00 -8.888881e-01 -4.646301e-03 
1.878012e+00 1.254779e+00 -1.376054e+00 2.075161e+00 2.696370e+00 6.513059e-02 1.766248e+00 -1.270290e+00 -4.840108e-01 1.589197e+00 -8.372357e-01 -3.922281e+00 -6.271398e-02 4.743215e-01 3.236269e-01 4.857020e-01 -2.459273e-01 -3.276044e-01 4.934343e-01 5.328151e-01 -8.717503e-02 -1.246555e-01 -1.132762e+00 -5.612605e-01 -3.868696e-01 -8.657062e-03 
1.846992e+00 1.175453e+00 -8.314799e-01 5.576573e+00 1.295459e+00 -7.824507e-01 -2.984976e+00 -3.466134e+00 -4.434245e-01 -1.901714e+00 6.898072e-01 -1.483863e+00 -6.295097e-02 2.515583e-02 2.051038e-01 1.878501e-01 -8.533605e-01 -7.886409e-01 -5.384582e-01 -1.899115e-01 -3.584914e-01 -1.702873e-01 -1.016181e+00 -4.988979e-01 9.389563e-01 -3.446472e-03 
2.732361e+00 4.340407e+00 1.041545e-01 2.116472e-01 -2.248010e+00 1.406677e+00 6.108457e+00 -3.465410e+00 -3.379127e+00 1.016730e+00 -2.047591e-01 -1.658242e+00 -6.507015e-02 2.882620e-01 8.236879e-01 -3.059063e-01 -6.716752e-01 -2.762850e-01 7.652733e-01 2.312144e-01 -4.296715e-01 7.599243e-01 1.430849e+00 -1.320252e-02 2.000223e+00 1.027605e-02 
1.082491e+00 1.555685e+00 -1.448972e+00 4.787824e-01 -1.783855e+00 -4.249713e+00 -3.512254e-01 -5.591391e+00 3.324893e-01 1.865802e-01 1.787899e-01 4.331737e+00 -5.356538e-02 2.848709e-01 3.091685e-01 -3.273087e-01 -5.621972e-01 4.868943e-01 1.117005e+00 1.256873e+00 8.199703e-01 1.073316e+00 1.899249e+00 2.104022e-01 1.218248e+00 8.697128e-03 
3.701572e+00 5.183103e+00 -2.596839e+00 1.265679e+00 2.854602e+00 5.625128e+00 1.605445e+00 -2.356019e+00 2.927654e+00 7.699294e+00 -6.477396e-01 3.171036e+00 -1.602650e-02 2.662739e-01 -8.449151e-02 4.224341e-02 5.312031e-01 3.121862e-01 3.980843e-01 7.214326e-01 1.748305e+00 9.836432e-01 1.078511e+00 1.184568e+00 7.998371e-03 1.944494e-03 
2.786741e+00 2.299948e+00 -1.117527e+00 2.238570e+00 1.178624e+00 2.693347e+00 5.550897e+00 7.902193e-02 1.769764e+00 4.253250e+00 1.963308e+00 2.192736e+00 -4.398715e-02 3.344242e-01 5.001433e-01 9.919175e-01 1.159269e+00 4.308181e-02 4.362548e-01 1.411934e+00 1.812773e+00 4.884316e-01 -3.599539e-02 4.371116e-01 -2.337710e+00 -7.538510e-03 
3.211605e+00 3.545818e+00 1.496487e-01 1.987769e+00 -2.168319e+00 -7.443243e-02 6.764558e+00 2.440909e+00 8.204522e-01 4.375951e+00 4.825822e+00 -5.487494e-01 -6.013680e-02 -3.585092e-01 -1.092993e-01 8.567653e-01 1.035956e+00 -6.715797e-01 -1.477870e+00 -4.765106e-01 -2.214314e-01 -8.115743e-01 -2.147546e+00 -1.762372e-01 -8.464748e-01 -8.017659e-03 
2.999596e+00 4.875044e+00 2.137372e+00 5.914083e+00 9.430143e-01 7.813413e-01 4.128886e+00 1.074012e+00 3.828248e+00 1.668275e+00 -3.724327e-01 -5.496922e+00 -6.920278e-02 -8.397045e-02 2.865122e-01 2.891695e-01 6.348403e-01 4.107038e-01 1.568371e-01 -5.037690e-01 1.884544e-01 -1.683801e-01 -1.030297e+00 -2.299632e-01 2.681834e-01 8.711696e-04 
1.802599e+00 3.349058e+00 5.953815e-02 4.607704e+00 -3.854911e-01 -8.082175e-01 -6.610203e-02 -3.960671e+00 -2.159460e+00 -1.745951e+00 -3.610549e-01 2.783491e+00 -4.350698e-02 -2.519608e-02 -1.127602e-01 -3.723482e-01 2.537220e-01 8.009917e-01 5.619679e-02 4.571882e-01 1.037713e+00 1.476482e-01 -1.430528e-02 -4.304852e-01 8.732904e-01 3.816235e-03 
3.071392e+00 3.830889e+00 3.733763e-01 4.102804e+00 2.340730e+00 3.844425e+00 6.447381e+00 4.222083e+00 2.417820e+00 2.162715e+00 3.406931e+00 1.867532e+00 -4.794621e-02 2.519476e-01 -1.490101e-01 -3.726934e-01 -3.278863e-01 6.416851e-01 -2.564656e-01 1.003585e+00 5.833140e-01 6.769701e-01 2.253593e+00 5.110782e-01 6.268785e-01 -5.172848e-04 
3.049726e+00 3.504095e+00 -8.300946e-01 4.162018e+00 1.137782e+00 -1.324991e+00 7.891252e+00 6.055439e+00 2.263907e+00 4.057204e+00 7.837138e-01 1.354754e-01 -5.168390e-02 -4.415584e-01 -1.287122e-01 7.062035e-01 -6.719123e-01 1.587877e+00 -1.310197e+00 1.184190e+00 -3.879226e-01 3.378099e-01 2.023045e+00 -1.274440e+00 2.110186e-01 2.773453e-02 
3.635770e+00 4.052475e+00 7.187210e-01 4.497495e+00 3.389803e+00 -2.426001e-01 5.168136e+00 -1.017473e+00 5.001415e+00 1.003466e+01 1.610574e+00 -1.038522e+00 -6.770074e-02 -1.742119e+00 -9.695913e-01 2.766867e+00 -1.160119e+00 3.503606e-01 -1.850314e+00 1.766497e-01 -2.731555e+00 8.384399e-02 1.496193e+00 -2.017659e+00 1.714395e+00 7.551026e-02 
-6.873817e-01 2.594704e+00 3.417883e+00 1.050797e+00 7.029359e+00 -5.315689e+00 6.494469e+00 -3.280505e+00 -1.762208e+00 4.433302e+00 -5.835078e+00 5.291612e+00 1.050429e-01 -1.227867e+00 -6.825978e-01 1.690221e+00 -1.137362e+00 -8.115966e-01 6.161658e-01 -7.648950e-01 -2.393775e+00 -2.392837e-01 -2.064627e-01 -3.029580e-02 1.970473e+00 3.996028e-02 
-3.770649e+00 -5.623719e-01 1.208372e+01 -1.421785e-01 1.146744e+00 -3.411794e+00 8.029021e+00 -4.767722e+00 4.850098e+00 9.455631e+00 -3.371968e+00 7.861438e+00 2.512417e-01 -8.395694e-01 2.641482e-01 -7.824235e-01 -6.603822e-01 -1.585733e+00 1.813333e+00 1.040493e-01 1.583668e-01 -2.993310e-01 -1.187367e+00 1.344593e+00 1.872109e+00 2.022791e-02 
6.135998e-01 2.398530e+00 1.938509e+00 7.950432e-01 -1.798672e+00 3.340436e+00 2.636333e+00 -4.038310e+00 1.143148e+00 3.314406e+00 3.123506e+00 5.537859e+00 -1.135373e-02 5.567518e-01 6.096680e-01 -2.301330e+00 8.439517e-01 -9.599316e-01 2.536145e+00 -3.682350e-01 1.416599e+00 -3.770135e-01 -9.291075e-01 2.621123e+00 -4.862049e-01 -3.935616e-02 
-1.212568e+00 5.471304e+00 -2.453709e+00 1.323461e+00 -1.248467e-01 4.496004e+00 7.617450e+00 1.532636e-01 2.052082e+00 4.657275e+00 3.854249e+00 8.198896e+00 9.163713e-02 1.051128e+00 3.664855e-01 -2.551525e+00 1.221749e+00 6.604004e-01 8.454566e-01 -4.016847e-01 9.330052e-01 -2.340822e+00 -2.049362e+00 1.216796e+00 -1.390727e+00 -6.387319e-02 
8.173370e-01 2.626207e+00 -8.200537e-01 4.537736e+00 2.865496e+00 3.411139e+00 4.859079e+00 1.341996e+00 -2.248267e+00 2.186943e+00 3.657427e+00 2.691858e+00 -1.193559e-02 5.278137e-01 -3.348878e-01 -1.031210e-02 8.219536e-01 1.109313e+00 -8.591358e-01 4.412205e-01 7.567930e-03 -2.840825e-01 -5.505595e-01 1.796241e-02 -1.120626e+00 -2.479326e-02 
1.383123e+00 1.156217e+00 7.053766e-01 4.095222e+00 2.116662e+00 7.801372e-01 4.909225e+00 -2.792850e+00 -5.158307e+00 -2.274476e-01 2.445054e+00 2.330803e+00 -6.783330e-02 2.114761e+00 -1.483996e+00 -8.170231e-01 -6.609467e-01 -8.339280e-01 -3.023120e+00 -9.301915e-01 2.788779e-01 -7.020565e-01 -2.718030e+00 -1.319529e+00 -1.820063e+00 -2.559633e-02 
1.954823e+00 2.881634e+00 3.074053e-01 3.518931e+00 2.627140e+00 9.026893e-01 6.196548e+00 -2.527413e+00 3.327930e+00 3.003970e+00 3.917915e+00 2.868777e+00 -5.558479e-02 2.038129e+00 -1.424167e+00 -1.808644e+00 -1.927997e+00 -2.217879e+00 -3.980333e+00 -7.998545e-01 1.600564e+00 -1.339545e-01 -2.803491e+00 -2.417293e+00 -8.352821e-01 9.112346e-03 
8.792494e+00 -2.076390e+00 -7.102554e+00 -1.471870e+00 -4.175308e+00 -9.365374e+00 2.297758e+00 3.482358e+00 -4.246299e+00 -9.341391e+00 -2.873641e+00 -9.898776e-01 -1.451993e-02 8.460603e-01 2.546601e-02 -1.393965e+00 -4.237253e-01 -5.217730e-01 -2.189970e+00 -1.597329e+00 1.503824e+00 1.159344e+00 2.893629e-02 -1.094737e+00 6.213164e-02 1.583260e-02 
7.303296e+00 -2.878326e+00 -5.959307e+00 -2.318705e+00 -5.077912e+00 -1.141777e+01 2.165540e+00 6.207213e+00 -3.374044e+00 -7.273540e+00 -5.769690e+00 1.757867e-01 6.969452e-03 -6.646854e-01 8.283836e-01 2.771114e-01 6.121461e-01 1.279634e+00 8.682256e-01 -6.339172e-01 7.923432e-02 5.186912e-01 1.736951e+00 5.908747e-02 4.319305e-02 -2.313411e-03 
2.939188e+00 4.163527e+00 -3.131095e+00 4.895413e+00 3.360323e+00 -4.009483e+00 -1.061916e+00 3.589559e-01 3.989401e+00 5.055989e+00 1.815169e+00 3.987956e+00 -1.994741e-02 -2.184168e+00 1.537722e+00 1.880671e+00 1.120418e+00 2.178634e+00 3.761181e+00 8.732874e-01 -2.196530e+00 1.245224e+00 3.432212e+00 1.933362e+00 4.962350e-01 -1.486101e-02 
1.558048e+00 3.903593e+00 -2.927671e-01 3.396020e+00 5.257494e+00 2.565872e+00 4.706800e+00 -5.695407e-01 1.803536e+00 4.490038e+00 1.868948e+00 5.958252e-01 -6.443810e-02 -1.269259e+00 8.781303e-01 9.900808e-01 1.415470e-01 6.737174e-01 3.261293e+00 8.350859e-01 -1.896218e+00 1.347250e+00 2.452081e+00 1.741159e+00 -6.650233e-01 -1.871839e-02 
7.442760e-01 2.221261e+00 -5.324693e-01 1.272859e+00 1.550159e+00 2.448713e+00 5.393565e+00 -4.111917e+00 -6.089714e-01 1.937880e+00 2.973851e+00 1.281278e+00 -5.312121e-02 -3.588638e-01 -9.069582e-01 2.302389e-01 -2.278002e+00 -9.106899e-01 6.028620e-01 -7.081175e-02 8.874482e-01 -2.987049e-01 -3.035014e-01 -2.559057e-01 -1.919786e+00 4.164255e-03 
2.054459e+00 2.483459e+00 -2.308216e+00 2.003069e-01 -8.042431e-01 1.659601e+00 3.113230e+00 -1.038439e+00 5.661391e+00 6.545919e+00 2.356763e+00 -1.795991e+00 -7.003558e-02 1.200766e-01 -1.642068e+00 6.743461e-02 -1.955041e+00 -7.820532e-01 -5.654262e-01 -1.168663e+00 2.629660e+00 -2.382309e-01 -2.230820e+00 -4.485772e-01 -6.075439e-01 2.999152e-02 
8.966637e-01 3.388036e-01 -9.721759e-01 -4.896740e+00 1.837742e+00 -5.420383e-01 -6.191895e-01 5.030646e+00 5.669487e-01 2.510541e+00 2.917330e-01 -4.415067e+00 3.672600e-03 -7.858719e-01 -1.381582e+00 1.386268e+00 -1.586615e+00 7.541658e-01 -1.563604e-01 -1.516742e+00 3.983036e+00 -1.482257e+00 -2.611198e+00 -1.425969e+00 -4.292139e-01 8.522643e-02 
2.082237e+00 -3.365518e+00 2.642592e-01 -3.294383e+00 1.203437e+00 1.234116e+00 1.869860e+00 8.007478e+00 2.442122e-02 -6.950394e+00 9.671206e-01 4.062777e-01 5.712259e-02 -2.698630e+00 -4.385812e-01 2.018999e+00 -2.349812e+00 1.285043e+00 -4.120001e-01 -4.190810e-01 2.240736e+00 -2.277236e+00 -1.255805e+00 -1.036194e+00 1.220370e+00 1.503763e-01 
-3.198973e+00 -1.762160e+00 5.112636e+00 -4.912870e+00 4.317148e+00 1.879653e+00 -1.568458e+00 1.128030e+01 -5.201770e+00 -4.369954e+00 -3.461170e+00 -1.965925e+00 3.094319e-01 -3.729766e+00 7.246911e-01 1.192490e+00 -1.803688e+00 5.736075e-01 1.965228e-01 -5.615067e-02 -1.143104e+00 -5.627146e-02 4.870926e-01 -8.292928e-01 1.087102e+00 1.689236e-01 
-9.390871e+00 1.341035e+00 4.744372e+00 -1.154069e+01 4.381268e+00 -1.611244e+00 1.492459e+00 7.040416e+00 -2.840427e+00 3.707143e+00 -9.477527e-01 3.081288e+00 5.289664e-01 -4.372490e+00 1.734992e+00 1.757801e-01 -3.391936e-01 1.247669e+00 6.487686e-01 -1.434924e+00 -1.582952e+00 1.423183e+00 1.932345e+00 -1.199216e-01 6.322517e-01 1.557348e-01 
-1.201561e+01 1.608983e+00 2.750220e+00 -9.792029e+00 3.116864e+00 1.863256e+00 -7.112424e-01 -2.013419e-01 1.718015e+00 -3.827643e-01 -2.897294e+00 -3.170617e-01 6.123688e-01 -3.267508e+00 1.333051e+00 -1.809841e+00 7.602376e-01 5.363063e-01 2.381929e+00 -2.972702e-01 2.926001e-01 2.052249e+00 7.896989e-01 2.871152e-01 -4.067369e-01 1.128205e-01 
-1.537189e+01 3.623869e+00 2.324368e+00 -2.550771e+00 8.041924e+00 4.486157e+00 -5.733368e+00 5.833543e+00 3.680442e+00 7.177355e-01 8.557463e-02 2.743104e+00 6.843281e-01 -1.181691e+00 1.010741e+00 -1.731090e+00 1.914379e+00 -5.300079e-02 1.631452e+00 -1.219606e+00 2.335837e-01 8.646832e-01 2.867885e-01 1.046667e-01 -1.550263e+00 6.535220e-02 
-1.654600e+01 3.761679e+00 -2.726567e+00 -5.606639e+00 5.168351e+00 1.074060e+01 5.581043e-01 1.334674e+01 1.799042e+00 1.073244e+00 -2.542258e+00 -3.830519e+00 7.958536e-01 -7.307053e-02 7.146121e-01 -6.970876e-01 7.809699e-02 -2.121120e+00 -1.305509e+00 -1.090216e+00 -1.126999e+00 -2.341360e+00 2.081045e-01 5.882777e-01 -1.232191e+00 4.056630e-02 
-1.303413e+01 5.318390e+00 -1.172684e+00 -4.061486e+00 3.090521e+00 2.107343e+00 -5.240242e+00 1.434293e+00 1.442475e+00 4.413082e+00 -6.019373e-01 -2.913297e+00 7.639850e-01 2.848736e-01 3.224131e-01 2.029415e-01 -1.305959e+00 -2.333539e+00 -1.889827e+00 -5.239058e-02 -2.845495e+00 -4.105697e+00 -1.059710e+00 7.355435e-01 -8.373226e-01 2.555927e-02 
-1.354984e+01 4.334784e+00 1.013307e+00 -8.646187e+00 -5.013036e+00 -3.474880e+00 -6.408887e+00 -3.636715e+00 -8.869802e+00 -1.189915e+00 3.878503e-01 -3.649818e+00 7.753718e-01 -1.135731e-01 7.065766e-02 1.645606e+00 -1.058848e+00 -3.395568e-01 -1.166914e+00 1.438925e+00 -2.905478e+00 -2.429689e+00 -1.718408e+00 1.022991e+00 9.415464e-01 6.375074e-03 
-1.544560e+01 4.949383e+00 1.469138e+00 -7.560792e+00 1.464922e+00 2.144760e+00 -2.511825e+00 9.779811e-02 -1.151362e+01 -3.449235e+00 2.298238e+00 -1.533859e+00 8.223653e-01 -8.798817e-01 -4.982435e-01 1.369537e+00 -7.754688e-01 8.577083e-01 1.192779e+00 3.609604e+00 1.080464e-01 -1.443495e+00 -1.453485e+00 6.309007e-01 2.710411e-01 1.857443e-02 
-1.590813e+01 4.299471e+00 4.180552e+00 -9.151224e+00 4.283366e+00 4.887321e+00 6.388523e+00 -5.124049e-01 -3.871354e+00 -3.587635e+00 1.122610e+00 1.874950e-01 7.985389e-01 -1.493683e-01 -4.655845e-01 6.748298e-01 8.702037e-01 1.607874e+00 8.457659e-01 2.882129e+00 1.263539e+00 1.043808e+00 2.696401e-01 -5.804912e-01 -5.417479e-01 1.384731e-02 
-1.625440e+01 2.844829e+00 4.091377e+00 -7.686312e+00 2.730861e+00 3.890136e+00 6.409071e+00 4.123700e-01 -8.274225e+00 -1.655484e+00 2.185187e+00 -3.476748e+00 8.452737e-01 8.040199e-02 -1.101919e+00 8.620720e-02 2.816744e-01 -3.149523e-01 -1.614524e+00 5.625071e-01 6.479233e-01 6.302350e-01 2.002947e-01 -7.127343e-01 -7.680194e-01 6.186348e-03 
-1.389229e+01 3.059138e+00 3.076337e+00 -4.232409e+00 2.393364e+00 -1.187379e-01 3.541310e+00 2.523692e+00 -5.270461e+00 -7.385900e-01 -2.458080e+00 -5.387113e+00 8.331542e-01 1.080968e+00 -4.913720e-01 -6.796631e-01 -5.287998e-01 -1.386485e+00 -2.792368e+00 -1.680393e+00 4.097290e-01 -9.026549e-01 2.733559e-01 -4.425208e-01 -7.743655e-01 8.634907e-03 
-1.605152e+01 5.995214e-02 2.452282e+00 -8.611828e+00 8.351624e-01 -3.424829e+00 1.724317e+00 1.819366e+00 -7.662891e+00 -3.872284e+00 5.249114e-01 -2.586652e+00 8.359894e-01 2.851797e+00 7.532751e-01 -3.338996e-01 -6.737416e-01 -9.578441e-01 -1.891694e+00 -1.677901e+00 -1.335105e-01 -3.291855e-01 2.084907e-01 -4.910923e-01 2.552363e-01 -8.388269e-03 
-1.060473e+01 3.235049e+00 1.601784e+00 -1.133247e+01 -1.701211e+00 -5.417036e+00 3.289344e-01 8.327420e-01 -8.690296e+00 -1.112456e+00 -2.598562e-01 -4.129380e+00 8.463556e-01 6.253938e+00 9.729141e-01 -4.734100e-01 1.284809e+00 1.977526e-01 -2.180184e+00 -3.274995e+00 -1.806576e+00 -6.841694e-01 5.209152e-01 -5.972449e-02 -5.185477e-01 -3.896459e-02 
-3.639191e+00 6.523249e+00 3.159156e+00 -7.504992e+00 -1.107192e-02 -2.919184e+00 -3.742461e-01 5.902922e-01 -8.210236e+00 -4.260979e-01 -1.369387e+00 -2.829432e+00 7.967317e-01 9.249804e+00 -1.336419e+00 -5.772094e-01 4.680016e+00 -9.021470e-01 -2.881633e+00 -3.092372e+00 -3.490498e+00 4.976131e-01 1.395153e+00 -6.257404e-01 -7.309986e-01 -2.785435e-02 
1.117124e+01 4.692060e+00 3.558499e-01 1.638219e+00 3.805244e+00 -1.127248e+01 -1.178438e+01 -5.894653e+00 -8.417635e+00 1.428926e-01 -1.809553e+00 -7.858461e+00 6.579601e-01 8.621478e+00 -4.889729e+00 -5.798830e-01 6.057353e+00 -3.023284e+00 -3.236517e+00 -1.739824e+00 -4.410813e+00 2.047530e+00 1.268970e+00 -5.641667e-01 7.740110e-01 1.531321e-02 
1.930952e+01 -7.350646e+00 1.892018e-01 8.302907e+00 -6.428800e+00 -1.490527e+01 -7.680887e+00 -1.226943e+01 -5.311156e+00 2.475808e+00 -1.828942e+00 -4.377105e+00 7.909153e-01 5.868181e+00 -6.302023e+00 -8.914865e-01 4.729314e+00 -4.834404e+00 -2.893758e+00 5.684157e-01 -3.201605e+00 3.226023e+00 6.497763e-01 8.638382e-04 4.909935e-01 5.837142e-02 
2.102831e+01 -1.427664e+01 1.873458e-01 1.105035e+01 -1.360877e+01 -1.560658e+01 -4.716864e+00 -1.479146e+01 9.781432e-02 3.781441e+00 -2.850912e+00 5.145111e-01 9.258298e-01 2.084879e+00 -5.233008e+00 -7.426396e-01 2.362642e+00 -5.271405e+00 -7.035607e-01 3.314654e+00 3.116886e-01 3.842412e+00 -1.640644e-01 1.268579e-01 3.608251e-01 8.281479e-02 
2.077318e+01 -1.550251e+01 -1.214025e+00 1.143551e+01 -1.547609e+01 -1.522093e+01 -1.065927e+00 -1.096933e+01 3.662154e+00 1.003509e+00 -8.443882e-01 -4.560951e+00 9.546539e-01 3.977029e-01 -2.618638e+00 -3.800318e-01 4.440574e-01 -2.916498e+00 3.902555e-01 1.815637e+00 3.304954e+00 2.756572e+00 -1.068986e+00 -5.645307e-02 -6.460005e-01 4.825044e-02 
2.086380e+01 -1.739705e+01 -2.655735e+00 1.188512e+01 -1.802814e+01 -1.463246e+01 1.481407e+00 -4.986260e+00 6.307769e+00 5.872011e-02 -1.667541e+00 -5.962413e+00 9.901648e-01 2.805900e-01 -1.218593e+00 -2.400475e-01 1.900407e-01 -1.292833e+00 4.416607e-01 -1.257978e-01 4.463628e+00 7.480155e-01 -1.263738e+00 2.388853e-01 -1.162874e+00 1.870928e-02 
2.138029e+01 -1.888363e+01 -2.894169e-01 1.010581e+01 -1.880160e+01 -1.344106e+01 -1.701836e+00 -6.472595e-01 5.366724e+00 -1.007763e+00 -2.702893e+00 -4.368646e+00 1.000000e+00 4.548228e-01 -5.666803e-01 1.454731e-01 4.356173e-01 -3.295498e-01 3.862113e-01 -2.341748e+00 3.938416e+00 -5.530739e-01 -8.212123e-01 -4.534818e-01 1.240955e+00 -1.549125e-04 
2.212770e+01 -1.867905e+01 -1.475196e+00 1.266540e+01 -1.841017e+01 -1.428821e+01 -5.027898e+00 2.365645e+00 2.985607e+00 -1.531613e+00 -7.272332e-01 -5.396011e+00 9.967031e-01 1.588161e-01 7.416347e-01 2.032704e-01 1.027822e+00 1.047525e+00 -4.626875e-02 -3.475468e+00 2.383932e+00 -8.389586e-01 -6.169503e-01 -1.062857e+00 3.431670e+00 -2.772402e-02 
2.241534e+01 -1.769491e+01 -1.076929e+00 1.322346e+01 -1.693282e+01 -1.346199e+01 -9.520013e+00 5.046799e+00 2.557866e+00 -2.307386e+00 -3.581951e+00 1.360622e+00 9.506102e-01 -9.976672e-01 1.662697e+00 4.256214e-01 3.524618e-02 3.785039e+00 4.953106e-01 -2.634486e+00 -1.306067e-01 -9.523714e-01 -1.843610e+00 -6.624664e-01 4.126153e+00 -7.523239e-02 
2.114035e+01 -1.428323e+01 -1.245627e+00 1.546541e+01 -1.372490e+01 -1.485333e+01 -1.198685e+01 4.086370e+00 3.517406e+00 -2.376220e+00 -6.542297e+00 8.331304e+00 8.762396e-01 -2.324971e+00 2.684316e+00 2.055161e-01 -1.211019e+00 5.664016e+00 2.450128e+00 -1.307275e+00 -1.933495e+00 -8.282781e-03 -1.818493e+00 4.978260e-01 3.566667e+00 -1.744328e-01 
1.688562e+01 -1.276806e+01 1.723906e+00 8.882035e+00 -2.219046e+00 -1.068194e+01 -1.139480e+01 -2.160655e+00 3.389680e-01 -9.803509e+00 -3.107693e+00 9.398465e+00 6.840698e-01 -3.542027e+00 5.280475e+00 2.283030e-01 -2.245725e+00 4.910322e+00 2.549764e+00 7.629021e-01 -3.070782e+00 -9.843075e-01 -5.000846e-01 1.295526e+00 1.626076e+00 -2.560389e-01 
1.326771e+01 -7.720895e+00 -1.848032e+00 8.781019e+00 2.553020e+00 -3.427596e+00 -1.062688e+01 -3.698102e+00 4.053642e+00 -6.876016e+00 1.524768e+00 8.418402e+00 2.578095e-01 -3.518787e+00 6.197088e+00 3.894783e-01 -1.725719e+00 3.932356e+00 2.969893e+00 2.397731e+00 -2.209632e+00 -1.516207e+00 8.509234e-01 1.853524e+00 -1.003122e+00 -2.530843e-01 
8.641529e+00 5.426293e+00 3.657888e-01 5.337030e+00 -5.201705e-01 -6.426041e+00 -6.385484e+00 -6.414875e+00 -2.631789e+00 -2.557911e+00 -1.137853e+00 9.447452e+00 -2.036941e-02 -2.651301e+00 5.783371e+00 5.871953e-01 -5.304588e-01 7.774844e-01 2.691857e+00 3.102413e+00 -3.357844e-01 -1.131396e+00 3.159022e+00 1.124611e+00 -2.124166e+00 -1.688133e-01 
7.668466e+00 7.605034e+00 1.380823e+00 8.609314e+00 5.087442e+00 -2.131821e+00 -2.502846e+00 -4.834681e+00 -2.578249e+00 -1.744401e+00 1.740403e+00 3.291198e+00 -3.696215e-02 -1.595765e+00 3.243336e+00 1.092840e+00 -4.313827e-01 1.056200e+00 2.879313e+00 4.537688e+00 1.204293e+00 -8.486261e-01 1.826826e+00 4.247093e-02 -2.698033e+00 -5.933483e-02 
6.428740e+00 8.485831e+00 3.045455e+00 6.315594e+00 4.011649e-01 2.129454e+00 5.525303e-02 -3.271288e+00 -2.002066e+00 3.425792e+00 2.407543e+00 1.341239e+00 -1.261067e-02 -5.165278e-01 1.994390e-01 2.266318e-01 -3.205289e-01 1.105239e+00 3.434050e+00 3.368603e+00 1.651522e+00 1.174574e+00 -7.519045e-02 -8.312319e-01 -2.726464e+00 -5.896592e-03 
6.395279e+00 6.966015e+00 2.276334e+00 6.134824e+00 7.373353e+00 6.691224e+00 8.841192e+00 7.515719e-01 -5.043508e-01 -7.337351e-01 -3.557515e-02 -1.018656e+00 -4.274404e-02 1.032200e+00 -3.353280e+00 -3.238978e+00 -2.498974e+00 6.932090e-01 1.029187e+00 -3.011550e-01 -3.277244e-01 3.874092e-01 -2.532196e-03 -1.638333e+00 -1.310290e+00 4.899632e-02 
6.695483e+00 6.742998e+00 1.051193e+00 4.971631e+00 3.863070e+00 6.332686e+00 4.785513e+00 -9.503932e-01 2.204129e+00 -3.439197e+00 -4.406024e+00 -2.029942e+00 -4.696143e-02 1.523260e+00 -4.644141e+00 -5.541690e+00 -2.611006e+00 1.110288e+00 -4.524354e-01 -3.647844e+00 -1.489975e+00 -5.239625e-01 7.290329e-01 -1.030134e+00 -3.273727e-01 1.051087e-01 
1.269609e+01 -8.289948e+00 -1.381693e+01 -3.213573e+00 6.822535e+00 9.124973e-01 -6.373751e+00 -7.633750e+00 -2.744301e+00 1.675432e+00 -3.044478e+00 -1.574660e+00 2.251948e-01 3.136362e-01 -2.858436e+00 -3.453643e+00 -3.648193e+00 3.510199e-01 -5.858128e-01 -6.165793e+00 -1.803785e+00 -1.457443e+00 1.254523e+00 5.250291e-01 -4.829517e-01 1.498018e-01 
1.089463e+01 -7.106890e+00 -1.661636e+01 -2.065238e+00 6.228015e+00 2.756640e+00 -1.057650e+01 -6.528503e+00 -3.501903e+00 5.866373e+00 -1.238676e+00 -1.762199e-02 3.789634e-01 -2.968857e+00 -7.396303e-01 1.453552e-01 -3.261973e+00 8.742572e-01 5.814554e-01 -4.002547e+00 -9.271666e-01 -1.693792e+00 9.354463e-01 2.180742e+00 -3.606582e-03 1.761307e-01 
5.863887e+00 -4.012222e-01 -6.158107e+00 -8.587708e+00 7.945980e+00 5.550183e+00 -1.430677e+01 -5.478299e+00 -4.938549e+00 8.860943e-01 1.005896e+00 -4.439574e+00 4.933025e-01 -6.426416e+00 1.572853e+00 4.579252e+00 -5.996004e-01 1.967635e-01 5.037689e-02 -1.873399e+00 1.709914e+00 8.714457e-01 -2.402978e-02 7.033701e-01 -4.853992e-01 1.373455e-01 
-4.732698e+00 -8.995168e-01 -2.051446e+00 -8.651166e+00 7.672633e+00 6.921121e+00 -1.126072e+01 -6.663952e+00 -5.167705e+00 1.632704e+00 4.472497e+00 -6.155177e-01 6.996381e-01 -6.522316e+00 8.853105e-01 3.821537e+00 -9.846204e-01 -6.658320e-01 -9.403056e-01 -2.456722e-01 1.799599e+00 1.567073e+00 -5.946419e-01 -4.814218e-01 -1.862041e-01 1.131219e-01 
-1.162232e+01 -3.529372e+00 1.796869e+00 -2.918611e+00 7.084044e+00 -9.178586e-01 -1.539864e+01 9.835417e-01 2.445828e+00 3.672118e+00 -2.383213e+00 -3.702708e+00 7.515848e-01 -5.031146e+00 -1.167771e-01 8.533418e-01 4.863148e-01 -1.428040e+00 -8.087120e-01 1.500628e+00 2.511289e+00 2.587858e+00 -1.867200e-01 -1.328637e+00 -3.770137e-03 7.686201e-02 
-1.297385e+01 -1.116263e+00 -1.486162e+00 -9.822888e+00 3.329823e+00 1.289133e+00 -1.125892e+01 -7.614262e-01 6.412704e-01 1.500151e+00 -1.951230e+00 -1.317076e+00 8.154316e-01 -2.469589e+00 1.736493e-01 -1.590044e-01 5.602366e-01 -2.049267e+00 4.822101e-01 2.171455e+00 3.100379e+00 2.457848e+00 -9.945526e-01 -1.510526e+00 1.993887e-01 3.346164e-02 
-1.517127e+01 -8.767345e-01 -2.174040e+00 -5.570272e+00 2.977187e+00 4.322618e+00 -6.804525e+00 4.126882e+00 5.096255e+00 1.877046e-02 -2.425423e+00 -4.107646e+00 8.197159e-01 -8.060509e-01 7.234777e-01 -5.470505e-01 1.407161e-02 -1.775668e+00 2.104897e+00 2.169198e+00 2.299819e+00 7.193945e-01 -1.433968e+00 1.085209e+00 1.118496e+00 1.968344e-02 
-1.530617e+01 -1.357589e+00 -8.610139e-01 -4.524152e+00 -5.202720e-01 6.711933e+00 -4.700497e+00 7.266270e+00 5.796322e+00 -1.513386e+00 -3.059028e+00 5.838952e-01 8.328808e-01 4.347038e-01 8.344517e-01 8.491832e-01 1.011951e+00 -4.036222e-01 1.764459e+00 1.260115e+00 5.864325e-01 -6.800874e-01 -2.024665e+00 5.852548e-01 1.648906e-01 -1.756030e-03 
-1.448641e+01 2.086797e-01 -1.250958e+00 -5.497621e+00 1.307501e-01 6.895225e+00 -7.831861e+00 8.468790e+00 3.465274e+00 -1.990952e+00 3.596729e+00 9.392862e-01 8.412774e-01 5.936104e-01 2.344426e-01 8.059800e-01 -6.924325e-01 -1.970042e-01 7.225238e-01 5.723548e-01 -4.697734e-01 -8.107923e-01 -5.707744e-01 1.544875e+00 1.494824e+00 -1.292089e-02 
-1.114276e+01 2.513288e+00 2.298214e+00 -4.799459e+00 2.734931e+00 8.825126e+00 -4.444680e+00 -2.179146e-04 -1.943676e+00 -7.618310e+00 -2.036032e+00 -3.016089e+00 7.958707e-01 5.547692e-01 -2.424056e-01 2.423314e-01 -1.099909e+00 1.859709e-02 3.589695e-01 1.210270e+00 -8.774236e-01 -1.470853e+00 -2.662974e-01 1.268717e+00 4.107261e-02 -2.030896e-02 
-1.428492e+01 -1.639960e+00 2.762463e-01 -8.894782e+00 3.645649e-01 6.878640e+00 -4.070660e+00 5.411259e+00 4.912293e+00 2.173605e-01 4.787452e+00 5.166465e+00 7.736165e-01 2.143108e-01 -8.960499e-01 -1.616647e-01 -8.155378e-01 -8.405088e-01 -3.894516e-01 5.917093e-01 -9.889275e-01 -1.792511e-01 -8.336350e-01 -6.052562e-01 -3.160408e-01 -2.457994e-02 
-1.263307e+01 -1.645297e+00 -4.129590e-01 -8.325118e+00 -5.441940e-01 8.515073e+00 -5.297468e-01 4.407917e+00 -2.281451e+00 -3.949029e+00 2.689197e+00 -1.324331e+00 7.651665e-01 -1.352196e-01 -8.857512e-01 -7.320198e-01 -1.296442e+00 -1.303608e+00 -7.546831e-01 3.562618e-01 -8.338904e-02 1.684998e-01 -3.724372e-01 -7.732916e-02 -2.849370e-01 -1.545309e-02 
-1.266970e+01 -2.192277e+00 -7.036951e-01 -7.812480e+00 -2.432231e+00 5.102993e+00 -6.830782e+00 1.320085e+00 2.737906e+00 -7.993768e+00 -1.792166e+00 -1.486797e+00 7.337298e-01 4.471489e-01 3.120862e-01 2.986360e-01 -7.437032e-01 -5.478604e-01 -4.340827e-01 3.386353e-01 -8.235532e-01 2.687525e-01 -1.047024e+00 -1.460884e+00 -1.162363e+00 -1.344565e-02 
-1.262646e+01 -1.639310e+00 -8.719147e-01 -1.182282e+01 -2.384709e+00 5.939534e+00 -1.283310e+00 1.628423e+00 -1.398373e-02 -5.374932e+00 8.671317e-01 -1.114143e+00 7.385485e-01 3.217003e-01 3.055754e-01 1.062687e+00 6.944517e-01 8.536139e-01 -1.776871e-01 -7.972235e-01 -5.798939e-01 6.899868e-01 4.591727e-01 -6.555785e-01 -2.190685e-02 -1.810907e-02 
-1.205248e+01 -8.252299e-02 1.998904e+00 -1.086445e+01 -1.454480e+00 5.995996e+00 -2.000702e+00 2.683239e+00 5.122322e+00 -4.304809e+00 -1.605935e+00 -7.504457e-01 7.196972e-01 9.318638e-02 1.393771e-03 1.088086e+00 8.090073e-01 -2.751924e-01 -4.746711e-01 -1.322723e-01 5.157600e-01 -5.916139e-01 1.424369e+00 8.049941e-02 6.513795e-01 -1.296600e-02 
-1.133318e+01 -1.172297e+00 3.549176e+00 -3.326876e+00 3.235000e+00 7.180136e+00 -6.930904e+00 8.268702e-01 -2.372456e-02 -3.497645e+00 -6.818120e-01 -1.802041e+00 6.816374e-01 -1.324001e-01 -3.768768e-01 5.937235e-01 8.903323e-01 -3.129399e-01 -9.388900e-01 -6.269414e-01 9.600927e-01 -6.344217e-01 1.170986e+00 1.440748e+00 1.797178e+00 -1.812078e-02 
-1.285041e+01 -2.418814e+00 2.526187e+00 -8.015416e+00 -6.618047e+00 2.109336e+00 -4.668346e+00 4.299662e+00 -2.152923e-01 -1.810564e+00 -6.151974e-01 2.114049e+00 6.973554e-01 -5.861021e-01 -9.553078e-01 -8.140254e-02 -3.450408e-02 4.027207e-01 -1.070725e-01 2.361732e-02 1.083489e+00 -6.118218e-01 6.042268e-01 1.059652e+00 3.231176e-01 -1.622749e-02 
-1.288950e+01 -2.355548e+00 1.833061e+00 -8.795675e+00 -1.367625e+00 3.188414e+00 -3.084195e+00 5.620676e+00 -5.172853e-01 -7.671235e-01 7.575501e+00 6.439499e+00 6.591156e-01 1.221687e-01 -5.718001e-01 -4.390016e-01 -1.124639e+00 1.821161e-01 7.215296e-01 -4.238209e-01 -8.579270e-01 4.346611e-01 2.917586e-01 -4.231023e-01 -1.046556e+00 -2.256405e-02 
-1.420483e+01 -4.267436e+00 2.449949e+00 -8.302567e+00 2.860437e+00 7.456494e+00 -3.805970e+00 5.703780e+00 2.309993e+00 -2.648935e+00 -4.363301e-01 -3.255628e+00 6.498207e-01 1.181559e+00 6.925540e-02 1.455453e-01 -4.983192e-01 9.274665e-01 1.159460e+00 -6.484764e-01 -2.051984e+00 -2.303268e-01 -3.692391e-01 -6.858862e-01 -1.217160e+00 -3.419908e-02 
-1.004513e+01 -3.106987e+00 1.392287e+00 -8.806498e+00 -5.936615e-01 8.114204e+00 -9.481197e+00 -4.164824e+00 8.869381e-01 -1.619666e+00 -2.886757e+00 -4.349983e+00 5.925845e-01 1.279853e+00 2.780687e-01 9.901693e-01 -7.238337e-01 -4.845147e-01 7.586046e-01 3.239817e-01 -2.064382e-01 2.774214e-01 -8.035029e-01 -3.341889e-02 -1.195451e+00 -1.394993e-02 
-8.364805e+00 -1.696818e+00 3.474301e+00 -1.050160e+01 -2.367697e+00 5.443740e+00 -4.712227e+00 -1.067508e+00 -2.069038e+00 -3.230488e+00 1.186501e+00 1.422988e+00 5.596255e-01 1.256147e+00 -1.837307e-01 1.233186e+00 -1.212253e+00 -8.930681e-01 -1.740675e-01 4.184103e-02 1.064193e+00 1.268520e-01 -1.689982e+00 9.310932e-01 5.891416e-01 -1.558484e-02 
-9.410246e+00 -2.250513e+00 6.271732e+00 -1.131533e+01 -1.176132e+00 7.987814e+00 -1.011158e+00 7.974129e+00 3.059337e+00 -4.493862e+00 6.596992e+00 -1.877065e+00 6.344635e-01 1.681919e+00 -3.473918e-01 2.296847e+00 -2.459286e-01 -9.721756e-01 -3.645768e-02 9.731815e-01 1.655053e+00 3.931246e-01 -2.540890e+00 6.312528e-02 -7.013614e-01 -2.883625e-02 
-8.241537e+00 -5.614326e+00 6.176157e+00 -1.310942e+01 -1.313669e+00 6.649352e+00 -7.831784e+00 4.955267e+00 1.858053e+00 -9.661747e+00 -5.227385e-01 -1.546379e+00 5.509570e-01 3.573920e+00 -1.372664e-01 1.394405e+00 1.691626e+00 -1.075995e+00 -7.619094e-01 -2.894411e-02 3.849984e-01 -3.355473e-01 -3.324891e+00 -1.741874e+00 -1.509223e+00 -7.770602e-02 
-1.697166e+00 -2.885192e+00 1.152560e+01 -8.732233e+00 -5.981554e+00 7.329110e+00 -3.055511e+00 1.099055e+00 8.890157e-01 -1.110849e+01 -1.716511e+00 -6.372108e+00 4.527375e-01 3.822481e+00 -1.210028e-01 -5.826848e-01 2.869243e+00 -8.268224e-01 -1.272783e+00 6.273108e-01 -2.344011e-01 -6.011130e-01 -2.154805e+00 -2.126110e+00 2.899414e-01 -1.372742e-01 
5.648254e+00 -2.065811e+00 7.819393e+00 -3.335018e+00 -5.344960e+00 1.963545e+00 -3.834771e+00 4.295021e+00 -2.661613e+00 -1.654763e+01 -3.366117e+00 -3.875604e+00 2.619584e-01 2.915988e+00 8.980631e-01 -2.301548e+00 3.076906e+00 1.328070e-01 -1.041266e+00 2.926892e+00 1.036936e+00 1.352152e+00 1.715198e+00 -9.861094e-01 -9.261169e-02 -1.522200e-01 
2.757261e+00 -4.629785e+00 2.536690e+00 -1.856311e+00 -3.294599e+00 3.966804e+00 1.268895e-01 7.132246e+00 2.313606e+00 -1.182495e+01 -2.611867e+00 7.372546e-01 9.259164e-02 1.195027e+00 6.602538e-01 -3.804906e+00 2.818967e+00 1.175522e+00 -1.735117e+00 2.083276e+00 8.466762e-01 1.905452e+00 4.319159e+00 1.692495e-02 7.084038e-01 -1.297824e-01 
4.111189e+00 -2.517147e-01 -8.371291e-01 -1.162848e+00 -1.993111e+00 3.124174e+00 5.211474e+00 7.123351e+00 7.906520e+00 -7.275256e-01 -5.005607e+00 -5.564118e+00 -3.007019e-02 -1.277988e-01 7.661160e-01 -2.647265e+00 1.912669e+00 5.086367e-01 -2.382530e+00 2.006422e+00 -1.033374e-01 1.929575e+00 4.770465e+00 4.350256e-01 -5.805410e-01 -7.635534e-02 
5.046503e+00 -4.909712e-01 -3.170676e+00 4.276518e+00 -1.779869e+00 -1.926788e+00 2.837746e+00 3.918271e+00 5.132211e+00 2.577252e+00 -8.121409e-01 -1.985831e+00 -5.016041e-02 -1.394056e-01 1.135668e+00 -9.689132e-01 1.632551e+00 8.158472e-01 -2.304930e+00 6.651903e-01 -1.920053e+00 -6.139047e-01 2.972328e+00 6.235297e-01 -4.788277e-01 -3.109398e-02 
3.864639e+00 -3.046376e-01 -2.563248e+00 3.161914e+00 -3.559141e+00 -7.002311e+00 4.841912e+00 5.385322e+00 5.576957e+00 1.035929e-01 -2.090852e+00 -5.416766e+00 -4.844224e-02 -5.054024e-01 6.366199e-01 4.312068e-01 1.322078e+00 1.747621e+00 -9.153608e-02 7.112387e-01 -3.201068e+00 -1.672839e+00 1.256204e+00 2.086241e+00 1.203734e+00 -1.009926e-02 
2.183508e+00 1.075017e+00 -1.444816e+00 4.144065e+00 1.567653e+00 -2.494604e+00 3.637622e+00 -1.599003e+00 4.088643e-01 2.621132e+00 -9.515965e-01 -1.730560e+00 -5.369222e-02 -5.731167e-01 1.034670e+00 8.472780e-01 2.666761e-01 1.839898e+00 1.416020e+00 1.979589e-04 -2.745192e+00 -1.953789e+00 6.544681e-01 1.329471e+00 1.088413e+00 -4.176474e-03 
3.015675e+00 2.148391e+00 4.559748e-01 5.513767e+00 5.071231e+00 2.950402e+00 8.367729e+00 -6.123354e+00 1.904001e+00 5.531554e+00 5.495323e+00 3.269179e-01 -7.880056e-02 -2.283566e-01 7.186471e-01 3.583629e-01 2.112166e-01 1.231876e+00 1.859587e+00 -4.959221e-01 -1.245620e+00 -1.444607e+00 7.239304e-01 3.496379e-01 1.047431e+00 -5.652785e-04 
2.605402e+00 3.455867e+00 -4.438969e-01 4.433972e+00 3.104434e+00 1.769549e-01 1.075827e+00 -4.053351e+00 -2.800256e+00 3.135612e+00 2.042126e+00 5.843916e-01 -5.586362e-02 6.240196e-02 4.712113e-01 3.993563e-01 -2.068599e-01 2.721825e-02 1.572142e-01 -3.558130e-02 1.963350e+00 -8.758707e-02 1.618512e-01 -5.870541e-01 8.292808e-02 2.105021e-03 
2.511909e+00 2.098173e+00 -1.271893e+00 4.073043e+00 1.831847e+00 9.598470e-01 3.643199e+00 3.843977e-01 -4.151678e-02 3.466005e+00 -1.839523e+00 -1.337085e+00 -5.018294e-02 1.869999e-01 4.529577e-01 2.210568e-01 -9.073870e-01 -1.443239e+00 -8.785771e-01 3.027914e-01 2.794907e+00 1.342245e+00 -1.516069e-01 -1.814191e+00 1.757665e-01 8.527959e-03 
2.747400e+00 3.456182e+00 1.415900e+00 3.830127e+00 3.323436e+00 -7.132551e-01 5.821980e+00 4.963870e+00 9.436879e-01 4.463163e+00 -2.194440e-01 -4.839181e-01 -5.747592e-02 1.367521e-01 -1.410621e-01 5.548082e-01 -1.623868e-01 -6.817961e-01 1.780335e-01 1.134815e+00 4.325561e-01 1.516798e+00 -6.702722e-01 -7.861665e-02 1.037536e+00 2.006757e-03 
3.879675e+00 4.413022e+00 6.313607e-01 1.278754e+00 -2.254466e+00 -9.973788e-01 7.508610e+00 3.342569e+00 6.743254e+00 4.109744e+00 -2.444844e+00 1.739905e+00 -3.535461e-02 -9.882355e-03 -4.701495e-02 5.442091e-01 3.547516e-01 -1.364439e-01 3.064711e-01 3.983136e-01 -9.473318e-01 2.177071e-01 -1.752367e+00 1.038835e+00 1.076481e+00 -1.488686e-03 
2.605280e+00 1.593132e+00 1.378517e+00 5.019183e+00 1.738610e+00 2.045735e+00 4.817198e+00 -3.369656e+00 1.391349e+00 -5.376179e-01 1.951703e+00 4.233575e+00 -5.324399e-02 -3.790678e-01 -3.253005e-01 -4.412975e-01 -2.385353e-01 2.155824e-02 1.246130e+00 1.806213e-01 -8.987557e-01 -3.704658e-01 -1.310653e+00 1.006186e+00 1.294592e+00 -1.259959e-03 
2.533558e+00 2.794623e+00 1.467844e+00 5.252273e+00 1.942041e+00 1.112707e+00 6.137158e+00 -1.854985e-01 8.231883e-01 -2.795441e+00 2.269079e+00 1.686571e+00 -5.974233e-02 -5.508627e-01 -4.684415e-01 -4.847145e-01 3.850331e-02 1.390682e+00 1.673048e+00 -5.444593e-02 -5.405048e-01 -1.323490e+00 -1.021685e+00 1.504622e+00 7.568449e-01 -3.135598e-03 
1.525120e+00 2.638878e+00 -1.208829e+00 6.506915e-01 1.332974e+00 4.462349e+00 7.410813e+00 2.234125e+00 2.051392e+00 1.362489e+00 2.454525e+00 6.015711e+00 -5.158186e-02 -4.064428e-01 4.224401e-02 -3.928737e-01 -4.052568e-01 2.899586e-01 -8.880482e-02 3.625914e-01 -1.338981e-01 -2.764046e-01 1.120223e+00 5.202250e-01 6.576757e-01 1.948464e-03 
1.665442e+00 1.547941e+00 -4.985387e-01 3.655517e+00 4.901762e+00 6.159554e+00 5.939572e+00 -2.161846e+00 -2.042196e-01 -1.948734e+00 4.826853e+00 4.633061e+00 -5.186367e-02 -2.766813e-01 -8.460782e-02 -6.557314e-01 -1.051454e+00 -3.306441e-01 -6.097632e-01 -8.959050e-01 -3.653368e-01 -1.085427e-01 1.166632e+00 8.367958e-02 -1.362894e-01 1.281929e-03 
1.007124e+00 2.427693e+00 3.973397e-01 3.791277e+00 1.708543e+00 -9.217125e-01 6.728948e+00 -3.050973e+00 5.230298e-01 4.640141e+00 3.273942e+00 6.048708e+00 -4.744101e-02 -1.851805e-01 -4.887412e-01 -4.400491e-01 -5.591606e-01 -1.406305e+00 -2.257844e+00 -1.705271e+00 -2.562052e-01 -1.796372e-01 3.477664e-01 -2.309913e-01 -1.427627e+00 -1.176655e-03 
1.409149e+00 2.477177e+00 -2.613898e+00 -1.575287e+00 1.010362e-01 7.559224e-01 1.998566e+00 6.303666e-01 1.044656e+00 1.398892e+00 2.277769e+00 9.886250e-01 -5.540311e-02 -5.247707e-02 -3.902407e-01 -1.046179e+00 -6.290257e-02 -1.255995e+00 -9.706073e-01 -1.030476e+00 4.251276e-01 -2.370956e-01 1.212440e+00 -5.231380e-04 -8.238361e-01 8.905291e-04 
7.273636e-01 -2.694452e-01 -2.351395e+00 4.702902e-01 -3.298186e+00 -4.125054e+00 8.549581e-01 -4.430068e-01 5.287678e-01 1.427508e+00 2.574111e+00 6.997955e-01 -5.569541e-02 2.117994e-01 -6.381890e-01 -8.170255e-01 4.210659e-01 -7.745810e-01 8.346312e-02 -9.687634e-01 -6.930842e-02 -9.854670e-01 3.377662e-01 2.140295e-01 -7.266524e-01 -2.777743e-03 
1.542936e+00 9.453065e-01 -4.355068e+00 5.001497e+00 1.125153e+00 2.908189e+00 3.724189e+00 -1.340191e+00 -1.392566e+00 5.719783e+00 5.174152e+00 3.188337e+00 -4.328382e-02 2.996122e-01 -2.935371e-01 -3.107579e-01 1.493237e-01 -1.178654e-01 2.663980e-01 2.331851e-01 -3.873695e-01 -7.846807e-01 -1.040494e-01 -7.246508e-02 7.736951e-01 -4.344702e-04 
1.999228e+00 2.683282e-03 -2.817203e+00 2.608214e+00 -2.676420e+00 -1.580530e+00 1.022320e+00 -2.412236e+00 -3.185694e+00 4.168527e+00 2.895897e+00 1.315590e+00 -6.738937e-02 3.265856e-01 2.733893e-01 -1.196452e-01 -8.094290e-01 4.305041e-01 -1.482602e-01 -6.974617e-01 -4.909341e-01 -6.387421e-01 -1.227350e+00 -1.484895e+00 -3.303986e-01 -3.286254e-03 
2.271278e+00 8.734270e-01 -3.934783e+00 -1.897630e+00 -7.991741e-01 8.156501e-01 3.080811e+00 -3.218660e-01 -1.021517e+00 -4.918648e-01 1.754550e+00 4.549203e+00 -5.172849e-02 1.928854e-01 3.516071e-01 5.925285e-01 -5.246372e-01 1.238507e+00 -1.626815e+00 -5.886194e-01 -7.869339e-01 4.636060e-02 -8.722542e-01 -1.246210e+00 -6.770844e-01 -2.279067e-03 
1.996120e+00 1.133441e+00 -3.159763e+00 -1.272913e-01 -1.835024e-01 -3.820086e+00 -2.310662e+00 -3.406839e+00 -2.850467e+00 -1.603421e+00 -3.140562e+00 -1.632630e+00 -6.790435e-02 9.014606e-02 3.703443e-01 4.404435e-01 5.705251e-01 1.086148e+00 -5.398909e-01 9.559015e-01 8.758427e-01 1.679895e+00 2.577180e-01 -1.191041e+00 -2.936335e-01 1.580620e-03 
2.508917e+00 2.137963e+00 -1.221145e+00 3.746064e+00 6.071229e+00 -4.106110e+00 2.447583e+00 -4.777559e+00 -1.328377e+00 4.244485e+00 1.961329e+00 1.277025e+00 -5.442166e-02 3.688406e-01 4.404071e-01 1.078568e+00 2.133910e+00 8.951130e-01 3.898925e-01 1.351994e+00 1.906364e-01 8.106447e-01 1.596888e-01 -7.535578e-01 -9.269400e-01 -5.619478e-03 
2.331139e+00 1.222137e+00 -1.971804e+00 2.638993e+00 -6.808834e-01 -1.819105e+00 6.118442e+00 4.194823e+00 5.367212e+00 3.088942e+00 -3.162696e+00 1.483512e+00 -5.813968e-02 1.561004e-01 2.006257e-01 1.165336e+00 1.120904e+00 -6.762962e-01 4.780676e-01 1.365719e+00 9.779293e-01 5.509507e-01 2.507202e-01 -2.053602e-01 -2.357158e-01 -2.518892e-03 
3.947972e+00 3.031115e+00 8.640798e-01 7.388775e+00 3.925082e+00 1.764622e+00 5.626229e+00 -3.169515e+00 -1.077133e+00 -2.039602e+00 -2.002172e+00 -1.643568e+00 -8.470821e-02 -3.095520e-01 -2.766345e-02 4.801039e-01 4.005762e-01 -1.038838e+00 4.491605e-01 -1.014375e-01 5.142235e-01 -8.561437e-01 -1.296145e+00 -1.315305e+00 -1.287066e+00 -7.092953e-06 
2.057095e+00 1.689994e+00 1.624306e+00 3.655875e+00 -2.491910e+00 -4.365113e+00 2.928613e+00 6.787851e-01 -2.213355e-01 2.792224e+00 -2.185613e+00 -1.350913e+00 -6.535554e-02 -5.315713e-01 -1.782365e-02 1.223487e-01 3.054749e-01 2.784335e-01 1.116791e-02 -7.257183e-01 -6.565398e-01 -1.810176e+00 -1.040192e+00 -6.983643e-01 -1.254673e+00 4.843998e-03 
1.098179e+00 1.765717e+00 -6.186806e-01 5.240503e+00 1.782550e+00 -5.873029e-01 3.535310e+00 -4.484224e-01 -2.814821e+00 -2.087880e+00 -5.103736e+00 -3.741092e+00 -5.084920e-02 -6.658503e-01 -2.455071e-01 -5.208507e-01 -2.711916e-01 -1.060390e-03 -9.260392e-02 -3.575141e-01 4.314979e-01 -6.068861e-01 -4.976660e-01 -9.121251e-01 -6.585229e-01 8.222437e-03 
