-4.235946e+00 2.736628e+00 -1.895044e+00 -4.141340e-01 4.212060e+00 5.365548e+00 1.986264e+00 -6.804127e+00 2.334069e+00 5.456938e+00 -3.802717e-02 -2.350120e+00 -1.421509e-01 3.330724e-01 3.040583e-01 1.140963e-01 1.125601e-01 -3.170503e-01 -5.529707e-01 1.155542e-01 2.595913e+00 -1.023134e-01 -1.726976e+00 7.129717e-01 1.952614e+00 -2.742541e-03 
-2.707071e+00 4.190014e+00 -2.833999e+00 -1.924467e+00 1.293414e+00 2.322365e+00 -4.024351e-01 -3.506850e+00 4.323590e+00 1.061138e+00 -4.753097e-01 -6.501663e-01 -1.512927e-01 3.230919e-01 2.613442e-01 5.488020e-01 1.109732e-01 -3.069889e-01 -1.191989e+00 3.896242e-01 3.294665e+00 5.076295e-01 -1.864907e+00 7.725419e-01 2.461571e+00 -2.431929e-03 
-3.335021e+00 3.530227e+00 -8.550848e-01 9.038327e-01 4.086132e+00 4.122286e+00 3.758385e+00 4.526801e+00 8.277406e-01 -9.800410e-01 3.745473e+00 6.562972e+00 -1.512927e-01 1.527289e-01 6.655777e-02 5.008817e-01 4.918583e-01 5.470051e-01 1.717244e-01 1.102422e+00 2.812076e+00 3.484242e-01 -1.538518e+00 1.152626e+00 2.150957e+00 2.473855e-03 
-3.070949e+00 3.646550e+00 3.289871e-01 -5.182513e-01 2.740079e+00 2.723432e-02 3.048325e+00 4.003736e+00 5.625380e+00 -6.491066e-01 1.932932e+00 5.501190e+00 -1.497396e-01 -1.588953e-01 -1.462379e-01 9.584904e-03 2.897500e-01 1.177233e+00 9.958569e-01 5.726679e-01 2.971492e-01 -3.618140e-01 -2.616101e-01 3.843354e-01 1.009659e+00 5.981612e-03 
-3.290362e+00 3.341149e+00 -9.721283e-01 1.342050e+00 6.223752e+00 7.371736e+00 5.772993e+00 3.500961e+00 3.425295e+00 -1.380529e+00 4.520982e+00 5.328986e+00 -1.305581e-01 9.009628e-02 -2.034659e-02 -1.822022e-01 1.898589e-01 -1.419630e-01 -1.750088e-02 -9.136732e-01 -1.579248e+00 9.982248e-02 3.984941e-02 -4.782417e-01 -7.622100e-01 2.759170e-03 
-3.523877e+00 3.553364e+00 -2.727552e+00 -6.948258e-01 6.110769e+00 5.676925e+00 1.453601e+00 -1.508184e+00 1.215743e+00 -4.666829e-02 1.058612e+00 5.015123e+00 -1.317519e-01 -3.210173e-02 -3.862167e-01 -2.202924e-01 -5.618608e-02 -2.146107e-01 -3.560176e-01 -1.069117e+00 -4.593372e-01 -7.287936e-01 1.086392e+00 1.947994e-01 -8.423827e-01 2.395034e-03 
-2.658075e+00 3.475087e+00 -2.378263e-01 1.941415e+00 1.690971e+00 1.209936e+00 -1.261878e-02 -6.134807e-01 3.531671e+00 -1.082013e+00 1.791424e+00 2.994956e+00 -1.464907e-01 3.107624e-02 -3.475292e-01 -1.621433e-01 -9.075292e-02 -1.005994e+00 -1.865653e+00 -1.362461e+00 8.355924e-01 -1.112632e+00 3.016385e-01 -3.871400e-02 -7.846201e-01 7.901311e-04 
-3.547601e+00 1.648497e+00 -1.139626e+00 -1.098864e+00 3.933416e+00 1.328046e+00 5.955453e-01 3.764270e+00 1.928224e+00 4.633594e+00 4.271708e+00 2.456292e+00 -1.297982e-01 2.675886e-01 -4.510464e-01 -2.975602e-01 -2.979052e-01 -1.485847e-01 -8.631077e-01 -3.853348e-01 1.553380e+00 -1.402188e-01 -1.003410e+00 -9.832422e-01 -8.681997e-01 -1.801252e-03 
-3.123119e+00 2.555936e+00 -2.576808e+00 1.090304e+00 2.282461e+00 2.179118e-01 -6.102843e-01 5.042696e+00 -2.494105e+00 -2.212467e+00 2.720864e+00 2.685301e+00 -1.275843e-01 -5.473156e-02 -4.337963e-01 -1.061635e+00 -7.438518e-01 2.217533e-01 -1.072769e-01 -9.713268e-02 -2.948906e-01 1.651476e-01 -5.914408e-01 -1.122541e+00 6.541935e-01 4.026532e-03 
-1.953412e+00 1.757707e+00 -3.045863e+00 -1.758797e+00 5.072102e+00 1.857399e+00 -1.742406e-01 3.430628e+00 3.527537e+00 -4.498490e+00 -4.322318e+00 8.289520e-01 -1.502113e-01 1.888304e-02 -1.611169e-01 -6.649312e-01 -4.625711e-01 1.087372e-01 7.103996e-01 1.908244e-01 -1.853080e+00 1.318268e+00 -9.820719e-01 -1.807008e+00 7.548290e-01 1.950026e-04 
-3.728827e+00 1.251501e+00 -4.592881e+00 -1.447878e+00 2.230395e+00 4.088755e-01 -1.133893e-01 -1.921112e+00 3.557753e+00 5.268250e-01 4.757336e-01 7.079593e+00 -1.161515e-01 9.957409e-03 -9.220599e-02 -1.663064e-01 6.014290e-01 3.285730e-01 5.155393e-01 2.268088e-01 -1.409386e+00 1.351451e+00 3.318431e-01 -1.632457e+00 -6.123354e-01 4.113913e-03 
-3.150331e+00 1.495130e+00 -3.456245e+00 -2.142629e+00 4.503135e+00 4.784562e+00 1.301220e+00 -2.019224e+00 5.493636e+00 -1.646412e+00 -3.640767e+00 4.033291e+00 -1.345396e-01 -1.431882e-01 2.311280e-02 -2.183499e-02 1.357132e+00 1.303832e-01 -4.631436e-01 7.789894e-01 -1.107943e+00 -1.088896e+00 4.203342e-01 1.509621e-01 -2.229310e+00 1.828694e-03 
-2.474873e+00 2.226195e+00 -3.203149e+00 4.289366e+00 4.209809e+00 1.332027e+00 -2.139704e-01 7.206938e-01 3.280099e+00 -1.979291e+00 -5.782198e+00 -1.978545e+00 -1.148506e-01 1.059377e-01 7.740821e-02 2.299610e-01 5.176066e-01 1.454477e-01 -2.932858e-01 5.511536e-01 -7.140029e-01 -1.436605e+00 2.164476e-01 3.518741e-01 -3.382024e+00 -5.456245e-03 
-3.296330e+00 1.385924e+00 -3.849904e+00 2.158243e+00 4.734311e+00 -9.198947e-01 3.770997e+00 -3.429988e+00 -1.778115e+00 -1.143762e+00 -4.385415e-01 -5.788529e+00 -1.417183e-01 -8.262148e-02 -2.635716e-01 2.826568e-01 -8.782635e-02 -3.549709e-01 -3.999404e-01 7.199132e-01 2.574481e-01 -7.535807e-01 4.610867e-01 1.638695e+00 3.548064e-01 -5.849886e-03 
-3.126140e+00 1.693145e+00 -3.246247e+00 -1.010281e+00 2.842046e+00 1.794675e+00 1.407490e+00 -4.785744e+00 1.060459e-02 1.357738e+00 6.339914e-01 -4.919616e+00 -1.398433e-01 -3.100618e-01 -2.410703e-01 5.474880e-01 -6.312149e-01 -3.924037e-01 -3.906151e-01 8.640211e-01 4.596862e-01 -5.715545e-01 -6.282085e-01 5.730441e-01 1.061241e+00 -6.344986e-03 
-3.237805e+00 4.437971e-01 -2.021412e+00 6.806302e-02 3.412162e+00 2.553536e+00 4.090056e+00 2.021236e+00 3.360479e+00 -1.009493e+00 1.344614e+00 7.277859e+00 -1.512927e-01 1.075912e-01 1.660330e-01 1.910474e-01 -4.334491e-01 -4.045831e-01 9.613190e-01 -7.206283e-02 1.453760e+00 -3.343667e-02 -2.963928e-01 -1.033202e+00 1.944841e+00 3.431010e-03 
-4.054444e+00 1.491907e+00 -1.379955e+00 2.178381e+00 2.908864e+00 -2.357764e+00 3.946606e+00 2.935123e-01 -2.146972e+00 -5.187468e+00 -3.808556e+00 -3.205533e+00 -1.417884e-01 2.616340e-01 8.508465e-01 9.474025e-02 4.962710e-01 4.340951e-01 2.434349e-01 2.830049e-01 4.970551e-01 -3.275961e-01 6.214484e-02 -9.117559e-01 8.768999e-01 1.580298e-03 
-2.294222e+00 2.316709e+00 -3.827813e+00 -1.603333e+00 2.677986e+00 5.962920e+00 2.141125e+00 1.299181e+00 -8.665107e-01 6.468775e-01 -3.383278e+00 3.078634e+00 -1.235907e-01 1.777031e-01 1.196511e+00 1.902870e-01 -2.227641e-01 1.436992e-01 4.856417e-01 1.943614e-01 -1.118723e+00 4.447987e-01 1.695552e+00 4.879685e-01 8.769026e-02 1.823711e-03 
-2.289762e+00 5.010922e+00 -1.869345e+00 2.306772e+00 5.379609e+00 1.307158e+00 3.796980e+00 -1.939441e+00 4.861192e-01 8.402770e-01 -1.560842e+00 1.564496e+00 -1.457928e-01 2.270650e-01 1.202731e+00 7.024595e-01 -1.194310e+00 -8.339273e-02 6.908830e-01 2.102128e-01 -4.829192e-01 1.224253e+00 4.748454e-01 1.367195e+00 2.235950e+00 -1.583540e-03 
-3.231631e+00 4.666845e+00 -8.252823e-01 -1.109953e+00 2.895286e+00 3.149283e+00 5.136676e+00 -2.455903e+00 4.267927e+00 4.454397e+00 2.660600e+00 5.331295e+00 -1.401719e-01 8.953544e-01 -1.268268e+00 3.021801e-01 -1.450507e+00 -2.158103e+00 -1.546584e+00 -4.803154e-01 -1.040513e-01 -3.186446e-01 -2.052309e+00 4.833613e-01 1.524644e-01 2.905129e-02 
-2.450415e+00 6.330493e+00 6.310774e-01 -4.039858e+00 2.383251e+00 2.503469e+00 3.499895e+00 -2.435417e-01 1.407073e+00 -4.717001e+00 5.482554e-03 6.847889e+00 -1.414155e-01 1.894768e+00 -3.069717e+00 -1.487509e-01 -1.844308e+00 -3.132573e+00 -1.135063e+00 -1.173817e+00 1.029012e+00 -8.098379e-01 -2.706122e+00 -4.634955e-02 -3.475550e-01 6.172357e-02 
2.262877e+00 -4.684415e+00 -3.567123e+00 -5.682554e+00 -6.614352e+00 -2.368157e+00 -1.119092e-01 -6.902504e-02 -2.920211e+00 -6.836028e+00 -1.749634e+00 1.199259e+00 1.947707e-02 1.153823e+00 -1.838216e+00 -1.138311e-01 5.919520e-01 -1.776103e+00 -1.619595e+00 -1.819635e+00 8.567730e-01 -1.054974e+00 -7.804106e-01 6.274165e-01 -1.725505e+00 2.760630e-02 
4.436823e+00 -5.662035e+00 -1.242179e+00 -4.628465e+00 -5.528435e+00 -1.609438e+00 5.521871e-01 2.012179e+00 3.099859e-02 -7.045119e+00 4.125270e-01 1.892739e+00 8.300054e-02 -4.777077e-01 4.071742e-01 -7.587969e-02 2.113848e+00 1.899621e-01 3.067638e-01 1.087448e-01 1.629002e+00 1.401938e+00 3.093423e+00 7.831661e-01 -6.369005e-01 -7.207602e-03 
-9.061356e-01 1.472027e+00 -4.578097e-01 2.144110e+00 -2.029386e+00 -2.892237e+00 -2.487646e+00 7.001021e-01 -3.189065e-01 1.716403e+00 5.594160e+00 -8.186570e-01 -1.143484e-01 -2.190935e+00 2.862233e+00 8.502861e-01 2.493021e+00 2.677917e+00 1.206281e+00 8.330798e-01 6.872907e-01 1.730096e+00 2.529768e+00 -2.380147e-01 1.608537e-01 -4.874653e-02 
-3.254447e+00 5.288143e+00 -1.302978e+00 2.616051e+00 1.040579e+00 4.299328e+00 5.231487e+00 7.516907e+00 7.116110e+00 6.473898e+00 2.494162e-01 4.672344e+00 -1.105407e-01 -2.199401e+00 2.364745e+00 7.520254e-01 1.426180e+00 2.120211e+00 4.719084e-01 1.178352e+00 4.369298e-01 9.339158e-01 1.805584e+00 -9.454018e-01 -1.883730e-01 -4.767781e-02 
-4.846162e+00 4.151660e+00 7.147065e-01 3.160294e+00 3.490727e+00 7.088643e-01 1.713840e+00 6.150644e-01 2.187711e+00 -9.466963e-01 -2.858152e+00 6.137252e-01 -1.274849e-01 -8.093363e-01 5.242897e-01 4.023979e-01 -7.378254e-02 1.199898e+00 3.266494e-01 5.566424e-01 -9.670496e-01 9.384664e-01 -1.562305e-01 -1.605408e+00 -2.352874e-01 -8.574724e-03 
-4.590167e+00 4.821876e+00 1.931690e+00 1.994345e+00 2.312563e+00 -1.050447e+00 4.343203e+00 4.239347e+00 3.447269e+00 3.314350e+00 -8.832586e-02 2.346830e-01 -1.488203e-01 -4.395128e-01 -7.097099e-01 3.721086e-02 -1.878620e+00 -1.084487e-01 -1.022410e+00 -1.892122e+00 -2.168320e+00 -5.935725e-01 -1.279684e-01 7.363730e-01 -1.172817e+00 -2.949130e-03 
-4.284957e+00 4.326609e+00 -6.315395e-02 2.086051e+00 3.334113e+00 1.415897e+00 7.397084e-01 -2.496366e+00 6.207846e+00 2.515024e+00 -2.264010e+00 2.237364e-01 -1.380823e-01 -9.490053e-01 -1.816586e+00 8.528103e-01 -3.129758e+00 -8.242452e-01 5.541228e-01 -2.380424e+00 2.449844e-01 3.143663e-01 5.169004e-01 4.286213e-01 9.605042e-02 5.750326e-02 
-5.732614e+00 1.652119e+00 -7.279933e-01 -6.239927e+00 5.766425e-01 -1.166239e+00 -3.742057e+00 -1.768977e+00 2.138180e+00 4.103196e+00 3.634211e+00 -9.967467e-01 -1.199877e-01 -2.198325e+00 -2.182330e+00 1.214460e+00 -3.558181e+00 -3.033758e-01 1.909980e+00 -2.477734e+00 8.253461e-01 -9.055427e-01 -1.622556e+00 -9.556394e-01 3.819053e-01 1.199582e-01 
-9.019965e+00 -3.346390e+00 6.308599e+00 -8.371363e+00 2.374618e-01 3.537374e+00 -6.145648e+00 4.844149e+00 4.414087e+00 1.243383e+00 -2.576313e+00 1.709692e+00 1.456151e-01 -2.700145e+00 -5.862904e-01 2.205559e+00 -3.283596e+00 -1.165474e+00 6.785017e-01 -1.797031e+00 1.079139e-01 -2.075333e+00 -2.570585e+00 -1.426646e+00 1.027797e+00 1.479290e-01 
-1.321429e+01 -2.253276e+00 4.818111e+00 -1.056785e+01 2.344009e+00 7.438713e+00 -4.602791e+00 4.695820e+00 -1.835649e-01 -4.162609e+00 -4.710371e+00 1.401232e+00 3.091221e-01 -1.760563e+00 7.382690e-01 8.765122e-01 -2.654166e+00 -1.471890e+00 -6.448344e-01 -1.866771e+00 -1.437993e+00 -8.718232e-01 -3.436251e+00 -1.621501e+00 3.023888e+00 1.567663e-01 
-1.404484e+01 3.347855e+00 8.191586e+00 -1.216797e+01 -3.376942e+00 5.059294e-01 -7.815078e+00 -5.189195e+00 -3.007946e+00 -6.204998e+00 -5.224948e+00 4.163735e+00 3.870078e-01 -1.666299e+00 2.387550e+00 -4.153926e-01 -2.503711e+00 -1.292751e+00 -2.004103e+00 -1.856853e+00 -3.097028e+00 -7.892549e-01 -1.979221e+00 8.778473e-01 2.211514e+00 1.163939e-01 
-1.202299e+01 1.996342e+00 2.713074e+00 -1.761246e+01 -4.975605e+00 -2.874688e+00 -1.224120e+01 -3.942272e+00 1.490080e+00 -9.353869e+00 -3.148975e+00 1.289567e+01 5.431473e-01 -2.084980e+00 2.382759e+00 3.975248e-02 -6.111929e-01 8.419352e-01 2.009417e-01 -8.382539e-02 -2.118963e+00 -4.728515e-02 6.567447e-01 3.214005e+00 8.341204e-01 8.649345e-02 
-1.794711e+01 6.466550e+00 5.284155e+00 -1.736762e+01 -2.566488e+00 -1.326439e+00 -1.161071e+01 -6.321946e+00 -3.690102e-01 -6.057092e+00 1.032225e+00 7.020042e+00 6.105721e-01 -2.276128e+00 1.963891e+00 3.636977e-01 3.170923e-01 2.610088e+00 2.896603e+00 2.098582e+00 1.582912e+00 -2.429814e-01 1.747265e+00 3.414925e+00 -1.787203e+00 6.102178e-02 
-2.168805e+01 8.101173e+00 6.470589e+00 -1.102399e+01 6.148458e+00 9.359606e+00 -3.124101e+00 -5.332618e+00 -1.739459e+00 -9.528388e-01 8.231069e+00 4.143680e+00 6.298072e-01 -1.903466e+00 1.887016e+00 1.297318e+00 1.262373e+00 2.495790e+00 3.618952e+00 3.694727e+00 2.269649e+00 -9.696180e-01 1.860840e+00 2.032325e+00 -2.660496e+00 2.179545e-02 
-2.059295e+01 1.011489e+01 8.131317e+00 -1.387674e+01 4.111465e+00 8.871799e+00 -1.880715e+00 3.420540e+00 -2.608084e+00 -1.669189e+00 6.159657e+00 -3.962837e-01 6.487867e-01 -8.242024e-01 -2.288713e-02 8.631783e-01 1.269420e+00 8.725952e-01 1.880652e+00 2.592535e+00 3.323891e+00 -2.765952e-01 1.188198e+00 1.334848e-01 -1.146518e+00 9.359384e-03 
-2.021740e+01 9.607248e+00 7.776083e+00 -1.304603e+01 4.164371e+00 1.012095e+01 1.367440e+00 2.534728e+00 -2.238473e+00 -2.243620e+00 4.448933e+00 3.301353e+00 6.330172e-01 -9.025383e-02 -2.984477e-01 -7.407407e-02 7.269370e-01 -8.271910e-01 -1.132938e+00 -2.083155e-01 1.986620e+00 -3.331400e-02 7.496977e-01 -1.269136e+00 -1.147346e-01 1.945154e-02 
-2.280345e+01 5.599076e+00 8.947299e+00 -1.000950e+01 2.788532e+00 7.696151e+00 -8.938029e-01 6.363835e+00 -1.502479e+00 5.292876e-01 3.590717e+00 1.708615e+00 6.557640e-01 5.458454e-01 -1.334018e-01 -1.077063e+00 4.194826e-01 -1.691288e+00 -1.405258e+00 -1.647892e+00 -6.646417e-01 -1.377215e+00 1.469356e+00 -9.293076e-01 -2.906569e-01 2.546417e-02 
-2.103407e+01 8.866842e+00 5.692228e+00 -9.322927e+00 2.673970e+00 4.282738e+00 -4.659135e+00 3.128833e+00 -2.458831e+00 1.696412e+00 3.169857e+00 2.517558e+00 7.235762e-01 1.223405e+00 8.732338e-02 -2.357733e+00 7.709055e-02 -1.405356e+00 -6.276961e-01 -1.654209e+00 -7.214983e-01 -1.378436e+00 3.868691e-01 -9.250957e-01 -5.777615e-01 2.691963e-02 
-1.745539e+01 9.818086e+00 3.787931e+00 -1.364088e+01 -3.599775e+00 4.764616e+00 -7.106887e+00 -1.997211e-01 -9.383982e+00 3.707577e+00 2.152656e+00 -1.457670e+00 7.308280e-01 5.510855e-01 5.183545e-01 -2.107771e+00 -2.464648e-01 -4.340755e-01 7.145784e-01 2.919674e-04 -3.231321e-01 -4.056413e-01 -1.213898e+00 -1.202645e+00 -6.141264e-01 1.784949e-02 
-1.677441e+01 7.934361e+00 -1.432899e+00 -1.084489e+01 3.317440e-01 8.448237e+00 -3.797064e+00 2.209015e+00 -5.189904e+00 -1.898420e+00 5.424846e-01 1.995688e+00 7.300833e-01 2.662737e-01 -6.195513e-01 -1.657265e+00 -7.747967e-01 -1.620135e+00 -1.062392e+00 5.584331e-01 1.029131e+00 1.235838e+00 -7.826713e-01 -1.858061e-01 -3.350948e-01 -7.881093e-03 
-2.217786e+01 8.657090e+00 1.971008e+00 -1.048084e+01 1.789267e+00 9.186293e+00 -1.323379e+00 5.208083e+00 -2.165149e+00 -3.742789e+00 -1.108822e+00 -1.101082e+00 7.417579e-01 3.990513e+00 -6.886657e-01 -6.990464e-01 3.969177e-01 -1.563973e-01 -2.930786e+00 -9.838220e-01 -6.076395e-01 1.430020e+00 -1.195597e-01 -1.934670e-01 -1.247540e+00 -5.105988e-02 
-1.734147e+01 6.349584e+00 -1.685637e+00 -1.477693e+01 -8.121228e+00 -3.240060e+00 -4.758723e+00 5.570585e+00 1.109407e-01 1.508238e+00 3.871565e+00 6.637893e-01 6.787059e-01 8.748019e+00 -2.784294e+00 1.311531e-02 2.092355e+00 -8.700714e-01 -4.960231e+00 -1.190063e+00 -3.013331e+00 -8.315590e-01 2.130355e+00 2.278545e-01 -2.131099e+00 -4.463138e-02 
2.780706e+00 7.167146e+00 4.190677e-01 -9.690269e+00 -1.552753e-01 -4.045164e+00 -1.154517e+01 -4.918704e+00 -4.884304e+00 1.406450e+00 -4.792193e-01 -7.029422e+00 5.012174e-01 1.076704e+01 -5.868712e+00 -6.175620e-01 4.405094e+00 -2.304824e+00 -4.048022e+00 -3.013143e-01 -4.228154e+00 -3.533512e-01 3.422176e+00 1.981678e-01 -1.822369e+00 1.045151e-02 
1.448641e+01 -5.242135e+00 -5.913526e-01 -7.783990e-01 -3.046342e+00 -9.737187e+00 -4.636484e+00 -7.794247e+00 -7.988122e+00 6.178736e+00 1.366956e+00 -5.695635e+00 6.271967e-01 7.714352e+00 -6.884386e+00 -4.806678e-01 5.178153e+00 -2.369471e+00 -1.575484e+00 1.769093e+00 -1.645603e+00 1.540403e+00 2.382168e+00 -4.958390e-01 -2.804018e+00 7.644589e-02 
1.574342e+01 -1.489061e+01 -1.663945e+00 4.545365e+00 -1.227229e+01 -7.805256e+00 -2.891070e+00 -9.250272e+00 1.176262e-01 1.103284e+01 1.134322e+00 -7.033216e+00 8.197700e-01 2.496228e+00 -6.485644e+00 -8.258976e-01 3.089547e+00 -3.527418e+00 -1.146487e+00 2.459238e+00 2.320920e+00 2.575797e+00 1.456071e+00 2.632430e-01 -1.862608e+00 1.153464e-01 
1.474893e+01 -1.704347e+01 -3.047470e+00 3.996016e+00 -1.391007e+01 -9.237435e+00 -2.403076e-01 -4.916458e-01 5.311989e+00 8.605883e+00 5.855993e-01 -1.335440e+01 9.016590e-01 1.247830e-01 -3.402823e+00 -1.383796e+00 1.161638e+00 -1.859247e+00 3.934277e-01 1.269629e+00 3.674987e+00 1.172703e+00 3.545968e-01 -7.901472e-01 -1.463010e+00 8.012544e-02 
1.513059e+01 -1.936041e+01 -2.482362e+00 3.370260e+00 -1.236050e+01 -1.002748e+01 -1.447065e+00 3.034593e+00 1.344625e+00 7.473231e+00 1.227674e+00 -1.251308e+01 9.407181e-01 2.111081e-01 -1.784353e+00 -1.563342e+00 1.072907e-01 4.356818e-01 9.116246e-01 8.651546e-01 4.031154e+00 -1.582117e+00 -6.297958e-01 -1.145345e+00 -7.815350e-01 3.677675e-02 
1.541674e+01 -2.002135e+01 -7.101126e+00 5.617340e+00 -1.229847e+01 -6.658938e+00 9.896564e-01 4.438256e+00 -2.738106e+00 9.731525e+00 -2.630455e+00 -1.027075e+01 9.673498e-01 4.431931e-01 -1.392746e+00 -1.369122e+00 -7.070360e-02 1.094298e+00 1.358484e+00 7.890461e-01 1.936180e+00 -1.433141e+00 -1.277984e+00 -1.513858e-01 -6.559550e-01 1.998040e-02 
1.646506e+01 -2.232343e+01 -7.453830e+00 4.271156e+00 -1.089969e+01 -4.536382e+00 8.197216e-01 8.440546e+00 -3.767913e+00 7.321042e+00 -2.984377e+00 -1.248272e+01 9.708084e-01 5.130391e-01 -1.274754e+00 -7.567214e-01 -4.209096e-01 8.263497e-01 1.103995e+00 1.314224e+00 2.750887e-01 4.288522e-01 -1.552704e+00 8.311334e-02 -1.065695e+00 1.377299e-02 
1.629766e+01 -2.252568e+01 -7.407345e+00 3.192050e+00 -9.168989e+00 -5.190563e+00 2.571529e+00 6.486280e+00 7.025505e-01 2.292056e+00 1.934695e+00 -1.664936e+01 9.865158e-01 3.037028e-01 -7.090464e-01 1.753262e-01 -4.555156e-01 4.589003e-01 -1.672521e-01 1.339926e+00 -1.205588e+00 1.224492e+00 -5.993063e-01 -1.793187e-02 -5.072297e-01 7.912409e-03 
1.725532e+01 -2.448201e+01 -6.112859e+00 2.478358e+00 -9.793494e+00 -5.241692e+00 4.333121e+00 3.386025e+00 1.768557e+00 3.429444e+00 -6.393350e-01 -1.465225e+01 1.000000e+00 4.104571e-02 4.531784e-02 4.037549e-01 7.650652e-02 -5.350963e-01 -4.161472e-02 8.196882e-01 -2.497667e+00 1.446445e+00 3.176699e-01 -3.495727e-01 1.300409e+00 4.920602e-04 
1.654012e+01 -2.248729e+01 -6.894980e+00 4.236162e+00 -1.055707e+01 -7.142544e+00 5.932590e+00 9.375756e-01 6.161170e-01 8.680793e+00 -3.892636e+00 -1.172213e+01 9.923161e-01 4.422138e-02 5.243021e-01 5.610015e-01 1.554801e-01 -9.767303e-01 1.204868e+00 -1.135451e+00 -2.239589e+00 -2.220252e-01 1.167751e+00 -3.428163e-01 3.401064e+00 -1.613358e-02 
1.654905e+01 -2.211604e+01 -5.691237e+00 4.131633e+00 -1.288113e+01 -3.768465e+00 3.237633e+00 -1.273435e+00 3.507529e+00 5.715023e+00 -1.818575e+00 -8.444287e+00 9.703686e-01 -6.011825e-01 2.041866e+00 -1.052548e-01 -1.267185e-02 5.893595e-01 1.415410e+00 -1.948940e+00 -2.827604e+00 -1.048953e+00 3.813334e-01 1.016174e+00 3.966766e+00 -5.397657e-02 
1.687190e+01 -2.108716e+01 -4.813148e+00 3.142812e+00 -1.250882e+01 9.716451e-02 -2.557979e+00 -2.381937e+00 -1.277061e+00 6.988022e+00 8.102337e-01 -2.748021e+00 9.206637e-01 -1.896096e+00 4.246665e+00 5.721029e-01 -1.013811e+00 4.066531e+00 1.661075e+00 -2.155084e+00 -2.112523e+00 -2.263405e+00 -1.408996e+00 1.427072e+00 3.976614e+00 -1.275256e-01 
1.408352e+01 -1.497275e+01 -7.680049e+00 2.961673e+00 -5.870819e+00 -1.784495e+00 -1.166294e+00 -9.092236e+00 -2.529619e+00 6.182496e+00 2.090100e+00 6.945227e-01 7.659433e-01 -3.446981e+00 6.154042e+00 1.123976e+00 -4.867485e-01 6.084658e+00 1.675793e+00 -1.039336e+00 -1.369852e+00 -2.868610e+00 -2.902011e+00 -4.074948e-01 3.507969e+00 -1.695039e-01 
8.292409e+00 -4.825617e+00 -3.040060e+00 -2.479138e-01 6.270435e+00 1.708481e-01 -2.640868e+00 -5.715640e+00 -7.682337e+00 1.402077e+00 1.288386e+00 3.591535e+00 4.569006e-01 -3.497101e+00 5.885742e+00 1.489276e+00 -4.375905e-01 5.169465e+00 9.331467e-01 5.560393e-01 6.811994e-01 -2.011028e+00 -3.493703e+00 -1.260492e+00 1.671821e+00 -1.523699e-01 
3.603897e+00 5.234004e-01 -9.579025e-01 3.393254e+00 8.152534e+00 4.573658e+00 -1.917602e+00 -6.455846e+00 -7.632886e+00 -6.002061e+00 -4.095125e+00 5.925783e+00 3.547306e-01 -1.597178e+00 3.022767e+00 1.238381e+00 -3.820915e-01 2.449603e+00 1.210283e-01 -1.083322e-01 1.554837e+00 -4.650030e-01 -1.396947e+00 -2.016428e+00 1.285647e+00 -7.236144e-02 
4.626209e+00 5.934739e-01 -7.278436e-01 7.390697e-01 6.326824e+00 1.583822e+00 5.978717e-01 -2.941353e-01 -8.780568e+00 -4.388215e+00 -2.399612e+00 2.995454e+00 3.644205e-01 1.371691e+00 -6.579739e-01 1.053243e-01 -2.253828e-01 -1.094183e+00 -1.480906e+00 -6.354538e-01 -3.788339e-01 1.635971e+00 1.097711e+00 -9.350044e-01 5.956624e-01 2.535970e-02 
7.930729e+00 -2.568463e+00 -2.644254e+00 5.577238e-01 6.349000e+00 -1.885841e+00 -3.327325e+00 -4.028803e+00 -4.305518e+00 2.092906e+00 -6.148042e+00 7.420800e+00 4.503762e-01 3.465807e+00 -3.018020e+00 -1.646515e-01 -3.550366e-01 -2.729337e+00 -1.953597e+00 -2.126802e+00 -6.718352e-01 2.318169e+00 2.550953e+00 8.600219e-01 -6.359289e-01 6.778504e-02 
1.298745e+01 -6.569555e+00 -1.670262e+00 4.293680e-02 1.701286e+00 -4.003933e+00 -5.113276e+00 -8.823331e+00 -1.166166e+00 2.843149e+00 -2.360178e+00 5.822338e+00 5.358763e-01 3.461221e+00 -3.339971e+00 4.005077e-02 6.058334e-01 -2.799809e+00 -2.073268e+00 -2.108562e+00 -1.517377e+00 2.524012e+00 2.332936e+00 1.131838e+00 -1.308892e+00 6.917909e-02 
1.675231e+01 -1.098518e+01 -1.309950e+00 1.966137e+00 -3.181382e+00 -2.400450e+00 -9.696041e+00 -5.550425e+00 1.507587e-01 3.137021e+00 1.852671e-01 1.332697e+00 6.079279e-01 2.382933e+00 -2.206876e+00 7.876242e-01 5.859287e-01 -2.429914e+00 -1.536930e+00 -1.195661e+00 -8.497305e-01 2.274980e+00 5.373041e-01 1.975970e+00 -2.079429e+00 3.539559e-02 
1.752152e+01 -1.189802e+01 -1.194741e+00 3.064030e+00 -2.907028e+00 -8.525217e+00 -6.760582e+00 -7.120209e+00 1.611354e+00 6.754409e+00 9.292161e-02 -5.049532e-01 6.315401e-01 9.215657e-01 2.049722e-01 7.881171e-01 1.473940e+00 -6.962909e-01 -6.406353e-01 -1.981349e-01 -4.732686e-01 1.275756e+00 -1.685047e+00 1.540573e+00 -2.168396e+00 -2.684426e-02 
1.757836e+01 -1.093861e+01 1.056107e+00 1.976821e+00 -3.496415e+00 -7.309850e+00 -8.481979e+00 -9.129017e+00 5.680624e+00 2.823797e+00 2.505258e+00 1.873018e-01 5.795223e-01 -1.979163e-01 2.815775e+00 1.545995e+00 3.000914e+00 -1.393563e-01 -2.124766e+00 2.237908e+00 7.061270e-01 -2.250783e+00 -3.348550e+00 5.317206e-01 -1.781171e+00 -6.738744e-02 
1.718225e+01 -5.567983e+00 1.087295e+00 7.407295e+00 -1.622652e+00 -4.752410e+00 -6.710981e+00 -9.400378e+00 2.447682e+00 -5.425474e+00 4.182694e+00 -4.446946e+00 4.158578e-01 -5.607321e-01 3.549590e+00 1.923126e+00 3.780584e+00 -8.352583e-01 -2.325305e+00 2.978874e+00 2.289863e+00 -4.551059e+00 -3.729327e+00 -4.049712e-01 -1.031873e+00 -7.320998e-02 
1.593236e+01 -7.132673e-02 5.279006e+00 1.479907e+01 -4.520352e+00 -1.491068e+01 1.468701e+00 -8.797047e-01 -1.152132e+01 -7.515786e+00 7.989837e-01 -5.602162e+00 3.788319e-01 -6.585981e-01 3.081593e+00 1.401133e+00 3.641758e+00 -6.909307e-01 -2.953120e+00 3.512509e+00 2.532235e+00 -5.318713e+00 -2.145303e+00 -1.198992e+00 -5.983990e-01 -5.548269e-02 
1.554086e+01 4.162847e-01 6.309438e+00 1.555582e+01 -6.571351e+00 -1.635132e+01 3.158450e+00 2.044518e-01 -1.254297e+01 -6.722432e+00 -1.078797e+00 -2.769588e+00 3.658354e-01 -4.432422e-01 1.681483e+00 1.017128e+00 1.410027e+00 -2.805814e-01 -1.245682e+00 1.609924e+00 1.693759e+00 -2.806324e+00 -1.502065e+00 -6.669541e-01 5.934814e-01 -3.519689e-02 
1.510607e+01 1.477225e+00 5.450702e+00 1.611135e+01 -4.476719e+00 -1.627599e+01 4.145851e+00 -1.270257e+00 -1.341762e+01 -7.254240e+00 -8.589576e-01 -3.643373e+00 3.271200e-01 -3.212310e-01 1.214514e+00 -1.457853e-01 -8.692724e-01 1.184379e+00 1.669788e+00 -1.789954e-01 5.203291e-01 5.832049e-01 -2.751336e+00 -1.085347e-01 9.956886e-01 -4.502862e-02 
1.537919e+01 2.065157e+00 6.087086e+00 1.380129e+01 -3.047375e+00 -1.029817e+01 6.437302e-05 -7.363079e-01 -1.063579e+01 -1.306657e+01 1.676895e+00 -2.458934e+00 2.657292e-01 -7.529681e-01 1.274424e+00 4.549217e-03 -1.038673e+00 1.522549e+00 2.404449e+00 -1.927522e-01 6.378213e-01 1.125369e+00 -2.879562e+00 -7.633594e-01 2.479076e-01 -5.492302e-02 
1.440704e+01 5.176808e+00 4.661255e+00 1.132998e+01 -3.604450e-01 -9.588324e+00 2.152917e+00 2.192321e+00 -9.558887e+00 -1.810040e+01 -1.121536e+00 -7.790462e-01 2.037418e-01 -1.093844e+00 1.121749e+00 1.973302e-01 -8.594502e-01 1.022444e+00 1.605822e+00 3.167586e-01 1.392634e+00 1.269936e+00 -1.389007e+00 -1.753959e+00 -7.407772e-03 -5.819733e-02 
1.212553e+01 4.938613e+00 6.726908e+00 1.275314e+01 -1.016744e+00 -7.672913e+00 3.191157e+00 1.662270e+00 -8.845491e+00 -1.569716e+01 -4.764305e+00 -2.962213e+00 1.529093e-01 -1.616042e+00 8.271347e-01 1.931439e-01 -1.011188e+00 3.590039e-01 5.676144e-01 5.564772e-01 1.394157e+00 1.851555e+00 1.108125e+00 -1.402361e+00 -1.058838e-02 -5.987388e-02 
1.126368e+01 5.649240e+00 6.117442e+00 1.233817e+01 -3.798153e-01 -9.559512e+00 4.134098e+00 4.493624e+00 -7.963087e+00 -1.288398e+01 -6.408154e+00 -3.428772e+00 9.254330e-02 -2.651849e+00 3.880378e-01 7.731810e-01 -8.155590e-01 6.230522e-01 2.368422e+00 4.027623e-01 6.478535e-01 3.636521e+00 3.644291e+00 -3.649240e-01 2.060504e-02 -7.390741e-02 
8.870664e+00 5.964614e+00 6.324712e+00 8.241260e+00 -1.242671e+00 -7.474501e+00 1.791860e+00 5.083826e+00 -2.175916e+00 -1.013415e+01 -2.691603e+00 -1.187013e+00 2.195913e-02 -3.174067e+00 2.354045e-01 -3.638369e-01 -2.103137e+00 5.612883e-01 2.473066e+00 -3.313929e-01 -3.075909e-01 3.712831e+00 4.414548e+00 5.190088e-01 4.564234e-01 -7.634249e-02 
2.775232e+00 6.603996e+00 8.728257e+00 9.508122e+00 2.867779e+00 2.154580e+00 4.866377e+00 3.720810e+00 5.288929e+00 -2.660448e+00 -3.982507e+00 -1.563621e+00 -1.003201e-01 -3.506984e+00 -5.253292e-01 -1.679230e+00 -2.758268e+00 1.915239e-01 2.173423e+00 -1.025619e+00 -4.251354e-01 2.415168e+00 3.394025e+00 2.438549e-01 6.448013e-01 -6.131450e-02 
4.994202e-01 5.638258e+00 3.602315e+00 3.652478e+00 1.659000e-01 -1.164630e+00 1.168052e+00 5.107224e-01 3.092658e+00 1.263811e+00 -3.382085e+00 -1.612672e+00 -1.323714e-01 -2.739773e+00 -5.409387e-01 -1.945955e+00 -2.018961e+00 4.138974e-01 2.055575e+00 -1.748392e-01 -1.528282e-02 6.798400e-01 2.000825e+00 3.045260e-01 -1.496324e-01 -3.460230e-02 
-2.085618e+00 3.185772e+00 -9.175103e-01 8.412204e-01 -1.264811e-01 -1.847331e+00 -6.820936e-01 4.654499e+00 1.478464e+00 -1.612837e+00 -4.843639e+00 8.063197e-03 -1.368639e-01 -1.640200e+00 -4.236668e-01 -1.948976e+00 -2.075104e+00 -3.225806e-02 1.036636e+00 4.604337e-01 -9.634379e-01 -6.277790e-01 -3.700934e-01 4.632726e-01 -5.525355e-01 -4.040420e-03 
-2.397778e+00 4.969032e+00 1.417822e+00 2.479905e+00 2.323946e+00 4.804330e+00 3.691899e+00 4.540567e+00 3.128516e+00 -6.538346e-01 -7.384065e-01 -2.721017e+00 -1.327804e-01 -1.124018e+00 -1.297866e-02 -6.971917e-01 -1.048415e+00 -4.343044e-01 9.049048e-01 2.135229e+00 -3.211055e-01 -8.263121e-01 -6.010585e-01 7.745436e-01 -3.919029e-03 6.150365e-03 
-3.977170e+00 4.820275e+00 7.562450e-02 -2.811136e-01 1.627466e+00 4.353278e+00 5.906622e+00 -3.111302e+00 2.132105e+00 -3.552092e+00 -2.987983e+00 -3.772126e+00 -1.203177e-01 -5.607547e-01 2.129241e-01 -9.357063e-02 -7.951304e-01 -2.452658e-01 6.416222e-01 6.353425e-01 -2.028274e+00 -5.790934e-01 1.025135e+00 1.320312e+00 2.606306e-01 2.273583e-03 
-4.174895e+00 4.756114e+00 -3.802106e-01 -1.028430e+00 -2.882595e+00 2.595899e-01 8.549841e+00 2.788095e+00 -1.365722e+00 -7.718543e-01 -4.371945e-01 2.578279e-01 -1.098927e-01 -4.135233e-01 -2.203749e-01 -1.938342e-01 -6.973981e-01 3.830472e-02 -4.707352e-01 -5.124739e-01 -1.094255e+00 3.867866e-02 5.580938e-01 3.685166e-01 1.034565e+00 -1.493394e-03 
-4.000833e+00 4.356853e+00 -4.863472e-01 -1.380264e+00 1.250461e+00 3.633151e+00 6.564784e-02 -4.610636e+00 8.301166e-01 3.571849e+00 1.607316e+00 -1.782064e-01 -1.369399e-01 -1.025360e-01 -4.640616e-01 2.401755e-01 -2.470137e-01 3.497077e-01 9.251530e-02 -5.433007e-01 1.144627e+00 1.152987e+00 2.107037e+00 8.829325e-01 8.535404e-01 -7.333052e-03 
-4.453563e+00 4.098869e+00 7.296369e-01 -4.575100e-01 2.703972e+00 2.810718e+00 4.050017e+00 -1.810389e-01 3.972903e+00 -1.425336e+00 -1.193474e+00 6.548501e-01 -1.319363e-01 -1.945654e-01 -5.292161e-01 -2.453887e-01 -3.762898e-01 1.355177e+00 7.713173e-01 -7.566471e-01 7.858437e-01 1.683501e+00 5.488148e-01 -5.119456e-01 -1.811173e-01 -9.131456e-03 
-4.350516e+00 2.828589e+00 7.215781e-01 -1.801642e+00 5.827203e-01 3.540291e+00 5.440031e+00 4.096399e+00 5.227726e+00 7.309832e+00 1.804819e+00 2.970650e-01 -1.459612e-01 -3.389103e-01 -7.217450e-01 -4.598685e-01 7.368916e-01 4.742717e-01 -7.486057e-01 -6.208986e-01 1.176425e+00 7.654022e-01 2.624721e-01 -4.486938e-01 7.955153e-02 -1.665759e-03 
-4.972880e+00 2.874165e+00 -2.211117e+00 -2.699190e+00 4.227160e+00 4.162606e+00 2.079414e+00 2.363796e+00 4.852979e+00 1.032281e-01 -3.095674e+00 -8.853943e-01 -1.510394e-01 -3.846588e-01 -3.271937e-01 -6.816624e-01 6.224430e-01 -9.449403e-02 -6.875659e-01 -1.312492e+00 3.699351e-01 4.816890e-02 2.711831e-01 7.469006e-01 1.300223e+00 2.195394e-03 
-5.435725e+00 1.360480e+00 -1.315313e+00 3.425034e+00 2.860225e+00 -7.858217e-01 -2.053544e+00 -9.276867e-04 4.217089e+00 4.119927e+00 3.149475e-01 9.896735e-01 -1.357172e-01 -5.990238e-02 8.888694e-02 -3.636683e-01 8.054123e-01 5.264357e-01 -4.706677e-01 -1.154539e+00 3.146053e-01 -3.191145e-01 -1.086009e+00 1.014535e-01 1.555346e+00 2.613175e-03 
-5.834252e+00 3.196955e+00 -1.660230e+00 4.136682e-02 1.092750e+00 1.535945e+00 1.234345e+00 3.717300e+00 4.719066e+00 1.525532e+00 3.285965e+00 6.809661e+00 -1.260813e-01 9.005566e-02 3.417296e-01 -2.237523e-01 4.857390e-02 -3.192042e-02 8.027943e-01 1.963052e-01 1.947361e-01 1.291440e-01 3.171144e-01 1.569156e+00 1.144244e+00 4.670358e-03 
-4.219342e+00 3.111629e+00 -1.372207e+00 8.551407e-01 4.782104e+00 2.500283e+00 8.987141e-02 4.992674e+00 3.699110e+00 1.168636e+00 -8.787333e-01 4.226265e+00 -1.453743e-01 5.253773e-02 6.663305e-01 2.202446e-01 -8.260921e-01 6.924768e-01 1.155606e+00 1.613426e-01 -9.066653e-03 5.145230e-01 3.359773e-01 7.925119e-01 2.699468e-01 -1.552737e-03 
-5.130794e+00 3.707238e+00 -3.301431e+00 -1.171374e+00 3.106619e+00 6.533525e+00 1.989233e+00 8.406763e-01 5.757689e+00 3.164446e+00 5.346948e+00 3.217528e+00 -1.228590e-01 4.716129e-01 9.826030e-01 6.336460e-01 6.211802e-01 5.180460e-01 8.307562e-01 -3.242779e-01 -1.748248e+00 1.553642e-01 1.319139e+00 -3.527842e-01 -1.584291e+00 7.223058e-03 
-5.524766e+00 4.436991e+00 6.065113e-01 -9.905648e-02 5.315674e+00 2.493421e+00 -1.624274e+00 1.392051e+00 6.270393e+00 4.980357e+00 3.247016e+00 4.135474e+00 -1.450920e-01 3.880972e-01 5.942283e-01 6.875524e-01 2.092797e-01 -2.093953e-01 7.822149e-01 4.160440e-01 -1.290604e+00 -6.129866e-02 6.011776e-01 -7.755066e-01 -6.361646e-01 5.610609e-03 
-2.823476e+00 7.447289e+00 5.186416e-01 3.624367e+00 3.416195e+00 5.693157e+00 4.700289e-01 -3.223631e+00 4.210246e+00 6.215364e+00 -5.408300e-01 -1.066401e+00 -9.010720e-02 8.055544e-01 5.050356e-01 8.689114e-01 8.980497e-01 -1.895747e-01 8.352658e-01 5.052065e-01 -9.582403e-01 -1.146184e+00 -3.817163e-01 -1.616518e+00 -2.319006e-01 5.091846e-03 
-3.432515e+00 4.212745e+00 1.555188e-01 -4.963307e-01 3.580340e+00 6.831542e+00 2.929693e+00 5.718052e-01 4.166338e+00 2.649065e+00 -1.812377e+00 3.187407e+00 -1.336972e-01 4.606652e-01 -1.112507e-01 2.255138e-01 4.140533e-01 -5.743188e-01 1.754780e-01 6.394585e-01 -5.104697e-03 -1.211735e+00 -5.921599e-01 2.546961e-01 -6.391577e-01 -2.374363e-03 
-2.149147e+00 6.344540e+00 1.268622e+00 3.517512e+00 3.026413e+00 8.540793e+00 2.238281e+00 -3.540402e+00 1.078797e+00 2.421510e+00 -2.059473e-01 2.532058e+00 -1.030972e-01 -2.737999e-02 -3.193239e-01 -2.275119e-01 -4.868190e-02 6.869487e-02 -8.473753e-01 5.163480e-01 1.318524e+00 -1.027375e+00 -1.008386e+00 9.441568e-01 9.996756e-01 -6.492031e-03 
-3.558604e+00 4.432112e+00 1.359090e+00 2.024637e+00 2.638972e+00 1.946993e+00 6.888916e-01 1.524913e+00 1.777442e+00 3.916485e+00 4.353055e+00 -8.595440e-01 -1.504688e-01 -7.410656e-01 -4.509579e-01 -5.173100e-01 3.242069e-01 5.739304e-01 -3.953954e-01 1.293726e-01 8.208817e-01 2.440369e-01 -3.952045e-01 1.300553e+00 1.077362e+00 -5.059481e-04 
-2.897331e+00 5.740986e+00 -1.220704e+00 2.120473e+00 4.230353e+00 3.898555e+00 4.172170e+00 2.892436e+00 2.678184e-01 5.397251e-01 1.097238e+00 5.955452e+00 -1.141815e-01 -7.971758e-01 -6.362711e-01 -6.740662e-01 -8.550947e-01 2.664486e-01 1.270181e-01 -7.529502e-02 1.048166e+00 4.227233e-01 -5.000139e-01 4.939973e-01 7.961078e-01 -3.278124e-03 
-6.763751e+00 2.259732e+00 -1.186368e+00 1.823223e+00 5.848022e+00 7.175684e+00 2.609612e+00 1.459795e+00 5.792012e+00 1.613935e+00 4.038797e+00 6.862521e+00 -1.306847e-01 -3.582818e-01 -1.857089e-01 -3.984417e-01 -8.141510e-01 -1.245905e-01 1.189207e+00 -2.845615e-01 -7.433052e-02 -2.673182e-02 -5.154548e-01 -2.539844e-01 3.718330e-01 2.697957e-03 
-4.532453e+00 4.249373e+00 -8.289804e-01 -6.572543e-01 2.754131e+00 6.561538e+00 9.014461e-01 1.732986e+00 1.185128e+00 1.072716e+00 2.421168e+00 2.651565e+00 -1.293799e-01 -1.038944e-01 -9.935828e-02 1.140835e-01 -8.035933e-01 -6.046337e-01 4.711820e-01 -8.249613e-01 -2.045710e-01 -2.772266e-01 5.247617e-02 1.030231e-01 -1.081873e+00 -2.909184e-03 
