-9.775029e+00 7.941500e+00 3.388592e+00 1.256690e+00 2.608862e-01 -8.222795e+00 -3.614912e+00 -1.439840e+00 8.663551e-01 1.657462e-02 8.384854e-01 4.399642e+00 -1.512927e-01 5.186602e-01 4.187230e-01 -2.212042e-01 -2.203229e-01 4.023371e-01 1.514549e+00 1.206726e+00 6.138753e-01 -1.225523e+00 -1.395141e+00 -6.636820e-01 -1.197769e+00 0.000000e+00 
-8.149909e+00 9.719843e+00 1.982010e+00 -1.552349e-01 5.201390e-01 -5.570015e+00 7.884879e-01 -2.725484e-01 -5.432407e+00 -6.072315e+00 -3.756721e+00 -3.889043e-01 -1.512927e-01 4.762937e-01 -8.012937e-02 -3.558964e-01 2.303081e-02 9.796696e-01 1.044979e+00 1.640998e+00 7.392597e-01 -5.417947e-01 -4.191729e-01 -4.193898e-01 -1.660666e-01 0.000000e+00 
-7.994288e+00 9.145943e+00 2.985862e+00 8.610373e-01 2.142945e+00 -1.976440e+00 2.170167e-01 1.045891e+00 -2.111878e+00 -3.914686e+00 -1.823215e-01 8.050688e-01 -1.512927e-01 1.174614e-01 4.645033e-01 6.111267e-02 -2.021172e-02 8.159585e-01 1.209688e+00 1.282426e+00 2.496318e-01 1.340195e+00 9.847029e-01 4.399626e-01 -1.335285e-01 0.000000e+00 
-8.283931e+00 6.938631e+00 1.810475e+00 1.569670e+00 4.218205e+00 -6.121078e+00 2.674113e+00 1.013593e+00 -3.535018e-01 -1.136601e-01 -7.480603e-01 5.366596e+00 -1.512927e-01 -4.221680e-01 2.769272e-01 7.604799e-01 1.005473e+00 1.279430e+00 9.225463e-01 -2.166491e-01 -1.323052e+00 2.296034e+00 2.577502e+00 1.570011e+00 6.561634e-01 0.000000e+00 
-9.120711e+00 1.165462e+01 3.779923e+00 2.931787e-01 2.491646e+00 -1.898824e+00 1.854405e+00 -8.347517e-01 5.027876e+00 1.960762e+00 1.533968e+00 8.542492e-01 -1.512927e-01 -5.056810e-01 -8.506660e-02 -2.460995e-02 3.719651e-01 6.702733e-03 -5.662850e-01 2.968669e-02 -1.217184e+00 1.114822e+00 1.497609e+00 9.415562e-01 2.734721e-01 0.000000e+00 
-9.697537e+00 9.850140e+00 5.387379e+00 5.156062e+00 6.742939e+00 -9.960918e-01 -1.113452e+00 -5.947489e+00 2.477888e+00 3.877471e+00 3.235190e+00 2.867322e+00 -1.512927e-01 -3.807262e-01 -2.895554e-01 4.863369e-02 2.824297e-02 -4.049593e-01 -3.757060e-01 -1.094203e-01 -9.688612e-01 -4.499817e-01 6.316336e-01 2.678847e-01 -1.272035e+00 0.000000e+00 
-9.815890e+00 7.264855e+00 1.074360e+00 9.276668e-01 9.140916e-01 -7.370358e+00 2.259233e+00 -1.559488e+00 2.046535e+00 1.577791e+00 2.533834e+00 3.422066e+00 -1.512927e-01 -2.881086e-01 -1.380144e+00 -7.950948e-01 -8.350992e-01 -5.120917e-01 -1.479296e+00 -1.319783e-02 -6.351066e-01 -1.686726e+00 1.638324e-01 1.860990e-01 -2.743113e-01 0.000000e+00 
-9.839972e+00 7.685738e+00 3.406425e+00 1.393641e+00 2.982186e+00 -5.263843e+00 1.924598e+00 -3.468344e+00 -1.112740e+00 3.235993e+00 9.143034e-02 -2.277487e+00 -1.512927e-01 -1.232847e-01 -7.722293e-01 -7.079860e-01 -6.841370e-01 -9.062228e-02 -9.679661e-01 -5.834460e-02 -1.299133e-02 -1.260347e+00 -1.253603e+00 -3.634812e-01 1.425053e-01 0.000000e+00 
-1.049004e+01 5.836102e+00 7.949264e-01 -2.001107e+00 1.811564e+00 -7.161427e+00 2.693913e-01 -5.249857e+00 -1.610440e+00 3.100663e+00 4.036343e+00 2.055097e+00 -1.512927e-01 2.630367e-02 -2.811027e-01 5.785587e-01 1.358057e+00 1.489605e+00 -1.359031e-02 -1.663295e+00 -8.018637e-01 -1.292360e+00 -1.153630e+00 5.896967e-01 1.233352e+00 0.000000e+00 
-9.976888e+00 6.703370e+00 1.987166e+00 3.199764e+00 5.841091e+00 -5.940387e+00 -4.102545e-01 -4.167261e+00 -1.995360e+00 -3.151981e+00 6.665299e-01 4.263333e+00 -1.512927e-01 5.749388e-01 -1.246244e-01 2.474115e-01 1.371737e+00 2.080428e+00 1.221927e+00 -6.567549e-01 -2.141006e-01 -3.237541e-01 -1.291621e+00 2.919295e-01 1.095001e+00 0.000000e+00 
-9.615914e+00 6.350526e+00 4.676784e+00 6.814891e+00 6.932664e+00 -7.100037e+00 -4.889814e+00 -5.219348e+00 -3.973956e+00 -9.963702e-01 5.194767e+00 6.318418e+00 -1.512927e-01 1.091883e+00 -5.931850e-01 -1.058375e+00 2.429465e-01 1.950551e+00 2.953565e+00 7.314544e-01 -4.554873e-02 1.213913e+00 -3.247523e-03 -7.774757e-01 -9.288372e-01 9.917831e-03 
-7.402340e+00 6.805404e+00 2.702554e+00 3.844326e+00 1.082377e+01 8.151002e-01 1.220427e+00 -4.554101e+00 -1.549752e+00 -1.173596e+00 9.718657e-01 1.065856e+00 -1.512927e-01 1.183225e+00 -9.847673e-01 -2.549797e+00 -1.329909e+00 5.864890e-01 2.839940e+00 1.166110e+00 -1.464871e-01 1.849073e+00 5.786544e-01 -1.303383e+00 -2.109033e+00 1.195984e-02 
-6.317896e+00 2.819160e+00 -4.854641e+00 -1.108655e+00 9.072979e+00 4.228652e+00 3.111323e+00 -5.284181e+00 4.236321e+00 2.095233e+00 -3.703803e-03 -9.903504e-01 -1.017035e-01 1.479592e+00 -5.940021e-01 -2.498315e+00 -2.198077e+00 -1.473185e+00 1.188096e+00 1.540723e+00 1.555017e+00 1.020672e+00 -4.816058e-01 -1.291163e+00 -1.490261e+00 3.500462e-03 
-5.709773e+00 3.545216e+00 -5.996107e+00 5.119907e-01 7.703379e+00 2.594970e+00 1.419727e+00 -4.867280e+00 3.144865e+00 -1.804510e+00 -3.251151e+00 -2.627448e+00 -1.162881e-01 6.948503e-01 -3.101231e-01 -5.284849e-01 -7.439658e-01 -3.245006e+00 -1.337146e+00 -2.638245e-01 1.789956e+00 -1.005982e+00 -9.699067e-01 8.768727e-01 -7.559513e-02 7.249689e-03 
-3.064238e+00 5.010610e+00 -3.465463e+00 -2.509325e+00 1.126938e+00 -2.049491e+00 2.714152e+00 2.712326e+00 -1.217905e+00 -3.088942e+00 8.504632e-01 7.137622e-01 -1.512927e-01 -5.396584e-01 3.210518e-01 1.630485e+00 8.305432e-01 -2.898171e+00 -2.782645e+00 -4.120687e-01 2.147708e+00 -1.660281e+00 -1.465352e+00 8.512245e-01 1.053792e+00 3.226591e-02 
-5.554917e+00 4.159064e+00 -6.344597e-01 8.248314e-01 -1.428235e+00 -2.731560e+00 9.988928e-02 3.974248e-01 -3.852550e+00 -3.431042e+00 4.929146e+00 -1.641758e-01 -9.024966e-02 -1.664011e+00 -3.478806e-02 2.049622e+00 1.018666e+00 -1.159293e+00 -1.377272e+00 1.669905e-01 1.360605e+00 -7.348038e-01 1.041934e+00 2.371472e-03 6.716499e-01 5.924658e-02 
-9.093616e+00 4.117496e+00 6.169591e-01 2.887640e+00 -8.520713e-01 -7.021310e+00 1.710898e+00 2.822006e+00 -5.663778e-01 -4.418263e+00 1.622705e-01 3.046974e+00 4.660684e-02 -2.194794e+00 -5.842323e-02 1.196847e+00 1.184504e+00 -1.775846e-02 8.541942e-04 4.187044e-01 7.676558e-01 2.555725e-01 2.517284e+00 -4.724367e-01 -2.916186e-01 6.616572e-02 
-1.101514e+01 3.817833e+00 2.210790e+00 2.906837e+00 2.896417e+00 -1.805482e+00 2.756307e+00 1.880906e+00 -8.549183e-01 4.069820e+00 -2.895197e+00 -4.358040e-01 8.099508e-02 -8.558056e-01 1.261211e-01 1.937077e-02 -9.845980e-02 -8.722415e-02 5.109590e-01 4.765448e-01 6.680668e-01 3.521086e-01 2.250632e+00 -4.896438e-02 1.251019e+00 1.869692e-02 
-1.130810e+01 4.889109e+00 1.096148e+00 2.372192e+00 -1.124180e+00 -2.508259e+00 3.479465e+00 5.808864e+00 -1.438858e+00 5.747045e+00 2.400451e+00 -6.085166e-01 9.391356e-02 -1.574104e-01 -4.132046e-01 1.549823e-01 8.696741e-01 5.005131e-01 1.031146e+00 3.854845e-01 -6.250498e-01 -9.886001e-01 2.010659e+00 1.552978e+00 8.001503e-01 -1.096368e-03 
-8.726705e+00 4.403863e+00 -7.772005e-01 5.902565e-01 -1.728301e+00 -2.433291e+00 1.598330e+00 2.244329e+00 -1.655767e+00 2.739465e+00 3.565234e+00 7.918666e+00 -2.041841e-02 1.085529e+00 -5.171911e-01 -5.201002e-01 2.109994e-01 1.916807e-01 -2.811453e-02 -5.038513e-01 -1.255996e+00 -7.732441e-01 -8.683351e-01 8.449354e-01 8.272894e-02 2.264602e-02 
-1.102489e+01 1.758458e+00 2.885866e+00 8.394301e+00 3.962853e+00 -1.551677e+00 4.217309e+00 -4.849549e-01 -5.108954e+00 6.300205e+00 4.696945e+00 2.870491e+00 9.183174e-02 1.898812e+00 -1.205356e+00 -1.181262e+00 -1.424450e+00 4.478989e-01 -8.165227e-01 -1.461467e+00 -2.441447e+00 -2.207916e-01 -1.733964e+00 -8.761778e-01 -4.668363e-01 5.951722e-02 
-5.729104e+00 2.797203e+00 -1.284570e+00 9.507796e-01 1.311304e+00 -2.424345e+00 -1.318717e-01 -1.252162e+00 -2.886091e+00 -5.484354e-01 1.812333e-01 -1.761663e+00 1.952661e-01 4.503118e+00 6.216114e-01 -2.444233e-01 -1.954672e+00 -3.516479e-01 -4.847153e-01 -1.697278e-02 -1.195973e+00 -1.618076e+00 -1.920041e+00 -8.907813e-01 -2.031827e+00 9.381762e-02 
-3.312837e+00 -3.343387e-01 -4.556478e+00 -4.930318e+00 -4.044881e-01 -6.595345e+00 -2.962771e+00 -4.650124e+00 -1.927655e+00 -1.278825e+00 -2.884375e-01 1.897466e+00 2.836574e-01 6.985566e+00 -9.596204e-03 -2.863999e-01 -3.272542e+00 -3.741112e+00 1.144847e+00 1.480082e-01 1.992228e-01 -1.161556e+00 -2.134949e+00 -6.428101e-01 2.562952e-02 1.400079e-01 
9.932858e+00 8.558318e+00 1.721855e+00 -2.520791e+00 -1.302870e+00 -2.335033e+00 5.103506e+00 -1.652952e+00 -1.133679e+01 -3.071226e+00 1.604018e+00 -1.753958e+00 3.527569e-01 5.862096e+00 -1.981363e+00 9.908012e-01 -2.200346e+00 -4.644629e+00 2.669414e+00 5.980667e-01 1.733269e+00 -9.429979e-01 -1.947100e-01 -2.881871e-01 1.277908e+00 1.745360e-01 
1.607196e+01 -1.170081e+00 -4.934645e-02 -6.232622e+00 -1.343562e+01 4.127903e+00 2.339661e+00 7.115544e-01 -6.691381e+00 -3.113145e+00 7.715018e-01 2.994786e+00 7.131258e-01 3.440907e+00 -3.525116e+00 1.391694e+00 -1.743329e+00 -4.377803e+00 3.798079e+00 1.609262e-01 2.152647e+00 -2.651553e-01 7.417413e-01 -7.464887e-01 9.332975e-01 1.762130e-01 
1.388898e+01 -6.691740e+00 1.415870e+00 -9.399797e+00 -1.539627e+01 5.561100e+00 2.072458e-01 4.733347e+00 -5.219217e+00 -6.048251e-01 -1.789672e+00 4.079215e+00 8.532120e-01 -1.784032e-01 -4.768557e+00 1.400336e-01 -1.861079e+00 -2.437047e+00 3.212944e+00 -1.203194e+00 7.763702e-01 6.417826e-01 1.068718e+00 -8.206354e-01 1.045567e+00 1.336956e-01 
1.191364e+01 -1.033489e+01 2.554983e+00 -1.020746e+01 -1.524680e+01 8.446985e+00 2.899904e-01 2.919959e+00 -6.312220e+00 1.196681e+00 -2.324036e+00 3.647367e+00 9.144947e-01 -1.678428e+00 -2.583119e+00 2.764449e-01 -9.322878e-01 5.924293e-01 2.303044e+00 -2.046666e-01 -4.380185e-01 -3.920092e-01 6.769528e-01 -4.839804e-01 -4.799135e-02 5.794334e-02 
1.112000e+01 -1.070206e+01 1.119858e+00 -9.838768e+00 -1.258251e+01 1.157015e+01 1.123700e-01 1.124697e+00 -8.317462e+00 1.174526e-01 -9.513899e-01 3.147586e+00 9.205502e-01 -1.417174e+00 -1.341138e+00 -6.489642e-02 1.182775e-02 8.504907e-01 2.212911e+00 6.601570e-02 -1.156545e+00 -1.230685e-01 -9.070985e-02 -3.262848e-02 -4.253427e-01 3.129272e-02 
9.064311e+00 -1.208051e+01 1.480884e+00 -1.067457e+01 -1.188035e+01 1.263860e+01 1.363766e+00 3.257871e-01 -7.102304e+00 -8.952022e-02 -2.067541e+00 3.220644e+00 9.691734e-01 -1.126942e+00 -6.114239e-01 -1.899639e-01 4.338222e-01 5.812004e-01 1.500478e+00 -7.211220e-02 -7.879751e-01 6.195530e-01 -1.824764e-01 -8.969901e-02 -4.528212e-01 2.082056e-02 
8.227771e+00 -1.252462e+01 1.628438e+00 -9.107101e+00 -1.282704e+01 1.452985e+01 4.365444e-04 2.477078e-01 -5.439517e+00 -4.152739e-01 -2.081062e+00 2.165863e+00 9.823362e-01 -6.864258e-01 -5.984329e-01 2.901350e-02 5.370336e-01 1.392122e-01 8.811417e-01 -4.482047e-01 -3.603401e-01 1.125944e+00 -1.875372e-02 9.040520e-02 -8.834742e-01 1.667435e-02 
7.725048e+00 -1.248073e+01 1.350874e+00 -8.404182e+00 -1.221854e+01 1.446952e+01 -1.460385e-02 -5.814216e-01 -4.653427e+00 5.506623e-01 -2.207695e+00 1.874123e+00 9.877045e-01 -2.271907e-01 -2.614073e-01 -1.895828e-01 8.908326e-01 -2.363339e-02 6.382372e-01 -9.056570e-01 -2.203520e-01 7.232630e-01 2.816336e-01 3.568181e-01 -8.467339e-01 7.397330e-03 
8.357506e+00 -1.349412e+01 1.329930e+00 -8.288796e+00 -1.171736e+01 1.506039e+01 -1.439469e+00 -2.233994e-01 -3.912179e+00 -2.964072e-01 -4.292867e-01 -5.965252e-01 9.946564e-01 2.800415e-02 -2.137331e-01 -3.052380e-01 3.940393e-01 4.412924e-01 -8.228684e-03 -1.284611e-01 -7.676374e-01 5.430924e-01 3.896253e-01 7.701243e-02 -1.306390e-01 4.503447e-03 
7.863491e+00 -1.290280e+01 6.822238e-01 -6.629565e+00 -1.255336e+01 1.556451e+01 -2.444566e+00 -5.404193e-01 -4.249659e+00 1.259214e+00 -1.109337e+00 3.681679e-01 1.000000e+00 1.814758e-01 -1.580332e-01 -1.773677e-01 2.267585e-01 4.402365e-01 -5.136471e-02 3.517332e-02 -6.197659e-01 4.587755e-01 1.985122e-01 6.319857e-02 3.316555e-02 1.746559e-03 
8.298571e+00 -1.338225e+01 4.365728e-01 -8.024214e+00 -1.045317e+01 1.394121e+01 5.731122e-01 -3.610981e+00 -2.925940e+00 1.178577e+00 -2.245178e+00 2.265646e+00 9.987057e-01 9.870984e-02 -3.199749e-02 -1.226609e-01 1.518294e-01 5.647866e-01 -4.956740e-01 4.944614e-01 -7.487630e-01 6.916152e-01 -2.726797e-01 -1.041645e-02 2.057147e-01 -1.522988e-03 
8.661894e+00 -1.332683e+01 9.107141e-01 -7.402682e+00 -1.064945e+01 1.477229e+01 -8.450277e-01 -1.986460e+00 -2.852669e+00 8.057313e-01 -9.837564e-01 6.088656e-01 9.944126e-01 2.584894e-01 1.654306e-01 -3.585013e-01 1.694461e-01 3.692291e-01 -3.498550e-01 4.600371e-01 -3.386424e-01 6.581619e-01 -8.453975e-01 5.931495e-01 -4.673331e-01 -7.508105e-03 
8.451853e+00 -1.344209e+01 6.023805e-01 -7.143091e+00 -9.845386e+00 1.297813e+01 2.330689e-01 -3.244194e+00 -1.152598e+00 -1.433064e+00 -5.441595e-01 3.116993e-01 9.898351e-01 1.617095e-01 6.971435e-02 -4.298528e-01 5.376626e-01 6.224441e-03 -6.283875e-02 -8.649494e-02 1.770385e-01 5.558119e-01 -8.745632e-01 5.900286e-01 -6.267869e-01 -6.367892e-03 
9.079296e+00 -1.204573e+01 -1.193187e+00 -6.222896e+00 -1.101111e+01 1.429678e+01 2.564049e-02 -2.417025e+00 -1.845520e+00 -1.661953e+00 1.005901e+00 -9.915244e-01 9.668947e-01 1.767634e-01 -1.301403e-02 -4.560018e-01 4.612226e-01 7.142515e-02 -3.909779e-02 -7.759726e-02 2.362661e-01 3.754486e-01 -6.344126e-01 2.582547e-01 -3.281440e-01 -7.429862e-03 
8.898417e+00 -1.367423e+01 -6.607409e-01 -5.925795e+00 -1.024122e+01 1.386477e+01 -2.946966e-01 -2.510506e+00 -6.504545e-01 -1.960397e+00 -2.898639e-01 -6.809425e-02 9.806252e-01 4.294909e-01 1.959051e-01 -3.301840e-01 6.724092e-01 1.919554e-01 -2.071911e-01 -1.425039e-01 4.960508e-01 -8.078954e-02 -6.612522e-03 -1.939836e-01 -3.210296e-01 -1.664652e-02 
9.322429e+00 -1.327583e+01 -7.377341e-01 -5.705217e+00 -1.009441e+01 1.413348e+01 -9.691312e-01 -1.171974e+00 -1.226498e+00 -2.102665e+00 1.803693e-01 -8.419577e-01 9.618683e-01 6.311063e-01 -1.184597e-02 5.281494e-02 9.079247e-01 5.647086e-01 -1.689125e+00 2.902502e-01 3.507838e-01 2.066874e-01 1.821765e-01 -6.978882e-01 -1.276656e-01 -2.254870e-02 
1.047774e+01 -1.184751e+01 -1.276266e+00 -4.039885e+00 -9.343959e+00 1.202383e+01 1.793528e-02 -1.386465e+00 -1.866057e+00 -1.245771e+00 -1.101312e+00 -1.368232e+00 9.091158e-01 5.952124e-01 5.300690e-01 -3.074065e-01 9.638958e-01 1.024222e+00 -2.559113e+00 6.865148e-01 4.281074e-02 8.129165e-02 9.250038e-01 -9.997407e-01 -7.467846e-02 -2.563358e-02 
1.144517e+01 -1.301832e+01 -6.213493e-01 -2.626227e+00 -8.636194e+00 6.771624e+00 1.320575e+00 -1.225126e+00 -2.042822e-01 -1.108384e+00 -2.077816e+00 -9.797837e-01 8.899059e-01 1.577397e-01 -6.518116e-02 -2.758982e-01 8.598526e-01 7.508970e-01 -2.392626e+00 4.658215e-01 1.128311e-01 7.348284e-01 1.137952e+00 -1.591664e+00 2.218400e-01 -8.279175e-03 
1.081311e+01 -1.115264e+01 -2.255965e+00 -2.645811e+00 -5.849214e+00 4.750139e+00 1.993024e+00 -2.269876e+00 -7.551040e-01 2.167481e+00 -4.159475e+00 -3.725735e-01 8.884384e-01 -7.332587e-03 2.792740e-03 -2.879041e-01 1.083486e+00 -6.245327e-03 -1.462474e+00 -3.029913e-01 5.370697e-01 1.208977e+00 6.409791e-01 -8.771750e-01 -5.660731e-01 -4.773730e-03 
9.943442e+00 -1.394917e+01 -1.627375e+00 -2.102991e+00 -8.087295e+00 5.807195e+00 3.724320e-01 -1.661130e-01 1.892168e+00 1.880468e+00 -6.248869e+00 -2.305869e-01 9.308111e-01 -4.214873e-02 2.913761e-01 -1.528813e-01 7.242721e-01 -3.045022e-01 -1.112444e+00 -2.971453e-01 5.088192e-01 1.325773e+00 3.899733e-01 -4.455767e-01 -1.201044e+00 -1.097679e-02 
1.119194e+01 -1.136812e+01 -2.212774e+00 1.115926e+00 -9.649635e+00 5.193673e+00 -1.022949e+00 7.693769e-01 3.130602e+00 4.646990e-01 -3.401661e+00 -4.573195e+00 8.647946e-01 2.776170e-01 2.305593e-01 2.994275e-02 5.354860e-01 -7.238470e-01 -1.249160e+00 -6.424497e-01 6.077892e-01 1.761378e+00 -2.976310e-01 -1.407633e-02 -1.282560e+00 -1.941249e-02 
1.104501e+01 -1.145370e+01 -1.407352e+00 -8.857352e-01 -8.258494e+00 9.876351e-01 1.342836e+00 -2.006569e-01 4.481730e+00 1.692874e+00 -4.684607e+00 -4.884693e+00 8.468439e-01 4.546269e-01 6.328705e-01 2.433403e-01 -1.401291e-01 2.620428e-01 -2.377444e+00 1.582956e-02 1.002797e-01 1.570963e+00 -5.986454e-01 3.789139e-01 -2.860795e-01 -2.818733e-02 
1.165041e+01 -1.124758e+01 -2.216264e+00 -5.770087e-01 -9.382849e+00 9.141169e-01 -1.704427e+00 7.863415e-01 6.757005e+00 7.731230e-01 -5.011988e+00 -4.458323e+00 8.333595e-01 4.316842e-01 4.865212e-01 5.092305e-01 -5.979260e-01 6.126444e-01 -2.245131e+00 -4.095615e-01 3.107735e-01 8.668745e-01 -2.950051e-01 9.956896e-02 7.061360e-01 -2.717003e-02 
1.198734e+01 -1.084509e+01 -4.089289e-01 -1.957169e+00 -6.910474e+00 -3.940245e+00 7.923183e-01 3.268033e-01 7.933781e+00 -1.266971e+00 -3.549136e+00 -1.718421e+00 8.055919e-01 1.400961e-01 1.100005e+00 7.685205e-01 6.380787e-02 3.552523e-01 -2.522143e+00 -6.080633e-01 4.790990e-01 3.383951e-01 1.255645e-01 1.595797e-01 1.489639e+00 -3.466886e-02 
1.287919e+01 -9.239817e+00 -1.658325e-01 -1.337987e+00 -7.260424e+00 -3.568040e+00 -2.795499e+00 2.059515e+00 5.738949e+00 4.695959e-01 -3.471551e+00 -2.625651e+00 7.495704e-01 -1.374361e-01 1.404850e+00 5.651374e-01 1.085813e+00 -3.100030e-01 -1.995561e+00 -1.599059e+00 9.505035e-01 -1.052942e-02 7.641997e-01 6.460967e-01 1.377089e+00 -3.615018e-02 
1.113110e+01 -6.957557e+00 1.410036e+00 -1.862067e-01 -7.543446e+00 -9.382002e+00 -1.151945e+00 1.558252e+00 6.682733e+00 2.472460e+00 -4.656927e+00 1.647165e+00 7.153942e-01 -6.373045e-01 8.628483e-01 6.874766e-01 1.121632e+00 -6.458322e-01 -7.292899e-01 -2.674246e+00 7.352844e-01 7.295067e-01 8.349540e-01 9.679245e-01 1.012817e+00 -2.567497e-02 
1.139135e+01 -6.167098e+00 -3.000586e-01 3.966578e+00 -1.061638e+01 -6.342810e+00 -8.727590e+00 4.923135e+00 7.329882e+00 2.724406e+00 -1.227609e+00 7.443315e-01 6.977075e-01 -2.289445e-01 1.030328e+00 2.935319e-01 3.882301e-01 3.129901e-01 -3.171628e-01 -2.386500e+00 8.718984e-01 4.541287e-01 6.763782e-01 1.723484e+00 1.072407e-04 -3.417624e-02 
9.544737e+00 -8.067207e+00 3.095567e+00 9.987067e-01 -8.461658e+00 -6.199309e+00 -9.612866e+00 2.571415e+00 1.078585e+01 1.780394e+00 1.685153e-01 1.660671e+00 7.031485e-01 3.062876e-01 4.084211e-01 3.488621e-01 -3.564586e-02 4.402113e-01 3.110949e-01 -2.813533e+00 4.372377e-01 3.153717e-01 2.554139e-01 2.031195e+00 -1.730954e-01 -3.276302e-02 
1.252765e+01 -3.533350e+00 4.590611e-01 1.070690e-02 -5.236367e+00 -6.745201e+00 -1.049754e+01 5.912424e+00 5.958035e+00 4.197520e+00 2.733150e+00 -2.631868e+00 5.848120e-01 5.873277e-01 6.911054e-01 4.770383e-01 6.162136e-02 1.916581e+00 -4.688786e-02 -9.279987e-01 -5.806221e-01 -7.060584e-01 -5.305482e-01 1.266367e+00 4.282505e-01 -5.254557e-02 
1.209439e+01 -6.232325e+00 2.774786e+00 1.613499e+00 -8.032394e+00 -7.625332e+00 -1.433463e+01 3.249795e+00 8.945515e+00 3.012973e+00 3.518672e+00 2.469788e+00 6.080269e-01 7.571056e-01 1.073391e+00 -3.834009e-02 1.317772e+00 1.560007e+00 -2.568961e-01 -9.445232e-01 -7.989354e-01 -3.656245e-01 -6.112326e-01 1.360802e+00 1.490595e+00 -6.074425e-02 
1.305317e+01 -3.629012e+00 2.245523e+00 3.967288e+00 -1.248106e+00 -5.864238e+00 -1.100670e+01 1.680834e+00 4.719757e+00 -5.446243e-01 3.429149e+00 2.481026e+00 4.825405e-01 6.125224e-01 8.336713e-01 9.435968e-02 1.176744e+00 1.449992e+00 3.610688e-01 -3.081989e-01 -2.299834e+00 -1.500167e-01 -1.441795e+00 2.264973e-01 1.973262e+00 -5.264354e-02 
1.306751e+01 -2.652420e+00 2.010635e+00 5.609275e+00 -2.655754e+00 -7.924271e+00 -1.408090e+01 6.925334e-01 9.576864e+00 1.095303e+00 6.624528e+00 6.557197e+00 4.505630e-01 6.129079e-02 2.640161e+00 7.532016e-02 9.932003e-01 2.445654e+00 3.396543e-02 -4.646246e-01 -2.040699e+00 -1.346316e+00 -6.249251e-01 8.757237e-01 8.968338e-01 -8.550116e-02 
1.510370e+01 -1.154947e+00 1.312935e+00 3.896536e+00 -6.747289e-01 -4.790388e+00 -1.216540e+01 -4.308112e+00 4.892277e+00 -2.052621e+00 2.312708e+00 5.190737e+00 4.003263e-01 -6.853649e-01 3.971113e+00 2.689375e-01 3.222717e-01 2.536349e+00 -2.344967e-01 6.444809e-01 -1.049631e+00 -9.976419e-01 -2.431625e-01 1.663658e-01 9.530368e-02 -9.636037e-02 
1.137557e+01 5.731447e+00 3.617681e+00 6.614877e+00 3.909189e+00 -7.992430e+00 -1.607841e+01 -3.959226e+00 2.127676e+00 6.423454e-01 8.455510e+00 5.599102e+00 2.216282e-01 -1.723949e+00 3.749099e+00 5.561552e-01 7.240136e-01 4.138746e+00 1.265583e+00 2.676287e+00 1.210479e+00 -1.699524e+00 -9.077023e-01 -6.490356e-01 -8.241941e-01 -1.096794e-01 
1.047231e+01 1.203462e+01 2.786688e+00 5.075846e+00 8.151166e+00 -7.002642e+00 -6.785542e+00 -1.241440e+00 3.456141e+00 -1.533958e+00 3.345487e+00 3.436592e+00 1.152061e-01 -3.163474e+00 1.938573e+00 3.868988e-01 1.171830e+00 3.900762e+00 2.737916e+00 4.273337e+00 3.040410e+00 -7.313426e-01 -5.864663e-01 -5.738568e-01 -1.259715e+00 -1.059517e-01 
6.763459e+00 9.498294e+00 4.054535e+00 8.639688e+00 1.362503e+01 -4.902303e-01 -3.389396e+00 5.211594e+00 1.797314e+00 -3.702540e+00 2.862961e+00 3.313298e+00 4.472607e-02 -4.533800e+00 -1.075233e+00 1.508070e-01 -2.984494e-01 4.529161e-01 2.618883e+00 5.043482e+00 1.680963e+00 -4.985887e-01 2.147981e-02 -1.692949e+00 -1.171544e+00 -4.837702e-02 
1.592390e+00 6.654497e+00 3.029002e+00 8.743281e+00 1.397116e+01 5.148094e+00 2.856782e+00 6.308526e+00 1.400745e+00 -2.812510e+00 2.239699e+00 3.506142e-02 -4.098117e-02 -5.845784e+00 -3.769742e+00 4.020061e-01 -1.364847e+00 -1.837005e+00 1.191775e-01 2.208508e+00 -8.883346e-01 -1.909138e+00 1.178972e+00 -4.380974e-01 -3.185683e-01 2.189097e-02 
-6.853465e+00 3.045342e+00 4.250559e+00 3.288912e+00 3.263772e+00 -9.733815e-01 4.317840e+00 6.706067e-01 6.624311e-01 1.389020e+00 5.436593e-01 1.442144e+00 5.783671e-02 -5.029121e+00 -3.660434e+00 1.601987e-01 -2.867878e+00 -3.512771e+00 -2.455968e+00 6.307699e-01 -2.702793e+00 -8.199590e-01 1.592912e+00 -7.842889e-02 -3.477772e-01 6.772169e-02 
-1.194815e+01 -3.587613e+00 4.698706e+00 9.269974e-01 4.146769e+00 -6.165179e+00 4.033809e-01 -3.412621e+00 -5.522110e+00 1.815119e+00 2.314650e+00 2.779327e+00 2.181056e-01 -3.701824e+00 -3.560628e+00 -5.705357e-01 -2.118547e+00 -1.527955e+00 -3.070612e+00 -6.279155e-01 -1.256859e+00 -5.063422e-01 3.360383e-01 -8.010275e-01 -9.277793e-01 8.984572e-02 
-1.161188e+01 -3.682822e+00 4.020677e+00 -1.791561e+00 9.733665e-01 -7.113434e+00 9.911537e-01 -3.441798e+00 1.158947e+00 1.948207e+00 2.433341e+00 2.022789e-01 2.537912e-01 -1.884152e+00 -2.243747e+00 -1.088517e+00 -7.586324e-01 1.066770e+00 -1.774592e+00 -1.596238e+00 -7.978606e-02 -3.080078e-01 -1.502538e+00 -1.293756e-01 -6.728882e-01 6.263275e-02 
-1.453752e+01 -7.784564e+00 2.912650e-01 6.907832e-01 7.476588e+00 -7.134939e+00 1.380548e+00 2.080432e+00 -1.379224e+00 -1.411912e+00 -2.710279e+00 -3.983902e+00 3.102702e-01 -8.114082e-01 -8.326033e-01 -6.762853e-01 2.637186e-01 7.742037e-01 -1.078466e+00 -1.949379e+00 1.224205e-01 1.179787e+00 -1.051369e+00 -5.572575e-01 -5.621268e-01 2.840368e-02 
-1.497954e+01 -6.074917e+00 1.011693e+00 -3.861424e-01 6.932712e+00 -9.361462e+00 -4.151936e+00 -2.474850e+00 -2.949050e+00 -4.510155e+00 2.409246e+00 1.459318e+00 3.249182e-01 2.540558e-01 -3.455124e-02 -7.268016e-01 2.955231e-01 -6.495563e-01 -5.835345e-01 -5.510141e-01 8.112594e-01 1.228907e+00 1.477787e-01 -4.845580e-01 4.943049e-02 -2.070917e-02 
-1.432136e+01 -6.554581e+00 2.821772e+00 1.542881e+00 5.038115e+00 -1.043349e+01 -6.771968e+00 -3.283992e+00 2.430822e+00 -2.125471e-01 -4.595903e-01 -6.598259e-01 3.245605e-01 2.085517e+00 1.338986e+00 -9.581702e-01 1.365201e-01 -2.024025e+00 7.994986e-01 1.765569e+00 8.430681e-01 1.532892e+00 2.096466e+00 1.144532e+00 6.521212e-01 -7.943479e-02 
-1.044968e+01 -4.470569e+00 -8.785846e-01 -7.399945e-01 -1.055179e+00 -8.381828e+00 2.312341e+00 3.296711e+00 5.398459e+00 2.087418e+00 -1.114794e+00 -1.212607e+00 1.431001e-01 3.029271e+00 1.565507e+00 -1.996385e+00 1.365844e-01 -1.785319e+00 2.095315e+00 3.499923e+00 1.277771e+00 1.256887e-01 1.918308e+00 5.088121e-01 -2.180787e-01 -1.010032e-01 
-6.374863e+00 -1.891810e+00 -3.554447e+00 1.550310e+00 1.350406e+00 -3.627264e+00 6.976254e+00 3.409992e+00 2.111480e+00 5.771632e+00 4.774400e+00 6.126656e-01 4.005253e-03 3.166779e+00 1.294209e+00 -2.504720e+00 1.131527e-01 2.400660e-01 3.428906e+00 2.018141e+00 -7.650312e-01 -8.649889e-01 8.873940e-01 1.360329e+00 4.659820e-01 -8.845203e-02 
-3.806432e+00 -5.787663e-01 -5.782124e+00 2.930653e-01 -1.500268e-01 -2.288005e+00 6.473565e+00 5.670148e-01 -2.160935e+00 2.089295e+00 2.336311e+00 -2.673214e-01 -1.982009e-02 2.779710e+00 4.708073e-01 -2.821388e+00 3.262462e-01 1.909905e+00 2.156753e+00 -2.560669e-01 -1.784064e+00 -4.756644e-01 2.149837e-01 3.897000e-01 -4.165205e-01 -3.617598e-02 
-1.809092e+00 -2.029437e+00 -7.250058e+00 1.592115e+00 5.785869e+00 3.664123e+00 1.238126e+00 -5.744300e+00 1.885575e+00 4.223484e+00 4.616505e+00 1.197441e+00 -3.623950e-02 1.916037e+00 6.683486e-01 -2.484441e+00 1.002177e-01 2.158146e+00 1.205359e-01 -2.835765e+00 -1.179618e+00 -1.820360e+00 -2.693157e+00 -2.096533e+00 -1.650125e+00 4.545999e-03 
1.165979e+00 -2.047719e+00 -1.313772e+01 8.703341e-01 6.276613e+00 -1.243758e+00 3.901072e+00 -1.046463e+00 3.133089e+00 3.936411e+00 9.126543e-01 -3.587597e+00 -1.765740e-02 1.538000e+00 1.108946e+00 -7.981740e-01 1.102145e+00 2.563202e+00 -4.485245e-01 -3.340460e+00 -3.544706e-01 -1.628719e+00 -3.052655e+00 -2.590207e+00 -2.028152e+00 1.445771e-02 
7.191167e-01 2.184410e+00 -1.229886e+01 1.762764e+00 8.927818e+00 -3.546707e+00 -5.916321e+00 -1.681360e+00 -9.637331e+00 -8.617710e+00 -4.996437e+00 -5.977821e+00 2.565390e-02 1.207573e+00 8.271540e-01 -6.411036e-01 -7.396488e-02 3.702112e-01 -1.092741e+00 -1.680433e+00 8.964542e-01 -1.429638e+00 -2.782459e+00 -2.952750e+00 -2.599424e+00 1.200636e-02 
2.619462e+00 2.859040e+00 -7.248594e+00 5.718468e+00 1.109501e+01 -9.252129e-01 -6.651512e+00 -3.236808e+00 -4.543076e+00 -6.753385e+00 -5.808250e+00 -6.820450e+00 2.152175e-02 3.087166e-01 -2.058872e-01 -3.872257e-01 -8.236622e-01 -3.862008e-01 -4.863710e-02 -9.190421e-01 -2.436280e-01 4.793209e-01 -1.875976e-01 2.636170e-01 -4.963806e-02 5.309880e-04 
3.502031e+00 -3.470464e-01 -1.340014e+01 -1.201777e+00 5.227726e+00 -1.958856e+00 -1.887745e+00 -1.668561e-01 -1.424531e+00 -4.343913e+00 -6.786794e+00 -1.018325e+01 4.202724e-03 -4.020452e-01 -9.138010e-01 -2.064514e-01 -3.474655e-01 1.755579e-01 1.242079e+00 1.760170e+00 7.462377e-01 2.326032e+00 2.962037e+00 2.205393e+00 3.932599e-01 -2.034451e-02 
1.318105e+00 -1.811428e+00 -1.452320e+01 -1.765707e+00 6.195655e+00 -2.280869e+00 -2.708427e+00 -3.021855e+00 1.423293e+00 8.615251e-01 3.125918e+00 -1.733072e+00 -4.276872e-03 -1.038383e+00 -2.286347e-01 -4.406852e-01 -5.188048e-01 1.162723e+00 1.741769e+00 2.861089e+00 1.154183e+00 5.443699e-01 2.676406e+00 2.529483e+00 4.336742e-01 -3.088197e-02 
-6.404305e-01 -4.936171e-02 -9.693809e+00 3.767524e+00 1.225529e+01 3.341518e+00 9.129863e-01 1.942352e+00 -9.903569e-01 2.385017e+00 1.563446e+00 -6.555211e+00 -6.316936e-02 -1.096161e+00 1.444860e+00 1.560954e+00 -7.918834e-04 4.691944e-01 9.928521e-01 2.474887e+00 1.469697e+00 -1.462400e-01 1.632122e+00 1.773878e+00 9.340156e-01 -4.059160e-02 
-5.012245e-01 1.567024e+00 -1.130518e+01 6.397939e-01 1.339485e+01 5.133448e+00 6.253565e+00 1.479505e+00 -2.038313e+00 3.264179e+00 2.664044e+00 -6.466099e+00 -9.920204e-02 -7.834285e-01 2.385720e+00 1.987952e+00 -8.128109e-01 -6.167291e-01 4.415154e-01 2.356615e+00 1.865376e+00 -2.905442e-01 -8.712128e-01 -1.429421e+00 -3.389415e-01 -3.821550e-02 
-1.069111e+00 5.188029e+00 -7.204378e+00 -2.408486e+00 3.974103e+00 -7.017541e-01 6.005693e+00 4.930948e+00 -4.249274e-01 2.615371e+00 2.313533e+00 -3.146660e+00 -1.512927e-01 -1.218468e+00 2.090633e+00 1.656033e+00 -1.753125e+00 -1.860158e+00 -1.433187e+00 3.382890e-01 7.573694e-01 2.517390e-01 -1.625874e+00 -1.409890e+00 1.363315e+00 -2.283373e-02 
-2.384697e+00 7.498475e+00 -5.828159e+00 -2.741756e+00 7.252601e+00 1.948344e+00 6.528295e+00 4.810726e+00 -3.121424e-01 -3.609716e+00 -4.396234e+00 -5.132055e+00 -1.512927e-01 -1.825909e+00 1.804293e+00 2.343561e+00 -5.161200e-01 -1.242167e+00 -2.091622e+00 -1.661226e+00 -2.157010e-01 7.963812e-01 -2.370716e+00 -1.827332e+00 6.321815e-01 -1.041813e-02 
-5.791037e+00 7.438078e+00 -4.152159e+00 -3.307325e+00 6.025619e+00 -2.231868e+00 2.467066e+00 4.063589e+00 -5.947475e-01 -2.307405e+00 -1.955865e+00 -4.056599e-01 -1.512927e-01 -1.854596e+00 9.104443e-01 2.450789e+00 1.063746e+00 1.766657e-01 -1.531701e+00 -1.267386e+00 -1.300627e+00 5.398678e-02 -7.963942e-01 -2.491105e-01 1.941157e-01 0.000000e+00 
-7.269808e+00 9.463465e+00 -1.113489e+00 -1.491387e+00 6.158256e+00 -4.559608e+00 -2.832484e-01 8.346802e-01 2.028503e+00 -6.128013e+00 -4.337916e+00 -4.675692e+00 -1.512927e-01 -1.095557e+00 4.148279e-01 1.840044e+00 1.699021e+00 -3.269436e-01 -1.244139e+00 -8.251155e-01 -1.498412e+00 5.388335e-01 9.484644e-01 3.141148e-01 -5.074813e-01 0.000000e+00 
-7.899535e+00 8.757755e+00 2.692233e+00 2.285059e+00 5.404604e+00 -5.106283e+00 3.074533e+00 4.158356e-01 -1.325316e+00 -1.074514e-01 1.038822e+00 -2.404263e+00 -1.512927e-01 -4.709219e-01 7.741709e-01 1.955690e+00 1.510218e+00 -1.172889e+00 -6.584169e-01 2.332916e-01 -6.513103e-01 -1.754829e-01 1.300794e+00 -9.605840e-01 -1.305969e+00 0.000000e+00 
-6.808233e+00 8.912776e+00 -5.013537e-02 2.957156e+00 5.928391e+00 -2.835145e+00 2.098984e+00 -8.574565e-01 2.747309e+00 3.262925e-02 -4.323003e+00 -6.670160e+00 -1.512927e-01 -1.137447e-02 6.833886e-01 1.695370e+00 7.224255e-01 -8.946531e-01 2.286622e-01 1.480723e+00 1.121020e+00 -9.676315e-01 1.547144e-01 -7.532386e-01 -3.619408e-01 0.000000e+00 
-8.376433e+00 1.158428e+01 5.094615e+00 2.019493e+00 2.761059e-01 -6.386184e+00 2.442408e+00 1.653106e+00 -1.831565e+00 1.116246e+00 -6.766242e+00 -5.938269e+00 -1.512927e-01 -1.863593e-01 2.683687e-01 1.018971e+00 8.949473e-02 -1.811706e-01 1.037424e+00 1.387671e+00 1.302659e+00 -6.692033e-01 -8.689827e-01 1.934226e-01 4.398111e-01 0.000000e+00 
-7.088231e+00 1.146715e+01 6.162172e+00 2.253524e+00 4.249238e+00 -2.776347e+00 7.436431e+00 5.821146e+00 -2.556530e+00 -5.966290e+00 -4.201577e+00 -4.718392e+00 -1.512927e-01 8.756695e-02 2.184273e-01 6.464484e-01 1.073908e+00 3.850183e-01 8.543439e-01 1.414754e-01 -3.675306e-02 -1.163650e+00 -2.160110e-01 1.897467e+00 1.719424e+00 0.000000e+00 
-8.691333e+00 8.822412e+00 4.680934e+00 3.084349e+00 5.338326e+00 5.144024e-02 7.344162e+00 3.589828e+00 -2.019413e+00 -1.452905e+00 1.945222e+00 -1.181092e+00 -1.512927e-01 4.997852e-01 -3.884735e-01 -8.043711e-01 6.405228e-01 1.135641e+00 5.210224e-01 -1.189612e+00 -1.474748e+00 -7.797056e-02 3.354976e-01 2.013134e+00 1.748091e+00 0.000000e+00 
-6.212949e+00 1.138585e+01 3.388947e+00 7.794268e+00 5.322371e+00 -1.782237e+00 3.554835e-01 -2.009583e+00 -2.977018e+00 2.371502e-01 8.085986e-01 -4.516318e-01 -1.512927e-01 6.238079e-02 -5.038493e-02 -4.819670e-01 4.623798e-01 8.971637e-01 9.898816e-01 -1.650065e-01 -1.411160e+00 1.244975e+00 2.200140e+00 1.344709e+00 4.277976e-01 0.000000e+00 
-6.315148e+00 9.682561e+00 2.459372e+00 2.451735e+00 5.417745e+00 -4.278127e+00 3.482056e-02 -1.805269e+00 -2.011174e+00 -3.079858e-01 7.943411e-01 6.688071e-01 -1.512927e-01 2.747419e-01 8.912314e-01 2.558882e-01 -3.671355e-01 5.994209e-01 1.254011e+00 6.763333e-01 -1.477431e-01 2.013897e+00 1.448372e+00 3.848825e-01 3.278919e-01 0.000000e+00 
-7.964419e+00 1.078515e+01 4.863118e+00 4.881730e+00 8.695349e+00 4.337845e+00 1.026607e+01 1.462894e+00 3.664224e+00 4.461953e+00 3.097408e+00 -3.504354e+00 -1.512927e-01 1.024227e-02 4.147480e-01 3.122163e-01 -8.950634e-01 5.575380e-01 1.072096e+00 2.111254e+00 7.777427e-01 1.755557e+00 8.332397e-01 1.275872e+00 1.024825e+00 0.000000e+00 
-6.441888e+00 1.357892e+01 5.223289e+00 2.704941e+00 6.648943e+00 3.261453e+00 5.770536e+00 1.114875e+00 4.729451e+00 3.676553e+00 2.725230e+00 1.984729e+00 -1.512927e-01 3.716453e-01 6.832414e-01 8.680068e-01 3.057276e-01 6.424961e-01 1.125348e+00 1.205936e+00 7.297475e-01 1.450878e+00 3.033087e-01 9.107931e-01 1.412138e+00 0.000000e+00 
-6.098368e+00 1.151141e+01 3.568070e+00 3.192348e+00 7.494462e+00 -1.915460e-01 8.043898e+00 4.190588e-01 2.430453e+00 2.411080e+00 6.222517e+00 4.014531e+00 -1.512927e-01 4.407153e-01 -5.446024e-02 -6.222057e-03 1.733160e-03 -8.205212e-01 -6.597548e-01 -1.599029e+00 1.001539e+00 -7.102489e-02 -1.965031e+00 -1.250076e+00 1.036782e+00 0.000000e+00 
-5.389948e+00 1.273564e+01 7.446930e+00 4.825063e+00 9.230668e+00 3.613308e+00 7.175587e+00 2.365386e+00 5.860102e+00 2.233994e+00 3.785752e+00 3.970052e+00 -1.512927e-01 -9.289789e-02 -7.344261e-01 -4.717759e-02 4.614979e-01 -6.343295e-01 -1.823461e-01 -1.037148e+00 1.833190e-01 -6.654811e-01 -1.516507e+00 -2.792860e+00 -1.065109e+00 0.000000e+00 
-6.286813e+00 1.093449e+01 3.720187e+00 3.830334e+00 3.301879e+00 8.631434e-01 1.568400e+00 5.845333e+00 2.743774e+00 -4.641925e+00 -3.683233e+00 6.868932e-01 -1.512927e-01 -2.849781e-01 -5.172710e-01 1.509583e-02 2.870552e-01 -7.498833e-01 2.236917e-01 -1.179575e+00 -5.248505e-01 -6.984854e-01 -8.194593e-01 -3.508936e+00 -1.703010e+00 0.000000e+00 
-6.812155e+00 1.019525e+01 4.911343e+00 4.693437e+00 5.573586e+00 1.822378e+00 3.822544e+00 -6.816671e-01 1.245385e+00 -3.794800e-01 -6.286193e+00 -1.676997e+00 -1.512927e-01 -3.369756e-01 -5.820023e-01 -3.880020e-01 5.998506e-02 -5.042456e-01 -2.622626e-01 -4.451941e-01 -1.262111e+00 -1.072782e+00 -9.645037e-02 -2.274685e+00 -1.365799e+00 0.000000e+00 
