-1.208665e+01 4.466370e+00 1.712765e+00 1.476874e+00 9.774839e+00 2.329713e+00 4.211772e+00 -1.848070e-01 9.923004e+00 6.707654e+00 2.442133e+00 9.422706e+00 -8.727574e-02 -3.064426e-01 -4.213632e-02 2.315369e-01 -4.738124e-01 -1.722257e+00 -1.175738e+00 5.316961e-01 4.009466e-01 -1.952413e+00 -1.227607e+00 -5.902821e-01 -9.135565e-01 -6.927609e-03 
-1.444511e+01 2.066541e+00 -2.263366e+00 -2.016836e+00 4.387932e+00 -1.361476e+00 5.928681e+00 1.276523e+00 4.188920e+00 4.338195e+00 3.348912e-01 6.423463e+00 -9.509301e-02 -3.803185e-01 2.616026e-01 1.057880e+00 1.335825e+00 -9.820957e-02 -5.060121e-01 4.752660e-01 8.213709e-01 -6.815350e-01 -4.157721e-01 1.561485e-01 2.038535e-01 -5.945480e-03 
-1.243963e+01 5.455603e+00 4.858515e+00 8.546667e-01 3.857010e+00 -1.703381e+00 6.011798e+00 1.089261e+00 3.027978e+00 1.754350e+00 5.443439e-01 6.354545e+00 -1.180052e-01 -1.320354e-01 2.070754e-01 1.176075e+00 1.623960e+00 9.137391e-01 5.132208e-01 9.071468e-01 1.665186e+00 -2.142363e-01 6.184917e-01 1.246889e+00 1.324207e+00 -4.177415e-03 
-1.381175e+01 5.279767e+00 5.429290e+00 8.467101e+00 1.224271e+01 1.816200e+00 5.688088e+00 3.285013e+00 9.962841e+00 7.105445e+00 4.171771e+00 1.197605e+01 -1.016384e-01 4.024393e-01 9.647855e-01 1.257387e+00 1.658718e+00 1.489369e+00 -1.185850e-01 6.491470e-03 7.650263e-01 1.903182e-01 7.115752e-01 1.197046e+00 1.255415e+00 3.456712e-04 
-1.306351e+01 3.895134e+00 3.746811e+00 4.354707e+00 1.041615e+01 3.306979e+00 8.867802e+00 7.136880e+00 5.964861e+00 8.416487e+00 6.758137e+00 1.326745e+01 -1.048901e-01 1.459198e-02 1.103396e-01 -6.135603e-01 -3.208687e-01 1.139791e-01 -1.725526e+00 -5.843791e-01 3.379613e-01 -8.250761e-02 7.205443e-01 -5.277754e-01 -5.015594e-01 1.952302e-03 
-1.212098e+01 7.670703e+00 4.579422e+00 4.526735e+00 8.555205e+00 -4.459581e+00 4.533136e+00 2.077845e+00 3.672069e+00 4.565002e+00 3.213223e+00 9.244085e+00 -9.992218e-02 3.816427e-01 3.760496e-01 -1.018054e+00 -1.595127e+00 -1.704735e+00 -1.451106e+00 -2.876053e-01 -1.599477e+00 -1.237087e+00 3.173954e-01 -1.020707e+00 -1.539393e+00 -5.519390e-05 
-1.321206e+01 4.811833e+00 2.215648e+00 1.220506e+00 6.270656e+00 -7.193122e+00 3.667379e+00 3.382652e+00 5.760826e+00 6.627294e+00 -1.615259e+00 5.212732e+00 -1.091018e-01 4.154759e-02 3.581987e-02 -8.288708e-01 -5.621851e-01 -4.099491e-01 -1.927668e-01 -4.081141e-01 -1.868704e+00 3.550954e-01 2.087463e-01 3.812858e-01 -3.406467e-01 7.745862e-04 
-1.182926e+01 6.701665e+00 1.104602e+00 2.058566e+00 5.791778e+00 -1.892817e-01 6.850273e+00 -2.835257e+00 3.879421e+00 9.587019e+00 3.254933e+00 8.306445e+00 -9.980857e-02 7.775995e-01 -4.600245e-01 -3.213967e-01 -2.775069e+00 -1.247478e+00 2.360867e+00 -8.742694e-01 -1.865364e+00 1.565263e+00 -1.005585e+00 1.226225e+00 8.621497e-01 2.095231e-02 
-1.300163e+01 4.558752e+00 1.339867e+00 2.777866e+00 9.748116e+00 2.079954e-01 5.668662e+00 2.499107e-01 7.636662e+00 6.949210e+00 8.643710e+00 1.203303e+01 -1.010740e-01 1.456734e+00 2.467172e-02 9.042143e-01 -3.106739e+00 -1.702214e+00 2.882552e+00 -1.935362e+00 -2.065623e+00 1.567343e+00 -1.904112e+00 1.417351e+00 1.510874e+00 3.850504e-02 
-8.338194e+00 5.497120e+00 3.410328e+00 -1.012729e+01 5.790834e-01 3.644195e+00 -8.388524e-01 -5.682605e+00 1.056046e+01 -6.238799e-01 4.214863e+00 1.014468e+01 8.254647e-04 1.117668e+00 4.924951e-01 8.754045e-01 -1.947639e+00 -2.118823e+00 -7.419123e-01 -1.913583e+00 -3.087773e-02 7.837407e-01 -1.520077e+00 -8.080405e-01 -5.184454e-01 1.244102e-02 
-7.673919e+00 5.537464e+00 5.583856e+00 -8.220260e+00 3.659353e-01 5.302899e+00 -2.164867e+00 -5.521789e+00 1.025702e+01 2.212186e+00 4.991533e+00 1.184798e+01 3.310639e-02 1.519462e+00 1.464174e+00 3.645926e-02 2.335965e-01 -1.165104e+00 -1.611748e+00 -8.096315e-01 -1.115896e+00 -2.011259e+00 5.285988e-02 -2.494468e+00 -1.403185e+00 -7.709867e-03 
-8.904772e+00 8.674785e+00 3.359631e+00 -2.180566e+00 -1.112432e-01 -6.446295e+00 1.199125e+00 -1.037958e-01 6.487947e+00 4.355149e+00 1.040819e+00 5.806742e+00 -1.046937e-01 1.235897e+00 1.336249e+00 -4.411023e-01 3.062516e+00 1.273076e+00 -1.491969e+00 1.401333e+00 -2.076139e-02 -3.370661e+00 5.411988e-01 -2.155223e+00 -1.822943e+00 -2.447030e-02 
-5.121026e+00 1.029079e+01 1.547512e+00 -2.751219e-02 4.267762e+00 -2.805498e+00 6.015158e-01 -8.118977e+00 -3.833756e-01 4.723995e+00 -2.241609e+00 7.186079e+00 -8.686376e-02 1.398087e+00 5.857763e-01 -7.388213e-01 2.901327e+00 2.125663e+00 -8.032934e-01 1.913260e+00 5.255070e-02 -2.505327e+00 -2.033773e-01 -1.755381e+00 -2.096820e+00 -8.459235e-03 
-3.435157e+00 9.801702e+00 3.222989e+00 1.088921e+00 4.993549e+00 2.385502e-01 4.784619e+00 -4.487819e+00 -9.726443e-01 8.262095e-01 -2.944681e+00 3.360923e+00 -6.154096e-02 1.223966e+00 -9.375757e-01 6.583469e-01 6.836378e-01 4.415551e-01 1.544256e+00 2.099589e+00 4.147136e-01 -2.137292e+00 -1.089437e+00 1.163811e+00 -5.703534e-01 3.407531e-02 
-3.418290e+00 7.902887e+00 1.958071e+00 4.651628e+00 8.441854e+00 -2.055991e+00 5.608683e+00 -3.067024e+00 1.460680e+00 2.959769e+00 -1.792621e+00 2.586794e+00 -3.076613e-02 2.716064e-04 -1.970042e+00 1.400149e+00 -1.206313e+00 -1.907928e+00 1.163688e+00 3.123668e+00 2.934443e+00 3.539851e-01 -1.661989e-01 4.098009e+00 1.279899e+00 4.589205e-02 
-3.636308e+00 5.180858e+00 6.446086e+00 -1.101948e+00 9.486198e-03 9.002316e-01 9.193485e+00 -5.562040e-01 -5.120540e+00 -2.099247e-01 6.635382e+00 5.254618e+00 3.763407e-02 -1.126485e+00 -1.436373e+00 1.877108e+00 -1.434987e+00 -2.474861e+00 9.666942e-01 1.958364e+00 1.464107e+00 1.050059e+00 1.523070e-01 4.099359e+00 3.091874e+00 3.420623e-02 
-5.019092e+00 2.751001e+00 6.936707e+00 -4.963643e+00 -2.779847e+00 2.682104e+00 1.401542e+01 4.587431e+00 3.460498e+00 4.411068e+00 1.345840e+01 1.263873e+01 9.300900e-02 -1.459144e+00 1.597846e-01 1.555282e+00 -1.925931e-01 -6.417288e-01 4.820204e-01 -2.216572e-01 8.899806e-01 9.567803e-01 -6.189978e-01 1.887905e+00 1.278399e+00 -6.121940e-03 
-8.267179e+00 5.195782e+00 1.011921e+01 -1.278377e+00 -1.769906e+00 2.702974e+00 1.037307e+01 -9.945124e-01 3.277740e+00 8.620954e-01 9.926598e+00 1.379432e+01 4.760265e-02 -8.556541e-01 1.016257e+00 -8.510192e-01 8.422962e-01 2.069923e+00 -1.287543e+00 -2.261582e+00 -7.349115e-01 1.183713e+00 -3.411710e-01 -1.202207e+00 -2.204819e-02 -4.070051e-02 
-8.398577e+00 8.694348e+00 7.897918e+00 3.776878e+00 6.122907e+00 -5.472603e-01 3.910604e+00 1.602033e+00 2.045441e+00 -6.712298e-01 6.001295e+00 4.708938e+00 -6.636012e-02 1.027559e+00 4.781373e-01 -3.119603e+00 1.180474e+00 2.459819e+00 -2.398570e+00 -4.107436e+00 -2.729572e+00 -1.419477e+00 -1.346642e+00 -3.052092e+00 -1.099279e+00 -3.688675e-02 
-6.224837e+00 7.290471e+00 1.710384e+00 -1.260727e+00 5.907723e+00 -3.922802e+00 2.937985e+00 -2.738063e+00 1.505551e+00 6.253691e-01 4.352899e+00 9.109272e+00 -8.618391e-02 9.856579e-01 -2.682350e+00 -3.443750e+00 -8.955103e-01 8.342769e-01 -2.620286e+00 -2.703331e+00 -1.405210e+00 1.841428e-01 1.336662e-01 -3.113779e+00 4.157000e-01 8.614085e-02 
-9.024706e-01 4.094343e+00 -4.456896e+00 9.299002e-01 5.680431e+00 -5.997859e+00 -2.804211e+00 -8.188657e+00 -2.750790e+00 -2.203779e+00 9.847958e-01 9.484859e+00 -2.453148e-02 8.978643e-02 -4.145876e+00 -1.638071e+00 -1.615907e+00 -9.071637e-01 -1.831505e+00 -7.599238e-01 -6.086242e-01 1.217851e+00 -2.073861e-01 -3.039474e+00 1.575761e+00 2.177890e-01 
-7.086942e+00 -5.915967e+00 -9.221330e-01 -4.332439e+00 2.622716e+00 -7.673158e+00 2.138209e-01 -3.125218e+00 6.596570e+00 2.296701e+00 -3.134047e+00 1.348486e+01 4.573926e-01 1.970617e+00 -1.648900e+00 6.936316e-02 -7.567604e-01 -1.571844e+00 3.205519e-01 4.869404e-02 2.170005e-02 7.629542e-01 6.324768e-04 -1.427389e+00 -1.366350e+00 2.282587e-01 
-7.518591e+00 -5.431815e+00 1.023822e+00 -2.766800e+00 3.229591e+00 -7.829608e+00 1.473068e+00 -1.247510e+00 5.589186e+00 -2.543827e+00 -5.452603e+00 1.039995e+01 7.507965e-01 3.741618e+00 -7.078332e-01 -5.841367e-01 -6.270130e-01 -3.778542e+00 3.153704e+00 -2.414216e+00 2.043880e+00 -1.565317e+00 3.808504e-01 1.212716e+00 -6.386206e+00 2.093740e-01 
6.936307e+00 3.809050e+00 -6.831589e-01 -3.196179e+00 -7.260780e-01 -1.404168e+00 1.042816e+00 -6.100136e+00 1.150334e+00 7.985551e-01 4.346542e-01 1.819977e+00 6.674455e-01 5.227028e+00 -2.256473e-01 -2.184650e+00 -2.479975e-01 -3.277021e+00 5.023870e+00 -4.258770e+00 1.552184e+00 -4.616426e+00 2.965398e-01 2.417944e+00 -8.980723e+00 1.193012e-01 
1.079399e+01 -4.307331e+00 -7.497066e+00 -2.773295e+00 -1.153788e+01 6.636167e+00 -1.528979e+01 3.518202e+00 -7.854256e+00 4.495459e-01 5.264024e+00 -1.661373e+01 9.173120e-01 3.637421e+00 -1.732425e+00 -2.635528e+00 -8.835611e-01 -1.918039e+00 5.115010e+00 -3.813946e+00 7.142782e-01 -4.223807e+00 8.608156e-01 1.992591e+00 -6.969091e+00 8.016025e-02 
9.891903e+00 -7.606445e+00 -7.584940e+00 -5.569180e+00 -6.378652e+00 1.021331e+01 -1.269860e+01 2.252843e+00 -9.763842e+00 2.282714e+00 3.597361e+00 -1.791191e+01 9.706410e-01 4.047265e-01 -2.920122e+00 -1.693718e+00 -7.799391e-01 1.709325e-01 3.543348e+00 -1.764832e+00 1.700230e-01 -2.380364e+00 1.567581e-01 2.784164e-01 -3.002665e+00 7.308613e-02 
9.190717e+00 -8.386192e+00 -8.702926e+00 -5.998106e+00 -3.534317e+00 1.193670e+01 -1.072596e+01 -1.852608e+00 -1.007276e+01 1.018172e+00 2.928998e+00 -1.457956e+01 1.000000e+00 -3.111729e-01 -1.041232e+00 -3.503479e-01 -6.066443e-01 1.909701e+00 1.741666e+00 1.539782e+00 -1.821666e+00 -8.088322e-02 -2.663032e-01 -4.971539e-01 5.642611e-01 1.710069e-02 
9.761579e+00 -8.752129e+00 -8.548820e+00 -5.483469e+00 -3.873197e+00 1.366230e+01 -1.006326e+01 -2.564616e+00 -9.642233e+00 1.298032e+00 2.994249e+00 -1.421043e+01 9.915321e-01 1.983455e-01 -9.739199e-02 -3.613442e-01 -6.070090e-03 1.050625e+00 5.232447e-01 8.605582e-01 -1.318583e+00 1.074656e+00 -2.070350e-01 -6.536759e-01 1.230938e-01 1.063150e-03 
9.303292e+00 -8.940652e+00 -8.766866e+00 -5.849372e+00 -3.242100e+00 1.362000e+01 -8.908549e+00 -3.181400e+00 -8.319477e+00 -3.896294e-01 3.079810e+00 -1.564316e+01 9.923698e-01 6.345702e-01 1.070480e-02 9.637614e-02 -4.032997e-01 1.101883e+00 -3.096169e-01 3.847770e-01 -7.178530e-01 2.116917e+00 -9.740833e-02 -1.076519e+00 -3.681471e-01 -6.632042e-03 
1.082734e+01 -7.816175e+00 -9.359691e+00 -5.673897e+00 -1.271633e+00 1.198788e+01 -9.304513e+00 -3.675677e+00 -5.267206e+00 1.951439e+00 2.535753e-01 -1.676464e+01 9.797718e-01 6.612347e-01 -5.549240e-03 9.680538e-02 -5.562828e-01 1.277790e+00 -1.020035e+00 -2.229351e-01 -1.066240e+00 2.241538e+00 -1.211556e-01 -2.030889e+00 5.151867e-01 -8.841395e-03 
1.183069e+01 -8.800645e+00 -7.815610e+00 -7.919390e+00 6.743178e-01 1.122583e+01 -9.181445e+00 -4.886343e+00 -1.675691e+00 2.044270e-01 -1.083260e+00 -1.514319e+01 9.727200e-01 4.863089e-01 -1.610756e-03 -2.497101e-02 4.417276e-02 1.421147e+00 -1.390151e+00 -1.100810e+00 -7.285469e-01 2.454820e+00 -1.441733e+00 -1.511060e+00 1.391958e+00 -1.367838e-02 
1.180406e+01 -8.849878e+00 -8.540421e+00 -7.229874e+00 5.575471e-01 9.759212e+00 -1.104149e+01 -7.043346e+00 -1.756435e+00 3.952262e-01 -5.078660e+00 -1.188449e+01 9.571501e-01 -4.622321e-02 -7.101469e-02 3.738413e-02 5.679945e-01 8.736773e-01 -1.207775e+00 -1.324083e+00 2.201404e-01 1.191764e+00 -2.227341e+00 -6.700136e-01 1.567934e+00 -1.549811e-02 
1.124648e+01 -8.431854e+00 -9.301355e+00 -4.850520e+00 2.949045e+00 7.783577e+00 -1.354411e+01 -5.140300e+00 2.199240e+00 -6.820189e+00 -1.809370e+00 -1.112345e+01 9.352888e-01 -2.774985e-01 -7.099304e-02 1.964456e-01 1.383751e+00 -4.145314e-01 -6.916972e-01 -1.018132e+00 8.276358e-01 6.491484e-02 -1.483026e+00 -2.724017e-01 1.280255e+00 -1.819096e-02 
1.088833e+01 -8.355644e+00 -8.429897e+00 -4.368360e+00 1.959390e+00 7.670133e+00 -1.374359e+01 -2.447996e+00 -1.245852e+00 -5.672959e+00 -2.733438e+00 -1.093484e+01 9.209968e-01 -3.678022e-01 -1.398729e-01 7.285458e-01 7.831274e-01 -9.758040e-01 1.789419e-01 -4.891642e-01 1.068844e+00 -7.205877e-01 -4.781327e-02 -1.833786e-01 6.664785e-01 -1.560915e-02 
1.090106e+01 -9.402727e+00 -6.888644e+00 -2.431395e+00 -2.099260e+00 8.811882e+00 -1.292105e+01 -3.045839e+00 -1.606408e+00 -4.176611e+00 -3.617880e+00 -9.216738e+00 8.998418e-01 -4.338517e-01 -2.686073e-01 1.036057e+00 1.478895e-01 -1.383744e+00 6.716048e-01 6.006946e-02 3.280430e-01 -7.260617e-01 9.873422e-01 -6.631030e-01 4.158783e-01 -1.231741e-02 
1.013776e+01 -9.063807e+00 -6.104048e+00 -4.523800e+00 -1.797320e+00 1.013977e+01 -1.379884e+01 -2.746356e+00 -3.456550e+00 -1.165629e+00 -5.091298e+00 -9.505449e+00 8.968279e-01 -2.997703e-01 8.864126e-02 4.640580e-01 -3.776016e-02 -8.269299e-01 6.775013e-01 8.479118e-02 -6.594829e-02 2.414479e-01 3.296356e-02 3.708058e-01 -2.586903e-01 -8.150774e-03 
9.452509e+00 -9.420810e+00 -5.283993e+00 -4.033352e+00 -2.091322e+00 9.906782e+00 -1.321614e+01 -3.350905e+00 -3.257198e-01 -4.137143e+00 -3.945955e+00 -9.758757e+00 8.857862e-01 -7.134070e-02 1.998129e-01 1.419700e-01 -2.532433e-01 -1.680742e-01 6.355268e-01 4.268265e-03 1.947976e-01 -1.727494e-01 -1.404114e-02 7.649575e-01 -5.897587e-01 -3.245699e-03 
1.011375e+01 -7.903397e+00 -6.911933e+00 -3.756181e+00 -2.179229e+00 1.051019e+01 -1.317209e+01 -2.625205e+00 -6.789565e-01 -5.527875e+00 -7.153709e-01 -1.195728e+01 8.872707e-01 2.192977e-01 8.139982e-02 1.624799e-01 -4.261427e-02 -2.360757e-01 5.635914e-01 4.537539e-01 -4.395390e-02 -2.351845e-01 -1.918728e-01 1.168204e+00 -3.779756e-01 -1.879519e-03 
1.055635e+01 -8.983868e+00 -5.774852e+00 -4.081420e+00 -2.748677e+00 1.180431e+01 -1.321309e+01 -2.132427e+00 -3.858952e+00 -2.065694e+00 -1.981056e+00 -1.093961e+01 8.883919e-01 1.868348e-01 4.169369e-02 1.187249e-01 -2.163334e-02 -2.346488e-01 6.097187e-01 1.722105e-01 3.691776e-01 -9.199072e-01 3.673537e-01 7.886736e-01 -1.353012e-01 4.073977e-05 
1.068232e+01 -8.875278e+00 -5.046219e+00 -4.712837e+00 -2.649021e+00 1.200896e+01 -1.153160e+01 -3.575365e+00 -2.865857e+00 -3.160717e+00 -2.327290e-01 -1.080490e+01 8.861275e-01 -1.644416e-01 -9.904480e-02 2.054800e-01 -3.782368e-03 1.057196e-01 -1.129808e-01 4.467142e-01 4.041553e-03 -5.308393e-01 9.066329e-02 5.968047e-01 -2.994633e-01 5.856454e-04 
1.010240e+01 -8.726400e+00 -5.623225e+00 -3.663191e+00 -3.029670e+00 1.220599e+01 -1.317534e+01 -1.029937e+00 -3.831806e+00 -3.483953e+00 -2.439079e-01 -1.101146e+01 8.865616e-01 -5.933293e-01 -8.594523e-02 -2.359295e-02 5.025722e-01 -6.283160e-02 -5.382463e-01 3.858463e-01 3.283795e-01 -3.207506e-01 -5.395905e-01 8.493137e-01 -5.589527e-01 1.701462e-03 
9.518522e+00 -8.527354e+00 -5.960346e+00 -3.984208e+00 -1.510135e+00 9.744444e+00 -1.095740e+01 -3.156242e+00 -3.346726e+00 -4.365429e+00 1.400079e+00 -1.341868e+01 8.911141e-01 -8.657607e-01 -2.381841e-01 1.832883e-01 9.546336e-01 2.403207e-01 -1.032017e+00 6.193670e-01 9.129509e-01 -1.645706e-01 -3.048445e-01 7.697280e-02 1.598991e-01 3.115803e-03 
8.171608e+00 -9.587556e+00 -5.435753e+00 -1.932874e+00 -3.632278e+00 1.024533e+01 -1.157096e+01 -7.000908e-01 -5.222270e+00 -4.161291e+00 1.449109e+00 -1.242749e+01 8.944058e-01 -7.111226e-01 -1.443178e-01 5.091697e-01 9.196488e-01 8.602981e-02 -7.249820e-01 1.291727e+00 6.107175e-01 2.691961e-01 -3.214236e-01 -2.021277e-02 5.153229e-01 1.053512e-03 
7.318913e+00 -9.635621e+00 -4.223514e+00 -8.048277e-01 -1.146113e+00 7.829204e+00 -9.236955e+00 8.244662e-01 -2.993477e+00 -4.346271e+00 -6.943734e-01 -9.297388e+00 8.977844e-01 -4.906651e-01 -2.230494e-01 4.304411e-01 5.215237e-01 -1.872937e-01 -1.181425e+00 1.024191e+00 4.324624e-01 -3.140046e-01 -6.977085e-01 -1.202896e+00 1.202950e+00 -3.268349e-03 
7.646589e+00 -8.893856e+00 -3.945793e+00 -6.546370e-01 -2.781531e+00 9.538698e+00 -7.576921e+00 3.329666e-02 -2.662449e+00 -5.100650e+00 7.022543e-01 -1.049549e+01 8.884940e-01 -2.007733e-01 -1.024075e-02 4.423119e-01 1.083579e-01 -4.492425e-01 -1.334295e+00 8.277078e-01 6.005080e-01 -9.791449e-01 -9.669727e-01 -1.400603e+00 1.069639e+00 -6.385416e-03 
7.327706e+00 -9.989451e+00 -4.553121e+00 -2.015708e+00 -2.871977e+00 4.190638e+00 -7.833460e+00 -1.360624e+00 -6.196660e+00 -7.384292e+00 -4.240975e+00 -8.369931e+00 8.777283e-01 -1.963999e-01 2.269572e-01 2.872536e-01 -5.372398e-02 -1.655520e+00 -1.250944e+00 5.214273e-01 9.818119e-01 -2.227493e+00 -1.329098e+00 -1.518756e+00 1.165059e+00 -7.418710e-03 
7.163345e+00 -9.461844e+00 -3.059390e+00 -7.856439e-01 -5.015559e+00 5.393141e+00 -8.134164e+00 3.394994e+00 -8.516403e+00 -7.477144e+00 -3.780606e+00 -7.543019e+00 8.725068e-01 -3.121739e-01 5.189866e-01 3.875948e-01 8.272009e-02 -1.919133e+00 -1.570181e+00 1.048233e+00 1.201836e+00 -2.149644e+00 -1.295917e+00 -1.499387e+00 1.618634e+00 -6.664461e-03 
6.578536e+00 -8.216841e+00 -3.230447e+00 -1.007944e+00 -8.306701e+00 3.647260e+00 -6.351197e+00 4.052677e+00 -1.120396e+01 -9.803513e+00 -6.046721e+00 -4.948327e+00 8.686844e-01 -4.210258e-01 1.152006e+00 5.629755e-01 2.894573e-01 -2.789052e+00 -7.491356e-01 1.656992e+00 9.300364e-01 -1.222167e+00 -1.223441e+00 -1.500290e-01 1.067846e+00 -8.268505e-03 
6.460305e+00 -7.185228e+00 -2.669156e+00 -7.449185e-01 -9.659837e+00 1.959482e+00 -3.076886e+00 3.335827e+00 -1.090702e+01 -1.037062e+01 -5.891806e+00 -4.113121e+00 8.596936e-01 -4.853870e-01 1.236125e+00 7.493690e-01 -3.347429e-01 -2.908855e+00 -1.196508e+00 2.005490e+00 -4.306102e-01 -3.471958e-01 -8.633189e-01 3.670020e-02 6.303897e-01 -1.189603e-02 
5.574098e+00 -5.367730e+00 -1.933361e+00 -5.887842e-01 -1.449510e+01 2.161790e+00 -2.077138e+00 3.319142e+00 -1.111219e+01 -1.205476e+01 -3.935520e+00 -4.745651e+00 8.427923e-01 -4.162038e-01 1.372059e+00 1.753869e+00 -7.015568e-01 -2.770975e+00 -8.723181e-01 2.146907e+00 -1.802699e-01 4.222038e-01 1.438955e-01 9.381097e-01 2.465679e-01 -1.443083e-02 
5.238629e+00 -4.705777e+00 3.891182e-02 -2.668938e+00 -1.646564e+01 1.533360e-01 -2.437439e-01 1.608711e+00 -1.029827e+01 -1.066812e+01 -4.652705e+00 -4.492409e+00 8.259727e-01 -2.884356e-01 1.398664e+00 1.870570e+00 -7.844720e-01 -3.104970e+00 -1.150230e+00 1.415863e+00 -2.391777e-01 6.152180e-01 3.922429e-01 1.029061e+00 -1.894021e-01 -1.449551e-02 
5.108355e+00 -2.596272e+00 4.184865e+00 -3.553718e+00 -1.875867e+01 1.887429e-01 2.966769e+00 4.014885e+00 -9.397318e+00 -8.935289e+00 -1.975723e+00 -3.525844e+00 8.133907e-01 -1.614438e-01 1.040579e+00 1.889923e+00 -1.040252e+00 -2.583884e+00 -2.218768e+00 5.191002e-01 -1.889509e-01 -1.704941e-02 9.787116e-01 2.953658e-01 -2.312133e-01 -1.209824e-02 
5.250998e+00 -1.577636e+00 3.624581e+00 -3.184811e+00 -2.305289e+01 -2.805146e+00 1.480474e+00 1.792067e+00 -8.688364e+00 -9.969145e+00 -1.726400e+00 -5.670035e+00 8.019169e-01 1.763616e-01 9.231106e-01 1.828959e+00 -2.488052e-01 -2.053775e+00 -2.632113e+00 1.820377e-01 -1.467875e-01 -6.370354e-02 1.433627e+00 4.302203e-01 -8.940649e-02 -1.112247e-02 
4.760695e+00 -1.728904e+00 5.723421e+00 -5.532109e+00 -2.412089e+01 -7.452808e+00 -3.437457e-01 2.282710e+00 -1.200239e+01 -7.510685e+00 -3.921844e+00 -5.312904e+00 7.943290e-01 2.343612e-01 8.192064e-01 1.471710e+00 2.533687e-01 -1.177731e+00 -3.568569e+00 -5.756461e-01 -9.637022e-01 -4.624225e-01 8.695785e-01 2.436551e-01 -3.766949e-01 -1.706984e-02 
6.294268e+00 -5.239081e-01 8.414430e+00 -2.923769e+00 -2.405341e+01 -9.186453e+00 2.321702e+00 1.740861e+00 -9.314253e+00 -4.212283e+00 -1.528543e+00 -4.045911e+00 7.798912e-01 1.772576e-01 9.848869e-01 1.805616e+00 8.726912e-01 -3.860687e-01 -3.941114e+00 -6.988524e-01 -6.775209e-01 -1.101992e+00 6.083756e-02 3.376098e-01 1.182596e-01 -2.220004e-02 
5.758526e+00 9.728961e-01 9.148493e+00 -2.417396e+00 -2.414708e+01 -1.446345e+01 -3.320756e-01 -7.780229e-01 -1.139649e+01 -7.465828e+00 -8.563759e-01 -6.221380e+00 7.390544e-01 2.549294e-01 9.435538e-01 1.311552e+00 2.048687e+00 -6.258793e-02 -3.742479e+00 -2.140745e+00 -1.252413e+00 -5.244292e-01 -1.130666e+00 4.994795e-01 2.784710e-02 -2.612342e-02 
5.638371e+00 1.995899e+00 1.094012e+01 -3.787125e-01 -2.497014e+01 -1.900540e+01 -2.019623e+00 -6.517211e-02 -1.450127e+01 -9.687386e+00 -1.571085e+00 -4.624499e+00 7.185540e-01 3.661081e-01 9.270554e-01 5.129229e-01 3.229626e+00 1.287791e+00 -3.594979e+00 -2.765424e+00 -1.026317e+00 -1.301916e-01 -1.185531e+00 7.404945e-01 2.179932e-01 -3.238800e-02 
6.363290e+00 1.728961e+00 1.101833e+01 3.438795e+00 -2.397546e+01 -2.125573e+01 -8.876810e+00 -3.076337e+00 -1.203102e+01 -1.042646e+01 -1.403176e+00 -4.884375e+00 6.943805e-01 3.516030e-01 6.063634e-01 3.835298e-01 2.486641e+00 3.575160e+00 -1.985746e+00 -1.445054e+00 -2.115092e+00 1.137082e+00 4.860916e-02 3.163976e-01 1.121296e+00 -4.889573e-02 
7.822426e+00 3.733336e+00 1.004412e+01 1.029626e+01 -1.770026e+01 -2.376521e+01 -7.233052e+00 -2.241565e+00 -9.647942e+00 -8.659622e+00 2.447329e+00 -3.624448e+00 6.402881e-01 -6.929265e-02 4.930180e-01 -7.678051e-02 -4.022176e-01 4.838763e+00 -1.447510e-01 5.798389e-01 -1.845495e+00 3.230956e+00 3.540043e-01 -1.289745e+00 1.109913e+00 -6.512026e-02 
6.424513e+00 3.135994e+00 1.151414e+01 4.678320e+00 -9.906215e+00 -2.201227e+01 -4.950633e+00 -1.026528e+01 -8.137743e+00 -7.736664e+00 -1.283595e+00 -1.114926e+00 5.337087e-01 -7.302449e-01 6.490260e-01 -6.150181e-01 -2.362518e-02 6.341885e+00 1.752858e+00 2.848166e+00 -2.006413e+00 1.002071e+00 1.964537e-01 -2.509656e+00 3.667859e-01 -8.086348e-02 
5.261296e+00 3.757472e+00 1.030832e+01 -3.009563e+00 -7.810953e+00 -1.935088e+01 -1.083517e+00 -5.698171e+00 -2.931352e-01 -9.262264e+00 -8.079602e+00 -9.596596e-01 4.732886e-01 -1.693167e+00 1.374386e+00 -1.229563e+00 4.206651e-01 5.335093e+00 3.662659e+00 1.901753e+00 -1.598325e+00 -9.029213e-01 2.386390e-01 -3.550014e+00 -5.730123e-02 -9.641684e-02 
3.992631e+00 4.962024e+00 7.811147e+00 9.973582e+00 2.789310e+00 -1.469860e+01 2.289254e+00 -1.138010e+01 -1.169807e+01 -9.142876e+00 -8.687991e+00 -4.382839e+00 3.735629e-01 -1.958040e+00 1.384556e+00 -2.251772e+00 1.422057e+00 3.210814e+00 4.265348e+00 1.661146e+00 2.109332e+00 -2.312508e-02 6.100793e-01 -8.788822e-01 2.865642e-01 -1.020972e-01 
5.725327e-01 9.692252e+00 5.747807e+00 9.751957e+00 2.627438e+00 -9.108743e+00 -1.344232e+00 -9.675783e+00 -1.238238e+01 -6.763321e+00 -1.160054e+01 -2.276998e+00 2.382768e-01 -1.770595e+00 2.237163e-01 -2.944025e+00 -4.131265e-01 1.199121e+00 2.903269e+00 1.895474e+00 3.271543e+00 1.827372e+00 2.052758e+00 2.208108e+00 2.302806e+00 -9.937161e-02 
-1.021306e+00 7.091383e+00 2.535537e+00 5.407845e+00 9.286599e-01 -5.806599e+00 3.485456e+00 2.270183e+00 -2.208745e+00 -5.935739e+00 -3.917535e+00 9.765635e-01 1.407285e-01 -2.321380e+00 3.217501e-01 -5.736881e-01 -1.668888e+00 1.312425e+00 1.659363e+00 2.011728e+00 3.595127e+00 5.556458e+00 3.815376e+00 3.502010e+00 4.025622e+00 -8.246426e-02 
-1.084711e+00 3.811374e+00 -1.774004e+00 -2.792326e+00 -8.850222e-01 -9.280540e+00 7.795754e+00 3.834405e+00 4.099058e+00 -6.020436e-01 5.757117e-01 7.874671e+00 9.284770e-02 -1.912333e+00 1.295478e-01 1.134438e+00 -6.304856e-01 2.143668e+00 1.634919e+00 3.619586e+00 2.101187e+00 6.237990e+00 4.050056e+00 1.646397e+00 2.527796e+00 -5.065687e-02 
-6.785648e+00 9.511213e+00 8.703611e+00 7.901282e+00 1.110767e+01 -6.315892e+00 7.777903e+00 -1.595552e-01 7.843500e+00 6.853368e+00 2.733929e+00 1.066944e+01 3.395611e-02 -1.105641e+00 1.626861e+00 2.146553e+00 5.918590e-01 1.908723e+00 1.316500e+00 2.104503e+00 -1.559777e+00 3.002815e+00 3.322044e+00 1.260798e-01 9.086081e-01 -2.521492e-02 
-6.106962e+00 9.130075e+00 8.335960e+00 5.352810e+00 8.256275e+00 -6.795020e-01 1.460747e+01 2.045024e+00 1.378144e+01 7.092403e+00 -6.694291e+00 5.515548e+00 3.837872e-02 -9.663973e-02 1.276771e+00 1.106219e+00 1.093401e+00 1.606938e+00 1.616414e+00 5.100120e-01 -8.753527e-01 1.129686e+00 2.068170e+00 -8.966891e-01 -9.461857e-01 -7.024860e-03 
-4.038385e+00 1.256634e+01 8.213316e+00 4.294571e+00 5.901627e+00 -3.524615e+00 1.060211e+01 -4.634013e+00 7.964138e+00 6.827254e+00 3.478649e-01 6.699165e+00 4.188842e-02 1.053756e+00 -5.626788e-01 -1.688554e+00 -1.219407e+00 -2.611562e-01 4.902659e-01 -2.828248e-01 1.275154e+00 -1.909619e+00 7.804778e-01 -9.327127e-01 -1.815755e+00 6.952816e-03 
-2.941541e+00 8.667668e+00 4.002238e+00 4.478037e+00 9.752689e+00 -2.594107e+00 8.933708e+00 1.694871e+00 9.687169e+00 9.751862e+00 -2.714702e+00 5.128878e+00 5.375725e-02 6.210537e-01 -5.905885e-01 -9.798702e-01 -1.067453e+00 -1.132329e+00 -5.822864e-02 -1.213464e+00 2.150742e+00 -4.021818e+00 3.753443e-01 9.561865e-01 -1.820153e+00 6.780851e-03 
-3.099578e+00 6.929023e+00 2.427703e+00 2.241633e+00 9.053679e+00 -2.907260e+00 9.200661e+00 6.391292e+00 3.425403e-01 9.426027e+00 -3.919430e+00 1.783995e+00 6.103092e-02 1.101494e-04 -1.107292e+00 -9.842348e-01 2.344402e-01 1.343637e-01 9.059104e-01 -2.191099e+00 1.714516e+00 -2.121489e+00 -2.868538e-01 9.862694e-01 -1.652467e+00 9.197110e-03 
-3.471097e+00 8.995790e+00 6.329416e+00 1.042015e+00 1.018604e+00 -1.279323e+00 9.240877e+00 7.286083e+00 -2.516849e+00 7.669738e+00 2.202885e-01 -1.127631e+00 6.271172e-02 3.963318e-01 -1.593972e+00 -9.032539e-01 1.910074e+00 2.952325e-01 1.768708e+00 -3.884630e-01 -2.935289e-01 -8.156689e-01 -6.320023e-01 1.859309e+00 -3.977936e-01 1.316375e-02 
-3.773057e+00 6.865815e+00 2.128553e+00 7.184783e+00 1.094049e+01 3.475447e-01 -5.069642e-01 1.142962e+00 3.458702e+00 6.434047e+00 3.811716e+00 1.565086e+00 8.339673e-02 8.382406e-01 -2.962008e+00 -1.433844e+00 2.610255e+00 1.787713e+00 1.601006e+00 5.357438e-01 4.048129e-01 2.065723e+00 -5.491008e-01 1.286815e+00 1.299572e+00 2.274929e-02 
-6.231432e-01 7.294106e-01 -3.644567e-01 1.155683e+01 1.028545e+01 4.622032e+00 1.184521e+01 2.851391e+00 4.050743e+00 8.087841e+00 2.716271e+00 3.249364e+00 1.083931e-01 5.433058e-01 -4.414864e+00 -2.832737e+00 1.528230e+00 1.813369e+00 9.512069e-02 1.298197e+00 1.665103e+00 3.326514e+00 -6.973896e-02 7.071383e-02 1.911871e+00 3.349175e-02 
-3.323517e-01 -3.747828e+00 -1.394583e+00 1.003550e+01 1.335882e+01 2.147091e+00 1.057722e+01 1.063270e+01 7.387361e+00 6.471472e+00 1.266654e+00 6.093358e+00 1.519367e-01 3.354015e-01 -3.482889e+00 -2.563649e+00 -9.607750e-01 -9.358879e-01 -9.446129e-01 1.830738e+00 2.230996e+00 1.421992e+00 -6.835991e-01 -1.695097e+00 5.134717e-01 2.693840e-02 
-2.474920e+00 -7.771708e+00 -6.072702e+00 7.257811e+00 8.876282e+00 -1.703493e+00 1.018977e+01 1.086672e+01 1.215139e+01 7.302331e+00 1.846389e+00 6.167587e+00 1.959005e-01 -2.033833e-01 -1.067076e+00 -2.078136e+00 -1.938445e+00 -9.436932e-01 -1.420881e+00 -8.235890e-01 -3.818630e-01 1.173793e-01 -1.007221e+00 -1.499577e+00 -5.278140e-01 5.560905e-03 
-1.170161e+00 -6.298072e+00 -7.835570e+00 4.530419e+00 6.965632e+00 -1.212758e+00 9.474442e+00 8.290277e+00 6.518335e+00 3.408807e+00 -4.228827e+00 2.673333e+00 1.743350e-01 -5.059876e-02 7.416649e-01 -1.522577e+00 -9.848306e-01 -1.590229e-01 -4.670072e-01 -1.139225e+00 -2.328596e+00 -5.600022e-01 -8.353056e-01 -6.722131e-01 -4.762291e-01 -1.372259e-02 
-1.221155e+00 -3.330849e+00 -7.534642e+00 4.617147e+00 8.763577e+00 -8.024490e-01 8.278646e+00 2.113289e+00 5.072152e+00 4.583068e+00 -2.033875e+00 2.320306e+00 1.249985e-01 -2.941895e-01 1.476569e+00 7.068062e-03 -7.894073e-01 -4.734988e-02 -1.223865e+00 -2.444161e+00 -1.843208e+00 -3.749477e-01 -6.379290e-01 2.787428e-01 2.723949e-02 -3.506571e-02 
-1.212228e+00 -2.259933e+00 -8.276500e+00 6.431676e+00 1.262006e+01 -6.384668e-01 5.836654e+00 3.366441e+00 8.126969e+00 3.654576e+00 -1.542795e-01 5.635853e+00 1.187748e-01 -8.383436e-01 9.892610e-01 8.207237e-01 -4.602348e-01 -3.879595e-01 -1.862153e+00 -2.654725e+00 -1.446254e+00 6.306050e-01 -7.424222e-01 1.086829e+00 1.131020e+00 -3.577959e-02 
-3.924834e+00 -2.407931e+00 -5.816897e+00 2.360146e+00 5.812318e+00 -8.109962e+00 -2.121425e-01 4.112604e+00 9.472336e+00 3.989801e+00 1.202829e+00 4.822525e+00 4.835206e-02 -1.094852e+00 4.835921e-01 4.543771e-01 -7.582587e-01 -5.744365e-01 -1.552315e+00 -9.903843e-01 -7.879849e-01 8.088263e-02 -3.462951e-01 7.493811e-01 2.439132e+00 -3.772341e-02 
-4.010040e+00 -1.813226e+00 -4.590824e+00 3.357746e+00 6.501464e+00 -6.869766e+00 4.462113e-01 5.935142e-02 7.471269e+00 -6.670475e-03 -4.130323e-01 7.077322e+00 3.376025e-02 -9.874587e-01 1.187529e+00 5.029505e-01 -1.287120e+00 -7.045339e-01 4.661487e-01 1.244966e+00 6.259836e-01 -4.009929e-01 3.769542e-02 1.931038e-01 1.965719e+00 -3.950981e-02 
-5.296507e+00 -1.136241e+00 -7.105595e+00 2.362819e+00 8.950692e+00 -5.448372e+00 6.021946e+00 -1.730907e-01 5.804415e+00 4.682216e+00 1.842407e+00 1.379523e+01 -2.111137e-02 -5.699729e-01 1.726161e+00 4.753578e-01 -6.463460e-01 4.031525e-01 2.615003e+00 3.161827e+00 1.563132e+00 -2.599241e-01 1.374731e-01 4.258295e-01 9.326116e-01 -3.676067e-02 
-5.463685e+00 3.041869e+00 -5.117398e+00 -5.259514e-03 7.528203e+00 3.614814e-01 8.944439e+00 8.639206e+00 7.955966e+00 3.496846e+00 4.914508e-01 1.097810e+01 -4.404259e-02 -1.082730e+00 1.933972e+00 1.000968e+00 -1.336296e+00 -4.681737e-01 2.244977e+00 1.735611e+00 1.680545e+00 6.093925e-01 -1.105284e-01 2.167862e-02 -1.889764e-01 -3.113357e-02 
-6.047876e+00 3.795328e+00 -3.176821e+00 8.099180e-01 7.314711e+00 1.349428e+00 1.134788e+01 7.638338e+00 7.930367e+00 2.925409e+00 2.879735e+00 7.535196e+00 -9.654987e-02 -1.575012e+00 1.256500e+00 2.095361e+00 -1.192761e+00 -9.847007e-01 1.149419e+00 2.177611e-01 7.681963e-01 3.038871e-01 3.251854e-01 5.154086e-01 -1.785426e+00 -1.672071e-02 
-9.048006e+00 5.390850e+00 -1.550369e+00 -2.547284e+00 4.978586e+00 9.562211e-01 6.461299e+00 4.556361e+00 9.455256e+00 3.190908e-01 -8.233035e-01 9.262457e+00 -8.418834e-02 -1.660683e+00 8.822260e-01 2.421368e+00 -1.368248e-01 -5.062885e-02 5.482874e-02 -1.319509e+00 -2.465919e+00 -6.631417e-01 1.095593e+00 3.911323e-01 -1.559523e+00 -1.110730e-02 
-1.137941e+01 3.971766e+00 1.587694e+00 -2.329976e+00 5.301997e+00 1.353741e-03 8.352322e+00 5.709314e+00 6.574206e+00 7.897020e+00 5.076827e+00 5.725920e+00 -8.464205e-02 -1.229901e+00 7.978989e-01 1.848915e+00 2.836372e-01 5.427820e-01 2.570651e-01 -6.629202e-01 -1.709173e+00 -4.573532e-01 1.554514e+00 2.549526e-01 -9.775282e-01 -5.075789e-03 
-1.110133e+01 7.364780e+00 4.607186e+00 8.805636e-01 8.281415e+00 1.309662e+00 3.844671e+00 -2.725876e+00 5.318338e+00 6.489006e+00 1.348566e+00 4.085120e+00 -1.055330e-01 -5.520126e-01 4.981278e-01 7.591990e-01 1.056399e+00 1.589126e+00 5.039276e-01 1.772144e-01 -1.592492e-01 4.906906e-01 2.348762e+00 1.071880e+00 -5.242437e-01 -1.328278e-03 
-1.117072e+01 6.797857e+00 2.988978e+00 5.141801e-01 8.377206e+00 2.458033e+00 9.341591e+00 2.733590e+00 7.712060e+00 7.613022e+00 3.068563e+00 5.236223e+00 -1.112565e-01 -1.877092e-01 4.097017e-01 -3.147624e-01 7.717280e-01 1.527442e+00 5.430189e-01 8.895636e-04 7.051178e-01 1.555259e+00 1.433166e+00 5.118470e-01 5.121303e-01 4.224956e-03 
-1.191241e+01 6.468443e+00 1.544983e+00 1.312631e+00 1.138661e+01 2.247519e+00 6.852736e+00 5.247977e+00 1.133978e+01 1.220490e+01 5.540230e+00 6.886087e+00 -7.752252e-02 -2.363853e-01 -2.122088e-01 -7.568401e-01 1.662585e-01 9.219794e-01 1.665201e-01 3.527278e-01 1.846209e+00 1.567061e+00 1.602367e+00 1.085500e+00 7.251799e-01 8.975494e-03 
