-4.903274e+00 3.237531e+00 -2.449394e+00 -1.139555e+00 3.453962e+00 1.619413e+00 5.384991e+00 7.990214e+00 6.348269e+00 4.106730e+00 -3.074448e+00 -8.824542e-01 -1.512927e-01 -1.363272e-01 1.086154e-01 -1.324428e-01 -4.684498e-01 -8.156246e-01 4.353228e-01 -5.848575e-01 1.483084e-01 -9.700327e-01 -1.536092e+00 3.296983e-01 9.460312e-01 0.000000e+00 
-5.140435e+00 2.820639e+00 -3.106007e+00 -1.607743e+00 3.374653e+00 5.290584e+00 2.041399e+00 5.827968e+00 3.898164e+00 -1.291576e+00 -5.396278e+00 -8.806310e-01 -1.512927e-01 3.148232e-02 4.231248e-01 -6.277056e-02 -3.330648e-01 -1.482968e-01 4.375325e-01 -2.371762e-01 8.462033e-02 -2.232752e-01 -2.584888e-01 7.726442e-01 1.351614e+00 0.000000e+00 
-5.466329e+00 3.989053e+00 -2.783301e+00 -3.247711e+00 -5.845070e-01 1.960442e+00 4.132499e+00 9.812879e+00 2.723158e+00 -8.745757e-01 -2.650416e-01 3.846790e+00 -1.512927e-01 6.396170e-02 -1.735719e-01 -5.120944e-01 -8.724376e-02 -2.824117e-02 -3.139088e-01 -1.164466e+00 -3.376922e-01 8.229704e-02 3.610125e-01 9.615337e-01 1.961450e+00 0.000000e+00 
-4.464334e+00 4.977393e+00 -2.596293e+00 -1.750801e+00 4.731712e+00 3.636561e+00 4.825355e+00 7.501983e+00 7.044448e+00 5.304939e+00 -6.159297e-01 3.510993e+00 -1.512927e-01 1.855001e-01 6.379018e-02 -9.880930e-02 2.115932e-02 4.975039e-01 -1.459061e-01 -5.744588e-01 -1.273520e+00 -3.157305e-01 1.264449e+00 1.755569e+00 1.267377e+00 0.000000e+00 
-4.921515e+00 1.291294e+00 -5.264723e+00 -1.504245e+00 2.634226e+00 8.768803e-01 -1.829317e+00 5.464746e+00 5.186612e+00 2.613535e+00 -6.569528e-01 6.728983e+00 -1.512927e-01 1.936312e-02 1.057185e-01 1.992571e-01 6.979433e-01 7.138401e-01 -3.410473e-01 -8.465629e-01 -2.054166e+00 -8.668173e-01 -8.524211e-02 8.052615e-01 -1.680713e-02 0.000000e+00 
-4.485341e+00 4.488470e+00 -2.359343e+00 -2.373679e+00 4.252806e+00 5.102834e+00 2.150013e+00 1.634435e+00 1.087784e+00 3.286612e+00 3.577525e+00 4.015160e+00 -1.512927e-01 -5.317049e-01 1.586946e-01 4.535661e-01 2.620085e-01 2.142155e-01 -5.600239e-01 -2.395782e-01 -1.296750e+00 -1.274182e+00 -9.380010e-01 1.625850e+00 -1.953629e-01 0.000000e+00 
-5.359010e+00 4.762107e+00 -1.905491e+00 5.534449e-01 3.224147e+00 -4.779317e-01 1.237356e+00 2.475824e+00 1.367403e+00 -2.916229e-01 1.664539e+00 3.510672e+00 -1.512927e-01 -5.415053e-01 5.617175e-01 7.209055e-01 -2.233357e-01 -4.498626e-02 -9.095583e-02 6.360261e-01 -5.015903e-01 -1.065183e+00 -1.940741e-01 1.972661e+00 6.272184e-01 0.000000e+00 
-6.904112e+00 4.035459e+00 -2.008079e+00 -1.469604e+00 5.507829e+00 1.513848e+00 2.094128e+00 2.512691e+00 2.583142e+00 2.067513e+00 6.352577e+00 4.143335e+00 -1.512927e-01 -4.304931e-01 -5.525236e-01 -3.376425e-01 -1.721901e-01 7.773793e-02 -7.407802e-01 -1.981707e-01 5.521771e-01 -3.121309e-01 7.560515e-01 9.381436e-01 5.904703e-01 0.000000e+00 
-6.419657e+00 4.326387e+00 -1.835828e+00 -3.072961e+00 1.781783e+00 2.216594e+00 1.378756e+00 2.517666e+00 -8.869840e-01 2.252715e+00 7.818828e+00 9.800987e+00 -1.512927e-01 -2.532253e-01 -6.575328e-01 -2.906839e-01 -2.802650e-01 -7.202966e-01 7.607313e-01 1.057657e+00 7.821060e-01 -2.940686e-02 1.560661e+00 3.899474e-01 5.557994e-01 0.000000e+00 
-6.107483e+00 1.943712e+00 -4.082387e+00 -1.421427e+00 5.362677e+00 5.166996e-02 1.088459e+00 4.374400e+00 6.543237e-01 5.794701e+00 5.191098e+00 3.822353e+00 -1.512927e-01 8.707470e-01 -2.780911e+00 -2.234529e+00 7.133389e-01 9.115036e-01 1.079924e+00 -2.910977e-01 3.837323e-01 -4.584155e-01 -9.337044e-01 -1.548717e+00 -9.489223e-01 4.861236e-03 
-7.023451e+00 2.520317e+00 -2.321757e+00 -8.719687e-01 -3.047605e-01 4.056814e+00 7.028473e+00 5.455500e+00 2.184778e+00 5.648088e+00 4.195015e+00 6.450160e+00 -1.512927e-01 1.772783e+00 -3.645044e+00 -3.119227e+00 7.412645e-01 1.862451e+00 1.119146e+00 -1.492732e+00 -3.331536e-02 4.999758e-01 -2.340528e+00 -1.337636e+00 -1.880798e+00 2.278622e-02 
-2.248480e+00 -8.966061e+00 -1.293776e+01 9.965947e-01 1.110862e+01 5.993359e+00 -2.186219e+00 2.962436e+00 -1.244817e+00 -4.298696e+00 4.209006e-01 1.074137e+00 -1.269865e-01 8.211719e-01 -1.228848e+00 -1.282767e+00 -1.020792e-01 5.863324e-01 6.335179e-01 -5.212269e-02 -5.664406e-02 5.498381e-01 -1.776270e+00 -9.507551e-01 -4.231544e-01 1.017780e-02 
5.147572e-01 -8.443946e+00 -1.300428e+01 -5.756494e-01 8.221066e+00 4.841479e+00 -4.447567e+00 3.057071e+00 2.562465e+00 -4.403225e+00 3.515749e+00 1.771107e+00 -4.951465e-02 -3.142444e-01 8.973862e-01 1.279856e+00 -2.606913e-01 -2.976413e-01 -1.139347e+00 -4.209893e-01 -1.073243e-01 3.480507e-01 -2.056187e-01 -2.640664e-01 3.749616e-02 -2.430618e-03 
-5.770727e+00 1.281603e+00 -5.154963e+00 -2.079982e+00 4.031426e+00 2.826926e+00 6.565866e+00 5.290394e+00 3.214671e+00 1.939007e+00 7.769560e-01 4.046107e+00 -1.512927e-01 -1.634149e+00 3.712291e+00 3.734837e+00 -5.827041e-01 -3.159423e+00 -1.865745e+00 1.889647e+00 2.684616e-01 3.869990e-01 1.034033e+00 3.947110e-01 1.380986e+00 -1.503904e-02 
-6.833549e+00 1.883416e+00 1.861249e-01 -6.371367e-01 1.745630e+00 -5.670452e-02 5.474844e-01 3.754900e+00 1.695288e+00 1.501143e+00 2.696656e+00 5.151655e+00 -1.512927e-01 -1.587607e+00 2.541597e+00 2.630132e+00 1.806421e-01 -2.033154e+00 -1.231875e+00 8.186331e-01 -1.002169e-01 -6.313540e-01 8.815670e-01 1.740692e-01 4.869319e-01 -2.035561e-02 
-6.745071e+00 4.431712e+00 -8.587750e-01 -1.886182e+00 -1.450778e+00 -8.862721e-01 4.764489e+00 3.955829e+00 1.123767e+00 -2.080717e+00 2.804002e+00 6.288792e+00 -1.512927e-01 -2.962189e-01 8.089068e-02 4.679605e-01 6.521466e-01 -2.266871e-01 -3.655904e-01 -1.297595e+00 -1.408115e-01 -1.013149e+00 2.109398e-01 6.383249e-01 4.679584e-01 0.000000e+00 
-6.936104e+00 2.688983e+00 -2.001711e+00 2.306609e-01 7.964001e-01 5.387024e-01 5.462871e-01 3.223269e+00 4.511467e-01 2.014472e+00 3.372571e+00 3.084424e+00 -1.512927e-01 -1.900616e-02 6.779134e-02 -1.755530e-01 -8.944185e-02 1.003908e+00 7.154019e-01 -8.620596e-02 5.760497e-01 -4.440843e-01 7.054468e-01 4.589099e-01 -4.185686e-02 0.000000e+00 
-7.200544e+00 1.283273e+00 -1.721243e+00 7.468522e-01 3.372605e+00 7.012706e-01 7.848954e-02 4.852152e+00 -1.229002e+00 2.737042e+00 3.630622e+00 7.419515e+00 -1.512927e-01 5.918714e-01 3.415035e-01 -3.256691e-01 -8.768069e-01 1.055532e+00 1.211217e+00 -2.194127e-01 9.870624e-03 -5.993328e-01 3.250944e-01 -4.089037e-01 -1.820080e+00 0.000000e+00 
-6.700844e+00 3.796592e+00 -2.604058e-01 -2.400863e+00 4.353477e+00 2.726534e+00 2.459455e+00 6.186987e+00 6.512505e-01 2.619497e+00 4.577895e+00 4.377009e+00 -1.512927e-01 8.692254e-01 -7.722553e-01 4.688746e-01 -1.653794e+00 1.108321e+00 -8.322501e-02 -1.907323e+00 -9.076303e-01 -3.590549e-01 -1.474158e+00 -1.340254e+00 -2.446405e+00 1.349859e-02 
-3.903344e+00 5.585425e+00 -3.357773e+00 -4.954454e+00 2.048341e+00 4.075897e+00 2.710842e+00 2.523323e+00 -1.972949e+00 -7.577577e-01 1.568220e-01 -3.457901e+00 -1.512927e-01 1.338978e-02 -2.791227e+00 2.104496e+00 -1.947877e+00 1.137822e+00 -4.562295e-01 -4.983795e+00 -3.071330e+00 1.096358e+00 -2.025851e+00 -1.075289e+00 -2.568235e+00 1.255960e-01 
-4.238577e+00 -3.323370e+00 1.160927e+00 -5.187654e+00 7.000137e+00 -1.564736e+00 -1.030650e+01 -1.504681e-01 -9.721541e-01 -3.608919e+00 -1.591798e+00 -3.708893e+00 -8.379972e-02 -2.314520e+00 -3.263491e+00 3.630811e+00 -2.509748e+00 -2.355632e-01 1.629592e+00 -4.683553e+00 -5.291421e-01 1.209760e-01 -1.826234e+00 -3.155267e-01 -1.199327e+00 2.158597e-01 
-8.364729e+00 -9.112881e+00 8.090567e+00 -7.599139e+00 7.738384e+00 5.657582e-01 -1.845751e+01 -7.335767e+00 5.064492e+00 -4.278003e+00 1.339026e+00 -1.378709e+00 4.429410e-01 -3.874041e+00 -1.905535e+00 4.365245e+00 -2.868467e+00 -4.108296e-01 2.964275e+00 -1.228536e+00 1.496948e+00 4.456110e-01 -1.111264e+00 4.429559e-01 1.493546e+00 2.490433e-01 
-1.604275e+01 -5.171709e+00 1.216948e+01 -1.362726e+01 3.306396e-01 1.262956e+01 -1.037414e+01 8.470821e+00 -2.262590e+00 -4.751551e+00 2.409159e+00 -2.659224e+00 6.308889e-01 -4.221224e+00 3.212477e-01 3.033826e+00 -2.442239e+00 -2.371593e+00 3.250404e+00 1.264570e+00 8.127861e-01 -1.218623e+00 -1.821339e+00 1.091167e-01 8.337896e-01 2.189296e-01 
-1.737146e+01 -3.018081e+00 1.296418e+01 -1.507699e+01 3.328942e+00 1.180012e+01 -3.398017e+00 5.697417e+00 9.003237e-01 -5.742761e+00 3.711227e-01 3.484993e+00 7.365797e-01 -2.394760e+00 1.462535e+00 1.399978e+00 -8.178023e-01 -2.280006e+00 1.559493e+00 2.647725e+00 1.082331e+00 -1.759859e+00 -9.361569e-01 -2.864230e-01 7.354574e-01 1.086223e-01 
-2.084133e+01 -4.764531e+00 1.389325e+01 -1.365992e+01 -2.653105e+00 9.070100e+00 -1.151340e+01 -2.603129e+00 -4.983183e+00 -1.198324e+01 -5.622634e-01 -1.971795e+00 8.640288e-01 -8.857044e-01 8.501450e-01 -2.864422e-01 -1.068111e-01 5.313926e-02 -7.840444e-01 2.308941e-01 -1.858772e+00 7.198809e-01 -5.827900e-01 -9.751455e-02 5.285081e-01 7.494295e-02 
-1.793924e+01 -2.003796e+00 1.422857e+01 -1.167182e+01 -2.169774e+00 1.014296e+01 -4.649255e+00 3.612863e+00 -2.374508e+00 -5.342944e+00 1.392622e+00 1.954864e+00 8.694828e-01 -8.751808e-01 5.116502e-01 -5.802380e-01 -9.660540e-02 -6.238580e-02 -8.331665e-01 -1.236715e-02 -6.200424e-01 1.400749e+00 1.634881e+00 6.149048e-01 -2.835141e-01 4.598185e-02 
-2.018739e+01 -1.428126e+00 1.010507e+01 -1.586390e+01 3.345694e+00 9.537926e+00 -8.594049e+00 2.192405e-01 2.974231e+00 -7.865409e+00 1.410837e+00 7.483811e-01 9.391521e-01 -3.945671e-01 6.083779e-01 -1.182521e+00 -4.536415e-01 1.405790e+00 -6.716384e-01 7.780976e-01 1.427498e+00 2.218470e+00 2.010403e+00 3.803147e-01 -1.895398e-01 3.313869e-02 
-2.207434e+01 -2.128032e+00 1.195708e+01 -1.445803e+01 1.761341e-02 7.400376e+00 -4.919526e+00 1.186020e+00 3.925363e+00 3.727309e-01 2.459096e+00 7.073340e-01 9.289272e-01 -1.128503e+00 -1.144505e-02 -8.652662e-01 -9.125537e-01 6.913237e-01 -1.346184e+00 -6.655477e-01 -2.116055e-02 1.353082e+00 5.267758e-02 -6.474683e-01 -3.393534e-01 3.014237e-02 
-2.074662e+01 -1.660523e+00 9.116396e+00 -1.453503e+01 3.282149e+00 7.083198e+00 -7.487772e+00 5.747782e+00 2.959231e+00 -4.789058e+00 8.060730e-01 -2.295729e+00 1.000000e+00 -2.918034e-01 1.778500e-01 4.797068e-01 8.600389e-01 8.471907e-01 -9.215881e-01 2.031923e-01 -8.139922e-02 4.198848e-01 2.110795e-01 -9.491785e-01 -1.724102e-01 1.696978e-02 
-2.330214e+01 -1.944823e+00 1.039658e+01 -1.689902e+01 1.318617e+00 4.639397e+00 -8.530132e+00 7.427890e-01 4.398401e+00 -6.617732e+00 -1.542337e+00 1.780152e+00 9.897707e-01 -2.523975e-02 -1.682024e-02 -2.281855e-01 -2.056748e-01 9.797210e-01 1.269195e-01 1.326691e-01 -5.554956e-01 8.422855e-01 3.591231e-02 -2.999926e-01 8.154421e-02 5.808306e-03 
-2.103250e+01 -6.304809e-01 1.328385e+01 -1.034321e+01 6.931145e+00 6.310474e+00 -5.772785e+00 3.385985e-02 4.837136e+00 -3.314780e+00 -1.334338e+00 -6.500785e-01 9.935793e-01 7.229252e-01 -2.660822e-01 6.222219e-02 -6.448327e-01 -1.022176e+00 2.355893e-01 9.255770e-01 -8.625646e-01 1.073357e-01 1.662363e+00 6.752224e-01 1.090737e+00 -2.995972e-02 
-2.205759e+01 -2.727155e+00 8.732421e+00 -1.758231e+01 3.091720e+00 8.421335e+00 -5.113674e+00 1.265502e+00 7.197838e+00 -1.848466e-01 2.029339e+00 2.922298e-01 9.611791e-01 3.687674e+00 4.620249e-01 4.794860e-01 4.849558e-01 -9.994005e-01 5.842516e-01 -2.852494e-01 -7.868499e-01 -4.597250e-01 1.422690e+00 1.172003e+00 -4.080092e-01 -6.154194e-02 
-1.775426e+01 -2.599768e+00 1.025959e+01 -1.741755e+01 -2.715281e+00 6.370175e+00 -4.568116e+00 1.173602e+00 2.096191e+00 3.063161e-01 2.396347e+00 3.901916e+00 8.644972e-01 7.627200e+00 -7.232911e-01 -1.429299e+00 2.724623e+00 -2.640490e+00 -1.028980e+00 -2.477297e+00 -1.449517e+00 -1.763911e+00 1.243730e+00 1.530224e+00 8.202763e-02 -8.097769e-02 
-6.502888e+00 1.349945e+00 1.430614e+01 -1.093708e+01 1.144826e+00 7.530805e+00 -1.055871e+01 -3.761332e+00 3.470249e+00 -1.314828e+00 2.452336e+00 -2.535892e+00 7.466021e-01 9.640103e+00 -1.040690e+00 -2.642965e+00 5.617440e+00 -2.768816e+00 -2.308008e+00 -2.322411e+00 -2.727631e+00 -5.136616e-01 8.492802e-01 1.073752e+00 3.647085e-01 -5.854151e-02 
9.326148e+00 -6.285487e+00 3.350497e+00 -4.271078e-02 -5.297859e+00 1.610839e+00 -1.543675e+01 -4.700308e+00 -2.118627e+00 3.468862e+00 6.105285e+00 1.174120e+00 6.959794e-01 7.864575e+00 -1.689868e+00 -4.331995e+00 5.512441e+00 -2.555119e+00 -2.258996e+00 -7.335349e-01 -2.396806e+00 1.773373e+00 9.550782e-01 5.663016e-01 1.462326e-01 -1.496772e-02 
1.260271e+01 -6.087743e+00 -1.027860e+00 1.817470e+00 -9.461073e+00 -7.390372e-01 -1.129141e+01 -9.435698e+00 6.736939e+00 2.480281e+00 5.543632e+00 3.479670e+00 7.527305e-01 3.944880e+00 -2.063879e+00 -4.239865e+00 2.918163e+00 -3.119382e+00 -1.708665e+00 1.505789e+00 -4.037571e-01 2.360425e+00 9.843369e-01 -1.880727e-01 9.602402e-01 2.273338e-02 
1.201581e+01 -7.330264e+00 -3.733389e+00 3.767390e+00 -1.018793e+01 -7.898835e-01 -7.869442e+00 -7.973243e+00 9.329713e+00 3.184153e+00 3.682207e+00 1.625298e+00 7.865944e-01 3.710221e-01 -4.315104e-01 -1.906228e+00 2.536401e-01 -1.052863e+00 -1.407372e+00 3.074193e+00 5.266797e-01 2.816508e+00 1.038820e+00 -1.517713e+00 -1.694449e-01 3.385698e-02 
1.187668e+01 -8.447060e+00 -3.351243e+00 1.748687e+00 -1.200705e+01 1.878438e-01 -6.813426e+00 -4.143650e+00 9.548203e+00 3.749211e+00 2.723512e+00 2.039720e+00 8.149614e-01 -1.673682e-01 -5.069281e-01 -8.650873e-01 -2.768458e-01 -1.874127e-01 -8.681353e-01 2.280003e+00 1.265250e+00 9.176630e-01 1.341202e+00 -8.897933e-01 -8.393406e-01 2.175806e-02 
1.154428e+01 -7.263381e+00 -5.018954e+00 1.259881e+00 -9.289185e+00 -5.889460e+00 -2.304777e+00 -4.712934e+00 1.055828e+01 8.028495e+00 -7.322188e-02 1.046871e+00 8.341488e-01 -2.078755e-01 -3.331404e-01 -3.107187e-01 -3.154247e-01 1.235447e-02 -5.021527e-01 1.227338e+00 8.405298e-01 5.202004e-01 9.571946e-01 8.952536e-02 -5.339882e-01 1.529812e-02 
1.200164e+01 -8.655826e+00 -4.710514e+00 1.686995e+00 -1.084751e+01 -2.529925e+00 -2.673727e+00 -4.739601e+00 1.071097e+01 6.764120e+00 2.972380e+00 -4.278189e-01 8.377436e-01 -2.354650e-01 -1.698211e-01 -1.021642e-01 -9.160633e-02 2.062637e-01 -1.096399e-01 7.389322e-01 -8.977962e-02 3.902785e-01 4.489245e-01 4.500806e-01 7.557903e-02 6.620127e-03 
1.091395e+01 -8.891582e+00 -4.607347e+00 2.221112e+00 -1.070593e+01 -1.941762e+00 -3.802599e+00 -3.472619e+00 1.134933e+01 6.462671e+00 4.005400e+00 1.891270e-01 8.516939e-01 -5.570246e-02 -2.107623e-01 2.654728e-01 -2.159185e-01 -4.603219e-01 1.175814e+00 2.410207e-02 -4.428454e-01 4.478197e-02 -9.904019e-01 1.196343e+00 6.242855e-01 -5.134868e-03 
1.101452e+01 -8.482064e+00 -4.067867e+00 8.100400e-01 -1.026736e+01 -2.334204e+00 -2.369853e+00 -5.212705e+00 1.110407e+01 6.776745e+00 2.934604e+00 2.846487e+00 8.392895e-01 3.215771e-01 -2.458086e-02 3.193596e-01 -3.191066e-01 -1.726115e-01 6.297398e-01 6.952783e-01 -1.290070e+00 -5.701771e-01 -1.206785e+00 1.097379e+00 1.599975e+00 -1.889338e-02 
1.175933e+01 -8.404073e+00 -4.012913e+00 6.187663e-01 -1.188087e+01 -1.082510e-01 -2.336204e+00 -6.690609e+00 1.058564e+01 3.070173e+00 5.927380e+00 2.531145e+00 8.077015e-01 7.364866e-01 4.062962e-01 3.528177e-01 -5.617678e-01 1.723563e-01 2.687038e-01 1.557866e+00 -1.691762e+00 -1.514681e+00 -1.823209e+00 1.225530e+00 2.020749e+00 -3.901751e-02 
1.318684e+01 -9.022485e+00 -3.410933e+00 8.926349e-01 -1.112309e+01 -2.979820e-01 6.946635e-02 -9.580956e+00 8.241930e+00 2.426441e+00 7.498284e+00 6.401045e+00 7.652729e-01 8.457841e-01 1.014512e+00 1.478151e-01 -1.250918e-01 6.514385e-01 5.745695e-01 1.564122e+00 -1.473150e+00 -2.845320e+00 -2.437229e+00 9.448097e-01 2.232249e+00 -6.562150e-02 
1.351022e+01 -6.589891e+00 -3.171725e+00 -6.290243e-01 -9.416277e+00 -1.616354e+00 2.767068e+00 -9.747303e+00 5.206999e+00 -4.782208e-01 7.851211e+00 8.515592e+00 6.936147e-01 2.732687e-01 2.343432e+00 -2.153987e-01 3.249230e-02 2.160228e+00 2.627469e-01 9.024553e-01 -4.128886e-01 -4.532590e+00 -1.787518e+00 1.465712e-01 1.782298e+00 -8.976316e-02 
1.436799e+01 -4.316596e+00 -3.749386e+00 8.084764e-01 -8.242462e+00 1.292695e+00 2.899119e+00 -1.105011e+01 -4.332113e-01 -3.635203e+00 6.696737e+00 1.101551e+01 5.682254e-01 -4.994285e-01 3.008006e+00 -6.789368e-01 -1.687225e-01 2.707498e+00 9.460051e-02 5.779530e-01 5.014353e-01 -4.507529e+00 -1.293883e+00 -3.480341e-01 5.816990e-01 -8.603837e-02 
1.253509e+01 9.601413e-01 -4.920680e+00 8.233070e-01 -2.520044e+00 4.101447e-01 7.612464e-01 -8.020475e+00 -7.739738e+00 -2.836594e+00 7.061010e+00 9.135406e+00 4.574094e-01 -4.929326e-01 1.948780e+00 -8.132267e-01 -1.691805e-01 1.931720e+00 1.323663e-01 4.162334e-01 5.118289e-01 -2.692327e+00 -6.827407e-01 -4.168859e-01 2.252478e-01 -5.350932e-02 
1.117726e+01 2.242529e+00 -5.931139e+00 -6.771432e-01 -1.033721e+00 -8.382288e-01 3.962142e+00 -7.937193e+00 -7.822347e+00 -2.863787e+00 6.153214e+00 8.999632e+00 4.531837e-01 -2.041395e-01 3.202522e-01 -6.871043e-01 -4.265868e-01 5.348876e-01 -7.661140e-01 8.215410e-01 -3.936215e-01 5.350169e-01 -2.090761e-01 -4.628687e-02 -2.517389e-01 -2.865684e-03 
1.264092e+01 -1.255525e-01 -6.146982e+00 -7.321172e-01 -3.362047e+00 1.109394e-01 4.316724e+00 -8.744616e+00 -4.560067e+00 -4.277633e+00 6.038543e+00 1.064977e+01 4.835889e-01 3.369191e-01 -1.340701e+00 -4.041814e-01 -7.968715e-01 -1.050460e+00 1.091153e-01 3.073279e-01 -2.820716e-01 2.890339e+00 2.766621e-01 -5.227360e-01 -4.273647e-01 3.717852e-02 
1.329438e+01 -2.172487e+00 -6.571757e+00 -5.467453e-01 -5.147024e+00 -2.388272e+00 5.229085e+00 -1.265615e+01 6.520380e-01 -3.960064e+00 6.976536e+00 8.999632e+00 5.408072e-01 1.488567e-01 -1.510241e+00 -2.057923e-01 -6.938305e-01 -8.351631e-01 9.116160e-01 -8.856866e-01 7.705013e-01 3.265263e+00 9.462959e-01 -1.572833e+00 -1.493278e+00 4.737666e-02 
1.316113e+01 -3.535856e+00 -6.621278e+00 -3.226250e+00 -5.715692e+00 1.730743e+00 1.664414e+00 -7.071356e+00 2.474767e+00 -9.051449e-01 4.035669e+00 6.998582e+00 5.994903e-01 -4.031719e-01 -4.357189e-01 -6.783900e-02 -6.318213e-01 4.385906e-01 8.798808e-01 -1.354281e+00 1.553267e+00 2.358478e+00 1.483243e+00 -2.612309e+00 -2.197189e+00 3.194871e-02 
1.166144e+01 -3.603525e+00 -6.722953e+00 -2.899230e+00 -4.032714e+00 2.909949e+00 8.598635e-01 -4.921317e+00 4.986549e+00 1.814486e-01 -7.095121e-01 3.358834e+00 6.321163e-01 -1.390713e-01 2.328356e-01 7.333291e-01 1.656340e-01 1.255241e+00 -3.478155e-03 -6.562423e-01 1.735323e+00 -4.263315e-01 1.158622e+00 -2.621536e+00 -2.361060e+00 -6.067651e-03 
1.144153e+01 -1.588628e+00 -6.410579e+00 -2.714982e+00 -1.726248e+00 1.861233e+00 -2.700682e-01 -4.845697e+00 5.065065e+00 1.067824e+00 -3.179980e+00 2.484222e+00 5.976779e-01 4.395342e-01 8.230907e-01 1.835511e+00 2.050950e+00 1.424226e+00 -2.960256e+00 2.308398e+00 1.231878e+00 -4.041453e+00 -5.591267e-01 -8.350151e-01 -4.143403e+00 -3.740992e-02 
1.345882e+01 -1.981923e+00 -3.010461e+00 2.579069e-02 -8.655396e-01 -2.470908e+00 2.915116e+00 -5.092360e+00 -2.774769e+00 8.465618e-01 -2.523318e+00 -5.484886e-01 5.113752e-01 8.863189e-01 8.259287e-01 2.355695e+00 2.619148e+00 7.735809e-01 -3.732469e+00 3.434235e+00 8.474339e-01 -5.072189e+00 -1.524248e+00 6.194090e-01 -4.341720e+00 -4.929782e-02 
1.446012e+01 -2.312033e-01 7.000312e-01 5.565989e+00 -1.781483e-01 -1.038011e+01 1.217878e+01 -8.264453e-01 -1.385184e+01 -4.033335e+00 7.674960e-01 -1.176477e+01 4.728112e-01 6.389331e-01 7.620093e-01 1.692242e+00 2.677429e+00 -2.755628e-01 -2.601009e+00 3.456044e+00 4.916580e-01 -3.816181e+00 -1.542648e+00 6.562122e-01 -3.629082e+00 -3.978874e-02 
1.458374e+01 -1.525942e-01 1.500219e+00 6.056023e+00 -9.388599e-01 -9.631726e+00 1.180661e+01 -2.693773e+00 -1.091595e+01 -4.889212e+00 4.137946e-01 -1.122527e+01 4.480606e-01 1.382455e-01 1.073837e+00 7.573212e-01 1.504916e+00 -7.077411e-01 -2.677168e-01 1.756158e+00 4.481251e-02 -1.206579e+00 -4.928265e-01 -5.897561e-01 -1.122906e+00 -2.784714e-02 
1.407374e+01 1.306754e+00 -2.047093e-01 7.657046e+00 -3.067402e+00 -7.563405e+00 1.256440e+01 -3.586701e+00 -9.945252e+00 -3.777531e+00 -1.367475e+00 -1.032280e+01 4.303915e-01 8.240779e-02 1.771474e+00 -3.149539e-01 1.010366e+00 -5.452710e-01 8.661183e-01 6.435335e-01 -4.789097e-01 6.788039e-01 1.001557e+00 -1.588093e+00 1.181961e+00 -3.186911e-02 
1.434324e+01 2.618285e+00 1.228515e+00 6.504840e+00 -2.959618e+00 -5.217843e+00 1.150309e+01 -3.488170e+00 -1.076096e+01 -1.745473e+00 -4.404613e+00 -6.884003e+00 3.933493e-01 -1.330889e-01 2.374449e+00 1.335139e-01 1.510181e+00 9.645988e-01 1.071096e-01 -6.988106e-02 -1.236448e-02 9.560728e-01 1.230600e+00 -1.301998e+00 1.369820e+00 -4.505464e-02 
1.499241e+01 7.240726e+00 -7.388864e-01 1.039341e+01 -1.894124e+00 -8.256456e+00 1.554821e+01 -2.823796e+00 -1.053531e+01 -5.974185e-01 -4.763765e+00 -8.025595e+00 3.408213e-01 -7.315567e-01 1.692989e+00 1.582618e+00 2.199707e+00 1.802844e+00 6.364232e-01 1.497774e-02 1.483448e-01 8.974460e-01 7.442311e-01 3.888229e-01 1.422182e+00 -5.833889e-02 
1.345896e+01 8.752667e+00 2.434877e+00 1.223874e+01 3.297495e+00 -8.749652e+00 9.965307e+00 -3.137048e+00 -5.840549e+00 -3.262697e-01 -4.398053e+00 -5.524769e+00 2.675725e-01 -1.159060e+00 6.952480e-01 1.779339e+00 1.829391e+00 2.445304e+00 3.484192e-01 -1.549260e+00 7.435414e-01 1.977877e+00 8.565380e-01 5.441936e-01 6.846442e-01 -7.208863e-02 
1.085809e+01 6.704510e+00 7.105199e+00 1.578863e+01 2.818260e+00 -2.615384e+00 1.340818e+01 -3.020538e+00 -7.918227e+00 -7.659763e-01 5.733597e-01 -3.891505e+00 2.015855e-01 -1.409262e+00 -7.797378e-01 9.750218e-01 4.875619e-01 2.155813e+00 1.783043e+00 -1.851516e+00 9.209089e-01 1.609299e+00 1.404891e+00 -3.378305e-01 -3.937756e-01 -7.655507e-02 
1.061510e+01 6.362633e+00 6.203169e+00 1.295418e+01 6.910712e+00 -6.296284e+00 4.826803e+00 3.279079e-01 -2.180119e+00 2.621497e+00 -4.352207e+00 -5.527827e+00 1.025241e-01 -1.582237e+00 -1.587760e+00 -6.705943e-01 -2.658795e-01 1.684303e+00 2.576779e+00 -2.278161e-01 1.361884e+00 8.134655e-01 1.227761e+00 -9.572657e-01 -1.050460e+00 -7.404590e-02 
9.368027e+00 4.537055e+00 2.252077e+00 1.247350e+01 7.078330e+00 -5.679249e-01 8.859877e+00 4.827046e-02 -4.319035e+00 4.953152e+00 -6.475840e+00 -9.992945e+00 4.057008e-02 -1.568642e+00 -1.660687e+00 -1.517327e+00 -5.455335e-01 1.130385e+00 1.406469e+00 -8.119158e-01 7.812074e-01 1.330417e+00 1.036047e+00 -1.727464e+00 -1.332771e+00 -6.040012e-02 
6.292811e+00 1.897594e+00 1.508466e+00 1.256691e+01 9.588973e+00 3.110511e+00 1.110038e+01 2.137967e+00 -3.572818e+00 2.952970e+00 -5.659782e+00 -7.726349e+00 -2.214932e-02 -2.920145e+00 -2.952634e+00 1.538041e+00 -2.507041e+00 -1.341531e+00 2.539302e+00 -5.237718e-01 1.262046e+00 2.014139e-01 1.313220e+00 -3.823604e-01 -2.228638e+00 1.012626e-02 
5.176021e+00 6.335926e-01 1.865917e+00 1.325460e+01 7.131054e+00 -2.864372e-01 6.211817e+00 -1.953030e-02 -5.697912e-01 4.248523e+00 -7.410176e+00 -9.456100e+00 -3.807843e-02 -3.205910e+00 -3.168624e+00 2.147249e+00 -4.410108e+00 -3.134777e+00 1.982944e+00 -2.013917e+00 9.432251e-01 4.901099e-02 2.604954e+00 1.911294e+00 -9.410554e-01 4.268875e-02 
-1.889624e+00 -6.448807e+00 1.408645e+01 2.843237e-02 1.766949e-01 6.259480e+00 3.531974e+00 6.672040e+00 -3.047671e+00 9.539912e+00 -5.796841e+00 -1.693944e+01 1.924797e-01 -1.982318e+00 -3.117665e+00 -5.271295e-01 -4.047783e+00 -7.638367e-01 1.497029e+00 -4.222458e+00 -5.541208e-01 3.880615e-01 4.478636e-02 2.060408e+00 9.158608e-01 2.272253e-02 
-2.570304e+00 -7.132865e+00 6.699328e+00 -3.307798e+00 -3.889414e+00 7.772312e+00 2.574493e+00 2.497360e+00 -4.336554e+00 1.468445e+01 3.149158e+00 -1.009167e+01 1.466993e-01 -5.164660e-01 -1.005769e+00 -3.043607e+00 -1.023721e+00 4.212410e-01 -4.804079e-01 -3.436141e+00 -2.172514e+00 -3.019906e-01 -1.596018e+00 1.130997e+00 1.181901e+00 -2.894095e-02 
2.543859e-01 -9.807501e+00 -3.543887e+00 6.091931e-01 1.128002e+01 6.566279e+00 -8.193245e+00 -1.891083e+00 2.508709e-01 -2.041062e+00 -6.374062e-01 -2.829258e+00 -9.255409e-04 9.694282e-01 9.966415e-01 -4.639647e+00 2.377211e+00 1.029312e+00 -3.004194e+00 -1.183856e+00 -2.013099e+00 8.349375e-01 -2.213544e+00 -6.499567e-02 2.787604e+00 -8.355565e-02 
1.521687e+00 -2.715903e+00 -4.536949e+00 7.845612e+00 3.685595e+00 -2.841876e+00 -5.106281e+00 -6.600542e+00 -3.729015e+00 2.058918e+00 -4.334909e+00 -1.060169e+01 -8.608055e-02 6.945239e-01 1.573037e+00 -1.924564e+00 2.898148e+00 8.761044e-02 -4.066942e+00 -1.093292e-03 4.708108e-01 8.602241e-01 -1.027358e+00 -1.597994e+00 4.608549e-01 -6.615929e-02 
9.115219e-01 -3.674081e+00 -3.493647e+00 6.337780e+00 1.535749e+00 -3.454392e+00 1.453081e+00 1.155496e+00 8.232471e-01 4.784959e+00 -2.379786e+00 -2.746414e+00 -1.089087e-01 -6.499920e-02 1.344618e+00 -1.027048e-03 1.754679e+00 -2.477986e+00 -2.760159e+00 2.096527e+00 1.834991e+00 3.302465e-01 1.321859e+00 -1.495708e-01 5.321378e-01 -3.447593e-02 
5.737476e-01 -2.334388e+00 -2.948613e+00 8.318648e+00 1.420775e+00 -7.552063e+00 -2.254136e+00 3.328125e+00 -3.216215e-01 6.134647e+00 -3.969621e+00 -7.828823e+00 -1.301056e-01 2.007072e-01 5.161427e-01 3.153372e-01 6.154963e-01 -6.247207e-01 -2.845926e-02 1.733352e+00 2.114718e+00 -4.700728e-01 -8.048649e-01 1.705265e-01 9.427007e-01 -1.728083e-02 
4.033594e-01 -3.275168e+00 -4.343190e+00 9.146072e+00 2.250528e-02 -4.879424e+00 8.633184e-01 2.319542e+00 1.984067e-01 2.530367e+00 -1.567904e+00 -1.555002e+00 -1.512927e-01 1.946256e-01 1.015288e+00 2.462095e-01 -3.599701e-01 -1.360061e+00 -7.127209e-02 1.240644e+00 1.092221e+00 -1.905512e-01 -4.540656e-01 4.705196e-01 9.897566e-02 -1.059551e-02 
2.779304e+00 -3.346457e-01 -2.535491e+00 9.518947e+00 1.318613e+00 -2.271657e+00 3.855360e+00 3.391024e+00 -5.766959e+00 -8.381096e-01 -3.888217e+00 -6.483891e+00 -1.512927e-01 -2.033987e-02 8.517734e-01 7.309386e-01 -1.300132e+00 -1.397654e+00 -3.612631e-01 8.979452e-01 7.513846e-01 9.325079e-01 -4.435094e-01 4.616426e-01 8.705971e-01 -4.237413e-03 
7.818718e-01 4.024853e-01 -2.469160e+00 3.937781e+00 -5.213476e+00 -6.450955e+00 4.601550e+00 6.585154e+00 2.593160e+00 6.001009e+00 -6.788930e-02 -2.924002e+00 -1.512927e-01 -3.142487e-01 8.827227e-01 6.085473e-01 -1.516801e+00 1.777133e-01 -7.299628e-01 -5.323491e-01 1.315221e+00 1.205996e+00 -1.521991e-01 -6.142323e-02 4.149154e-01 0.000000e+00 
2.827921e-01 8.565170e-02 -2.309347e-01 4.422134e+00 -2.949504e+00 -8.572612e+00 3.664744e-01 4.952241e+00 3.143541e+00 2.181778e+00 -2.411416e+00 -2.791337e+00 -1.512927e-01 -6.276590e-01 8.554333e-01 -8.624744e-02 -9.384226e-01 3.713631e-01 -8.996201e-01 -9.826152e-01 1.214449e-01 8.376387e-01 -4.239609e-01 -1.431040e+00 1.039256e+00 0.000000e+00 
8.037186e-02 9.282960e-01 -2.452731e+00 4.110476e+00 3.045130e+00 -5.378760e+00 -5.398417e-02 8.115036e+00 1.773136e+00 2.594273e-01 -2.613421e+00 -1.326702e+00 -1.512927e-01 -1.910298e-01 1.234604e+00 4.610714e-01 3.400180e-01 1.242758e+00 8.885437e-01 -1.735152e+00 -1.527691e+00 -1.836227e+00 -2.403613e+00 -1.001657e+00 1.468410e+00 0.000000e+00 
-8.241653e-03 3.679615e+00 -2.974943e+00 4.740486e+00 -9.538746e-01 -7.305854e+00 1.270051e+00 3.233307e+00 -1.168754e+00 -8.712316e-02 -9.770649e+00 -2.086261e+00 -1.512927e-01 1.389113e-02 1.421627e+00 -1.414361e-01 -1.768112e-01 9.015799e-03 5.307332e-01 -1.358629e+00 -1.861444e+00 -3.009126e+00 -1.994611e+00 -5.553249e-01 1.508145e+00 0.000000e+00 
-2.776051e-02 4.778523e+00 1.208201e+00 5.478695e+00 2.500534e-03 -2.641616e+00 -4.526000e+00 -1.938338e-01 -4.431828e+00 -4.882605e+00 -1.396557e+00 4.065510e+00 -1.512927e-01 -4.281511e-02 8.453645e-01 4.995386e-01 -3.913358e-01 4.928995e-02 9.962672e-01 -3.510228e-01 -1.606475e+00 -1.487088e+00 -1.070739e+00 8.400003e-01 9.026130e-01 0.000000e+00 
4.063139e-01 5.268671e+00 -2.768581e+00 2.853969e+00 -1.383110e+00 -7.287518e+00 -4.190665e+00 -2.005458e-01 -8.799607e+00 -5.220258e+00 -5.796472e+00 2.053279e+00 -1.512927e-01 -3.843809e-01 3.516657e-01 2.440345e-01 -1.219509e+00 1.285532e-02 1.034474e+00 -1.296127e-01 -5.741183e-01 -1.162849e-01 -3.215638e-01 1.423794e+00 4.272110e-01 0.000000e+00 
-3.409815e-01 4.360590e+00 -5.821896e-02 3.097056e+00 3.506198e+00 -4.065918e-01 9.212599e-01 1.799590e+00 -1.846879e+00 -2.527702e+00 -4.005084e-01 1.116593e+00 -1.512927e-01 -6.370560e-01 3.532461e-01 -9.685171e-02 -1.441044e+00 -2.237024e-01 2.953719e-01 1.192672e+00 9.947308e-01 1.282074e+00 8.713169e-01 1.278245e-01 -6.142072e-01 0.000000e+00 
-1.773536e+00 5.646910e+00 -1.121560e+00 -1.662409e-01 -2.641447e+00 -3.250998e+00 -2.101642e+00 -6.339962e-01 -3.042652e+00 -2.872394e+00 -3.149706e+00 1.524252e+00 -1.512927e-01 -5.726647e-01 3.981754e-01 7.158592e-01 -2.581911e-01 6.828111e-01 1.062925e+00 8.665625e-01 1.047107e+00 1.657989e+00 1.180120e+00 5.761811e-01 -8.722839e-01 0.000000e+00 
-2.123116e+00 6.355635e+00 -9.956825e-02 -2.164197e-01 -4.868431e-01 -3.183016e+00 3.928471e-01 4.996545e+00 -8.999379e-01 -1.699953e+00 -2.080818e+00 1.258987e+00 -1.512927e-01 -3.275000e-01 -6.058769e-02 2.180148e-01 -8.312263e-02 3.423893e-01 -7.767682e-02 -7.430584e-01 5.768054e-01 1.368311e+00 6.855119e-01 -7.304392e-02 -1.265755e-01 0.000000e+00 
-1.565943e+00 6.262026e+00 8.313898e-01 3.219752e+00 4.027466e+00 -5.846823e-01 4.063542e-01 3.436510e+00 -9.831317e-01 2.664661e-01 -2.075412e+00 -2.379337e+00 -1.512927e-01 -9.590817e-03 -8.247827e-01 9.185668e-02 3.934956e-01 1.291630e+00 2.073166e-01 -7.982523e-01 -9.091327e-01 -3.911994e-01 3.973963e-01 4.742186e-01 -6.948122e-01 0.000000e+00 
-2.082278e+00 3.750094e+00 5.537999e-02 9.884462e-01 1.883688e+00 -2.128133e+00 -4.048030e+00 2.648364e+00 3.964914e+00 -6.695727e-01 -1.302875e+00 2.435510e+00 -1.512927e-01 5.331210e-01 -2.028153e-01 -3.722950e-01 -1.931502e-01 3.650514e-02 2.725399e-01 -7.900162e-01 -2.492336e+00 -1.362989e+00 -4.185128e-01 -7.944945e-01 -1.626158e+00 0.000000e+00 
-1.841908e+00 2.825767e+00 -7.397511e-01 1.198804e+00 2.631439e+00 -2.741856e+00 -3.872465e+00 -4.005569e+00 -7.431075e+00 -1.400602e+00 -1.167584e+00 -2.538070e+00 -1.512927e-01 1.616638e-01 4.866489e-01 -4.947681e-01 -5.594656e-01 -5.281199e-01 -1.037907e-01 8.015390e-02 -4.288864e-01 -2.766181e-01 -4.694226e-01 -1.012122e+00 -1.552750e+00 0.000000e+00 
6.804724e-01 7.059688e+00 -1.175472e+00 -1.716969e-01 3.936963e-01 -7.417299e-01 -1.417824e+00 -3.744092e+00 -4.490911e+00 -2.958983e+00 -6.507204e+00 -6.792439e+00 -1.512927e-01 -8.215161e-02 5.657951e-01 2.251687e-01 4.145566e-01 -4.007766e-01 -2.225929e-01 6.249194e-01 8.004321e-01 -3.955030e-02 -7.573575e-01 -6.709255e-01 -2.054615e+00 0.000000e+00 
-2.138999e+00 7.040473e+00 -1.027024e+00 1.002495e+00 2.131862e+00 -1.796838e+00 -5.079794e-01 4.488306e+00 1.861690e+00 -9.359419e-01 -4.533860e+00 -5.529112e+00 -1.512927e-01 -3.687580e-01 3.386865e-01 2.158972e-01 3.895345e-01 -8.819098e-01 -1.090666e+00 5.479288e-01 1.348837e+00 1.497543e+00 -9.237210e-01 -1.306931e-01 3.969435e-01 0.000000e+00 
-2.344491e+00 4.471716e+00 1.324860e+00 3.159384e+00 1.295931e-01 -3.713607e+00 -2.605676e+00 2.403586e+00 -8.792204e-01 -4.688690e+00 -2.974365e+00 -6.342048e+00 -1.512927e-01 -5.003477e-01 -5.785074e-01 -2.517730e-03 6.290104e-02 -1.009095e+00 -2.068413e+00 -3.319326e-01 3.979651e-01 -3.832315e-01 -1.002387e+00 2.466710e-01 2.055565e+00 0.000000e+00 
-2.173217e+00 5.813185e+00 -9.104313e-01 1.480937e+00 -1.646059e+00 -6.709248e+00 -5.388951e-01 -3.352213e-01 -1.749205e+00 -5.154353e+00 -3.587469e+00 -7.785482e-01 -1.512927e-01 8.833285e-02 -3.997060e-01 3.546700e-01 8.479940e-01 -4.932062e-01 -7.440307e-01 -6.271157e-01 -9.320126e-01 -1.419244e+00 -3.825092e-01 -9.630524e-01 2.012808e+00 0.000000e+00 
-1.804157e+00 4.780795e+00 -1.246358e+00 -9.641242e-02 -2.762819e+00 -8.627589e+00 -3.062029e+00 6.574968e-01 -4.601621e+00 -5.861712e+00 -5.747045e+00 1.110104e+00 -1.512927e-01 -2.134052e-01 -5.852448e-01 -4.618905e-01 5.310020e-01 1.873925e-01 1.895477e-01 2.834719e-01 -4.741565e-01 -1.024730e+00 1.318275e+00 -3.916264e-04 1.752340e+00 0.000000e+00 
-1.967502e+00 4.887404e+00 2.031935e+00 6.870363e+00 1.112037e+00 -3.060000e+00 -3.415381e+00 7.012879e-01 -3.373329e+00 -2.261977e+00 -7.962781e+00 8.088530e-01 -1.512927e-01 -7.932214e-02 -6.096461e-01 -3.215976e-01 3.611622e-01 7.808399e-01 1.263805e+00 3.664433e-01 -3.050011e-01 -6.567130e-01 1.810530e+00 6.492965e-01 2.441490e-01 0.000000e+00 
-3.514375e+00 2.008383e+00 -2.455775e+00 3.119681e+00 -3.124924e-01 -4.590493e+00 2.499263e-01 -4.854507e-01 -5.190810e+00 4.564985e-01 -7.886665e-01 1.625952e+00 -1.512927e-01 4.896431e-02 4.459159e-02 -6.285059e-01 -5.251951e-02 3.609891e-01 2.372536e+00 1.756810e+00 2.265205e-01 -5.042138e-02 5.567983e-01 3.338081e-01 7.444133e-01 0.000000e+00 
-1.714719e+00 4.151161e+00 -1.913711e+00 1.678701e+00 1.032977e+00 -2.408774e+00 -3.626566e-01 -1.288753e+00 -4.738175e+00 7.391919e-01 -2.820175e+00 1.842728e-01 -1.512927e-01 -9.307460e-02 -5.390801e-02 -7.271386e-01 -1.178964e+00 1.916113e-02 1.524191e+00 2.477137e+00 1.260767e+00 -2.182895e-01 3.644461e-01 5.683050e-01 1.047023e-01 0.000000e+00 
-1.685727e+00 5.371874e+00 -2.416065e+00 2.236821e+00 -9.183435e-01 2.909476e+00 4.195660e+00 2.785120e+00 -4.171304e+00 -4.578305e+00 -6.649307e+00 5.144461e+00 -1.512927e-01 -1.298127e-01 6.404281e-02 1.954420e-01 -3.667137e-01 4.124312e-01 1.402267e+00 2.085511e+00 1.836917e+00 1.962073e-02 4.580775e-01 -2.175302e-01 -4.716847e-01 0.000000e+00 
-3.347198e+00 2.936118e+00 -1.623613e+00 1.416975e+00 1.510768e+00 8.109704e-01 6.997435e+00 5.369839e+00 -4.974530e+00 2.077655e+00 -2.190937e+00 -4.268903e-01 -1.512927e-01 -4.926431e-01 -4.865841e-01 1.372646e-01 -1.343298e-01 3.384694e-01 4.340983e-01 1.752196e+00 1.590190e+00 -1.275934e-01 9.332886e-01 5.716847e-01 -6.793677e-01 0.000000e+00 
