-1.032560e+01 4.350905e+00 4.618359e+00 6.319020e+00 4.694823e+00 1.049226e-01 -2.226826e+00 6.296862e-01 3.543382e+00 2.664869e+00 3.854484e+00 -2.138664e+00 -7.127082e-02 2.903805e-01 -1.901177e-01 -7.542235e-01 -1.817868e-01 3.603357e-01 -4.782736e-01 -4.740560e-02 9.135175e-01 -4.906400e-01 3.178921e-01 -3.211921e-01 1.020604e+00 -3.394067e-03 
-9.554075e+00 2.889722e+00 1.997906e+00 5.222235e+00 6.002565e+00 -1.084813e+00 -3.482539e+00 4.244995e+00 4.361821e+00 5.992558e+00 2.575445e+00 -6.126810e-01 -9.175873e-02 2.042402e-01 -2.304505e-01 -8.081747e-01 -3.210095e-01 1.241738e+00 -4.605995e-01 -3.729346e-01 6.865045e-01 -1.126934e+00 8.067090e-01 2.075856e-01 1.578031e-01 -3.955090e-03 
-9.259457e+00 4.130908e+00 2.157467e+00 5.958478e+00 5.842631e+00 -1.691577e+00 -1.835997e+00 3.389619e+00 6.809630e-01 2.590485e+00 2.888043e+00 2.201363e+00 -7.799721e-02 1.558867e-01 -2.215226e-01 -9.947187e-01 -6.391959e-01 7.515556e-01 -2.821856e-01 3.052462e-01 -3.599297e-01 -2.059486e-01 8.439635e-01 3.179310e-02 7.711273e-01 -1.883614e-03 
-9.837467e+00 3.308651e+00 1.807931e+00 4.894243e+00 1.032961e+01 -1.299825e+00 -4.286913e+00 2.682242e+00 -6.600770e-01 6.735606e+00 5.375633e+00 -3.519662e+00 -8.768308e-02 -6.920433e-02 -3.123715e-01 -1.299541e+00 -7.384932e-01 -1.256281e-01 6.869465e-02 1.008805e+00 -1.002550e+00 -7.179555e-01 -6.779503e-01 -1.703593e-01 4.914948e-01 5.324078e-03 
-9.404469e+00 3.033828e+00 -2.602477e-01 3.287036e+00 6.289080e+00 -1.198499e+00 -2.984077e-01 -3.885860e-01 5.024588e+00 6.513163e+00 2.613356e+00 3.170464e+00 -8.272672e-02 2.210274e-02 -6.655794e-01 -8.309145e-01 -3.409067e-01 -3.894157e-01 3.036570e-01 1.249096e+00 -8.184350e-01 -1.672021e-01 -9.047224e-01 -1.813513e+00 7.033882e-02 1.965117e-03 
-9.827591e+00 1.876405e+00 -3.290939e+00 2.865490e+00 5.151200e+00 -9.878789e-01 7.926922e-01 1.121345e+00 -1.399769e+00 6.414682e-01 1.860992e+00 1.360243e+00 -6.277359e-02 -6.553917e-02 -6.160693e-01 -6.333384e-01 -8.544406e-01 -1.876030e+00 -3.362049e-01 1.291486e+00 9.165031e-01 -5.485308e-01 -1.400780e+00 -1.209372e+00 9.025518e-01 4.613936e-03 
-9.153881e+00 1.519134e+00 5.523291e-01 5.268322e+00 6.484757e+00 -3.292655e-01 1.869680e+00 7.789245e-02 2.147985e-01 1.113942e+00 -4.422203e+00 1.131047e-01 -8.062637e-02 -2.555567e-01 1.023885e-02 5.152699e-01 -2.839175e-01 -4.275663e-01 -8.267398e-01 -4.763204e-01 9.697748e-01 -1.531155e+00 -4.003077e-02 4.662147e-01 -1.113866e+00 5.650866e-03 
-1.029046e+01 9.856519e-01 -1.765050e+00 -3.686023e-01 8.516216e-01 -3.415467e+00 1.086471e+00 7.031518e+00 -9.978359e-01 2.431318e+00 2.846552e+00 2.521777e+00 -6.566358e-02 -1.397257e-01 4.898239e-01 9.734802e-01 2.794121e-01 4.484443e-01 -4.775347e-01 -3.855734e-01 1.015227e+00 5.188485e-01 1.103392e+00 8.336649e-01 -4.937311e-01 9.161234e-05 
-1.045082e+01 3.530399e+00 1.553157e+00 3.484495e+00 6.301038e+00 -4.118404e+00 -2.826899e+00 1.505201e+00 -2.832156e+00 5.418084e+00 4.451650e+00 -2.979634e+00 -5.302739e-02 -7.468662e-02 1.691872e-01 5.199448e-01 1.148142e+00 7.820282e-01 -3.401558e-02 -1.213194e-02 5.453060e-01 1.403737e+00 9.167463e-01 1.166904e+00 3.251290e-01 -3.990805e-03 
-9.877750e+00 3.319892e+00 1.076048e+00 5.154464e+00 7.485281e+00 -1.480983e+00 1.213115e+00 5.483826e+00 2.717950e+00 4.006358e+00 1.592391e+00 4.379567e-01 -7.611501e-02 2.934803e-01 2.236387e-01 4.705897e-01 1.793602e+00 1.268218e+00 1.215269e-01 8.391026e-01 -8.231831e-01 9.023317e-01 7.826649e-01 -3.712140e-01 -1.080935e-01 -6.492698e-03 
-9.733667e+00 1.197950e+00 1.731504e+00 8.247497e+00 7.078069e+00 -1.466585e+00 1.745698e+00 3.578269e+00 5.375592e+00 4.910153e+00 2.039397e+00 2.780660e+00 -9.535468e-02 1.410189e-01 -2.150724e-01 -1.043891e+00 3.233687e-01 1.317543e-01 -3.541965e-01 5.277188e-01 4.381849e-01 1.107735e+00 -3.154387e-01 -9.400543e-01 9.100598e-02 -1.504743e-03 
-9.181631e+00 3.270070e+00 4.987253e-01 6.217906e+00 6.804195e+00 -4.133742e+00 2.995685e+00 1.879069e+00 -5.900512e-01 6.598608e+00 2.196608e+00 -8.988376e-01 -7.696342e-02 7.973842e-02 -7.291834e-02 -6.778431e-01 -6.503670e-01 -3.724377e-01 -8.257250e-02 -4.446821e-01 6.919429e-02 7.651009e-02 9.170624e-01 1.619767e-01 -5.067585e-01 3.761077e-03 
-1.009378e+01 2.479948e+00 -3.377635e+00 4.569618e+00 7.300353e+00 -4.563007e+00 -1.079590e+00 5.498504e+00 4.360519e+00 2.544766e+00 -5.507305e-01 -1.856207e+00 -6.012690e-02 1.936571e-01 -1.920339e-01 -9.187668e-01 -1.363450e+00 -5.871791e-01 5.158187e-01 -1.030157e+00 1.394284e-01 -3.918037e-01 4.087571e-01 1.419059e-01 -8.942346e-02 6.074977e-03 
-9.299000e+00 2.314302e+00 2.414025e-01 3.741568e+00 5.511951e+00 -3.456343e-01 4.023489e-01 4.869680e+00 3.608037e+00 9.774364e+00 3.697338e+00 2.225977e-01 -7.492352e-02 2.332655e-01 -7.141253e-01 -5.477343e-01 -9.395793e-01 -1.867712e-01 1.205063e+00 -1.071751e+00 -8.585420e-01 -5.604998e-01 -6.661918e-01 -4.470550e-01 6.417642e-01 2.389562e-03 
-8.706697e+00 7.156644e-01 -2.733668e+00 2.668416e+00 4.788295e+00 -7.815458e-01 -2.108419e+00 2.780106e+00 1.317529e+00 5.366061e+00 1.998562e+00 1.772825e+00 -6.599975e-02 3.845520e-02 -4.923065e-01 -1.104524e-01 -9.079558e-01 1.229033e-02 9.251239e-01 5.825989e-02 -1.728834e+00 -1.892156e+00 -1.095011e+00 4.714545e-01 1.029112e+00 1.469493e-03 
-8.708847e+00 5.815848e-01 -2.561929e+00 2.470610e+00 7.126368e+00 8.434653e-04 -1.848653e+00 -1.054441e+00 -1.871055e+00 1.857001e+00 -1.313313e+00 4.954675e-01 -6.207919e-02 -7.990532e-02 -9.870764e-02 -1.164525e-02 -2.343474e-01 6.905977e-01 5.262405e-01 -6.375731e-01 -1.403343e+00 -6.348143e-01 -7.987792e-01 5.232163e-01 5.896381e-01 -1.012099e-03 
-1.019658e+01 8.847739e-01 -2.528231e+00 6.653183e-01 6.554596e+00 -1.106267e-01 3.372106e-01 -1.836052e-01 -2.360716e+00 1.028393e+00 4.311867e+00 3.152915e+00 -5.920160e-02 -3.624535e-01 2.046418e-01 2.944447e-01 -1.220605e-01 -2.175173e-01 -3.306825e-01 -5.808761e-02 -4.460689e-01 2.917527e-01 -3.902926e-01 -3.695848e-01 -3.150484e-01 -1.900268e-03 
-8.953583e+00 1.736209e+00 8.045757e-02 3.571380e+00 8.081789e+00 1.950109e+00 -4.008331e+00 -6.651796e-01 2.273089e+00 7.949301e+00 5.156766e+00 2.480743e+00 -8.338308e-02 -3.094662e-01 1.227043e-01 4.374970e-01 5.058170e-01 -7.917996e-01 -3.794829e-01 -6.375977e-01 3.743982e-03 1.033896e-01 -6.503422e-01 -2.374396e-01 -8.319184e-01 1.081347e-04 
-1.039660e+01 1.161561e+00 -2.582638e+00 1.507729e+00 3.222998e+00 -3.409591e+00 -1.319018e+00 3.551301e-01 7.042210e-01 3.684475e-01 -3.084402e+00 -7.950549e-01 -6.484914e-02 -1.124533e+00 -1.150916e+00 2.100323e+00 -6.104726e-01 8.952556e-01 -5.840532e-01 -5.568227e-01 -1.588740e+00 -1.028486e+00 1.453033e-01 -1.790368e+00 -1.463575e+00 7.095098e-02 
-1.015617e+01 1.056713e+00 -3.472403e-01 4.578489e+00 4.833169e+00 -2.470891e-01 -4.208528e+00 -1.305089e+00 -2.886576e+00 -1.064737e+00 1.197623e+00 -1.690139e+00 -5.871475e-02 -1.995819e+00 -1.441217e+00 2.944107e+00 -1.525307e+00 2.564577e+00 -4.555921e-01 2.015448e-01 -2.291653e+00 -2.430100e+00 7.147164e-01 -1.390075e+00 -1.037773e+00 1.487912e-01 
-1.521796e+01 -4.530056e+00 8.187233e+00 -2.890599e+00 1.265518e+01 -1.932294e+00 -2.346805e+00 -7.807349e+00 -4.923316e+00 6.261929e+00 -2.660403e+00 -2.079520e+00 2.832192e-01 -2.817383e+00 -3.450730e+00 2.943043e+00 3.247990e+00 5.701743e-01 2.117971e+00 -6.884556e-01 -7.222749e-01 -4.251877e-01 6.886026e-01 3.756946e-01 -4.171054e-01 1.888239e-01 
-1.652200e+01 -2.624070e+00 9.416056e+00 -1.855992e+00 1.618858e+01 -1.066501e+00 -2.486714e+00 -8.042205e+00 -7.063641e+00 8.576142e+00 -2.005609e+00 -2.065891e+00 4.865388e-01 -3.186228e+00 -4.557504e+00 9.993603e-01 5.421347e+00 -2.506787e+00 2.631279e+00 -1.020533e+00 4.588507e-01 6.542991e-01 -1.769017e+00 -3.693619e-01 -4.895458e-02 2.392930e-01 
-2.130060e+01 -1.425170e+01 7.250930e+00 2.096492e+01 3.961630e-01 7.589972e+00 -5.622203e+00 1.123131e-01 6.668153e-01 -1.008979e+00 3.956873e-01 -2.692707e+00 6.066434e-01 -1.045183e+00 -3.581304e+00 -1.708787e+00 5.871575e+00 -3.054862e+00 2.889856e+00 -1.687640e+00 8.325647e-01 2.062538e+00 -3.059264e+00 -1.593237e-01 7.200441e-01 1.317132e-01 
-2.304599e+01 -1.686998e+01 5.117712e+00 1.975746e+01 -1.571255e+00 8.148170e+00 -7.673493e+00 -2.970667e+00 -2.410146e+00 -6.274368e+00 -2.177231e+00 -1.628319e+00 9.760382e-01 1.639526e+00 -2.092325e-01 -2.888183e+00 1.477468e-01 -2.081954e+00 -3.423645e-01 3.004581e-01 -4.483384e-01 6.794757e-01 -1.731505e-01 -1.564329e+00 1.074503e+00 -1.126099e-02 
-1.718187e+01 -1.531362e+01 1.792471e+00 1.566055e+01 6.260792e+00 7.909653e+00 -8.191616e+00 -6.180295e+00 3.062628e+00 -1.609135e+00 -3.371210e+00 1.301914e+00 6.970356e-01 2.643968e+00 3.372636e+00 -1.514685e+00 -6.462464e+00 4.815809e-01 -2.095141e+00 3.325832e+00 -2.236015e+00 -8.338070e-01 5.131885e+00 -8.299323e-01 1.584265e+00 -7.512129e-02 
-1.038373e+01 -3.139273e+00 -2.295627e+00 1.534928e+00 2.846494e+00 -2.938163e+00 3.002833e-01 -7.137593e+00 -4.864169e+00 8.010468e+00 -7.943805e+00 1.309315e+00 3.850378e-01 3.407077e+00 4.253714e+00 7.537118e-01 -4.649273e+00 3.230467e-02 -3.463117e-01 3.858184e+00 -4.374513e-01 7.562525e-01 6.119966e+00 7.671638e-02 -8.181453e-03 -1.649006e-01 
-1.441189e+01 -4.253878e+00 3.384175e+00 -2.236132e+00 5.951934e-01 2.657435e+00 7.020068e+00 -8.984297e+00 -2.275208e+00 1.750802e+01 -8.706874e-01 3.759802e+00 5.265372e-01 4.929350e+00 3.876055e+00 -1.126165e-02 -2.620482e+00 -2.170546e+00 5.950142e-01 1.976893e+00 1.354370e+00 9.864866e-01 9.858818e-01 5.780465e-01 7.938242e-03 -9.206486e-02 
-7.395600e+00 -1.131283e+00 8.090420e+00 5.459436e+00 1.423068e+00 9.042721e+00 4.011586e+00 -3.755922e+00 4.040035e+00 1.476688e+01 -3.043911e+00 -2.898170e+00 2.367845e-01 6.034198e+00 6.755854e-01 -9.379343e-01 -8.819605e-01 -1.423564e+00 1.408050e+00 -7.147206e-01 1.276652e+00 2.715546e+00 -3.519648e+00 8.665120e-01 7.779375e-01 2.470667e-02 
5.970809e+00 3.062660e+00 -3.456861e+00 5.958838e-01 -3.880227e+00 4.894282e+00 -1.628032e-01 -1.099277e+00 3.542959e+00 -5.793130e-02 -2.930925e+00 3.445348e+00 3.108379e-01 6.624233e+00 -2.965078e-01 -3.507758e+00 -1.449476e+00 -8.553462e-01 -1.157592e+00 -1.029541e+00 6.338273e-01 1.721254e+00 -4.921231e+00 5.657756e-02 9.850987e-01 6.649711e-02 
9.595907e+00 -3.419615e+00 -3.564781e+00 -4.290883e+00 -2.033618e+00 2.983664e+00 3.181155e-01 -4.696840e+00 5.804476e+00 -8.047923e-01 -2.581126e+00 5.356229e+00 6.164207e-01 2.023180e+00 4.016766e-01 -3.515450e+00 -2.006713e+00 -6.077013e-02 -1.868858e+00 1.560339e+00 -1.144575e+00 4.487713e-01 -1.274207e+00 -3.989733e-01 1.163483e+00 6.178635e-02 
1.021352e+01 -4.592251e+00 -8.327017e+00 -4.608352e+00 -1.953195e+00 -1.009984e-01 3.719098e+00 -5.344701e+00 5.448840e+00 6.877038e-01 -8.191918e-01 4.558096e+00 6.692046e-01 -1.348912e+00 -5.776920e-02 -6.939313e-01 -4.831813e-01 1.112450e+00 9.536028e-03 2.468261e+00 -1.743119e+00 3.332884e-01 1.197914e+00 -8.635675e-01 1.107548e+00 1.416082e-02 
5.989408e-01 4.704556e+00 -7.051752e+00 -1.972013e+00 1.557012e-01 2.196072e+00 9.872328e+00 -7.356083e+00 5.330951e+00 8.023026e+00 -6.094644e+00 2.362870e+00 3.665329e-01 -1.171200e+00 -2.639560e-01 8.749919e-02 -3.059334e-01 -1.235385e-01 1.731518e+00 1.534554e+00 -1.259678e+00 2.831783e-01 -1.539090e-02 -1.269974e+00 2.226250e+00 3.486624e-02 
3.724734e+00 -1.288271e+00 -5.183032e+00 -2.979458e+00 5.873623e-01 5.335758e+00 7.401394e+00 -8.485253e+00 5.446164e+00 1.517732e+00 -5.492003e+00 1.047977e+01 5.065860e-01 2.188456e-01 -1.558009e+00 5.877435e-01 -3.927009e-01 -1.400421e+00 2.164609e+00 1.152328e-01 -1.146479e+00 6.906019e-01 -9.492798e-01 -1.092470e+00 2.968565e+00 1.046672e-01 
6.984302e+00 -6.391385e+00 -4.699277e+00 -6.634997e+00 -3.921589e+00 8.922876e+00 6.149740e+00 -9.424957e+00 7.221705e+00 -1.296761e+00 -6.594593e+00 1.352664e+01 8.720613e-01 2.184735e+00 -3.402512e+00 4.501165e-01 -6.904225e-01 -2.381985e+00 1.809959e+00 -1.398334e+00 -2.639623e-01 5.513262e-01 -1.559665e+00 2.389745e-01 2.530520e+00 1.654637e-01 
8.115070e+00 -6.834324e+00 -6.564537e+00 -4.240365e+00 -6.916653e+00 7.358646e+00 6.156556e+00 -1.004266e+01 7.956472e+00 6.011984e-01 -6.031568e+00 1.381904e+01 9.397766e-01 1.263575e+00 -1.967686e+00 5.372847e-01 -2.826226e-01 -2.017875e+00 4.552996e-01 -5.711789e-01 3.032022e-02 3.210368e-01 -3.513157e-01 6.941752e-01 7.869948e-01 1.092023e-01 
9.327449e+00 -9.534980e+00 -4.110416e+00 -4.793672e+00 -8.002216e+00 1.023442e+01 3.503075e+00 -7.897191e+00 6.832427e+00 6.829676e-01 -4.629989e+00 1.334584e+01 9.772562e-01 2.804638e-01 -3.393308e-01 2.510090e-01 2.095201e-01 -4.882140e-01 -9.445826e-01 1.130658e-01 -3.143301e-02 -1.068188e-01 2.629526e-02 1.290915e+00 1.004696e-01 2.954436e-02 
8.871034e+00 -9.554906e+00 -2.791039e+00 -5.313233e+00 -7.461701e+00 6.956484e+00 5.868832e+00 -9.097535e+00 7.245987e+00 -1.228711e+00 -3.003429e+00 1.450515e+01 1.000000e+00 -2.324785e-01 5.556332e-01 -2.894468e-01 5.065643e-01 7.778686e-01 -1.746610e+00 9.345902e-01 1.763653e-01 -5.032246e-01 -5.144498e-01 1.701951e+00 -7.395951e-01 8.979916e-04 
8.008638e+00 -6.727748e+00 -5.330981e+00 -5.050962e+00 -6.090135e+00 4.401045e+00 6.858931e+00 -1.005468e+01 7.042854e+00 -2.503299e-01 -1.654090e+00 1.368593e+01 9.896713e-01 -1.687588e-01 8.588344e-01 -3.669956e-01 1.547471e-01 4.899808e-01 -1.274430e+00 6.475446e-01 2.144350e-01 -8.466457e-01 -5.792915e-01 2.049814e+00 -2.613561e-01 -2.312028e-03 
7.612082e+00 -5.459774e+00 -7.401489e+00 -1.578898e+00 -3.983351e+00 1.542282e+00 9.151579e+00 -8.082087e+00 5.335136e+00 -1.504402e+00 9.902356e-01 9.951012e+00 9.380590e-01 4.448156e-01 7.357596e-01 4.140997e-03 -5.035807e-01 2.001381e-02 -4.652166e-03 -4.984574e-01 1.113149e+00 -1.618920e+00 -8.239349e-01 2.166545e+00 -3.254088e-01 -2.714598e-03 
9.113131e+00 -7.288374e+00 -3.640170e+00 -5.887104e+00 -7.291488e+00 6.569372e+00 5.099424e+00 -7.332740e+00 3.554624e+00 -2.075644e+00 3.622251e+00 1.431612e+01 9.966666e-01 7.696765e-01 3.552580e-01 7.733999e-01 -1.285200e+00 -3.462421e-01 4.260376e-01 -9.278466e-01 1.461726e+00 -1.811987e+00 -1.129429e+00 1.686883e+00 4.787191e-01 4.200858e-03 
1.054287e+01 -5.595795e+00 -3.615740e+00 -7.413066e+00 -6.760956e+00 5.849060e+00 4.256299e+00 -4.892763e+00 8.955011e-01 -4.435728e+00 5.191127e+00 1.256301e+01 9.829294e-01 7.670359e-01 6.055541e-01 8.279867e-01 -1.915267e+00 -8.908893e-01 1.262461e+00 -1.596969e+00 1.381314e+00 -1.863900e+00 -1.071315e+00 1.513705e+00 4.305620e-01 6.898683e-03 
1.039163e+01 -4.883448e+00 -3.356856e+00 -8.559878e+00 -6.432543e+00 4.377844e+00 4.667338e+00 -4.340717e+00 2.027392e-01 -4.431813e+00 4.679877e+00 1.477353e+01 9.882404e-01 2.599722e-01 1.193935e+00 4.535706e-01 -1.189462e+00 -4.209087e-01 2.882055e-01 -1.277094e+00 1.532478e+00 -1.938342e+00 -7.163118e-01 1.331221e+00 -8.554724e-01 -1.155857e-02 
1.080801e+01 -3.634467e+00 -3.403212e+00 -9.818847e+00 -8.867270e+00 8.950352e+00 1.382777e+00 -2.671527e+00 -2.308422e+00 -5.682891e+00 8.029947e+00 1.187512e+01 9.767655e-01 8.973362e-02 1.171502e+00 7.662762e-01 -1.174870e+00 -4.838678e-01 1.288624e-02 -9.710287e-01 6.417003e-01 -1.092942e+00 -8.073258e-02 6.211542e-01 -9.265248e-01 -1.968515e-02 
1.028042e+01 -2.299365e+00 -1.478580e+00 -1.063152e+01 -8.342875e+00 6.459753e+00 1.507141e-01 -7.809697e-01 -4.535126e+00 -5.033622e+00 8.858946e+00 1.038271e+01 9.419557e-01 3.519363e-01 8.574022e-01 1.109634e+00 -9.434416e-01 -7.005305e-01 -1.173341e-01 -9.834939e-01 5.889305e-01 -5.282197e-01 5.103765e-02 2.367988e-02 -1.224599e+00 -2.722654e-02 
1.104714e+01 -1.030327e+00 -7.234969e-01 -1.225160e+01 -8.225129e+00 4.872536e+00 1.659467e+00 -3.464136e+00 -2.200275e+00 -4.538486e+00 6.207364e+00 1.012580e+01 9.076460e-01 4.095296e-01 1.131401e+00 6.111118e-01 -1.654551e-01 -5.674351e-01 -1.397443e+00 -4.510242e-01 2.403096e-01 1.137516e+00 -1.159350e+00 -2.429254e-01 -1.074311e+00 -3.053320e-02 
1.203175e+01 -1.898506e+00 8.514559e-01 -1.206071e+01 -1.025627e+01 5.830081e+00 -3.884758e-01 -9.997603e-01 -2.492433e+00 -4.748827e+00 5.709569e+00 9.525201e+00 8.866674e-01 1.021105e+00 1.820507e+00 -1.129191e+00 7.932981e-01 -1.591825e-01 -2.781452e+00 4.933974e-01 5.331198e-01 8.827248e-01 -1.761278e+00 2.167867e-01 -1.338815e+00 -2.820997e-02 
1.198000e+01 1.822107e+00 -1.512671e+00 -9.931528e+00 -1.074775e+01 2.277974e+00 -6.027488e-01 -1.360584e+00 2.357809e+00 -1.162204e+01 8.390009e+00 6.932318e+00 8.517436e-01 1.301708e+00 2.128426e+00 -1.707371e+00 1.111016e+00 -1.387116e-01 -2.711692e+00 -3.849501e-01 2.291646e+00 -3.707662e-01 -1.900162e+00 4.913177e-01 -1.550643e+00 -2.548197e-02 
1.491952e+01 5.376956e+00 -6.729947e+00 -7.825068e+00 -7.877477e+00 -6.150226e+00 3.748809e+00 8.328536e-01 -2.400544e+00 -1.029823e+01 8.851557e+00 5.285371e+00 8.288571e-01 1.058806e+00 2.388373e+00 -8.579496e-01 7.836914e-02 -4.637398e-01 -1.342057e+00 -9.557353e-01 2.299909e+00 -3.994314e-01 -1.697228e+00 1.574230e-03 -1.230841e+00 -2.549903e-02 
1.611179e+01 5.974072e+00 -5.469650e+00 -8.814337e+00 -1.010808e+01 -2.695771e+00 -2.333926e+00 7.077790e+00 -4.100051e+00 -1.126459e+01 7.092959e+00 4.492497e+00 8.091413e-01 6.985864e-01 1.629097e+00 9.448905e-01 -9.130847e-01 -1.262094e+00 6.949520e-01 -1.223069e+00 1.324861e+00 -1.382275e-01 -6.149680e-01 -1.088084e+00 -8.009416e-01 -2.593138e-02 
1.525988e+01 7.967375e+00 -1.459803e+00 -1.222746e+01 -1.289480e+01 1.606668e+00 -4.301564e+00 6.280599e+00 -1.260659e+00 -1.341369e+01 6.365965e+00 4.590908e+00 7.804734e-01 8.218098e-03 1.307188e+00 2.040514e+00 -7.799371e-01 -2.183265e+00 1.735533e+00 -1.111008e+00 -7.533927e-02 1.476461e+00 -7.474204e-01 -8.302299e-01 -1.512293e+00 -3.059882e-02 
1.530275e+01 8.672384e+00 5.767095e-01 -1.229575e+01 -1.454956e+01 1.874287e+00 -2.692907e+00 2.539846e+00 1.096729e+00 -1.313915e+01 4.192387e+00 3.274841e+00 7.462785e-01 -1.018344e-01 1.394649e+00 1.634382e+00 -3.768698e-01 -1.133202e+00 -1.754884e-01 6.187493e-01 -8.801503e-01 8.989646e-01 3.426403e-01 -2.983288e-01 -2.470851e+00 -3.588595e-02 
1.536513e+01 1.056374e+01 4.494414e-01 -9.984044e+00 -1.657306e+01 2.424089e-01 -1.626740e+00 2.725129e+00 2.383373e+00 -1.309806e+01 6.150692e+00 -1.667267e+00 7.072943e-01 -5.411816e-03 1.563228e+00 7.173196e-01 -5.292711e-02 1.350885e-01 -1.839298e+00 7.789924e-01 -1.805730e-01 -1.863198e-01 1.405095e+00 -2.645836e-01 -2.917472e+00 -3.753962e-02 
1.555000e+01 1.164913e+01 1.747637e+00 -1.182039e+01 -1.393496e+01 -2.891084e+00 -5.775913e-01 4.454773e+00 -1.427244e+00 -9.709208e+00 5.708951e+00 -4.732673e+00 6.663011e-01 3.357983e-03 1.691142e+00 4.878706e-02 2.105532e-01 3.422806e-01 -2.459156e+00 6.193988e-01 8.959947e-01 -8.772427e-01 1.772656e+00 -6.291723e-01 -2.352017e+00 -3.536873e-02 
1.510920e+01 1.429514e+01 1.541331e+00 -1.272978e+01 -1.252666e+01 -5.207133e+00 -1.464260e+00 4.420270e+00 -9.302720e-01 -8.103184e+00 4.284765e+00 -5.992697e+00 6.327640e-01 1.147282e-01 1.779262e+00 -4.137093e-01 7.400846e-02 5.725574e-01 -2.479519e+00 1.174647e+00 -6.954415e-02 -7.713319e-01 2.488805e+00 -1.817659e+00 -1.348494e+00 -3.145039e-02 
1.544750e+01 1.526240e+01 2.746998e-01 -9.870122e+00 -1.486136e+01 -7.696721e+00 3.228473e-01 6.172249e+00 -1.632662e+00 -6.773310e+00 1.979489e+00 -6.322529e+00 6.067001e-01 2.682962e-02 1.584125e+00 -8.360507e-01 6.276239e-01 -2.256216e-01 -1.716439e+00 1.524914e+00 -2.890867e-01 -3.860332e-01 2.717185e+00 -2.693274e+00 -1.425137e+00 -2.820911e-02 
1.599002e+01 1.765342e+01 -8.826367e-01 -1.058914e+01 -1.324707e+01 -9.752367e+00 3.796277e+00 1.518670e+00 -1.370578e+00 -2.121982e+00 -1.072873e+00 -7.614807e+00 5.798429e-01 -4.359741e-02 7.521915e-01 -9.648965e-01 9.811407e-01 4.674023e-01 -5.443649e-01 1.249187e+00 -5.283812e-01 5.317217e-01 2.108053e+00 -2.736048e+00 -6.065339e-01 -3.611607e-02 
1.524373e+01 1.789062e+01 -1.220632e+00 -9.752595e+00 -1.470286e+01 -9.200663e+00 4.416711e+00 4.460140e+00 -3.137257e+00 8.861192e-01 -5.078599e+00 -1.104730e+01 5.517161e-01 -7.373117e-01 1.591183e-01 -7.315108e-01 8.173321e-01 1.631903e+00 1.087909e+00 1.018625e+00 -9.429851e-01 1.427381e+00 1.011536e+00 -3.168189e+00 8.622647e-04 -5.702857e-02 
1.499309e+01 1.674199e+01 -2.535485e+00 -7.882837e+00 -1.026889e+01 -7.176987e+00 2.734744e+00 2.634419e+00 2.480634e+00 -1.392633e+00 -5.866430e+00 -6.662981e+00 4.796756e-01 -1.692630e+00 -1.700158e+00 1.239299e-01 1.838743e+00 3.283216e+00 2.432737e+00 7.100978e-01 1.384569e+00 1.056520e+00 -4.407642e-01 -1.216411e+00 1.211427e+00 -8.325277e-02 
1.225941e+01 1.651371e+01 -2.556430e+00 -7.136612e+00 -8.190937e+00 -3.544868e+00 5.946738e+00 8.994492e-01 3.578636e+00 -2.080306e+00 -1.146467e+01 -6.794131e+00 3.716409e-01 -2.184459e+00 -3.240729e+00 1.535438e+00 3.173759e+00 5.278741e+00 1.647220e+00 -1.404248e-01 5.474056e-01 -1.580583e+00 -8.419135e-01 5.795445e-01 1.180507e+00 -7.635362e-02 
9.019031e+00 9.841084e+00 4.049118e-01 -2.703414e+00 -8.695602e-02 -4.165807e-01 6.581753e+00 1.022186e+01 5.540767e-01 -2.842590e+00 -3.961892e+00 -3.684257e+00 2.536167e-01 -1.389250e+00 -2.904070e+00 1.524755e+00 3.498338e+00 4.327840e+00 1.517123e+00 1.306233e+00 5.138968e-01 -2.472683e+00 4.860447e-01 2.342065e+00 1.151632e+00 -4.245693e-02 
7.308470e+00 5.137424e+00 4.986357e+00 3.526491e+00 6.599876e+00 -4.344767e+00 1.791083e+00 3.403448e+00 -1.007690e+01 -2.598470e+00 -3.133146e+00 -6.634128e+00 2.829775e-01 -9.505662e-01 -2.583383e+00 1.991475e+00 3.378739e+00 2.702575e+00 1.073870e+00 9.409191e-01 7.577100e-01 -1.823520e+00 2.905995e+00 3.569410e+00 -4.173225e-01 -1.801896e-02 
1.052231e+01 7.909774e+00 1.316895e+00 4.277297e+00 3.974900e+00 8.085750e-01 1.134374e+01 3.951904e+00 -3.055017e+00 1.296673e+00 1.678131e+00 -9.848249e-01 3.117226e-01 -1.317824e+00 -2.017370e+00 1.097469e+00 1.278337e+00 5.992438e-01 1.329772e+00 7.095231e-01 -1.168778e+00 -2.383872e+00 1.790212e+00 1.052989e+00 -1.576444e+00 -1.623541e-02 
6.754936e+00 4.562447e+00 6.944952e+00 6.266728e+00 3.291009e+00 1.211906e+00 8.270341e+00 7.822977e+00 -3.734420e+00 1.038004e+01 3.562365e+00 -1.023046e+01 2.524931e-01 -1.934784e+00 -2.353932e+00 -8.679806e-01 -8.571523e-01 -7.355798e-01 2.291635e-01 -5.204529e-01 -3.634464e-01 -1.510066e+00 1.048740e+00 2.552202e-01 -1.558199e+00 -3.740790e-02 
2.706679e+00 4.172009e-02 4.912961e+00 2.318152e+00 4.563697e+00 3.453945e+00 6.889739e+00 2.168205e+00 -1.453652e+01 -3.807818e-01 -2.044704e+00 -9.768312e+00 1.876819e-01 -2.637162e+00 -3.130702e+00 -6.433301e-01 -9.283732e-01 1.636045e-01 -6.673421e-01 -1.558648e+00 1.281784e-01 -8.827581e-01 -5.188468e-01 -1.830739e+00 -1.241196e+00 -4.091444e-02 
1.542364e+00 -2.698209e+00 -1.151579e+00 2.203023e-01 2.627580e+00 -4.521635e+00 1.415818e+00 2.478065e+00 -1.188648e+01 3.483959e+00 4.372835e-03 -1.003338e+01 1.579583e-01 -1.777786e+00 -1.925312e+00 -9.069929e-01 -5.607161e-01 1.263784e+00 -1.941049e-01 -1.053205e+00 -1.123982e+00 -6.382751e-02 -8.958624e-01 -7.968388e-01 8.973135e-01 -1.466629e-02 
-5.721283e-02 -4.113407e+00 2.148510e+00 2.658644e+00 5.124638e+00 3.386350e-01 6.977758e+00 7.265252e+00 -3.392780e+00 2.150478e+00 -5.696569e+00 -7.289345e+00 1.544178e-01 -1.276823e+00 -7.048509e-01 -3.298687e-01 4.304273e-01 1.126224e+00 -1.024188e+00 -1.802083e+00 -9.089674e-01 1.837400e+00 6.911913e-01 9.299465e-01 1.176295e+00 3.279537e-03 
-7.520456e-01 -2.986550e+00 3.792213e+00 3.292902e+00 9.329457e+00 1.799036e+00 2.960308e+00 -3.454567e-01 -9.625426e+00 4.635096e+00 1.404104e+00 -6.983376e+00 1.957936e-01 -1.552658e+00 -9.073334e-01 3.147907e-01 4.249493e-02 3.327754e-01 -5.228543e-01 -2.543586e+00 -1.219611e+00 1.219429e+00 8.746684e-01 1.504623e+00 8.849776e-01 1.572522e-02 
-2.530231e+00 -3.338364e+00 7.917210e-01 2.933989e+00 6.843880e+00 -4.827330e+00 -2.892920e+00 -9.648713e-01 -6.480041e+00 2.499606e+00 1.905163e+00 -5.411836e+00 1.851619e-01 -1.242957e+00 -7.286482e-01 -8.066510e-01 -1.334189e+00 -1.318934e+00 -1.656398e+00 -3.084275e+00 2.243696e-02 8.597142e-01 9.355184e-01 2.463892e+00 2.047951e-01 1.312863e-02 
-4.984419e+00 -7.622397e+00 1.100769e+00 2.951047e-01 3.431835e+00 -4.552924e+00 -6.366775e+00 4.950714e-01 -4.245702e+00 7.682737e+00 3.726622e+00 -6.547243e+00 2.212124e-01 -3.644164e-01 -7.483567e-01 -1.791894e-01 -3.462258e-01 -1.163155e+00 -1.146690e+00 -1.988952e+00 2.377329e+00 2.403443e+00 2.669570e-02 1.009233e+00 6.777066e-01 4.771417e-03 
-4.155810e+00 -5.438724e+00 -5.390236e-01 -2.513402e+00 1.478777e+00 -4.767375e+00 -3.780075e+00 6.957172e+00 -1.784071e+00 5.304249e+00 5.461629e+00 -6.483436e+00 2.073516e-01 2.325156e-01 -3.626049e-01 4.562461e-01 4.203627e-01 -1.235447e+00 -5.990919e-01 -1.103028e+00 1.082145e+00 1.751670e+00 -1.558619e+00 -2.066586e+00 7.275271e-03 -6.490034e-03 
-1.761338e+00 -5.678154e+00 3.561638e+00 4.285468e+00 6.196231e+00 -3.964394e+00 -6.540875e+00 7.580167e+00 4.380393e-02 3.366253e+00 4.672036e+00 -3.059043e+00 2.085559e-01 8.240076e-01 9.578617e-01 6.024081e-01 1.028666e+00 -5.178252e-01 6.103649e-02 6.359192e-01 4.747640e-01 2.878282e-01 -3.169520e+00 -2.750924e+00 1.020803e-01 -1.810194e-02 
-2.979194e+00 -6.123510e+00 1.842517e+00 3.040620e+00 -7.155509e-01 -8.117055e+00 -8.321011e+00 9.033039e-01 1.335588e-01 -3.135246e+00 -8.900475e+00 -7.119560e+00 1.590400e-01 6.802616e-02 3.667286e-01 9.831376e-01 1.991829e+00 3.749209e-02 -4.300072e-01 8.646641e-02 -1.568984e+00 -6.250564e-01 -2.894732e+00 -2.920690e+00 8.456071e-02 -1.471655e-02 
-1.452689e+00 -2.490695e+00 2.922039e+00 2.661424e+00 1.939873e+00 -2.572901e+00 -9.167112e-01 5.895825e+00 -3.765376e+00 -3.945115e+00 -2.846943e+00 -5.718780e+00 1.548585e-01 -8.171272e-03 2.645290e-01 2.422962e-01 3.082947e-01 -4.705071e-01 6.697350e-01 1.092500e+00 -6.034952e-01 -4.410495e-01 -2.007739e+00 -2.187631e-01 -3.783135e-01 -9.551352e-03 
-3.970004e+00 -5.198810e+00 4.696464e+00 8.257765e+00 3.794417e+00 -7.613157e+00 -6.159825e+00 -4.557785e-02 -3.004763e+00 -5.513725e+00 -5.382331e+00 -4.730764e+00 1.606175e-01 -1.711035e-02 4.174609e-02 -8.741530e-02 2.261625e-01 1.271266e+00 1.460551e+00 5.647278e-01 -5.983885e-02 1.882308e-02 8.364065e-01 3.013440e+00 4.324341e-01 -8.092999e-03 
-1.306789e+00 -4.817859e+00 3.346146e+00 3.218369e+00 1.588712e+00 -8.676677e-01 -2.158967e+00 5.037132e+00 -5.922827e-01 -5.483201e+00 1.819149e+00 -6.145008e+00 1.600103e-01 -2.764934e-01 -4.232299e-01 -1.264422e+00 -2.045275e-01 1.037609e+00 1.163535e+00 -6.904359e-02 -8.749062e-01 1.343659e+00 1.409696e+00 1.319135e+00 2.425944e-01 -1.795422e-02 
-3.137695e+00 -4.751198e+00 1.193387e+00 3.892960e+00 5.816358e+00 -1.666916e+00 -4.876243e+00 1.033456e+00 -1.358872e+00 1.815830e+00 3.833681e+00 -4.744275e+00 1.159990e-01 7.422256e-03 5.926801e-01 -1.135456e+00 -6.353956e-01 9.835144e-01 1.917137e+00 -5.088138e-03 2.083236e-01 9.080330e-01 7.625588e-01 -7.263382e-02 -4.389884e-01 -2.258313e-02 
-3.251310e+00 -4.830651e+00 -1.648532e+00 3.821189e+00 6.116950e+00 2.716527e-01 -1.903720e+00 9.817774e-01 2.129974e+00 -5.614116e-01 -8.592724e-01 -4.499053e+00 8.739662e-02 -2.700771e-01 4.691768e-01 -3.971465e-01 4.394670e-01 -1.855190e-01 -6.942496e-02 -1.403466e+00 -1.790908e+00 2.344332e-01 2.934138e-01 -1.846688e+00 9.615216e-01 -1.565176e-02 
-2.960632e+00 -2.229014e+00 1.516523e+00 4.779377e+00 6.447870e+00 1.402869e+00 -6.312889e+00 3.023718e+00 1.742733e-01 -4.161826e+00 -4.406290e+00 -7.748684e+00 8.400875e-02 -7.927303e-02 2.113246e-01 -2.164675e-01 7.735701e-02 -1.728633e+00 -2.556773e-01 -5.692744e-01 -3.715405e-01 3.278569e-01 -5.675703e-01 -1.790350e+00 9.009807e-01 -7.950246e-04 
-2.745707e+00 -3.733067e+00 1.198845e+00 4.972496e+00 3.453608e-01 -2.749685e+00 -8.457973e+00 -4.912540e+00 -1.866893e-01 -1.027304e+00 -3.294304e+00 1.648048e-01 9.774667e-02 -1.335805e-01 4.448438e-03 5.492431e-01 3.849572e-01 -2.083906e+00 -4.225770e-01 -2.469271e-01 5.094482e-01 6.037639e-01 -7.331050e-01 -1.638961e+00 -3.345315e-01 6.827164e-03 
-3.786862e+00 -4.243367e+00 -1.312639e+00 3.704092e+00 5.898762e-02 -1.434633e+00 -4.445489e+00 2.122912e+00 1.438743e+00 -7.890756e-01 -3.900552e+00 -2.571301e+00 1.068489e-01 -3.577551e-01 -2.098908e-01 5.084718e-01 1.220133e-01 -9.307929e-01 -4.444367e-01 -1.094681e-01 -6.205580e-01 1.118521e+00 6.896635e-01 -2.706462e-01 -1.122182e+00 -2.956069e-03 
-3.506098e+00 -3.801232e+00 2.512265e+00 6.283618e+00 -1.108137e+00 -4.224809e-01 -4.072055e+00 3.979421e+00 4.516558e+00 -5.913311e+00 -9.306948e+00 -8.760403e+00 1.101124e-01 -3.152538e-01 1.654506e-01 9.095038e-01 6.186014e-01 4.535545e-01 5.913252e-03 -3.279448e-03 4.878717e-01 -3.385939e-01 -8.454056e-01 -6.294420e-01 -1.837498e+00 -1.172696e-02 
-4.369212e+00 -3.244385e+00 3.402172e+00 4.733883e+00 2.520654e+00 -1.982916e+00 -9.053188e+00 -4.525053e+00 3.415257e+00 1.729495e+00 -2.753199e+00 -8.896991e+00 6.304556e-02 5.303526e-02 7.921070e-01 7.701961e-01 5.871968e-01 7.096373e-01 -1.129730e+00 -3.209098e-01 -7.610671e-01 -9.636857e-01 2.405864e-01 4.063054e-01 -3.899235e-01 -1.942611e-02 
-4.030801e+00 -3.405305e+00 3.388958e+00 7.550608e+00 1.382300e+00 -2.445977e+00 -6.170520e+00 8.508008e-01 -2.867916e+00 -6.513617e+00 -7.015191e+00 -5.859843e+00 6.101352e-02 -9.021854e-03 5.880798e-01 -4.699507e-01 1.035974e-01 1.313879e+00 -4.566353e-01 -2.063846e-01 -2.794016e-01 -1.251682e+00 1.388081e-01 4.574023e-01 1.264120e-01 -1.504489e-02 
-3.259335e+00 -4.807958e-01 2.099995e+00 6.006581e+00 2.361956e+00 -6.071536e+00 -5.000806e+00 -1.181131e-01 3.125516e-01 7.140092e-01 -3.014904e+00 -5.971198e+00 3.426778e-02 -4.640794e-01 -2.910678e-02 -1.023555e+00 4.515975e-01 2.144842e+00 1.493702e+00 1.589673e+00 1.058687e+00 6.417318e-01 9.453476e-01 -4.892069e-01 5.537220e-01 -1.261202e-02 
-4.106146e+00 -2.242628e+00 8.135999e-01 6.165256e+00 5.540606e+00 -6.613479e-01 -7.130169e+00 3.789433e-01 -1.905000e-01 -4.711528e+00 -6.889084e+00 -9.591239e+00 4.927683e-02 -8.634874e-01 -4.622367e-01 -1.016168e+00 1.945843e-01 2.837058e+00 2.474332e+00 1.546686e+00 1.429437e-01 2.127890e+00 2.897879e+00 1.258425e-01 4.902837e-01 -1.387333e-02 
-6.651937e+00 -3.971258e+00 -4.279243e-01 7.684546e+00 1.116571e+01 4.593278e+00 -6.249963e-01 1.004309e+00 5.285208e+00 5.555189e+00 -5.262287e+00 -4.262682e+00 5.853832e-03 -9.330994e-01 -8.709553e-01 -6.297363e-01 4.875221e-01 2.323261e+00 2.658426e+00 1.525679e+00 2.870209e-01 1.542102e+00 1.994907e+00 -2.867968e-01 8.745586e-01 -1.002509e-02 
