-7.774209e+00 1.063591e+00 -1.908659e+00 -4.376374e+00 -6.859510e-01 -4.899233e+00 -5.432618e+00 -1.671327e-01 -5.143311e+00 4.336221e-01 3.881826e+00 1.449537e+00 2.567750e-02 2.997151e+00 -2.577668e+00 -3.185984e+00 -3.269797e+00 -1.825667e+00 1.237671e+00 1.878480e+00 5.010613e-01 1.315426e-02 -7.976214e-01 -3.851398e+00 -2.461785e+00 5.512727e-02 
-2.430842e+00 -4.499719e+00 -1.351644e+01 -1.382460e+01 -7.346906e+00 -1.083373e+00 1.356806e+00 -8.738506e-02 -3.654685e+00 -2.851104e-01 -4.165822e+00 -3.588686e+00 5.890214e-02 2.904749e+00 -1.277622e+00 -3.065392e+00 -3.178233e+00 -7.221757e-01 2.138166e+00 1.329648e+00 7.044839e-01 -5.568824e-01 -1.943423e+00 -4.569831e+00 -2.761241e+00 4.038764e-02 
4.539863e+00 -9.043095e+00 -1.203469e+01 -1.600124e+01 -6.483809e+00 -6.188066e-01 5.650721e-01 2.298300e+00 -5.821852e+00 -3.195118e+00 -1.135134e+01 -8.340276e+00 2.847015e-01 7.482536e-01 6.281881e-01 -3.272426e-01 -1.099286e-01 1.309780e+00 1.523625e+00 8.592766e-01 2.096515e-01 6.034412e-02 -3.273110e-01 -1.716019e+00 -1.574823e+00 3.514630e-03 
5.925016e-01 -2.711741e-01 -1.217260e+01 -1.445510e+01 -1.397900e+00 3.651387e+00 -1.783224e+00 2.122571e+00 -7.588452e+00 -7.469123e+00 -1.135075e+01 -7.461762e+00 9.810370e-02 -1.750883e+00 1.516650e+00 2.681554e+00 4.000777e+00 4.004102e+00 6.545116e-01 -1.752358e+00 -2.012025e-01 2.279423e+00 1.730015e+00 2.317538e+00 1.485357e+00 -2.914664e-02 
-5.544613e+00 2.090260e+00 -4.216790e+00 -4.610767e+00 2.888445e+00 3.515130e-01 4.337797e-01 -2.238528e-01 -2.874707e+00 2.389074e+00 -1.105804e+00 -4.488042e+00 2.364987e-02 -3.301844e+00 7.676970e-01 2.846160e+00 4.828272e+00 3.146507e+00 -5.863950e-01 -1.194377e+00 2.179830e-01 3.224480e+00 2.110483e+00 4.171875e+00 3.064089e+00 -5.064404e-02 
-6.143017e+00 -2.483145e+00 -4.017621e+00 4.840398e-01 7.987474e+00 1.704025e+00 -7.339337e+00 1.676786e-01 6.268859e+00 5.572870e+00 2.299097e+00 1.911981e+00 4.369479e-02 -2.081007e+00 -1.202981e+00 2.288669e+00 4.006405e+00 1.223718e+00 -1.533183e+00 2.269591e-01 1.362279e+00 2.317418e+00 7.856880e-01 2.939944e+00 2.883725e+00 -7.233185e-03 
-8.601600e+00 -4.098625e+00 -1.881384e+00 6.705451e-01 4.556036e+00 -2.577101e+00 -2.628757e+00 4.365661e+00 3.371893e+00 8.363011e-01 2.683110e+00 2.293298e+00 5.868578e-02 -7.568404e-01 -4.756166e-01 1.343728e+00 5.024120e-01 -9.109739e-01 -1.067198e+00 7.062128e-01 8.611628e-01 -2.710373e-01 -1.218056e+00 1.335363e+00 1.050621e+00 3.264070e-04 
-8.284039e+00 -3.191635e+00 -1.896959e+00 2.936264e+00 3.886894e+00 -2.550221e+00 8.828400e-01 6.639206e+00 8.753395e-01 -2.764297e+00 1.454515e+00 3.566190e+00 4.441983e-02 -6.382246e-01 8.648846e-01 1.130569e+00 -8.356984e-01 -2.142805e+00 -1.223069e+00 1.196276e+00 -4.126855e-01 -2.129462e+00 -6.095754e-01 1.128249e+00 -4.626266e-01 1.106381e-04 
-8.258304e+00 6.642160e-02 1.441519e+00 -3.324819e+00 3.838654e-01 -2.857355e+00 -1.462451e-01 8.461974e-01 -1.533133e+00 4.673778e-01 5.993302e+00 -6.204081e-02 2.491939e-02 -2.238872e-01 9.963108e-01 5.519738e-01 -1.589627e+00 -1.925161e+00 -3.111261e-01 3.377431e-01 -1.221472e+00 -1.029981e+00 -1.940012e-01 5.639789e-01 -6.028919e-01 -4.664600e-03 
-9.505788e+00 -2.412448e-01 -2.622551e-02 -1.696770e+00 -6.404655e-01 -4.271195e+00 -2.599213e+00 -1.360172e-01 -1.925938e+00 2.709455e+00 6.285244e+00 7.765169e-01 6.113118e-02 -3.635000e-01 1.133856e-01 -4.923099e-01 -1.696487e+00 -8.487504e-01 2.593677e-01 -3.187864e-01 -3.533649e-01 5.399816e-01 1.010356e+00 4.194775e-01 -4.585287e-01 6.719947e-04 
-9.110162e+00 -5.922654e-01 -5.688173e-02 -4.961071e+00 -2.806090e+00 -3.272244e+00 8.009853e-01 1.645910e+00 -3.773739e-01 -2.870581e+00 3.087639e+00 6.736753e-01 2.700710e-02 -3.252144e-02 1.318626e-02 -1.288023e+00 -7.529207e-01 -2.472330e-01 -4.700006e-01 -6.431112e-01 5.894728e-02 3.861108e-01 9.878181e-01 -6.199959e-01 -3.029324e-01 -1.456630e-03 
-9.675611e+00 -2.295363e+00 -3.609308e+00 -4.728045e+00 1.238119e+00 -1.045938e+00 -1.184707e+00 4.472526e+00 2.997368e+00 3.956463e+00 5.004733e+00 9.056890e-01 4.673594e-02 2.201199e-01 5.437135e-01 -6.963228e-01 -1.190953e+00 -3.936468e-01 -4.892492e-03 -4.676881e-01 4.347298e-01 7.405578e-01 1.391701e+00 8.689944e-01 -4.963836e-01 -7.541317e-03 
-8.335999e+00 1.159412e+00 -3.207057e+00 -5.573785e+00 -1.791592e+00 -6.819986e+00 -4.069054e+00 -1.163337e+00 -2.064232e+00 4.782964e+00 3.533578e+00 -1.641289e+00 2.483386e-02 2.412611e-01 1.046235e+00 -6.162732e-01 -6.974202e-01 2.977582e-01 9.989545e-01 -4.194449e-01 2.957379e-01 -6.423228e-01 1.070616e+00 1.585780e+00 -2.450426e-01 -1.069963e-04 
-8.792270e+00 1.601484e+00 -1.932752e+00 -7.345179e+00 -3.115948e+00 -2.521786e+00 -2.502634e+00 3.442256e+00 2.620280e+00 5.841190e+00 1.040725e+01 -5.479188e-01 2.451122e-02 4.108030e-01 8.907354e-01 7.305939e-01 3.130989e-01 5.530229e-01 1.551402e+00 2.984722e-01 7.780994e-01 -4.617994e-01 -1.437964e-01 1.455305e+00 1.313808e+00 -8.608067e-03 
-8.345527e+00 2.690488e+00 -3.976526e+00 -7.139606e+00 8.597354e-01 2.460453e+00 -6.372762e-01 3.639735e+00 -3.400444e+00 1.540136e+00 8.315283e+00 1.752660e-01 3.758448e-02 2.210289e-01 -1.914559e-01 3.268338e-01 4.502734e-01 1.168617e+00 1.945793e+00 1.381589e+00 1.122227e+00 5.360674e-01 -1.673007e-01 2.020350e-01 1.625028e+00 -5.298174e-03 
-7.616832e+00 1.392776e+00 4.283963e-01 -2.379640e+00 2.677570e+00 2.070852e+00 -1.408235e+00 5.961486e+00 1.356477e+00 4.858896e+00 9.890405e+00 6.566454e+00 -2.679706e-03 1.737669e-01 -7.138170e-01 -8.491953e-02 1.077558e+00 1.443361e+00 5.927981e-01 1.306816e+00 -3.279280e-01 -5.347351e-01 4.178016e-01 -1.593711e+00 1.135019e+00 -4.076081e-03 
-7.818574e+00 3.064862e-01 -2.753462e+00 -5.805188e+00 1.154733e+00 6.126575e-01 2.291692e+00 3.188182e+00 1.248007e+00 4.437607e+00 4.802174e+00 2.926664e+00 1.193845e-02 6.089287e-02 -3.528181e-01 1.338760e-01 -1.525547e-01 -4.713731e-01 -1.787136e+00 3.983720e-01 4.760146e-02 5.655001e-01 5.372405e-03 -1.929686e+00 -9.357870e-01 -5.860007e-03 
-8.186912e+00 -7.756005e-01 -2.968881e+00 -2.624599e+00 3.953359e+00 1.366102e+00 2.566962e+00 2.028392e+00 -2.377620e+00 6.481462e+00 4.195249e+00 3.751475e+00 1.695383e-02 7.258358e-02 2.428583e-01 2.004397e-01 -1.104708e+00 -6.000484e-01 -1.399055e+00 -1.918657e-01 -2.796607e-01 -1.426288e-01 -9.191883e-01 -1.081611e+00 -2.420185e+00 -2.092600e-04 
-7.756022e+00 2.010585e+00 -1.608507e+00 -7.779900e+00 -2.135025e+00 -6.122855e+00 -6.330144e-01 5.844289e+00 1.294105e+00 7.557147e-01 1.514434e+00 -3.096180e+00 -1.532316e-03 2.562332e-03 -2.815707e-02 5.986001e-01 -6.410850e-01 -6.663840e-01 -7.687908e-01 -9.333663e-01 -2.602246e-01 -3.819395e-01 -4.266385e-01 1.363952e-01 -2.179711e+00 -3.955752e-03 
-7.285190e+00 1.755018e+00 8.581172e-01 -6.915827e+00 1.322206e+00 -1.556667e+00 -9.052105e-01 3.235130e+00 6.202841e-01 2.103900e+00 6.126220e+00 -2.523050e+00 3.009379e-03 -1.584444e+00 1.062597e+00 1.431090e+00 -2.325124e+00 1.133709e+00 -1.833806e+00 4.142610e-01 -5.234106e-01 -2.889008e-01 -2.201242e-01 1.363219e+00 -1.204836e+00 6.224067e-02 
-8.256623e+00 -1.099609e+00 -1.673960e+00 -6.864998e+00 -8.616111e-01 -1.769913e+00 -6.390538e-01 1.283690e+00 -2.160643e+00 4.493196e+00 4.518664e+00 -4.834627e+00 -8.680820e-04 -2.768891e+00 1.579483e+00 1.527169e+00 -2.548183e+00 2.874496e+00 -1.225530e+00 1.738409e+00 -4.921280e-01 -7.503954e-01 2.796592e-01 1.178771e+00 -7.866089e-02 1.205809e-01 
-1.585883e+01 6.092480e+00 4.219295e+00 -1.470767e+01 8.985195e+00 -9.979400e+00 4.641287e+00 1.691638e+00 -2.094751e+00 3.512101e+00 9.509229e+00 -1.403482e+00 3.278251e-01 -1.729513e+00 6.880134e-01 1.417161e+00 -1.850249e+00 9.157420e-01 4.236941e-01 1.452476e+00 -3.045443e-01 -4.662249e-01 -5.053205e-01 -2.151371e-01 4.645433e-01 9.713190e-02 
-1.731366e+01 7.739271e+00 4.346750e+00 -1.662489e+01 8.405961e+00 -8.039136e+00 5.285782e+00 4.155395e+00 -1.100355e+00 1.449911e+00 5.716786e+00 -4.049268e+00 4.389644e-01 -1.578815e+00 -2.070676e+00 4.383690e+00 -1.091675e+00 1.078789e+00 1.879457e+00 5.446409e-01 -1.690118e+00 7.488190e-01 -1.326823e+00 -1.810471e+00 2.509804e+00 1.319537e-01 
-1.140423e+01 7.756453e-01 4.933565e+00 -1.128712e+01 1.267130e+00 3.696415e+00 3.394752e+00 2.765557e-01 -2.240984e+00 1.098940e+00 4.451473e+00 -5.930125e-01 2.687526e-01 -5.826626e-01 -4.622923e+00 3.097951e+00 2.959869e+00 -1.480270e+00 3.248211e+00 -1.273178e+00 -1.240843e+00 1.356225e+00 -5.132710e-01 -3.025735e+00 2.314041e+00 6.789852e-02 
-1.837799e+01 -8.794571e+00 1.988736e+01 -1.403365e+01 8.391367e+00 7.894622e-01 2.707418e+00 -6.459361e+00 1.656569e+00 -9.343370e-01 -2.004812e+00 7.309161e+00 6.884369e-01 -4.838701e-01 -3.752941e+00 7.925800e-01 5.683258e+00 -2.799627e+00 -2.271756e-01 -7.155313e-01 -6.647210e-01 8.291506e-01 5.718681e-01 -1.854532e+00 3.509259e+00 2.749614e-02 
-1.823997e+01 -8.755215e+00 1.193875e+01 -1.203947e+00 1.591140e+00 1.847357e+00 -4.354199e-01 7.947989e-01 3.307915e+00 2.137870e+00 -1.758648e+00 4.487507e+00 5.425814e-01 4.272823e-01 -4.664295e-01 -2.177911e+00 4.982244e+00 -2.428771e+00 -3.232528e+00 -7.182425e-01 6.403553e-01 6.399230e-01 8.594540e-01 -2.386482e+00 1.822871e+00 -2.567673e-02 
-1.631514e+01 -6.260003e+00 4.807058e+00 6.749811e+00 -5.754179e+00 -8.250484e+00 3.623211e+00 5.726687e-01 2.709484e-01 3.789786e+00 -4.508145e-01 1.095677e+01 4.395307e-01 2.866424e+00 7.442410e-01 -7.102535e+00 4.317225e+00 -1.886336e+00 -4.953085e-01 -1.229088e+00 1.643532e+00 1.100265e-01 2.888716e+00 -1.066978e-01 -1.247844e+00 -1.154706e-01 
-1.029925e+01 -2.823786e+00 1.584157e+00 3.232366e+00 -3.803950e+00 -7.946252e+00 -6.543574e-01 -3.768218e-02 1.651441e+00 3.034148e+00 -8.257934e+00 6.697538e+00 2.648221e-01 3.334739e+00 -6.003880e-01 -5.882940e+00 7.467273e-01 1.264420e+00 1.349226e+00 -1.724639e+00 -4.232539e-01 -8.001577e-01 1.929066e+00 7.008793e-02 -2.867499e+00 -8.611223e-02 
-8.016234e+00 -8.039081e+00 -1.044803e+01 5.334324e+00 1.657234e+00 3.209724e+00 -3.328552e+00 2.174542e+00 3.034938e+00 1.306110e+01 7.113428e-01 -3.507614e-02 2.499635e-01 2.593486e+00 -4.892253e-01 -3.043257e+00 1.156979e-02 2.532469e+00 2.605017e+00 -3.339262e+00 -2.246269e+00 -1.448277e+00 -1.298055e+00 1.165602e+00 -3.384641e+00 -3.662524e-02 
-5.715732e+00 -1.086762e+01 -9.848410e+00 3.237433e+00 4.207534e+00 2.863384e+00 -5.582732e+00 -2.122407e+00 -2.074869e+00 7.147540e+00 -1.989287e+00 -4.354066e+00 2.068039e-01 1.149477e+00 3.896813e-01 -2.077320e-01 -3.033128e-01 9.364733e-01 8.404101e-01 -2.406853e+00 -4.705191e-01 -1.674522e+00 -3.343076e+00 4.643630e-01 -1.550907e+00 -2.086075e-02 
-5.639467e+00 -4.684215e+00 -4.692943e+00 6.805126e+00 2.902425e+00 -6.302196e-01 -1.060891e+01 -9.616313e+00 -5.107284e+00 -4.757182e+00 2.242873e+00 -4.406397e-01 2.854136e-01 1.997568e-01 2.354370e+00 2.321920e+00 -1.243383e+00 -3.094893e-01 -4.017912e-01 -7.911459e-01 1.031770e+00 -1.325630e+00 -3.599804e+00 -2.278340e-01 3.397278e-01 -3.845904e-02 
-5.740251e+00 -2.552813e+00 -2.332045e+00 9.804006e-01 2.558212e-01 -1.824230e+00 -9.048443e+00 3.505150e+00 -2.650060e+00 -4.772085e+00 -6.701883e+00 -8.542173e-01 1.427932e-01 -4.144448e-01 3.171691e+00 2.317691e+00 -1.930006e+00 -3.689492e-01 2.881851e-01 1.915292e+00 2.634048e+00 9.597097e-02 -5.310752e-01 1.205274e+00 1.491553e+00 -5.654686e-02 
-7.005191e+00 -4.246314e-01 -2.596611e+00 2.459230e-01 2.085644e+00 3.544575e+00 -5.551426e+00 4.519612e+00 -3.305616e+00 1.021896e+00 1.928471e+00 -8.636141e-02 8.967358e-02 -1.739714e-01 2.424756e+00 1.635458e+00 -2.529081e+00 -6.739926e-02 7.675303e-01 3.434537e+00 2.591651e+00 3.032668e-01 1.571127e+00 7.708527e-01 1.028683e+00 -6.661327e-02 
-7.105094e+00 2.861048e+00 6.918809e-01 -3.132995e+00 2.771179e+00 2.216913e+00 1.464985e+00 3.979868e+00 -2.495848e+00 1.602624e+00 4.194285e+00 2.926561e+00 2.193964e-02 -2.881690e-01 1.585783e+00 9.919733e-01 -1.605927e+00 -1.263070e-01 2.545038e-01 2.235090e+00 -7.123259e-01 -3.333722e-02 1.250652e+00 2.282403e+00 -5.959164e-01 -3.312389e-02 
-5.826902e+00 4.732636e+00 1.972385e+00 -3.783583e+00 1.307750e+00 1.186861e+00 1.307066e+00 3.104584e+00 -3.668056e+00 -8.890224e-02 6.490519e-01 2.812387e+00 1.277405e-02 -5.010300e-02 7.925735e-01 6.597368e-01 -1.403114e+00 -3.243273e-01 -1.388917e-01 4.672633e-01 -6.214137e-01 -3.833865e-01 -8.252909e-02 3.042324e-01 -1.308538e+00 -1.343082e-02 
-7.770240e+00 2.797467e+00 3.433238e-01 -5.034481e+00 1.323295e-02 6.271468e-01 -1.302238e+00 6.510346e-01 -2.635526e+00 2.036575e+00 5.349838e+00 -5.283174e+00 1.562357e-02 3.602059e-01 -7.180458e-01 -7.122016e-01 4.438357e-01 -2.456973e-01 -5.963263e-01 2.695302e-01 1.858400e+00 8.199908e-02 -7.182940e-02 -2.735098e-01 -1.610498e+00 3.837120e-03 
-6.923133e+00 3.570026e+00 8.763520e-01 -5.818904e+00 1.842980e+00 3.645000e+00 -1.831498e+00 3.076960e+00 -5.152710e+00 3.922756e-01 2.871857e+00 -2.524182e+00 2.567750e-02 7.709756e-01 -9.682018e-01 -7.081013e-01 2.691805e+00 6.252240e-01 -8.022494e-01 1.055163e+00 3.012854e+00 1.292388e+00 -1.616867e-01 2.830025e-01 -2.878945e-01 1.933870e-02 
-4.755949e+00 -1.478759e-01 -2.321110e+00 1.038437e-01 1.275077e+00 -1.993788e+00 4.381918e+00 1.328568e+01 -1.343526e+00 1.002888e+00 1.715334e+00 -2.457645e+00 3.467351e-02 7.282365e-01 -4.000872e-01 -4.902067e-02 1.893605e+00 1.175259e+00 -3.059808e-01 1.388414e+00 2.103360e+00 1.839947e+00 7.525877e-01 -4.574535e-01 1.156857e+00 1.000674e-02 
-3.479170e+00 1.364299e+00 -2.359042e-01 7.106282e+00 3.802947e+00 -1.513919e+00 3.740804e+00 1.185153e+01 2.147884e+00 -3.804923e-01 3.881317e+00 -3.985023e-02 9.994256e-02 -1.798974e-01 4.922724e-03 2.989200e-01 6.079822e-01 7.880653e-01 -3.001578e-02 -3.544556e-01 -7.885308e-01 1.046799e+00 1.591240e+00 7.315381e-01 -8.926813e-02 -2.327603e-03 
-5.851039e+00 1.899895e+00 6.543485e-01 -2.029050e+00 4.909543e+00 1.676702e+00 2.853681e+00 6.780548e+00 2.913913e+00 6.185897e+00 2.557841e+00 -7.410520e-01 2.852476e-02 -9.390160e-01 4.758315e-01 2.431054e-01 -1.947253e+00 -1.792871e-02 6.045375e-01 -2.079694e+00 -2.685755e+00 6.207315e-01 1.746987e+00 1.213846e+00 8.365878e-01 -8.841592e-03 
-7.275075e+00 2.570755e+00 8.832225e-01 -1.712546e+00 3.966074e+00 1.659676e+00 -2.839657e+00 2.386871e+00 -2.047435e+00 5.756971e+00 6.108294e+00 -3.828819e+00 1.711386e-02 -7.851973e-01 1.852793e-01 -5.216368e-01 -2.549114e+00 -2.994469e-01 6.734897e-01 -6.422972e-01 -2.181965e+00 -7.257851e-01 1.337415e+00 8.979245e-01 7.466385e-01 -2.067341e-02 
-7.553077e+00 1.628054e+00 -1.665147e+00 -5.223007e+00 1.103870e+00 -5.578982e-01 -2.726322e+00 4.589231e+00 3.857791e+00 6.669093e+00 6.671076e+00 3.619779e+00 3.187990e-02 -5.140768e-01 -1.405030e-01 -8.110361e-01 -1.641121e+00 -7.387246e-01 6.356105e-01 1.598156e-01 -4.854379e-01 -9.671025e-01 -1.396105e-01 1.358262e+00 2.763275e-01 -6.837529e-03 
-6.554137e+00 2.426616e+00 -1.684341e+00 -4.042307e+00 4.208549e+00 2.970830e+00 3.319320e+00 2.037364e+00 -1.952980e+00 6.064985e+00 6.314322e+00 1.512927e+00 -5.102038e-03 1.729830e+00 -3.324097e+00 8.145167e-01 -1.211721e+00 -4.138820e+00 1.366298e+00 2.333817e+00 -1.166161e+00 -1.773399e+00 -1.034826e+00 2.832518e-02 5.335298e-01 1.015334e-01 
-8.781892e+00 1.269450e+00 -2.117051e+00 -9.069773e+00 1.094682e+00 4.199177e+00 5.732705e-01 4.528112e+00 -1.968827e+00 5.333838e+00 9.246139e+00 -2.030288e+00 5.445063e-03 2.011230e+00 -4.569321e+00 2.187127e+00 -8.313837e-01 -5.141332e+00 1.284015e+00 2.198904e+00 -2.240242e+00 -2.356983e+00 -1.124875e+00 -8.131305e-01 7.164523e-01 2.286757e-01 
1.988482e+00 -1.387043e+01 5.181757e+00 -5.847767e+00 -1.672343e+01 6.112627e+00 7.179634e+00 -3.413373e+00 -8.001122e+00 1.250467e+00 4.962388e+00 1.663863e+00 5.379984e-01 4.076115e-01 -4.056145e+00 2.680367e+00 -1.091591e+00 -4.492125e+00 -1.238016e+00 -2.264188e-01 -6.480954e-01 2.277394e+00 -1.506915e+00 -2.762353e+00 9.273233e-01 2.725607e-01 
-1.768239e+00 -1.307003e+01 5.837437e+00 -8.477196e+00 -1.413680e+01 4.291280e+00 6.338039e+00 -3.886608e+00 -4.903054e+00 3.451976e+00 3.281391e+00 7.126573e+00 9.037081e-01 1.169857e-01 -2.451094e+00 1.581107e+00 1.437562e+00 -8.509690e-01 -3.712369e+00 -2.673497e+00 2.493848e-01 4.499249e+00 -1.896030e+00 -3.690851e+00 -3.173705e-01 1.841560e-01 
-8.022906e+00 -1.068437e+01 7.740248e+00 -9.796550e+00 -1.063634e+01 -3.265301e+00 -6.951592e-01 3.004247e+00 1.090110e+01 -5.286616e-01 -4.515067e+00 1.571113e+00 9.085697e-01 -1.309137e+00 9.342866e-01 -9.383095e-01 2.292397e+00 1.906370e+00 -2.712058e+00 -4.505710e+00 2.088180e+00 6.055728e+00 -3.919456e-01 3.915263e-01 -1.437462e+00 7.199657e-03 
-3.191269e+00 -1.257905e+01 4.509240e+00 9.242964e-02 -6.203712e+00 -9.673701e+00 -8.856818e+00 2.566226e+00 1.107630e+01 -3.256747e+00 -4.469389e+00 -3.570765e+00 7.409393e-01 1.733147e+00 1.915732e+00 -8.821081e-01 5.144133e+00 1.633708e+00 -1.354023e+00 -3.176651e+00 1.645785e+00 3.300261e+00 -5.135480e-01 6.266935e-01 -1.883702e+00 -8.771227e-02 
-3.845689e+00 -9.444485e+00 1.154309e+00 1.329408e+00 -1.115813e+01 -4.651691e-01 -7.751488e+00 3.801111e+00 1.428784e+01 2.645101e+00 1.079541e+01 -1.747780e-01 6.553811e-01 4.685688e+00 1.907909e+00 -1.025748e+00 5.503111e+00 2.127898e-01 1.642983e-01 -5.151128e-01 -1.733097e+00 -5.964691e-01 1.480228e+00 9.709749e-02 8.497235e-01 -4.646177e-02 
4.808889e+00 -4.111309e+00 4.719866e+00 1.168049e+01 -5.707365e+00 -3.878903e+00 -6.017054e+00 3.943883e+00 9.904879e+00 -7.026447e-01 -1.240380e+00 -1.418993e+00 5.917411e-01 4.540034e+00 8.291232e-01 -3.275790e-01 3.535229e+00 -1.419042e+00 6.413941e-01 2.936947e-01 -3.621598e+00 -6.768759e-01 1.045399e+00 -1.861320e+00 2.356668e+00 4.706524e-02 
1.140546e+01 -5.378694e+00 2.506196e+00 1.192498e+01 -9.820560e+00 -5.341209e+00 -4.690605e+00 -6.350069e+00 8.504469e+00 5.595430e+00 -5.644084e+00 4.743845e+00 7.508599e-01 3.899846e+00 -1.010728e+00 -1.006274e-01 1.979606e+00 -1.335143e+00 -1.189272e+00 -6.720742e-01 -4.746703e+00 -9.225572e-01 -3.445217e-01 -3.598915e+00 2.056365e+00 9.817795e-02 
1.188333e+01 -1.046633e+01 2.195401e+00 1.247079e+01 -1.396771e+01 -4.028711e+00 -8.918786e+00 -1.046617e+01 1.058361e+01 4.950839e-01 -5.556241e+00 5.753264e+00 9.285260e-01 1.655771e+00 -2.037819e+00 -1.088761e+00 2.041292e-01 -2.110130e+00 -9.075726e-01 -8.318650e-01 -4.941823e+00 4.981720e-01 -4.405254e-01 -8.771694e-01 1.977850e+00 1.043536e-01 
1.211632e+01 -1.132061e+01 1.913404e+00 1.083229e+01 -1.370367e+01 -6.336623e+00 -9.660993e+00 -1.272738e+01 9.335691e+00 3.236280e-01 -5.041234e+00 6.520916e+00 9.778784e-01 5.828090e-01 -1.353831e+00 -5.350629e-01 7.746296e-02 -1.168118e+00 -5.545420e-01 -1.134168e+00 -2.683551e+00 5.736578e-01 -1.201651e+00 -1.451755e-01 6.093522e-01 5.368447e-02 
1.273231e+01 -1.132945e+01 -4.275409e-01 1.324748e+01 -1.431646e+01 -7.919059e+00 -7.691185e+00 -1.757658e+01 1.198013e+01 -2.693708e-01 -5.927651e+00 7.581722e+00 1.000000e+00 9.446672e-01 -4.915460e-01 -1.669644e-01 3.579447e-01 -9.560191e-01 1.200549e-01 -9.063995e-01 -1.553309e+00 -9.358778e-02 -1.563684e-01 -2.347870e-01 5.383091e-02 7.821578e-03 
1.389501e+01 -1.171629e+01 1.142352e+00 1.192395e+01 -1.548678e+01 -6.168745e+00 -1.097524e+01 -1.621262e+01 1.067450e+01 -3.059757e-02 -6.184257e+00 6.876377e+00 9.835453e-01 1.113991e+00 -3.666051e-01 9.510372e-02 9.998035e-01 -1.154093e+00 1.158883e+00 -1.484184e+00 -7.770185e-01 -1.386747e-01 -5.165371e-01 -1.700545e-01 -3.485832e-01 -8.407438e-03 
1.571732e+01 -1.272622e+01 1.746105e+00 1.371468e+01 -1.785625e+01 -3.512376e+00 -1.279366e+01 -1.649010e+01 9.446266e+00 -1.096454e-01 -6.158665e+00 5.844688e+00 9.648005e-01 8.677000e-01 1.564266e-01 2.269632e-01 6.434587e-01 4.586220e-03 8.806204e-01 -1.605937e+00 -1.410278e-01 -8.094029e-01 -2.498987e-01 -2.250116e-01 -6.723129e-01 -1.735048e-02 
1.619377e+01 -1.245525e+01 1.302099e+00 1.559770e+01 -1.770424e+01 -2.745550e+00 -1.453067e+01 -1.715571e+01 9.909248e+00 -2.338920e+00 -5.776000e+00 5.646517e+00 9.534410e-01 6.065790e-01 6.883202e-01 -6.528376e-02 3.832426e-01 1.245483e+00 -3.617711e-02 -6.299839e-01 -3.982668e-01 -9.517640e-01 -6.400058e-02 -3.382496e-01 -6.268426e-01 -2.107490e-02 
1.592143e+01 -1.017783e+01 6.274017e-01 1.462789e+01 -1.318480e+01 -5.227554e+00 -1.394316e+01 -1.781017e+01 8.315739e+00 -3.647029e-01 -7.256838e+00 4.835088e+00 9.282998e-01 4.227380e-01 1.511712e+00 -4.487635e-01 -2.660995e-01 2.339355e+00 -1.190369e+00 7.630302e-01 -5.571386e-01 -1.214274e+00 3.027455e-01 -3.823121e-01 -4.170574e-01 -2.747048e-02 
1.682585e+01 -9.548884e+00 1.375285e+00 1.338355e+01 -1.159509e+01 -5.492042e+00 -1.355041e+01 -1.754391e+01 6.480942e+00 -2.230717e-01 -7.326418e+00 4.246964e+00 8.964211e-01 5.412492e-01 1.764836e+00 -8.801380e-01 -6.335386e-01 2.699722e+00 -1.210583e+00 1.212013e+00 -2.911097e-01 -1.475479e+00 4.954802e-01 -3.501482e-02 -4.999123e-01 -2.930639e-02 
1.751497e+01 -6.620843e+00 -5.343047e-01 1.349126e+01 -9.214053e+00 -8.090973e+00 -9.468637e+00 -1.908169e+01 5.089050e+00 3.461581e-01 -7.295016e+00 4.459177e+00 8.559580e-01 8.336315e-01 1.638526e+00 -1.108608e+00 -8.598171e-01 2.294216e+00 -2.675290e-01 9.745804e-01 2.934496e-01 -1.876475e+00 -2.055879e-02 1.087765e+00 -8.922771e-01 -2.765593e-02 
1.810325e+01 -5.409568e+00 -2.517737e+00 1.299833e+01 -6.190999e+00 -7.366755e+00 -1.070787e+01 -1.797550e+01 4.145197e+00 -2.169498e-01 -5.931985e+00 3.334911e+00 8.430799e-01 6.784369e-01 2.398530e+00 -1.987570e+00 -1.455706e+00 3.133521e+00 -4.515904e-01 1.518626e+00 3.320410e-01 -2.433930e+00 -3.187802e-01 2.091857e+00 -1.309206e+00 -2.328934e-02 
1.945089e+01 -4.054862e+00 -2.969128e+00 1.052142e+01 -4.415759e+00 -5.627843e+00 -1.049153e+01 -1.612713e+01 1.012340e-01 -4.705578e-01 -2.515230e+00 8.297293e-01 8.166907e-01 2.477634e-01 2.396058e+00 -1.737260e+00 -1.942861e+00 2.609242e+00 5.577165e-01 1.559669e+00 5.324764e-02 -2.406637e+00 -6.217655e-01 1.744535e+00 -7.002530e-01 -1.769670e-02 
1.925007e+01 1.160774e+00 -7.345154e+00 7.589945e+00 1.673371e+00 -8.981558e+00 -5.445836e+00 -1.736099e+01 -3.194798e+00 -1.408615e+00 7.429760e-01 -4.843419e-01 7.996081e-01 -1.767212e-01 1.715414e+00 -9.576792e-01 -1.571331e+00 6.901497e-01 1.944907e+00 2.272828e+00 -1.210463e+00 -1.763814e+00 -1.007128e+00 7.646409e-01 4.509858e-01 -1.258687e-02 
1.818037e+01 2.074273e+00 -6.806898e+00 6.481148e+00 -1.000268e-01 -4.494988e+00 -4.301307e+00 -1.912271e+01 -3.274135e+00 -2.166837e+00 -1.909822e+00 2.867539e+00 7.892104e-01 -6.201226e-01 5.775043e-01 -1.605296e-02 -9.986231e-01 -9.705057e-01 2.966856e+00 2.256836e+00 -1.696908e+00 -1.056834e+00 -1.638798e+00 -5.649209e-01 2.002511e+00 -4.615230e-03 
1.785490e+01 1.029326e-01 -5.387248e+00 7.161808e+00 -4.898116e+00 1.791353e+00 -2.438836e+00 -2.253003e+01 -2.986187e+00 -4.404449e+00 -2.411485e+00 4.570935e+00 7.938857e-01 -6.318392e-01 -5.059363e-01 1.115244e+00 -8.313168e-01 -2.093551e+00 3.322430e+00 1.898951e+00 -9.473631e-01 -9.208800e-01 -2.200778e+00 -1.379566e+00 2.572428e+00 -1.865995e-03 
1.704786e+01 -6.384192e-01 -4.028346e+00 5.742375e+00 -5.982544e+00 3.819979e+00 -7.108473e-01 -2.202715e+01 -5.287243e+00 -7.166633e+00 -3.762604e+00 8.314647e+00 7.964758e-01 -4.109550e-01 -4.121401e-01 1.301969e+00 -1.243985e+00 -1.076213e+00 1.470769e+00 2.502456e+00 1.078423e-01 -1.131603e+00 -2.630541e+00 -1.061221e+00 1.900190e+00 -4.548884e-03 
1.665713e+01 -1.256180e-02 -3.158211e+00 3.802747e+00 -5.853126e+00 3.473106e+00 2.253688e+00 -2.064558e+01 -6.792645e+00 -9.912604e+00 -5.228463e+00 9.654243e+00 7.866454e-01 -2.998533e-01 3.204737e-01 1.300265e+00 -1.946961e+00 1.303228e-01 2.700273e-01 2.244073e+00 1.653330e+00 -1.350662e+00 -2.569395e+00 -9.892820e-01 8.640118e-01 -1.552545e-02 
1.672448e+01 7.131964e-02 -1.411572e+00 1.940752e+00 -5.003589e+00 2.017978e+00 5.864711e+00 -1.952572e+01 -7.028924e+00 -1.256546e+01 -5.807438e+00 9.826837e+00 7.700862e-01 -2.264461e-02 1.363333e+00 1.140307e+00 -2.071615e+00 1.128386e-01 3.431152e-01 1.302337e+00 3.401384e+00 -1.200086e+00 -2.051970e+00 -9.100639e-01 -8.711843e-02 -3.284661e-02 
1.651732e+01 1.350432e+00 -1.943097e-01 -6.721840e-01 -4.735980e+00 4.042491e+00 5.493751e+00 -1.551409e+01 -8.868658e+00 -1.455201e+01 -6.335478e+00 8.134899e+00 7.294533e-01 -6.442722e-01 2.978032e+00 -1.456885e-01 -1.249164e+00 1.521296e+00 4.253503e-01 -1.660413e+00 5.644786e+00 -1.484367e+00 1.085473e-01 -1.071399e+00 -1.466322e+00 -5.497681e-02 
1.700455e+01 5.496747e+00 1.912401e-01 -2.378233e+00 -5.976924e+00 5.250863e+00 4.180804e+00 -7.585979e+00 -1.024967e+01 -1.510678e+01 -7.759416e+00 8.638726e+00 6.608388e-01 -1.268073e+00 2.188820e+00 -8.839283e-01 2.122598e-02 3.971707e+00 -4.183002e-01 -2.288100e+00 7.006532e+00 5.723152e-02 1.886137e+00 -4.865928e-01 -4.212308e+00 -7.689048e-02 
1.329574e+01 1.216488e+01 -4.688059e+00 -2.835784e-01 2.240024e+00 3.983415e+00 -5.206422e+00 1.608480e+00 -1.260410e+01 -8.099211e+00 -9.609469e+00 2.916689e+00 5.663850e-01 -1.205521e+00 1.417094e+00 1.087047e-01 1.471798e+00 2.821510e+00 -2.421740e+00 7.247934e-01 6.340658e+00 1.031483e+00 1.574691e+00 2.114263e-01 -4.859344e+00 -6.088829e-02 
1.199491e+01 5.608195e+00 -3.584339e+00 1.852579e+00 1.136694e+01 -4.398519e-02 -2.257053e-01 6.945651e+00 -4.875042e+00 -6.361181e+00 -6.603406e+00 -8.625603e+00 4.671679e-01 -9.852956e-01 1.575527e-01 1.287311e+00 1.493512e+00 1.640261e+00 -2.095493e+00 4.235083e+00 3.434630e+00 1.868075e+00 6.036892e-02 2.013126e-01 -3.739981e+00 -3.700624e-02 
1.299453e+01 8.380180e+00 2.237003e+00 4.571402e+00 6.996362e-01 -5.418785e+00 1.132097e+01 8.923381e+00 -6.398556e+00 -1.105136e+01 -5.856351e+00 -7.529655e+00 5.218472e-01 -3.415079e-01 -3.029194e-01 2.509020e+00 4.729095e-01 -3.141340e-01 -3.228009e-01 5.334049e+00 1.600310e+00 1.306186e+00 -1.249191e+00 1.113873e+00 -9.801041e-01 -2.139405e-02 
1.222867e+01 8.176862e+00 3.165266e+00 2.661837e+00 2.994574e+00 -5.255004e-01 1.709252e+01 5.929721e+00 -4.012068e+00 -1.332886e+01 -8.629412e+00 -4.838007e+00 4.980765e-01 -4.441522e-01 8.996283e-01 7.482339e-01 -9.045522e-01 -1.465878e-01 1.787637e+00 2.474974e+00 1.576055e+00 7.007291e-01 -3.346698e-01 1.284943e+00 5.175202e-01 -2.634942e-02 
1.147132e+01 9.365952e+00 4.482238e+00 1.676340e+00 4.855539e+00 2.610168e+00 1.280471e+01 1.011800e+01 -6.504664e+00 -1.086132e+01 -3.027100e+00 -3.877629e+00 4.439605e-01 -1.024571e+00 2.600727e-02 -1.239205e+00 -9.455379e-01 1.747216e+00 3.134314e+00 4.834039e-01 2.251399e+00 8.529119e-01 7.031061e-01 1.395110e+00 1.490484e-01 -5.602666e-02 
1.053575e+01 9.613452e+00 -9.657867e-01 -1.222651e+00 8.556054e+00 4.879723e+00 1.140730e+01 1.422862e+01 -1.318342e+00 -8.129546e+00 -1.593318e+00 -7.864014e+00 3.743642e-01 -1.448953e+00 -6.054670e-01 -1.508410e+00 -2.557852e-01 1.381904e+00 1.186799e+00 -6.270982e-01 2.354376e+00 1.935344e+00 1.548175e+00 9.461557e-01 -7.383480e-01 -6.503334e-02 
8.718135e+00 7.791921e+00 -1.893495e+00 1.785955e+00 6.654978e+00 7.550175e+00 1.658060e+01 1.603092e+01 -3.480859e+00 -1.013548e+01 -2.398848e+00 -5.271409e+00 3.035701e-01 -1.407880e+00 -1.436906e+00 -1.359820e+00 -9.980559e-02 7.110183e-01 4.711523e-01 1.087384e-01 1.357203e+00 2.343235e+00 1.781197e+00 -9.605287e-01 -5.569128e-01 -6.443627e-02 
6.360497e+00 5.936541e+00 -1.188917e+00 1.328103e+00 9.004375e+00 2.938489e+00 1.206908e+01 1.474514e+01 4.152749e+00 -5.950908e+00 -4.212759e+00 -7.832857e+00 2.431050e-01 -1.602336e+00 -1.211361e+00 -1.159619e-01 5.597290e-01 2.337396e-01 -1.124591e-01 -9.474411e-02 2.298938e-01 1.728792e+00 1.795115e+00 -6.660872e-01 4.907797e-01 -5.927005e-02 
6.519549e+00 4.019875e+00 -2.205295e+00 -9.806490e-02 8.186470e+00 5.936546e+00 1.301751e+01 1.664576e+01 2.475963e+00 -3.044658e+00 -6.520022e+00 -6.677772e+00 1.874087e-01 -1.680943e+00 -4.493094e-01 1.385687e-01 5.333891e-01 1.810803e+00 3.333114e-01 -1.150016e+00 -1.361607e+00 4.652895e-01 2.749190e+00 5.921505e-01 -1.104675e-01 -5.002792e-02 
3.623367e+00 5.442670e+00 -1.389696e+00 2.518004e+00 8.959005e+00 5.124241e+00 1.271512e+01 1.507067e+01 4.347208e+00 -2.699380e+00 -2.863167e+00 -4.706934e+00 1.360946e-01 -1.781112e+00 8.965721e-02 6.566068e-01 1.146149e+00 1.796954e+00 1.456722e+00 -1.236101e+00 -1.702161e+00 -1.700657e+00 1.987144e+00 1.666250e+00 3.812268e-01 -3.927699e-02 
1.681988e+00 5.792309e+00 -1.100262e+00 3.857950e+00 1.573168e+01 8.123857e+00 1.050750e+01 9.060122e+00 -1.251641e+00 1.984704e+00 -1.128919e-01 -7.386708e+00 1.069357e-01 -1.763010e+00 1.161945e-01 9.200304e-01 9.497503e-01 1.030046e+00 5.727111e-01 -2.431966e+00 -2.868670e+00 -7.478323e-01 1.730803e+00 1.106347e+00 3.379688e-02 -3.418670e-02 
-1.262817e-01 5.498610e+00 1.541600e+00 5.080839e+00 1.421654e+01 9.128448e+00 7.143582e+00 1.002715e+01 -2.486732e+00 1.470133e+00 9.149268e-01 -5.572255e+00 8.695656e-02 -1.352304e+00 -3.174756e-01 2.577798e-01 -6.343257e-01 -6.305012e-01 -1.705546e-01 -2.075579e+00 -1.462964e+00 -6.463404e-01 6.223267e-01 -8.173565e-01 1.820155e-01 -2.435862e-02 
-4.206762e-01 4.572878e+00 9.292088e-01 3.369269e+00 1.070793e+01 6.797998e+00 3.643451e+00 4.824171e+00 2.153772e+00 3.524600e+00 -2.877332e+00 -6.076127e+00 4.104429e-02 -1.236804e+00 -1.510943e-01 3.718620e-01 -6.592296e-01 -2.078209e+00 -1.359246e+00 -1.293212e+00 9.873629e-03 4.726782e-01 2.952043e-01 -5.906403e-01 7.879768e-01 -1.677862e-02 
-2.086823e+00 4.465008e+00 -1.115532e+00 -4.092836e-01 8.318373e+00 4.934397e+00 5.769253e+00 9.873828e+00 -5.871994e-01 -3.576952e-01 -5.567729e+00 -4.452147e+00 4.724723e-02 -9.658019e-01 4.422000e-01 3.824680e-01 -1.019624e+00 -2.103106e+00 -1.052595e+00 -1.192446e+00 6.733261e-01 7.492455e-01 4.105433e-01 5.642507e-01 8.795986e-01 -5.628186e-03 
-3.521761e+00 5.553638e+00 2.087614e+00 3.306864e+00 8.289719e+00 3.424649e+00 4.728611e+00 9.186150e+00 1.619840e-01 4.374639e+00 1.752346e-01 -4.006878e+00 4.289722e-02 -7.345394e-01 6.743300e-01 2.198602e-01 -1.262486e+00 -1.588502e+00 -8.012834e-01 -6.004224e-01 -5.185720e-01 -6.242310e-01 -3.266222e-01 1.475113e+00 8.412668e-01 -2.265417e-03 
-3.404749e+00 7.219230e+00 2.874738e+00 1.392126e-02 4.910121e+00 5.552146e+00 6.387700e-01 1.121279e+01 2.255389e+00 3.097829e+00 2.209897e+00 -2.208886e+00 5.788916e-02 -3.653715e-01 3.635949e-01 2.084599e-01 -1.492988e+00 -8.448278e-01 -3.589002e-01 -4.521060e-01 -1.304583e+00 -5.129693e-01 1.130955e-01 2.478347e+00 4.773435e-01 -8.728522e-03 
-3.434410e+00 6.567417e+00 3.337497e-02 -3.154761e+00 4.469546e+00 2.482707e+00 3.206581e+00 1.561831e+00 -2.388678e+00 1.637264e-01 6.094196e-01 -2.991423e+00 2.439624e-02 -1.895624e-01 -1.934958e-01 3.150172e-01 -1.899797e+00 -8.300865e-01 -8.650709e-01 -5.170827e-02 -1.383605e+00 -1.127662e+00 -6.395417e-01 1.416536e+00 -3.259738e-01 -8.335578e-03 
-3.957355e+00 5.776093e+00 9.538870e-01 -4.643413e+00 6.004320e+00 3.610868e+00 4.269738e+00 7.163072e+00 -1.876715e+00 2.313238e+00 6.606915e+00 -2.573158e+00 1.285511e-02 -3.479830e-01 -8.328177e-01 -6.441593e-03 -4.478765e-01 3.785291e-01 -5.548544e-01 -1.941976e-01 -1.106950e+00 -3.772141e-02 6.381007e-01 1.483630e+00 -2.479308e-02 -5.170471e-03 
-4.193270e+00 5.307727e+00 4.623125e+00 -3.863452e+00 3.592186e+00 6.993377e-02 2.654586e+00 4.292984e+00 -3.410275e+00 1.569226e+00 5.059404e+00 -5.454611e+00 2.373636e-02 -3.228424e-01 -4.190094e-01 -1.785909e-02 -7.947676e-02 -6.270663e-01 -2.394839e-01 -1.521062e+00 -3.830101e-01 5.211341e-01 7.799429e-01 1.414638e+00 2.248782e+00 3.897709e-03 
-4.765234e+00 3.684987e+00 5.476544e-01 -1.871116e+00 7.241446e+00 3.984261e+00 -5.622029e-02 4.312460e+00 2.577581e+00 5.585584e+00 7.403054e+00 -1.101257e+00 3.236675e-02 -2.153098e-01 -4.482915e-01 -6.230241e-01 1.772279e-01 -1.001716e+00 -4.412607e-01 -1.821984e+00 -1.746760e+00 -3.663508e-01 -1.432862e-01 -6.653670e-01 1.078896e+00 5.193168e-03 
-4.644683e+00 5.517923e+00 1.471958e-01 -4.938293e+00 7.156516e-01 1.098591e+00 -2.235750e+00 1.072087e+00 -2.010155e+00 2.427269e+00 7.284542e+00 7.516539e+00 3.412896e-02 5.905714e-02 1.379113e-01 2.292745e-01 6.145164e-01 -7.728674e-01 2.713433e-01 -4.441859e-01 -3.181344e-01 6.330759e-01 -9.679151e-01 -2.253373e+00 -1.954224e-01 -1.128829e-03 
-4.808198e+00 3.429538e+00 7.673115e-02 -3.219853e+00 2.434007e+00 8.902353e-01 -2.395013e+00 3.971910e-02 -4.408529e+00 1.167786e+00 2.167511e+00 -3.664254e+00 3.362465e-02 7.025940e-01 1.015572e+00 1.639092e+00 1.278514e+00 7.997095e-01 1.050777e+00 1.367511e+00 1.072167e+00 -4.056399e-01 -6.563762e-01 -2.406551e+00 -1.723500e+00 4.080462e-03 
-3.876502e+00 6.125008e+00 6.004959e+00 -1.165018e-01 2.131569e+00 2.973663e+00 1.603053e+00 4.838683e+00 3.248159e+00 -1.061451e+00 -3.589686e+00 -5.150225e+00 1.746327e-02 9.385754e-01 1.025572e+00 1.264547e+00 1.500680e+00 1.831571e+00 1.941117e+00 2.425205e+00 1.631492e+00 9.791055e-02 -1.500622e-01 -1.456649e+00 -2.166545e+00 8.993065e-03 
-1.636354e+00 8.459304e+00 5.814234e+00 2.110557e+00 1.053203e+01 8.300608e+00 4.861932e+00 7.789999e+00 -2.079775e+00 4.048062e+00 8.074148e-01 -3.385374e+00 6.110191e-02 8.344428e-01 1.104482e+00 8.644654e-01 7.609547e-01 8.451114e-01 1.027245e+00 1.627793e+00 1.161061e+00 5.390295e-01 9.231807e-01 9.835806e-01 3.231139e-01 8.334535e-03 
-1.537727e+00 8.130901e+00 3.601178e+00 -1.000962e-01 5.824492e+00 7.098991e+00 6.261804e+00 5.354405e+00 -2.684979e+00 2.368191e-01 6.813471e-01 -3.455627e+00 6.535566e-02 1.007894e-01 6.411630e-01 1.277056e-02 -2.070892e-01 1.752200e-02 -2.218099e-01 -1.750437e-01 -2.155735e-01 -2.948222e-02 9.595345e-01 1.335669e+00 2.120663e-01 3.091699e-03 
-1.805371e+00 7.949003e+00 5.600948e+00 5.767179e-01 4.813102e+00 3.963796e+00 3.414575e+00 5.587161e+00 1.253187e+00 5.134554e+00 4.949897e+00 -2.895984e+00 5.135113e-02 -7.879113e-01 -1.217632e-01 -1.484518e-01 -1.109797e+00 -1.559495e+00 -1.505966e+00 -8.011495e-01 -9.136190e-01 6.405573e-01 3.458649e-01 1.106972e+00 3.310755e-01 -9.169561e-03 
-3.288047e+00 9.585974e+00 6.175455e+00 -3.850284e-01 5.078646e+00 4.033020e+00 1.451513e+00 4.862234e+00 1.434267e+00 3.192976e+00 1.017417e+00 -4.334589e+00 3.779715e-02 -7.401394e-01 -4.733664e-01 6.225656e-01 -4.205878e-01 -1.109010e+00 -1.913250e+00 -9.374920e-01 -5.006430e-01 -7.561850e-03 4.164261e-01 5.253910e-01 -7.180439e-02 -1.407874e-02 
-4.700751e+00 7.122951e+00 3.784837e+00 -3.295964e+00 3.107486e+00 2.303764e+00 3.261330e+00 3.467989e+00 -9.366115e-01 4.299309e+00 6.174238e+00 -1.290516e+00 2.903336e-02 -4.473414e-01 -6.952695e-01 5.488834e-01 -1.568491e-01 -1.130810e+00 -1.687234e+00 -3.327764e-01 -4.304226e-01 -8.824307e-01 -5.252367e-01 -2.828816e-01 -3.725593e-01 -1.221368e-02 
-3.790734e+00 6.177094e+00 7.622062e+00 -2.666945e-01 1.132250e+00 -1.637242e+00 1.650966e+00 3.910777e+00 -1.627889e+00 2.736573e+00 2.696131e+00 -4.617383e+00 6.120861e-03 -9.535789e-03 -7.763614e-01 6.730440e-01 3.265937e-01 -9.868027e-01 -1.528153e+00 -1.211458e-01 -1.460127e-01 -6.815588e-01 -2.475543e-01 -1.206782e-02 -3.892457e-01 -8.626509e-03 
