-7.828230e+00 2.634915e+00 -6.191781e+00 -3.566147e-01 2.643015e+00 -4.469789e+00 -4.059348e+00 -7.913209e-01 -2.681224e+00 2.565619e+00 -2.003264e-01 2.572842e+00 -6.629109e-02 3.404493e-01 3.147675e-01 9.600849e-01 -8.102580e-01 -2.995026e-02 1.758513e+00 2.101495e+00 6.953804e-01 2.918491e-01 -3.242254e-01 4.704862e-01 6.888809e-01 -3.528869e-03 
-7.643396e+00 3.347160e+00 -3.099347e+00 -6.133785e+00 -8.194556e-01 6.300493e-01 -9.549403e-01 -2.388994e-01 -3.413922e+00 -7.051730e-01 -1.024916e+00 5.385213e+00 -8.119643e-02 1.273603e-01 2.626744e-01 1.251829e+00 -4.275869e-01 -2.729729e-01 5.144340e-01 1.807881e+00 8.864188e-01 2.399263e-01 -3.754809e-02 9.777087e-01 1.046478e+00 -5.613422e-03 
-6.218400e+00 3.852631e+00 -2.937573e+00 -1.519320e+00 4.224498e+00 1.772859e+00 4.895923e+00 2.409370e+00 -8.556287e-01 2.579888e+00 2.564399e+00 4.611062e+00 -7.648277e-02 -1.424778e-01 3.585103e-01 1.064920e+00 2.507844e-01 -3.823242e-01 -6.531335e-01 5.105013e-01 6.291691e-01 8.110905e-01 3.307428e-01 6.967076e-01 5.553225e-01 -9.960890e-04 
-7.996344e+00 3.339430e+00 -1.559742e+00 -1.913197e+00 4.874084e-01 -5.018942e+00 5.024222e-01 2.040428e+00 -2.394390e+00 2.370744e+00 3.305854e+00 6.786122e+00 -8.926237e-02 -5.732965e-02 3.594234e-01 5.004628e-01 1.068450e+00 3.406807e-01 -1.128196e+00 3.743799e-01 7.815967e-01 1.216421e+00 6.156145e-01 -1.185179e-01 2.023214e-02 3.095389e-04 
-8.364145e+00 4.431332e+00 -1.636982e+00 -1.212986e+00 7.796144e-02 -4.910961e+00 -2.235523e+00 1.214861e+00 8.644626e-01 2.681375e+00 1.117826e+00 4.649000e+00 -6.723857e-02 -1.684214e-01 2.317508e-01 1.299894e-01 -5.702296e-01 -3.501225e-01 -3.823118e-02 -1.235929e-02 5.272043e-02 6.494603e-01 4.237361e-02 -6.274322e-01 9.837823e-01 -1.872349e-03 
-6.857172e+00 4.854926e+00 -1.247329e+00 -9.447014e-01 2.957216e+00 -1.669021e+00 4.482682e+00 4.266338e+00 1.808140e+00 2.322156e+00 -8.942192e-01 5.467404e+00 -8.427083e-02 1.260008e-01 -6.106677e-02 -1.088047e-01 -4.098544e-01 3.053927e-01 1.166505e+00 7.227445e-01 4.421109e-01 8.403873e-01 4.032287e-01 -7.175833e-01 6.013665e-01 2.709079e-03 
-7.630093e+00 4.253637e+00 -2.443833e+00 -4.854716e+00 1.238982e+00 -9.325784e-02 2.843997e+00 1.560017e+00 2.904079e-01 2.816050e+00 1.527275e+00 1.018933e+01 -8.834028e-02 2.817877e-01 -2.917894e-01 9.187204e-02 3.843213e-01 6.273315e-02 1.185145e+00 4.123489e-01 7.964787e-01 -7.292328e-01 -5.444629e-02 -4.328781e-01 7.388580e-01 1.114845e-04 
-7.733366e+00 3.122944e+00 -1.700340e+00 -2.141604e+00 1.433861e+00 -1.595267e+00 1.576385e+00 4.078404e+00 2.094574e+00 4.319550e+00 -4.867861e-01 7.022789e+00 -6.516612e-02 1.465091e-01 -5.197347e-01 -1.500882e-01 1.160209e+00 -3.524159e-01 -7.105788e-01 -1.477014e+00 5.490091e-02 -7.727958e-01 1.598044e-01 3.670079e-01 -2.718109e-01 3.514946e-03 
-6.517110e+00 3.838377e+00 -9.511160e-01 1.307071e+00 1.153305e+00 9.778880e-01 1.279370e+00 5.291222e+00 -2.924919e+00 1.410446e+00 -1.250280e+00 7.565598e+00 -7.623351e-02 2.783396e-01 3.032210e-01 3.643026e-01 1.386712e+00 1.133188e-01 -6.807205e-01 -6.143110e-01 -8.107567e-02 -5.324658e-01 -6.755149e-01 -5.386119e-01 -1.900006e+00 4.713821e-03 
-6.681118e+00 2.463883e+00 -2.744128e+00 1.775451e+00 1.237976e+00 -5.757488e+00 -2.120075e+00 2.675241e+00 -4.481754e-01 3.823981e+00 2.329598e+00 5.420217e+00 -7.274950e-02 1.844712e-01 5.911080e-01 8.468288e-01 5.557867e-01 2.762221e-01 -3.041280e-01 3.418367e-01 -3.861899e-01 -7.092040e-01 -9.202852e-01 3.831577e-01 -1.179328e+00 -4.794932e-03 
-6.764519e+00 6.099272e+00 -1.004260e-01 1.203148e-01 1.903519e+00 -1.415750e+00 1.620672e+00 1.856220e+00 -1.100546e+00 -3.137396e-01 -2.573977e+00 1.490589e+00 -6.097949e-02 3.816601e-01 7.257937e-01 6.032261e-01 -9.682586e-02 2.406600e-01 -3.281786e-01 7.733658e-01 -3.877901e-01 -1.255561e+00 -2.006046e+00 -9.383799e-01 -4.046032e-01 4.916191e-03 
-6.687305e+00 4.948036e+00 2.108459e+00 1.230708e+00 2.439865e+00 -1.919088e+00 3.114918e+00 3.864955e+00 -2.363632e+00 5.802169e-01 2.090850e+00 4.163652e+00 -9.676778e-02 1.367162e+00 1.240193e+00 2.647201e-01 -5.356559e-01 -1.233408e+00 -5.659661e-01 -1.762796e-01 -6.465335e-01 -6.786753e-01 -1.590281e+00 -3.395723e+00 -3.760073e-01 1.428394e-02 
-4.605716e+00 6.225268e+00 -3.612790e-01 1.095313e+00 1.755660e+00 -2.582205e+00 2.528702e+00 2.757414e+00 -8.244995e+00 -6.997901e+00 -5.822807e+00 6.170864e+00 -3.964341e-02 1.105742e+00 5.252112e-01 -1.571062e-01 -3.268415e-01 -9.611691e-01 -1.237373e+00 -1.456370e+00 -1.009424e+00 -3.983621e-01 -7.133602e-01 -1.966962e+00 -4.929213e-01 4.664087e-03 
-9.247074e-01 8.601851e+00 -1.290101e+00 -1.390327e+00 -4.855134e+00 -8.004091e+00 -3.455489e+00 -1.008024e+00 -2.693275e-01 -7.853451e-01 -1.302460e+01 1.200043e+00 -1.199782e-02 1.069808e+00 -1.803081e+00 -2.391492e+00 -1.240672e+00 -7.137528e-01 5.351921e-01 7.300201e-01 -2.251706e-02 7.583504e-01 -1.471854e-01 -1.192842e+00 -1.925332e+00 1.263419e-02 
-4.117109e+00 6.898421e+00 8.133229e-01 -2.033751e-01 7.451720e-01 -4.560112e+00 -2.375974e+00 -7.544084e-01 -4.139509e+00 -3.197760e+00 -4.851058e+00 5.077879e-01 -8.004403e-02 -1.062526e-01 -2.507155e+00 -2.256603e+00 -1.248953e+00 -5.225565e-01 1.706247e+00 2.230178e+00 7.978183e-01 1.280623e+00 8.439468e-01 9.343778e-01 -1.312873e+00 -2.028191e-03 
-1.582566e+00 -4.403946e+00 -1.043630e+01 -4.323305e+00 -6.236553e-01 1.745826e+00 9.217357e+00 5.508281e+00 -6.246229e-01 -2.055781e+00 -4.359233e+00 -2.631470e+00 -1.339650e-02 -1.462935e+00 -1.532820e+00 -5.075426e-01 -8.514361e-02 1.401303e+00 1.524683e+00 9.437422e-01 9.980952e-01 8.816897e-01 1.818619e+00 3.453786e+00 1.189080e+00 -1.325194e-02 
-4.808049e+00 1.923927e-01 -7.071193e+00 -3.682963e+00 -2.972862e+00 1.074072e+00 7.343168e+00 3.488353e+00 -1.664231e+00 -2.142949e+00 -5.483603e+00 1.522257e+00 -4.908502e-02 -8.948466e-01 5.737673e-01 4.774707e-01 4.085581e-01 5.389972e-01 1.190657e-01 -5.822917e-01 1.119656e+00 1.449643e+00 3.071019e+00 2.158620e+00 1.805458e+00 -2.525341e-03 
-7.893911e+00 4.290764e+00 1.144440e-01 -7.625115e-02 4.010399e+00 -3.197769e+00 -3.596349e+00 1.861071e+00 2.901482e+00 7.780343e+00 4.560604e+00 6.638210e+00 -9.373701e-02 -1.105263e+00 1.936887e+00 2.004507e+00 1.612415e+00 1.421942e+00 4.145875e-02 -2.502024e+00 -2.094293e-01 2.714591e-01 2.704674e+00 2.395265e+00 2.975456e+00 -9.818042e-03 
-5.435670e+00 5.419902e+00 -2.074698e+00 -2.841115e-01 1.123131e+00 -1.492986e+00 1.119420e+00 6.667478e+00 1.345653e+00 7.239276e+00 1.482123e+00 4.900240e+00 -5.250049e-02 8.255504e-01 -9.300861e-01 -1.305522e+00 8.835045e-01 1.786306e+00 9.595502e-01 -5.599642e-01 -1.464244e+00 -1.463977e+00 7.404803e-01 2.050506e+00 7.678114e-01 1.199312e-02 
-6.795074e+00 2.666736e+00 -2.912018e+00 2.039344e+00 4.438059e+00 3.236649e+00 -1.808879e-01 2.871572e+00 -7.722691e-01 6.776477e+00 4.134232e+00 1.055682e+01 -6.077898e-02 2.061716e-01 -3.000877e+00 -2.115339e+00 -1.914605e+00 6.924369e-01 9.117191e-01 4.955817e-02 -2.720477e+00 -3.623635e+00 -2.640839e+00 -1.424706e+00 -1.142380e+00 1.102875e-01 
-1.229716e+00 -3.646024e+00 -1.208557e+01 -3.232386e-01 5.744836e+00 2.654613e+00 2.835617e+00 -4.338120e+00 -7.147238e+00 2.061385e+00 4.982114e+00 3.402011e+00 -5.598426e-03 -1.109643e+00 -1.817172e+00 -2.151385e-01 -3.609559e+00 4.149413e-01 -1.690076e+00 -1.771072e+00 -2.163662e+00 -2.946119e+00 -2.865492e+00 -2.786679e+00 -1.735788e+00 1.552686e-01 
-8.966030e+00 -6.180658e+00 -5.456815e+00 -9.629710e+00 5.161731e+00 -7.129727e-01 -4.206657e+00 -6.238515e+00 -1.097025e+01 -2.834905e+00 -4.312922e+00 1.675425e+00 4.342497e-01 -1.805001e+00 1.764173e+00 2.130867e+00 -2.413544e+00 -9.866387e-02 -2.452347e+00 -1.608863e+00 -1.457171e+00 -6.293059e-01 -2.344926e+00 -2.436193e+00 -2.956502e+00 1.135508e-01 
-9.898409e+00 7.577390e-01 -1.877991e+00 -1.249738e+01 2.836001e+00 -7.968556e+00 -5.723054e+00 4.042087e-01 -8.285954e+00 -2.282495e+00 -8.227695e+00 6.619980e-01 4.763284e-01 -2.198972e+00 3.432953e+00 3.117665e+00 4.902859e-02 -8.390031e-02 -2.078261e+00 -1.378600e+00 5.704914e-01 2.093649e+00 -7.413461e-01 -2.140201e-01 -1.522904e+00 3.993362e-03 
-1.148573e+01 9.285718e+00 2.638528e+00 -3.941303e+00 5.399157e+00 -3.713502e+00 -3.945866e+00 -6.785445e+00 -3.349441e+00 -2.776211e+00 -1.441829e+00 -2.855690e+00 2.660116e-01 1.890610e-01 2.565206e+00 8.580009e-01 3.001804e+00 -2.632817e-01 -2.359575e-01 1.734729e+00 2.206428e+00 3.082644e+00 6.840258e-01 2.146685e+00 2.704349e-01 -1.391448e-01 
-1.096473e+01 5.785553e+00 -5.449163e-01 -2.922299e+00 5.206622e+00 -6.236427e+00 -4.187779e+00 -1.212198e+00 -4.893943e-01 -1.674692e+00 2.476467e+00 -1.946952e+00 9.848744e-02 9.032345e-01 -2.373486e-02 -3.240881e-01 2.621627e+00 -3.629397e-01 1.342793e+00 2.544341e+00 1.400932e+00 2.026761e+00 1.488007e+00 2.438617e+00 2.438745e+00 -1.465962e-01 
-7.487566e+00 4.131465e+00 -1.833348e+00 5.917677e-01 2.660012e+00 -2.758825e+00 3.699350e+00 5.601828e+00 5.446906e-01 2.813224e-01 1.068423e+00 4.332074e+00 -7.255375e-02 1.192706e+00 -1.035131e+00 -5.567514e-01 -3.344585e-01 -1.529727e+00 1.046825e+00 1.539807e+00 2.009134e+00 7.095622e-01 2.132375e+00 1.087949e+00 2.525089e+00 -8.765182e-02 
-7.381319e+00 3.216191e+00 -1.262494e+00 -1.655781e+00 2.390875e+00 -1.731930e+00 3.176041e+00 1.215234e+00 -9.921598e-02 3.628772e+00 2.710265e+00 9.261839e+00 -8.736980e-02 8.084057e-01 -7.211399e-02 -9.841387e-02 -1.533732e-01 -9.041779e-02 1.600606e+00 1.480117e+00 1.073965e+00 5.914339e-01 1.027737e+00 -1.332798e-01 7.884867e-01 -3.358971e-02 
-7.313906e+00 5.394744e+00 2.135599e-01 -6.246855e+00 -8.416018e-01 -7.316267e-01 7.125783e-02 2.046511e+00 3.280640e-03 5.233932e+00 3.881019e+00 4.165358e+00 -7.931888e-02 2.189365e-01 -8.159202e-02 -2.661934e-01 -1.676987e-01 4.458138e-01 6.439857e-01 8.907732e-02 6.943910e-01 5.943723e-01 7.534945e-02 -1.270504e+00 -1.751178e+00 2.189231e-03 
-7.009529e+00 4.793344e+00 -2.060440e+00 -2.698535e-01 6.505340e+00 7.530025e-01 5.026850e+00 5.935287e+00 2.738481e+00 9.876890e-01 4.037703e-01 2.078840e+00 -6.607854e-02 6.369257e-02 -2.954733e-01 -5.236070e-01 4.931540e-01 9.039198e-01 8.384994e-01 1.760819e-01 1.422830e+00 3.336044e-01 -7.999903e-01 -1.498164e+00 -2.176249e+00 1.113542e-02 
-6.578778e+00 2.934929e+00 -2.765342e+00 -9.396893e-01 2.831849e+00 -7.813625e-01 3.219332e+00 6.713756e+00 2.097704e+00 1.978611e+00 -4.130849e+00 -8.323174e-01 -7.225323e-02 -3.204227e-01 -3.021395e-01 -1.560866e-01 -1.435198e+00 5.936204e-02 6.158215e-01 -1.490068e+00 1.495226e+00 -4.946675e-01 -3.644548e-01 -2.467936e+00 -1.270780e+00 4.248189e-02 
-7.430420e+00 2.968732e+00 -2.391078e+00 -1.843593e+00 5.073748e+00 2.485434e+00 2.482413e+00 5.995759e+00 5.215943e-01 1.256482e+00 -7.746214e-01 8.794305e-01 -3.522551e-02 6.102975e-01 4.534319e-01 1.995025e-01 -1.355609e+00 -7.695650e-01 3.540101e-01 -2.177328e+00 1.514260e-01 -5.030528e-01 -3.498139e-01 -2.931084e+00 -1.726030e+00 2.466552e-02 
-8.705574e+00 4.796352e+00 -4.015539e-01 -1.263597e+01 1.710043e-01 1.481265e+00 -6.106864e+00 9.492404e+00 -1.361614e+00 3.277262e+00 -7.869467e+00 -1.588837e+00 1.176640e-01 1.353401e+00 6.228994e-01 9.922560e-02 1.899445e-01 -9.072151e-01 -1.765875e-01 -1.325670e+00 -5.960221e-01 6.397112e-01 -5.382501e-01 -2.233842e+00 -1.671247e+00 3.597140e-03 
-2.894644e+00 6.129791e+00 -2.244821e+00 -1.199758e+00 3.987937e+00 1.391739e+00 -1.196692e+00 5.303093e+00 1.952876e+00 -1.410706e+00 -1.238234e+01 -6.173048e+00 -3.770959e-02 1.506971e+00 -8.952188e-01 6.837664e-01 1.235643e+00 -2.165837e+00 -4.604134e-01 -2.757040e-01 -5.994797e-04 2.178900e+00 -1.541317e+00 -1.473603e+00 -9.431551e-01 3.818452e-04 
-2.079661e+00 4.468896e+00 -2.342342e+00 -3.118846e-01 -1.161321e+00 -1.117452e+00 -1.569465e+00 4.079978e+00 4.580619e+00 6.209548e-01 -9.496201e+00 -5.662315e+00 -5.302548e-02 6.995650e-02 -2.822345e+00 2.837456e+00 9.462999e-01 -2.277042e+00 -1.972827e-01 -8.629940e-01 -1.374378e+00 2.486125e+00 -3.185700e+00 8.854653e-01 1.266107e+00 8.316254e-02 
-3.208522e+00 -1.343634e+00 1.998148e+00 -1.827423e+00 -5.089275e+00 1.482726e+00 -1.164807e+00 8.698976e+00 8.444977e+00 -5.121952e+00 -7.329272e+00 -1.799606e+00 5.202848e-02 -2.852682e+00 -3.448241e+00 3.772481e+00 -2.556170e+00 -1.107854e+00 -1.715239e-01 -3.282164e+00 -9.498558e-01 2.165993e+00 -3.027567e+00 1.660494e+00 1.908827e+00 1.929268e-01 
-8.198853e+00 -5.578658e+00 1.166424e+01 -7.590643e+00 -6.675601e+00 4.493577e-01 -1.043778e+01 9.225754e-01 7.822958e+00 -1.079561e+01 -5.968674e+00 2.554978e+00 4.886077e-01 -4.321943e+00 -2.070422e+00 2.856000e+00 -3.470196e+00 1.438007e+00 1.197633e+00 -2.330620e+00 -6.433673e-02 1.045174e+00 -2.347062e+00 1.408596e+00 1.818987e+00 2.285687e-01 
-1.409846e+01 -6.087639e+00 9.614291e+00 -1.034123e+01 1.205810e+00 -2.492851e-01 -1.317335e+01 2.132516e+00 1.116167e+01 -1.084026e+01 -5.843633e+00 -7.375591e-01 6.561078e-01 -4.387130e+00 -4.555694e-01 4.099893e-01 -3.827781e+00 2.536753e+00 8.128298e-01 -1.049934e+00 2.810485e-01 -1.074118e+00 -2.546680e-01 1.296386e+00 1.273430e+00 1.949417e-01 
-1.824441e+01 -3.511210e+00 8.129585e+00 -1.340597e+01 2.881171e+00 5.736720e+00 -7.218293e+00 7.041524e+00 8.448143e+00 -8.255201e+00 -3.196038e+00 2.901593e+00 7.877782e-01 -3.052783e+00 8.550624e-01 -1.305916e+00 -3.395138e+00 8.891800e-01 1.260699e+00 1.286903e+00 9.939338e-01 -1.914881e+00 1.231381e+00 9.438508e-01 3.745687e-01 1.114987e-01 
-2.012139e+01 -4.655205e+00 5.815422e+00 -1.805867e+01 2.816105e+00 2.903194e+00 -8.024220e+00 7.044743e+00 2.761796e+00 -7.665499e+00 -2.233661e+00 4.394238e+00 8.771516e-01 -1.701850e+00 1.348583e+00 -5.062082e-01 -2.743510e+00 -8.233681e-01 4.837920e-01 5.229113e-01 -1.623777e+00 -3.081257e+00 1.308013e+00 1.700213e+00 6.375272e-01 6.898637e-02 
-2.045130e+01 -2.019563e+00 7.034096e+00 -2.070761e+01 -3.034849e+00 5.176612e+00 -6.577830e+00 3.436131e+00 2.448493e+00 -6.226089e+00 -3.054405e+00 1.861923e+00 9.355791e-01 -7.014771e-01 9.201412e-01 -4.723953e-01 -1.718498e+00 -1.039264e+00 -1.537273e+00 -9.155550e-01 -2.450522e+00 -2.770579e+00 8.110083e-01 1.160643e+00 2.146628e-02 3.100708e-02 
-2.150426e+01 -9.054792e-02 7.630995e+00 -2.040795e+01 4.697895e-02 2.449728e+00 -1.087903e+01 -4.183673e+00 -1.244788e+00 -5.314751e+00 2.586615e+00 2.969912e+00 9.271392e-01 -6.112194e-02 7.413971e-01 -9.726916e-02 7.007347e-01 8.315364e-01 -1.511153e+00 1.365479e+00 -6.582053e-01 -7.038598e-01 1.171995e+00 3.224152e-01 2.654612e-02 -5.903780e-03 
-2.106036e+01 -1.192833e+00 4.859822e+00 -2.082381e+01 -9.305849e-01 -1.722914e+00 -1.036866e+01 4.031238e-01 -3.401460e+00 -5.375533e+00 1.970388e-01 3.721088e+00 9.178198e-01 -3.934851e-01 -5.494889e-01 -5.570100e-01 1.548934e+00 1.797892e+00 -1.647787e+00 1.634947e+00 1.280942e+00 1.014915e+00 1.500507e+00 6.890799e-01 2.059788e+00 -1.983694e-02 
-2.012247e+01 -1.361584e+00 6.416213e+00 -1.449689e+01 5.921655e+00 -1.202807e+00 6.985935e-01 5.270220e+00 2.167474e+00 -2.230801e+00 -2.247307e+00 3.597386e+00 8.565124e-01 -5.387819e-01 -6.148757e-01 -3.852677e-01 1.457966e+00 6.918253e-01 -5.072665e-01 2.167903e+00 7.477482e-01 1.859835e+00 1.137884e+00 -8.200769e-02 1.156690e+00 -1.740316e-02 
-2.310962e+01 -4.131490e+00 4.856437e+00 -1.591847e+01 3.017272e+00 -1.236056e+00 -4.191906e+00 5.113895e+00 5.816936e+00 -2.655283e-01 2.807954e+00 1.184712e+01 8.717078e-01 1.053209e-01 -2.291253e-01 -1.753292e-01 1.403087e+00 5.847012e-01 6.354584e-02 9.979591e-01 -1.062559e+00 1.546190e+00 1.340123e+00 1.049659e+00 6.918781e-01 -1.796360e-02 
-2.317354e+01 -1.695598e+00 5.706349e+00 -1.557079e+01 1.532177e+00 -3.300331e-01 -3.127890e+00 -2.800318e+00 3.445189e+00 -2.180331e+00 8.711182e-01 4.690346e+00 8.631794e-01 6.129869e-01 6.935441e-01 -2.605966e-01 4.524082e-01 -4.390331e-01 5.060516e-01 -8.532151e-01 -1.424195e+00 5.948372e-01 -6.391619e-01 4.473653e-02 6.238171e-01 -1.124576e-02 
-1.900822e+01 -2.171453e+00 4.338109e+00 -1.327143e+01 4.187660e+00 -1.841572e+00 -3.465626e+00 -8.744007e-01 3.690630e+00 1.299846e+00 3.886120e+00 6.633999e+00 8.246683e-01 6.624927e-02 5.490649e-01 2.448668e-01 2.444926e-01 -6.552941e-01 6.275598e-01 9.011688e-01 -1.187252e+00 6.009008e-01 -8.042952e-01 -4.315785e-01 -2.405746e-01 6.412208e-04 
-1.910824e+01 1.126118e+00 5.372394e+00 -1.355837e+01 3.141295e+00 1.630209e+00 -3.930622e+00 1.143392e+00 6.204813e+00 -6.209298e+00 -2.562707e+00 9.323035e+00 8.238033e-01 -7.772962e-01 6.241856e-01 6.737541e-01 -3.711146e-01 -1.820357e-01 1.188458e+00 1.812498e+00 -1.572050e-01 1.691870e+00 3.872570e-01 4.937662e-01 7.818870e-01 2.308303e-02 
-2.481103e+01 -2.797023e+00 6.247748e+00 -1.570222e+01 -1.063758e+00 9.216215e-01 7.153038e-01 -2.794219e+00 7.441628e+00 -2.272521e+00 2.366975e+00 8.327907e+00 8.946019e-01 -1.234694e+00 4.958117e-01 7.248846e-01 -1.230470e+00 -1.030044e+00 1.055459e+00 1.596466e+00 -1.245097e+00 2.337039e+00 -4.835005e-02 -9.460152e-01 -1.183446e+00 3.194678e-02 
-2.415862e+01 1.738116e+00 8.120299e+00 -1.621097e+01 3.247707e+00 4.230658e+00 3.844137e+00 -2.626433e+00 1.002904e+01 1.542138e+00 4.099522e+00 7.752827e+00 9.436277e-01 3.493977e-02 -6.769391e-01 1.168370e+00 -9.249374e-01 -1.428583e+00 8.668234e-01 -1.892485e-01 -1.453144e+00 2.502472e-01 -2.877784e-02 -7.065678e-03 -2.035899e+00 3.269756e-02 
-2.265650e+01 1.607060e-03 6.588579e+00 -1.809748e+01 -1.015768e+00 2.135499e+00 6.293254e-01 -5.214974e+00 1.346371e+01 -2.817621e+00 -4.175070e+00 1.501875e+00 9.244900e-01 2.993161e+00 -1.158310e+00 1.459884e+00 -9.017277e-03 -1.074946e+00 1.946233e+00 -3.110173e+00 -9.525417e-01 3.699194e-01 -1.715700e+00 -7.930032e-01 -1.517805e+00 8.595484e-03 
-2.001080e+01 -3.657893e+00 1.104383e+01 -1.698543e+01 -4.025615e+00 5.357387e+00 -4.833876e+00 -4.911953e+00 4.445007e+00 -6.080637e+00 6.729871e-01 2.556559e+00 9.723471e-01 7.172759e+00 -1.398854e+00 8.311129e-01 2.978474e+00 -2.018511e+00 5.512739e-01 -3.693129e+00 -7.894115e-01 -1.215642e+00 4.598625e-01 -4.451217e-01 -1.589209e+00 -9.296910e-02 
-1.191913e+01 -5.890568e+00 1.208541e+01 -1.536008e+01 -2.801826e+00 1.008943e+01 -1.049656e+01 -6.414168e+00 1.208324e+01 -7.039635e+00 1.152263e-01 3.337016e+00 9.232197e-01 1.034321e+01 -1.042863e+00 -1.303338e+00 5.247932e+00 -1.606610e+00 -1.092339e+00 -2.788716e+00 1.248698e+00 -3.806295e+00 3.643655e+00 1.857695e+00 -2.007832e+00 -8.872431e-02 
6.336493e+00 -2.310067e+00 9.527451e+00 -2.687302e+00 -5.951819e+00 3.010065e+00 -9.058566e+00 -5.973894e+00 4.641064e+00 5.952457e+00 -2.712344e-01 -1.110787e+00 4.794173e-01 1.012374e+01 -1.678707e+00 -4.061232e+00 5.292785e+00 -1.739220e+00 -3.477509e+00 1.623814e-01 1.692562e+00 -2.875841e+00 4.142429e+00 1.981961e+00 -2.465658e+00 -3.522678e-02 
1.588589e+01 -5.886621e+00 8.300745e-01 9.931191e-01 -8.085717e+00 -2.152536e+00 -1.120191e+01 1.559487e+00 -5.665790e+00 9.384106e+00 5.585516e+00 -6.703614e+00 7.273333e-01 6.749805e+00 -2.646958e+00 -5.170661e+00 4.102266e+00 -1.743237e+00 -4.212867e+00 2.074615e+00 1.599558e+00 -2.820719e+00 2.810568e+00 2.832744e+00 -2.802565e+00 4.657847e-02 
1.670541e+01 -1.205340e+01 -3.634668e+00 1.301899e+00 -1.007977e+01 -5.909179e+00 -3.669291e+00 -4.359724e-01 -1.059682e+00 6.419640e+00 7.847645e+00 -4.751414e+00 8.941563e-01 2.002378e+00 -3.238298e+00 -4.024215e+00 2.071548e+00 -1.665690e+00 -2.566651e+00 2.757737e+00 7.192118e-02 8.142829e-02 6.101015e-01 1.638218e+00 -1.496878e+00 1.189683e-01 
1.664544e+01 -1.425369e+01 -7.186843e+00 3.156651e+00 -9.454038e+00 -6.515287e+00 -2.818117e+00 -1.185341e+00 8.300171e-01 6.779613e+00 1.021951e+01 -8.855494e+00 9.487425e-01 1.411877e-02 -2.323399e+00 -1.677379e+00 2.233656e+00 -1.778663e+00 -1.515760e+00 3.243359e+00 -2.166299e+00 2.635119e+00 -1.109246e-01 1.923639e-01 -5.356904e-01 5.877652e-02 
1.596861e+01 -1.431802e+01 -6.585166e+00 6.588675e+00 -1.359611e+01 -7.641815e+00 5.382243e-01 -4.241874e+00 1.800302e+00 1.030521e+01 5.602860e+00 -7.519237e+00 9.635542e-01 -3.074732e-02 -1.119956e+00 -4.075355e-01 2.589809e+00 -2.083726e+00 -4.664799e-01 1.681027e+00 -1.502271e+00 1.659860e+00 1.841516e-01 9.932432e-02 -1.187257e+00 2.372330e-02 
1.632489e+01 -1.637131e+01 -6.081573e+00 9.518014e+00 -1.522086e+01 -8.865018e+00 2.911127e+00 -7.369057e+00 6.079813e+00 6.886697e+00 7.669729e+00 -7.998155e+00 9.865170e-01 -3.147745e-01 -3.632439e-01 1.792600e-01 1.800694e+00 -1.530746e+00 -3.200296e-01 1.104339e+00 -5.991019e-01 5.702893e-01 4.395551e-01 -2.171326e-03 -6.718817e-01 1.217807e-02 
1.671195e+01 -1.659437e+01 -6.224980e+00 1.107026e+01 -1.761499e+01 -7.066713e+00 1.871223e+00 -4.855468e+00 4.614720e+00 7.286856e+00 9.619157e+00 -1.111637e+01 9.938856e-01 -3.060863e-01 -1.445461e-01 -1.689045e-01 1.055845e+00 -8.082735e-01 1.438286e-01 7.246453e-02 3.347349e-02 1.544017e-01 3.157151e-01 6.112016e-01 -8.947876e-01 8.084178e-03 
1.469990e+01 -1.493174e+01 -6.470636e+00 9.919330e+00 -1.509832e+01 -8.402987e+00 2.037079e+00 -3.874054e+00 2.274255e+00 1.048657e+01 8.200503e+00 -1.041634e+01 9.944671e-01 -3.470069e-01 2.030712e-01 -1.244676e-01 -3.071905e-01 2.986578e-01 -2.110386e-02 -5.459583e-01 7.196106e-01 -1.162555e+00 1.162547e+00 -4.679298e-02 -3.281584e-01 2.511275e-03 
1.525067e+01 -1.576054e+01 -7.235157e+00 1.166724e+01 -1.769874e+01 -7.153688e+00 1.337571e+00 -5.822008e+00 4.475090e+00 1.008385e+01 8.393481e+00 -1.078408e+01 1.000000e+00 -8.437686e-02 1.127520e-01 -1.872091e-01 -7.766711e-01 4.596317e-01 3.232357e-01 -6.469116e-01 3.523141e-01 -1.151804e+00 6.700765e-01 -4.549175e-01 7.722346e-01 7.951140e-04 
1.532049e+01 -1.577287e+01 -6.198823e+00 7.683571e+00 -1.368570e+01 -8.927050e+00 4.481615e-01 -3.287733e+00 3.368514e-01 1.130093e+01 8.048602e+00 -9.805089e+00 9.960161e-01 8.119955e-01 -2.907816e-01 1.180637e-01 -1.033237e+00 -1.037846e-01 1.725291e+00 -1.082992e+00 3.159392e-01 -1.233837e+00 -1.018971e+00 7.237871e-01 1.126001e+00 -6.401402e-03 
1.597977e+01 -1.561005e+01 -7.296932e+00 8.304785e+00 -1.602315e+01 -5.188503e+00 -5.688760e-01 -3.387058e+00 -1.756003e-01 1.023005e+01 7.420519e+00 -7.560820e+00 9.970867e-01 9.705389e-01 2.604372e-01 3.712639e-01 -1.622259e+00 5.242990e-01 2.147366e+00 -1.193447e+00 4.647020e-01 -2.369401e+00 -2.052609e+00 1.849538e+00 1.761757e+00 -2.156744e-02 
1.839532e+01 -1.646089e+01 -5.849430e+00 6.434371e+00 -1.645505e+01 -7.591252e-01 -2.424656e+00 -3.511832e+00 -1.569583e+00 5.318609e+00 1.230592e+01 -6.397964e+00 9.639168e-01 9.545056e-01 9.204212e-01 4.614201e-01 -9.775864e-01 2.617823e-01 2.075154e+00 -4.833383e-01 -5.525178e-01 -2.236497e+00 -2.421835e+00 2.256830e+00 2.423671e+00 -4.785158e-02 
1.856595e+01 -1.411434e+01 -5.553535e+00 4.180547e+00 -1.369257e+01 -5.008202e-01 -3.193256e+00 -3.386448e+00 -6.418696e+00 2.811971e+00 1.551252e+01 -3.678862e+00 9.082125e-01 2.361159e-01 1.555771e+00 9.581711e-01 -5.333144e-01 1.484928e+00 9.747988e-01 7.963667e-01 -1.718286e+00 -3.072505e+00 -2.838335e+00 1.296456e+00 3.136554e+00 -8.095164e-02 
1.879993e+01 -1.191862e+01 -4.763421e+00 4.857758e+00 -1.354207e+01 -8.951210e-01 -6.563401e-01 -6.050627e+00 -7.724084e+00 2.900802e+00 1.528676e+01 3.722894e-01 8.011953e-01 -5.773477e-01 1.991956e+00 9.994005e-01 4.571766e-01 2.058166e+00 7.883887e-01 1.312709e+00 -2.107890e+00 -3.524498e+00 -2.670033e+00 -6.995357e-01 3.499635e+00 -9.400503e-02 
1.695805e+01 -1.010233e+01 -3.049081e+00 6.426519e+00 -1.005499e+01 -2.465107e-01 2.528800e+00 -1.070909e+01 -1.246088e+01 -2.752718e+00 1.241238e+01 4.736822e+00 6.736892e-01 -6.416584e-01 1.276448e+00 1.048019e+00 4.037942e-01 1.394079e+00 1.467959e+00 8.734223e-01 -1.323246e+00 -2.839457e+00 -2.792767e+00 -1.530532e+00 2.513738e+00 -7.211597e-02 
1.631254e+01 -8.507113e+00 -2.104654e+00 7.597268e+00 -7.983008e+00 3.055663e+00 1.277863e+00 -1.038996e+01 -1.617098e+01 -5.249209e+00 1.035831e+01 6.892365e+00 6.111532e-01 -5.360601e-01 2.501835e-01 5.948432e-01 -7.115038e-01 3.414178e-01 1.175083e+00 2.326533e-01 -1.508449e-01 -1.539035e+00 -2.326762e+00 -8.500204e-01 1.422430e+00 -1.253795e-02 
1.660135e+01 -9.437854e+00 -1.642825e+00 4.829763e+00 -9.501711e+00 4.863581e+00 2.067544e-01 -7.833012e+00 -1.639253e+01 -7.076857e+00 1.032408e+01 5.629789e+00 6.426536e-01 7.433744e-02 -9.233850e-01 -1.664623e-01 -2.063905e+00 -1.756081e+00 5.755059e-01 -4.280345e-01 1.093949e+00 1.537303e+00 -3.490409e-01 6.679419e-01 1.726228e-01 6.176461e-02 
1.629798e+01 -1.099994e+01 -2.492333e+00 2.098617e+00 -1.211162e+01 2.425247e+00 1.667949e+00 -8.242891e+00 -1.345343e+01 -6.570937e+00 1.208081e+01 7.037956e+00 7.540234e-01 2.512474e-02 -1.196015e+00 -8.424661e-01 -2.426810e+00 -2.318053e+00 -7.041621e-03 2.148535e-01 1.105895e+00 3.417960e+00 9.478543e-01 9.387199e-01 -1.200714e+00 9.178820e-02 
1.733701e+01 -1.347284e+01 -3.687553e+00 -1.143680e+00 -1.677109e+01 2.946227e+00 1.935836e-01 -6.312881e+00 -6.133135e+00 -3.837059e+00 1.489084e+01 5.527141e+00 9.110772e-01 -2.562331e-01 -7.881743e-01 -1.090216e+00 -1.660921e+00 -1.204281e+00 -1.176091e-01 7.978494e-01 5.240877e-01 4.018596e+00 1.750907e+00 3.473089e-01 -2.338684e+00 7.374945e-02 
1.607033e+01 -1.246969e+01 -5.294620e+00 -1.550060e+00 -1.593859e+01 3.979132e+00 2.358716e+00 -5.620551e+00 -4.210884e+00 -2.129837e+00 1.276853e+01 9.401189e-01 9.358824e-01 -5.663473e-01 -5.047073e-02 -8.788765e-01 -7.042160e-01 5.498142e-01 -2.850457e-01 1.530467e+00 -6.822222e-01 3.938718e+00 1.697265e+00 -1.001043e+00 -2.878389e+00 2.821397e-02 
1.543401e+01 -1.264385e+01 -5.692760e+00 -1.650505e+00 -1.360964e+01 3.498592e+00 3.850618e+00 -6.523743e+00 -9.208258e-01 -5.428714e-01 1.171676e+01 -3.014713e+00 9.204714e-01 -8.413841e-01 6.490391e-01 -4.136440e-01 3.000242e-01 2.063048e+00 -1.042391e+00 2.307288e+00 -2.022262e+00 2.463881e+00 1.739520e+00 -2.328254e+00 -2.219098e+00 -1.604657e-02 
1.441774e+01 -1.166679e+01 -5.884112e+00 -1.169050e+00 -1.094328e+01 7.238355e-01 7.491769e+00 -1.154857e+01 3.634005e+00 2.682920e-01 8.662629e+00 -3.083062e+00 8.903961e-01 -6.411512e-01 9.793255e-01 3.168549e-02 1.172098e+00 1.942018e+00 -1.507251e+00 1.898967e+00 -2.475920e+00 1.356936e+00 1.866396e+00 -2.305155e+00 -1.197669e+00 -3.548897e-02 
1.395639e+01 -1.062910e+01 -5.461027e+00 1.659364e-01 -8.953506e+00 -6.380811e-01 9.163499e+00 -1.346018e+01 2.263826e+00 3.661479e+00 5.302521e+00 -3.556760e+00 8.535875e-01 -2.768264e-01 1.431978e+00 4.093220e-01 2.363658e+00 1.314368e+00 -1.164082e+00 1.081027e+00 -1.284352e+00 -5.027062e-01 1.028390e+00 -2.507263e+00 -6.442909e-01 -6.135037e-02 
1.360338e+01 -8.580441e+00 -5.252059e+00 3.402210e+00 -8.556561e+00 -1.488786e+00 9.197111e+00 -1.453193e+01 9.814670e-01 5.099967e+00 4.449869e+00 -4.777205e+00 7.918795e-01 6.607645e-01 1.818504e+00 9.997126e-01 3.618694e+00 1.534798e+00 -9.926273e-01 -9.781866e-01 1.617898e+00 -2.370143e+00 -1.192454e+00 -2.914977e+00 -3.487054e-01 -8.333963e-02 
1.445706e+01 -7.027129e+00 -3.962177e+00 7.882157e+00 -8.231153e+00 -1.215506e+00 8.403081e+00 -1.145382e+01 -2.108088e+00 2.183239e+00 1.286827e+00 -5.389096e+00 6.629778e-01 8.556260e-01 1.784779e+00 1.370984e+00 3.428755e+00 1.978459e+00 -8.011109e-01 -2.192249e+00 3.062501e+00 -2.255378e+00 -2.928850e+00 -2.297917e+00 -2.413945e-01 -8.278205e-02 
1.747123e+01 -4.375255e+00 -1.634975e+00 1.306631e+01 -3.630463e+00 -3.950588e+00 2.981045e+00 -4.462262e+00 -6.030756e+00 -4.954857e+00 -3.904408e+00 -3.910421e+00 5.690028e-01 6.950797e-01 1.750344e+00 9.406592e-01 2.063189e+00 2.808726e+00 -9.317026e-01 -1.964960e+00 3.175751e+00 -1.696879e+00 -2.764007e+00 -2.080248e+00 -4.754066e-04 -6.523399e-02 
1.630059e+01 -3.807798e+00 -4.146492e-01 1.247766e+01 -1.524262e+00 -3.412734e+00 1.310287e+00 -3.182510e+00 -5.506954e+00 -5.955360e+00 -2.009925e+00 -5.197124e+00 5.511156e-01 8.373328e-02 1.885400e+00 4.552596e-01 1.329593e-01 2.931504e+00 -3.969754e-01 -1.915875e+00 2.448985e+00 -3.401752e-01 -1.951495e+00 -1.005326e+00 3.742790e-02 -3.985847e-02 
1.615701e+01 -1.438386e+00 -2.322527e+00 1.142040e+01 2.133626e+00 -5.048685e+00 2.918707e+00 -2.788835e+00 -5.803493e+00 -4.650769e+00 -4.302996e+00 -4.875568e+00 5.216407e-01 -6.356803e-01 2.335723e+00 2.674570e-01 -2.278659e+00 2.194596e+00 2.019515e+00 -2.186721e+00 9.548391e-01 1.290017e+00 -5.599395e-01 -1.091545e-01 1.099948e-01 -2.941896e-02 
1.553283e+01 9.314375e-01 -1.342103e+00 9.369905e+00 3.544324e+00 -2.651335e+00 -1.145124e+00 -4.561126e-02 -3.922596e+00 -7.726279e+00 -3.540510e+00 -4.719383e+00 4.873666e-01 -6.359230e-01 2.767216e+00 5.921975e-01 -2.552268e+00 1.212645e+00 2.936566e+00 -2.261871e+00 2.711912e-01 2.197306e+00 -4.717958e-01 -3.184731e-01 2.992630e-01 -2.855330e-02 
1.467671e+01 4.933745e+00 1.660369e-01 3.226888e+00 4.808222e+00 5.766286e+00 -6.724854e+00 -1.256516e+00 -3.728505e-01 -6.869095e+00 -3.684888e+00 -3.599317e+00 4.537826e-01 -4.826846e-01 2.101986e+00 9.906563e-01 -2.055923e+00 3.925391e-01 3.198093e+00 -2.329974e+00 -1.605772e-01 2.317146e+00 -3.482575e-01 3.081546e-02 -4.112863e-01 -1.953331e-02 
1.386113e+01 6.842219e+00 1.302057e+00 3.813081e+00 3.201664e+00 5.862609e+00 -5.177289e+00 -2.592714e+00 2.764254e+00 -7.205176e+00 -3.911345e+00 -4.338934e+00 4.422782e-01 -3.083992e-01 1.255063e+00 1.171084e+00 -7.093944e-01 -2.224336e-01 1.570083e+00 1.201396e-02 -7.556621e-01 9.135386e-01 9.260777e-01 -6.872161e-02 -8.766826e-01 -1.249636e-02 
1.457944e+01 6.116155e+00 1.308674e+00 3.919200e+00 4.267652e+00 6.684807e+00 -6.715078e+00 -2.318169e+00 2.438810e+00 -6.652608e+00 -3.963501e+00 -7.122224e+00 4.465183e-01 -1.963163e-01 7.710968e-01 1.108248e+00 1.127102e+00 -4.043519e-01 -1.436045e+00 1.858055e+00 9.746268e-02 -1.076839e+00 1.523380e+00 -2.234654e-01 -5.683722e-01 -9.465391e-03 
1.403947e+01 6.615548e+00 3.942000e+00 5.476777e+00 2.702442e+00 4.739819e+00 -1.089942e+00 -3.293095e+00 -7.607327e-01 -3.204134e+00 -3.744811e+00 -7.341343e+00 4.285169e-01 -3.998811e-01 1.008027e+00 1.268154e+00 1.103063e+00 9.573966e-01 -1.976896e+00 7.913061e-01 7.208393e-01 -1.112835e+00 1.318041e+00 -3.701699e-01 -1.597148e-01 -1.219128e-02 
1.360596e+01 8.902565e+00 4.387304e+00 8.030550e+00 3.036074e+00 -8.525457e-01 5.217459e-01 -4.190118e-01 -3.994553e+00 -1.252716e+00 -4.885482e+00 -4.939974e+00 4.133363e-01 -7.746837e-01 1.170932e+00 1.436275e+00 1.660283e+00 1.590712e+00 -2.005325e+00 4.617701e-01 2.676921e-01 -5.883522e-01 1.141760e+00 -1.092576e+00 9.064130e-02 -1.741973e-02 
1.234846e+01 1.048915e+01 6.103510e+00 7.272722e+00 8.604436e+00 -2.531968e-01 -4.839170e+00 6.190383e-02 4.167585e-01 -3.314920e+00 -5.301204e+00 -6.228633e+00 3.979128e-01 -9.981578e-01 1.157113e+00 8.733324e-01 2.242236e+00 2.118411e+00 -1.523558e+00 -5.756361e-01 4.442491e-01 1.603920e-01 6.403404e-02 -9.107240e-01 4.843212e-01 -2.210492e-02 
1.155152e+01 1.003401e+01 7.409293e+00 1.132264e+01 9.270215e+00 -8.453113e-01 -2.531614e+00 -2.657208e+00 -1.091697e+00 -8.884137e-01 -8.648184e+00 -7.225372e+00 3.747217e-01 -1.437256e+00 9.828213e-01 6.952910e-01 1.946756e+00 2.438842e+00 7.237554e-01 3.204755e-01 -5.019606e-01 3.028620e-01 5.479765e-03 -1.033838e+00 -2.746996e-01 -2.811747e-02 
1.007590e+01 1.183539e+01 6.797668e+00 1.504191e+01 1.017743e+01 -2.881588e+00 -2.441443e+00 4.724872e-02 -1.410201e+00 -3.066114e+00 -6.417080e+00 -3.777038e+00 3.372995e-01 -1.375864e+00 5.032247e-01 -3.785248e-02 1.225419e+00 1.926545e+00 2.382341e+00 2.123023e+00 3.483053e-01 -8.025044e-01 4.496567e-02 -5.431622e-01 9.988696e-01 -3.488232e-02 
7.555965e+00 1.314355e+01 7.516681e+00 1.387973e+01 1.444379e+01 4.080427e+00 9.252597e-01 -2.921487e+00 -1.566764e+00 -1.349720e+00 -9.496734e+00 -7.539269e+00 3.030556e-01 -1.247114e+00 2.938404e-01 -9.749047e-01 2.178048e-01 1.969003e+00 2.788437e+00 2.057563e+00 1.225512e+00 -5.673376e-02 1.201841e-02 2.401291e-01 1.130998e+00 -4.374983e-02 
7.466924e+00 1.145050e+01 5.860554e+00 1.212127e+01 1.565037e+01 9.195640e+00 4.047509e+00 1.935570e+00 -3.358230e+00 -2.859439e+00 -7.592740e+00 -1.077337e+00 2.593343e-01 -1.100881e+00 -5.606018e-01 -1.383089e+00 -3.517822e-01 1.506726e+00 2.186295e+00 1.930338e+00 1.148080e+00 6.751378e-01 1.341231e+00 -3.035153e-01 -2.448475e-01 -5.323853e-02 
6.620440e+00 1.169566e+01 3.003326e+00 1.387199e+01 1.637876e+01 7.058259e+00 4.511723e+00 2.526193e+00 -4.013511e-01 -9.316595e-01 -6.859709e+00 -2.920233e+00 1.949552e-01 -1.256467e+00 -1.497038e+00 -1.431152e+00 -2.558312e-01 7.493063e-01 6.641319e-01 1.287886e+00 2.331998e+00 1.708057e+00 1.811426e+00 7.101536e-01 -1.132856e+00 -6.277926e-02 
5.039255e+00 9.756329e+00 2.138900e+00 1.328688e+01 1.674357e+01 6.560968e+00 5.417017e+00 3.063806e+00 1.382781e+00 3.431010e+00 -9.253169e+00 -7.310794e+00 1.251571e-01 -1.697964e+00 -1.184891e+00 -9.807068e-01 -9.222892e-01 -6.404921e-01 -8.004042e-01 3.501287e-01 2.214526e+00 2.758750e+00 1.596125e+00 1.360300e+00 -7.291664e-01 -6.457235e-02 
2.487467e+00 6.505452e+00 2.221750e+00 1.201778e+01 1.764372e+01 8.718422e+00 6.679935e+00 8.174386e+00 4.603014e+00 4.562185e+00 -5.115751e+00 -1.008682e+01 5.624789e-02 -1.862028e+00 -1.467959e+00 -3.448238e-01 -1.472891e+00 -1.055689e+00 -1.448744e+00 -1.017370e+00 1.530245e+00 1.001099e+00 8.264820e-01 1.041342e+00 8.758615e-01 -5.803281e-02 
1.043592e+00 8.121151e+00 1.347808e+00 8.436931e+00 1.181543e+01 4.363537e+00 4.714047e+00 1.018410e+01 7.933337e+00 2.374261e+00 -1.663219e+00 -1.139873e+00 5.826175e-03 -1.579934e+00 -9.165861e-01 -7.188545e-01 -2.112335e+00 -2.351744e+00 -1.385861e+00 -1.345460e+00 -2.966652e-02 -1.155691e-02 -1.120098e+00 7.765890e-01 2.048613e+00 -4.487479e-02 
-6.918688e-01 5.173452e+00 1.674753e+00 8.932504e+00 1.356438e+01 9.132540e-01 -2.236409e-01 6.617269e+00 1.328866e+00 3.729125e+00 -5.447975e+00 -1.626385e+00 -3.554344e-02 -1.348100e+00 -1.399607e-01 -1.031075e+00 -3.073760e+00 -2.348930e+00 -1.426526e+00 -1.109371e+00 -1.500437e+00 -1.152357e+00 -1.883083e+00 -3.610995e-01 1.391507e+00 -2.988066e-02 
-1.270747e+00 5.839398e+00 -1.181874e+00 4.267837e+00 7.024518e+00 3.534248e+00 2.141506e+00 3.694032e+00 2.962071e+00 -1.752952e+00 -5.204112e+00 -1.297947e+00 -5.332124e-02 -8.856576e-01 -3.284571e-01 -1.026386e+00 -2.224937e+00 -2.007088e+00 -1.371655e+00 4.442279e-01 -6.868485e-01 -3.433139e-01 1.127629e-02 -7.746199e-01 -2.479248e-01 -2.006165e-02 
-3.095863e+00 6.946525e+00 -1.668785e+00 -1.266477e+00 8.294527e+00 2.000437e+00 2.419352e+00 3.917235e+00 1.326864e+00 -2.789623e+00 -5.150802e+00 -3.050253e+00 -6.358171e-02 -2.089424e-02 5.170428e-01 1.509284e-01 -9.672987e-01 -1.500759e+00 -5.641938e-01 1.338680e+00 4.198190e-01 -5.126452e-02 -1.362674e+00 -6.316120e-01 -4.221712e-01 -8.306801e-03 
-2.182698e+00 5.592330e+00 -2.112351e+00 2.411735e+00 4.414920e+00 -3.038332e+00 5.613690e+00 8.099878e+00 6.217768e+00 5.690017e+00 -5.684905e+00 -1.667564e+00 -8.046293e-02 5.852909e-02 5.683163e-01 7.068104e-01 5.615833e-01 -4.530977e-01 -9.519585e-01 9.230964e-01 1.307849e+00 -2.043712e-01 -1.413645e-01 -3.916884e-01 -8.212147e-02 1.005149e-03 
-3.403645e-01 7.882201e+00 2.894634e+00 5.024061e+00 7.365386e+00 1.378575e+00 4.733667e+00 6.513441e+00 -5.553057e-01 -6.805731e+00 -8.365638e+00 -3.552433e+00 -6.350660e-02 2.558853e-01 1.014866e+00 1.462174e+00 2.364295e+00 1.033822e+00 5.543481e-01 1.054094e+00 1.543248e+00 -1.540404e-01 -4.320363e-01 -1.418638e+00 -2.206472e-01 6.679022e-03 
-2.355851e+00 8.213141e+00 7.046825e-02 3.930484e+00 5.223600e+00 -9.146132e-01 5.599830e+00 8.935174e+00 2.881299e+00 -4.517206e-01 -5.555136e+00 -1.457464e+00 -4.833305e-02 -1.564392e-01 1.033614e+00 1.046543e+00 5.559646e-01 1.365570e+00 1.952313e+00 2.144098e-01 -2.560616e-01 -9.296930e-01 -3.635890e-01 -5.812207e-01 3.494307e-01 4.456353e-03 
-1.729860e+00 1.071045e+01 4.550674e+00 9.795620e+00 1.305930e+01 3.710318e+00 7.696754e+00 1.121583e+01 2.224896e+00 -1.878936e+00 -1.230887e+01 -4.258538e+00 -4.625154e-02 -3.094605e-01 3.328664e-01 -3.673079e-01 -7.399119e-01 -8.378029e-04 8.295442e-01 -7.872701e-01 -1.993786e+00 -3.152857e-01 2.159971e+00 6.797983e-01 1.265453e+00 -2.556026e-03 
-2.270146e+00 9.346273e+00 2.292345e+00 2.805779e+00 8.395814e+00 5.557364e+00 5.204196e+00 4.468378e+00 1.792021e-01 1.408674e+00 -6.619391e+00 4.326427e-01 -6.680870e-02 -4.913107e-01 -6.649485e-01 -2.543486e-01 -1.376792e+00 -1.083582e+00 -2.121044e-01 -1.119126e+00 -1.309650e+00 -2.758208e-01 6.423951e-01 1.218019e+00 1.451624e+00 -9.171951e-03 
-1.930519e+00 8.979966e+00 -5.284375e-02 1.886854e+00 5.775090e+00 2.290307e+00 9.951333e-01 -1.222093e+00 -7.806854e-01 3.063924e+00 -4.434519e+00 1.829776e+00 -6.704891e-02 -5.932213e-01 -8.332704e-01 -6.850022e-01 -1.123087e+00 -3.230087e+00 -2.253193e+00 -1.364334e+00 -4.141982e-01 -4.918243e-01 3.438508e-01 2.386501e+00 1.110604e+00 4.438662e-03 
-4.712075e+00 5.753640e+00 1.100484e+00 1.000909e+00 3.447796e+00 -1.265129e+00 3.355010e+00 8.605884e+00 3.004986e+00 2.888250e-01 -3.402219e+00 2.756498e+00 -8.379412e-02 -6.900997e-01 -5.734347e-01 -1.193983e-01 5.524800e-01 -7.275647e-01 -8.450360e-01 -6.654260e-01 -3.478801e-01 -2.654034e-01 -4.956305e-01 1.212912e+00 -3.512062e-01 3.808951e-03 
-3.475002e+00 8.340412e+00 1.721593e+00 5.082622e+00 -6.171274e-01 -4.144401e+00 1.799674e+00 7.076082e+00 -1.647118e+00 4.002428e-01 -1.984953e+00 1.325550e-01 -1.556551e-02 -5.133926e-01 -1.997067e-01 -1.649268e-01 8.299716e-01 8.998594e-01 1.358444e+00 6.948601e-01 -7.868972e-01 -4.134492e-01 1.797338e-01 1.876043e+00 1.202440e+00 5.208778e-03 
-4.948403e+00 6.798877e+00 8.081348e-01 3.970295e+00 7.954099e+00 4.549538e+00 1.474796e+00 -1.420110e+00 -7.145989e-01 2.623620e-01 -1.779616e+00 -4.747775e-01 -7.350564e-02 3.335779e-01 4.633173e-01 -3.245402e-01 4.077749e-01 1.321845e+00 1.972656e+00 7.715412e-01 -1.879945e+00 -8.549077e-01 8.212582e-01 1.169278e+00 1.278708e+00 4.117358e-03 
-4.379318e+00 7.458815e+00 -7.313031e-01 4.552019e+00 8.021235e+00 6.175193e+00 5.409541e+00 -1.435819e-01 -9.881388e-01 3.975825e+00 4.134393e+00 9.457612e+00 -4.614925e-02 4.122325e-01 2.053375e-01 -2.138626e-01 -4.220284e-01 1.049368e+00 1.405432e+00 1.114920e+00 -4.284082e-01 -7.882900e-02 6.759129e-01 3.903012e-01 1.367219e+00 -3.910971e-03 
-2.592028e+00 8.511025e+00 7.042316e-01 3.305085e+00 5.737842e+00 3.438352e+00 5.407784e+00 2.815991e+00 -1.599041e+00 2.607325e+00 -6.155033e-01 4.487509e+00 -4.791546e-02 6.500042e-01 4.476508e-01 1.227728e-01 -2.577354e-01 -6.715908e-01 -4.959214e-01 7.864217e-01 1.143178e+00 -2.379788e-01 3.321427e-01 -2.421672e-01 4.954469e-01 4.941416e-03 
