-9.046017e+00 2.515551e+00 9.363878e-01 3.695645e+00 6.450502e+00 -3.294602e+00 2.005845e+00 5.233253e+00 1.497680e+01 1.361402e+01 1.250622e+01 6.022119e+00 5.949765e-02 -9.046497e-02 4.007812e-01 -4.811921e-02 -5.900072e-01 -1.137047e+00 8.322222e-01 -2.404852e-01 -1.010040e+00 -1.241790e+00 -1.508479e+00 -6.769893e-01 7.774310e-01 2.183008e-03 
-9.303194e+00 2.459972e+00 -1.041818e+00 2.945622e+00 3.208584e+00 -1.463374e+00 2.113220e+00 2.068224e+00 1.005830e+01 4.865744e+00 1.269951e+01 7.948189e+00 6.405789e-02 -3.248800e-01 7.239752e-01 -2.947617e-01 -1.241985e+00 -1.265664e+00 7.140371e-01 -1.187732e-01 -4.747221e-01 -7.787702e-01 -9.485906e-01 -6.974673e-01 6.838941e-01 5.707562e-03 
-9.369753e+00 4.547246e+00 1.684895e+00 1.120620e+00 2.386226e+00 -4.910609e-02 7.497315e-01 1.765568e+00 1.122710e+01 1.044576e+01 9.024632e+00 8.946238e+00 6.813258e-02 -5.368589e-01 -1.630217e-01 -5.528269e-01 -1.272653e+00 -1.086782e+00 -8.215879e-01 -9.136780e-01 -1.218124e+00 -6.930721e-01 -6.111326e-01 -3.175260e-01 4.481722e-01 8.248734e-03 
-1.050855e+01 5.119579e+00 -9.116743e-01 -1.226766e+00 2.154320e+00 -1.347166e+00 2.040036e+00 4.593485e+00 1.295780e+01 1.045519e+01 1.075968e+01 7.979529e+00 8.371800e-02 -3.508953e-01 -8.302128e-01 -7.804692e-01 -7.230575e-01 2.685275e-01 -1.560604e-01 -1.097606e+00 -1.292200e+00 -2.544109e-01 4.334524e-01 -2.823792e-01 -4.122738e-01 3.629500e-03 
-1.112763e+01 3.706390e-01 -1.892818e+00 -5.814267e-01 1.543725e+00 -7.460647e+00 -2.525953e+00 -2.119996e+00 1.006169e+01 7.763629e+00 1.188851e+01 8.247310e+00 9.091127e-02 -2.142433e-01 -1.050445e+00 -9.729077e-01 -4.835366e-01 1.749538e-01 -8.952263e-01 -1.267542e+00 -1.814319e+00 -1.253609e+00 -2.063935e+00 -8.827559e-01 -4.925860e-01 -2.010757e-03 
-1.017873e+01 3.972113e-01 -3.155308e+00 1.813580e-01 4.972472e+00 1.462094e+00 -1.736969e+00 -2.449996e+00 9.368948e+00 8.374070e+00 9.855680e+00 6.236284e+00 7.081604e-02 5.994110e-02 -1.900719e-01 4.863872e-01 3.737047e-01 3.064677e-01 -1.159811e+00 -7.843791e-01 -8.507736e-01 -7.998743e-01 -1.293855e+00 -8.438040e-01 -2.909804e-01 -8.884931e-03 
-1.060588e+01 1.656207e+00 -2.057827e+00 -2.001125e+00 1.851919e+00 -5.929868e+00 -3.699476e+00 -3.784287e+00 6.753481e+00 1.166645e+00 5.062855e+00 7.354931e+00 6.452978e-02 2.696989e-01 9.182374e-01 3.706370e-01 4.232168e-01 9.272774e-01 -3.353637e-01 7.669931e-01 1.805302e+00 7.917029e-01 8.123845e-01 -2.104127e-01 -6.834934e-02 -4.619604e-03 
-1.046972e+01 3.526436e+00 1.602766e+00 1.351607e+00 3.532562e+00 -7.911612e+00 -1.295098e+00 1.171762e+00 1.061253e+01 7.284411e+00 9.953490e+00 6.970817e+00 5.248410e-02 1.677912e-01 7.405707e-01 3.035484e-01 5.475518e-01 1.518453e+00 1.281137e-01 6.436898e-01 1.207322e+00 7.364391e-01 6.208946e-01 -4.751720e-02 -5.129810e-01 1.846081e-03 
-9.633644e+00 3.397213e+00 -2.418670e+00 9.495328e-01 6.900067e+00 -4.450612e+00 1.088078e+00 5.095633e+00 1.339841e+01 1.237038e+01 1.078754e+01 7.538297e+00 7.697922e-02 3.057480e-03 -4.663270e-01 -4.774505e-01 5.759518e-01 1.380301e+00 1.212807e+00 9.041082e-01 8.196988e-01 -1.901787e-03 1.525595e+00 9.217649e-01 -2.783835e-01 1.351976e-03 
-9.825891e+00 3.229561e+00 -1.457144e+00 1.443788e+00 1.004066e+01 1.363035e+00 -9.122963e-01 -8.533473e-01 9.728678e+00 5.876675e+00 6.755751e+00 3.579696e+00 7.382172e-02 -8.126678e-02 -1.046857e+00 -5.171264e-01 1.658201e-01 -6.920519e-01 3.650640e-01 2.556233e-01 6.122830e-01 -2.588889e-01 -4.880972e-01 -3.995578e-02 2.651117e-01 2.786529e-03 
-1.091251e+01 -5.269908e-01 -2.915125e+00 8.325434e-01 5.499375e+00 -4.503156e+00 6.296642e-01 1.326762e+00 7.185898e+00 9.498487e+00 1.127055e+01 7.658573e+00 6.062084e-02 -8.082275e-02 -6.924156e-01 2.950667e-01 3.647522e-02 -1.146389e+00 4.405599e-02 4.488076e-01 5.979357e-01 -2.819966e-01 -1.464653e+00 -2.210181e-02 4.666072e-01 -2.568167e-03 
-1.023662e+01 2.542530e-01 -7.346389e-01 2.239202e+00 7.726483e-01 -6.060020e+00 2.122247e-01 6.117612e+00 1.242434e+01 6.279871e+00 9.512207e+00 8.236237e+00 7.459593e-02 -1.675684e-01 -6.011260e-03 4.876690e-01 5.428351e-01 -6.043445e-01 -7.453702e-01 3.545633e-01 1.397608e+00 7.587402e-01 -7.849410e-01 6.207842e-02 2.535823e-01 9.019375e-05 
-9.832392e+00 1.422790e+00 -1.304590e+00 7.342020e-01 5.802127e+00 -5.188044e-01 2.769855e+00 4.599832e+00 1.064060e+01 4.845520e+00 9.298802e+00 7.543062e+00 6.375128e-02 1.782158e-01 1.154942e+00 9.975368e-01 6.873474e-01 8.540012e-01 4.410558e-02 -5.822156e-01 8.986203e-01 1.692756e+00 -2.750829e-01 -8.230845e-01 -1.311294e+00 1.384610e-03 
-1.120379e+01 2.224615e+00 1.759329e-01 4.207134e+00 6.867561e+00 -4.355992e+00 -2.095754e-01 4.498157e+00 1.179503e+01 4.278454e+00 8.052015e+00 4.905364e+00 7.270747e-02 9.325600e-02 5.691759e-01 2.761945e-01 1.725924e-02 8.898619e-01 -4.050025e-01 -7.746711e-01 9.769201e-04 6.094597e-01 1.327014e+00 -2.453594e-01 -1.088773e+00 3.776133e-04 
-9.537844e+00 4.262536e+00 1.617273e+00 3.285314e+00 6.721925e+00 -5.134642e+00 -2.070514e+00 6.629592e+00 1.596433e+01 9.123782e+00 7.885222e+00 2.767542e+00 6.848812e-02 -3.957004e-02 1.561061e-02 -1.892594e-01 -4.633036e-01 -7.293150e-01 -1.157050e+00 -1.457040e-01 3.234258e-01 -1.617298e-01 1.494976e+00 3.211691e-01 -6.239893e-01 3.042579e-04 
-9.917618e+00 1.680259e+00 -8.145976e-01 1.049942e+00 4.762059e+00 -5.777114e+00 -1.240946e+00 5.107617e+00 1.280977e+01 1.077581e+01 8.992200e+00 5.180134e+00 7.411557e-02 -1.191401e-01 -6.348742e-01 -4.419158e-01 -5.769376e-01 -1.077765e+00 -1.114708e-01 1.697891e-01 -1.293609e+00 -9.594105e-01 1.520386e+00 8.422971e-01 2.101668e-02 4.881620e-04 
-1.067333e+01 1.773020e+00 -1.755621e+00 -3.719807e-03 3.208303e+00 -5.593495e+00 2.557021e+00 5.912230e+00 9.324576e+00 9.071723e+00 1.043456e+01 4.285730e+00 6.456852e-02 -4.796766e-01 -1.103404e+00 -1.560031e-01 4.184940e-01 -3.043945e-01 1.475425e+00 6.941601e-01 -1.422009e+00 -4.252528e-01 3.799910e-01 1.160101e+00 9.901913e-01 1.278329e-03 
-1.123175e+01 2.950015e-01 -3.471987e-01 2.966963e+00 3.235546e+00 -4.683919e+00 -1.674397e+00 -1.611208e+00 1.031786e+01 1.190641e+01 1.098883e+01 4.251353e+00 7.710809e-02 -7.763119e-02 -2.869228e-01 3.192876e-01 9.178665e-02 -2.760086e-01 1.870826e+00 9.895695e-01 -1.402493e+00 1.250952e-01 -7.818631e-01 2.413652e-01 5.231088e-01 8.229554e-04 
-1.127916e+01 -5.618562e-01 6.035579e-01 4.419274e+00 5.963208e+00 1.695888e+00 1.617012e+00 2.878959e+00 1.508403e+01 1.045844e+01 1.268741e+01 8.182889e+00 7.338351e-02 6.863506e-01 -1.593253e+00 -4.308935e-01 -1.036450e+00 2.923537e-01 3.115032e+00 -3.526180e-01 -1.565481e+00 -2.228483e-01 -4.229908e-02 -7.918601e-02 1.057385e+00 3.000713e-02 
-1.000286e+01 1.413084e+00 -3.977493e-01 -7.026218e-01 2.004563e+00 -6.767498e-02 4.176906e+00 -3.882115e-01 1.055552e+01 6.173139e+00 9.072599e+00 5.847099e+00 7.382286e-02 9.181165e-01 -2.541472e+00 -1.685379e+00 -2.785141e+00 -3.625193e-01 2.432564e+00 -1.631033e+00 -2.116740e+00 -2.408433e+00 -2.984847e-01 -5.333326e-01 1.245091e+00 6.687248e-02 
-7.856020e+00 -6.752287e+00 -3.884814e+00 -3.351176e+00 5.285563e+00 7.673543e+00 -2.131721e+00 -2.526672e+00 8.091503e+00 1.172687e+01 1.099674e+01 8.774781e+00 2.162468e-01 8.193108e-01 -4.479875e-01 -1.095552e+00 -1.731743e+00 6.169128e-03 1.264897e+00 -1.449285e+00 -2.191185e+00 -2.651337e+00 -6.399574e-01 -8.907048e-02 2.391922e-01 3.546613e-02 
-8.352736e+00 -9.317144e+00 -6.529909e+00 -7.073515e+00 1.761772e+00 4.490075e+00 -7.955195e+00 -9.492094e+00 1.771952e+00 9.779776e+00 9.167504e+00 1.018086e+01 3.400388e-01 2.002677e-01 5.117390e-01 -5.639999e-01 -1.466763e+00 -2.187325e-01 8.897043e-01 -9.341308e-01 -1.020365e+00 -1.424059e+00 -8.630290e-01 -5.387389e-01 6.379759e-02 2.247035e-02 
-8.007668e+00 2.563321e+00 -1.808121e+00 -1.053995e+00 6.115449e+00 5.741496e+00 4.366376e-01 -3.525025e+00 6.219127e+00 5.455329e+00 1.219460e+01 7.211968e+00 1.176062e-01 1.640433e+00 1.226839e+00 -1.080027e+00 -3.456792e-01 -1.328260e+00 -1.402116e+00 1.545971e+00 -5.526830e-01 -1.512377e+00 -1.920548e+00 5.103704e-01 -1.959673e+00 7.864987e-03 
-8.925695e+00 -6.860254e-01 -4.256095e+00 -9.185028e+00 4.959579e-01 5.346870e+00 -1.777927e+00 -4.990862e+00 4.371412e+00 4.993762e+00 5.779974e+00 6.947494e+00 2.354949e-01 2.306408e+00 1.528686e+00 -5.445738e-01 1.196828e+00 -2.736029e-01 -4.845239e-01 2.012868e+00 -5.049773e-01 -1.828817e+00 -1.201564e+00 1.346767e+00 -2.079807e+00 -1.365680e-02 
6.326237e-01 -4.933650e+00 -1.042185e+01 -4.023815e+00 -7.228298e-01 2.345656e-01 2.509502e+00 -7.540703e+00 -7.701120e-01 4.517133e+00 1.524236e+01 5.931008e-01 3.078437e-01 9.822490e-01 -4.436817e-01 -6.279130e-02 1.904148e+00 -6.955374e-01 -1.763679e+00 1.415425e+00 1.158482e-01 -3.021783e+00 -9.520079e-01 2.970142e-02 -2.069892e+00 -1.248664e-03 
-1.140839e+00 2.074773e+00 -4.945911e+00 3.955353e-01 3.812897e+00 4.820920e+00 1.072711e+00 -1.000914e+01 -3.877512e+00 4.241053e+00 1.437746e+01 3.091260e+00 1.766361e-01 -3.436940e-01 5.152906e-01 1.490667e+00 4.360792e+00 4.419756e-01 -1.756034e+00 1.934544e+00 1.918169e+00 -2.341499e+00 -9.608645e-01 3.794430e-01 -2.780526e-01 -2.814347e-02 
-6.988850e+00 -1.035487e+00 -1.777169e+00 3.676464e+00 9.792929e-01 -2.813926e+00 6.088441e+00 -4.366441e-01 -4.765328e+00 1.071643e+00 8.044369e+00 -1.209375e+00 1.407923e-01 -1.988130e+00 3.399965e-01 2.008317e+00 4.246166e+00 8.091224e-01 -1.803712e+00 2.763193e+00 3.061018e+00 -1.537686e+00 -1.072659e+00 -1.402503e+00 9.450068e-01 -1.819801e-02 
-6.833428e+00 -5.865371e-02 -1.125103e+00 8.768791e+00 1.854774e+00 -1.909053e+00 6.105325e+00 1.047952e+00 -5.338476e+00 1.912184e+00 1.127619e+01 6.458468e+00 1.783033e-01 -6.170763e-01 -5.449007e-01 9.534006e-01 1.531824e+00 -1.246815e+00 -2.586117e+00 1.672360e+00 1.498867e+00 -7.598953e-01 -4.265382e-01 1.052692e-01 2.342676e-01 6.526417e-03 
-6.461731e+00 -2.166954e+00 -2.290675e+00 1.302039e+01 4.301844e+00 -5.419009e+00 1.380916e+01 2.235838e+00 -7.728061e+00 3.182731e-01 9.780484e+00 3.634531e+00 2.160200e-01 5.546767e-01 3.543429e-01 1.187518e+00 -6.991477e-02 -1.757465e+00 -9.988620e-01 6.543804e-01 -6.555296e-01 4.399966e-01 -1.083561e-01 -7.694843e-01 1.659455e-02 6.889522e-03 
-4.489780e+00 -8.399725e-02 7.784462e-02 3.382695e+00 -4.082455e+00 -6.807123e+00 5.574151e+00 -3.851048e+00 -6.195622e+00 2.485048e+00 1.403575e+01 1.840645e+00 1.716543e-01 1.039342e+00 1.572298e+00 1.025537e+00 -1.764475e+00 -1.780384e+00 9.135316e-02 3.454251e-02 -1.779107e+00 -5.337802e-01 -9.028816e-01 -1.683511e+00 -1.281891e+00 -8.241450e-03 
-5.387290e+00 7.488991e-01 3.558949e+00 6.019938e+00 -4.839416e+00 -5.359200e+00 9.625931e+00 -1.264792e+00 -2.136772e+00 2.434311e-01 2.817165e+00 1.182509e+00 1.785644e-01 1.306566e+00 2.481925e+00 1.235388e+00 -8.104051e-01 -7.393996e-02 1.407171e+00 -1.308362e+00 -1.623939e+00 -6.103447e-01 -1.547605e+00 -2.682337e+00 -1.974039e+00 -9.040177e-03 
-2.173936e+00 6.344911e+00 1.077770e+00 3.446642e+00 -2.476518e+00 -1.482191e+00 8.369652e+00 -6.097270e+00 -1.080302e+01 -2.564803e+00 6.340287e+00 1.275027e+00 1.558239e-01 2.380751e+00 3.190506e+00 1.189979e+00 7.619550e-01 1.412729e+00 4.728522e-01 -1.986259e+00 -1.714910e+00 -1.338659e+00 -1.369988e+00 -3.146531e+00 -2.882421e+00 5.716662e-02 
-1.086822e+00 7.028214e+00 3.386302e+00 8.936390e+00 3.129176e+00 -1.045621e+00 5.869597e+00 -4.760743e+00 -8.476085e+00 -4.894825e+00 2.165289e-01 -5.952855e+00 1.787344e-01 4.030249e+00 2.428928e+00 -3.077698e-01 -9.979448e-02 1.367505e+00 -1.133582e+00 -4.008268e+00 -3.019387e+00 -2.198987e+00 5.297850e-01 -7.952974e-01 -3.348811e+00 1.222846e-01 
5.263739e+00 1.272888e+01 6.114063e+00 5.734245e+00 -1.003105e+00 -6.599651e+00 -2.478976e+00 -1.067762e+01 -9.719260e+00 -1.795767e+00 -3.965883e-01 -9.003777e+00 4.574024e-01 3.941116e+00 8.383974e-01 -6.068252e-01 -5.530421e-01 -5.523762e-01 -1.209029e+00 -2.790055e+00 -2.015874e+00 -1.552975e+00 1.266670e+00 -6.996802e-01 -2.688708e+00 1.400206e-01 
1.104512e+01 9.701554e+00 -4.980469e-01 4.377164e+00 1.261401e+00 -8.468379e+00 -4.991097e+00 -1.407155e+01 -1.367359e+01 2.507838e+00 2.209116e+00 -1.042214e+01 6.391982e-01 3.126835e+00 7.265180e-01 -9.472618e-01 -1.757657e+00 -2.196794e+00 -1.085449e+00 8.148529e-02 -6.087446e-01 -8.322861e-01 8.074409e-01 -3.204717e-02 -5.445375e-02 1.044805e-01 
1.146568e+01 9.200228e+00 -1.418149e-02 2.961044e+00 -4.304512e+00 -3.815956e+00 -1.502752e-01 -1.152124e+01 -1.596915e+01 6.721687e-02 1.845592e+00 -9.933869e+00 6.256949e-01 1.306705e+00 3.555133e-01 -1.101939e+00 -1.504023e+00 -1.482068e+00 -5.255219e-01 1.743433e+00 1.870730e+00 8.822457e-01 -2.452196e-01 -6.237826e-01 7.190903e-01 3.193209e-02 
1.144639e+01 1.242513e+01 1.714115e+00 1.534704e+00 -6.204089e+00 -7.864711e+00 5.112674e+00 -7.382659e+00 -9.512572e+00 -1.789113e+00 -1.064797e+00 -5.760077e+00 6.169907e-01 -4.480934e-02 1.110115e+00 4.817207e-01 -1.355159e+00 -2.240327e+00 -5.487000e-01 6.622318e-01 2.302331e+00 2.032695e+00 3.802486e-01 -1.258434e+00 3.653153e-01 -1.123148e-03 
1.159663e+01 1.314466e+01 -5.017128e-01 -3.646398e-01 -4.680699e+00 -9.529095e+00 1.186305e+00 -4.668419e+00 -7.388541e+00 -8.733897e-01 -1.878545e+00 -7.739359e+00 6.281666e-01 -1.817666e-01 5.909926e-01 8.866933e-01 -6.763198e-01 -1.809352e+00 -9.358050e-01 -4.613568e-01 1.853609e+00 2.263507e+00 1.536438e+00 -7.850648e-01 -2.735177e-01 4.223364e-03 
1.075559e+01 1.327991e+01 2.154322e+00 -7.357876e-01 -9.752142e+00 -8.355309e+00 -2.348228e+00 -5.986301e+00 -7.800418e+00 4.879384e+00 -2.220985e+00 -9.692823e+00 6.323466e-01 -1.390926e-01 -7.130811e-01 7.067540e-01 -4.436363e-01 -1.775668e+00 4.565951e-01 -4.256962e-01 2.273070e+00 2.510321e-01 1.181238e+00 1.553701e-01 -1.329039e+00 1.079721e-02 
1.090224e+01 1.172780e+01 4.199182e+00 7.146910e-01 -1.157724e+01 -8.249681e+00 1.273392e+00 -2.951371e+00 -5.507688e+00 4.415157e+00 -1.501637e+00 -9.335085e+00 6.391338e-01 2.340667e-02 -1.415334e+00 8.220296e-01 -5.740629e-01 -1.936663e+00 1.187274e+00 5.862327e-02 2.478683e+00 1.664949e-01 -4.971340e-02 -3.638111e-01 -9.489251e-01 1.743268e-02 
1.109812e+01 9.568152e+00 2.897438e+00 -1.223142e+00 -1.163416e+01 -6.221442e+00 2.940650e+00 3.124168e+00 -9.197839e+00 1.472805e+00 -4.764004e-01 -1.160741e+01 6.654932e-01 2.115228e-01 -1.783529e+00 -3.237535e-01 -7.769337e-01 -4.342812e-01 1.513455e+00 2.912720e-01 2.812819e+00 4.059408e-01 -1.355606e+00 -8.559581e-01 -7.429992e-01 2.800345e-02 
1.154240e+01 7.923869e+00 3.236877e+00 -2.991277e+00 -1.342301e+01 -4.659657e+00 -1.165018e+00 3.169759e+00 -5.857356e+00 5.813332e-01 -4.569893e+00 -1.152669e+01 6.987567e-01 2.116652e-01 -2.021834e+00 -9.100560e-01 -1.249996e+00 8.838806e-02 1.698431e+00 -3.827933e-01 2.630660e+00 3.426575e-01 -1.540787e+00 -1.790709e+00 -9.478369e-01 3.602296e-02 
1.149313e+01 6.264232e+00 1.016707e+00 -2.767472e+00 -1.100067e+01 -2.583049e+00 3.273363e-01 5.017227e+00 -5.595880e+00 1.826811e-02 -4.966648e+00 -1.231202e+01 7.425525e-01 2.580105e-01 -1.943159e+00 -1.053553e+00 -1.331097e+00 3.593329e-01 1.900134e+00 -5.443926e-02 2.272662e+00 5.789175e-01 -9.943588e-01 -2.378385e+00 -9.798746e-01 3.929185e-02 
1.176306e+01 3.270587e+00 5.892668e-01 -4.763122e+00 -1.145205e+01 -1.576724e+00 6.660819e-01 9.255400e+00 -5.595380e+00 -2.561511e+00 -8.210058e+00 -1.372197e+01 7.807190e-01 1.678428e-01 -1.990481e+00 -1.311002e+00 -1.736436e+00 1.115616e+00 2.654451e+00 1.220228e+00 2.468833e+00 -5.668766e-01 -1.412733e+00 -1.956601e+00 2.090250e-01 3.670157e-02 
1.227784e+01 2.178999e+00 -1.046524e+00 -6.992706e+00 -1.082297e+01 1.737762e+00 1.752903e+00 1.144466e+01 -6.434239e+00 -1.927567e+00 -1.054824e+01 -1.540915e+01 8.209713e-01 9.159541e-02 -2.331946e+00 -1.205261e+00 -2.398261e+00 8.562961e-01 3.895828e+00 1.075343e+00 1.214396e+00 -1.531594e+00 -3.094688e+00 -1.882371e+00 1.915787e+00 3.740169e-02 
1.198926e+01 1.408076e-02 -2.286517e+00 -9.560841e+00 -7.933774e+00 6.452190e+00 4.223341e+00 1.230021e+01 -8.272559e+00 -5.509413e+00 -1.156210e+01 -8.933001e+00 8.430551e-01 9.136710e-02 -2.052573e+00 -1.157742e+00 -1.943123e+00 1.787366e+00 4.990548e+00 9.106756e-01 -3.783093e-02 -1.824399e+00 -3.207386e+00 -5.909920e-01 3.588142e+00 3.862781e-02 
1.183801e+01 -3.767245e+00 -3.571704e+00 -1.235992e+01 -8.478323e+00 1.288163e+01 3.925422e+00 9.566802e+00 -1.191526e+01 -1.398122e+01 -1.270248e+01 -5.127566e+00 8.983929e-01 -2.229209e-02 -1.932981e+00 -7.056571e-01 -7.887143e-01 1.445386e+00 5.019441e+00 1.826335e-01 -9.098333e-01 -1.411869e+00 -2.667730e+00 1.148109e-01 4.575385e+00 3.401306e-02 
1.243981e+01 -4.019157e+00 -3.936852e+00 -1.179513e+01 -3.687543e+00 1.780408e+01 4.133201e+00 1.000517e+01 -1.197686e+01 -1.257162e+01 -1.008790e+01 -9.220488e-01 9.351473e-01 -2.628758e-01 -1.664597e+00 -3.079028e-01 -2.299648e-01 5.831558e-01 4.132605e+00 -1.622548e+00 -1.381073e+00 -1.562605e+00 -5.481714e-01 -1.820114e-01 2.964417e+00 2.787640e-02 
1.194110e+01 -5.469289e+00 -3.749642e+00 -9.819132e+00 -5.719158e+00 2.115902e+01 2.711141e+00 8.043009e+00 -1.164143e+01 -1.173512e+01 -1.071129e+01 3.462303e+00 9.449905e-01 -4.540660e-01 -1.459009e+00 2.344448e-01 -1.099030e-01 3.036509e-01 2.778089e+00 -2.558921e+00 -1.336080e+00 -6.706305e-01 1.450428e+00 -5.972196e-01 1.494950e+00 1.517378e-02 
1.062333e+01 -7.457883e+00 -3.737062e+00 -1.198106e+01 -6.397579e+00 2.297652e+01 -3.282256e+00 6.156743e+00 -1.622250e+01 -9.373323e+00 -1.346776e+01 1.594147e+00 9.591383e-01 -5.704935e-01 -1.612362e+00 4.230912e-02 -2.175619e-01 9.543352e-02 9.883884e-01 -2.098709e+00 -2.094842e+00 -1.977228e-01 1.388543e+00 -4.855781e-01 -9.687529e-02 9.573013e-03 
1.047592e+01 -9.342927e+00 -2.499375e+00 -1.281647e+01 -5.605052e+00 2.418586e+01 -5.161455e+00 4.810616e+00 -1.314559e+01 -8.328230e+00 -1.399865e+01 1.089083e+00 9.622663e-01 -2.327811e-01 -1.383800e+00 -1.002278e-01 -9.114351e-02 1.590067e+00 -1.599827e-01 -6.033433e-01 -2.071202e+00 8.970894e-01 1.841500e+00 2.293272e-01 -5.426759e-01 8.193761e-03 
1.031994e+01 -1.014415e+01 -4.350440e+00 -1.138427e+01 -3.267429e+00 2.123260e+01 -2.424046e+00 1.147158e+00 -1.221340e+01 -7.332344e+00 -1.087211e+01 -2.198155e-01 9.743745e-01 -5.386484e-02 -8.870962e-01 -1.714942e-01 1.554923e-01 1.656399e+00 -5.250397e-01 7.831398e-01 -2.085988e+00 1.464477e+00 1.890004e+00 6.193959e-01 -4.702430e-02 5.999786e-03 
1.092889e+01 -1.104516e+01 -3.944092e+00 -1.057324e+01 6.661034e-01 2.123106e+01 -7.346807e-01 1.917934e-01 -9.160533e+00 -3.548103e+00 -1.086248e+01 1.655905e+00 9.783412e-01 -1.010175e-01 -7.035410e-01 -5.110083e-01 3.737650e-02 1.508301e+00 -6.508225e-01 5.654163e-01 -2.504320e+00 1.135849e+00 2.050568e+00 -1.456163e-01 -1.706460e-01 7.155699e-03 
1.012752e+01 -1.104225e+01 -3.872174e+00 -1.232521e+01 -1.251159e+00 2.182872e+01 -1.579945e+00 -1.963782e+00 -1.089264e+01 -2.313366e+00 -1.193886e+01 1.075615e+00 9.810997e-01 -7.491679e-02 -5.800827e-01 -2.034220e-01 -1.357755e-01 1.055442e+00 -3.020183e-01 -2.638682e-01 -1.882363e+00 7.361444e-01 2.017626e+00 -7.173361e-01 -2.646113e-01 6.146592e-03 
1.006704e+01 -1.241158e+01 -5.293550e+00 -1.215912e+01 9.283209e-01 2.063369e+01 -2.756424e+00 -6.155514e+00 -8.126725e+00 -5.848780e-01 -1.419335e+01 -4.118614e-01 9.946821e-01 -7.257202e-02 -7.487724e-01 -2.441352e-01 4.778489e-01 3.573414e-01 -5.560533e-01 -6.687338e-01 -9.304510e-01 6.438259e-01 9.763902e-01 -4.642946e-01 -8.592232e-01 4.289466e-03 
1.037628e+01 -1.236135e+01 -4.692822e+00 -1.127021e+01 1.878674e+00 2.002120e+01 -2.732515e+00 -5.091004e+00 -9.049579e+00 1.274174e+00 -1.279335e+01 -5.089886e-01 9.969370e-01 -2.130410e-01 -1.124838e+00 -1.153643e-01 6.776716e-01 6.698296e-01 -1.097476e+00 -1.002082e+00 -4.426395e-01 1.359539e+00 7.863210e-01 -1.341147e+00 -6.542068e-01 2.171487e-03 
1.044165e+01 -1.412947e+01 -4.754444e+00 -8.711494e+00 8.878942e-01 1.935456e+01 -3.502064e+00 -2.896851e+00 -6.862935e+00 -4.599223e-01 -1.275671e+01 -1.847910e+00 9.918699e-01 -4.568709e-01 -9.558257e-01 2.971717e-01 1.020411e+00 1.308176e+00 -2.014031e+00 -6.599224e-01 6.261233e-01 2.353027e+00 6.013111e-01 -1.666693e+00 -9.914418e-02 7.062018e-04 
8.875008e+00 -1.580750e+01 -4.718548e+00 -1.066066e+01 2.118203e+00 1.698091e+01 -6.217533e+00 -5.806312e+00 -4.726843e+00 1.555761e+00 -1.936292e+01 -1.477395e+00 9.933633e-01 -6.773578e-01 -1.005708e+00 5.327030e-01 1.158546e+00 1.595812e+00 -2.654176e+00 -4.905019e-01 8.286797e-01 2.865126e+00 6.111368e-01 -2.234870e+00 4.595466e-02 -1.320839e-04 
8.533321e+00 -1.546764e+01 -3.794827e+00 -7.361840e+00 7.349434e+00 1.208368e+01 -4.313528e+00 -2.667243e+00 1.477042e+00 2.280884e+00 -1.924203e+01 -4.233792e-01 1.000000e+00 -7.889313e-01 -7.089579e-01 8.327376e-01 1.104631e+00 1.448051e+00 -3.763322e+00 3.718756e-01 7.610635e-01 2.321790e+00 -5.943491e-02 -1.785148e+00 2.596732e-01 -3.313917e-03 
7.943657e+00 -1.672080e+01 -2.509115e+00 -6.152311e+00 6.626962e+00 1.038576e+01 -4.779293e+00 -1.062410e+00 1.106065e+00 2.959455e+00 -2.072504e+01 -9.914806e-01 9.922115e-01 -6.059896e-01 -2.342525e-01 9.187655e-01 2.137241e+00 1.675703e-01 -3.675687e+00 1.231484e+00 1.998896e+00 1.513747e+00 -7.442722e-01 -6.734947e-01 4.092166e-01 -6.731904e-03 
6.962671e+00 -1.721760e+01 -1.695473e+00 -5.442517e+00 5.873767e+00 3.835518e+00 -2.361806e+00 -1.463484e+00 1.829560e+00 -1.458944e+00 -2.100139e+01 -7.925007e-01 9.758762e-01 -6.469103e-01 6.603833e-02 1.004223e+00 1.539568e+00 -1.029537e+00 -3.001016e+00 1.295764e+00 2.157937e+00 2.490609e-01 -1.661241e+00 -2.796574e-01 2.431266e-01 -1.487549e-02 
6.630385e+00 -1.610378e+01 -1.174397e+00 -9.341204e-01 3.693888e+00 2.726556e+00 -1.035975e+00 3.586290e+00 2.665632e+00 -2.956858e-01 -2.185072e+01 7.532487e-01 9.717656e-01 -7.407225e-01 9.913170e-01 1.009302e+00 1.279217e+00 -1.468906e+00 -2.615210e+00 1.718279e+00 2.631460e+00 4.104443e-02 -2.240795e+00 3.540081e-01 6.193433e-01 -2.078835e-02 
5.955405e+00 -1.544596e+01 5.589298e-01 -2.273096e+00 3.668284e+00 9.081991e-01 2.936308e-01 5.798090e+00 1.942563e+00 -4.397749e+00 -2.007748e+01 -8.011079e-02 9.358455e-01 -6.709476e-01 1.652536e+00 8.757282e-01 8.814188e-01 -2.026881e+00 -2.063462e+00 2.328748e+00 1.752033e+00 2.886459e-01 -3.090129e+00 7.394783e-01 7.092768e-01 -2.570558e-02 
4.743678e+00 -1.265004e+01 1.410196e+00 -1.340935e+00 3.851757e-01 -1.226629e+00 2.484384e+00 8.464103e+00 1.254786e+00 -6.775117e+00 -1.941695e+01 1.749041e+00 9.082851e-01 -5.576651e-01 1.747692e+00 1.224606e+00 -4.434761e-01 -2.093172e+00 -1.206997e+00 1.302058e+00 2.856504e-01 4.076034e-01 -3.425643e+00 1.521817e+00 -3.827545e-01 -3.358747e-02 
4.551287e+00 -1.068179e+01 1.390872e+00 -8.320156e-01 -2.606281e+00 -4.505201e+00 7.521755e+00 4.857772e+00 3.978213e+00 -1.366988e+01 -1.852088e+01 2.255987e+00 8.790886e-01 -2.489816e-01 2.034504e+00 9.915316e-01 -5.698940e-01 -2.180633e+00 6.014512e-01 -4.021034e-01 7.741714e-02 -1.730497e-01 -1.918990e+00 2.203202e+00 -1.391117e+00 -4.021361e-02 
4.544119e+00 -9.747398e+00 4.532663e+00 -3.872041e+00 -3.634690e+00 -6.017296e-01 1.860252e+00 5.484701e+00 3.685824e+00 -1.278784e+01 -1.501993e+01 -2.328573e+00 8.322067e-01 5.520859e-01 2.277150e+00 1.369557e+00 -1.452121e-01 -9.970411e-01 1.537537e+00 -1.764674e+00 -4.175925e-01 -2.572145e+00 -7.034226e-02 3.572437e+00 -1.844641e+00 -5.148808e-02 
4.810277e+00 -6.724761e+00 3.955354e+00 -3.857013e+00 -5.224949e+00 3.603005e+00 -1.404820e+00 7.674876e+00 -1.382046e-01 -1.098634e+01 -1.125998e+01 -4.996887e+00 7.728167e-01 1.271334e+00 2.729962e+00 1.467211e+00 1.177861e+00 -1.025002e+00 2.980611e-01 -6.691068e-01 -1.207032e+00 -5.502923e+00 1.481334e+00 4.032549e+00 -5.250214e-01 -4.717580e-02 
7.374612e+00 -3.242804e+00 6.975740e+00 -5.544972e-01 -3.290696e+00 2.406955e+00 -1.875699e+00 4.967588e+00 -9.547732e+00 -8.468596e+00 -5.185215e+00 -3.847729e+00 7.039807e-01 1.435777e+00 2.606922e+00 1.115764e+00 3.100667e+00 -1.212567e+00 -1.988209e+00 1.508354e+00 -2.030560e+00 -5.845513e+00 1.092023e+00 2.964805e+00 1.120408e+00 -3.136678e-02 
9.492709e+00 -2.842737e-01 7.505386e+00 3.398517e+00 -7.903286e+00 -4.519238e+00 6.044196e+00 -9.188323e-01 -1.691963e+01 -8.422824e+00 -3.275493e+00 3.904586e-01 7.073226e-01 9.316696e-01 1.580147e+00 1.129840e+00 3.304223e+00 -7.984807e-01 -3.553293e+00 1.212025e+00 -2.972723e+00 -4.086691e+00 -5.294800e-04 1.267606e+00 1.258546e+00 -1.092179e-02 
9.381789e+00 6.696987e-02 8.336467e+00 8.003531e+00 -8.358358e+00 -6.481655e+00 5.677513e+00 -3.712437e-01 -1.715103e+01 -8.609480e+00 -4.188148e+00 5.797927e-01 7.081199e-01 2.013510e-01 6.714002e-01 7.064549e-01 1.723187e+00 -1.106814e+00 -3.380618e+00 -2.511668e-01 -2.539670e+00 -1.668202e+00 -4.376359e-01 -4.051820e-01 -7.196113e-01 7.382929e-03 
8.465036e+00 -4.789149e-01 8.924192e+00 8.385086e+00 -6.683522e+00 -9.719153e+00 8.787017e-01 -4.519322e+00 -1.677001e+01 -1.091855e+01 -5.420485e+00 -9.179180e-01 7.161381e-01 -1.281083e-01 4.002657e-01 1.990710e-01 5.075836e-03 -9.191182e-01 -2.183218e+00 -2.972078e+00 -1.457663e+00 9.673462e-01 -5.540059e-01 -9.250180e-01 -2.729963e+00 1.288323e-02 
8.895204e+00 2.115176e-01 9.798612e+00 5.568153e+00 -9.434649e+00 -1.189618e+01 -5.487854e-01 -5.930513e+00 -1.796355e+01 -9.408914e+00 -6.138629e+00 -6.791597e+00 7.364876e-01 2.465317e-01 6.766142e-01 -1.865587e-02 -1.130508e+00 -8.283882e-01 -6.331812e-01 -1.870098e+00 -1.164667e+00 1.495791e+00 7.589569e-02 -1.168896e-01 -2.839498e+00 1.853428e-02 
9.095461e+00 1.644781e+00 7.769669e+00 4.641584e+00 -1.196073e+01 -1.272807e+01 -5.703043e+00 -5.427513e+00 -1.167664e+01 -1.079314e+01 -6.925343e+00 -9.573658e+00 7.575549e-01 8.106456e-01 3.626225e-01 -1.451246e-01 -6.153578e-01 -6.206231e-01 8.028234e-01 -1.545068e-01 3.007863e-01 8.973835e-01 5.554136e-01 -2.033093e-01 -8.626209e-01 2.202117e-02 
1.029924e+01 2.388193e+00 8.820450e+00 4.222741e+00 -9.861694e+00 -8.143105e+00 -3.821065e-01 -5.740480e+00 -1.221876e+01 -8.292706e+00 -4.020167e+00 -9.289824e+00 7.800829e-01 1.042549e+00 1.572111e-01 -9.542686e-01 2.135148e-01 4.248322e-01 1.212117e+00 -8.254190e-02 4.020924e-01 1.559601e+00 -1.056518e-01 -1.808638e-01 4.028299e-01 2.007954e-02 
1.181625e+01 2.458599e-01 8.687651e+00 5.981003e+00 -9.573114e+00 -7.581573e+00 2.282834e-02 -3.110407e+00 -1.515549e+01 -8.699582e+00 -7.496262e+00 -3.981909e+00 8.044463e-01 6.853663e-01 8.442394e-02 -1.530367e+00 -5.612020e-01 8.210174e-01 -1.051107e-01 -1.091359e+00 1.306935e-01 -1.929829e-01 -1.122386e+00 -6.838994e-01 6.196394e-02 1.260900e-02 
1.274755e+01 1.697033e+00 4.568277e+00 5.966018e+00 -8.504297e+00 -8.408840e+00 -3.824430e+00 -5.078605e+00 -8.426122e+00 -1.098395e+01 -6.757488e+00 -7.573322e+00 8.134395e-01 -2.394662e-01 8.635692e-02 -1.869386e+00 -9.276856e-01 2.116489e-01 -1.111909e+00 -2.409097e+00 -1.269998e+00 -1.183476e+00 -2.438031e+00 -7.308224e-01 -6.660017e-01 -3.717959e-03 
1.129813e+01 2.412481e+00 2.243917e+00 9.639361e-01 -8.534344e+00 -1.312075e+01 -9.438676e+00 -5.104983e+00 -1.453787e+01 -1.505944e+01 -8.976179e+00 -1.012209e+01 8.039216e-01 -1.280096e+00 3.925188e-01 -7.860847e-01 1.166706e-01 9.381037e-01 -3.185016e-01 -1.384920e+00 -2.376094e+00 -1.364988e+00 -1.783695e+00 1.250456e-01 -7.000579e-01 -2.810520e-02 
9.360963e+00 1.736667e+00 2.695385e+00 2.092847e+00 -9.322836e+00 -1.093306e+01 -7.696841e+00 -1.109318e+01 -1.844495e+01 -1.730293e+01 -6.934320e+00 -9.549743e+00 7.617555e-01 -1.962947e+00 -2.151149e-01 1.042815e-01 1.122998e+00 1.974790e+00 6.519822e-01 -1.630474e+00 -2.129709e+00 -7.194244e-01 -1.639932e+00 3.826763e-01 1.056380e+00 -5.703604e-02 
7.109062e+00 2.188637e+00 5.693673e+00 8.500942e+00 -4.473327e+00 -7.911972e+00 -4.965566e+00 -1.198359e+01 -1.697101e+01 -1.445857e+01 -6.782618e+00 -6.493988e+00 6.897624e-01 -2.033873e+00 -8.460409e-01 2.386394e-01 1.714924e+00 2.571241e+00 1.386889e+00 -3.188486e-01 -4.608386e-01 2.084784e+00 -1.440116e+00 1.706282e+00 2.882118e+00 -8.882134e-02 
5.027356e+00 7.333806e-01 3.364807e+00 7.812505e+00 -6.608548e-01 -7.753319e+00 -1.421336e+01 -1.228785e+01 -1.080667e+01 -1.948405e+01 -5.940887e+00 -4.105473e+00 5.853390e-01 -2.251909e+00 -1.367485e+00 -8.864390e-01 8.317919e-01 3.036168e+00 1.637246e+00 2.062475e-01 1.597603e+00 4.244524e+00 2.253250e-01 1.492461e+00 2.600500e+00 -1.249861e-01 
3.295573e+00 -1.316080e+00 3.102404e+00 6.678726e+00 -9.130955e-03 -7.776175e+00 -7.774661e+00 -6.811843e+00 -7.933091e+00 -2.116946e+01 -9.414873e-01 1.566364e+00 4.480231e-01 -2.210007e+00 -1.052032e+00 -2.278550e+00 -1.821517e-01 2.802269e+00 2.625606e+00 2.011469e+00 3.019725e+00 4.407168e+00 2.791188e+00 1.924863e+00 4.802910e-01 -1.391976e-01 
8.161545e-03 -3.348400e+00 -4.411752e-01 7.162915e+00 3.625907e+00 -2.814726e+00 -5.261056e+00 -5.691038e+00 -1.741287e+00 -1.282086e+01 -2.392578e+00 -5.774209e-01 2.576948e-01 -2.227540e+00 1.325390e-01 -2.000168e+00 -5.347916e-01 2.658499e+00 2.627560e+00 4.543216e+00 4.190544e+00 4.915175e+00 4.899828e+00 1.221068e+00 -1.294945e+00 -1.218500e-01 
-1.431374e+00 -1.030631e+00 -3.796086e+00 7.914978e+00 7.394635e+00 2.746760e+00 6.156313e-01 -1.833646e-01 5.321350e-01 -3.834222e+00 1.067542e+00 -5.856559e+00 1.575966e-01 -1.867321e+00 1.057770e+00 -1.378734e+00 -1.257152e+00 1.585621e+00 2.112348e+00 2.924622e+00 3.557189e+00 5.128389e+00 5.766420e+00 1.173732e+00 -3.658207e-01 -8.686626e-02 
-3.746871e+00 1.253351e+00 -3.186790e+00 4.520421e+00 8.929755e+00 1.230142e-01 4.307574e+00 5.350630e+00 9.536589e+00 -3.652526e+00 -8.400640e-01 -6.868733e+00 1.213024e-01 -1.603029e+00 1.748220e+00 -1.839283e-01 -2.244537e+00 -3.265017e-01 5.265260e-02 1.791767e+00 3.015005e+00 3.687566e+00 4.574475e+00 1.762821e+00 8.035975e-01 -4.444978e-02 
-4.163517e+00 1.671896e+00 -2.418457e+00 1.714213e+00 5.267048e+00 1.316697e+00 2.064134e+00 5.453268e+00 1.206991e+01 3.078473e+00 4.150918e+00 2.882917e+00 8.188802e-02 -1.278182e+00 1.230694e+00 7.106426e-01 -2.101852e+00 -1.208795e+00 -7.215329e-01 2.917656e-01 1.058614e+00 1.721962e+00 2.606123e+00 8.017519e-01 1.555349e+00 -2.201499e-02 
-6.640911e+00 4.041437e+00 -2.049631e+00 -9.593868e-01 3.057192e+00 -1.836432e+00 2.973529e+00 6.565670e+00 1.092765e+01 6.595171e+00 4.879841e+00 -9.291718e-01 7.330018e-02 -8.730895e-01 6.530246e-01 2.533627e-01 -1.129383e+00 -1.772790e+00 -8.172716e-01 -7.764485e-01 -9.852430e-01 -7.647854e-01 1.559008e+00 4.145082e-01 1.205479e+00 -3.984928e-03 
-6.375264e+00 3.728796e+00 -8.114516e-01 1.456208e-01 4.286940e+00 1.188182e-01 2.741482e+00 4.502186e+00 8.446412e+00 4.072544e+00 2.216349e+00 -1.049594e+00 7.152277e-02 -7.729970e-01 2.256461e-01 4.984504e-01 -3.680186e-01 -7.700756e-01 -7.297846e-01 -9.076127e-01 -1.251265e+00 -9.334448e-01 -5.196983e-01 -3.956853e-01 -3.307940e-01 -2.743363e-04 
-7.006445e+00 3.490024e+00 -2.723479e+00 -3.421991e-01 5.558577e-01 -3.364405e+00 8.665776e-02 8.999557e-01 7.524413e+00 3.645478e+00 2.199761e+00 1.124917e+00 1.065604e-01 -4.459715e-01 -3.282120e-01 -5.903051e-02 -5.186244e-02 -6.043215e-01 -7.934844e-03 -8.136864e-01 -4.842245e-01 -1.767523e-01 -1.766885e+00 4.683509e-01 1.948400e+00 -3.460026e-03 
-7.845734e+00 3.075834e+00 4.107186e-01 -4.344736e-01 2.667337e+00 -1.568240e+00 -1.030494e+00 2.029799e+00 9.104311e+00 1.954828e+00 3.512531e+00 2.019029e-01 6.388623e-02 -5.446144e-01 1.196877e-01 2.860688e-01 5.272014e-01 3.640418e-01 1.078929e-01 -2.145592e-01 4.871500e-01 5.657876e-01 -1.137430e+00 1.369816e+00 2.177773e+00 -5.228436e-03 
-8.135532e+00 2.726859e+00 -2.955869e+00 -9.286518e-01 8.453856e-01 -1.032577e+00 7.910852e-01 5.380741e+00 9.714941e+00 -1.180397e+00 6.573504e+00 8.187079e+00 5.981833e-02 -4.437446e-01 7.191965e-01 4.437396e-01 1.078725e+00 1.797006e+00 8.344127e-01 1.047055e-01 1.214059e+00 1.290098e+00 5.922354e-01 1.305567e+00 8.433193e-01 -3.292203e-03 
-8.533792e+00 4.708817e+00 7.350875e-01 3.074854e+00 5.962385e+00 -5.076315e-01 1.316473e+00 4.697543e+00 1.018009e+01 7.983336e-01 6.878555e+00 6.308189e+00 6.875163e-02 -2.520579e-01 9.907652e-01 5.461490e-01 1.147614e+00 1.095452e+00 8.485810e-01 2.742209e-01 1.230695e-01 7.965444e-01 2.140977e+00 1.378724e+00 1.970580e-01 4.543078e-03 
-8.881140e+00 6.269515e+00 -6.669652e-01 3.296764e+00 7.893362e+00 2.773544e-01 -5.632980e-01 5.636376e+00 1.343701e+01 7.184903e+00 7.044582e+00 2.288370e+00 8.766669e-02 -5.027788e-01 -1.261721e-01 3.811800e-01 7.691868e-01 8.873556e-01 6.201600e-01 4.549401e-01 1.290182e-01 1.037938e+00 3.649242e+00 1.512120e+00 -6.706260e-01 2.310193e-03 
-8.733221e+00 6.258332e+00 1.997012e+00 3.190890e+00 4.620610e+00 2.019700e+00 1.017802e+00 2.517329e+00 1.122600e+01 8.477062e+00 1.017061e+01 4.136548e+00 7.267743e-02 -3.637465e-01 -8.224007e-01 -9.871171e-01 -9.005575e-02 -4.645551e-01 -4.972049e-01 -5.596958e-01 -1.310490e+00 -4.750373e-01 1.643560e+00 1.572237e+00 3.377333e-01 1.159746e-03 
-1.054971e+01 1.321241e+00 -1.680931e+00 2.859264e+00 5.953051e+00 8.045573e-01 3.215121e+00 7.115939e+00 1.438168e+01 1.322645e+01 1.248808e+01 5.919770e+00 6.940639e-02 -1.279604e-01 -8.210268e-01 -8.588783e-01 -5.138286e-01 -5.309622e-01 -1.373127e+00 -9.425102e-01 -2.053324e+00 -1.159701e+00 -5.945722e-01 1.037511e+00 6.641360e-02 9.679735e-04 
-9.518238e+00 3.070951e+00 -3.693515e+00 2.843325e+00 4.609765e+00 -3.257257e+00 -3.371216e+00 -2.594687e+00 7.332567e+00 5.995358e+00 1.201799e+01 6.181156e+00 8.368051e-02 -1.150482e-01 -5.375088e-01 -4.069903e-01 -7.487091e-01 -8.276480e-01 -1.601254e+00 -1.267961e+00 -2.264846e+00 -7.073325e-01 -1.703283e+00 -1.271329e+00 -1.062971e+00 -9.653211e-04 
-9.128433e+00 3.758071e+00 -2.116093e+00 9.014030e-01 5.243974e+00 -3.949799e+00 -3.081340e+00 -2.074239e+00 9.585224e+00 5.452894e+00 1.130844e+01 1.598134e+00 8.700502e-02 2.822096e-01 5.461949e-01 9.367445e-01 -2.678988e-01 -9.947103e-01 -1.433446e+00 -4.316916e-01 -9.449577e-01 -6.142703e-01 -2.383516e+00 -3.386318e+00 -1.462637e+00 -9.291411e-04 
-1.001910e+01 2.352372e+00 1.796410e-01 4.262750e-01 8.369088e-01 -3.609393e+00 -2.173773e+00 -4.211811e+00 1.008756e+01 3.847426e+00 4.403784e+00 9.825091e-01 5.905151e-02 5.289574e-02 -1.034403e-01 1.238058e+00 -1.046698e-01 -4.213019e-01 5.114830e-02 1.715605e+00 1.716133e+00 9.251140e-01 -9.672799e-02 -2.106401e+00 -4.339591e-01 -9.566486e-04 
-8.888233e+00 4.411505e+00 1.066214e+00 2.728295e+00 2.865928e+00 -6.186606e+00 4.579411e-01 3.199713e+00 9.932829e+00 2.382839e+00 -6.364079e-01 1.205906e+00 7.707518e-02 4.067629e-01 2.675927e-01 1.044764e+00 5.249974e-01 7.257668e-01 9.482629e-01 4.834307e-01 1.224805e+00 9.451448e-01 8.483312e-01 -9.633263e-01 7.880673e-01 -6.340003e-03 
-9.373859e+00 2.227032e+00 9.056227e-01 1.406530e+00 3.692279e+00 -1.883112e+00 3.437170e+00 3.349004e+00 1.178433e+01 7.046746e+00 7.458412e+00 4.207474e+00 8.386219e-02 5.997639e-01 4.384892e-01 -1.914289e-02 4.933441e-01 7.812306e-01 5.412740e-01 9.640862e-01 9.586916e-01 1.945426e-01 1.294613e+00 1.322619e+00 2.863378e-01 -9.871960e-04 
-7.417240e+00 5.158705e+00 2.744736e+00 3.036262e+00 7.445123e+00 -7.162485e-02 -3.469657e+00 2.693779e-01 1.346256e+01 8.094890e+00 4.964499e+00 3.925988e+00 4.289967e-02 4.900303e-01 3.233220e-01 -4.558644e-01 -7.694139e-02 -3.496213e-02 1.008568e+00 -1.503359e-01 -9.664542e-01 -7.256771e-01 3.295251e-01 1.599049e+00 -5.397416e-01 1.416069e-03 
-7.755779e+00 4.171218e+00 -7.553347e-01 2.739012e+00 2.453464e+00 -3.960514e+00 4.610457e+00 2.046814e+00 9.295408e+00 7.464466e+00 8.216427e+00 1.054157e+00 7.120329e-02 2.903685e-01 2.642496e-01 -4.064754e-01 2.116464e-01 -4.212030e-01 -5.673914e-02 -1.052631e+00 -1.419886e+00 -1.520932e+00 -1.323413e+00 -5.101824e-01 -1.418637e+00 5.094320e-03 
-7.247121e+00 5.056022e+00 -3.826296e-01 1.677347e+00 3.310524e+00 -1.050676e-01 -8.803821e-01 -9.814639e-01 7.548907e+00 3.821604e+00 6.979831e+00 8.385611e-02 9.048498e-02 5.080544e-01 6.279020e-02 6.475749e-02 5.408012e-01 -7.224902e-01 -8.805769e-01 -1.575581e-01 -6.809934e-01 -2.416111e+00 -1.800715e+00 -1.380431e+00 -1.642801e+00 4.919702e-03 
-8.007076e+00 3.599621e+00 4.369286e-01 3.144219e+00 3.653563e+00 -2.150087e+00 -3.120625e+00 -3.125006e+00 7.136501e+00 2.566325e+00 3.899834e+00 -9.646451e-01 8.554113e-02 4.896057e-01 3.319511e-01 -1.088733e-01 9.352732e-02 1.732257e-01 1.318038e-01 -1.147436e+00 5.237247e-01 -9.662321e-01 -1.005231e+00 -1.690874e+00 2.524816e-01 -5.501449e-04 
-4.751319e+00 5.758454e+00 2.472392e+00 5.537664e+00 3.232623e+00 -5.379723e+00 -3.919067e-01 -5.496788e-01 2.461457e+00 1.540386e+00 2.206402e-01 -3.278615e+00 6.032926e-02 2.423665e-01 3.634436e-01 4.330930e-01 1.856408e-01 8.358544e-01 6.385494e-01 6.903237e-01 7.627386e-01 -2.034384e-01 -2.898157e-01 -3.710324e-01 1.105364e+00 -1.865113e-03 
-6.555651e+00 5.479758e+00 -2.727212e+00 1.276490e+00 3.358543e+00 -6.641672e-01 -1.370963e+00 4.449545e+00 7.007973e+00 3.578919e+00 3.141649e+00 3.997801e+00 8.353043e-02 4.824676e-02 4.841818e-01 6.748468e-01 -1.207855e-01 1.237217e+00 1.671405e+00 1.172237e+00 3.934553e-01 3.053479e-01 -1.074349e-01 8.490976e-01 1.459626e+00 1.508278e-03 
-6.761001e+00 5.933172e+00 3.364906e+00 3.539416e+00 7.637306e+00 2.344720e+00 1.696405e+00 -9.550462e-01 6.595980e+00 1.866229e+00 5.503761e+00 3.129452e+00 8.216476e-02 -4.224713e-01 8.028488e-02 7.877146e-01 -1.733571e-01 1.308813e+00 1.845777e+00 7.243991e-01 -6.215326e-01 7.857052e-01 -1.061004e-01 1.292835e+00 1.194779e+00 4.230535e-03 
