-8.215259e+00 1.992560e+00 -2.464858e-01 2.946177e+00 4.420768e+00 4.192203e+00 5.909083e+00 4.202572e+00 9.902214e+00 6.849687e+00 5.159729e+00 4.445254e+00 4.537600e-02 1.937588e-01 -8.428775e-02 -3.075755e-01 -6.818092e-01 1.332526e-02 7.468621e-01 4.624315e-01 9.007909e-01 -1.216689e-01 -2.003358e-01 2.518537e-02 -6.462407e-02 -4.996097e-03 
-7.280513e+00 1.510777e+00 -4.353129e+00 -2.319436e-01 1.093905e+00 4.415826e+00 7.871058e+00 5.268034e+00 7.586109e+00 3.935337e+00 3.183014e+00 2.047060e+00 3.215271e-02 2.224195e-01 4.844318e-02 -2.757926e-01 -4.328519e-01 1.021875e-01 8.236254e-01 4.688056e-01 1.425676e-01 1.177998e-01 -8.497357e-02 4.628711e-01 2.537296e-01 -7.136869e-03 
-7.713838e+00 1.812013e+00 2.689586e-01 1.126192e+00 6.150825e+00 7.814701e+00 7.240253e+00 8.173796e+00 1.045192e+01 7.305183e+00 6.274014e+00 5.321230e+00 2.700716e-02 -1.211878e-01 2.287658e-01 2.386057e-01 -3.494869e-01 -8.637819e-01 -5.460283e-01 -3.635855e-01 -5.640671e-02 -6.853390e-02 -1.131620e+00 -1.010531e+00 -3.737738e-01 -2.590138e-03 
-7.353871e+00 2.325049e+00 -1.883171e+00 1.691911e+00 4.066676e+00 6.499081e+00 7.587526e+00 2.929799e+00 1.021636e+01 6.197071e+00 6.916943e+00 5.275914e+00 1.887608e-02 -1.028734e-01 5.975219e-01 5.913153e-02 2.327031e-01 -1.744225e-01 -7.117162e-01 -2.663289e-01 6.995115e-01 5.961908e-01 -1.045932e+00 -1.148499e+00 -8.294318e-01 3.104031e-03 
-8.784518e+00 2.729252e+00 -2.884364e-01 2.368157e-01 -1.384527e+00 4.204340e-01 4.232921e+00 5.089656e+00 8.244419e+00 6.072128e-02 -1.759892e+00 9.619580e-01 3.906363e-02 4.133905e-01 8.592262e-01 -7.586673e-01 -3.860902e-01 -1.812031e-01 -4.842872e-01 4.312290e-01 7.952299e-01 6.675202e-01 -8.153408e-01 -1.869970e+00 -1.230607e+00 5.208439e-03 
-7.259540e+00 4.039766e+00 -3.778774e+00 1.376260e+00 3.989469e+00 4.554379e+00 8.043079e+00 1.030766e+01 1.167081e+01 2.327907e+00 1.457470e+00 7.953660e-02 4.164463e-02 5.338866e-01 5.583484e-01 9.409344e-02 -2.462358e-01 -9.786034e-03 2.761917e-01 -1.647190e-01 -2.126439e-01 -4.698408e-01 -1.010327e+00 -1.662964e+00 1.940637e-01 6.993347e-03 
-5.694051e+00 5.250785e+00 -2.576576e+00 -6.464341e-01 5.283413e+00 6.365615e+00 9.168622e+00 8.461014e+00 1.306230e+01 5.163062e+00 -3.460987e-01 1.766382e+00 4.166508e-02 4.620157e-01 2.183078e-01 4.103327e-01 1.058238e+00 1.139660e+00 6.634897e-01 -1.030467e+00 -2.158093e+00 -6.398457e-01 -6.846253e-01 -1.242085e-01 3.394810e-01 4.237479e-03 
-6.229672e+00 3.856025e+00 -2.686335e-01 9.023565e-01 6.837759e-01 4.907448e+00 4.296082e+00 1.809006e-01 5.458217e+00 -1.405736e+00 -2.104775e+00 5.844020e+00 5.254209e-02 -5.458008e-01 -1.969658e-01 2.164399e-01 9.723520e-02 9.198520e-02 -3.545141e-01 -1.900404e+00 -3.130701e+00 -2.078138e+00 -7.997742e-02 1.483913e+00 8.217541e-01 9.656847e-03 
-6.989373e+00 3.912662e+00 8.156776e-03 5.764958e+00 5.966619e+00 3.561348e+00 9.540830e-01 -6.374273e-01 8.151489e+00 -1.495584e+00 -5.998122e-01 -2.228784e-01 5.480230e-02 -9.586021e-01 -6.301160e-01 -9.211801e-01 1.543206e-01 -1.021483e-01 -4.836534e-01 -1.937969e+00 -1.040129e+00 -8.547220e-01 5.990695e-01 2.421735e+00 -8.258839e-02 6.161231e-03 
-9.340882e+00 3.723999e+00 -3.988941e+00 -1.343261e+00 4.107792e+00 4.183942e+00 2.648327e+00 -7.966228e-01 3.735528e+00 5.257342e+00 9.003891e+00 5.182938e+00 8.336025e-02 -2.862776e-01 -3.757127e-01 -8.740624e-01 -3.387040e-01 4.031563e-03 -6.154928e-01 1.955084e-01 9.701388e-01 3.896697e-01 1.632434e+00 8.514198e-01 -4.240340e-01 -3.981209e-03 
-8.931457e+00 2.166218e+00 -5.322324e+00 1.247978e+00 3.060663e+00 4.309102e+00 3.026562e-01 3.749132e+00 9.650030e+00 4.826870e+00 6.208244e+00 1.683982e+00 5.706215e-02 4.411482e-01 -6.943637e-01 -4.188615e-01 -3.320543e-01 -9.646107e-01 -4.022160e-01 1.357925e+00 1.091587e+00 -5.991417e-01 4.554459e-01 -8.641096e-01 7.370303e-02 -1.002160e-02 
-6.690019e+00 2.850683e+00 -1.973705e+00 1.467326e+00 2.156912e+00 1.456108e+00 5.599337e+00 2.838315e+00 6.657295e+00 3.595210e+00 -1.251705e+00 2.770420e+00 3.150612e-02 1.080540e+00 -1.094110e-01 3.291827e-01 1.320662e+00 -1.250831e-01 -6.474965e-01 7.720991e-01 5.140504e-01 -8.612213e-01 -1.451901e+00 -1.681834e+00 -1.145461e-01 -9.693104e-03 
-6.109064e+00 8.775014e-01 -3.093769e+00 2.699394e+00 2.119006e+00 2.914186e+00 6.268204e+00 3.003041e+00 3.694897e+00 1.612712e+00 2.074376e-01 1.351896e+00 3.062135e-02 9.168702e-01 4.485810e-01 5.094802e-02 3.786813e-01 2.722677e-01 -4.354940e-02 4.329869e-01 -4.795046e-01 -8.129780e-01 -1.295687e+00 -1.294868e+00 1.820226e-01 1.969892e-03 
-5.349379e+00 3.821302e+00 -3.457305e+00 4.534341e+00 3.953205e+00 1.643918e+00 3.526049e+00 2.146675e+00 2.406988e+00 -3.950857e-01 3.595122e+00 4.776250e+00 4.811513e-02 6.925488e-02 -2.013164e-01 -2.259155e-01 1.853886e-01 9.792114e-01 9.246343e-01 -4.198208e-01 -2.183114e-01 3.314783e-02 -1.105086e+00 1.126346e-01 -3.524078e-01 1.447398e-03 
-5.017426e+00 3.923814e+00 -4.325784e+00 1.607877e+00 3.523855e+00 3.997449e+00 3.504235e+00 1.697430e+00 7.710294e+00 3.435810e-01 -2.689508e+00 1.591179e+00 5.860710e-02 -4.786567e-01 -2.832634e-01 2.056847e-01 -2.950358e-01 1.335260e+00 1.126133e+00 -9.295877e-01 -1.052385e+00 3.179847e-01 1.750350e-01 3.315277e-01 -4.550480e-01 -2.050292e-03 
-6.889564e+00 3.209450e-01 -2.487275e+00 2.940028e+00 6.350544e+00 5.537647e+00 4.882217e+00 2.399564e+00 4.815335e+00 -1.295653e+00 7.599409e-01 8.887393e-01 2.475023e-02 -7.080649e-01 -3.384319e-01 3.452978e-01 -8.692014e-01 -7.636771e-02 1.023041e-01 -6.755868e-01 -7.191166e-01 7.595329e-01 6.943842e-01 5.822215e-02 -1.510725e+00 -8.754129e-03 
-7.732255e+00 1.211363e+00 -2.550360e+00 2.021371e+00 7.596636e+00 6.597984e+00 9.421806e-01 -2.385327e+00 4.080647e+00 2.938171e+00 3.282667e+00 1.020411e+00 3.205234e-02 -5.877731e-01 1.450494e-01 5.282738e-01 -6.716359e-01 -1.244063e+00 -2.746853e-01 -8.250723e-01 -1.185467e+00 -2.599708e-01 -6.156340e-01 8.700691e-02 -5.680900e-01 -1.585317e-03 
-7.532289e+00 3.485368e+00 -2.618527e+00 -1.841283e-02 1.534976e+00 8.551712e-01 1.429142e+00 5.924702e-01 8.019476e+00 1.779540e+00 9.001459e-01 -2.491992e+00 1.762187e-02 2.379431e-01 1.003104e+00 3.749733e-01 -5.601268e-02 -2.233387e+00 -4.862855e-01 2.821663e-01 1.386277e+00 1.157418e+00 1.207628e-01 4.386368e-02 3.643871e-01 1.169107e-02 
-7.634929e+00 3.066849e+00 -1.618788e+00 -2.710820e-01 -2.886748e-01 4.965261e+00 1.105411e+00 -3.326360e+00 4.808369e+00 -4.272185e+00 -2.324576e+00 4.410948e-01 5.424470e-02 -1.094923e-01 1.049910e+00 3.256820e-01 8.972498e-01 -1.631652e+00 -5.641866e-02 1.286213e+00 2.685550e+00 2.165359e+00 1.636278e-01 -5.875391e-01 3.307220e-01 3.730505e-02 
-5.748511e+00 4.408723e+00 -1.078194e+00 3.806191e+00 -8.737340e-01 3.922581e+00 6.211434e+00 9.801466e+00 1.023856e+01 2.913339e+00 3.782881e+00 3.000333e+00 7.210940e-02 -1.755101e+00 5.243756e-01 5.074804e-01 1.802726e+00 -4.585802e-01 6.644531e-01 1.165789e+00 1.524824e+00 1.302432e+00 6.190206e-01 -1.088227e-01 1.133991e+00 9.527896e-02 
-9.171605e+00 5.999237e+00 -1.692117e+00 4.595318e+00 6.427298e-01 4.782186e+00 4.982098e+00 6.437926e+00 1.379790e+01 3.189410e+00 -1.096396e+00 -7.214160e-02 1.913338e-01 -2.048398e+00 6.453696e-01 3.520189e-01 1.327972e+00 4.421267e-01 9.124948e-01 5.335280e-01 6.424540e-01 -4.946389e-02 3.543995e-01 -4.671886e-01 1.098704e-02 8.560870e-02 
-1.553946e+01 4.641053e+00 -4.446113e-02 6.562016e+00 -1.223627e+00 4.268974e+00 5.319744e+00 3.334447e+00 1.003687e+01 1.143846e+00 -2.580571e-01 3.434580e+00 4.254721e-01 -1.518267e+00 1.276275e-01 -3.333836e-01 -2.829355e-01 6.666613e-02 1.116763e+00 -9.179929e-01 -2.385082e+00 -2.237010e+00 -7.100539e-02 2.205547e-01 2.318124e-01 6.796619e-02 
-1.298145e+01 6.177533e+00 -3.755604e-01 4.990866e+00 2.096905e+00 9.354538e+00 4.218896e+00 3.119420e+00 4.661895e+00 -1.615441e+00 -2.640050e+00 2.789065e-01 3.056068e-01 7.511147e-01 -6.756005e-01 1.244240e-01 -4.353290e-01 8.470451e-01 -5.602739e-01 -4.736287e-01 -1.093076e+00 -1.784654e+00 1.433869e+00 2.355288e+00 5.659199e-01 -4.045703e-02 
-1.143493e+01 4.957713e+00 -3.403391e+00 2.193739e+00 -1.267491e+00 7.220222e+00 2.003070e+00 -4.646888e-01 3.621518e+00 4.960738e+00 5.657481e+00 3.983871e+00 3.548039e-01 2.187748e+00 -5.487334e-01 -4.934053e-01 -1.694761e+00 1.528565e+00 -4.120999e-01 3.005466e-01 5.021075e-01 7.406977e-01 2.031761e+00 2.301779e+00 4.864345e-01 -1.065997e-01 
-7.468297e+00 2.462904e+00 6.094679e-01 4.602812e+00 4.899887e+00 5.051918e-01 4.272291e+00 2.872114e+00 8.082306e+00 8.450308e+00 7.722272e+00 2.482812e+00 2.438277e-02 1.982365e+00 -3.464612e-01 -5.155552e-01 -1.530301e+00 9.160193e-01 9.943231e-01 1.264981e+00 1.642976e+00 2.264982e+00 8.588184e-01 1.775291e+00 1.103078e+00 -7.703757e-02 
-7.357289e+00 3.754700e+00 -3.004002e+00 -1.717760e+00 5.017709e+00 6.633148e+00 6.795780e+00 5.968637e+00 1.203016e+01 6.269777e+00 6.069677e+00 4.764800e+00 3.308541e-02 1.114926e+00 -1.535741e-01 -2.599074e-01 -5.781141e-01 2.946530e-01 1.361715e+00 1.771730e+00 1.801574e+00 1.885729e+00 -1.761034e+00 -1.280644e+00 5.819040e-01 -5.237271e-02 
-5.108438e+00 5.046733e+00 -3.153031e+00 -7.048872e-01 3.534401e+00 1.461969e+01 8.147447e+00 8.117638e+00 1.178248e+01 2.024131e+00 6.030307e+00 5.403831e+00 8.127820e-02 6.614494e-03 -6.175003e-02 -1.724867e-01 7.356547e-01 -5.317212e-01 9.001766e-01 8.484457e-01 1.274392e+00 7.162712e-01 -1.227675e+00 -1.596431e+00 3.614221e-01 5.814022e-03 
-7.040225e+00 2.897928e+00 -2.821678e+00 1.957019e+00 8.885169e-01 6.971546e+00 8.924143e+00 5.920416e+00 1.120007e+01 -6.313462e-01 1.002442e-01 5.432882e+00 6.449258e-02 -4.205896e-01 -4.935835e-01 7.595750e-01 2.277559e+00 2.561607e-01 -1.347298e+00 -3.611994e-01 -1.535973e-01 -1.326559e+00 5.844793e-01 -5.599433e-01 -8.180285e-02 -2.765131e-03 
-7.593757e+00 2.582540e+00 -3.441275e-01 6.443696e+00 4.305877e+00 4.836876e+00 7.450338e+00 9.268185e+00 1.207870e+01 5.762497e+00 2.724836e+00 3.955882e+00 3.774929e-02 -5.599712e-01 -4.935055e-01 -3.788771e-02 1.332520e+00 1.084377e+00 -2.449196e+00 -4.829849e-01 -3.780227e-01 -1.210319e+00 9.420267e-01 2.764554e-01 -7.506644e-01 -1.010647e-02 
-8.217578e+00 2.518879e+00 -6.105787e-01 6.095744e+00 5.912774e+00 4.788063e+00 5.338337e+00 4.625378e+00 5.249252e+00 7.322990e+00 4.922697e+00 5.079760e+00 4.102421e-02 -6.281014e-02 6.429136e-02 -9.063418e-02 -7.442901e-02 5.929675e-01 -5.865301e-01 -5.693165e-01 -1.163502e-01 -7.348508e-01 5.273889e-01 1.093917e+00 5.453002e-01 -5.121666e-03 
-7.319617e+00 2.768731e+00 -4.448020e+00 3.888352e+00 6.444158e+00 3.465453e+00 7.525424e+00 6.875044e+00 8.706299e+00 2.757097e+00 5.001358e+00 1.827069e+00 4.248005e-02 1.094312e+00 -2.531143e+00 -1.258519e+00 -1.355559e+00 -1.320609e+00 -7.069525e-01 -6.742105e-01 -2.060939e+00 -5.889887e-01 -2.186470e+00 -1.920981e-01 -2.746688e-01 5.960421e-02 
-7.491345e+00 3.126289e+00 -1.222903e+00 2.862545e+00 2.784214e+00 4.724607e+00 6.040017e+00 6.535235e+00 9.212021e+00 3.508299e+00 4.431569e+00 9.223789e+00 3.651887e-02 1.576191e+00 -4.012245e+00 -1.468806e+00 -1.267500e+00 -2.360734e+00 -1.255957e+00 -1.208489e+00 -2.728178e+00 -1.897811e-01 -3.075441e+00 -9.488761e-01 -9.683388e-01 1.474731e-01 
-2.485313e+00 -1.037688e+01 -6.330560e+00 1.282498e+00 -7.328882e-01 1.333842e+00 3.728445e+00 -1.991439e+00 7.152377e+00 -3.262505e+00 2.009909e+00 5.105232e-01 3.380230e-01 7.599244e-01 -3.617589e+00 -1.182781e+00 -7.334591e-01 -3.179286e+00 -2.186856e-01 -1.505927e+00 -2.812802e+00 -1.274782e+00 -2.306671e+00 -1.695152e+00 -9.883598e-01 1.950495e-01 
-2.753775e+00 -1.096954e+01 -7.013337e+00 1.061173e+00 -2.302371e+00 -4.259171e-01 1.194381e+00 -4.582268e+00 5.077308e+00 -5.044413e+00 1.674040e+00 8.963389e-01 6.306180e-01 1.369962e+00 -1.511666e+00 -1.506788e+00 -1.189186e+00 -3.085192e+00 -6.161785e-01 -4.540963e-01 -1.600118e+00 -5.648209e-01 -7.907613e-01 -2.167184e+00 -1.683071e+00 1.635302e-01 
-5.888781e+00 -8.271300e+00 -7.466704e+00 1.121742e+00 -6.908978e+00 4.947287e+00 2.418605e+00 -1.630213e+00 4.399745e+00 -4.499900e+00 -2.095639e+00 1.048995e+00 7.206780e-01 2.059504e+00 2.592013e+00 6.647097e-01 -6.003387e-01 -2.105998e+00 -1.267265e+00 -9.216690e-02 3.715549e-01 9.617194e-01 1.586782e+00 -2.443941e+00 -1.238014e+00 4.657235e-02 
1.060196e+00 -5.484832e+00 -8.188772e+00 -3.003009e+00 -9.553701e+00 -1.630087e-01 4.424455e+00 -1.645966e+00 7.764232e+00 1.731899e-01 -4.351576e+00 5.391972e-01 6.628423e-01 3.906414e+00 2.870443e+00 1.915818e+00 -3.943165e-01 8.697662e-01 -2.507977e+00 -9.760083e-01 -5.871616e-02 -1.145751e+00 1.980374e+00 -2.640076e+00 -2.335914e+00 -1.070884e-02 
5.905220e+00 -1.591669e-01 -2.419293e+00 3.128960e-01 -7.637213e+00 -5.133938e+00 1.652574e+00 -1.601816e+00 1.061751e+01 2.062605e+00 -7.196990e+00 -5.500978e+00 5.547726e-01 4.295436e+00 1.509268e+00 2.772417e+00 -2.473924e-01 4.260566e+00 -3.295155e+00 -2.474966e+00 -6.787938e-01 -3.231030e+00 9.197181e-01 -4.479721e-01 -1.613379e+00 -2.251947e-03 
1.088129e+01 -6.733909e-01 4.204631e-02 -5.059859e-01 2.410578e+00 -7.925189e+00 -3.302645e+00 -4.890047e+00 -3.760333e+00 1.576204e+00 -8.975662e+00 -7.508243e+00 6.600264e-01 2.531495e+00 -1.933438e-01 1.957446e+00 2.290391e-01 5.471787e+00 -2.154840e+00 -3.870647e+00 -9.984988e-01 -5.036480e+00 -4.257640e-01 3.269964e-01 2.897755e-01 3.201507e-02 
1.067785e+01 -3.130679e+00 2.279970e+00 -1.363731e+00 8.411713e+00 -7.647395e+00 -6.092676e+00 -3.402141e+00 -5.993125e+00 -6.028165e-01 -2.023456e+00 -2.994181e+00 7.108262e-01 1.319941e+00 -1.486277e+00 -1.693525e-01 -2.113997e-01 4.087441e+00 -1.578254e+00 -3.016506e+00 -1.060234e+00 -4.556034e+00 -1.338367e+00 1.042660e+00 2.080976e+00 4.713286e-02 
1.133135e+01 -4.965795e+00 -7.511745e-01 -1.019500e+00 9.780773e+00 -9.680482e+00 -1.105615e+01 -5.738297e+00 -9.112850e+00 -6.229191e-01 -5.303361e+00 7.346767e-01 7.448909e-01 7.872021e-01 -1.040859e+00 -1.326930e+00 3.638597e-01 1.920731e+00 -8.783627e-01 -1.719483e+00 -5.475224e-01 -6.412749e-01 -1.479210e+00 4.812984e-01 1.899165e+00 1.890316e-02 
1.227990e+01 -5.444349e+00 -2.869445e+00 -4.873456e-01 9.114899e+00 -1.214756e+01 -9.553204e+00 -6.478863e+00 -9.486399e+00 -3.529671e+00 -3.819841e+00 7.824402e-01 7.480047e-01 1.141316e+00 -1.159735e-01 -1.994728e+00 1.170314e+00 6.276017e-01 -1.299603e-01 -1.404211e+00 -2.363684e-01 8.672149e-01 -1.249820e+00 -9.078191e-01 5.047563e-01 5.205810e-04 
1.401628e+01 -4.720852e+00 -4.017898e+00 8.751198e-01 1.166264e+01 -1.006692e+01 -1.016980e+01 -6.089298e+00 -5.220071e+00 -4.356418e+00 -5.670978e+00 9.927063e-02 7.359530e-01 1.215841e+00 9.335728e-01 -1.600911e+00 1.063923e+00 9.535183e-01 1.181697e+00 -8.349720e-01 3.141370e-01 1.697008e+00 -2.676445e-01 1.222805e-01 -4.386758e-01 -6.789124e-03 
1.504197e+01 -3.833018e+00 -6.060307e+00 3.540530e+00 1.060879e+01 -8.103978e+00 -1.355691e+01 -4.408483e+00 -3.603440e+00 -4.985168e+00 -6.378743e+00 -1.526970e-01 7.178980e-01 1.006000e+00 1.272839e+00 -1.932478e+00 5.571697e-01 6.689684e-01 1.695647e+00 -1.161197e+00 -3.479641e-01 1.202718e+00 6.341199e-01 2.187969e-01 -1.048441e+00 -7.577360e-04 
1.602952e+01 -1.103597e+00 -7.160297e+00 2.286175e+00 1.380142e+01 -5.793791e+00 -1.322916e+01 -5.202803e+00 -3.569290e+00 -1.233393e+00 -3.412508e+00 -9.911336e-01 7.259986e-01 8.217543e-01 6.908270e-01 -1.914180e+00 -2.333679e-01 1.875777e-02 1.335305e+00 -1.355103e+00 -9.753710e-01 3.257994e-01 1.113836e+00 1.313989e-01 -8.453916e-01 1.243596e-02 
1.630328e+01 -8.887823e-01 -1.096064e+01 1.592975e+00 1.139035e+01 -5.805890e+00 -1.382951e+01 -8.661931e+00 -4.298202e+00 -1.920584e+00 -3.855092e+00 -3.914564e+00 7.491932e-01 7.631902e-01 -1.002496e-01 -1.864195e+00 -1.246051e+00 -1.022179e-01 7.263946e-03 -1.083093e+00 -8.683684e-01 1.632937e-01 1.364571e-01 -2.698457e-01 -4.438537e-01 2.659463e-02 
1.749440e+01 -2.738835e+00 -1.113863e+01 6.820579e-01 1.136565e+01 -4.539438e+00 -1.680901e+01 -8.839429e+00 -3.243693e+00 -3.195293e-01 -6.275809e+00 -2.246754e+00 7.824852e-01 5.433777e-01 -1.109774e+00 -1.976124e+00 -1.480255e+00 -6.483111e-01 -1.234049e+00 -2.070206e+00 -7.764524e-01 5.042123e-01 -6.319674e-01 -1.745751e+00 1.215592e-01 4.167511e-02 
1.812548e+01 -3.516647e+00 -1.339212e+01 -1.887665e+00 1.131559e+01 -8.694835e+00 -1.718245e+01 -6.932012e+00 -2.949770e+00 -4.759814e+00 -6.296321e+00 -1.744155e+00 8.226278e-01 2.643259e-01 -1.708204e+00 -1.483594e+00 -1.360743e+00 -1.519036e-01 -1.907376e+00 -3.049082e+00 1.683134e-01 6.736335e-01 -4.396695e-01 -2.026470e+00 8.365361e-01 5.565391e-02 
1.783531e+01 -5.338535e+00 -1.582518e+01 -3.374779e+00 1.059725e+01 -1.051956e+01 -2.190372e+01 -9.950025e+00 -1.722445e+00 -2.973615e+00 -1.092065e+01 -1.468542e+00 8.976568e-01 -1.517605e-01 -1.652165e+00 -7.001455e-01 -2.677339e-01 -4.123096e-01 -1.601933e+00 -2.427773e+00 1.828992e+00 4.921965e-01 3.016968e-01 -1.265093e+00 1.109414e+00 5.293561e-02 
1.745445e+01 -8.129954e+00 -1.603533e+01 -3.182321e+00 1.101503e+01 -1.235271e+01 -2.652756e+01 -7.265066e+00 -1.690659e+00 -2.791888e+00 -1.166502e+01 -1.209890e-01 9.698769e-01 -4.782783e-01 -1.629980e+00 8.323057e-01 5.703290e-01 -8.395653e-01 -1.353912e+00 -9.705276e-01 3.092490e+00 4.939508e-02 5.129405e-01 -6.168165e-01 1.085937e+00 3.738279e-02 
1.707111e+01 -8.693006e+00 -1.331775e+01 -9.284198e-03 9.454375e+00 -1.072016e+01 -2.427532e+01 4.720576e-01 -1.412267e+00 2.049921e-01 -9.916925e+00 2.488734e+00 9.735387e-01 -7.020782e-01 -1.513832e+00 1.673669e+00 7.755917e-01 -1.718201e+00 -1.768443e+00 4.029635e-01 4.160947e+00 -7.852665e-01 -1.293986e+00 -7.502566e-02 6.062936e-01 1.776010e-02 
1.611619e+01 -9.989312e+00 -1.048430e+01 -7.187678e-01 7.689195e+00 -1.536409e+01 -2.084929e+01 3.319400e+00 -2.857883e+00 -3.784415e+00 -9.882264e+00 1.706890e+00 9.716008e-01 -7.230489e-01 -1.226965e+00 2.554816e+00 7.318760e-01 -2.625876e+00 -1.434514e+00 2.082508e+00 4.089541e+00 -8.697160e-01 -2.691924e+00 7.093856e-01 7.843626e-01 5.508727e-03 
1.499405e+01 -1.197802e+01 -1.023235e+01 -7.285966e-01 3.669159e+00 -1.785609e+01 -2.272804e+01 5.562478e+00 -5.065165e+00 -8.947282e+00 -1.218715e+01 6.489865e-01 9.855953e-01 -9.359447e-01 -1.492039e+00 2.674546e+00 1.625733e-02 -3.402035e+00 -1.516605e+00 1.985693e+00 2.994517e+00 -2.164696e+00 -3.321007e+00 7.639316e-01 3.417935e-01 7.271403e-03 
1.487774e+01 -1.262227e+01 -4.803957e+00 8.367153e-01 7.782574e-01 -1.595731e+01 -1.688866e+01 1.063743e+01 -4.212790e+00 -1.167537e+01 -6.982980e+00 4.720698e+00 9.913923e-01 -9.966601e-01 -1.135321e+00 3.081070e+00 -4.985185e-01 -3.341264e+00 -2.334173e-01 2.462329e+00 2.452028e+00 -2.928114e+00 -1.638573e+00 1.227600e+00 4.420966e-01 2.970791e-03 
1.301061e+01 -1.483672e+01 -2.785195e+00 -7.057390e-01 -4.100330e+00 -1.800658e+01 -1.632717e+01 1.178563e+01 -1.155829e+01 -1.245457e+01 -7.546909e+00 2.690797e+00 1.000000e+00 -9.079407e-01 -3.410075e-01 3.777220e+00 -7.408634e-01 -2.598217e+00 1.037580e+00 3.885048e+00 1.522081e+00 -2.682054e+00 6.222734e-01 1.764413e+00 7.450142e-01 -4.229307e-03 
1.212461e+01 -1.423656e+01 1.197477e+00 -3.222789e+00 -5.132382e+00 -1.645594e+01 -1.173808e+01 1.246796e+01 -1.425189e+01 -1.022364e+01 -6.064386e+00 2.896468e+00 9.792525e-01 -1.207587e+00 9.591198e-03 3.305208e+00 -1.355030e+00 -2.367139e+00 8.701161e-01 3.807751e+00 -6.718351e-01 -2.648452e+00 1.376543e+00 8.098366e-01 -3.252147e-01 -5.969584e-03 
1.183091e+01 -1.287591e+01 5.653040e+00 -2.403161e+00 -6.366608e+00 -1.241888e+01 -5.878090e+00 1.225762e+01 -1.345589e+01 -6.561781e+00 -3.824388e+00 5.286173e+00 9.705187e-01 -1.027904e+00 7.473777e-01 3.135974e+00 -9.459602e-01 -1.822896e+00 1.585538e+00 3.891551e+00 -1.873029e+00 -1.139070e+00 1.834892e+00 1.349573e+00 -6.921017e-01 -9.685409e-03 
9.429649e+00 -1.355472e+01 7.502964e+00 -5.089722e+00 -9.924299e+00 -1.440058e+01 -3.074440e+00 7.042260e+00 -1.650625e+01 -7.739050e+00 -4.795058e+00 1.796937e+00 9.762850e-01 -1.099100e+00 8.193111e-01 2.415090e+00 -5.850002e-01 -1.872355e+00 1.557554e+00 2.473769e+00 -2.877658e+00 -5.689062e-01 1.551550e+00 1.402960e+00 -1.315725e+00 -7.127964e-03 
9.218573e+00 -1.144075e+01 9.741930e+00 -4.502074e+00 -1.081885e+01 -1.110656e+01 -1.201227e+00 5.133335e+00 -1.612646e+01 -4.522404e+00 -1.433707e+00 -2.199455e-01 9.530567e-01 -1.150889e+00 8.512713e-01 1.777195e+00 -4.482074e-01 -1.390351e+00 1.280970e+00 1.353957e+00 -2.700092e+00 -5.445541e-01 1.277054e+00 1.480022e+00 -1.463356e+00 -5.213243e-03 
7.935273e+00 -1.085759e+01 1.122848e+01 -5.098333e+00 -1.226804e+01 -9.324324e+00 -1.707661e+00 1.641814e+00 -1.576113e+01 -3.485577e+00 -2.449268e-01 -9.290956e-01 9.523436e-01 -8.169962e-01 1.064917e+00 1.434568e+00 1.890527e-01 -9.847439e-01 1.751189e+00 6.190984e-01 -2.090485e+00 1.625748e-02 1.681209e+00 1.351035e+00 -1.070345e+00 -7.997990e-03 
6.823655e+00 -9.968121e+00 1.267625e+01 -4.639893e+00 -1.214649e+01 -8.552158e+00 2.083035e-01 1.457380e+00 -1.655122e+01 -2.303250e+00 1.300657e+00 -6.675919e-01 9.564232e-01 -6.980698e-01 8.167857e-01 1.187158e+00 1.730747e-02 -5.988363e-01 1.065266e+00 1.954895e-01 -1.999511e+00 6.615639e-02 1.283346e+00 5.916743e-01 -8.458783e-01 -8.416432e-03 
6.542127e+00 -8.966452e+00 1.320864e+01 -4.075549e+00 -1.418420e+01 -6.921844e+00 -6.837125e-01 -1.572188e+00 -1.621259e+01 -4.425821e-01 5.929376e-01 -3.330964e+00 9.346118e-01 -4.712303e-01 8.007380e-01 9.413785e-01 -3.584909e-03 -1.144945e-01 6.374208e-01 4.002481e-02 -1.882084e+00 2.613234e-01 7.143742e-01 5.149155e-01 -1.219915e+00 -9.519016e-03 
6.424797e+00 -8.302390e+00 1.468764e+01 -4.926929e+00 -1.285495e+01 -6.981473e+00 -7.357535e-01 -3.257219e+00 -1.556995e+01 3.728291e-01 1.105732e+00 -3.248403e+00 9.198405e-01 -2.331430e-01 9.455527e-01 7.700518e-01 1.196433e-01 3.836155e-02 7.955803e-01 -1.798739e-01 -1.564537e+00 8.372509e-01 1.925973e-01 5.386079e-01 -1.163882e+00 -1.315709e-02 
5.778551e+00 -7.686762e+00 1.492968e+01 -4.972740e+00 -1.248628e+01 -6.922563e+00 -1.035509e+00 -5.411304e+00 -1.494515e+01 -1.251745e+00 2.427113e+00 -5.738267e+00 9.230399e-01 -3.427455e-01 1.169784e+00 7.071538e-01 -1.731014e-02 1.200745e-01 7.077875e-01 2.354045e-01 -1.426400e+00 8.322653e-01 -1.495904e-01 -7.774141e-02 -6.225821e-01 -2.053382e-02 
6.039728e+00 -5.880202e+00 1.566599e+01 -3.593081e+00 -1.280365e+01 -4.573897e+00 -5.151677e-01 -4.445748e+00 -1.299868e+01 -9.356818e-01 3.076609e+00 -5.283349e+00 8.964236e-01 -5.617728e-01 1.467958e+00 6.003760e-01 1.732226e-01 -2.930464e-01 9.604998e-01 5.852976e-01 -1.431713e+00 5.423586e-01 -3.038105e-01 -5.302714e-01 -6.654254e-01 -2.543537e-02 
5.020934e+00 -4.328628e+00 1.625523e+01 -4.829024e+00 -1.360948e+01 -4.586694e+00 3.830171e-01 -8.109921e+00 -1.333689e+01 -5.362788e-01 -7.812074e-01 -5.426401e+00 8.436511e-01 -6.078897e-01 1.781197e+00 5.978157e-01 6.830845e-02 -1.347246e-01 5.752429e-01 6.188718e-01 -1.612100e+00 5.835915e-03 -2.353948e-01 -1.900527e-01 -3.613060e-01 -2.920384e-02 
3.994741e+00 -2.641665e+00 1.702674e+01 -4.132674e+00 -1.375858e+01 -3.346909e+00 1.481472e+00 -9.066476e+00 -1.366228e+01 -1.503957e+00 5.853558e-02 -6.731462e+00 8.323580e-01 -5.029298e-01 1.616482e+00 6.725092e-01 -1.487341e-02 3.527527e-02 2.666607e-01 1.481799e-01 -1.460614e+00 -1.260261e+00 4.425380e-01 1.535673e-01 -8.576835e-01 -2.609772e-02 
3.761596e+00 -4.000452e-01 1.723839e+01 -4.361401e+00 -1.268243e+01 -4.659842e+00 1.060531e+00 -1.116144e+01 -1.458417e+01 -2.144582e+00 2.985886e+00 -6.820740e+00 8.090535e-01 -2.588561e-01 1.496385e+00 8.232189e-01 5.509769e-01 5.480353e-01 7.179646e-01 -3.021168e-01 -8.660476e-01 -6.727949e-01 5.343044e-01 7.267647e-01 -1.279483e+00 -2.325539e-02 
4.154748e+00 2.379192e-01 1.853696e+01 -3.901259e+00 -1.309079e+01 -3.204020e+00 -1.130252e-01 -1.022306e+01 -1.867635e+01 2.081160e+00 1.960899e+00 -8.874597e+00 7.832338e-01 1.536226e-02 1.213963e+00 6.631670e-01 1.017064e+00 2.997063e-01 7.427416e-01 -2.502525e-01 -2.965783e-01 -1.255222e-01 5.308254e-01 3.202438e-01 -1.509782e+00 -2.823597e-02 
3.646650e+00 1.713507e+00 1.961622e+01 -2.189846e+00 -1.120320e+01 -1.068315e+00 -3.303185e-01 -1.186187e+01 -1.419384e+01 3.426849e-01 1.901435e+00 -1.075225e+01 7.519363e-01 2.323154e-01 7.959614e-01 6.130928e-01 1.689850e+00 -1.259251e-02 7.992858e-01 -9.247600e-01 -6.282150e-01 -9.273586e-02 -3.412101e-01 3.492999e-02 -1.739694e+00 -3.352365e-02 
4.129026e+00 2.371375e+00 1.915366e+01 -1.331315e-01 -1.299967e+01 -1.428964e+00 9.256334e-01 -1.019915e+01 -1.448506e+01 -9.346259e-02 2.201980e+00 -1.231462e+01 7.197368e-01 5.356801e-01 1.138945e+00 -2.417393e-02 1.028543e+00 -7.228974e-01 5.221660e-01 -2.487090e-01 -1.393026e+00 -3.579357e-01 -1.224453e+00 5.026787e-02 -1.507208e+00 -3.110276e-02 
4.936034e+00 2.513033e+00 1.999550e+01 2.203786e+00 -1.279096e+01 -1.550941e+00 -4.082599e+00 -1.431447e+01 -1.714349e+01 -2.763321e+00 3.039995e+00 -1.379920e+01 6.731838e-01 9.718820e-01 1.105286e+00 -1.322238e+00 -9.267924e-01 -2.038223e+00 1.106779e+00 1.353400e-01 -1.538190e+00 -2.293072e+00 -1.325001e+00 -1.425773e+00 -2.038415e+00 -1.826634e-02 
6.188457e+00 5.532881e+00 1.822645e+01 -9.553618e-01 -1.591140e+01 -3.518763e-01 5.195704e-01 -1.596189e+01 -1.899120e+01 -2.488101e+00 1.642958e+00 -1.488716e+01 6.670963e-01 1.343656e+00 1.327795e+00 -2.242226e+00 -2.059100e+00 -1.305114e+00 2.597528e+00 3.408475e-01 -2.147581e-01 -2.220875e+00 -1.188922e+00 -2.019378e+00 -2.050091e+00 -1.135612e-03 
7.476345e+00 5.659186e+00 1.346863e+01 -6.412694e+00 -1.993845e+01 3.927038e+00 5.494132e-01 -1.667145e+01 -2.340613e+01 -5.085002e+00 -4.947918e+00 -1.965805e+01 6.869248e-01 1.544771e+00 1.665650e+00 -2.993166e+00 -2.580792e+00 -9.330620e-01 3.334061e+00 1.070168e+00 8.174263e-01 -5.357897e-01 2.298538e-01 -2.923598e+00 -1.605675e+00 1.101505e-02 
9.577150e+00 7.437273e+00 1.120597e+01 -6.120392e+00 -1.595149e+01 8.819687e+00 3.138647e-01 -1.009445e+01 -2.245812e+01 -4.877234e+00 -3.900954e+00 -1.963565e+01 7.071882e-01 1.052911e+00 1.019237e+00 -3.382886e+00 -7.122908e-01 7.731974e-01 3.078194e+00 6.332380e-01 -7.156906e-02 5.981112e-01 -5.528519e-01 -3.019956e+00 3.502489e-01 -8.178967e-03 
1.096554e+01 9.889086e+00 8.539913e+00 -8.117660e+00 -1.743622e+01 1.053358e+01 1.371091e+00 -1.316105e+01 -1.808898e+01 -4.194857e-01 -8.806039e+00 -1.945333e+01 7.082130e-01 -1.247208e-01 4.834469e-01 -2.578599e+00 1.497408e+00 2.110367e+00 1.142572e+00 1.609621e+00 -7.889134e-01 1.025668e+00 -1.970170e+00 -2.654857e+00 2.273176e+00 -5.027028e-02 
9.708414e+00 8.514114e+00 3.776382e+00 -3.664332e+00 -1.329653e+01 1.173582e+01 3.274921e+00 -1.807493e+01 -1.865922e+01 -7.585118e+00 -1.152776e+01 -1.323828e+01 6.155573e-01 -1.729912e+00 2.121601e-02 -2.237264e+00 2.385082e+00 3.783461e+00 -9.754858e-01 5.868466e-01 -1.516863e+00 6.577595e-01 -3.505838e+00 -2.037668e+00 3.648830e+00 -1.001025e-01 
6.787109e+00 7.538000e+00 4.290427e+00 -1.536862e-01 -1.071410e+01 8.181831e+00 7.116990e+00 -1.662578e+01 -2.017724e+01 -1.358191e+01 -1.440880e+01 -1.149086e+01 4.813889e-01 -2.826003e+00 -5.936670e-01 -1.882386e+00 2.501448e+00 4.917036e+00 -2.673770e+00 -8.157690e-01 7.344126e-01 8.586842e-01 -3.316876e+00 8.562757e-01 4.736575e+00 -1.402487e-01 
3.016809e+00 8.718896e+00 2.144389e+00 1.823031e+00 -3.952518e-01 5.118134e+00 3.751483e-01 -1.594640e+01 -1.812519e+01 -1.582521e+01 -1.128791e+01 -5.372730e+00 3.200878e-01 -3.084102e+00 -1.966594e-01 -1.640153e+00 1.309966e+00 4.584456e+00 -2.473285e+00 -1.611141e+00 3.707762e+00 2.613914e+00 4.486129e-01 2.541859e+00 3.843899e+00 -1.399615e-01 
1.813297e-01 6.818360e+00 -5.602103e-02 1.645897e+00 6.983218e-01 4.735756e-01 -1.257867e+00 -1.055326e+01 -1.406257e+01 -1.288382e+01 -4.644586e+00 2.967690e-01 1.547043e-01 -2.993100e+00 -9.944806e-02 -1.011282e+00 5.734641e-01 3.443125e+00 -1.858246e+00 -1.277784e+00 4.212663e+00 5.588796e+00 2.993991e+00 2.916598e+00 3.459479e+00 -1.143306e-01 
-2.409208e+00 7.890637e+00 -2.251157e+00 1.985709e+00 3.919541e+00 3.223521e+00 -5.933557e-01 -2.572383e+00 -8.646980e+00 -5.691100e+00 -3.700572e+00 8.740298e-02 7.909203e-02 -2.521629e+00 -7.890233e-01 -8.590897e-01 2.543387e-01 1.251155e+00 -1.590139e-01 1.024473e+00 4.883934e+00 7.195314e+00 5.054749e+00 3.085133e+00 1.883840e+00 -6.851988e-02 
-5.465380e+00 7.454889e+00 1.431791e+00 2.632296e+00 4.344135e+00 -1.620913e-01 1.212323e+00 -2.249473e+00 3.027636e+00 -3.679012e+00 -3.619481e+00 3.076469e+00 3.023392e-02 -1.935979e+00 -1.108142e+00 -4.844356e-01 4.040232e-01 9.240133e-01 7.376308e-01 1.924658e+00 3.656106e+00 6.574329e+00 4.217401e+00 2.641680e+00 9.157052e-01 -2.827713e-02 
-6.767983e+00 4.455515e+00 -2.894965e+00 2.601525e+00 4.037614e+00 4.640898e+00 4.262419e+00 4.321377e+00 9.306276e+00 4.846134e+00 3.625203e+00 2.656620e+00 3.972358e-02 -1.185933e+00 -1.589465e+00 -7.723931e-01 -2.335304e-01 1.547695e-02 9.917647e-01 9.822165e-01 2.060291e+00 4.819457e+00 2.317383e+00 1.880741e+00 1.377335e-01 -1.044411e-02 
-7.319179e+00 2.995210e+00 -2.156296e+00 3.358105e+00 5.259351e+00 3.453042e+00 5.937533e+00 4.280392e+00 9.832445e+00 2.934568e+00 4.900929e+00 3.590686e+00 3.300285e-02 -4.281647e-01 -1.008724e+00 -1.316082e+00 -5.804226e-01 3.072010e-01 1.688968e+00 1.322616e+00 1.101640e+00 1.874370e+00 1.658568e+00 2.278159e+00 -3.997938e-01 -1.344037e-03 
-7.411975e+00 2.173150e+00 -4.319079e+00 4.551517e-01 3.539318e+00 6.374779e+00 1.955122e+00 4.464139e+00 1.204790e+01 2.589024e+00 1.442927e+00 5.189620e-01 2.548701e-02 -1.958899e-01 -4.011795e-01 -3.744103e-01 -4.840261e-01 8.546621e-03 8.912190e-01 8.016268e-01 2.095451e-01 8.761970e-01 1.128037e+00 7.302591e-01 -2.185059e-01 -1.983189e-03 
-7.284207e+00 3.552452e+00 -4.436563e+00 8.033695e-01 6.129289e+00 7.415807e+00 8.979051e+00 3.187348e+00 1.102868e+01 5.742381e+00 8.862453e+00 2.146329e+00 3.063202e-02 -1.751465e-01 8.781731e-03 -7.117939e-03 6.029860e-01 2.462187e-01 1.615123e-01 6.432661e-01 7.591395e-02 -2.174964e-01 1.171932e+00 3.017330e-01 5.650779e-01 -7.087469e-04 
-7.764918e+00 2.170996e+00 -3.626883e+00 1.458763e+00 3.645378e+00 7.115610e+00 6.749794e+00 5.915624e+00 1.308915e+01 9.082413e+00 5.295737e+00 2.286269e+00 3.099304e-02 -2.418194e-02 2.562833e-03 2.926500e-01 4.939171e-01 1.596567e-01 -2.459683e-01 2.558521e-01 1.663276e-01 -9.027885e-01 3.383269e-01 1.394127e-01 1.765699e+00 2.064073e-03 
-8.018439e+00 3.040195e+00 -2.537984e+00 5.871229e+00 6.437414e+00 3.890188e+00 6.756528e+00 3.934219e+00 8.224341e+00 5.547534e+00 4.483189e+00 5.532423e+00 2.670610e-02 2.257404e-02 -1.955208e-01 -8.241629e-03 -6.438670e-01 -5.252692e-01 -1.462948e+00 -1.654895e+00 4.368376e-01 -4.601761e-01 -1.351173e+00 -1.000184e+00 5.993451e-01 -2.674139e-03 
-7.165769e+00 2.442092e+00 -3.805119e+00 3.908073e-01 4.183538e+00 6.907746e+00 4.345644e+00 4.922341e+00 8.936126e+00 4.378082e+00 4.329622e+00 7.654412e+00 3.777033e-02 -2.800751e-03 9.064923e-02 -3.992451e-02 -1.400609e+00 -6.065085e-02 -1.118838e+00 -1.259829e+00 -3.976408e-01 -8.084927e-01 -6.407884e-01 4.543653e-01 -5.798056e-01 1.539117e-03 
-7.470912e+00 2.439300e+00 -4.388653e+00 -1.881988e+00 3.233862e+00 2.049980e-01 1.906648e+00 5.868177e+00 1.080430e+01 1.338682e+00 4.344590e+00 2.458983e+00 1.387268e-02 2.149353e-02 -7.907446e-02 2.469837e-02 -1.168700e+00 -5.880598e-01 -6.004391e-01 4.699755e-02 8.082145e-01 2.747454e-01 9.307720e-01 1.550210e+00 2.027082e-03 -7.736862e-04 
-8.052686e+00 2.924690e+00 -2.901170e+00 -1.667676e+00 4.943900e+00 3.364014e+00 2.875587e+00 2.960441e+00 7.756701e+00 7.982897e+00 7.636863e+00 9.239604e-01 4.510534e-02 6.427536e-02 3.227948e-01 2.570681e-01 3.156050e-01 6.417968e-01 3.716586e-01 9.423229e-01 6.593763e-01 -1.549134e-02 1.505656e+00 1.293718e+00 -3.549557e-02 -3.653109e-04 
-7.467513e+00 2.403524e+00 -2.866467e+00 1.056974e+00 3.116934e+00 2.659858e+00 7.726543e+00 8.956242e+00 1.018778e+01 8.398987e+00 1.058062e+01 8.907784e+00 1.917017e-02 1.881838e-01 4.519482e-01 7.932745e-01 8.431610e-01 2.053630e-02 1.734121e+00 1.483188e+00 2.912232e-01 -2.286746e-01 -1.731372e-01 1.913855e-01 1.036478e+00 3.808022e-03 
-6.846091e+00 4.073955e+00 -3.280872e+00 4.993516e-01 7.450986e+00 7.538610e+00 6.147311e+00 6.675191e+00 9.166931e+00 8.376209e+00 7.680194e+00 4.252534e+00 3.329504e-02 1.941095e-01 8.027311e-02 7.985624e-01 9.136614e-01 -7.246866e-01 6.245341e-01 6.089547e-01 2.168849e-01 9.994972e-01 -1.014019e+00 -5.275799e-01 8.995354e-01 -5.186790e-03 
-7.133290e+00 4.124409e+00 -2.324300e-01 1.250304e+00 2.083001e+00 6.788307e+00 7.686725e+00 5.466918e+00 8.955816e+00 2.763400e-01 5.279852e+00 5.977089e+00 3.881794e-02 1.258333e-01 1.083987e-01 3.404298e-02 2.221119e-01 1.811932e-01 3.466331e-01 -3.388975e-01 -1.311044e+00 2.969399e-01 -9.143673e-01 -9.788178e-01 -8.137916e-01 -2.952665e-03 
-7.249249e+00 2.465614e+00 -2.253761e-01 2.803966e+00 1.837434e+00 4.422460e+00 5.940270e+00 5.789527e+00 1.337017e+01 6.974124e+00 7.649348e+00 6.886985e+00 9.347498e-03 -1.490549e-01 -6.477743e-01 -4.190548e-01 -2.242461e-01 -3.572497e-01 -5.244306e-01 -5.998491e-01 -4.518541e-01 2.865770e-01 -6.321726e-02 2.561871e-01 1.298807e-01 -2.810562e-03 
-6.636767e+00 3.749688e+00 -4.224000e+00 1.015226e+00 6.829677e+00 5.951098e+00 6.135576e+00 2.843852e+00 9.570861e+00 4.528193e+00 5.701955e+00 3.521600e+00 1.638061e-02 2.297669e-02 -5.292155e-01 -1.341318e+00 -1.123065e+00 4.085074e-01 -4.465342e-01 -8.259112e-01 7.197890e-01 -3.771274e-02 6.638098e-01 -2.330165e-01 -5.764852e-02 5.701542e-04 
-7.839627e+00 1.022443e+00 -3.380361e+00 -5.043399e-01 3.291400e+00 5.335061e+00 3.923640e+00 5.727454e+00 1.029229e+01 5.934196e+00 8.750078e+00 6.129682e+00 3.046089e-02 5.398693e-02 1.531708e-01 -7.141101e-01 -8.661687e-01 3.540819e-02 -4.093709e-01 -4.348652e-01 1.344655e+00 3.166947e-01 -4.635584e-01 -6.525983e-01 1.081424e-01 9.266043e-03 
-6.723218e+00 2.199917e+00 -5.361526e+00 -2.710868e+00 3.398555e+00 4.099336e+00 4.565484e+00 9.096900e+00 1.030619e+01 4.115354e+00 3.564404e+00 6.067498e+00 3.111202e-02 8.719635e-03 8.845973e-02 7.392557e-01 4.155680e-01 -1.068348e+00 -9.831218e-01 -1.765116e-01 1.156413e-01 2.494758e-01 3.449634e-01 -2.802602e-01 3.061340e-01 2.585411e-03 
-6.936090e+00 4.006353e+00 -3.227164e+00 3.361697e-01 3.730036e+00 3.301487e+00 4.550991e+00 9.386278e+00 1.458598e+01 4.862752e+00 5.455132e+00 6.154748e+00 4.831201e-02 2.227253e-01 7.837577e-01 4.126701e-01 3.278550e-01 -6.610872e-01 -1.331217e+00 -3.747833e-01 -1.526781e+00 -1.953251e+00 -7.791769e-01 -1.110511e+00 -1.362851e+00 3.163218e-04 
-7.044938e+00 2.700032e+00 -6.043199e-01 2.672811e+00 1.268619e+00 2.052277e+00 4.939342e+00 1.592646e+00 8.671398e+00 6.788732e+00 5.948127e+00 5.039737e+00 2.038211e-02 2.789925e-01 2.257323e-01 6.975307e-01 6.400865e-01 -1.004092e+00 -1.698507e-01 -3.957014e-01 -1.674386e+00 -1.943369e+00 -8.258755e-01 -6.657614e-01 -1.563947e+00 -2.220750e-03 
-6.565141e+00 4.691174e+00 -3.695614e+00 -1.556905e+00 1.050932e+00 -2.974939e-01 1.862793e+00 1.845674e+00 1.343436e+00 7.016221e-01 2.005660e+00 -1.706950e-01 3.740746e-02 7.379570e-02 -7.337795e-01 -2.912594e-01 -8.357022e-01 -1.226750e+00 -5.920041e-01 -9.684342e-01 -1.554672e+00 -2.291391e+00 -1.368613e+00 -4.541141e-01 5.973797e-02 -4.119158e-03 
-5.513730e+00 2.986168e+00 -1.639647e+00 1.436101e+00 -2.823510e-01 5.049573e+00 3.931075e+00 4.495270e+00 7.210618e+00 2.066541e+00 1.960334e+00 1.410482e+00 2.546054e-02 -1.540920e-01 -6.526915e-01 -1.135479e+00 -2.199619e+00 -3.481811e-01 -4.981508e-02 -9.754899e-01 -3.130355e-01 -8.372334e-01 -1.320919e+00 -9.183170e-01 3.286286e-01 3.268606e-03 
-7.332715e+00 1.943876e-01 -4.165797e+00 -3.223987e+00 -1.628228e+00 -1.157182e+00 2.129531e-01 1.616068e-01 3.859412e+00 3.807819e-01 5.178458e+00 8.268065e+00 2.517700e-02 -3.650822e-01 -7.313615e-01 -9.108993e-01 -2.079751e+00 7.823662e-02 2.244550e-01 -4.996223e-01 -5.578111e-01 -2.157621e-02 -2.436117e-01 -6.661226e-01 6.321408e-01 2.824563e-03 
-7.431611e+00 1.684967e+00 -6.046622e+00 -7.491741e+00 8.672934e-01 2.233045e+00 8.868132e-01 8.695021e-01 3.227243e+00 3.445561e-01 -2.298573e-01 2.463500e+00 4.284036e-02 -3.934658e-01 -1.111824e-01 -1.069478e+00 -2.212344e+00 4.794810e-01 -2.242829e-01 -5.414664e-01 -6.543641e-01 -8.598920e-01 -3.480196e-01 -9.788696e-01 -3.698530e-01 5.242300e-03 
