-4.722393e+00 5.697552e+00 5.326074e+00 9.909031e+00 7.087964e+00 8.470292e+00 5.042268e+00 4.801337e-01 7.684516e+00 8.706469e+00 1.130820e+00 3.970680e+00 1.361107e-01 -4.172506e-02 -4.950038e-01 -6.170408e-01 -5.996323e-01 -1.518301e+00 -8.667587e-01 -7.021274e-02 5.680634e-01 -1.935721e+00 -1.181204e+00 -1.290615e+00 -5.341064e-01 -3.267318e-03 
-5.143607e+00 4.538425e+00 5.786228e+00 7.964246e+00 3.190276e+00 6.262377e+00 4.195258e+00 1.242630e+00 1.825400e+00 6.627257e+00 1.112863e+00 3.538577e+00 1.044051e-01 1.113655e-01 -5.242975e-01 -1.026693e+00 -9.357945e-01 -1.599636e+00 -1.506793e+00 8.556584e-01 3.068042e-01 -2.769473e+00 -2.279958e+00 -9.454444e-01 -1.183726e+00 -7.203758e-04 
-4.720411e+00 3.802096e+00 2.010793e+00 7.883261e+00 1.445301e+00 5.240456e+00 5.114709e+00 2.939202e+00 9.354682e-01 3.840054e+00 -5.313278e+00 1.516199e+00 1.356269e-01 -9.805336e-02 -1.591311e+00 -3.916259e-01 -6.408154e-01 -9.195698e-01 -7.962301e-02 2.062417e+00 -1.602040e-02 -2.131588e+00 -2.183755e+00 -6.654552e-02 2.678277e-01 -4.933119e-03 
-4.166556e+00 4.023793e+00 1.850250e+00 6.242943e+00 1.911113e+00 2.551246e+00 9.284340e+00 7.846203e-01 -2.788323e+00 -2.601175e-01 -3.743520e-01 -7.207085e-01 1.327507e-01 -2.921820e-01 -2.573980e+00 -2.257504e-01 -3.897484e-01 1.163955e-01 1.496769e+00 2.540892e+00 -1.335315e+00 -9.590591e-01 -1.491310e+00 9.862155e-01 1.431148e+00 -1.083404e-03 
-5.701185e+00 -2.001686e+00 5.335933e+00 7.565605e+00 3.129696e+00 9.927742e+00 1.280981e+01 6.290366e-01 -6.665626e-01 1.231381e+00 1.541700e+00 7.439461e+00 9.727228e-02 -1.078095e+00 -2.419798e+00 -9.552205e-02 -1.162219e+00 -4.417745e-01 4.932196e-01 7.366000e-01 -1.683602e-01 9.949595e-01 3.077672e-01 2.399956e+00 1.305410e+00 -1.406177e-02 
-6.114130e+00 -5.429582e+00 2.994905e+00 6.174333e+00 2.930056e+00 1.140258e+01 1.305217e+01 -4.278860e+00 -2.168880e+00 4.750423e-01 2.616451e+00 7.732685e+00 1.181654e-01 -1.143086e+00 -8.972551e-01 -3.406893e-01 -1.141443e+00 -4.444955e-01 -7.697104e-01 -1.941344e+00 8.519920e-01 2.316296e+00 2.471158e+00 2.022400e+00 7.235163e-01 -1.322624e-02 
-9.137100e+00 -3.570208e+00 9.608550e-01 2.106469e+00 -1.273043e+00 3.280889e+00 6.913795e+00 4.629141e+00 5.600543e+00 5.011310e+00 5.191099e+00 3.816553e+00 7.261068e-02 -5.596130e-01 1.401154e+00 -4.276175e-01 -1.741969e+00 -8.586141e-01 -2.492104e+00 -2.972881e+00 9.048599e-01 1.966079e+00 2.891016e+00 6.556247e-01 -5.243492e-01 -9.198451e-03 
-8.164030e+00 3.217782e-01 2.334343e+00 3.265298e+00 1.890005e+00 2.026121e+00 2.525630e+00 3.044528e+00 5.659604e+00 1.020571e+01 7.912948e+00 4.708327e+00 7.895029e-02 -3.906498e-01 1.546514e+00 5.054564e-02 -1.102450e+00 -2.115152e-01 -1.567532e+00 -1.807797e+00 1.979324e+00 2.655652e+00 2.737531e+00 2.005368e-01 2.865448e-01 -9.617942e-03 
-7.474300e+00 2.128404e+00 3.528127e+00 3.102758e-01 -6.433496e-01 2.155450e+00 3.208675e+00 1.491642e+00 5.249588e+00 1.082113e+01 2.171576e+00 6.329894e+00 7.088757e-02 -1.170162e-01 4.852896e-01 1.762837e-01 5.693220e-02 -9.413762e-02 -3.170051e-01 -2.208006e-01 -1.784319e-01 1.048910e+00 5.866665e-01 3.761298e-01 1.297206e+00 2.943724e-03 
-8.898779e+00 -5.463185e-01 1.963998e+00 1.560180e+00 1.557633e+00 4.127638e+00 5.865742e+00 7.186510e+00 1.128485e+01 1.125779e+01 5.128897e+00 7.908738e+00 7.093722e-02 -2.703356e-01 -3.507954e-01 2.364953e-01 3.331245e-01 -4.092259e-01 -2.861713e-02 5.673534e-01 -9.788276e-01 4.930632e-01 -1.169688e+00 1.805162e-01 -4.777052e-01 5.324167e-03 
-9.354807e+00 -7.097113e-01 2.027446e+00 3.243689e+00 -1.577545e+00 6.451049e-01 4.139737e+00 1.665991e+00 8.032470e+00 7.418602e+00 8.463774e+00 8.702376e+00 9.133583e-02 -1.307154e-01 -3.182227e-01 4.082223e-01 1.486238e+00 1.112738e+00 -2.315271e-01 -4.399044e-02 -1.381881e+00 -5.145206e-01 -1.922933e+00 1.954702e-02 -1.326180e+00 4.746807e-03 
-8.575455e+00 -1.314104e-02 4.267160e+00 3.464214e+00 3.109734e-01 2.638208e+00 4.896866e+00 -1.936784e+00 6.733479e+00 6.058528e+00 5.669430e+00 1.133560e+00 9.534699e-02 5.337822e-01 3.299156e-01 1.212836e+00 1.458982e+00 6.109303e-01 -4.349041e-01 -4.683971e-01 -2.053259e+00 -2.968979e+00 -2.136193e+00 -1.936726e+00 -2.443041e+00 -1.735449e-04 
-8.289539e+00 2.707021e-01 4.417657e+00 6.789446e+00 5.543672e+00 1.742529e+00 3.473161e+00 -8.561145e-01 4.952672e+00 3.806091e+00 1.999045e+00 3.086581e+00 8.241671e-02 8.435815e-01 -9.045645e-01 1.108267e+00 2.528584e+00 -7.604141e-01 -1.831621e+00 -1.733244e+00 -1.752322e+00 -2.665698e+00 -5.371917e-01 -3.077057e+00 -3.026186e+00 1.142376e-02 
-6.762502e+00 6.130527e-01 6.833074e+00 7.082211e+00 1.051676e+00 1.404405e+00 3.857044e+00 -1.818731e+00 -2.020140e+00 2.383077e+00 -1.322370e+00 -1.498572e+00 7.452905e-02 5.100438e-01 -5.510574e-01 -2.423699e-01 1.208657e+00 -1.434019e+00 -2.214385e+00 -2.219684e+00 -1.491081e+00 -2.158509e+00 -7.970243e-01 -2.216449e+00 -1.619370e+00 6.423533e-03 
-6.043376e+00 -5.545630e+00 6.285822e+00 1.407761e+01 -5.749967e+00 -7.896099e+00 -4.006571e+00 -7.154647e+00 -9.192104e-01 6.570369e+00 -3.425611e+00 -5.112490e+00 1.588636e-01 -2.381207e-01 7.887851e-02 -8.922819e-01 -6.622685e-01 -9.840770e-01 -1.224568e+00 -1.150241e+00 -6.236479e-01 2.789176e-01 4.275683e-01 6.181667e-01 -7.524301e-02 7.823581e-03 
-7.148317e+00 1.397384e-01 2.121228e+00 5.863418e+00 -1.212303e+00 -3.614399e+00 -2.461686e+00 -6.242920e+00 -1.123125e+00 6.912675e-01 -2.700487e+00 -2.863755e+00 8.924121e-02 -7.594099e-02 9.177636e-01 -1.118421e+00 -1.741779e+00 1.382950e+00 8.210378e-01 -2.847533e-02 3.767733e-01 2.091846e+00 7.416903e-01 1.608052e+00 1.263999e+00 -2.716142e-03 
-9.287235e+00 9.017517e-01 2.312171e+00 4.087500e+00 1.755276e+00 -1.870909e+00 8.813233e-01 -1.762259e+00 5.898753e+00 6.789837e+00 5.778937e+00 3.392958e+00 1.141785e-01 1.483229e-01 1.624834e+00 1.088476e-02 -1.670726e+00 2.654550e+00 2.532422e+00 5.963618e-01 8.379849e-01 8.679940e-01 3.145643e-01 2.907954e+00 2.069520e+00 -1.346906e-02 
-5.520277e+00 1.978179e+00 3.227795e+00 3.368370e+00 4.213806e+00 2.497000e+00 1.270720e+00 -2.631059e+00 5.030110e+00 5.981794e+00 2.115614e+00 5.687006e-01 8.329087e-02 8.916124e-01 7.228315e-01 5.652593e-01 -1.146288e+00 1.010580e-02 1.658590e+00 -8.192896e-01 7.066992e-01 -7.381116e-01 -1.037348e-01 1.015278e+00 4.279106e-01 5.944091e-03 
-6.115782e+00 1.659317e+00 5.786963e+00 6.971506e+00 4.809731e+00 1.710310e+00 -2.890965e+00 -4.770653e+00 3.441424e-01 5.497927e+00 8.706109e+00 3.518883e+00 9.449345e-02 1.108365e+00 -4.201957e-01 1.485295e+00 -1.336690e+00 -3.005882e+00 1.593582e+00 -5.405626e-02 -1.217558e+00 -1.631795e+00 -1.290288e+00 -9.371065e-01 2.619632e-01 2.261429e-02 
-4.275982e+00 3.375113e+00 3.210129e+00 -1.310027e+00 -2.689001e+00 2.887940e+00 -4.671989e+00 -1.205227e+00 -2.036377e+00 8.185487e-01 9.123155e-01 -7.871648e-01 1.288042e-01 8.173208e-01 -2.420519e+00 2.158919e+00 -1.368987e+00 -4.377283e+00 1.292786e+00 9.057999e-01 -1.496650e+00 -1.827371e-01 -1.748374e+00 -8.425191e-01 1.487251e+00 9.312506e-02 
-4.367558e+00 -1.897694e+00 9.747480e+00 -2.567511e-01 -9.822730e+00 5.901530e+00 3.582397e+00 -8.562966e+00 1.273023e+00 2.920019e+00 1.695054e+00 5.380707e+00 2.044933e-01 1.017571e+00 -2.030095e+00 1.818009e+00 1.944479e-01 -2.509814e+00 5.465279e-01 1.159752e+00 -4.688190e-01 1.300358e+00 -2.354056e+00 -1.929785e+00 1.127273e+00 6.739275e-02 
-2.307785e+00 -8.345912e+00 1.204213e+01 1.375647e-01 -1.035638e+01 6.865318e+00 2.563038e+00 -8.218153e+00 3.651984e+00 -1.471120e+00 1.408546e+00 7.074045e+00 4.939162e-01 5.186723e-01 -1.000398e+00 -9.966311e-01 2.680222e+00 1.798895e+00 -1.062187e+00 1.633589e+00 1.112694e+00 1.197140e+00 -1.399994e-01 -3.322929e-01 -4.972962e-01 6.125772e-03 
-2.012026e+00 -2.630646e+00 1.046101e+01 7.219950e+00 -3.905648e+00 2.454260e+00 -7.097187e-01 -3.608285e+00 4.001752e+00 -5.127519e+00 -1.190931e+00 5.224645e+00 2.489012e-01 9.121420e-01 1.630999e+00 -2.433549e+00 3.187830e+00 3.827046e+00 -1.811838e+00 3.700830e-01 1.391645e+00 -5.151774e-01 4.664771e-01 -7.241396e-01 -2.980850e+00 -4.965491e-02 
-2.860386e+00 -1.260400e+00 -2.129792e+00 8.352732e+00 3.346933e+00 -6.993606e-01 5.642012e+00 1.880900e+00 2.584960e+00 4.142321e+00 6.938436e-01 -3.195615e+00 1.372291e-01 6.972419e-01 2.270213e+00 -2.433603e+00 1.441046e+00 2.551279e+00 -1.094536e+00 4.766142e-01 3.342343e-01 -1.691798e+00 1.946944e+00 -2.798184e-01 -2.557828e+00 -7.217671e-02 
4.694529e-01 2.714546e+00 4.665695e+00 1.157482e+01 2.460845e+00 6.246819e-01 3.893326e+00 -6.654265e+00 -7.693520e-01 2.445684e+00 -1.568293e+00 -4.388714e+00 1.345623e-01 3.139095e-02 5.850554e-01 -1.144082e+00 -7.196428e-01 -5.103154e-01 3.974831e-01 -9.242054e-01 -6.645449e-01 -6.513177e-01 2.210264e+00 1.036911e+00 1.330786e-02 1.556351e-02 
-6.231499e-02 3.325552e-01 2.771770e+00 5.165361e+00 -7.832341e-01 2.307429e+00 2.644587e+00 -5.023991e+00 -2.421454e+00 4.476996e+00 1.981350e-01 -9.084167e-01 1.902021e-01 -1.773429e+00 -8.805629e-01 1.248026e+00 -8.356125e-01 -2.765181e+00 9.409233e-01 -2.594207e+00 -9.146263e-01 -1.635706e-01 7.430381e-01 1.298473e+00 2.743655e+00 7.549419e-02 
-3.254107e+00 -5.018468e-01 2.289820e+00 5.215421e+00 -4.392141e+00 2.938281e+00 -3.832033e+00 -3.478564e+00 3.248371e+00 5.756461e+00 4.241478e+00 4.147585e+00 3.002322e-01 -3.478099e+00 -1.869926e+00 2.412778e-01 -6.605712e-01 -1.465855e+00 1.464079e+00 -6.359039e-01 1.017731e+00 5.432042e-01 8.628254e-01 1.324984e+00 2.116802e+00 9.249866e-02 
-9.865751e+00 -4.055018e+00 5.298276e+00 7.354367e+00 -7.052478e+00 2.848457e+00 -3.466342e+00 -4.280082e+00 -2.417550e-01 6.202123e+00 4.281323e+00 6.254513e+00 4.318651e-01 -3.629903e+00 -1.698381e+00 -2.212688e-01 1.084692e+00 -1.909370e-01 1.127893e+00 9.907885e-02 7.960339e-01 8.111870e-02 5.285353e-01 1.239305e+00 6.675878e-01 9.616462e-02 
-1.201933e+01 -4.441296e+00 4.608831e+00 7.177458e+00 -1.733809e+00 7.674565e+00 3.769271e+00 -1.937565e+00 8.568196e-01 5.897248e+00 3.015032e+00 2.613829e+00 4.762241e-01 -2.912660e+00 -1.670323e+00 -3.160474e-01 2.055867e+00 1.190814e+00 8.349525e-01 1.275191e+00 7.246832e-01 -2.677354e-01 7.974523e-01 -3.512363e-01 -1.350018e+00 7.591884e-02 
-1.382922e+01 -6.189624e+00 5.059204e-01 9.607803e+00 -3.067085e+00 5.578751e+00 -6.606708e-01 -1.814322e+00 -8.200850e-01 7.049279e+00 7.007881e+00 3.196400e+00 5.830293e-01 -5.883175e-01 -1.235850e+00 -1.965277e+00 5.319080e-01 3.411113e-01 -2.667123e-02 7.256031e-01 1.063941e+00 1.505127e+00 1.032024e+00 -9.662580e-02 -1.208084e+00 5.588416e-02 
-1.583567e+01 -7.786159e+00 3.105761e+00 1.436804e+01 -4.307694e-01 5.747896e+00 1.141088e+00 -1.088028e+00 2.198859e+00 9.320144e+00 1.122018e+00 -1.073448e+00 6.042444e-01 9.823677e-01 -2.087173e+00 -1.547027e+00 -1.188324e+00 -1.021439e+00 -1.549345e+00 -5.425307e-01 9.286192e-01 2.309047e+00 2.034211e+00 7.646791e-01 6.987409e-01 7.828961e-02 
-1.089916e+01 -8.561836e+00 -3.776576e+00 6.418616e+00 -5.998441e+00 3.678435e+00 1.475765e+00 6.148528e-01 6.612861e+00 9.650797e+00 4.744701e+00 2.057733e+00 6.472758e-01 8.030533e-01 -1.318723e+00 -1.448939e+00 -1.300902e+00 -8.415174e-01 -4.269215e-01 3.243057e-01 1.366595e+00 3.274149e+00 2.112727e+00 1.674994e+00 1.557656e+00 7.130671e-02 
-8.572514e+00 -1.369106e+01 -9.850578e-01 2.830429e+00 -5.375326e+00 8.779961e-01 -1.160049e-02 1.490944e+00 8.685583e+00 1.476755e+01 7.970016e+00 6.676867e+00 8.355489e-01 -2.653168e-01 3.569792e-01 -1.704459e+00 -1.310259e+00 3.457250e-02 6.368227e-02 -7.000333e-01 2.144430e-01 1.317147e-01 2.351575e-01 1.938406e+00 1.843489e+00 7.173847e-02 
-1.344553e+01 -9.830792e+00 -4.693367e+00 8.872096e+00 -4.802394e+00 5.879093e+00 1.537202e+00 3.729167e+00 1.230730e+01 1.488921e+01 1.195885e+01 7.109522e+00 8.239105e-01 -5.005369e-01 1.691004e+00 -6.330485e-01 2.882832e-01 8.704960e-01 -1.175387e-01 -1.065032e+00 -1.754002e+00 -1.490778e+00 -1.029442e+00 -5.387415e-01 4.744517e-01 5.994847e-02 
-1.588907e+01 -5.366785e+00 -4.958140e+00 6.590006e+00 -8.559303e-01 4.965979e+00 -2.389797e+00 -1.572971e+00 1.021338e-02 7.876724e+00 7.206970e+00 5.618105e+00 8.746194e-01 -6.314200e-01 1.420138e+00 -8.895315e-01 1.155629e-01 9.400867e-01 -6.910368e-01 -1.217624e+00 -1.990186e+00 -1.491831e+00 -2.383109e+00 -2.639806e+00 -7.405131e-01 2.173692e-02 
-9.743568e+00 -4.268952e+00 -4.955277e+00 5.980244e+00 -3.905659e+00 1.046750e+00 -2.660296e+00 -6.623198e+00 3.496656e+00 7.948996e+00 2.432517e+00 4.959373e+00 9.274829e-01 5.391766e-01 -7.962548e-01 -6.978474e-01 -1.447656e+00 2.991444e-01 -1.148349e+00 -1.290029e-01 -1.470115e+00 -1.731605e+00 -1.855156e+00 -2.845221e+00 -1.306103e+00 -1.086869e-02 
-1.358060e+01 -9.371286e+00 -5.301760e+00 4.854170e+00 -1.123260e+00 -1.610165e-01 -4.000973e+00 -3.283804e+00 5.631751e+00 6.322107e+00 -4.658477e-01 4.049376e+00 8.924473e-01 2.857691e+00 -3.660516e-01 7.804352e-01 -1.047410e+00 -1.432479e-01 1.445692e-01 8.506012e-01 -5.257159e-01 -1.588218e+00 -2.510679e+00 -1.153917e+00 -1.161770e+00 -7.279816e-02 
-1.190389e+01 -1.180982e+01 -8.010794e+00 2.501734e+00 -3.173007e+00 2.700845e+00 1.697775e+00 -2.765993e+00 8.385057e-01 6.390738e+00 1.569160e+00 1.363368e+00 7.606531e-01 5.517673e+00 1.693993e+00 8.321642e-01 -3.695885e+00 -1.598307e+00 -2.347009e-01 4.810423e-01 7.109645e-01 -4.464818e+00 -4.325906e+00 -1.817711e+00 -1.861108e+00 -5.589950e-02 
-5.204611e-01 -3.426611e+00 4.717941e-01 3.092213e+00 -1.938496e+00 4.861777e+00 -3.158274e-01 -6.130153e+00 -6.601802e+00 -3.897542e+00 1.869064e+00 1.607258e+00 5.940434e-01 7.742143e+00 3.357564e+00 1.091740e+00 -5.998314e+00 -2.597704e+00 -7.740034e-01 -4.631048e-01 1.900515e+00 -6.853476e+00 -3.623756e+00 -2.029672e+00 -1.430706e+00 7.790494e-03 
1.131473e+01 1.228678e+00 -3.681233e+00 -1.161820e+01 -1.148958e+01 -2.638152e+00 -2.097658e+00 -1.645201e+00 -1.271066e+01 -8.570707e+00 -7.823491e+00 -3.125108e+00 7.971873e-01 6.332587e+00 2.954468e+00 1.051345e+00 -6.794746e+00 -2.025265e+00 -2.438511e+00 -9.791991e-01 2.975456e+00 -6.362583e+00 -2.491374e+00 -2.342634e+00 -4.701157e-01 7.250987e-02 
1.352081e+01 8.972899e-01 -2.007838e+00 -1.807743e+01 -9.953498e+00 -1.361536e+00 -4.418780e+00 5.658373e+00 -2.186105e+01 -4.315950e+00 -5.917881e+00 -8.599138e-01 9.131327e-01 2.714149e+00 9.633603e-01 -1.527217e-01 -5.480607e+00 -1.237939e+00 -2.290796e+00 6.537160e-01 3.703645e+00 -3.833763e+00 -3.620090e-01 -9.409939e-01 -3.754835e-01 9.783836e-02 
1.273841e+01 8.005738e-01 -1.514254e+00 -2.088717e+01 -9.291831e+00 -6.380053e+00 -1.146744e+00 6.217024e+00 -2.334479e+01 -5.856930e+00 -6.250537e+00 2.463759e-01 9.636579e-01 2.016896e-01 3.317471e-01 5.541781e-01 -1.607833e+00 1.185779e-01 -1.411822e+00 2.179057e+00 2.685318e+00 -1.204287e+00 -8.376495e-01 1.524167e+00 -3.120531e-01 4.784419e-02 
1.233845e+01 1.604242e+00 -1.375304e+00 -1.967633e+01 -9.227060e+00 -4.721251e+00 2.477296e+00 8.456957e+00 -2.045355e+01 -7.064476e+00 -3.622383e+00 -1.955901e+00 1.000000e+00 9.260464e-02 7.794912e-01 2.796142e-01 -7.294254e-02 -8.337657e-01 -1.168104e+00 2.150091e+00 1.071552e+00 1.358693e+00 -2.004396e+00 5.519021e-01 -9.196534e-01 1.226754e-02 
1.291436e+01 2.533937e+00 -1.226609e+00 -1.885792e+01 -1.125990e+01 -8.017401e+00 5.349586e+00 1.038210e+01 -1.943584e+01 -1.138469e+01 -1.350406e+00 -4.137380e+00 9.929746e-01 4.271116e-01 1.177800e+00 6.557745e-01 -4.034916e-01 -8.732761e-01 -7.323992e-01 3.558398e-01 -6.018737e-01 2.433537e+00 -2.041004e+00 -7.302108e-02 -9.028076e-01 -1.421835e-02 
1.389586e+01 3.928065e+00 -7.535892e-01 -1.945678e+01 -1.313829e+01 -6.383380e+00 3.083511e+00 8.933595e+00 -1.702206e+01 -1.157405e+01 -5.608436e+00 -3.266303e+00 9.598120e-01 6.421350e-01 1.435049e+00 8.636203e-01 1.444054e-02 -3.099701e-01 -6.462053e-01 -1.076085e+00 -1.731844e+00 2.787901e+00 -7.932413e-01 -4.919332e-01 -8.017497e-02 -3.279721e-02 
1.409526e+01 5.527661e+00 1.453761e+00 -2.301441e+01 -1.170260e+01 -9.210985e+00 3.293476e-01 2.969336e+00 -1.289285e+01 -1.380716e+01 -5.622616e+00 -3.612461e+00 9.126601e-01 7.087678e-01 1.464006e+00 1.097086e+00 6.727644e-01 6.451607e-04 2.395201e-02 -1.173903e+00 -1.966416e+00 2.899127e+00 2.279395e-01 2.180717e-01 -9.158576e-02 -3.715834e-02 
1.495867e+01 7.282627e+00 1.602612e+00 -1.752588e+01 -1.055556e+01 -7.355486e+00 -3.930082e-01 3.504120e+00 -9.785542e+00 -9.819447e+00 -3.945944e+00 -2.619235e+00 8.761712e-01 5.525103e-01 1.161158e+00 1.146077e+00 1.460043e+00 -3.549867e-01 -3.580647e-02 -6.085960e-01 -1.086238e+00 1.857476e+00 3.886341e-01 1.768151e+00 -5.888034e-01 -3.300828e-02 
1.592679e+01 8.176687e+00 3.080722e+00 -1.645954e+01 -1.254804e+01 -7.411588e+00 1.218330e+00 3.264756e+00 -8.558461e+00 -1.112230e+01 -1.091293e+00 -4.918842e+00 8.490033e-01 4.668852e-01 9.882423e-01 8.275511e-01 2.018378e+00 -5.298398e-01 4.761627e-01 1.336255e-01 4.218165e-01 1.249918e+00 5.777534e-01 2.001735e+00 -5.313685e-01 -2.574335e-02 
1.574264e+01 8.409341e+00 4.163317e+00 -1.543399e+01 -1.449050e+01 -7.462111e+00 -4.039602e-01 3.354696e+00 -9.901873e+00 -1.097331e+01 9.666581e-01 -5.557129e+00 8.265990e-01 2.418039e-01 6.722623e-01 5.531552e-01 9.738747e-01 -9.264717e-02 7.401142e-02 -3.931179e-02 1.007949e+00 9.172407e-01 -6.459038e-01 1.510302e+00 -3.615125e-01 -2.070950e-02 
1.603770e+01 9.905515e+00 4.311164e+00 -1.396847e+01 -1.238433e+01 -6.776859e+00 1.002951e+00 5.153131e+00 -6.585093e+00 -1.034146e+01 1.929759e+00 -4.800356e+00 8.087295e-01 -5.338831e-02 2.442281e-01 -1.470343e-01 4.614080e-01 1.054199e+00 5.733204e-02 -1.126898e-01 1.065105e+00 7.589323e-01 -8.115444e-01 3.435702e-01 2.378359e-01 -1.524342e-02 
1.611224e+01 9.779524e+00 3.753167e+00 -1.390205e+01 -1.110066e+01 -7.302794e+00 -4.818778e-01 7.599679e+00 -6.186022e+00 -1.343938e+01 2.095039e+00 -4.486041e+00 7.927607e-01 -1.715136e-02 -3.214635e-01 -8.962825e-01 5.280934e-02 1.327821e+00 3.362213e-01 1.198587e+00 4.067805e-01 4.793262e-01 -1.036883e+00 -4.544672e-01 9.617049e-01 -4.274326e-03 
1.547506e+01 8.712736e+00 2.550626e+00 -1.491847e+01 -8.971971e+00 -7.204587e+00 6.938396e-01 6.467790e+00 -6.621725e+00 -1.394698e+01 6.236744e-02 -4.265207e+00 7.897054e-01 -9.493198e-02 -1.076116e+00 -2.002768e+00 -1.028675e-01 1.414670e+00 -3.296098e-01 2.055187e+00 -5.613007e-01 -4.840522e-01 -1.571564e+00 -1.224095e+00 1.556272e+00 9.692991e-03 
1.593821e+01 7.398413e+00 5.621738e-01 -1.469494e+01 -9.557576e+00 -5.567141e+00 5.743533e+00 4.731269e+00 -7.486926e+00 -1.435497e+01 -3.719821e-01 -1.016180e+00 8.147394e-01 -1.038315e-01 -1.684191e+00 -2.089554e+00 -2.411173e-01 2.425500e+00 1.610866e-01 2.008239e+00 -5.626920e-01 -8.513269e-01 -9.137300e-01 -1.035068e+00 2.208766e+00 1.632635e-02 
1.565005e+01 5.715493e+00 -4.107181e+00 -1.408636e+01 -6.082517e+00 -9.292734e+00 8.166181e+00 3.780832e+00 -8.354902e+00 -1.774149e+01 -2.957205e+00 1.246075e+00 8.462051e-01 1.092819e-01 -2.036077e+00 -2.138842e+00 6.640110e-02 2.831216e+00 8.335114e-01 2.922199e-01 -1.004964e-01 -1.069411e+00 -9.081305e-01 -1.290691e-01 2.423034e+00 1.370096e-02 
1.550558e+01 2.857190e+00 -3.365700e+00 -1.552369e+01 -4.178848e-01 -5.453287e+00 5.823145e+00 6.129697e+00 -9.576068e+00 -1.611078e+01 -1.570513e+00 3.802151e+00 8.461426e-01 2.439938e-02 -1.827131e+00 -2.401374e+00 3.179857e-01 3.751538e+00 8.168507e-01 -1.722443e+00 2.055691e-01 -9.904662e-01 -5.496502e-02 7.145882e-03 1.933761e+00 1.000528e-02 
1.623778e+01 8.029605e-01 -6.179646e+00 -1.417209e+01 6.142652e-01 -3.093956e+00 2.115133e+00 5.266094e+00 -1.092421e+01 -1.760973e+01 1.628757e-02 5.440796e+00 8.425086e-01 -7.141433e-02 -1.511610e+00 -1.991021e+00 6.759670e-01 3.820781e+00 1.325666e+00 -2.593598e+00 5.806128e-01 1.171652e-01 6.130759e-01 8.148974e-01 1.240031e+00 7.224202e-03 
1.576634e+01 7.190239e-01 -1.040847e+01 -1.306215e+01 5.851722e+00 -4.582276e+00 1.568437e-01 5.016484e+00 -1.115460e+01 -1.469567e+01 -1.822999e+00 6.555265e+00 8.666140e-01 -1.698007e-01 -9.559286e-01 -2.362175e+00 1.440642e+00 2.830616e+00 9.669866e-02 -2.964745e+00 6.068425e-02 1.897451e+00 7.365907e-01 4.805067e-01 -1.128341e+00 3.892243e-04 
1.516260e+01 -7.734728e-01 -1.054090e+01 -1.193729e+01 9.886585e+00 -3.099911e+00 -1.968658e+00 7.240503e+00 -6.979808e+00 -1.538367e+01 1.243525e+00 6.069674e+00 8.720903e-01 -1.586283e-01 -4.448146e-01 -2.061439e+00 1.935391e+00 1.831447e+00 3.024561e-01 -2.837925e+00 -8.580908e-01 2.820613e+00 1.736650e+00 -1.012977e-01 -3.147648e+00 -1.437845e-02 
1.519417e+01 -1.134236e+00 -1.299595e+01 -9.437882e+00 9.099036e+00 -4.966816e+00 -6.958686e+00 5.445914e+00 -2.061010e+00 -1.354086e+01 2.184018e-01 -2.153992e+00 8.332978e-01 1.258419e-01 -1.400165e-01 -1.823159e+00 1.424767e+00 9.397065e-01 1.075082e+00 -3.304960e+00 -1.822941e+00 3.289346e+00 1.863145e+00 -2.703929e-01 -3.531548e+00 -1.795409e-02 
1.573073e+01 -4.944826e-01 -1.519310e+01 -6.307271e+00 8.147844e+00 -1.389406e+00 -8.516730e+00 7.609246e-01 -1.367939e+00 -9.503889e+00 -1.510901e+00 -5.942813e+00 7.872745e-01 3.850351e-01 1.515978e-01 -1.349876e+00 1.118777e+00 1.123336e+00 1.068048e+00 -3.053566e+00 -2.779503e+00 2.207760e+00 2.809498e+00 -9.958035e-01 -3.164491e+00 -1.526579e-02 
1.611149e+01 -1.205537e-01 -1.719816e+01 -8.753324e+00 1.141962e+01 -6.212020e-02 -1.309392e+01 -8.584327e-01 2.486189e+00 -8.319833e+00 -1.797750e+00 -5.096233e+00 8.192515e-01 4.411138e-01 -4.575854e-02 -1.413404e-01 1.909558e-01 1.671547e+00 1.139437e+00 -2.984946e+00 -2.340865e+00 1.270240e+00 1.885745e+00 -1.068639e+00 -1.645105e+00 -7.967222e-03 
1.662911e+01 -5.223248e-01 -1.518917e+01 -6.685688e+00 1.434297e+01 -2.120206e-01 -1.416887e+01 -3.504838e+00 1.785391e+00 -3.946686e+00 -2.727417e+00 -8.281662e+00 8.027846e-01 3.981383e-01 -6.928647e-01 9.513262e-01 1.393984e-01 1.035507e+00 -1.596086e-01 -2.841065e+00 -1.442936e+00 8.414981e-01 3.185353e-01 -1.088281e+00 -9.436222e-01 -8.011704e-03 
1.695054e+01 -1.349108e+00 -1.370461e+01 -8.293895e+00 1.435921e+01 1.416740e-01 -1.905735e+01 -4.125527e+00 2.713522e+00 -6.890732e+00 -4.516535e+00 -9.210095e+00 7.857067e-01 1.424683e-01 -7.623422e-01 1.353328e+00 6.520098e-01 -1.046027e+00 -2.498040e-01 -1.444711e+00 -2.025549e+00 -2.766496e-01 -1.511824e-01 -1.610607e+00 -1.209444e+00 -1.912353e-02 
1.730190e+01 -3.344529e+00 -1.218324e+01 -5.839993e+00 1.185559e+01 -2.289346e+00 -1.974034e+01 -4.820209e+00 2.725885e+00 -8.625763e+00 -5.592915e+00 -8.603994e+00 7.639884e-01 -5.142484e-02 -5.609391e-01 6.477154e-01 6.655189e-01 -1.293262e+00 -2.048025e-01 -8.102995e-01 -1.631199e+00 4.348708e-01 -1.383293e+00 -2.048229e+00 -5.195098e-01 -1.683351e-02 
1.648744e+01 -2.521163e+00 -1.193449e+01 -5.916121e+00 7.433180e+00 -2.724776e-01 -1.753174e+01 -1.032849e+01 6.326942e-01 -6.736206e+00 -8.418037e+00 -1.098229e+01 7.430320e-01 -1.316662e-01 -5.629233e-01 -2.749199e-01 1.086329e+00 -1.131282e+00 -5.009854e-01 -9.995270e-02 -7.077950e-01 7.749926e-01 -1.301454e+00 -2.783643e+00 -1.840872e-01 -7.432854e-03 
1.660354e+01 -2.740993e+00 -1.283566e+01 -4.546980e+00 1.133968e+01 -1.028957e+00 -1.898317e+01 -8.559349e+00 5.000159e+00 -1.094042e+01 -1.101781e+01 -9.993114e+00 7.399544e-01 -3.260340e-01 -4.221075e-01 -5.336531e-01 1.427780e+00 -1.161472e+00 -3.909047e-01 1.912052e-01 -3.981148e-01 -7.271897e-01 -1.911810e+00 -3.143367e+00 2.518451e-01 -6.147206e-03 
1.664139e+01 -4.465493e+00 -1.475300e+01 -3.508759e+00 8.960752e+00 -2.993448e+00 -1.993570e+01 -5.794933e+00 5.451348e+00 -1.224068e+01 -1.572230e+01 -9.435971e+00 7.605594e-01 -1.078431e+00 -6.976010e-01 7.733494e-01 2.430695e+00 -2.020290e-01 1.075436e-01 8.874199e-01 -7.469003e-01 -2.183234e+00 -3.242217e+00 -2.820186e+00 8.908216e-01 -2.271328e-02 
1.559475e+01 -4.482902e+00 -1.344225e+01 9.522462e-02 5.284446e+00 -2.883385e+00 -1.758233e+01 -9.077563e+00 -3.319390e+00 -1.543258e+01 -1.765761e+01 -8.117928e+00 7.244886e-01 -2.023658e+00 -3.470508e-01 1.738486e+00 1.635965e+00 -1.287533e+00 3.530653e-01 1.999167e+00 -1.332137e+00 -4.309092e+00 -3.171736e+00 -1.392134e+00 9.476625e-01 -5.679322e-02 
1.159968e+01 -5.138213e+00 -7.764444e+00 3.916252e+00 9.450651e+00 1.192454e+00 -1.379506e+01 -1.380389e+01 -6.123701e+00 -2.070121e+01 -1.919906e+01 -7.465774e+00 6.371984e-01 -2.892655e+00 7.012488e-01 2.481503e+00 1.266904e+00 -6.359384e-01 3.606232e-01 2.211928e+00 -1.752508e+00 -3.476166e+00 -1.253358e+00 5.250025e-01 1.429902e+00 -9.496818e-02 
9.006103e+00 -4.139887e+00 -7.637511e+00 -7.965970e-02 4.657063e+00 -1.356582e+00 -1.205765e+01 -1.121556e+01 -1.075777e+01 -2.256883e+01 -1.624010e+01 -6.239900e+00 5.176687e-01 -3.452639e+00 8.290976e-01 2.594976e+00 1.406522e+00 -5.881206e-01 -8.153774e-01 9.074873e-01 -8.652215e-01 -1.013154e+00 2.197657e+00 2.400822e+00 2.005868e+00 -1.237533e-01 
5.472435e+00 -1.130756e+00 -5.247857e+00 2.913203e+00 6.094752e+00 -1.953733e+00 -1.163840e+01 -1.348848e+01 -8.210292e+00 -1.493935e+01 -1.380605e+01 -3.225476e+00 3.891285e-01 -3.492851e+00 1.216360e+00 1.705825e+00 7.096751e-01 -1.656839e+00 -5.437578e-01 1.742787e+00 1.060945e+00 7.513367e-01 3.882576e+00 3.449986e+00 1.369848e+00 -1.283327e-01 
1.395179e+00 -2.341142e+00 -1.725664e+00 7.629359e+00 4.021792e+00 -5.387178e+00 -1.412323e+01 -1.356138e+01 -7.341866e+00 -7.325227e+00 -8.350015e+00 -2.087337e-01 2.297569e-01 -3.523537e+00 9.429024e-01 1.542705e+00 3.969013e-02 -1.258493e+00 1.775079e+00 4.147052e+00 2.825827e+00 2.524137e+00 5.534010e+00 3.744550e+00 5.140725e-01 -1.100885e-01 
-2.059112e+00 4.421270e-02 -2.191245e+00 3.610117e+00 1.484089e+00 4.889632e-01 -4.048335e+00 -7.326252e+00 -4.074971e+00 -8.910132e+00 -5.894177e+00 -3.632117e+00 1.394908e-01 -3.085138e+00 3.512501e-01 1.981214e+00 -3.057588e-01 -1.550570e+00 1.239874e+00 4.670963e+00 3.861132e+00 2.273731e+00 3.713216e+00 2.994385e+00 8.823311e-02 -7.725830e-02 
-4.845812e+00 -1.285952e-02 -1.452290e+00 -2.296665e-01 6.699269e-01 6.297466e+00 4.882573e+00 -1.675302e-01 -2.047467e-01 2.086618e+00 -1.473283e+00 -3.466218e+00 9.204519e-02 -2.250799e+00 8.216724e-01 1.867276e+00 -2.652844e-01 -4.209226e-01 5.272895e-01 3.684694e+00 2.453655e+00 1.400864e+00 2.437677e+00 2.472457e+00 4.119228e-01 -3.587831e-02 
-6.832760e+00 -5.386468e-01 4.521528e+00 5.313922e+00 1.783276e-02 -1.596687e+00 2.213516e+00 -8.797396e-01 -4.101963e-01 -1.079189e+00 -2.272489e+00 -1.155569e+00 7.169282e-02 -1.506256e+00 7.214994e-01 1.743024e+00 4.468072e-01 5.329396e-01 -1.095859e+00 5.658838e-01 6.347286e-01 1.290124e+00 2.958408e+00 2.060417e+00 9.621767e-01 -1.552263e-02 
-7.471991e+00 2.058650e+00 4.254332e+00 5.451035e+00 2.650307e+00 -1.707906e+00 1.169316e+00 -4.516358e+00 -2.169935e+00 9.476871e-01 2.201425e+00 6.126059e-01 8.426434e-02 -1.104026e+00 3.728001e-01 8.197737e-01 7.690202e-01 5.322784e-01 -1.652344e+00 -6.858922e-01 3.261422e-02 1.124851e+00 2.641889e+00 1.843462e+00 9.935835e-01 -8.997619e-04 
-8.277300e+00 2.615955e+00 3.670564e+00 3.003803e+00 3.158597e+00 -9.876459e-01 6.377120e-01 -1.978196e+00 3.358241e+00 6.451373e+00 2.570553e+00 -8.606453e-01 6.576806e-02 -4.857725e-01 -4.331255e-03 -7.463046e-01 -1.284369e-01 5.908035e-02 6.452757e-01 1.159548e+00 1.229542e+00 2.515947e+00 2.989167e+00 1.639005e+00 4.636561e-01 5.514824e-03 
-9.643673e+00 2.738398e-01 3.072060e+00 4.770494e+00 1.760937e+00 -2.268774e+00 2.241014e+00 5.447690e-01 3.535288e+00 1.153078e+01 5.322507e+00 1.354238e+00 9.050876e-02 3.941746e-02 -7.532329e-01 -5.914547e-01 6.175846e-01 -1.167902e-01 1.017607e+00 1.449994e+00 1.759581e+00 2.596090e+00 1.255161e+00 5.551481e-01 6.753708e-01 2.342939e-04 
-8.175781e+00 3.321021e-01 1.381140e+00 5.012008e+00 7.579195e-01 1.910126e+00 7.475408e+00 2.737407e+00 9.316925e+00 8.575099e+00 4.361997e+00 7.918958e-01 9.614474e-02 3.041124e-01 -4.547477e-01 -1.761821e-01 8.125415e-02 -7.240720e-01 8.636900e-01 1.544315e+00 8.694207e-01 9.691862e-01 1.756954e-02 -5.534852e-01 8.909432e-02 1.148033e-03 
-7.325663e+00 -5.655879e-01 2.441770e+00 7.534856e+00 3.266695e+00 1.931246e+00 5.000438e+00 1.923743e+00 7.831174e+00 6.161628e+00 4.081444e+00 3.163189e+00 7.024747e-02 3.275835e-01 9.390750e-02 1.224241e-02 -6.621834e-01 -4.225398e-01 5.354334e-01 1.441106e-01 2.880860e-01 3.201000e-01 -3.686273e-01 -1.148605e+00 -5.842689e-01 -2.734029e-03 
-7.915743e+00 7.619306e-01 3.104799e+00 2.027893e+00 -1.214642e+00 1.230794e+00 6.979576e+00 1.679421e+00 6.056229e+00 9.223797e+00 4.236591e-01 -1.319649e+00 8.163887e-02 -1.011955e-01 3.781771e-01 1.973558e-01 -2.515172e-01 4.721855e-01 -5.852968e-01 -1.338884e+00 -3.670140e-01 -5.936998e-01 8.349568e-01 -4.279841e-01 -2.569161e-01 -8.728564e-04 
-8.135775e+00 5.284631e-01 2.271443e+00 2.951635e+00 6.345191e-01 7.480593e-01 3.209483e+00 2.514193e+00 6.766136e+00 9.363295e+00 1.548650e+00 -5.113338e-01 8.409154e-02 -1.806162e-01 7.932676e-01 1.478278e-01 8.411860e-02 8.094269e-01 -4.140000e-01 -1.596137e+00 3.385820e-02 7.084683e-01 1.207860e+00 5.067158e-01 2.349543e-01 8.079750e-03 
-8.276703e+00 1.675962e+00 2.453083e+00 6.046032e+00 4.434935e+00 -4.247651e-01 1.676467e+00 6.071131e-01 6.880945e+00 1.114905e+01 3.488473e+00 1.344577e+00 8.485842e-02 -8.186474e-02 3.636091e-01 6.528131e-01 1.085328e+00 1.042079e+00 -1.724250e-01 -4.534127e-01 4.881214e-01 9.593851e-01 4.960785e-01 1.889723e+00 1.354037e+00 1.844776e-03 
-8.048264e+00 2.943734e+00 3.506767e+00 5.946379e+00 4.489041e+00 6.890254e-01 -3.286905e-01 2.629188e+00 1.096116e+01 1.123830e+01 5.082615e+00 3.005847e+00 1.090364e-01 8.403911e-02 5.437280e-01 1.484803e+00 1.409125e+00 -1.957981e-01 -8.843603e-01 6.311204e-01 1.535063e+00 1.173133e+00 6.964378e-01 1.453905e+00 2.239467e-01 6.294114e-03 
-8.368822e+00 1.372340e+00 5.751203e+00 5.957163e+00 2.068493e+00 3.981863e-01 6.481600e+00 4.062530e+00 8.755644e+00 1.076669e+01 8.105289e+00 3.691942e+00 7.839030e-02 1.064968e-02 -1.869159e-01 9.110586e-01 4.265057e-01 -1.294717e+00 -1.147651e+00 8.994301e-01 1.965290e+00 1.253083e+00 2.216077e-01 7.094320e-01 4.353375e-01 1.119918e-03 
-7.669519e+00 3.398914e+00 8.046398e+00 1.004169e+01 8.387494e-01 -4.085218e+00 3.962519e+00 8.461801e+00 1.169445e+01 1.303666e+01 6.509768e+00 -5.652831e-01 1.187962e-01 -3.141508e-01 -5.182449e-01 -3.141575e-01 -3.728412e-01 -1.523746e+00 -8.160645e-01 8.265234e-01 6.006129e-01 -5.128547e-01 -1.199926e+00 -1.457361e+00 -2.516302e-01 -1.310050e-03 
-8.412827e+00 5.137929e-01 4.738560e+00 6.130903e+00 -2.135062e-01 -3.775901e+00 4.028013e+00 7.517257e+00 1.277971e+01 1.135791e+01 6.322058e+00 5.306829e+00 8.557814e-02 -6.327953e-02 -2.088364e-01 -1.003335e+00 -8.471742e-01 1.635551e-02 7.262139e-01 -1.087321e-01 -2.660232e-01 -5.605952e-01 -1.214409e+00 -1.153259e+00 -7.722124e-01 -5.703688e-04 
-9.597015e+00 7.817834e-01 2.442301e+00 3.995302e+00 -1.988691e+00 -1.304254e+00 5.030720e+00 3.904890e+00 6.384848e+00 4.943062e+00 -1.312576e+00 9.402534e-01 9.889227e-02 2.592737e-01 -3.728821e-01 -1.137503e+00 -1.248728e+00 7.917752e-01 2.566559e+00 8.305149e-01 -1.665151e+00 -1.449296e+00 -1.076025e+00 5.642510e-03 -6.863556e-02 -1.040750e-02 
-7.721472e+00 1.636724e+00 3.536577e+00 4.744487e+00 3.563991e+00 2.638774e+00 5.403839e+00 5.010870e+00 8.607469e+00 8.741444e+00 6.250166e+00 -9.218875e-01 8.549041e-02 3.897963e-01 2.800495e-01 -1.265063e-01 -2.454249e-01 1.351108e+00 8.421757e-01 -5.094940e-01 -9.033383e-01 -9.073893e-01 1.326875e-01 7.701688e-02 -1.300818e+00 -3.774846e-03 
-6.718828e+00 9.730380e-01 2.959874e+00 4.491261e+00 2.908877e+00 5.540237e+00 7.427181e+00 1.389240e+00 6.534090e+00 8.964771e+00 6.573926e+00 2.205897e+00 6.680256e-02 4.393820e-01 2.460116e-01 6.138939e-01 3.957966e-01 1.448629e+00 -7.440066e-02 -4.115644e-01 -3.983991e-01 -3.208402e-01 6.913496e-01 7.885296e-01 7.587967e-02 -5.651087e-03 
-7.902939e+00 1.818413e+00 3.847242e+00 4.655799e+00 4.093250e+00 -2.987268e+00 2.823124e-01 4.258390e+00 8.168147e+00 1.001049e+01 2.763891e+00 -1.830082e+00 8.274877e-02 1.341152e-02 2.765254e-01 9.189262e-01 9.094210e-01 2.426744e-03 -4.708606e-01 1.638651e-01 -6.208921e-01 -1.240208e+00 2.155541e-01 -7.994607e-01 3.745402e-01 1.206106e-03 
-7.309372e+00 1.920996e+00 5.356438e+00 6.018629e+00 4.989826e+00 1.136764e+00 5.533661e+00 2.289134e+00 5.000308e+00 7.765287e+00 4.373209e+00 1.773749e+00 7.200766e-02 2.533409e-01 8.664643e-01 5.439445e-01 7.586044e-01 -1.866039e-01 5.629407e-01 4.851841e-01 5.337849e-01 -9.255104e-02 7.073182e-01 -1.170364e+00 2.718413e-01 1.211500e-02 
-7.359142e+00 2.545372e+00 6.932927e+00 8.527908e+00 2.535650e+00 2.486208e+00 7.169924e+00 1.456462e+00 3.173318e+00 1.041896e+01 3.353220e+00 1.166887e+00 8.891839e-02 4.023537e-01 3.351746e-01 3.636668e-01 2.391753e-01 -4.403583e-01 1.352963e+00 9.593793e-01 6.110682e-01 -2.741899e-01 -1.421707e-01 -5.412227e-01 5.781738e-01 6.394851e-03 
-5.724022e+00 4.941880e+00 4.136754e+00 6.348229e+00 2.754657e+00 5.618203e+00 6.409295e+00 5.459128e+00 8.568749e+00 1.229713e+01 4.274417e-01 2.066619e+00 1.242927e-01 1.888187e-01 2.512646e-02 -1.267470e-01 -3.065145e-01 -2.052059e-01 -2.767579e-01 -4.760309e-01 2.994491e-01 7.687017e-01 -8.755075e-01 -1.426867e+00 -1.968079e+00 2.490979e-03 
-6.683846e+00 1.983844e+00 6.275417e+00 5.686876e+00 3.009043e+00 1.536828e+00 4.641392e+00 5.728734e+00 5.012977e+00 7.033714e+00 2.030662e+00 9.143521e-01 8.858049e-02 2.284393e-02 -2.021123e-01 -1.670125e-01 -8.558369e-01 4.265324e-01 -7.650653e-01 -1.054923e-01 8.047053e-01 4.447953e-01 -2.169800e+00 -9.760594e-01 -2.047405e+00 -4.592663e-03 
-6.702927e+00 2.327392e+00 5.051458e+00 5.906573e+00 3.727100e+00 2.276645e-01 4.417773e+00 1.650244e+00 7.923987e+00 5.080371e+00 -2.099846e+00 -7.940381e+00 8.463150e-02 -2.134521e-01 -3.341443e-01 2.372612e-01 -4.974678e-01 4.027915e-01 -8.704783e-01 5.454690e-01 5.506301e-01 -4.991447e-01 -2.209296e+00 -3.675843e-01 -1.724751e+00 -7.980889e-03 
-6.755470e+00 2.842054e+00 5.640512e+00 4.469552e+00 4.182091e+00 1.356150e+00 7.638224e+00 7.384431e+00 5.719676e+00 3.178337e+00 -2.634327e-01 -4.066639e+00 8.578569e-02 -1.957932e-02 2.231080e-01 -6.807556e-02 -3.871670e-01 2.801086e-01 7.671309e-02 9.214116e-01 9.045580e-01 -7.909117e-02 -9.612789e-01 -2.751775e-01 -6.088243e-01 -4.435420e-04 
