-1.153383e+01 -6.459404e-01 -3.858645e+00 5.662158e+00 2.268735e+00 -5.581484e-01 2.170177e+00 -3.485559e+00 4.966733e+00 8.107110e+00 6.690403e+00 6.742464e+00 -7.360446e-02 1.516685e-02 1.656304e-01 4.791390e-01 -5.128390e-01 2.162940e-01 5.216061e-01 -3.994590e-01 9.904711e-01 6.600949e-01 -4.547506e-01 -7.686355e-01 -9.347574e-01 3.269649e-03 
-1.146219e+01 -3.264720e-01 -2.850916e+00 3.060100e+00 2.502051e+00 1.232175e+00 1.305961e+00 -2.163672e-01 5.679503e+00 4.687146e+00 2.524188e+00 4.975229e+00 -6.687701e-02 -2.091484e-02 1.963175e-02 3.063496e-01 -5.109760e-01 -4.436156e-01 5.523890e-01 -1.052263e+00 2.674580e-01 2.835320e-01 -1.104366e+00 -1.406451e+00 -8.736151e-01 2.275086e-03 
-1.149382e+01 2.247763e-02 -1.966815e+00 4.398992e+00 3.233546e+00 1.154720e+00 6.049899e-01 -1.677992e-01 7.910823e+00 7.543338e+00 4.930333e+00 2.952294e+00 -6.061995e-02 -2.570065e-01 -8.607771e-02 1.309101e-01 -7.872823e-01 -1.375336e+00 -1.590914e-01 -1.452976e+00 1.438653e-02 4.956684e-01 -1.480237e+00 -1.431276e+00 -8.744947e-01 4.638553e-04 
-1.165841e+01 -8.819907e-01 -3.272812e+00 3.738861e+00 -4.317489e-01 1.347362e+00 -2.308543e+00 -3.807149e+00 4.912348e+00 2.867167e+00 5.381835e-01 4.269473e+00 -6.872129e-02 -3.556015e-01 -3.590491e-01 -3.729932e-01 -8.202076e-01 -1.506126e+00 -4.626032e-01 -3.272471e-01 -6.045997e-01 -5.574622e-01 -1.020867e+00 -6.605377e-02 3.742954e-01 -1.291144e-03 
-1.272075e+01 -7.985697e-01 -2.993146e+00 1.386365e+00 -3.141044e+00 -1.411199e+00 -3.287452e+00 -1.618236e+00 7.828652e+00 1.615916e+00 5.270268e-01 2.722868e+00 -7.036304e-02 -2.627333e-01 5.260991e-02 -4.949300e-01 -7.772413e-01 -1.044198e+00 -1.776047e-01 2.844377e-01 6.757900e-01 -6.126014e-01 -1.227737e+00 -2.936575e-01 1.809450e-01 2.198029e-03 
-1.262673e+01 -1.711194e+00 -4.202716e+00 4.653751e-01 -1.841283e+00 2.021189e-01 1.615946e+00 -2.514147e+00 2.933277e+00 2.546524e+00 4.395573e+00 6.961419e+00 -6.846118e-02 1.419058e-01 5.274887e-02 2.575768e-01 1.663721e-01 6.671555e-01 6.376381e-01 8.246783e-01 1.273303e+00 1.013148e-01 7.550014e-01 5.844265e-01 3.285714e-01 2.159429e-03 
-1.232333e+01 7.001288e-01 -3.976513e+00 2.149528e+00 -1.282674e+00 8.393185e-01 6.493342e-02 2.564650e+00 5.837352e+00 1.564976e+00 1.533351e+00 2.511046e+00 -4.975986e-02 2.461727e-01 2.786916e-01 5.414813e-01 -2.382154e-02 9.689353e-01 8.019619e-01 5.102926e-01 6.840504e-01 8.052763e-01 8.620435e-01 2.081165e-01 1.258295e-01 1.289976e-03 
-1.114760e+01 -1.367596e+00 -1.493245e+00 4.189140e+00 1.974844e+00 3.410294e+00 1.386557e-01 4.679233e-01 6.414573e+00 6.667644e+00 2.957154e+00 6.018241e+00 -6.822574e-02 2.649662e-01 6.509259e-01 7.782781e-01 3.994212e-02 2.118769e-01 4.307508e-01 3.968908e-01 1.386588e-01 1.945966e-01 2.091421e-01 1.302758e-01 -8.661798e-01 3.414631e-04 
-1.222946e+01 4.230890e-01 -1.640475e+00 -5.946248e-01 -2.044306e-01 9.945232e-01 2.657175e-03 3.109811e-01 1.011439e+01 3.865573e+00 2.286818e+00 3.823605e+00 -6.403089e-02 -9.207363e-02 1.015617e-01 5.555392e-01 2.130690e-01 2.818112e-01 4.356894e-01 2.434595e-01 -1.064383e+00 -8.340766e-01 5.680210e-01 1.616580e+00 2.684892e-01 -3.765464e-03 
-1.134883e+01 1.681956e+00 -1.479344e+00 2.037162e+00 -1.321020e+00 2.278271e+00 3.631539e+00 -6.940188e-01 1.767743e+00 2.441935e+00 4.670218e+00 1.974241e+00 -5.961835e-02 -3.789997e-01 1.692306e-01 1.998828e-02 3.388382e-01 -6.076705e-01 7.687769e-02 2.243409e-01 -3.756337e-01 -7.158723e-01 -3.915893e-01 8.772696e-01 3.890288e-01 -2.843869e-03 
-1.268308e+01 -3.168380e-01 -1.205767e+00 4.290862e+00 1.774314e+00 3.583777e+00 -4.642105e-01 -2.176291e+00 3.990384e+00 6.517935e+00 8.759720e+00 5.875493e+00 -7.289088e-02 8.527069e-02 -4.662495e-01 -1.661469e-01 8.059470e-01 -5.094709e-02 -8.792461e-01 -7.708433e-01 -2.097914e-01 -9.074475e-01 4.273282e-01 -3.405750e-03 1.452700e-01 -4.726279e-03 
-1.281578e+01 -1.514792e-01 -1.610658e+00 3.440588e+00 -2.052881e+00 2.500055e+00 1.493794e+00 -1.666089e-01 5.897212e+00 3.383517e+00 4.107051e+00 6.937441e+00 -7.801509e-02 1.103149e-01 -4.848896e-01 -3.808336e-01 -1.086990e-01 2.815019e-01 -1.295876e+00 -7.433326e-01 1.566014e-01 1.234616e+00 -1.013915e-01 -1.816030e+00 -1.265206e-01 -3.566074e-03 
-1.106963e+01 -9.914409e-01 -2.405553e+00 2.733397e+00 -9.323585e-02 -3.512599e+00 -2.782687e+00 -1.001681e+00 3.512414e+00 5.531424e+00 2.551373e+00 2.068355e+00 -7.846391e-02 3.906185e-01 5.231752e-02 -3.284734e-01 -4.607076e-01 -4.816545e-01 -1.193704e+00 -1.079451e+00 -6.645533e-01 1.508894e-01 -2.054576e+00 -2.733926e+00 -1.505341e+00 3.478456e-03 
-1.160398e+01 -4.051909e-01 -2.783619e+00 2.272399e+00 1.020264e+00 -6.529206e-01 1.074114e+00 -4.983172e-01 8.179808e+00 2.428233e+00 -1.305759e+00 3.245207e+00 -7.466221e-02 6.389366e-01 6.154358e-01 -1.484105e-01 -4.575295e-02 -3.635415e-01 -1.243168e+00 -2.394365e+00 -1.161787e+00 -1.088987e+00 -1.798353e+00 -1.959764e+00 -2.045514e+00 1.306725e-02 
-1.133588e+01 7.160544e-02 -2.261653e+00 2.571419e+00 -2.170531e+00 -8.082534e-01 -5.651628e+00 -5.333204e+00 3.603534e+00 -3.277305e+00 -2.203503e+00 1.949055e-01 -5.717504e-02 9.664437e-01 1.325636e+00 1.187929e-01 -1.041858e-01 -1.319091e+00 -3.960788e-01 -1.902153e+00 -1.114404e+00 -1.798087e+00 -1.389684e+00 2.390592e-01 -1.343501e-01 1.129344e-02 
-9.487973e+00 2.394177e+00 -2.424660e+00 3.292813e+00 -2.831941e+00 -5.067959e+00 -9.043562e+00 -3.809784e+00 4.067194e-01 -1.203883e+00 -3.314333e+00 -2.353403e+00 -2.332330e-02 1.277140e+00 1.022308e+00 8.967988e-02 -3.556759e-01 -1.326297e+00 -1.170723e+00 -1.548602e+00 -7.033167e-01 -2.176279e+00 -2.803223e-01 1.253523e+00 -8.577473e-01 6.004524e-03 
-7.295415e+00 4.237054e+00 -1.991068e+00 1.702262e+00 -4.762588e+00 -3.285474e+00 -7.234615e+00 -4.917969e+00 -1.591477e+00 3.990630e-01 4.750956e+00 4.195910e+00 -4.766619e-02 1.145483e+00 1.892871e-01 -9.368129e-01 -1.189009e+00 -8.424417e-01 -4.465197e-01 1.376916e+00 -6.654166e-01 -1.128618e+00 4.428111e-01 1.249166e+00 3.713748e-01 -2.581751e-03 
-7.238520e+00 2.623625e+00 -2.470512e+00 9.285985e-01 -4.315193e+00 -5.267923e+00 -5.877401e+00 -4.222518e+00 -1.040823e-01 -8.115619e-01 1.484628e+00 -3.044031e+00 -4.939401e-02 1.097581e+00 -8.649505e-01 -2.009906e+00 -1.918150e+00 -9.373425e-01 9.860834e-01 1.732865e+00 -7.983196e-01 1.009961e-01 -5.520266e-01 -3.878724e-01 -5.434095e-01 -1.656365e-03 
-6.733197e+00 9.033167e-01 -6.922791e+00 -2.191517e+00 -5.641113e+00 -2.940870e+00 -3.501282e-01 -8.453919e+00 -1.784153e+00 -1.259410e+00 1.642849e+00 2.397093e+00 -5.704844e-02 1.383491e+00 -1.379199e+00 -1.731265e+00 -3.447241e-01 -9.200953e-01 -4.759525e-01 5.087430e-01 -1.003047e-01 1.997317e-01 -6.254936e-01 -1.116019e+00 -3.835594e-01 1.340526e-02 
-4.281179e+00 -2.637074e-01 -1.000833e+01 -4.351049e+00 -7.079391e+00 -3.098438e-01 -3.821480e+00 -6.033407e+00 1.008038e+00 -3.134779e+00 -3.699641e+00 -4.171042e+00 -2.691400e-02 1.539275e-01 -1.987588e+00 -5.011770e-01 -1.188603e+00 9.367878e-01 -8.454339e-01 7.158348e-01 -2.359360e-01 8.669069e-01 9.693046e-01 -6.668571e-01 5.959247e-01 8.751787e-02 
-1.856631e+00 -1.215276e+00 -6.878485e+00 2.618465e+00 -7.980966e+00 -8.144277e+00 -5.718862e+00 -4.514048e+00 -1.148879e+00 -1.566796e+00 1.762998e+00 2.841618e+00 8.120120e-03 -1.223442e+00 -1.959154e+00 9.767130e-01 -1.600646e+00 1.671879e+00 -1.694895e+00 8.075317e-01 5.819192e-02 7.899549e-01 1.878601e+00 6.858988e-02 -3.753126e-01 1.516173e-01 
-8.907166e+00 -6.255018e+00 -4.998550e+00 -7.419407e+00 1.538672e+00 -6.893390e+00 3.861390e-01 -7.372134e+00 3.912816e+00 4.188654e+00 -1.909732e+00 -2.866697e-01 3.556110e-01 -1.185688e+00 -6.220056e-01 1.695596e+00 -1.351203e-01 1.653350e+00 -1.514632e+00 1.852603e+00 -7.313733e-02 4.950088e-01 1.000238e+00 8.442385e-01 5.562213e-01 1.206010e-01 
-1.053741e+01 -5.896799e+00 -4.544116e+00 -8.660569e+00 -1.590750e+00 -8.123571e+00 1.583721e+00 -7.493596e+00 7.132325e-01 4.471877e+00 1.090843e+00 -1.421656e+00 5.097753e-01 6.279393e-01 4.337640e-02 1.391494e+00 1.322806e+00 7.460105e-01 1.610766e+00 1.595765e+00 2.217051e+00 1.809512e+00 -2.162304e-02 6.320284e-02 -1.415013e+00 6.860495e-02 
-5.869229e+00 -1.032974e+00 -2.697532e+00 6.128665e-01 -2.007748e+00 -7.893358e+00 1.790243e+00 -4.909319e+00 2.552026e+00 -1.152926e+00 8.576292e-01 7.417009e-01 3.252634e-01 2.106236e+00 -1.317848e+00 1.393914e+00 3.676940e+00 -5.097175e-01 1.898415e+00 -1.949642e+00 3.563693e+00 1.781906e+00 -3.158101e-01 3.316721e-01 -1.268424e+00 8.823854e-03 
-2.359023e-01 -3.609416e+00 -1.071522e+00 5.216357e+00 -2.477703e+00 4.095366e-01 1.557914e+00 5.339799e+00 8.579077e+00 9.958787e-01 6.953321e-01 -4.747631e+00 3.663187e-01 1.141342e+00 -3.601421e+00 1.671748e+00 2.137163e+00 2.621846e-01 1.321160e+00 -2.617635e+00 4.124621e+00 2.801916e+00 1.884165e-01 -3.374243e-01 -9.751027e-01 4.771234e-02 
-3.526742e+00 -1.398795e+01 2.347242e-01 4.026830e+00 -5.664388e-01 -1.667869e+00 -9.349167e+00 4.029633e+00 8.889423e+00 4.347602e+00 -5.361557e-02 -4.965801e+00 4.714586e-01 -1.700966e+00 -3.566768e+00 3.423482e-01 2.128114e-01 -1.131238e+00 -1.119396e+00 -1.335815e+00 9.371441e-01 2.406889e+00 -1.439015e+00 -8.530179e-01 8.472613e-01 8.020177e-02 
-6.001950e+00 -1.742641e+01 2.348496e+00 3.182652e-01 -1.000482e+00 -4.630514e+00 -5.934748e+00 8.660033e+00 1.155411e+01 2.663695e+00 -1.406555e-01 -3.443419e+00 6.752394e-01 -2.738890e+00 -1.620753e+00 -7.639928e-01 4.974530e-01 -8.921534e-01 -1.735322e+00 -5.403132e-01 -2.812761e+00 4.263667e-01 -2.692153e+00 -6.309729e-01 2.837977e+00 4.275339e-02 
-1.149104e+01 -1.195832e+01 -2.695801e+00 4.125969e+00 -8.402549e+00 -1.097031e+01 -1.142502e+00 -1.883716e+00 1.309895e+01 -9.181909e+00 -2.989466e+00 4.325902e+00 5.718119e-01 -3.090579e+00 1.189207e+00 -1.112791e+00 -3.193378e-01 3.027927e-01 -1.080320e+00 2.758936e-01 -2.311354e+00 6.149243e-01 -2.989853e+00 -2.047932e+00 2.538410e+00 3.955680e-02 
-9.948207e+00 -1.272800e+01 -3.426224e+00 7.654052e+00 -3.020414e+00 -3.615852e+00 -5.246984e+00 -5.767329e+00 8.606145e+00 -5.700132e+00 -9.916070e-01 4.796404e+00 5.299090e-01 -2.531066e+00 1.494754e+00 -1.373955e+00 -1.732130e-01 2.326010e+00 1.048167e+00 -1.073385e+00 -1.079287e+00 2.360754e-02 -2.075081e+00 -2.091609e+00 1.675762e+00 1.728612e-02 
-1.700651e+01 -1.039112e+01 -2.441872e+00 -1.237753e+00 1.957491e+00 -7.576798e+00 -8.313581e+00 -3.134558e-01 1.343803e+01 -6.419748e+00 -9.867798e+00 3.606336e+00 7.419078e-01 3.930604e-01 -1.207046e+00 -6.076744e-01 -8.828304e-01 3.809657e+00 2.085192e+00 -3.541911e-01 7.858995e-01 7.791206e-01 3.879968e-01 -1.495470e+00 1.052317e+00 -2.641189e-03 
-1.589955e+01 -1.073624e+01 -4.648246e+00 2.134061e+00 5.449548e+00 -1.086438e+00 -7.716136e+00 2.478470e+00 1.150261e+01 -9.092791e+00 -7.159533e+00 5.295175e+00 6.766220e-01 1.908449e+00 -1.431347e+00 -4.728519e-01 -1.075709e+00 1.695832e+00 7.454925e-01 -4.611160e-01 4.288596e-01 1.873278e+00 1.742938e-01 -8.099399e-01 7.506644e-01 -5.220208e-02 
-6.550064e+00 -1.898943e+01 -5.123162e+00 2.471812e+00 6.410751e+00 -1.809061e+00 -1.678882e+00 -2.077118e+00 1.554632e+01 -5.545596e+00 -7.382854e+00 9.338102e+00 4.852494e-01 3.340551e+00 -1.516209e+00 -1.836649e+00 3.502546e-01 -1.344338e-02 9.175890e-01 -2.853723e-01 -1.359881e+00 1.198940e+00 1.416120e+00 1.239722e+00 -2.978844e-01 -1.100680e-01 
-5.634187e+00 -1.558558e+01 -4.449839e+00 4.207271e-01 3.232116e+00 -2.772258e+00 -1.086991e+01 -2.741200e+00 1.691839e+01 -5.265739e+00 -6.283778e+00 5.683843e+00 3.972278e-01 2.059197e+00 1.291505e-01 -2.681500e+00 -2.274732e-01 -4.904130e-01 -6.905673e-01 -1.554651e-01 -1.958865e+00 1.240267e+00 2.059007e+00 1.770217e+00 -3.200097e-01 -8.803378e-02 
-5.436437e+00 -1.554750e+01 -1.172432e+01 1.370187e+00 2.998991e+00 -2.145944e+00 -8.163553e+00 -4.503024e+00 1.672484e+01 -1.252673e+00 -4.107062e+00 1.922580e+00 3.312649e-01 2.702371e-01 2.390504e+00 -3.514679e+00 -7.739689e-01 -2.398268e-02 -4.329196e-01 9.369000e-01 -7.562044e-01 -3.937019e-01 1.415438e+00 2.921052e+00 -9.409539e-01 -4.823370e-02 
-6.160373e+00 -1.181145e+01 -1.475517e+01 1.547508e+00 4.703364e+00 -4.370833e+00 -5.251126e+00 -6.102903e+00 1.711469e+01 -9.442188e-01 5.365825e-02 7.402887e+00 3.134454e-01 -3.230486e-02 2.447391e+00 -3.090710e+00 -3.534741e-01 -4.768894e-02 1.148457e+00 3.650471e+00 -7.507223e-01 -1.568295e+00 1.669384e+00 4.078789e+00 -1.665318e-01 -3.102427e-02 
-4.935785e+00 -8.923972e+00 -1.754389e+01 -1.961422e+00 5.555214e+00 -3.174371e+00 1.962243e-01 -4.177289e+00 1.347966e+01 -6.291667e-01 4.053684e+00 3.773810e+00 2.859721e-01 7.769693e-01 2.079455e+00 -5.175697e-01 -8.798340e-01 -8.254490e-01 2.473372e+00 2.061748e+00 2.262050e-01 -2.547672e+00 -2.794522e-01 1.723431e+00 4.065446e-01 -4.465565e-02 
-6.046037e+00 -6.660392e+00 -1.699360e+01 3.191614e-01 1.715559e+00 3.484240e+00 3.202551e+00 -6.657680e+00 1.069950e+01 2.769428e+00 1.002979e+01 3.925569e+00 2.647529e-01 7.119012e-01 2.608718e+00 4.953213e-01 -1.247051e-01 -1.479652e+00 3.311096e+00 1.968247e+00 2.317060e+00 -4.547446e+00 -5.488390e-01 7.068199e-01 -1.547763e+00 -3.545198e-02 
-1.608758e+00 -7.725754e+00 -1.319295e+01 -2.414809e+00 3.656480e-01 6.293379e+00 -2.081654e+00 -3.094611e+00 7.194077e+00 -4.506757e+00 -4.779766e-01 5.693963e+00 1.323329e-01 -3.550997e-01 3.009614e+00 2.346845e+00 -3.530801e-01 6.599212e-03 1.921701e+00 -1.480663e+00 9.983250e-01 -4.059539e+00 -9.606970e-01 1.630320e-01 -1.678646e+00 -1.419589e-02 
-4.264380e+00 6.330295e-01 -1.445403e+01 1.150676e+00 -1.001118e-01 7.450772e+00 5.729050e+00 4.941056e+00 -2.479747e+00 -1.749618e+00 5.853588e+00 -1.296003e+00 2.130051e-01 -4.511926e-01 2.240462e+00 2.749904e+00 -2.044943e+00 1.599287e+00 6.110638e-01 -1.651740e+00 5.749296e-01 -2.929554e+00 -1.829477e+00 -1.173824e+00 -2.963887e+00 -1.640525e-02 
-7.602112e+00 2.477385e+00 -7.079455e+00 -4.142580e+00 6.496046e+00 4.450867e+00 -8.470338e+00 -4.985032e+00 -2.284083e-01 -3.173129e+00 6.956947e+00 -2.008635e+00 2.408665e-01 -7.106324e-01 1.835399e+00 1.354772e+00 -1.122920e+00 -5.607090e-02 -1.352498e+00 -6.655945e-01 -4.804610e-01 -7.867576e-01 -4.893439e-01 -1.163388e+00 -1.881063e+00 -3.107784e-02 
-5.305323e+00 -5.596508e-01 -6.300828e+00 -9.041669e+00 6.646795e+00 7.460815e+00 -1.861806e+00 -2.837821e+00 -2.370253e-01 -7.044771e+00 4.432104e-01 -7.042569e+00 1.284598e-01 -7.106892e-01 5.020202e-01 2.558136e+00 4.238226e-01 -1.835782e+00 -3.086812e+00 -1.434780e+00 -5.404933e-01 1.449137e+00 -1.110915e+00 -2.107097e+00 1.338077e-01 -6.825780e-02 
-4.641449e+00 2.047581e+00 -1.049569e+01 -2.933236e+00 -3.288160e+00 -4.741336e-01 -1.614198e+00 -1.607478e+00 2.138927e+00 -4.305901e+00 -3.589728e+00 -8.380678e-01 1.921636e-02 -4.027553e-01 7.175962e-01 2.379237e+00 3.019311e+00 -2.538228e+00 -1.825364e+00 2.110083e+00 1.231150e+00 8.299187e-01 1.971907e+00 -5.567434e-01 2.011211e+00 -7.484686e-02 
-9.298158e+00 3.358032e+00 4.476655e-02 2.665117e+00 -4.386921e+00 -5.520784e+00 -4.872920e+00 5.498124e-01 3.582270e+00 -6.737810e+00 5.914395e-01 -1.212249e+00 -1.745880e-02 -1.608746e-01 1.196505e+00 2.506828e+00 3.349333e+00 -1.679456e+00 -1.109157e+00 1.461030e+00 8.798649e-01 1.207394e+00 2.946549e+00 5.928873e-01 2.983312e+00 -4.277411e-02 
-7.619471e+00 4.106524e+00 1.643933e+00 5.100581e+00 -6.782376e-01 1.814848e+00 3.585632e+00 -5.230987e-01 2.011537e+00 6.532927e+00 4.099116e+00 5.132260e+00 -6.040847e-02 3.719364e-01 -3.097588e-01 1.382621e+00 1.497549e+00 2.655415e-01 5.267499e-01 1.335054e+00 -4.440611e-01 -1.067649e+00 9.742596e-01 1.756387e-01 9.347881e-01 -1.865717e-02 
-4.620685e+00 4.393405e+00 1.635023e-01 3.688088e+00 -3.055445e+00 7.705394e-01 2.843428e+00 1.019314e+00 5.863638e+00 2.268563e+00 -4.367747e-01 4.888828e+00 -4.559839e-02 1.015123e+00 -8.887630e-01 -5.037869e-01 -2.005489e-01 -7.023545e-01 3.217275e-02 1.156518e+00 -2.043119e+00 -1.897888e+00 7.259644e-01 -7.006041e-01 -6.385655e-01 9.517300e-03 
-5.120503e+00 -1.889920e-02 -3.641955e+00 4.043022e+00 -2.626190e+00 -9.860463e-01 1.202900e+00 -4.062534e+00 -4.340003e+00 -3.937789e+00 -2.197428e+00 7.853349e-01 -5.999970e-02 9.188997e-01 -4.264229e-01 1.244323e-01 -2.816233e-01 -5.558889e-01 -1.801353e-02 2.053521e-01 -1.975658e+00 -2.777443e+00 -1.187618e+00 -1.081788e+00 -2.253420e+00 2.084411e-02 
-5.472025e+00 9.769297e-01 1.687762e-01 2.191152e+00 -6.924717e+00 -3.959474e+00 2.101038e+00 -7.896067e+00 -2.731400e+00 2.127370e+00 2.366902e-01 -2.231614e+00 2.992332e-02 1.072210e+00 1.333114e+00 1.816067e+00 5.092334e-01 1.201864e+00 1.542489e+00 2.327457e+00 3.267053e-01 -1.896372e+00 -9.013049e-01 -8.080676e-01 -2.335407e+00 3.814328e-02 
-2.599302e+00 3.682648e+00 2.263458e+00 4.440932e+00 -1.523046e+00 4.089787e+00 4.983588e+00 -5.943699e+00 -7.578159e+00 6.654323e-01 -1.646556e+00 -2.574620e+00 6.051242e-03 3.377676e+00 3.531981e+00 2.532079e+00 4.818377e-01 1.266255e+00 8.504092e-01 6.514482e-01 6.414810e-01 2.310790e-01 -8.594275e-02 -1.289703e+00 -7.859092e-01 1.109010e-01 
-5.202351e-01 9.208203e+00 6.291133e+00 6.035300e+00 2.402304e+00 5.945068e+00 1.259037e+01 3.593423e+00 -1.999142e+00 -4.539573e+00 -4.752549e+00 -5.108231e+00 1.120926e-01 4.592421e+00 2.683875e+00 1.732566e+00 -5.956874e-01 5.073234e-01 4.617021e-01 -1.572378e-01 2.194116e-01 -6.318688e-01 -5.217692e-01 -1.971703e+00 -2.971861e-01 1.558602e-01 
9.291984e+00 1.352537e+01 5.957263e+00 4.530137e+00 -9.584264e-01 -1.686272e+00 -7.845256e-01 -6.599874e+00 -3.550736e+00 -1.034031e+00 -6.151321e+00 -1.705903e+00 4.534205e-01 3.611926e+00 1.336800e+00 1.061217e+00 -2.598085e+00 -9.279761e-01 -3.293823e-01 -2.219960e+00 -1.224950e-01 -6.612204e-01 -4.222583e-01 -6.270850e-01 -9.339823e-01 1.664674e-01 
1.154444e+01 9.474944e+00 6.984703e+00 -8.318870e-01 -4.670410e+00 1.237066e+00 4.198905e+00 -6.470922e+00 -7.904455e+00 3.682556e-01 -7.369444e+00 -4.151903e+00 5.855395e-01 1.953759e+00 -1.121067e+00 3.675817e-01 -1.781880e+00 -9.620599e-01 -9.086338e-01 -2.642096e+00 2.466575e-01 -2.778557e+00 -1.856756e-03 8.119850e-01 -6.728702e-01 1.196551e-01 
9.427991e+00 1.023328e+01 7.222757e+00 -5.115902e+00 -2.626569e+00 4.796877e+00 -1.920478e+00 -1.524002e+00 -7.931605e+00 -3.899774e+00 -3.473533e+00 -7.722695e+00 6.016647e-01 -6.025419e-01 -1.368882e+00 4.310456e-01 -3.043221e-01 6.165408e-01 -4.829524e-02 -8.984269e-01 1.313754e+00 -1.245761e+00 -4.894647e-01 2.996573e-01 -3.996903e-01 4.486718e-02 
9.180558e+00 5.248916e+00 7.496294e+00 1.948919e+00 -1.573923e+00 -1.839674e+00 -5.213058e-02 2.288774e+00 -1.370149e+01 -3.115985e+00 -2.031518e+00 -5.464186e+00 6.362459e-01 -1.378317e+00 -1.851645e-02 6.510612e-01 1.320309e+00 1.153000e+00 -1.954080e-01 -2.012731e+00 -6.674716e-01 5.782825e-01 -1.516145e-01 1.563441e-01 8.886244e-01 2.192777e-02 
7.461213e+00 8.793973e+00 7.856695e+00 1.618123e+00 5.760341e-01 -3.893778e-01 -3.151142e+00 -4.410950e+00 -6.881022e+00 -1.739234e+00 -7.321998e+00 -3.048213e+00 6.524031e-01 -1.468343e+00 4.719527e-01 9.858181e-01 1.744706e+00 4.521031e-02 -3.027062e-01 -1.440875e+00 -1.665038e+00 1.780991e+00 9.996984e-02 -4.798017e-01 2.097288e+00 2.198804e-02 
5.636240e+00 1.010201e+01 9.923040e+00 2.402644e+00 -5.067118e-01 2.853153e+00 -5.249416e+00 -8.364805e+00 -5.538333e+00 -1.470087e+00 -4.663491e+00 -2.046022e+00 6.698091e-01 -1.487905e+00 1.000382e+00 7.960451e-01 6.487972e-01 -3.884800e-01 -3.286325e-01 -8.657260e-01 -1.261887e+00 1.683358e+00 8.051298e-02 1.059246e-01 1.741529e+00 2.106260e-02 
3.858438e+00 1.016649e+01 1.093847e+01 3.380763e+00 -2.934124e+00 9.369321e-01 -6.526209e+00 -4.522405e+00 -3.108228e+00 -4.222874e+00 -4.556556e+00 1.054662e+00 6.948233e-01 -7.048444e-01 3.586608e-01 1.984357e-01 -2.386193e-01 -5.569135e-01 -9.627644e-01 -8.567911e-01 8.281129e-01 5.812675e-01 -3.613152e-01 1.742378e+00 4.320174e-01 2.498717e-02 
3.542423e+00 9.564567e+00 9.935630e+00 4.311585e+00 -1.761245e+00 -4.145992e+00 -2.693227e+00 -3.964934e+00 -7.171101e+00 -1.471601e+00 -2.884616e+00 1.192024e+00 7.203488e-01 4.822752e-01 3.486334e-01 -6.465881e-01 -1.297116e+00 -1.256555e+00 -1.283805e+00 -4.840707e-01 1.966105e+00 4.007537e-01 8.883071e-02 1.021579e+00 -4.749146e-01 3.045814e-02 
4.983900e+00 1.085600e+01 8.842579e+00 -5.294440e-01 -1.581267e+00 -1.703627e+00 -8.713192e+00 -2.470322e+00 -3.158301e+00 -3.545053e+00 5.004551e-01 -2.507149e+00 7.520691e-01 1.763481e+00 7.559630e-01 -1.419406e+00 -2.507448e+00 -1.701033e+00 -1.151369e+00 1.270455e-01 2.064564e+00 -1.946799e-01 3.509246e-01 4.771970e-01 -4.920837e-01 3.774171e-02 
7.484885e+00 1.150043e+01 7.738048e+00 -2.127831e+00 -7.465918e+00 -2.245592e+00 -6.576278e+00 4.396785e-01 -3.509529e+00 -1.364843e+00 -2.084101e+00 -2.639690e+00 7.934769e-01 2.348761e+00 6.941602e-01 -1.394795e+00 -3.594301e+00 -1.728516e+00 -1.432387e+00 -5.394913e-01 4.003827e+00 -1.197012e+00 -5.393822e-01 5.317464e-01 7.757201e-01 4.606926e-02 
1.070461e+01 1.297838e+01 4.940237e+00 -5.936771e+00 -8.586950e+00 -5.770115e+00 -3.949456e+00 3.598110e+00 -5.912414e+00 -2.521629e+00 -2.570828e+00 5.101000e-01 8.469678e-01 2.031684e+00 4.637136e-01 -1.187285e+00 -3.926309e+00 -1.982969e+00 -8.574728e-01 1.544212e-01 3.165563e+00 -1.619539e+00 2.395040e-01 1.899838e-01 2.052832e+00 4.588570e-02 
1.242587e+01 1.197418e+01 4.912827e+00 -1.095626e+01 -6.900983e+00 -9.274683e+00 -7.772552e+00 1.301999e+01 -1.177910e+01 -4.680223e+00 1.309758e+00 3.561999e+00 9.032458e-01 1.039057e+00 2.041531e-03 -1.413371e+00 -3.280708e+00 -7.328159e-01 -1.737280e-02 5.546179e-01 2.016229e+00 -1.290015e-01 5.972033e-02 4.301184e-01 1.319922e+00 3.217486e-02 
1.267183e+01 1.293769e+01 4.318764e+00 -1.574678e+01 -1.177858e+01 -2.476446e+00 -7.342949e+00 7.067340e+00 -7.121208e+00 -6.898431e-01 -2.465558e-01 4.656167e+00 9.266132e-01 3.696778e-01 -5.958406e-01 -1.982699e+00 -1.834675e+00 -1.608201e-01 6.518813e-01 1.570528e+00 1.378022e+00 8.633146e-01 1.358517e+00 -7.760989e-01 -2.692080e-01 1.902751e-02 
1.169656e+01 1.153098e+01 9.819274e-01 -1.362637e+01 -9.534182e+00 -3.979290e+00 -2.106441e+00 8.786208e+00 -3.550139e+00 -1.982135e+00 -1.095645e+00 1.886888e+00 9.145285e-01 9.525013e-03 -1.012909e+00 -2.016740e+00 -1.070428e+00 -7.064546e-01 1.951742e+00 3.014652e+00 1.399826e+00 1.845648e+00 -2.122716e-01 -1.484340e+00 -3.335858e-01 1.317856e-02 
1.291766e+01 1.022078e+01 -3.007807e+00 -1.377509e+01 -8.074451e+00 -5.158404e+00 1.070130e+00 1.260511e+01 -5.710323e+00 2.921911e+00 -5.248621e+00 1.615703e-03 9.364640e-01 -2.899923e-01 -1.498728e+00 -1.477329e+00 -1.934331e+00 1.092368e+00 1.953363e+00 2.415724e+00 2.846615e+00 8.845970e-01 -1.710093e+00 -1.190754e+00 -1.046458e+00 1.795284e-02 
1.235058e+01 8.268094e+00 -1.507586e+00 -1.729424e+01 -1.228532e+01 1.825007e+00 3.094168e+00 1.725023e+01 -3.256304e+00 -7.547459e+00 -3.610911e+00 4.221346e+00 9.642132e-01 -4.808525e-01 -9.668717e-01 -1.219021e+00 -2.761671e+00 1.741720e+00 3.771777e+00 5.769864e-01 1.594826e+00 3.296042e-01 -2.864299e+00 -8.332257e-02 -7.903646e-01 1.526638e-02 
1.089486e+01 7.075494e+00 -1.823125e+00 -2.358449e+01 -4.941174e+00 4.388220e+00 2.135364e+00 1.706841e+01 -2.845140e+00 -6.457647e+00 -4.942694e+00 -1.743351e+00 9.915350e-01 -6.481727e-01 -9.085110e-01 -1.288596e+00 -2.043558e+00 2.980333e+00 3.548150e+00 5.585609e-01 -3.372392e-01 -4.276182e-01 -3.180955e+00 9.475514e-01 -1.476499e+00 1.261837e-02 
1.030370e+01 8.269259e+00 -5.705519e+00 -2.253002e+01 -2.392219e+00 1.010628e+01 2.458739e-01 1.452869e+01 -3.334710e+00 -1.161385e+01 -1.665222e+00 -1.192452e+00 9.633249e-01 -4.826244e-01 -7.597226e-01 -1.933068e+00 -3.929787e-01 3.459253e+00 2.431568e+00 9.471810e-01 -2.252460e+00 -1.116508e+00 -1.676877e+00 1.495443e+00 -1.453858e+00 5.597931e-03 
1.070023e+01 5.677638e+00 -7.351820e+00 -2.137499e+01 1.880664e+00 8.441711e+00 5.287082e+00 1.227969e+01 -7.809211e+00 -1.094967e+01 -1.483709e+00 -4.673981e+00 1.000000e+00 -2.637545e-01 -1.194577e+00 -1.611931e+00 1.149926e+00 2.476743e+00 2.076315e+00 1.247278e+00 -3.568226e+00 -1.125851e+00 -8.077278e-01 2.125598e+00 2.600075e-01 -9.531259e-04 
1.003477e+01 5.168409e+00 -8.408579e+00 -2.036389e+01 1.600028e+00 1.195610e+01 6.254213e+00 8.382288e+00 -6.356808e+00 -1.368584e+01 2.136810e+00 -1.582627e+00 9.879704e-01 -3.577103e-01 -1.419777e+00 -9.938930e-01 1.381680e+00 2.168022e+00 1.702107e+00 9.297062e-01 -3.552719e+00 -6.797395e-01 -2.152559e-01 2.187860e+00 1.065170e+00 1.826036e-03 
9.710549e+00 2.653032e+00 -8.531250e+00 -1.891793e+01 5.446415e+00 1.384488e+01 5.367584e+00 2.300474e+00 -6.963347e+00 -9.460293e+00 3.784279e+00 -2.482259e-01 9.744467e-01 -1.889167e-01 -1.424302e+00 -4.870449e-01 1.325171e+00 1.607999e+00 1.821268e+00 -2.410413e-01 -2.241539e+00 -1.383895e-01 -5.374282e-01 2.966926e+00 1.489449e+00 -7.566678e-03 
9.009990e+00 2.682677e+00 -1.008527e+01 -1.685015e+01 6.665013e+00 1.591523e+01 4.854154e+00 1.754701e+00 -7.156339e+00 -1.343482e+01 6.640087e+00 1.920520e+00 9.852318e-01 6.104441e-02 -1.501303e+00 1.181593e-01 8.176419e-01 1.254556e+00 1.620795e+00 -5.367656e-01 -1.738318e+00 -6.268986e-01 1.450395e+00 1.241867e+00 1.070049e+00 -5.904460e-03 
1.026804e+01 -2.010047e-01 -8.948699e+00 -1.650600e+01 7.388166e+00 1.556849e+01 4.781905e+00 4.385781e+00 -8.101393e+00 -1.376232e+01 1.109928e+01 1.021691e+00 9.635359e-01 1.391169e-01 -1.737459e+00 8.308309e-01 1.136547e+00 -2.500764e-01 7.740909e-01 5.695915e-01 -6.342932e-01 -9.655688e-01 2.197061e+00 7.909546e-02 8.128319e-01 -1.286905e-02 
1.006125e+01 -9.110885e-01 -7.609058e+00 -1.748164e+01 6.901934e+00 1.919828e+01 3.863225e+00 -1.351955e+00 -8.922277e+00 -4.282846e+00 4.688644e+00 3.132658e+00 9.639034e-01 -3.536553e-01 -1.637760e+00 1.115918e+00 1.502391e+00 -2.707140e-01 -3.333564e-01 1.081821e+00 -1.275313e+00 3.534282e-01 2.352990e+00 -1.651888e-01 2.826397e-01 -2.566728e-02 
9.880505e+00 -4.237379e+00 -5.615201e+00 -1.291945e+01 4.077573e+00 1.607382e+01 8.711006e+00 6.823358e-01 -1.090822e+01 -3.050971e+00 5.155478e+00 3.209865e+00 9.207656e-01 -1.034968e+00 -1.348812e+00 7.445815e-01 3.278861e+00 -5.226904e-01 -1.680845e+00 1.324763e+00 -1.445116e+00 1.286267e+00 2.503210e+00 -1.624428e+00 1.680138e-01 -3.584970e-02 
7.435481e+00 -3.487937e+00 -6.172427e+00 -1.113147e+01 6.966740e+00 1.399578e+01 8.298711e+00 -2.770144e+00 -3.985784e+00 -7.025541e+00 8.786045e+00 2.239632e+00 8.782805e-01 -9.630491e-01 -1.859647e+00 8.411125e-01 4.083252e+00 6.856226e-01 -3.134765e+00 -7.027948e-01 3.164838e-01 2.663537e+00 1.485849e+00 -1.564011e+00 -5.887131e-01 -4.450700e-02 
6.406083e+00 -5.656638e+00 -5.944107e+00 -3.286779e+00 4.742311e+00 9.765510e+00 9.187977e+00 -2.130704e+00 -4.138304e+00 1.250805e-01 9.284416e-01 2.308273e+00 8.270988e-01 -1.063729e+00 -1.162288e+00 6.312625e-01 4.031351e+00 1.503805e+00 -2.872902e+00 -3.264758e+00 1.340255e+00 2.484245e+00 3.018486e+00 -3.848013e+00 -6.165228e-01 -4.064526e-02 
6.983213e+00 -9.499695e+00 -3.239043e+00 -1.881716e+00 9.997678e+00 6.678605e+00 1.107658e-01 1.636984e+00 1.010448e+00 1.558373e+00 -1.017893e+00 6.398878e-01 7.882018e-01 -3.948757e-01 -1.509409e+00 1.466547e+00 3.723069e+00 -2.668568e-01 -3.339511e+00 -1.602964e+00 2.540665e+00 1.140142e+00 1.978453e+00 -3.379143e+00 -3.157506e-01 -2.986445e-02 
4.787995e+00 -7.042941e+00 -3.925581e+00 2.612428e+00 1.008113e+01 5.367895e+00 -3.518813e+00 5.180048e+00 -9.851117e-01 7.749501e+00 -9.182621e+00 9.271225e-01 7.625786e-01 -1.763127e-01 -6.827629e-01 2.803979e+00 1.577018e+00 -1.683326e+00 -3.716722e+00 7.995294e-01 2.528087e+00 6.307641e-01 -3.000923e-01 -2.247370e+00 3.818919e-01 -2.044142e-02 
6.270147e+00 -1.034183e+01 1.510444e-01 4.534267e+00 2.963048e+00 -5.029625e-01 6.637288e+00 6.277807e+00 1.383321e-01 -9.454864e-01 -3.054139e+00 1.351454e+00 7.612184e-01 -5.091196e-02 1.033507e+00 3.435004e+00 6.210777e-01 -3.890828e+00 -3.115760e+00 3.642612e+00 4.952928e-01 -1.670083e-01 -4.896433e-01 -1.941898e+00 2.953602e-01 -2.534315e-02 
5.881052e+00 -8.649384e+00 6.380747e+00 1.390319e+00 -1.570028e-01 -5.227317e+00 9.922363e+00 8.189318e+00 -5.484257e-01 -1.234511e-01 -9.290288e+00 3.861949e+00 7.383835e-01 7.157466e-01 2.905873e+00 3.994648e+00 -5.946220e-01 -2.866778e+00 -4.081771e+00 1.546285e+00 -3.774655e-01 -9.297498e-01 3.148592e-01 -6.637122e-01 -1.799834e+00 -2.466032e-02 
6.182125e+00 -3.528941e+00 8.782811e+00 1.834727e+00 -4.337396e+00 -3.602590e+00 1.160324e+01 2.608814e+00 -4.293609e-02 3.046633e+00 -1.067355e+01 6.492753e-01 6.735836e-01 -3.513573e-01 5.197194e+00 3.419777e+00 -1.144427e+00 -2.634036e+00 -1.506818e+00 -2.148672e+00 -5.196313e-01 -5.493662e-01 -3.861623e-01 3.845257e-01 -1.581125e+00 -1.817705e-02 
8.410740e+00 4.079978e+00 1.173177e+01 9.890885e-01 -6.025406e-01 -1.349115e+01 1.729634e+00 5.127218e+00 -5.543227e+00 7.327737e+00 -8.691477e+00 -7.720956e+00 6.830944e-01 -2.225242e+00 5.158593e+00 3.064328e+00 -8.434151e-01 -4.287747e+00 2.087219e+00 -3.489899e+00 -1.328924e+00 8.167200e-01 -2.890664e+00 3.456454e+00 -1.510873e+00 1.416718e-02 
3.248517e+00 9.279458e+00 1.457442e+01 -9.872506e-01 -9.984365e+00 -3.905136e+00 -9.706378e-03 5.210701e+00 -1.110983e-01 -6.601892e+00 -1.430916e+00 -7.627187e-01 6.979777e-01 -1.314303e+00 3.226337e+00 1.699453e+00 -7.688308e-01 -3.638627e+00 1.998470e+00 -2.471924e+00 -5.208791e-01 1.225841e+00 -3.725281e+00 3.233720e+00 1.441503e-01 1.469022e-02 
-3.778353e+00 1.073938e+01 1.880659e+01 -1.415768e+00 -1.877225e+01 5.360053e+00 -1.720656e+00 2.437555e-01 3.569255e+00 -9.752506e+00 3.370663e+00 -2.986419e+00 7.970223e-01 1.010158e+00 8.165988e-01 -4.875813e-01 -7.765155e-01 -1.278502e+00 -2.597063e-01 1.813749e+00 -1.006035e-01 -9.738646e-01 -2.805303e-01 3.412527e-01 8.843818e-01 -4.880667e-04 
5.705156e+00 9.273042e+00 1.374267e+01 -8.069990e-01 -1.344568e+01 -3.035841e+00 9.687661e-01 2.446150e+00 1.530026e+00 -7.039652e+00 -5.360200e-01 -9.972421e-01 6.900707e-01 3.385964e+00 -2.241091e-01 -2.505548e+00 -5.919262e-01 2.478690e+00 -3.508594e+00 3.145363e+00 3.109683e-01 -4.322333e+00 4.244085e+00 -1.465918e+00 -5.631738e-01 -1.449368e-02 
1.223321e+01 8.166180e+00 9.709742e+00 -2.983615e+00 -5.264394e+00 -1.522433e+01 1.030914e+01 6.006476e+00 -1.123311e+01 6.143966e+00 -7.432661e+00 -3.181786e+00 6.846075e-01 3.712220e+00 -7.039545e-01 -3.256279e+00 -6.586663e-01 5.124989e+00 -5.311753e+00 3.180235e+00 1.783757e+00 -5.857503e+00 5.225235e+00 -1.711608e+00 -4.571075e-01 -2.423831e-02 
1.217255e+01 9.445514e+00 6.595099e+00 -3.162958e+00 -4.344842e+00 -1.115592e+01 9.702211e+00 3.884181e+00 -1.432158e+01 6.670299e+00 -3.358845e+00 -3.480904e+00 6.817167e-01 1.152835e+00 -7.255442e-01 -1.848372e+00 1.363235e-01 2.809863e+00 -2.314307e+00 2.069623e+00 4.331555e-02 -2.821994e+00 3.007888e+00 -1.395327e+00 1.027976e-01 -4.451024e-03 
1.154905e+01 7.133373e+00 6.098979e+00 -3.531120e+00 2.302273e+00 -1.713868e+01 9.813797e+00 8.443522e+00 -1.779246e+01 9.518691e+00 -3.775964e+00 -4.030125e+00 6.800078e-01 -1.161547e-01 -6.085717e-01 -2.745728e-01 3.701121e-01 9.769205e-01 1.736325e-01 4.306497e-02 -6.594790e-01 8.705875e-01 2.747934e-01 -8.810663e-01 3.974475e-01 -6.858230e-03 
1.181141e+01 6.161724e+00 6.306188e+00 1.483710e-01 -3.179697e+00 -1.365020e+01 1.156455e+01 1.444204e+00 -9.300270e+00 6.312425e+00 -9.341006e+00 -5.908406e-02 6.701155e-01 -3.166110e-01 -9.794620e-01 1.539262e+00 7.859272e-01 -3.723806e-01 5.099481e-01 -8.574513e-01 -4.017645e-01 2.610670e+00 -2.337565e-02 -1.708828e+00 -4.848712e-01 -1.184773e-02 
1.183301e+01 6.765216e+00 8.481334e+00 -2.788719e+00 -9.623643e-01 -1.310902e+01 9.593297e+00 3.929070e+00 -9.390831e+00 7.696869e+00 -8.846912e+00 -2.905458e+00 6.561170e-01 -8.631483e-01 -6.447340e-01 2.359362e+00 1.761038e+00 -7.795971e-01 9.121911e-01 -1.061445e+00 -1.104186e+00 2.696936e+00 5.348437e-01 -1.199169e+00 -1.153188e+00 -2.079538e-02 
1.044752e+01 4.732283e+00 1.310023e+01 3.954772e-01 -4.574427e+00 -1.062101e+01 5.525205e+00 4.132585e+00 -5.469047e+00 7.464331e+00 -9.367512e+00 -6.467594e+00 6.344234e-01 -1.416653e+00 -1.052400e+00 2.368620e+00 2.393661e+00 1.276318e+00 1.198486e+00 -2.125484e+00 2.463875e-01 1.924810e+00 1.131427e+00 -1.109707e+00 -2.627781e+00 -2.948526e-02 
7.915253e+00 4.624424e+00 1.449876e+01 5.150516e+00 -8.983477e-01 -1.409232e+01 7.526247e+00 1.578403e+00 -6.223385e+00 1.161696e+01 -9.758556e+00 -6.591809e+00 5.938770e-01 -1.726857e+00 -2.036169e+00 9.142912e-01 3.509106e+00 3.295338e+00 3.011927e+00 -2.003451e+00 -4.183614e-01 2.376410e+00 6.672267e-01 -1.251881e+00 -2.233866e+00 -4.131761e-02 
6.687027e+00 1.970119e+00 1.514057e+01 8.147057e+00 3.169884e+00 -7.166123e+00 1.970652e+00 3.851475e+00 -1.259943e+00 1.000952e+01 -1.443372e+01 -1.135482e+01 5.538092e-01 -1.101386e+00 -2.563477e+00 -2.262678e+00 2.010128e+00 4.049715e+00 3.926267e+00 -1.086431e+00 -8.388209e-03 2.397592e+00 -4.485057e-01 1.399636e+00 3.509985e-01 -5.485861e-02 
5.078971e+00 -2.034545e+00 1.203262e+01 1.088102e+01 1.164217e+01 2.231746e-01 1.353321e+00 1.977818e+00 3.866699e-01 9.760409e+00 -1.257321e+01 -1.163118e+01 4.898360e-01 -1.161910e+00 -2.756523e+00 -2.712008e+00 1.393420e+00 3.702649e+00 4.747241e+00 -9.816167e-01 -2.057656e-01 1.506523e+00 -1.125096e+00 3.151154e+00 1.542436e+00 -6.829239e-02 
6.358729e+00 -4.755617e+00 3.019917e+00 7.580863e+00 9.403885e+00 1.852585e+00 3.179515e+00 3.890936e+00 3.213884e+00 6.150076e+00 -9.620049e-01 -2.192917e+00 4.121509e-01 -1.024168e+00 -2.062784e+00 -3.224241e+00 9.601151e-01 2.188799e+00 2.690711e+00 1.416696e-01 -5.893043e-01 4.758690e-02 -9.502179e-01 3.800992e+00 2.289109e+00 -7.137235e-02 
2.269852e+00 -5.795324e+00 6.999051e+00 1.240071e+01 1.449790e+01 5.134535e+00 2.013732e+00 5.298442e-01 -9.276814e-01 7.921197e+00 -7.386434e-01 -3.460579e+00 3.232442e-01 -1.002447e+00 -4.894542e-01 -2.257370e+00 -1.199564e-01 -1.127993e+00 3.920666e-01 -3.231108e-01 -1.546695e+00 -4.218499e-01 -1.064848e+00 2.805089e+00 1.189929e+00 -7.450686e-02 
2.970747e+00 -6.463413e+00 1.536153e+00 1.218779e+01 1.268602e+01 3.831752e+00 2.348794e+00 1.628940e+00 -3.648334e-01 6.178035e+00 -1.346043e+00 -3.994573e+00 2.802434e-01 -1.010453e+00 5.954595e-01 -6.152232e-01 -3.464512e-01 -2.823088e+00 -1.990692e+00 -1.155671e+00 -1.779629e+00 -7.200910e-01 -5.389333e-01 5.841732e-01 -2.686798e-01 -6.346122e-02 
1.760729e+00 -3.627917e+00 1.487653e+00 7.977778e+00 4.361142e+00 1.193924e+00 1.531270e-01 -4.624661e+00 6.677914e-02 4.422188e+00 1.644254e+00 -4.780707e+00 1.832555e-01 -3.499718e-01 8.266214e-01 -1.213842e+00 -2.416597e+00 -4.713704e+00 -2.573733e+00 6.929300e-01 -1.409181e-01 1.098426e-01 3.851775e-01 1.283740e+00 1.019732e+00 -4.282748e-02 
1.561028e+00 -2.862023e+00 2.699500e+00 8.060074e+00 3.568237e-01 -6.130569e+00 -1.668536e+00 -2.429959e+00 -8.838015e-01 5.204915e+00 7.674124e-01 -2.876252e+00 1.648391e-01 -3.536497e-01 5.939651e-01 9.959698e-02 -1.505170e+00 -2.956225e+00 -1.805101e+00 2.790011e-01 -2.764226e-01 -8.563296e-01 1.398696e-01 1.376228e+00 1.843742e+00 -2.946165e-02 
1.224853e+00 -3.462912e+00 3.481665e-01 2.381586e+00 -2.906024e+00 -2.752967e+00 7.487047e+00 1.854703e+00 -1.189842e-01 1.033364e+01 4.623331e+00 1.078919e+00 1.668089e-01 -2.666306e-01 -2.880496e-01 -5.555149e-01 -3.559431e-01 -1.063313e+00 -3.769037e-01 1.223182e-01 -4.229607e-01 -1.260047e+00 2.748430e-02 6.092626e-01 3.950098e-01 -1.606529e-02 
1.470437e+00 -3.576091e+00 2.603881e+00 7.460033e+00 1.538475e+00 -3.220306e+00 7.684016e-02 -2.992855e+00 -4.553600e+00 3.921655e+00 4.045557e+00 2.294323e+00 1.411585e-01 -2.405133e-02 -1.113922e-01 -7.499856e-01 6.452634e-01 7.784763e-01 1.977088e+00 3.204992e-01 -9.633691e-01 -6.476387e-01 -1.184821e+00 1.275917e+00 2.097136e-01 -1.580884e-02 
4.728708e-01 -4.711132e+00 -1.242112e+00 6.498083e+00 -1.546249e+00 -2.145725e+00 -1.079700e-01 -6.458017e+00 -4.398555e+00 5.201240e+00 3.051495e+00 -5.390945e+00 1.147693e-01 3.811123e-02 4.109595e-02 -1.578232e-01 9.677485e-01 9.854389e-01 1.075499e+00 -4.258917e-01 2.146033e-01 -5.738991e-01 -2.240220e+00 4.816652e-01 -1.127430e+00 -4.863554e-03 
1.816762e+00 -2.794874e+00 -2.552882e-01 9.228143e+00 3.569317e+00 3.451251e+00 3.731469e+00 -3.090444e+00 -1.982210e+00 1.847015e+00 7.932917e+00 1.407248e+00 1.118147e-01 8.877993e-03 -8.651018e-04 -6.527122e-01 -4.022119e-01 -2.944854e-01 -5.992394e-01 2.418013e-02 9.038832e-01 -2.875885e-01 -9.499632e-01 -1.633821e-01 -1.326020e+00 3.275228e-03 
1.242246e+00 -3.648040e+00 9.886353e-01 6.336274e+00 1.005750e+00 -7.112490e-01 3.530274e+00 2.976515e+00 -4.274175e+00 1.698637e-01 5.087977e+00 -4.114693e+00 1.571630e-01 6.972911e-02 1.868249e-01 -2.667547e-01 -4.530742e-01 9.164357e-02 -6.909084e-01 -7.873821e-02 1.064692e+00 -1.617223e+00 -9.344470e-01 -7.919166e-01 1.485547e-01 2.016348e-03 
1.130139e+00 -4.111962e+00 -1.775054e+00 5.529879e+00 -1.209951e+00 -6.933742e+00 -1.621381e+00 -3.190705e+00 -6.053732e+00 1.687527e+00 2.210406e+00 -4.973900e+00 1.363378e-01 -5.716779e-01 -3.407851e-01 -5.833051e-01 -4.365519e-01 1.175558e+00 -8.099104e-01 -1.063200e+00 -2.852580e-01 -4.063120e-01 1.803470e+00 7.823917e-01 9.943079e-01 -8.830130e-04 
1.164828e+00 -3.118463e+00 -1.816003e+00 6.081844e+00 1.301604e+00 -4.077712e-01 2.174764e+00 -1.084426e+00 -1.044891e+01 6.087480e-01 1.953168e+00 -1.457598e+00 1.125895e-01 -3.491855e-01 -2.900879e-01 -4.555842e-01 -4.767299e-03 1.884103e+00 8.429796e-01 -5.192055e-01 -1.880001e+00 1.262392e+00 2.695297e+00 2.052448e+00 3.127057e+00 -1.180587e-02 
-1.002918e+00 -4.763588e+00 -1.769495e+00 7.172598e+00 9.299181e+00 -7.500401e-01 -9.067736e-01 -2.486264e+00 -9.264035e-01 1.064492e+01 1.341228e+01 5.050240e+00 1.296864e-01 -1.798867e-01 -3.847848e-01 -2.730787e-02 -2.510287e-01 9.189119e-01 1.330682e+00 8.940490e-01 -5.294143e-01 1.823622e+00 1.068661e+00 5.601485e-01 1.854953e+00 -6.905085e-03 
5.628476e-01 -4.772666e+00 -1.292065e+00 5.491077e+00 5.171700e+00 4.117984e-01 5.769426e-01 -6.775710e+00 -5.258794e-01 9.167654e+00 9.749281e+00 6.508522e+00 1.014594e-01 1.458623e-01 -1.064489e-01 6.762706e-02 -3.096870e-01 -1.235986e+00 5.309478e-01 -3.794163e-01 -4.810339e-01 1.527571e+00 -7.374828e-01 -1.290702e+00 -7.981668e-01 -7.611120e-03 
5.316958e-01 -5.208784e+00 -2.173562e+00 4.570118e+00 1.449560e+00 -6.901183e-01 3.647774e+00 -2.992134e+00 -1.897135e+00 2.751378e+00 1.113091e+00 3.178061e-01 1.073774e-01 3.878579e-01 1.404648e-02 -4.185542e-01 -7.075912e-01 -3.153891e+00 -7.959213e-02 -7.996869e-01 -2.702907e-01 -4.460083e-01 -2.685918e+00 -2.495274e+00 -2.325528e+00 -7.292527e-03 
1.126832e+00 -3.428110e+00 -1.275834e+00 5.834649e+00 -9.535145e-01 2.217007e+00 -1.999591e+00 -3.236661e+00 -2.325686e+00 8.681055e-01 1.649252e+00 -3.082215e+00 8.568841e-02 1.805435e-01 2.656226e-01 -2.873767e-01 -3.616897e-01 -6.538073e-01 7.284419e-01 -1.491960e+00 -2.588180e-01 -5.553055e-03 -2.222656e+00 -1.918730e+00 -2.415276e+00 1.350659e-03 
6.543789e-01 -5.365634e+00 -3.870381e+00 3.462856e+00 -3.407664e+00 -2.050605e+00 -3.616941e+00 -5.607242e+00 -2.256541e+00 1.365107e+00 4.985923e+00 -1.782030e+00 1.011092e-01 1.264356e-01 9.650112e-01 7.785628e-01 -2.087303e-01 5.857764e-01 -5.548968e-02 -1.581638e+00 4.266629e-01 -1.009552e-01 6.845474e-03 -1.162910e-03 -4.047272e-01 -2.471209e-04 
1.404223e+00 -3.366128e+00 -1.880539e+00 4.236260e+00 4.331276e+00 4.734251e+00 -3.250501e+00 -6.762246e+00 -3.739414e-01 -1.252489e+00 -1.780783e+00 -4.517942e+00 1.113468e-01 -2.099142e-02 7.844375e-01 7.721070e-01 3.310119e-01 9.940897e-01 1.588635e-01 3.288168e-01 4.028932e-01 2.294370e-01 1.437866e+00 5.295402e-01 6.806190e-01 4.720151e-04 
1.025178e+00 -4.147187e-01 2.021605e+00 4.325662e+00 1.736047e+00 -2.226189e+00 -3.634959e+00 9.039733e-01 -3.377783e+00 3.845903e+00 2.822294e+00 -9.879664e-01 9.331262e-02 1.188078e-02 1.183775e+00 1.053973e+00 2.030065e+00 1.738083e+00 7.253615e-01 2.053905e-01 2.164030e-02 3.422216e-01 3.344898e-01 -7.069429e-01 -1.545637e-01 -7.589281e-03 
8.364754e-01 -1.981380e+00 -3.612920e-01 7.058306e+00 1.445078e+00 3.099117e+00 -3.464983e-01 -4.477802e+00 -6.178803e-01 6.817036e+00 5.378768e+00 -7.615125e-02 9.194678e-02 -1.088408e-01 1.800941e-01 4.140103e-01 3.248245e-01 5.865299e-01 1.201333e+00 1.021053e-01 1.694620e+00 1.222866e+00 -1.557958e+00 1.009657e+00 8.159302e-01 5.215687e-03 
9.976568e-01 -1.391351e-01 6.398609e-01 1.220216e+01 6.725852e+00 2.393770e+00 -4.041990e+00 -6.641263e+00 -4.234638e-01 -9.972070e-01 -2.128567e+00 -4.775743e+00 7.286280e-02 -2.451985e-01 -1.613533e-01 3.787235e-02 -6.859251e-01 7.550482e-01 2.542217e+00 5.283214e-01 2.002842e+00 2.151091e+00 -3.178088e+00 1.514252e+00 1.053710e+00 5.673510e-03 
8.737798e-01 -2.603450e+00 8.803842e-01 1.922133e+00 4.769023e+00 8.430939e+00 -2.536459e+00 5.483473e+00 4.263231e+00 -6.620726e+00 5.742930e+00 1.455598e+00 1.476501e-01 -3.343745e-01 9.660000e-01 3.444124e-01 -9.043199e-01 3.416415e-01 1.553319e-01 6.285856e-01 1.768096e+00 1.454907e+00 -1.418465e+00 2.098916e+00 1.268876e+00 -1.053878e-02 
-2.194667e-01 -9.104502e-01 1.590128e+00 3.464123e+00 3.849316e+00 7.818985e+00 1.016293e-01 5.937546e+00 4.937116e+00 -5.325656e+00 1.021147e+01 3.514707e+00 9.382850e-02 -9.957764e-01 6.907656e-01 1.384341e+00 -1.193381e+00 -9.981729e-01 6.075102e-01 -1.724945e+00 -3.621495e-01 6.944484e-01 -5.690071e-01 2.247758e+00 6.130232e-01 7.011145e-03 
-2.268353e-01 3.234277e+00 8.856363e-01 6.905725e+00 4.591554e+00 1.163168e+00 7.246201e-01 -1.926726e+00 3.976363e+00 1.888937e+00 9.703324e+00 2.123005e+00 2.877003e-02 -7.929779e-01 1.469707e+00 1.108916e+00 8.904444e-01 -4.956364e-01 -5.595050e-02 -1.899320e+00 -2.002957e+00 4.149993e-01 6.695233e-01 -9.203793e-01 -2.014961e+00 -1.548909e-02 
-3.430918e+00 3.958294e-01 7.558941e+00 3.743458e+00 1.823722e+00 9.065206e+00 -1.429725e+01 -4.746911e+00 3.192212e+00 -8.097074e+00 7.130028e+00 -2.044331e+00 1.673586e-01 -8.682798e-01 -3.190729e-01 1.325850e+00 -3.682551e-01 -3.857342e-01 5.548469e-01 -2.027312e+00 -1.597094e+00 3.038677e-01 -2.529370e-01 -1.893207e+00 -8.245195e-01 1.379676e-02 
-1.485384e+00 4.091944e+00 3.440558e+00 6.234688e+00 3.303638e+00 7.528076e+00 -4.833616e+00 8.109172e-01 7.210680e+00 -1.887401e+00 2.681757e+00 -5.839690e+00 3.343964e-02 -1.336142e+00 -1.701522e+00 8.770862e-01 -1.891183e+00 -1.463541e-01 1.653751e+00 -1.034649e+00 4.230914e-01 5.820025e-01 -3.776532e-01 -1.027127e+00 2.171403e-01 4.755289e-02 
-3.931591e+00 -2.934648e+00 6.941915e+00 1.958366e+00 2.564602e+00 7.410766e+00 -7.255813e+00 -3.416744e+00 4.839296e+00 -4.702173e+00 4.256224e+00 3.373458e+00 1.604775e-01 -1.162441e+00 -1.570788e+00 -1.819699e-01 -1.869454e+00 3.516947e-01 5.118936e-01 9.520092e-01 7.253848e-01 4.593396e-01 1.299121e+00 1.071957e-01 1.142779e+00 4.417682e-02 
-6.657210e+00 -3.608093e+00 5.579580e+00 -1.657644e+00 3.489343e+00 1.025914e+01 -7.969344e+00 -4.763519e-01 6.062834e+00 -1.696780e+00 6.004590e+00 4.998125e-01 2.699750e-01 -1.306927e+00 -1.607352e+00 2.915711e-01 -1.940068e+00 1.296151e-01 8.310506e-01 -6.984988e-01 3.658540e-02 -1.072155e-01 3.386635e-01 8.394030e-01 9.805359e-01 5.825682e-02 
