-7.725875e+00 3.277996e+00 1.224453e+00 -2.240557e+00 1.849645e+00 -1.954480e+00 4.099443e+00 -1.668642e-01 2.925621e+00 4.403052e+00 6.149662e+00 4.364265e+00 -1.319729e-01 -4.009859e-01 -3.471752e-01 2.842483e-01 2.004841e-01 -6.556287e-01 1.220032e-01 -2.996289e-01 -4.580926e-01 1.506257e-01 5.417566e-01 -4.442893e-01 9.468431e-01 1.320398e-03 
-8.891664e+00 1.414439e+00 1.288415e+00 -1.115081e+00 6.954000e-01 -8.048891e-01 3.393553e+00 -1.687718e+00 3.497742e+00 5.410388e+00 5.874590e+00 6.411388e+00 -1.350527e-01 -5.521644e-01 -4.167605e-01 3.450754e-01 -9.279148e-02 -6.172032e-01 -3.074103e-01 -2.152037e-01 -2.044921e-01 6.220275e-02 -3.702622e-01 -6.781962e-01 1.389814e+00 1.751030e-03 
-9.147910e+00 2.473898e+00 2.613713e+00 -1.800875e+00 -8.513751e-01 -1.919260e+00 2.954244e+00 -1.696900e+00 3.392688e+00 6.608168e+00 4.065752e+00 8.074920e+00 -1.238310e-01 -2.103121e-01 -3.842381e-02 4.141543e-01 4.250881e-01 3.819905e-01 -4.357853e-01 -4.730918e-01 -4.575827e-01 -2.175597e-01 -2.548450e-01 -9.329016e-01 4.363937e-01 -1.015913e-03 
-9.775680e+00 1.596242e+00 2.255200e+00 -2.924356e+00 1.141398e-01 -3.509142e+00 3.596025e+00 -4.243067e-01 3.003100e+00 1.449184e+00 3.800636e+00 9.458010e+00 -1.272887e-01 6.976299e-02 6.254873e-01 1.459810e-01 2.253747e-01 5.211946e-01 -8.997006e-01 -5.122576e-01 3.756287e-01 -3.626733e-01 -8.470356e-01 -1.072801e+00 -1.310207e+00 -1.116133e-03 
-8.335427e+00 2.994975e+00 2.811832e+00 7.895209e-01 4.050228e+00 -2.781281e+00 1.632749e+00 -3.086483e+00 2.085143e+00 5.109429e+00 2.522131e+00 5.022923e+00 -1.409345e-01 3.174944e-01 5.768358e-01 -3.818800e-01 -4.280718e-01 7.379479e-01 2.783398e-01 -9.599648e-02 1.273701e+00 7.917055e-01 -7.291773e-02 2.251934e-01 -1.387969e+00 -3.440476e-03 
-8.949090e+00 4.281337e+00 1.919261e+00 -1.283405e+00 8.505714e-01 -4.872382e+00 1.493013e+00 8.852170e-01 2.338148e+00 1.924580e+00 1.282394e+00 1.386351e+00 -1.320816e-01 3.327168e-01 2.141836e-01 -2.770429e-01 2.364811e-01 1.815179e-01 1.489926e+00 -3.721792e-01 -6.045133e-01 9.917986e-01 1.554269e+00 2.297389e-01 -8.164532e-01 -1.035917e-03 
-7.973733e+00 4.015529e+00 8.722826e-01 -4.761709e+00 2.470149e+00 1.540594e-01 3.525767e+00 4.016844e+00 7.683692e+00 6.005881e+00 6.450840e+00 5.170905e+00 -1.386369e-01 2.599697e-01 1.736819e-01 6.962691e-02 4.934220e-02 -1.027830e+00 2.248168e-01 -4.223813e-01 -1.813071e-01 7.182671e-01 -2.703263e-01 -5.810406e-01 -5.531849e-01 -2.248287e-04 
-8.292943e+00 2.156883e+00 1.839760e+00 1.033665e+00 1.811769e+00 2.472819e+00 7.886193e-01 -6.998537e+00 5.162819e+00 8.772303e+00 2.984976e+00 5.301754e+00 -1.336170e-01 2.532719e-01 -8.554740e-02 3.730285e-01 8.028822e-01 -4.111848e-02 5.197244e-01 1.109485e-01 -1.025219e+00 -6.718882e-01 -7.351981e-01 -2.164767e-01 -1.121805e-01 -3.243649e-03 
-7.363652e+00 4.925612e+00 3.199717e+00 -1.223032e-01 -1.569523e+00 -5.329797e+00 -1.269608e-01 -5.114210e-02 4.264143e+00 3.339369e-01 -1.234363e+00 2.992979e-01 -1.412909e-01 2.000542e-02 6.637575e-02 4.059299e-01 1.483754e+00 1.381999e-01 -7.523658e-01 2.227290e-01 -4.107631e-01 -1.011377e+00 -1.010528e+00 -9.609936e-01 -1.139731e+00 -1.115906e-03 
-7.987771e+00 3.398559e+00 2.620686e+00 4.113028e-01 2.664815e+00 4.681678e-01 3.874119e+00 -2.206884e+00 6.884816e-01 1.084561e+00 4.042612e+00 3.261253e+00 -1.469729e-01 -2.724724e-02 -3.037450e-01 1.113384e-02 6.675029e-03 6.519628e-01 -9.049699e-01 8.649766e-01 1.154038e+00 -7.363225e-01 -9.365714e-01 6.021657e-02 -5.717633e-01 -3.159893e-03 
-8.026292e+00 3.726570e+00 2.511469e+00 2.968243e+00 2.734625e+00 -2.605444e+00 3.096663e+00 -4.327974e-01 4.863976e+00 4.797110e+00 1.117054e+00 4.925003e-01 -1.375386e-01 2.136833e-01 -3.685709e-01 -9.732191e-01 7.488494e-02 4.189727e-01 6.691640e-01 3.260069e-01 -4.836427e-01 -3.772273e-01 1.483193e+00 8.712264e-01 1.121801e+00 8.190071e-03 
-8.097859e+00 1.237679e+00 2.239553e+00 -4.782329e-01 2.919508e+00 -3.414207e+00 3.501691e+00 -1.037520e+00 1.181291e+00 1.857859e+00 2.110350e+00 2.346336e+00 -1.512927e-01 8.988882e-01 1.547261e-01 -1.030532e+00 -9.580266e-02 -2.162310e-01 2.409989e-01 -3.544893e-01 3.847840e-01 3.793618e-01 2.420332e-01 -6.578427e-01 7.034129e-01 1.351874e-02 
-6.240191e+00 4.163197e+00 -1.475812e+00 6.968893e-01 3.979933e-01 -4.278928e-02 1.689288e+00 -3.054038e+00 2.131602e+00 7.363251e+00 4.087900e+00 6.365761e+00 -9.818065e-02 1.182958e+00 6.721415e-01 -5.231230e-02 -7.340648e-01 -3.960032e-01 4.331404e-01 -4.081134e-01 -2.472163e-01 -8.216802e-01 -9.524490e-01 -5.311023e-01 4.421446e-01 8.739841e-03 
-4.386380e+00 3.953876e+00 -5.383320e-01 1.067966e+00 2.751976e+00 3.918352e-01 2.805360e+00 1.027656e+00 3.951477e+00 1.011657e+00 -7.320246e-01 3.841687e+00 -9.905815e-02 1.309966e+00 9.754659e-01 -7.709742e-03 -9.868149e-01 -7.704388e-01 -8.464171e-01 -1.970669e+00 -1.102089e+00 -3.097214e-01 -1.228105e+00 -1.038387e+00 -7.949417e-01 2.841902e-03 
-3.967242e+00 5.729179e+00 3.638850e+00 -1.475181e+00 8.383753e-01 -2.342763e+00 1.404261e+00 -2.701467e+00 -6.295190e-01 4.579657e-01 -1.172695e-01 1.955548e+00 -1.199566e-01 1.177660e+00 3.566948e-01 2.062910e-01 1.008391e-01 1.975036e-01 -1.531371e+00 -2.981616e+00 -2.121671e+00 -4.653320e-01 -8.798264e-01 -7.123200e-01 -1.077135e+00 5.563736e-04 
-2.684502e+00 5.332018e+00 -3.563266e-01 -4.326272e+00 -1.152876e+00 -6.496305e+00 -6.209141e+00 -6.724249e+00 1.013244e+00 -8.300244e-01 -9.789972e-01 5.767341e-01 -1.261952e-01 1.341335e+00 -8.312052e-01 -1.724231e+00 6.166961e-01 1.634607e+00 -1.054608e+00 -3.981709e+00 -2.651626e+00 -6.560164e-01 5.799366e-01 1.269496e+00 1.136345e+00 1.481110e-02 
-1.202829e+00 5.257600e+00 -5.353594e-01 3.898204e+00 3.337938e+00 -4.255572e+00 -8.711545e+00 -9.786442e+00 1.274058e+00 3.884959e+00 6.497861e-01 2.612562e+00 -8.183026e-02 1.262292e+00 -1.513182e+00 -2.158293e+00 5.275251e-01 1.336018e+00 -6.647385e-01 -2.545805e+00 -8.052464e-01 -6.409937e-01 3.961515e-02 5.002444e-01 8.083185e-01 1.602138e-02 
9.380865e-01 3.363943e-02 -7.072382e+00 1.464754e+00 9.675232e+00 -3.924800e+00 -1.204528e+01 -8.687985e+00 -2.803931e-01 2.197843e+00 5.231926e+00 9.194904e+00 -4.406583e-02 5.766429e-01 -2.679950e+00 -1.926598e+00 -4.100883e-01 -7.506930e-01 5.781856e-01 1.649927e+00 1.485637e+00 -5.166188e-01 -3.803558e-02 -2.843050e-01 4.679319e-01 2.334343e-02 
5.329256e-01 8.124599e-01 -3.794588e+00 -1.733069e+00 2.104409e+00 -6.952209e+00 -8.406693e+00 -5.745831e+00 -3.187669e+00 -8.578923e-01 -7.215093e-01 1.688055e+00 -8.091438e-02 2.234082e-01 -3.315937e+00 -1.055566e+00 -1.915213e+00 -3.073840e+00 1.530451e+00 3.618001e+00 2.551179e+00 -1.622576e-01 -1.390284e+00 -1.466634e+00 -5.413448e-01 3.725922e-02 
-6.691647e-01 -5.845160e+00 -8.359703e+00 -3.561077e+00 -4.289577e+00 -2.257060e+00 1.888070e+00 -1.316370e+00 6.610138e-01 1.351224e+00 -1.714875e+00 3.378647e+00 -9.935975e-03 -4.392981e-01 -3.350114e+00 1.583874e+00 -2.313071e+00 -3.508059e+00 2.184102e+00 3.471847e+00 1.644258e+00 -3.846414e-01 -1.072935e+00 -2.153178e+00 -9.147282e-01 6.975345e-02 
7.178373e-01 -8.382684e+00 -5.169529e+00 -3.164946e+00 -5.048856e+00 2.562811e+00 2.411784e+00 -7.163508e-01 -7.933378e-03 -2.643149e+00 -3.209985e+00 2.813966e+00 8.740091e-02 -5.734261e-01 -1.736423e+00 2.472068e+00 -1.916056e+00 -1.103491e+00 1.461018e+00 1.285612e+00 1.122852e+00 3.269229e-01 2.061309e-01 -5.028952e-01 -9.484188e-02 6.599667e-02 
-1.350860e+00 -1.211936e+01 1.534458e+00 -9.384663e+00 -4.288429e+00 2.238200e+00 -9.528399e-02 -2.981435e+00 -3.793468e+00 -2.274201e+00 -4.289726e+00 4.058308e+00 2.205437e-01 -3.298811e-01 1.279613e+00 3.508083e+00 -1.842425e+00 6.645637e-01 -1.196270e-01 -9.422480e-01 7.381450e-01 7.596099e-03 2.048294e+00 4.459164e-01 -2.377430e+00 8.744718e-02 
-1.993358e+00 -4.732554e+00 3.618669e+00 -8.401554e+00 -3.413619e+00 -1.894750e+00 -9.869571e-01 7.009623e-01 6.741866e-01 1.985475e+00 -1.948560e+00 8.740155e-01 1.338291e-01 -4.869321e-01 3.477584e+00 1.954381e+00 -7.064859e-01 1.963898e-01 -1.996535e+00 -1.925325e+00 -3.794580e-02 8.709928e-01 2.891206e+00 1.805265e+00 -2.874779e+00 4.559969e-02 
-9.629726e-01 -1.272161e+00 4.786613e+00 -1.015490e+01 -1.784378e+00 -6.264144e-01 -1.123799e+00 1.665698e+00 3.579344e-01 9.278381e+00 -1.160052e-01 -7.538527e+00 4.040858e-01 -1.729290e+00 4.623123e+00 -1.258602e+00 2.988492e+00 7.336757e-01 -2.329016e+00 -1.493519e+00 -8.558362e-01 1.849669e+00 9.373673e-01 1.224302e+00 -1.536627e+00 4.722354e-02 
-1.910767e+00 3.581640e+00 2.976299e+00 -6.312259e+00 -5.318933e+00 -5.987557e+00 -6.700585e+00 -3.229646e+00 2.271329e+00 6.036589e+00 3.729480e+00 -5.761509e+00 2.236283e-01 -3.100694e+00 2.492844e+00 -2.879584e+00 4.478868e+00 2.088777e+00 -3.499567e-01 3.126482e-01 -8.288977e-01 1.853299e+00 -6.130276e-02 1.325433e+00 1.862596e+00 5.473959e-02 
-1.003861e+01 6.839163e+00 -4.437369e+00 4.513149e+00 3.326058e-01 -7.360479e+00 -4.706066e+00 -5.295312e+00 4.656308e+00 3.870784e-01 -1.007235e+00 -3.070645e-01 4.117618e-01 -1.215664e+00 1.597631e-01 -2.555299e+00 3.652346e+00 1.737648e+00 -6.239257e-02 7.984565e-01 5.827683e-01 1.723495e+00 -2.568330e+00 -2.867115e-01 4.109168e+00 -6.861904e-02 
-1.295901e+01 3.676004e+00 -6.167260e+00 6.658761e+00 5.971776e+00 -2.775009e-01 2.367417e+00 3.697908e-02 7.791497e+00 6.124612e+00 5.124222e+00 6.571266e+00 4.036891e-01 9.790543e-01 -1.516425e+00 -1.476744e+00 1.025203e+00 1.094284e+00 6.857627e-01 1.132524e+00 1.562600e+00 5.634491e-01 -3.621232e+00 -2.245887e+00 2.548777e+00 -1.003896e-01 
-1.517173e+00 -5.205277e-01 -3.418103e+00 1.621326e+00 1.258507e+00 -3.793405e+00 -1.665518e+00 2.946227e+00 6.215324e+00 -3.607279e+00 -2.246933e+00 6.840928e+00 -2.903974e-02 3.254251e+00 -1.611179e+00 -1.036792e-01 -1.609409e+00 -6.043253e-01 3.413151e-01 5.392108e-01 1.351062e+00 -2.696491e-01 -3.264165e+00 -1.378538e+00 4.785789e-01 -1.441126e-01 
-1.276212e+00 -3.206410e-01 -4.917055e+00 2.596657e-01 -3.104625e-01 -4.342280e+00 -2.558239e+00 4.625862e-01 4.309067e+00 -1.007239e+01 -6.880104e+00 3.408383e+00 -5.791879e-02 2.560495e+00 -3.735220e-01 1.333940e-01 -1.506368e+00 -1.306886e+00 -6.537894e-01 -3.816022e-01 1.113663e+00 -3.956086e-01 -1.962172e+00 -8.200797e-01 -9.685236e-01 -1.076317e-01 
3.912497e-01 7.815902e-01 -5.580868e+00 -3.343483e-01 4.520984e-01 -3.621514e+00 4.528162e-01 1.247195e+00 5.049278e+00 -7.835243e+00 -1.897763e+00 3.667271e+00 -7.799721e-02 -4.454927e-01 8.242322e-01 5.622324e-01 1.172906e-01 6.262138e-01 5.281615e-01 1.091003e+00 7.974752e-01 -8.649997e-02 1.448768e+00 1.569115e+00 -1.056466e+00 -2.055787e-02 
-1.110744e+00 1.157335e+00 -4.418908e+00 1.047585e-01 -1.594477e-01 -3.632394e+00 -5.997605e-01 6.454812e+00 6.396477e+00 -1.572264e+00 8.492385e-01 3.315476e+00 -1.099905e-01 -1.307578e+00 1.101859e+00 1.418894e+00 6.673635e-01 5.177126e-01 1.368722e+00 1.764952e+00 3.780196e-02 -7.739054e-01 3.723932e+00 1.129585e+00 -1.201078e+00 -7.108045e-03 
-3.827370e+00 2.861645e+00 -8.560147e-01 2.285233e+00 4.314069e+00 -1.507541e+00 2.810258e+00 3.937490e+00 4.739119e+00 -6.135023e-01 1.733972e+00 1.605052e+00 -1.057932e-01 -2.173668e+00 9.424506e-01 2.094575e+00 4.438415e-01 3.370702e-01 1.219665e+00 1.657632e+00 -3.712173e-01 -3.442271e-01 3.376987e+00 3.774874e-01 3.081377e-01 -7.195628e-03 
-5.704791e+00 4.148628e+00 -1.850131e-01 2.286692e+00 3.471155e-01 1.444345e+00 5.087802e+00 -6.935515e-01 5.946193e-01 4.936399e+00 -3.048045e+00 -1.565897e+00 -7.956100e-02 -1.650732e+00 4.566178e-01 1.670218e+00 3.351953e-02 5.443994e-01 1.149154e+00 1.827753e+00 -1.242978e+00 1.815405e-01 1.876419e+00 7.469563e-01 1.354935e+00 -7.136476e-03 
-8.180066e+00 3.998197e+00 2.775060e+00 7.938923e-01 1.884168e+00 -6.155837e-02 5.897197e+00 2.965291e+00 6.229071e+00 5.795362e+00 1.938315e+00 7.648646e+00 -1.291901e-01 -9.037886e-01 -1.348256e-01 7.486823e-01 -2.813530e-01 -4.559492e-01 5.565945e-01 1.139510e+00 -1.748099e-01 2.091869e-01 7.384439e-01 1.504937e+00 1.827513e+00 -1.109236e-02 
-7.188056e+00 2.872149e+00 2.116645e+00 1.018026e+00 3.777500e+00 1.390387e+00 6.995537e+00 7.260219e-01 6.559203e+00 4.605401e+00 4.481849e+00 7.068354e+00 -1.339744e-01 -2.075031e-01 -2.844150e-01 6.516913e-01 1.680864e+00 1.001026e+00 2.738336e-01 -9.163923e-01 7.780417e-01 -2.246186e-01 -4.172041e-02 2.011482e+00 2.152702e+00 -2.234578e-03 
-7.604680e+00 2.825757e+00 1.736568e+00 1.512801e+00 3.191302e-01 1.302410e+00 7.553944e+00 2.353654e+00 2.802762e+00 3.244216e+00 5.493712e+00 6.425489e+00 -1.340483e-01 2.215239e-01 1.846943e-01 3.653093e-01 8.309463e-01 3.736080e-01 -7.042300e-01 -2.580096e+00 -9.511019e-01 -1.449686e+00 -3.565393e-01 4.741421e-02 -1.968611e-01 3.710759e-03 
-7.030000e+00 3.312773e+00 3.592690e+00 1.033156e+01 6.134766e+00 2.131528e+00 -3.225322e-01 3.502475e+00 1.184681e+00 6.003369e+00 5.231664e+00 9.809190e+00 -8.830476e-02 7.013437e-01 2.991539e-01 9.634596e-02 -1.122567e+00 -6.164081e-01 -6.967055e-01 -1.002265e+00 2.416480e-01 -2.196764e-01 3.548105e-01 -1.000216e+00 -2.943844e-01 2.875066e-03 
-7.151475e+00 4.701356e+00 3.863584e+00 2.918584e-01 2.573575e+00 -3.953279e+00 -3.344245e+00 -3.178445e+00 1.667904e+00 3.313681e+00 1.800479e+00 5.293922e+00 -1.334711e-01 1.143179e+00 -9.904455e-01 -1.535911e+00 -2.160354e+00 -1.481931e+00 -1.328270e+00 3.011968e-01 1.045724e-01 1.105033e+00 9.551135e-01 -4.009109e-02 -4.731010e-01 2.965339e-02 
-3.907940e+00 3.430119e+00 1.534867e+00 -3.984337e+00 -4.317627e-01 5.347038e-01 7.433305e+00 4.700311e+00 6.028250e+00 6.344721e+00 1.327385e+00 6.162215e+00 -1.198877e-01 3.747815e-01 -2.362955e+00 -2.805120e+00 -1.736631e+00 -3.404834e+00 -1.504095e+00 7.125022e-01 -7.584290e-01 1.051759e+00 8.923378e-01 -1.010116e-01 -1.582125e+00 8.155374e-02 
-3.449814e+00 -2.185144e+00 -4.914076e+00 -2.131024e+00 -3.807261e+00 -4.540527e+00 5.182009e+00 2.277598e+00 5.906140e+00 7.849108e+00 7.245396e+00 5.883471e+00 3.001010e-02 -8.397163e-01 -2.643876e+00 -1.840959e+00 1.906713e+00 -1.786224e+00 6.914796e-01 7.864597e-01 3.198519e-02 -4.349964e-01 -5.276471e-01 -8.612697e-01 -1.521563e+00 1.387754e-01 
-7.006923e+00 -5.058751e+00 -6.044084e+00 2.859844e+00 -7.698987e+00 -5.095321e+00 -1.023149e+00 -3.017691e+00 4.324361e+00 8.197345e+00 2.004148e+00 1.603791e+00 2.377234e-01 -2.544562e+00 -2.721142e+00 -1.249301e+00 2.417400e+00 -3.482502e-01 4.574312e-01 -1.029189e+00 -2.223227e+00 -3.883682e+00 -3.882375e+00 -1.905578e+00 -1.483670e+00 1.507794e-01 
-9.800565e+00 -4.273590e+00 -1.551738e+00 6.403333e+00 -2.723935e+00 2.319132e+00 4.816279e+00 8.404825e-01 3.448666e-01 -2.508670e-01 -2.844251e+00 -3.468204e-02 3.816002e-01 -2.125609e+00 -1.196493e+00 -4.726116e-01 1.318095e+00 9.079702e-01 1.538030e+00 -1.440724e-01 -8.746098e-01 -3.851138e+00 -3.453748e+00 -1.212516e+00 -4.939396e-01 1.241659e-01 
-1.345537e+01 -9.131369e+00 -6.392808e+00 3.835483e+00 -2.714677e+00 -6.079698e-01 2.470224e+00 -5.697263e+00 -1.060952e+01 -9.017165e+00 -3.155680e+00 1.702941e+00 4.582143e-01 -8.352661e-01 -3.408754e-01 -7.789077e-01 -2.932718e-01 1.620499e+00 1.272525e+00 -4.387789e-01 7.583476e-01 -1.274999e+00 -1.696569e+00 -3.196444e-01 1.020685e+00 7.768624e-02 
-1.085363e+01 -6.131300e+00 -7.102772e+00 3.971633e+00 -1.759565e+00 9.059470e-01 2.714960e+00 -7.556647e-01 -5.882609e+00 -8.123773e-01 3.762732e+00 3.364198e+00 5.405941e-01 -2.885761e-02 1.122022e-01 -7.833518e-01 -3.744508e-01 1.246575e+00 4.227608e-01 9.137044e-02 1.728457e+00 1.497924e+00 5.671824e-01 -3.207356e-01 2.287896e+00 5.047673e-02 
-1.065672e+01 -5.834273e+00 -7.163105e+00 2.609334e+00 -7.867408e-02 1.973897e+00 -2.166383e+00 1.572120e+00 1.063102e+00 -4.745722e-03 -2.897566e+00 5.007775e+00 5.466576e-01 3.462809e-01 5.333689e-01 7.866001e-01 3.216524e-02 6.997851e-01 7.817731e-01 5.720298e-01 2.013231e+00 2.893804e+00 7.678017e-01 -7.941182e-01 9.903248e-01 3.568572e-02 
-1.134418e+01 -5.361127e+00 -5.083348e+00 5.144153e+00 2.190939e+00 3.142002e+00 7.591435e+00 5.848076e+00 1.998174e+00 -1.921165e+00 -4.576986e+00 9.752380e+00 5.897622e-01 1.941795e-01 8.921951e-01 1.663448e+00 1.027907e-01 -5.866535e-02 6.156998e-02 1.159617e+00 -7.647835e-01 1.469232e+00 -1.837988e-02 -4.713247e-01 -8.929794e-01 3.191953e-02 
-1.147870e+01 -6.849610e+00 -3.469519e+00 3.410049e+00 -1.191003e+00 2.182868e+00 2.892136e+00 1.067019e+00 -8.089721e-02 -4.623763e+00 -2.956412e+00 3.460474e+00 6.120588e-01 -2.577114e-02 3.090595e-01 1.304045e+00 3.889762e-01 -8.010265e-01 -4.545165e-01 1.386879e+00 -1.329874e+00 2.492357e-01 1.034660e+00 1.006974e+00 -1.356691e+00 2.621281e-02 
-9.471745e+00 -1.162656e+00 -6.323273e-01 4.085230e+00 -1.496727e+00 1.109311e+00 5.983788e+00 -4.327032e+00 2.035549e+00 1.405232e+00 1.435532e+00 -3.270483e-01 6.674911e-01 2.393894e-02 1.929891e-01 -4.303343e-01 -3.962048e-01 -8.026844e-01 -3.293152e-01 -1.294489e+00 -1.496899e+00 -2.087330e-01 9.826154e-01 1.936829e+00 -5.623862e-01 2.019381e-02 
-1.172179e+01 -6.388211e+00 -2.868388e+00 5.083677e+00 -2.239973e+00 7.176599e-01 5.571835e+00 1.030362e-02 2.290594e+00 3.505354e+00 -8.689548e-01 3.264034e+00 6.388571e-01 -1.441761e-01 8.861490e-02 -1.649313e+00 -4.042156e-01 -8.301275e-01 6.441613e-01 -5.005320e-01 -1.085456e+00 -6.694147e-01 9.158565e-01 1.271989e+00 1.473133e+00 1.544098e-02 
-1.110294e+01 -4.626881e+00 -7.535585e+00 2.326315e+00 -1.297998e+00 2.228031e+00 -2.208605e-01 -1.108063e+00 -2.312361e-01 -1.072646e+00 4.063431e+00 7.038669e+00 6.773321e-01 -3.896837e-01 -6.512519e-01 -1.725943e+00 -1.016068e+00 -1.179750e+00 -2.393175e-01 -1.777269e+00 -5.385036e-02 -5.833610e-01 -6.998823e-01 5.987067e-01 8.164129e-01 -2.865386e-03 
-1.138398e+01 -4.674423e+00 -8.264455e+00 2.268428e+00 -5.441006e+00 4.844315e+00 3.491800e+00 -5.969745e+00 -2.294579e+00 1.194459e+00 2.089585e+00 7.143282e+00 6.843432e-01 -1.065693e-01 6.117069e-01 -4.486974e-01 -7.756631e-01 -7.822102e-01 -1.592759e+00 -1.764974e+00 -1.494085e+00 -3.693081e-01 -1.552966e+00 -2.181564e-01 -1.077912e+00 -9.543222e-03 
-1.158907e+01 -5.275809e+00 -6.564008e+00 4.125161e-01 -5.794962e+00 -2.150604e+00 -1.862540e+00 -1.606260e+00 1.411330e+00 -9.387319e-01 2.949795e+00 1.815392e+00 6.304212e-01 -2.030905e-01 6.661269e-01 1.036408e+00 2.117362e-01 4.729144e-01 -1.676575e+00 -5.467516e-01 -3.097140e-01 -5.660102e-01 -1.382609e+00 -6.551557e-01 -9.647039e-01 -2.409550e-02 
-1.201157e+01 -3.005212e+00 -5.597664e+00 2.162261e+00 -3.902542e+00 -5.056820e+00 -2.432198e+00 -7.211022e+00 -3.772292e-01 -4.326436e+00 -1.402919e+00 4.861137e-01 6.145965e-01 -2.201969e-01 1.098851e+00 1.304680e+00 5.585563e-01 1.562207e+00 -9.519528e-01 -2.402861e-01 4.719752e-01 -5.120451e-01 -1.842554e+00 -8.463753e-01 -5.983676e-01 -1.874362e-02 
-1.180459e+01 -2.130852e+00 -3.686940e+00 3.438080e+00 2.973421e-01 -1.204277e+00 7.380486e-03 -2.035994e+00 -4.019962e+00 -5.225244e+00 2.533904e+00 5.543734e+00 5.917280e-01 3.953629e-02 5.797608e-01 2.796358e-01 -8.275452e-02 -1.962557e-02 1.805469e-01 4.222067e-01 -1.623946e+00 -1.257035e+00 -1.191715e+00 -2.183487e+00 1.599380e-01 -2.971381e-03 
-1.237720e+01 -7.526476e-01 -3.179590e+00 3.548428e+00 -6.761236e-01 -3.886119e-01 1.355409e+00 -3.395001e+00 -2.139158e+00 -5.875056e+00 -1.934346e+00 2.287274e+00 6.099717e-01 5.539322e-01 3.614098e-01 -1.323521e-01 -9.985065e-03 -1.041164e+00 7.500941e-01 6.033427e-01 -3.128711e-01 -6.478838e-01 5.968490e-01 -1.321927e+00 1.336360e-01 -8.210599e-03 
-1.120857e+01 -3.503288e+00 -6.374866e+00 -6.943398e-01 -7.506299e+00 -3.581974e+00 -1.645310e+00 -1.163400e+01 -3.992880e+00 -6.122996e+00 -7.701929e+00 1.714502e+00 6.178766e-01 1.061077e-02 9.131557e-01 5.398026e-01 1.201758e+00 -8.052769e-01 9.210122e-01 -2.653773e-01 -1.351911e+00 6.073555e-01 2.149706e+00 -8.047150e-01 -5.152063e-01 -1.299757e-02 
-9.539922e+00 -5.119459e-01 -4.915462e+00 4.178545e+00 -5.206539e+00 -1.175011e-01 1.410861e+00 -3.976374e+00 -3.630189e+00 -8.933141e-01 -2.894639e+00 3.068909e+00 5.604692e-01 -5.850222e-01 8.886198e-01 1.174309e+00 1.909256e+00 7.866807e-01 1.080092e+00 3.475457e-01 -4.549537e-02 8.970991e-01 1.840738e+00 4.856734e-01 1.707765e-01 -2.622501e-02 
-1.317018e+01 2.314576e+00 -1.199915e-01 9.131812e+00 -1.463835e+00 3.265229e+00 -1.347232e+00 -8.504865e+00 -2.376689e-01 3.032415e+00 -1.009524e+00 2.576884e+00 5.514914e-01 8.134155e-02 3.649207e-01 7.525079e-01 1.219526e+00 2.143657e+00 1.522259e+00 2.036878e+00 3.120923e+00 2.740785e+00 1.945390e+00 2.526517e+00 -4.780442e-01 -1.503664e-02 
-1.432151e+01 7.815197e-01 -4.354794e-01 8.181629e+00 2.360477e-01 1.588248e+00 2.944099e+00 -5.187047e+00 4.687315e-01 -1.249072e+00 -2.852181e+00 2.709965e+00 5.120393e-01 3.252174e+00 -6.237143e-01 2.975407e-01 -1.102821e+00 9.497892e-01 -1.987927e-01 8.035224e-01 1.466917e+00 1.651666e+00 5.145364e-01 1.074139e+00 -1.504900e+00 2.399253e-02 
-8.411071e+00 -2.325417e+00 -4.852317e+00 3.401750e+00 4.906926e-01 3.176448e+00 7.772462e+00 4.575949e+00 7.661586e+00 3.781833e+00 4.909429e+00 -4.962471e-01 5.669084e-01 7.648108e+00 -1.350315e+00 -1.798550e+00 -4.287954e+00 -2.474582e-01 -1.379083e+00 6.598080e-01 2.751249e+00 -1.102247e+00 1.680878e-01 8.135895e-01 -4.134612e+00 9.313543e-02 
4.341391e+00 -1.310521e+00 -1.061595e+00 1.529470e+00 -1.434857e+00 -1.067074e+00 8.686256e-01 -3.182199e+00 6.785125e-01 1.304659e+00 -4.834190e-01 -2.919025e+00 6.727233e-01 8.227647e+00 -9.411794e-01 -2.678801e+00 -5.126555e+00 3.329531e-01 -8.588260e-01 -2.868910e-01 1.991378e+00 -2.109773e+00 2.462991e-01 2.819792e-01 -5.326611e+00 1.345840e-01 
1.573891e+01 -3.390980e+00 -8.799685e+00 -8.981878e+00 -1.865674e+00 -2.302524e+00 2.989545e+00 4.248957e+00 -5.853792e+00 2.595989e+00 1.874042e+00 -1.528168e+01 9.368265e-01 5.341341e+00 -5.330216e-01 -2.431399e+00 -4.071143e+00 1.567158e+00 3.376603e-01 -4.635314e-01 1.458779e-01 -2.304694e+00 -1.415274e+00 -6.186633e-01 -4.618085e+00 1.149652e-01 
1.474173e+01 -3.391596e+00 -1.185580e+01 -1.125933e+01 3.078996e+00 3.360403e-02 3.901103e+00 4.933337e+00 -3.322444e+00 5.753455e-01 7.540773e-02 -1.653037e+01 1.000000e+00 1.121607e+00 -7.048716e-01 -2.119740e+00 -2.109651e+00 2.551314e+00 1.652880e+00 1.081988e+00 6.647869e-01 -6.892977e-01 -1.956514e+00 5.822167e-01 -2.114809e+00 5.641363e-02 
1.309547e+01 -3.949988e+00 -1.161221e+01 -1.055956e+01 6.069556e+00 4.314410e+00 3.938567e+00 1.247571e+00 -1.861408e+00 -2.929878e+00 1.536699e+00 -1.678100e+01 9.780958e-01 -2.001478e+00 -2.944180e-01 2.900414e-01 1.129817e+00 1.886500e+00 2.536760e+00 5.503408e-01 -1.706075e+00 4.331549e-01 -2.264106e+00 2.740686e-01 1.337030e+00 -1.497643e-02 
1.127115e+01 -4.555375e+00 -1.025404e+01 -8.229943e+00 7.354097e+00 3.888860e+00 5.804056e+00 1.642429e+00 -4.764168e+00 -5.714976e+00 2.596336e+00 -1.274341e+01 9.341568e-01 -1.882273e+00 -7.697811e-01 1.408779e+00 1.478334e+00 1.838480e+00 1.410591e+00 -2.859678e-01 -1.787644e+00 9.939138e-01 -2.452860e+00 -8.796711e-02 3.358280e+00 -2.890530e-02 
7.466811e+00 -4.281180e+00 -8.150359e+00 -4.847485e+00 5.429277e+00 8.453649e+00 4.789772e+00 -2.635963e+00 -2.967156e+00 -5.579382e+00 1.983921e+00 -1.049001e+01 8.948660e-01 -1.154580e+00 -6.589955e-01 8.128980e-01 1.337126e+00 1.402587e+00 7.489687e-01 -8.782979e-01 -7.306124e-01 9.665562e-01 -1.239984e+00 -6.213511e-01 3.177539e+00 -1.934824e-02 
8.144693e+00 -7.074904e+00 -6.542827e+00 -6.723699e+00 1.259154e+01 5.016939e+00 2.045661e+00 -2.063115e+00 2.199998e+00 -1.036421e+01 -5.880389e-01 -2.884467e+00 8.970884e-01 -1.986980e-01 -6.784738e-01 -9.217844e-02 8.070037e-01 8.815011e-01 8.626984e-01 -1.305998e+00 -4.402494e-01 7.748247e-01 5.663351e-01 -4.995033e-01 1.217139e+00 -2.814597e-03 
8.885797e+00 -5.985200e+00 -9.403324e+00 -4.627056e+00 1.046377e+01 7.495214e+00 1.426275e+00 -5.527192e-01 -5.107107e-01 -6.805183e+00 2.213113e-02 -5.822775e+00 8.998888e-01 4.999549e-01 -4.326092e-01 -6.156299e-01 3.470812e-01 1.964424e-01 8.308979e-01 -1.263700e+00 2.774423e-01 -5.788606e-01 2.411033e+00 -8.501029e-01 1.629024e-01 3.108537e-03 
9.568169e+00 -7.095734e+00 -1.008845e+01 -4.305139e+00 9.244356e+00 8.681569e+00 9.558163e-01 -1.600440e+00 -2.118267e+00 -2.270400e+00 1.079715e+00 -8.991329e+00 9.175724e-01 1.962284e-01 9.556890e-02 -3.384212e-01 -2.319233e-02 -3.325190e-01 9.984355e-01 -1.411701e+00 1.321477e-01 -5.659240e-01 2.070933e+00 -7.930106e-01 2.495590e-01 1.935518e-03 
9.254848e+00 -6.433811e+00 -9.455699e+00 -4.321359e+00 8.085079e+00 1.077582e+01 -9.838061e-01 -1.480089e+00 -3.702327e+00 2.428881e+00 -3.100470e+00 -6.622067e+00 9.001667e-01 2.742203e-01 -2.608810e-01 7.047576e-01 -3.510829e-01 6.216849e-01 5.344715e-01 -2.787241e+00 -3.619349e-02 1.063491e+00 -1.300540e-01 -7.874566e-01 1.484761e+00 -1.177311e-03 
8.941309e+00 -6.372755e+00 -8.208745e+00 -6.992509e+00 1.211829e+01 8.368812e+00 -3.807805e+00 -9.386914e-01 9.661863e-01 -4.626572e+00 -2.991791e+00 -1.237026e+00 9.066271e-01 5.913929e-01 -1.450348e-01 1.070450e+00 -9.932182e-02 7.256988e-01 4.814444e-01 -3.194579e+00 -4.136653e-02 1.519037e+00 -1.556754e+00 1.099731e-01 9.507340e-01 -1.079601e-02 
1.057033e+01 -7.651095e+00 -6.819386e+00 -5.038785e+00 1.213523e+01 1.032395e+01 -1.012812e+01 -1.064561e+00 3.264519e+00 -6.277368e+00 -1.879399e+00 -2.276123e+00 8.994749e-01 7.039272e-01 -6.737629e-01 1.252523e+00 1.037670e+00 4.462614e-02 6.228037e-02 -3.020185e+00 7.604347e-01 9.202029e-01 -1.485738e+00 1.516510e+00 -7.209709e-01 -7.267368e-03 
1.186739e+01 -7.212266e+00 -6.054354e+00 -4.443035e+00 1.084778e+01 1.131473e+01 -1.044492e+01 -2.015037e+00 1.993496e+00 -5.701044e+00 1.019044e+00 -6.410631e+00 8.639382e-01 7.188359e-01 -3.735262e-01 5.456384e-01 2.217912e+00 -1.151686e+00 1.481643e-01 -2.427994e+00 1.071084e+00 5.559580e-01 -4.270522e-01 1.742824e+00 -1.788248e+00 -9.063405e-03 
1.131144e+01 -9.382870e+00 -4.270278e+00 -4.077445e-01 8.943466e+00 9.614266e+00 -1.276618e+01 2.860257e+00 3.850321e-01 -4.462573e+00 2.476663e+00 -7.640119e+00 8.851743e-01 1.840741e-01 6.106920e-02 2.830531e-01 1.496203e+00 -7.481040e-01 -7.941272e-01 -9.131298e-01 1.215375e+00 4.581541e-01 -5.907255e-01 1.512595e+00 -1.291163e+00 -1.038218e-02 
1.216493e+01 -7.374498e+00 -6.755107e+00 1.781529e+00 7.955739e+00 9.464475e+00 -1.462875e+01 2.454321e+00 5.185720e+00 -7.669230e+00 3.544298e+00 -7.496267e+00 8.684604e-01 1.965598e-01 -1.142509e-01 6.288227e-01 5.529248e-01 -1.783101e-01 -1.618875e+00 2.406383e-01 8.517254e-01 1.327075e-01 -5.716446e-01 9.358505e-01 -3.604002e-01 -1.005439e-02 
1.134193e+01 -7.264633e+00 -5.053744e+00 -6.700529e-01 9.840727e+00 7.278440e+00 -1.260186e+01 2.777635e+00 3.959177e+00 -8.246902e+00 4.420950e+00 -8.189121e+00 8.453029e-01 2.945662e-01 -3.712416e-02 7.706324e-01 -2.408168e-01 -3.221892e-01 -1.018350e+00 5.867442e-01 3.752080e-01 3.760781e-01 -1.186908e+00 2.294228e-01 6.907636e-01 -1.420358e-02 
1.283495e+01 -8.842639e+00 -2.518507e+00 -1.547257e+00 9.507595e+00 4.388265e+00 -9.323887e+00 2.284901e+00 8.699613e-01 -6.667102e+00 4.726153e+00 -7.938131e+00 8.336020e-01 2.287761e-01 -1.190344e-01 7.106253e-01 3.844078e-02 -6.015673e-01 -9.672786e-01 8.065439e-01 5.489544e-01 -7.024876e-01 5.505400e-01 -1.132877e+00 6.405003e-01 -1.140071e-02 
1.244926e+01 -8.834420e+00 -2.535416e+00 5.256450e-02 6.556593e+00 7.060621e+00 -1.248489e+01 4.821007e+00 4.423302e+00 -1.089818e+01 3.032850e+00 -3.965369e+00 8.315856e-01 8.374534e-02 5.760832e-01 -1.033510e-01 8.024989e-01 -1.173702e+00 -6.869906e-01 5.127918e-01 4.129681e-01 1.100304e-01 -8.038191e-02 -9.546760e-01 7.623302e-01 -1.172836e-02 
1.275514e+01 -7.184777e+00 -4.461144e+00 1.612424e+00 6.589970e+00 4.736991e+00 -1.065451e+01 4.177407e+00 1.441220e+00 -3.590894e+00 -1.426036e+00 -6.405641e+00 8.183155e-01 -1.380421e-01 9.922701e-01 -6.228615e-01 9.505016e-01 -9.685105e-01 -7.245671e-01 2.667240e-01 1.141341e+00 -5.109229e-01 -5.952863e-01 2.035543e-01 3.610179e-01 -1.405237e-02 
1.180056e+01 -5.213148e+00 -4.599181e+00 1.762601e+00 5.431031e+00 3.669124e+00 -9.372582e+00 3.896222e+00 4.223700e+00 -1.018692e+01 2.723664e+00 -5.143714e+00 7.943044e-01 -2.329961e-01 1.364799e+00 -8.488488e-02 -2.717356e-01 -2.296813e-01 -7.226474e-01 2.012469e-01 1.122670e+00 -8.568433e-01 -5.563337e-01 6.236989e-01 3.616152e-02 -1.861612e-02 
1.246909e+01 -5.691925e+00 -4.600933e+00 2.350233e+00 5.227823e+00 2.461178e+00 -9.546418e+00 8.454000e+00 -1.584852e+00 -9.999164e+00 5.898518e+00 -5.543869e+00 7.819807e-01 -2.666313e-01 8.328961e-01 1.102957e+00 -6.137497e-01 -1.455644e+00 5.629641e-01 4.905718e-01 5.932645e-01 -1.054385e+00 -2.530872e-01 -2.820045e-01 9.072507e-01 -1.916213e-02 
1.142731e+01 -2.756854e+00 -2.889946e+00 -1.675018e+00 6.089260e+00 4.585291e+00 -1.203270e+01 8.296059e+00 1.652121e+00 -1.047571e+01 2.489068e+00 -4.215448e+00 7.566724e-01 -2.248264e-01 6.747473e-01 1.410158e+00 -5.316505e-01 -2.164194e+00 8.518994e-01 1.174395e+00 3.656623e-01 -2.055869e+00 1.124998e+00 -1.310201e+00 9.646410e-01 -1.569752e-02 
1.160861e+01 -4.248444e+00 1.990225e-01 2.624853e-01 -1.017365e+00 7.093728e+00 -6.871597e+00 4.943811e+00 -2.544917e+00 -4.711933e+00 -2.718760e+00 -2.333521e+00 7.413208e-01 -3.195345e-01 4.575173e-01 1.907656e+00 -5.324903e-01 -2.701330e+00 3.184220e-01 1.920169e+00 1.613176e-01 -1.987993e+00 2.724156e-01 -7.840028e-01 1.060831e+00 -9.681618e-03 
1.110667e+01 -2.561152e+00 5.163097e-02 1.482222e-01 -2.267346e+00 5.612346e+00 -4.838016e+00 7.479628e+00 -5.575614e+00 -7.205542e+00 4.812984e-01 -1.925683e+00 7.361467e-01 -1.674426e-01 4.688202e-01 1.305100e+00 -5.008203e-01 -2.453630e+00 -1.118525e+00 3.105580e+00 2.425432e-01 -2.791168e+00 -3.714409e-02 1.209222e+00 -4.726596e-01 -2.924204e-03 
1.103174e+01 -3.502189e+00 3.466560e+00 -1.223838e+00 -4.100525e+00 3.539760e+00 -3.542915e+00 9.668804e+00 -7.910948e+00 -1.027217e+01 2.982388e+00 -1.384597e+00 7.438354e-01 -3.463152e-01 1.397309e+00 7.745935e-01 -1.414742e+00 -1.800408e+00 -1.398458e+00 2.290477e+00 1.270667e+00 -2.807539e+00 -3.844983e-01 2.466840e+00 -1.616927e+00 2.056110e-03 
1.087853e+01 -7.858803e-01 2.001784e+00 -3.435957e+00 -4.637310e+00 7.696512e-01 1.830862e+00 7.146279e+00 -9.620701e+00 -7.881311e+00 5.684603e+00 -7.053208e+00 7.407941e-01 -1.740240e-01 1.478115e+00 8.346004e-01 -1.610372e+00 -2.093065e+00 -8.927401e-01 1.857186e+00 4.291048e-02 -1.887428e+00 1.974541e+00 1.189425e-01 -1.373675e+00 2.453506e-03 
9.991102e+00 1.850465e+00 3.096914e+00 -5.019133e+00 -8.834421e+00 2.522788e+00 1.246347e+00 1.146382e+01 -1.456007e+01 -6.296540e+00 7.013789e+00 -7.854393e+00 7.492777e-01 -1.319296e-01 1.688116e+00 7.482430e-01 -1.476552e+00 -2.071880e+00 -4.788585e-01 8.334820e-01 -1.018043e+00 1.219638e-01 2.510378e+00 -1.321435e+00 -1.080865e+00 2.333796e-03 
1.075687e+01 2.153097e+00 4.409456e+00 -6.005991e+00 -1.036572e+01 1.657132e+00 2.053283e+00 6.796672e+00 -1.168819e+01 6.793514e-01 -9.396894e-01 -5.559160e+00 7.456931e-01 -4.614803e-01 1.112288e+00 2.025028e+00 -1.714343e+00 -2.274320e+00 -1.478221e-01 2.590394e-02 -1.288303e+00 1.493616e+00 1.876537e+00 -1.485964e+00 -7.113143e-01 6.044358e-03 
1.043293e+01 3.468900e+00 6.003939e+00 -7.321582e+00 -1.159572e+01 7.017276e-01 5.132835e-01 4.753391e+00 -6.267384e+00 -2.000608e+00 -3.126424e-01 -7.535946e+00 7.530549e-01 -4.361438e-01 8.342962e-01 2.544450e+00 -1.733326e+00 -1.837272e+00 -3.601900e-01 -5.068946e-01 -1.606111e+00 2.142734e+00 1.132539e+00 -7.280235e-01 -8.486046e-01 5.656970e-03 
8.350219e+00 3.966343e+00 1.067341e+01 -1.085645e+01 -1.462826e+01 9.410707e-01 2.326914e+00 4.059979e+00 -6.298965e+00 -6.465936e-01 1.918001e+00 -1.076900e+01 7.691272e-01 -3.204061e-01 9.184526e-01 2.982993e+00 -1.650481e+00 -1.998186e+00 2.205517e-01 -1.019182e+00 -9.188210e-01 -1.178323e-01 2.248566e+00 -4.941630e-01 -1.042113e+00 5.968106e-03 
9.013706e+00 5.115323e+00 1.268718e+01 -1.126054e+01 -1.588952e+01 1.079869e+00 -1.424941e+00 4.801614e+00 -6.541009e+00 2.912700e-02 1.944827e+00 -9.492495e+00 7.658455e-01 -3.705102e-01 1.020051e+00 2.533662e+00 -3.825067e-01 -1.551714e+00 -4.868723e-01 -5.286424e-01 -1.816367e+00 -4.514056e-01 2.437905e+00 -9.865454e-01 2.397670e-01 2.127707e-03 
9.864445e+00 5.922150e+00 1.598280e+01 -1.228892e+01 -1.820976e+01 2.570820e+00 -2.073513e+00 2.178456e+00 -1.214054e+01 1.090731e+01 -4.539239e+00 -9.791449e+00 7.691383e-01 -1.244713e+00 2.156558e+00 1.440956e+00 5.114609e-01 -6.215058e-02 -1.892835e+00 4.790698e-01 -3.371991e+00 5.644858e-01 7.372624e-01 -8.596352e-01 1.464065e+00 6.252408e-04 
7.823263e+00 7.591251e+00 1.601756e+01 -8.517879e+00 -1.756354e+01 -2.547508e+00 7.028484e-02 -3.387681e+00 -5.603624e+00 4.411963e+00 -2.016749e+00 -6.825888e+00 7.636879e-01 -1.279203e+00 1.907465e+00 1.482926e+00 8.526044e-01 -4.526520e-01 -2.029490e+00 2.130206e+00 -3.873022e+00 -3.186321e-02 4.132980e-01 3.263891e-01 8.231938e-01 -3.479958e-04 
2.721877e+00 1.351117e+01 1.621301e+01 -9.670471e+00 -1.410200e+01 -6.709416e+00 3.974650e+00 -8.705330e+00 -3.945229e+00 8.483007e-01 -3.993872e-01 -4.781982e+00 7.733322e-01 -4.246673e-01 7.746743e-01 1.459344e+00 1.321466e+00 -7.155388e-01 -1.987332e+00 1.259410e+00 -1.530655e+00 -1.349330e+00 8.688981e-01 8.709005e-01 9.111865e-01 -4.334599e-03 
6.188975e+00 1.085814e+01 1.998671e+01 -8.306738e+00 -2.020665e+01 -4.427464e+00 6.202007e+00 -9.121603e+00 -1.079798e+01 7.125123e+00 1.506846e+00 -7.881258e+00 7.620085e-01 1.117373e+00 -1.134645e+00 1.269274e+00 2.109310e+00 -8.317480e-01 -2.298203e+00 6.890710e-02 2.005007e+00 -3.738386e+00 3.217191e+00 6.158093e-01 8.686390e-01 -8.745676e-03 
8.558252e+00 8.162079e+00 2.129494e+01 -5.787160e+00 -2.046589e+01 -6.425861e+00 1.157675e+00 -2.607859e+00 -1.629001e+01 1.389522e+01 -1.946535e+00 -4.707831e+00 7.483050e-01 2.343155e+00 -2.392596e+00 -4.550594e-01 3.591054e+00 -1.467380e-02 -2.629456e+00 -1.558857e+00 5.244273e+00 -2.458705e+00 2.456553e+00 1.206836e+00 1.294057e+00 -1.931456e-02 
1.049194e+01 4.592571e+00 1.982296e+01 8.701706e-02 -1.854033e+01 -1.418030e+01 1.823308e+00 3.588618e+00 -1.812316e+01 1.397446e+01 1.835871e+00 -2.519769e+00 7.324731e-01 1.662897e+00 -1.292889e+00 -1.965906e+00 2.765712e+00 3.248922e+00 -2.652083e+00 -2.430614e+00 4.780900e+00 2.050755e+00 1.581288e-01 6.763160e-01 8.039359e-01 -3.319829e-02 
1.228617e+01 4.680972e+00 1.401958e+01 4.087923e+00 -1.500853e+01 -1.498028e+01 -1.630287e+00 1.116093e+01 -1.257616e+01 9.706397e+00 5.470280e+00 -9.924400e-01 6.915271e-01 7.764019e-01 5.013127e-01 -2.163820e+00 1.748090e+00 4.465538e+00 -4.307550e-01 -2.149005e+00 1.613834e+00 4.987269e+00 -2.092284e+00 -1.604886e-01 -2.022044e-01 -4.908855e-02 
1.263950e+01 6.134244e+00 1.379486e+01 5.842781e-01 -6.690728e+00 -1.341067e+01 -4.557084e+00 7.898501e+00 -2.401130e+00 1.001018e+01 1.180019e+00 -5.719275e+00 6.244060e-01 -6.546646e-01 1.499483e+00 -1.389094e+00 2.166285e+00 4.457118e+00 1.530841e+00 -2.308042e+00 -1.102602e+00 4.880704e+00 -3.045167e+00 -1.302707e+00 -1.475240e-01 -6.172825e-02 
1.136648e+01 9.897806e+00 1.348989e+01 2.704660e+00 -4.063004e+00 -8.964452e+00 -6.397156e+00 3.306370e+00 7.853214e-01 5.415940e+00 -2.421052e+00 -4.119101e+00 5.568959e-01 -1.913492e+00 1.505407e+00 -1.113850e+00 3.192068e+00 3.346429e+00 2.698428e+00 -9.878112e-01 -3.930033e+00 2.571150e+00 -2.722670e+00 -2.354096e+00 4.216040e-01 -6.780470e-02 
7.678461e+00 9.481569e+00 1.314234e+01 1.161007e+01 -1.727503e+00 -9.534010e+00 -7.333467e+00 2.002887e+00 -4.003851e-01 8.938485e-01 -7.319989e-01 -1.694058e+00 4.911475e-01 -2.743893e+00 3.683848e-01 -2.039214e+00 4.444990e+00 1.991486e+00 3.156984e+00 -2.202470e-01 -2.547467e+00 -3.390408e-01 -3.656299e+00 -2.064082e+00 1.341779e+00 -6.304477e-02 
5.199233e+00 1.053435e+01 8.776596e+00 1.453536e+01 -7.579961e-01 -3.426465e+00 -5.181151e+00 -5.541433e+00 -7.207828e-01 6.512122e-01 -5.344190e+00 -8.970280e-01 4.191329e-01 -3.295501e+00 -1.157393e+00 -2.287399e+00 2.676282e+00 1.484385e+00 2.779551e+00 1.883514e+00 -6.790168e-01 -7.689303e-01 -2.386194e+00 -2.410781e+00 -3.588720e-01 -5.650383e-02 
2.003661e+00 7.657898e+00 5.955441e+00 1.689388e+01 1.614196e+00 -3.947467e-01 -6.266321e+00 -4.149320e-01 -3.343282e+00 -5.888953e+00 -7.678824e+00 -6.214159e-01 3.780637e-01 -3.442291e+00 -2.061521e+00 -3.117436e+00 -3.945506e-01 1.015091e+00 2.817226e+00 2.210592e+00 -2.944503e-02 9.315085e-02 -1.410235e+00 -2.170477e+00 -1.674404e-02 -2.573674e-02 
-2.273623e+00 5.022676e+00 5.646340e+00 1.344417e+01 1.688070e+00 3.636728e-01 2.486839e+00 1.120196e+00 -1.587882e+00 -3.123626e+00 -1.100155e+01 -6.449782e+00 3.309186e-01 -3.165520e+00 -3.191145e+00 -3.375827e+00 -2.703580e+00 -4.825788e-01 7.537240e-01 2.239366e+00 1.714854e+00 4.867353e-01 -5.129252e-02 1.376873e+00 3.913467e-01 -3.994936e-03 
-5.796568e+00 1.929798e+00 -8.797128e-01 1.018292e+01 2.124921e+00 2.657050e+00 -1.145020e-01 -1.475152e+00 4.989187e-01 -4.269906e+00 -8.755705e+00 9.985986e-01 4.065710e-01 -2.190757e+00 -3.077995e+00 -3.327246e+00 -4.147334e+00 -1.941226e+00 -9.409748e-01 1.660327e+00 5.410860e-01 1.464895e+00 1.199459e+00 2.224479e+00 1.934891e+00 9.057999e-03 
-6.728255e+00 -2.557328e+00 -4.684961e+00 4.372945e+00 -3.426252e+00 -1.183743e+00 2.939770e+00 3.562947e+00 -2.082065e-01 -4.147742e-01 2.078614e+00 2.496984e-01 3.849046e-01 -1.096284e+00 -2.488779e+00 -2.088856e+00 -3.560749e+00 -2.679912e+00 -1.767781e+00 1.834708e-01 1.200770e+00 7.079265e-01 1.629688e+00 1.671704e+00 1.854962e+00 1.947303e-02 
-6.722810e+00 -3.942076e+00 -5.515139e+00 6.928205e-01 -5.534772e+00 -4.325913e+00 1.808851e+00 1.069122e+00 3.291356e+00 -1.246084e+00 -3.096509e+00 5.703300e+00 3.963607e-01 -3.563090e-01 -1.506519e+00 1.767854e-01 -2.251037e+00 -2.516931e+00 -1.578288e+00 2.561986e-01 7.394555e-01 5.367818e-01 1.791183e+00 3.392288e-01 8.569067e-01 2.868891e-03 
-7.291924e+00 -4.485283e+00 -2.480229e+00 3.854699e-01 -7.881644e+00 -4.983750e+00 2.442517e+00 5.851911e+00 5.555322e-01 3.512905e+00 -5.472623e+00 4.726752e-01 4.333889e-01 3.417192e-01 -2.498225e-01 1.940792e+00 3.534668e-01 5.291889e-01 9.366347e-01 -1.759718e-01 2.060691e-01 8.728639e-01 6.508049e-01 -3.334181e-01 5.385666e-01 -4.904127e-03 
-7.296279e+00 -4.638817e+00 -1.098151e+00 9.214712e-01 -8.232037e+00 -3.334387e+00 1.415118e+00 1.077643e+00 2.800958e+00 2.722172e+00 -3.283942e+00 5.171643e+00 3.966733e-01 1.416549e+00 -4.443755e-02 2.982218e+00 2.194373e+00 2.839891e+00 2.022711e+00 -1.589126e-01 5.472931e-01 5.786220e-01 7.978343e-01 6.018785e-01 -5.567195e-01 -2.116719e-02 
-4.732924e+00 -3.458070e+00 2.810503e+00 6.025954e+00 5.683243e-01 3.003667e+00 2.256777e+00 4.589032e+00 4.401312e+00 8.551226e-01 5.052398e-01 3.208360e+00 3.602276e-01 2.693362e+00 -7.504351e-01 2.070951e+00 2.091687e+00 3.886782e+00 1.595453e+00 -5.230044e-01 -9.803078e-02 5.237464e-01 9.365913e-02 1.064325e+00 -6.900887e-02 -3.838471e-02 
-9.195652e-01 -4.677870e+00 6.750583e+00 8.844443e+00 4.439697e+00 1.793933e+00 1.107157e+00 4.437027e+00 4.261576e+00 4.071980e+00 -3.076048e+00 1.551861e+00 3.271053e-01 3.032578e+00 -1.818337e+00 2.809709e-01 7.422758e-01 3.577017e+00 6.020750e-01 -2.573109e-01 1.302307e-01 2.718854e-02 -6.769231e-01 2.505085e-01 -1.095609e+00 -3.125293e-02 
2.986533e+00 -8.217932e+00 3.950157e+00 6.882419e+00 5.216401e+00 4.293569e-01 -1.852512e-02 3.682065e+00 2.443955e+00 3.306297e+00 -2.549457e-01 1.937522e+00 2.762493e-01 2.549387e+00 -1.900452e+00 -1.269369e+00 -1.825313e+00 4.997568e-01 -4.133181e-01 3.731759e-01 -2.602049e-01 3.998694e-01 -3.142123e-01 -6.445132e-01 -2.428835e-01 -2.359951e-02 
4.006881e+00 -1.135057e+01 -2.631238e-01 4.204618e+00 7.329009e+00 9.631428e-01 1.266214e+00 2.182280e+00 3.915579e+00 -1.888031e+00 -1.651307e+00 3.290147e-01 2.823978e-01 1.828986e+00 -9.685877e-01 -2.728912e+00 -4.077519e+00 -8.010750e-01 1.281535e+00 7.843379e-01 -8.998246e-02 1.575076e+00 -1.452623e-01 -6.435951e-01 -1.688188e-02 -1.426467e-02 
5.550786e+00 -9.623977e+00 -2.948666e-02 -7.806981e-01 1.622452e+00 1.352472e+00 4.043128e+00 4.415381e+00 6.573657e+00 2.264066e+00 -3.429697e+00 2.605365e+00 2.645839e-01 1.000379e+00 5.472466e-01 -2.686331e+00 -3.454662e+00 -1.078611e+00 8.170060e-01 8.101687e-01 -1.348707e+00 -1.530211e-01 -6.518599e-01 -2.038809e+00 1.999576e-01 -1.408685e-02 
6.943239e+00 -8.817786e+00 -4.904152e+00 -7.711596e+00 2.231296e+00 7.740051e+00 2.998020e+00 3.620456e+00 1.007210e+01 3.866784e+00 -4.706648e+00 1.133530e+00 2.616147e-01 6.233941e-01 1.193059e+00 -1.756064e+00 -1.673444e+00 -2.650971e-01 8.294230e-01 -2.061861e-01 -2.540123e+00 -1.604019e+00 -1.097295e+00 -2.464128e+00 -2.522025e-01 -2.726305e-02 
6.520250e+00 -6.748093e+00 -7.160985e+00 -4.432787e+00 2.372201e+00 1.125933e+00 3.166416e+00 -3.780558e+00 -1.399413e+00 -2.830410e+00 -8.921320e+00 2.535053e+00 2.162066e-01 -2.714017e-01 8.154892e-01 -1.099843e+00 1.141170e-01 6.256129e-01 3.535309e-01 2.540881e-01 -1.894238e+00 -8.570163e-01 -1.608066e+00 -1.202044e+00 6.139660e-03 -3.729096e-02 
6.639119e+00 -6.823219e+00 -5.477697e+00 -2.336559e+00 5.628649e+00 5.223527e+00 6.736400e-01 -6.420369e+00 -1.179786e-01 -4.827267e+00 -1.122614e+01 -8.968415e-01 1.702712e-01 -9.965819e-01 4.797572e-01 1.696864e-01 6.215371e-01 5.689698e-01 2.996507e-01 6.731499e-01 -4.903001e-01 4.045901e-01 -4.108853e-01 2.727424e-01 1.234213e+00 -3.862339e-02 
4.345837e+00 -6.543814e+00 -5.241929e+00 -2.897631e+00 3.051841e+00 4.378388e+00 6.475759e+00 -3.539383e-02 7.383617e+00 -1.429241e+00 -6.180174e+00 3.651249e+00 1.238008e-01 -1.093146e+00 2.713977e-01 3.727078e-01 8.644727e-01 8.802583e-01 7.345669e-01 1.469958e-01 1.114764e+00 3.523109e+00 1.800160e+00 1.042812e+00 -1.295552e-02 -2.993488e-02 
3.047536e+00 -6.521140e+00 -5.015249e+00 -5.371488e+00 4.736325e+00 7.612077e+00 4.709098e+00 -7.036259e-01 7.703540e+00 1.111773e+00 -4.713509e+00 6.746494e+00 1.147006e-01 -8.370987e-01 1.055546e+00 1.996901e-01 7.636725e-01 -3.379345e-01 -1.807937e+00 -8.679621e-01 9.118685e-01 3.693444e-01 1.885681e+00 1.921094e+00 4.847325e-01 -3.252466e-02 
2.850310e+00 -5.542144e+00 -5.528670e+00 1.407041e+00 7.219654e+00 3.604492e+00 1.883666e+00 -1.065110e+00 1.230537e+01 3.200872e+00 -6.963577e+00 -1.351393e+00 9.431750e-02 -4.379229e-01 1.578663e+00 -4.100174e-01 7.183261e-01 -1.495774e+00 -3.314101e+00 -1.969954e+00 -1.071103e+00 -2.859047e+00 -7.809961e-02 1.671197e+00 -8.887721e-01 -3.543045e-02 
3.201389e+00 -2.046324e+00 -4.335876e+00 -6.705326e-01 1.855070e+00 -3.429211e+00 -1.370123e+00 -1.346169e+00 -7.321351e-01 2.286080e+00 -1.228966e+00 4.028142e+00 2.238959e-02 -4.764314e-01 2.675474e+00 4.715719e-01 4.305360e-01 -2.429051e+00 -4.495791e+00 -1.877002e+00 -6.223266e-01 -2.868233e+00 -6.971284e-01 9.513320e-01 -9.485021e-01 -4.660415e-02 
2.079296e+00 -8.879098e-01 -7.631702e+00 -1.656479e+00 -2.986400e+00 -6.671472e+00 -3.343992e-01 -5.069636e+00 -2.693780e+00 -2.406893e+00 4.335393e-01 5.665647e-01 -7.195950e-03 -3.647338e-01 2.924921e+00 1.832101e+00 -3.818967e-01 -1.874169e+00 -2.409260e+00 -1.546832e+00 -3.893002e-01 -2.176916e+00 -7.445248e-01 8.840879e-01 -3.998957e-01 -4.491743e-02 
1.050887e+00 4.529114e+00 -1.605873e+00 -1.687048e+00 -2.305904e+00 -9.728900e+00 -3.566881e+00 -1.812996e+00 8.619503e-01 4.300131e-01 -3.655407e+00 1.045005e+00 -6.756341e-02 -2.150127e-01 2.860503e+00 2.475289e+00 4.997856e-01 5.903999e-01 2.538704e-01 -6.476164e-02 -3.028473e-01 6.105555e-01 5.541430e-01 -3.232251e-01 -8.548342e-01 -3.229692e-02 
2.101893e+00 5.794739e+00 2.266835e+00 5.815387e-03 -7.070351e-02 -5.291962e+00 -4.752118e+00 -2.778197e+00 6.237520e-01 4.062818e-01 -1.329916e+00 -1.859303e+00 -8.529317e-02 -2.575067e-01 2.403137e+00 3.120874e+00 9.162366e-01 1.141125e+00 5.136613e-01 7.952731e-01 5.831004e-01 4.174286e-01 3.429117e-01 8.676258e-02 -2.454059e-01 -2.373308e-02 
2.115027e+00 8.914868e+00 3.091301e+00 9.972485e-01 3.349221e+00 -2.849614e+00 5.149279e-01 -4.006124e+00 6.618762e-01 3.650208e+00 -1.963364e+00 9.669051e-01 -1.000464e-01 -2.989838e-01 1.175674e+00 1.348078e+00 8.428171e-01 6.076727e-01 1.227245e+00 2.226869e+00 1.426227e-01 -6.548249e-01 -8.747841e-01 1.458232e+00 1.050069e+00 -1.235851e-02 
2.596922e-01 8.934896e+00 5.624080e+00 1.582556e+00 -1.083393e-01 -7.542808e+00 1.601062e+00 -1.057570e+00 -5.066001e-01 -2.302431e+00 2.133075e-02 -6.214147e-01 -1.096199e-01 -7.663420e-01 1.144233e-01 2.852327e-01 5.788227e-01 4.687188e-01 1.548877e+00 1.754121e+00 -2.338808e-01 -1.785235e+00 -1.196524e+00 1.130086e+00 1.821896e+00 -4.635656e-03 
4.770679e-01 8.837407e+00 3.455897e+00 1.738667e+00 7.512774e-01 -2.467250e+00 4.390873e+00 -1.960196e+00 -1.846998e+00 -2.589550e+00 2.960131e+00 5.676406e+00 -1.171926e-01 -6.534545e-01 -5.612448e-01 1.780577e-01 -1.397605e-02 9.590106e-02 1.290282e+00 5.861180e-01 -2.180988e-01 -1.066876e+00 -6.179380e-01 8.618380e-01 1.053733e+00 9.412527e-04 
-9.108372e-01 6.405586e+00 3.510701e+00 2.529220e+00 3.571862e+00 2.261242e+00 2.080513e+00 -4.970565e+00 -7.047985e+00 -2.456458e+00 1.858766e+00 4.895426e+00 -9.989834e-02 -2.341858e-01 -2.221331e-01 -3.770528e-02 3.753987e-01 9.008430e-01 1.617503e+00 -3.271207e-01 -6.793202e-01 -1.823974e-01 7.306232e-01 5.654982e-01 -1.307018e-02 3.462875e-03 
-5.669804e-01 7.373299e+00 5.038280e+00 4.540367e-01 1.988626e+00 -1.300231e+00 3.205792e+00 -3.140121e+00 -1.401811e+00 6.375310e-01 1.427108e+00 3.477151e+00 -1.002009e-01 -1.048413e-01 4.046613e-01 3.589959e-01 5.859913e-01 7.757243e-01 1.065348e+00 -5.240444e-02 8.188570e-01 1.025495e+00 1.631042e+00 -8.786316e-01 -1.928078e+00 7.941568e-03 
-3.892126e-01 8.556285e+00 4.644362e+00 4.101865e+00 3.777202e+00 -3.880298e-02 5.579989e-01 -3.864208e+00 -1.641181e+00 -2.628560e-01 3.615333e+00 4.128618e-01 -1.008013e-01 -6.951122e-02 6.245239e-01 -1.138662e-01 1.434325e-01 3.891625e-01 3.609976e-01 1.292399e+00 1.670730e+00 1.753320e+00 9.600415e-01 -7.336999e-01 -9.489104e-01 -1.896453e-03 
-3.079510e-01 9.785364e+00 4.684045e+00 3.882301e+00 4.527229e+00 4.009514e+00 4.890108e+00 1.580910e+00 5.770733e-01 4.468860e+00 -2.311311e+00 -1.722700e+00 -7.703328e-02 -2.644300e-01 -1.343660e-02 -6.870627e-01 -1.523829e-01 1.778204e-01 2.825555e-01 -1.284655e-01 7.158492e-01 4.472858e-01 5.183839e-01 -1.112135e+00 -5.519320e-01 -5.367398e-03 
-1.387908e+00 8.322173e+00 3.118487e+00 1.532250e+00 4.248374e+00 1.411358e+00 7.700350e+00 1.022570e+00 7.291720e-01 4.280855e-01 5.947649e-02 2.750800e+00 -1.209644e-01 -4.370124e-01 -4.908503e-01 4.892046e-01 -3.358397e-01 -3.384015e-01 -3.609307e-01 -1.601849e-01 7.866803e-01 2.506842e-01 -2.348274e-01 -8.216723e-01 2.113814e-02 -9.554517e-03 
-1.389783e+00 7.423172e+00 2.365903e+00 9.769300e-01 2.642142e+00 -6.125337e-01 -1.007710e+00 -2.004264e+00 -3.505580e-01 2.883980e+00 -2.355637e+00 -4.514775e-01 -1.169564e-01 -5.808347e-01 -1.471748e-01 8.137690e-01 3.760176e-01 2.444630e-01 -1.271976e+00 -8.970858e-01 -8.448395e-01 1.555346e-01 -7.098162e-01 1.874374e+00 1.131323e+00 -5.379438e-03 
-2.033359e+00 7.283130e+00 8.249456e+00 3.875352e+00 3.027738e+00 4.675674e-01 2.705984e+00 1.861781e+00 7.605600e-02 -6.445531e-01 -4.708663e-01 -1.170588e-01 -1.286124e-01 -3.651808e-01 -2.184286e-02 5.337574e-01 5.414177e-01 -1.317387e-01 5.365762e-01 -4.996963e-01 -1.116574e+00 -1.948126e-01 -8.057926e-01 9.190771e-01 5.005618e-01 1.164755e-02 
-2.889400e+00 9.569012e+00 6.187405e+00 4.590838e+00 6.359861e+00 -1.878468e+00 2.901862e+00 -3.062892e+00 1.681304e+00 1.456098e+00 7.325731e+00 5.367844e+00 -1.001065e-01 -3.865047e-01 -6.894282e-01 7.748022e-02 -3.561986e-01 -1.709934e-01 1.724121e+00 4.021052e-01 -5.907362e-01 1.520395e-03 -1.535627e+00 1.283548e-01 6.716024e-01 1.206560e-02 
-2.464004e+00 7.140039e+00 3.876523e+00 2.432384e+00 1.730820e+00 4.727206e+00 3.247081e+00 -4.030986e+00 -1.260822e+00 -2.886937e+00 -1.858217e-01 2.343948e+00 -7.115161e-02 -9.317188e-02 -3.897303e-01 -1.173267e+00 -8.058071e-02 -7.343314e-02 1.445800e-01 -5.021665e-01 -4.681240e-01 -6.901163e-01 -5.431902e-01 -8.298725e-01 6.135316e-01 1.144487e-02 
-3.106984e+00 4.047576e+00 4.939771e+00 -8.257926e-02 2.435634e+00 5.878253e+00 7.322664e-01 -2.011562e+00 3.254828e-01 -3.672963e+00 -1.856385e+00 1.676031e+00 -8.535874e-02 1.071526e-01 -1.992475e-01 -7.230524e-01 5.813411e-01 -5.824840e-02 -9.033950e-01 -5.210957e-01 7.143257e-01 -1.019163e+00 -2.413181e-01 -1.455315e+00 1.309883e-01 3.507876e-03 
-2.390426e+00 8.095196e+00 3.006936e+00 5.809157e+00 4.622686e+00 -2.687893e+00 1.279950e+00 -1.004505e+00 -2.696615e+00 -7.959738e-01 -2.917085e-02 4.796506e+00 -7.876194e-02 8.637142e-02 5.957933e-01 -3.672009e-01 1.264528e+00 7.970785e-01 -2.339634e+00 -3.386580e-01 7.060019e-01 -5.893685e-01 7.058915e-01 2.140515e-01 8.025591e-01 -8.623839e-04 
