-4.258900e+00 -9.977720e-01 -4.486017e+00 1.919341e+00 9.977551e-01 3.046386e+00 1.083847e+01 3.923670e+00 -8.206067e-01 -6.061512e+00 -3.891991e+00 6.448765e+00 -8.737838e-02 -5.176749e-01 6.241679e-01 -1.054902e-01 -9.155151e-01 6.822667e-01 6.258851e-01 -6.808231e-01 1.190244e+00 1.781009e+00 2.342318e+00 1.488116e+00 9.718882e-01 2.323890e-03 
-5.770441e+00 5.549533e-01 -4.796444e+00 9.985760e-01 3.332916e+00 3.435865e+00 9.409718e+00 7.553726e+00 5.432940e+00 -5.739359e+00 -4.552548e+00 6.430517e+00 -1.000973e-01 -4.633973e-01 4.956774e-01 1.946537e-01 -8.334139e-01 1.137861e+00 6.586599e-01 -1.010671e+00 5.576673e-01 1.750707e+00 2.471806e+00 1.017797e+00 -2.848181e-01 -3.850245e-03 
-6.091505e+00 1.346705e+00 -4.858255e+00 -2.197852e+00 3.241508e+00 5.981072e+00 8.148727e+00 8.059860e+00 4.957665e+00 5.489002e+00 3.878870e+00 1.131733e+01 -6.939948e-02 -5.188506e-01 1.931332e-01 1.736447e-01 -9.862798e-01 7.060867e-01 6.151513e-01 -1.472583e+00 -1.762066e+00 -7.697918e-01 1.842588e+00 4.166605e-01 -1.425106e+00 -4.210186e-03 
-5.659585e+00 3.083763e-01 -3.326630e+00 -1.891321e-01 5.565184e+00 4.872343e+00 7.129982e+00 4.643911e+00 5.043792e+00 5.222596e-01 -2.688433e+00 2.590392e+00 -1.156191e-01 -5.185437e-01 1.768548e-02 4.489720e-01 -4.073566e-01 6.082026e-01 -5.040594e-01 -1.240592e+00 -2.639613e+00 -1.488909e+00 1.670415e+00 2.881090e-01 -2.054907e+00 -4.763353e-03 
-6.908581e+00 9.118247e-02 -4.352701e+00 -2.418204e+00 3.412055e+00 5.403904e+00 4.615420e+00 -3.431755e+00 -4.474992e+00 2.062201e-02 -2.740746e+00 1.243299e+00 -1.006684e-01 -7.188238e-01 -1.611483e-01 6.203736e-01 9.746073e-02 3.691773e-01 -9.279564e-01 -1.821291e+00 -1.656317e+00 2.232339e-01 3.458113e-01 2.196872e-01 -1.371914e+00 -9.275580e-03 
-7.954621e+00 1.271142e+00 -2.804361e+00 -9.280306e-01 6.288655e+00 1.204152e+00 4.973412e+00 1.014667e-01 2.704723e+00 5.346904e+00 1.978043e-01 1.192997e+00 -1.082796e-01 -8.399799e-01 -2.800770e-02 3.323004e-01 -5.087948e-01 1.173674e-01 -7.568247e-01 -2.074468e+00 -2.373906e-01 1.250839e+00 7.685227e-01 1.413547e+00 1.153536e+00 -2.594173e-03 
-8.538105e+00 5.958056e-02 -2.017522e+00 -1.341099e+00 4.725658e+00 3.175386e+00 1.205597e-01 2.049500e+00 7.243369e+00 4.805737e+00 3.534187e+00 5.156456e+00 -1.194471e-01 -4.469057e-01 7.391787e-02 6.055154e-01 3.999178e-01 1.819886e-01 -3.871970e-01 -1.119982e+00 1.593349e+00 2.081661e+00 1.054325e+00 1.850222e+00 1.082709e+00 -2.844095e-04 
-9.044722e+00 1.841388e-01 -2.832718e+00 -3.271658e+00 5.495219e+00 2.202478e+00 -9.949284e-01 7.163311e-01 5.438806e+00 1.972316e+00 1.241834e+00 6.401491e+00 -1.192006e-01 2.429201e-01 -1.873001e-01 -1.878195e-01 6.065471e-01 -9.665044e-01 -5.857605e-03 -2.456649e-01 6.938895e-01 -2.328258e-01 6.789497e-01 6.920376e-01 4.946654e-01 8.214807e-03 
-8.598059e+00 1.004273e+00 -1.310946e+00 7.531987e-01 4.718717e+00 2.968756e+00 1.999682e+00 4.227560e+00 4.566270e+00 6.979540e+00 5.988350e+00 4.052598e+00 -9.662998e-02 1.122452e+00 4.982322e-01 8.521897e-01 1.279956e+00 -6.478847e-01 -3.780091e-01 2.527509e-01 3.010148e-01 -1.505132e+00 3.414168e-02 -8.377863e-01 -1.883307e-01 7.109928e-03 
-6.710043e+00 -1.377048e-01 -4.096746e+00 1.057556e+00 1.459605e+00 1.278179e+00 2.805526e+00 2.481884e+00 2.879144e+00 7.654750e+00 2.430911e+00 4.218254e+00 -7.861412e-02 1.288899e+00 8.869905e-01 1.239874e+00 1.578700e+00 2.627722e-01 2.095336e-01 -3.908764e-01 -2.705278e-01 -9.385682e-01 1.821288e-01 -1.413027e+00 -2.421041e-01 1.247764e-03 
-4.093183e+00 2.711663e+00 2.875441e+00 2.894072e+00 3.504042e+00 1.747490e+00 -5.159130e-01 2.671797e+00 9.975390e-01 2.135228e+00 -1.249283e+00 5.306422e+00 -1.041907e-01 3.500192e-01 7.993373e-01 8.094579e-01 -9.765997e-02 4.227633e-01 2.940344e-01 -3.817227e-01 -1.286102e+00 1.161868e+00 2.884820e-01 -1.233614e+00 1.012873e+00 -4.127729e-03 
-4.852666e+00 3.765397e+00 1.273461e+00 3.551407e+00 7.416417e+00 3.860779e+00 -1.691513e+00 1.415738e-01 2.530331e+00 5.305115e+00 -2.204487e+00 4.564059e+00 -1.091814e-01 -4.645450e-01 3.620308e-01 -3.456949e-01 -3.773072e-01 3.021011e-01 4.713946e-01 -6.368288e-01 -2.170405e-02 1.840747e+00 1.815851e-01 -8.002140e-01 1.121305e+00 1.011914e-02 
-7.776652e+00 3.049409e+00 5.123985e-02 -9.820268e-01 3.854127e+00 3.147628e+00 2.339588e+00 -1.032793e+00 1.055002e+01 9.596767e+00 2.137977e+00 8.944063e+00 -1.019850e-01 -1.020076e+00 -9.221079e-01 -1.896334e+00 -5.032291e-01 -9.241455e-01 -3.946169e-02 1.760598e-01 4.314630e-01 1.587463e+00 -1.531006e-01 8.827157e-01 -3.487272e-02 1.336976e-02 
-7.191034e+00 1.503576e+00 -4.413120e+00 1.109069e+00 2.795067e+00 2.935083e+00 -1.806369e+00 4.225658e+00 7.306639e+00 4.831906e+00 -3.263790e+00 8.005960e+00 -2.912128e-02 -5.445448e-01 -1.021017e+00 -1.392540e+00 -7.554016e-01 -1.017613e+00 -5.660509e-01 9.862417e-01 5.333667e-01 4.490811e-01 -9.378206e-01 9.650049e-01 -1.192369e+00 2.216232e-03 
-8.024378e+00 -7.679658e-01 -3.762941e+00 1.599095e+00 1.193989e+00 2.013030e+00 4.218140e-01 2.787070e+00 6.546700e+00 1.606330e+00 3.693947e+00 3.411108e+00 -7.737195e-02 2.384601e-01 -2.802394e-01 -3.607340e-01 -3.858365e-01 -5.004106e-01 -1.366177e+00 9.962099e-01 3.979789e-01 -9.605064e-01 -1.518086e+00 2.337001e-01 -1.239098e+00 -9.887099e-03 
-7.451527e+00 5.689983e-01 -3.782147e+00 -1.516162e+00 3.658422e+00 1.597824e+00 4.198583e+00 8.984761e-01 6.777395e+00 4.611231e+00 1.842553e+00 1.368691e+00 -1.104068e-01 -1.670035e-01 3.947071e-01 1.298673e+00 -5.951031e-01 -1.188576e-01 -7.746166e-01 1.644979e+00 -9.785035e-01 -4.671629e-01 -8.896803e-01 3.672200e-01 -4.230995e-01 -1.808438e-02 
-6.454105e+00 2.115501e+00 -2.067917e+00 -1.598594e+00 9.203963e-01 -3.014625e+00 4.318162e+00 2.620693e+00 6.012107e+00 2.116677e+00 7.533060e-01 6.067209e+00 -1.107777e-01 -1.955349e-01 3.134471e-01 3.889546e-01 -3.849472e-01 -3.950182e-02 -5.743971e-01 -4.033004e-02 -8.969129e-01 -7.667610e-01 -2.520429e-01 -8.781877e-01 5.467124e-01 -1.750112e-03 
-8.811188e+00 2.035378e+00 1.232733e+00 -2.676022e-01 2.337576e+00 1.575828e+00 4.470355e+00 -5.836710e-01 5.238121e+00 1.283317e-01 4.263055e-02 4.562411e+00 -1.028403e-01 6.731081e-02 -9.675245e-02 -2.926061e-01 -1.991855e-01 9.553633e-02 7.749108e-01 -8.700746e-01 -6.084715e-01 -9.547890e-01 -6.877810e-01 -3.750955e-01 4.715776e-01 1.915634e-03 
-8.322222e+00 6.607962e-02 -4.325608e+00 -9.499209e-01 1.656904e+00 -8.479576e-01 8.427787e-02 -9.564216e-01 3.482533e+00 2.587565e+00 2.029697e-01 4.547810e+00 -8.990574e-02 -1.615376e-01 -6.062108e-01 -1.144615e+00 -8.785178e-01 5.647075e-02 6.060354e-01 -1.258003e+00 -1.085492e+00 -7.855642e-01 5.620389e-01 -3.578909e-01 -1.038461e+00 -3.088927e-03 
-6.180914e+00 1.109947e+00 -4.116332e+00 -2.836426e+00 3.767851e+00 4.389044e+00 1.965151e+00 -3.553239e-01 3.268237e+00 9.368826e-01 2.422439e-01 4.486279e+00 -1.112646e-01 -5.431534e-01 -2.227620e+00 2.379745e-01 -1.519884e+00 -6.360083e-01 1.457944e-01 -1.764368e+00 -2.233042e+00 6.665775e-01 -4.415855e-01 1.055669e+00 -1.045434e+00 1.419841e-01 
-8.576929e+00 -4.528372e-01 -5.116462e+00 -4.706771e+00 4.876127e-01 -1.391057e+00 -7.192488e-01 -2.920938e+00 3.069228e+00 4.522596e+00 -1.135955e+00 9.129711e-01 -1.220102e-01 -2.177873e+00 -1.544001e+00 1.863351e+00 -1.609049e+00 3.317379e-01 9.024288e-01 -9.782661e-01 -2.160348e+00 1.180923e+00 -9.057112e-01 2.032231e+00 -4.445778e-01 2.796051e-01 
-1.139960e+01 -8.843266e+00 2.818032e+00 -5.988596e+00 -2.578201e-01 2.576349e+00 -3.949722e+00 -1.076662e+01 8.777660e+00 -3.047112e+00 5.990438e+00 1.152660e+00 6.231326e-01 -3.723135e+00 4.754262e-02 2.652028e+00 -1.168906e+00 5.305998e-01 7.703354e-01 8.006693e-01 9.358530e-02 5.550154e-01 -1.586043e+00 2.154706e+00 -1.058107e+00 3.285460e-01 
-1.660224e+01 -2.677318e+00 1.523964e+00 -7.419082e+00 5.328429e+00 4.570534e+00 -1.849617e+00 -6.552513e+00 6.632436e+00 5.100656e-02 7.490026e+00 3.991730e+00 9.409212e-01 -2.084144e+00 1.209166e+00 2.988778e+00 -5.424677e-01 1.088781e+00 9.695009e-01 2.188994e+00 2.042055e+00 -1.832563e+00 -2.922784e+00 1.424095e+00 -7.412050e-01 2.475787e-01 
-2.078393e+01 2.459900e+00 5.823592e+00 -7.324799e+00 4.000442e+00 5.259926e+00 6.533682e+00 1.928390e+00 4.261710e+00 -4.757538e+00 6.702780e+00 -2.343635e+00 1.000000e+00 9.362982e-01 1.612698e+00 1.682857e+00 2.934295e-01 -4.665046e-01 -5.505759e-01 3.516300e+00 3.857881e+00 -2.813661e+00 -1.208987e+00 6.130217e-01 4.478063e-02 3.103829e-02 
-1.430548e+01 -5.859160e-02 8.324649e+00 -6.751008e+00 3.802387e+00 2.114660e+00 4.984019e+00 9.418298e-01 -3.835613e+00 -9.236112e+00 5.628347e+00 -1.044906e+00 9.274494e-01 3.942979e+00 -3.334982e-01 2.270946e+00 2.100170e+00 -1.051966e+00 2.500820e-03 3.165452e+00 1.721988e+00 -1.409497e+00 -1.260169e+00 -6.982126e-01 -1.958173e-01 -6.822610e-02 
-7.866490e+00 -2.089137e+00 7.831976e+00 -4.855486e+00 -1.827322e+00 1.051407e+00 1.021496e+01 4.775613e+00 -5.661869e-02 -4.448486e+00 9.986385e+00 3.894881e+00 7.850599e-01 5.995336e+00 -5.747281e-01 1.659615e+00 2.200228e+00 -1.572000e+00 -5.060235e-01 1.339635e+00 -4.045209e-01 -2.691474e-02 -2.652827e-01 -1.004052e+00 5.891434e-01 -8.667935e-02 
-3.346067e+00 -2.070291e+00 1.187450e+01 1.847112e+00 2.982478e+00 6.687298e+00 1.213700e+01 6.338182e-01 1.744112e+00 -6.404363e+00 2.357160e+00 -1.066148e-01 7.072607e-01 5.181910e+00 2.509304e-01 5.128543e-01 1.894902e+00 -1.399917e+00 -9.159043e-01 5.903817e-01 -1.389767e+00 1.005297e+00 -5.878091e-02 -2.084604e+00 -1.094897e+00 -6.994338e-02 
3.713041e+00 5.921092e-01 1.234674e+01 -6.227164e-01 -3.449605e+00 4.434892e-01 9.655366e+00 5.979121e-02 1.337274e+00 -7.499826e+00 3.318114e+00 1.329358e-01 6.766976e-01 3.801071e+00 2.261757e-01 -9.977760e-02 1.270027e+00 -2.087593e+00 -2.450997e+00 -8.881986e-01 -1.903349e+00 -8.062266e-01 2.302372e-01 -2.907488e+00 -1.349122e+00 -3.167760e-02 
5.814297e+00 -1.445625e-01 8.631537e+00 6.071161e-01 -2.386056e+00 -2.160903e+00 8.215725e+00 -3.649095e+00 4.939241e-01 -8.004346e+00 -1.460536e+00 -4.638418e+00 6.319137e-01 2.350781e+00 -9.019293e-01 -7.692627e-01 3.727257e-01 -3.349124e+00 -4.132537e+00 -1.899054e+00 6.530719e-01 -2.434298e+00 1.339242e+00 -1.559910e+00 -2.931938e-02 2.037557e-02 
6.558682e+00 -1.921122e+00 8.954570e+00 2.114645e+00 -9.581018e+00 -6.779478e+00 7.734605e+00 -2.599675e+00 -3.462657e+00 -2.497308e+00 -2.642205e+00 -5.848293e-01 6.643454e-01 5.504341e-01 -2.088904e+00 -9.943342e-02 5.399005e-01 -3.000924e+00 -2.854896e+00 -1.497435e+00 3.088372e+00 -2.223728e+00 2.197858e+00 -9.485925e-01 2.468838e-01 5.060808e-02 
6.985018e+00 -5.323321e+00 9.724274e+00 2.342060e+00 -1.069744e+01 -1.036391e+01 3.602112e+00 5.228911e+00 -8.027410e+00 -2.209413e+00 -2.462229e+00 1.056708e-01 8.153147e-01 -2.088782e-01 -2.191430e+00 -5.525131e-02 1.955743e-01 -3.924609e+00 -2.156250e+00 -1.725574e+00 3.719149e+00 -2.218269e+00 1.700803e+00 5.089093e-01 2.860392e-01 6.516014e-02 
5.879851e+00 -7.263032e+00 1.130321e+01 1.209315e+00 -1.429853e+01 -9.729488e+00 4.474997e+00 1.106265e+01 -5.520698e+00 5.919976e-01 -9.240023e-01 -1.004689e+00 8.380375e-01 -3.070898e-01 -1.437531e+00 -5.267766e-01 1.036350e-01 -3.362118e+00 -1.611015e+00 -2.199531e+00 2.129053e+00 -1.432182e+00 -1.845044e-01 1.472352e+00 -1.009224e+00 4.720725e-02 
5.109322e+00 -8.430758e+00 7.180963e+00 2.037653e+00 -1.965034e+01 -1.146715e+01 1.217656e+00 8.115486e+00 -9.568401e+00 -1.044982e+00 2.249095e-01 -2.998292e+00 8.708683e-01 -2.650904e-01 -5.187027e-01 -1.433560e+00 6.456728e-02 -3.476579e+00 -2.181101e+00 -2.800525e+00 -1.173531e+00 -1.115428e+00 -1.724851e+00 8.724788e-01 -1.288234e+00 1.225250e-02 
5.961082e+00 -7.555058e+00 7.592342e+00 2.785024e+00 -2.191516e+01 -1.428293e+01 -2.070820e+00 6.602303e+00 -9.853070e+00 -4.002045e+00 3.375987e+00 -4.078969e+00 8.726048e-01 2.157143e-01 -1.034871e-01 -1.483020e+00 4.484485e-01 -2.127325e+00 -3.821573e+00 -3.614620e+00 -2.625376e+00 -1.214659e+00 -2.380708e+00 -7.572365e-02 -1.217098e+00 2.604091e-03 
5.618951e+00 -7.770822e+00 4.411907e+00 1.877041e+00 -2.427202e+01 -1.899269e+01 -7.127604e+00 1.591427e+00 -1.143836e+01 -8.536645e+00 -2.498294e-01 -4.798362e+00 8.592935e-01 5.358178e-01 2.152047e-01 -4.840676e-01 8.621176e-01 -2.169395e-01 -3.839475e+00 -3.987347e+00 -1.223932e+00 1.231638e-01 -1.279478e+00 -3.603380e-01 -9.934441e-01 -5.968809e-03 
6.703609e+00 -8.110435e+00 5.272634e+00 3.531863e+00 -2.262432e+01 -2.507458e+01 -9.425472e+00 1.197796e+00 -1.065901e+01 -7.565714e+00 -1.065251e+00 -6.190145e+00 8.568454e-01 6.638224e-01 3.795501e-01 -3.765171e-01 1.252650e+00 1.391118e+00 -2.862919e+00 -3.731880e+00 -3.889070e-01 1.573255e+00 -4.548116e-02 5.730559e-02 -7.535406e-01 -6.336284e-03 
7.417147e+00 -7.077046e+00 5.920479e+00 5.974822e+00 -2.038046e+01 -2.526870e+01 -1.504175e+01 4.698082e+00 -8.549611e+00 -5.660537e+00 6.438384e-01 -6.909925e+00 8.489040e-01 9.403123e-01 3.915567e-01 -1.771906e-01 1.282018e+00 2.669273e+00 -9.978105e-01 -3.440390e+00 1.349420e-01 2.401978e+00 7.592162e-01 1.218548e+00 3.026544e-01 -3.148228e-03 
8.381096e+00 -6.004196e+00 4.955471e+00 6.999381e+00 -1.690535e+01 -2.545952e+01 -1.677315e+01 3.104441e+00 -3.431173e+00 -5.667505e+00 3.215681e+00 -6.790891e+00 8.461182e-01 9.990057e-01 -1.221263e-01 -9.461629e-01 6.283192e-01 2.779503e+00 7.338352e-01 -3.290068e+00 -6.569918e-01 2.081808e+00 7.929482e-01 9.461632e-01 8.415186e-01 -2.937245e-03 
9.481769e+00 -6.866158e+00 3.684536e+00 6.553371e+00 -1.378514e+01 -2.378927e+01 -2.065572e+01 1.312815e+00 -3.042390e+00 -5.689668e+00 3.702446e+00 -2.984716e+00 8.489159e-01 9.676529e-01 -7.613876e-01 -1.596406e+00 -1.513982e-01 2.510571e+00 2.626691e+00 -1.776735e+00 -1.189260e+00 1.198716e+00 3.994282e-01 9.779620e-03 3.117629e-01 -1.045347e-02 
1.066633e+01 -8.826511e+00 1.659791e+00 6.384184e+00 -1.202446e+01 -2.214512e+01 -2.306883e+01 -3.945301e-01 -3.003583e+00 -3.586407e+00 2.136261e+00 -3.945156e+00 8.421532e-01 5.902932e-01 -1.000129e+00 -1.480368e+00 -7.795958e-01 2.603772e+00 4.378603e+00 1.028063e-01 -4.508046e-01 2.214480e-01 3.155255e-01 -1.008561e+00 -5.735018e-01 -3.605355e-02 
1.111280e+01 -9.472826e+00 -4.137133e-01 5.525429e+00 -1.026805e+01 -1.379245e+01 -2.077758e+01 5.012662e-01 -2.769826e+00 -4.703945e+00 1.232446e+00 -6.773977e+00 7.986192e-01 4.292732e-01 -4.176868e-01 -1.363306e+00 -2.572297e-01 1.738705e+00 4.843623e+00 1.440300e+00 9.415456e-02 -8.514972e-02 4.513762e-01 -7.421107e-01 -1.945578e+00 -4.708556e-02 
1.051705e+01 -9.701504e+00 -3.972446e-01 3.615373e+00 -5.645033e+00 -8.564923e+00 -1.619818e+01 1.256192e+00 -2.460215e+00 -4.582739e+00 -5.921255e-01 -7.763769e+00 6.909988e-01 5.410591e-01 -9.889340e-02 -5.207328e-01 -8.352523e-02 1.249384e+00 4.211972e+00 1.635692e+00 -1.370388e-02 2.298965e-01 8.778397e-01 1.263578e-01 -1.460400e+00 -4.841373e-02 
1.170277e+01 -8.517096e+00 -2.103476e+00 6.651628e+00 -8.281332e+00 -6.361262e+00 -1.688954e+01 9.582268e-01 -3.739823e+00 -2.934621e+00 1.356086e+00 -1.080330e+01 6.890653e-01 6.021611e-01 3.885164e-01 -1.390733e-01 -4.137363e-02 9.456913e-01 2.139915e+00 1.348191e+00 -1.043202e+00 3.750934e-01 1.931280e+00 6.646014e-01 -6.328849e-01 -3.809310e-02 
1.307663e+01 -9.798843e+00 -9.899175e-02 5.403458e+00 -6.770899e+00 -4.800854e+00 -1.683439e+01 -6.915298e-01 -1.369102e+00 -8.187032e-02 2.706231e+00 -9.232497e+00 6.548615e-01 5.261530e-01 7.248274e-01 7.272102e-02 -6.400380e-01 9.215044e-01 1.278106e+00 6.681179e-01 -1.340975e+00 -2.445678e-01 2.792644e+00 1.207933e+00 -5.747635e-01 -2.518537e-02 
1.284381e+01 -7.481575e+00 -1.258206e+00 4.424519e+00 -4.976655e+00 -4.974910e+00 -1.371852e+01 -3.740884e+00 -1.439916e+00 2.702023e+00 2.906275e+00 -9.204038e+00 6.262223e-01 -8.669362e-02 1.217301e+00 1.338895e-01 -1.944140e+00 1.875050e+00 1.715954e+00 9.513346e-01 -1.426061e+00 -8.602799e-01 2.583241e+00 1.180236e+00 -9.007349e-02 -3.144123e-02 
1.257729e+01 -6.595128e+00 -4.562746e-01 1.528738e+00 -2.689849e+00 -2.867570e+00 -1.444310e+01 -3.099126e+00 -4.833008e+00 6.562160e+00 4.672445e+00 -1.143722e+01 5.964935e-01 -1.212737e-01 2.021469e+00 -7.022516e-01 -1.981841e+00 2.172865e+00 2.173372e+00 1.273151e+00 -1.423871e+00 -1.948076e+00 1.793441e+00 1.473463e+00 1.378836e-01 -3.595777e-02 
1.151898e+01 -4.032447e+00 -1.255387e+00 -1.131714e+00 -9.466047e-01 1.251867e+00 -1.332851e+01 -4.968278e+00 -6.309269e+00 6.659568e+00 6.274161e+00 -1.015131e+01 5.610431e-01 1.077492e-01 2.391485e+00 -1.269814e+00 -1.171163e+00 2.029924e+00 2.296965e+00 1.817018e+00 -1.852179e+00 -1.594012e+00 3.571359e-01 1.350407e+00 1.079321e+00 -4.641958e-02 
1.313268e+01 -1.416061e+00 -3.611659e+00 -1.727630e+00 2.078402e+00 2.952617e+00 -1.066364e+01 -7.197187e+00 -8.674803e+00 6.906563e+00 8.389603e+00 -8.069445e+00 5.076622e-01 3.832861e-01 2.953930e+00 -1.251536e+00 -7.923542e-01 1.901830e+00 1.188340e+00 2.193656e+00 -1.898122e+00 -1.897977e+00 -1.294076e+00 2.412610e-01 1.837003e+00 -4.295308e-02 
1.310486e+01 1.886317e+00 -6.029585e+00 1.968894e-01 2.788840e+00 3.599823e+00 -6.523160e+00 -1.095275e+01 -7.489079e+00 4.315501e+00 7.799733e+00 -5.491320e+00 4.385400e-01 5.215528e-01 2.470361e+00 -9.938893e-01 -1.365775e+00 8.890147e-01 7.290062e-01 2.161170e+00 -1.591240e+00 -2.457664e+00 -1.874019e+00 -4.351633e-01 1.750157e+00 -3.139375e-02 
1.370078e+01 5.215140e+00 -4.326854e+00 -3.097334e+00 4.951581e+00 1.900155e+00 -6.877497e+00 -9.597503e+00 -1.373299e+01 1.263812e+00 5.115964e+00 -4.582194e+00 4.429796e-01 2.994542e-01 1.689301e+00 -4.467242e-01 -2.063132e+00 -3.086917e-01 9.033413e-01 1.618984e+00 -1.244195e+00 -2.573583e+00 -1.613982e+00 -3.234906e-01 1.602085e+00 -1.326601e-02 
1.384269e+01 5.003761e+00 -5.867237e+00 -7.275738e+00 2.061880e+00 5.423129e+00 -4.415738e+00 -1.172432e+01 -1.606850e+01 1.108485e-01 5.735164e+00 -3.144147e+00 4.364157e-01 4.032904e-01 1.343082e+00 -1.694672e-01 -2.890571e+00 -9.746765e-01 3.525163e-01 1.069536e+00 -1.194645e-01 -2.039263e+00 -1.931566e+00 -9.973471e-01 8.991376e-01 7.752085e-03 
1.426104e+01 5.471722e+00 -5.926454e+00 -8.306974e+00 8.984241e-01 6.557670e+00 -3.622433e+00 -1.303237e+01 -1.725301e+01 9.389800e-01 7.804434e+00 -1.232607e+00 4.423943e-01 -3.191632e-01 1.201273e+00 2.380662e-02 -2.095960e+00 -1.501464e+00 4.347045e-01 1.295195e+00 -9.440854e-01 3.458137e-02 -2.128095e+00 -1.397747e+00 2.136375e+00 -1.658929e-02 
1.484118e+01 8.473436e+00 -6.077121e+00 -1.165115e+01 -5.796432e-02 3.033647e+00 -2.803010e+00 -9.832633e+00 -1.592538e+01 -5.179912e+00 1.468762e+00 -2.670426e+00 4.775931e-01 -2.402903e+00 9.842359e-01 1.170977e+00 6.816747e-01 -1.229634e+00 -2.084030e+00 -3.184173e-01 -7.098250e-01 1.192653e+00 -2.098855e+00 -1.974982e+00 1.981684e+00 -7.782380e-02 
1.160572e+01 9.486670e+00 -4.102879e+00 -1.138943e+01 -1.495820e+00 5.268418e+00 -1.207885e+00 -1.526377e+01 -1.363164e+01 -6.731282e+00 2.604305e-01 5.862822e+00 3.394445e-01 -3.334900e+00 6.714660e-01 1.904197e+00 2.470343e+00 -3.838925e-01 -1.782408e+00 6.514488e-01 1.237897e+00 2.394972e+00 -1.951780e+00 -3.227821e+00 1.235990e+00 -1.173300e-01 
3.155836e+00 7.917467e+00 -9.241405e-01 -2.326136e+00 -2.889167e+00 -4.352395e+00 -7.215098e+00 -1.415775e+01 -1.191592e+01 -6.548297e+00 -3.677415e-01 3.216562e+00 9.877163e-02 -2.246897e+00 1.239210e+00 2.857448e+00 2.167860e+00 -4.273016e-01 -9.288152e-01 2.005222e+00 3.013308e+00 2.191657e+00 -9.799873e-01 -3.650471e+00 2.354967e-01 -8.117674e-02 
3.429212e+00 9.107037e+00 1.018040e+00 -6.177672e-01 3.945632e-01 1.338650e+00 1.840855e+00 -4.680335e+00 -7.282885e+00 -8.135727e+00 -7.416417e+00 2.003850e+00 4.515511e-02 -3.254233e-01 5.272873e-01 2.007493e+00 1.879168e+00 4.379022e-01 -1.580298e+00 2.645012e+00 4.673743e+00 2.252362e+00 -3.470928e-01 -3.491945e+00 -1.748430e+00 -1.406335e-02 
7.694953e+00 1.485930e+01 5.649660e+00 -6.197678e+00 -3.139664e+00 3.544540e-01 5.698728e+00 -5.781442e-02 -8.141475e+00 -9.377625e+00 -1.294517e+01 4.365436e-01 2.188541e-01 9.617831e-01 -1.822766e+00 -5.150089e-01 7.377681e-01 1.728290e+00 9.304587e-01 3.828945e+00 5.180303e+00 2.837499e+00 1.412941e-01 -2.742981e+00 -1.684245e+00 1.584735e-02 
7.709043e+00 8.652187e+00 2.647684e+00 -5.782008e-02 8.189392e-01 -4.986495e+00 5.560265e+00 1.054979e+00 -4.257048e+00 -7.052082e+00 -1.091058e+01 -1.489320e+00 2.090865e-01 -2.225379e-01 -3.214212e+00 -2.580814e+00 -4.818158e-02 1.336223e+00 2.061241e+00 2.646512e+00 3.259273e+00 3.701437e+00 3.018357e+00 5.903958e-01 -7.933319e-01 -1.741821e-02 
5.824836e+00 -9.689405e-01 -4.314007e+00 1.082731e+00 5.540095e+00 3.462471e+00 1.006992e+01 8.876112e+00 7.586627e-01 -6.383649e+00 -1.233556e+01 -3.458078e+00 9.604269e-02 -1.528364e+00 -4.183551e+00 -3.602038e+00 5.273232e-01 1.922215e+00 3.405225e+00 1.014720e+00 1.423005e+00 4.391313e+00 4.546071e+00 1.773309e+00 6.639431e-01 -6.545378e-02 
3.251582e+00 9.501002e-01 -6.904195e+00 -4.498879e+00 2.735801e+00 1.009085e+01 1.288782e+01 7.149067e+00 6.774231e+00 5.459067e+00 -4.769239e+00 -1.549888e-02 1.946980e-02 -1.914449e+00 -2.558024e+00 -2.835625e+00 -1.319081e+00 -2.080414e-02 2.679963e+00 -6.678438e-01 -5.288949e-01 2.985138e+00 4.451865e+00 1.075899e+00 7.920287e-01 -5.663956e-02 
2.281862e+00 -2.207411e+00 -7.584591e+00 -1.340532e+00 5.512980e+00 9.841907e+00 7.108554e+00 4.010169e+00 8.299452e+00 7.097153e+00 -7.149292e+00 3.019348e+00 -1.360643e-02 -1.568357e+00 -7.814177e-01 -1.492003e+00 -7.513087e-01 -9.109680e-01 -1.044437e+00 -2.377099e+00 -3.308690e+00 1.020410e-01 2.122653e+00 1.637465e+00 1.054259e+00 -3.270837e-02 
-9.171724e-02 -3.518697e+00 -9.895149e+00 -5.441595e+00 7.284760e-01 5.223602e+00 3.701730e+00 8.434758e-01 6.898249e+00 8.466846e+00 -8.124225e+00 -7.678897e-01 -1.928675e-02 -1.111894e+00 -5.227919e-01 -4.736301e-01 -2.806299e-01 5.374516e-01 -1.736213e+00 -2.750627e+00 -3.143416e+00 -1.559767e+00 -1.774441e+00 -4.477240e-01 -8.045155e-01 -2.334291e-02 
-3.452973e-01 -2.641631e+00 -1.027855e+01 -2.202455e+00 1.988917e+00 6.739082e-01 2.777473e+00 -4.514544e+00 1.206859e+00 2.725727e+00 -2.470747e+00 2.189413e+00 -4.812086e-02 -9.485470e-01 4.674664e-01 4.001692e-01 4.660980e-01 1.369714e+00 -6.252424e-01 -1.183801e+00 -2.005445e+00 -2.564603e+00 -2.810184e+00 -3.412165e-01 -1.859623e+00 -1.405565e-02 
-9.943080e-01 -1.446750e+00 -7.925367e+00 -5.471067e+00 7.185090e+00 5.993780e+00 1.300225e+00 -4.305655e+00 2.521692e+00 -1.227425e+00 -9.347132e+00 -3.623109e+00 -7.998753e-02 -5.768774e-01 1.051406e+00 1.023327e+00 1.378193e+00 1.524845e+00 5.530418e-01 -3.952975e-01 -6.808408e-01 -1.348450e+00 -2.405119e+00 -3.165321e-01 -1.543908e+00 -1.319503e-02 
-2.009577e+00 -9.060531e-01 -6.568636e+00 1.004695e+00 9.133244e+00 6.330606e+00 2.390300e+00 -3.442489e+00 -2.335284e+00 -2.106633e+00 -8.243920e+00 -4.851158e+00 -5.353427e-02 -5.420009e-01 9.522672e-01 1.537118e+00 1.033165e+00 6.133467e-01 9.996036e-01 5.832540e-01 1.907404e+00 8.693007e-01 -2.480870e-01 2.999287e-01 -1.358254e+00 -1.301559e-02 
-2.143964e+00 8.705454e-01 -6.633468e+00 -1.542056e-01 4.780540e+00 5.160462e+00 1.918829e+00 -3.096756e+00 1.927071e+00 -1.142572e+00 -6.820298e+00 -4.967147e+00 -8.255517e-02 -6.780378e-01 8.104438e-01 6.568006e-01 3.699281e-01 -1.085032e+00 -5.230988e-01 6.888300e-01 1.584940e+00 4.359213e-01 5.124238e-01 1.255031e+00 1.016605e+00 -1.870978e-03 
-2.480474e+00 9.610579e-01 -3.238904e+00 3.049387e-01 6.257925e+00 6.088585e+00 5.384440e+00 4.418025e+00 5.850673e+00 1.442865e+00 -2.234520e+00 -3.929840e+00 -1.119150e-01 -9.104136e-01 6.515089e-01 9.951272e-01 -4.762759e-01 -1.088149e+00 6.378478e-02 5.899874e-01 1.559469e+00 9.438329e-01 1.223976e+00 1.561868e+00 2.749697e+00 -4.320252e-03 
-4.149048e+00 1.671914e+00 -6.306231e+00 -3.271549e+00 3.197589e+00 3.499296e+00 3.247304e+00 -3.112134e-01 6.083198e-01 -4.400556e-01 -6.076676e+00 9.992572e-01 -6.015205e-02 -1.051367e+00 3.970844e-01 1.215558e+00 5.923790e-01 2.017395e-01 1.474972e-01 -3.300576e-01 1.135462e-01 3.185604e-02 9.632490e-01 2.376219e+00 2.000166e+00 -2.251589e-03 
-5.559103e+00 1.950807e+00 -1.756618e+00 1.819869e-01 4.483974e+00 7.480112e+00 4.675999e+00 2.962087e+00 3.043256e+00 3.661987e+00 -8.063887e-01 5.914125e+00 -8.633709e-02 -6.733950e-01 3.539293e-01 7.957522e-01 1.308574e+00 9.024819e-01 1.438857e-01 -1.212717e-01 -3.611980e-01 3.519823e-01 1.156693e+00 1.892319e+00 1.338526e+00 -3.185856e-03 
-5.861483e+00 2.361093e+00 -1.296823e+00 2.869165e+00 6.676214e+00 5.202185e+00 6.227617e-01 -1.801056e+00 3.490059e+00 2.564112e+00 4.346729e+00 1.117001e-01 -1.066021e-01 -3.523350e-03 5.864140e-01 2.072801e+00 1.892208e+00 1.351278e+00 -3.363556e-01 4.101891e-01 8.240658e-01 1.249682e+00 1.419439e+00 1.203147e+00 -3.600757e-01 -1.538684e-02 
-4.991231e+00 2.386115e+00 -1.764847e+00 3.777451e+00 9.031022e+00 5.956570e+00 6.090353e+00 3.356956e+00 6.169714e+00 5.724247e+00 2.015375e+00 3.206570e+00 -1.046193e-01 3.099860e-01 1.067343e+00 1.988529e+00 1.266469e+00 5.991318e-01 -1.206236e-01 1.107268e+00 5.219269e-01 4.441383e-01 -5.256501e-01 1.382565e-02 -6.577013e-01 -7.112658e-03 
-4.450601e+00 4.386330e+00 4.061889e+00 4.391756e+00 7.680455e+00 2.579290e+00 4.591073e+00 3.611681e+00 5.293500e+00 5.626009e+00 -1.471821e+00 5.526568e-01 -1.279452e-01 6.771813e-02 5.770115e-01 1.441258e+00 1.310991e-01 3.580430e-01 7.740003e-01 1.891108e+00 1.285932e+00 6.511056e-01 4.253905e-01 -7.450005e-01 -3.702232e-01 -1.993454e-03 
-4.714614e+00 6.274904e+00 5.506673e+00 5.753036e+00 6.977512e+00 8.188442e+00 8.228186e+00 2.865353e+00 4.362227e+00 -4.972124e-01 2.172015e+00 2.405141e+00 -1.112288e-01 -2.046743e-01 3.919581e-01 7.345176e-01 -2.740595e-01 3.151892e-01 1.036785e+00 3.175150e-01 -1.673849e-01 2.668085e-01 5.540681e-02 -4.447830e-01 -6.918590e-01 4.078388e-03 
-5.661201e+00 3.301756e+00 2.273706e+00 2.536868e+00 9.493185e+00 7.956250e+00 9.009382e+00 4.874408e+00 7.649331e+00 7.801794e+00 5.434064e-01 -1.338701e+00 -1.132646e-01 -1.132767e-01 2.216330e-02 -1.445153e-01 9.963818e-02 5.276868e-01 1.536999e+00 -5.455334e-01 -1.192916e+00 4.687769e-01 -2.113399e-02 -5.281633e-01 5.987974e-01 6.797791e-03 
-5.409303e+00 4.888193e+00 2.801832e+00 3.334598e+00 9.700603e+00 8.452015e+00 5.468773e+00 1.888668e+00 6.325841e+00 4.913389e+00 -1.216154e+00 6.929538e-01 -9.156764e-02 8.919497e-02 5.310931e-02 -9.266691e-02 -1.746225e-01 -3.409832e-01 -3.010064e-01 -6.835581e-01 -1.094425e+00 9.147528e-01 6.464084e-01 -6.951892e-01 1.282621e+00 4.577994e-04 
-4.669640e+00 5.190502e+00 4.691732e+00 6.099166e+00 8.957344e+00 1.013250e+01 3.243112e+00 -1.864555e+00 6.655577e+00 2.815039e+00 -2.418553e+00 4.402738e+00 -1.037868e-01 1.352044e-01 2.994363e-01 4.826299e-01 5.996737e-01 -3.360879e-01 -3.638314e-01 -5.495774e-01 2.564144e-02 -3.290241e-02 -1.360130e+00 -3.122659e-02 1.851117e+00 -3.219485e-04 
-4.764420e+00 5.596077e+00 3.834325e+00 3.098775e+00 5.540516e+00 5.595286e+00 7.693530e+00 7.627106e-01 9.432868e+00 5.228208e+00 1.770487e-01 5.947528e+00 -1.136787e-01 -4.218798e-02 -2.827521e-01 1.552615e-01 -3.627890e-01 -6.455093e-01 -3.866187e-01 -1.373127e-01 3.093972e-01 3.573691e-01 -7.745587e-01 3.718694e-02 3.688786e-01 -4.346371e-03 
-5.307621e+00 4.444995e+00 4.170609e+00 5.653148e+00 9.892788e+00 7.565457e+00 5.149117e+00 5.565594e+00 5.931305e+00 8.437364e-01 -3.093280e-01 5.289596e+00 -1.038188e-01 7.359810e-02 -7.317867e-02 -7.227401e-01 -6.263247e-01 -7.697385e-01 -5.039737e-01 -4.878786e-01 5.136338e-01 -6.759863e-02 -1.116788e+00 -9.425070e-01 -9.430593e-01 1.193404e-04 
-5.301253e+00 3.847186e+00 3.838701e+00 1.743662e+00 6.005334e+00 7.802442e+00 3.829207e+00 -2.794201e-01 8.474822e+00 2.026247e+00 -2.084832e+00 2.093918e+00 -1.132835e-01 8.741512e-02 2.943678e-01 -4.873928e-01 -5.493972e-01 -8.289234e-01 -7.319221e-01 -1.904909e+00 8.771866e-01 1.220326e-01 -7.900491e-01 -8.633124e-01 -9.669189e-01 3.066659e-03 
-4.033233e+00 5.699054e+00 1.075844e+00 3.645100e+00 4.876242e+00 6.509052e+00 2.735880e+00 1.224679e+00 6.796607e+00 -1.167920e+00 -6.000148e+00 1.614246e+00 -1.033877e-01 1.022880e-01 6.585485e-01 -3.345690e-01 -8.982517e-01 -1.407840e+00 -1.554172e+00 -1.600064e+00 1.110554e+00 8.493708e-01 3.137653e-01 -1.178822e-01 -3.821286e-01 2.523828e-03 
-4.964538e+00 6.440887e+00 2.944743e+00 1.355813e+00 3.904172e+00 2.463878e+00 -6.243978e-01 7.319101e+00 9.610380e+00 2.283791e+00 -1.294103e+00 2.950608e+00 -9.856093e-02 -2.578754e-02 5.929235e-01 8.098197e-03 -3.064983e-01 -5.174395e-01 -1.472230e+00 -1.226749e+00 2.129146e+00 5.084890e-01 3.966799e-01 6.287502e-01 3.049741e-01 3.427196e-03 
