-7.125885e+00 4.141643e+00 -2.005525e+00 -4.049246e+00 4.875735e+00 3.392354e+00 -3.387239e+00 -6.113062e-01 6.474006e+00 6.933569e+00 4.197987e+00 4.233017e+00 -1.081284e-01 1.343139e-01 -4.893374e-01 -1.665419e-01 1.105130e+00 -1.349689e-02 -1.449783e+00 1.752980e+00 9.081702e-01 -6.771844e-01 -5.924407e-01 6.250659e-01 1.454044e-01 -3.434515e-03 
-6.485246e+00 2.981943e+00 -2.114382e+00 -1.195096e+00 4.284827e+00 7.007620e-01 7.875504e-01 1.929251e+00 3.320040e+00 4.066857e+00 5.464680e+00 3.617591e+00 -1.199092e-01 -7.420025e-02 -4.625960e-01 -5.941632e-01 9.629614e-01 -1.762930e-02 -1.313156e+00 1.801787e+00 6.060738e-01 -9.599317e-01 -1.451170e-01 3.551970e-01 2.812766e-01 8.410430e-03 
-6.774635e+00 2.274806e+00 -2.783806e+00 4.932952e-02 5.103705e+00 -2.510765e+00 3.290264e+00 2.659266e+00 4.665066e+00 5.404722e+00 6.689969e+00 5.267753e+00 -1.194106e-01 -4.940872e-02 5.650363e-02 -3.807714e-02 1.925282e-01 -4.246492e-01 -3.873348e-01 2.087178e+00 -1.074604e-01 -1.157074e+00 -1.718411e-01 1.118248e+00 9.389936e-01 7.645226e-03 
-7.672511e+00 2.762081e+00 -4.587200e+00 -1.283727e+00 4.673604e+00 -2.218671e-01 2.282943e+00 7.837766e-01 2.578816e+00 6.972408e+00 4.727981e+00 5.122033e+00 -6.043518e-02 -6.479673e-02 2.806875e-01 -1.811047e-01 -5.098903e-01 -2.491173e-01 9.214855e-01 -2.177761e-02 -1.029134e+00 -8.225096e-01 -5.316535e-01 6.016375e-01 7.395438e-01 6.544662e-03 
-6.779296e+00 4.534092e+00 -9.595013e-01 -3.042290e+00 2.558101e+00 1.916994e+00 6.300956e+00 -5.758712e-01 1.059249e+00 4.621588e+00 1.015758e+01 8.175764e+00 -9.963930e-02 2.392101e-01 1.394783e-01 -4.528542e-01 -1.502346e-01 -6.364344e-01 1.882672e+00 -5.615646e-01 -7.578314e-01 -4.179434e-01 -9.172027e-01 -5.137235e-01 1.392474e-01 3.612089e-03 
-6.806899e+00 3.255737e+00 -3.932057e+00 -2.198738e+00 4.312042e+00 3.094310e+00 -8.266835e-01 -1.598849e+00 1.010401e+00 1.800157e+00 6.739064e+00 5.861304e+00 -9.707153e-02 3.922536e-01 -3.304479e-01 2.896314e-02 7.099145e-01 -1.895229e-01 1.124136e+00 3.651044e-01 4.745657e-01 1.595518e-01 -6.137688e-01 -7.654210e-01 -5.878175e-01 -3.659201e-03 
-6.011391e+00 2.725369e+00 -5.375648e+00 -2.443380e-01 2.102314e+00 5.244505e+00 2.037255e+00 6.142223e-02 3.359557e+00 3.404834e+00 3.115810e+00 5.594354e+00 -8.303201e-02 2.417195e-01 -1.555565e-01 -3.417800e-01 1.071594e+00 1.783659e-01 -1.664043e-01 -8.308838e-01 2.092239e+00 2.125979e+00 1.267515e+00 -1.857516e+00 -1.796212e+00 1.404727e-02 
-6.095196e+00 2.014203e+00 -2.234311e+00 8.668694e-01 3.953883e+00 3.735057e+00 6.240316e+00 2.837959e+00 2.226421e+00 4.511941e+00 4.421759e+00 3.473651e+00 -8.703482e-02 1.658342e-01 2.377094e-01 3.140882e-01 4.301684e-01 4.203805e-01 -4.038335e-01 5.133430e-01 2.033648e+00 1.693675e+00 1.750334e+00 -3.245474e-01 -5.342316e-01 3.087735e-03 
-5.926550e+00 4.377077e+00 -3.517275e+00 7.828748e-01 3.629010e+00 7.645991e-01 -1.386963e+00 7.666918e+00 1.108113e+01 9.603271e+00 2.028648e+00 3.885320e-01 -3.442132e-02 6.909685e-02 4.946326e-01 2.890858e-01 -8.297184e-01 7.211629e-01 -1.047842e+00 -6.115327e-01 1.083828e+00 2.622704e-01 6.632052e-02 3.999693e-01 1.290358e-01 -9.144544e-05 
-6.020148e+00 3.618431e+00 -3.290803e+00 -5.615022e-01 5.650597e+00 3.315095e+00 3.452140e+00 4.766644e+00 5.617990e+00 7.452607e+00 5.659908e+00 5.793057e+00 -1.059382e-01 -2.641400e-01 2.806757e-01 2.379970e-01 -1.031686e+00 4.727157e-01 -9.490770e-01 -1.588102e+00 -1.510978e+00 -3.958271e-01 -1.541662e+00 7.890803e-01 1.085993e+00 -5.986607e-03 
-5.703430e+00 4.396419e+00 -3.401973e+00 -3.678744e+00 4.859771e+00 2.152748e-01 3.736792e-01 4.516217e+00 2.975124e+00 2.266104e+00 4.496582e+00 5.079830e+00 -7.403755e-02 -4.018038e-01 -1.400492e-01 1.151586e+00 2.305300e-02 6.968553e-02 -9.322573e-01 -1.673447e-01 -2.023719e+00 -4.053588e-01 -1.965340e+00 1.314117e+00 7.580923e-01 -1.387702e-02 
-7.527455e+00 3.407911e+00 -1.101977e+00 -2.060752e+00 5.702081e+00 -7.356658e-01 -2.580515e+00 -3.141579e+00 4.300290e+00 4.722124e-01 7.133193e+00 6.557968e+00 -9.715974e-02 -4.848900e-02 4.590399e-01 5.995343e-01 5.175858e-01 -5.489649e-01 -8.570517e-01 -7.266601e-01 -1.074989e+00 6.629909e-01 -4.647168e-01 7.425615e-01 -8.235238e-02 -5.038619e-04 
-7.181915e+00 3.782090e+00 1.146240e+00 1.647765e+00 3.951696e+00 -1.871307e+00 7.926412e-01 1.502438e+00 9.713188e+00 3.266770e+00 7.862593e+00 3.796538e+00 -1.081957e-01 -4.894314e-02 1.643230e-01 -1.235027e-01 6.087506e-01 -4.716427e-01 7.325954e-01 6.108420e-01 -1.469966e-01 6.992503e-01 8.391660e-01 1.000948e-01 5.151308e-02 -3.216922e-03 
-5.523351e+00 6.220794e+00 -2.567238e+00 -6.368283e-01 3.359810e+00 7.312751e-02 -3.906412e-01 8.985887e-01 5.563913e+00 4.628690e+00 7.689710e+00 6.022941e+00 -9.137845e-02 -1.721773e-02 3.951072e-01 -9.834957e-01 4.687192e-02 -4.843419e-01 4.465349e-01 8.079348e-01 8.399273e-01 -4.124705e-01 1.385962e+00 -2.966360e-01 -7.999973e-01 7.270181e-03 
-6.950198e+00 3.811592e+00 -3.286856e+00 -1.346953e+00 3.672693e+00 3.473855e+00 2.332952e+00 1.761150e+00 5.839564e+00 4.383695e+00 4.718798e+00 5.604909e+00 -9.301281e-02 -4.180784e-02 2.675247e-01 -6.896069e-01 -4.909979e-01 -2.233644e-01 -1.180665e-02 9.979437e-01 8.216294e-02 -1.178956e+00 7.321786e-01 -5.997581e-01 -6.802069e-01 3.405607e-03 
-7.729403e+00 5.368696e+00 -3.802907e+00 -3.290336e-01 3.419873e+00 -1.175572e+00 6.890030e-01 9.287013e-01 4.174749e+00 6.843558e+00 7.221910e+00 1.653796e+00 -6.840026e-02 2.812002e-01 1.668334e-01 2.690368e-01 -4.425345e-01 5.170366e-01 1.619941e-01 2.047045e+00 -2.277503e-01 -1.152546e+00 -1.607177e-01 2.244888e-01 -1.752177e+00 -3.046095e-03 
-6.287929e+00 5.545763e+00 -1.683959e+00 -9.611220e-01 2.804843e+00 -1.305990e+00 5.242537e+00 1.898196e+00 4.512990e+00 5.820229e+00 5.097702e+00 2.580076e+00 -1.026567e-01 3.111347e-01 -4.324064e-02 6.210824e-01 2.869565e-01 6.630043e-01 9.681239e-02 1.403808e-01 -3.010503e-01 -3.533955e-01 1.120211e-01 6.720330e-01 -7.624151e-01 -3.843737e-03 
-4.448484e+00 6.187875e+00 -2.023503e+00 -3.042417e+00 6.378918e+00 3.273021e+00 8.389794e+00 -3.086858e-01 4.644709e-01 3.106835e+00 8.622702e+00 -1.225527e+00 -1.017870e-01 2.929831e-01 -4.275725e-01 7.773997e-01 7.515602e-01 5.674880e-01 1.368464e+00 -3.667016e-01 9.458637e-03 -2.743223e-01 -3.926170e-01 -2.548946e-01 1.477668e-01 9.811759e-04 
-7.034984e+00 3.185799e+00 -1.071146e+00 1.444521e+00 5.508191e+00 1.733621e+00 -8.155394e-01 8.745922e-01 5.927725e+00 6.812162e+00 7.378567e+00 3.232495e+00 -9.553814e-02 3.453198e-01 -7.365831e-01 1.585108e-02 8.270137e-01 -5.750422e-01 5.785375e-01 -3.818241e-01 8.005760e-01 -5.187463e-01 -9.299330e-02 -5.203108e-01 4.818796e-01 1.194897e-02 
-5.890960e+00 4.410815e+00 -2.223158e-01 2.225946e+00 4.905639e+00 4.146944e+00 1.884533e+00 1.487797e+00 2.095770e+00 4.384507e+00 4.807004e+00 2.066421e+00 -6.705368e-02 1.153867e+00 -3.348338e+00 3.050544e-02 -7.864217e-02 -3.603085e+00 -1.979670e-01 -1.429883e+00 -6.235213e-01 8.370140e-01 -1.562457e+00 -3.780901e+00 1.108389e+00 6.353597e-02 
-3.840092e+00 2.751378e+00 -2.505298e+00 5.397649e-01 6.662717e-01 1.149736e+00 6.586047e+00 5.002835e+00 1.103609e+00 4.716426e+00 4.403996e+00 3.343500e+00 -6.027853e-02 1.885765e+00 -3.408142e+00 3.066603e-01 -8.450717e-01 -3.114166e+00 7.786369e-02 -1.327629e+00 -2.537884e+00 4.837514e-01 -3.030384e+00 -3.955095e+00 -2.430125e-01 6.636294e-02 
-2.765932e-01 -1.033660e+01 -1.153900e+00 -2.983250e+00 -9.215544e+00 2.575129e+00 -2.460414e+00 -5.490414e+00 7.061599e+00 -3.657583e+00 -8.794520e+00 4.260913e+00 1.982630e-01 1.116973e+00 -3.122019e+00 -6.498786e-01 2.168662e-02 -4.856745e-01 -1.385475e+00 -1.858763e+00 -1.456568e+00 6.777008e-01 -3.002403e+00 -3.330923e+00 -9.031422e-01 3.829619e-02 
-4.133396e-01 -6.481201e+00 9.279472e-01 -1.762397e-01 -3.002046e+00 2.908847e+00 -5.281210e+00 -8.325722e+00 5.863568e+00 -4.318710e+00 -5.596146e+00 9.201859e-01 1.036182e-01 -9.430800e-02 -1.720389e+00 -1.195646e+00 1.284951e+00 1.012740e+00 -2.163932e+00 -1.683742e+00 6.776088e-01 4.165304e-01 -2.375020e+00 -2.212662e+00 -1.106172e+00 1.064668e-02 
-2.019472e+00 -6.582990e+00 -5.188331e+00 2.692382e+00 4.311425e+00 -3.659989e+00 -1.475653e+00 8.692367e-01 3.104295e+00 -6.109940e+00 -6.847541e+00 -1.237633e+00 4.247892e-02 -6.731406e-01 1.150698e+00 -2.074138e+00 1.897672e+00 2.139590e+00 -3.325522e+00 8.610224e-01 3.335465e+00 -1.524972e+00 -1.659882e+00 -2.966191e-01 -9.180652e-01 -3.803468e-02 
-3.440192e+00 -7.727375e+00 -6.466311e+00 4.126706e+00 -1.033515e+00 -6.552363e+00 -2.325042e+00 5.211054e+00 5.164913e+00 -5.932494e+00 -7.632802e+00 5.619152e-01 7.084692e-02 -4.311354e-01 1.753321e+00 -1.679720e+00 1.429933e+00 9.862081e-01 -2.207669e+00 1.499614e+00 3.137347e+00 -3.466278e-01 -7.105997e-01 -3.423905e-01 1.177586e-01 -2.855692e-02 
-2.128870e+00 -3.960027e+00 -7.827462e+00 4.353638e+00 4.981422e-01 -9.321877e+00 3.666139e-01 4.418524e+00 -2.139344e-01 -1.115010e+01 -9.259288e+00 -1.502779e-01 2.447528e-02 1.207489e-01 2.397893e+00 4.264106e-01 2.275248e-01 6.084428e-02 9.576531e-02 1.359956e+00 -2.279674e-01 1.488414e-01 6.596833e-01 5.334448e-01 7.780541e-01 -3.714030e-02 
-2.514318e+00 9.739242e-01 -6.151087e+00 6.142799e+00 3.835635e+00 -5.298555e+00 1.295729e+00 5.586369e+00 5.789544e+00 -5.351627e+00 -6.102225e+00 9.653012e-01 -3.016460e-02 1.348300e-01 2.511136e+00 8.431956e-01 -5.023133e-01 1.573359e+00 1.667721e+00 2.142254e+00 -3.472018e-01 1.626192e+00 1.432287e+00 1.726584e-01 1.151769e-01 -4.303096e-02 
-1.878665e+00 1.055828e+00 -3.213891e+00 2.821959e+00 2.181071e+00 -3.808067e+00 3.513741e+00 -4.582579e-01 3.536186e+00 -3.101956e+00 -4.945605e+00 2.450944e+00 -9.271681e-02 -2.290897e-01 1.643532e+00 1.480187e-01 -1.789590e+00 1.243092e+00 3.586396e+00 1.556105e+00 7.594584e-01 1.832804e+00 1.767357e+00 8.585666e-01 7.949826e-01 -2.457567e-02 
-2.891145e+00 2.320376e+00 -4.557119e+00 2.380979e+00 5.991816e+00 -9.706631e-01 6.812666e+00 5.913436e+00 1.142081e+01 -2.795133e+00 -8.926352e+00 -1.628115e-01 -8.571184e-02 -3.339120e-01 1.217051e+00 -5.215423e-01 -2.507307e+00 1.922969e-01 3.174865e+00 1.331837e+00 1.717607e+00 1.098312e-01 1.328954e-01 1.093135e+00 5.843491e-01 -4.357076e-03 
-3.085905e+00 3.584410e+00 -7.884353e+00 -2.713401e+00 5.635510e+00 6.446158e+00 5.388672e+00 8.052282e+00 6.134450e+00 -3.591566e+00 -3.554392e+00 4.388691e+00 -7.062948e-02 -9.806329e-01 8.251771e-01 7.355533e-02 -1.730435e+00 -3.611210e-01 1.967891e+00 3.976386e-01 6.391059e-01 -6.329914e-01 1.855689e+00 2.468471e+00 8.683588e-02 -6.635904e-04 
-3.580257e+00 5.794886e+00 -6.423568e+00 -3.626055e+00 3.069900e+00 5.448660e+00 7.017447e+00 9.919132e+00 5.039568e+00 -4.442346e+00 -1.332160e+00 2.918173e+00 -6.299365e-02 -9.853060e-01 6.821181e-01 1.703393e+00 -5.565847e-01 -4.199634e-01 1.632248e+00 -2.311384e-01 -1.197332e+00 -1.131178e+00 3.357310e+00 3.240365e+00 7.152719e-01 -4.377079e-03 
-6.437273e+00 3.444458e+00 -1.912890e+00 -2.826700e+00 1.836424e+00 2.821727e+00 5.399544e+00 7.344236e-01 3.561851e+00 7.000097e+00 3.599651e+00 1.344631e+00 -1.073939e-01 -2.551661e-01 9.285234e-01 2.476889e+00 1.655082e+00 -8.826244e-02 -5.001578e-01 -3.271813e-01 -2.096776e+00 -2.678337e-01 3.547387e+00 2.820370e+00 2.217807e-01 -8.976853e-03 
-6.141991e+00 5.800942e+00 9.741136e-01 -3.452942e-01 5.791542e+00 9.002793e+00 5.651538e+00 3.585705e+00 7.051222e+00 8.695584e+00 3.698452e+00 4.935578e+00 -8.921504e-02 6.066207e-01 1.304025e-01 2.001342e+00 1.815216e+00 2.006243e-01 -6.952962e-02 6.822042e-02 -8.538257e-01 1.047816e+00 1.226406e+00 9.867638e-01 5.131970e-01 -4.787445e-05 
-3.080869e+00 8.223999e+00 8.012522e-01 3.921626e+00 3.833377e+00 2.168302e+00 4.435720e+00 7.351182e-01 3.789455e+00 7.576403e+00 8.032153e+00 4.488892e+00 -1.024030e-01 8.287694e-01 -8.049085e-01 3.808532e-01 9.088812e-01 5.262171e-01 -1.148355e-02 8.147143e-01 9.319382e-01 1.320544e+00 -1.544961e+00 -1.003445e+00 -7.881100e-02 2.192202e-02 
-2.225356e+00 4.057128e+00 2.226072e+00 2.075862e+00 3.074545e+00 5.427724e+00 7.840462e+00 5.649656e+00 1.016485e+01 1.401531e+00 1.385409e+00 3.912028e+00 -6.572843e-02 -6.128817e-02 -2.838348e+00 -1.440888e+00 -8.837402e-01 -9.762621e-02 -1.120564e+00 4.706209e-01 -3.269915e-01 -6.235301e-01 -2.285100e+00 -1.001543e+00 -7.115132e-01 3.843164e-02 
-4.251743e+00 2.918228e-01 -6.346027e-01 5.071278e-01 5.826007e+00 4.551844e+00 8.378654e+00 4.362139e+00 8.607756e+00 2.922320e+00 -2.610505e-01 1.462351e+00 -9.527087e-03 -1.169553e+00 -3.138318e+00 -1.541982e+00 -1.214622e+00 3.339923e-01 3.006240e-01 1.149811e+00 -3.000687e-01 -2.786781e-01 -1.220036e+00 -1.508478e+00 -6.427172e-01 5.412165e-02 
-5.862994e+00 -4.424712e+00 -5.512398e+00 -3.056746e+00 4.307096e+00 2.208205e+00 6.033176e+00 1.372371e-01 1.524420e+00 -4.028752e-01 2.837340e+00 2.891283e+00 5.650520e-02 -1.876341e+00 -1.958315e+00 -2.106794e+00 -1.075879e+00 -4.179228e-01 -1.023126e+00 7.279454e-01 -1.145757e+00 -1.748157e+00 4.219497e-02 -2.889858e-01 -7.729396e-01 6.536396e-02 
-7.109815e+00 -3.226669e+00 -3.039425e+00 4.148192e-01 4.887064e+00 5.281181e+00 1.108842e+01 1.990984e+00 6.716278e+00 2.378426e+00 -2.362003e-01 1.785678e+00 1.070884e-01 -1.904454e+00 -8.855432e-01 -1.560115e+00 -5.461289e-01 3.006952e-01 -2.041059e-01 7.062384e-01 -1.984075e-01 -4.793779e-02 -5.213426e-01 -3.374559e-01 -5.612516e-01 7.675134e-02 
-1.017802e+01 -3.975200e+00 -7.105485e+00 -3.257377e+00 1.454403e+00 -5.257678e-02 1.012531e+01 1.106446e+00 2.369803e+00 1.884452e+00 -7.194495e-02 -1.143336e-01 2.027836e-01 -2.767687e+00 -9.428023e-01 -1.117152e+00 -2.510168e-01 4.224378e-01 6.445471e-01 3.271872e-01 -2.197921e-02 5.048906e-01 -1.137781e+00 -4.252762e-02 -2.242491e-01 1.113851e-01 
-1.161650e+01 -4.360649e+00 -7.638632e+00 -2.123201e+00 8.755830e+00 4.661705e+00 9.863781e+00 2.885497e+00 7.945375e+00 -8.280568e-01 -4.936876e-01 1.589015e-01 3.010904e-01 -2.733964e+00 -2.924776e+00 -1.848415e+00 -4.449728e-01 4.475473e-01 -3.082267e-01 -1.854048e+00 -1.310761e+00 -4.528075e-01 -8.744476e-01 3.437881e-01 -6.957591e-01 1.302441e-01 
-1.744809e+01 -8.571733e+00 -8.798554e+00 -3.042820e+00 4.484902e+00 5.740678e+00 8.281431e+00 -4.199156e-01 3.434324e+00 -4.488541e+00 2.753445e+00 2.583426e+00 5.164295e-01 -1.662411e+00 -3.408439e+00 -6.832881e-01 1.373860e+00 2.872489e-01 -6.691595e-01 -3.464149e+00 -2.073622e+00 7.877669e-01 -3.079018e-01 -1.660185e-01 1.340864e-01 1.125052e-01 
-1.714460e+01 -1.555228e+01 -1.143496e+01 -1.917323e+00 5.609550e+00 8.434206e-01 2.740116e+00 -3.799640e+00 3.919980e+00 1.192685e+00 7.004523e-02 -3.041997e+00 6.014860e-01 -1.064158e+00 -3.156417e+00 3.513540e-01 1.958610e+00 -2.324631e+00 -2.156059e+00 -1.378915e+00 -9.865680e-01 -8.444580e-01 -8.899418e-01 -3.456922e-01 1.340208e+00 7.938345e-02 
-1.572602e+01 -1.542158e+01 -8.623760e+00 3.508984e+00 4.463787e+00 -1.489233e+00 -3.633608e+00 -5.919096e+00 8.321336e+00 -6.654279e-01 -1.183904e+00 2.156548e+00 6.151118e-01 4.745220e-01 -4.281569e-01 1.463027e+00 1.441966e+00 -1.715344e+00 -1.238591e+00 1.097072e+00 6.655812e-01 3.890049e-01 1.139937e-01 -3.106545e-02 9.441484e-01 1.141261e-02 
-1.779832e+01 -1.671781e+01 -5.969259e+00 4.393949e+00 -2.856769e+00 -2.503636e+00 8.926723e+00 7.022479e-01 1.279580e+00 -7.189322e+00 -2.534740e-01 7.073382e+00 6.486665e-01 1.605141e+00 2.632200e+00 1.964577e+00 -5.339449e-01 -1.154249e+00 2.713891e-01 2.223089e+00 1.061371e+00 -8.500507e-01 7.970642e-02 7.993717e-01 6.020911e-02 -3.524226e-02 
-1.474862e+01 -1.012975e+01 -4.216273e+00 1.011376e+00 1.413422e-01 1.221251e+00 1.067349e+01 6.570464e-01 6.699549e+00 2.724309e-01 2.759878e+00 2.246478e+00 5.499023e-01 2.954667e+00 2.819683e+00 1.222371e+00 -2.425743e+00 -2.779312e-01 -3.241049e-01 1.265482e+00 6.733929e-01 -1.201013e+00 3.282261e-01 1.444049e+00 -7.953569e-01 -4.277468e-03 
-9.607601e+00 -5.037196e+00 -3.815822e+00 -3.338243e+00 1.999527e+00 8.451245e-01 6.702014e+00 -1.780856e+00 4.806194e-01 1.122287e+00 2.095013e+00 -2.785916e+00 4.578794e-01 4.825409e+00 3.227383e+00 1.426963e+00 -1.813183e+00 -5.906768e-02 -8.328034e-01 -1.286453e+00 1.112922e+00 3.008808e-01 2.232108e-01 1.862300e-01 -6.964399e-01 1.555750e-02 
-5.048050e+00 -7.163470e+00 -3.588624e+00 -4.753633e+00 6.459832e-01 -4.784137e+00 3.806158e+00 -1.310580e+00 2.715752e+00 -3.180102e+00 4.862098e+00 3.109413e+00 6.891180e-01 6.335872e+00 2.282795e+00 1.874387e+00 4.811123e-01 3.348341e-02 -7.462713e-01 -1.873894e+00 3.089736e-01 -6.404231e-01 3.582922e-01 4.142005e-01 9.101827e-01 3.398352e-02 
1.478435e+00 -2.064038e+00 8.517290e-01 -1.789461e+00 -3.404428e+00 -3.664958e+00 5.928121e+00 7.250672e+00 4.775882e+00 -4.347002e+00 -3.734341e-01 3.159715e+00 6.568462e-01 6.457440e+00 1.820300e+00 2.519185e+00 2.696383e+00 3.626547e-01 1.430260e-01 -1.715889e+00 -1.647623e-01 -5.830215e-01 3.798300e-01 9.985428e-02 1.226196e+00 1.173292e-02 
1.138772e+01 -2.023536e-01 2.821888e+00 2.642546e+00 3.010737e+00 -2.550633e-01 1.690960e+00 -2.313850e+00 1.349802e+00 4.798536e+00 6.065104e+00 3.824575e+00 6.203365e-01 5.735763e+00 4.187112e-01 3.670863e-01 3.083275e+00 1.327893e+00 -5.277907e-01 -3.851757e+00 -8.684740e-01 -2.122405e-01 7.877561e-01 -1.089154e+00 -5.053653e-01 -2.521495e-02 
1.446172e+01 5.837444e-01 5.574845e+00 6.445581e+00 2.630424e+00 -7.042823e-01 -8.198299e-01 -2.103033e+00 -1.751513e+00 -9.678819e-01 1.992782e+00 2.987482e+00 5.509348e-01 3.655915e+00 -8.905970e-01 -1.656735e+00 1.847530e+00 2.563888e+00 -1.386964e+00 -6.401427e+00 -1.571197e+00 5.203279e-01 8.186059e-02 -3.400312e-01 -3.052755e-01 -7.849324e-03 
1.713912e+01 -6.393806e+00 -4.114750e+00 6.545221e+00 4.268021e+00 -8.903429e+00 -1.207865e+01 -9.760983e-01 4.918247e+00 -9.308817e-01 -1.766778e+00 6.687032e-01 6.159990e-01 1.441049e+00 -4.573500e-01 -2.999167e+00 -4.921821e-01 2.181503e+00 -1.236725e+00 -6.616161e+00 1.168537e-02 -1.012034e-02 -2.053905e+00 -3.362299e-01 3.044419e-02 6.464762e-03 
1.688231e+01 -3.421297e+00 -3.963629e+00 5.496853e+00 8.786369e+00 -6.275597e+00 -1.919421e+01 -1.274187e+00 5.593299e+00 -1.072990e+00 1.842351e+00 3.211274e+00 6.197683e-01 7.581158e-01 7.823228e-01 -3.103072e+00 -1.598397e+00 2.036003e+00 3.317410e-01 -4.521572e+00 -8.565428e-01 -8.077501e-01 -2.572392e+00 1.401690e+00 7.628128e-01 1.526928e-02 
1.738267e+01 -4.865831e-01 -7.404708e+00 6.560004e-01 1.084028e+01 -3.653029e+00 -2.220266e+01 -2.669846e+00 -2.373206e+00 -5.418437e+00 4.459170e+00 3.864901e+00 6.182436e-01 3.120748e-01 2.167328e+00 -1.390388e+00 -1.972225e+00 7.852241e-01 1.865521e+00 -8.401638e-01 -1.469371e+00 -2.979798e+00 -3.159335e+00 1.306810e+00 1.550750e+00 7.232940e-03 
1.813052e+01 1.541747e+00 -8.295536e+00 1.398206e+00 9.524310e+00 -1.670777e+00 -1.836569e+01 -5.538872e+00 -2.144537e+00 -1.158607e+01 5.888257e+00 5.203447e+00 6.261589e-01 4.512254e-01 1.308481e+00 -1.661507e+00 -2.157397e+00 -8.479543e-01 1.302779e+00 2.696758e-01 -5.113181e-01 -2.845636e+00 -2.576523e+00 2.395628e-01 7.341221e-01 1.643359e-02 
1.807539e+01 1.961313e+00 -8.900738e+00 -1.266583e+00 7.825171e+00 -1.878233e+00 -1.669373e+01 -6.190612e+00 -6.111823e+00 -1.147102e+01 2.744317e+00 7.426365e+00 6.489684e-01 3.159770e-01 1.336568e-01 -1.196297e+00 -2.214398e+00 -1.323618e+00 4.089135e-01 -6.054850e-01 1.053557e+00 -1.442895e+00 -3.444285e-01 -9.957957e-02 -1.510476e-01 3.170616e-02 
1.879208e+01 1.897159e+00 -1.152315e+01 -4.328843e+00 6.054152e+00 -6.490989e-01 -2.060029e+01 -2.070394e+00 -6.765571e+00 -1.092932e+01 3.897591e+00 5.101152e+00 6.865739e-01 9.444790e-02 -6.479955e-01 -1.313434e+00 -2.056016e+00 -1.796293e+00 -8.458946e-01 -2.468451e+00 1.969786e+00 -7.029875e-01 1.514085e+00 -7.498427e-01 -1.407434e+00 4.305596e-02 
1.863177e+01 3.995359e-03 -1.177239e+01 -7.552464e+00 5.957270e+00 -2.119301e+00 -2.411278e+01 8.637002e-01 -7.277165e+00 -7.468955e+00 4.956605e+00 3.160810e+00 7.465669e-01 -2.586772e-01 -1.318238e+00 -1.120490e+00 -6.296362e-01 -2.303378e+00 -2.324016e+00 -3.799899e+00 1.018471e+00 6.781471e-01 1.915790e+00 -1.163800e+00 -2.906638e+00 4.811789e-02 
1.832457e+01 -7.195715e-01 -1.342688e+01 -5.738933e+00 1.476796e+00 -5.779716e+00 -2.699842e+01 7.829012e-01 -5.076804e+00 -6.016673e+00 1.032900e+00 2.990563e-01 7.926394e-01 -6.726456e-01 -2.003536e+00 -4.617802e-01 1.184417e+00 -2.037341e+00 -2.704142e+00 -5.359572e+00 9.055516e-01 1.384421e+00 1.954922e+00 -1.305631e+00 -3.108015e+00 4.853077e-02 
1.701576e+01 -3.321511e+00 -1.355132e+01 -3.709718e+00 -1.403040e+00 -1.093300e+01 -3.249416e+01 -2.524904e+00 -3.565471e+00 -4.348387e+00 -1.642336e+00 -4.705776e+00 8.365251e-01 -8.968523e-01 -1.969697e+00 7.445574e-01 2.424486e+00 -8.786832e-01 -2.340760e+00 -4.852668e+00 2.557601e+00 1.936913e+00 1.706793e+00 -7.486709e-01 -1.694848e+00 4.673448e-02 
1.623686e+01 -6.457770e+00 -1.294258e+01 -3.281298e-01 -4.523954e-01 -9.762959e+00 -4.320747e+01 4.151666e+00 -1.699313e+00 -2.714990e+00 6.689088e-01 -6.505630e+00 8.842486e-01 -1.207437e+00 -2.135432e+00 1.923293e+00 2.274143e+00 -2.575034e-01 -1.811899e+00 -3.182338e+00 5.250348e+00 8.818871e-01 5.767754e-01 2.137831e-01 2.971473e-01 4.772586e-02 
1.519137e+01 -6.975390e+00 -8.291750e+00 1.864565e+00 2.528450e+00 -1.183148e+01 -4.027160e+01 1.196733e+01 7.186575e-01 -5.858328e-01 1.395246e+00 -1.911088e+00 9.344347e-01 -1.484861e+00 -1.909641e+00 2.342584e+00 1.372639e+00 -1.153469e+00 -1.917959e+00 8.843765e-02 6.433818e+00 -1.205962e+00 -9.067482e-01 2.887055e-01 1.784431e+00 4.250152e-02 
1.319958e+01 -9.569792e+00 -6.440205e+00 2.844639e+00 -1.776467e+00 -1.438997e+01 -3.902139e+01 1.978853e+01 -2.809432e+00 -5.014073e+00 5.830238e-01 3.874491e-01 9.823139e-01 -1.797202e+00 -1.510619e+00 2.285145e+00 2.075195e-03 -3.384619e+00 -2.185726e+00 3.295125e+00 4.061717e+00 -3.236572e+00 -2.355184e+00 4.301858e-01 1.040984e+00 2.552345e-02 
1.111009e+01 -1.131370e+01 -5.089592e+00 1.567095e+00 -6.508349e+00 -1.820929e+01 -3.414501e+01 2.182575e+01 -9.040224e+00 -7.732586e+00 -1.558661e-01 7.698398e-01 1.000000e+00 -1.761366e+00 -1.256924e+00 2.092660e+00 -1.004084e+00 -4.454832e+00 -1.090680e+00 4.138480e+00 1.161255e+00 -4.136760e+00 -1.974231e+00 1.034948e+00 -4.934176e-01 6.000972e-03 
9.291489e+00 -1.184171e+01 -3.117937e+00 -1.690185e-01 -1.285709e+01 -1.750268e+01 -2.979513e+01 1.953103e+01 -1.300274e+01 -1.091753e+01 3.595394e+00 -2.641176e+00 9.790832e-01 -1.408530e+00 -3.779275e-01 2.848971e+00 -1.191589e+00 -3.241952e+00 -9.149875e-02 5.706010e+00 -7.231697e-01 -3.005139e+00 4.209000e-01 1.949828e+00 -1.054945e+00 -5.341077e-03 
8.338585e+00 -1.212405e+01 5.104150e-01 -1.649024e+00 -1.420540e+01 -1.572853e+01 -2.419233e+01 1.790235e+01 -1.486849e+01 -7.505260e+00 5.063803e+00 -2.863863e+00 9.660549e-01 -1.123109e+00 3.960266e-02 3.282819e+00 -1.124674e+00 -1.849097e+00 4.042332e-01 5.968459e+00 -1.587712e+00 -1.664100e+00 1.813916e+00 2.034322e+00 -1.179300e+00 -6.928289e-03 
7.542686e+00 -1.105426e+01 5.004647e+00 -1.505249e+00 -1.413770e+01 -1.608785e+01 -1.546768e+01 1.813438e+01 -1.492099e+01 -3.023237e+00 7.722331e+00 -3.070424e+00 9.725811e-01 -1.031071e+00 1.050920e-01 3.300252e+00 -1.080767e+00 -7.807081e-01 2.668865e-01 6.001977e+00 -2.278996e+00 -9.321855e-01 2.413205e+00 1.137948e+00 -1.245451e+00 -1.018029e-03 
6.368948e+00 -1.150942e+01 7.263208e+00 -3.388158e+00 -1.511353e+01 -1.689554e+01 -1.146644e+01 1.458552e+01 -1.640160e+01 -2.610154e+00 7.952276e+00 -4.912036e+00 9.686096e-01 -1.181531e+00 9.152031e-02 2.747091e+00 -1.028774e+00 -7.087666e-01 8.042377e-01 5.108310e+00 -2.589204e+00 -1.228562e+00 1.896655e+00 -6.335001e-02 -1.607453e+00 1.822275e-03 
5.120951e+00 -1.162357e+01 1.000693e+01 -4.703287e+00 -1.630657e+01 -1.558474e+01 -6.148190e+00 9.794470e+00 -1.689711e+01 -1.299059e+00 7.840897e+00 -7.844344e+00 9.727157e-01 -1.409420e+00 3.441117e-01 1.865471e+00 -5.455173e-01 -6.240332e-01 2.045152e+00 3.906393e+00 -2.488917e+00 -8.947588e-01 9.530556e-01 -8.506276e-01 -2.081858e+00 -1.016599e-03 
3.641798e+00 -1.138179e+01 1.174473e+01 -5.193875e+00 -1.666480e+01 -1.195889e+01 -3.310522e+00 9.126280e+00 -2.002324e+01 1.115929e+00 4.687770e+00 -8.514168e+00 9.750990e-01 -1.238886e+00 9.102376e-01 1.416140e+00 2.599014e-01 -6.838571e-01 2.598500e+00 2.585302e+00 -2.070701e+00 -3.373430e-01 7.180608e-01 -1.979258e-01 -1.755414e+00 -1.203942e-03 
1.859160e+00 -9.397509e+00 1.209124e+01 -3.329978e+00 -1.648223e+01 -8.330414e+00 -1.367474e-02 8.419415e+00 -1.758396e+01 -1.210003e-01 5.101446e+00 -1.167865e+01 9.642534e-01 -1.058390e+00 1.449752e+00 9.045146e-01 9.351013e-01 -6.260033e-01 2.395223e+00 1.245547e+00 -1.776237e+00 5.181616e-01 1.168618e-02 8.412999e-01 -1.033286e+00 -6.008637e-03 
1.805416e+00 -8.071258e+00 1.330175e+01 -2.775306e+00 -1.844498e+01 -7.530209e+00 -1.607190e+00 4.919542e+00 -1.774489e+01 3.911203e-01 8.332373e+00 -1.177195e+01 9.668211e-01 -9.129593e-01 1.705190e+00 9.142410e-01 1.065555e+00 -8.503801e-01 1.859184e+00 6.242588e-01 -2.236997e+00 1.132447e+00 2.619898e-01 1.532996e+00 -6.322477e-01 -4.493398e-03 
7.471914e-01 -6.030076e+00 1.375099e+01 -1.237065e+00 -1.854649e+01 -5.822967e+00 -7.721195e-01 3.016656e+00 -1.544548e+01 -8.782237e-01 1.022509e+01 -1.138188e+01 9.468115e-01 -7.728921e-01 1.690366e+00 9.358675e-01 6.934107e-01 -9.437502e-01 1.873157e+00 3.613558e-01 -2.976648e+00 1.379428e+00 1.089808e+00 4.499043e-01 -8.356056e-02 -9.661806e-03 
-3.670139e-01 -4.539560e+00 1.548606e+01 -9.125558e-01 -1.988457e+01 -3.916697e+00 1.899943e-01 6.426725e-01 -1.543025e+01 2.804489e+00 9.790927e+00 -1.182379e+01 9.613529e-01 -2.110415e-02 1.477444e+00 1.009845e+00 5.688644e-01 -5.036484e-01 2.195717e+00 7.836889e-01 -3.154641e+00 1.850503e+00 1.474006e+00 -9.542082e-01 7.803726e-03 -3.693397e-02 
-9.190855e-01 -2.711531e+00 1.567843e+01 -7.942994e-01 -2.048119e+01 -7.713842e-01 8.945122e-01 -4.325387e+00 -1.184414e+01 4.121356e+00 6.621690e+00 -1.207053e+01 9.186785e-01 1.401912e+00 1.781775e+00 6.126318e-01 7.549573e-01 1.272022e-01 9.574651e-01 1.500233e+00 -4.255124e+00 1.844864e+00 1.674011e+00 -2.224027e+00 1.852265e+00 -8.602685e-02 
2.533033e+00 -2.343311e+00 1.738726e+01 -1.523671e-01 -1.999587e+01 9.225868e-01 1.477939e+00 -7.182640e+00 -1.029304e+01 5.261362e+00 5.363034e+00 -1.138861e+01 7.962177e-01 1.539103e+00 2.629084e+00 6.058038e-01 5.800265e-01 9.100062e-01 1.855814e-01 1.669862e+00 -4.852441e+00 2.154617e+00 8.504238e-01 -2.793056e+00 3.738904e+00 -1.205080e-01 
6.306728e+00 1.780677e+00 1.586355e+01 2.157627e+00 -1.785483e+01 -3.455284e+00 6.085073e+00 -1.434631e+01 -8.789768e+00 6.263397e+00 1.318905e+00 -2.338148e+00 5.992448e-01 6.860946e-01 2.465263e+00 1.171720e+00 2.678142e-01 1.508455e+00 -2.926714e-01 1.436894e+00 -3.801857e+00 1.668464e+00 9.087148e-02 -3.253085e+00 4.147283e+00 -1.013022e-01 
3.715592e+00 6.359755e+00 1.842252e+01 5.116138e-01 -1.664772e+01 -1.646841e+00 5.944025e+00 -1.860907e+01 -6.184352e+00 5.985588e+00 -1.522963e+00 2.004536e+00 5.185296e-01 -8.381211e-01 1.106515e+00 1.268277e+00 -7.461937e-01 1.415375e+00 -1.809756e-01 5.366704e-01 -3.139430e+00 8.928962e-01 -8.035825e-01 -3.364169e+00 2.303536e+00 -1.638732e-02 
1.920108e+00 5.263252e+00 2.101940e+01 2.127814e-01 -1.461300e+01 -9.500272e-01 5.845942e+00 -1.762145e+01 -5.556161e+00 4.213600e+00 -6.200733e+00 1.969313e+00 5.510117e-01 -1.139171e+00 3.610422e-01 1.103728e+00 -3.198400e-01 1.508902e+00 3.759267e-01 -4.705392e-01 -1.647385e+00 1.266805e+00 -2.553795e-01 -3.096210e+00 -1.129782e-01 -3.790945e-03 
5.357380e-01 1.447977e+00 2.115072e+01 -2.910913e+00 -1.453992e+01 -1.234919e+00 4.280857e+00 -2.124222e+01 -7.445363e+00 2.268348e+00 -7.697993e+00 -2.024658e+00 7.383977e-01 -9.775613e-01 6.994066e-01 1.328711e-01 2.764103e-01 7.406418e-01 -6.246545e-02 3.034108e-01 -1.036211e+00 1.465597e+00 -9.863295e-02 -2.248892e+00 -5.978935e-02 -1.967430e-02 
2.200799e+00 6.041777e+00 2.001809e+01 2.269690e+00 -1.136422e+01 -1.781611e+00 4.563961e+00 -2.126666e+01 -1.825237e+00 6.845119e+00 -1.107463e+01 -8.884420e-01 4.703560e-01 4.335680e-02 1.718338e+00 -6.196335e-01 2.808910e-01 4.590706e-01 -1.356935e-01 1.827414e-01 -8.620121e-01 1.661109e+00 7.690431e-01 -9.330336e-01 1.126249e+00 -4.735059e-02 
-1.312560e+00 9.467525e+00 1.958753e+01 8.652110e-01 -1.456890e+01 -1.543376e+00 8.102070e+00 -2.196753e+01 -7.218285e-01 4.176663e+00 -1.033048e+01 3.134467e+00 4.604859e-01 -2.127978e-01 9.360598e-01 -1.526634e-01 5.894065e-03 2.973940e-01 3.511321e-01 -1.826921e-01 4.190663e-01 8.996744e-01 8.021463e-01 -3.413709e-01 1.357570e+00 -2.438043e-02 
3.061041e+00 9.845167e+00 1.870283e+01 -2.708254e-01 -1.230315e+01 -1.474266e+00 4.849042e+00 -2.156886e+01 -6.123853e-01 7.104658e+00 -9.549660e+00 5.020997e+00 4.532146e-01 -7.065447e-01 -5.283052e-01 9.207123e-01 -8.158110e-01 -1.271755e-01 7.460905e-01 -5.548135e-01 2.406950e-01 -7.061388e-01 3.638986e-01 -7.670136e-02 4.391138e-01 2.793120e-02 
-9.583721e-01 4.226581e+00 2.104503e+01 -1.611185e+00 -1.258348e+01 3.670688e-01 3.224855e+00 -1.899579e+01 -3.553416e+00 6.149310e+00 -1.016733e+01 1.808471e+00 6.250663e-01 7.067226e-01 -2.948712e-01 -1.927048e-01 2.994025e-01 1.115227e+00 -1.410470e-02 -4.278524e-01 3.828053e-01 -5.402558e-01 -2.575770e-01 -1.006088e+00 -1.693431e-01 -1.900058e-02 
-1.509018e+00 6.020723e+00 2.389290e+01 -5.711665e-01 -1.299281e+01 9.936196e-01 4.228500e+00 -2.154905e+01 -3.940137e+00 7.678289e+00 -1.153971e+01 1.970125e+00 5.277219e-01 3.721880e-01 -2.334435e-01 -2.506095e+00 9.331341e-01 2.323558e+00 1.343963e+00 5.120807e-02 1.387161e-01 -1.031102e+00 -1.921666e+00 -1.288807e-01 -6.695561e-01 -6.971829e-02 
4.506083e+00 9.905392e+00 1.602897e+01 2.512394e+00 -8.647932e+00 -2.847842e+00 6.273078e+00 -2.006340e+01 -1.759232e+00 2.601963e+00 -1.436589e+01 3.813187e+00 3.282294e-01 4.824979e-01 -3.773988e-01 -4.303709e+00 4.121164e-01 2.527443e+00 2.177353e+00 9.803842e-01 6.759974e-01 1.275227e-01 -1.850548e+00 1.087331e+00 -3.277983e-01 -1.174971e-01 
2.189754e+00 5.838544e+00 8.680381e+00 2.333055e+00 -2.653136e+00 6.853005e+00 3.580971e+00 -2.034147e+01 -6.664990e+00 -7.299976e-01 -8.094783e+00 6.708583e-01 2.530416e-01 2.879124e-01 -1.496459e+00 -4.187866e+00 -5.487490e-02 2.461155e+00 3.224481e+00 2.137237e+00 2.503445e+00 9.932075e-02 -2.216173e+00 1.218780e+00 -2.039078e+00 -9.415725e-02 
-3.952684e-01 2.430676e+00 7.132746e+00 -1.002713e+00 -5.116098e+00 8.324141e+00 8.450541e+00 -1.621959e+01 -1.553377e+00 1.100713e+00 -6.453142e+00 8.191130e-01 1.749209e-01 -4.835830e-01 -1.783137e+00 -2.706363e+00 -7.799920e-01 1.167671e+00 2.971747e+00 2.859070e+00 3.070931e+00 -3.321618e-01 -1.768259e+00 7.228176e-01 -2.927413e+00 -5.760647e-02 
2.381219e+00 2.275784e+00 7.401678e+00 9.120128e-01 -2.452948e+00 1.153003e+01 1.382595e+01 -1.095373e+01 -3.546461e+00 -2.651949e+00 -9.402183e+00 -6.728229e+00 1.335899e-01 7.199311e-02 -9.909806e-01 -2.319678e+00 -1.085485e+00 -4.891228e-01 4.612928e-02 2.487540e+00 3.483907e+00 -3.483696e-01 -1.055232e+00 2.844116e-01 -2.435795e+00 -4.943544e-02 
1.992435e+00 2.771086e+00 3.136506e+00 -6.770447e-01 -2.909671e+00 9.672380e+00 1.544594e+01 -9.402618e+00 -4.979305e+00 -5.278358e+00 -1.009811e+01 -7.124334e+00 9.992296e-02 -2.592853e-01 -1.149671e+00 -3.281682e+00 -1.241323e+00 -1.886268e-01 -2.298269e-01 1.368291e+00 4.031400e+00 -6.937833e-02 6.094345e-01 1.882334e+00 -5.823234e-01 -3.960001e-02 
1.355868e+00 7.134364e-01 -9.198905e-01 -3.257201e+00 -6.201963e+00 6.409532e+00 1.252098e+01 -6.330420e+00 -6.693874e+00 -2.816621e+00 -4.850243e+00 -7.536394e+00 4.336339e-02 -7.750774e-01 -1.306783e+00 -3.324649e+00 -1.035841e+00 1.392345e-01 -8.755277e-01 -9.834387e-01 1.671726e+00 -7.142968e-02 9.095626e-01 2.913513e+00 1.054345e+00 -3.367775e-02 
-1.179019e+00 -2.536507e+00 -5.114878e+00 -5.124720e+00 -4.184724e+00 9.735257e+00 1.594449e+01 1.625753e+00 -3.265619e-01 4.230222e+00 6.825581e-01 -1.688421e+00 2.203405e-02 -4.579295e-01 -8.507778e-01 -2.017828e+00 1.136834e-01 1.382263e+00 -2.228837e-01 -3.742614e-01 1.701796e+00 -5.162080e-01 2.169151e-01 1.980695e+00 6.728283e-01 -2.483942e-02 
9.155941e-02 -1.604336e+00 -5.095873e+00 -2.043354e+00 -1.119249e+00 7.120956e+00 8.659485e+00 -8.109289e+00 -6.229981e+00 -2.858425e+00 -2.249508e-01 -4.174458e+00 4.145622e-03 -1.311617e-01 1.372414e-01 -1.074766e+00 1.364279e+00 3.181606e+00 1.061864e+00 6.631707e-01 1.672576e+00 -1.021502e+00 -1.274482e+00 6.665469e-01 3.992043e-01 -1.580433e-02 
3.349419e-01 -3.239161e-01 -4.864640e+00 -7.155511e-01 1.460285e+00 8.202250e+00 1.550538e+01 -4.202962e-03 -7.792291e+00 -4.172880e+00 -2.507274e+00 -5.441161e+00 -4.665256e-03 4.231815e-01 1.552491e+00 1.345423e-01 1.005679e+00 2.788565e+00 2.967704e-01 -3.283942e-01 1.312410e+00 -8.476919e-01 -1.798148e+00 -1.413980e-01 8.712834e-01 -1.881282e-02 
-5.692101e-02 2.933481e-01 -6.418841e+00 1.359607e+00 6.883562e+00 1.248535e+01 1.605639e+01 2.847438e+00 -8.068521e+00 -4.987483e+00 7.740736e-02 -3.664003e+00 -2.230859e-02 8.669524e-02 1.586466e+00 7.569132e-02 -2.977315e-02 1.841710e+00 3.985512e-01 -8.980165e-02 2.994811e+00 2.020380e+00 3.177748e-02 -1.771376e-01 1.695230e+00 -2.147355e-02 
1.011129e+00 4.277106e+00 -3.780682e+00 -1.797808e+00 5.756697e+00 8.536911e+00 1.060407e+01 2.709437e+00 -3.645751e+00 -3.695987e+00 -1.756108e-01 2.412767e+00 -5.880296e-02 1.220242e-01 1.710032e+00 9.909429e-02 1.598191e-02 1.766543e+00 -8.219030e-01 -1.493696e+00 1.818045e+00 3.676636e+00 2.529263e-01 -1.156022e+00 1.912654e-01 -1.812906e-02 
1.869421e-01 4.027484e+00 -5.259396e+00 -1.651092e+00 5.941096e+00 8.946382e+00 1.066113e+01 5.507943e+00 1.798647e+00 -2.937984e+00 -2.276471e+00 3.747294e-01 -7.615328e-02 3.863926e-02 1.131194e+00 8.848397e-01 7.252666e-01 2.062395e+00 -2.062637e+00 -2.113211e+00 1.074861e+00 4.116490e+00 1.264635e+00 -1.141597e+00 -3.705076e-01 -1.019276e-02 
8.231311e-01 6.359175e+00 -4.948892e+00 8.697076e-01 1.076423e+01 5.862220e+00 1.073452e+01 7.755767e+00 5.657307e+00 -3.932998e+00 -7.110444e+00 -6.504200e+00 -6.838822e-02 -4.035784e-01 -1.662521e-01 1.861435e-01 9.071522e-01 1.463808e+00 -1.465133e+00 -2.547906e+00 -4.003174e-01 1.999075e+00 1.043404e+00 -1.606933e+00 -1.430759e+00 -3.964901e-04 
2.302742e-01 4.908285e+00 -1.410539e+00 3.652182e+00 1.469177e+01 3.509516e+00 5.425101e+00 5.698580e+00 7.862402e+00 1.454198e+00 -2.163159e+00 -1.058057e+00 -6.847978e-02 -1.481622e-01 -4.713125e-01 -7.367847e-02 -1.454813e-01 4.880095e-01 -1.062308e+00 -2.002598e+00 -7.078317e-01 2.516754e-01 1.072756e+00 -6.482228e-01 4.205007e-02 9.235382e-04 
-1.028429e+00 3.005445e+00 -4.774393e+00 8.631635e-02 8.700402e+00 3.929677e+00 4.825492e-01 6.125315e-01 3.317748e+00 -6.750607e-01 -8.266932e+00 -4.024636e+00 -6.462216e-02 -1.621086e-01 -5.336291e-01 -3.611608e-01 -9.757084e-01 -1.429122e+00 -1.714984e-01 -1.088353e+00 -7.695470e-01 2.482837e-01 2.873757e-01 -1.953172e-01 1.302731e+00 -2.508855e-03 
3.719110e-01 3.347787e+00 -5.715037e+00 -1.986802e+00 9.413059e+00 4.601112e+00 5.774127e+00 5.540402e+00 4.226804e+00 7.968293e-01 -4.939341e+00 -6.548021e-01 -7.341862e-02 -1.926936e-01 1.505781e-01 -2.123861e-01 -8.297662e-01 -2.157577e+00 9.687861e-02 4.962778e-01 4.218250e-01 1.948781e-01 -3.402930e-01 -9.938437e-01 -4.071093e-01 -4.780483e-03 
-5.823040e-02 4.471278e+00 -4.602446e+00 -1.189343e+00 6.257979e+00 4.458930e+00 5.118241e+00 3.987121e+00 8.716524e+00 -2.167435e+00 -6.698939e+00 -1.921721e-01 -7.846308e-02 -1.129021e-01 1.106166e-01 1.000732e+00 4.066215e-01 -3.558676e-01 1.330178e+00 1.563368e+00 8.478800e-01 1.490385e+00 3.342024e-01 3.219526e-01 -2.252495e-01 -2.977288e-03 
-1.218293e+00 4.928259e+00 -2.558443e+00 1.411803e-01 5.125096e+00 3.729283e+00 5.588645e+00 6.120410e+00 6.137403e+00 4.989204e-01 -7.916374e+00 -5.009836e+00 -8.546174e-02 -1.788845e-01 3.553343e-01 1.254321e+00 1.565074e+00 4.623800e-01 9.102507e-01 2.598692e-01 -5.057975e-01 3.039135e-01 2.598464e-02 2.343825e-01 -1.086994e+00 -4.238343e-03 
-7.978373e-01 2.768292e+00 -1.349030e+00 1.055432e+00 9.065046e+00 1.101648e+01 8.392132e+00 4.561928e+00 9.814374e+00 1.144906e+00 -5.168652e+00 -2.973367e+00 -7.348704e-02 5.773420e-02 3.289930e-01 5.846879e-01 1.728768e+00 7.194855e-01 3.516172e-01 6.840858e-01 -5.402894e-02 1.453586e-01 2.725218e-01 3.136837e-01 -1.435772e+00 -4.685998e-04 
-1.527081e-01 5.975951e+00 -1.070139e+00 4.716182e+00 1.032143e+01 5.873590e+00 5.436528e+00 2.724011e+00 5.197446e+00 -7.294178e-01 -4.532572e+00 -4.699172e+00 -9.709835e-02 4.205220e-01 9.431966e-01 1.299784e-01 1.407406e+00 1.994918e-01 -5.037240e-01 -1.923651e-01 -8.473092e-01 5.364870e-01 -4.127833e-01 1.104280e+00 2.967218e-01 3.770816e-03 
-3.023520e-01 5.592397e+00 -2.423158e+00 5.166996e+00 7.257241e+00 5.144862e+00 8.614729e+00 5.415175e+00 9.913296e+00 -1.906567e-01 -6.822422e+00 -7.526364e+00 -7.498777e-02 7.781758e-02 4.690994e-01 -1.023575e-01 7.448976e-01 1.542336e-01 -7.958001e-01 -7.418454e-01 -8.812485e-01 -1.161173e+00 -9.203614e-01 3.359502e-01 -5.059280e-02 2.732956e-03 
6.365743e-01 8.232189e+00 -1.371487e+00 5.122428e+00 7.026458e+00 4.146473e+00 4.515521e+00 1.457240e+00 8.770378e+00 -8.972149e-01 -1.568090e+00 -1.249729e+00 -6.585729e-02 1.238544e-01 -1.585015e-01 3.276565e-01 -1.399972e-01 5.114006e-01 2.035913e-01 -9.084702e-01 -1.211537e+00 -1.228889e+00 -6.999725e-01 2.621260e-02 1.177642e+00 7.893002e-03 
-8.033905e-01 3.985670e+00 -1.710144e+00 4.576797e+00 1.148370e+01 7.901040e+00 5.143408e+00 7.890706e-01 2.222046e+00 -3.373003e+00 -4.971142e+00 -4.951053e+00 -7.544279e-02 -3.116601e-01 -4.029982e-01 5.995795e-01 7.860436e-02 1.942009e-01 -1.155202e-01 -1.064060e+00 -1.417925e+00 -2.615446e+00 -5.392522e-01 -2.277766e-01 1.218489e+00 2.651310e-03 
7.170830e-01 5.986807e+00 2.116358e-01 4.311296e+00 1.076520e+01 5.513457e+00 2.629837e+00 -1.020620e+00 2.898626e+00 -2.638107e+00 -5.327149e+00 -9.861827e-02 -5.740583e-02 -5.878963e-01 -6.130439e-01 -6.704259e-03 -6.339693e-02 4.490814e-02 -1.203191e-01 2.008839e-01 2.452763e-01 -1.791492e+00 3.196035e-01 -2.880983e-01 -1.518915e-01 -2.000201e-03 
-1.900907e+00 4.700097e+00 -2.168225e-01 5.965585e+00 6.358874e+00 3.883769e+00 4.237271e+00 -4.355208e-01 -2.280583e-01 -2.016472e+00 -6.081776e+00 -2.009476e+00 -6.595695e-02 -2.541503e-01 3.002276e-02 -9.692295e-01 -6.238806e-01 -1.215444e+00 -3.683965e-01 3.935836e-01 1.095997e+00 -3.164410e-01 1.049678e+00 8.932279e-01 1.052980e+00 2.169263e-03 
-1.754149e+00 4.809756e+00 -2.151669e+00 4.111050e+00 9.813411e+00 5.553513e+00 5.973009e+00 3.295918e+00 1.037969e+00 2.253675e-02 -2.453265e+00 -3.479975e+00 -8.060122e-02 1.157242e-01 3.281845e-01 1.911703e-01 -4.453747e-01 -4.710194e-01 -4.147479e-01 4.300857e-01 9.395038e-01 1.028855e+00 1.468355e+00 9.378700e-01 3.599246e-01 1.308799e-04 
-8.385258e-01 4.724309e+00 -5.374639e+00 1.557517e+00 5.882376e+00 6.039030e+00 5.439741e+00 4.110786e+00 1.570169e+00 5.450672e-01 -1.941944e+00 2.004527e+00 -5.299878e-02 7.849503e-01 8.636923e-01 1.382450e+00 -3.176852e-01 3.413900e-01 -6.234787e-01 -1.910458e-01 1.786360e-01 2.084951e+00 1.427911e+00 6.493672e-01 6.580936e-01 2.282357e-03 
7.645135e-01 7.615624e+00 3.746396e+00 4.288456e+00 8.648354e+00 2.362088e+00 4.179031e+00 1.403745e+00 7.143787e+00 3.422900e+00 -2.707715e+00 -3.059967e-01 -6.323051e-02 6.640365e-01 8.503050e-01 2.091716e+00 3.085751e-01 4.358621e-02 -1.005979e+00 -4.848665e-01 -6.491386e-01 1.778525e+00 9.678560e-01 -1.274671e-01 4.037433e-01 2.450967e-03 
