-5.418176e+00 1.671015e+00 -2.383250e+00 -5.052232e-01 1.968802e+00 7.359726e-01 1.462119e+00 -2.069552e+00 -1.825700e+00 6.830105e+00 1.240241e+01 5.284425e+00 -1.512927e-01 8.591938e-03 3.086635e-01 -6.034344e-02 -2.020447e-01 -1.904395e-01 4.926044e-01 -4.596038e-01 -7.710055e-01 -3.210614e-01 3.929998e-01 5.446514e-01 -1.116119e+00 0.000000e+00 
-5.205603e+00 3.194293e+00 -6.606621e-01 -3.358055e+00 1.160244e+00 3.821335e+00 3.380795e+00 -3.710079e+00 1.774276e+00 9.298185e+00 9.447558e+00 3.313889e+00 -1.512927e-01 2.683354e-01 1.896310e-01 -6.396394e-01 -4.395767e-01 -3.126982e-01 6.000003e-01 -8.133931e-01 -9.064214e-01 -1.210847e+00 -9.931487e-01 -3.312165e-01 -8.138855e-01 0.000000e+00 
-5.481503e+00 2.452693e+00 -3.546262e+00 -8.903098e-02 1.420883e+00 1.656314e+00 -1.795238e+00 -5.104316e+00 -5.230995e+00 7.561064e+00 1.660310e+01 6.890987e-01 -1.512927e-01 9.914732e-02 2.029205e-01 -4.322176e-02 6.322957e-01 -7.118915e-01 4.918563e-01 4.048622e-01 3.974159e-01 -9.660372e-01 -1.009625e+00 -3.304926e-01 3.052638e-01 0.000000e+00 
-4.044835e+00 2.228331e+00 -4.999941e+00 -2.911203e+00 6.792698e-01 3.275804e+00 -9.761682e-01 -5.084277e+00 -6.177287e+00 1.498882e+00 8.645988e+00 3.512661e+00 -1.512927e-01 2.170151e-01 8.046253e-01 5.639467e-01 1.344001e+00 2.164541e-01 9.049886e-01 5.981922e-01 7.683939e-01 3.079157e-02 5.032461e-02 -7.715392e-01 1.782727e-01 0.000000e+00 
-5.502823e+00 3.168599e+00 -4.297194e-01 2.432829e+00 -1.350169e+00 3.468019e+00 5.664911e+00 6.046264e-01 -2.680104e+00 5.681630e+00 1.115074e+01 6.711358e+00 -1.512927e-01 2.078713e-01 1.010776e+00 1.578065e+00 1.104017e+00 1.121903e+00 1.043088e+00 1.284946e+00 5.674112e-01 2.048839e+00 1.432342e+00 -1.012668e+00 1.025717e-01 0.000000e+00 
-4.109867e+00 6.859468e+00 6.008006e-01 2.101021e+00 3.628040e+00 7.440425e+00 2.641681e+00 -2.722580e+00 6.527885e-01 1.048953e+01 8.316044e+00 1.194122e+00 -1.512927e-01 9.967689e-02 1.102981e+00 1.601348e+00 8.505244e-01 1.391504e+00 1.605732e+00 9.701494e-01 2.881791e-01 1.433409e+00 7.644852e-01 -5.349774e-01 -5.665230e-01 0.000000e+00 
-4.409630e+00 5.191003e+00 1.543692e+00 2.924944e+00 5.556014e+00 4.789445e+00 2.820569e+00 -3.448109e+00 1.598165e+00 1.022745e+01 1.170473e+01 2.361227e+00 -1.512927e-01 2.752161e-02 -3.248472e-02 8.162917e-02 -1.030938e+00 9.903772e-01 7.287942e-01 -5.079851e-01 -1.701230e+00 -6.318170e-01 -6.028460e-01 -1.063649e+00 -1.185326e+00 0.000000e+00 
-4.093047e+00 6.732032e+00 2.020092e+00 1.095362e+00 4.183700e+00 1.064375e+01 5.296750e+00 -1.617014e+00 -1.149378e+00 3.048396e+00 5.694105e+00 2.855112e+00 -1.512927e-01 -3.007231e-01 -6.891840e-01 4.882362e-02 -8.195629e-01 -4.624640e-01 -5.783548e-01 4.384761e-02 -2.557205e-01 -7.526905e-01 -1.374486e+00 1.661877e-01 2.819216e-01 0.000000e+00 
-5.373625e+00 3.069893e+00 -7.312195e-01 -2.219029e+00 3.323888e+00 5.510328e+00 1.797451e+00 -8.454307e+00 -4.938107e+00 6.387965e+00 7.143459e+00 -4.576856e-02 -1.512927e-01 4.381623e-01 3.238428e-01 5.657447e-01 -2.371891e-01 -7.127558e-01 3.425021e-02 1.136975e+00 7.077398e-01 -5.889274e-01 -1.016399e+00 -9.695105e-02 -2.004189e-02 0.000000e+00 
-5.131485e+00 4.474102e+00 1.982375e+00 5.751935e-01 2.431783e+00 4.188210e+00 3.372478e+00 -1.498084e+00 1.574714e-01 5.536842e+00 1.142762e+01 3.807228e+00 -1.512927e-01 1.732388e-01 1.929872e-01 2.378116e-01 6.158415e-01 -1.630711e-01 -1.254697e+00 3.500937e-01 1.775907e+00 3.457184e-01 5.529940e-02 4.228831e-01 -7.066138e-02 0.000000e+00 
-1.699599e+00 7.939182e+00 4.391275e+00 1.999083e+00 2.868194e+00 8.188467e+00 9.467579e+00 3.112519e-02 -1.999897e+00 3.901237e+00 8.353216e+00 1.784959e+00 -1.512927e-01 1.999716e-01 2.515439e-01 -4.194176e-03 5.526248e-01 -6.845745e-01 -5.067888e-01 -5.329095e-01 2.325087e+00 -4.713934e-02 -5.736626e-01 -5.175498e-01 1.798383e-01 0.000000e+00 
-5.063866e+00 5.262323e+00 6.479034e-01 2.065514e+00 3.596191e+00 3.031198e+00 3.212155e+00 3.019807e+00 -8.898906e-01 4.568257e+00 7.203642e+00 1.586441e+00 -1.512927e-01 1.888300e-01 -6.647794e-01 -1.558195e+00 3.185929e-01 2.543299e-01 3.029440e-01 -1.373294e+00 -2.157629e-01 -4.687080e-01 6.225854e-01 -6.441141e-01 3.770666e-01 0.000000e+00 
-4.407577e+00 3.933502e+00 -8.495475e-02 -2.010657e-01 -6.811888e-01 3.554889e+00 -7.869349e-01 9.121825e-01 -4.650122e+00 4.003945e+00 6.667698e+00 1.963816e+00 -1.512927e-01 -4.322913e-01 -1.081817e+00 -1.271716e+00 -2.040810e-01 6.042770e-01 -3.891963e-01 -1.302290e+00 -1.029875e+00 5.982822e-01 1.038635e+00 7.391259e-01 6.643784e-01 0.000000e+00 
-2.833346e+00 3.153045e+00 -3.570484e+00 3.268232e+00 5.478124e+00 8.019718e+00 1.633267e+00 -3.017426e+00 -8.609561e-01 8.598415e+00 9.049805e+00 5.603132e+00 -1.512927e-01 1.615963e-01 -6.166215e-02 -2.393348e-01 -5.303977e-01 3.347763e-01 8.264936e-01 4.368059e-01 -8.273161e-01 9.451488e-01 3.690212e-01 -2.264411e-01 6.805555e-01 0.000000e+00 
-4.976315e+00 3.584733e+00 1.418884e-01 3.773184e-01 4.948612e+00 3.748225e+00 3.745570e+00 -2.099632e+00 9.770473e-01 7.079331e+00 1.112576e+01 3.098506e+00 -1.512927e-01 -1.203005e-01 2.260873e-01 1.822211e-01 -5.278987e-01 -3.870445e-01 6.244494e-01 7.384375e-01 4.189444e-02 5.489062e-01 -4.281065e-01 -5.367354e-01 -3.210115e-03 0.000000e+00 
-3.971515e+00 5.128397e+00 -6.621920e-01 -8.756670e-01 2.455173e+00 7.066998e+00 3.129932e+00 3.891333e-01 1.022269e+00 4.875669e+00 3.842403e+00 4.421874e+00 -1.512927e-01 -1.265657e-01 2.053682e-01 3.354392e-01 3.091906e-02 -1.468505e+00 -1.043051e-01 -3.006836e-01 1.087668e+00 -3.383699e-01 -5.947052e-01 -5.476259e-01 -9.254050e-02 0.000000e+00 
-4.439995e+00 4.076263e+00 -6.279950e-01 -7.686092e-01 -1.104935e+00 7.153497e+00 2.156920e+00 -5.816254e-01 -2.847203e+00 3.724785e+00 6.587721e+00 2.538395e+00 -1.512927e-01 3.249860e-01 -1.558123e-01 -4.557283e-01 1.925757e-01 -9.863933e-01 -2.150483e-01 -7.804869e-01 5.319538e-01 -6.880084e-01 -4.326431e-01 2.876333e-01 -2.786481e-01 0.000000e+00 
-3.734335e+00 3.934122e+00 -1.508346e+00 3.995791e+00 1.162371e+00 5.795557e+00 9.241741e-01 1.661910e+00 -6.406802e-01 7.302162e+00 8.580697e+00 5.420485e+00 -1.512927e-01 2.042933e-01 -5.023320e-01 6.045473e-01 6.660844e-01 4.190004e-01 -7.528305e-01 -2.447829e-01 -5.448636e-01 -3.235081e-01 6.507517e-01 2.051677e+00 6.796300e-02 0.000000e+00 
-3.469975e+00 3.402809e+00 -1.713676e+00 -1.095533e+00 6.630466e-01 3.308703e+00 9.460144e-01 -7.625127e-02 -1.631520e+00 3.702870e+00 1.019478e+01 1.205959e+00 -1.512927e-01 3.144101e-01 -4.195263e-01 6.937461e-01 3.108904e-02 3.420909e-01 -9.879465e-01 7.172148e-01 1.146033e-01 1.382702e+00 3.760775e-01 7.577825e-01 4.012992e-01 0.000000e+00 
-3.435058e+00 2.953464e+00 2.903385e+00 2.618217e+00 3.666184e+00 5.225242e+00 2.511470e+00 -2.587872e+00 -1.203113e+00 8.140386e+00 1.229726e+01 5.427907e+00 -1.512927e-01 -3.829695e-01 -2.217690e+00 1.103528e+00 -3.514135e-01 -1.501122e-01 -1.549266e+00 -1.045882e+00 7.292961e-01 1.537441e+00 -2.056076e+00 -1.462775e+00 1.375225e-01 2.785759e-02 
-3.017583e+00 2.468961e+00 6.348699e-01 7.562339e-02 -6.463873e-01 2.498921e+00 4.949346e+00 2.116282e+00 4.347523e+00 5.186061e+00 8.518354e+00 4.541180e+00 -1.512927e-01 -6.549433e-01 -2.150612e+00 1.925869e-01 1.004789e+00 4.964251e-01 -1.661403e+00 -2.352024e+00 8.901126e-01 1.084659e+00 -2.623426e+00 -2.508281e+00 1.412105e-01 1.474545e-02 
-5.875379e+00 -6.687403e+00 2.835019e+00 1.653146e+00 1.066527e+00 -1.545881e+00 -6.306904e+00 4.212124e+00 4.057003e+00 -3.719811e+00 2.105036e+00 4.440487e+00 -1.200473e-02 -4.518228e-01 -4.066277e-01 -8.946959e-01 -4.529772e-01 -4.529606e-01 -1.832558e+00 -1.771536e+00 7.128484e-01 4.118631e-01 -1.497892e+00 -1.705927e+00 -7.116752e-01 4.083276e-04 
-5.524531e+00 -2.529818e+00 -7.165583e-01 4.410947e+00 4.445001e+00 -1.612749e+00 -6.404916e+00 9.743134e-01 1.161719e+00 -3.484162e+00 2.749492e+00 2.405722e+00 -1.472094e-01 -1.868471e-01 1.442243e+00 -4.188167e-01 -9.388460e-01 4.088495e-01 6.031634e-01 2.719164e-01 -9.533349e-01 -1.314761e+00 9.973793e-01 3.677811e-01 -8.077155e-01 -1.392880e-02 
-4.440698e+00 3.419714e+00 -8.943806e-01 -1.814331e+00 -1.144313e+00 -1.881715e+00 -6.690788e-01 1.547355e+00 2.449105e+00 4.986036e+00 6.652055e+00 2.937260e+00 -1.512927e-01 4.099383e-01 3.072475e+00 -1.712824e-01 -1.217587e+00 -4.225523e-01 1.926616e+00 2.548717e+00 -9.790827e-01 -1.284751e+00 2.867934e+00 1.270373e+00 -7.358779e-01 -2.826592e-02 
-4.669159e+00 4.626618e+00 4.054859e-01 -2.884868e+00 2.503280e+00 5.682655e+00 3.490015e+00 -1.318007e+00 -1.422332e+00 5.820034e+00 8.083750e+00 1.254216e+00 -1.512927e-01 2.265844e-01 1.508295e+00 3.945538e-01 -9.805881e-01 -7.588892e-01 1.564836e+00 1.567640e+00 -2.824264e-01 -1.565187e+00 1.470667e+00 1.997887e+00 9.105075e-01 -8.166552e-04 
-4.253373e+00 5.096753e+00 1.417585e+00 -7.868789e-01 -7.537460e-02 4.439497e+00 1.489214e+00 4.628714e-01 -1.074726e+00 5.967764e+00 5.789774e+00 1.336850e+00 -1.512927e-01 -1.600679e-01 1.606576e-01 -4.452246e-01 -4.981194e-02 4.061936e-01 2.882691e-01 -1.106706e-02 -7.591757e-01 -1.240974e+00 -2.526217e-01 1.162757e+00 1.403106e-01 0.000000e+00 
-4.485271e+00 4.173139e+00 1.002278e-01 -1.005719e+00 1.160853e-01 3.050825e+00 3.541367e-01 1.044232e-01 -4.902299e+00 3.378311e+00 1.317006e+01 7.758464e+00 -1.512927e-01 5.365540e-01 -8.356541e-01 -2.616168e-01 7.512345e-01 -9.175127e-01 -1.210174e+00 1.119035e+00 1.117156e+00 5.232528e-01 -1.008724e+00 -5.323339e-01 1.764871e-01 0.000000e+00 
-5.332981e+00 4.449742e+00 -2.967875e+00 -3.002965e+00 2.080253e+00 8.755450e-01 8.435252e-01 -2.959738e+00 -2.015784e+00 4.943789e+00 9.922683e+00 3.866888e-01 -1.512927e-01 1.488131e+00 -1.479774e+00 6.354647e-01 1.507318e+00 -7.310555e-01 -8.724562e-01 2.779268e+00 2.412765e+00 2.542236e+00 -1.328373e+00 -2.493970e+00 -7.527914e-01 2.176099e-02 
-1.446585e+00 7.718536e-01 1.290132e+00 1.979347e+00 -3.162097e+00 1.413761e+00 9.408035e+00 5.979080e+00 1.664461e+00 1.288398e+00 3.355627e+00 2.611733e+00 -1.512927e-01 2.322644e+00 -2.154769e+00 -2.753476e-01 1.801398e+00 -6.247827e-01 -3.326191e-01 3.986072e+00 3.098000e+00 2.451913e+00 -2.108929e+00 -4.816731e+00 -2.199558e+00 3.312011e-02 
1.667938e+00 -6.014751e-01 3.999956e+00 5.257180e+00 -2.091561e+00 8.957477e-01 1.085860e+01 9.589370e+00 8.353073e+00 3.708546e-01 -1.772857e+00 1.462592e-01 -4.248774e-02 6.831013e-01 -2.009119e+00 5.989736e-01 1.704908e+00 5.838218e-01 2.521144e-01 3.427426e+00 1.433531e+00 4.560700e-01 -2.506255e+00 -4.286060e+00 -2.054402e+00 8.701976e-02 
3.627488e+00 -4.075097e+00 -4.760426e+00 3.871197e+00 -9.219215e-01 1.377628e+00 1.527696e+01 9.319868e+00 2.172841e+00 -4.879869e+00 -5.065820e+00 -3.119114e+00 -4.009461e-02 -2.745480e+00 -8.169941e-01 -6.917225e-01 -6.224717e-01 1.902801e+00 -5.393451e-01 1.118359e-01 -1.815378e+00 -1.680257e+00 -9.196453e-01 8.825695e-01 -6.996806e-01 1.554020e-01 
-4.454511e+00 -3.172378e+00 3.052272e+00 4.575648e+00 3.879274e+00 2.154184e+00 1.504619e+01 2.537523e+00 1.037692e-02 -4.503354e+00 -7.296894e+00 -7.019896e+00 2.282071e-01 -5.318760e+00 3.998718e-01 -1.443125e+00 -2.640243e+00 1.275068e+00 -2.233588e+00 -1.855399e+00 -3.170330e+00 -1.947448e+00 8.169671e-01 3.934523e+00 2.223048e+00 1.949305e-01 
-1.211276e+01 -2.027666e+00 -1.694638e+00 -7.922453e-01 3.366488e+00 -1.912183e+00 7.873419e+00 4.281155e-01 -2.565478e+00 -8.727243e-01 1.053049e+01 2.696408e+00 4.903699e-01 -5.813627e+00 1.988942e+00 -5.810053e-01 -3.354002e+00 3.625019e-01 -2.230553e+00 -2.499756e+00 -2.851086e+00 -4.896560e-01 2.865791e+00 4.690691e+00 3.233466e+00 2.031855e-01 
-1.705574e+01 3.741681e-01 -4.748563e+00 -5.612316e+00 2.139575e+00 -8.627289e+00 5.283376e+00 -1.816404e+00 9.849942e-01 2.452118e+00 1.010160e+01 8.353738e+00 6.669327e-01 -4.009332e+00 2.086330e+00 -2.226573e+00 -2.310581e+00 -3.940600e-01 -1.799712e+00 -1.252031e+00 -8.943790e-01 1.554027e+00 1.776336e+00 2.274865e+00 2.023673e+00 1.452357e-01 
-1.914003e+01 4.096338e+00 -3.765034e+00 -7.804832e+00 1.760438e+00 -4.384399e+00 7.659585e+00 -2.758599e+00 -7.627481e-01 5.971352e+00 9.688390e+00 5.361397e+00 7.564702e-01 -2.346443e+00 1.902840e+00 -1.414030e+00 2.383631e-01 -1.560363e-02 1.007078e-01 -3.252568e-02 8.717565e-02 1.892362e+00 -5.631307e-01 -1.160760e+00 -2.911287e-01 9.154522e-02 
-2.098753e+01 4.197272e+00 -7.045395e+00 -3.470962e+00 2.711999e+00 -5.608268e+00 8.892958e+00 -3.410151e-01 6.879148e+00 9.562862e-01 4.498483e+00 1.765974e+00 8.213354e-01 -1.660768e+00 1.275106e+00 -1.011708e+00 1.419877e+00 1.028078e+00 1.414497e+00 -3.426200e-01 8.439471e-01 1.682016e+00 -2.171349e+00 -1.639980e+00 -1.839750e+00 6.169622e-02 
-2.187908e+01 5.574986e+00 -7.616374e+00 -6.711072e-01 3.002258e+00 -2.918154e+00 5.906000e+00 1.262995e-01 3.949254e+00 -2.940462e+00 7.528251e+00 4.534646e+00 8.708946e-01 -9.131094e-01 1.158000e+00 -5.306658e-01 1.095676e+00 1.474508e+00 1.221335e+00 -1.169414e+00 2.765345e-01 6.648786e-01 -2.139973e+00 -1.714728e-01 -4.230200e-01 4.810285e-02 
-2.399006e+01 6.010375e+00 -7.881434e+00 -2.079795e+00 6.659054e+00 -2.287924e+00 4.447068e+00 9.608825e-01 7.039073e+00 -3.948718e+00 2.981774e+00 -4.316358e-01 9.182016e-01 -6.153170e-01 1.321807e+00 -3.182000e-01 -9.900616e-01 3.529868e-01 7.041775e-01 -2.033669e+00 -9.374218e-01 -1.373928e+00 -6.935696e-02 7.014953e-01 -4.161661e-01 3.731928e-02 
-2.220432e+01 8.979787e+00 -6.000344e+00 -3.022037e+00 7.159451e+00 6.210375e-02 4.035460e+00 -2.026875e+00 2.481683e+00 -2.276013e+00 9.589380e+00 4.345102e+00 9.485514e-01 -3.952347e-01 8.979424e-01 -1.739866e-01 -1.568531e+00 -1.676632e+00 -1.017696e+00 -9.636347e-01 -1.007254e+00 -1.190205e+00 5.010491e-01 7.534108e-01 -4.406593e-01 2.932603e-02 
-2.390150e+01 9.103903e+00 -9.444410e+00 -7.245805e+00 2.398337e+00 -3.577510e+00 -3.401194e-01 -3.951537e+00 7.432950e-01 2.772768e-01 6.975395e+00 -2.200845e-01 9.691035e-01 4.177094e-02 5.256169e-01 -1.760957e-01 -3.045990e-01 -1.816793e+00 -1.719789e-01 4.754550e-01 -5.098657e-01 -1.427244e+00 6.851986e-01 1.656433e+00 -7.388228e-02 1.886714e-02 
-2.389953e+01 8.517933e+00 -7.704819e+00 -5.930757e+00 -3.250544e+00 -7.361840e+00 3.481420e+00 -2.453761e+00 1.146119e+00 -2.548214e+00 9.298494e+00 2.225574e+00 9.920738e-01 6.771164e-02 -5.563687e-01 -5.904042e-01 4.913679e-01 -4.096001e-01 4.973997e-01 8.197916e-01 -1.908412e-01 1.690634e-01 8.311347e-01 4.766121e-02 -7.845349e-01 1.131026e-02 
-2.293359e+01 8.869387e+00 -7.909676e+00 -2.148430e+00 2.780088e+00 5.641532e-01 7.101363e+00 -1.375003e+00 5.706338e-01 -3.866243e-01 1.140938e+01 2.587172e-01 9.907761e-01 3.580276e-01 -9.637251e-01 -8.424282e-01 7.626127e-01 7.521016e-01 1.180124e+00 7.141642e-01 4.828774e-02 -2.797254e-01 -1.099568e-01 2.337042e-01 -6.786942e-02 6.398559e-03 
-2.234971e+01 6.315202e+00 -9.719732e+00 -3.113884e+00 4.920575e+00 4.782705e-01 4.413677e+00 -4.269348e+00 3.413330e+00 2.211611e+00 7.610692e+00 1.830270e-01 9.942663e-01 4.256577e-01 -6.597179e-01 2.627173e-02 1.198490e+00 1.159139e+00 1.567132e+00 -9.818418e-02 4.936706e-01 -2.250920e-01 3.787370e-01 -1.662964e-01 -2.364107e-01 -8.926391e-05 
-2.288627e+01 5.386644e+00 -1.264909e+01 -4.841178e+00 2.073285e+00 -1.596946e+00 2.764573e+00 -2.802305e+00 -1.788938e+00 -2.652420e+00 8.987818e+00 4.618418e-01 1.000000e+00 1.487202e-01 -6.313524e-01 -1.933010e-01 -3.250981e-01 -3.174155e-01 6.016777e-02 -4.152453e-01 9.374294e-01 1.402033e-01 4.732398e-01 -1.370806e+00 4.614072e-01 -5.133378e-03 
-2.179490e+01 6.960716e+00 -5.203751e+00 1.408069e+00 2.898554e+00 1.554369e+00 5.158894e+00 7.282435e-01 1.200444e+00 4.783690e-01 9.677795e+00 9.419581e-01 9.870155e-01 4.422501e-01 -4.026248e-01 4.802275e-01 -1.201509e+00 -7.747154e-01 3.622774e-01 1.548032e-01 9.046211e-01 4.108751e-02 -4.468298e-02 -1.709471e+00 1.206311e+00 -2.727171e-02 
-2.246740e+01 5.389868e+00 -1.113417e+01 -6.034897e+00 2.204021e+00 3.269429e-01 4.652529e+00 8.133484e-01 2.378093e+00 2.846196e+00 3.521801e+00 2.186288e+00 9.687346e-01 1.780415e+00 -1.772290e-01 2.455337e+00 -9.180158e-01 -8.490711e-01 -2.890547e-01 -3.697460e-01 -7.563468e-01 1.563812e+00 1.755817e-02 -2.302977e+00 1.411184e+00 -8.436715e-02 
-2.034790e+01 4.300465e+00 -8.076056e+00 -8.524571e+00 9.816301e-01 1.327713e+00 4.243715e+00 -1.554068e+00 1.535252e+00 -7.611113e-01 1.796342e+00 5.352360e+00 8.735405e-01 7.040589e+00 -1.722838e+00 2.154882e+00 -1.010323e+00 -3.303080e+00 -3.419514e+00 -2.165344e+00 -2.031049e+00 9.471476e-02 -8.207927e-01 -3.307918e+00 -5.840968e-01 -1.230638e-01 
-1.470770e+01 5.830624e+00 1.063743e+00 -4.464937e+00 -1.213609e+00 -2.928892e+00 1.373433e+00 -5.442883e+00 5.862720e+00 -1.944889e+00 1.413659e+00 5.312559e+00 6.349018e-01 9.576882e+00 -3.212543e+00 3.026788e+00 -2.211720e-01 -5.180559e+00 -4.384448e+00 -3.963410e+00 2.758112e-02 -1.862433e+00 -2.943004e-01 -3.650133e+00 -1.595844e+00 -7.910944e-02 
9.528193e+00 -1.873853e+00 -5.282962e-01 -4.428524e+00 -1.190803e+01 -1.391529e+01 -4.028279e+00 -6.298887e+00 -6.829508e-02 -1.230052e+00 -5.807722e+00 -3.541661e+00 5.386130e-01 8.484169e+00 -4.371987e+00 1.634654e+00 -1.103758e+00 -5.077162e+00 -3.830986e+00 -3.962678e+00 2.485384e+00 -2.579793e+00 -8.462455e-02 -4.370179e+00 -2.994152e+00 -5.859924e-03 
1.047897e+01 -7.585690e+00 2.258903e-01 -9.188782e+00 -1.725394e+01 -1.397379e+01 -1.102852e+01 3.323663e+00 -6.132301e+00 1.609164e+00 -1.092683e+01 -1.345920e+00 7.406511e-01 4.851479e+00 -5.065484e+00 -9.062057e-01 -2.433409e+00 -3.382756e+00 -1.206459e+00 -2.246148e+00 3.187028e+00 -2.855719e+00 -9.013662e-01 -4.296070e+00 -2.624430e+00 7.283942e-02 
9.479613e+00 -1.085131e+01 5.161376e-01 -1.168144e+01 -1.638401e+01 -1.230477e+01 -9.368696e+00 6.489581e+00 -5.366204e+00 -2.961261e+00 -1.388431e+01 -6.289162e+00 7.913662e-01 2.539895e-01 -3.542480e+00 -9.882925e-01 -1.505177e+00 2.725925e-02 2.581666e+00 1.042801e+00 2.928073e+00 -6.091349e-01 -1.320662e+00 -1.619312e+00 -2.170906e-01 8.516651e-02 
9.573984e+00 -1.500806e+01 -3.989502e+00 -1.300553e+01 -1.588940e+01 -9.766447e+00 -7.187097e+00 4.098024e+00 -5.766922e+00 -5.586116e+00 -1.602840e+01 -6.435840e+00 8.727223e-01 3.115954e-01 -2.403360e+00 -1.477205e+00 -2.064914e-01 1.058683e+00 3.040390e+00 2.718444e+00 6.359068e-01 4.560594e-01 -1.899438e+00 -1.000545e-01 -4.448700e-03 4.171978e-02 
1.125063e+01 -1.587507e+01 -3.362063e+00 -1.004604e+01 -1.245401e+01 -3.110629e+00 -7.349858e-01 7.954297e+00 -3.296659e+00 -4.235722e+00 -1.135350e+01 -2.082155e+00 8.984100e-01 4.922344e-01 -1.515684e+00 -1.210366e+00 5.427613e-01 6.568943e-01 2.685992e+00 2.343440e+00 1.649720e-01 3.863852e-01 -1.229141e+00 7.690443e-01 7.405497e-01 2.632989e-02 
1.115144e+01 -1.709061e+01 -5.221035e+00 -1.103894e+01 -1.392553e+01 -3.368912e+00 -1.753157e+00 5.770839e+00 -4.886776e+00 -7.250794e+00 -1.269251e+01 -3.471667e+00 8.957281e-01 2.568271e-01 -9.215916e-01 -5.682989e-01 5.746252e-01 3.640583e-01 1.649410e+00 8.560703e-01 1.960157e-01 1.831164e-01 -8.254232e-01 7.951847e-01 -2.952737e-01 1.260521e-02 
1.115206e+01 -1.738846e+01 -4.919925e+00 -9.950924e+00 -1.408147e+01 -2.073575e+00 -3.684702e-01 6.478034e+00 -3.874351e+00 -8.274624e+00 -1.170703e+01 -4.068499e+00 9.115127e-01 -8.619887e-03 -9.949270e-01 -7.107805e-01 1.585375e-01 6.205921e-02 6.062368e-01 -5.846263e-01 -6.211690e-01 -6.030186e-01 2.195422e-01 -4.627976e-01 -9.716549e-01 1.128390e-02 
1.090741e+01 -1.885933e+01 -6.052065e+00 -1.017996e+01 -1.325537e+01 -2.037928e+00 -3.090003e+00 5.816234e+00 -4.562494e+00 -7.693781e+00 -1.187571e+01 -6.919036e+00 9.291970e-01 2.886295e-01 -9.299341e-01 -4.323350e-01 5.145186e-01 3.049404e-01 7.689155e-01 -8.390282e-01 -5.727814e-01 -1.165298e-01 1.453382e+00 -4.558920e-01 -7.453190e-01 1.015190e-02 
1.132955e+01 -1.996535e+01 -6.500450e+00 -9.682840e+00 -1.247879e+01 -7.449365e-01 -2.989695e+00 4.825755e+00 -6.473893e+00 -2.916517e+00 -1.407589e+01 -5.216745e+00 9.380951e-01 4.965244e-01 -3.083965e-01 -1.650810e-01 4.695442e-01 4.582666e-01 2.268880e-01 -6.571602e-01 -6.062619e-01 6.550149e-01 1.859939e+00 -2.750702e-01 -9.091955e-01 1.576257e-03 
1.250584e+01 -2.045184e+01 -6.592447e+00 -8.600388e+00 -1.320217e+01 -1.886535e-01 -4.637686e+00 3.733072e+00 -4.169654e+00 -2.662939e+00 -1.378754e+01 -6.624140e+00 9.331964e-01 5.902250e-01 7.877428e-01 1.990900e-01 3.823206e-01 3.485765e-01 -3.852444e-01 -1.376836e-01 -3.809927e-01 1.920248e+00 1.363949e+00 1.178352e-01 -6.336889e-01 -1.004585e-02 
1.283546e+01 -1.813419e+01 -5.475139e+00 -8.392986e+00 -1.181674e+01 -1.863771e+00 -2.880429e+00 4.488305e+00 -7.956959e-01 -1.490352e+00 -1.212647e+01 -8.761925e+00 9.173943e-01 4.712338e-01 1.460691e+00 1.691442e-01 -8.636918e-02 1.599496e-01 -1.154911e+00 -6.097716e-01 -6.017841e-01 2.461858e+00 4.422444e-01 9.372244e-01 -1.047807e+00 -2.056043e-02 
1.310557e+01 -1.583619e+01 -5.569271e+00 -8.913280e+00 -1.184352e+01 -3.404732e+00 -3.833054e+00 4.079995e+00 2.199650e+00 -1.587118e+00 -1.226124e+01 -8.314891e+00 8.893181e-01 5.395756e-01 1.288941e+00 6.108706e-01 -6.737784e-01 3.547813e-01 -1.323955e+00 -1.269737e+00 -9.670933e-01 1.935569e+00 9.987822e-01 1.418633e+00 -3.282851e-01 -3.124399e-02 
1.338585e+01 -1.496972e+01 -6.166317e+00 -9.958241e+00 -1.235837e+01 -4.911453e+00 -6.440869e+00 1.643373e+00 2.650747e+00 -1.243206e+00 -1.015291e+01 -9.610402e+00 8.572321e-01 5.083423e-01 1.097861e+00 1.288143e+00 -3.600509e-01 9.233724e-01 -6.595639e-01 -1.887513e+00 -2.379389e+00 1.701441e+00 1.212007e+00 1.941154e+00 -1.417603e-01 -6.430165e-02 
1.492852e+01 -1.558937e+01 -3.192505e+00 -1.118665e+01 -1.115745e+01 -5.284588e+00 -9.206152e+00 3.200715e-01 3.784971e+00 2.207399e+00 -7.681154e+00 -7.841327e+00 8.070576e-01 -5.279788e-01 2.200109e+00 2.286069e+00 1.922948e+00 3.483032e+00 1.108215e-01 -1.257214e+00 -3.822320e+00 3.272052e-02 1.228701e+00 2.907825e+00 -3.829253e-01 -1.138874e-01 
1.446570e+01 -1.276829e+01 -2.228091e-01 -9.056554e+00 -7.542912e+00 -4.221663e+00 -9.631443e+00 -5.528676e+00 6.918847e+00 2.672424e+00 -4.710742e+00 -9.707508e+00 6.370163e-01 -2.006017e+00 3.171743e+00 2.943237e+00 3.929199e+00 4.303365e+00 1.869159e-01 1.666772e-01 -2.874302e+00 -1.727263e+00 -3.125589e-01 2.318619e+00 7.844173e-01 -1.258290e-01 
9.925754e+00 -5.936358e+00 2.889321e+00 2.506195e-01 3.163912e+00 -3.195519e+00 -8.523838e+00 -1.144558e+01 2.292024e-01 2.598573e+00 -4.432025e-01 -1.018096e+01 4.299889e-01 -3.072368e+00 3.373316e+00 2.248021e+00 3.765464e+00 3.030153e+00 7.718514e-01 2.542930e+00 -1.444748e+00 -2.050254e+00 -1.192666e+00 1.113293e+00 6.721985e-01 -1.034421e-01 
5.857148e+00 -3.937504e+00 5.508956e+00 3.969118e+00 1.997770e+00 -5.021408e+00 -5.948639e+00 -6.845309e+00 -4.207683e+00 -3.001588e+00 -2.178796e+00 -4.518497e+00 4.166217e-01 -2.835726e+00 1.639498e+00 4.973826e-01 1.917634e+00 1.642872e+00 1.444154e+00 3.172990e+00 7.738217e-01 -2.350401e+00 -1.808406e+00 3.889132e-01 1.586555e+00 -4.514215e-02 
3.870961e+00 -3.138185e+00 5.181718e+00 1.127830e+00 -7.770259e-01 -1.025459e+00 1.667097e+00 -6.245353e+00 -9.030331e-01 -9.189258e-01 -3.380660e+00 -7.074840e+00 4.000443e-01 -1.518103e+00 1.850590e-01 -9.244230e-01 -4.472073e-01 4.550193e-01 2.567068e+00 2.954799e+00 1.323879e+00 -1.259978e+00 -3.044699e+00 1.028654e-01 1.477466e+00 -6.112999e-03 
3.314469e+00 -5.969888e+00 1.117905e+00 9.301245e-02 2.641917e+00 1.914076e+00 1.138038e+00 -4.259682e+00 -4.267042e+00 -4.610860e+00 -1.297447e+00 -3.327793e+00 4.262778e-01 -1.423649e-01 -7.259478e-02 -7.686098e-01 -1.466759e+00 7.283883e-02 2.361878e+00 9.835682e-01 3.049940e-01 4.915060e-01 -2.088651e+00 6.521729e-01 1.032059e+00 -5.935627e-03 
3.606578e+00 -3.994871e+00 4.627316e-01 -4.736388e-02 5.116935e+00 6.172076e+00 2.706817e+00 -6.119001e+00 -6.041007e+00 -1.182028e+01 -3.695502e-01 -3.388983e+00 3.945958e-01 1.277245e+00 1.444248e-01 -8.782113e-02 -1.342727e+00 -6.416690e-01 3.387210e-01 -1.157825e+00 4.967341e-01 1.012074e+00 -1.260195e+00 5.023490e-01 7.765180e-01 -1.595546e-02 
5.277515e+00 -3.872134e+00 4.025400e+00 -2.777081e+00 -5.850165e-01 3.189215e+00 -1.550658e+00 -5.383515e+00 8.188345e-01 -7.994164e+00 -4.234862e-01 -1.201127e+00 3.896678e-01 2.367206e+00 -5.910562e-01 9.674641e-01 -8.774748e-01 -2.289466e+00 -1.257403e+00 -1.613575e+00 1.227278e+00 2.210591e+00 2.316093e+00 -1.465569e+00 5.957669e-01 -3.290790e-03 
9.275661e+00 -3.464938e+00 3.288865e+00 -4.150756e+00 -2.371904e+00 3.057718e-02 -2.777679e+00 -3.199766e+00 1.614400e+00 -5.528247e+00 -1.305895e+00 -4.255583e+00 3.385720e-01 2.322853e+00 -1.945063e+00 1.156866e+00 -9.680807e-01 -2.965269e+00 -1.719731e+00 -1.578877e+00 2.951526e+00 1.668124e+00 4.718102e+00 -2.839023e+00 9.792578e-01 3.411766e-02 
1.231596e+01 -9.190136e+00 4.542160e+00 -2.242665e+00 -5.060995e+00 -1.302190e+00 -4.187590e+00 4.170913e-01 2.958208e+00 3.823588e+00 -8.157120e+00 8.434115e-02 4.378358e-01 1.483416e+00 -2.005203e+00 6.060932e-01 -8.435360e-01 -1.598478e+00 -2.965541e-01 -5.610023e-01 3.913642e+00 -1.102369e-02 3.826114e+00 -3.482492e+00 1.590103e+00 5.279527e-02 
1.170162e+01 -1.106118e+01 5.988683e+00 -5.154975e+00 -7.471422e+00 -1.808743e-01 -3.869100e+00 5.738327e+00 1.229925e+00 5.861346e+00 -1.069785e+01 8.645713e-01 5.411001e-01 3.523056e-01 -1.342633e+00 3.978900e-01 -7.697271e-01 -3.814069e-01 5.391428e-01 -5.844102e-01 3.327204e+00 2.327251e-01 1.462437e+00 -2.461718e+00 2.591083e+00 5.274770e-02 
1.148161e+01 -1.010003e+01 5.705957e+00 -6.492651e+00 -6.027647e+00 1.812170e+00 -3.809959e+00 9.715651e+00 9.559538e-01 5.441610e+00 -1.313997e+01 4.189310e+00 5.523801e-01 -7.571739e-02 6.933249e-01 -1.104496e-01 -6.130658e-01 9.352228e-01 -4.190011e-02 -4.212891e-01 1.817616e+00 -1.350983e-01 -1.323532e+00 -6.786026e-01 2.611367e+00 7.968080e-03 
1.145436e+01 -9.723156e+00 4.696416e+00 -5.874398e+00 -3.795613e+00 1.169111e+00 -5.888546e+00 8.786973e+00 3.779153e+00 9.749284e-01 -1.112306e+01 6.647348e+00 5.450383e-01 6.086091e-01 1.742105e+00 -7.577221e-01 -6.137218e-02 1.901765e+00 -7.750349e-02 -4.764745e-01 -9.489127e-02 6.031890e-01 -2.257993e+00 5.904602e-01 2.023621e+00 -3.950889e-02 
1.206100e+01 -6.392525e+00 4.636045e+00 -4.948283e+00 -2.222786e+00 -2.186684e+00 -5.284313e+00 7.980845e+00 1.008103e+00 -3.508611e-01 -1.133753e+01 1.024979e+01 4.757071e-01 9.503554e-01 8.829710e-01 -3.601094e-01 1.640074e-01 1.729822e+00 1.598070e-01 -2.818897e+00 -7.999723e-01 3.967542e-01 -3.789952e+00 1.551615e+00 9.431930e-02 -3.472269e-02 
1.445497e+01 -4.204412e+00 2.735029e+00 -6.234020e+00 1.349697e-01 1.431035e+00 -5.514296e+00 6.131273e+00 4.219795e+00 -2.532384e+00 -8.646769e+00 7.952435e+00 3.818922e-01 6.529518e-01 3.973912e-01 1.142565e-01 6.724785e-01 1.101765e+00 6.326917e-01 -3.511129e+00 -3.713902e-01 2.790155e-01 -3.713019e+00 1.109996e+00 -1.076924e+00 -3.435086e-02 
1.473308e+01 -8.444542e+00 4.886104e+00 -5.492804e+00 6.561699e-01 2.480243e+00 -1.809157e+01 7.043639e+00 2.719403e+00 -1.175449e+01 -6.620043e+00 4.008363e+00 4.603397e-01 6.115258e-01 -4.218048e-01 6.210433e-01 2.847305e+00 -2.114649e-01 -7.496551e-01 -1.556453e+00 -1.998423e+00 -6.408844e-02 -1.908198e+00 5.923918e-01 -2.478297e+00 -6.901532e-03 
1.338308e+01 -6.710191e+00 5.142669e+00 -2.239746e+00 2.737350e-01 1.999106e+00 -1.704056e+01 7.398625e+00 4.318580e+00 -1.188835e+01 -7.931822e+00 4.383441e+00 3.809677e-01 -1.080726e-01 2.552392e-01 6.404553e-01 4.110438e+00 -6.551977e-01 -2.844583e+00 6.447050e-01 -3.526340e+00 -1.228500e+00 -2.299852e-02 -2.922052e-01 -2.519884e+00 -1.104228e-02 
1.565458e+01 -7.248659e+00 6.537441e+00 7.291103e+00 -3.349493e+00 -6.218995e+00 -7.303446e+00 -2.644948e+00 6.382682e-01 -5.213868e+00 -8.733040e+00 -3.572036e-01 4.416617e-01 -3.792501e-03 4.900305e-01 5.868937e-01 3.614216e+00 -1.960529e-01 -3.003884e+00 3.358405e+00 -3.616081e+00 -1.088528e+00 1.788318e+00 -1.404451e+00 -1.843054e+00 -6.748319e-03 
1.345386e+01 -3.526157e+00 5.111637e+00 7.926214e+00 -1.138187e+00 -8.442261e+00 -7.684832e+00 -6.656137e+00 -8.821384e-01 -5.917689e+00 -9.051296e+00 -2.464201e+00 3.360198e-01 -6.900367e-01 1.746337e+00 2.017440e-01 2.510864e+00 4.448245e-01 -2.180110e+00 1.987612e+00 -2.473423e+00 -1.204915e+00 1.210339e+00 -3.842983e-02 -1.609297e+00 -3.476013e-02 
1.467873e+01 -7.586406e+00 7.836089e+00 7.495296e+00 3.818665e-01 -7.318491e+00 -5.977409e+00 -4.009382e+00 -1.228760e-01 -5.798232e+00 -1.308256e+01 -1.783085e+00 4.490721e-01 -6.375697e-01 9.378530e-01 -1.379651e-01 2.280693e-01 7.341722e-01 -4.466038e-01 2.250843e-01 -2.179632e-01 2.063473e-01 3.124935e-01 -5.329396e-01 2.899642e-02 -2.505974e-02 
1.042082e+01 2.190369e+00 5.502066e+00 1.021248e+01 6.321776e-01 -8.351698e+00 -7.765521e+00 -4.286272e+00 -1.325423e+00 -5.544476e+00 -5.949211e+00 -2.950100e+00 2.034618e-01 -6.789829e-01 1.344908e+00 -1.508535e-01 2.152986e-01 6.215909e-01 -7.168342e-01 -8.323535e-01 2.307605e-01 7.512684e-01 -2.251639e-02 -4.769390e-01 5.800071e-01 -3.412905e-02 
1.398325e+01 -5.417657e+00 5.652401e+00 7.288317e+00 -5.638144e-01 -8.497295e+00 -6.137681e+00 -4.919697e+00 1.891647e+00 -3.838008e+00 -1.294878e+01 3.072809e-02 3.826420e-01 -2.069020e+00 2.083608e+00 3.851912e-01 6.495227e-01 2.773100e-01 2.837802e-01 -1.366402e+00 -6.247962e-01 1.192711e+00 -6.921137e-01 5.602989e-01 7.064064e-01 -8.748256e-02 
1.040669e+01 2.114009e+00 5.449213e+00 9.106195e+00 2.442607e+00 -1.143703e+01 -1.176646e+01 -5.047177e+00 1.866942e+00 -7.010384e+00 -1.150288e+01 -4.710725e-01 1.985896e-01 -3.372771e-01 1.354264e+00 2.116394e-01 4.197168e-02 2.035982e-01 6.015821e-01 8.500105e-01 -2.390487e-01 -4.237181e-01 -7.433517e-01 4.066152e-02 5.018522e-01 -1.860136e-02 
4.340699e+00 2.869814e+00 9.788471e+00 1.129605e+01 8.632011e-01 -4.356925e+00 -1.080894e+01 -6.752910e+00 4.244497e+00 -8.525846e+00 -7.504231e+00 5.094327e-01 1.409537e-02 -2.490971e-02 2.424171e+00 1.236699e-01 1.891099e-01 8.239932e-01 5.630056e-01 1.619633e+00 1.554931e-01 -1.585432e+00 -2.569799e-01 4.696680e-01 -2.385825e-01 -8.668030e-03 
1.355571e+01 4.817955e+00 4.492228e+00 8.418469e+00 9.366610e-01 -7.413972e+00 -1.179836e+00 -4.564909e+00 -4.620439e+00 -6.917315e+00 -8.468178e+00 -6.801920e-01 2.947283e-01 2.757073e-04 -2.439061e-01 -4.775300e-02 1.203244e+00 5.846526e-01 -1.649617e-01 1.762317e+00 5.119445e-01 -1.189884e+00 1.050127e-01 -7.627808e-01 -9.758984e-01 6.322485e-03 
1.228419e+01 5.351225e+00 6.749243e+00 8.577729e+00 4.309124e+00 -7.693796e+00 -3.332830e+00 -4.383365e+00 -2.791822e+00 -5.169441e+00 -1.211779e+01 -1.057625e+00 2.912325e-01 -8.596381e-01 -1.176956e+00 -1.124775e+00 1.001200e+00 8.579771e-01 -4.945188e-01 9.973953e-01 1.559174e+00 -7.581576e-01 3.240032e-01 -1.757562e+00 -2.195596e+00 -2.400479e-02 
6.436321e+00 -3.462269e-01 6.730062e+00 1.648158e+01 3.642909e+00 -1.059340e+01 -6.692935e+00 -3.672227e+00 -5.643163e-01 -8.163523e+00 -1.301001e+01 -4.567036e+00 9.163350e-02 -3.247171e+00 -1.311055e+00 -1.460783e+00 3.185463e-01 6.360530e-01 9.035929e-01 3.233772e-01 1.533446e+00 8.738397e-01 4.036365e-01 -1.380055e+00 -1.194316e+00 -1.029868e-01 
3.602203e+00 -4.328745e-01 3.045681e+00 1.227050e+01 3.799963e+00 -5.239804e+00 -3.065419e+00 5.966170e-01 -1.574352e+00 -6.282726e+00 -1.402113e+01 -8.525126e+00 -4.381180e-03 -2.878121e+00 -1.284531e+00 -2.809260e+00 -8.336269e-01 -8.108994e-01 -4.561629e-02 8.491495e-01 2.463239e+00 1.176949e+00 1.912208e-01 2.127140e-01 4.774139e-02 -8.228616e-02 
1.660850e+00 1.154730e+00 -9.599041e-01 8.164818e+00 4.371506e+00 -4.123004e+00 3.033447e-01 6.123308e-01 -8.599755e-01 -4.342490e+00 -1.441679e+01 -2.918024e+00 -7.239866e-02 -1.361020e+00 3.102336e-02 -2.922901e+00 -2.227030e+00 -7.045692e-01 1.168307e+00 1.383442e+00 1.617953e+00 8.830441e-01 3.915630e-01 1.276823e+00 1.442038e+00 -4.314736e-02 
2.813225e-01 -1.821907e+00 -3.452071e+00 8.567975e+00 -1.096714e-01 -1.115708e+01 -2.585222e+00 5.790552e+00 3.240752e+00 -6.123854e+00 -1.035083e+01 -1.643424e+00 -3.818226e-02 -4.938029e-01 7.031378e-01 -3.165548e-01 -5.020288e-01 -2.121637e-01 9.943390e-02 3.593054e-01 6.100563e-01 5.143831e-01 9.003990e-01 2.462367e+00 2.295557e+00 -2.691674e-02 
1.291662e+00 5.034059e-01 -4.635565e+00 7.197689e+00 2.074880e+00 -1.793233e+00 -1.582098e-02 1.820572e+00 1.443352e+00 -6.285144e+00 -8.461037e+00 -7.976964e-01 -1.072028e-01 2.953350e-01 1.437451e+00 1.510053e+00 1.173628e-01 1.124342e+00 1.694603e+00 6.432123e-02 3.676798e-01 -4.931216e-02 1.992126e-01 3.180669e+00 1.497321e+00 -2.411686e-02 
1.317782e+00 3.408477e+00 3.300738e+00 1.024392e+01 3.887457e+00 -5.907520e+00 -1.109309e+00 3.042778e+00 -1.541003e-01 -8.094044e-01 -4.687170e+00 1.892497e+00 -1.215628e-01 3.046966e-01 1.822388e+00 1.733187e+00 -1.172237e-02 2.185031e+00 3.809546e+00 1.071604e+00 -2.242374e-01 4.594274e-01 5.251697e-01 1.677961e+00 2.842871e-01 -2.703108e-02 
2.619295e+00 5.726793e+00 3.213956e+00 7.913661e+00 7.994652e+00 1.725232e+00 -1.130056e-01 3.824617e+00 5.908896e-01 -6.003652e+00 -1.345270e+00 2.800624e+00 -1.512927e-01 -3.900003e-02 9.335381e-01 1.014122e+00 -2.781126e-01 1.928485e+00 3.327691e+00 1.244400e+00 2.769171e-01 1.058191e+00 1.631868e+00 1.646209e+00 2.167081e-01 -1.179097e-02 
1.140989e+00 4.678339e+00 1.289102e+00 8.151377e+00 7.855601e+00 6.131424e+00 2.821391e+00 3.667343e+00 5.964119e+00 -3.638752e+00 -5.518908e+00 -2.021148e+00 -1.512927e-01 2.251258e-02 4.988786e-01 -4.258149e-01 -1.669829e+00 1.709526e-01 3.066533e+00 5.736660e-01 -1.308568e+00 -3.156656e-01 1.966802e-01 1.252626e+00 -1.119459e+00 -5.945968e-03 
1.185059e+00 4.536166e+00 1.440863e+00 6.853395e+00 9.733231e+00 8.825752e+00 4.240829e+00 2.892875e+00 3.675198e+00 3.288870e+00 1.858802e-01 2.242667e+00 -1.512927e-01 -8.428083e-02 5.737522e-01 -1.932366e-01 -1.636196e+00 -1.686163e+00 -7.076202e-02 -4.794792e-01 -1.248610e+00 -3.436281e-01 2.091104e+00 1.665035e+00 -7.726313e-01 0.000000e+00 
2.147463e+00 6.498184e+00 2.058210e+00 2.424905e+00 3.872931e+00 5.874887e+00 -4.178967e-01 -3.034193e+00 -3.274583e+00 -4.472264e+00 8.103871e-01 -3.425820e+00 -1.512927e-01 1.689988e-01 9.073356e-01 5.583717e-01 -9.859583e-01 -1.680262e+00 -1.089900e+00 -1.908188e-01 -1.303015e+00 -1.096951e+00 1.049358e+00 1.976183e+00 -6.372671e-01 0.000000e+00 
1.694654e+00 7.685632e+00 1.863219e+00 2.595915e+00 1.555172e+00 1.499690e+00 -8.907576e-01 9.323353e-01 3.492101e+00 4.868625e+00 3.815259e+00 -3.601967e-01 -1.512927e-01 -1.732186e-01 9.104152e-01 1.044589e-01 -9.407822e-01 -9.742340e-01 -3.227215e-01 -3.642761e-01 -1.134415e+00 -2.844486e-01 -1.678573e-01 3.576306e-01 -5.245279e-01 0.000000e+00 
1.731186e+00 7.640284e+00 3.869782e+00 5.350326e+00 3.543319e+00 4.344953e+00 4.433090e+00 -1.867461e+00 5.709115e-01 8.181617e-01 2.547319e+00 -3.906052e+00 -1.512927e-01 -3.027492e-01 8.028504e-01 -3.426525e-01 1.309726e-01 3.700774e-01 1.867025e-01 4.217591e-01 1.541524e-01 -1.468655e-01 7.060042e-01 -2.367641e-01 -1.626542e-01 0.000000e+00 
5.271044e-01 8.517191e+00 1.057372e+00 6.867740e-01 5.026867e+00 7.977111e+00 -6.045341e-03 -3.362564e+00 3.302083e-01 -1.956291e-01 1.105567e+00 -1.398572e-01 -1.512927e-01 -1.433124e-01 3.776568e-01 1.367575e-01 5.346916e-01 5.518842e-01 5.977891e-01 3.706996e-01 -3.649460e-01 -1.677201e+00 -6.094478e-01 4.915688e-01 -7.613183e-01 0.000000e+00 
1.217492e+00 1.009665e+01 7.478715e-01 4.034338e+00 3.987471e+00 3.569689e+00 1.248543e+00 -1.159809e-01 -2.427964e+00 1.589884e+00 9.814124e-01 -4.349261e+00 -1.512927e-01 -2.888571e-01 2.198867e-01 7.236698e-01 4.936576e-01 2.665891e-01 7.739725e-02 -5.069481e-01 -3.635692e-01 -2.442131e-01 9.074485e-01 7.721366e-01 -5.027935e-01 0.000000e+00 
1.234939e+00 8.345730e+00 4.107962e+00 5.927367e+00 4.092517e+00 4.876268e+00 2.555014e+00 -1.768135e+00 -3.394468e+00 1.435525e+00 7.056056e+00 -3.945184e+00 -1.512927e-01 -4.630347e-01 -3.988608e-01 1.037018e+00 3.199800e-01 -5.991153e-01 -3.502147e-01 1.040327e+00 1.252039e+00 1.131720e+00 1.033558e+00 1.245018e+00 3.470778e-01 0.000000e+00 
-6.701660e-02 8.825448e+00 5.962836e+00 5.198318e+00 5.343439e+00 6.282361e+00 6.178203e-01 -4.482522e+00 1.212184e+00 4.539827e+00 3.432758e+00 -4.517356e+00 -1.512927e-01 -2.537116e-01 -2.399016e-01 1.018639e+00 -1.622977e-01 3.506413e-01 2.895985e-01 1.246429e+00 1.568672e+00 1.249640e+00 8.846756e-01 1.320633e+00 1.403341e+00 0.000000e+00 
-1.145815e+00 7.158491e+00 3.634981e+00 1.704684e+00 1.353306e+00 4.869701e+00 5.510950e+00 5.080902e+00 4.168735e+00 3.497187e+00 6.104983e+00 1.679580e+00 -1.512927e-01 -4.041756e-01 5.134334e-02 5.884504e-03 4.474391e-01 9.174820e-01 8.053656e-01 1.612474e+00 1.708000e+00 1.073942e+00 1.049254e+00 1.705569e-01 8.810293e-01 0.000000e+00 
1.139311e+00 9.490767e+00 6.077555e+00 5.334191e+00 7.110283e+00 5.020965e+00 6.002722e+00 4.302861e+00 3.863652e-02 4.982431e+00 8.060116e+00 -1.449368e-01 -1.512927e-01 -5.318584e-02 3.642750e-03 -9.059979e-01 2.375751e-01 -1.422328e-01 3.378879e-01 1.660680e-01 -4.165161e-01 -1.561782e+00 -9.033577e-01 1.395285e-03 4.991399e-01 0.000000e+00 
-1.389103e+00 8.269787e+00 4.080025e+00 8.096625e+00 7.796506e+00 9.533794e+00 7.924935e+00 2.379174e+00 2.562015e+00 6.460493e+00 5.595161e+00 -1.726247e+00 -1.512927e-01 1.952272e-01 -1.041194e-01 -1.619828e+00 6.334963e-02 -4.283369e-01 3.388070e-01 -1.856828e+00 -3.019345e+00 -2.918349e+00 -1.338233e+00 -1.401421e+00 3.617486e-01 0.000000e+00 
-2.113018e-01 8.288013e+00 1.210325e+00 3.190223e+00 1.410676e+00 5.639754e+00 2.411678e-01 -5.214238e+00 -5.793368e+00 -1.458615e+00 3.694645e+00 -3.187437e-01 -1.512927e-01 1.185864e-01 -9.628395e-01 -1.798503e+00 -4.844257e-01 -5.627576e-01 -6.115035e-01 -1.196620e+00 -7.810696e-01 -4.919843e-01 -1.280755e+00 -8.077971e-01 4.929368e-01 0.000000e+00 
5.056276e-01 7.239270e+00 -2.030545e+00 3.093417e+00 2.061425e+00 6.254341e+00 -8.924136e-01 -5.257274e+00 -7.507005e+00 2.654696e-02 1.280613e+00 3.575226e+00 -1.512927e-01 8.731173e-01 -1.471052e-01 -4.283797e-01 -6.152724e-01 4.376341e-01 -1.428925e+00 -2.103995e-01 1.336114e-01 2.691236e-01 1.420855e-01 -1.677388e-01 5.074985e-01 0.000000e+00 
7.848778e-01 5.191828e+00 1.403254e-01 5.413667e+00 7.164035e+00 3.603173e+00 4.428296e+00 4.215736e+00 2.613225e+00 1.795628e+00 6.178404e+00 -3.309893e-01 -1.512927e-01 2.906875e-01 2.579622e-01 8.375893e-01 4.225907e-02 1.082522e+00 -2.983178e-01 1.798450e+00 2.028119e+00 1.650381e+00 2.204639e+00 1.367611e+00 -6.146305e-02 0.000000e+00 
2.478394e+00 9.082354e+00 2.473126e+00 3.908542e+00 7.107996e+00 3.407462e+00 4.779374e+00 -1.667756e+00 -2.956640e-01 5.543799e+00 3.514588e+00 8.173684e-01 -1.512927e-01 -2.230957e-01 5.386284e-01 1.221009e+00 -3.193577e-01 4.001493e-02 2.142419e-01 1.276635e+00 1.569188e+00 1.580021e+00 1.241483e+00 1.118731e+00 -3.754385e-01 0.000000e+00 
2.557526e-01 8.656282e+00 3.146435e+00 2.993956e+00 4.300001e+00 5.571605e+00 6.397524e+00 3.131598e+00 -1.147131e+00 6.805956e+00 9.415711e+00 7.528698e-01 -1.512927e-01 -5.084015e-01 5.134544e-01 4.960551e-01 -6.616424e-01 -1.035552e+00 8.410195e-01 -1.175214e-02 2.628498e-01 1.889043e-01 2.051336e-01 -1.045477e-02 3.312922e-01 0.000000e+00 
-3.452883e-01 8.200185e+00 2.571443e+00 2.706484e+00 3.693517e+00 6.341334e+00 4.506148e+00 3.130738e+00 2.273276e+00 3.728797e+00 5.255616e+00 1.156104e+00 -1.512927e-01 -6.248406e-01 -2.220437e-01 -3.783593e-02 -2.691588e-01 -7.435442e-01 6.637475e-01 -2.437828e-01 9.596128e-01 8.558288e-01 -6.707163e-01 -6.780396e-02 1.080706e-01 0.000000e+00 
