-9.883764e+00 3.265093e+00 1.230813e+00 4.463420e-01 -1.801538e-01 -6.302425e+00 -2.625155e+00 -2.866205e-01 7.768383e+00 2.446309e+00 8.941934e-01 4.839095e+00 -3.612506e-02 2.315286e-01 1.724451e-01 -1.331064e-01 1.377334e+00 4.154435e-01 1.299061e+00 1.363341e+00 -4.484022e-01 -7.678868e-01 -3.736990e-01 1.050523e-01 5.052954e-02 6.395793e-03 
-8.559528e+00 4.029909e+00 1.718748e+00 3.891228e+00 2.073669e-02 -5.321598e+00 -7.918441e-01 -3.086636e+00 6.705303e+00 4.751588e+00 -2.037751e+00 5.647871e+00 -2.178514e-02 1.090046e-01 -4.391456e-02 -1.421420e-01 1.832725e+00 6.069349e-01 1.008279e+00 1.818827e+00 8.979893e-01 -3.356375e-01 -6.815380e-01 7.623295e-01 -5.496150e-01 1.875985e-03 
-9.388239e+00 3.744911e+00 3.213139e-01 5.610566e+00 1.796618e+00 -2.975342e-01 3.274893e+00 -1.128624e+00 4.460489e+00 -5.748260e-01 2.885427e+00 4.687355e+00 -1.131606e-02 -5.490230e-01 -7.219908e-01 2.464984e-01 1.071937e+00 -6.324592e-01 -8.468902e-01 6.741037e-02 -3.117386e-01 -8.779631e-01 -6.069295e-01 6.475248e-01 -1.117102e+00 -2.945232e-03 
-9.586504e+00 2.805611e+00 9.748530e-01 7.027855e+00 1.866135e+00 -4.263477e+00 3.518956e+00 4.624327e+00 7.744143e+00 5.491865e-01 3.710224e+00 2.166891e+00 -3.914964e-02 -6.668204e-01 -5.277937e-01 8.492243e-01 -1.175524e-01 -8.824299e-01 -2.156862e+00 -1.774262e+00 -2.613078e-01 -8.361667e-01 -1.140632e+00 -1.157731e-01 -1.093453e+00 -4.250491e-03 
-1.211539e+01 2.672880e-01 2.835253e+00 4.237713e+00 -4.265149e+00 -1.106594e+01 -4.443503e+00 -5.700795e+00 2.859148e+00 1.512862e+00 1.257830e+00 9.940763e-01 -4.216897e-02 -3.283870e-01 -1.990895e-01 8.985459e-01 -1.046680e+00 -6.639237e-01 -1.951997e+00 -1.632096e+00 -6.047893e-01 -3.788190e-01 2.487909e-01 -5.876249e-01 -2.751041e-01 -2.520490e-03 
-1.053005e+01 3.129752e+00 4.707900e+00 3.989893e+00 -1.360529e+00 -1.072171e+01 -5.803958e+00 -2.107090e+00 3.325140e+00 -1.995414e+00 -1.802818e+00 2.027245e+00 -2.761114e-02 1.451101e-01 5.030655e-01 8.448614e-02 -9.181724e-01 6.404064e-01 4.858661e-01 -1.006089e+00 -4.971134e-01 -4.665430e-01 1.976033e-01 -1.755230e-01 1.146612e+00 4.389477e-03 
-1.055840e+01 2.587393e+00 2.947520e+00 1.896149e+00 9.033155e-02 -6.828404e+00 -2.241309e-01 -7.868615e-01 4.775895e+00 1.941429e+00 2.703823e+00 3.381657e+00 -2.968776e-02 4.754672e-01 8.325260e-01 -7.502630e-02 1.298648e-01 1.220294e+00 1.857151e+00 1.470792e-01 8.825958e-01 9.016249e-01 -5.888751e-01 5.748240e-01 1.017975e+00 6.485629e-03 
-9.639450e+00 4.160886e+00 1.341150e+00 3.607775e+00 2.890427e+00 -3.952913e+00 -3.621173e+00 -3.182067e-01 4.453054e+00 1.322919e+00 2.109613e+00 6.706158e+00 -2.344286e-02 7.772274e-02 -2.861078e-01 -3.908106e-01 2.301521e-02 1.927260e-01 1.190584e+00 2.942441e-01 -1.324795e+00 -1.297609e+00 2.331280e-01 1.727822e+00 9.278626e-01 1.808715e-03 
-1.018336e+01 3.914351e+00 4.143497e+00 5.078096e+00 -2.891564e-01 -5.164578e+00 -4.799500e+00 -2.182257e+00 6.803316e+00 -3.090681e+00 2.175735e+00 3.744493e+00 -1.182497e-02 1.039706e-01 -4.957746e-01 -4.084908e-01 3.614858e-01 -5.803607e-01 2.414208e-02 3.017305e-01 -1.282503e+00 -1.829515e+00 -1.187943e-01 9.808332e-01 1.229415e-01 -3.615391e-03 
-1.032896e+01 1.035734e+00 2.155859e+00 2.513995e+00 -2.071548e-01 -5.600698e+00 -2.045053e+00 -8.033367e+00 -4.176617e+00 1.686280e+00 7.100335e+00 6.485140e+00 -2.749896e-02 -3.283079e-01 -1.032069e+00 -8.356915e-01 -6.140205e-01 -5.468459e-01 -3.435920e-01 1.231837e+00 -9.813082e-01 -7.666225e-01 8.309311e-01 5.570787e-01 -5.869054e-01 -6.072664e-03 
-9.693789e+00 1.671096e+00 4.977114e-01 4.250467e+00 -1.262681e+00 -5.883801e+00 4.964614e-01 -3.341794e+00 -5.684376e-02 1.165777e+00 5.112628e+00 4.106874e+00 -4.573667e-02 -2.338353e-01 -5.293521e-01 -1.342594e+00 -5.355101e-01 5.699657e-01 -5.094347e-02 1.193478e+00 7.633892e-01 7.380200e-03 1.165776e+00 5.327107e-01 -2.676563e-01 -4.349530e-03 
-1.152577e+01 1.221659e-01 -1.014414e+00 9.514871e-01 6.429596e-01 -5.311262e+00 -1.099710e-01 -4.644979e+00 4.050021e+00 3.349345e+00 3.426560e+00 3.590441e+00 -3.685033e-02 -1.994226e-01 1.587373e-01 -4.052896e-01 5.783564e-01 6.902885e-01 2.990361e-01 2.343071e-01 2.224544e+00 2.346168e+00 -5.826224e-01 -5.062525e-01 1.347209e-01 8.812988e-03 
-1.075413e+01 1.724374e+00 -9.843352e-01 3.181799e+00 2.135615e+00 -5.564014e+00 2.003510e-01 -5.950557e-02 2.726897e+00 1.906668e+00 6.676176e+00 3.853561e+00 -2.889693e-02 -1.865045e-01 1.179305e-01 3.904084e-01 7.525547e-01 6.042691e-01 8.059975e-01 4.534211e-01 8.660313e-01 1.528570e+00 6.867361e-03 -2.763554e-01 4.110570e-01 9.375423e-03 
-1.079590e+01 1.802782e+00 8.704339e-01 5.940111e+00 1.545140e+00 -4.265411e+00 -7.254627e-01 1.448208e+00 6.162354e+00 -1.597277e+00 3.787299e+00 7.285400e+00 8.146107e-03 -4.968943e-01 -1.486275e+00 2.895889e+00 1.547775e+00 -1.348562e+00 1.757743e+00 1.506860e+00 -4.596930e-01 6.722309e-02 -5.797299e-01 -1.929992e-01 5.445874e-01 3.344445e-02 
-1.099125e+01 1.420441e+00 1.507329e+00 5.518929e+00 1.307574e+00 -2.376739e+00 3.071313e+00 -2.058231e+00 6.529838e+00 3.673425e+00 3.550482e+00 4.314679e+00 -2.135777e-02 4.221401e-01 -2.521466e+00 1.801111e+00 -3.661603e-01 -2.207164e+00 3.880878e-01 -2.335617e-01 -1.029253e+00 3.326398e-01 -1.414819e+00 -2.137018e+00 -6.411649e-01 3.717232e-02 
-1.389169e+01 -7.157241e+00 1.221920e+01 7.521798e+00 -5.685832e+00 1.883816e+00 5.988847e+00 -5.944081e+00 2.484667e+00 -4.326831e-01 4.024411e+00 6.082819e+00 1.266024e-01 7.413205e-01 -1.580382e+00 6.694109e-01 -1.029624e+00 -5.102806e-01 -1.202406e+00 -1.887656e+00 -1.326754e-01 -8.014210e-02 -2.090982e+00 -1.893282e+00 -1.588053e+00 3.359045e-02 
-7.095537e+00 -6.402945e+00 2.346838e+00 5.601547e-01 -5.284717e+00 -6.698189e+00 -4.324613e+00 -1.509624e+00 6.228940e+00 -5.749725e+00 -4.127471e+00 1.249028e+00 9.773654e-02 7.276300e-01 -1.808678e-01 -5.607096e-01 3.414610e-01 5.376586e-01 -1.296665e+00 -8.353547e-01 2.242484e+00 8.846722e-02 -3.182525e+00 -2.030221e+00 -1.947447e-01 2.301902e-02 
-9.037157e+00 -2.187437e+00 3.797734e+00 3.271376e+00 2.289883e+00 -8.116714e+00 -6.465780e+00 5.105271e-01 5.912092e+00 -7.340612e+00 -1.840137e+00 8.779583e-01 1.165512e-01 5.494335e-01 2.425914e+00 -1.316226e+00 1.504564e+00 2.638084e+00 -5.068187e-01 -9.958764e-01 3.142808e+00 1.853788e+00 -2.658033e-02 -1.010614e+00 -3.347724e-01 -2.416778e-02 
-9.780361e+00 -1.968800e+00 2.914513e+00 9.351444e+00 8.010387e-03 -3.859799e+00 5.121853e+00 5.926884e+00 5.258461e+00 -8.785234e+00 -3.668352e+00 5.943386e+00 9.876287e-02 -1.437176e+00 -4.622650e-01 4.857284e-01 2.340031e+00 3.838771e+00 2.199260e+00 -1.028264e+00 1.498721e+00 1.404215e+00 2.689042e+00 7.490588e-01 1.102785e-01 1.194005e-02 
-9.802107e+00 2.755254e+00 5.354228e+00 1.064897e+01 4.858223e+00 -2.069472e+00 -3.713768e+00 6.051705e+00 1.223885e+01 9.521701e-01 -1.258220e+00 2.061779e+00 5.250275e-03 -1.327695e+00 -3.222927e+00 2.477409e-01 6.244268e-01 3.407966e+00 2.098968e+00 -2.815771e+00 1.972165e-01 1.807688e+00 3.587614e+00 -2.463785e-01 -1.008534e+00 3.986225e-02 
-1.389894e+01 -1.118562e+01 3.997232e+00 8.571510e+00 1.262497e+01 1.274487e+00 -1.084194e+01 3.213392e+00 1.008664e+01 3.549092e+00 -6.731352e-01 1.208510e+00 2.130873e-01 -4.471137e-01 -1.381023e+00 -7.972038e-01 -1.148723e+00 1.441056e+00 -2.301995e-01 -2.831265e+00 -1.561017e+00 5.021857e-01 2.628384e+00 8.789274e-01 -1.631543e+00 8.053601e-04 
-1.361634e+01 -1.369366e+01 4.495079e+00 6.783477e+00 1.302123e+01 -1.890185e-01 -1.256274e+01 2.853355e+00 1.253644e+01 4.430295e+00 -4.569638e+00 -1.797276e+00 2.587003e-01 7.593422e-02 6.861708e-01 -1.453575e+00 -1.415388e+00 -1.535845e+00 -1.528729e+00 1.282479e+00 -1.399874e+00 -1.772627e+00 -7.121234e-02 1.629793e+00 3.569637e-01 -3.063479e-02 
-1.010881e+01 -6.494560e-01 -6.419311e-01 5.540575e+00 3.131786e+00 -5.951023e+00 -4.609989e+00 -2.790254e-01 7.620592e+00 2.617624e+00 2.381995e+00 -2.848010e-01 -2.393532e-02 1.041855e+00 4.677939e+00 -5.700493e-01 -9.868045e-01 -3.842561e+00 -1.854227e+00 3.246051e+00 -9.017127e-01 -1.505617e+00 -2.766812e-01 1.248364e+00 1.643757e+00 -7.075977e-02 
-1.131750e+01 9.180282e-01 4.059360e-01 5.087500e+00 1.925586e+00 -6.100363e+00 -4.173501e-01 7.985445e-01 4.608733e+00 1.061842e+00 5.363183e+00 4.593252e+00 -2.941239e-02 5.383259e-01 3.617013e+00 -2.374678e-02 -4.767289e-01 -2.623752e+00 -5.046705e-01 3.150178e+00 5.269399e-02 -1.007518e+00 -6.304473e-01 1.856956e+00 1.943649e+00 -5.324414e-02 
-9.839085e+00 4.898236e+00 3.191557e+00 4.485477e+00 -1.040014e+00 -5.040975e+00 -6.843774e-01 -2.677658e-01 6.522405e+00 3.849912e+00 6.022742e-01 6.232030e+00 3.344715e-03 -2.609114e-01 3.466791e-01 3.999110e-01 -6.385324e-01 -3.666047e-01 5.149802e-01 2.944849e-01 -2.792150e-01 -6.358352e-01 -5.326106e-01 -3.113330e-01 1.250264e+00 3.069496e-03 
-1.105958e+01 1.617556e+00 2.459601e+00 4.927382e+00 1.988376e+00 -3.167395e+00 1.225347e+00 3.111195e+00 8.047949e+00 6.619143e-01 5.605005e+00 4.662555e+00 -2.116048e-02 -1.368170e-02 -1.603478e-01 -3.306011e-01 -1.589819e-01 -2.141542e-01 -6.006594e-01 -7.690670e-01 -4.227265e-01 -1.940931e-01 -2.220011e-03 -8.118914e-01 -6.757052e-02 -2.211648e-03 
-1.154233e+01 7.341756e-01 3.307915e-01 2.427972e+00 1.267368e+00 -4.842606e+00 -3.958913e+00 -2.831426e+00 2.721808e+00 1.545351e-01 7.044183e-01 5.931868e+00 -1.271379e-02 1.385802e-01 -3.475017e-01 -7.561350e-03 1.692568e-02 1.438109e-01 1.197575e-01 3.855894e-01 1.337424e-01 -2.955028e-01 -2.977746e-01 -1.402688e-01 2.098958e-01 -9.606862e-03 
-1.053429e+01 2.198320e+00 1.833136e-01 5.321342e+00 -2.988758e-01 -9.202844e+00 -2.625417e+00 -3.325792e-02 5.538566e+00 2.898431e+00 1.252654e+00 4.405481e+00 -3.244138e-02 2.143771e+00 -2.943409e+00 -1.700509e+00 -1.810948e+00 6.089308e-02 1.495356e+00 4.741866e-01 3.842007e-01 -1.456190e+00 1.068592e+00 5.540929e-01 -9.998994e-01 5.856048e-02 
-9.408829e+00 2.870346e+00 4.291894e+00 4.373125e+00 8.226664e-01 -1.424463e+00 3.168952e+00 1.973173e+00 6.299582e+00 1.242781e+00 2.077106e+00 7.410046e+00 -3.904915e-02 3.303587e+00 -5.659771e+00 -2.402316e+00 -3.702834e+00 3.071370e-01 2.689596e+00 4.229354e-01 1.400122e+00 -2.153303e+00 1.458659e+00 2.136989e+00 -3.497519e+00 1.521283e-01 
-1.407474e+00 -1.416757e+01 -8.023499e+00 -5.099934e+00 2.515192e+00 2.600316e+00 3.234768e-02 2.629899e+00 -1.021889e+00 5.460752e+00 7.689126e+00 -1.076031e+00 2.848096e-01 4.709394e+00 -5.963902e+00 -1.696483e+00 -4.872458e+00 -5.714449e-01 3.659093e+00 -1.306645e+00 1.258957e+00 -4.190389e+00 4.312386e-01 8.193463e-01 -4.318953e+00 2.412851e-01 
4.122002e-01 -1.938173e+01 -7.577382e+00 -1.087556e+01 1.396019e+00 2.703793e+00 -3.173119e+00 2.837607e+00 -4.764481e+00 6.166667e+00 8.171128e+00 -8.814972e+00 5.893021e-01 4.770221e+00 -4.259473e+00 -1.402020e+00 -4.197889e+00 -2.052342e+00 2.083570e+00 -2.642118e+00 1.138743e+00 -4.203854e+00 8.052535e-02 -9.346255e-01 -4.582824e+00 2.559212e-01 
8.102165e+00 -1.649515e+01 -2.364464e+00 -1.141661e+01 -3.442777e+00 7.028490e+00 -5.987606e+00 5.829311e+00 -9.881346e+00 2.592681e+00 2.302374e+00 -9.076777e+00 8.598086e-01 3.176843e+00 -2.009912e-01 4.503315e-01 -1.365895e+00 -2.709002e+00 9.469823e-01 -1.879087e+00 6.565602e-01 -2.347744e+00 -2.312944e-01 -2.446879e+00 -2.619186e+00 1.746424e-01 
9.687456e+00 -1.726323e+01 -5.547722e+00 -1.345798e+01 -6.460059e+00 6.779302e+00 -7.031661e+00 6.067183e+00 -1.028996e+01 3.079444e+00 9.735394e-02 -1.150370e+01 9.530574e-01 2.200097e+00 7.990487e-01 -4.370956e-01 5.647097e-02 -1.062039e+00 5.211030e-01 -9.711224e-01 4.540014e-01 -1.552757e+00 6.553110e-01 -1.497969e+00 -1.033823e+00 9.377313e-02 
9.839115e+00 -1.623178e+01 -6.786670e+00 -1.063820e+01 -7.101777e+00 5.297473e+00 -7.433817e+00 4.297912e+00 -9.997872e+00 5.847893e+00 -5.083810e-01 -1.282760e+01 9.761440e-01 5.633355e-01 3.720952e-01 -9.167705e-01 2.567748e-01 2.124329e-02 -6.307592e-02 -4.900783e-01 -2.688700e-01 -6.740853e-01 1.567630e+00 -3.303134e-01 -3.734511e-01 3.127049e-02 
1.054421e+01 -1.551817e+01 -7.551756e+00 -1.098241e+01 -2.084676e+00 6.174816e+00 -7.305626e+00 5.873313e+00 -1.247000e+01 7.815617e+00 2.086660e+00 -1.210867e+01 1.000000e+00 2.243687e-01 7.381209e-01 -3.245105e-01 6.876650e-01 1.309520e-01 3.375497e-02 1.030254e-03 -5.888971e-01 -4.118091e-01 7.856005e-01 2.035246e-01 8.641300e-02 8.611065e-03 
1.049047e+01 -1.550720e+01 -5.946299e+00 -1.137052e+01 -5.524251e+00 7.015353e+00 -8.301015e+00 4.581896e+00 -1.216175e+01 8.062746e+00 -3.438463e-01 -1.064154e+01 9.926897e-01 2.169846e-01 4.284314e-01 1.747646e-02 3.659835e-01 -3.031106e-01 -1.962396e-01 8.460215e-01 -8.025742e-01 -7.761526e-02 1.641030e-01 -2.714101e-01 6.383129e-01 2.213299e-04 
1.048362e+01 -1.393492e+01 -7.590460e+00 -9.653498e+00 -6.594061e+00 6.089136e+00 -6.592911e+00 2.980706e+00 -1.126706e+01 5.900020e+00 1.032710e+00 -1.216466e+01 9.878399e-01 1.400164e-01 3.193811e-01 1.183178e-01 3.303753e-01 -1.085743e+00 -3.912752e-01 1.067214e+00 -9.798164e-01 3.990182e-01 -1.345269e-01 -1.056771e+00 1.004499e+00 -5.126608e-03 
1.095433e+01 -1.488125e+01 -6.679936e+00 -9.472738e+00 -6.362637e+00 4.359115e+00 -3.560066e+00 1.731345e+00 -1.098742e+01 7.626206e+00 -1.338456e+00 -9.608038e+00 9.833307e-01 1.158142e-01 3.355719e-01 -6.386709e-02 9.427633e-02 -4.725758e-01 4.521465e-03 6.023721e-01 -3.895071e-01 2.570474e-01 -4.984655e-02 -7.256797e-01 9.898371e-01 -4.714793e-03 
1.101236e+01 -1.423424e+01 -6.593349e+00 -1.027942e+01 -7.094198e+00 5.546559e+00 -4.340032e+00 2.399507e+00 -1.106208e+01 7.361252e+00 -2.699891e+00 -7.602932e+00 9.790465e-01 1.333219e-01 1.859669e-01 1.665044e-01 -3.693699e-01 -2.087490e-01 6.157585e-01 -1.455772e-01 5.022943e-02 2.468450e-01 2.964917e-01 -2.659374e-01 9.059508e-01 -4.096025e-03 
1.080517e+01 -1.367968e+01 -6.764190e+00 -1.058617e+01 -7.637063e+00 7.309249e+00 -6.415594e+00 2.924960e+00 -1.097901e+01 7.082897e+00 -2.105945e+00 -7.973224e+00 9.735125e-01 2.067121e-01 5.004021e-01 -5.968218e-02 -3.270449e-01 -2.602797e-02 1.020127e+00 -6.812878e-01 4.152737e-01 1.180479e-01 4.572437e-01 6.080548e-01 2.225678e-01 -4.299087e-03 
1.122481e+01 -1.360587e+01 -6.715811e+00 -1.094363e+01 -7.000594e+00 7.692862e+00 -5.893033e+00 2.635045e+00 -1.003704e+01 7.654133e+00 8.676672e-02 -8.452314e+00 9.722689e-01 3.056459e-01 3.928532e-01 -1.493609e-01 -1.027221e-01 2.983809e-01 7.027160e-01 -6.392937e-01 4.494609e-01 -1.047293e-01 4.770400e-01 1.426237e+00 -1.845743e-01 -4.463220e-03 
1.188166e+01 -1.269343e+01 -6.917116e+00 -1.077586e+01 -6.539579e+00 8.386600e+00 -6.190005e+00 3.689944e+00 -1.090969e+01 9.765985e+00 3.084887e-01 -8.070509e+00 9.652241e-01 2.667426e-01 4.787413e-01 4.022894e-02 -3.598693e-01 5.055379e-01 8.653752e-01 -4.113201e-01 -4.686594e-04 -9.184837e-04 8.743048e-02 1.789759e+00 2.041153e-01 -5.213112e-03 
1.200234e+01 -1.276310e+01 -7.263690e+00 -1.069819e+01 -6.151035e+00 8.521463e+00 -7.649295e+00 4.264319e+00 -1.162038e+01 8.404908e+00 3.224076e+00 -8.477161e+00 9.608746e-01 3.385952e-01 4.611391e-01 1.131245e-01 -5.613545e-01 6.768312e-01 4.820607e-01 1.695280e-01 -5.670532e-01 2.033018e-01 -7.677726e-01 1.964460e+00 5.342061e-01 -7.842034e-03 
1.175012e+01 -1.170736e+01 -6.289106e+00 -1.250824e+01 -5.534153e+00 1.122182e+01 -7.594064e+00 2.107980e+00 -1.019193e+01 7.144662e+00 5.274198e+00 -6.940224e+00 9.531441e-01 2.701205e-01 6.582161e-01 1.917715e-02 -5.165989e-01 6.223857e-01 -2.788180e-01 1.067460e+00 -1.034828e+00 1.521337e-01 -1.017301e+00 1.522854e+00 8.349541e-01 -1.221850e-02 
1.298356e+01 -1.179321e+01 -6.464194e+00 -1.288421e+01 -4.119151e+00 8.685554e+00 -4.343364e+00 5.907614e-01 -9.379416e+00 5.125931e+00 7.426213e+00 -6.346426e+00 9.390987e-01 3.322661e-01 1.074497e+00 -6.906977e-02 -4.062386e-01 4.952125e-01 -6.745650e-01 1.749874e+00 -1.199644e+00 2.188781e-01 -8.980940e-01 9.645420e-01 8.657074e-01 -1.721524e-02 
1.274166e+01 -9.887294e+00 -7.220978e+00 -1.226585e+01 -4.443593e+00 6.910465e+00 -2.505668e+00 3.525817e-01 -1.126951e+01 6.318968e+00 5.821688e+00 -4.961106e+00 9.150195e-01 3.805446e-01 1.216279e+00 1.979201e-01 -4.336658e-01 2.389964e-01 -6.207954e-01 1.811845e+00 -3.348311e-01 -2.637473e-01 -6.821645e-01 6.475349e-01 9.036199e-01 -2.062768e-02 
1.316790e+01 -8.300650e+00 -7.143103e+00 -1.285058e+01 -4.220253e+00 7.304317e+00 -1.444124e+00 -8.562009e-01 -9.987202e+00 4.327285e+00 7.773040e+00 -5.138184e+00 8.938606e-01 2.154983e-01 1.400669e+00 2.462784e-01 -4.612924e-01 -4.420262e-01 5.524435e-02 1.212597e+00 -8.773081e-02 -1.523508e-01 -1.139660e+00 1.690835e-01 1.241550e+00 -2.152900e-02 
1.356067e+01 -7.372240e+00 -4.960051e+00 -1.469338e+01 -4.288620e+00 8.808465e+00 1.554227e-02 1.157305e+00 -1.120678e+01 4.133162e+00 8.338459e+00 -3.026246e+00 8.726247e-01 2.043234e-01 1.226026e+00 5.458336e-01 -9.475132e-01 -3.571169e-01 2.344728e-01 8.434925e-01 1.891896e-01 1.641732e-01 -1.997441e+00 3.996953e-01 1.487848e+00 -2.132871e-02 
1.365154e+01 -6.047394e+00 -6.363266e+00 -1.397691e+01 -6.406768e+00 8.012775e+00 4.590180e-01 -2.502545e-01 -1.017254e+01 5.205357e-01 7.013246e+00 -1.106106e+00 8.526511e-01 2.585955e-02 1.645221e+00 2.546902e-02 -5.737894e-01 -2.847711e-01 -4.615467e-01 1.159681e+00 2.745455e-02 -1.238318e-02 -1.999163e+00 3.409885e-01 1.064120e+00 -2.474263e-02 
1.352145e+01 -4.883791e+00 -4.881729e+00 -1.644025e+01 -5.135919e+00 7.728601e+00 7.602232e-01 9.955568e-01 -1.035597e+01 -1.764862e+00 8.200063e+00 4.620955e-01 8.289807e-01 -1.744623e-01 2.160060e+00 -3.334192e-01 -5.497856e-02 -2.726082e-01 -1.200059e+00 1.070707e+00 -5.386137e-01 4.845619e-01 -1.603296e+00 -1.276697e-01 1.596437e-01 -3.517427e-02 
1.331681e+01 -1.318770e+00 -7.054919e+00 -1.484610e+01 -5.220459e+00 5.536516e+00 3.981938e+00 -6.380539e-01 -1.047452e+01 -2.719519e+00 9.547181e+00 -1.561753e+00 7.919695e-01 -1.376132e-01 2.540109e+00 1.862092e-02 1.423746e-01 3.682327e-02 -1.479035e+00 1.088616e+00 -6.934641e-01 1.077931e+00 -4.206234e-01 -8.638397e-01 -1.725381e-01 -4.708853e-02 
1.285573e+01 1.063748e+00 -6.281320e+00 -1.453368e+01 -6.244815e+00 4.046301e+00 3.607619e+00 -1.341863e+00 -8.632975e+00 -2.263288e+00 6.433143e+00 -2.000204e+00 7.270942e-01 -8.886957e-02 2.890378e+00 2.919578e-03 5.920981e-01 -2.514039e-01 -1.944729e+00 9.871527e-01 -7.755425e-01 1.341360e+00 6.087875e-02 -2.137305e+00 4.106173e-01 -5.595146e-02 
1.329634e+01 3.679381e+00 -5.570365e+00 -1.421832e+01 -5.668204e+00 2.458749e+00 4.478402e+00 -2.548865e+00 -5.644381e+00 -1.333368e+00 3.577507e+00 -7.376466e-01 6.681517e-01 -1.221531e-01 2.874001e+00 4.981852e-01 2.916271e-01 -4.917663e-01 -1.011919e+00 5.964830e-02 6.967025e-02 1.736999e+00 -8.649961e-01 -2.525375e+00 1.450698e+00 -5.753319e-02 
1.308734e+01 7.069023e+00 -5.609408e+00 -1.379365e+01 -6.169066e+00 -4.561627e-01 5.447754e+00 -1.926750e+00 -6.064242e+00 -2.153543e+00 4.983752e-01 2.103128e+00 6.111323e-01 -2.169300e-01 2.816812e+00 6.901964e-01 -4.198437e-02 -8.375720e-01 -5.152833e-01 -9.337450e-02 3.087331e-01 1.109545e+00 -1.165636e+00 -1.874036e+00 7.817054e-01 -4.881157e-02 
1.259024e+01 1.004860e+01 -4.899949e+00 -1.375798e+01 -7.717165e+00 2.728153e+00 3.360112e+00 2.740800e-03 -3.073891e+00 -7.099372e+00 -1.123105e-01 3.640070e+00 5.622845e-01 1.281282e-01 2.052333e+00 2.329156e-01 -3.257879e-01 -1.333206e+00 -7.592322e-01 -3.470695e-01 3.716300e-01 1.230661e-01 -8.362896e-01 -1.937565e+00 -6.457181e-01 -1.421606e-02 
1.212413e+01 1.196320e+01 -3.165546e+00 -1.497377e+01 -9.408195e+00 1.335181e+00 3.699892e+00 -1.074000e+00 -4.370496e+00 -5.208466e+00 -1.092129e+00 -2.805347e-01 5.359700e-01 4.160957e-02 1.645182e+00 3.157087e-01 6.929798e-01 -1.222969e+00 -1.591748e+00 -1.007590e-01 -4.109379e-01 1.767390e-01 -9.048877e-01 -1.961649e+00 -1.230426e+00 -1.264330e-02 
1.441859e+01 1.149396e+01 -5.627718e+00 -1.525719e+01 -1.071467e+01 -2.233084e+00 3.616986e+00 -1.117090e+00 -5.875923e+00 -3.987355e+00 -5.315065e+00 -2.774405e+00 6.346526e-01 1.303976e-01 1.432820e+00 -8.394828e-02 6.191336e-01 -9.709027e-01 -1.856166e+00 3.086762e-01 -1.264641e+00 6.143694e-01 5.154763e-01 -2.040582e+00 -1.156335e+00 -2.980649e-03 
1.238121e+01 1.457226e+01 -3.666979e+00 -9.579142e+00 -1.078516e+01 -5.934284e+00 4.815522e+00 -3.421525e+00 -3.779532e+00 -8.233991e+00 -6.708494e+00 -8.417625e-01 5.117317e-01 -9.581070e-02 2.337971e-01 -5.026865e-03 2.141310e+00 2.883515e-01 -1.883858e+00 -3.737653e-01 -1.979623e-01 9.060767e-01 4.025297e-02 -8.528792e-01 2.121132e-01 -1.198921e-02 
1.311369e+01 1.590817e+01 -5.068974e+00 -1.335962e+01 -1.188320e+01 -2.917943e+00 4.345677e+00 -5.146700e+00 -2.975266e-01 -3.009228e+00 -7.507040e+00 -1.860991e+00 5.595003e-01 -3.602561e-01 -4.663297e-01 5.722740e-01 1.854411e+00 1.110094e+00 -7.709107e-01 -4.338277e-01 1.953545e-01 1.836270e+00 2.618999e-01 -2.786048e-01 7.209017e-01 -2.697123e-02 
1.229753e+01 1.092508e+01 -3.470053e+00 -5.216009e+00 -7.382174e+00 -7.741680e+00 1.466719e+00 -4.900648e-02 -2.629311e+00 -5.496264e+00 -4.260537e+00 3.233237e-01 5.136001e-01 -2.544807e-01 -7.584046e-01 1.466832e+00 1.832877e+00 1.781530e+00 6.421617e-01 -6.785756e-01 1.748292e-01 1.746602e+00 3.732980e-01 -1.383899e+00 -2.332895e-01 -6.817228e-03 
1.265915e+01 1.098590e+01 -2.864811e+00 -8.166704e+00 -6.865690e+00 -5.183940e+00 3.122249e+00 -1.826576e+00 2.730316e+00 -4.046719e+00 -7.932067e+00 2.475598e-01 4.988623e-01 -4.972950e-01 -9.925430e-01 1.639100e+00 2.859439e+00 2.432563e+00 1.796808e+00 -2.222180e-02 -1.197080e+00 1.256438e+00 -1.205834e-01 -1.732252e+00 -3.873642e-01 -1.843739e-02 
1.133607e+01 1.324137e+01 2.565101e+00 -3.011218e+00 -4.386263e+00 -1.590476e+00 2.034359e+00 -4.207440e+00 3.439559e+00 -5.848756e+00 -1.341547e+01 -3.062485e+00 5.079646e-01 -8.861562e-01 -1.560358e+00 1.072325e+00 3.019300e+00 2.675631e+00 3.938925e+00 9.402220e-01 -1.899078e+00 1.849866e+00 2.519291e-01 -2.329503e+00 -1.220841e+00 -2.493507e-02 
1.110793e+01 9.787309e+00 1.089506e-01 -1.648254e-01 -1.218333e+00 2.990493e+00 3.950749e+00 -9.052885e+00 2.950228e+00 -3.435899e+00 -1.159083e+01 -2.104907e+00 4.701311e-01 -1.602286e+00 -2.972844e+00 8.387840e-01 4.628974e+00 2.914413e+00 2.285713e+00 3.133306e-01 -8.331333e-01 5.063705e-01 -1.022989e+00 -6.159801e-02 5.233384e-01 -5.106614e-02 
8.642353e+00 3.722584e+00 4.046931e-01 5.879553e+00 3.172303e+00 7.865729e+00 5.753579e+00 -5.931241e+00 6.510065e+00 -4.542028e+00 -1.407867e+01 -4.604650e+00 4.032903e-01 -2.368833e+00 -3.520360e+00 -8.868325e-02 3.967732e+00 2.281599e+00 -1.552321e-01 -5.104464e-01 -5.708247e-01 4.539924e-01 -5.843560e-01 1.290393e+00 1.117505e+00 -8.718432e-02 
5.994584e+00 8.810724e-01 2.409312e+00 1.053278e+01 3.927093e+00 1.516524e+00 2.829291e+00 -5.130342e+00 3.726916e+00 -9.815025e+00 -7.908459e+00 3.635334e+00 2.958688e-01 -3.183889e+00 -2.919353e+00 -1.051392e+00 9.547952e-01 1.210863e+00 -1.758231e+00 -1.962167e+00 6.335300e-01 1.266046e+00 1.167319e+00 1.320758e+00 1.208119e+00 -1.008607e-01 
2.048587e+00 9.268343e-02 9.715040e-01 1.147864e+01 4.449016e+00 -1.629652e+00 4.285502e-02 -9.022835e+00 5.321177e+00 -5.580972e+00 -8.804693e+00 -3.450804e-01 1.591741e-01 -2.942338e+00 -1.705326e+00 -1.746117e+00 -1.493880e+00 -3.722816e-01 -1.711093e+00 -1.662930e+00 1.557923e-01 -5.367298e-02 2.208242e+00 1.915403e+00 4.995213e-01 -8.851618e-02 
-1.514628e+00 -2.994506e+00 -5.431415e+00 1.809608e+00 4.197623e+00 -1.052969e+00 -3.004723e+00 -4.339438e+00 9.874903e+00 2.920169e+00 -7.624032e+00 1.805902e+00 8.788586e-02 -2.229729e+00 -5.142238e-01 -1.759144e+00 -2.150504e+00 -3.846154e-01 3.141959e-01 1.235675e+00 1.127055e+00 -1.284114e+00 1.880663e+00 9.615309e-01 -4.158552e-01 -6.176721e-02 
-2.314733e+00 -2.866259e+00 -4.405527e+00 2.771740e+00 1.175631e+00 5.950091e-01 3.559344e-01 -5.547731e+00 3.167707e+00 1.315820e-01 -4.643870e+00 -1.192327e+00 6.470090e-02 -1.350387e+00 -5.059838e-03 -4.761254e-01 -6.868212e-01 3.268259e-01 6.003177e-01 8.707062e-01 1.184201e+00 -1.089792e+00 -1.379238e+00 -2.315288e-01 4.047559e-01 -2.925783e-02 
-2.972400e+00 -2.105758e-01 -3.697891e+00 4.133709e+00 3.640709e+00 1.975172e+00 8.851129e+00 -1.232618e+00 -1.616918e+00 -3.267986e+00 -5.181217e+00 1.979682e+00 3.426933e-02 -7.399424e-01 9.958794e-01 1.305683e+00 1.873540e+00 1.020220e+00 -4.476738e-02 2.236031e-01 5.597488e-01 -8.679615e-01 -1.758409e+00 -4.356556e-02 7.375633e-01 -1.230767e-02 
-3.974462e+00 -1.324581e+00 -2.275885e+00 6.882483e+00 6.361603e+00 -1.421344e-01 -1.531540e+00 -4.655241e+00 5.618130e+00 -9.383086e+00 -1.118374e+01 1.591809e+00 3.969324e-02 2.667776e-01 2.103702e+00 2.099379e+00 2.070606e+00 1.340776e+00 -1.379751e+00 -1.423503e+00 2.317323e-01 7.128757e-01 1.555256e-01 1.099672e-01 7.545896e-01 2.002150e-03 
-4.384475e+00 1.214052e+00 3.218102e-02 9.121935e+00 6.705736e+00 -9.082345e-01 -9.429705e-01 -1.986940e+00 4.309884e+00 -1.114542e+00 -4.571922e+00 4.101651e+00 3.885132e-02 8.042580e-01 1.996636e+00 2.800977e+00 1.435080e+00 6.913336e-01 -9.419674e-01 -2.417263e-01 1.583777e+00 1.502417e+00 1.637911e+00 1.802635e+00 -1.545729e-01 1.009210e-02 
-2.748070e-01 6.939939e+00 4.226332e+00 1.063066e+01 6.346996e+00 -4.862043e+00 -1.864533e+00 -4.011909e+00 3.768685e+00 -1.675119e-01 -4.398681e+00 1.519636e+00 7.242066e-02 4.596515e-01 1.696624e+00 2.407568e+00 5.563123e-01 4.245141e-01 3.735175e-01 1.692143e+00 1.647104e+00 -1.655626e+00 4.980474e-01 1.630757e+00 -6.458670e-01 1.207912e-03 
-8.009377e-01 5.640343e+00 7.055886e+00 9.435022e+00 7.104681e+00 -3.747103e-01 7.808993e+00 6.364602e+00 6.819891e+00 3.137808e-01 4.394250e-01 1.242904e+00 6.836611e-02 1.753617e-01 8.702110e-01 1.549376e+00 1.257081e-02 3.500316e-01 4.584592e-01 8.200525e-01 7.210971e-01 -1.897985e+00 -1.091820e+00 1.095566e+00 1.214925e-01 -3.255582e-03 
-3.467973e+00 4.945395e+00 6.250102e+00 9.507502e+00 8.284701e+00 1.458691e+00 2.553192e+00 -5.954936e-01 -3.915004e+00 -7.607011e+00 -5.535632e+00 -2.081523e-01 3.097540e-02 -8.563671e-01 1.690215e-01 5.305418e-01 -3.152864e-01 -2.767163e-01 9.549017e-02 -2.174188e-01 4.989383e-01 -5.211024e-01 -5.238173e-01 1.256305e-01 6.072569e-01 -1.689461e-02 
-1.911084e+00 6.562380e+00 6.767177e+00 9.746367e+00 7.487041e+00 -1.776305e+00 9.484298e-01 -8.966243e-02 -1.338198e+00 -2.853891e+00 1.474382e+00 5.573008e+00 4.329604e-02 -8.446544e-01 7.526647e-01 -2.457064e-01 -1.482494e-01 -6.112429e-01 -6.528522e-01 -1.243490e+00 -2.431751e-01 4.218148e-01 -5.956618e-01 -6.705142e-01 -1.358656e-01 -9.612096e-03 
-4.001569e+00 7.324028e+00 7.023396e+00 8.898552e+00 4.772234e+00 -3.683794e+00 4.786549e-01 1.709915e+00 5.242217e+00 -1.202763e+00 -4.288007e+00 2.390869e+00 4.826188e-04 -1.058344e-01 7.763523e-01 -7.436379e-01 -2.900140e-01 -7.807683e-01 -5.268270e-01 5.378262e-02 1.019145e+00 2.001387e+00 1.735935e-01 -3.212214e-02 -7.006534e-01 -7.849270e-03 
-4.757411e+00 8.214350e+00 5.440707e+00 8.998250e+00 5.804699e+00 -1.067728e+00 2.628811e+00 3.996022e+00 4.350355e+00 -5.866652e+00 -3.536959e+00 -7.359347e-01 3.555202e-02 -1.653651e-01 3.328948e-01 5.168901e-02 -2.069850e-01 2.522298e-01 1.281591e-01 5.497521e-01 -3.643612e-02 6.362735e-01 -8.282259e-01 -6.424539e-01 -6.628352e-01 -1.022349e-02 
-2.573981e+00 8.001171e+00 3.195147e+00 8.431490e+00 5.222031e+00 -1.529732e+00 1.981914e+00 2.457392e+00 3.247656e+00 -5.232662e+00 -3.190572e+00 -5.569487e-01 -4.398942e-03 -2.846045e-02 4.192829e-03 5.882372e-01 2.895039e-01 9.833803e-01 3.428467e-01 1.601957e+00 -8.743451e-02 -4.008902e-01 -4.363565e-01 8.242565e-01 1.082050e+00 -5.326068e-03 
-3.451703e+00 7.888282e+00 8.939747e+00 8.944972e+00 8.523293e+00 -2.212541e+00 2.945560e+00 -6.455812e-01 2.840450e+00 -4.980070e+00 -2.286605e+00 3.732740e+00 -5.380630e-03 -6.313840e-01 -1.384401e+00 5.129555e-01 4.002019e-01 2.587251e-01 1.469142e-01 2.190604e+00 -1.742945e+00 3.468729e-02 6.347947e-01 1.884624e+00 1.861803e+00 8.197784e-03 
-4.796726e+00 7.508026e+00 8.215063e+00 1.037271e+01 8.329840e+00 -1.397155e+00 8.330064e+00 3.593544e+00 3.992719e+00 -3.827837e+00 -7.919010e-01 5.566780e+00 -5.681396e-03 -6.125675e-01 -7.054746e-01 4.242054e-01 6.338282e-01 -1.837566e-02 -1.466937e-01 1.107269e+00 -9.444396e-01 7.056056e-01 5.501261e-01 1.411649e+00 -4.865596e-02 1.298765e-02 
-6.802959e+00 1.538916e+00 5.495526e+00 1.002865e+01 5.544421e+00 -3.994465e-01 1.040776e+01 -5.286779e+00 4.151260e+00 -3.395092e+00 4.686828e+00 5.511215e+00 7.718217e-02 -5.001354e-03 3.609808e-01 1.635175e-02 8.220022e-01 -8.284668e-01 -5.043993e-01 -3.549926e-01 5.729279e-01 6.798012e-01 4.748289e-01 5.247911e-01 -5.981028e-01 6.108427e-03 
-3.961191e+00 7.648481e+00 7.038283e+00 1.105879e+01 6.619588e+00 -3.169748e+00 3.787161e+00 5.579238e-02 6.120278e+00 -3.274521e+00 3.809577e-01 -1.689466e+00 1.925790e-02 3.133745e-01 1.106078e+00 1.962793e-01 1.397003e-01 -7.231040e-01 -1.437972e-02 -1.168227e+00 -7.659340e-02 -1.117325e-02 1.014444e+00 -7.352773e-01 -4.986988e-01 -7.573796e-03 
-3.894477e+00 9.622958e+00 9.609895e+00 1.271194e+01 5.236084e+00 -3.848241e+00 3.442049e+00 3.987934e+00 5.175676e+00 -2.882584e+00 -2.490791e-01 4.370349e+00 1.269186e-02 1.567103e-01 1.470616e+00 3.106580e-01 3.480429e-01 3.390258e-01 6.675673e-01 -9.174381e-01 1.768769e+00 -8.675595e-02 1.406389e+00 -9.181979e-02 2.926936e-01 -1.772760e-02 
-4.684094e+00 8.996394e+00 7.139275e+00 9.729566e+00 4.868488e+00 2.553439e-01 5.971782e+00 -1.426780e+00 3.424644e+00 9.881275e-01 -2.000334e+00 3.643718e+00 -1.130521e-02 -5.570413e-01 5.299664e-02 -3.157243e-01 -1.278196e-01 6.867088e-01 1.437004e+00 2.783784e-01 1.498072e+00 -8.156011e-01 1.221473e+00 4.922861e-01 6.164539e-01 -3.944165e-03 
-5.657956e+00 8.218040e+00 6.998321e+00 1.243348e+01 8.115101e+00 1.225844e+00 4.728256e+00 4.298352e+00 5.065297e+00 1.505527e+00 5.418375e+00 4.308091e+00 3.825724e-03 -5.918668e-01 -3.285868e-01 -7.310944e-01 -2.676059e-01 1.043372e+00 1.595612e+00 -4.392403e-01 -3.053560e-01 -1.211976e+00 -3.908712e-01 4.927583e-02 -5.637876e-01 -1.233923e-03 
-5.864658e+00 8.615924e+00 6.765449e+00 1.055893e+01 8.613625e+00 1.478228e+00 4.535950e+00 7.390942e+00 2.097463e+00 6.387856e-01 8.661151e-03 1.423932e+00 3.970146e-03 -1.230883e-01 -2.970457e-02 -7.035880e-01 7.845321e-02 1.151695e-02 1.295903e+00 5.792493e-01 7.433032e-01 -3.042088e-02 -5.619546e-01 -4.649235e-01 -1.164600e+00 6.876367e-03 
-6.263529e+00 8.170259e+00 6.141335e+00 1.095923e+01 8.580374e+00 3.518378e+00 1.963763e+00 -1.947707e+00 -2.206156e-01 -4.662269e+00 -1.007197e+00 2.661304e+00 -1.115441e-03 3.286765e-01 4.708285e-01 5.601922e-01 -3.304524e-01 -7.003826e-01 2.536369e-01 1.264278e+00 -1.268208e+00 -9.701616e-01 -1.155126e+00 -8.115002e-01 -2.709306e-01 5.322844e-03 
-4.996748e+00 8.871761e+00 4.049828e+00 1.085895e+01 4.693436e+00 5.588592e+00 1.025027e+01 5.412766e+00 5.915496e+00 1.262253e+00 -1.112165e+00 -1.355887e+00 2.554721e-02 2.661187e-01 2.714422e-01 7.756076e-01 -3.071604e-01 -4.865655e-01 -3.338449e-01 6.055686e-01 -7.422158e-01 -6.580509e-01 -8.138996e-01 4.248444e-01 5.321239e-01 7.037044e-04 
-4.448528e+00 1.044426e+01 1.115709e+01 1.063120e+01 6.573281e+00 4.388463e-01 8.192482e+00 -1.053601e+00 -1.694527e+00 -4.581839e+00 1.921287e+00 4.343349e+00 1.965141e-02 1.199112e-01 1.296119e-01 8.074328e-01 -5.215999e-01 -3.011549e-02 -8.579041e-01 -8.295021e-02 8.181077e-01 -6.841772e-01 -2.350497e-01 5.132484e-01 5.763868e-01 -3.200060e-03 
-5.441565e+00 8.836133e+00 8.135609e+00 9.187140e+00 7.184343e+00 1.348769e+00 4.449433e+00 3.232810e+00 -4.558356e-01 -3.470927e+00 6.686413e-01 3.243530e+00 -2.894759e-03 -1.882670e-01 -1.679387e-01 5.150079e-01 -4.787691e-01 5.592875e-01 -7.569723e-01 -1.534473e+00 -7.350015e-03 -1.150397e+00 -8.355449e-01 2.308967e-01 8.099016e-01 -7.943010e-03 
