-8.579466e+00 -2.040755e+00 -3.785705e+00 -5.370730e+00 5.427115e-01 -8.391955e-01 2.371980e+00 4.716836e+00 3.772718e+00 1.742756e+01 8.419440e-01 -5.046539e+00 2.483994e-02 -3.203606e-01 1.856033e-01 3.778293e-01 7.554377e-01 1.074520e+00 -9.113939e-01 -8.670130e-01 -3.078448e-01 -1.006396e+00 -2.205655e+00 -5.888260e-01 -3.684425e-03 -5.964517e-04 
-9.688017e+00 -8.344382e-01 -2.496094e+00 -2.743120e+00 6.664831e+00 -4.497434e+00 9.692941e-01 6.992914e+00 4.285924e+00 1.188824e+01 -3.771081e+00 -1.059873e+01 2.435750e-02 -3.559719e-01 -2.777497e-01 5.492598e-01 1.053439e+00 1.194524e+00 -5.365074e-01 -1.389690e+00 6.280027e-02 -2.536878e+00 -4.196168e+00 6.963943e-01 8.073410e-01 4.957563e-03 
-9.626993e+00 -1.715897e+00 -2.541364e+00 -2.907347e+00 2.854250e+00 -3.567047e+00 -1.261742e+00 2.039574e+00 -1.515864e+00 9.168941e+00 2.043266e-01 -2.288864e+00 2.209890e-02 -3.380337e-01 -5.467737e-01 7.949211e-01 5.085422e-01 1.209305e-01 -2.139772e-01 -1.119424e+00 7.616922e-01 -2.301449e+00 -3.638606e+00 1.193507e+00 1.297184e+00 6.574035e-03 
-9.835562e+00 -3.591933e+00 -1.661577e+00 -1.335227e+00 5.359560e+00 -2.157807e+00 -2.759610e+00 6.369469e+00 -6.267379e+00 5.760202e-01 4.642724e+00 -2.388672e+00 5.099827e-02 5.289953e-01 -7.897695e-01 -6.809189e-01 -9.037035e-01 1.692489e-02 3.329933e+00 4.169426e-01 -2.103664e-01 -2.251096e+00 -1.620271e+00 1.869464e+00 1.551073e+00 1.324638e-02 
-1.019586e+01 -3.395877e+00 -2.283583e-01 -3.531965e+00 1.800000e+00 -3.078895e+00 -1.360686e+00 8.837021e+00 -2.457875e+00 4.890635e+00 2.602577e+00 -2.665652e+00 4.438972e-02 6.863791e-01 -3.212371e-01 -1.507612e+00 -8.494028e-01 4.678983e-01 2.807034e+00 1.393625e+00 6.085607e-01 1.799793e-02 6.539736e-01 9.586148e-01 4.864898e-02 9.641791e-03 
-6.758606e+00 -3.943296e+00 -7.057192e+00 -6.949328e+00 7.276581e+00 1.190816e+01 3.103479e+00 2.542359e+00 -6.498553e+00 5.926033e+00 4.377113e+00 -2.654974e+00 7.944399e-02 1.759764e-01 3.407386e-01 -1.123247e+00 -2.853393e-01 -5.527268e-02 8.834233e-02 4.951236e-01 7.895686e-02 1.645074e+00 2.420938e+00 -1.103530e+00 -8.137859e-01 -9.185195e-04 
-7.733576e+00 -3.146401e+00 -7.381614e+00 -4.347310e+00 4.235231e+00 3.435144e+00 2.774837e+00 6.995933e+00 -1.310287e+00 9.763803e+00 5.130206e+00 -1.912467e+00 5.608499e-02 1.538477e+00 -1.959346e+00 3.113266e-01 2.244460e-01 -1.699819e+00 -6.322697e-01 7.095556e-01 -7.278069e-01 6.290202e-01 -8.954919e-01 -1.472893e+00 5.259149e-01 7.838105e-02 
-1.018682e+01 -2.012978e+00 -3.701181e+00 -2.354251e+00 3.865581e+00 -4.973114e+00 -2.351753e+00 7.684797e+00 1.384200e+00 1.024413e+01 -2.138742e+00 -6.834193e+00 4.055804e-02 1.122497e+00 -1.951272e+00 1.998657e+00 1.161969e-02 -3.622633e+00 -3.023402e+00 -3.850889e-01 -8.341492e-01 1.136426e-01 -3.320470e+00 -2.144172e+00 5.148714e-01 1.907861e-01 
-7.893696e-01 -1.415776e+01 -3.497305e-01 -4.707274e+00 -4.993594e+00 2.200392e+00 4.914708e+00 2.626767e+00 -3.254150e+00 -1.745871e+00 -1.503963e+00 2.053532e+00 4.557379e-01 3.908661e-01 -6.417218e-01 2.661035e+00 -2.050380e+00 -3.335142e+00 -1.688658e+00 -1.450899e+00 -1.800068e+00 -1.344612e+00 -3.996508e+00 -1.794061e+00 -4.823024e-01 2.396553e-01 
-4.618223e+00 -8.193976e+00 -5.798503e-01 -6.711248e+00 -6.222169e+00 -2.591476e+00 1.080984e-01 5.561953e-01 -4.958408e+00 -4.921481e+00 -3.026660e+00 -2.063617e+00 8.335481e-01 -3.997191e-01 4.059987e-01 2.413167e+00 -9.949878e-01 -1.324423e+00 -9.442800e-01 -9.193062e-01 9.332044e-02 -9.991440e-01 -2.377747e+00 7.600679e-01 -2.899302e-01 1.943584e-01 
-8.563545e+00 -3.264512e+00 4.362895e+00 -1.242071e+01 -7.396603e+00 -6.198967e+00 -5.709584e+00 1.559893e+00 -4.862043e+00 -2.635934e+00 -3.396141e+00 -6.709268e+00 8.578666e-01 -1.352508e+00 2.117960e+00 1.493289e+00 9.769624e-01 1.307467e+00 -1.922082e+00 -1.790416e+00 1.907855e+00 -8.375740e-03 4.809370e-01 8.703991e-01 -1.606186e+00 4.826316e-02 
-8.298330e+00 -5.429611e+00 6.008340e+00 -3.472472e+00 -1.555031e+00 -5.494836e+00 -1.636138e+00 8.684836e+00 -2.807574e+00 -1.199577e+00 2.607687e+00 -3.902444e+00 8.112858e-01 4.819318e-01 8.922709e-01 1.287436e+00 2.231236e+00 1.708566e+00 -1.893264e+00 -1.516051e+00 1.709237e+00 1.383187e+00 1.002922e+00 1.256396e+00 2.639094e-01 -5.917905e-02 
-5.711858e+00 -4.950147e+00 3.822618e+00 -1.441850e+00 -7.898285e-01 -5.958338e+00 -3.165255e+00 8.101721e+00 -4.371446e+00 -1.202137e+00 3.085876e-02 -5.057986e+00 7.081849e-01 1.781330e+00 4.863825e-01 -2.584109e-02 3.939754e+00 1.411578e+00 -3.406889e-01 -4.256074e-01 5.083295e-01 1.516790e+00 4.703726e-01 9.777587e-01 1.819106e+00 -7.293300e-02 
-3.634408e+00 -2.889804e+00 6.127466e+00 -1.044499e+00 -9.827268e-01 -1.217811e+01 -8.744318e+00 5.831465e+00 1.712226e+00 -6.237707e-01 1.541817e+00 -1.569711e+00 6.124937e-01 2.575046e+00 1.954906e+00 1.042996e-01 3.055060e+00 -6.507695e-01 -5.075534e-01 -5.535655e-01 -1.416720e+00 1.797936e+00 -8.157333e-01 -3.437875e-01 1.078681e+00 -5.116810e-02 
-1.988855e+00 -2.102503e+00 4.174127e+00 6.064076e+00 -6.248665e-01 -4.560774e+00 -4.283531e+00 5.528227e+00 4.620090e-01 -5.719743e-01 2.025587e+00 1.219899e+00 5.925977e-01 3.240678e+00 2.397635e+00 5.323168e-01 2.462753e+00 -2.451670e+00 8.591203e-02 -1.648752e-01 -2.724863e+00 2.212528e+00 -2.427164e+00 -5.350041e-01 1.566352e+00 2.358695e-02 
2.715397e+00 2.921098e+00 6.354084e+00 8.049866e+00 -4.891359e+00 -8.731384e+00 -3.844827e+00 2.887985e+00 3.765380e+00 -5.593326e+00 -1.086147e-01 -1.647984e+00 6.132389e-01 3.418208e+00 1.381739e+00 4.406157e-01 7.085346e-01 -2.821154e+00 2.148479e+00 -1.361439e+00 -3.888666e+00 2.860229e+00 -4.309517e+00 -1.524733e+00 5.870137e-01 8.591045e-02 
7.316632e+00 4.132574e+00 6.370893e+00 6.324731e+00 -1.109386e+01 -7.252140e+00 -6.439377e+00 -4.050853e+00 5.664617e+00 -1.085318e+01 -1.818946e+00 2.812910e+00 8.257470e-01 3.113121e+00 -1.799417e-01 5.775927e-01 -1.347422e+00 -1.980247e+00 1.711576e+00 -3.164053e+00 -3.590665e+00 2.384232e+00 -3.778849e+00 -1.733711e+00 1.286271e-01 9.698036e-02 
8.803886e+00 9.013515e-01 7.232162e+00 2.367846e+00 -9.854000e+00 -9.003043e-02 -1.447359e+01 -8.822324e+00 1.341207e+01 -1.703075e+01 -4.159581e+00 5.688519e-01 9.254713e-01 1.611766e+00 -1.641805e+00 -1.594225e-01 -1.431858e+00 -1.612940e-02 2.010976e+00 -2.924178e+00 -2.597113e+00 1.576278e+00 -2.368285e+00 -1.259632e+00 8.663052e-01 7.516426e-02 
1.053250e+01 -1.992338e+00 6.623052e+00 2.167975e+00 -8.044782e+00 -3.235686e-01 -1.478941e+01 -6.569943e+00 7.559823e+00 -1.374750e+01 -4.617482e+00 7.546163e-01 9.213833e-01 3.698463e-01 -1.784730e+00 -1.291521e+00 6.829559e-01 1.573072e+00 -7.185384e-01 -8.285244e-01 -1.644587e-01 -7.155326e-01 -8.726104e-01 5.117459e-01 -2.175268e-01 2.729838e-02 
9.166292e+00 -2.225471e+00 5.430892e+00 2.968956e+00 -6.496548e+00 -2.140790e+00 -1.429070e+01 -8.838037e+00 1.069917e+01 -1.598759e+01 -5.007509e+00 3.712689e+00 9.412421e-01 -2.988803e-03 -1.212690e+00 -2.160241e+00 2.917155e+00 6.929315e-01 -3.100255e+00 2.265469e+00 -3.178138e-01 -2.662706e+00 1.465133e+00 3.595028e-01 6.197502e-01 1.259068e-02 
8.984661e+00 -3.227664e+00 8.139220e-01 9.438955e+00 -4.907230e+00 -9.819452e+00 -1.067345e+01 -4.865290e+00 3.443403e+00 -1.573781e+01 1.163748e+00 1.533570e-01 9.543535e-01 7.686230e-02 -1.521126e+00 -1.249705e+00 3.135585e+00 -1.076543e+00 -1.740409e+00 2.450155e+00 -2.038618e+00 -8.278669e-01 9.769093e-01 9.347115e-02 1.164057e+00 1.879309e-02 
9.562864e+00 -4.544434e+00 -6.644790e-01 1.331813e+01 -7.958118e+00 -1.084336e+01 -5.204230e+00 -1.126372e+01 2.156745e+00 -8.709931e+00 -5.252682e+00 3.968233e+00 9.719396e-01 5.522345e-01 -1.892282e+00 5.541658e-02 1.785252e+00 -1.773550e+00 2.284789e-01 1.629264e+00 -2.325162e+00 -7.211996e-01 1.503760e+00 -3.279522e-01 9.049241e-01 1.599347e-02 
1.071853e+01 -8.438487e+00 3.422213e+00 1.267131e+01 -1.269671e+01 -4.674328e+00 -7.081873e+00 -1.555019e+01 7.691700e+00 -1.250179e+01 -4.027540e+00 6.447130e+00 1.000000e+00 7.924682e-01 -1.514585e+00 8.992603e-01 -2.633789e-01 -1.124728e+00 1.413333e+00 9.953728e-01 -3.294322e+00 1.173080e+00 5.487021e-01 -5.507560e-01 1.269794e+00 8.100599e-03 
1.106053e+01 -9.081469e+00 4.403830e+00 1.027904e+01 -1.146956e+01 -3.570958e+00 -7.940161e+00 -1.512140e+01 4.969022e+00 -1.008681e+01 -4.051626e+00 5.090423e+00 9.983862e-01 4.262272e-01 -1.665494e-01 -8.100326e-02 -7.128462e-01 -9.084348e-02 1.371725e+00 6.714058e-02 -1.763595e+00 6.866399e-01 -2.674494e-01 6.886533e-01 5.538279e-01 -3.407323e-03 
1.219817e+01 -8.532071e+00 2.776069e+00 9.641607e+00 -8.775151e+00 -6.388992e+00 -4.328617e+00 -1.940806e+01 7.902664e+00 -1.230587e+01 -2.190560e+00 5.941233e+00 9.816332e-01 9.683838e-02 1.045636e+00 -1.257603e+00 -7.300243e-01 1.211521e+00 1.358253e-01 6.741293e-01 -7.108434e-01 -1.405890e+00 1.640156e+00 -3.049193e-01 6.091167e-01 -1.313931e-02 
1.095418e+01 -5.330389e+00 -7.464234e-01 1.126875e+01 -1.037312e+01 -3.127406e+00 -6.245155e+00 -1.815276e+01 5.484463e+00 -1.014514e+01 -2.727905e+00 6.990321e+00 9.640864e-01 4.533153e-01 8.053672e-01 -1.136756e+00 -4.090509e-01 8.583247e-01 5.813481e-01 7.239636e-01 -5.643905e-01 -1.710199e+00 1.960179e+00 -7.621471e-01 1.101330e+00 -1.583599e-02 
1.125590e+01 -5.085845e+00 -2.906759e-01 8.526335e+00 -7.187328e+00 -4.216978e+00 -4.558729e+00 -1.758873e+01 4.045300e-01 -4.271841e+00 -6.213996e+00 8.542765e+00 9.514534e-01 2.621375e-01 1.112821e+00 -8.762242e-01 -1.057172e+00 1.302647e+00 8.816765e-01 2.926230e-01 2.264633e-01 -1.975526e+00 1.362182e+00 -5.684097e-02 4.256619e-01 -1.796697e-02 
1.379824e+01 -6.777746e+00 2.534207e-01 8.791418e+00 -7.971848e+00 -1.750225e+00 -4.205287e+00 -1.885302e+01 1.670959e-01 -4.302925e+00 -5.850643e+00 9.296309e+00 9.342961e-01 9.493399e-02 1.541710e+00 -1.992837e-01 -2.116899e+00 1.196420e+00 2.000246e+00 -2.933261e-01 -2.141014e-01 -1.676752e-01 -7.581547e-01 1.327671e+00 -3.695018e-01 -1.912611e-02 
1.208683e+01 -2.244287e+00 -2.104974e+00 5.594415e+00 -3.462550e+00 -2.669200e+00 -3.885436e+00 -1.792561e+01 6.837168e-01 -8.416060e+00 -9.133959e-01 6.916548e+00 9.066935e-01 -3.140688e-01 2.579178e+00 -6.242895e-03 -2.562164e+00 1.809072e-02 3.557456e+00 -3.581335e-01 -1.483872e+00 1.652863e+00 -2.031125e+00 2.107440e+00 -9.787161e-01 -2.013890e-02 
1.101339e+01 9.573796e-01 -8.356928e-01 2.150217e+00 -6.253406e+00 6.099936e+00 -8.048432e+00 -1.905482e+01 4.506494e+00 -1.186380e+01 1.260150e+00 5.955920e+00 8.908358e-01 -6.240177e-01 3.270821e+00 3.676167e-01 -2.759713e+00 -1.080437e+00 3.791228e+00 7.369885e-01 -2.069079e+00 1.173932e+00 -8.902217e-01 1.414904e+00 -1.088052e+00 -1.996642e-02 
1.107798e+01 3.942482e+00 2.226664e-01 -9.638863e-01 -7.956096e+00 9.645219e+00 -4.427824e+00 -2.490718e+01 6.499144e+00 -1.064703e+01 7.678071e-01 5.319378e+00 8.724891e-01 -2.140480e-01 2.612320e+00 7.942410e-01 -1.557297e+00 -2.236360e+00 2.865098e+00 1.999525e+00 -1.847443e+00 -3.339416e-01 5.978318e-01 2.062168e-01 -5.234640e-01 -1.866771e-02 
1.118258e+01 6.482975e+00 9.276839e-01 -1.727997e+00 -1.112726e+01 1.104871e+01 -2.491508e-01 -2.570762e+01 3.129045e+00 -7.638551e+00 3.832747e-01 4.654633e+00 8.515662e-01 5.407095e-02 1.850698e+00 5.942386e-01 -3.118499e-01 -1.495736e+00 3.577951e-01 2.677196e+00 -6.253277e-01 -1.480052e+00 4.621774e-01 1.489555e-01 -2.334959e-01 -1.854647e-02 
1.093199e+01 8.054517e+00 9.845423e-01 -2.529635e-01 -1.220742e+01 9.181905e+00 2.212548e+00 -2.383643e+01 -2.972672e-01 -7.539527e+00 5.561258e-01 4.949872e+00 8.329897e-01 2.493053e-01 1.027431e+00 4.170097e-01 6.650321e-01 -6.412008e-01 -1.981823e+00 2.649309e+00 1.410631e+00 -1.948270e+00 -4.651872e-01 -4.572706e-01 7.656795e-01 -1.823976e-02 
1.135674e+01 8.154851e+00 1.754562e+00 2.355056e-01 -1.160642e+01 8.120568e+00 2.017364e+00 -2.271684e+01 5.044372e-01 -1.110666e+01 2.110768e+00 4.973194e+00 8.178531e-01 4.791756e-01 1.601851e-01 3.112703e-01 8.901850e-01 9.441074e-01 -3.123704e+00 1.095519e+00 2.493954e+00 -1.708120e-01 -2.031008e+00 1.047436e-01 7.561072e-01 -2.088258e-02 
1.223743e+01 8.243697e+00 1.894275e+00 1.379523e+00 -1.092252e+01 1.200172e+00 7.685464e+00 -1.934942e+01 -1.929905e+00 -1.123890e+01 -2.382293e+00 8.988495e+00 7.981468e-01 4.640165e-01 -1.270827e-01 3.070902e-01 4.382550e-01 2.647058e+00 -2.669305e+00 -8.825536e-01 2.681945e+00 1.601768e+00 -2.211370e+00 -4.397120e-01 1.850148e+00 -2.879487e-02 
1.292574e+01 7.189310e+00 2.029169e+00 1.906684e+00 -7.049174e+00 -5.789491e-01 2.491986e+00 -1.548136e+01 3.091304e+00 -1.594390e+01 2.376202e+00 6.415857e+00 7.645747e-01 1.936258e-01 2.821768e-01 -9.805401e-01 -3.541237e-01 4.299970e+00 -9.082727e-01 4.603105e-01 2.257767e+00 3.855703e-01 -7.376919e-01 -6.578230e-01 1.426773e+00 -4.917864e-02 
1.246757e+01 7.901874e+00 2.382690e+00 1.102722e+00 -1.250755e+00 1.851382e-01 -2.437531e+00 -1.404445e+01 6.418139e+00 -1.617776e+01 -1.775151e+00 1.347928e+01 7.156546e-01 -6.158604e-01 2.927723e-02 -1.543661e+00 -4.484239e-01 5.138574e+00 1.794551e+00 1.139573e+00 2.541811e+00 -5.161194e-01 5.741669e-01 6.392595e-01 -1.187301e-01 -7.570423e-02 
1.220979e+01 9.736647e+00 -3.392345e+00 -1.396712e+00 5.057549e+00 4.086721e+00 9.380414e+00 -1.408049e+01 -1.741733e+00 -1.232570e+01 -1.481917e+00 9.861664e+00 6.132060e-01 -1.053811e+00 -1.175524e+00 -1.274827e+00 1.315002e-01 4.971965e+00 1.876494e+00 2.283646e+00 4.862518e+00 -1.799478e+00 3.216836e+00 -3.044645e-01 -1.596171e+00 -1.012461e-01 
9.516097e+00 7.116415e+00 -3.113271e+00 7.891016e-01 8.716985e+00 7.840094e+00 9.939113e+00 -7.340801e+00 -2.093984e+00 -1.017717e+01 2.743064e+00 6.671941e+00 4.953100e-01 -1.577356e+00 -2.220442e+00 -1.533042e+00 7.265143e-01 4.624460e+00 2.128711e+00 1.438523e+00 6.636041e+00 -1.960182e+00 5.372854e+00 5.876721e-01 -3.498501e+00 -1.180037e-01 
9.132420e+00 1.704417e+00 -1.596984e+00 2.720995e+00 1.282678e+01 4.976045e+00 7.721893e+00 5.479410e+00 -1.650025e+00 -2.860013e+00 -1.405228e+00 1.838670e+00 3.685165e-01 -1.804512e+00 -1.604267e+00 -1.053715e+00 -3.221663e-01 2.241075e+00 9.676754e-01 -1.508782e+00 5.167486e+00 -2.464138e+00 4.247535e+00 -1.168504e-02 -2.862534e+00 -1.162489e-01 
6.119481e+00 8.157773e-01 -6.180200e+00 2.676440e+00 1.798693e+01 1.038403e+01 5.584342e+00 9.355810e+00 -3.428623e+00 5.953671e+00 1.124865e+00 -1.726627e-03 2.479806e-01 -1.963823e+00 -3.431181e-01 -1.460627e+00 -2.543744e+00 3.678493e-01 9.500629e-01 -1.168052e+00 2.154095e+00 -2.071501e+00 2.968685e+00 -5.626562e-01 -1.539156e+00 -1.036391e-01 
4.885541e+00 4.865632e+00 -7.127457e+00 -3.951213e+00 1.162795e+01 7.653131e+00 4.013890e+00 3.408633e+00 -1.339510e+01 8.465543e-01 -7.312427e-01 -1.114172e+00 1.556262e-01 -2.391826e+00 9.301443e-01 -3.197626e-01 -1.985234e+00 -2.278732e+00 5.668262e-01 -2.190782e-01 7.128214e-01 -1.092601e+00 1.456063e+00 2.066321e-01 2.343944e-01 -7.034678e-02 
1.820424e+00 3.820217e+00 -7.651169e+00 -8.593513e+00 1.115565e+01 1.125187e+01 5.952852e+00 4.465065e+00 -6.578952e+00 2.812966e+00 -4.072091e-01 4.525843e-01 8.355957e-02 -1.927061e+00 8.616379e-01 1.548621e+00 2.824157e-01 -2.646736e+00 -6.778221e-01 3.810521e-01 1.652969e+00 1.211815e-01 -4.057052e-01 4.379694e-01 1.069936e+00 -3.882980e-02 
-6.771812e-01 4.852919e+00 -2.460313e+00 -1.570198e+00 4.848762e+00 7.376258e+00 6.442247e+00 1.148889e+01 -5.537868e+00 5.990654e+00 3.939698e-01 2.783487e+00 9.899312e-02 -2.179401e+00 -8.781061e-02 2.743906e+00 3.393763e+00 -1.885113e+00 -2.168668e+00 1.675515e-01 2.988522e+00 1.428631e+00 -3.289545e-02 -1.143341e-01 2.339895e-01 6.818569e-03 
-7.344608e-01 5.130324e+00 -7.706652e-01 2.898011e+00 8.142847e+00 7.133355e+00 6.275424e+00 1.358053e+01 -6.751332e+00 1.353096e+00 2.752106e+00 3.399126e+00 8.214813e-02 -2.361573e+00 7.417021e-02 2.211892e+00 2.049868e+00 -8.204490e-01 -4.107539e+00 -4.424350e-01 1.661590e+00 1.321646e+00 4.773863e-01 -2.906730e-02 -9.180997e-01 2.371787e-02 
-4.734020e+00 3.771525e+00 3.151819e+00 7.271838e+00 3.708787e+00 -1.130957e+00 4.690361e+00 1.379351e+01 -6.165757e+00 1.412012e+00 -2.882571e+00 -1.417495e+00 1.904247e-01 -2.540912e+00 -2.603292e-01 5.705819e-01 -7.724038e-01 7.391914e-01 -3.359442e+00 -2.261371e-01 -1.442968e-01 2.472151e+00 8.957747e-01 -5.974978e-01 -2.133678e+00 3.039760e-02 
-7.959019e+00 4.731765e+00 6.022230e-01 -2.765191e+00 7.623388e+00 -5.032222e+00 4.616620e+00 1.162070e+01 3.432252e-01 7.489218e+00 1.085725e+00 -2.037423e+00 1.564331e-01 -1.717232e+00 -8.535547e-01 -6.487788e-01 -1.922835e+00 -2.682988e-01 -1.550893e+00 2.874357e-01 -1.966238e-02 2.685221e+00 2.504254e+00 6.862279e-01 -1.060890e+00 -5.189943e-03 
-9.769464e+00 3.750552e+00 -2.938472e-01 -2.600616e+00 8.804447e+00 -3.338166e+00 6.140964e+00 1.174732e+01 3.275611e+00 7.401466e+00 -1.760328e+00 -5.166629e+00 2.138386e-01 -1.457804e-01 -8.712705e-01 -1.083308e+00 -1.955092e+00 -6.462701e-02 1.296107e+00 7.299424e-01 4.600408e-01 1.515192e+00 3.420103e+00 2.034961e+00 -2.230444e-01 -4.200060e-02 
-6.802898e+00 8.730373e-01 -2.291726e+00 -1.779936e+00 4.253523e+00 4.824936e-01 6.987301e+00 1.450531e+01 1.954091e+00 1.087964e+01 5.622124e+00 -3.075743e-02 4.449147e-02 3.063787e-01 -1.357506e+00 -4.088071e-01 3.654613e-01 -4.849169e-01 1.383104e+00 1.549210e-01 3.347922e-01 -5.095184e-01 2.701545e+00 1.454723e+00 -5.969672e-01 -4.364106e-02 
-6.040982e+00 1.344536e+00 -8.177431e-01 -2.996251e+00 5.070585e+00 2.592220e+00 7.154733e+00 1.465141e+01 6.047702e-01 1.681732e+01 5.024035e+00 -3.536050e+00 3.639257e-02 1.548084e-01 -6.862770e-01 3.720556e-01 -2.802659e-01 -8.973600e-01 -1.934900e-01 -2.641768e-01 7.243733e-01 -7.083939e-01 1.462070e+00 3.388922e-01 -9.567372e-01 -4.322388e-02 
-8.291367e+00 -8.527573e-01 -1.179865e+00 -7.400670e-01 7.065735e+00 -1.081897e+00 4.884340e+00 1.184262e+01 -8.689463e-01 1.628902e+01 4.967160e+00 -5.837549e+00 2.695084e-02 -7.397992e-01 -4.952951e-01 1.414106e-02 -1.541324e+00 -2.930986e-01 -2.554726e-01 -1.244173e+00 -9.125302e-01 -6.850837e-01 -4.974246e-01 -1.067215e+00 -1.408744e+00 -1.081132e-02 
-8.251188e+00 1.182065e+00 1.010500e+00 -4.521880e+00 2.911542e+00 -3.523421e+00 5.871560e+00 1.670053e+01 1.145160e+00 1.200712e+01 2.616145e-01 -7.046919e+00 6.489575e-03 -6.246079e-01 -3.275412e-01 3.351175e-02 -4.577147e-01 -8.631001e-01 6.458352e-02 -1.222811e+00 -2.567303e+00 -1.161564e+00 -7.803234e-01 -2.946545e-01 -3.423841e-01 -7.356835e-03 
-9.396791e+00 -1.522202e+00 -3.135142e+00 -8.723742e+00 3.867551e+00 2.262951e+00 1.408021e+00 8.918102e+00 -1.741522e+00 1.079761e+01 2.667257e+00 -5.319043e+00 5.386353e-03 -2.650049e-01 -3.044451e-01 -3.489543e-01 -4.299029e-01 -1.120093e+00 -2.628343e-01 -2.243906e+00 -2.418201e+00 -1.033811e+00 -3.595200e-01 -1.340311e-01 7.156157e-01 3.457725e-04 
-8.611309e+00 4.155278e-02 3.274544e-01 -1.292986e+00 2.354176e+00 1.242713e+00 2.778839e+00 3.277155e+00 -4.766762e+00 1.566140e+01 4.700714e+00 -5.507224e+00 1.039064e-02 -2.295032e-01 -4.422116e-01 -5.201365e-01 2.974006e-01 -4.412486e-01 1.196721e-01 -1.231768e+00 -2.466932e+00 -2.041832e+00 -1.041186e+00 6.027745e-01 1.712078e+00 2.654868e-03 
-9.436331e+00 -1.804727e+00 -2.583114e+00 -4.504028e+00 1.743952e+00 -4.779136e+00 -4.788832e+00 6.463302e+00 -3.082041e+00 1.266428e+01 2.077455e+00 -3.029318e+00 2.672917e-02 -3.409185e-01 -2.040854e-01 3.557677e-02 1.526705e-01 -2.768296e-01 -1.017870e+00 -3.581160e-01 -1.329973e-01 -7.999040e-01 -1.762935e+00 -3.384561e-01 8.004307e-01 -6.765425e-04 
-9.378935e+00 -8.877310e-01 -1.866197e+00 -5.144734e+00 1.767098e+00 5.959833e-01 2.811148e+00 5.593271e+00 -8.393742e+00 5.867859e+00 3.570388e+00 3.686094e-01 9.092510e-03 -1.625177e-01 6.337263e-02 -5.362515e-01 -6.998047e-01 5.749954e-01 3.420436e-01 2.831025e-01 1.068463e+00 1.338516e+00 -1.452702e+00 -7.078912e-01 -5.521769e-01 1.431692e-03 
-1.071757e+01 -2.077988e+00 -1.860433e+00 -6.034516e+00 2.776942e+00 -2.503036e+00 -3.987136e-01 7.095057e+00 -3.927553e+00 6.879708e+00 1.540140e+00 -4.254806e+00 2.652705e-03 2.228554e-01 3.860922e-01 7.791507e-01 4.065580e-01 2.401306e-01 1.261467e+00 1.467960e+00 3.244638e-02 1.504532e+00 -1.866453e-01 -2.235729e-01 -1.099134e+00 1.500022e-03 
-8.783278e+00 4.950464e-01 -2.715144e+00 -4.026765e+00 4.712658e+00 1.814882e+00 1.999292e+00 8.303591e+00 2.348574e+00 1.129018e+01 1.429915e+00 -7.655364e+00 2.958733e-02 5.286558e-01 5.095955e-01 9.480041e-01 1.064288e+00 2.955386e-01 5.364870e-01 4.095140e-01 1.246711e+00 2.097206e+00 2.475381e-01 -2.820556e-01 -1.707079e+00 5.935669e-04 
-8.619883e+00 -5.656546e-01 1.737113e+00 -3.030222e+00 1.471825e+00 9.187489e-01 2.956897e+00 5.270374e+00 -9.305377e-01 9.019895e+00 2.029827e+00 -4.513003e+00 2.398187e-02 6.307638e-01 6.715299e-01 2.445658e-01 9.669075e-01 -2.595209e-01 6.405336e-01 7.851936e-01 8.129120e-01 4.109767e-01 2.797365e-03 2.391379e-02 4.899612e-01 1.633072e-03 
-7.784500e+00 9.040799e-01 1.075051e+00 -1.325440e+00 3.897350e+00 1.567526e+00 3.180912e+00 1.273917e+01 5.937812e-01 6.035457e+00 1.915266e+00 -8.037686e+00 1.395762e-03 5.143719e-01 5.175821e-01 -2.208765e-01 3.275451e-01 -4.859241e-01 -3.915222e-02 -2.951758e-01 1.408737e+00 -8.191212e-02 -3.842751e-01 -1.801300e-01 9.532363e-01 8.880126e-03 
-8.063141e+00 1.075145e+00 -2.532701e+00 -2.550642e+00 1.886991e+00 8.233101e-01 2.936444e+00 8.941828e+00 -9.952729e-01 9.521056e+00 1.417033e+00 -1.613839e+00 2.491385e-02 4.684457e-01 7.265112e-01 -1.016899e+00 -4.151540e-01 6.982782e-02 -5.344051e-01 8.264382e-02 1.786044e+00 4.873716e-01 -1.458345e-01 -5.316076e-01 2.931881e-02 1.025739e-02 
-6.489789e+00 2.262557e+00 -1.684619e+00 -2.628830e+00 2.075454e+00 1.666840e+00 5.336397e-01 1.351155e+01 1.971381e+00 9.118222e+00 8.356619e-01 -4.338765e+00 7.352197e-02 -1.580878e-01 1.591996e-01 -1.329028e-01 -4.102859e-01 1.087715e+00 -7.079095e-01 -3.490681e-01 7.877412e-01 -9.907343e-02 -5.036557e-01 -6.365100e-01 8.066639e-01 7.062566e-03 
-6.925010e+00 2.387663e+00 -1.967544e+00 -4.454297e+00 2.731912e+00 -1.802934e+00 4.693752e+00 1.381440e+01 8.175206e-01 6.749340e+00 -8.840865e-02 -6.215870e+00 3.920573e-02 8.497381e-02 4.432500e-01 9.903291e-01 2.010189e-01 1.818024e+00 6.160169e-01 5.453898e-01 -8.005257e-02 -1.151491e+00 -1.363135e+00 -1.089872e+00 -5.341382e-01 2.370852e-03 
-9.144005e+00 1.043819e+00 1.279584e-01 -2.425042e+00 8.913465e+00 -6.588997e-01 5.569174e-01 1.424159e+01 -8.079827e-01 4.903037e+00 -5.145626e-01 -1.703351e+00 2.956265e-02 -2.066059e-02 1.333180e-01 1.030751e+00 8.828523e-01 1.659999e+00 1.026284e+00 1.143175e+00 -7.485591e-01 -1.826856e+00 -4.870481e-01 -7.376226e-01 -1.231218e-01 -3.474599e-03 
-6.311164e+00 3.900764e+00 1.512656e+00 -1.647441e+00 7.558105e+00 5.066264e+00 5.651754e+00 8.176545e+00 -5.363046e+00 4.812974e+00 -3.357213e+00 -5.602237e+00 5.874777e-02 2.293980e-01 6.986461e-02 8.994242e-01 1.247965e+00 9.509775e-01 1.435574e+00 7.367119e-01 -4.107342e-01 -1.304490e+00 4.551778e-01 -2.962766e-01 -1.648480e-01 3.115976e-03 
-6.900015e+00 2.172597e+00 1.729037e+00 3.820033e-01 7.962355e+00 3.363659e+00 5.770514e+00 1.258768e+01 -4.072614e+00 7.651165e+00 -1.218049e+00 -5.261190e+00 4.637796e-02 3.899129e-01 5.293889e-02 3.418538e-01 7.643535e-01 -1.497972e-01 6.342512e-01 1.054595e+00 1.103325e-01 -5.238830e-01 8.334447e-01 7.321920e-02 -6.774632e-01 2.126080e-03 
