-6.006835e+00 2.642282e+00 -2.511968e+00 -4.240840e+00 2.728549e+00 8.737149e-01 9.415627e-01 1.131213e+00 -1.136200e+00 3.906377e+00 2.287080e+00 4.723361e+00 9.044760e-02 -1.137203e+00 -9.127866e-01 -5.800854e-01 2.292908e-01 6.585400e-01 1.500954e-01 2.364890e+00 2.378761e+00 3.729900e-01 -1.207256e+00 -3.596994e-01 -2.717075e-01 5.117035e-03 
-1.020797e+01 -1.731308e+00 -6.008764e+00 1.500521e-01 2.831197e+00 2.835618e+00 9.313171e+00 1.142793e+01 2.556398e+00 -1.437212e+00 4.040979e-01 2.710810e+00 2.094315e-01 -1.170374e+00 -6.204904e-01 -5.103192e-01 -5.870120e-01 6.320484e-01 -4.671625e-01 1.575357e+00 6.445410e-01 6.404399e-02 3.707433e-01 -4.244056e-02 -3.107011e-01 -1.151182e-02 
-9.592283e+00 2.651435e-01 -3.663997e+00 -5.289832e+00 5.969925e+00 6.432403e-01 8.580209e+00 7.876657e+00 -1.117549e+00 5.418944e-01 1.430074e+00 4.371099e+00 5.654085e-02 -8.510309e-01 -3.959285e-01 -4.189730e-01 -9.795907e-01 2.113481e-01 -1.186956e+00 -5.516810e-01 -1.350796e+00 -5.286883e-01 1.353232e+00 -5.471240e-01 -8.345217e-01 -2.686544e-02 
-1.006598e+01 7.283984e-01 -4.487550e+00 -6.651404e+00 4.268104e+00 -1.346860e+00 4.999027e+00 9.811969e-01 -8.253059e-01 7.442335e+00 2.503380e+00 3.345986e+00 4.984188e-02 -2.490396e-01 3.491413e-01 4.551290e-01 -8.800599e-01 -1.633941e-01 -1.445815e+00 -2.307201e+00 -2.913099e+00 -4.662560e-01 2.202986e+00 -2.987567e-01 -4.542399e-01 -3.284090e-02 
-1.033298e+01 -5.672145e-01 -5.367441e+00 -5.738066e+00 3.066837e+00 -2.969828e+00 3.402295e-01 -3.993960e-01 -2.088789e+00 6.232762e+00 -1.498181e+00 2.331644e-01 3.591520e-02 -4.881573e-01 -1.937392e-01 2.612332e-02 1.084645e-01 -8.845194e-01 -1.460544e+00 -1.691867e+00 -1.624792e+00 2.328484e-01 1.037438e+00 -8.526704e-01 -9.031280e-01 1.935953e-03 
-1.108282e+01 4.305772e-01 -2.881398e+00 -4.026131e+00 3.465771e+00 -2.586922e+00 1.897157e+00 1.000467e+00 7.107381e-01 6.732286e+00 3.744420e-01 2.508577e+00 5.553979e-02 -1.528210e-01 -1.807607e-01 3.299899e-01 -3.935661e-01 -4.719639e-01 -6.234373e-01 -1.867640e-03 4.197178e-01 6.129772e-01 -7.660162e-01 -3.128932e-01 -7.278593e-01 3.343672e-03 
-1.152465e+01 -5.546420e-01 -4.336456e+00 -6.060146e+00 1.948495e+00 -6.039448e+00 1.671807e+00 -2.569405e-01 -7.213292e-01 6.084110e+00 -1.768809e+00 2.741638e-01 6.337166e-02 2.606142e-01 1.244686e-01 2.902849e-01 -6.996344e-01 -1.755890e-01 8.670077e-01 1.416905e+00 3.021621e-01 8.502011e-01 -2.902871e-01 1.057940e+00 3.180649e-01 1.330858e-03 
-1.023425e+01 -1.816912e-01 -3.353092e+00 -8.458194e+00 2.467455e+00 -2.929237e+00 4.323900e+00 3.008558e+00 1.555850e+00 3.686580e+00 1.074228e+00 -3.138096e-01 5.283201e-02 4.373516e-01 -1.987191e-01 -2.544021e-01 -3.898095e-01 7.333229e-02 1.881795e+00 3.056619e+00 4.848916e-01 5.174609e-01 2.598951e-02 5.805470e-01 6.610390e-01 -8.053625e-03 
-9.454197e+00 3.612627e-01 -3.680169e+00 -7.020206e+00 2.688050e+00 1.536368e+00 6.211382e+00 1.073687e-01 1.739660e+00 6.304180e+00 3.441628e+00 3.234683e+00 4.392338e-02 3.051523e-01 -5.381682e-02 -7.518220e-02 6.005131e-01 8.167560e-01 2.162870e+00 2.400466e+00 1.316780e+00 1.427336e+00 2.888244e-01 -6.849504e-01 3.025561e-01 -4.757273e-03 
-9.931290e+00 -1.020971e+00 -4.481552e+00 -5.495149e+00 3.462655e+00 3.034146e+00 1.491047e+01 3.242770e+00 2.067548e+00 6.752199e+00 6.719586e-01 4.333513e+00 2.499580e-02 1.870728e-03 -6.349589e-02 -3.873040e-01 6.622176e-01 5.070766e-01 -5.764858e-01 -8.414814e-01 3.368285e-01 4.725437e-01 1.940865e-01 -3.335675e-01 1.130302e-01 -2.970755e-03 
-1.015037e+01 -4.040864e-01 -4.148137e+00 -4.539104e+00 5.534675e+00 1.793212e+00 8.380853e+00 6.209852e+00 6.159500e+00 5.995423e+00 -4.992427e+00 -5.367171e-01 5.350339e-02 8.200016e-02 -5.813958e-02 -1.393496e-01 -4.920144e-01 -3.094658e-01 -6.483928e-01 -6.998218e-01 1.222590e+00 4.390567e-01 -1.158407e+00 -1.990522e-01 -4.679272e-01 -2.605867e-03 
-9.876814e+00 -1.164961e-01 -5.055628e+00 -6.387657e+00 3.579526e+00 -5.940087e+00 -9.682426e-01 1.641459e+00 1.708649e+00 4.811391e+00 3.623418e+00 2.137041e+00 3.318822e-02 2.385352e+00 4.447220e-01 5.814975e-01 -2.495489e+00 -1.850819e+00 -6.424755e-01 -2.677300e+00 -9.976510e-01 -1.562058e-01 -1.729795e+00 2.435582e-01 -7.006299e-01 3.563211e-02 
-9.071434e+00 -3.816725e-01 -4.089879e+00 -9.034023e+00 1.082285e+00 2.781521e+00 1.065163e+01 7.020976e+00 4.114393e+00 1.482547e+00 9.706370e-01 1.993282e+00 2.679783e-02 3.718451e+00 -5.121542e-01 1.727207e+00 -2.839287e+00 -3.856132e+00 -1.957642e-01 -1.204397e+00 -1.868177e+00 -1.358650e+00 -1.743661e+00 1.170255e+00 -3.143919e-01 1.472282e-01 
1.456000e+00 1.191433e+00 -1.603194e+00 -1.572513e+01 -3.565246e+00 -6.723863e-01 3.885803e-01 -2.151046e+00 2.309072e+00 3.596613e-01 -1.091782e+00 -4.346367e-01 2.165092e-01 3.769425e+00 -1.864179e+00 3.328957e+00 -1.319494e+00 -5.206031e+00 -3.070568e-01 -4.287952e-01 -1.630411e+00 -1.790262e+00 -9.766175e-01 5.969924e-01 -7.097293e-01 2.231163e-01 
2.775475e+00 -3.618821e+00 2.761681e+00 -1.406680e+01 -1.017360e+01 -1.819460e+00 1.680454e+00 -1.234779e+00 -9.339628e-01 -4.970183e-01 3.216449e+00 -8.228375e-01 6.979836e-01 2.769972e+00 -2.214210e+00 2.786399e+00 2.660522e+00 -2.268276e+00 -2.385015e+00 -6.197490e-01 -2.448055e-01 -1.155221e+00 -5.906088e-01 6.969988e-01 1.385361e-01 1.646950e-01 
3.046857e+00 -7.818817e+00 8.163380e+00 -1.046873e+01 -1.682269e+01 -5.174881e+00 1.373368e+00 -2.382718e+00 -4.718485e+00 9.180865e-01 5.485473e+00 -3.545374e-03 8.131768e-01 2.373384e+00 -1.258482e+00 1.403464e+00 7.004331e+00 1.474333e+00 -2.599862e+00 -1.218696e+00 7.525243e-01 -8.196304e-01 -8.064095e-01 -1.204247e+00 1.008798e+00 7.114401e-02 
3.982995e+00 -6.947597e+00 4.958833e+00 1.640390e+00 -3.630376e+00 -6.892309e+00 7.060489e+00 5.912784e+00 1.852067e+00 -1.749710e+00 1.167003e+00 2.470417e+00 5.519392e-01 4.054276e+00 9.052523e-01 -1.696444e+00 5.393399e+00 3.992982e+00 -5.584483e-01 -3.053804e+00 -1.829806e+00 -1.547840e+00 9.488940e-02 -2.518381e+00 -4.677817e-01 -6.606477e-03 
1.271916e+01 -3.436590e+00 4.315552e+00 1.144293e+01 5.348072e-01 -1.113527e+01 -8.394918e+00 -1.962206e+00 -3.182095e+00 -3.046041e+00 -6.088295e+00 2.962727e+00 6.452515e-01 4.538000e+00 1.177903e+00 -4.298180e+00 2.427001e+00 4.069377e+00 3.430656e+00 -5.410254e+00 -4.313073e+00 -5.900342e-01 1.441797e+00 -2.372558e+00 -1.647163e+00 2.082056e-02 
1.821070e+01 -1.283674e+00 -3.796625e+00 1.944360e+00 1.112566e+00 -1.631507e+00 -8.704424e+00 -1.059406e+01 -9.441358e+00 1.959492e+00 -3.588572e+00 -4.644882e+00 7.489139e-01 3.422777e+00 2.597992e-01 -4.235042e+00 -9.271936e-01 9.672677e-01 5.778449e+00 -6.332942e+00 -5.673499e+00 -5.379619e-01 2.278748e+00 -8.917791e-01 -2.513045e+00 8.101390e-02 
1.862300e+01 -4.761264e+00 -8.949790e+00 1.514289e+00 1.152730e+00 9.347999e+00 -1.779545e+01 -1.569466e+01 -2.021945e+00 6.272469e+00 -3.999530e+00 -4.681711e+00 8.187922e-01 9.875236e-01 -5.222926e-01 -3.438594e+00 -2.082880e+00 -3.396690e-02 5.814730e+00 -3.959380e+00 -3.632605e+00 1.077200e+00 1.749959e+00 3.883311e-01 -2.207156e+00 6.544938e-02 
1.814496e+01 -4.986264e+00 -9.583707e+00 1.968741e+00 8.970015e-01 1.175830e+01 -1.990396e+01 -1.558849e+01 -1.417818e+00 4.984777e+00 -4.336275e+00 -6.272588e+00 8.702383e-01 -7.490683e-02 -8.259144e-01 -1.450651e+00 5.459604e-02 -2.874424e-01 2.596848e+00 -3.888331e+00 -1.597201e+00 2.280685e+00 -1.531086e-01 -9.652245e-02 -5.334486e-01 5.022284e-02 
1.768965e+01 -4.196758e+00 -9.983877e+00 1.016338e+00 4.727552e-01 1.124347e+01 -2.259205e+01 -1.762802e+01 -1.807864e+00 4.191110e+00 -3.772787e+00 -7.259201e+00 9.118361e-01 -2.880138e-01 -3.691455e-01 -4.420875e-01 8.183702e-01 -8.104627e-01 -1.801126e-01 -2.369517e+00 -3.881597e-01 1.836208e+00 -1.291384e+00 1.771050e-02 -2.098457e-01 4.183885e-02 
1.830284e+01 -5.695498e+00 -1.053284e+01 2.466315e+00 1.534176e-02 1.040500e+01 -2.574778e+01 -1.761339e+01 1.855029e+00 2.234629e+00 -4.184556e+00 -6.023380e+00 9.535061e-01 -4.849895e-01 -9.729832e-01 7.242138e-01 6.037821e-01 -7.711418e-01 -1.446580e+00 -1.475986e+00 1.945232e-01 2.790106e+00 -1.364028e+00 -4.879209e-01 3.962759e-01 3.340398e-02 
1.710399e+01 -6.252374e+00 -1.068566e+01 5.357353e+00 -2.458754e+00 9.124089e+00 -2.672112e+01 -1.662301e+01 5.522670e+00 1.190625e+00 -3.986837e+00 -5.855543e+00 9.863526e-01 -4.617550e-01 -1.292971e+00 1.766969e+00 1.098969e+00 -1.526448e+00 -2.097838e+00 -7.615109e-02 1.787710e+00 2.737250e+00 -1.521646e+00 -1.276334e+00 1.464060e+00 1.719486e-02 
1.601284e+01 -8.823372e+00 -5.611745e+00 2.817144e+00 -1.492953e+00 5.585098e+00 -2.521935e+01 -1.511838e+01 8.867447e+00 -3.351212e-01 -6.668854e+00 -4.993037e+00 1.000000e+00 -4.751805e-01 -8.020474e-01 2.459342e+00 1.132100e+00 -1.965769e+00 -2.625533e+00 9.241144e-01 3.664333e+00 1.342254e+00 -2.530518e+00 -1.061684e+00 2.244994e+00 -5.792618e-04 
1.652588e+01 -9.097679e+00 -3.609577e+00 6.335768e+00 -6.405338e+00 3.164236e+00 -2.323702e+01 -9.936975e+00 8.372177e+00 -2.132245e+00 -8.912308e+00 -4.540737e-01 9.745635e-01 -4.869181e-01 -1.916666e-01 2.624574e+00 9.052776e-01 -2.060907e+00 -2.624681e+00 2.144078e+00 3.473419e+00 4.411407e-01 -3.548265e+00 -1.621128e-01 2.360650e+00 -1.511196e-02 
1.621600e+01 -8.283083e+00 -1.774168e+00 7.637607e+00 -7.840212e+00 2.572563e-01 -2.286926e+01 -2.634741e+00 7.141547e+00 -8.756525e+00 -7.030240e+00 2.500854e+00 9.565043e-01 -5.905839e-01 4.051703e-01 2.129533e+00 1.223901e+00 -2.129087e+00 -2.313924e+00 2.954118e+00 2.775968e+00 -9.860781e-01 -3.545320e+00 1.358779e+00 2.104069e+00 -2.221859e-02 
1.456782e+01 -7.480852e+00 5.184171e-01 7.473510e+00 -9.589662e+00 -1.335394e+00 -1.717578e+01 -5.497732e+00 8.591323e+00 -1.234000e+01 -4.616709e+00 2.200762e+00 9.325406e-01 -9.916391e-01 4.983043e-01 2.549548e+00 -2.488365e-02 -9.233490e-01 -1.636774e+00 2.940314e+00 1.332373e+00 -1.437171e+00 -2.673823e+00 2.131788e+00 7.898538e-01 -2.201518e-02 
1.403895e+01 -7.605934e+00 2.971924e+00 8.367776e+00 -1.054623e+01 -3.734705e+00 -1.347938e+01 -3.458159e+00 3.827484e+00 -1.295785e+01 -2.022758e+00 4.199893e+00 9.099185e-01 -1.097147e+00 6.713124e-01 2.582486e+00 -3.000278e-01 -4.524881e-01 -1.000225e+00 2.644936e+00 -5.677470e-01 -1.271768e+00 -1.037004e+00 1.557441e+00 -2.305035e-01 -2.224084e-02 
1.265620e+01 -6.944732e+00 6.765117e+00 5.846265e+00 -9.669076e+00 -3.023653e+00 -1.323039e+01 -2.863402e+00 2.843352e+00 -1.340070e+01 -7.571095e-01 2.645676e+00 8.877805e-01 -1.059901e+00 1.127413e+00 2.269331e+00 -1.445636e-01 -1.230309e-01 -1.062806e+00 2.093376e+00 -9.945795e-01 -1.426839e+00 -4.268014e-01 1.311743e+00 -6.439029e-01 -2.100691e-02 
1.168607e+01 -5.194581e+00 8.014912e+00 6.951090e+00 -1.006295e+01 -3.899742e+00 -1.161728e+01 -6.790641e+00 3.656692e+00 -1.341120e+01 -1.172832e+00 1.125879e+00 8.676802e-01 -1.173948e+00 1.805830e+00 1.951018e+00 8.318023e-02 -4.320138e-01 -1.489095e+00 2.507658e+00 -5.863872e-01 -1.870583e+00 -1.071811e+00 1.947631e+00 -1.064733e+00 -1.722769e-02 
1.044476e+01 -3.049466e+00 9.343578e+00 7.459035e+00 -1.044646e+01 -6.566907e+00 -7.639950e+00 -8.804389e+00 1.542524e+00 -1.424733e+01 1.517044e+00 5.182542e-01 8.486252e-01 -1.392891e+00 1.687644e+00 2.112539e+00 9.936519e-01 -1.174573e+00 -2.145592e+00 2.295630e+00 1.241367e+00 -2.469096e+00 -1.137524e+00 1.575008e+00 -3.550562e-01 -1.013707e-02 
9.274933e+00 -5.244149e-01 1.143778e+01 7.977292e+00 -1.231761e+01 -9.408552e+00 -3.736310e+00 -3.419602e+00 -4.875018e+00 -1.789359e+01 6.578320e+00 -6.006086e-02 8.433577e-01 -1.222795e+00 1.219463e+00 1.944691e+00 1.957343e+00 -1.111548e+00 -3.613576e+00 1.462448e+00 3.854729e+00 -2.437329e+00 -8.231869e-01 1.837539e+00 -2.801864e-01 -4.258406e-03 
6.897321e+00 -8.415934e-01 1.561637e+01 1.030142e+01 -1.441461e+01 -1.099721e+01 -5.692719e+00 1.657911e+00 -5.236277e+00 -1.684713e+01 3.242356e+00 1.463364e+00 8.492564e-01 -7.563789e-01 1.194627e+00 8.118550e-01 2.858600e+00 -8.021744e-01 -2.936160e+00 2.059650e-01 3.514140e+00 -1.307595e+00 3.982035e-01 1.572859e+00 -5.401530e-01 -1.111344e-02 
7.345816e+00 -2.012044e-01 1.460197e+01 1.531661e+01 -1.363661e+01 -1.975247e+01 -5.278652e+00 7.251857e+00 -5.140551e+00 -1.622723e+01 7.152208e+00 -7.476078e-01 8.460726e-01 -5.619683e-01 1.572695e+00 -2.077425e-01 1.906299e+00 -1.981451e-01 -7.983810e-01 1.833213e-01 1.400790e+00 1.898485e-01 1.348942e+00 9.797751e-01 6.506599e-01 -2.774524e-02 
7.627423e+00 2.762064e+00 1.182076e+01 1.808237e+01 -1.379783e+01 -1.607575e+01 -5.838954e+00 3.430580e+00 -4.862682e+00 -1.308949e+01 9.094397e+00 -1.838738e+00 7.917005e-01 -5.028774e-01 1.899208e+00 -1.402134e+00 -2.950304e-01 1.201103e+00 2.345731e+00 2.487996e+00 -1.000535e+00 -3.677459e-01 1.933061e+00 8.892637e-01 5.360768e-01 -4.666930e-02 
6.100040e+00 5.537234e+00 1.229688e+01 1.361831e+01 -1.361672e+01 -1.086119e+01 -2.746585e+00 2.698013e+00 -4.112573e+00 -1.302770e+01 8.551176e+00 4.844289e+00 7.334094e-01 -9.339926e-01 1.356440e+00 -7.496096e-01 -2.548522e+00 8.933274e-01 5.260947e+00 4.724084e+00 -1.386625e+00 -1.024231e+00 2.703782e+00 3.966623e-01 2.748760e-01 -6.677724e-02 
5.005822e+00 5.785229e+00 9.758251e+00 9.675422e+00 -8.419036e+00 -3.714192e+00 5.481230e+00 -1.067840e+00 -7.588995e+00 -8.781588e+00 6.989191e+00 1.347800e+00 6.722414e-01 -1.236718e+00 5.590639e-02 -2.335128e-01 -2.689806e+00 2.643424e+00 4.760414e+00 5.214340e+00 -8.623767e-03 -1.027238e+00 3.251381e+00 3.644872e-01 -1.003742e+00 -9.331347e-02 
3.986654e+00 5.069411e+00 1.188518e+01 6.777476e+00 -1.185937e+01 3.714855e-01 1.268168e+01 2.567944e+00 -8.898551e+00 -4.862271e+00 1.018812e+01 -9.664967e-01 5.719159e-01 -1.082271e+00 -8.143324e-01 -1.465696e+00 -2.061056e+00 3.942649e+00 3.699641e+00 3.773317e+00 1.339944e+00 5.377306e-01 4.447045e+00 -2.944657e-01 -2.112380e+00 -1.232469e-01 
2.500528e+00 3.275507e+00 1.085904e+01 8.053760e+00 -1.459386e+00 2.109987e+00 1.251861e+01 3.452496e+00 -7.605882e+00 -9.152992e-01 1.009836e+01 -3.952053e+00 4.058800e-01 -8.913871e-01 -9.000621e-01 -2.792480e+00 -2.158344e+00 4.151216e+00 1.991987e+00 2.184075e+00 1.820125e+00 1.542027e+00 3.308726e+00 -2.220151e+00 -1.398803e+00 -1.380046e-01 
1.941334e+00 2.720433e+00 4.417998e+00 4.123863e+00 2.616701e+00 4.724931e+00 1.260131e+01 7.137567e+00 -1.415476e+00 5.274383e+00 5.524263e+00 -3.067682e+00 2.503557e-01 -5.287786e-01 -4.434953e-02 -3.660697e+00 -2.582453e+00 5.319182e+00 1.064138e+00 -7.019510e-01 -2.047135e-01 1.472123e+00 7.959182e-01 -4.336584e+00 3.361861e-02 -1.181676e-01 
1.571546e+00 2.459408e+00 -4.705589e-01 2.105093e-01 5.099007e+00 4.069021e+00 1.644179e+01 5.747975e+00 -3.620397e+00 2.693716e+00 -1.779633e+00 -4.595622e+00 1.429986e-01 8.013353e-02 1.861874e+00 -2.400899e+00 -3.783223e+00 1.135585e+00 -1.319887e+00 -2.458852e+00 -1.801704e+00 2.393215e-01 -9.443226e-01 -3.140632e+00 1.298696e+00 -6.866536e-02 
1.807251e+00 5.255713e+00 -7.535079e-01 -2.213166e+00 1.145735e+01 4.712660e+00 7.210337e+00 3.966373e-01 -3.530677e+00 -2.687188e+00 -5.555801e+00 -4.766192e-01 1.125184e-01 -1.191868e-01 2.608948e+00 2.923731e-01 -2.018648e+00 -8.437940e-01 -1.128212e+00 -3.187429e+00 -1.457421e+00 4.078355e-01 -1.996886e+00 -1.647418e+00 1.276155e+00 -2.111208e-02 
2.968237e+00 1.131724e+01 1.440299e+00 -7.693839e+00 -2.017860e-01 -4.483311e+00 2.919838e+00 -2.185559e+00 -5.351674e+00 -1.656127e+00 -6.477115e-02 1.245894e+00 1.314718e-01 -1.095509e+00 1.262611e+00 1.327829e+00 -2.261042e-01 -7.640333e-01 2.533786e-01 -2.567348e+00 -7.179810e-01 9.823345e-01 -4.278468e-01 -1.223287e+00 8.971258e-01 -5.369806e-03 
6.470547e-01 1.133626e+01 4.924435e+00 -2.017203e+00 1.048128e+00 3.360037e+00 3.425134e+00 3.817230e+00 1.489340e+00 -2.535127e+00 -3.570258e+00 3.923341e-01 1.505587e-01 -2.058536e+00 -5.507932e-01 1.532447e+00 2.152936e+00 -6.049695e-02 6.733997e-01 -8.179685e-01 -8.993789e-01 2.171388e-01 6.586331e-01 -1.362508e+00 -8.404554e-01 -1.022186e-02 
-3.325901e+00 5.732191e+00 3.329617e+00 -1.017993e+00 6.483450e+00 6.012225e+00 5.497649e+00 4.477734e-01 -1.218733e+00 4.784507e-01 -8.888838e+00 -5.444698e-01 9.712940e-02 -2.675803e+00 -1.869606e+00 -3.293166e-01 4.976364e+00 1.774719e+00 2.124955e+00 6.648601e-01 1.688317e+00 3.589191e-01 1.509665e-01 -1.478054e+00 -1.094834e-01 3.086342e-02 
-5.338357e+00 5.294271e+00 5.964067e+00 5.213591e+00 7.812244e+00 2.831890e+00 1.831589e+00 -5.416923e+00 -4.511454e+00 -4.613109e-01 -7.956308e+00 -3.783715e+00 7.858026e-02 -2.525161e+00 -2.156859e+00 -2.630702e+00 3.881271e+00 2.596328e-01 7.657632e-01 3.992419e-01 3.215508e+00 -1.169112e-01 1.321265e-01 7.828651e-01 5.953563e-01 6.383829e-02 
-7.418073e+00 4.990201e+00 -7.260997e-01 1.357259e+01 5.289750e+00 6.405537e+00 7.040911e+00 1.087310e+01 -5.566818e-01 -1.938202e+00 -5.262015e+00 2.786501e+00 3.217781e-01 -1.151330e+00 -9.538084e-01 -2.135213e+00 -3.700562e-01 -1.031953e+00 4.739639e-01 1.926355e+00 3.690967e+00 1.690494e+00 1.562137e+00 1.952219e+00 1.844788e-01 1.818294e-02 
-9.932663e+00 9.229590e-01 -6.201217e+00 1.009387e+01 2.943142e+00 6.992197e+00 4.649712e+00 1.468211e+01 5.737588e-01 -6.661677e-01 -1.469345e+00 1.703631e+00 3.574257e-01 -8.093294e-01 -1.222572e+00 -1.327519e+00 -4.038690e+00 -1.136491e+00 -2.638016e-01 1.304153e+00 1.152140e+00 1.823094e+00 1.972046e+00 1.235358e+00 -7.290969e-02 -3.493942e-02 
-6.785398e+00 3.148805e+00 -1.263805e+00 -5.308411e+00 3.758236e+00 6.301891e+00 1.372036e+01 8.853092e+00 4.691131e+00 8.391562e+00 -2.371224e+00 -2.365748e+00 4.862136e-02 -5.308952e-01 -1.126461e+00 -8.282585e-02 -5.573297e+00 6.633413e-01 -1.208060e+00 1.411436e-01 -2.918994e+00 1.403341e-01 1.589243e+00 2.081138e+00 -4.623728e-01 -8.702774e-02 
-9.701342e+00 1.021084e-01 -4.046762e-01 -5.539361e+00 2.895547e+00 1.564705e+00 5.012629e+00 1.353783e+00 1.980111e+00 4.234038e+00 -3.224914e+00 -1.572138e+00 4.046154e-02 -4.753726e-01 -6.458764e-01 4.720025e-02 -3.930957e+00 7.600583e-01 -2.112657e+00 -8.765308e-01 -3.738109e+00 -1.799931e+00 3.828066e-01 1.484398e+00 5.179025e-01 -6.221402e-02 
-1.018821e+01 -2.316802e-01 -4.038500e+00 -6.477284e+00 8.630254e+00 3.078982e+00 7.565170e+00 2.942294e+00 -5.581869e-01 3.557912e+00 6.021461e+00 2.112522e+00 4.512155e-02 -8.283917e-01 -8.735656e-01 -1.297885e+00 -6.672460e-01 3.845982e-01 -1.512890e+00 -2.533926e+00 -1.796673e+00 -1.764020e+00 -1.305920e+00 9.044317e-01 8.979880e-01 2.565628e-03 
-1.060812e+01 -6.161808e-01 -4.577868e+00 -8.976482e+00 4.307425e+00 -1.959631e+00 3.344653e+00 -1.053038e+00 -5.801237e+00 3.664690e+00 1.756304e+00 2.054008e+00 4.810554e-02 -1.716139e-01 2.123497e-01 -4.309150e-01 -2.621814e-02 3.885813e-02 -3.175206e-01 -5.989970e-01 8.302881e-01 9.356176e-02 2.000721e-01 8.024178e-02 1.476199e-01 2.166331e-04 
-1.047397e+01 -8.598787e-01 -5.666632e+00 -6.926080e+00 4.975288e+00 4.996123e-01 1.884721e+00 1.073139e+00 -2.382972e-01 2.146633e+00 -3.396740e-01 3.111181e-01 5.762750e-02 7.023907e-02 -1.874237e-01 1.515134e-01 5.033450e-01 -8.880041e-01 -5.861259e-01 -8.152634e-01 8.163719e-01 7.799401e-01 6.003434e-01 -1.283582e+00 -1.032090e+00 -5.202448e-03 
-1.041653e+01 1.477956e+00 -1.745185e+00 -5.446054e+00 4.917321e+00 1.266787e+00 4.857869e+00 6.439802e+00 2.287974e+00 5.940038e+00 3.568625e-01 6.666303e-02 3.529173e-02 -6.720714e-02 -1.787274e-01 6.317805e-02 3.529079e-01 1.443930e-01 3.786088e-01 6.861571e-01 -1.456594e-01 5.983180e-01 5.040143e-01 1.282966e-01 -5.735653e-01 -2.657223e-03 
-9.932808e+00 -2.215867e+00 -4.697275e+00 -5.725774e+00 3.885285e+00 -1.464856e+00 2.732245e+00 3.277735e+00 -7.030919e-01 5.421956e+00 3.032722e-01 -2.054254e+00 2.551621e-02 -9.550552e-02 5.282187e-03 3.349937e-01 -5.419214e-02 -9.679071e-01 -7.825456e-01 1.289183e+00 -8.796491e-02 4.801517e-01 9.451847e-01 6.578684e-01 -6.768075e-01 1.470095e-03 
-1.121474e+01 -8.318237e-01 -4.746657e+00 -7.812097e+00 5.574391e+00 9.156470e-01 6.351677e+00 -2.883633e+00 -2.577250e+00 4.547101e+00 2.076313e+00 3.688679e-01 5.087507e-02 1.771908e-02 -1.633146e-01 1.831235e-01 1.150528e-01 -6.759360e-01 2.336379e-01 1.263503e+00 -7.055244e-01 7.346488e-01 5.792599e-01 1.946025e-01 -6.240665e-01 4.882252e-03 
-1.055239e+01 3.214222e-01 -2.490927e+00 -6.014019e+00 -1.927829e-01 -3.237545e+00 7.583730e+00 5.295031e+00 4.595074e+00 7.569026e+00 2.089942e+00 -3.224022e+00 5.718631e-02 4.016247e-01 9.254724e-01 1.344451e+00 1.203474e+00 1.992074e-01 6.863203e-01 1.138608e+00 4.895623e-01 1.873768e+00 7.360502e-01 9.787915e-02 1.200948e+00 5.090892e-03 
-1.001814e+01 -6.072614e-01 -1.932741e+00 -4.726667e+00 3.576675e+00 3.321321e+00 8.749643e+00 1.903531e+00 3.312136e+00 7.762802e+00 4.365399e-01 -2.468785e+00 4.386795e-02 1.212525e+00 1.384843e+00 7.551543e-01 1.897833e+00 8.000396e-01 9.350791e-02 -6.655455e-04 1.793956e+00 1.781956e+00 5.534655e-01 -2.946572e-02 1.237218e+00 1.103360e-03 
-8.522980e+00 2.299213e+00 6.180208e-01 -1.251116e+00 5.880180e+00 7.639083e-01 7.226300e+00 3.331964e+00 5.721056e+00 7.494356e+00 1.612555e+00 5.369311e+00 5.447423e-02 7.313477e-01 9.048699e-01 1.593907e-01 7.157348e-01 1.968713e+00 3.631952e-01 -4.780773e-01 8.179260e-01 1.124592e-01 4.012675e-02 5.296929e-01 1.003752e+00 -4.313868e-03 
-6.166815e+00 5.103498e+00 -2.525359e+00 -7.043819e-01 6.538108e+00 -6.175403e-01 6.527064e+00 7.067682e+00 5.769542e+00 7.351763e+00 2.167679e+00 2.258290e+00 5.774790e-02 9.951992e-01 1.052833e+00 1.276532e-01 1.066396e-01 1.269266e+00 5.926566e-01 -3.546586e-01 3.987958e-01 -1.368441e+00 -8.872948e-02 5.469939e-01 3.076153e-01 1.911223e-03 
-8.821320e+00 1.990392e+00 -1.397665e+00 -4.446488e+00 8.170067e+00 5.478613e-01 6.304633e+00 6.802586e+00 3.928667e+00 7.975179e+00 3.872838e+00 -5.687973e-01 2.867699e-02 1.116403e+00 3.940589e-01 -3.685103e-01 -2.437859e-01 6.797466e-01 1.297715e+00 -4.979526e-02 -1.064811e+00 -1.481491e+00 -3.654880e-02 -1.012879e+00 -1.180807e+00 1.794046e-03 
-4.892979e+00 4.811316e+00 -2.866323e-01 -2.595783e+00 8.778060e+00 6.392627e+00 7.437184e+00 2.162199e+00 -2.633874e+00 7.078743e+00 2.041368e+00 2.038345e+00 6.632268e-02 7.148029e-01 -6.064603e-02 4.695531e-01 4.736443e-01 2.269399e-01 1.709396e+00 6.198083e-01 -2.175790e+00 -1.565376e+00 -1.840117e+00 -2.606878e+00 -1.554159e+00 5.480283e-03 
-3.577881e+00 4.415598e+00 -2.343894e+00 -1.524345e+00 8.158937e+00 3.747401e+00 6.522264e+00 4.606511e-01 2.515308e+00 7.448122e+00 -3.388687e+00 -4.247503e-01 5.915707e-02 6.763737e-01 6.837450e-01 3.743838e-01 1.162142e+00 -1.234341e-01 1.336859e-01 -4.333167e-01 -1.095458e+00 -1.219074e+00 -2.072463e+00 -2.008196e+00 -8.999982e-01 1.025745e-02 
-5.214520e+00 3.587664e+00 2.955210e-01 2.027683e-01 7.678371e+00 6.329669e+00 9.517290e+00 -6.403008e-01 -1.350661e+00 -1.585294e+00 -7.235947e+00 -5.584526e+00 6.990927e-02 -3.843643e-01 4.001148e-01 1.507641e-01 -1.230759e-01 -4.084563e-01 -1.864606e+00 -8.038502e-01 1.091662e+00 1.446154e-01 -1.080801e+00 7.387112e-01 5.083339e-01 2.157819e-03 
-5.278681e+00 6.020943e+00 1.831775e-01 -3.505611e-02 8.102739e+00 1.247770e+00 3.097997e+00 2.726544e+00 -2.808308e+00 1.944885e+00 -1.529487e+00 -1.257353e+00 7.817096e-02 -5.522920e-01 5.608793e-01 2.003224e-01 -9.021500e-01 -3.704614e-01 -1.886623e+00 -7.171618e-01 1.918170e+00 -1.426921e-01 -3.188562e-03 2.842929e+00 2.142297e+00 1.459110e-03 
-5.964401e+00 6.009218e+00 -7.963479e-01 -3.955807e+00 6.763877e+00 -1.680587e+00 5.130067e+00 6.487566e+00 7.510115e-01 4.426355e+00 4.805324e+00 4.996316e+00 6.760484e-02 -2.185481e-01 4.831384e-01 -3.163263e-01 -1.223790e+00 -3.167851e-01 -1.894887e+00 -6.742376e-01 1.801676e+00 7.762665e-01 1.450477e+00 3.041735e+00 2.741535e+00 -1.517499e-03 
