-9.628515e-01 -9.618348e-01 -3.506980e+00 2.483952e+00 -3.556585e-01 -3.726978e+00 6.915915e+00 -5.497606e+00 -4.958162e+00 6.457333e+00 1.660459e+00 3.178723e+00 -7.411373e-02 2.699948e-01 4.908784e-01 -1.955294e-01 2.612622e-01 6.912521e-01 5.930139e-01 -8.131143e-01 3.653055e-01 -7.981449e-01 -2.099510e-01 -1.113274e+00 -6.773342e-01 7.439804e-03 
-4.721375e-01 -9.807694e-02 -3.244643e+00 3.888784e+00 9.569765e-01 1.042594e+00 8.748179e+00 -3.326326e+00 -7.190965e+00 4.754462e+00 -2.239839e+00 1.164210e+00 -4.554021e-02 -4.515562e-02 7.704076e-01 2.999010e-01 2.413765e-01 9.772730e-01 1.138955e+00 4.315293e-01 1.397711e+00 -5.589827e-01 -1.318250e+00 -1.186148e+00 -7.445030e-01 4.576993e-03 
1.417656e-01 1.060678e+00 -4.615795e+00 3.087847e+00 2.444284e+00 -3.146695e+00 1.934210e+00 -4.756719e+00 -7.832485e+00 6.259013e+00 -1.955761e+00 7.993090e-01 -5.120146e-02 -2.360518e-01 4.523800e-01 5.770001e-01 7.657518e-02 1.225062e-01 1.154205e+00 2.025562e-01 6.938463e-01 -2.722007e-01 -1.655509e+00 -2.383898e-01 -5.232345e-01 -1.608253e-03 
-1.740938e+00 1.878947e+00 -1.453068e+00 3.388887e+00 3.130735e+00 1.677655e+00 1.156441e+01 1.120503e+00 -6.315914e+00 -3.475857e-02 -2.462171e+00 6.459153e-01 -6.268489e-02 -6.875504e-01 -4.087936e-01 2.075320e-01 -1.294906e-02 -8.243553e-02 4.190276e-01 1.860650e-01 -4.063511e-01 1.246990e+00 3.322315e-03 9.137300e-01 6.322023e-01 -9.003985e-03 
-1.508710e+00 3.115535e-01 -1.517768e+00 3.116776e+00 -8.300068e-01 1.726518e+00 6.520579e+00 -4.251789e+00 -6.756691e+00 5.743998e-01 5.796758e-01 8.216981e-01 -7.358265e-02 -9.749998e-01 -9.405231e-01 -3.183040e-01 -5.221392e-01 -4.869968e-01 1.237152e-01 9.540977e-01 1.363486e+00 1.912077e+00 5.005360e-02 8.935865e-01 7.664322e-01 -4.205740e-03 
-3.084652e+00 -1.767483e+00 -3.755997e+00 3.809574e+00 2.181944e+00 7.011262e-01 7.385320e+00 -5.610546e+00 -1.493913e+00 7.613380e+00 1.061093e+00 4.314027e+00 -7.936954e-02 -6.758340e-01 -9.788946e-01 -2.263364e-01 9.024493e-02 -1.827035e-01 -8.810619e-01 -9.816025e-01 2.418726e-01 1.583264e+00 1.147211e+00 8.641331e-01 3.318532e-01 3.741264e-04 
-4.061377e+00 -1.818723e+00 -5.055851e+00 2.668071e-01 4.836954e-01 -2.039855e+00 8.794246e+00 5.426236e+00 -6.831019e-01 2.685212e+00 7.505389e-01 2.797414e+00 -6.388783e-02 -5.250275e-01 -4.208445e-01 3.590863e-01 3.984450e-01 7.316833e-01 4.381235e-02 6.057649e-01 1.249052e+00 9.502035e-01 7.852728e-01 9.641592e-01 1.444264e-01 2.379274e-03 
-3.843775e+00 -1.950388e+00 -8.157083e-01 5.265096e+00 1.560366e+00 -8.444690e-01 5.519567e+00 -2.509147e+00 -1.436388e+00 4.645893e+00 1.773063e+00 1.317323e+00 -6.566167e-02 -1.679153e-02 1.202682e-01 4.384598e-01 2.664890e-01 7.419074e-01 1.208088e+00 4.685631e-01 7.939523e-01 -1.817371e-01 -7.845637e-01 6.882256e-01 -7.108936e-02 2.300584e-03 
-3.754286e+00 -1.701216e+00 -1.192481e+00 4.381240e+00 3.139199e+00 2.718377e+00 1.048228e+01 4.427710e-01 -2.034437e+00 5.984508e+00 5.044487e+00 3.042181e+00 -6.854022e-02 1.733227e-02 5.652338e-02 4.584294e-01 5.321687e-01 9.319898e-01 2.111994e+00 2.014198e+00 4.049793e-01 3.312728e-01 6.255698e-01 1.410146e-02 -1.603073e-01 -2.544296e-03 
-3.322155e+00 -1.224895e+00 -3.495383e+00 3.084803e+00 4.563729e+00 4.362452e+00 8.884119e+00 8.509481e-01 -1.726932e+00 2.040914e+00 2.355247e+00 3.836196e+00 -6.554043e-02 -2.673454e-02 1.978356e-01 -2.087029e-01 -1.794013e-01 4.584829e-01 1.509622e-01 1.512246e+00 1.099528e+00 9.693337e-03 -1.389382e-02 -8.815233e-01 2.307646e-01 -3.842890e-03 
-4.235525e+00 -1.898853e+00 -1.423866e+00 4.017798e+00 3.641963e+00 5.916657e+00 1.718296e+01 5.771085e+00 1.118534e+00 7.115550e+00 5.299541e-01 7.364411e-01 -7.666993e-02 -2.759396e-01 1.143785e-02 5.479391e-02 -2.197533e-01 3.536193e-01 -1.241976e-01 1.211575e+00 1.237926e+00 6.688277e-01 1.095774e+00 -1.595601e+00 -9.437348e-01 -2.064109e-04 
-3.736828e+00 -8.623921e-01 -1.743530e+00 4.549810e+00 3.601398e+00 -1.688798e+00 9.730460e+00 3.243365e-01 -2.964407e+00 4.010902e+00 -3.772870e-01 3.624017e+00 -8.081126e-02 2.310467e-02 1.278087e-04 5.820156e-01 4.875855e-01 3.647509e-01 -1.229820e-02 1.209610e+00 -9.133091e-01 -5.609125e-01 1.289680e+00 -3.713697e-01 -3.707089e-01 -2.942801e-04 
-4.926647e+00 -1.825279e+00 -1.794438e+00 2.549970e+00 5.388461e+00 5.123014e+00 1.611699e+01 6.895705e+00 1.928439e+00 1.047838e+01 -1.567249e+00 -1.570402e+00 -6.193686e-02 1.062519e+00 1.172901e+00 4.963909e-01 5.033153e-01 1.095061e+00 5.218599e-01 -1.974456e+00 -2.408633e+00 -4.344561e-01 -3.276410e-01 2.396775e-01 -3.217650e-01 3.642786e-03 
-2.861071e+00 -1.261043e+00 -4.000195e-01 6.256645e+00 5.514235e+00 4.697783e+00 1.546516e+01 -4.277907e+00 -4.936447e+00 6.807895e+00 1.547001e+00 3.136074e+00 -7.437837e-02 1.502338e+00 1.742685e+00 8.736734e-01 6.142224e-01 5.599260e-01 1.210195e+00 -1.167930e+00 -1.115582e+00 3.094438e-01 8.005708e-01 1.312790e+00 -2.868031e-01 8.973408e-03 
6.391907e-01 4.164980e+00 3.863329e-01 5.680957e+00 8.160849e+00 5.332667e+00 4.443330e+00 -3.970955e+00 -6.772614e-02 4.078849e+00 7.661978e-01 -6.284126e-01 -6.167245e-02 1.925511e+00 6.927372e-01 9.322449e-01 1.427245e+00 -4.278528e-01 -4.797125e-01 -7.421573e-01 -8.118676e-01 -5.816016e-02 -6.549066e-01 1.766740e-01 -2.605142e-01 7.890677e-03 
9.919453e-01 4.855905e+00 1.534452e+00 6.055429e+00 5.014834e+00 4.257349e+00 9.727636e+00 1.797590e-01 -4.191053e-01 1.121352e+01 5.019937e+00 1.719006e+00 -3.607643e-02 3.035611e+00 -1.594004e+00 -4.754559e-01 -3.300610e-01 -2.300573e+00 -1.757686e+00 -1.071012e+00 1.250908e+00 -5.027475e-01 -9.532215e-01 -7.791992e-01 -9.202444e-01 4.938862e-02 
2.774401e+00 -1.420067e+00 1.899551e+00 9.786805e+00 3.498897e+00 2.944669e+00 1.527496e+01 6.075339e-01 -6.210325e-01 5.001037e+00 -2.420347e+00 -2.164440e+00 -4.163444e-02 2.095473e+00 -2.385814e+00 -9.035311e-01 -2.085996e+00 -2.516859e+00 -2.516958e+00 -1.312214e+00 7.237579e-01 -1.884601e+00 -2.332710e+00 -3.267531e-01 -3.724116e-01 1.433369e-01 
1.124938e+01 -6.438540e+00 -3.533908e+00 2.553416e+00 -3.657652e+00 -2.896647e+00 4.694282e+00 -3.126099e-01 -7.173532e+00 1.580693e+00 -7.557231e-01 -6.971351e-01 1.625457e-01 -1.345822e+00 -1.655898e-01 5.832258e-01 -4.038719e+00 -1.126035e+00 -1.065903e+00 -3.683608e+00 -4.155968e-01 -9.511477e-01 -3.383616e+00 -6.772969e-01 -6.818365e-02 2.072457e-01 
5.987838e+00 -2.116867e+00 -1.597142e+00 -2.998018e+00 -8.720112e-02 -3.675124e+00 3.989391e-01 -1.059815e-01 -6.113519e+00 -2.768286e+00 2.020263e+00 -1.282400e+00 5.557011e-01 -4.903953e+00 9.304682e-01 8.237430e-01 -5.664116e+00 3.990533e-01 -2.645047e-01 -5.628572e+00 -3.836376e-01 -2.020645e-02 -1.713857e+00 5.780700e-01 -6.666296e-01 2.255525e-01 
-7.343882e+00 4.376356e+00 6.198928e+00 -7.745756e+00 1.177710e+00 2.237731e+00 -1.252394e+00 -1.541467e+00 -2.428601e+00 -1.819895e+00 -5.868523e-01 9.370682e-01 7.014844e-01 -6.606091e+00 7.462407e-01 7.134464e-01 -4.510374e+00 5.815976e-01 4.356869e-01 -3.639024e+00 1.101491e+00 2.351769e+00 -5.256068e-01 -3.125457e-01 -7.060776e-01 1.608315e-01 
-1.244873e+01 -2.175174e+00 1.151849e+00 -1.338419e+01 3.076482e+00 -9.450439e-01 -9.894561e+00 -6.962256e-01 -3.094530e+00 -1.867954e+00 3.855673e-01 -6.314689e+00 8.166587e-01 -4.513573e+00 -7.853066e-01 -4.426506e-01 -2.505521e+00 1.944938e-01 7.538452e-01 -2.409927e+00 1.628028e+00 2.230469e+00 8.099969e-01 -2.276963e-01 1.207906e-01 7.722437e-02 
-1.256279e+01 -2.678183e+00 -1.341172e+00 -1.480537e+01 -2.331506e+00 -2.083253e+00 -8.354091e+00 5.489968e+00 3.075819e+00 -1.497506e+00 -1.501104e+00 -1.711378e+00 8.362247e-01 -4.469299e-03 -3.764258e-01 -1.146654e+00 -6.807280e-02 -2.942992e-01 -2.085739e-01 -1.154728e+00 3.612255e-01 3.604952e-01 5.814002e-01 6.712807e-01 6.666259e-01 4.049391e-02 
-1.397057e+01 -2.516131e+00 -4.034555e-02 -1.199582e+01 2.639876e+00 2.254594e+00 -8.099849e+00 4.518440e+00 2.286619e+00 1.120505e+00 1.338907e+00 6.457766e-01 8.744529e-01 1.354458e+00 1.490846e+00 8.012102e-01 1.796614e+00 -5.376598e-01 5.353120e-01 -2.315884e-02 -1.158171e+00 1.651473e-01 -1.329410e-02 9.745023e-01 2.197343e+00 2.468013e-02 
-6.605307e+00 2.664705e+00 1.061753e+00 -8.780305e+00 -7.548308e-02 -4.049569e-01 -7.923390e+00 -2.342673e+00 -3.316700e+00 -4.071233e-01 2.292881e+00 7.899647e-01 8.750569e-01 -2.862930e-03 8.256895e-01 4.703926e-01 1.251342e+00 -1.948416e-01 7.758803e-01 1.263434e+00 -1.566854e+00 -1.092683e+00 6.486721e-01 9.087509e-01 1.014617e+00 2.102657e-02 
-8.655182e+00 2.607614e+00 3.956437e+00 -7.413647e+00 -7.398281e-01 8.923683e-01 -1.022571e+01 -2.570761e+00 9.274659e-01 -2.479616e+00 3.361086e+00 3.421356e+00 9.206432e-01 -1.070367e+00 5.843459e-01 -1.860886e-01 -5.726765e-01 -7.569128e-01 1.048112e+00 1.636620e+00 -6.217859e-01 -1.307401e-01 5.573052e-01 -5.195929e-01 -1.259210e+00 2.328538e-02 
-1.523480e+01 -1.111608e+00 -9.876003e-01 -1.083974e+01 -1.615862e+00 2.477262e+00 -9.739904e-01 1.200301e+00 -1.708019e+00 3.545915e+00 2.031561e+00 1.973916e+00 9.182624e-01 -2.236420e+00 -2.530798e-01 -1.163328e+00 -2.101370e+00 -4.169166e-01 1.624079e+00 1.472615e+00 7.117316e-01 8.924518e-01 5.852076e-01 -1.409762e+00 -2.288640e+00 2.423441e-02 
-1.500766e+01 2.293755e+00 5.388808e-02 -1.382948e+01 -3.744988e-01 6.054045e+00 -3.391447e+00 -3.619760e-01 8.285785e-01 1.930511e+00 -1.128397e+00 -6.242247e+00 9.692770e-01 -1.415129e+00 -3.263712e-01 -1.740802e+00 -1.911699e+00 7.951577e-02 4.104091e-01 1.648394e+00 1.400917e+00 -2.062574e-01 2.543658e-01 -4.596102e-01 -3.072417e+00 2.123632e-02 
-1.461117e+01 1.556235e+00 -2.803611e+00 -1.607924e+01 -2.342731e+00 5.134602e+00 -3.977443e+00 1.115924e-01 1.195003e+00 3.138509e-01 -2.511188e+00 -5.821432e+00 9.719120e-01 -1.631569e-01 -2.138513e-01 -9.581234e-01 -1.905317e-01 7.982827e-01 -1.111001e+00 -2.501868e-01 7.169083e-01 -1.594633e-01 1.742474e-01 2.088172e+00 -9.152510e-01 1.637639e-02 
-1.604264e+01 -3.581635e-01 -3.839568e+00 -1.435239e+01 2.118504e-02 1.615744e+00 -4.820070e-01 4.978179e+00 -1.555332e+00 4.082446e-01 3.334409e+00 -8.043056e+00 1.000000e+00 1.133158e-01 -8.512012e-01 -7.794971e-01 9.238811e-01 1.201481e+00 -1.869541e+00 3.667007e-01 8.175377e-01 3.225206e-01 6.168018e-01 2.409522e+00 1.329045e+00 -6.542265e-03 
-1.553309e+01 -8.549051e-01 -3.831489e+00 -1.153095e+01 2.177710e+00 -8.585929e-01 -3.679645e+00 2.114765e+00 -1.313380e+00 5.178286e+00 1.024102e+01 -1.701934e+00 9.847828e-01 1.273972e+00 -3.888820e-01 3.185806e-01 2.254741e+00 9.281653e-01 -3.040597e+00 6.627836e-02 1.098840e+00 -2.519373e-01 9.361148e-02 1.321848e+00 9.114755e-01 -3.971004e-02 
-1.398012e+01 -7.566805e-01 -3.329659e+00 -1.148422e+01 3.372685e+00 -2.970635e-01 -1.706842e+00 2.724126e+00 3.695373e+00 2.582303e+00 4.543111e+00 -1.656772e+00 9.301303e-01 3.593178e+00 1.149751e+00 2.633461e+00 3.485914e+00 1.543979e+00 -2.137114e+00 -3.479177e-01 7.084987e-01 -6.466326e-01 -1.395915e+00 -5.574877e-01 9.436285e-01 -8.125417e-02 
-9.272566e+00 -1.889162e-01 -1.465663e+00 -6.239618e+00 6.223463e-01 -9.111981e+00 -3.033633e+00 6.732821e+00 -2.690036e+00 -3.051209e-01 3.493703e+00 -4.457197e+00 8.082967e-01 7.254308e+00 9.154121e-01 2.728081e+00 3.879583e+00 -6.538709e-01 3.059779e-01 -1.062023e+00 -1.843832e+00 -1.588785e+00 -1.239290e+00 -1.047045e+00 -8.457577e-01 -7.430865e-02 
-1.207020e+00 5.057599e+00 8.144823e+00 4.315113e-01 8.518763e+00 -4.943131e+00 -2.544601e+00 6.211645e+00 -4.100167e+00 -3.829625e+00 3.920627e+00 -1.947282e+00 6.819722e-01 8.228762e+00 2.218838e-01 2.291872e+00 3.882218e+00 -1.793042e+00 1.902311e+00 -2.941523e+00 -4.432644e+00 -1.931358e+00 -2.329535e-01 1.277619e+00 -4.541102e-01 -4.178662e-02 
1.435190e+01 8.150160e-01 4.071677e+00 1.909102e+00 -3.664684e+00 2.994330e+00 -8.570880e+00 -8.848156e+00 -5.359533e+00 2.187801e+00 5.317034e+00 -5.785467e+00 7.373186e-01 6.731390e+00 -1.319345e+00 8.189777e-01 2.322361e+00 -2.480392e+00 3.274662e+00 -3.127203e+00 -4.612273e+00 9.161743e-01 -8.394604e-01 8.719484e-01 2.898523e-01 1.107566e-02 
1.535145e+01 -1.492275e-01 5.361032e+00 3.852505e+00 -3.449009e+00 3.161335e+00 -1.364583e+01 -1.164861e+01 -4.626668e+00 1.710746e-01 1.001954e+01 -3.263188e+00 7.566862e-01 3.397997e+00 -2.794301e+00 -1.036028e+00 8.602322e-01 -3.738771e+00 1.268869e+00 -3.166343e+00 -2.678916e+00 2.323479e+00 -1.580199e+00 8.586740e-01 -2.986589e-01 6.072148e-02 
1.610515e+01 -4.182229e+00 4.021121e+00 3.661688e+00 -5.795729e+00 3.209096e+00 -1.311903e+01 -7.398418e+00 2.154086e+00 -6.502772e+00 4.803988e+00 -2.349983e+00 8.263180e-01 -1.674136e-01 -2.107718e+00 -2.727326e-01 3.244713e-01 -1.811959e+00 -9.077815e-01 -1.366131e+00 6.121790e-01 3.010697e+00 -2.735593e+00 6.184425e-02 6.696284e-01 6.515482e-02 
1.490634e+01 -6.415280e+00 2.989962e+00 3.856379e+00 -9.109570e+00 1.293831e+00 -1.610224e+01 -7.907806e+00 3.760419e+00 -7.385331e+00 8.470521e+00 -5.158319e+00 9.410799e-01 -6.287854e-01 -1.627126e+00 -4.810437e-01 2.295847e-01 -1.705110e+00 -1.250233e+00 -3.721680e-01 1.129399e+00 2.713024e+00 -1.983515e+00 -5.568670e-01 6.573103e-01 6.144212e-02 
1.373738e+01 -6.590550e+00 3.893550e+00 3.529522e+00 -9.894197e+00 -6.108247e-01 -1.417333e+01 -7.657661e+00 5.500408e+00 -7.711960e+00 6.400766e+00 -1.489760e+00 9.708959e-01 -5.982521e-01 -8.417743e-01 5.661427e-01 -3.193985e-01 -9.736133e-01 -9.134690e-01 -2.855488e-01 7.044557e-01 1.801701e+00 -1.077082e+00 -4.555131e-01 1.180781e+00 3.922875e-02 
1.339141e+01 -7.080695e+00 3.019600e+00 5.066512e+00 -9.925324e+00 -1.179867e+00 -1.497953e+01 -5.871994e+00 7.265289e+00 -9.141907e+00 6.436818e+00 -4.067480e-01 9.916078e-01 -3.425623e-01 -1.169024e-01 9.088732e-01 6.943114e-02 -7.553480e-01 -9.527851e-01 1.352882e+00 8.340608e-01 1.159008e+00 -1.553917e+00 -1.238423e+00 1.855906e+00 2.847195e-04 
1.387136e+01 -8.058393e+00 6.837016e+00 1.459629e+00 -1.025592e+01 -1.213993e-01 -1.510814e+01 -4.894046e+00 9.410156e+00 -1.100990e+01 3.543274e+00 1.178136e+00 9.971977e-01 1.664431e-02 3.440168e-01 1.072567e+00 6.700188e-01 -4.373217e-01 -1.624687e+00 1.471535e+00 1.412320e+00 1.914683e-01 -2.157072e+00 -8.988268e-01 1.358159e+00 -2.912563e-02 
1.312654e+01 -6.265871e+00 6.062594e+00 5.238482e+00 -1.270545e+01 -3.714808e+00 -8.870427e+00 -5.119309e+00 7.600583e+00 -1.350595e+01 3.707150e+00 2.787265e+00 9.293526e-01 1.066607e-01 8.595716e-01 9.889984e-01 1.545656e+00 -8.240271e-02 -2.279753e+00 7.996759e-01 1.820597e+00 -3.160003e-01 -2.858478e+00 -5.494331e-01 1.324825e+00 -5.673355e-02 
1.395304e+01 -5.277878e+00 7.734886e+00 6.793631e+00 -1.069074e+01 -7.466788e+00 -9.870204e+00 -9.724038e-01 6.290103e+00 -1.631530e+01 3.271465e+00 3.704030e+00 8.563954e-01 1.976797e-01 1.994177e+00 -1.182320e+00 4.117101e+00 2.203820e+00 -4.393246e+00 -3.176785e-02 2.914314e+00 -4.922296e-01 -2.753064e+00 -1.397608e+00 7.165863e-01 -7.395951e-02 
1.388387e+01 -4.173095e+00 7.515656e+00 1.012779e+01 -1.011993e+01 -8.905941e+00 -1.360011e+01 1.270173e+00 7.245315e+00 -2.078160e+01 3.825557e+00 4.954430e+00 7.783413e-01 -1.369099e+00 2.221458e+00 -6.429594e-01 3.221780e+00 3.543178e+00 -1.225521e+00 -8.572807e-02 1.666086e+00 -4.611765e-01 -2.526026e-01 -2.155180e+00 1.017851e+00 -1.290782e-01 
1.448109e+01 8.661029e-01 1.988850e-01 1.960048e+01 -5.295801e-01 -1.949206e+01 -1.290213e+01 6.482784e+00 7.126642e+00 -2.113739e+01 -3.503970e+00 3.677485e+00 7.029058e-01 -3.233908e+00 1.726014e+00 -2.005963e+00 2.105319e+00 2.624353e+00 1.645467e+00 1.164988e+00 -1.931164e-01 -7.049383e-01 3.592840e+00 -1.827334e+00 2.706622e+00 -1.562426e-01 
6.017019e+00 1.769432e+00 6.615798e+00 1.494395e+01 -7.014108e-02 -3.829779e+00 -7.783103e+00 -5.164715e-01 4.876431e+00 -1.235792e+01 -3.681033e+00 7.889790e+00 3.607064e-01 -4.172681e+00 5.942461e-01 -1.298310e+00 -2.066855e+00 1.025321e+00 3.343468e+00 2.450978e+00 -7.891703e-01 -1.223509e+00 6.397476e+00 -6.614933e-01 1.751394e+00 -1.591233e-01 
1.716922e+00 3.809299e-01 -1.844999e+00 1.491215e+01 -2.593870e+00 -1.777534e+00 -6.953771e+00 -1.044664e+00 3.949853e+00 -2.562941e+00 -2.111909e+00 1.576946e+01 2.839999e-01 -4.024078e+00 -5.150877e-01 -4.051445e-01 -4.383637e+00 -2.556022e-01 3.686772e+00 3.078176e+00 -1.567724e+00 -1.695261e+00 6.543001e+00 1.026992e+00 5.146468e-01 -1.475605e-01 
-5.974512e-01 -9.592774e-01 2.046048e+00 2.137683e+00 -3.961176e+00 -1.045863e+00 -4.319402e+00 1.088045e+00 2.716163e+00 1.918557e+00 -1.779400e-01 7.665414e+00 1.921778e-01 -2.887195e+00 -7.611898e-01 -1.863798e+00 -3.657468e+00 1.534571e+00 7.751651e-01 2.558032e+00 -7.615105e-01 -4.033513e-01 3.789595e+00 1.544068e+00 -1.195589e+00 -7.337660e-02 
-2.332064e+00 -3.449810e-01 4.580377e-01 4.085429e+00 1.379267e-01 -2.450161e+00 7.568979e-01 -2.158097e+00 -2.695301e-01 4.439375e+00 -1.205568e-01 6.362907e+00 4.936779e-02 2.566653e-01 -2.600845e+00 -2.068802e+00 -2.585902e+00 3.599189e+00 2.369412e+00 3.285598e+00 -1.266311e+00 -2.603603e+00 -4.435650e-01 1.994296e-01 -3.644261e+00 -1.722834e-02 
-6.394464e+00 -1.673562e+00 -3.854708e+00 2.069969e+00 6.236814e+00 3.823604e-01 1.151721e+00 -3.767307e+00 4.969366e+00 3.088901e+00 3.043629e+00 6.615119e+00 1.111395e-01 2.295371e+00 -3.528999e+00 -3.975147e+00 -1.534800e+00 2.360685e+00 1.786829e+00 8.829080e-01 -1.816179e+00 -3.156567e+00 -1.613995e+00 -4.207040e-01 -2.599763e+00 1.239555e-01 
5.898755e+00 -1.226615e+01 -9.238631e+00 2.016493e+00 1.030308e+01 9.355414e+00 6.738657e+00 -4.948541e+00 -1.019476e+01 -5.365938e+00 -2.725546e+00 -1.926700e+00 2.383774e-01 2.732430e+00 -2.487361e+00 -3.697199e+00 -1.948632e+00 -8.048601e-02 4.469622e-01 -2.399946e+00 -4.937417e-01 -7.256584e-01 -3.740143e-01 2.330977e-01 -2.907867e+00 1.805822e-01 
6.763993e+00 -1.264369e+01 -1.298135e+01 -4.501848e+00 2.759675e+00 1.985492e+00 -2.895741e+00 -6.597627e+00 -8.104056e+00 -1.248760e+00 -9.789655e-01 -1.188599e+00 7.174506e-01 1.763011e-01 9.264512e-02 8.395340e-01 -1.626497e+00 -2.016874e+00 -2.212121e+00 -4.105852e+00 5.739324e-01 2.106640e+00 1.470013e-01 7.679477e-02 -1.709643e+00 1.612230e-01 
4.750858e+00 -7.296722e+00 -1.346464e+01 -2.371822e+00 1.474066e+00 -1.016916e+00 -9.219102e+00 -3.211645e+00 2.638889e+00 4.738134e+00 3.056229e+00 -4.274570e+00 6.491232e-01 -4.018855e+00 2.059214e+00 3.300304e+00 -1.523441e+00 -2.416245e+00 -3.174602e+00 -3.196559e+00 2.880324e+00 5.913148e+00 9.528176e-01 8.565968e-01 8.265070e-01 1.108822e-01 
-4.939011e+00 -3.695051e+00 2.455964e+00 -3.868358e+00 5.669485e-01 -5.492082e+00 -1.139866e+01 -1.766093e+00 9.085742e+00 -1.228129e+00 5.367156e-01 -7.591621e-01 7.118818e-01 -4.052875e+00 2.007208e+00 4.130578e+00 -1.315953e+00 -1.509585e+00 -1.452067e+00 -1.029372e+00 2.386600e+00 2.812036e+00 -1.378687e+00 -3.751626e-01 6.229529e-01 3.740989e-02 
-8.344019e+00 -6.444396e+00 -4.557663e-01 -5.917455e+00 -6.817865e-01 -2.778808e+00 -4.992682e+00 7.037313e+00 1.077608e+01 -6.121655e-01 7.995979e-01 1.991117e+00 7.955731e-01 -2.946355e+00 7.281007e-01 2.659499e+00 -1.604319e+00 -3.797444e-01 -7.451563e-02 -4.909973e-02 1.268560e+00 1.701239e-01 -1.954498e+00 -1.477810e+00 -8.470744e-01 5.927547e-02 
-6.952944e+00 -3.033808e+00 1.167104e+00 -9.308795e+00 -3.710322e+00 -4.393897e+00 -1.015581e+01 2.108918e-01 1.887529e+00 -5.467045e+00 -1.726463e+00 -1.206678e+00 8.312752e-01 -4.787521e-01 7.330266e-01 -8.118815e-02 -1.096249e+00 -3.312745e-01 8.126650e-01 -1.059046e-02 3.231649e-01 -1.879368e+00 1.743371e-02 -2.388010e-01 -1.849831e+00 4.446714e-02 
-8.973951e+00 -3.986840e+00 4.772897e-01 -7.673197e+00 1.713980e+00 -1.938587e+00 -1.008602e+01 2.142663e+00 7.088615e+00 -2.914897e+00 -3.201231e+00 -8.286185e+00 8.858038e-01 -1.158493e-01 5.228280e-01 2.095195e-01 -1.310902e+00 -7.407986e-01 4.216124e-01 -7.104416e-01 -1.640896e+00 -3.003013e+00 -5.658206e-01 -6.625875e-01 -9.921781e-01 1.270310e-02 
-7.017805e+00 -1.258696e+00 1.583495e+00 -8.471733e+00 -2.287307e+00 -1.848868e+00 -8.904939e+00 2.297056e+00 1.532630e+00 1.040530e-02 1.343125e+00 -4.869665e+00 8.891021e-01 -3.525309e-01 -4.237437e-01 -2.266599e-01 -5.402666e-01 -5.488927e-01 6.843387e-01 9.386463e-01 1.146124e+00 -7.078198e-01 1.510333e-01 5.067457e-01 1.405948e+00 -1.557249e-03 
-8.890835e+00 -4.717813e+00 3.836358e-01 -1.289050e+01 -5.097287e+00 -1.943260e+00 -9.170325e+00 -2.210250e+00 -4.061538e+00 -6.179994e+00 -4.048133e+00 -1.138280e+00 8.301751e-01 -4.472303e-01 -2.180031e-01 1.245698e-01 -4.315557e-01 -1.905325e+00 -5.505630e-01 6.394579e-01 9.111699e-01 -4.696562e-01 5.099642e-01 4.136841e-01 1.911378e+00 -1.099973e-02 
-8.757156e+00 -4.787041e+00 8.063126e-02 -9.401479e+00 -3.049152e+00 -9.698661e-01 -5.920428e+00 8.117967e+00 3.923507e+00 -3.079330e+00 1.230717e+00 2.249108e+00 8.513033e-01 -9.629310e-01 2.170414e-01 5.080797e-01 -2.004696e-01 1.139341e-01 4.366853e-01 2.710070e-01 3.169615e-01 8.861609e-01 -7.187824e-02 -4.367519e-01 3.825114e-02 -3.362691e-03 
-1.034043e+01 -3.312683e+00 1.851571e+00 -9.366102e+00 -7.431722e+00 -5.130902e+00 -8.380990e+00 3.788058e+00 3.544896e+00 1.179792e+00 -1.076606e+00 -2.288681e+00 8.497046e-01 -6.363218e-01 7.136735e-01 1.587907e+00 7.858530e-01 6.297542e-01 7.774228e-01 4.452042e-01 6.282326e-01 2.090499e-01 1.025254e-01 3.620732e-01 2.624655e-02 1.135522e-02 
-1.110766e+01 -8.760538e-01 3.389926e+00 -1.123628e+01 -5.504193e-01 1.928380e+00 -7.944571e+00 8.827102e-01 2.160217e+00 -4.028879e+00 -2.326398e+00 -4.103209e+00 8.625239e-01 -1.892727e-01 1.196207e-02 4.190262e-01 5.291462e-01 1.147718e+00 7.933363e-01 7.537918e-01 -8.699848e-01 -1.367225e+00 -1.548432e+00 -5.925236e-01 7.816918e-01 1.179689e-03 
-1.089719e+01 -3.104939e+00 6.668523e+00 -8.043831e+00 -3.197882e+00 4.947307e-01 -5.932233e+00 4.548542e+00 -2.134644e+00 -5.192593e+00 -4.592093e-01 2.169111e+00 8.813409e-01 3.630089e-01 -9.557799e-01 -9.144233e-01 6.521033e-01 1.186514e+00 1.308945e-01 6.685892e-01 4.680586e-01 -9.285772e-01 -1.481512e+00 -1.859100e-01 1.539254e+00 -1.705262e-02 
-9.425138e+00 -4.831102e+00 -2.327141e-01 -7.416883e+00 5.725167e-01 1.839987e-01 -3.375848e+00 3.387801e+00 -7.285047e-02 -7.635295e+00 -2.040600e+00 3.928672e+00 8.413836e-01 8.248512e-01 -1.037466e+00 -1.165273e+00 1.466130e-01 -4.387278e-01 -9.454800e-01 -1.087164e+00 3.541055e-01 1.560050e-01 -2.563049e-01 -6.581909e-01 5.785787e-02 -2.966919e-02 
-9.366646e+00 -6.114058e+00 -9.092259e-01 -8.015283e+00 -2.060617e+00 -3.604240e+00 -7.322406e+00 4.875805e+00 1.854396e-02 -4.424561e+00 -2.149055e+00 1.391647e+00 7.750117e-01 1.091898e+00 -3.936850e-01 -9.871038e-01 -2.198772e-01 2.845311e-01 -4.978232e-01 -2.044661e+00 -6.487765e-01 2.164502e+00 1.099469e+00 -4.481576e-01 -1.563617e+00 -4.791508e-02 
-7.748680e+00 -4.558824e+00 1.352434e+00 -1.051749e+01 -3.312691e+00 -7.495348e-01 -1.268531e+01 2.489606e+00 1.863648e+00 -5.694419e+00 -4.772430e+00 -3.425188e+00 7.673426e-01 1.209118e+00 2.938053e-01 5.928689e-01 -1.079945e-01 1.622463e-01 -7.666793e-01 -1.492831e+00 -3.854547e-01 9.748254e-01 1.362952e+00 7.092549e-01 -1.168820e+00 -5.141298e-02 
-6.275930e+00 -5.209504e+00 9.404297e-01 -7.592916e+00 1.673769e-01 -1.527618e+00 -1.150081e+01 1.753756e+00 7.719616e+00 -6.656849e-01 -1.334082e+00 -1.972044e+00 6.787860e-01 1.340042e+00 3.224891e-01 5.729229e-01 -8.233185e-02 9.625517e-01 1.050324e+00 1.450749e+00 7.712998e-01 1.227291e+00 -3.191036e-01 9.993042e-01 4.015439e-02 -5.185245e-02 
-4.924904e+00 -3.814353e+00 1.806803e+00 -8.168039e+00 2.697512e-01 -4.687708e+00 -8.750802e+00 3.021552e+00 9.507406e-01 -2.699971e+00 1.098188e+00 -2.335846e-01 6.324315e-01 1.952045e+00 7.475869e-02 1.640859e-01 4.932494e-01 1.041827e+00 1.716198e+00 3.206789e+00 1.151711e+00 4.927941e-01 -3.501147e-01 7.750958e-01 8.059799e-01 -8.855486e-02 
-4.078321e+00 -4.873848e+00 1.728204e+00 -9.601665e+00 9.609204e-01 3.616468e+00 -2.035914e+00 8.466331e+00 6.611453e+00 -7.517303e+00 -8.784318e-02 -3.382385e-03 5.832049e-01 2.538492e+00 6.075205e-01 -9.086260e-01 1.132649e+00 1.201321e+00 1.774139e+00 3.305985e+00 1.248990e+00 -6.502659e-01 -4.302564e-01 -1.358497e+00 4.943512e-01 -1.295308e-01 
9.127426e-01 -4.352858e+00 1.778976e+00 -7.046865e+00 1.499674e+00 5.259413e+00 -1.383808e+00 4.891874e+00 4.881700e+00 -4.019184e+00 -1.520070e+00 -3.796188e-01 3.723588e-01 3.320637e+00 1.269933e+00 -1.600340e+00 2.479640e+00 1.241226e+00 1.039690e+00 2.754192e+00 -6.182374e-01 -1.400199e+00 5.894790e-01 -1.577381e+00 -1.216910e-01 -1.623957e-01 
3.497705e+00 -1.902649e+00 -3.588787e+00 -2.490260e+00 5.559023e+00 2.369514e+00 1.345619e+00 7.063547e+00 2.502807e+00 -2.157361e+00 -6.817436e+00 5.727295e-01 1.611683e-01 3.153925e+00 2.119727e+00 -1.183117e+00 2.719723e+00 8.400066e-01 -2.358605e-01 1.564287e+00 -1.585920e+00 -2.126573e+00 1.470905e+00 -9.283239e-01 4.641612e-01 -1.420130e-01 
7.890268e+00 1.049710e+00 -3.536400e+00 6.744595e-01 4.176829e+00 1.134218e+00 3.329390e+00 6.317565e-01 -3.995931e+00 -2.432547e+00 -3.423919e+00 -1.130095e+00 3.147107e-02 1.986597e+00 2.366238e+00 -4.902520e-01 1.944550e+00 2.837443e-01 -3.105465e-01 1.940411e+00 -1.222687e+00 -1.369968e+00 6.373917e-01 -8.350195e-01 -6.637047e-01 -8.386704e-02 
8.202543e+00 3.023500e+00 -1.529694e+00 1.362873e-01 3.822376e+00 4.499763e+00 3.428924e+00 2.666790e+00 4.174047e-01 -9.560978e-01 -3.777539e+00 2.692662e+00 4.358369e-02 6.604496e-01 1.513591e+00 2.377260e-01 7.596610e-01 -8.285460e-01 -5.841702e-01 9.894644e-01 -1.064597e+00 -5.060387e-02 9.120120e-01 4.002869e-01 -8.848912e-01 -4.033585e-02 
8.493309e+00 5.015259e+00 -1.701831e+00 1.362613e+00 3.786719e+00 2.641556e+00 7.276597e+00 9.768157e-01 -9.254413e-01 -1.432857e+00 -7.215117e+00 -4.758108e+00 1.181591e-02 -2.164710e-01 7.451391e-01 2.330292e-01 9.603098e-01 -8.044091e-01 -1.245403e+00 -1.715910e-01 -1.218618e-01 7.595108e-01 1.918314e+00 2.632107e-01 -1.434240e+00 -1.088453e-02 
6.498432e+00 3.682529e+00 -3.317442e+00 9.639680e-01 1.611348e+00 -1.305005e+00 4.319338e+00 1.568034e+00 7.145426e-01 1.902854e+00 -2.920403e+00 -2.037720e+00 -3.068340e-02 -3.744330e-01 1.657893e-01 6.879194e-02 1.865093e+00 -4.921468e-01 -1.726093e+00 1.395905e-01 -1.972437e-03 5.232668e-03 1.866061e+00 1.040663e-01 -1.466633e+00 -1.066383e-02 
7.659969e+00 4.445891e+00 -1.477380e+00 5.062168e+00 1.260298e+00 -2.190413e+00 2.026228e+00 5.718250e-01 -3.469458e-01 5.729545e+00 -2.536433e+00 -5.936106e+00 1.418197e-02 -2.579746e-02 5.267627e-01 4.829082e-01 1.093011e+00 -2.461999e-01 -1.706072e-01 8.432788e-01 -1.390510e-01 1.093134e-01 1.743562e+00 1.517024e+00 3.500034e-01 -5.662489e-03 
6.747049e+00 4.137131e+00 -1.297959e+00 7.611978e+00 2.624853e+00 -1.714719e+00 6.752060e+00 2.859423e+00 1.543202e-01 4.793005e+00 -5.596549e+00 -4.051502e+00 -1.091850e-02 -4.521551e-01 1.305038e+00 8.222750e-01 2.294694e+00 -8.980365e-01 6.032655e-01 3.472877e-01 1.545490e-01 3.055081e-02 7.211421e-01 9.478700e-01 5.472659e-01 3.097861e-02 
8.240013e+00 7.421772e+00 -2.970309e-01 3.503664e+00 2.048967e+00 1.993377e+00 1.027663e+01 -3.641337e-01 -9.876299e-02 5.839877e+00 1.708077e+00 -2.001200e+00 -2.637899e-02 -1.361641e+00 1.068534e+00 -3.857420e-01 2.310745e+00 -1.913704e+00 7.507852e-01 6.905688e-01 1.696056e+00 2.311034e-01 -1.108103e+00 6.220173e-01 2.177972e+00 6.182305e-02 
3.947634e+00 8.719778e+00 2.037593e-01 1.321669e+01 -3.273170e+00 -3.805727e-01 1.930575e+00 2.808759e+00 7.432053e-01 5.453399e+00 -3.033077e-01 -1.268843e+00 1.444901e-01 -9.718367e-01 3.617563e-01 5.017352e-02 2.574891e-01 -1.040400e+00 1.324610e-01 -2.923986e-01 2.868723e-01 -1.948690e-01 -7.312950e-01 7.875921e-01 2.078641e+00 2.154068e-02 
2.251472e+00 7.497235e+00 -4.156949e+00 1.381354e+01 -5.359212e+00 8.964399e-01 7.889814e+00 9.077435e+00 5.141287e-01 -1.411664e-01 -2.072968e+00 3.562425e+00 2.455929e-01 -1.232874e+00 -5.068668e-01 1.252031e+00 -6.537414e-01 1.816963e+00 -6.019460e-01 -4.723702e-02 8.100405e-01 1.266693e+00 -2.467119e-01 -1.566958e-03 2.289641e+00 6.850409e-03 
4.882136e+00 5.908181e+00 8.828671e-01 3.744487e+00 1.126943e+00 -5.039454e-01 6.483475e+00 -4.270000e-01 -1.126471e+00 4.127052e+00 2.319337e-01 3.559893e+00 -3.920102e-02 1.840508e-01 -3.517431e-01 1.190720e+00 -2.553781e+00 2.106866e+00 2.255760e-01 1.281004e+00 -8.995060e-01 7.934246e-02 4.349214e-01 1.343815e+00 2.013913e+00 -4.654102e-02 
1.608393e+00 6.293236e+00 5.623569e+00 4.971058e+00 8.933725e+00 -9.546666e-01 7.763994e+00 5.303948e+00 7.169541e+00 5.269491e+00 1.432621e+00 7.032640e+00 9.971863e-02 4.946394e-01 -2.681131e-02 4.658617e-01 -1.854500e+00 1.819199e-01 2.794615e-01 -2.171454e-01 -1.936777e+00 -1.276631e+00 1.202435e+00 1.067866e-01 -7.827498e-01 -4.385380e-02 
5.189427e+00 7.563062e+00 1.267100e+00 4.869027e+00 1.146936e-01 1.672861e+00 8.398506e+00 1.979724e-01 -2.187788e+00 4.922677e+00 4.662975e+00 7.065615e+00 -1.527786e-02 2.480249e-02 1.236405e-01 -1.070920e+00 -4.767721e-01 -2.259149e+00 -6.663456e-02 -6.804956e-01 -1.677692e+00 -2.474471e+00 -1.567857e-01 -1.272952e+00 -2.000161e+00 -3.869492e-03 
4.571023e+00 6.535738e+00 -2.019757e+00 3.978763e+00 -3.943487e+00 1.205344e+00 5.846572e+00 -9.189363e-01 -5.338365e+00 5.473198e+00 -3.754555e+00 -2.104185e+00 1.436234e-02 3.758359e-01 4.697256e-02 -1.534560e+00 -3.071579e-01 -2.262527e+00 -3.637918e-01 -6.020980e-01 -1.905454e+00 -2.237008e+00 -6.680285e-01 -2.312457e+00 -2.760772e+00 -2.587453e-02 
3.524834e+00 6.405133e+00 -6.500720e-01 1.856774e+00 -3.730197e+00 -1.917123e+00 4.039708e+00 -5.704017e+00 -7.244872e+00 3.241270e+00 -3.539239e+00 -1.872501e+00 -1.587033e-02 -2.862778e-01 -2.177310e-01 -7.524897e-01 2.572137e-01 4.431893e-01 -6.462320e-01 -1.385467e-01 -7.835885e-01 6.300622e-01 4.549284e-01 -2.336325e+00 -2.371333e+00 -4.207933e-03 
4.319869e+00 7.107064e+00 -1.090646e+00 4.941395e+00 -4.564638e-01 -9.786332e-01 6.932904e+00 -1.272326e+00 -1.486955e+00 2.770052e+00 -6.028555e+00 -2.302165e+00 -2.935779e-02 -1.146770e-01 -1.373819e-01 2.926013e-02 2.330215e-01 1.605313e+00 4.016587e-01 5.049067e-01 -7.140428e-01 9.057564e-01 2.275046e-01 5.529691e-01 2.644430e-01 -8.493925e-03 
3.883615e+00 6.188744e+00 -2.959903e+00 5.673779e+00 5.871283e-01 -4.663104e-01 7.162607e+00 -3.543275e+00 -9.631824e-01 8.548892e+00 -5.881652e+00 -4.692058e+00 -1.445746e-02 4.165659e-02 -1.526983e-01 3.024694e-01 3.077484e-01 1.253672e+00 1.397312e+00 6.864276e-01 2.610487e-01 1.541539e+00 1.380155e+00 2.084044e+00 1.391703e+00 -8.022547e-04 
3.818247e+00 5.957022e+00 -7.185407e-01 3.235368e+00 1.924414e+00 2.488231e+00 6.809655e+00 -5.569521e+00 -3.950427e+00 3.956910e+00 1.814967e-01 6.278086e-01 -2.881372e-02 -7.688169e-02 -2.464534e-01 6.035603e-01 -1.811356e-01 2.432057e-01 9.909423e-01 -1.858648e-01 -2.100618e-01 -1.753440e-02 -9.405637e-02 7.926699e-01 9.954636e-01 -5.617499e-04 
3.983928e+00 6.216662e+00 6.762223e-01 4.248529e+00 1.347726e+00 3.336006e+00 7.533470e+00 -2.250176e+00 1.694561e+00 9.548616e+00 3.775957e+00 3.621029e+00 -2.015364e-02 -1.275941e-01 -6.066174e-02 5.856982e-01 -4.692264e-01 3.642685e-02 6.104232e-01 3.429675e-01 1.215799e+00 -6.006134e-01 -2.251977e+00 -4.040400e-01 5.999786e-01 -4.567385e-03 
3.885304e+00 5.860838e+00 1.090925e-01 4.748342e+00 3.792654e-01 2.074920e+00 5.818148e+00 -2.969185e+00 -2.903499e+00 1.799908e+00 -6.894010e+00 -1.481391e+00 -2.931845e-02 2.063322e-02 -3.432092e-01 4.561298e-01 1.153981e-01 9.282510e-01 4.809586e-01 5.659900e-01 1.132265e+00 -2.480364e-01 -1.637736e+00 -1.041860e+00 -5.240331e-01 -9.671569e-03 
3.212116e+00 5.933527e+00 -4.452288e-01 2.571161e+00 1.541837e+00 2.792462e+00 9.373198e+00 1.235552e+00 -4.489714e+00 -1.632491e+00 -4.364099e+00 -6.375656e-01 -3.704202e-02 -1.093086e-01 -1.405598e-01 5.085252e-01 3.878512e-01 8.178688e-01 2.099908e-01 1.439938e+00 1.105968e+00 -2.758442e-01 -1.318629e+00 -1.050965e+00 -8.094808e-01 -9.949088e-03 
4.307319e+00 4.382544e+00 2.122834e+00 4.651043e+00 6.468614e+00 5.164797e+00 8.719742e+00 -1.651062e+00 -2.098471e+00 1.358784e+00 -9.577737e-01 1.369405e-01 -6.872737e-02 1.190134e-01 2.964311e-01 8.008841e-01 7.420390e-01 -1.832075e-01 -6.305871e-01 8.596422e-01 1.553094e+00 1.072029e+00 1.223613e+00 6.763541e-01 -2.743219e-01 -7.132769e-04 
3.226377e+00 6.253010e+00 2.211977e+00 6.236434e+00 2.392397e+00 2.841022e+00 1.328236e+01 2.620604e+00 -8.717299e-02 3.176035e+00 -4.446989e+00 -1.235541e+00 -5.019462e-02 2.272011e-01 2.878208e-01 -6.553672e-02 3.565795e-01 -9.941250e-01 -7.420354e-01 2.422518e-01 2.115529e-01 8.827869e-01 2.081604e+00 7.277130e-01 -6.442280e-02 8.610236e-03 
4.473241e+00 7.183252e+00 2.784910e+00 6.625900e+00 -9.620521e-01 -1.102296e+00 8.161776e+00 4.103756e+00 2.553737e-01 5.513711e+00 -3.470795e+00 -2.554013e+00 -2.630854e-02 3.253261e-01 5.289904e-01 -7.678545e-01 -4.454852e-01 -1.310765e+00 -2.428644e-01 -5.083883e-01 -2.594996e-01 -7.929986e-01 3.782355e-01 4.910248e-01 -8.879365e-02 1.264861e-02 
4.265161e+00 5.972277e+00 -1.103950e+00 3.366630e+00 2.865443e-01 2.215831e+00 1.086344e+01 -5.840926e-01 -1.252701e+00 6.698066e+00 5.309767e-01 3.857971e-01 -1.520026e-02 2.492500e-01 1.075373e-02 -2.975281e-01 -1.015142e-01 -4.914479e-02 3.571715e-02 -1.222770e+00 -2.192439e+00 -9.247645e-01 -2.610925e-01 9.169272e-01 -2.076434e-01 1.392710e-03 
5.414557e+00 7.167862e+00 -5.847466e-02 3.858519e+00 9.677127e-01 4.263070e+00 7.387262e+00 -1.346211e+00 -5.480700e+00 1.488946e+00 -9.916325e-01 -1.117697e+00 -2.298152e-02 -6.508080e-01 -7.339713e-01 -6.987588e-02 -4.652043e-01 3.989859e-01 -3.883936e-01 -2.720048e-01 -1.974309e+00 -7.490741e-01 -1.276523e+00 -6.363866e-01 2.587406e-01 -1.048722e-02 
4.001969e+00 6.314474e+00 2.146029e+00 7.112554e+00 1.181790e+00 3.369249e-01 7.555772e+00 -5.616605e+00 -1.842959e+00 3.882955e+00 -1.101934e+00 -2.991916e+00 -4.489458e-02 -9.892489e-01 -9.085525e-01 4.697998e-01 -3.311029e-01 2.149616e-02 -1.500917e+00 -3.747385e-01 -7.240205e-01 -1.598501e-01 -1.326912e+00 -1.757914e+00 1.631743e-01 -1.383104e-02 
1.350797e+00 3.342297e+00 8.105409e-01 2.426917e+00 5.852543e-01 -2.104811e+00 8.455585e+00 -3.251534e+00 -3.194868e+00 5.386535e-01 -5.836272e+00 4.285469e-01 -6.389749e-02 -1.077869e+00 -1.062331e+00 4.025431e-02 -7.548842e-01 -1.361453e-01 -1.517750e+00 3.036460e-01 -1.445574e-01 3.219756e-01 -5.244887e-01 -1.442362e+00 6.512950e-01 -1.008348e-02 
