-1.079122e+01 -3.141652e+00 -5.805733e+00 -4.586748e+00 -1.194686e+00 5.695540e+00 7.184787e-01 1.989550e+00 -6.191637e+00 5.602590e+00 2.805949e+00 1.155344e+00 1.335460e-02 -1.242852e+00 1.331813e+00 1.173298e+00 1.361247e+00 9.114658e-01 5.245791e-02 8.082118e-01 1.057245e-01 7.525663e-01 6.747671e-01 -2.937006e-01 2.541423e-01 -3.563661e-02 
-1.435544e+01 -1.868121e+00 -5.271106e-01 7.278733e-01 6.108963e-01 6.872613e+00 -1.248987e+00 -1.583247e-01 -1.725206e+00 7.836547e+00 6.947858e-01 1.224411e+00 -8.687806e-02 -1.122937e+00 2.115115e+00 1.202050e+00 8.804935e-01 9.265402e-01 -8.489879e-01 9.157198e-01 2.076584e+00 8.041045e-01 -1.597961e-01 -6.409096e-01 -3.873426e-01 -3.536623e-02 
-1.522338e+01 2.880651e+00 -2.578553e+00 -4.378228e-01 2.459852e+00 5.369294e+00 5.743270e+00 3.592110e+00 -4.662020e+00 7.859447e+00 2.393028e+00 2.391522e+00 -1.147121e-01 -3.820595e-01 2.557274e+00 1.285421e+00 5.455930e-01 1.895383e+00 -1.749563e-01 1.702255e+00 2.994735e+00 6.556165e-02 -6.838903e-01 -1.613886e-01 -7.449703e-02 -2.569460e-02 
-1.418983e+01 4.422770e+00 -1.409072e+00 -2.258744e+00 1.610747e+00 1.613723e+00 2.784682e+00 1.157119e+01 -2.935922e+00 3.675181e+00 -1.921377e-01 -1.399458e+00 -9.944320e-02 7.006904e-01 2.240075e+00 8.575443e-01 4.166300e-01 2.059009e+00 1.918015e-01 2.706376e+00 3.403923e+00 6.353876e-01 -1.160148e+00 2.470593e-01 -8.749133e-02 -3.542662e-03 
-1.278433e+01 6.499272e+00 1.062352e+00 -3.654747e-01 7.782305e+00 7.450203e+00 7.212918e+00 1.109847e+01 -5.258470e+00 4.263821e+00 2.442468e+00 2.094794e+00 -1.088358e-01 1.369382e+00 1.507737e+00 2.227334e+00 1.716189e+00 2.521959e+00 1.171292e+00 9.511782e-01 1.515028e+00 1.143211e+00 -1.557042e+00 5.040264e-01 4.465957e-02 4.504097e-03 
-1.207152e+01 7.522943e+00 1.940158e+00 2.774849e+00 8.244715e+00 6.791165e+00 1.154807e+01 1.310811e+01 1.749957e+00 3.833620e+00 1.905362e+00 9.353191e-01 -1.075295e-01 1.781797e+00 2.064428e+00 2.805724e+00 2.686463e+00 2.518468e+00 1.380588e+00 8.703343e-01 -1.107458e+00 -4.995532e-01 -5.788793e-02 3.009527e-01 -3.408358e-01 2.682357e-02 
-9.435622e+00 8.869249e+00 6.883503e+00 5.626325e+00 1.175266e+01 8.637032e+00 6.117467e+00 1.039879e+01 -1.288907e+00 -4.985809e-03 3.864410e+00 1.447432e+00 -8.814847e-02 3.195822e+00 2.349115e+00 2.116918e+00 1.310216e+00 -4.513020e-01 -1.894004e+00 -1.492708e+00 -1.929476e+00 -1.278722e+00 -5.032665e-01 7.212362e-01 -7.023047e-01 7.435113e-02 
-6.955202e+00 1.355992e+01 9.708970e+00 8.177670e+00 1.221791e+01 7.923249e+00 7.684078e+00 6.383740e+00 -7.418470e+00 5.520144e+00 6.016548e-01 -2.779956e+00 2.433097e-02 4.491055e+00 9.181494e-01 8.909135e-01 1.005629e+00 -2.201848e+00 -4.135569e+00 -3.380883e+00 -2.733653e+00 -2.979951e+00 -1.774721e-01 1.131196e+00 -1.000871e+00 1.231062e-01 
6.366247e-01 1.522636e+01 7.762537e+00 3.484195e+00 3.539201e+00 -2.585858e+00 1.681374e+00 4.813273e+00 -7.067868e+00 9.042268e-01 6.700503e+00 4.409074e-01 1.969896e-01 3.713990e+00 -1.042548e+00 2.871446e-01 1.211008e+00 -2.909429e+00 -5.125989e+00 -3.634626e+00 -3.631289e+00 -1.535639e+00 3.071372e-01 4.814211e-01 -9.791158e-01 1.266881e-01 
5.347637e+00 8.935137e+00 5.955209e+00 8.874060e+00 1.342206e+00 -8.275236e+00 -3.138299e+00 2.232605e+00 -1.026032e+01 2.491653e+00 6.143297e+00 -3.565775e+00 3.654323e-01 1.260906e+00 -2.612087e+00 8.876458e-01 6.738335e-01 -1.909911e+00 -2.746653e+00 -1.392764e+00 -2.961671e+00 1.039644e+00 -7.512310e-01 -8.927714e-01 8.023733e-01 6.823817e-02 
2.982908e+00 5.968901e+00 1.019611e+01 1.133317e+01 2.643371e+00 -8.893675e+00 -6.644473e+00 -5.682090e+00 -7.546180e+00 3.044946e+00 3.500694e+00 -3.055238e+00 3.747416e-01 1.923337e-01 -3.306319e+00 7.345133e-01 -3.014860e-02 -5.760708e-01 -8.278227e-02 3.360008e-01 -1.384865e+00 6.650674e-01 -1.986140e-01 -1.331354e+00 7.649193e-01 4.065803e-02 
-1.823815e+00 5.128215e+00 1.293041e+01 7.622350e+00 3.116267e+00 -2.656108e+00 4.883182e+00 -3.176936e+00 -1.981095e+00 6.936302e-01 -2.262298e+00 2.979984e+00 2.766458e-01 3.099680e-01 -2.463878e+00 1.278603e-01 -1.718718e+00 -1.070062e+00 8.469002e-01 5.091153e-01 -1.543075e+00 1.116863e+00 -6.915131e-01 -7.227138e-01 1.550777e+00 5.171322e-02 
5.184019e+00 5.982214e-01 7.947501e+00 3.959307e+00 -2.281841e-01 -5.809333e+00 -6.493626e-01 5.937219e-01 -7.882142e+00 8.101683e-01 4.246532e+00 9.926240e-01 4.446729e-01 1.207965e+00 -1.858251e+00 -2.207365e+00 -6.444486e-01 -1.708339e+00 1.041048e+00 -4.263047e-01 -4.226993e-01 9.870028e-02 -1.679704e+00 7.582723e-01 7.781105e-01 7.933322e-02 
5.796921e+00 -6.989133e-01 7.718813e+00 3.967403e+00 -2.572329e+00 -5.582906e+00 -3.590278e+00 -8.620678e+00 -4.508023e+00 1.514766e-01 2.156809e+00 2.164178e+00 5.890326e-01 1.059445e+00 -2.331544e+00 -3.614350e+00 -3.323086e-01 -1.813960e+00 1.652707e+00 -3.020889e+00 -2.317987e+00 1.188651e+00 -1.108135e+00 1.055735e+00 4.508399e-01 1.192474e-01 
5.212363e+00 -4.087873e-01 1.765082e+00 9.938398e+00 -3.054026e+00 -2.225037e+00 -4.539266e+00 -5.073715e+00 -5.789214e+00 -5.082496e+00 5.082502e+00 1.243217e+00 6.152142e-01 -7.306165e-01 -2.438062e+00 -3.362534e+00 -1.809025e+00 -1.508134e+00 2.408664e+00 -7.039670e-01 -3.354518e+00 4.946978e+00 4.162907e-01 -1.776469e+00 1.302958e+00 1.160806e-01 
3.459236e+00 -6.026000e+00 -2.050128e+00 2.971262e+00 -4.540611e+00 3.815280e+00 -8.276308e+00 -1.193315e+01 2.915695e+00 -1.900713e+00 2.598392e+00 5.108887e+00 7.876123e-01 -6.917244e-01 -2.791559e+00 -3.413433e+00 -3.593274e+00 -9.596278e-01 1.716910e+00 1.485136e+00 -2.201624e+00 6.103998e+00 5.874659e-01 -1.417459e+00 5.558683e-01 1.043569e-01 
2.699779e+00 -8.928546e+00 -3.980700e+00 -4.587746e+00 -6.784715e+00 1.534895e+00 -1.826182e+00 -1.452263e+01 1.314089e+01 3.917716e+00 -4.856605e+00 6.035060e+00 9.257862e-01 -5.417405e-01 -2.320803e+00 -2.420358e+00 -4.521482e+00 -3.884118e-01 8.733665e-01 2.354661e+00 -1.601068e+00 5.084004e+00 1.194699e+00 -1.886401e+00 4.902759e-01 8.863722e-02 
3.594591e+00 -1.039683e+01 -6.475459e+00 -6.735895e+00 -5.505123e+00 1.121676e+00 2.478861e+00 -1.490434e+01 1.654692e+01 -1.411299e+00 3.906631e-02 2.547598e+00 9.555311e-01 1.049081e-01 -9.207733e-01 -2.056219e+00 -2.482609e+00 4.385700e-01 2.862420e-01 2.392372e+00 7.533745e-01 1.308750e+00 9.313488e-03 -6.008512e-01 -2.871238e-01 4.231726e-02 
2.435983e+00 -9.827387e+00 -8.124043e+00 -7.815429e+00 -4.513829e+00 3.488597e+00 1.856457e+00 -1.159346e+01 1.281520e+01 6.462948e-01 -3.069838e+00 4.975241e+00 9.744409e-01 3.620494e-01 -3.518124e-01 -1.328951e+00 -1.405265e+00 1.396013e+00 9.633538e-01 6.728325e-01 1.859277e+00 -1.903453e+00 -8.639887e-01 1.227452e+00 -6.652657e-01 1.148629e-02 
4.115674e+00 -1.018045e+01 -1.025955e+01 -7.827941e+00 -3.483204e+00 4.269639e+00 1.844230e+00 -9.630868e+00 9.622293e+00 -2.184346e-01 -1.299248e+00 4.203177e+00 9.748713e-01 4.447030e-01 -2.948286e-01 -5.938057e-01 -9.885811e-01 1.050082e+00 1.007262e+00 5.299136e-01 8.328320e-01 -1.745139e+00 -3.388073e-01 4.455949e-01 3.503470e-01 4.015350e-03 
4.249484e+00 -1.079580e+01 -8.733409e+00 -1.106805e+01 -8.156107e-01 4.777682e+00 1.855295e+00 -7.862986e+00 7.085933e+00 -9.986594e-01 1.949814e+00 1.880942e+00 9.735476e-01 5.927628e-01 -3.257082e-01 -2.813915e-01 -5.863708e-01 5.426183e-01 7.762671e-01 9.372104e-01 -4.820158e-01 -4.956441e-01 -5.856189e-01 4.242784e-01 6.408985e-01 1.221061e-04 
4.911356e+00 -1.138677e+01 -9.139805e+00 -1.005249e+01 -2.103823e+00 5.513441e+00 5.129010e+00 -1.260542e+01 1.068585e+01 -2.282859e+00 -2.427850e-01 5.846482e+00 9.760545e-01 2.004356e-01 -1.497097e-02 -3.103345e-01 -5.269206e-02 -2.542088e-02 7.262052e-01 8.949935e-01 -9.676791e-01 2.270138e-01 -4.885553e-01 8.445551e-02 7.511147e-01 2.016604e-04 
5.001956e+00 -1.085277e+01 -1.009087e+01 -9.635008e+00 -2.490427e+00 6.748032e+00 4.900119e+00 -1.251626e+01 9.805194e+00 -1.249588e+00 -1.476677e+00 7.358081e+00 9.744598e-01 6.203501e-02 1.138621e-01 -5.330230e-01 3.037404e-01 -1.099714e-01 2.222176e-01 8.953239e-01 -1.077982e+00 5.250659e-01 -5.583413e-01 2.028573e-01 3.028755e-01 1.753938e-03 
4.741616e+00 -1.022682e+01 -1.113249e+01 -8.807920e+00 -2.772900e+00 6.915490e+00 4.796786e+00 -1.214262e+01 9.397731e+00 -2.535747e+00 8.362753e-01 5.220182e+00 9.754235e-01 -1.551874e-02 6.600094e-02 -2.824283e-01 -1.483124e-01 4.137701e-01 -2.260753e-01 4.077914e-01 -2.281031e-01 -2.006911e-01 -2.030902e-01 5.019515e-01 -4.423831e-01 1.464128e-03 
4.644529e+00 -1.080646e+01 -1.040218e+01 -1.017163e+01 -1.030929e+00 5.187746e+00 6.498026e+00 -1.348429e+01 1.035532e+01 -3.663922e+00 2.424570e+00 3.708470e+00 9.826328e-01 1.660422e-01 -2.495276e-01 -3.981352e-02 -1.722720e-01 4.572294e-01 -6.391283e-01 4.397707e-01 -3.289572e-01 2.847433e-02 -1.585006e-01 2.263412e-01 -3.294457e-01 1.444495e-03 
5.012476e+00 -1.107991e+01 -1.039629e+01 -1.052574e+01 -7.647216e-01 5.163207e+00 6.369013e+00 -1.326192e+01 9.407333e+00 -2.091143e+00 3.163484e-01 5.459372e+00 9.792887e-01 2.495919e-01 -2.879689e-01 -4.728718e-02 2.159965e-01 -6.133871e-02 -2.555839e-01 -2.171443e-01 -2.233738e-01 4.427416e-01 -4.084925e-01 3.912375e-01 -6.576278e-01 8.667767e-04 
5.696738e+00 -1.167386e+01 -1.065804e+01 -9.637458e+00 -1.208370e+00 4.428532e+00 6.312859e+00 -1.360140e+01 9.942764e+00 -2.264393e+00 -8.500791e-02 5.591258e+00 9.797497e-01 1.827413e-01 -7.282114e-02 -2.299326e-01 8.417136e-01 -4.117916e-01 4.035816e-02 -1.246004e+00 8.409723e-01 -3.414740e-01 5.929337e-01 -5.472804e-01 -3.146127e-01 -4.773498e-04 
5.463471e+00 -1.123296e+01 -1.124100e+01 -7.995025e+00 -2.990874e+00 6.017178e+00 3.803648e+00 -1.320094e+01 1.181772e+01 -5.277974e+00 4.047252e+00 9.906493e-01 9.811989e-01 1.822000e-02 -7.369585e-02 -7.248316e-02 1.015222e+00 -5.101056e-02 -7.560313e-01 -9.299036e-01 2.542390e-01 8.006196e-01 3.073034e-01 -1.032228e+00 2.457012e-01 2.260065e-03 
5.332738e+00 -1.109404e+01 -1.112949e+01 -7.228421e+00 -1.976812e+00 4.962551e+00 1.550686e+00 -9.309919e+00 7.442761e+00 8.941624e-01 -2.177283e+00 4.369768e+00 9.792910e-01 -1.478803e-01 -1.119782e-01 1.590218e-01 1.108092e+00 3.118544e-01 -1.250692e+00 -1.127383e+00 5.400593e-01 1.061455e+00 2.052279e-01 -9.178888e-01 -2.814639e-01 5.012012e-03 
5.285576e+00 -1.173830e+01 -1.052298e+01 -6.654152e+00 -6.355537e-01 1.116041e+00 4.100581e+00 -1.413647e+01 1.466043e+01 -2.133903e+00 -3.798656e+00 7.298623e+00 9.908184e-01 -1.828851e-01 4.361858e-02 2.694537e-01 1.509499e+00 2.358758e-01 -1.399429e+00 -2.139661e+00 2.303243e+00 -2.668536e-01 7.978001e-01 -4.982265e-01 -1.821855e+00 4.254341e-04 
5.046284e+00 -1.198108e+01 -1.022194e+01 -4.767435e+00 -8.267581e-01 6.256386e-01 5.274763e-01 -1.043334e+01 1.382868e+01 -2.810288e+00 -7.514977e-01 1.029951e+00 1.000000e+00 -6.265667e-01 4.676328e-01 5.356148e-01 1.918035e+00 -6.481473e-01 -1.060103e+00 -2.524704e+00 3.115635e+00 -8.053268e-01 5.692198e-01 4.055914e-01 -3.331885e+00 -7.252514e-03 
4.692273e+00 -1.057135e+01 -1.034750e+01 -1.678021e+00 -2.386521e+00 1.188488e+00 -6.383052e+00 -1.123013e+00 7.290489e+00 5.632517e-01 8.432269e-01 -6.448718e+00 9.729716e-01 -5.947035e-01 1.146345e+00 9.261476e-01 1.556501e+00 -5.375759e-01 -1.413473e+00 -1.930547e+00 3.334524e+00 -1.557795e+00 9.103729e-01 -2.430563e-01 -2.083372e+00 -2.732337e-02 
2.496556e+00 -9.339354e+00 -8.539157e+00 -1.263108e-01 -4.342064e+00 -3.741883e-01 -5.831019e+00 -2.384691e-01 7.101099e+00 2.391684e+00 -2.470268e+00 -5.415985e+00 9.519518e-01 -4.518279e-01 1.600005e+00 1.542780e+00 7.125560e-01 -6.067201e-01 -1.216977e+00 -1.144597e+00 2.382409e+00 -4.901694e-01 -1.356955e-01 -9.462684e-01 6.879572e-01 -4.609317e-02 
3.586922e+00 -7.327436e+00 -6.733635e+00 -1.192208e+00 -1.565780e+00 -5.451410e+00 -2.372907e+00 -2.561283e+00 1.023525e+01 -1.830246e-01 -4.154552e+00 1.047292e-01 8.782256e-01 -3.458507e-02 1.266776e+00 2.218251e+00 -3.054118e-02 -1.251659e+00 -2.051725e-01 -6.093488e-01 1.068695e+00 9.248236e-01 -1.900350e+00 -6.891488e-01 2.636534e+00 -5.451214e-02 
3.339819e+00 -5.603016e+00 -4.314972e+00 -1.447561e+00 -4.270730e+00 -2.139297e+00 -7.200582e+00 2.197840e+00 9.905457e+00 -3.115628e+00 -2.983951e+00 1.193014e+00 8.169071e-01 8.129688e-02 6.794375e-01 3.172794e+00 -1.075914e+00 -1.759596e+00 1.035826e+00 -1.233454e+00 1.529769e+00 -5.424854e-01 -2.261250e+00 8.276213e-01 1.748733e+00 -4.979343e-02 
4.097715e+00 -6.105639e+00 -1.368340e+00 -1.170102e+00 -8.680485e+00 1.045180e+00 -8.745014e+00 3.002307e+00 1.051243e+01 -6.184843e+00 -2.345676e+00 3.429453e+00 7.679332e-01 6.651610e-02 2.495913e-01 3.498224e+00 -1.335939e+00 -2.739398e+00 3.126190e+00 -2.260079e+00 1.085244e+00 -1.028943e+00 -2.399559e+00 2.240430e+00 3.930221e-01 -3.418515e-02 
2.647644e+00 -6.553065e+00 4.642164e+00 -5.516935e+00 -9.582691e+00 1.556647e+00 -8.812235e+00 4.628582e+00 4.250083e+00 -5.913658e+00 7.634008e-01 1.665317e+00 7.581308e-01 -1.666093e-01 9.690193e-01 2.390236e+00 -1.326944e+00 -1.192318e+00 2.792810e+00 -1.938623e+00 -8.268385e-02 -3.418703e-02 -3.430641e+00 2.846648e+00 3.507636e-01 -2.175836e-02 
4.265591e+00 -5.604455e+00 6.278918e+00 -5.837217e+00 -1.260679e+01 8.331567e+00 -1.286748e+01 1.649565e+00 7.918223e+00 -1.078181e+01 5.173923e+00 1.833688e+00 7.366880e-01 -1.153158e-01 1.719714e+00 1.337057e+00 -6.446772e-01 1.908870e+00 1.149282e+00 -1.416269e+00 1.016455e-01 2.769183e-01 -2.985791e+00 2.603173e+00 -1.249579e-01 -3.712132e-02 
2.422835e+00 -1.008511e+00 3.812578e+00 -5.748722e+00 -8.269170e+00 8.181558e+00 -1.483246e+01 2.460792e+00 1.103162e+01 -1.797035e+01 7.489492e+00 3.744715e+00 7.237379e-01 1.866636e-01 2.120830e+00 1.140713e+00 1.728623e+00 2.410657e+00 -1.952986e+00 1.715377e+00 -1.067811e-01 -1.061803e+00 -1.111087e+00 1.564947e+00 -8.772892e-01 -5.673261e-02 
3.633541e+00 -2.793437e-01 5.731739e+00 -4.277595e+00 2.071033e-01 3.479134e+00 -1.281624e+01 4.594430e+00 8.506249e+00 -1.508545e+01 7.307144e+00 1.764965e+00 5.995231e-01 -1.465221e-01 2.270881e+00 1.401592e+00 3.315567e+00 3.391570e+00 -5.854421e+00 4.142413e+00 3.438943e-01 -4.121917e+00 2.538126e+00 7.838473e-02 -2.560642e+00 -6.483359e-02 
3.896987e+00 1.388528e+00 1.061932e+01 2.346370e+00 -3.936350e+00 -5.782064e+00 -2.609673e-01 2.622245e+00 -1.352946e+00 -9.317268e+00 7.521526e+00 -2.686768e+00 5.430503e-01 -3.018839e-01 2.066505e+00 1.374062e+00 4.131949e+00 3.429129e+00 -5.850348e+00 2.618367e+00 6.943620e-01 -4.476076e+00 4.366766e+00 -2.379627e-01 -3.540546e+00 -6.688806e-02 
2.795904e+00 4.551431e+00 9.883507e+00 6.693073e+00 2.184650e+00 -1.395873e+01 5.588365e-01 3.288310e+00 -6.499077e+00 -2.417712e+00 5.549829e+00 -7.753780e+00 5.028639e-01 -1.126011e+00 1.928991e+00 4.070238e-01 4.437057e+00 2.592968e+00 -3.531327e+00 1.049547e+00 1.171061e+00 -2.068350e+00 1.911762e+00 -3.319936e-01 -2.029852e+00 -5.741396e-02 
1.332234e+00 6.908628e+00 8.607006e+00 9.425692e+00 7.887703e+00 -1.235125e+01 -8.428167e+00 6.585662e+00 -3.846095e+00 -2.470389e+00 7.178336e+00 -9.198643e+00 4.376272e-01 -1.168386e+00 7.248393e-01 -1.037488e+00 2.879716e+00 3.355512e+00 4.979141e-01 -8.931763e-01 1.545554e+00 -6.332807e-02 1.519896e+00 -7.562065e-01 -5.145644e-01 -7.385501e-02 
-7.141400e-01 6.605560e+00 8.773014e+00 1.436803e+01 7.259919e+00 -1.089291e+01 -3.484909e+00 8.468027e+00 -5.889277e-01 -8.950085e+00 5.818771e+00 -5.128357e+00 3.651648e-01 -7.248073e-01 -8.236559e-01 -1.532569e+00 5.362341e-01 1.061742e-02 2.999794e+00 1.149438e+00 1.372331e+00 1.584916e+00 2.006438e+00 -8.511019e-01 8.905765e-01 -8.905222e-02 
-1.899230e-01 3.985660e+00 5.987124e+00 1.290747e+01 1.030358e+01 -4.825404e+00 -2.704976e+00 7.760157e+00 -4.624661e+00 1.548395e+00 3.606023e+00 -6.572301e+00 2.426248e-01 -1.703092e-01 -1.738430e+00 -1.766670e+00 -2.735969e+00 -2.371561e+00 4.079657e+00 2.549083e+00 -4.988363e-01 1.059869e-01 2.407632e+00 -2.000882e+00 1.629538e+00 -7.663797e-02 
-6.705374e-02 1.894636e+00 3.530601e+00 7.633353e+00 1.029801e+00 -2.722680e+00 3.444430e+00 9.562719e+00 1.814789e+00 5.605088e+00 3.080477e+00 -4.614069e+00 1.551040e-01 -1.750354e-01 -1.642681e+00 -1.563259e+00 -5.199647e+00 -3.158400e+00 2.204002e+00 1.182117e+00 -7.838586e-01 -8.322543e-01 2.129337e+00 -1.878644e+00 4.835383e-01 -4.532351e-02 
1.571446e-01 5.719393e-01 2.394864e+00 -8.868160e-01 -8.550418e-01 3.961920e+00 8.525786e-01 3.544134e+00 -4.518019e+00 2.290186e+00 -1.456927e+00 -1.308097e+00 1.594678e-01 -4.311847e-01 -1.041502e+00 -5.762519e-01 -4.218202e+00 -1.960837e+00 1.175306e+00 6.897076e-01 -6.732963e-01 -3.709241e-01 -1.321271e-01 -1.723687e+00 1.008675e+00 -7.560521e-03 
-1.762851e+00 9.901690e-02 2.752851e+00 -4.733065e+00 -2.952775e+00 -4.266560e+00 6.468992e-01 6.656745e+00 -4.803521e+00 1.325706e+00 -1.042976e+00 -5.342768e+00 1.801258e-01 -2.619032e-01 -4.762839e-01 5.541152e-01 -2.685505e+00 -4.513667e-01 1.156304e-01 -8.127115e-01 -1.291264e+00 -1.070911e+00 -8.925855e-01 -1.022371e+00 1.502870e+00 1.007865e-02 
-1.497948e+00 -3.240415e-01 3.494740e+00 -2.000325e+00 2.490680e+00 1.823066e+00 2.142328e+00 5.846663e+00 -3.170127e+00 3.027451e+00 -2.950685e+00 -1.164576e+00 1.923113e-01 1.811151e-01 4.360648e-01 1.019170e+00 -9.317422e-02 -1.407687e-01 -3.010879e-01 -7.179338e-01 -3.628494e-01 -6.271651e-01 -1.130239e+00 -2.926015e-01 4.603719e-01 9.550333e-03 
-5.490237e-01 -3.879321e-02 5.751239e+00 -5.237420e+00 -2.899894e+00 -1.075100e+00 -1.264002e+00 1.955136e+00 -4.213713e+00 7.735286e-01 -1.284501e+00 2.828521e+00 1.890755e-01 6.187624e-01 1.289735e+00 7.052075e-01 1.076081e+00 -4.818176e-01 4.671731e-01 -5.082787e-01 -7.596585e-01 1.298747e-01 -1.712182e-01 -8.317531e-01 -6.737236e-01 -6.598085e-03 
4.558068e-01 2.821168e+00 5.991518e+00 -1.100510e+00 -1.585326e+00 8.607517e-01 -1.781640e+00 4.080692e+00 -7.948748e+00 -3.084919e+00 -2.799172e+00 -3.091882e+00 2.027445e-01 4.094225e-01 1.592898e+00 -2.656640e-01 1.442296e-01 -1.685675e+00 -8.660665e-01 -9.396393e-01 -3.867859e-01 -3.105104e-01 -6.612028e-01 -6.659294e-01 -1.385067e+00 -1.716049e-02 
3.540842e-01 4.975085e+00 5.030500e+00 1.974339e-01 -3.323860e+00 -1.449537e+00 6.748962e-02 3.741438e+00 -1.764837e+00 3.525800e+00 -5.277498e+00 -7.747733e+00 1.419187e-01 1.994035e-01 1.344718e+00 -1.061728e+00 4.426640e-01 -8.021929e-01 -1.412168e-01 1.333643e-01 -1.108185e+00 -1.163695e+00 -4.620607e-01 -1.395638e+00 -4.264001e-01 -2.114287e-02 
9.761089e-02 5.133509e+00 2.526789e+00 -3.996604e+00 -5.725710e+00 -2.320049e+00 -3.221614e+00 3.019582e+00 -5.947117e+00 -1.654699e+00 -4.283834e+00 -2.801784e+00 1.300873e-01 -4.694138e-02 -4.339204e-02 -1.787353e+00 -8.384913e-01 -1.022223e+00 -8.179220e-01 -8.666933e-01 -1.210849e+00 -9.945717e-01 -3.393698e-01 -2.646671e-01 1.110354e+00 -3.094630e-02 
6.270916e-01 5.528628e+00 2.174961e+00 -1.576053e+00 -4.840666e+00 -1.907843e-01 1.228065e-01 -3.055233e+00 -1.103300e+01 -2.251885e+00 -7.520358e+00 5.514713e-01 1.196898e-01 -3.848969e-01 -1.120328e-01 -1.094020e+00 -4.012604e-02 2.153589e-01 1.940346e-02 -1.585625e-01 -1.267090e+00 -2.195518e+00 -8.766128e-01 8.264796e-01 2.267534e+00 -2.795745e-02 
8.459616e-02 2.327436e+00 -1.517475e+00 -4.406222e+00 -5.938035e+00 -3.858235e+00 -6.142765e+00 1.424784e+00 -8.287523e+00 -1.892926e+00 -3.001078e+00 -1.689714e+00 5.912751e-02 -4.245625e-01 1.323829e-01 9.751680e-02 1.363919e+00 1.047103e+00 -4.181126e-01 8.713778e-01 -3.209070e-01 -1.800711e+00 8.684855e-01 1.998344e+00 1.401321e+00 -2.767870e-02 
-1.563893e+00 5.817957e+00 1.582534e+00 2.016129e-01 -2.140903e+00 -5.834265e-01 7.352524e-01 -1.796611e+00 -1.157222e+01 -7.381508e-01 -1.786479e+00 3.033903e+00 3.761137e-02 -2.886534e-01 4.254172e-01 1.565886e-01 1.737112e+00 1.519871e+00 -6.052600e-01 5.843797e-01 1.288684e+00 6.645386e-01 2.565406e+00 1.703306e+00 -1.308855e-01 -2.146038e-02 
-9.297090e-01 5.650759e+00 3.310587e+00 1.934160e+00 -1.840079e+00 -4.214291e+00 8.290520e-01 7.857361e-01 -1.468106e+01 1.930861e+00 2.840946e+00 2.963605e+00 3.273296e-02 -2.653830e-02 7.258421e-01 6.412436e-01 1.858248e+00 1.286764e+00 2.827058e-01 2.132283e+00 1.520680e+00 2.883822e-01 1.851124e+00 -3.784680e-01 -4.782854e-01 -7.147133e-03 
-3.090230e-01 5.994052e+00 5.438732e-01 3.939318e+00 7.097127e-01 -3.039057e+00 -4.412031e-01 3.707708e+00 -4.513539e+00 8.663253e+00 -1.924837e+00 -2.429616e+00 2.558517e-02 3.821307e-02 2.437848e-01 -3.899770e-01 1.091837e+00 9.298295e-01 -7.498545e-01 8.263844e-01 1.743071e+00 9.663526e-01 1.966412e+00 -1.342808e+00 -1.846146e+00 -9.909933e-03 
-6.755304e-01 5.868599e+00 2.208073e+00 3.016167e+00 -9.295247e-01 -1.216891e+00 5.106876e+00 6.276024e+00 -1.037495e+01 2.661992e+00 -4.824238e+00 -1.349381e+00 2.940494e-02 -2.377460e-01 2.641318e-01 -5.823462e-02 1.173093e+00 1.893953e+00 -8.732352e-02 1.617580e-02 3.556640e-01 5.980365e-01 1.560293e-01 -2.144907e+00 -1.429798e+00 -3.821123e-03 
-1.499917e+00 6.927961e+00 1.839057e-01 5.119793e+00 2.052968e+00 -5.831399e+00 2.728262e+00 4.173597e+00 -8.893514e+00 8.728343e+00 -4.667928e+00 -4.040332e+00 -1.027429e-02 -2.125184e-01 2.977878e-01 3.111975e-01 6.995618e-01 1.706038e+00 1.740997e-01 -1.520987e-02 -2.758271e-01 -1.629668e-01 -1.596461e+00 -1.120459e+00 -3.767075e-01 2.967745e-03 
-1.522992e+00 6.504464e+00 3.199398e+00 7.209388e+00 6.958058e+00 -3.254737e+00 -6.748018e-01 2.331111e+00 -9.500895e+00 2.678462e+00 -6.512041e+00 -3.380026e+00 3.155708e-02 -4.765434e-02 -3.417120e-02 -6.549437e-02 1.105381e+00 1.418279e+00 -6.857523e-01 -1.269982e+00 1.292409e-01 1.555198e+00 -1.150752e+00 4.021235e-01 -7.204534e-01 2.459234e-03 
-9.478840e-01 7.165059e+00 1.604198e+00 5.340517e+00 5.296108e+00 -1.149635e+00 2.373586e+00 4.301030e+00 -5.765403e+00 6.727114e-01 -6.683232e+00 -3.297831e+00 3.934783e-02 -1.052525e-01 -3.548742e-01 -1.109745e-01 -3.821805e-01 -7.452365e-01 -9.539932e-01 -1.317585e+00 1.753894e-01 4.415686e-01 -1.992511e+00 3.558466e-01 2.525712e-01 -6.805897e-04 
-1.189819e+00 5.579194e+00 1.170455e+00 8.432709e+00 4.540300e+00 -6.986534e+00 -1.065694e+00 6.858513e+00 -4.163021e+00 9.360452e-01 -1.805969e+00 -5.322899e+00 1.689005e-02 -5.038277e-01 -5.284792e-01 -1.308456e+00 -1.316255e+00 -2.123705e+00 -8.108810e-01 -5.667647e-01 3.937649e-01 4.075215e-01 4.235705e-01 1.141367e+00 1.281984e+00 -1.697097e-02 
-2.192766e+00 5.616225e+00 6.435050e-01 2.597230e+00 -4.643359e-01 -8.735467e+00 -3.664218e+00 2.786844e+00 -9.354608e+00 -3.630049e-01 -5.241731e+00 -1.806040e+00 -6.343722e-03 -4.046699e-01 -4.634836e-01 -8.059168e-01 -1.018166e+00 -8.917558e-01 -1.013279e-03 4.565607e-01 -2.745181e-01 -4.675733e-01 9.517847e-01 1.352578e+00 1.148242e+00 -1.434048e-02 
-3.419689e+00 4.636486e+00 -2.862538e+00 1.999757e+00 -7.802471e-01 -3.516226e+00 -4.897232e-01 5.057029e+00 -5.668685e+00 5.314173e+00 -1.525957e+00 2.283998e+00 -3.045201e-02 -3.705047e-01 1.330771e-01 -1.232621e-01 -1.206294e+00 4.424902e-01 2.186017e+00 2.161254e+00 2.012413e-01 1.002185e+00 1.676018e+00 8.566891e-01 5.856775e-01 -9.799314e-03 
-1.856299e+00 5.318995e+00 -4.088894e-01 3.466160e+00 3.497603e+00 -2.889856e+00 4.368404e+00 3.829181e+00 -7.350438e+00 3.242571e+00 -6.034827e-02 -1.360067e+00 -8.683562e-03 -1.617370e-01 4.618293e-01 6.342477e-01 -1.069251e-01 2.018390e+00 2.012918e+00 1.972349e+00 7.732642e-01 2.366945e+00 1.131421e+00 5.022172e-01 -6.243389e-01 -4.126608e-03 
-3.210576e+00 6.393195e+00 1.080341e+00 1.966776e+00 4.771781e+00 1.020746e+00 5.724265e+00 7.343551e+00 -1.541810e-01 7.513349e+00 -1.132150e-01 -2.617498e+00 -3.093660e-02 -2.301344e-01 5.532062e-01 9.236563e-01 5.088582e-01 1.487535e+00 5.469310e-01 7.499084e-01 4.640662e-01 1.039394e+00 -9.597904e-01 -3.829889e-01 -1.032310e+00 -6.531238e-04 
-3.106008e+00 7.047017e+00 1.843304e+00 2.079095e+00 6.851602e+00 -9.393606e-01 3.090532e+00 5.509904e+00 -2.771330e-01 4.194512e+00 -3.437016e+00 -2.476987e+00 -2.673447e-02 -4.681446e-01 4.710492e-01 3.020903e-01 7.983148e-01 1.048031e+00 7.115109e-01 -3.066832e-01 6.877462e-01 4.738006e-01 -3.420615e-01 -1.250673e+00 -3.532624e-01 -6.964755e-03 
-3.945506e+00 6.538506e+00 6.296471e-01 5.237581e+00 4.980428e+00 -1.756819e+00 3.898755e+00 6.536999e+00 -4.008369e+00 3.925061e-02 -1.752568e+00 -2.319091e+00 -2.469218e-02 -4.754105e-01 3.843274e-01 -3.095959e-01 1.209591e-01 1.108068e-01 5.466473e-01 -5.662997e-01 6.473638e-02 -1.714929e+00 -1.143059e+00 -1.044999e+00 7.136592e-01 -1.523831e-02 
-3.829556e+00 7.601586e+00 1.326909e+00 5.822332e+00 8.633435e+00 2.056481e+00 3.747743e+00 7.671188e+00 -3.054341e+00 5.269313e+00 -5.494038e+00 -3.275582e+00 -4.662955e-02 -5.520040e-01 3.480102e-01 -4.944577e-01 -7.295911e-01 -5.378934e-01 1.040372e+00 -2.387337e-01 2.202966e-01 -1.745803e+00 -4.646309e-01 -4.302502e-01 1.132335e+00 -2.133807e-02 
-5.225854e+00 8.037547e+00 -2.094408e-01 6.999536e-01 4.434899e+00 2.256061e+00 2.564161e+00 6.586591e+00 -7.340221e+00 1.260655e+00 -4.309700e+00 1.350096e+00 -9.718060e-02 -3.956994e-01 3.434044e-01 -3.214526e-01 -1.419763e+00 -5.289594e-01 8.225340e-01 -3.852771e-01 -9.854133e-02 -1.094958e+00 -1.565848e-01 -3.929928e-01 1.196405e+00 -1.955279e-02 
