-4.831857e+00 3.779632e+00 -7.005867e+00 -3.129564e-01 5.660257e+00 -3.684542e+00 -3.328339e+00 -9.145456e+00 -1.030608e+01 -4.202260e+00 -4.908495e+00 2.706498e+00 -1.512926e-01 2.212148e-01 1.739443e-01 -1.894552e-01 -4.626810e-02 -9.698492e-01 -1.052127e+00 1.401947e+00 2.829243e+00 2.492015e+00 2.558713e+00 1.545045e+00 -1.447852e+00 0.000000e+00 
-4.222557e+00 4.389774e+00 -7.110281e+00 -1.128726e+00 3.682251e-01 -7.773327e+00 -8.329749e-02 -5.982036e+00 -4.373072e+00 4.723149e+00 -1.825750e+00 -8.535712e-01 -1.512926e-01 5.727642e-01 3.069898e-01 3.168847e-01 -2.767086e-01 6.951914e-02 -8.729448e-01 1.164270e+00 2.521130e+00 1.941981e+00 1.349703e+00 7.084824e-01 -6.039654e-01 0.000000e+00 
-4.030433e+00 4.344282e+00 -7.900936e+00 -1.364121e-01 3.457027e+00 -6.900785e+00 2.058877e+00 3.419049e+00 -8.125049e-01 4.128602e+00 1.275355e+00 -2.752727e+00 -1.512926e-01 9.646002e-01 6.223754e-01 9.308837e-02 5.443737e-01 2.126788e-01 2.443887e-01 1.724542e-01 1.200684e+00 2.727376e-01 -1.118472e-01 8.477572e-01 1.047642e+00 0.000000e+00 
-2.368748e+00 5.032256e+00 -4.973909e+00 -1.784772e+00 7.109468e+00 -6.441144e+00 -2.005978e-01 -2.822060e+00 -5.342958e+00 -1.619176e+00 -4.458008e+00 2.416284e+00 -1.512926e-01 1.001887e+00 5.264627e-01 -1.174848e-02 7.649272e-01 1.367120e+00 4.483762e-01 -1.931909e+00 -6.744878e-01 -1.325363e+00 -8.925194e-01 5.030613e-01 1.990791e+00 0.000000e+00 
-9.357605e-01 6.570268e+00 -7.608612e+00 2.736935e+00 3.353030e+00 -3.128690e+00 -2.407417e+00 -4.722023e+00 -8.457447e+00 -1.590333e+00 6.464202e-01 6.309779e+00 -1.512926e-01 6.263449e-01 -1.857165e-01 -2.793748e-01 4.285410e-01 3.108532e-01 4.422200e-01 -1.094332e+00 -1.255561e+00 -2.008294e+00 -4.765604e-01 -1.144657e-02 1.298869e+00 0.000000e+00 
-7.604561e-01 5.909094e+00 -7.315187e+00 1.259236e+00 7.255824e+00 -7.417494e+00 -7.509696e+00 -5.283938e+00 -7.177418e+00 3.120019e+00 1.004024e+00 4.569129e+00 -1.512926e-01 8.589916e-02 -6.082577e-01 -1.176093e+00 -1.760047e-01 -3.686297e-01 -5.966057e-01 -1.331042e+00 9.253452e-01 3.515263e-01 8.510844e-01 7.030215e-01 7.896896e-02 0.000000e+00 
-1.702854e+00 2.977281e+00 -8.127172e+00 4.842891e-01 4.938115e+00 -4.201510e+00 2.417667e-01 -1.627817e+00 -9.936745e+00 -6.237979e-01 -1.512894e+00 2.665194e+00 -1.512926e-01 -2.220605e-01 -6.784534e-01 -6.868538e-01 -9.227895e-01 6.881574e-01 -6.568974e-01 -4.808522e-01 6.526946e-01 1.173780e+00 2.866074e-01 -7.188960e-01 -5.773494e-01 0.000000e+00 
-1.555705e+00 3.787461e+00 -1.059509e+01 -1.538472e+00 4.473777e+00 -8.887762e+00 -8.180399e+00 2.575631e-01 -2.845678e+00 2.152977e+00 1.367565e-01 4.633421e+00 -1.512926e-01 5.974875e-02 6.821527e-02 -4.263574e-01 -7.659882e-01 -7.933143e-01 -3.904421e-01 2.577022e-01 4.520663e-01 -1.484767e-01 -2.395296e-01 -2.713045e-01 6.385348e-02 0.000000e+00 
-1.648438e+00 4.238817e+00 -9.402927e+00 -4.781579e-01 8.184841e+00 -5.678042e+00 -4.476326e+00 -4.229301e+00 -4.754418e+00 3.262253e-01 -2.514426e+00 3.390887e+00 -1.512926e-01 2.240848e-01 5.395806e-03 -2.313745e-01 -8.520765e-01 -6.911831e-01 -1.594609e+00 -1.249298e+00 -8.436449e-01 -3.424558e-01 5.853059e-01 2.955786e-01 4.933150e-01 0.000000e+00 
-4.889202e-01 5.619402e+00 -8.809095e+00 -2.089481e+00 1.665889e+00 -8.631438e+00 -3.862138e+00 -1.722865e+00 -1.051096e+01 1.447360e+00 1.482672e-01 4.525551e+00 -1.512926e-01 6.904583e-02 -3.331982e-01 -9.274296e-02 -5.502642e-01 -1.729569e+00 -1.872873e+00 -8.085914e-01 -7.928102e-01 -4.547203e-01 3.229935e-01 -6.576877e-01 -1.679051e-01 0.000000e+00 
-1.115823e+00 2.088289e+00 -1.017704e+01 -3.500589e+00 2.886143e+00 -1.230272e+01 -8.163857e+00 -4.855827e+00 -7.816381e+00 2.655540e+00 -4.075616e-02 5.185704e+00 -1.512926e-01 5.988465e-02 -5.255374e-01 -6.154458e-01 -3.386288e-01 -2.024475e+00 -1.478380e+00 -7.694448e-01 7.582877e-01 8.907129e-01 6.947387e-01 -1.033833e+00 -4.675175e-02 0.000000e+00 
-1.476784e+00 3.196734e+00 -1.067175e+01 -2.778578e+00 -1.524720e+00 -1.493979e+01 -1.037959e+01 -3.393225e+00 -3.588298e+00 2.603288e+00 -4.388517e+00 2.896486e+00 -1.512926e-01 1.651557e-01 -7.818695e-01 -9.005925e-01 4.041260e-01 -5.395685e-01 6.090436e-01 7.975626e-02 1.014439e+00 1.647117e+00 -3.568446e-01 -4.042789e-01 -8.819969e-02 0.000000e+00 
-8.550835e-01 2.822464e+00 -1.154883e+01 -1.826754e+00 -3.422298e-01 -9.915768e+00 -5.064824e+00 3.973174e-01 -3.762187e+00 3.221955e+00 -5.415200e+00 3.971660e+00 -1.512926e-01 1.627961e-01 2.105632e-01 -2.491424e-01 1.272559e+00 -9.778097e-01 9.072981e-01 9.886501e-01 1.322323e+00 4.853571e-01 -3.884074e-01 7.480629e-01 -2.541329e-01 0.000000e+00 
2.064886e-01 1.342967e+00 -1.262617e+01 -9.057686e-01 5.822330e-01 -6.779696e+00 -5.012873e+00 7.227565e-01 -4.302475e+00 -6.200709e-01 8.140944e-01 4.691574e+00 -1.512926e-01 1.461147e-01 4.877118e-01 1.677748e-01 6.849951e-01 -8.038378e-02 1.325018e+00 2.590401e+00 1.516274e+00 4.239740e-02 2.339749e-01 1.733965e+00 6.777904e-01 0.000000e+00 
-1.143478e+00 4.067988e+00 -1.044555e+01 1.925803e+00 -3.056382e+00 -1.184627e+01 -5.903965e+00 -3.022023e-01 -5.032506e+00 2.325183e+00 1.098253e+00 3.017496e+00 -1.512926e-01 -5.920755e-01 3.173845e-02 1.791424e-01 7.974242e-01 4.534665e-01 2.458038e-01 1.140036e+00 1.177002e+00 1.430112e+00 9.525398e-01 1.769955e+00 1.262321e+00 0.000000e+00 
-6.020126e-01 5.012531e+00 -1.038452e+01 -1.229881e+00 -5.695629e-01 -7.349443e+00 2.991985e+00 4.537905e+00 -2.741151e+00 4.221549e+00 1.024583e+00 6.762521e+00 -1.512926e-01 -7.344455e-01 7.572079e-01 9.647760e-01 6.421647e-01 1.700820e-01 -3.390439e-01 9.715844e-01 2.609635e-01 9.738557e-01 1.139193e+00 6.007960e-01 1.175647e+00 0.000000e+00 
-3.411210e+00 1.146375e+00 -1.177394e+01 2.322423e+00 2.501000e+00 -8.401875e+00 -3.367074e+00 4.374754e+00 2.607711e+00 5.563845e+00 3.329331e+00 9.247793e+00 -1.512926e-01 -1.249884e-01 5.791777e-01 1.055429e+00 2.091824e-01 1.041515e+00 4.605988e-01 1.982903e-01 7.545614e-03 -5.170427e-02 -1.975833e-01 -1.595994e-01 6.024668e-02 0.000000e+00 
-2.331873e+00 6.589814e+00 -7.138087e+00 2.106745e+00 -1.346048e+00 -1.019711e+01 -1.423396e+00 -3.109039e-01 -3.253305e+00 3.456561e+00 2.702535e+00 7.454661e+00 -1.512926e-01 2.281459e-01 9.972553e-01 9.428236e-01 3.890800e-01 1.066906e+00 4.073102e-01 -1.631881e+00 -1.396832e+00 -1.063161e+00 -9.955332e-01 -1.145654e+00 -6.938022e-01 0.000000e+00 
-9.034901e-01 6.175236e+00 -6.791615e+00 1.303403e+00 2.539433e+00 -8.119445e+00 -2.704823e+00 2.159930e+00 -5.034951e+00 1.719760e+00 -5.387207e-01 2.972659e+00 -1.512926e-01 2.101500e-01 -2.400461e+00 -1.719403e-02 4.905229e-01 -4.462174e-01 3.186656e+00 9.928123e-01 -2.128739e+00 -1.700918e+00 -3.878332e-01 -1.505517e+00 -1.192444e+00 0.000000e+00 
-7.151432e-01 7.484377e+00 -8.161562e+00 1.225029e+00 4.745751e+00 -5.454107e+00 -5.498545e+00 -1.338845e+00 -4.235627e+00 1.165925e+00 -2.769660e+00 6.431076e+00 -1.512926e-01 -5.710573e-01 -6.615217e+00 -2.287440e+00 1.438081e+00 -2.256230e+00 6.239216e+00 1.486620e+00 -1.904213e+00 -7.581215e-02 -8.003734e-01 -9.521891e-01 -1.565069e+00 5.244229e-02 
-3.168825e+00 -1.130321e+01 -1.134818e+01 5.215896e+00 -2.775987e+00 5.159899e+00 3.634562e+00 -5.754969e+00 -5.405717e+00 4.769997e+00 -1.462156e+00 3.797367e+00 -1.512926e-01 -8.627761e-01 -6.443183e+00 -2.115221e+00 1.491999e+00 -2.592609e+00 6.067178e+00 3.328057e+00 -1.633762e+00 9.105492e-02 2.975905e-01 -6.699439e-01 -7.853936e-01 2.622114e-02 
-4.054492e+00 -1.774705e+01 -1.629701e+01 7.340903e+00 -9.969489e+00 1.435929e+01 2.840009e+00 -5.874517e+00 -3.446983e+00 -2.070425e+00 -1.596693e+00 -7.830403e-01 1.109189e-01 -1.977640e+00 -5.281640e+00 -6.051226e-02 -7.803921e-01 5.461458e-01 1.407921e+00 1.688053e+00 3.015297e-01 -5.546466e-01 7.173229e-01 -6.584238e-01 -8.338644e-01 7.760606e-02 
-3.547696e+00 -1.342497e+01 -1.330000e+01 5.705461e+00 -3.065992e+00 1.230974e+01 9.766186e+00 -3.741043e+00 -4.973998e+00 4.825887e+00 -4.474924e+00 2.652749e+00 -1.512926e-01 -1.919503e+00 -1.149430e+00 1.722204e+00 -2.518585e+00 3.827979e+00 -2.994033e+00 -1.077201e+00 1.558794e+00 -6.982587e-01 8.643439e-01 -7.767972e-01 3.426681e-01 7.406388e-02 
-1.041391e+01 -1.786294e+01 -7.488212e+00 -2.921714e+00 7.621483e+00 -1.989425e+00 -1.240945e-01 -8.381594e-01 -7.224720e+00 4.724595e+00 -4.555395e+00 2.834064e+00 2.367377e-01 2.444538e-01 2.180723e+00 2.386714e+00 -7.253034e-01 3.747918e+00 -4.759273e+00 1.108905e-01 6.222609e-01 -5.462551e-01 9.757010e-01 6.939847e-01 8.160273e-01 -1.626656e-02 
-9.586631e+00 -1.699241e+01 -7.141554e+00 -2.245723e+00 7.568420e+00 -1.635906e+00 -2.693915e-01 -4.791758e-01 -7.008142e+00 5.694207e+00 -3.866791e+00 3.702156e+00 1.561174e-01 -8.051255e-01 5.204730e+00 3.391418e+00 -4.054387e-01 1.593197e+00 -2.605875e+00 2.031486e-01 -1.370106e+00 2.283702e+00 -2.662202e-01 2.023913e+00 -8.042452e-01 -1.461307e-02 
1.872444e-01 -5.059711e+00 -7.442657e+00 7.689978e+00 3.452896e+00 -2.464242e+00 8.412251e+00 -4.394145e+00 -5.161186e+00 2.373920e+00 1.569164e+00 2.772393e+00 -1.241189e-01 -4.253746e-01 6.987520e+00 2.757582e+00 -2.317732e-01 -6.706883e-01 3.739230e-01 1.292475e+00 -8.362835e-01 5.102785e+00 2.661445e-01 2.198040e+00 -7.296082e-01 -9.761076e-02 
-1.287390e+01 6.197063e+00 3.634318e+00 -1.627578e+00 6.984286e+00 -4.822238e-01 6.513756e+00 -8.813580e+00 5.412745e+00 4.670124e+00 2.582359e+00 -1.337641e+00 -4.392958e-02 -9.746440e-01 6.014501e+00 2.834170e+00 -7.930874e-01 7.332081e-01 7.700986e-01 5.372307e-01 1.294033e+00 5.177355e+00 1.281054e+00 1.071657e+00 -1.467392e+00 -6.419937e-02 
-1.089715e+01 5.479918e+00 9.117603e-01 -4.389651e+00 4.560109e+00 -6.966508e-01 2.946708e+00 -8.523748e-01 1.207876e+01 6.567359e+00 3.210228e+00 1.705921e+00 -1.512926e-01 -6.622421e-01 2.362328e+00 6.693980e-01 -1.238486e+00 1.976515e-01 2.211845e-01 -5.648298e-01 4.508361e+00 2.082228e+00 1.680894e+00 -7.805123e-01 -1.014395e+00 -1.617103e-02 
-8.917655e+00 7.810280e+00 2.852089e+00 -1.713448e-01 1.068085e+01 1.330791e+00 5.149533e+00 4.220101e+00 1.025866e+01 1.000276e+01 6.709604e-01 -3.101569e+00 -1.512926e-01 2.164564e+00 -6.059930e-01 -3.220062e+00 7.743911e-01 -1.013036e+00 -6.054755e-01 2.601764e-01 4.614994e+00 -1.443238e+00 1.118360e+00 -6.974490e-01 6.780707e-01 -2.147260e-02 
-5.102089e+00 5.945321e+00 -3.704554e+00 7.694293e-01 2.592869e+00 -2.264827e+00 6.270213e+00 1.163082e+01 2.826995e+00 8.112070e+00 -1.377698e+00 -1.417616e+00 -1.512926e-01 1.314262e+00 -6.671891e-01 -1.646428e+00 7.806794e-01 -3.781777e-01 -6.837995e-01 4.132970e-01 3.106680e+00 -2.671254e+00 7.565031e-01 -4.524146e-01 8.002321e-01 0.000000e+00 
-4.948610e+00 2.934397e+00 -1.015784e+01 -3.351635e-01 2.902723e+00 -2.725513e+00 6.152885e+00 8.019791e+00 2.822438e+00 9.489565e+00 1.389077e+00 3.614480e+00 -1.512926e-01 1.614451e-01 -1.245709e+00 -1.558046e+00 3.820738e-01 1.986964e-02 -8.743312e-01 -1.009228e+00 -2.846747e-01 -2.417984e+00 4.729077e-01 8.131157e-01 8.642331e-01 0.000000e+00 
-6.310361e+00 4.581914e+00 -8.154175e-01 -4.043449e-01 6.558286e+00 -2.087496e+00 4.511517e+00 1.278118e+01 2.440602e+00 1.060647e+01 5.890965e-01 2.349057e+00 -1.512926e-01 -6.670012e-01 -6.835321e-01 5.014183e-02 2.540213e-01 1.072274e+00 -1.400869e-01 -1.567055e+00 -2.568472e+00 -1.206715e+00 -1.432679e-01 7.876877e-01 -1.033770e+00 0.000000e+00 
-7.506293e+00 2.263439e+00 -6.382710e+00 2.325911e+00 8.797494e+00 -3.129530e+00 9.827390e-01 2.221547e+00 -1.638065e+00 1.112010e+01 3.753142e+00 -6.637402e-01 -1.512926e-01 -3.734766e-01 1.656158e-01 9.058134e-01 7.783630e-01 7.157901e-01 4.334720e-02 -1.157847e+00 -2.309392e+00 7.697759e-02 -2.592802e-02 2.614566e-01 -1.124117e+00 0.000000e+00 
-7.158254e+00 2.863140e+00 -5.341407e+00 7.089981e-01 5.006852e+00 -2.763253e+00 1.020010e+00 1.687581e+00 -9.763312e-01 6.580465e+00 1.378708e+00 -4.447357e+00 -1.512926e-01 -4.574684e-01 1.010655e+00 -5.514041e-01 6.583413e-02 2.266539e-01 5.245527e-01 -6.953833e-01 -2.374446e+00 1.209764e+00 5.641232e-02 6.194847e-01 3.118608e-01 0.000000e+00 
-6.392047e+00 4.621863e+00 -3.365773e+00 2.999980e+00 7.257390e+00 -2.170898e+00 2.109403e+00 2.019629e+00 4.915793e+00 1.137293e+01 2.301554e+00 1.392104e+00 -1.512926e-01 -2.620901e-01 1.176200e+00 2.908601e-01 -1.780023e-01 -5.111464e-01 3.950430e-01 4.700743e-01 8.322199e-02 2.292540e+00 8.007727e-01 4.807374e-01 1.665308e+00 0.000000e+00 
-9.154826e+00 8.455976e+00 -5.080906e+00 -4.122087e-01 8.461607e+00 5.595148e-02 4.712687e-01 1.009910e+00 5.212493e+00 1.076212e+01 4.412314e+00 2.880439e+00 -1.512926e-01 -2.941704e-02 2.607481e-01 -6.150050e-02 5.238675e-01 -2.805774e-02 7.164093e-02 9.248145e-01 -4.080878e-01 1.295841e+00 1.162505e+00 9.767731e-01 1.775248e+00 0.000000e+00 
-7.818458e+00 5.348022e+00 -5.058660e+00 1.996504e+00 4.514384e+00 -2.563917e+00 3.607481e+00 2.976493e+00 6.730225e+00 1.303313e+01 4.640026e+00 3.998900e+00 -1.512926e-01 3.744844e-01 -4.241542e-01 -1.261194e-01 5.962065e-01 -5.194250e-01 1.616826e-01 6.378091e-01 4.190713e-01 4.954518e-01 -7.330531e-01 -5.808297e-01 -2.696200e-01 0.000000e+00 
-6.592134e+00 3.803801e+00 -4.802466e+00 3.830074e+00 6.238067e+00 -2.208539e+00 4.895043e+00 -8.312898e-01 4.595655e+00 1.156289e+01 5.093338e+00 3.125485e+00 -1.512926e-01 6.984764e-01 -1.019617e+00 2.358204e-02 -5.056087e-02 -3.254464e-01 1.639143e-01 4.969246e-01 7.281626e-01 -4.799109e-01 -6.011385e-01 -9.914930e-01 -1.408388e-01 0.000000e+00 
-5.800971e+00 4.827180e+00 -4.135590e+00 3.859871e+00 5.772036e+00 -2.302397e-01 3.086561e+00 5.035584e+00 7.701471e+00 7.307278e+00 -9.431063e-01 -7.851923e-02 -1.512926e-01 1.423740e-02 -9.886940e-01 9.332700e-02 -8.177668e-01 -2.210443e-02 7.899202e-01 -3.528534e-01 -1.333564e-01 -4.565886e-01 -3.673769e-01 -6.927013e-01 3.686155e-01 0.000000e+00 
-6.671187e+00 3.618312e+00 -5.424531e+00 -1.596697e+00 6.205549e+00 -2.913157e-01 3.216352e+00 3.621177e+00 2.327315e+00 1.061935e+01 2.246415e+00 4.214954e+00 -1.512926e-01 -5.281151e-01 -1.003323e+00 1.491013e+00 -4.184505e-01 -1.454103e+00 2.282887e-01 -1.709172e+00 -2.038122e+00 -2.001593e-01 -9.040413e-02 -7.346803e-01 5.615559e-01 0.000000e+00 
-7.707744e+00 4.972968e-01 -4.280993e+00 6.210545e-01 4.420121e+00 4.270720e-01 2.682560e+00 8.347702e-02 5.581451e+00 1.166802e+01 2.599981e+00 5.297242e+00 -1.512926e-01 2.965281e+00 -3.264453e+00 2.957577e+00 4.054875e-01 -3.153864e+00 1.214390e+00 -8.398637e-01 -5.425957e-01 -1.890325e+00 -3.732301e+00 7.946978e-01 -9.647280e-01 8.507743e-02 
-8.279323e+00 9.521285e-01 2.725299e+00 3.357229e+00 -3.564920e-01 -1.395752e+00 -3.448813e+00 -8.545845e+00 4.654869e+00 8.930496e+00 -3.516069e-01 3.245384e+00 -1.512926e-01 4.857981e+00 -2.835059e+00 3.878449e+00 9.979572e-01 -6.327867e+00 1.346495e+00 -8.649219e-01 4.788397e-01 -6.673788e-01 -5.408404e+00 1.597788e+00 -2.124238e+00 1.911558e-01 
9.829502e+00 -1.016199e+01 6.577378e+00 3.410346e+00 -6.716264e+00 6.393929e+00 2.219825e+00 8.406117e+00 -2.913928e+00 -1.050980e+01 4.329393e+00 -4.417374e+00 2.740946e-01 4.525867e+00 -2.549868e+00 3.995134e+00 1.983992e-01 -7.459241e+00 3.692439e-01 6.394906e-02 4.304966e-01 2.543063e-01 -4.427111e+00 2.575027e+00 -2.178078e+00 2.667262e-01 
8.850096e+00 -5.227337e+00 8.538530e+00 1.998444e+00 -1.986559e+01 3.457732e+00 -8.768911e-01 1.854055e+00 3.238111e+00 -5.333761e+00 9.370647e+00 -1.548930e+00 5.917927e-01 2.339501e+00 -1.663108e+00 2.631467e+00 -2.457882e-01 -6.115783e+00 -4.619754e-01 2.354982e-01 3.974543e-01 1.436573e+00 -1.840847e+00 2.862297e+00 -1.139694e+00 2.548331e-01 
6.356884e+00 -9.162312e+00 1.278806e+01 2.292444e+00 -2.312154e+01 -1.534501e-01 1.716344e+00 -2.963990e+00 7.561361e+00 -3.335410e+00 1.061399e+01 -3.195991e+00 8.107960e-01 -1.233800e+00 5.249438e-02 1.982370e+00 -2.423839e-01 -4.099982e+00 -1.606355e+00 -4.163634e-01 -2.614974e+00 1.741704e+00 1.542092e+00 1.645999e+00 1.597415e-01 1.555542e-01 
5.154490e+00 -7.863255e+00 1.277729e+01 2.687239e+00 -2.273277e+01 -4.319390e-01 -2.019582e+00 -8.735201e-01 6.600088e+00 -3.860933e+00 1.081758e+01 -3.063777e+00 8.545221e-01 -6.018890e-01 -7.676746e-01 1.583752e+00 -3.273278e-01 -1.340946e+00 -5.991636e-01 1.732844e-01 -1.752704e+00 4.517867e-01 -9.878521e-02 8.287820e-01 -3.666559e-01 8.115623e-02 
5.508305e+00 -8.581564e+00 1.436985e+01 1.854029e+00 -2.578258e+01 3.069891e-01 7.093534e-01 -3.304963e+00 4.113602e+00 -3.535754e+00 1.183592e+01 -2.861243e+00 9.205009e-01 1.350098e-01 -1.063885e-01 8.332878e-01 -7.794688e-01 -5.019792e-01 7.585491e-02 6.364866e-02 -1.900918e+00 -1.368312e-01 -3.150159e-01 7.524037e-01 -4.789920e-02 3.673092e-02 
6.264940e+00 -9.356083e+00 1.566640e+01 5.810121e-01 -2.523980e+01 2.316940e-01 4.930263e-01 -6.738977e+00 7.220924e+00 -5.727515e+00 1.290359e+01 -3.549584e+00 9.427214e-01 2.217548e-01 -2.630772e-01 9.668705e-01 -6.439660e-01 -9.202259e-01 6.061341e-01 -4.446666e-01 -1.829956e+00 -7.871532e-02 3.851620e-01 4.278941e-01 1.752314e-01 3.013291e-02 
6.476708e+00 -8.947840e+00 1.550995e+01 -5.517865e-01 -2.437792e+01 -1.059921e-01 7.782831e-01 -9.535852e+00 6.566787e+00 -3.977198e+00 1.333300e+01 -3.192583e+00 9.503509e-01 1.354735e-01 -9.513950e-02 8.492060e-01 -3.010682e-02 -9.542408e-01 1.090229e+00 -2.048161e+00 -9.681848e-01 8.561592e-02 2.364690e-01 9.257236e-01 -4.486690e-01 2.040188e-02 
5.779062e+00 -8.995502e+00 1.704159e+01 6.703171e-01 -2.803623e+01 2.805222e+00 -4.277380e+00 -6.907853e+00 4.979918e+00 -1.714401e+00 1.220851e+01 -2.021949e+00 9.902617e-01 2.762380e-02 -2.756281e-02 9.266691e-01 -2.088657e-01 -1.863693e-01 5.953280e-01 -1.816747e+00 -8.189033e-01 -7.175793e-01 8.790324e-01 3.790649e-01 1.793502e-01 1.629465e-02 
6.428612e+00 -9.237552e+00 1.792828e+01 1.658842e+00 -2.915557e+01 4.471370e+00 -7.146246e+00 -8.061449e+00 5.662184e+00 -4.359966e+00 1.681208e+01 -5.868405e+00 9.987402e-01 2.847071e-01 -2.164833e-01 1.208925e+00 -4.855097e-01 3.813786e-01 5.130669e-01 -1.109361e+00 -1.314349e+00 -1.889413e-01 -6.113310e-02 4.178782e-01 1.933376e-01 8.695627e-03 
6.427107e+00 -9.349041e+00 1.909058e+01 -1.568630e+00 -2.378282e+01 9.196528e-01 -4.628443e+00 -1.157070e+01 4.085329e+00 -1.140969e+00 1.305937e+01 -1.314922e+00 1.000000e+00 2.028097e-01 1.739165e-01 7.167059e-01 -4.319454e-01 1.056788e+00 4.039526e-03 4.882631e-01 -2.583054e+00 4.574020e-01 -9.594330e-01 6.731516e-01 -4.673817e-01 -4.046047e-03 
7.576221e+00 -9.853487e+00 2.053008e+01 -1.859861e+00 -2.459773e+01 3.402127e+00 -4.592988e+00 -1.377618e+01 6.069375e+00 -4.569580e+00 1.499696e+01 -2.579409e+00 9.889599e-01 7.156859e-02 3.000560e-01 7.665985e-01 -2.747739e-01 7.092819e-01 4.176961e-01 6.380578e-01 -2.023467e+00 -3.472603e-01 3.548689e-02 -9.202427e-01 2.970789e-01 -6.738269e-03 
6.219306e+00 -7.817952e+00 1.932422e+01 2.699417e-01 -2.503121e+01 3.360041e+00 -3.112693e+00 -1.696576e+01 7.063333e+00 -6.406759e+00 1.648183e+01 -6.003356e+00 9.749216e-01 3.101051e-02 4.194062e-01 7.980167e-01 2.415788e-01 -1.355728e-01 1.210885e+00 3.847275e-02 -1.113929e+00 -8.761219e-01 2.780474e-01 -1.444008e+00 3.855276e-02 -8.485699e-03 
6.890355e+00 -8.502816e+00 2.164445e+01 -6.343138e-01 -2.498496e+01 5.339657e+00 -4.713832e+00 -1.548125e+01 2.436881e+00 -1.549636e+00 1.049964e+01 -2.038793e+00 9.775881e-01 -1.105520e-01 6.259729e-01 4.604519e-01 7.115088e-02 6.454582e-01 8.059286e-01 -6.181169e-02 -9.097217e-01 -1.128332e+00 7.615526e-01 -2.024064e+00 2.769706e-01 -1.152096e-02 
6.925093e+00 -7.927345e+00 2.252348e+01 -9.735103e-01 -2.426707e+01 6.005311e+00 -4.375658e+00 -1.628780e+01 1.520967e+00 -1.260704e+00 8.087992e+00 -1.392466e+00 9.632574e-01 -8.897083e-02 6.062453e-01 7.937710e-01 -4.428666e-01 1.167774e+00 2.936529e-01 8.227196e-02 -6.158964e-01 -8.263366e-01 2.357964e-01 -2.148372e+00 4.095308e-01 -1.522511e-02 
6.670568e+00 -6.668926e+00 2.123272e+01 -8.823809e-01 -2.175251e+01 6.109135e+00 -4.270565e+00 -1.866376e+01 3.198896e+00 -3.334844e+00 9.073558e+00 -3.500001e+00 9.371872e-01 -5.956108e-01 1.177510e+00 3.465986e-01 -1.061650e-01 1.272952e+00 1.372077e-01 4.777036e-02 -5.841104e-01 2.018096e-01 -1.350288e+00 -8.846534e-01 -1.132156e+00 -1.873956e-02 
5.884346e+00 -5.703671e+00 2.349895e+01 -1.820358e+00 -2.080857e+01 4.443566e+00 -2.922967e+00 -1.845399e+01 2.550642e+00 -4.335173e+00 6.453010e+00 -3.225098e+00 9.189965e-01 -9.260336e-01 1.864177e+00 1.747444e-01 -5.177205e-02 1.044587e+00 6.061769e-01 -6.594837e-01 1.793396e-01 -6.157392e-01 -7.055750e-01 -1.195855e+00 -1.012644e+00 -2.461121e-02 
4.432674e+00 -3.727106e+00 2.288971e+01 -7.417149e-01 -2.034945e+01 6.806568e+00 -5.201326e+00 -1.731871e+01 2.931091e+00 -6.763843e+00 6.893864e+00 -6.783257e+00 9.060208e-01 -8.735759e-01 2.342393e+00 1.729519e-01 2.722477e-01 3.895010e-01 7.471204e-01 -7.547843e-01 9.581749e-01 -1.440598e+00 -5.131791e-01 -1.127073e+00 -7.675561e-01 -4.169319e-02 
3.413871e+00 -7.737041e-02 2.256870e+01 -1.302704e+00 -1.974566e+01 8.687479e+00 -7.207695e+00 -1.606363e+01 -1.423827e+00 -3.074079e+00 3.198565e+00 -4.814057e+00 8.557846e-01 -2.735057e-01 2.087014e+00 -1.233463e-02 1.091555e+00 5.807554e-01 4.487470e-01 -7.355048e-01 1.319728e+00 -2.035319e+00 -1.893638e-01 -3.325616e-01 -1.550331e+00 -6.751715e-02 
3.537926e+00 2.229889e+00 2.256260e+01 2.200306e-01 -2.033646e+01 7.722781e+00 -5.902122e+00 -1.506807e+01 -2.016862e+00 -6.531287e+00 5.065416e+00 -6.543302e+00 7.603272e-01 5.566546e-01 2.057264e+00 1.921230e-01 5.897641e-02 1.464112e+00 6.753076e-01 -1.104683e+00 1.772463e+00 -3.338190e+00 1.600096e+00 -8.084480e-01 -1.580863e+00 -9.401178e-02 
4.964192e+00 1.752900e+00 2.360083e+01 3.156546e+00 -1.791129e+01 6.229195e+00 -6.250093e+00 -1.298067e+01 -5.151977e+00 -5.398270e+00 5.704426e+00 -1.109673e+01 6.542575e-01 6.139176e-01 1.274384e+00 3.725609e-01 2.183519e-01 1.823822e+00 -6.434475e-01 -3.416017e-01 2.477026e+00 -4.562689e+00 1.870270e+00 2.521220e-01 -2.528131e+00 -9.081496e-02 
6.440787e+00 5.644080e+00 2.333426e+01 -2.676458e+00 -1.394608e+01 1.141225e+01 -1.120354e+01 -9.997882e+00 -1.189578e+01 2.398731e+00 1.598694e+00 -1.154624e+01 5.367254e-01 4.503712e-01 5.254747e-01 7.818819e-01 3.039884e-01 1.417699e+00 -1.595860e-01 -4.958857e-01 2.190175e+00 -5.160707e+00 2.880880e+00 -1.482279e+00 -2.646875e-01 -7.930247e-02 
5.032029e+00 4.587455e+00 2.404567e+01 1.237300e+00 -1.382174e+01 3.625508e+00 -6.264993e+00 -6.213596e+00 -1.929781e+01 1.812262e+00 6.192536e+00 -1.495325e+01 5.135107e-01 -4.319487e-02 3.611903e-01 1.220034e+00 4.163639e-01 2.298487e-01 -3.476518e-01 -4.067411e-01 5.010880e-01 -4.556622e+00 1.880946e+00 -2.366376e+00 1.451692e+00 -7.838712e-02 
5.755863e+00 3.439985e+00 2.624958e+01 2.699595e+00 -1.529273e+01 8.226693e+00 -8.374100e+00 -7.500729e+00 -2.074748e+01 4.267849e+00 -2.590034e+00 -5.938482e+00 4.341882e-01 1.729272e-01 -5.986084e-01 -2.773260e-01 1.332006e+00 1.931971e-01 -1.120188e+00 1.012645e+00 1.056089e-01 -1.076838e+00 6.494764e-01 -2.122886e+00 2.826615e+00 -9.505852e-02 
5.090680e+00 4.660899e+00 2.824334e+01 2.550339e+00 -1.608872e+01 6.083713e+00 -9.698521e+00 -1.172380e+01 -2.350924e+01 3.071899e+00 -4.033093e+00 -6.642150e+00 3.135905e-01 1.733413e-01 6.341311e-02 -1.124188e+00 7.749552e-01 1.023522e+00 -8.298706e-01 9.061958e-01 -1.248977e+00 8.318178e-01 2.348350e-02 -2.099723e+00 2.522823e+00 -1.378523e-01 
7.276098e+00 2.614316e+00 1.984880e+01 3.327055e+00 -1.184661e+01 4.582205e+00 -4.423557e+00 -6.714734e+00 -1.517426e+01 5.016295e+00 -3.902921e+00 -1.568708e+00 1.613929e-01 -8.584514e-01 2.827485e-01 -7.706216e+00 1.351471e+00 6.312866e+00 -3.529441e+00 3.829159e+00 -5.782213e-02 3.681102e+00 -2.032422e+00 3.590793e-01 1.253758e+00 -1.523905e-01 
5.138618e+00 5.317355e+00 2.162513e+01 4.798347e+00 -1.042719e+01 1.298399e+00 -3.709286e+00 -1.285148e+01 -1.792533e+01 1.555457e+00 -3.649634e+00 -4.524022e+00 -3.935325e-02 -1.432036e+00 -7.861865e-01 -1.207088e+01 1.915047e+00 8.227635e+00 -5.271210e+00 7.075201e+00 -2.597136e-01 5.185514e+00 -2.146802e+00 1.457225e+00 1.452180e+00 -1.144471e-01 
1.439637e+00 4.525498e+00 -8.972393e+00 8.332947e+00 1.344084e+01 -7.027856e+00 7.777080e+00 -7.226002e+00 -5.133923e+00 -5.136040e+00 -9.863667e-01 -7.287579e-01 -1.512926e-01 -4.342965e+00 -9.353854e-01 -8.318298e+00 -8.713759e-01 6.995297e+00 -1.866433e+00 3.702676e+00 1.549130e+00 4.958046e+00 -2.382968e+00 1.565120e+00 3.785581e-01 -3.948919e-02 
8.487291e-01 -2.256250e-01 -1.770045e+01 9.622629e+00 1.240574e+01 -1.446731e+01 1.957716e+01 -1.276674e+01 -2.601833e+00 -2.585946e+00 1.794753e+00 1.987777e-01 -1.023024e-01 -4.548423e+00 -1.078732e+00 -4.136942e+00 -2.005598e+00 4.487562e+00 8.117986e-01 1.312578e+00 3.033309e+00 4.144816e+00 -2.638297e+00 7.926461e-01 -8.397055e-01 7.064116e-03 
-1.229378e+01 7.088788e-01 -2.079903e+00 -3.441966e+00 1.171341e+01 3.132893e+00 2.446597e+00 9.885440e-01 1.954225e+00 -4.827843e+00 1.200487e+00 -2.037317e+00 -4.578471e-03 -2.917858e+00 -7.891186e-01 2.611824e+00 -2.543937e+00 -5.454288e-01 2.124739e+00 -2.045843e+00 1.291114e+00 1.050909e+00 -1.768034e+00 6.689522e-01 -1.715546e+00 2.491272e-03 
-1.073679e+01 1.832007e+00 -2.505827e+00 6.578152e-01 1.287433e+01 2.770171e-01 5.518843e+00 -1.792208e+00 -7.453275e-01 -1.179013e+01 -7.798303e-01 -8.068270e+00 -7.738972e-02 -1.014084e+00 -3.092639e-01 3.760581e+00 -2.935837e+00 -1.012814e+00 2.949626e+00 -3.762643e+00 3.390176e+00 5.512909e-01 7.322167e-01 1.106101e+00 -4.654860e-01 6.744871e-02 
-7.356891e+00 -4.489102e-01 -3.510588e+00 9.566928e-02 1.047939e+01 -3.776321e+00 4.577028e+00 -6.257697e+00 -8.076304e-01 -9.374121e+00 3.645686e+00 -5.172963e+00 -1.512926e-01 6.971599e-01 3.159889e-01 1.045379e+00 -7.575601e-01 -7.688774e-01 -7.018104e-01 -2.291599e-01 2.622735e+00 -4.353371e-01 1.683138e+00 1.131502e+00 1.326623e+00 1.381811e-01 
-6.690137e+00 -1.193050e+00 1.817797e+00 -6.825373e+00 7.958672e+00 3.735435e+00 -3.012691e-01 7.807265e+00 1.535550e+00 3.348277e+00 6.102658e+00 -5.608290e-01 3.082982e-01 -1.192787e+00 2.533886e-02 2.038398e+00 -4.420943e-01 -1.145213e+00 -5.792561e-01 -1.127996e+00 4.673580e+00 -1.046944e+00 1.377743e+00 2.448886e-01 2.960360e+00 1.862912e-01 
-1.083131e+01 3.801352e+00 9.851809e-01 -3.488173e+00 1.032685e+01 -2.105368e+00 4.210854e+00 9.302485e+00 -1.362899e+00 -3.981353e+00 3.416751e+00 8.420759e-01 4.934829e-01 -2.323414e+00 -7.902197e-01 2.137418e+00 4.147696e-01 -1.276443e+00 -1.732788e+00 -6.846581e-01 4.972527e+00 -8.969719e-01 -6.260845e-01 -1.187649e+00 2.215058e+00 1.513685e-01 
-1.496352e+01 -1.664295e-01 5.438276e+00 2.392644e-01 7.224536e+00 -3.454740e+00 6.194878e-02 1.379560e+01 -5.702412e+00 -7.597797e+00 5.590804e-01 3.726010e+00 5.316788e-01 -1.407612e+00 -1.597216e+00 1.239164e+00 1.235756e+00 -9.125786e-01 -2.119406e+00 -8.282480e-02 1.458292e+00 -1.859610e-01 -2.453527e+00 -1.423871e+00 8.002342e-01 2.217478e-02 
-1.483727e+01 -4.913319e+00 5.366260e+00 -1.362801e+00 4.464246e+00 -8.845174e+00 9.721282e-01 1.561077e+01 -1.673509e+00 -7.031507e+00 4.792281e-01 3.758909e+00 4.938598e-01 4.521826e-01 -2.411197e+00 4.141227e-01 -5.844271e-03 -1.649382e+00 -1.912521e+00 -1.051259e+00 1.879214e-01 2.255575e+00 3.714765e-01 4.370549e-01 1.613414e+00 -4.308041e-02 
-1.172522e+01 -4.821793e+00 5.823077e+00 -1.709280e+00 6.327082e+00 -3.491692e+00 9.039698e-01 1.194458e+01 7.610499e-01 -7.394280e+00 4.520647e-01 1.981926e+00 4.189836e-01 2.053109e+00 -1.185121e+00 -7.366246e-01 -1.207756e+00 -6.446877e-01 -8.748161e-01 -8.875537e-01 4.395660e-01 2.686551e+00 5.475301e-01 -6.522221e-01 -2.530979e-01 -5.527347e-02 
-1.018954e+01 -5.926951e+00 2.863394e+00 -2.543122e+00 2.528670e+00 -1.164950e+01 -1.466450e+00 1.116760e+01 6.683247e+00 -2.225729e+00 5.655533e+00 9.781189e+00 3.344285e-01 2.711272e+00 -1.743393e-01 -7.946433e-01 -1.089683e+00 -8.940580e-01 -6.158691e-02 -1.432324e+00 -3.855113e-01 1.114042e+00 -1.366033e+00 -2.111415e+00 -4.616868e-02 -5.712040e-02 
-7.021834e+00 -5.585217e+00 3.006586e+00 -5.209357e+00 4.968885e+00 -6.426659e+00 -3.156531e+00 1.821502e+01 3.551962e+00 -7.263035e+00 -5.290183e+00 -5.506201e-01 3.350271e-01 2.243146e+00 -6.043321e-01 -1.035082e+00 -6.169040e-01 -6.419238e-01 -4.040017e-02 -1.197534e+00 -2.269201e-02 9.432855e-01 -1.542372e+00 -2.550721e+00 4.209919e-01 -4.832969e-02 
-3.632603e+00 -5.403303e+00 2.801289e+00 -5.061176e+00 6.730537e-01 -7.685624e+00 -4.159242e+00 1.054800e+01 2.501245e+00 -1.392730e+01 -7.206726e+00 4.794338e+00 2.502360e-01 1.655811e+00 -1.048358e+00 -1.453523e+00 -4.971147e-01 1.508997e-01 1.262998e+00 1.142691e-01 5.385278e-01 8.278853e-01 -7.471286e-01 -1.882726e+00 -9.853110e-01 -4.346935e-02 
-3.787959e+00 -8.105277e+00 6.787171e-01 -3.534772e+00 4.045271e+00 -5.675628e+00 -3.737306e+00 1.214092e+01 7.568478e+00 -9.255360e+00 -5.870411e+00 6.580311e+00 2.194314e-01 7.440374e-01 -1.184102e+00 -1.255680e+00 3.692220e-01 3.289854e-01 5.138521e-02 -2.854389e-01 -7.014689e-01 1.443843e+00 -3.299094e-01 -6.745304e-01 -4.671271e-01 -4.297648e-02 
-3.527426e+00 -9.908710e+00 -3.240288e+00 -5.865987e+00 3.744976e+00 -5.710020e+00 -6.047168e-01 1.689729e+01 8.814415e+00 -4.965210e+00 -3.467983e+00 1.289168e+00 1.748796e-01 6.059290e-01 -6.871243e-01 -1.081908e+00 4.674719e-01 1.094898e+00 4.081084e-01 -3.813831e-01 -3.388266e-01 -3.023192e-01 -3.984568e-01 -1.231904e+00 -1.501228e+00 -4.487173e-02 
-3.354236e+00 -9.253024e+00 -2.510257e-01 -2.960842e+00 5.077852e+00 -7.157535e+00 -6.360988e+00 1.153303e+01 7.614590e+00 -1.339363e+01 -1.053221e+01 -1.133671e+00 1.578229e-01 1.429153e+00 4.690987e-01 -8.339761e-01 2.989236e-01 -1.940862e-01 1.249392e+00 1.729223e-01 -1.215143e+00 -1.638449e+00 -1.412634e+00 -2.336280e+00 -1.659603e+00 -6.976357e-02 
-8.198195e-01 -8.265051e+00 -2.143382e+00 -3.010782e+00 5.631254e+00 -4.904129e+00 -4.754317e+00 9.157814e+00 9.665934e-01 -1.385045e+01 -1.103535e+01 1.145191e+00 5.668163e-02 1.177352e+00 1.127089e+00 -1.253575e+00 4.925153e-01 -7.190353e-01 2.908042e+00 1.563351e+00 -2.402489e+00 -7.311307e-01 -4.363493e-01 -4.771879e-01 -8.854212e-02 -7.529425e-02 
2.004001e+00 -6.581614e+00 -4.039617e+00 -3.467757e+00 2.131701e+00 1.683861e-01 -7.978945e-01 9.934943e+00 3.300142e+00 -1.187591e+01 -1.376813e+01 -1.645715e+00 -7.028747e-02 1.334316e+00 9.915234e-01 -1.392703e+00 -8.014243e-01 2.166625e-01 3.587623e+00 4.402754e-01 -4.520878e-01 1.175410e+00 2.865083e+00 1.454923e+00 4.462944e-01 -7.493021e-02 
-3.197851e-01 -5.608973e+00 -7.613867e+00 -3.149953e+00 1.622875e+00 5.167233e+00 4.430493e+00 5.683881e+00 7.315986e+00 -7.905813e+00 -4.235962e+00 1.102480e+00 -8.753645e-02 1.355577e+00 1.088954e+00 -1.296968e+00 -1.859838e+00 1.089066e+00 2.331950e+00 -1.212695e+00 -5.334733e-01 1.481530e+00 2.057469e+00 -1.467045e-01 -6.334459e-01 -4.903800e-02 
3.067327e+00 -5.623446e+00 -4.479298e+00 -6.898377e+00 8.165354e+00 5.744901e+00 -8.752016e+00 1.100955e+01 1.031694e+01 -2.040528e+00 -6.657285e+00 1.119157e+00 -1.447191e-01 1.367766e+00 9.141613e-01 -8.811914e-01 -1.537560e+00 2.713753e+00 1.258313e+00 -2.208071e+00 -1.545251e+00 -1.150054e-01 4.278359e-01 -1.550955e+00 -8.126413e-01 -2.257663e-02 
5.426401e+00 -3.299365e+00 -8.408383e+00 -1.059466e+01 8.059758e+00 3.967363e+00 -6.840728e+00 5.953142e+00 4.865843e+00 -8.480795e+00 -1.532429e+01 -3.404474e+00 -1.512926e-01 1.858988e+00 7.745396e-01 -5.782337e-01 -8.333410e-01 2.292360e+00 4.666984e-01 -2.254639e+00 -1.207381e+00 -6.772589e-01 -6.310877e-01 -2.289010e+00 -1.855565e-01 -1.340857e-02 
5.969739e+00 -3.165612e+00 -8.048316e+00 -7.433201e+00 1.248202e+01 7.059885e+00 -6.202639e+00 2.074056e+00 3.950186e+00 -9.449242e+00 -1.597874e+01 -3.455446e+00 -1.512926e-01 9.030339e-01 9.310082e-01 -1.139731e+00 4.665450e-01 4.513080e-01 8.442973e-01 7.227837e-01 -2.123035e+00 -2.246765e-01 1.040164e-01 5.764370e-02 7.952681e-01 -1.314688e-03 
7.523950e+00 -2.965192e+00 -8.720526e+00 -7.049246e+00 1.092634e+01 6.843233e+00 -8.117392e+00 4.114722e+00 7.113070e+00 -7.356894e+00 -1.102028e+01 2.461999e+00 -1.512926e-01 2.712311e-01 8.245217e-01 -8.081698e-01 1.035012e+00 -1.445273e-01 1.045902e+00 1.438318e+00 -2.411801e-01 1.713811e+00 3.342354e+00 2.543565e+00 1.916834e+00 0.000000e+00 
6.533722e+00 -1.135492e+00 -1.002188e+01 -6.338361e+00 8.988603e+00 8.528452e+00 -4.499767e+00 1.313587e+00 8.069947e+00 -2.082397e+00 -8.521072e+00 2.162261e+00 -1.512926e-01 2.496911e-01 1.585622e+00 -3.591269e-01 9.359518e-01 -1.536718e+00 1.166006e+00 2.626672e+00 -5.864428e-01 7.626376e-01 1.851017e+00 1.790168e+00 1.258100e+00 0.000000e+00 
6.500565e+00 -1.918163e-01 -1.146245e+01 -5.967023e+00 9.083832e+00 8.462588e+00 -5.005760e-01 5.127476e+00 1.137502e+01 4.547552e+00 -6.335299e+00 3.370845e+00 -1.512926e-01 3.132467e-02 1.761900e+00 9.931912e-02 1.178402e+00 -1.063291e-01 7.679801e-01 3.896353e+00 3.523654e-01 -8.021787e-01 6.455785e-01 1.333934e+00 1.301937e+00 0.000000e+00 
7.729887e+00 3.375812e+00 -8.472988e+00 -3.294554e+00 5.719689e+00 1.208024e+01 3.122313e+00 -1.364535e+00 5.632400e+00 -6.146380e+00 -9.370388e+00 2.380633e+00 -1.512926e-01 1.471321e-01 9.841921e-01 -3.416516e-01 8.807865e-01 9.373804e-01 -2.260819e-01 2.758867e+00 1.837990e+00 -1.497070e+00 9.901619e-01 1.609523e+00 7.214308e-01 0.000000e+00 
7.082490e+00 3.588654e+00 -8.998377e+00 -2.679139e+00 1.202915e+01 8.907240e+00 7.553333e+00 7.215611e+00 4.320950e+00 -2.097010e+00 -3.925952e+00 8.862498e+00 -1.512926e-01 -3.970808e-01 2.919156e-01 3.785380e-01 9.415885e-01 4.646406e-01 -6.349522e-01 1.822700e+00 -2.902359e-01 -3.592418e+00 1.321895e-01 8.639650e-01 -2.304577e-01 0.000000e+00 
6.978420e+00 1.895233e+00 -1.296218e+01 -3.578371e+00 1.220284e+01 7.175717e+00 5.267611e+00 9.459470e+00 4.111630e+00 6.190693e+00 -1.678128e+00 3.023589e+00 -1.512926e-01 -7.219863e-01 -2.923377e-01 2.264344e-01 1.197988e+00 6.087630e-01 -1.876271e+00 1.361358e-03 -1.088096e-01 -1.401382e+00 2.393016e+00 1.638862e-01 -8.492385e-01 0.000000e+00 
4.890895e+00 2.008051e+00 -7.325168e+00 -1.117172e+00 8.165457e+00 7.740088e+00 7.540273e+00 -1.735707e+00 -5.826686e+00 -9.600372e-01 -5.861603e+00 1.897079e+00 -1.512926e-01 -3.731710e-01 -1.475506e-01 4.131154e-01 9.674255e-01 -1.300770e+00 -1.071721e+00 -2.070505e-01 -1.538424e+00 5.386039e-01 2.000748e+00 -4.193172e-01 -1.988299e+00 0.000000e+00 
5.215754e+00 2.704425e+00 -8.177421e+00 1.914403e+00 1.069535e+01 3.282457e+00 3.135650e+00 2.567075e+00 3.699307e+00 5.250216e+00 -7.583131e+00 1.617150e+00 -1.512926e-01 -3.954124e-01 -7.339734e-01 1.909882e+00 1.120206e+00 -2.891014e+00 9.026007e-02 1.746283e-01 -2.379310e+00 1.241430e+00 1.664832e+00 -3.348768e-01 -3.131614e-01 0.000000e+00 
6.097968e+00 2.446305e+00 -9.325176e+00 -5.883976e-01 6.279049e+00 5.495266e+00 7.584061e+00 2.969690e+00 7.220130e+00 8.376968e+00 -3.070037e+00 -3.757765e-01 -1.512926e-01 3.542406e-01 4.780276e-01 7.152961e-01 5.605150e-01 -9.054731e-01 -9.714575e-02 2.858321e-01 9.985894e-01 6.378098e-01 1.609715e+00 3.486547e-01 -6.286111e-01 0.000000e+00 
4.397821e+00 -1.993761e+00 -2.412762e+00 1.758271e+00 -1.309020e+00 8.749428e+00 6.118858e+00 -4.789781e+00 3.795371e+00 9.846349e+00 -4.748295e+00 2.594209e+00 -1.512926e-01 3.329048e-01 8.246811e-01 7.279913e-02 -1.476976e-01 -1.370556e-01 -4.405405e-01 1.425293e+00 1.460821e+00 -1.823398e+00 -2.239010e+00 -8.064837e-01 -7.279008e-01 0.000000e+00 
7.071064e+00 6.747282e+00 -6.631017e+00 1.763469e+00 9.640277e+00 4.520874e+00 7.477829e+00 6.935668e+00 -2.685669e+00 4.790473e+00 -5.535748e+00 -1.734506e+00 -1.512926e-01 2.593751e-01 1.840912e+00 4.688311e-02 5.079484e-01 2.587416e+00 -8.056684e-01 8.167901e-02 2.359742e+00 -1.562579e+00 -2.767879e+00 -7.476701e-01 -1.700593e+00 0.000000e+00 
6.393730e+00 4.677342e+00 -9.160505e+00 -1.856685e-05 8.329460e+00 1.566950e+00 1.031523e+01 7.888193e+00 -4.647832e-01 -4.151586e+00 -1.038270e+01 -1.342989e+00 -1.512926e-01 2.680685e-01 2.098567e+00 -6.807058e-01 1.740820e-01 2.952212e+00 -1.359559e+00 -7.507480e-01 2.016939e+00 -6.509726e-01 -2.195671e+00 6.724164e-01 -1.616529e+00 0.000000e+00 
6.396889e+00 8.315315e+00 -5.716889e+00 2.830489e+00 1.439689e+01 5.058163e+00 5.894271e+00 8.429413e+00 1.537313e+00 1.536541e+00 -3.991188e+00 -6.910141e+00 -1.512926e-01 1.189423e-03 1.048292e+00 8.377714e-01 7.905797e-01 4.662073e-01 -9.932489e-01 -1.364321e+00 -4.913201e-01 1.763080e-01 -4.923913e-01 1.653831e+00 8.980491e-02 0.000000e+00 
6.075251e+00 7.715060e+00 -6.273354e+00 2.095171e+00 1.107373e+01 1.682988e+00 3.156897e+00 4.548041e+00 -1.570983e+00 4.949603e-01 -2.158493e+00 -2.900618e+00 -1.512926e-01 -1.820745e-01 6.359543e-01 4.214261e-01 9.698208e-01 2.800848e-01 -1.052180e+00 -1.164322e+00 -1.883957e-01 -3.147261e-01 8.087676e-01 1.915431e+00 2.862865e-01 0.000000e+00 
7.236251e+00 1.046988e+01 -3.885735e+00 4.668773e+00 1.059918e+01 -5.033897e-01 4.235393e+00 6.149144e+00 -1.251029e+00 5.242825e-03 -1.378691e+00 -5.066669e-01 -1.512926e-01 -5.499524e-01 -1.885250e-01 -5.251328e-01 4.700232e-01 -5.040248e-01 -7.593840e-01 8.407529e-02 -7.699186e-01 -5.559433e-01 -2.591027e-01 -7.698767e-01 4.507531e-01 0.000000e+00 
5.063676e+00 6.779831e+00 -7.968952e+00 3.929943e+00 1.162874e+01 -9.131749e-01 5.323060e+00 8.086349e+00 -6.442426e-01 6.579013e-01 -2.111789e+00 -3.113293e+00 -1.512926e-01 -3.845250e-01 3.129889e-01 6.363770e-01 9.894921e-01 2.254559e-01 2.014693e-01 5.012602e-02 2.784637e-01 7.035831e-01 -5.703390e-01 -2.425625e+00 -1.340130e+00 0.000000e+00 
4.152915e+00 7.840305e+00 -7.494755e+00 4.263219e+00 1.159926e+01 2.559324e+00 5.231566e+00 2.810667e+00 -1.705774e+00 1.595573e-01 -7.863924e+00 -4.550037e+00 -1.512926e-01 -4.743127e-01 1.070160e-01 8.447326e-01 6.880621e-01 7.015694e-01 1.708973e-01 -5.269948e-01 -2.878832e-01 2.657423e-01 -1.117789e+00 -9.320067e-01 -3.913529e-01 0.000000e+00 
5.694293e+00 1.059479e+01 -1.286958e+00 7.245408e+00 1.170097e+01 1.158977e+00 2.909441e+00 7.609598e+00 2.174305e+00 -2.433892e+00 -1.104400e+01 -7.579582e+00 -1.512926e-01 -1.551220e-01 7.556677e-02 6.315426e-01 -7.726920e-02 7.757036e-02 8.895513e-01 -2.316380e-01 6.996523e-01 1.957571e+00 6.099453e-02 9.873818e-01 8.741404e-01 0.000000e+00 
4.549378e+00 9.097480e+00 -3.003068e+00 6.451351e+00 1.407091e+01 -6.849794e-01 2.807228e+00 4.948103e+00 -1.331591e+00 -4.037806e+00 -1.572618e+00 -2.302871e-01 -1.512926e-01 -1.130557e-02 -6.020417e-01 -6.735291e-01 -1.355262e+00 -3.583217e-01 6.112160e-01 6.913285e-01 1.326463e+00 1.184833e+00 1.052441e+00 1.584756e+00 1.541275e+00 0.000000e+00 
4.089834e+00 6.529078e+00 -7.057083e+00 2.449532e+00 1.078077e+01 5.156734e+00 5.377038e+00 1.051589e+01 8.956520e+00 3.061556e+00 -3.205327e-01 -9.024670e-01 -1.512926e-01 -2.312463e-01 -8.932117e-01 -1.808578e+00 -2.225350e+00 -1.094729e+00 6.029602e-01 1.601334e+00 7.035656e-01 -9.714317e-01 7.769848e-01 1.287996e+00 1.162598e+00 0.000000e+00 
4.898616e+00 6.862954e+00 -7.977338e+00 -1.151510e-01 1.026775e+01 3.616526e+00 7.454410e+00 7.989838e+00 8.272845e-01 2.674037e+00 -5.301877e+00 -1.822200e-01 -1.512926e-01 -1.463918e-01 -2.378302e-01 -9.993944e-01 -1.356139e+00 -6.064472e-01 4.027874e-01 5.165374e-01 -2.150963e-01 -8.163637e-01 1.566992e+00 -4.529069e-01 4.324923e-01 0.000000e+00 
4.363443e+00 7.245996e+00 -7.842715e+00 -5.980935e-01 8.128901e+00 2.023026e+00 8.592518e+00 9.606559e+00 -3.762291e+00 -1.904890e+00 -2.739391e+00 -1.790627e+00 -1.512926e-01 -2.036440e-01 2.728497e-01 -7.301672e-02 -1.200502e-01 5.264528e-01 -5.242558e-01 -6.861960e-01 -1.603976e+00 -1.590234e+00 1.004398e+00 -1.940228e-01 9.115916e-01 0.000000e+00 
3.680615e+00 7.549869e+00 -7.607224e+00 1.194470e+00 1.236461e+01 2.895812e+00 3.782175e+00 4.327289e+00 9.459962e-01 6.280376e+00 -2.627724e+00 2.376254e+00 -1.512926e-01 -3.118831e-01 1.677701e-01 9.757211e-02 4.411805e-01 8.429413e-01 -5.686421e-02 -1.215481e+00 -1.260437e+00 4.945711e-01 1.539794e+00 5.459975e-01 9.283829e-01 0.000000e+00 
