-1.498432e-01 -1.787441e-01 -6.526769e+00 -3.285970e+00 1.005881e+01 5.938175e+00 4.211845e+00 1.674545e+00 -2.878458e+00 -2.208205e+00 -2.440220e+00 -9.863293e+00 -1.807821e-02 -7.509171e-01 -9.245593e-01 -2.639682e-01 -1.192289e+00 -2.429597e+00 -1.564616e+00 -2.600988e-01 -6.131808e-01 6.838328e-01 1.293847e+00 1.400709e+00 1.552944e+00 -2.560294e-03 
-1.229760e+00 -2.015244e+00 -6.283710e+00 -7.373638e+00 3.068290e+00 -7.270894e-01 5.205546e+00 8.430256e-01 -1.181477e+00 -2.655361e-01 -9.112408e-01 -7.313842e+00 -4.483128e-02 -9.625214e-01 -4.116276e-01 1.102375e-01 3.897839e-02 -9.828197e-01 -1.667618e+00 -6.931327e-01 -6.149931e-02 4.060214e-02 -6.173359e-01 8.235435e-02 1.243528e+00 2.797365e-04 
-3.364470e+00 -3.883290e+00 -7.968139e+00 -7.203581e+00 1.406090e+00 1.447727e+00 2.414500e+00 -9.756000e-01 -3.077837e-01 3.289697e+00 3.798834e+00 -3.373296e+00 -1.750314e-02 -5.251368e-01 -9.584343e-02 3.876491e-01 1.427410e+00 5.041952e-01 -9.448220e-01 4.514376e-01 1.313316e+00 5.368647e-01 6.216244e-01 -5.615358e-01 -8.580146e-02 2.802396e-03 
-3.355137e+00 -3.846090e-01 -5.254896e+00 -1.132273e+00 9.471077e+00 -1.546926e-01 1.644854e+00 2.692120e+00 -3.960784e+00 -8.043835e+00 -5.147975e+00 -6.890650e+00 -1.696706e-02 -1.831357e-01 2.759476e-01 4.604230e-02 1.636313e+00 9.822931e-01 2.517770e-01 1.338702e+00 2.071166e+00 5.826404e-01 1.103597e+00 2.343492e-01 6.388332e-01 4.781174e-03 
-1.712839e+00 -1.473279e+00 -5.102930e+00 7.303987e-01 9.378397e+00 9.278668e-01 8.249379e+00 7.316576e+00 1.195519e+00 4.789067e+00 -3.129532e+00 -1.050390e+01 -1.799834e-02 2.217388e-02 -1.622489e-02 -4.421369e-01 3.265443e-02 -3.537850e-02 1.058857e+00 1.436733e+00 1.158032e+00 2.287388e+00 2.580997e+00 8.769152e-01 2.390868e-01 -6.784439e-04 
-2.971254e+00 -1.840512e+00 -7.486103e+00 -3.159063e+00 3.993603e+00 7.917258e-01 8.981617e+00 7.052769e+00 9.800737e-01 4.502766e+00 3.724688e+00 -5.543762e-01 -2.067780e-02 -1.178113e-01 -8.155416e-01 -1.995023e-01 -1.282272e+00 -2.544021e+00 3.423807e-01 -4.860261e-01 -1.040125e+00 1.964963e+00 2.118832e+00 1.573172e+00 5.379068e-01 -7.527351e-04 
-3.445542e+00 -3.236463e+00 -9.063220e+00 -6.026914e+00 3.967935e+00 6.268804e+00 5.929783e+00 2.634234e+00 8.658729e+00 9.921385e+00 3.747079e+00 -5.345999e+00 -1.903999e-02 -7.111349e-02 -4.472704e-02 6.242390e-01 -8.813337e-01 -2.301994e+00 -1.117885e+00 -9.906470e-01 -1.893746e+00 5.892918e-01 7.293911e-02 2.504650e-01 1.053923e-01 -3.942859e-03 
-3.077842e+00 -3.580725e+00 -4.272263e+00 -4.164975e+00 -5.437956e-01 -1.113258e+00 3.745213e-01 -1.673307e-01 2.132428e+00 -1.583290e-02 -7.204201e-01 -6.780065e+00 -2.020991e-02 8.471624e-01 8.719333e-01 6.630820e-01 2.540011e-01 -2.758643e-01 -1.105012e+00 -2.400806e-01 -1.204393e+00 3.563042e-01 -1.769379e+00 -2.677824e+00 -1.244489e+00 -2.715445e-03 
-2.015113e+00 -8.268080e-01 -3.588655e+00 -3.173314e+00 1.371255e-01 -3.709068e+00 7.599692e+00 1.457896e+00 3.565801e+00 7.413062e+00 3.453472e-01 -6.864090e+00 -3.794658e-02 1.016924e+00 1.362103e+00 8.367975e-01 7.808889e-01 1.182716e+00 -7.399131e-01 2.766163e-01 6.508588e-01 -4.656955e-01 -2.404660e+00 -2.112315e+00 -4.268335e-01 -3.796852e-03 
5.493431e-01 1.314327e+00 -6.907975e+00 -3.315857e+00 4.529686e+00 2.556009e-01 6.946259e+00 1.618972e+00 5.308059e+00 -3.089969e+00 -7.963570e+00 -6.017775e+00 -2.480173e-02 7.072698e-01 8.295040e-01 3.811784e-02 1.756384e-01 1.561448e+00 1.607487e+00 1.255208e+00 9.269479e-01 -1.478810e-02 -1.159963e+00 -1.008470e+00 -1.282105e-01 2.530432e-03 
-1.745138e-01 1.126524e+00 -3.561376e+00 -2.547029e+00 7.344776e+00 1.884809e+00 4.026995e+00 4.995377e+00 4.742435e+00 -5.648451e-01 -3.192920e+00 -7.861312e+00 -3.572834e-02 -1.653549e-01 -4.818603e-01 -1.101914e-01 -3.305140e-01 1.822481e-01 1.100347e+00 -1.129044e+00 -4.818351e-02 -1.662692e+00 -1.252773e+00 -5.341282e-02 -2.238048e-01 9.692108e-03 
-4.617920e-01 -4.098706e-01 -4.095313e+00 -3.599926e+00 3.659617e+00 4.127237e+00 8.436911e+00 2.698669e+00 1.470170e+00 -1.826693e+00 -3.993635e+00 -6.922506e+00 -8.666873e-03 -6.908743e-01 -1.260333e+00 4.991599e-01 -3.514974e-01 -8.758392e-01 -5.967190e-01 -1.692341e+00 -1.978141e+00 -2.833055e+00 -4.768200e-02 1.552835e+00 -2.321079e-01 1.055657e-02 
-2.336320e+00 -2.374011e+00 -5.545943e+00 -4.683850e+00 1.483400e+00 -1.431514e-01 1.209146e+00 6.771306e-01 -2.828716e+00 5.175582e-01 -1.906684e+00 -7.530748e+00 2.446532e-03 -4.655744e-01 -9.520200e-01 -1.945901e-01 -3.581011e-01 -4.659182e-01 -8.048760e-01 -9.191901e-01 -1.990975e+00 -1.796925e+00 1.012009e-01 7.213058e-01 -3.742528e-01 7.060772e-03 
-1.824125e+00 -3.237072e+00 -3.419892e+00 -4.004934e+00 3.081177e+00 -1.714014e+00 -1.065235e-01 -6.112609e+00 -5.071640e+00 -3.869581e+00 -8.425143e-01 -7.343596e+00 8.893669e-03 -3.279186e-01 -3.994693e-01 1.895025e-01 -3.831232e-02 6.186585e-01 -9.055645e-01 -1.216861e+00 -9.020821e-01 -6.022484e-01 1.318314e-01 1.010260e+00 2.797585e-02 -6.188440e-03 
-1.821219e+00 -2.219975e+00 -4.872037e+00 -4.135030e+00 5.304405e+00 7.810547e-01 3.702761e+00 -5.538590e-01 -9.712830e-01 9.626031e-01 -1.161952e+00 -9.522031e+00 -9.204745e-03 2.392821e-01 1.967368e-01 4.764467e-01 5.968723e-01 6.937386e-01 5.147206e-01 3.756092e-01 3.452876e-01 1.245009e-01 -1.467019e-01 -9.181881e-01 -7.808639e-01 -4.955119e-03 
-2.358935e+00 -2.484235e+00 -3.484754e+00 -4.065897e+00 4.842407e+00 -8.626879e-01 1.105800e+00 -1.196247e+00 -2.469789e+00 -1.390059e+00 6.852977e-01 -5.786985e+00 -3.378344e-02 5.067457e-01 1.051511e+00 1.261126e-01 4.840881e-01 1.271210e-01 1.372846e+00 4.818236e-01 1.292781e+00 1.000748e+00 5.047305e-01 -1.534143e+00 -1.359029e+00 -4.597151e-03 
-8.725042e-01 -1.766746e+00 -3.131279e+00 -1.669007e+00 4.071479e+00 2.004789e+00 2.481031e+00 -5.461240e-02 -3.507137e+00 -1.455712e+00 -7.261531e+00 -1.221337e+01 -9.905100e-04 6.803038e-01 1.431867e+00 1.610433e-01 7.249792e-01 9.172463e-01 8.274372e-01 8.341081e-02 1.862762e-01 -1.455489e-01 -6.058877e-01 -6.435451e-01 -8.283110e-01 -1.422668e-03 
2.352457e-01 1.793867e+00 -3.659708e+00 -2.817505e+00 4.333246e+00 4.538350e+00 2.913460e+00 1.016705e-01 1.200027e+00 -1.367702e-01 -5.463439e+00 -1.279307e+01 -1.819921e-02 -2.866647e-01 1.833092e+00 -5.445611e-01 1.824720e+00 1.244128e+00 8.637551e-01 -4.188314e-01 5.173224e-01 -3.061278e-01 7.867538e-01 7.531730e-01 1.346985e-01 4.273081e-02 
2.832088e-01 2.800310e+00 -3.979344e+00 -1.134330e+00 1.014522e+01 2.217722e+00 3.215986e+00 -2.714367e-01 -3.533936e+00 -2.693480e+00 -1.305309e+00 -1.016054e+01 -2.411020e-02 -1.115173e+00 1.307743e+00 5.247194e-01 -3.088044e-01 5.370721e-01 -1.466879e-01 -2.748229e+00 1.941506e+00 -1.264312e+00 2.164471e-01 3.697252e+00 2.182362e+00 5.286307e-02 
-4.370115e+00 4.397698e+00 -5.783527e+00 4.790364e+00 8.026180e+00 3.349622e+00 -1.355834e+00 1.498777e+00 -3.987029e+00 3.162594e+00 1.473052e+00 -6.139908e+00 1.914304e-01 -9.143890e-01 4.845869e-01 1.730010e+00 -2.546966e+00 -6.967992e-01 -1.719973e+00 -3.665166e+00 3.132457e+00 -1.608210e+00 -8.525533e-02 4.179648e+00 2.697054e+00 3.872182e-02 
-4.145691e+00 3.470055e+00 5.542274e-01 -7.016963e+00 4.910372e+00 1.865714e+00 -9.125465e+00 8.954363e+00 -7.235170e+00 -2.023159e+00 7.756485e+00 -4.628147e+00 1.585100e-01 -2.537342e-01 5.178972e-01 1.316815e+00 -9.963061e-01 -1.250625e+00 -1.161413e+00 -1.468869e+00 1.449410e+00 1.073476e-01 -7.996098e-01 8.258856e-01 1.685509e+00 -7.180536e-03 
-2.122250e+00 3.881929e+00 2.723555e+00 -1.261102e+01 3.466672e+00 -3.885511e+00 -9.241648e+00 1.115106e+01 -4.990406e+00 -8.982075e-01 1.090390e+01 -2.073998e+00 8.409977e-02 -1.967115e-01 2.130718e-02 -1.062814e-01 3.988605e-01 -1.496933e+00 -3.549090e-01 8.167874e-01 -1.058090e+00 8.820862e-01 -4.496414e-01 -1.064212e+00 1.038875e+00 -3.358260e-02 
-2.109395e+00 5.647681e+00 -1.648807e+00 2.584830e+00 6.171848e+00 2.822234e-02 -1.854525e-01 2.149472e+00 -2.495509e+00 -4.661128e+00 -1.891308e+00 -3.765951e+00 -6.347537e-03 -1.071380e+00 -2.527281e-01 -2.326868e+00 1.989954e+00 -3.087574e+00 4.067535e-01 2.599791e+00 -3.004869e+00 1.151035e+00 7.527838e-01 -2.643613e+00 1.378936e+00 5.551478e-02 
-6.371820e+00 3.415421e+00 -5.213417e+00 1.983770e+00 -8.922291e-02 2.493822e+00 -1.741905e+00 -3.892291e-01 -1.946429e+00 2.233372e+00 9.758866e-01 -1.376632e+00 1.059462e-01 -6.383573e-01 -4.254465e-01 -1.875031e+00 7.559526e-01 -2.363528e+00 1.785509e+00 2.885503e+00 -2.736073e+00 6.697325e-02 1.904758e-01 -2.499955e+00 1.519103e+00 5.023344e-02 
-7.377806e+00 2.439668e+00 -7.111628e+00 -4.364587e+00 -8.749553e+00 7.098143e-01 1.236191e-01 -2.998412e-01 -3.001985e+00 1.749710e-01 -4.975708e-01 1.917848e+00 4.251607e-01 5.415421e-02 -7.605686e-01 -1.081473e+00 -8.007291e-01 3.887264e-01 1.432101e+00 2.225013e+00 -8.850926e-01 -3.834534e-03 -2.395248e-01 2.515833e-01 2.957691e-01 4.307504e-02 
-2.679831e+00 3.358703e+00 -3.920188e+00 -5.356546e+00 -8.902669e-01 4.701238e+00 5.031334e+00 -1.304653e+00 -4.402302e+00 -2.363878e+00 -2.292740e+00 2.679616e+00 1.195129e-01 3.531812e-01 -1.299635e+00 -1.405925e+00 1.213750e-01 3.538441e+00 1.416221e+00 3.160207e+00 -1.172533e+00 6.451749e-01 -8.915377e-01 2.041724e+00 -9.558083e-01 4.671917e-02 
-3.684619e+00 1.873197e+00 -7.702786e+00 2.251343e+00 8.516003e+00 6.085019e+00 7.552992e+00 -1.818279e+00 -1.286745e+00 -3.560127e+00 1.000922e+00 -4.315230e+00 2.022443e-01 3.302966e-01 -1.580735e+00 4.541430e-01 7.691401e-01 3.642241e+00 3.929458e-01 7.613644e-01 -3.751191e-01 2.148454e+00 1.636759e-01 3.102340e+00 -2.763299e-01 -1.040336e-02 
-6.452508e+00 -2.799518e+00 -1.194746e+01 -7.173200e-01 8.970207e+00 6.887323e+00 1.034444e+01 -5.492675e+00 4.218259e-01 -3.567671e-01 1.043526e+01 -3.039135e+00 4.510003e-01 -1.311405e-01 -1.070729e+00 1.126694e+00 -5.439428e-01 -7.097288e-01 -1.644535e+00 -1.299840e+00 2.089448e+00 3.306418e+00 7.218971e-01 1.972470e+00 1.053665e+00 -6.525415e-03 
-3.839984e+00 -2.384896e+00 -8.272753e-01 -2.838500e+00 4.531415e+00 1.581501e+00 1.273886e+00 -8.142614e-02 5.328220e+00 -1.020515e-02 8.650126e+00 3.395574e+00 2.074002e-01 9.859475e-01 7.338617e-01 1.606260e+00 -1.521625e+00 -2.375474e+00 -2.791904e+00 -3.727032e+00 2.457597e+00 2.242024e+00 9.713958e-02 -1.996810e+00 9.009230e-01 -7.885821e-02 
-3.257851e+00 1.341043e-01 -1.724473e+00 -5.531339e+00 -2.446617e+00 -1.269676e+00 1.671688e+00 8.274159e+00 8.822306e+00 -5.293537e-01 3.745009e+00 4.092539e+00 8.430785e-02 1.371404e+00 1.450063e+00 1.226932e+00 -3.905752e-01 -1.361899e+00 -2.701657e+00 -2.762504e+00 2.952791e+00 7.509724e-01 -7.285022e-01 -3.649157e+00 -6.984391e-01 -1.152296e-01 
-3.522100e-01 4.075695e+00 -4.782981e+00 -2.949773e+00 2.347042e+00 -3.796001e+00 -6.745791e+00 3.586290e+00 5.723137e+00 -2.988136e+00 -5.638000e+00 -3.376452e+00 -8.700490e-03 -1.155147e+00 2.633409e+00 -6.463672e-01 -1.075681e+00 3.269849e-01 -1.509973e+00 8.014125e-01 1.326459e+00 5.259812e-01 -1.122252e+00 -2.020002e+00 -2.409108e+00 1.725402e-02 
-1.339376e+00 1.220502e+00 -3.834950e+00 -2.614559e+00 3.252900e+00 -3.932209e+00 5.417633e-01 7.437421e+00 3.979230e+00 -2.510312e+00 -6.664612e-01 -3.145317e+00 -1.709759e-02 -2.063572e+00 1.909173e+00 1.179017e-01 -1.271807e+00 2.290952e+00 6.049889e-01 1.638927e+00 -7.148797e-01 7.201539e-01 -1.663719e+00 -7.516155e-01 -1.710477e+00 6.415568e-02 
-1.057496e+01 1.023895e+01 -3.003873e+00 -9.675297e+00 3.316581e+00 -4.637097e+00 5.845911e+00 6.969235e+00 1.037966e+01 -4.630983e+00 7.558544e-01 -5.031036e+00 3.443730e-01 -1.478620e+00 4.832010e-01 8.896071e-01 -1.053103e+00 8.581314e-01 1.071367e+00 2.288909e+00 5.484501e-01 1.777666e-01 -8.025500e-01 7.329061e-01 2.314224e-01 1.697501e-02 
-8.464338e+00 6.598343e+00 -2.024519e+00 -8.527614e+00 8.523373e+00 2.175817e+00 3.570471e+00 3.008288e+00 1.009481e+01 -8.026526e+00 -3.209995e+00 -3.632556e+00 2.285495e-01 -1.477349e+00 1.164344e+00 -2.200635e-01 -2.936413e-01 -8.586939e-01 4.430964e-01 -7.806245e-01 -4.647561e-01 -3.065519e-01 1.426889e-01 -8.404339e-01 1.383987e+00 2.824217e-02 
-4.182831e+00 3.802779e+00 -1.240161e+00 -5.258759e+00 4.002463e+00 -1.493178e+00 3.184400e+00 8.543108e+00 3.554179e+00 -4.242779e+00 -7.017028e-01 -1.975721e+00 -4.664898e-02 -1.379042e-01 -3.294113e-02 -9.765797e-01 1.487689e+00 -2.219733e+00 -4.474150e-01 -2.056100e+00 -1.813078e-02 -1.029249e+00 1.226032e+00 1.478069e-01 2.273369e+00 -1.525839e-02 
-1.192218e+01 1.026030e+01 -5.817123e+00 -6.291034e+00 -1.383510e+00 -3.288687e+00 -2.030604e+00 4.326705e+00 5.859213e+00 -1.990970e+00 -4.139853e+00 2.246960e+00 3.196242e-01 -3.978537e-01 -7.646284e-01 -2.028434e-01 7.993222e-01 -3.061561e+00 -1.729868e+00 -7.442121e-02 -5.593911e-01 -2.679101e+00 -6.436320e-02 5.917288e-01 7.367750e-01 -2.603168e-02 
-9.535555e+00 8.243261e+00 -5.990470e+00 -3.355142e+00 -2.828644e+00 -4.141921e+00 -1.634050e+00 6.219374e+00 7.351220e+00 -1.518602e+00 1.959817e+00 3.396051e+00 2.225437e-01 -3.291802e-01 -4.443203e+00 -7.330895e-01 7.455336e-01 6.032455e-01 2.341571e-01 -9.911634e-01 -3.047313e+00 -1.730933e+00 5.615735e-01 1.971328e+00 -4.732890e-02 2.588504e-03 
-7.777245e+00 5.549600e-01 -6.635821e-01 -5.482811e+00 -3.368877e+00 -5.149154e+00 5.607590e+00 1.373199e+00 -5.199217e+00 -9.710430e+00 -1.582111e+00 -2.634567e+00 -3.620529e-02 1.729431e+00 -6.727796e+00 -2.047635e+00 1.858206e+00 5.622691e+00 1.191382e+00 -9.590183e-01 -2.261858e+00 -4.456064e-01 1.837620e+00 2.514179e+00 -7.793856e-01 -2.781783e-02 
-7.901201e+00 -1.356056e+01 -7.482380e+00 -1.935202e+00 8.011374e+00 6.078411e-01 -5.590514e+00 -5.216706e+00 4.287310e-01 2.424819e+00 7.876067e+00 2.283983e-01 1.442083e-01 7.225659e-01 -2.801323e+00 -1.420014e+00 9.154204e-01 5.576313e+00 9.894764e-01 -1.211607e+00 -1.463576e+00 7.454090e-02 1.895213e+00 1.218549e-01 -1.048234e+00 -3.068582e-02 
-4.092208e+00 -1.247676e+01 -1.530934e+01 2.290026e+00 2.130994e+01 2.933444e-01 -4.847464e+00 -1.264548e+00 7.092425e+00 5.225417e+00 5.472919e+00 -6.614107e-02 2.197028e-01 -4.652319e-01 2.124520e+00 3.054302e-01 4.469051e-01 2.413699e+00 -4.960706e-01 -2.189386e-01 7.081352e-01 9.460689e-01 1.692109e+00 5.318652e-01 2.458474e-01 -2.626531e-02 
-7.765244e+00 7.525036e-01 -5.767659e+00 -2.664458e+00 1.271352e+01 -1.915787e+00 -2.464556e+00 2.203662e-01 1.578103e+00 4.895393e-01 -9.584234e-01 -3.129330e+00 -5.883944e-02 -5.645242e-01 5.569711e+00 3.217673e+00 -1.288336e+00 -2.382555e+00 -1.029551e+00 2.655313e+00 1.695977e+00 -4.025877e-01 -9.880314e-01 -4.790683e-01 4.942683e-01 -7.918856e-02 
-1.017138e+01 4.021025e+00 6.208658e-03 -2.883658e+00 6.348546e+00 -6.367692e+00 2.949918e+00 2.195339e+00 -1.043558e+00 -2.822472e-01 5.494461e+00 2.735345e-01 -6.600797e-02 -6.257727e-01 4.181997e+00 4.155043e+00 -1.765212e+00 -4.046016e+00 -9.196337e-01 1.143186e+00 8.258355e-01 -1.360275e+00 -1.114355e+00 -3.905800e-01 6.012181e-01 -7.170801e-02 
-7.684235e+00 6.039100e+00 9.482069e-01 -5.790038e+00 3.579296e+00 -1.209398e+00 3.787362e+00 1.533238e+00 2.483784e+00 2.384943e-01 5.469955e+00 2.529902e+00 -1.088791e-01 4.309872e-01 1.192862e+00 1.787934e+00 -5.137000e-01 -1.527843e+00 6.884455e-01 4.106727e-01 -1.488030e-01 -7.843589e-01 -3.513235e-01 4.848448e-01 1.055798e+00 -1.118406e-02 
-7.261576e+00 5.789927e+00 2.107939e+00 -4.973243e+00 5.646968e+00 -4.658019e+00 -2.257494e+00 2.208194e+00 -1.617917e-01 -2.208345e-01 3.058302e-01 1.103331e-01 -1.138175e-01 9.080729e-01 9.671381e-01 1.085941e+00 -2.727750e-01 -9.113628e-01 3.623805e-01 -5.407704e-01 -1.599207e-01 -1.303547e+00 -2.134100e-01 -9.480206e-01 -3.232197e-01 -4.799283e-03 
-7.065211e+00 5.832360e+00 2.121146e+00 -4.188165e+00 5.425088e+00 6.716037e-01 2.192513e+00 -5.300765e-01 -2.784574e+00 -1.297785e+00 4.060116e+00 2.231261e+00 -9.085500e-02 8.524796e-01 6.516451e-01 2.012806e-01 3.002248e-01 -7.777404e-01 -2.447326e-01 2.038296e-01 -4.877122e-02 -1.641894e+00 -3.267657e-01 3.080936e-01 -8.106979e-01 9.211779e-03 
-5.940530e+00 8.960085e+00 4.849444e+00 -5.048469e+00 8.688359e-01 -5.496291e+00 1.043490e+00 2.427393e+00 -4.927114e+00 -5.811579e-01 1.459278e+00 -1.193244e+00 -9.901643e-02 2.584052e-01 1.496668e-01 1.408271e-01 1.220020e-01 -6.188697e-01 3.115239e-01 1.366101e+00 -8.585636e-01 -1.101945e+00 -4.219180e-01 1.148332e+00 -9.065411e-02 7.409012e-03 
-4.082359e+00 7.712246e+00 5.838573e-01 -4.251301e+00 2.079660e+00 -2.013925e+00 3.156018e+00 1.179783e+00 -3.343023e+00 -1.215173e+00 6.433700e+00 -8.717994e-01 -7.022071e-02 -5.461797e-01 -4.267083e-01 5.762240e-02 1.069387e-01 6.397121e-02 -2.241116e-01 1.953596e-01 -2.077008e-01 7.598331e-02 -2.267431e-01 -1.180971e-01 1.595171e-01 8.397102e-04 
-7.460976e+00 5.598318e+00 3.580719e+00 -4.331666e+00 4.225334e+00 -1.757635e+00 4.091258e+00 -2.939553e+00 -5.392292e+00 -2.371730e+00 4.860699e+00 1.208593e+00 -8.708954e-02 -1.175857e+00 -1.029522e+00 -2.976509e-01 4.586532e-01 6.044067e-01 1.033147e+00 1.359445e-01 -1.243698e-01 5.044062e-01 -7.004323e-01 -2.479840e-01 1.617645e+00 -3.820419e-04 
-9.035887e+00 5.379703e+00 3.043621e+00 -4.011874e+00 4.066695e+00 -2.318282e+00 1.645427e+00 1.114892e+00 -2.172069e+00 -1.536214e+00 1.768920e+00 1.827928e+00 -9.261990e-02 -1.254724e+00 -3.586305e-01 1.978257e-01 3.993219e-01 -2.446818e-01 9.135232e-02 -2.589955e-02 1.637778e-01 7.578710e-01 4.843212e-01 -9.819212e-01 8.684942e-01 6.442427e-04 
-9.343052e+00 4.978749e+00 2.131308e+00 -2.874917e+00 2.897352e+00 -1.783771e-01 2.478508e+00 1.837989e+00 -2.990560e+00 -3.922799e+00 2.551748e+00 5.545118e+00 -8.972704e-02 -1.268648e-01 -5.929716e-02 -6.505334e-01 2.651687e-02 5.044794e-03 1.540719e+00 2.291750e-01 4.562940e-01 7.854800e-01 5.186376e-01 -2.778827e-01 1.440605e-01 6.072664e-03 
-9.414940e+00 6.228878e+00 2.297691e+00 -2.983066e+00 1.520242e+00 -2.346792e+00 3.832895e+00 -3.900995e-01 -7.545340e-01 1.981968e+00 2.678570e+00 1.302408e+00 -6.568074e-02 4.946663e-01 1.456731e-01 -3.952540e-01 1.815865e-02 6.097316e-01 1.827656e+00 1.724383e-01 -8.982543e-02 1.219756e+00 4.568473e-01 -1.997952e-01 -8.261278e-01 5.176687e-03 
-7.905773e+00 4.877244e+00 7.010167e-01 -4.713485e+00 5.523785e+00 5.960213e+00 4.143399e+00 9.441257e-02 -2.173659e+00 -1.537633e+00 3.016460e+00 2.191655e+00 -7.019579e-02 1.484846e+00 -1.182758e+00 -1.895521e+00 2.904798e-01 2.522359e+00 3.210792e-01 -1.661568e+00 -1.189909e+00 2.278511e+00 1.609474e+00 -6.790022e-01 -9.465297e-01 1.985054e-02 
-7.281195e+00 6.158821e+00 1.782497e+00 -3.001796e+00 5.802136e+00 3.750704e+00 1.675173e+00 1.537553e+00 3.518260e+00 -4.445603e-01 5.375874e-01 -6.259795e-01 -7.650208e-02 1.750466e+00 -1.907390e+00 -3.048032e+00 1.463209e+00 3.120503e+00 -3.225986e-01 -2.991547e+00 -1.691099e+00 2.856166e+00 1.450533e+00 -8.833693e-01 6.449745e-01 4.030502e-02 
-2.985695e+00 -9.000115e-01 -7.088701e+00 -1.413153e+00 1.336820e+01 -1.621729e+00 -4.750470e+00 -5.075384e+00 6.265598e+00 5.337835e+00 2.272284e-01 1.776663e+00 1.493633e-02 1.683513e-01 -3.502699e-01 -1.306847e+00 1.080140e+00 5.511457e-01 -2.336449e+00 -1.208821e+00 -3.299965e-01 7.513367e-01 1.796029e+00 9.097170e-01 9.559663e-01 2.704438e-02 
-3.122649e+00 -4.194443e-01 -9.047607e+00 2.682815e+00 1.320055e+01 -1.688140e-01 -6.677908e+00 -6.260695e+00 9.306670e+00 5.796898e+00 -3.436606e-01 4.734777e+00 9.327829e-02 -1.041458e+00 -2.859718e-01 -8.439304e-01 6.585232e-01 -3.981934e-02 -1.836676e-01 4.386556e-01 1.159804e+00 -1.310530e+00 1.211507e+00 1.716631e+00 4.348811e-01 4.136231e-02 
-9.143290e+00 6.415028e+00 -4.181669e-01 -2.155090e+00 4.580306e+00 -3.762271e+00 2.275835e+00 2.343554e+00 -1.311181e+00 4.321785e+00 8.005669e+00 4.291108e+00 -1.986408e-02 -1.554797e+00 5.641603e-01 5.220863e-01 -8.832554e-01 -2.644578e+00 4.398232e-01 2.789121e+00 4.042619e+00 -3.577274e+00 -1.491980e+00 1.786883e+00 -6.884449e-01 9.582806e-02 
-9.409685e+00 1.071442e+00 -5.772423e+00 6.617880e-01 9.996987e+00 3.902637e+00 3.552985e-01 3.627102e+00 7.540007e-01 6.120999e+00 5.231520e+00 2.912033e-01 1.477097e-01 -1.446999e-01 1.874159e-01 1.314802e+00 -1.259620e+00 -3.435001e+00 -3.026830e-01 3.337453e+00 4.345263e+00 -3.389606e+00 -2.156112e+00 2.008677e+00 4.113333e-01 1.475796e-01 
-7.616161e+00 1.175347e+00 -6.115862e+00 -4.818916e+00 1.747094e+00 -1.458338e+00 5.678531e+00 1.019381e+01 -7.344438e+00 -2.284115e+00 6.374054e+00 5.562257e-01 4.668609e-01 2.043952e+00 -6.973652e-01 2.458545e+00 2.106943e+00 -1.791958e+00 -1.009808e+00 1.265942e+00 2.853539e+00 -1.550804e+00 -2.955920e+00 1.839694e-01 1.147720e+00 1.507616e-01 
-4.609713e+00 3.137475e+00 3.752487e-01 -2.283375e+00 -2.557851e+00 -2.834195e+00 8.308012e+00 1.154050e+01 -4.624733e+00 -1.680714e+00 1.051553e+01 8.658885e+00 5.878140e-01 2.312651e+00 -1.099982e+00 4.016088e+00 2.941873e+00 -1.089920e+00 -1.737820e+00 1.307244e+00 2.577514e+00 2.825926e-01 -3.217221e+00 -1.899577e-01 1.625869e+00 6.502935e-02 
-1.323518e+00 1.895185e+00 8.800722e+00 9.852207e+00 1.897933e+00 -5.442896e+00 4.629187e+00 1.265455e+01 -6.375833e+00 -6.556956e+00 6.283509e+00 5.845866e+00 5.138916e-01 3.249393e+00 -1.133394e+00 3.501817e+00 3.772524e+00 1.735922e+00 -6.356484e-01 -8.363383e-01 -2.606355e-01 2.807349e+00 -6.107082e-01 -1.790640e+00 3.710261e-01 -3.225021e-02 
-9.927530e-01 -4.788387e+00 6.849722e+00 8.035589e+00 4.471965e+00 -2.794183e+00 7.416189e+00 1.528431e+01 1.682661e+00 -7.828687e+00 4.327004e+00 5.775730e+00 4.493411e-01 5.026137e+00 -6.759897e-01 -7.007319e-01 2.359675e-01 2.862712e+00 1.290257e+00 -3.426575e+00 -4.209950e+00 1.667448e+00 1.209122e+00 -1.853009e+00 -1.250817e+00 -3.139473e-02 
6.822322e+00 -5.286932e-01 8.155986e+00 8.884221e+00 6.911797e+00 -4.656587e+00 1.942751e+00 7.018731e+00 3.538612e+00 -2.263669e+00 5.151212e-01 3.852934e+00 3.748463e-01 5.604713e+00 1.858827e-01 -4.566500e+00 -3.295157e+00 7.843379e-01 3.916115e+00 -3.659858e+00 -8.192167e+00 -8.785948e-01 3.993696e+00 -1.048766e+00 -9.602489e-01 2.612849e-02 
1.644805e+01 9.694657e-01 -2.806042e+00 -6.195440e-01 9.248779e+00 3.223934e+00 -7.481645e+00 -6.691346e+00 -1.244715e+00 2.218255e+00 4.134683e+00 3.401265e+00 5.003630e-01 5.186999e+00 9.299161e-01 -5.373105e+00 -3.583724e+00 -1.318455e+00 4.836331e+00 -3.685454e+00 -9.524329e+00 -4.411893e+00 4.611125e+00 -9.872128e-01 -1.328224e+00 7.598233e-02 
1.797965e+01 -5.432796e-02 -9.203897e+00 -2.296013e+00 3.431216e+00 1.112862e+01 -6.221187e+00 -1.731847e+01 -9.305119e+00 8.388052e+00 1.135840e+00 2.231853e+00 6.190231e-01 2.913905e+00 -1.271331e-01 -5.038415e+00 -2.646717e+00 -2.750743e+00 4.830018e+00 -1.669641e+00 -6.565455e+00 -4.670040e+00 3.176171e+00 -7.295111e-01 -5.542682e-01 1.027138e-01 
1.936358e+01 -3.759890e-01 -1.133586e+01 -4.292918e+00 -3.800168e-01 1.349487e+01 -6.929113e+00 -2.016875e+01 -1.395494e+01 9.901075e+00 -9.194195e-01 -5.484760e-02 7.071644e-01 9.325616e-01 -6.041334e-01 -2.365222e+00 -5.003538e-01 -2.448733e+00 2.273389e+00 -3.383722e-01 -2.691825e+00 -2.440643e+00 1.746784e+00 -8.324859e-01 1.060277e-01 8.762713e-02 
1.993409e+01 -4.916315e-01 -1.277118e+01 -2.512676e+00 -2.027520e+00 1.435803e+01 -6.681722e+00 -1.906984e+01 -1.345647e+01 9.775776e+00 -6.053836e-01 2.809649e+00 7.850148e-01 2.431102e-01 -7.793618e-01 -8.249332e-01 2.806616e-01 -6.751302e-01 2.501822e-02 -1.362210e+00 -1.865101e-02 -2.946796e-02 1.274716e+00 -1.271716e-01 8.702517e-01 7.147296e-02 
2.013364e+01 -1.832550e+00 -1.284851e+01 -3.012982e+00 -2.655168e-01 1.297617e+01 -8.943239e+00 -1.927478e+01 -1.137225e+01 1.025831e+01 8.428648e-01 3.642506e+00 8.555028e-01 -4.956776e-01 -1.225087e+00 1.454177e-01 8.295051e-01 2.799411e-01 -1.145487e+00 -2.431814e+00 8.478953e-01 1.706088e+00 1.519832e+00 -6.977916e-02 1.037733e+00 5.709871e-02 
1.881017e+01 -3.222857e+00 -1.257224e+01 -1.532673e+00 -1.685619e-03 1.151306e+01 -1.202517e+01 -1.785870e+01 -1.074380e+01 1.458301e+01 -3.811600e-01 4.734435e+00 9.022187e-01 -8.329962e-01 -1.877850e+00 1.113962e+00 1.013742e+00 6.302168e-01 -2.205019e+00 -3.568687e+00 1.450154e+00 2.527761e+00 1.393820e+00 -1.046519e+00 5.988257e-01 4.480076e-02 
1.744715e+01 -5.135811e+00 -1.070825e+01 -6.353931e-01 6.771564e-03 9.189921e+00 -1.641646e+01 -1.653484e+01 -6.780837e+00 1.509662e+01 -1.380427e+00 4.171426e+00 9.340560e-01 -9.862895e-01 -2.263968e+00 2.413512e+00 1.033359e+00 4.239798e-01 -3.319582e+00 -2.816677e+00 1.780547e+00 2.978365e+00 4.396791e-01 -1.784128e+00 8.453649e-01 2.941253e-02 
1.711235e+01 -8.229252e+00 -8.271502e+00 1.367240e+00 9.874196e-01 5.226067e+00 -2.078855e+01 -1.318904e+01 -3.113378e+00 1.432572e+01 -4.726333e+00 5.539317e+00 9.697420e-01 -8.690978e-01 -2.535557e+00 3.511616e+00 9.698626e-01 -3.707123e-02 -4.430707e+00 -1.088647e+00 1.408311e+00 3.648009e+00 -1.417467e+00 -1.493248e+00 7.548047e-01 1.879993e-02 
1.605110e+01 -1.064919e+01 -2.931318e+00 7.038589e-01 1.359829e+00 -4.782410e-01 -1.864494e+01 -1.270688e+01 -2.956372e-01 1.258535e+01 -5.905191e+00 7.466890e+00 9.688038e-01 -1.054698e+00 -2.006984e+00 3.656955e+00 1.600845e+00 -1.487271e+00 -4.832201e+00 1.175138e+00 8.729523e-01 3.650290e+00 -2.993717e+00 -2.485449e-01 2.726325e-01 9.022522e-03 
1.516270e+01 -1.314395e+01 1.097377e+00 2.647014e+00 -8.635707e-01 -5.806391e+00 -1.635416e+01 -1.273113e+01 4.253645e+00 8.751311e+00 -5.585016e+00 6.860727e+00 9.788445e-01 -1.167282e+00 -1.319669e+00 3.362193e+00 2.245062e+00 -3.453670e+00 -3.642574e+00 2.156846e+00 7.233435e-01 2.117463e+00 -2.642980e+00 -1.056860e-01 7.261397e-01 3.755605e-03 
1.314849e+01 -1.271338e+01 2.892091e+00 6.728945e+00 -6.504087e+00 -9.454853e+00 -1.275796e+01 -1.239904e+01 7.787101e+00 2.915239e+00 -2.193810e+00 4.873884e+00 9.746174e-01 -1.263439e+00 -6.258070e-01 2.815731e+00 2.212430e+00 -4.182315e+00 -2.076542e+00 2.009032e+00 1.141078e+00 -4.049667e-01 -1.431020e+00 1.416120e-02 4.747402e-01 5.609470e-03 
1.272725e+01 -1.379550e+01 5.627760e+00 9.580007e+00 -1.234897e+01 -8.498495e+00 -1.294781e+01 -9.726247e+00 3.432566e+00 5.945881e+00 -7.110454e+00 1.046652e+01 9.856132e-01 -1.101777e+00 -2.172884e-01 2.624538e+00 1.420820e+00 -3.956240e+00 -4.493613e-01 1.711360e+00 8.981298e-01 -2.342252e+00 1.181404e-01 -1.847250e-01 1.456187e-01 6.116045e-03 
1.095163e+01 -1.345245e+01 8.882142e+00 8.299509e+00 -1.380905e+01 -9.514899e+00 -1.030296e+01 -8.503928e+00 -1.909931e+00 6.832967e+00 -5.071667e+00 8.037695e+00 9.934667e-01 -7.110154e-01 -1.277899e-01 2.154256e+00 1.092547e+00 -3.466729e+00 9.710116e-01 9.138302e-01 3.373974e-01 -2.798927e+00 1.062488e+00 -6.904594e-01 -2.578116e-03 6.465388e-03 
1.075224e+01 -1.386086e+01 1.122504e+01 8.965829e+00 -1.699229e+01 -8.023174e+00 -9.024868e+00 -1.018803e+01 -2.609101e+00 7.383149e+00 -5.069713e+00 6.006915e+00 1.000000e+00 -5.235480e-01 2.395813e-01 1.366447e+00 1.395540e+00 -2.920772e+00 1.053407e+00 5.857223e-01 -5.079918e-02 -1.344193e+00 3.394365e-02 -1.547382e-01 -1.163898e+00 1.873273e-03 
1.058091e+01 -1.331965e+01 1.086473e+01 1.249877e+01 -2.151607e+01 -4.837455e+00 -1.015028e+01 -1.048116e+01 -3.186703e+00 7.509044e+00 -6.666477e+00 7.090795e+00 9.997509e-01 -3.222238e-01 5.255820e-01 6.607445e-01 2.023608e+00 -2.604908e+00 8.693420e-01 4.120727e-01 -1.260186e-01 -1.921556e-01 -1.051056e+00 -2.195843e-01 -8.862362e-01 -4.851890e-03 
1.029487e+01 -1.266399e+01 1.146870e+01 1.445807e+01 -2.309932e+01 -5.570183e+00 -1.009553e+01 -8.991629e+00 -2.650011e+00 5.777561e+00 -7.086740e+00 5.120477e+00 9.918375e-01 -3.438250e-01 6.445317e-01 6.390551e-01 1.789182e+00 -1.703112e+00 5.209363e-01 4.357977e-01 1.655210e-01 -1.510845e-01 -1.772264e+00 2.557107e-01 -1.240495e+00 -1.095042e-02 
9.569198e+00 -1.142297e+01 1.206404e+01 1.567143e+01 -2.378007e+01 -6.394685e+00 -7.707260e+00 -9.732224e+00 -2.850254e+00 2.380483e+00 -5.161075e+00 4.049733e+00 9.732885e-01 -4.225096e-01 6.781317e-01 9.446405e-01 1.202593e+00 -8.696235e-01 5.198044e-01 -7.387219e-02 7.159486e-01 -4.090548e-01 -2.098468e+00 9.139554e-01 -1.957434e+00 -1.613271e-02 
9.538974e+00 -1.158654e+01 1.382067e+01 1.632541e+01 -2.437585e+01 -4.639878e+00 -8.067389e+00 -9.734895e+00 -3.532747e+00 1.086109e+00 -4.543860e+00 1.324969e+00 9.584791e-01 -3.941982e-01 7.473738e-01 9.823497e-01 1.014146e+00 -6.280668e-01 8.322272e-01 -3.002084e-01 4.264176e-01 -3.364788e-01 -1.960412e+00 7.211069e-01 -8.576185e-01 -2.216237e-02 
8.846313e+00 -1.046772e+01 1.441195e+01 1.757806e+01 -2.522593e+01 -2.703585e+00 -1.153371e+01 -6.529780e+00 -4.790608e+00 -6.375709e-01 -3.368140e+00 -7.986198e-01 9.357666e-01 -5.141296e-01 8.475188e-01 1.007173e+00 6.135896e-01 -2.395382e-01 9.216874e-01 -1.029247e-01 -1.937606e-01 4.314944e-01 -1.641119e+00 -1.211280e-01 2.814727e-01 -2.516835e-02 
8.685321e+00 -9.404751e+00 1.520649e+01 1.857549e+01 -2.551673e+01 -3.254596e+00 -9.683350e+00 -8.460762e+00 -3.362227e+00 -2.515472e+00 -4.377672e+00 3.256560e+00 8.997867e-01 -4.896207e-01 1.126510e+00 6.181884e-01 5.599308e-01 1.668739e-02 3.333012e-01 4.628101e-01 -4.553939e-01 8.770672e-01 -1.915697e+00 -8.568463e-02 6.596900e-01 -3.404681e-02 
7.425376e+00 -8.276274e+00 1.640699e+01 1.761434e+01 -2.440733e+01 -2.478889e+00 -7.413903e+00 -1.133809e+01 -7.780420e-01 -4.024321e+00 -5.849809e+00 4.491301e+00 8.767930e-01 -3.705632e-01 1.270933e+00 3.027765e-01 4.119608e-01 5.897785e-01 -7.596459e-01 9.403917e-01 -5.285456e-01 4.976400e-01 -1.712386e+00 1.508527e-01 2.667480e-01 -4.404177e-02 
7.801339e+00 -7.049713e+00 1.591409e+01 1.910693e+01 -2.470171e+01 -3.085720e+00 -7.813242e+00 -9.607708e+00 -1.153694e+00 -6.799004e+00 -3.731449e+00 1.978459e+00 8.177319e-01 -2.729877e-01 1.276812e+00 -3.501825e-02 2.468781e-01 7.617794e-01 -1.150922e+00 3.797760e-01 -1.302700e-02 -2.404131e-01 -9.683522e-01 2.717497e-01 -6.130202e-01 -5.039527e-02 
7.435488e+00 -5.290576e+00 1.557204e+01 1.937215e+01 -2.268454e+01 -6.586253e+00 -7.766806e+00 -8.599035e+00 -3.406676e+00 -7.057737e+00 -2.936988e+00 1.174171e+00 7.565851e-01 1.134032e-01 9.080683e-01 5.927372e-02 -2.245064e-02 3.800470e-01 -4.609253e-01 -4.667745e-01 1.045755e+00 -8.658296e-01 -3.111332e-01 4.771305e-01 -6.502751e-01 -5.152807e-02 
7.315327e+00 -4.513538e+00 1.544888e+01 1.893097e+01 -2.256922e+01 -6.955523e+00 -7.608018e+00 -9.895426e+00 -3.249976e+00 -5.840525e+00 -4.475334e+00 1.850024e+00 7.079142e-01 2.502098e-02 7.197859e-01 4.792453e-01 -9.117972e-01 2.797846e-01 5.983293e-01 -2.684526e-01 1.063783e+00 -4.456043e-01 3.178945e-01 -1.541824e-02 4.206679e-01 -4.360963e-02 
8.235397e+00 -5.004019e+00 1.693596e+01 1.759006e+01 -2.357334e+01 -2.848614e+00 -9.850388e+00 -5.965458e+00 -4.059049e+00 -6.059226e+00 -3.092213e+00 1.304143e+00 6.740615e-01 -2.465555e-02 9.885828e-01 7.255476e-01 -1.944630e+00 -5.282177e-01 1.017343e+00 1.272201e+00 2.144459e+00 8.264170e-01 1.756266e-01 4.316078e-01 8.218993e-01 -4.108423e-02 
7.526488e+00 -3.594061e+00 1.762835e+01 1.543898e+01 -2.285839e+01 -1.962893e+00 -8.113714e+00 -5.605581e+00 -3.055530e+00 -5.708786e+00 -3.730927e+00 4.016812e+00 6.409456e-01 -3.737372e-01 2.084853e+00 2.553944e-01 -2.859655e+00 -5.342296e-01 1.817948e+00 3.115943e+00 3.068108e+00 1.466304e+00 -7.723161e-01 1.579250e+00 1.195916e+00 -5.435933e-02 
7.206629e+00 -8.073997e-01 1.811004e+01 1.139499e+01 -2.518104e+01 -3.995853e+00 -1.152955e+00 -2.166367e-02 6.281857e-01 -6.245474e+00 -1.151152e+00 4.200274e+00 5.846483e-01 -9.696150e-01 2.816546e+00 8.353653e-02 -3.505672e+00 5.641888e-01 1.633397e+00 4.202980e+00 3.303545e+00 1.282867e+00 -1.530068e+00 1.534856e+00 1.353290e+00 -6.897585e-02 
5.961025e+00 3.812419e+00 1.613881e+01 7.730230e+00 -2.443652e+01 2.707835e+00 3.622982e+00 2.473217e+00 1.737924e+00 -9.608981e+00 2.450387e+00 6.381540e+00 4.808242e-01 -8.571769e-01 2.519711e+00 -2.493981e-01 -3.127810e+00 2.666730e+00 1.278910e+00 4.288582e+00 4.437428e+00 9.380007e-01 -1.718509e+00 1.328236e+00 6.079256e-01 -9.180333e-02 
4.170054e+00 5.375473e+00 1.809842e+01 3.916081e+00 -1.996333e+01 2.983004e+00 5.296165e+00 6.512869e+00 -4.144084e-02 -1.175947e+01 1.491410e+00 6.888228e+00 4.092429e-01 -9.886882e-01 1.585719e+00 -2.787382e-01 -2.303753e+00 4.293690e+00 1.075987e+00 3.145411e+00 3.904054e+00 7.451789e-01 -9.510031e-01 5.559399e-01 6.440710e-01 -9.617798e-02 
4.758891e+00 5.913058e+00 1.638717e+01 3.539388e+00 -1.213360e+01 9.422262e-01 1.010463e+01 1.331429e+01 1.969287e+00 -1.154433e+01 1.588974e+00 5.712463e+00 2.696316e-01 -8.987656e-01 -4.840932e-02 -8.790624e-01 -6.747987e-01 4.644044e+00 -5.737950e-01 1.757007e+00 2.687036e+00 1.014626e+00 6.409537e-01 4.457633e-01 5.483774e-01 -7.836726e-02 
2.864255e+00 6.070877e+00 1.659217e+01 1.971647e+00 -9.864054e+00 2.266885e+00 1.133327e+01 1.407807e+01 4.238399e+00 -1.003281e+01 2.059254e+00 7.755167e+00 2.093547e-01 -3.928013e-01 -9.551666e-01 -2.483069e+00 5.914158e-01 5.104108e+00 -6.903240e-01 9.664629e-01 1.527944e+00 1.271965e+00 1.030480e+00 -9.065125e-02 4.012987e-01 -6.402602e-02 
2.120097e+00 3.222670e+00 1.249663e+01 5.328454e+00 -6.265934e+00 1.969203e-01 9.389464e+00 1.212580e+01 4.671135e+00 -7.267541e+00 4.395282e+00 8.689958e+00 1.889320e-01 -4.207037e-01 -8.845342e-01 -3.856043e+00 5.142860e-02 5.207087e+00 -4.798988e-01 2.365026e-01 3.866547e-01 9.599243e-01 8.563593e-01 -1.300616e+00 5.933980e-01 -3.379779e-02 
3.525445e+00 1.944834e+00 7.628343e+00 5.978627e+00 2.623379e+00 -9.596296e-02 1.048606e+01 1.474684e+01 4.967458e+00 -8.745466e+00 -3.650000e-01 7.405974e+00 1.294626e-01 2.693098e-01 -3.835742e-01 -4.533795e+00 -7.997962e-01 4.567065e+00 -2.531813e-01 -6.201963e-01 5.571936e-01 2.065598e+00 1.630554e+00 -2.610936e+00 -1.466477e+00 -2.439594e-02 
2.324778e+00 3.553409e+00 1.588870e+00 1.793041e+00 7.658119e+00 -2.758438e-01 1.171075e+01 1.491318e+01 6.404379e+00 -7.906211e+00 -3.701978e+00 8.854050e+00 1.405886e-01 5.018069e-01 3.250179e-01 -3.855209e+00 -1.386821e+00 3.312277e+00 -8.614582e-02 -1.582315e+00 -7.185984e-02 2.019508e+00 1.574338e+00 -3.984994e+00 -3.788245e+00 -2.507598e-02 
4.108464e+00 3.987637e+00 -6.229310e-01 -2.596273e-01 6.009243e+00 1.237360e+00 7.071649e+00 1.547034e+01 1.369977e+01 -1.560710e+00 -6.946795e+00 3.407385e-01 1.115467e-01 2.288886e-01 -3.541246e-03 -3.474974e+00 -1.188747e+00 1.667924e+00 -4.617047e-01 -2.894706e+00 -1.788419e+00 1.479775e+00 1.991902e+00 -2.692980e+00 -4.029593e+00 -1.654186e-02 
4.337622e+00 3.826358e+00 -2.653779e+00 1.513477e+00 8.602521e+00 -9.004703e-01 3.185097e+00 1.140474e+01 1.040252e+01 -2.988231e+00 -1.223879e+01 -6.718652e+00 7.251006e-02 -4.169224e-01 -6.612419e-01 -2.047395e+00 -3.221820e-01 1.158637e+00 3.416040e-02 -2.529978e+00 -2.972606e+00 -1.263929e+00 1.729111e+00 -2.918992e-01 -2.761544e+00 -2.960619e-02 
3.663466e+00 1.790653e+00 -7.625204e+00 1.746759e-01 1.049080e+01 -2.092173e+00 2.753634e-01 7.558959e+00 1.036726e+01 -1.244945e+00 -9.561496e+00 -4.955641e+00 8.079261e-02 -1.859642e+00 -1.866693e+00 -3.616243e-01 -1.249709e+00 -1.049470e+00 1.398428e+00 -3.355367e-01 -4.372198e+00 -3.261864e+00 1.825639e+00 2.030161e+00 -6.741605e-01 -1.326436e-02 
4.626646e-01 1.345691e+00 -5.146966e+00 -3.502083e-02 1.121052e+01 1.559725e+00 2.459006e+00 4.005844e+00 1.750985e+00 5.814608e-01 -3.854124e+00 -2.305479e+00 7.934749e-03 -2.085776e+00 -1.917184e+00 5.170311e-01 -1.842847e+00 -2.864668e+00 2.076738e+00 7.338151e-01 -3.488740e+00 -1.570037e+00 3.127151e+00 3.022608e+00 5.214304e-01 -3.650820e-03 
-3.252270e+00 -4.105494e+00 -1.184459e+00 -5.733923e+00 -5.421104e-01 6.999403e+00 5.757011e+00 -2.691197e+00 1.716217e+00 5.782641e+00 -9.883230e-01 -5.236650e+00 7.751256e-02 -1.391830e+00 -7.635860e-02 1.316987e-01 -1.823221e+00 -2.037650e+00 7.337567e-01 2.515263e-02 -1.898927e+00 -1.648312e+00 1.150888e+00 1.484537e+00 3.101957e-01 -1.780282e-02 
-2.633391e+00 -2.811490e+00 -3.288996e+00 -4.746461e+00 -2.043653e-01 4.937432e+00 4.113349e+00 -9.138796e-01 6.877860e+00 9.133733e+00 -1.412337e+00 -3.970995e+00 5.589598e-02 -5.759493e-01 6.000405e-01 -1.290311e+00 -1.938061e+00 -2.026215e-01 -2.242778e-01 4.161520e-01 3.151488e-02 -9.480724e-01 -1.799980e+00 9.931566e-01 7.330452e-01 -2.632759e-02 
-1.747654e+00 3.487451e+00 -7.895696e+00 -6.585708e+00 6.009996e+00 -1.122431e-01 -4.260449e-01 5.241849e-01 -4.377360e-01 2.333578e-01 -3.359706e+00 -2.571904e+00 -3.220212e-02 4.524679e-02 1.415310e+00 -2.087004e+00 -1.378684e+00 1.463659e+00 -1.453332e+00 4.345097e-01 1.976329e+00 -3.279157e-01 -2.449718e+00 1.353250e+00 1.334865e+00 -4.231650e-02 
-3.169390e+00 5.494213e-01 -8.242905e+00 -9.299431e+00 6.921364e+00 3.994159e+00 7.631294e+00 2.555727e+00 -1.912400e+00 -5.643797e+00 2.297350e+00 2.737367e-02 -6.884587e-02 -3.560660e-01 8.981150e-01 -1.982277e-01 -9.579279e-01 4.991357e-01 -5.660802e-01 9.685138e-01 1.927385e+00 1.732713e-01 -1.351683e+00 2.056975e+00 4.948096e-01 -2.889568e-02 
-2.758037e+00 1.290600e+00 -9.142528e+00 -1.035086e+01 3.213320e+00 2.043819e-01 6.170587e+00 5.455647e+00 4.471768e+00 9.228158e-01 3.923084e+00 -5.615095e-01 -7.169902e-02 -1.091128e+00 3.175835e-01 1.331303e+00 5.773364e-01 -4.631726e-01 4.652507e-01 1.556158e+00 1.887061e+00 2.459065e+00 2.342799e+00 2.120823e+00 2.562038e-01 -5.730772e-03 
-3.908530e+00 2.777511e+00 -3.656718e+00 -7.653526e+00 3.689651e+00 1.948718e+00 5.657603e+00 6.257314e+00 5.289464e+00 2.030590e+00 5.231144e+00 -2.502145e+00 -6.883395e-02 -1.078755e+00 6.822268e-01 1.364409e+00 1.232281e+00 6.571254e-01 -2.329338e-02 4.788186e-01 6.607417e-01 1.512434e+00 2.215225e+00 -3.670378e-01 -3.004059e-01 -4.190517e-03 
-6.833723e+00 3.961323e+00 -3.532272e+00 -4.521979e+00 5.309989e+00 3.236731e+00 8.341588e+00 8.108699e+00 8.256656e+00 8.110158e+00 5.777511e+00 -2.612597e-02 -6.086195e-02 -1.104457e+00 5.360969e-01 1.364235e+00 7.080454e-01 1.267554e+00 -6.426581e-02 -1.446794e+00 -1.791441e+00 -1.230585e+00 -3.963942e-01 -7.027282e-01 3.663239e-01 -4.995692e-03 
-6.525320e+00 2.625194e+00 -4.225986e+00 -6.052466e+00 9.158656e+00 2.361518e+00 8.939886e+00 4.532909e+00 3.757324e+00 1.838655e+00 -4.650528e-01 -1.742347e+00 -9.521699e-02 -5.933137e-01 5.854192e-01 1.113339e+00 7.772200e-01 8.183246e-01 -7.593662e-01 -8.908244e-01 -1.343892e+00 -1.433218e+00 -1.627206e+00 -1.045768e+00 4.047685e-01 -2.762079e-03 
-6.971929e+00 4.047243e+00 -2.036720e+00 -7.611159e+00 6.816586e+00 -3.233468e-01 -2.704525e+00 -2.639356e+00 -9.150886e-01 -9.631876e-01 3.257541e+00 8.902115e-01 -8.348596e-02 -2.827835e-02 7.607919e-01 1.204809e+00 3.931531e-01 -5.067227e-02 -5.628445e-01 -3.927940e-01 -8.206568e-01 -1.686128e+00 -1.468428e+00 -5.169789e-01 2.137211e-01 -3.094494e-03 
-6.805996e+00 5.661647e+00 1.162201e+00 -2.222836e+00 7.027976e+00 -6.807378e-02 6.726537e+00 4.911883e+00 2.709247e+00 -1.568770e+00 1.262290e+00 -9.364712e-01 -7.133234e-02 1.152864e-01 9.562580e-01 9.897991e-01 5.314916e-01 -5.508795e-01 -3.591484e-01 -7.731599e-01 -2.657085e-01 -8.199819e-01 -1.062727e-01 -6.078825e-01 -5.051886e-01 2.122164e-04 
-6.834777e+00 6.247056e+00 -2.023213e-01 -4.471028e+00 6.121969e+00 1.637304e+00 7.484293e+00 3.815929e+00 3.500556e-01 2.471728e+00 2.328946e+00 6.395416e-01 -8.827674e-02 1.479994e-01 3.474106e-01 5.446507e-01 3.668997e-01 -2.265682e-01 -7.016231e-01 -1.778449e-01 4.337946e-01 -1.583838e-02 8.204985e-02 -6.412125e-01 -7.740695e-01 -5.337739e-03 
-6.017464e+00 6.306577e+00 -1.941891e-01 -4.965073e+00 6.751568e+00 -4.145496e-01 -2.032232e-02 -2.327514e-02 -9.751570e-01 -4.101663e-01 -3.040168e+00 -4.142955e+00 -9.176052e-02 6.393518e-02 -2.797907e-01 -4.743160e-02 -5.234821e-01 -2.445635e-01 -2.440855e-01 -1.315234e+00 -1.208449e+00 -8.776968e-01 3.973800e-01 -4.786962e-02 -7.733785e-01 -8.809698e-03 
-6.626198e+00 5.461831e+00 1.364728e+00 -4.405542e+00 5.821949e+00 -3.658224e+00 -2.203193e-01 1.997196e+00 8.479216e-01 -1.132240e+00 2.202707e+00 -1.376894e+00 -9.996057e-02 -7.840967e-02 -1.577252e-01 5.331446e-01 -2.871102e-02 -9.405003e-02 -9.144778e-01 -1.147277e+00 -5.021414e-01 -1.155558e-02 -7.334868e-01 5.602350e-01 -4.653694e-01 -3.453636e-03 
-6.590610e+00 4.655305e+00 1.415179e-01 -4.872990e+00 5.955168e+00 1.359263e+00 4.002675e+00 -2.209957e-01 -1.928169e+00 2.220114e+00 1.086061e+00 -3.795146e+00 -1.095389e-01 -4.140192e-01 -2.677343e-01 6.816760e-01 6.639887e-02 -8.125396e-01 1.094040e-01 1.189429e-01 2.524092e-01 -8.173801e-01 -1.259329e+00 1.180090e+00 6.946832e-01 3.794539e-03 
-6.940252e+00 6.284066e+00 2.295548e+00 -4.660625e+00 6.049919e+00 -3.821991e+00 -2.635884e-01 1.404082e+00 7.687838e-01 -2.510846e+00 3.067007e+00 -1.861210e+00 -9.665573e-02 -9.913263e-02 -1.768735e-01 1.606494e-01 2.370110e-02 -3.133170e-01 9.470434e-01 5.611545e-01 9.384398e-02 -1.390498e+00 -6.291065e-01 4.407552e-01 1.057863e+00 7.340658e-03 
-7.930532e+00 4.556788e+00 2.748781e+00 -4.505538e+00 2.574885e+00 2.143541e-01 5.960269e-01 1.535328e+00 -5.022489e+00 -6.017509e+00 2.428132e+00 -4.273817e-01 -7.444024e-02 -9.936476e-02 -2.922361e-01 -4.021943e-01 4.319704e-01 2.881230e-01 6.904953e-01 6.992519e-01 9.927214e-01 -1.239996e+00 -6.859055e-01 -9.086607e-02 1.522379e+00 1.040545e-02 
-6.451900e+00 4.626722e+00 8.643439e-01 -4.470763e+00 5.945505e+00 1.649447e+00 4.288777e+00 1.588254e+00 -4.557409e+00 -1.589611e-01 3.735447e+00 2.228537e+00 -8.080661e-02 -1.837921e-02 -5.056530e-01 -1.080143e+00 5.402580e-01 7.669246e-01 1.365769e+00 1.559940e+00 9.608084e-01 -1.291023e+00 3.883135e-01 -7.669615e-01 9.465424e-01 7.144296e-03 
-7.331610e+00 4.022797e+00 -1.153852e+00 -2.808069e+00 7.447989e+00 2.076020e+00 5.222751e+00 4.650526e+00 -5.465052e+00 -2.385355e+00 2.975099e-01 1.771874e+00 -6.543624e-02 3.181352e-02 -1.671909e-01 -9.823462e-01 5.057631e-01 1.124869e+00 4.149905e-01 1.018742e+00 9.292666e-01 -1.792769e-01 5.037914e-01 -7.699183e-01 3.941848e-01 3.337836e-03 
