-4.130218e+00 4.472318e+00 -5.483484e+00 -1.095454e+01 1.014886e+00 -6.180433e-01 2.492164e+00 6.043934e+00 1.015139e+00 -8.417628e+00 -3.550756e+00 -5.905455e+00 -1.151699e-01 -5.988417e-01 -5.346227e-01 3.162608e-02 9.611096e-02 1.555626e-02 -1.718239e+00 1.495593e+00 1.077024e+00 8.902313e-01 2.487859e+00 1.370319e+00 -3.975248e-03 -5.377972e-03 
-6.326869e+00 2.628233e+00 -6.340865e+00 -1.008599e+01 3.988238e+00 5.565431e-01 1.072330e+01 7.298296e+00 2.942044e+00 -1.543912e+00 6.391920e-01 -5.504333e+00 -1.266572e-01 -6.537911e-01 1.606497e-02 8.443354e-01 1.163886e+00 9.222726e-01 -8.824064e-01 8.454227e-01 1.039551e+00 -4.846978e-01 1.516055e+00 1.441999e+00 8.265540e-01 -6.682909e-03 
-6.026100e+00 2.721246e+00 -4.896663e+00 -1.090826e+01 -3.940082e-01 -9.796530e+00 5.854561e+00 1.080187e+01 4.502843e+00 5.848067e-01 1.205865e+00 -6.125892e+00 -1.363161e-01 -7.746176e-01 -4.421235e-01 7.379357e-01 1.449734e+00 1.543055e+00 -8.518826e-02 3.102981e-01 -4.206184e-01 -1.288110e+00 1.270086e+00 1.217645e+00 1.494301e+00 -2.676093e-03 
-6.451232e+00 5.428178e+00 -1.555218e+00 -5.158248e+00 6.330696e+00 -4.408314e-01 5.038080e+00 8.862720e+00 -3.152202e+00 -5.338569e+00 1.280927e+00 -1.662466e+00 -1.380113e-01 -6.707941e-01 -1.983642e-01 9.864794e-01 1.302981e+00 1.637422e+00 4.695079e-01 -1.736156e+00 -2.020988e+00 -1.553500e+00 -5.150872e-01 -3.596597e-01 2.453659e+00 3.875542e-03 
-7.941124e+00 8.617275e-01 -4.186629e+00 -6.169736e+00 7.558934e+00 -5.452973e-01 6.886265e+00 3.158631e+00 -2.378286e+00 -1.698701e-01 2.216599e+00 -3.548836e-01 -1.228733e-01 -6.726300e-01 9.117019e-02 9.765347e-01 1.162981e+00 2.794675e+00 2.366494e+00 -8.062633e-01 -2.498154e+00 -9.239450e-01 -8.089384e-01 5.585922e-01 2.865583e+00 7.133913e-03 
-8.723328e+00 2.566172e+00 -1.763485e+00 -5.940342e+00 8.198875e+00 -1.721533e+00 1.526671e+00 1.014978e+00 -1.384891e+00 -3.742009e+00 -1.664474e+00 3.878458e+00 -1.140009e-01 -3.760868e-01 1.604555e-01 7.381872e-01 2.537920e-01 1.067315e+00 7.296706e-01 -7.431918e-01 -1.447511e+00 1.265112e+00 6.628595e-02 4.692474e-01 1.343780e+00 4.936731e-03 
-8.253202e+00 4.608100e+00 9.014463e-02 -4.702305e+00 1.264528e+01 2.676291e+00 3.578949e+00 2.234971e+00 -1.000537e+00 -4.258165e+00 5.471526e+00 5.431563e+00 -1.126517e-01 1.547621e-01 1.056910e+00 1.199122e+00 5.035277e-01 2.952503e-01 5.830537e-01 -7.334065e-01 7.120267e-01 1.060711e+00 -2.035780e-01 1.215185e+00 -3.938283e-01 -2.199471e-03 
-8.175627e+00 4.357269e+00 -2.668560e-03 -4.623004e+00 9.124102e+00 1.596727e+00 2.975779e+00 2.086995e+00 2.484485e+00 -2.962991e+00 1.999701e+00 2.163211e+00 -1.184385e-01 4.058338e-01 6.749004e-01 5.236618e-01 4.044435e-01 -7.003231e-01 5.990592e-02 1.384694e+00 5.070819e-01 -3.723084e-01 1.150928e+00 1.084186e+00 -1.247085e+00 -4.776371e-03 
-7.441164e+00 5.250727e+00 9.285706e-01 -4.310767e+00 8.572573e+00 7.108409e-01 2.494679e+00 6.182756e+00 9.905818e-01 -1.577269e+00 6.460435e+00 -1.466401e+00 -1.316519e-01 6.186432e-01 2.632540e-01 -2.844033e-01 6.058501e-01 -5.773826e-01 2.888321e-01 1.104701e+00 6.744224e-01 -1.788293e-01 2.064106e+00 -3.725290e-01 -1.395489e+00 6.971812e-03 
-7.100178e+00 5.619361e+00 4.356110e-01 -4.113894e+00 6.733612e+00 -4.392785e-01 8.992275e+00 1.576495e+00 -4.241993e+00 6.721849e-01 3.262002e+00 1.092013e+00 -1.283827e-01 2.510688e-01 -3.816073e-02 -4.977106e-01 4.625842e-01 9.144611e-01 1.449368e-01 -2.619828e-01 -3.019364e-01 -1.027734e+00 4.928988e-01 -2.899916e-01 -3.235032e-01 5.122530e-03 
-5.697711e+00 5.293324e+00 -1.551012e+00 -1.927610e+00 1.095361e+01 5.138455e+00 6.094208e+00 5.862333e+00 1.468555e+00 4.244775e+00 2.977730e+00 -1.010283e+00 -7.282054e-02 8.791485e-02 -2.436365e-01 -2.238399e-01 1.482854e-01 1.040110e-01 1.403702e-01 -5.142563e-01 -6.344794e-01 -7.254814e-01 -5.877494e-01 -1.363509e+00 5.036155e-01 3.894353e-03 
-7.792009e+00 4.145166e+00 -1.251430e+00 -3.501662e+00 1.250589e+01 1.076041e-01 -1.338997e-01 7.375242e-01 -2.893172e+00 -3.409519e+00 2.291095e+00 3.176352e-01 -1.222415e-01 2.193265e-01 -3.135708e-01 2.748296e-01 4.721166e-01 -8.613176e-01 -6.213327e-01 -1.486128e+00 6.339619e-02 7.373068e-01 -1.573251e+00 -6.884140e-01 4.552024e-01 -7.741690e-04 
-6.655674e+00 4.769641e+00 6.528918e-01 -3.875456e+00 6.206488e+00 1.139251e+00 4.486485e+00 3.429844e+00 -3.311236e+00 -2.475163e+00 1.283419e-01 1.438865e+00 -1.152507e-01 -3.371266e-01 -4.103547e-01 5.707104e-01 5.400355e-02 -6.391264e-01 -7.215081e-01 1.669020e-01 -6.228632e-01 5.618858e-02 -1.348423e+00 -5.739251e-01 -1.772509e-01 -1.276548e-02 
-5.524564e+00 4.313348e+00 7.078074e-01 -7.793884e-01 4.800583e+00 -1.546340e+00 2.365497e+00 3.109720e+00 1.834436e+00 -3.834104e+00 1.244627e+00 2.143452e+00 -1.110384e-01 -2.235340e-01 -2.191699e-01 2.085791e-01 -5.768939e-01 -1.187974e-01 4.576830e-01 1.196880e+00 1.173928e+00 1.408721e+00 6.160628e-01 1.306804e-01 -1.044765e+00 -5.155349e-03 
-8.517067e+00 3.157460e+00 3.229216e-01 -3.018729e+00 1.161063e+01 2.357886e+00 5.679019e+00 1.561919e+00 -6.143059e-01 -2.285051e+00 6.313390e-01 -2.809445e+00 -1.422495e-01 -7.146653e-01 -3.061536e-01 -1.489685e-01 -8.094193e-01 1.030462e+00 5.600274e-01 -2.662482e-02 7.600975e-03 6.761185e-01 1.389468e+00 5.972558e-01 -6.179463e-01 -1.071191e-03 
-7.978983e+00 3.855407e+00 -4.354990e-02 -6.814495e+00 9.209831e+00 1.786701e+00 5.254232e+00 7.541125e+00 2.801966e+00 -4.242616e-01 2.692998e+00 -2.782035e+00 -1.345189e-01 -6.494156e-01 9.358251e-02 -4.782857e-01 -9.767353e-01 3.171693e-01 6.825355e-01 -4.484692e-01 -4.911047e-01 -7.548882e-01 1.410928e+00 9.314998e-01 -8.283995e-01 2.694404e-03 
-9.001791e+00 3.467843e+00 2.837280e-01 -4.904999e+00 9.154173e+00 2.272867e+00 2.908993e+00 1.252146e+00 -4.144081e-01 2.767254e+00 2.390435e+00 8.118769e-01 -1.088665e-01 -2.009171e-01 1.212878e-01 -4.468381e-01 3.797758e-01 -8.259456e-01 -5.063686e-01 -1.010649e+00 -3.724615e-01 -2.685365e-01 7.580267e-01 1.159310e+00 9.330485e-01 1.220456e-02 
-8.529280e+00 4.626069e+00 -1.664024e+00 -4.719930e+00 7.614658e+00 1.908847e+00 1.508164e+00 8.090832e-01 -2.039953e+00 6.943829e-01 5.022578e+00 -3.809207e+00 -1.142579e-01 5.732956e-02 -2.640633e-01 -3.082044e-01 1.015825e+00 -8.233061e-02 -6.688539e-01 -5.881001e-01 -3.493409e-01 -4.975336e-01 -1.524070e-01 1.043741e+00 8.912996e-01 1.224018e-02 
-9.246504e+00 3.378568e+00 -1.101031e+00 -2.167132e+00 8.278488e+00 -2.350299e-01 2.498810e+00 3.065633e+00 4.639717e-01 9.457605e-01 5.263101e+00 2.369383e+00 -9.135711e-02 -2.716106e-01 2.360838e-01 -1.691202e-01 5.715920e-01 -3.487362e-01 -3.244623e-01 5.156187e-01 1.227045e+00 -1.712038e-01 -7.442989e-01 1.096266e+00 1.516615e+00 2.963103e-02 
-7.569979e+00 2.579728e+00 -8.921920e-01 -3.104304e+00 9.236021e+00 -3.036197e-01 2.518823e+00 4.887677e+00 -1.248916e-01 -2.755497e-01 6.475369e+00 8.957103e-01 -8.207262e-02 3.785849e-01 5.185142e-01 -5.363270e-02 1.101541e+00 -1.778527e+00 -1.259888e+00 4.225579e-01 1.042392e+00 -2.735968e-01 -4.613481e-01 1.473393e+00 1.397616e+00 8.870078e-02 
-1.083949e+01 5.671432e+00 -9.477892e-01 -2.854852e+00 6.599811e+00 1.756789e+00 4.981757e+00 5.348073e+00 -2.227958e+00 -4.692743e-01 7.145370e+00 6.042494e+00 2.319604e-02 1.667776e+00 4.237182e-01 5.961315e-01 1.466130e+00 -3.022778e+00 -2.263315e+00 -4.725050e-01 6.877470e-01 -1.134027e+00 -8.628648e-01 1.779658e+00 -3.707778e-02 1.502394e-01 
-5.839860e+00 6.072207e+00 -2.008809e+00 1.131634e+00 -4.386373e-01 -5.386502e+00 2.379480e+00 4.879822e+00 -2.061972e+00 -9.048405e-01 1.144841e+01 1.342316e+00 2.719694e-01 2.992002e+00 7.456624e-03 1.782263e+00 1.926942e+00 -3.147409e+00 -2.008862e+00 3.355833e-01 1.347430e+00 -7.736112e-01 -1.181764e+00 1.751819e-01 -8.811362e-01 1.391634e-01 
-1.772680e+00 3.750919e+00 2.437934e+00 3.045547e+00 -1.998073e+00 -9.010163e+00 2.059569e-01 6.508295e+00 -4.237623e+00 -3.053918e+00 1.167487e+01 1.960691e+00 4.828189e-01 5.972970e+00 -1.828503e+00 1.099788e+00 1.568330e+00 -8.444594e-01 -1.050189e+00 -2.525726e+00 -1.421892e+00 -1.558059e-01 -7.230088e-01 -1.999803e+00 2.022118e-01 1.059095e-01 
2.856627e+00 3.577268e+00 6.326263e+00 3.580205e+00 -2.202080e+00 -4.964454e+00 6.584640e+00 1.104472e+01 -2.988115e+00 -4.892048e+00 5.086526e+00 -1.469070e+00 3.839331e-01 6.623847e+00 -2.154982e+00 -1.428269e+00 2.930699e-01 2.450634e+00 1.545940e+00 -3.908439e+00 -4.226463e+00 3.060437e-01 -1.784605e-01 -4.124183e+00 1.227781e+00 5.805203e-02 
1.467711e+01 -2.223614e+00 3.836135e-01 3.762511e+00 3.259235e+00 -3.705182e+00 -9.749451e+00 -4.843835e+00 -2.543916e+00 -2.090714e+00 3.272948e-01 8.459246e+00 4.967617e-01 6.015277e+00 -1.401322e+00 -4.305910e+00 -8.482970e-01 3.131447e+00 2.663790e+00 -4.103546e+00 -7.275247e+00 -2.847929e-01 1.790703e+00 -3.761528e+00 -3.450886e-01 3.797341e-02 
1.905448e+01 -1.715433e+00 -8.122994e+00 2.238502e+00 9.185879e+00 -3.092951e-01 -1.218501e+01 -1.057643e+01 -1.378608e+00 -2.278745e+00 -3.498715e+00 4.231942e+00 5.552582e-01 4.202206e+00 -1.544881e+00 -5.098465e+00 -7.000946e-01 8.253504e-01 3.211337e+00 -3.559225e+00 -7.747714e+00 -2.678855e+00 3.490502e+00 -1.684063e+00 -1.768697e+00 7.154796e-02 
2.020478e+01 -6.093407e-01 -1.186699e+01 -5.250859e-01 7.965183e+00 1.981208e+00 -1.092695e+01 -1.905737e+01 -6.466341e+00 4.592943e+00 -2.840145e+00 -2.615258e+00 5.870234e-01 1.384617e+00 2.251106e-01 -3.492284e+00 -8.773500e-01 -1.893012e+00 3.587275e+00 6.729379e-01 -4.466916e+00 -4.171924e+00 4.297857e+00 -3.470809e-01 -3.553118e+00 5.081306e-02 
2.110382e+01 -4.954275e+00 -1.304076e+01 2.223531e+00 -4.283023e-01 8.249034e+00 -1.062274e+01 -2.058708e+01 -1.442118e+01 9.218631e+00 -1.750071e+00 -4.775301e+00 6.965420e-01 5.737689e-01 -4.886123e-02 -2.789389e+00 -3.834479e-01 -3.398203e+00 3.330825e+00 1.310202e+00 -2.958170e+00 -3.536253e+00 3.045030e+00 1.301287e+00 -1.749645e+00 6.235119e-02 
2.057552e+01 5.213593e-01 -1.461892e+01 -6.167536e-01 -1.398735e+00 9.952027e+00 -7.165898e+00 -2.217309e+01 -1.688225e+01 1.364988e+01 -2.282432e+00 -4.802725e+00 6.801850e-01 4.618214e-01 -6.796680e-02 -2.805853e+00 -2.807367e-01 -1.982081e+00 2.008628e+00 9.611169e-01 -1.046823e+00 -1.418962e+00 7.925578e-01 2.057855e+00 -4.137642e-01 6.992214e-02 
2.173795e+01 -2.525090e+00 -2.069397e+01 3.670959e-01 -3.123179e+00 1.235942e+01 -7.514524e+00 -2.380942e+01 -1.385192e+01 8.417933e+00 2.728862e+00 -3.422549e+00 8.204333e-01 3.343754e-01 -1.489482e-02 -2.523757e+00 -7.989502e-02 -5.725026e-01 7.695228e-01 -5.472007e-01 -4.868483e-01 1.057849e+00 -5.991077e-02 2.109406e+00 3.923721e-02 6.291325e-02 
2.219682e+01 -2.163767e+00 -2.206965e+01 -1.000552e+00 -5.977845e-01 9.969155e+00 -7.675470e+00 -2.268031e+01 -1.384578e+01 8.956081e+00 5.209664e+00 -5.360454e+00 8.746885e-01 -8.785029e-02 -1.301834e+00 -1.350439e+00 1.289225e+00 -9.434641e-01 6.303676e-01 -2.940474e+00 3.566677e-01 2.258949e+00 7.846489e-02 1.421124e+00 -1.522144e-02 6.378219e-02 
2.196505e+01 -3.686186e+00 -2.193419e+01 2.015955e+00 -3.691290e+00 1.208808e+01 -1.310395e+01 -2.276771e+01 -1.065017e+01 1.126598e+01 5.050912e+00 -4.300250e+00 9.138565e-01 -8.728063e-01 -1.530021e+00 6.977070e-01 2.049960e+00 -1.058057e+00 -6.761847e-01 -3.268773e+00 4.018831e-01 3.679549e+00 1.067565e+00 -8.052799e-01 8.435058e-03 3.803004e-02 
2.002272e+01 -5.407260e+00 -2.075101e+01 5.004944e+00 -5.831999e+00 1.323953e+01 -1.907355e+01 -2.091060e+01 -7.188385e+00 1.261819e+01 3.662166e+00 -4.439981e+00 9.523844e-01 -1.375755e+00 -2.525021e+00 2.375900e+00 2.850121e+00 -1.872799e+00 -1.405540e+00 -3.261527e+00 1.458831e+00 4.911525e+00 2.727414e-01 -2.799997e+00 1.057667e+00 2.418215e-02 
1.846097e+01 -8.553449e+00 -1.786475e+01 7.614145e+00 -5.796357e+00 7.343308e+00 -1.815935e+01 -2.268486e+01 1.217131e+00 1.192470e+01 -5.237881e-01 -3.840610e+00 9.717356e-01 -1.634840e+00 -2.923816e+00 3.827517e+00 1.997245e+00 -8.668259e-01 -3.628824e+00 -1.887008e+00 3.592957e+00 3.817241e+00 -7.780045e-01 -3.604447e+00 1.666658e+00 1.607319e-02 
1.707009e+01 -1.235524e+01 -1.222486e+01 1.045096e+01 -8.909246e+00 5.313845e+00 -2.145541e+01 -1.542759e+01 4.778198e+00 9.990425e+00 -6.002971e+00 -3.019385e-01 9.666597e-01 -1.403232e+00 -2.850689e+00 4.612781e+00 1.387954e+00 -1.265798e+00 -4.556593e+00 5.668097e-01 3.940858e+00 2.034040e+00 -1.171908e+00 -3.419444e+00 2.753528e+00 5.232358e-03 
1.526717e+01 -1.483128e+01 -7.059678e+00 9.279176e+00 -6.486796e+00 -2.093190e+00 -2.134807e+01 -7.544433e+00 2.452748e+00 8.689836e+00 -8.138754e+00 1.964021e+00 9.870847e-01 -1.264879e+00 -2.262471e+00 4.906796e+00 4.119732e-01 -1.824815e+00 -3.596482e+00 1.648930e+00 3.889430e+00 -2.213513e-01 -1.623922e+00 -1.169864e+00 1.913370e+00 -4.968226e-04 
1.460346e+01 -1.652179e+01 -3.089644e+00 1.111220e+01 -1.181577e+01 -4.825184e+00 -1.464514e+01 -8.776524e+00 2.364009e+00 8.376079e+00 -9.627570e+00 6.425345e+00 9.708716e-01 -1.190803e+00 -1.381154e+00 4.416337e+00 -1.076002e-01 -2.463515e+00 -2.086733e+00 2.856234e+00 1.811560e+00 -1.283759e+00 -1.085014e+00 3.652864e-01 1.005336e+00 7.752061e-04 
1.336989e+01 -1.778253e+01 2.101614e+00 9.343390e+00 -1.346717e+01 -5.569586e+00 -1.331983e+01 -6.563240e+00 1.317468e+00 4.612266e+00 -4.560807e+00 2.362598e+00 9.671456e-01 -1.008576e+00 -5.477501e-01 3.433383e+00 2.601547e-02 -2.641034e+00 -7.833725e-01 3.069671e+00 -3.035404e-01 -1.201399e+00 1.541363e-01 5.930278e-01 -3.323300e-01 2.065182e-03 
1.206471e+01 -1.778539e+01 5.276180e+00 9.880849e+00 -1.773663e+01 -3.381624e+00 -1.118836e+01 -6.860384e+00 -1.072955e+00 6.604142e+00 -5.965512e+00 4.525451e+00 9.805053e-01 -9.543735e-01 -5.593147e-02 2.753196e+00 -2.562885e-01 -1.474310e+00 -5.962367e-01 1.599779e+00 -2.160276e-01 -1.094697e+00 3.489604e-01 5.238606e-01 -1.503391e+00 8.370507e-03 
1.149366e+01 -1.693823e+01 5.924328e+00 1.002493e+01 -1.673153e+01 -6.731832e+00 -7.728105e+00 -1.002020e+01 -1.835767e+00 1.034649e+01 -7.004644e+00 1.252318e+00 9.925938e-01 -8.871584e-01 5.990276e-01 1.571215e+00 3.549755e-01 -1.324939e+00 -6.339043e-01 7.937058e-01 -9.238891e-02 -9.540604e-01 4.166829e-01 -4.834293e-01 -9.474861e-01 5.341721e-03 
1.076971e+01 -1.722360e+01 8.764977e+00 9.489987e+00 -1.755514e+01 -7.225245e+00 -9.442108e+00 -8.128180e+00 -1.532861e+00 7.253771e+00 -5.786348e+00 -5.364705e-01 1.000000e+00 -5.373275e-01 4.573258e-01 1.477572e+00 2.520723e-01 -1.115414e+00 -7.034512e-01 -5.176563e-02 7.508787e-01 -6.068449e-01 -9.614422e-01 -1.068453e-01 -9.567690e-01 5.138516e-05 
9.581598e+00 -1.506828e+01 8.213291e+00 1.131370e+01 -2.018261e+01 -6.817297e+00 -1.022442e+01 -6.391287e+00 -3.222882e+00 6.370866e+00 -7.067535e+00 1.561280e-01 9.841068e-01 -3.239174e-01 4.966595e-01 1.060112e+00 6.919740e-01 -1.828287e+00 1.290956e-01 -1.746650e-01 4.715358e-01 1.597369e-02 -1.851824e+00 -4.287445e-01 5.928212e-01 -9.557056e-03 
1.033410e+01 -1.643373e+01 1.151956e+01 1.049683e+01 -2.158816e+01 -6.856147e+00 -1.019903e+01 -4.920449e+00 -3.413623e+00 3.784741e+00 -6.468293e+00 2.897002e-01 9.850057e-01 -1.360117e-01 7.678167e-01 7.072477e-02 1.289305e+00 -1.012082e+00 -1.105317e-01 3.285529e-01 2.416511e-01 -2.859123e-01 -1.432482e+00 -1.678330e-01 7.939350e-01 -2.720373e-02 
1.009187e+01 -1.484987e+01 9.847599e+00 1.298138e+01 -2.385645e+01 -6.270903e+00 -8.222971e+00 -9.266391e+00 -8.155177e-01 2.821880e+00 -8.807394e+00 3.803339e+00 9.523056e-01 -7.396970e-02 1.367486e+00 -3.066505e-01 1.276391e+00 5.410658e-01 -9.668814e-01 5.764260e-01 4.933538e-01 1.290661e-01 -2.005232e+00 8.237926e-01 2.743540e-01 -5.338150e-02 
9.834512e+00 -1.349372e+01 8.301447e+00 1.510267e+01 -2.077863e+01 -8.051101e+00 -8.800070e+00 -5.482372e+00 -4.166104e+00 1.865855e+00 -5.755584e+00 1.609599e+00 8.798820e-01 -3.504149e-01 2.239055e+00 -9.137138e-01 1.522570e+00 1.409190e+00 -1.499033e+00 1.104458e+00 1.987106e-01 3.164585e-01 -2.052489e+00 9.485977e-01 -1.024739e-01 -7.240249e-02 
9.461546e+00 -9.700858e+00 8.289093e+00 1.539273e+01 -1.788205e+01 -1.105423e+01 -8.041771e+00 -3.643556e+00 -2.201311e+00 -2.695853e+00 -3.304926e+00 8.679484e-01 7.697612e-01 -6.753268e-01 2.258666e+00 3.583117e-01 1.441082e+00 1.502862e+00 -1.641669e+00 6.715002e-01 6.997757e-01 3.881827e-01 -2.092357e+00 1.027347e+00 4.792829e-01 -8.176456e-02 
8.897193e+00 -7.812962e+00 7.730240e+00 1.690400e+01 -1.752941e+01 -1.195965e+01 -4.767336e+00 -6.738314e+00 -1.138434e+00 -3.718835e+00 -4.476538e+00 1.245026e+00 7.142655e-01 -6.433676e-01 1.127570e+00 1.240448e+00 6.339035e-02 -8.664513e-02 1.038797e+00 1.858111e-01 4.064968e-01 7.609719e-01 -1.954127e+00 8.137490e-01 2.788276e-01 -4.518484e-02 
7.183898e+00 -6.396915e+00 1.192476e+01 1.928613e+01 -1.796675e+01 -1.252497e+01 -6.881837e+00 -5.139542e+00 -3.884392e-01 -4.847563e+00 -4.310180e+00 6.382040e+00 6.262910e-01 -8.287433e-01 -1.269711e-01 1.699973e+00 -7.359388e-01 -1.193263e+00 1.163758e+00 -9.348952e-01 -8.788548e-02 -5.862712e-01 -9.765205e-01 8.280297e-02 2.665898e-01 -7.973147e-03 
7.756498e+00 -9.507845e+00 1.268585e+01 1.347293e+01 -2.116950e+01 -2.121744e+00 -8.450981e+00 -2.701896e+00 -1.267680e+00 -6.828924e+00 -1.184212e+00 2.466916e-01 7.256929e-01 -1.637253e+00 9.541566e-01 -3.101889e-01 -2.042908e+00 1.188740e+00 -1.923663e+00 -1.632409e+00 4.590394e-01 -2.327583e+00 -1.405021e+00 3.653204e-01 6.967652e-01 -7.484840e-02 
5.888177e+00 -9.488272e+00 1.431115e+01 1.342857e+01 -2.202832e+01 -1.015439e+01 -1.087442e+01 -6.101192e+00 -5.068043e+00 -6.023411e+00 -4.537075e+00 2.700065e+00 7.241818e-01 -1.963862e+00 2.009258e+00 2.881007e-02 -2.622775e+00 -1.828484e-01 -6.223027e-01 1.641911e+00 1.889544e+00 -7.596086e-01 -5.959160e-01 1.896635e-01 -2.161245e-02 -1.069918e-01 
1.358790e+00 -1.496501e+00 4.986101e+00 9.618239e+00 -9.554928e+00 -2.276325e+01 -1.093309e+01 -3.962291e+00 -1.043655e+01 -1.015601e+01 -2.536489e+00 6.569839e+00 2.910781e-01 -2.422996e+00 3.320396e+00 1.096884e+00 -2.010038e+00 -1.994654e-01 -3.326049e-02 3.826199e+00 2.945927e+00 1.163368e+00 4.214908e-01 9.406511e-01 1.248379e+00 -1.279175e-01 
5.634394e-01 -3.562994e-01 1.591869e+01 8.099595e+00 -2.468828e+01 -5.315730e+00 2.568771e+00 4.938373e+00 3.979517e-01 -6.163598e+00 -2.685724e+00 3.112404e+00 3.086396e-01 -2.739861e+00 3.652509e+00 1.316010e+00 -2.979375e+00 1.453642e+00 6.238278e+00 5.769895e+00 3.176002e+00 2.139356e+00 5.137082e-01 2.752715e+00 1.095616e+00 -1.035980e-01 
-1.696114e+00 2.528149e+00 1.736650e+01 6.087226e+00 -2.083685e+01 -4.707376e+00 3.958416e+00 6.507957e+00 1.816161e+00 -4.651377e+00 2.593368e+00 6.282417e+00 2.938766e-01 -1.375442e+00 1.922601e+00 1.014271e+00 -2.873909e+00 1.113582e+00 8.338787e+00 5.548055e+00 2.469047e+00 2.601460e+00 -4.890844e-01 2.438302e+00 1.128980e+00 -2.403460e-02 
-6.283674e+00 6.761949e+00 1.470100e+01 2.972050e-01 -9.119148e+00 1.200906e+01 1.052930e+01 4.543693e+00 -4.976161e-01 -6.207189e+00 6.661573e+00 8.321854e+00 2.047927e-01 1.790571e-02 9.819002e-01 -1.731595e+00 -2.218613e+00 3.494014e+00 4.338295e+00 3.234400e+00 1.153858e+00 2.314001e-01 -2.361080e+00 2.366477e+00 1.430021e+00 -1.865693e-02 
-2.094863e+00 4.557378e+00 1.066630e+01 -8.501081e-01 -1.177158e+01 1.026829e+01 1.282692e+01 8.580282e+00 3.018534e+00 -1.257964e+01 4.981373e+00 9.610017e+00 2.228286e-01 2.076886e+00 5.145968e-01 -1.940525e+00 -1.107676e+00 1.827625e+00 1.236590e+00 1.285620e+00 1.053609e+00 -9.786690e-01 -2.628439e+00 7.008373e-01 -1.444947e-01 4.581213e-04 
8.523426e-01 3.538587e+00 1.061081e+01 4.751973e-01 -1.175084e+01 8.887914e+00 1.430652e+01 9.671499e+00 9.537659e-01 -1.400487e+01 7.952662e+00 8.598711e+00 2.508790e-01 2.810941e+00 2.482878e-01 -8.250059e-01 6.669834e-01 7.393039e-01 -2.150152e+00 -4.232938e-01 1.037240e+00 -1.433231e+00 -6.661732e-01 -4.512818e-01 -3.800291e-01 6.227487e-03 
5.120307e+00 6.712813e+00 9.708971e+00 4.598508e-01 -1.038288e+01 3.036148e+00 8.497906e+00 9.212101e+00 -3.802875e+00 -1.389473e+01 5.452010e+00 5.421515e+00 2.731241e-01 1.495417e+00 7.462674e-01 -4.920455e-01 8.376280e-01 3.432414e+00 -1.165457e+00 -4.340660e-01 1.434843e+00 -9.692261e-01 2.272244e+00 -5.094177e-01 -2.131298e+00 -2.129852e-02 
4.163449e+00 6.925670e+00 1.105463e+01 2.977142e+00 -6.116980e+00 4.874372e+00 1.057734e+01 9.413984e+00 -4.253065e+00 -8.880508e+00 4.169846e+00 8.515959e+00 2.107823e-01 3.819193e-01 6.733398e-01 -1.347728e+00 5.009091e-01 4.180823e+00 -1.243243e+00 -1.759783e-01 2.431843e+00 1.296847e+00 2.569286e+00 -1.570669e+00 -2.182683e+00 -4.476584e-02 
3.726671e+00 6.595173e+00 7.984163e+00 2.087059e+00 2.573555e+00 6.447773e+00 1.252118e+01 1.588326e+01 7.758186e-01 -3.780598e+00 4.325693e+00 -1.005095e+00 1.363843e-01 -2.603285e-01 -6.772972e-01 -2.544149e+00 -3.540657e-01 4.465685e+00 -1.149626e+00 4.084730e-02 2.687858e+00 3.234531e+00 2.350508e+00 -1.076993e+00 -1.528519e+00 -5.891198e-02 
3.458757e+00 6.964106e+00 4.734578e+00 2.166139e+00 2.675055e+00 9.658860e-01 1.141499e+01 1.849514e+01 5.148653e+00 -6.215503e+00 6.624742e-01 8.986002e-01 9.541970e-02 -7.828442e-01 -9.231523e-01 -2.544908e+00 -7.810538e-01 3.172825e+00 -3.073578e+00 -1.017335e+00 8.078477e-01 3.078612e+00 5.892920e-01 -2.885774e+00 -2.865258e+00 -4.310796e-02 
4.171010e+00 3.307109e+00 1.482535e-01 -9.049759e-01 7.549530e+00 -7.577391e-01 8.283318e+00 1.811081e+01 7.668923e+00 -3.474696e+00 1.820731e+00 1.587600e+00 3.624552e-02 -1.986546e+00 -1.160361e+00 -2.485087e+00 -1.238507e+00 1.997274e+00 -2.647056e+00 -3.365891e+00 -2.577770e+00 2.269027e+00 -7.506599e-01 -4.728972e+00 -3.357611e+00 -9.291405e-03 
2.705765e-02 3.953940e+00 2.248049e+00 5.678906e-01 7.259160e+00 -6.890760e+00 7.609595e+00 1.233944e+01 7.693442e+00 -6.086999e+00 -9.006544e+00 -7.106678e+00 4.531193e-02 -2.993763e+00 -1.641032e+00 -2.399982e+00 -1.667081e+00 2.507942e-01 3.925689e-01 -3.998794e+00 -4.996398e+00 2.390707e+00 8.922607e-01 -6.045938e+00 -3.079449e+00 3.043817e-02 
-4.490211e+00 2.298451e+00 -3.198009e+00 -3.306352e+00 1.026787e+01 -2.859186e+00 -2.405576e+00 6.072252e+00 1.084856e+01 -7.598150e+00 -1.448466e+01 -1.379051e+01 1.149812e-01 -4.322007e+00 -1.448964e+00 -7.143121e-01 -9.038812e-01 -1.759872e+00 3.127857e+00 -3.288049e+00 -6.179449e+00 1.889407e+00 2.958235e+00 -4.809302e+00 -1.026933e+00 9.486274e-02 
-7.179449e+00 -7.367227e-01 -5.592201e+00 -4.968577e+00 2.569854e+00 3.979454e+00 -3.234534e+00 -4.675694e-01 1.551237e+01 3.075273e-01 -2.141452e+01 -6.809588e+00 2.082427e-01 -1.816818e+00 -1.489400e+00 -6.497032e-01 -6.485585e-01 -2.527370e+00 3.634731e+00 -1.757969e+00 -4.325216e+00 3.483238e-02 4.083896e+00 -4.297884e-01 1.970154e+00 3.581064e-02 
-1.383577e+01 -1.592381e+00 4.968178e-01 -2.656148e+00 1.094822e+00 9.446439e+00 -2.734865e+00 -6.382923e+00 1.320650e+01 8.119217e+00 -1.602180e+01 -3.695611e+00 4.290938e-01 5.902187e-01 -1.407304e-01 -1.351922e-01 -4.358074e-01 -1.004184e+00 4.728108e-02 1.061429e+00 3.846497e-02 -1.512474e+00 2.406085e+00 3.334852e+00 1.594601e+00 -6.342106e-02 
-4.384254e+00 -1.547644e+00 -2.847881e+00 -3.000004e+00 -7.911668e-01 5.130081e+00 -1.015604e+00 -3.059049e+00 6.688637e+00 6.473799e+00 -1.038692e+01 -2.303355e+00 6.730878e-02 1.993232e+00 1.174767e+00 -1.135371e-01 -3.736907e-01 1.654718e+00 -1.297690e+00 1.176081e+00 2.384321e+00 -3.265509e+00 -9.056586e-01 4.354285e+00 -1.028941e+00 -1.142713e-01 
-2.936715e+00 2.000259e+00 -5.246130e+00 -6.469676e+00 6.927465e+00 -3.198094e+00 1.792105e+00 7.560317e+00 7.698055e+00 1.349138e+00 -3.324204e+00 -8.070620e+00 -1.316571e-01 2.037928e+00 1.055363e+00 -1.276267e+00 -2.926331e-01 2.705016e+00 -1.264924e+00 1.615093e+00 2.115389e+00 -3.060436e+00 -1.255630e+00 3.843560e+00 -1.139612e+00 -1.127546e-01 
-2.662819e+00 3.340792e+00 -3.288412e+00 -4.930266e+00 7.927125e+00 3.813269e+00 3.823855e-01 4.482415e+00 1.939039e+00 -8.357263e-01 -5.991890e+00 -9.766789e+00 -8.273828e-02 -1.259472e-01 1.245157e+00 -3.445134e-02 3.856082e-02 1.920966e+00 1.119894e-01 1.071790e+00 1.727675e+00 -9.597534e-01 -3.349742e-01 2.665988e+00 6.040111e-01 -2.602654e-02 
-4.506846e+00 1.240217e+00 -5.664253e+00 -3.154182e+00 1.026076e+01 3.780227e+00 4.641604e+00 4.232917e-01 2.791158e-01 5.495829e+00 9.984919e-01 -5.661955e+00 -5.965543e-02 -7.203363e-01 2.356235e-01 8.725599e-01 -1.726822e-01 -1.203754e+00 1.856559e+00 2.102242e+00 -6.076871e-01 -5.321320e-01 1.815071e+00 1.237020e+00 1.381041e+00 9.837950e-03 
-4.228924e+00 5.058161e+00 -2.811076e+00 -4.464946e+00 7.147019e+00 2.200867e+00 2.918597e+00 9.147839e+00 5.599339e+00 2.725582e+00 7.816774e-01 -4.876319e-01 -9.882474e-02 -7.602029e-01 -1.891255e-01 4.151239e-01 -8.137335e-01 -1.970560e+00 3.746781e-01 2.242585e+00 6.599367e-01 6.046687e-01 1.035837e+00 7.702760e-01 1.339203e+00 -1.129472e-03 
-5.755344e+00 2.319692e+00 -1.121999e+00 -7.565747e+00 1.298747e+00 6.890901e+00 1.103521e+01 2.189170e+00 3.207245e+00 8.643837e+00 -5.258894e-01 -5.804994e+00 -7.442415e-02 -9.107378e-01 -4.816505e-01 1.517152e+00 -1.074403e+00 -1.567465e+00 -1.796255e-01 1.720872e-02 -1.182219e-01 1.917931e-01 -1.957190e+00 9.569927e-02 3.691169e-01 -2.443409e-03 
-5.839584e+00 1.855427e+00 -3.483920e+00 -6.793152e+00 2.555329e+00 4.131322e+00 8.398507e+00 6.899159e+00 3.498318e+00 2.769455e+00 -1.378320e+00 -2.999258e+00 -8.100128e-02 -8.611234e-01 -3.595890e-01 7.753483e-01 -7.163416e-02 -1.842616e-02 -3.683130e-01 -1.017004e-01 -2.239253e+00 -1.828632e+00 -2.517956e+00 6.610904e-01 -2.144408e-02 -7.363033e-03 
-8.255205e+00 4.333315e-01 2.257929e+00 -7.362096e+00 4.719280e+00 1.916872e+00 1.987693e+00 9.565219e-01 2.288592e+00 -4.312057e+00 2.556987e+00 -2.560558e+00 -8.078420e-02 -6.870419e-01 5.201217e-01 1.062107e+00 8.321770e-01 1.283281e+00 -1.665030e+00 -2.214994e+00 -8.730677e-01 -1.400876e+00 -2.646918e+00 1.217939e+00 8.513013e-01 -1.628292e-02 
-7.284611e+00 4.203397e+00 -6.242982e-01 -4.924942e+00 5.344622e+00 2.846317e+00 6.933851e+00 -1.432101e+00 -3.084496e+00 -3.386252e+00 2.545691e+00 -2.217070e+00 -1.324599e-01 -4.559565e-01 6.574174e-01 9.290412e-01 8.558183e-01 7.426229e-01 -1.272125e+00 -1.423230e+00 -1.023954e+00 -1.305578e+00 -4.557180e-02 1.354395e+00 6.725430e-02 -1.346707e-02 
-8.468040e+00 3.746315e+00 2.758724e+00 -4.338967e+00 6.320504e+00 -7.917454e-01 6.925645e-01 1.989461e+00 -5.057268e-01 -1.512899e+00 3.601800e+00 -1.939581e+00 -1.301094e-01 -1.135805e-01 1.025175e+00 -1.948612e-01 -1.661217e-02 1.648607e-01 -7.842298e-01 -4.607791e-01 5.336356e-01 3.713167e-01 1.583360e+00 -8.434512e-01 -5.713202e-01 -6.371105e-03 
-8.012949e+00 3.486022e+00 9.108888e-01 -4.025625e+00 5.467832e+00 -8.749931e-01 1.929920e+00 1.262920e+00 -1.632412e+00 1.142016e+00 4.871246e+00 -2.973475e+00 -1.236740e-01 -2.691868e-01 1.403125e-01 -4.542375e-03 -3.233362e-01 2.068338e-01 -9.978280e-01 -3.882534e-01 2.785302e-01 1.103935e+00 5.958985e-01 -1.156161e+00 9.234987e-01 7.977247e-04 
-8.458939e+00 5.917894e+00 5.160296e-01 -7.894816e+00 5.481979e+00 -1.436217e-01 2.185763e+00 2.277189e+00 3.419133e+00 1.340608e+00 -2.823046e+00 -5.038957e+00 -1.170326e-01 -1.735802e-02 6.044984e-04 -6.223957e-01 2.407235e-01 5.839577e-01 8.573083e-02 1.384860e+00 3.369604e-01 1.274372e+00 1.633129e-01 -7.598448e-01 3.327707e-01 1.931190e-05 
-8.635096e+00 3.819170e+00 4.743370e-01 -4.763699e+00 6.798053e+00 -2.466886e+00 4.245985e+00 -1.833141e-01 4.727484e-01 -1.833513e+00 -2.269030e-02 3.950111e+00 -1.350096e-01 1.308092e-01 3.175950e-03 -6.340564e-01 5.158373e-01 1.172025e+00 3.150093e-01 7.334944e-01 1.207655e+00 1.909891e+00 -2.313457e-01 -2.639952e-01 4.736471e-01 -6.760716e-04 
-8.243757e+00 3.582764e+00 -1.349788e-01 -2.766313e+00 8.575182e+00 4.328550e-01 6.458832e+00 4.397381e+00 4.813552e+00 7.914302e-01 2.249544e+00 -3.737520e+00 -1.243451e-01 2.183987e-01 -7.360420e-02 -1.456446e-01 9.739647e-01 1.035623e+00 3.528900e-01 4.709192e-01 1.555197e-01 -3.372420e-01 8.336504e-01 1.709145e+00 6.290477e-01 1.998425e-04 
-7.466494e+00 4.669467e+00 -1.933889e+00 -4.010691e+00 9.781355e+00 4.118152e-01 3.460858e+00 6.241098e+00 7.219831e+00 2.598770e-01 1.014975e+00 -1.255957e+00 -1.233982e-01 2.655392e-01 2.647102e-01 5.485440e-01 4.571715e-01 5.905374e-01 8.920002e-01 2.101879e-01 -2.784457e-02 1.951726e-01 1.019495e+00 9.891902e-01 -2.470268e-01 -1.735270e-03 
-7.951246e+00 5.124724e+00 9.919195e-01 -3.401496e+00 9.168445e+00 1.814778e-01 4.932922e+00 -1.574183e-01 -1.640618e+00 4.462166e+00 5.203846e+00 7.093161e-01 -1.218392e-01 -5.768566e-02 3.202699e-01 6.572124e-01 -4.709848e-01 1.738182e-01 7.470976e-01 4.498459e-01 2.624435e-02 -1.398362e-01 3.104165e-01 -7.203511e-01 9.335639e-01 -4.841745e-03 
-7.453655e+00 4.371740e+00 2.653608e+00 -2.160249e+00 9.454109e+00 2.118804e+00 6.059880e+00 1.954863e+00 4.675696e+00 1.428597e+00 3.446109e+00 4.915591e-01 -1.449389e-01 -1.868196e-01 2.503760e-02 2.231997e-01 -6.352104e-01 -4.263048e-01 -6.564685e-01 4.485210e-01 3.853464e-01 -6.897912e-01 -1.104802e+00 -4.499187e-01 1.032088e+00 -3.816271e-03 
-8.538605e+00 5.332977e+00 8.573351e-01 -6.046457e+00 9.607897e+00 3.314848e+00 7.408551e+00 6.671720e+00 5.386438e+00 1.759153e+00 -2.567779e+00 5.654109e-02 -1.377834e-01 3.453846e-02 1.418829e-01 -3.780032e-01 -3.732362e-01 -2.087415e-01 -2.803875e-01 -2.882458e-01 1.013581e+00 5.720063e-01 -2.150946e+00 -4.142717e-01 -3.497507e-01 -1.751828e-03 
-8.106913e+00 4.690529e+00 -7.505983e-01 -5.864262e+00 7.430105e+00 -4.437212e+00 4.465649e+00 4.753261e+00 2.573466e-01 -3.912627e+00 2.651194e+00 4.230872e+00 -1.345074e-01 -9.986306e-03 -1.957373e-01 -1.590843e-01 5.832768e-03 -5.420579e-01 -7.774351e-01 -1.396684e+00 -5.147726e-02 -7.131128e-01 -5.410685e-02 1.681665e+00 1.958947e-01 -1.073813e-03 
-7.451925e+00 5.674745e+00 8.040063e-01 -3.415671e+00 9.136739e+00 2.057549e+00 4.288809e+00 3.511286e+00 3.428588e+00 -3.621953e+00 3.529945e+00 -2.909094e+00 -1.358141e-01 2.102924e-01 -2.015887e-01 9.572510e-02 6.357412e-02 -5.543560e-01 -1.839563e-01 -7.895315e-01 -8.248742e-01 -7.053858e-01 4.401315e-01 1.428978e+00 -7.347125e-01 -1.599562e-03 
-8.046926e+00 3.222170e+00 1.884851e+00 -3.446478e+00 6.979399e+00 -1.139722e+00 6.363325e-01 3.277693e+00 2.089057e+00 3.848615e+00 8.805571e+00 2.953850e+00 -1.512927e-01 6.650142e-02 -3.518646e-01 -9.973025e-02 -2.414710e-01 8.313234e-02 1.035344e+00 -8.055820e-02 -1.787854e-02 3.474843e-01 9.774336e-01 -2.351708e-02 -6.236830e-01 1.314330e-03 
-7.517136e+00 5.059213e+00 1.823616e-02 -6.937479e+00 7.061470e+00 7.463212e-01 5.375551e+00 3.285133e+00 9.436541e-01 7.918906e-02 1.499925e+00 -2.978511e+00 -1.373886e-01 -8.324508e-02 -3.348662e-01 -9.696836e-01 -9.094738e-01 -3.542790e-01 -9.403396e-01 -5.121026e-01 1.350950e-02 3.939118e-01 -1.559593e-01 -1.495914e+00 5.114465e-01 8.931661e-03 
-7.741800e+00 3.238972e+00 -8.563644e-01 -5.310713e+00 8.883401e+00 1.395121e+00 3.519486e+00 4.776945e+00 3.237235e+00 -8.760300e-01 3.548619e+00 1.147165e+00 -1.271485e-01 -1.367222e-01 1.329546e-02 -9.360296e-01 -5.146753e-01 -1.722283e-01 -9.155964e-01 -3.306035e-01 -4.122923e-01 6.817515e-01 -1.218175e+00 -2.085636e+00 5.866587e-01 1.007186e-02 
-8.020714e+00 3.992013e+00 -2.673804e+00 -7.030922e+00 6.413342e+00 -3.911570e+00 2.867186e-01 2.829208e+00 4.824058e+00 -2.039427e+00 -1.321146e+00 5.514816e-01 -1.032279e-01 -2.415583e-01 -1.273160e-01 -4.139864e-01 1.994512e-01 3.263245e-01 -4.190128e-01 1.976072e-01 -2.648633e-01 4.570914e-01 1.521158e-01 5.618765e-01 1.598626e+00 4.548168e-03 
-8.478748e+00 3.822247e+00 -1.449278e+00 -5.973133e+00 6.442321e+00 -3.388758e+00 1.527731e+00 1.444194e+00 3.557613e+00 -1.182950e+00 -2.120742e-01 4.122148e+00 -1.180137e-01 -2.502621e-01 1.462485e-01 4.240681e-01 2.797998e-01 -1.031694e-01 7.294906e-01 8.065935e-01 -7.365720e-01 -1.494543e+00 3.969024e-01 1.325519e+00 2.639049e-01 -2.428544e-03 
-8.356453e+00 4.130995e+00 -1.755239e+00 -5.609013e+00 9.913631e+00 1.043196e+00 7.359465e+00 3.627192e+00 3.068922e+00 9.932282e-01 6.189653e+00 3.527128e+00 -1.192151e-01 1.250790e-01 -5.293133e-02 2.484770e-01 3.347954e-01 -3.590779e-02 1.559519e+00 1.023538e+00 -2.969081e-01 -1.782662e+00 -9.397568e-01 1.185248e+00 4.752254e-02 -9.217585e-03 
-8.825241e+00 3.900723e+00 8.046938e-01 -4.622669e+00 6.617409e+00 2.565190e+00 4.016080e+00 6.950930e-01 -3.357910e+00 -4.078455e-01 6.420815e+00 9.788665e-01 -1.312976e-01 3.647732e-01 -7.111351e-02 -3.021420e-01 -5.412539e-02 -4.359497e-01 8.461472e-01 2.065771e-01 -1.357926e-01 -1.207862e+00 -2.000462e+00 -1.899557e-01 -4.689218e-01 -7.277894e-03 
-7.222073e+00 3.688118e+00 -2.558405e+00 -6.032177e+00 6.146259e+00 9.090511e-01 4.160233e+00 1.719218e+00 -6.314906e-01 -7.125763e+00 1.288650e+00 2.360735e+00 -1.426739e-01 3.871929e-01 -1.098359e-01 -4.969430e-01 -2.255837e-01 -8.005896e-01 -1.924430e-01 -6.254312e-01 -2.791822e-01 -4.674406e-01 -2.295590e+00 -1.493417e+00 -9.509172e-02 -5.829370e-03 
