-1.235133e+01 7.670447e+00 -3.704073e-01 -4.716774e+00 7.467093e+00 -2.469466e+00 -7.082254e-01 1.768040e-01 6.191901e-01 1.546494e-01 -2.171878e+00 -1.804002e+00 -1.319493e-01 2.784120e-01 3.412695e-01 4.005901e-01 3.643336e-01 3.218678e-01 -6.652875e-01 4.254617e-01 3.584278e-01 -1.624092e+00 5.555340e-01 1.084192e+00 6.119353e-01 -1.156390e-03 
-1.228642e+01 8.479720e+00 2.285555e+00 -3.493537e+00 8.295230e+00 -4.162271e+00 3.622339e-01 2.950942e+00 -1.254220e+00 2.204018e+00 -2.300791e+00 -3.125848e+00 -1.467910e-01 3.383495e-01 9.678423e-02 3.847709e-01 6.347736e-01 6.662348e-01 -8.478703e-02 3.467350e-01 1.392515e-01 -1.733727e+00 3.491504e-01 1.237883e+00 1.783707e-01 -3.704786e-03 
-1.099173e+01 8.972158e+00 3.045617e-01 -3.506724e+00 8.662365e+00 -4.949501e+00 8.838535e-01 5.818740e-01 -6.564564e+00 1.907635e+00 3.313539e+00 1.916598e+00 -1.303104e-01 2.819363e-01 -4.524614e-01 -3.412610e-02 5.108413e-01 6.680708e-01 2.386743e-01 -2.159304e-02 3.038542e-02 -1.428265e-01 7.759253e-01 5.877769e-01 3.119624e-01 -2.305639e-03 
-1.133939e+01 7.503513e+00 1.215963e+00 -2.147931e+00 1.020063e+01 -1.653384e+00 2.294101e-01 6.705263e-01 -4.457567e+00 1.023909e+00 1.274827e+00 -2.772448e+00 -1.512927e-01 4.175310e-01 -3.247691e-01 -4.797721e-01 -7.329860e-02 2.942583e-01 9.715845e-01 5.771070e-02 4.710015e-01 1.594349e+00 5.354781e-01 6.090353e-01 4.127979e-01 -1.991963e-03 
-1.141517e+01 5.896244e+00 -6.241545e-03 -2.835371e+00 9.854746e+00 -2.530539e+00 -7.497786e-01 1.468939e+00 1.506731e+00 4.624330e+00 -1.020802e+00 -4.208898e-01 -1.412266e-01 -1.076415e-01 1.497614e-01 -8.183073e-02 -9.143548e-02 -1.165038e-01 -8.233780e-02 -3.777975e-01 1.944596e-01 2.400529e+00 1.129081e+00 -1.058971e+00 -9.159852e-01 -5.068779e-04 
-9.987045e+00 8.393832e+00 4.209672e-02 -4.195707e+00 9.170330e+00 -5.138304e-01 1.467604e+00 4.862417e+00 2.681879e+00 3.523061e+00 2.911556e+00 1.068849e-01 -1.512927e-01 -2.419949e-02 5.906073e-01 -4.561132e-01 -8.255177e-01 -4.355487e-01 -3.094823e-01 6.050701e-01 1.519777e-01 1.223419e+00 1.712926e+00 2.873915e-01 -2.276160e-01 8.381844e-04 
-1.220611e+01 9.275806e+00 4.823412e-01 -2.940013e+00 8.594996e+00 -5.930967e+00 -1.624231e+00 -5.417730e-01 1.868357e+00 6.303461e+00 -2.799680e+00 -4.102994e+00 -1.328448e-01 -2.299309e-02 4.146644e-01 4.669254e-01 -4.832466e-02 -6.365069e-01 3.802966e-01 2.853075e-01 -1.338502e+00 -1.364714e+00 -1.259326e-01 1.392858e+00 -1.243930e-01 7.102847e-03 
-1.106491e+01 8.766768e+00 -1.308894e+00 -6.223198e+00 8.652763e+00 -1.500582e+00 3.691987e+00 2.435771e+00 1.478713e+00 8.748973e+00 3.601223e+00 -2.069475e+00 -1.512927e-01 -4.262808e-01 -1.069493e+00 1.550325e+00 9.116455e-01 -1.358874e+00 -3.102202e-02 1.707559e-01 -1.062309e+00 -6.754751e-01 -8.049259e-01 1.192646e+00 9.663431e-01 1.995767e-02 
-1.099120e+01 7.783098e+00 3.003881e+00 -2.063248e+00 6.930995e+00 -1.356800e-01 -4.354328e-01 -4.010248e+00 -4.715257e+00 1.381711e+00 5.598654e+00 4.532556e-02 -1.057124e-01 -1.455545e-02 -8.837482e-01 5.820943e-01 3.620152e-01 4.742641e-02 5.385965e-01 -4.125880e-01 4.326560e-02 -1.124871e-01 -1.361446e+00 9.974645e-01 1.313330e+00 7.505321e-03 
-1.272590e+01 3.792721e+00 6.532953e+00 -7.586193e-02 3.207962e+00 -3.566584e+00 1.726984e+00 1.285109e+00 2.596310e+00 1.959306e+00 4.675620e+00 2.864441e+00 -6.507051e-02 -5.398216e-02 3.875043e-01 1.174493e-01 7.762208e-01 1.203558e+00 -8.548180e-01 -9.686067e-01 4.923699e-01 -7.528059e-01 -2.081969e+00 -1.035352e+00 1.341459e+00 1.063955e-03 
-1.144839e+01 7.344089e+00 -5.281105e-01 -4.203605e+00 1.155453e+01 -2.204983e+00 -2.704669e+00 2.498856e-01 7.471229e-01 2.891063e+00 1.650444e+00 -3.304169e-03 -1.384293e-01 -1.755776e-01 7.214377e-01 -1.179033e+00 -9.153945e-01 1.656749e+00 -1.318048e-01 7.931323e-02 2.285796e+00 6.086509e-01 -4.382794e-01 -3.356830e-01 8.587353e-01 -5.360865e-03 
-1.110623e+01 1.092379e+01 1.044348e+00 -1.271915e+00 1.235879e+01 -4.740020e+00 -1.642835e-02 2.767553e+00 -5.016506e+00 -2.415548e+00 3.985703e-01 4.662134e+00 -1.296145e-01 2.380150e-01 7.615687e-01 -1.607414e+00 -1.175110e+00 1.495124e+00 8.581606e-01 7.557908e-01 1.941750e+00 4.268393e-01 -1.203245e-01 5.173120e-01 3.664708e-02 -9.389150e-03 
-1.267892e+01 7.824750e+00 -1.469840e-01 -6.042194e+00 1.063933e+01 -2.079864e-01 8.328396e-01 6.677508e+00 2.134405e+00 1.377741e+00 6.058764e+00 3.440156e+00 -1.002448e-01 -9.613657e-02 -3.177936e-01 -1.414835e-01 -3.728878e-01 -1.025059e+00 8.142878e-01 1.358486e+00 7.762848e-01 1.610009e+00 6.150934e-01 8.145954e-01 5.235667e-02 -7.592440e-05 
-1.092056e+01 7.360234e+00 -1.694678e+00 -5.032118e+00 1.114118e+01 -2.742796e-01 3.737184e+00 7.780050e+00 4.036865e+00 2.114345e+00 5.058020e+00 1.325946e+00 -1.311085e-01 -9.630146e-02 -1.863363e-01 -2.658396e-01 -5.352403e-01 -3.408103e-02 1.186389e+00 5.694486e-01 -4.432256e-01 1.332336e+00 1.483257e+00 -7.381597e-01 -1.556620e+00 -4.616559e-03 
-1.202191e+01 7.536901e+00 1.339848e-01 -4.187943e+00 7.038038e+00 -3.664141e-01 2.210957e+00 1.625061e+00 4.270483e+00 3.701583e+00 3.393697e+00 1.926573e+00 -1.380619e-01 1.581034e-01 2.476042e-01 -2.346624e-01 2.941049e-01 -3.562061e-01 -4.875576e-01 -5.719578e-01 -1.373605e+00 -1.060228e+00 1.211319e-01 -1.825305e+00 -4.075444e-01 -4.618490e-03 
-1.191624e+01 1.013604e+01 -4.253345e-01 -4.875242e+00 1.398903e+01 1.271139e+00 2.141756e+00 3.077648e+00 5.771368e-01 3.838818e+00 -1.959694e+00 -2.364174e+00 -1.337887e-01 5.365105e-02 1.904312e-01 -8.073510e-02 1.762108e-01 -9.405457e-01 -5.461346e-01 -3.482240e-01 -1.845533e-01 -1.349122e+00 -3.762245e-04 -1.372842e+00 -7.189406e-01 3.864944e-03 
-1.139056e+01 7.674870e+00 -1.954968e+00 -4.650107e+00 7.434375e+00 -3.418484e+00 -1.229236e+00 2.160685e+00 -1.436870e+00 1.121164e+00 4.410977e-01 3.247494e+00 -1.219971e-01 1.080390e+00 -4.052620e-01 -3.342307e-01 -3.971513e-01 -4.470164e-01 -1.356042e+00 -2.635452e+00 1.634899e+00 -1.902902e+00 -3.460844e+00 2.599740e-01 -1.057292e+00 2.374051e-02 
-1.096798e+01 8.243406e+00 -1.053877e+00 -3.919982e+00 6.240287e+00 -1.478918e+00 3.716160e+00 6.589472e+00 1.449324e-01 3.402673e+00 -3.298895e-01 -2.929217e+00 -1.198162e-01 9.893866e-01 -8.239700e-01 5.936659e-01 -4.386612e-01 -6.088615e-01 -6.875383e-01 -3.423530e+00 1.810263e+00 -1.636335e+00 -3.758701e+00 1.254275e+00 -2.695067e-01 4.014789e-02 
-7.094090e+00 6.456907e+00 -1.222897e+00 -6.651330e+00 8.677326e+00 -5.771597e+00 -1.175350e+01 8.043647e+00 -5.027923e+00 -1.338456e+01 3.878664e+00 -3.077365e+00 -2.634561e-02 -1.444250e-01 7.904760e-01 4.791066e-01 3.958465e-01 -6.660429e-01 9.265656e-01 -1.157652e+00 6.861187e-01 -9.970845e-01 -1.197125e+00 -1.345500e+00 -1.808978e+00 5.741742e-02 
-9.117550e+00 6.625169e+00 2.176960e+00 -6.067937e+00 1.032324e+01 -9.899957e-01 -9.713759e+00 9.187485e+00 -5.809010e+00 -7.701821e+00 2.592897e+00 -5.492778e-01 1.912498e-02 -9.798838e-01 1.789046e+00 -8.443975e-01 1.659741e+00 -1.480881e+00 1.569576e+00 -8.860013e-01 -1.533549e+00 -5.246779e-01 6.317901e-01 -2.369273e+00 -3.481950e-01 7.554916e-02 
-1.303790e+01 1.243637e+01 -1.174853e+00 -1.596897e+00 2.062683e+00 9.698834e-01 -3.025353e-01 4.292272e+00 -3.445321e+00 6.877862e-01 -7.747797e+00 -6.987367e+00 9.561938e-02 -2.835286e-01 1.332043e+00 7.203388e-02 2.332202e+00 -2.368041e-01 1.966909e+00 3.727993e+00 -1.691017e+00 1.246115e-01 3.242037e+00 -1.603256e+00 3.350747e-01 3.375053e-03 
-1.289549e+01 1.419890e+01 -5.299887e+00 1.851508e+00 2.143204e+00 2.998221e+00 -6.439331e+00 7.974155e-01 -3.269758e+00 -4.745508e-01 -6.363025e+00 -2.715191e+00 1.969471e-01 2.331198e+00 1.010693e+00 1.500459e+00 2.104451e+00 1.407629e+00 3.114251e-01 3.345514e+00 -1.233081e+00 3.031183e-01 8.395873e-01 7.687589e-01 4.673103e-01 -2.041163e-02 
-6.622763e+00 9.330253e+00 2.875695e+00 1.049960e+00 1.158333e+01 2.068841e+00 5.249244e+00 3.783595e+00 -5.674490e+00 -7.880118e-01 3.403433e-01 -3.190350e-01 -9.838140e-02 5.350503e+00 -7.653649e-01 3.123622e+00 1.946853e+00 1.748870e+00 -3.454304e-01 1.792699e+00 -2.799206e+00 -7.617291e-01 -1.463383e+00 2.713980e+00 1.400897e+00 2.716674e-02 
-6.691275e-01 1.323169e+01 7.653983e+00 3.130890e+00 1.260107e+01 1.765108e-02 4.237919e+00 3.276418e+00 -3.178833e+00 -2.765986e+00 2.392621e+00 -1.546892e+00 1.406723e-02 6.295172e+00 -2.820511e+00 2.804337e+00 2.060227e+00 -1.841388e+00 -4.342864e-01 1.741300e+00 -3.554073e+00 -1.445937e+00 -1.667363e+00 6.540868e-01 2.753243e-01 9.830920e-02 
7.601432e+00 9.093148e+00 7.966323e+00 7.497674e+00 5.578104e+00 7.330165e-01 3.322336e+00 -1.094326e+01 -7.299429e+00 -5.483414e+00 1.444278e+00 -5.670335e-01 3.228930e-01 4.663781e+00 -3.073548e+00 6.014450e-01 1.959936e+00 -5.113020e+00 -4.381304e-02 -8.617194e-01 -3.651443e+00 -1.505014e+00 -1.542165e+00 -1.537343e+00 -3.712615e-01 1.672517e-01 
1.146828e+01 2.149005e-01 6.176484e+00 8.928787e+00 -4.061126e+00 1.494702e+00 3.230622e+00 -9.609519e+00 -9.686976e+00 -6.463666e+00 -3.644558e+00 -1.214571e+00 4.778559e-01 2.203180e+00 -3.007528e+00 -8.350961e-01 1.365828e+00 -5.083106e+00 -1.805455e-01 -4.790421e-01 -2.208386e+00 -9.622782e-01 -9.378430e-01 -2.176527e+00 -3.678679e-03 1.218212e-01 
1.062744e+01 4.709110e-01 6.621670e+00 7.950695e+00 -5.650679e+00 1.111250e+00 1.444295e+00 -8.030652e+00 -9.945491e+00 -6.649996e+00 -4.327781e+00 -2.341504e+00 5.059829e-01 -3.497310e-02 -1.231558e+00 -9.648483e-01 7.475051e-01 -3.120664e+00 -2.644282e-01 -4.777087e-01 5.964037e-01 2.968591e-01 -4.883062e-01 -1.230389e+00 -1.102016e-01 5.023120e-02 
8.833769e+00 2.505173e+00 4.150829e+00 9.733519e+00 -7.200069e+00 -1.074193e+00 2.781728e+00 -9.221816e+00 -6.667194e+00 -6.871910e+00 -5.603984e+00 -6.780508e-01 5.316284e-01 -9.530155e-02 -4.603194e-01 1.183048e-01 9.370680e-02 -5.947043e-01 -6.783030e-01 -2.050298e-01 4.716302e-01 3.281639e-01 -1.787293e-01 2.427032e-01 3.148343e-02 2.097360e-02 
8.743819e+00 1.790222e+00 4.154909e+00 1.083283e+01 -8.455745e+00 6.953230e-01 1.158239e+00 -8.155095e+00 -7.325025e+00 -7.720823e+00 -3.727953e+00 -1.386302e+00 5.471628e-01 5.214503e-01 -1.021977e+00 5.285345e-01 -4.459887e-02 2.323051e-01 -1.075859e+00 5.772740e-01 7.713869e-01 -7.575514e-01 -9.748506e-03 3.567312e-01 4.455141e-01 1.547655e-02 
1.193358e+01 -2.746352e+00 8.001389e+00 7.956252e+00 -5.632114e+00 -1.688850e+00 2.348501e+00 -7.189147e+00 -9.356390e+00 -6.821899e+00 -2.730957e+00 -1.534754e+00 5.621339e-01 -1.247711e+00 7.955457e-01 -2.944703e-02 -5.421509e-01 1.639206e+00 -2.631568e+00 1.455264e+00 1.383823e+00 -1.159189e+00 -9.399160e-01 7.343951e-01 4.128238e-01 1.634273e-02 
1.168479e+01 -2.013212e+00 7.339062e+00 8.616333e+00 -5.273130e+00 -3.960716e+00 4.547278e+00 -5.190053e+00 -1.238865e+01 -6.723743e+00 -3.980639e+00 3.144189e-01 5.681129e-01 -3.295142e+00 2.658428e+00 -1.123124e+00 -1.104156e+00 2.795455e+00 -3.873093e+00 1.357958e+00 1.421515e+00 4.110545e-01 -1.369317e+00 4.879653e-01 4.447388e-01 2.890365e-02 
1.124733e+00 8.384619e+00 2.411517e+00 8.131014e+00 -5.953493e-01 -1.190401e+01 8.363526e+00 -3.785220e+00 -9.931328e+00 -1.207003e+01 -1.805666e+00 5.357082e-01 6.028670e-01 -2.254151e+00 9.219677e-01 -2.163522e+00 -1.113190e+00 1.252989e+00 -2.454358e+00 -1.438925e+00 -7.503188e-01 3.332092e+00 1.846090e+00 1.095848e-02 1.203169e+00 4.497652e-02 
-2.327466e+00 9.516878e+00 1.334224e+00 5.224675e+00 3.003150e+00 -1.356256e+01 4.940516e+00 -2.749485e+00 -4.982284e+00 -1.194334e+01 -1.750772e+00 -1.978392e-01 6.713145e-01 3.540004e-01 -3.262552e+00 -2.101105e+00 -1.730157e+00 -1.520615e+00 3.903092e-01 -2.575678e+00 -8.921920e-01 4.793279e+00 4.928004e+00 5.646976e-01 6.042809e-01 7.678407e-02 
7.668950e+00 -3.901559e+00 1.861995e-01 4.086130e+00 -3.505308e+00 -9.159716e+00 -5.042741e+00 -1.216102e+01 3.600889e+00 5.018349e+00 -3.791098e+00 4.737221e+00 7.354157e-01 2.883842e+00 -6.509614e+00 -1.659502e+00 -2.119495e+00 -3.491597e+00 3.735830e+00 -1.890961e+00 -7.286056e-01 3.729317e+00 5.931138e+00 7.439848e-01 -1.974082e-01 8.686328e-02 
1.018268e+01 -1.218288e+01 -2.053807e+00 1.987992e+00 -1.142122e+01 -3.381319e+00 -1.627978e+00 -5.463110e+00 4.811635e+00 9.372090e+00 -1.644344e-01 1.235067e+00 8.857589e-01 2.995363e+00 -6.091722e+00 -1.930136e+00 -1.215870e+00 -4.772161e+00 5.924290e+00 -2.464285e-02 4.692968e-01 1.008517e+00 3.656238e+00 1.627198e+00 -1.056370e+00 7.865975e-02 
9.288868e+00 -1.331357e+01 -4.191975e+00 -8.481197e-01 -1.084115e+01 1.684514e+00 2.192970e+00 -6.071436e+00 3.818299e+00 6.927942e+00 1.121089e+00 -1.167786e+00 9.299612e-01 1.098694e+00 -2.960802e+00 -1.698688e+00 -8.668919e-01 -3.687492e+00 5.982619e+00 2.133249e+00 1.377241e+00 -1.326523e+00 -4.060697e-01 1.833390e+00 -1.616307e+00 5.881455e-02 
1.183939e+01 -1.623572e+01 -6.127369e+00 1.612451e+00 -1.718974e+01 1.063677e+01 1.199446e+00 -3.447795e+00 -4.840398e-02 5.383049e+00 3.929125e+00 -2.527184e+00 9.673405e-01 1.013976e+00 -1.433427e+00 -8.788627e-01 -8.241140e-01 -2.226764e+00 4.272195e+00 2.040120e+00 -3.058999e-01 -1.636324e+00 -9.299744e-01 3.534924e-01 -5.453389e-01 2.845869e-02 
1.233407e+01 -1.667915e+01 -6.270458e+00 -6.055880e-02 -1.905851e+01 1.374433e+01 4.209791e+00 -6.282477e+00 -6.017075e-01 4.982522e+00 3.329072e+00 -1.463187e+00 9.886976e-01 7.642690e-01 -8.220894e-01 2.683733e-01 -1.820235e+00 -9.879940e-01 2.070277e+00 1.328213e+00 1.265386e-01 -1.505650e+00 -1.352043e-01 -3.907201e-01 -3.238412e-01 1.668295e-02 
1.372996e+01 -1.766723e+01 -5.408880e+00 -2.526359e+00 -1.844636e+01 1.194975e+01 7.564209e+00 -6.887090e+00 -1.159980e+00 5.694929e+00 4.990359e-01 -1.343927e+00 9.986841e-01 4.515376e-02 -4.198398e-02 1.118860e+00 -3.010085e+00 6.218443e-01 3.527957e-01 5.087544e-01 5.031185e-01 -9.539912e-01 5.759577e-01 -1.455482e+00 -2.687643e-01 7.432556e-03 
1.216493e+01 -1.670827e+01 -3.209354e+00 -7.879890e+00 -1.515280e+01 1.137941e+01 5.651655e+00 -3.719096e+00 -3.154161e+00 6.095981e+00 8.825331e-01 -3.378621e+00 9.977041e-01 3.093728e-01 -1.042143e-01 9.884030e-01 -2.100506e+00 4.180862e-01 4.181518e-02 1.714898e-01 -6.248469e-02 6.353161e-02 9.045054e-01 -2.215220e+00 2.975151e-01 2.213949e-03 
1.214973e+01 -1.643108e+01 -2.063620e+00 -9.528309e+00 -1.603337e+01 1.358321e+01 3.022286e+00 -2.213893e+00 -3.542133e+00 7.706108e+00 -2.125015e+00 -2.913289e+00 1.000000e+00 5.938417e-01 -2.441717e-01 6.050826e-01 -1.083123e+00 1.184038e-01 4.302720e-01 -2.406390e-01 -7.404448e-01 7.870024e-01 1.059243e+00 -2.447136e+00 8.139469e-01 -2.212638e-03 
1.467105e+01 -1.781829e+01 -3.001074e+00 -7.062116e+00 -1.817458e+01 1.313668e+01 7.338202e+00 -8.931499e+00 9.070271e-01 8.499459e+00 -6.435003e+00 8.090692e-01 9.991094e-01 8.599714e-01 -2.291550e-01 -9.390135e-02 9.315808e-02 -2.109707e-01 4.146520e-01 -3.776336e-02 -1.318894e+00 1.040955e+00 1.118249e+00 -2.609709e+00 1.483573e+00 -6.191415e-03 
1.544611e+01 -1.833307e+01 -2.487607e+00 -8.350861e+00 -1.634346e+01 1.322247e+01 5.517741e+00 -7.983112e+00 7.444376e-01 9.789403e+00 -8.077877e+00 6.319631e-01 9.869183e-01 5.079654e-01 1.401806e-02 -3.801216e-01 1.364280e-01 6.078812e-01 -3.238888e-01 2.549639e-01 -1.285697e+00 8.893381e-01 4.811506e-01 -1.272852e+00 7.300498e-01 -8.736139e-03 
1.481660e+01 -1.690305e+01 -3.466867e+00 -8.002824e+00 -1.605261e+01 1.363304e+01 4.215111e+00 -7.428955e+00 -9.267175e-02 1.064558e+01 -9.189581e+00 2.266616e+00 9.732879e-01 -2.139600e-01 3.898325e-01 -1.878275e-01 -5.456288e-01 1.588113e+00 -7.074060e-01 -1.049479e-01 -5.081838e-01 1.510849e-01 -1.969035e-01 2.212538e-01 -6.388272e-02 -8.244497e-03 
1.461678e+01 -1.681861e+01 -3.731331e+00 -8.375814e+00 -1.405494e+01 1.171558e+01 5.858651e+00 -9.393650e+00 1.404406e+00 9.038800e+00 -7.111984e+00 8.186385e-03 9.692301e-01 -6.777686e-01 5.510378e-01 -4.273448e-01 -3.794127e-01 2.063931e+00 -1.277030e+00 4.737733e-01 -1.062242e+00 5.330514e-01 -9.200796e-01 1.078775e+00 -2.106156e-01 -4.775214e-03 
1.401591e+01 -1.662636e+01 -3.318349e+00 -9.777782e+00 -1.137827e+01 1.035309e+01 6.643007e+00 -1.076715e+01 1.332467e+00 7.890243e+00 -5.811681e+00 8.015440e-01 9.667311e-01 -2.527133e-01 -2.307888e-01 -2.808302e-01 4.787582e-01 1.450416e+00 -7.801400e-01 -1.669585e-01 -8.877532e-01 9.447344e-01 -1.325572e+00 1.641586e+00 -7.159652e-01 -4.434347e-03 
1.245761e+01 -1.571623e+01 -4.698589e+00 -9.360445e+00 -8.360976e+00 8.477295e+00 6.672659e+00 -1.162523e+01 2.697125e+00 6.566674e+00 -4.372952e+00 3.114211e-01 9.663206e-01 -1.091414e-01 -6.184570e-01 -1.412555e-01 1.356289e+00 7.067267e-01 -3.277590e-01 -9.838883e-01 -2.769276e-01 9.477274e-01 -9.654667e-01 1.407483e+00 -6.880993e-01 -7.003248e-03 
1.463261e+01 -1.860818e+01 -4.387388e+00 -5.116718e+00 -1.164752e+01 1.135148e+01 2.973314e+00 -1.075193e+01 3.984641e+00 5.253784e+00 -2.351169e+00 -1.464827e+00 9.525709e-01 3.100767e-02 -8.705255e-01 -4.868887e-02 2.028379e+00 3.162918e-01 -4.060976e-01 -1.311492e+00 8.719797e-02 1.257624e+00 -5.856769e-01 1.303970e+00 -1.084726e+00 -9.829027e-03 
1.376272e+01 -1.891999e+01 -3.903089e+00 -3.924900e+00 -1.038668e+01 9.577591e+00 2.774056e+00 -1.078590e+01 4.816957e+00 5.529696e+00 -1.804823e+00 -2.299125e+00 9.412939e-01 -7.788124e-02 -7.010479e-01 -7.347760e-02 2.407920e+00 -2.217457e-01 -2.175101e-01 -1.658390e+00 6.874425e-01 1.502113e+00 -5.126537e-01 1.314046e+00 -9.745460e-01 -1.327130e-02 
1.351839e+01 -1.937711e+01 -3.959544e+00 -2.353659e+00 -8.783954e+00 7.772455e+00 2.034847e+00 -1.075082e+01 6.560672e+00 5.480347e+00 -5.758976e-01 -3.316813e+00 9.300993e-01 -8.164623e-01 2.630201e-01 -7.034985e-01 2.355608e+00 3.032598e-01 -1.181715e+00 -1.082421e+00 7.557125e-01 1.859817e+00 -4.533443e-01 9.467989e-01 -6.810045e-01 -1.326813e-02 
1.262531e+01 -1.883701e+01 -5.279900e+00 1.297624e+00 -1.090149e+01 9.179260e+00 -1.150058e+00 -8.188568e+00 8.919674e+00 3.890124e+00 1.309640e+00 -3.635316e+00 9.111999e-01 -9.569484e-01 5.567398e-01 -8.716668e-01 2.222340e+00 2.991306e-01 -1.676127e+00 -1.041185e+00 1.192734e+00 1.974430e+00 -9.523840e-01 4.908284e-01 -7.227164e-01 -1.234956e-02 
1.111901e+01 -1.733457e+01 -7.216475e+00 4.050058e+00 -9.873816e+00 5.642073e+00 -4.767333e-01 -8.272035e+00 1.123237e+01 3.806849e+00 8.255944e-01 -4.201754e+00 9.012772e-01 -1.006039e+00 5.909151e-01 -6.154314e-01 2.118054e+00 -1.599863e-01 -1.958788e+00 -1.282389e+00 1.819540e+00 1.539731e+00 -1.391931e+00 -3.391521e-02 -7.107280e-01 -6.929112e-03 
1.017767e+01 -1.715755e+01 -6.632957e+00 3.984943e+00 -8.346099e+00 2.262147e+00 -1.176081e+00 -6.061619e+00 1.235326e+01 1.604526e+00 -5.142665e-02 -5.470236e+00 8.939571e-01 -8.242033e-01 5.572428e-01 5.219136e-01 1.575851e+00 -3.790741e-01 -2.609649e+00 -1.524551e+00 3.208872e+00 -1.332229e-01 -8.753582e-01 -9.986321e-01 1.830494e-01 -6.051594e-03 
9.712019e+00 -1.726226e+01 -6.360172e+00 6.892952e+00 -1.086158e+01 1.437073e+00 -4.364089e+00 -2.716598e+00 1.254253e+01 -3.365102e-01 -6.494021e-02 -5.952993e+00 9.040751e-01 -6.893275e-01 8.191631e-01 1.695350e+00 1.241538e+00 -1.262104e+00 -2.497635e+00 -1.430006e+00 4.334667e+00 -1.608069e+00 -1.206793e+00 -4.057279e-01 1.235201e+00 -1.113839e-02 
9.207791e+00 -1.608695e+01 -3.098483e+00 7.755433e+00 -1.230298e+01 -1.766484e+00 -6.829135e+00 5.078075e+00 7.598477e+00 1.585012e+00 -3.238253e+00 -1.844450e+00 8.795430e-01 -4.013543e-01 1.126079e+00 1.958009e+00 1.560889e+00 -2.710950e+00 -1.583234e+00 -2.500862e-01 3.384890e+00 -2.169430e+00 -9.121059e-01 -2.497777e-01 2.338504e+00 -1.846468e-02 
8.157310e+00 -1.377406e+01 -5.069618e-01 8.372503e+00 -1.420590e+01 -4.831785e+00 -4.800234e+00 7.831454e+00 5.569413e+00 -2.217359e+00 3.903680e-01 1.613598e-01 8.527924e-01 -2.663224e-01 1.538025e+00 2.092433e+00 9.065086e-01 -2.637162e+00 -8.673434e-01 8.469856e-01 2.301925e+00 -2.353456e+00 -6.097418e-01 -2.604078e-01 2.694270e+00 -3.197630e-02 
8.948256e+00 -1.327126e+01 2.304812e-01 1.104961e+01 -2.022869e+01 -2.519595e+00 -2.208440e+00 5.588803e+00 4.992665e+00 -2.015580e+00 -1.527969e+00 3.165107e+00 8.272751e-01 -3.989937e-01 1.758051e+00 1.572812e+00 4.051996e-01 -2.474696e+00 4.522429e-02 1.302225e+00 3.676295e-01 -1.060188e+00 -1.337869e+00 7.501407e-01 1.678165e+00 -3.644233e-02 
8.510175e+00 -1.097998e+01 2.437509e+00 9.778406e+00 -2.008453e+01 -2.523088e+00 -2.439508e+00 8.537661e+00 2.078162e+00 -1.584923e+00 -2.222121e+00 5.013581e+00 7.703276e-01 -4.766435e-01 1.463970e+00 1.336273e+00 -3.635228e-01 -1.865306e+00 4.992023e-01 5.585378e-01 -1.647192e-01 -1.164718e+00 -8.723518e-01 5.332410e-01 1.014860e+00 -3.435012e-02 
7.036390e+00 -8.693736e+00 3.293342e+00 9.078480e+00 -2.173714e+01 -2.694711e+00 -1.498371e+00 6.563119e+00 4.043163e+00 -5.420553e+00 1.818695e+00 4.120265e+00 7.385638e-01 -9.961327e-01 1.690624e+00 1.764161e+00 -2.088020e+00 5.310535e-01 -5.731630e-01 2.072340e-01 3.718945e-01 -1.981392e+00 -8.904282e-01 1.382714e+00 -2.058754e-01 -3.147995e-02 
6.730025e+00 -8.742970e+00 4.642971e+00 7.540455e+00 -2.277820e+01 -2.248216e+00 -2.362579e+00 6.520700e+00 2.205738e-01 -4.876631e+00 1.383241e+00 4.758080e+00 7.253975e-01 -5.130815e-01 1.240606e+00 1.315338e+00 -1.433384e+00 3.470047e-01 -8.490429e-02 2.640292e-01 -2.750982e-01 -1.862297e+00 -1.053476e+00 1.526780e+00 -4.358814e-01 -2.128868e-02 
4.857667e+00 -5.936640e+00 7.948556e+00 1.728488e+00 -1.622659e+01 -5.522846e+00 -1.210734e+00 8.456757e+00 -3.985500e+00 -4.821867e+00 3.582919e+00 2.263480e+00 6.923404e-01 -1.081677e-02 1.072125e+00 1.084225e+00 -6.878127e-01 2.158070e-01 7.222499e-01 4.062028e-02 -2.943238e-01 -1.367413e+00 -1.070416e+00 7.634899e-01 2.699083e-01 -2.391651e-02 
7.034129e+00 -6.155493e+00 6.686592e+00 6.286479e+00 -2.110479e+01 -1.533542e+00 -1.263181e+00 6.215351e+00 -3.218995e+00 -7.151649e+00 4.529669e+00 3.762566e+00 6.869959e-01 1.211187e-01 1.542071e+00 1.630085e-01 4.787343e-01 2.480623e-01 1.393662e+00 8.716347e-02 -7.767131e-01 -3.030011e-01 -1.446967e+00 8.786379e-01 2.374735e-01 -3.829907e-02 
6.830255e+00 -4.626849e+00 7.692656e+00 6.266404e+00 -2.149481e+01 5.592017e-01 -1.844969e+00 5.244174e+00 -1.074118e+00 -9.635123e+00 4.062931e+00 5.967563e+00 6.381820e-01 3.086004e-01 1.351531e+00 -9.361912e-01 1.385553e+00 1.186012e+00 1.639943e+00 -2.337680e-01 -1.730228e+00 1.404754e-01 -9.668621e-01 -5.472340e-02 5.109721e-01 -5.729699e-02 
6.349325e+00 -1.687512e+00 5.585964e+00 7.665169e+00 -1.890378e+01 1.679069e+00 -1.609645e+00 4.243425e+00 -2.750123e+00 -9.704839e+00 5.536424e+00 4.093406e+00 5.609813e-01 3.395272e-01 1.651031e+00 -1.265175e+00 -6.732922e-01 6.708959e+00 -5.176319e-01 -1.351991e+00 1.464005e-01 -8.187822e-01 -1.957078e+00 -1.293327e+00 -5.377572e-01 -7.359703e-02 
6.743072e+00 -1.412975e+00 3.817914e+00 7.966906e+00 -1.139703e+01 1.070561e+00 -2.206343e+00 7.915785e-01 -3.517559e+00 -8.379582e+00 2.805924e+00 4.652922e+00 4.688627e-01 7.768227e-01 1.355237e+00 -1.784018e+00 -8.186331e-01 8.381149e+00 -2.490801e+00 -1.423815e+00 1.065820e+00 -1.472461e+00 -2.357867e+00 -1.033293e+00 -1.376448e+00 -6.042944e-02 
8.775356e+00 4.927273e-01 2.298087e+00 2.069767e+00 7.391119e+00 -4.377382e+00 -7.842450e+00 9.173652e+00 -6.091186e+00 -1.756481e+01 -1.308464e+00 1.731101e+00 4.036704e-01 8.400432e-01 7.280513e-01 -1.255068e+00 -4.561162e-01 6.892652e+00 -3.078788e+00 -6.446117e-01 1.007952e+00 -8.929145e-01 -1.984136e+00 -9.548974e-01 -4.747656e-01 -3.649005e-02 
9.501352e+00 1.059218e+00 4.165022e-01 4.970939e+00 7.263487e+00 -8.866577e+00 -5.847639e+00 8.108163e+00 -6.765892e+00 -1.749447e+01 2.318912e+00 2.664770e-01 4.146903e-01 4.106123e-01 4.292449e-01 -3.883762e-01 -6.698332e-02 3.484881e+00 -1.643888e+00 4.334335e-02 3.539083e-01 3.464065e-01 -9.031995e-01 -3.079503e-01 -6.271558e-02 -2.036857e-02 
9.170401e+00 7.166481e-01 1.011331e+00 6.882572e+00 6.229218e+00 -8.746305e+00 -3.012055e+00 5.624895e+00 -5.590528e+00 -1.506807e+01 1.005444e+00 3.912800e+00 4.056172e-01 -4.185841e-01 3.786063e-01 2.440888e-01 7.390305e-01 -3.110534e-03 4.243690e-01 5.878302e-01 -1.153558e+00 1.141032e+00 1.715918e+00 -9.208987e-02 6.181343e-01 -2.148061e-02 
8.598611e+00 6.212893e-01 2.519410e+00 5.225587e+00 6.608323e+00 -4.964419e+00 -4.404823e+00 4.335498e+00 -2.035855e+00 -1.414395e+01 1.092188e-01 3.248494e+00 3.660464e-01 -1.629402e+00 8.366156e-01 1.045489e+00 2.250195e-01 -1.001479e+00 3.378632e+00 -8.448721e-01 -1.997985e+00 2.218737e+00 1.299649e+00 -1.225386e+00 3.663636e-01 -2.534121e-02 
7.133807e+00 2.604723e+00 2.467077e+00 5.637596e+00 7.703148e+00 -4.206615e+00 -5.624707e+00 5.292195e+00 -2.751044e+00 -1.066049e+01 -6.640673e-01 3.330764e+00 3.205892e-01 -1.318097e+00 9.227551e-01 8.720930e-01 2.194031e-01 -9.917141e-01 2.692585e+00 -1.211312e+00 -1.613292e+00 1.155902e+00 1.249542e+00 -1.031827e+00 -1.526718e+00 -2.736467e-02 
2.372640e+00 4.298258e+00 4.916077e+00 6.718524e+00 1.519129e+00 5.756738e+00 -8.765674e+00 -1.715414e+00 2.908052e+00 -1.320002e+01 -2.973264e+00 2.389313e+00 3.304983e-01 -5.177913e-01 1.863800e+00 2.520354e-01 1.132479e-02 -1.965918e-01 6.824745e-01 1.036030e-01 -1.011299e+00 -4.002014e-01 2.232253e+00 -7.736119e-01 -2.238275e+00 -3.364422e-02 
5.692899e+00 3.491939e+00 4.173464e+00 7.233119e+00 3.815244e+00 -6.439555e-01 -6.888188e+00 5.838910e-01 -2.282974e+00 -9.292329e+00 -2.612453e+00 -3.291201e+00 2.865680e-01 -6.152943e-01 1.592677e+00 5.463980e-01 7.509049e-01 1.781519e+00 -2.536259e-01 1.672679e+00 -8.153167e-01 -9.415706e-01 2.391402e+00 -9.805393e-03 -2.357689e+00 -5.036170e-02 
6.730108e+00 9.496681e+00 2.926394e+00 4.484450e+00 7.569316e+00 -3.333376e+00 -3.255067e+00 1.633157e+00 -4.270897e+00 -3.666763e+00 -2.784648e+00 -4.631899e+00 2.148359e-01 -8.287963e-01 8.125036e-01 -4.750838e-02 8.797035e-01 3.792807e+00 -1.442663e+00 2.197618e+00 2.982963e-01 4.487743e-01 4.430077e+00 1.187878e+00 -1.358591e+00 -6.960753e-02 
1.878601e+00 7.968900e+00 6.193909e+00 1.050916e+01 1.358565e+01 -9.296877e-01 -1.661372e-02 -4.586738e-01 -3.869423e+00 -3.470107e+00 -8.074021e-01 -4.947075e+00 1.266119e-01 -1.628111e+00 -1.207388e+00 -7.164733e-02 -8.308730e-01 3.782638e-01 7.817869e-01 8.523571e-01 -4.630240e-01 3.529286e+00 1.605022e+00 1.559514e+00 1.493553e+00 -3.177459e-02 
1.358070e-01 6.122296e+00 3.668312e+00 9.479023e+00 1.559796e+01 -1.313713e+00 -1.213372e+00 2.973497e-01 5.945148e+00 6.039248e+00 2.063602e+00 -3.575704e+00 6.243867e-02 -1.672510e+00 -2.057517e+00 -1.449985e+00 -1.431442e+00 -4.574041e-01 1.950675e+00 -1.047017e+00 -8.506036e-01 4.031088e+00 1.046608e+00 5.024158e-01 2.693755e+00 -1.455938e-02 
8.494971e-01 -8.578067e-01 3.444268e+00 5.814672e-01 1.692241e+00 2.255147e+00 -3.647251e+00 -1.063325e+00 1.025543e+01 -6.120222e+00 2.760993e+00 3.648468e+00 2.038937e-01 -1.194268e+00 -4.340190e-01 -3.591545e+00 -2.416615e+00 -6.882547e-01 9.661137e-01 -1.876368e+00 -5.935568e-01 2.516689e+00 1.151205e+00 -1.919668e+00 1.237596e+00 -6.643534e-03 
-1.117890e+00 3.622450e+00 -2.948711e+00 2.291088e+00 1.122900e+01 4.827582e+00 -6.674833e+00 -2.317536e+00 8.822113e+00 2.891335e+00 -2.056767e+00 4.539105e+00 1.033981e-01 -9.985321e-01 2.316421e-01 -3.958960e+00 -2.966937e+00 3.452904e-01 -1.213506e+00 -7.774338e-01 4.041118e-01 -5.262021e-01 5.733485e-01 -2.098022e+00 -1.982889e+00 -2.436621e-02 
-3.465891e+00 7.048728e+00 -8.455306e+00 2.020050e+00 1.232886e+01 8.302336e-01 -6.667721e+00 -2.119015e+00 7.275540e+00 3.859877e+00 -8.345556e+00 -2.816499e+00 7.291448e-02 -1.089755e+00 1.418598e+00 -3.090604e+00 -2.545917e+00 2.705256e+00 -2.275494e+00 -3.580793e-01 9.716846e-01 -2.880068e+00 2.256726e+00 -7.206112e-01 -4.285831e+00 -6.012520e-02 
-2.699159e+00 3.327240e+00 -1.017670e+01 -6.074953e+00 1.200610e+01 -6.668788e+00 -3.590306e+00 2.845753e+00 4.804085e+00 3.915941e+00 -2.873234e+00 -1.025767e+01 6.097198e-03 -1.221003e+00 2.961796e-01 -6.973100e-01 -2.426749e+00 -5.135317e-02 -2.280234e+00 4.181927e-01 1.562259e+00 -1.691977e+00 5.193864e-01 4.617113e-01 -3.205208e+00 -5.420990e-02 
-3.808641e+00 6.382786e+00 -8.394758e+00 -7.965099e+00 1.482997e+01 -3.374136e+00 -6.979911e+00 1.213453e+00 -2.135891e+00 4.651103e+00 -4.338295e-01 -1.038230e+01 -4.808187e-02 -1.632346e+00 -1.823773e-01 1.001507e+00 -2.107998e+00 -7.894590e-01 -7.649819e-01 1.155436e+00 1.252036e+00 -9.790970e-01 2.466586e-01 1.302438e+00 6.587048e-01 -5.610248e-02 
-7.051532e+00 5.436318e+00 -6.465534e+00 -4.850081e+00 9.721679e+00 -4.471403e+00 -4.427775e+00 3.827523e+00 5.067943e+00 5.092653e+00 -3.704073e+00 -7.704034e+00 -1.071532e-01 -2.188595e+00 8.387893e-01 2.085426e+00 -3.175426e-01 -1.988042e+00 -3.057217e-01 1.498773e+00 8.973142e-01 -4.096545e-01 -4.249938e-01 6.968936e-01 3.622756e+00 -3.858577e-02 
-9.451435e+00 5.082302e+00 -5.303353e+00 -9.132378e+00 9.523773e+00 -4.093368e+00 -4.718047e-01 3.650282e+00 2.248126e+00 4.504813e+00 -1.417948e+00 -7.997900e-01 -1.509727e-01 -2.116386e+00 5.929962e-01 2.502535e+00 3.446835e-01 -3.071244e+00 -3.579480e-01 2.671651e+00 5.973487e-02 1.557694e-01 -2.178616e-02 6.795942e-01 4.274587e+00 -1.469817e-02 
-1.082074e+01 8.171429e+00 -1.295271e+00 -7.079026e+00 4.718991e+00 -7.837780e+00 6.495077e-01 6.113910e+00 5.638034e-01 1.864117e+00 1.103293e+00 3.064860e+00 -1.353862e-01 -1.323555e+00 9.886678e-01 2.191585e+00 3.125262e-01 -1.580047e+00 4.783596e-01 1.384714e+00 -1.141969e+00 2.584463e-01 1.334946e+00 8.740547e-01 2.643613e+00 -2.718329e-04 
-1.250597e+01 7.980212e+00 1.532783e+00 -5.127209e+00 1.975094e+00 -3.480687e+00 3.839705e+00 3.689347e-01 8.950256e-01 6.156440e+00 5.604579e-01 5.606185e+00 -1.074562e-01 -8.305404e-01 5.576125e-01 1.397942e+00 1.189800e+00 3.529338e-01 9.045961e-01 -1.427650e-01 -4.270596e-01 3.557721e-01 6.540506e-01 1.477578e+00 1.100127e+00 1.249015e-03 
-1.214204e+01 8.930702e+00 1.074321e+00 -5.290034e+00 5.595782e+00 -2.385945e+00 3.400379e-01 -2.416474e-01 7.036725e+00 1.094157e+01 -3.230027e-01 2.311044e+00 -1.302706e-01 -2.846060e-01 1.165645e-01 4.739439e-01 5.807498e-01 2.392152e+00 1.017365e+00 -1.123786e-01 7.461659e-01 1.677066e-01 -1.814260e-01 9.830227e-01 -2.467529e-01 -3.650022e-03 
-1.294348e+01 7.490727e+00 5.015607e-01 -4.077873e+00 1.085005e+01 -2.296304e+00 -1.030895e+00 4.692762e+00 7.905258e-01 3.236339e+00 6.683089e+00 5.077753e+00 -1.472855e-01 7.907867e-02 -4.388548e-01 -6.081800e-01 8.304092e-01 2.321978e+00 -3.517854e-01 -2.081373e-01 1.793722e+00 -7.997284e-02 -1.492339e+00 5.483353e-01 -1.030463e+00 -4.696799e-03 
-1.202501e+01 8.998993e+00 1.590059e+00 -4.699945e+00 1.224227e+01 -3.343147e+00 2.522915e+00 7.682826e+00 1.454586e+00 2.417037e+00 2.957091e+00 2.095311e+00 -1.337217e-01 1.081978e-01 -3.377821e-01 -5.687494e-01 1.492992e-01 7.984053e-01 4.089848e-01 6.410288e-01 2.407852e-01 -2.718339e-01 -1.623821e+00 -3.908414e-01 -5.856522e-01 2.110684e-03 
-1.216909e+01 5.751793e+00 -1.765986e+00 -1.270207e+00 1.026174e+01 -4.761014e+00 1.707580e+00 5.375310e+00 3.286231e+00 2.957009e+00 1.662087e+00 5.617354e-01 -1.292146e-01 5.213280e-02 -2.187479e-02 -1.501186e-01 1.369155e-01 -6.800485e-01 5.308696e-01 8.400259e-01 -1.041731e+00 -3.868987e-01 -5.377404e-01 -5.604231e-01 2.235018e-01 2.316094e-03 
-1.198825e+01 8.111259e+00 -6.356524e-01 -5.947371e+00 9.881964e+00 8.913331e-01 2.175944e+00 6.210049e-01 4.429703e+00 2.962130e+00 2.332911e-01 1.640791e+00 -1.287526e-01 -1.758886e-01 -8.331309e-02 -2.977276e-01 3.320497e-01 -9.884977e-01 7.731687e-01 -4.041399e-01 -8.965325e-01 -1.148367e+00 -1.184196e+00 -4.561252e-01 -2.231177e-01 5.663991e-04 
-1.270120e+01 7.825221e+00 8.638236e-01 -2.769583e+00 8.629959e+00 -1.759197e+00 3.342720e+00 3.015018e+00 -2.631526e+00 2.750905e-01 5.242874e+00 6.422523e+00 -1.381896e-01 2.155170e-02 7.078966e-01 -3.047230e-01 -5.449005e-01 -5.762461e-01 8.016499e-01 -8.412256e-01 -3.904248e-01 -7.914146e-01 -2.600682e-01 5.210975e-01 -4.734925e-01 -4.225254e-04 
-1.263840e+01 7.545713e+00 -1.213484e+00 -2.290010e+00 8.115673e+00 -9.782119e-01 -3.153548e-01 4.380309e+00 -1.328371e+00 -2.162982e+00 -1.113928e+00 -1.950671e+00 -1.264023e-01 3.983862e-01 3.896772e-01 -6.566815e-01 -8.398592e-02 -1.374156e-01 -6.581445e-01 -7.878908e-01 3.890043e-01 -5.522840e-01 7.512561e-01 9.367121e-01 -1.131499e+00 -3.939307e-03 
-1.173626e+01 9.574049e+00 -3.000685e+00 -5.823390e+00 8.263653e+00 1.820080e-01 -1.252899e+00 1.543534e+00 2.208194e+00 4.219224e+00 4.941184e+00 -9.996384e-03 -1.325024e-01 6.193358e-01 4.417558e-01 -4.588700e-01 -5.486639e-01 2.412732e-01 -4.374186e-01 -4.232702e-02 -3.992627e-02 1.704871e-01 1.790282e+00 8.350091e-01 -1.535643e+00 -3.403449e-03 
-1.047879e+01 9.185230e+00 -1.986805e+00 -4.840396e+00 9.378038e+00 -3.369992e+00 5.342999e-01 3.301769e+00 -7.515776e-01 4.746343e+00 5.067696e+00 -8.004453e-01 -1.512927e-01 4.371868e-01 2.167445e-01 4.753548e-01 4.237437e-02 4.193166e-01 -4.944902e-02 7.464066e-01 -7.689179e-01 -9.000055e-02 9.074467e-01 1.279644e+00 1.007373e+00 -3.916144e-03 
-1.068432e+01 9.214241e+00 -1.043866e+00 -4.237709e+00 9.205143e+00 -2.750400e+00 2.706258e+00 3.354657e+00 -2.067487e+00 5.771840e+00 6.327107e+00 -1.830806e+00 -1.427616e-01 1.418659e-01 9.622018e-02 7.149605e-01 4.319095e-01 1.972673e-01 -4.910053e-01 9.723835e-01 -2.419728e-01 -6.098755e-01 -5.815295e-01 -4.352309e-01 7.935287e-01 4.737496e-04 
-1.097843e+01 8.809340e+00 1.848804e-01 -2.870979e+00 9.741511e+00 2.407470e-01 1.437100e+00 -3.698421e-01 3.594673e-01 1.597943e+00 4.591331e+00 3.996599e+00 -1.408534e-01 -5.948763e-02 -1.592040e-01 3.579333e-01 6.194508e-01 1.202011e-01 5.968505e-01 5.896438e-01 -3.496390e-01 2.334962e-01 -7.151319e-01 -1.005807e+00 1.808724e+00 8.515561e-03 
-1.077711e+01 1.024310e+01 -5.117258e-01 -4.648552e+00 9.068253e+00 -4.078388e+00 3.157619e+00 2.169475e+00 -1.396706e+00 2.885777e+00 3.003212e+00 1.559125e+00 -1.353533e-01 -1.790423e-01 -2.353633e-01 5.458170e-01 5.789798e-01 2.200605e-01 7.358782e-02 3.514526e-01 8.708795e-01 2.307242e-01 -6.646113e-01 -5.068618e-01 1.739199e+00 5.270374e-03 
-1.072983e+01 7.874784e+00 -4.632086e-01 -1.537721e+00 1.004749e+01 2.782547e-01 3.256838e+00 2.146164e+00 8.051264e-02 2.613715e+00 1.700608e+00 6.548211e+00 -1.124190e-01 -2.377534e-01 -2.347667e-01 6.169754e-01 4.362194e-01 1.906094e-01 -3.606749e-01 4.629137e-01 1.792336e+00 -1.645395e-01 -2.589720e-02 3.528605e-01 7.215830e-01 2.517939e-03 
-1.170383e+01 8.504703e+00 2.009263e+00 -2.009439e+00 1.015246e+01 -2.401215e+00 3.553652e+00 6.451051e+00 -7.743886e-01 1.940897e+00 5.238160e+00 5.589385e+00 -1.306269e-01 -2.827454e-01 -2.846866e-01 7.514449e-01 4.806509e-01 2.273374e-01 6.748779e-02 1.088879e-01 1.286804e+00 3.897326e-02 -2.562578e-01 8.007447e-01 7.101693e-01 -8.755088e-04 
