1.984596e-02 9.523110e-01 2.855188e+00 -4.622238e-01 3.020109e+00 1.652330e+00 1.950687e+00 -8.939481e-01 5.270460e+00 1.694811e+00 2.848533e+00 1.120774e+00 -1.512927e-01 -1.557520e-01 -3.755108e-01 -7.983990e-01 -6.137410e-01 5.560851e-03 -6.649977e-03 -1.301842e+00 -9.837219e-01 -1.082629e+00 -1.677398e-01 -1.327937e-02 -6.062102e-02 0.000000e+00 
7.011452e-01 1.075467e-01 1.187077e-01 -2.142143e+00 2.999177e+00 2.577200e+00 -9.246678e-01 -1.445042e+00 6.403565e-01 1.553625e+00 4.256680e+00 5.740976e+00 -1.512927e-01 -2.462454e-01 -3.662555e-01 -6.713902e-01 -6.326668e-01 -3.202334e-01 -6.993551e-01 -1.357288e+00 -1.266770e+00 -9.595910e-01 -4.262875e-01 1.515301e-01 3.637842e-01 0.000000e+00 
-1.099564e+00 -5.028604e-01 2.314336e-01 -2.690969e+00 3.058380e+00 1.156645e+00 -3.120847e+00 -5.537011e+00 2.172364e+00 9.267049e-01 2.078063e+00 -1.492432e+00 -1.512927e-01 -1.571438e-01 -2.806170e-02 5.495688e-02 -2.554016e-01 1.732227e-01 2.719975e-03 -3.082133e-01 -2.922775e-01 -1.170384e-01 -2.734951e-01 -1.122785e+00 -1.904815e-01 0.000000e+00 
-6.516762e-01 -1.513809e-01 8.101149e-01 -2.511185e+00 1.399807e+00 -1.596603e+00 -2.299986e+00 -4.906267e+00 2.021552e+00 -5.257368e-02 3.991419e+00 4.246298e+00 -1.512927e-01 1.835577e-01 4.303557e-01 7.528530e-01 4.602684e-01 8.982347e-01 1.014297e+00 7.063104e-01 5.160222e-01 9.177173e-01 -6.571571e-01 -1.527766e+00 -7.295923e-01 0.000000e+00 
-8.946228e-02 9.414663e-01 2.784269e+00 -1.554711e+00 4.685907e+00 3.752831e+00 1.097280e+00 -6.247234e-01 3.994670e+00 1.130434e+00 -2.632761e+00 9.157056e-01 -1.512927e-01 4.883102e-01 6.046702e-01 5.018026e-01 5.440570e-01 1.743572e+00 2.006130e+00 1.699396e+00 1.553171e+00 9.235749e-01 -8.322282e-02 -3.856412e-01 8.999987e-01 0.000000e+00 
1.113883e+00 1.537162e+00 2.606555e+00 -4.089303e-01 6.676587e+00 6.350594e+00 4.978206e-01 -1.321075e+00 4.317790e+00 -1.834025e+00 -1.026738e+00 8.889463e-01 -1.512927e-01 1.337435e-01 5.144678e-01 3.469346e-01 1.004086e-02 1.658158e+00 9.534254e-01 4.376505e-01 3.287784e-01 1.061646e+00 3.444295e-01 -1.271725e-01 -9.532644e-01 0.000000e+00 
4.592075e-01 1.676219e+00 1.842227e+00 -1.021812e+00 9.137849e+00 7.213696e+00 3.977231e+00 4.362500e-01 5.642120e+00 1.401317e+00 2.658936e+00 4.686236e+00 -1.512927e-01 -7.214956e-02 1.823002e-01 -6.969777e-02 -2.772861e-01 3.955058e-01 -3.883740e-01 -4.105256e-01 -7.748240e-01 1.028883e-01 7.673778e-01 1.062301e+00 -7.760912e-01 0.000000e+00 
-2.572937e-01 2.053582e+00 3.015809e+00 -2.727430e+00 7.464626e+00 1.440092e+00 -1.551708e+00 -3.792861e+00 6.506058e+00 1.534132e+00 7.097082e-01 -2.405289e+00 -1.512927e-01 -1.925964e-01 -1.104359e+00 -1.128848e-01 -2.523912e+00 2.269059e+00 1.079590e+00 -3.215467e+00 -1.325777e+00 -4.674024e-01 8.710144e-01 1.600090e-01 2.859793e-02 2.717843e-02 
2.353783e-01 1.594757e+00 2.231153e+00 -1.781892e+00 6.269417e+00 4.266212e+00 6.941605e-02 -3.262951e+00 3.414977e+00 3.283244e+00 1.810519e+00 -1.317633e+00 -1.512927e-01 2.048002e-01 -1.093303e+00 -1.421833e-02 -1.884641e+00 2.519186e+00 1.837401e+00 -3.403560e+00 -4.649587e-01 -4.281957e-01 1.182405e-01 -3.598843e-01 -5.408300e-01 1.358922e-02 
2.628155e-01 -3.943903e+00 1.847668e+00 -1.264845e+01 1.945610e+01 1.322228e+01 -1.362561e+01 -6.100358e+00 3.094350e+00 1.580083e+00 1.975152e-01 4.033870e+00 -1.540053e-02 1.020681e+00 -1.059701e+00 -1.749536e+00 5.968863e-01 2.171481e+00 -4.695173e-01 -1.383192e+00 -1.044222e+00 -2.937622e-02 -9.270198e-01 -9.050975e-01 1.226445e+00 7.497072e-04 
1.223154e+00 -7.915528e-01 2.355206e+00 -5.484506e+00 1.573804e+01 1.050961e+01 -7.003621e+00 -7.347949e-01 5.206995e+00 1.969544e+00 1.115611e+00 -1.237493e+00 -1.512927e-01 7.996262e-01 -5.306493e-02 -2.195677e+00 2.657743e+00 1.288649e+00 -3.537947e+00 4.976043e-01 -2.023868e+00 1.008143e+00 -1.190786e+00 -1.337426e+00 1.517674e+00 1.442937e-02 
4.352222e+00 -2.051766e+00 -5.793897e+00 2.108309e+00 1.358772e+01 -4.029191e+00 -4.931152e+00 -1.027805e+01 5.463168e+00 -2.444116e+00 -3.468325e+00 3.686866e+00 -1.475441e-01 -3.314439e-01 5.057925e-01 -5.781158e-01 3.495762e+00 -2.343940e+00 -4.205781e+00 3.376784e+00 -2.906610e-01 8.833548e-01 -6.217707e-01 -3.602512e-01 4.845390e-01 -1.335657e-02 
2.188806e+00 3.833643e-01 -4.926451e+00 4.128443e+00 1.564685e+01 -4.797785e+00 -1.789790e+00 -1.129345e+01 7.271282e+00 -6.585834e-01 -3.043693e+00 6.444241e+00 -1.307404e-02 -6.607491e-01 5.776408e-01 9.887120e-01 4.969039e-01 -2.814000e+00 -2.593915e-01 2.144123e+00 1.766125e-01 2.666450e-01 -3.156979e-01 1.236807e+00 5.996065e-01 -3.748536e-04 
-1.877230e+00 -2.002399e+00 2.597917e+00 2.388477e-02 7.781992e+00 -1.529293e-01 6.513977e-01 -2.274338e+00 6.478981e+00 -2.147067e-01 4.759108e-01 2.615699e+00 -1.512927e-01 -1.032523e+00 8.430316e-01 2.501869e+00 -1.370012e+00 -2.781475e+00 3.058780e+00 2.232285e+00 2.740839e+00 4.327968e-01 9.867085e-01 1.512489e+00 -1.090478e-01 -1.457157e-02 
1.034135e+00 2.071967e+00 3.102859e+00 -1.957774e+00 4.570907e+00 7.274516e+00 9.257196e-01 -3.853587e+00 6.032314e+00 -7.236505e-01 5.327530e+00 2.296124e+00 -1.512927e-01 -2.775513e-01 3.491116e-01 1.524694e+00 -1.615392e+00 -3.083999e+00 1.327825e+00 1.247371e+00 2.132731e+00 -7.361765e-01 1.039485e+00 9.806887e-01 -1.133947e+00 -2.764373e-02 
-2.330551e-01 1.319090e+00 2.700793e+00 -1.698644e+00 5.218318e+00 5.228558e+00 4.872519e+00 -2.937844e-01 8.246635e+00 2.521960e+00 -9.149364e-02 5.215685e+00 -1.512927e-01 1.347966e+00 9.551561e-01 -1.282592e-01 3.787099e-01 -1.050170e+00 -2.301889e+00 -1.360841e-01 1.109368e+00 -3.767246e-01 -2.092098e+00 -9.833746e-01 -8.630481e-01 0.000000e+00 
-2.103806e-02 4.681780e-01 2.645581e+00 -3.087253e+00 1.508694e+00 -8.494043e-01 2.336502e+00 -1.620069e+00 2.706572e+00 3.170507e+00 2.143453e+00 -5.254886e-01 -1.512927e-01 2.131695e+00 1.096908e-01 -9.166843e-01 1.800199e+00 1.669185e-01 -3.349735e+00 -4.290785e-01 1.371437e+00 -9.856634e-01 -3.898422e+00 -1.390016e+00 -1.297303e+00 1.172216e-02 
5.390189e+00 3.575276e+00 2.185259e+00 2.482173e+00 4.062251e+00 -7.600414e+00 -7.344143e-01 2.155741e+00 6.258228e+00 -1.262227e+01 -2.848924e+00 -2.887357e-01 -1.512927e-01 2.118379e+00 -1.302805e+00 -2.001029e+00 2.269180e+00 4.429780e-01 -1.700966e+00 -7.185218e-01 -1.344769e-01 -2.449106e+00 -1.789686e+00 1.367640e+00 -7.803350e-01 2.092410e-02 
8.880989e+00 1.492328e+00 -1.222795e+00 4.952809e+00 5.983533e+00 -3.059672e+00 1.583793e+00 1.778833e+00 2.098201e+00 -1.264364e+01 -2.438323e-01 -1.438178e+00 -9.268188e-02 2.113270e-01 -1.720463e+00 -1.143519e+00 1.941849e+00 -6.698164e-01 1.184305e+00 9.514632e-01 -7.561307e-02 -7.933630e-01 1.020282e+00 2.327544e+00 6.264887e-01 6.417110e-02 
5.907825e+00 -5.707010e+00 -5.370161e+00 5.627227e+00 5.195789e+00 -2.171140e+00 1.656264e+00 -2.665620e+00 -3.694710e+00 1.480603e+00 7.940352e+00 1.770355e+00 -7.597756e-02 -3.111266e+00 -6.499527e-01 -9.570321e-01 9.675951e-02 -1.859367e+00 1.770072e+00 4.585790e-01 5.527055e-01 -6.489900e-01 3.882340e+00 1.985995e+00 3.437915e-01 1.548228e-01 
7.767792e-01 -3.492995e+00 7.056992e-01 5.049468e+00 -2.407157e+00 2.357484e+00 5.898479e+00 4.125459e-01 3.716226e+00 1.220478e+00 8.386534e+00 1.577409e+00 1.319053e-01 -4.960865e+00 2.139973e+00 -4.917493e-01 -1.176555e-01 -1.270557e+00 1.765249e+00 1.070617e+00 1.061459e+00 1.512257e+00 2.512444e+00 -5.194628e-01 6.103316e-01 2.114073e-01 
-6.114035e+00 2.818174e+00 -3.564149e+00 2.917641e+00 -1.039237e+00 -1.458632e+00 -5.988624e-01 5.602412e+00 2.204266e+00 -1.426348e-01 2.765866e+00 -7.757232e-02 5.105275e-01 -4.527777e+00 3.947411e+00 -1.838098e+00 1.499397e-01 -7.635476e-01 6.988580e-01 6.725584e-01 -5.075828e-01 1.579496e+00 -9.767873e-01 -2.155745e+00 2.945313e-01 2.144718e-01 
-9.912409e+00 7.929604e+00 -4.584548e+00 5.719325e+00 2.748260e+00 5.410320e+00 8.064444e+00 2.952110e+00 6.710000e+00 7.301962e-01 -2.539035e-01 2.537443e+00 6.711023e-01 -2.963926e+00 3.033008e+00 -2.989206e+00 8.718999e-01 5.845159e-01 5.288772e-01 2.995263e-01 -1.968773e+00 -1.014874e-01 -5.234900e-01 -1.895334e+00 2.494361e-02 1.505624e-01 
-1.138647e+01 8.318745e+00 -1.191553e+01 6.041997e+00 -1.199657e+00 -2.032681e-01 3.936074e+00 -6.473316e+00 2.705883e+00 -3.158193e+00 1.481848e+00 2.762995e+00 7.267830e-01 -1.359400e+00 1.311447e+00 -2.504791e+00 6.351054e-01 -3.683273e-01 1.161261e+00 -2.178885e-01 -1.504671e+00 4.958713e-02 3.951299e-01 -3.917739e-01 -4.093480e-01 8.339883e-02 
-1.140663e+01 8.921761e+00 -1.006464e+01 7.846790e+00 5.956326e-01 4.374188e+00 5.128642e+00 -3.393453e+00 2.957981e+00 1.108070e-01 -4.481288e-01 2.818438e-01 7.765896e-01 -3.266321e-01 -3.284521e-02 -1.416097e+00 -7.732353e-01 -1.560060e+00 -7.064188e-01 -2.437232e+00 1.125607e+00 -1.258060e+00 7.632564e-01 7.102169e-01 -6.389354e-01 5.217214e-02 
-1.216392e+01 8.879333e+00 -1.334805e+01 5.029436e+00 -1.804560e+00 4.865738e+00 -2.204044e-01 1.251836e+00 4.328211e+00 2.142709e+00 9.041090e-01 -9.965126e-01 8.747780e-01 5.433331e-02 -6.463376e-01 1.156996e+00 -7.097359e-01 -6.734432e-01 6.622477e-02 -7.902362e-01 3.331113e+00 -1.717743e+00 8.278222e-01 -1.240754e-02 -6.420223e-01 3.851403e-02 
-1.115684e+01 7.485084e+00 -1.094877e+01 2.359429e+00 -4.749586e+00 -6.562772e-01 -2.043480e+00 4.717570e+00 -3.914647e-01 1.896027e+00 3.586051e+00 1.222520e+00 8.579655e-01 -4.688072e-03 -1.037956e+00 1.246378e+00 -1.354894e+00 -7.831215e-01 -3.002346e-01 -9.510595e-01 1.563221e+00 -2.057179e+00 5.698223e-01 8.535001e-01 -6.530786e-01 2.079839e-02 
-1.123970e+01 5.805395e+00 -5.688481e+00 5.236998e+00 -1.894264e+00 2.643088e+00 3.570955e+00 6.126741e+00 -4.208109e+00 8.830792e-02 -5.972792e-01 -9.174543e-01 8.786651e-01 -2.395906e-01 -7.818470e-01 1.468884e+00 -5.996922e-01 1.069342e+00 9.169777e-01 -1.665017e-01 9.152985e-02 -1.849276e+00 1.452948e+00 7.592691e-01 -5.256665e-01 8.338344e-03 
-1.189219e+01 5.268950e+00 -7.662539e+00 9.685380e-01 -3.275123e+00 3.984340e+00 -1.522334e+00 1.985199e+00 -3.059757e+00 3.987119e+00 4.570066e+00 -3.023078e+00 8.786379e-01 -2.940969e-01 -1.421494e-01 4.773918e-01 -4.265036e-02 1.498487e+00 1.630278e+00 9.490670e-01 -6.150039e-01 -1.135489e+00 3.850720e-01 -2.795014e-01 2.067968e-01 8.506382e-03 
-1.299420e+01 6.078164e+00 -7.646750e+00 2.726420e+00 2.804918e+00 7.130318e+00 -1.313486e+00 3.075671e+00 -3.584020e+00 8.361903e+00 4.208447e+00 -1.502046e+00 9.061335e-01 -2.579931e-01 1.943451e-01 -6.677350e-01 -5.065559e-01 7.216647e-01 9.596246e-01 4.393592e-01 -1.235115e+00 2.113878e-01 1.194284e-01 -1.662129e-01 7.749780e-01 -3.407669e-03 
-1.175007e+01 6.637952e+00 -7.582676e+00 3.401466e+00 3.932595e-01 5.251497e+00 5.144075e+00 3.168085e+00 -6.380954e+00 -3.154111e-01 -2.143191e-01 2.548800e+00 8.867632e-01 2.516691e-01 5.048077e-01 2.017763e-01 2.657001e-01 2.609628e-01 1.270228e-01 3.704011e-01 -8.491041e-01 2.673304e-01 -9.807037e-01 -6.560969e-01 1.089808e+00 -2.044916e-04 
-1.260072e+01 6.092620e+00 -9.067088e+00 1.487755e+00 -1.201320e-01 6.807633e+00 2.434546e+00 -6.402762e-01 -1.490571e+00 2.836715e+00 9.638488e-01 1.714969e-01 8.575642e-01 8.018392e-01 7.894508e-01 -2.726719e-01 1.404663e-01 -7.132845e-01 -4.441346e-01 5.453162e-01 -1.737753e+00 -4.628214e-01 -9.668709e-01 2.277088e-01 3.261135e-01 8.914465e-03 
-1.083058e+01 7.785761e+00 -5.943489e+00 2.916371e+00 -5.077834e-01 4.780797e+00 -1.544345e+00 -4.023476e-01 -2.769830e+00 1.846195e+00 2.911880e+00 1.589189e+00 9.019001e-01 3.000652e-01 3.814960e-01 -1.105613e+00 1.262111e-01 -7.066014e-01 -1.145075e+00 -7.922692e-01 -2.250383e+00 -2.086985e-01 3.373656e-01 9.171025e-01 -6.994554e-02 2.035431e-02 
-9.444752e+00 9.451513e+00 -9.829703e+00 3.671299e+00 -3.109827e-01 5.144995e+00 4.757305e+00 -3.827880e+00 -7.703690e+00 2.446746e+00 3.783891e+00 6.083270e-01 9.431373e-01 8.235218e-01 9.679922e-01 -7.182563e-01 1.120953e+00 4.264199e-01 -6.651796e-01 -1.209574e-01 -1.089706e+00 7.027545e-02 -4.502303e-01 -2.444435e-01 5.642266e-01 2.431637e-02 
-1.182773e+01 6.865985e+00 -1.272943e+01 2.940749e+00 -3.044322e+00 3.574400e-01 2.134895e-02 -6.490026e+00 -4.317887e+00 1.566401e+00 2.961172e+00 1.980657e+00 9.457482e-01 2.807150e-01 4.547130e-01 -7.161548e-01 3.862283e-01 -1.208784e-01 -1.988568e-01 8.206917e-01 4.807836e-01 8.346844e-02 6.370966e-01 -8.597636e-01 9.306439e-01 2.102844e-02 
-7.984537e+00 1.139247e+01 -9.265398e+00 7.080330e+00 3.280237e+00 5.693414e+00 1.046912e+00 -3.044967e+00 -3.651652e-01 7.254604e-01 -2.830150e-01 2.796896e+00 9.572220e-01 -5.840524e-01 1.143073e-01 8.977857e-01 1.728236e-01 -2.744232e-01 -9.634295e-01 2.626882e-01 1.733133e+00 9.761349e-01 1.321287e+00 -6.960555e-01 3.426788e-01 1.642124e-02 
-1.015712e+01 9.088848e+00 -9.806416e+00 3.142997e+00 -2.907785e+00 3.512304e+00 4.414310e+00 1.610114e+00 -6.021749e+00 5.892321e+00 6.465150e-01 5.148124e+00 1.000000e+00 5.186711e-02 -4.624890e-01 1.904990e+00 2.663411e-01 -8.237046e-01 -4.202743e-01 8.355519e-01 1.935933e+00 -5.940639e-01 3.391592e-01 1.936864e-01 4.039233e-01 -4.034221e-04 
-1.320032e+01 8.911618e+00 -6.802283e+00 4.434293e+00 -1.751367e+00 -1.249584e+00 3.874265e+00 7.877135e-01 -1.971084e+00 6.890221e+00 1.460942e+00 7.379873e-01 9.981176e-01 1.882311e+00 -1.199416e+00 2.868960e+00 -5.687335e-01 -2.221034e+00 -2.679848e+00 -1.288365e+00 -8.503484e-01 -2.185813e+00 -2.115771e+00 -8.680513e-02 -1.564623e+00 -7.570849e-02 
-8.960503e+00 5.793965e+00 -4.436043e+00 5.595473e+00 -4.647043e+00 1.727567e+00 2.785431e+00 1.273302e+00 -6.485248e+00 1.798168e-01 3.057626e+00 5.029727e+00 9.232832e-01 6.374644e+00 -3.146037e+00 4.737645e+00 -7.923298e-01 -2.615278e+00 -3.477882e+00 -4.194357e+00 -1.335151e+00 -2.719294e+00 -3.120670e+00 -8.336090e-01 -2.588073e+00 -1.016449e-01 
8.287125e-01 7.042828e+00 2.394216e+00 3.010424e+00 -6.955305e+00 -6.813458e+00 -4.580474e+00 -7.128303e+00 -1.106248e+01 -6.997144e+00 -1.922596e+00 -4.967021e+00 6.170379e-01 7.893786e+00 -4.560917e+00 4.637748e+00 -2.259614e+00 -3.698044e+00 -3.480634e+00 -4.776757e+00 3.363158e-01 -3.826318e+00 -1.114119e+00 -1.750316e+00 -1.479954e+00 -6.282681e-02 
1.470159e+01 -5.706940e+00 9.283562e+00 -1.067178e-01 -1.338221e+01 -1.109517e+01 -1.233010e+01 -1.107634e+00 -1.507252e+01 -2.767344e+00 -1.829761e+00 -4.939738e+00 6.823156e-01 6.020443e+00 -4.656412e+00 3.757386e+00 -2.636962e+00 -3.239655e+00 -2.722348e+00 -2.934735e+00 1.756538e+00 -2.500476e+00 1.515045e+00 -2.108872e+00 -1.240290e+00 -3.489607e-03 
1.443756e+01 -8.142515e+00 9.526654e+00 -4.012679e+00 -1.587400e+01 -1.224138e+01 -1.245175e+01 3.659760e+00 -1.680904e+01 2.793204e+00 -4.846945e+00 -1.677052e+00 8.044674e-01 2.728853e+00 -4.072039e+00 1.922374e+00 -2.000615e+00 -2.414464e+00 1.646639e-01 -2.159214e-01 2.993752e+00 -6.101759e-01 2.341509e+00 -4.171263e-01 5.308769e-01 5.567424e-02 
1.433729e+01 -9.895421e+00 1.078467e+01 -4.077786e+00 -1.638597e+01 -9.170210e+00 -7.952604e+00 4.661958e+00 -1.611435e+01 2.859868e+00 -6.024559e+00 -2.816707e+00 8.121204e-01 2.415117e-01 -1.917134e+00 1.109949e+00 -2.009961e+00 -7.484783e-01 1.119199e+00 1.583949e+00 1.472411e+00 5.744459e-01 1.583425e+00 5.342824e-01 3.852854e-01 3.896411e-02 
1.465513e+01 -1.122312e+01 1.125553e+01 -5.007113e+00 -1.752575e+01 -6.952619e+00 -7.848831e+00 4.955661e+00 -1.359245e+01 1.896793e+00 -1.910828e+00 -3.374152e+00 8.305067e-01 3.410124e-01 -1.424983e+00 1.053777e+00 -2.150465e+00 3.487015e-02 8.587864e-01 2.090262e+00 3.660278e-01 1.076398e+00 1.070720e+00 1.465337e+00 3.643126e-02 1.991770e-02 
1.580036e+01 -1.375230e+01 1.396887e+01 -9.659307e+00 -1.629873e+01 -8.143560e+00 -6.711819e+00 5.606472e+00 -1.380859e+01 5.597987e+00 -6.264068e-01 -2.164761e+00 8.641165e-01 1.527758e-01 -8.010427e-01 5.339241e-01 -2.277282e+00 1.755745e-01 3.436108e-01 1.698744e+00 3.510809e-01 9.683586e-01 1.079386e+00 1.535237e+00 3.792156e-02 1.963148e-02 
1.541109e+01 -1.333899e+01 1.320344e+01 -1.197424e+01 -1.574327e+01 -8.460777e+00 -2.620835e+00 5.017642e+00 -1.257993e+01 6.777743e+00 -2.193370e-01 -1.820869e+00 8.780578e-01 -1.776346e-01 -1.903742e-01 1.332610e-01 -1.707406e+00 3.443939e-01 1.993089e-01 2.225907e+00 9.676647e-03 7.188366e-01 8.844227e-01 2.908049e-01 1.089203e-01 1.163418e-02 
1.472319e+01 -1.284270e+01 1.248034e+01 -1.198063e+01 -1.639933e+01 -6.698077e+00 -2.072884e+00 6.386372e+00 -1.177882e+01 5.816321e+00 8.058807e-01 -3.403740e+00 8.865023e-01 -4.406267e-01 3.997723e-01 -3.801580e-01 -4.851616e-01 1.291311e-01 5.627730e-01 2.060558e+00 -3.914673e-01 9.834610e-01 -1.948531e-01 -1.590414e-01 -1.744302e-01 -1.086414e-03 
1.430555e+01 -1.262980e+01 1.266610e+01 -1.238348e+01 -1.575347e+01 -6.678816e+00 9.612350e-01 4.614094e+00 -1.101315e+01 6.209740e+00 -1.172948e+00 -2.210061e+00 8.774847e-01 -4.655558e-01 3.009288e-01 -2.531492e-01 6.980877e-02 1.506262e-01 4.829367e-01 1.014955e+00 -8.949637e-02 6.880420e-01 -4.865335e-01 -4.505661e-01 -4.794829e-01 -9.253895e-03 
1.415000e+01 -1.210804e+01 1.233675e+01 -1.188050e+01 -1.564797e+01 -6.220675e+00 1.799938e+00 3.850909e+00 -9.674671e+00 4.907723e+00 -9.448084e-01 -2.842316e+00 8.589710e-01 -5.013930e-01 7.678948e-02 -2.173882e-01 3.559140e-01 1.538589e-01 1.875322e-01 2.614623e-01 3.650529e-01 1.712311e-01 -9.456134e-02 -5.722551e-01 -4.921114e-01 -1.001550e-02 
1.336990e+01 -1.220168e+01 1.200949e+01 -1.167527e+01 -1.536582e+01 -6.284794e+00 5.175295e-01 5.837892e+00 -1.019179e+01 4.799374e+00 -1.596823e+00 -4.498996e+00 8.455540e-01 -4.802935e-01 -2.459602e-01 -3.973784e-01 4.791330e-01 -2.902851e-02 9.775257e-02 -3.150596e-01 9.182674e-01 -4.321565e-01 -8.466430e-02 -8.946328e-02 -7.644922e-01 -7.978874e-03 
1.268404e+01 -1.267281e+01 1.172171e+01 -1.055517e+01 -1.582386e+01 -5.957427e+00 -5.437202e-01 7.599738e+00 -1.133334e+01 6.048697e+00 -1.843457e+00 -4.719830e+00 8.523901e-01 2.431283e-01 -6.623718e-01 -6.553901e-01 4.930995e-01 -1.856167e-01 1.448259e-02 -7.940476e-02 5.373085e-01 -1.002782e+00 1.949608e-01 -1.350722e-01 -7.133589e-01 -2.112677e-02 
1.263706e+01 -1.357721e+01 1.098673e+01 -1.065048e+01 -1.581067e+01 -6.321678e+00 5.577662e-01 7.331017e+00 -1.234459e+01 5.215931e+00 -1.170939e+00 -5.093765e+00 8.408808e-01 1.058527e+00 -5.768755e-01 -9.536859e-01 2.554903e-01 -5.342072e-01 6.918621e-02 8.226196e-02 -3.982801e-01 -9.971145e-01 -4.056221e-01 -3.056622e-01 -8.874574e-01 -4.315970e-02 
1.573207e+01 -1.473213e+01 9.571174e+00 -9.927392e+00 -1.635363e+01 -6.129820e+00 1.382796e+00 5.790889e+00 -1.361218e+01 5.674249e+00 -1.833111e+00 -6.111726e+00 7.556738e-01 1.505416e+00 -6.237888e-01 -8.979955e-01 -5.732670e-02 -1.019619e-01 -6.673660e-02 2.882766e-01 -8.064905e-01 -8.998128e-01 -1.199659e+00 -4.059562e-01 -1.471475e+00 -5.213001e-02 
1.713853e+01 -1.405640e+01 8.316325e+00 -1.071170e+01 -1.777197e+01 -5.852666e+00 -3.441882e-02 4.750916e+00 -1.403794e+01 2.958488e+00 -3.130307e+00 -8.240335e+00 6.781136e-01 1.412809e+00 2.239793e-01 -6.632510e-01 3.693167e-01 7.775648e-01 -9.250277e-01 3.466550e-01 -1.193365e+00 -4.227739e-01 -1.653406e+00 -1.339927e-01 -1.794950e+00 -5.453996e-02 
1.796039e+01 -1.555216e+01 8.566932e+00 -1.081119e+01 -1.535302e+01 -6.525615e+00 1.193755e+00 4.857336e+00 -1.498573e+01 1.179122e+00 -2.893554e+00 -1.050392e+01 6.731236e-01 7.521864e-01 6.517868e-01 3.207159e-03 1.202579e+00 1.205710e+00 -1.577653e+00 6.753108e-01 -8.636667e-01 -6.721533e-01 -1.718200e+00 -1.464426e-01 -1.968495e+00 -4.795656e-02 
1.858694e+01 -1.204729e+01 8.172598e+00 -8.361996e+00 -1.242315e+01 -1.074892e+01 2.385561e+00 1.830966e+00 -1.377169e+01 -8.035359e-01 -1.310681e+00 -1.187242e+01 6.094561e-01 -1.489705e-01 2.440766e+00 1.051499e+00 2.319234e+00 1.710923e+00 -1.902212e+00 2.366726e-01 -1.282734e+00 -1.688158e-01 -2.319949e+00 -1.465351e+00 -1.503777e+00 -8.988041e-02 
1.876879e+01 -1.247775e+01 9.659073e+00 -5.089354e+00 -1.299950e+01 -1.156996e+01 3.549360e+00 2.932531e+00 -1.710608e+01 -1.035740e+00 -3.475137e+00 -1.413816e+01 5.502198e-01 -2.069060e+00 2.931098e+00 1.904457e+00 4.775753e+00 3.848212e+00 2.991432e-01 7.617995e-01 -1.600360e+00 1.067820e+00 -2.394979e+00 -1.952462e+00 1.046880e+00 -1.445473e-01 
1.598947e+01 -3.389774e+00 1.302775e+01 -1.976450e+00 -1.039412e+01 -1.284155e+01 -2.885842e-02 -7.003522e-01 -1.382185e+01 -7.533828e+00 -1.016627e+01 -1.394210e+01 2.901635e-01 -3.302219e+00 3.426407e+00 1.288595e+00 5.834017e+00 4.738865e+00 1.658724e+00 5.382100e-01 -8.746058e-01 1.856379e+00 -9.884214e-01 8.107051e-01 4.031301e+00 -1.961684e-01 
8.913823e+00 -5.225432e+00 1.566164e+01 9.874804e+00 2.873520e+00 -3.983583e+00 6.209962e+00 -1.878804e+00 -9.621551e+00 -7.430630e+00 -8.228068e+00 -4.234676e+00 1.100333e-01 -4.019095e+00 3.900622e+00 -9.919779e-01 3.359665e+00 4.889455e+00 3.309404e+00 -1.258053e-01 -1.336759e+00 3.907183e+00 5.551757e-01 3.217647e+00 4.517374e+00 -1.844481e-01 
7.003331e+00 1.458581e+00 1.161429e+01 1.332601e+01 3.334664e+00 -6.248489e+00 3.746311e+00 -1.363955e-01 -8.232054e+00 -2.548198e+00 5.119309e+00 3.332349e+00 -1.512927e-01 -3.717888e+00 2.089032e+00 -3.464420e+00 -4.085121e-01 2.798330e+00 3.689645e+00 1.563543e-01 1.442532e+00 4.810475e+00 3.125383e+00 3.820377e+00 2.299240e+00 -1.144238e-01 
3.166384e+00 4.601185e+00 5.405912e+00 4.057743e+00 4.583387e+00 1.680526e+00 1.032749e+00 -4.033243e+00 -3.650596e-01 -7.526765e-01 4.970310e+00 -1.885128e-01 -1.512927e-01 -2.335159e+00 1.441870e+00 -3.430986e+00 -2.800164e+00 2.701750e-01 1.091220e+00 -1.006107e+00 1.631647e+00 3.602865e+00 1.392620e+00 1.550524e+00 7.665858e-01 -5.226520e-02 
2.737503e-01 2.142077e+00 8.335158e-01 -1.110480e+00 2.742596e+00 2.774618e+00 3.341520e+00 7.589527e+00 5.602279e+00 4.754111e+00 2.336426e+00 -4.468983e+00 -1.512927e-01 -1.622772e+00 -2.708701e-01 -2.255179e+00 -2.329340e+00 2.965985e-01 1.272113e+00 2.125046e-02 1.085930e-01 2.601562e+00 7.193669e-01 -9.335428e-01 5.275830e-01 0.000000e+00 
6.028194e-01 1.642170e+00 3.897098e+00 3.092231e+00 4.520430e+00 -3.039039e+00 1.381822e+00 2.416472e+00 1.475609e+00 -4.118683e+00 9.159956e-01 3.498919e+00 -1.512927e-01 -7.534807e-01 -5.484702e-01 -4.612850e-01 -1.838980e-01 5.766052e-01 6.961897e-01 5.933551e-01 -4.762284e-01 1.211256e+00 1.179340e+00 1.130165e-01 2.218861e+00 0.000000e+00 
1.712551e-01 1.583738e+00 1.092801e+00 2.162065e+00 4.849136e+00 2.471860e+00 3.678026e+00 -2.818288e+00 3.855424e+00 2.731639e+00 2.478752e+00 4.126548e+00 -1.512927e-01 -3.180374e-01 -4.608233e-02 6.713753e-01 8.319651e-01 1.069306e+00 3.367392e-01 -7.940182e-01 -2.763305e+00 -5.588247e-01 1.205674e+00 9.527416e-01 2.069409e+00 0.000000e+00 
-5.497723e-01 2.138004e+00 2.969845e+00 1.501980e+00 6.413143e+00 5.312854e+00 3.831271e+00 -1.210478e+00 6.564648e+00 6.155260e+00 5.464229e+00 6.608027e+00 -1.512927e-01 -1.732697e-01 -2.646687e-01 2.221229e-01 -5.201948e-01 9.396437e-01 1.664674e+00 -6.430339e-01 -9.125797e-01 1.418126e-01 2.264218e+00 4.721977e-01 3.088116e-01 0.000000e+00 
-7.401409e-01 1.663749e+00 4.654018e+00 3.844471e+00 7.142767e+00 2.823679e-01 -1.853296e+00 -4.413524e+00 2.636359e-01 5.645511e+00 4.826017e+00 4.323509e+00 -1.512927e-01 1.772097e-01 -3.214161e-01 6.581034e-01 -4.544771e-01 1.674457e-02 -2.577342e-01 -1.023836e+00 9.715437e-01 1.964062e-01 -6.457143e-02 -3.124995e-01 -1.146547e+00 0.000000e+00 
1.921692e-01 2.788211e-01 3.227103e+00 -3.499460e-01 8.071833e+00 6.379075e+00 9.323132e-01 -1.348809e+00 3.980566e+00 5.745472e+00 2.103352e+00 4.944496e+00 -1.512927e-01 1.821003e+00 -3.218571e+00 -2.481570e+00 -1.557702e-01 -2.602738e-01 -1.400227e+00 -1.431967e+00 1.831164e+00 6.156910e-01 -2.041571e-01 -1.015839e+00 -1.471671e+00 2.915797e-02 
6.863327e-01 9.062490e-01 4.254689e+00 8.156424e-01 4.103514e+00 6.500783e-01 8.326292e-03 2.108596e+00 6.129497e+00 2.613676e+00 2.596693e+00 -7.744199e-01 -1.512927e-01 2.730858e+00 -4.894050e+00 -3.915821e+00 -2.613313e-01 -2.578363e-01 -1.554152e+00 -1.553592e+00 2.389912e+00 1.246811e+00 1.914324e-01 -6.760057e-01 -5.490757e-01 1.388983e-01 
7.842005e+00 -1.357610e+01 -9.238342e+00 2.237543e+00 6.631401e+00 -1.872135e+00 -4.259376e+00 4.684284e+00 6.710173e+00 6.650392e+00 1.499695e+00 1.798637e+00 -5.502820e-03 1.535664e+00 -3.001689e+00 -3.556659e+00 -3.486946e-01 7.249191e-01 -3.099948e+00 -1.817428e+00 4.828427e-01 2.896854e-01 -6.446339e-01 -1.389490e+00 -2.752364e-01 1.821329e-01 
9.089230e+00 -1.587904e+01 -8.692363e+00 1.244070e+00 6.573802e+00 -3.362784e+00 -7.025410e+00 4.519493e+00 5.132890e+00 6.150213e+00 1.747817e+00 3.151060e+00 4.703039e-01 -2.146457e+00 7.617962e-01 -1.165481e+00 -1.599083e+00 1.353398e+00 -2.623277e+00 2.128465e-01 -5.033666e-01 -5.896124e-01 -1.476687e+00 -1.627942e+00 3.635198e-01 2.109360e-01 
3.669042e+00 -6.336981e+00 -8.082664e+00 -2.307633e+00 1.046128e+01 -7.114232e+00 -4.637960e+00 -1.400433e-01 5.927297e+00 7.540343e-01 -4.419658e+00 1.605574e+00 4.485736e-01 -5.102584e+00 4.169792e+00 1.197294e+00 -8.091353e-01 -2.185822e-01 -1.356365e+00 2.432792e+00 -1.957193e-01 7.968181e-02 -3.871325e+00 -2.037157e+00 -1.385284e+00 1.682796e-01 
-7.959471e+00 1.095669e+00 -2.150553e+00 -4.907187e+00 8.955564e+00 -9.845259e+00 1.261851e+00 2.003927e+00 3.572872e+00 -1.821581e+00 -2.583340e+00 1.139710e+00 6.763489e-01 -5.408045e+00 4.167943e+00 9.190809e-01 1.175074e+00 -1.823384e+00 4.697071e-01 2.782113e+00 1.954912e-01 8.667072e-01 -3.221841e+00 -5.199003e-01 -6.013311e-01 1.009047e-01 
-9.146566e+00 -1.214496e+00 -6.522778e+00 1.267495e+00 4.347609e+00 -5.412722e+00 3.760955e+00 4.963470e+00 7.888591e+00 -8.720337e+00 -6.520513e+00 -4.122108e+00 7.328727e-01 -4.068533e+00 1.987064e+00 1.523157e-01 3.187668e+00 -3.259260e+00 1.952387e+00 1.624170e+00 -5.603828e-01 -8.957663e-01 -1.304881e+00 1.380836e+00 1.742835e+00 9.832972e-02 
-1.154319e+01 2.399439e+00 -4.876903e+00 5.331876e+00 5.137177e-01 -1.865004e+00 2.685697e+00 2.945192e+00 8.485779e+00 -5.221804e+00 1.987426e-01 3.008246e+00 8.326780e-01 -1.500883e+00 1.874183e+00 -1.041407e+00 3.000538e+00 -2.568073e+00 2.692252e+00 -1.191913e+00 -6.248711e-01 -1.033190e+00 9.784365e-01 1.304501e+00 1.806182e+00 5.721603e-02 
-1.488176e+01 2.946455e+00 -5.957911e+00 8.511178e+00 -1.614089e+00 -1.342423e+00 2.770964e+00 -3.412590e+00 -1.007988e+00 -4.070261e+00 1.093480e+00 9.385481e+00 8.620577e-01 -9.665136e-01 3.153995e+00 -1.639225e-01 1.126675e+00 -9.373662e-01 1.334347e+00 -2.949202e+00 -2.320770e-01 -2.173069e+00 1.770819e+00 1.401074e+00 4.790010e-01 3.869166e-02 
-1.259629e+01 8.386109e+00 -7.640023e+00 6.473660e+00 -9.039497e-01 1.580851e+00 -4.202718e+00 3.067601e+00 2.855212e+00 7.455635e-01 1.321711e-01 3.416823e+00 8.978365e-01 7.441635e-02 2.792144e+00 6.208658e-02 -4.465399e-01 4.128644e-01 1.336193e+00 -3.083183e+00 8.373128e-01 -1.514326e+00 1.476084e+00 8.682247e-01 -2.128326e+00 1.562989e-02 
-1.345259e+01 1.156214e+01 -5.960830e+00 6.329977e+00 3.696117e-01 -4.639168e-01 -7.540848e+00 3.741880e+00 -1.614745e-01 -2.849927e+00 5.181435e-01 -1.931392e+00 8.937517e-01 7.846033e-01 1.977788e+00 -3.560155e-01 -1.492104e+00 4.907668e-01 2.323754e+00 -1.906710e+00 1.347000e+00 7.146455e-01 8.033901e-02 2.448557e-01 -2.359500e+00 -2.241093e-03 
-1.188570e+01 1.205232e+01 -4.565010e+00 4.189777e+00 1.586189e+00 4.376707e+00 -7.574311e+00 3.554521e+00 4.908926e-01 1.548449e+00 4.827534e+00 -1.974949e+00 8.949804e-01 1.903799e-01 -8.419800e-03 -8.053523e-01 -4.769565e-01 3.488596e-01 1.208686e+00 9.739677e-01 -6.362642e-01 -7.681212e-01 -9.286389e-01 -9.418384e-01 3.134871e-01 -8.302009e-03 
-1.131404e+01 1.100229e+01 -9.275496e+00 2.192600e+00 -4.053249e-01 8.878417e+00 -5.076788e+00 3.078948e+00 3.747400e+00 -4.070008e+00 -2.992365e-02 2.838653e-01 8.522803e-01 1.128933e-01 -1.081252e+00 -1.589202e+00 -3.839167e-01 -3.932300e-01 3.741831e-01 1.832776e+00 -6.218413e-01 -3.615696e-01 -5.493941e-01 -1.324763e+00 1.639502e+00 -8.317590e-03 
-1.271366e+01 8.623936e+00 -1.000945e+01 6.157566e+00 1.227817e+00 2.953114e+00 -5.649090e-01 2.177460e-01 -2.939831e+00 -3.287591e+00 -4.302987e+00 3.876631e+00 8.770622e-01 2.397308e-02 -9.594413e-01 -4.965474e-01 6.966184e-01 1.053529e-02 -1.425190e+00 1.818940e+00 -1.398418e-01 -1.983230e-01 -8.295100e-01 -1.070754e+00 7.056065e-01 1.145536e-03 
-1.247414e+01 7.870076e+00 -1.118462e+01 3.426499e+00 -1.417352e+00 2.118795e+00 -1.881669e+00 2.301061e+00 -2.539606e-01 -3.178878e+00 -1.540411e+00 3.340331e+00 8.611229e-01 -1.219749e-02 -4.179378e-01 3.678044e-01 2.348294e-01 -1.739427e-01 -1.381826e+00 8.316653e-01 -1.089406e+00 8.741905e-01 -1.381484e-01 6.602110e-01 7.462343e-01 -3.000373e-03 
-1.118579e+01 8.821219e+00 -6.093185e+00 7.055920e+00 2.144879e+00 6.305692e-01 -7.717133e-02 3.244255e+00 1.499958e+00 -3.044666e+00 2.290074e-01 2.485042e-02 8.962868e-01 4.014967e-01 4.287706e-01 9.795208e-02 -4.059374e-01 -4.166011e-01 8.467439e-01 -5.025883e-01 -4.807654e-01 1.997765e+00 -1.544985e-01 1.857705e+00 -5.435835e-01 -3.832507e-03 
-1.213897e+01 8.813962e+00 -9.394607e+00 2.917570e+00 -1.733570e+00 3.130560e+00 -1.162330e+00 -3.881335e+00 5.898458e+00 -4.882212e+00 1.005134e+00 5.940927e+00 8.276661e-01 2.637564e-01 2.493086e-01 -8.049049e-02 9.726666e-01 -4.645264e-01 8.002480e-01 -2.064554e-01 -1.487928e+00 3.693751e-01 -6.983207e-01 1.377579e+00 5.982333e-01 1.119190e-03 
-1.087376e+01 1.029585e+01 -1.041470e+01 4.382343e+00 -6.970801e-01 6.680952e+00 -3.437520e+00 9.051175e-01 3.972786e+00 -3.208416e+00 3.712767e+00 -1.415851e-01 8.746281e-01 1.578548e-01 5.662785e-02 -9.295964e-01 4.761412e-01 -1.244300e+00 2.542834e-01 8.282623e-01 -1.094746e+00 -5.125030e-01 -7.376934e-01 6.812824e-01 5.297883e-01 -2.105790e-03 
-1.131137e+01 8.379306e+00 -9.426315e+00 9.626620e+00 -2.319004e+00 3.094844e+00 -1.233772e+00 -3.969009e+00 3.565009e-01 -6.588606e+00 3.605605e+00 6.414715e+00 8.775482e-01 -1.439035e-01 3.126011e-01 -7.979164e-02 3.918237e-01 -3.350585e-01 -1.071950e+00 1.360977e+00 1.751333e-01 -1.015598e-01 6.488070e-01 -1.267773e-01 -2.473224e-01 5.672592e-03 
-1.081031e+01 9.321687e+00 -1.072531e+01 6.082101e+00 -3.783903e+00 1.919844e+00 4.099861e+00 -2.185637e+00 1.708421e+00 -5.879936e+00 2.335184e+00 2.436897e+00 8.608168e-01 -2.767128e-01 3.071613e-01 -2.798318e-01 -7.261571e-01 -9.225956e-01 -1.567288e+00 1.109201e+00 9.429340e-01 9.748815e-01 7.082598e-01 -1.129233e+00 -3.587051e-01 -3.075504e-03 
-1.289021e+01 1.086405e+01 -9.638257e+00 4.026810e+00 -1.865451e+00 1.513631e-01 1.873866e+00 -1.460292e+00 6.522841e+00 -3.024168e-01 1.060039e+00 3.415074e+00 8.629347e-01 3.046619e-01 1.693480e-01 -4.785881e-02 -1.369267e+00 -1.358017e+00 -1.344402e+00 3.688332e-01 2.253298e+00 1.321052e+00 9.103388e-01 -1.916581e+00 -8.369888e-01 -5.763805e-03 
-1.146791e+01 1.058928e+01 -1.170789e+01 3.551463e+00 -5.536835e+00 3.162527e-01 5.546641e-01 4.365429e+00 5.764024e+00 -2.810212e+00 -6.606163e-01 -4.352898e-01 8.665573e-01 1.201048e+00 -2.972986e-01 1.190388e+00 -2.344914e+00 2.476383e-01 -1.811529e+00 -4.436066e-01 1.227054e+00 4.675959e-01 5.881518e-01 -1.790838e+00 -1.802965e-01 -3.517518e-02 
-9.459259e+00 8.592248e+00 -9.174323e+00 4.045605e+00 -8.232621e+00 -2.825369e+00 2.382993e+00 4.021947e+00 4.933961e+00 -3.571774e+00 -4.479398e+00 3.665865e+00 8.458589e-01 1.906534e+00 -2.371792e+00 2.979369e+00 -1.669517e+00 1.803444e+00 -4.817660e-01 1.498446e-01 -9.677906e-02 -5.450755e-01 -1.020569e+00 -7.023320e-01 -4.217921e-01 -8.689765e-02 
-6.520550e+00 8.971093e+00 -5.005339e+00 -5.651865e+00 6.378736e-01 -5.649436e+00 1.627265e+00 1.208513e+00 4.840841e+00 -1.304498e+00 -3.849285e+00 1.410019e+00 6.934788e-01 2.785554e+00 -4.271273e+00 4.209784e+00 -5.488905e-01 2.681324e+00 -5.299090e-01 -5.748476e-01 -1.658004e+00 1.091052e-01 -1.392059e+00 1.429825e-01 -9.757026e-01 -1.411557e-01 
-5.831221e+00 -1.858189e-01 1.907315e+00 2.808878e-01 4.064414e+00 7.253776e-01 2.086789e+00 -3.657289e-01 4.259056e+00 -6.158118e+00 -8.572868e-01 3.834588e-01 5.149857e-01 4.074269e+00 -4.547568e+00 2.882744e+00 6.029925e-01 2.432334e+00 -3.542360e-01 -6.683525e-01 -6.317865e-01 -1.142634e+00 -2.108656e+00 4.878008e-01 -9.311166e-01 -1.875340e-01 
6.458454e-01 -6.378050e+00 3.800215e+00 2.689369e+00 1.721268e+00 -4.108665e+00 -2.171471e+00 -1.730751e+00 6.647002e+00 -8.477333e+00 -1.756760e+00 -3.672600e+00 3.262151e-01 4.025357e+00 -4.111471e+00 1.729733e+00 1.587655e+00 -4.975788e-01 -2.032427e-01 4.758885e-01 -5.920496e-02 -2.057045e-01 -7.154110e-01 -2.277235e-01 -8.197338e-01 -1.661496e-01 
7.328887e+00 -6.471024e+00 8.366215e-01 2.889951e+00 3.387354e+00 -5.366934e+00 9.405986e-01 2.332646e+00 -1.682288e+00 -1.052864e+01 -3.086657e+00 1.551592e+00 9.182072e-02 3.350056e+00 -2.221165e+00 9.512980e-02 -1.052906e-01 -9.868203e-01 -3.047070e-01 -6.090517e-01 -7.460666e-02 -2.388970e-01 4.096021e-01 -1.645253e+00 -3.209001e-01 -1.192846e-01 
7.026183e+00 -8.443659e+00 4.178675e+00 9.818802e-01 -1.511490e+00 -3.619494e+00 4.579803e+00 -4.366996e-01 6.782990e+00 -2.696293e+00 -3.873217e+00 -3.272716e+00 7.431304e-02 1.483270e+00 -1.135785e+00 8.797288e-02 4.390512e-01 7.951031e-02 1.901731e+00 -4.749622e-01 -5.291204e-01 -4.301244e-01 1.192647e+00 -1.172474e+00 -2.538194e-01 -7.049136e-02 
7.728892e+00 -1.025884e+01 2.193735e+00 6.081793e-01 7.466912e-01 -1.042743e+00 -4.334107e+00 -1.385788e+00 2.996577e+00 -7.000628e+00 -8.025325e+00 -1.420984e+00 4.451400e-02 -1.188875e-01 -4.972515e-01 6.288978e-01 8.631451e-01 -2.550698e-01 2.225655e+00 -8.592542e-01 1.193076e-01 5.566644e-01 9.153770e-01 -6.687924e-01 -1.365777e+00 -3.618494e-02 
7.862191e+00 -1.016307e+01 3.561523e+00 6.025511e+00 3.439151e+00 3.237893e+00 -1.908930e+00 -2.517136e+00 2.156948e+00 -4.278102e+00 -5.149796e+00 -3.455409e+00 -2.588272e-03 -1.661749e-01 3.027470e-01 3.910923e-03 5.539541e-01 -6.675397e-01 1.523195e+00 3.378108e-01 8.844759e-01 -3.769830e-02 -6.212865e-01 -1.093251e-01 2.450202e-01 -3.733668e-02 
6.316445e+00 -8.097576e+00 4.289686e+00 4.683861e+00 -3.633156e-01 2.332647e+00 -1.113064e-01 3.969403e+00 3.414055e+00 -5.160849e+00 -5.792329e+00 -5.185946e+00 -5.065334e-02 -4.633543e-01 1.131986e+00 -2.746198e-01 -1.016156e+00 -4.805472e-01 1.560193e+00 2.200257e+00 1.291879e+00 1.163368e+00 -4.814753e-01 1.621574e-01 -3.378886e-01 -4.499270e-02 
6.901532e+00 -8.010557e+00 3.150254e+00 1.713810e+00 -4.294186e+00 2.308787e+00 4.157456e+00 1.308084e+00 6.385759e+00 -6.722615e+00 -5.536340e+00 -1.651342e-01 -6.478667e-02 -9.449975e-01 1.070462e+00 -1.261957e+00 -1.526107e+00 1.414187e+00 7.532151e-01 4.968490e-01 1.257130e-01 4.753951e-01 -5.988390e-01 -8.087330e-01 -3.856457e-01 -3.961058e-02 
5.892450e+00 -5.675165e+00 1.026270e+00 -2.316752e+00 2.210623e+00 7.222775e+00 3.633982e+00 3.160996e+00 6.699010e+00 -8.185747e+00 -7.021266e+00 -4.755564e+00 -1.493503e-01 -1.046520e+00 1.083310e+00 -9.221080e-01 -1.869542e+00 1.116560e+00 -1.534175e-01 -7.809482e-01 -6.677421e-01 4.784744e-01 -2.118883e-01 -3.462510e-01 4.407477e-01 -2.877847e-02 
3.349201e+00 -6.021962e+00 -1.116555e+00 1.895280e+00 9.223116e+00 4.558904e+00 -1.297329e+00 -1.484368e+00 2.891447e+00 -5.759848e+00 -8.578994e+00 -5.598828e+00 -1.512927e-01 -1.074192e+00 1.628227e+00 -7.991210e-01 -1.577421e+00 5.764390e-01 -1.105613e+00 -9.251582e-01 -1.011674e-01 -5.017457e-01 4.559637e-01 1.219273e-03 4.353855e-01 -1.749544e-02 
2.860011e+00 -3.675324e+00 1.812551e+00 -4.754581e+00 -1.539165e+00 4.405007e-01 -1.288655e+00 2.026919e+00 7.553584e+00 -6.701674e+00 -6.002258e+00 -2.653596e-01 -1.512927e-01 -7.770914e-01 1.922429e+00 2.136965e-02 -9.077435e-01 -1.425799e+00 -2.737098e+00 -1.841159e-01 5.880429e-01 -2.191154e-01 1.115336e+00 1.016928e+00 1.369220e+00 -3.884792e-04 
3.046793e+00 -8.693446e-01 -1.238492e+00 -4.954380e+00 4.629035e-01 1.718578e-01 1.992984e+00 1.369286e+00 3.449744e+00 -5.184834e+00 -6.039748e+00 -2.333088e-01 -1.512927e-01 -5.590751e-01 2.255892e+00 8.745451e-01 -1.421197e-01 -1.696962e-01 2.287517e-02 1.651659e+00 3.495317e-02 -1.660079e-01 1.343770e+00 2.062214e+00 9.698384e-01 0.000000e+00 
2.158197e+00 1.360669e+00 1.194087e+00 -3.430640e+00 -5.382662e-01 -4.269191e+00 1.068246e+00 4.674384e+00 5.324284e+00 -2.896576e+00 -3.206247e+00 -5.922250e-01 -1.512927e-01 -6.001407e-01 1.586419e+00 6.681620e-01 1.009956e+00 1.714062e+00 1.483077e+00 8.935418e-01 -1.953969e+00 -1.446284e+00 1.072399e+00 1.740949e+00 1.247466e-01 0.000000e+00 
9.047327e-01 2.739502e+00 3.565402e+00 5.227108e-01 7.874186e+00 7.028126e+00 5.782517e+00 -2.633335e+00 3.176057e+00 -9.435468e-01 3.340701e-01 -5.862035e-01 -1.512927e-01 -4.195026e-01 1.050968e+00 1.015696e+00 3.648456e-01 1.083430e+00 9.024056e-01 -7.804116e-01 -2.796079e+00 -4.989534e-01 1.175153e+00 9.090639e-01 3.804672e-01 0.000000e+00 
9.303379e-01 2.452346e+00 2.751414e+00 -2.443345e+00 3.325504e+00 4.427753e+00 1.284287e+00 -5.741615e+00 4.590051e-01 -3.460320e+00 -4.844199e-01 5.348209e-01 -1.512927e-01 -1.131202e-01 -5.224450e-02 -3.907133e-02 1.041572e-01 4.782038e-01 -2.873535e-02 -1.675737e-01 -1.134610e+00 4.041170e-01 1.064758e+00 1.682718e-02 1.714210e-01 0.000000e+00 
1.563210e+00 3.839656e+00 3.061324e+00 -3.623799e+00 3.948167e+00 3.354132e-01 -2.017095e+00 -7.403108e+00 3.387616e+00 9.728040e-01 -2.855341e+00 1.105505e+00 -1.512927e-01 4.660951e-01 -3.626204e-01 -8.119857e-01 5.406655e-02 -6.128677e-01 -1.466482e+00 -2.199086e-01 8.599890e-01 3.147875e-01 1.384593e+00 6.498516e-03 1.125077e+00 0.000000e+00 
1.263358e+00 5.493698e-01 1.250769e+00 -8.365990e-01 3.815762e+00 -1.066512e+00 4.130184e+00 1.386219e+00 7.239090e+00 1.469038e+00 -1.527405e+00 -5.809739e-01 -1.512927e-01 1.111636e-01 -6.651266e-01 -6.633366e-01 7.045507e-01 3.679953e-01 -1.203832e-01 1.151407e+00 1.095135e+00 9.441150e-01 1.521639e+00 8.614396e-01 1.037548e+00 0.000000e+00 
3.068698e+00 1.877888e+00 2.557955e-01 -1.032925e-02 4.564718e+00 2.442847e+00 3.260026e+00 -1.897307e+00 1.359952e+00 3.514741e+00 8.880552e-01 5.597082e+00 -1.512927e-01 -1.638680e-01 -4.169561e-01 -1.132890e-01 6.423943e-02 -3.952417e-01 8.351639e-01 5.797336e-01 2.036095e-01 -2.080235e-01 8.416470e-01 1.375826e+00 1.982377e-01 0.000000e+00 
7.334118e-01 1.075966e-01 8.374949e-01 -7.273260e-01 4.857205e+00 2.772120e+00 4.402762e+00 -3.018842e+00 6.193413e+00 2.876904e+00 1.951080e+00 3.476772e+00 -1.512927e-01 -3.776555e-01 1.793681e-01 2.261646e-01 -2.872534e-02 2.464885e-01 3.574512e-01 -1.295071e+00 -1.874328e+00 -1.248076e+00 6.369371e-01 9.894257e-01 -4.702857e-01 0.000000e+00 
1.008842e+00 1.975761e+00 2.701516e+00 -3.357239e+00 1.451237e+00 2.591917e+00 7.452844e-01 -4.182529e+00 2.870337e+00 4.477106e+00 2.284547e+00 6.782024e-02 -1.512927e-01 -9.209696e-01 -4.433995e-01 4.366418e-01 -2.932262e-01 1.406446e-01 -6.564913e-02 -1.435998e+00 -1.629312e+00 -1.484842e+00 -6.853533e-01 -8.874029e-02 -1.446591e+00 0.000000e+00 
4.050083e-01 1.397274e+00 1.158732e+00 6.932290e-01 6.604945e+00 6.462095e-01 -1.087799e+00 -6.842808e+00 2.435169e-01 4.172541e+00 2.721478e+00 -1.677717e-01 -1.512927e-01 -3.962002e-01 -5.131191e-01 -1.839708e-01 -7.370511e-01 -6.260989e-02 4.251479e-01 -1.042383e+00 -1.125154e+00 -1.180742e+00 6.659907e-01 6.607435e-01 3.225250e-02 0.000000e+00 
-1.371948e+00 -9.839485e-01 2.278386e+00 -2.186738e+00 4.394071e+00 3.177557e+00 -1.174684e+00 -8.131882e+00 -3.089309e+00 -5.598443e-01 5.915475e-02 1.863986e-01 -1.512927e-01 -1.554499e-01 -4.821897e-01 -4.918483e-01 -6.737300e-01 3.263378e-01 4.206629e-01 1.651514e-01 5.334029e-01 -5.094154e-01 3.814309e-01 1.063465e+00 6.258349e-01 0.000000e+00 
-5.719376e-02 -9.781439e-01 1.292059e-01 -4.997832e+00 3.072739e+00 4.605040e+00 1.508307e-01 -6.669935e+00 3.269524e+00 8.725332e+00 6.367493e+00 3.578745e+00 -1.512927e-01 1.126925e-01 6.210427e-02 5.469912e-01 -6.479467e-01 -2.493066e-01 -2.584339e-01 -2.071837e-01 2.329922e+00 1.021809e+00 2.918639e-02 1.308424e+00 5.912875e-01 0.000000e+00 
4.626942e-01 7.525220e-01 7.570374e-01 -3.880358e+00 4.849029e+00 2.715817e+00 9.517266e-01 -1.601951e+00 -1.189743e+00 4.107865e+00 5.778863e+00 1.323736e+00 -1.512927e-01 3.655702e-01 4.295151e-01 4.703814e-01 5.248271e-01 8.495919e-02 -2.606123e-01 2.376493e-01 1.405697e+00 1.487613e+00 -3.354297e-02 2.039418e-01 5.379657e-01 0.000000e+00 
5.114937e-02 8.395597e-01 4.654362e+00 -1.699695e+00 5.130933e+00 -4.150901e-01 -3.186923e+00 1.541839e+00 4.402780e+00 1.984619e+00 6.403744e+00 2.219997e+00 -1.512927e-01 1.033993e-01 3.097439e-01 5.839438e-01 1.011852e+00 1.085208e-01 4.804684e-01 6.927937e-01 7.247316e-01 1.403249e+00 -1.075598e+00 -6.639274e-01 -7.794485e-02 0.000000e+00 
4.017315e-01 2.547752e-01 2.367715e+00 -1.211671e+00 3.789770e+00 4.384561e+00 1.682439e+00 -5.209282e+00 3.782130e+00 2.642798e+00 1.060738e+00 3.555601e+00 -1.512927e-01 -5.652752e-02 -4.103875e-02 -4.305001e-01 7.916346e-01 9.069683e-02 9.489066e-01 7.917622e-01 -6.063623e-01 1.226260e+00 -4.242369e-01 -8.522673e-01 -7.303044e-01 0.000000e+00 
4.902840e-01 8.194491e-01 2.243587e+00 -1.272915e+00 4.144972e+00 6.173010e+00 3.249443e+00 -1.242611e+00 7.799833e+00 4.079876e+00 5.406919e+00 2.073089e+00 -1.512927e-01 -2.020592e-01 -1.788917e-01 -5.414181e-01 -3.580926e-02 3.167332e-01 2.647037e-01 -6.840195e-02 -1.036352e+00 1.715847e-01 -1.033686e-01 -7.925792e-01 -1.941254e+00 0.000000e+00 
-3.951073e-02 5.573835e-01 -1.900756e-01 -1.355746e-01 5.795494e+00 4.166300e+00 1.692355e+00 -3.241538e+00 3.243028e+00 9.390514e-01 2.015939e+00 -2.254332e+00 -1.512927e-01 -1.169006e-01 3.213164e-01 -5.528479e-01 -2.735122e-01 3.429761e-01 -6.138971e-01 -1.209663e+00 -1.702795e-01 -7.508294e-02 6.244982e-01 -4.729479e-01 -1.344202e+00 0.000000e+00 
-7.385254e-01 -2.062030e-01 3.226166e+00 -2.416789e+00 5.711737e+00 1.017559e+00 -3.533890e+00 -4.623791e+00 5.530254e+00 2.319649e+00 1.963248e+00 -4.581309e+00 -1.512927e-01 3.538418e-02 4.926268e-01 -6.960541e-01 -3.340480e-01 7.836652e-03 -4.833919e-01 -1.111387e+00 -7.383510e-01 -5.218180e-01 1.083740e+00 -1.157627e+00 -1.406472e-01 0.000000e+00 
4.316330e-01 2.374183e+00 -8.878145e-01 -2.007295e+00 4.721268e+00 3.892800e+00 -9.742084e-01 -4.370090e+00 4.541504e+00 6.645402e+00 4.178341e-01 1.617910e-01 -1.512927e-01 2.112446e-01 6.213986e-01 -5.509459e-01 -3.333946e-01 -3.138919e-01 2.328243e-01 -2.773445e-01 -2.003404e-01 1.608203e-01 1.573846e+00 -4.741624e-01 9.575345e-01 0.000000e+00 
