-1.028421e+01 -9.036692e-01 -2.189266e+00 2.756052e+00 5.229244e-01 -8.494225e+00 4.024703e+00 7.523228e-01 -3.382583e+00 2.601745e+00 -7.585092e+00 -2.078524e+00 -1.512927e-01 -2.341886e-01 -3.033837e-01 -8.530615e-01 -5.750828e-02 5.986229e-01 1.342426e-01 -1.504834e-01 1.147006e-01 5.433652e-01 -4.893404e-01 1.086573e+00 7.192923e-01 0.000000e+00 
-1.078517e+01 -1.706983e+00 -2.879285e+00 4.712884e+00 2.001109e+00 -6.186460e+00 7.130895e+00 -2.905143e-01 -3.430566e+00 -1.053678e+00 -4.863432e+00 4.257160e-02 -1.512927e-01 -1.516876e-01 -1.309809e-02 -7.492207e-01 -4.290151e-01 -1.044094e-01 -9.541021e-02 -1.635910e-01 2.067052e-01 6.462072e-01 4.798237e-01 1.472822e+00 -2.892061e-01 0.000000e+00 
-1.120468e+01 -2.018931e+00 -6.109563e+00 1.490095e+00 2.776947e+00 -8.976893e+00 1.719190e+00 1.847244e+00 -6.417649e-01 1.982755e+00 -3.513059e+00 4.573904e-01 -1.512927e-01 -1.259095e-01 3.457645e-01 -6.374953e-01 -1.322874e-01 2.766524e-01 1.328537e-01 -7.527515e-01 6.333632e-01 8.509696e-01 7.297453e-01 1.056238e+00 -8.912166e-01 0.000000e+00 
-1.058242e+01 -4.115286e-01 -3.975221e+00 1.243955e+00 -1.126133e+00 -8.729940e+00 4.359505e+00 1.238388e+00 -1.521956e+00 5.310359e+00 -2.256997e+00 -4.792511e+00 -1.512927e-01 1.566407e-01 2.047738e-01 -2.307680e-01 -3.146817e-01 3.564470e-02 -2.268696e-03 -1.744277e+00 -1.035339e-01 3.188597e-01 1.566100e+00 8.636734e-01 -1.099846e+00 0.000000e+00 
-1.101514e+01 1.774262e-01 -4.828774e+00 3.829080e+00 3.469808e+00 -6.558215e+00 1.646641e+00 3.154688e+00 -8.203983e-02 3.068453e+00 -3.607119e+00 -4.117065e+00 -1.512927e-01 3.055157e-01 3.835233e-01 8.133179e-01 -1.713236e-01 2.183158e-01 1.031411e+00 -8.517677e-01 -1.104473e+00 -1.737632e-01 6.188128e-01 -8.534575e-03 -5.257132e-01 0.000000e+00 
-1.009674e+01 -1.781292e+00 -4.673520e+00 1.969983e+00 1.832902e+00 -7.407142e+00 -1.554217e+00 -1.461905e+00 -2.116130e+00 6.233974e+00 -4.980354e-01 -3.169428e+00 -1.512927e-01 -1.047718e-01 -2.113976e-01 1.279626e-01 -8.139222e-01 2.933982e-01 4.506367e-01 -3.595304e-01 -1.082535e+00 5.505282e-01 7.708289e-02 -3.652430e-01 1.422148e+00 0.000000e+00 
-9.919938e+00 5.835672e-01 -1.693825e+00 2.704630e-01 2.389008e+00 -4.481237e+00 4.172121e-01 -2.324975e+00 -1.213494e+00 4.615011e+00 -4.435212e+00 -2.982717e+00 -1.512927e-01 3.642244e-02 -1.041808e-01 4.707133e-01 -7.368628e-01 -7.880216e-01 -4.666650e-01 4.954407e-01 -1.198409e+00 -7.583618e-03 3.908098e-01 6.160166e-01 1.731104e+00 0.000000e+00 
-1.165388e+01 -1.671587e+00 -4.902883e+00 -1.046347e+00 8.812575e-01 -7.515246e+00 3.176567e+00 -1.434455e+00 1.796412e+00 4.922494e+00 -3.669165e+00 1.751056e+00 -1.512927e-01 1.304111e-01 1.650612e-01 3.994307e-01 1.291795e+00 -1.281846e-01 5.038239e-01 1.379060e+00 2.732622e-01 -9.328400e-01 -1.391725e+00 1.356111e-02 9.896580e-01 0.000000e+00 
-1.005445e+01 -3.983305e-01 -2.360526e+00 1.652931e+00 5.522251e-03 -8.837488e+00 1.758452e+00 -2.851081e+00 -2.076229e+00 5.678242e+00 1.058529e+00 2.078214e+00 -1.512927e-01 2.352529e-01 -3.149460e-01 -4.803431e-02 1.415697e+00 -1.332661e-01 -5.180125e-02 4.289604e-01 6.116646e-01 -4.918345e-01 -7.299170e-01 6.252063e-01 -7.470848e-01 0.000000e+00 
-9.377423e+00 -4.650374e-01 -2.343015e+00 7.737725e+00 2.383722e+00 -2.709897e+00 4.670461e+00 1.674584e-01 -6.348963e+00 -1.256266e+00 -3.177101e+00 -7.516038e-01 -1.512927e-01 5.957727e-01 1.407240e-01 2.372237e-01 1.133466e+00 7.543685e-01 1.214201e+00 4.690221e-01 7.141227e-01 2.244892e-01 -1.624927e-02 6.454049e-01 -1.364298e+00 0.000000e+00 
-9.881900e+00 -1.594438e+00 -3.213930e+00 2.956909e+00 9.714451e-01 -7.142918e+00 1.815067e+00 -6.760901e-02 4.000208e-01 4.054806e+00 -1.555213e+00 -5.466811e+00 -1.512927e-01 5.047599e-01 -5.776356e-02 -3.075993e-01 -2.712953e-01 1.208941e+00 1.213822e+00 6.462797e-01 7.269230e-01 1.523975e+00 1.001428e+00 4.186348e-01 -3.280028e-01 0.000000e+00 
-8.761290e+00 -3.699136e-01 -3.290062e+00 3.968994e+00 4.170139e+00 -2.291527e+00 5.493370e+00 7.444227e-01 1.680733e+00 5.652966e+00 8.647301e-01 -1.297923e+00 -1.512927e-01 2.585007e-01 -1.220164e-01 -3.447241e-01 -1.056750e+00 4.451915e-01 -3.951994e-01 -3.765062e-01 -3.118311e-01 -2.415938e-01 9.377643e-01 4.294547e-01 5.302260e-01 0.000000e+00 
-7.838721e+00 -7.347102e-01 -3.424999e+00 2.180821e+00 5.157021e+00 -2.977561e+00 4.578397e+00 4.950519e-01 1.528799e+00 7.230765e+00 1.130788e+00 7.113597e-01 -1.512927e-01 1.270394e-01 1.289060e-02 -6.583329e-01 5.122404e-02 -6.581028e-01 -7.392047e-01 -6.144922e-01 3.798879e-01 -1.448812e+00 -2.270172e+00 -1.017193e+00 8.477618e-01 0.000000e+00 
-9.106509e+00 -1.504983e+00 -3.961101e+00 2.842021e+00 2.516891e+00 -6.768573e+00 1.406265e+00 -1.673027e+00 -8.121321e+00 1.844576e+00 -2.372828e+00 -1.189559e+00 -1.512927e-01 -5.231730e-01 -5.123052e-01 -2.553040e-01 -1.202839e-01 -1.383212e+00 -1.400501e+00 -8.558966e-01 3.509827e-01 -1.216131e+00 -2.276793e+00 -7.278421e-01 2.510520e-01 0.000000e+00 
-9.074093e+00 -9.624498e-01 -6.170075e+00 3.776516e+00 -1.492445e+00 -8.600418e+00 7.861583e-01 3.040555e+00 -1.943014e+00 -5.391859e+00 -5.022399e+00 -1.282183e+00 -1.512927e-01 -8.212015e-01 -6.411675e-01 -1.963764e-01 -2.815638e-01 -5.980327e-01 5.055307e-01 3.973387e-01 1.239052e+00 -1.263631e-01 2.813829e-01 -1.069490e-01 -4.148539e-01 0.000000e+00 
-1.075947e+01 -2.817570e+00 -3.194044e+00 2.569727e+00 5.788131e-01 -6.482605e+00 3.110006e+00 1.226584e+00 -2.664018e+00 5.803134e-01 3.021131e-01 9.541088e-01 -1.512927e-01 -3.776128e-01 -7.784633e-02 5.435008e-01 -2.125023e-01 5.537205e-01 1.029046e+00 1.754861e+00 2.037438e+00 2.364444e+00 2.857887e+00 1.586263e+00 7.033872e-03 0.000000e+00 
-1.111825e+01 -3.284255e+00 -4.790410e+00 9.091489e-01 3.135896e+00 -5.928919e-01 5.713220e+00 5.240504e+00 -1.831668e+00 9.269812e+00 -7.414274e-01 -2.434744e+00 -1.512927e-01 1.628248e-01 3.411999e-01 8.272551e-01 -3.086041e-01 4.444671e-01 8.265350e-01 1.763197e+00 7.755710e-01 4.327649e-01 2.643123e+00 1.615260e+00 -4.706992e-02 0.000000e+00 
-9.972495e+00 -7.333128e-01 -1.933430e+00 3.213193e+00 2.971323e+00 -5.627105e+00 7.717041e+00 7.414189e+00 3.645229e+00 8.803177e+00 3.418004e+00 -5.781097e-01 -1.512927e-01 4.173183e-01 1.525532e-01 1.516780e-02 -3.642690e-01 -6.279872e-01 -4.377771e-01 8.084744e-01 4.423345e-01 9.238294e-01 1.403822e+00 -4.786453e-02 8.607741e-02 0.000000e+00 
-8.653456e+00 -2.985789e-01 -2.664107e+00 1.911762e+00 -4.663644e-01 -4.895494e+00 7.298624e+00 3.824608e+00 -2.933813e+00 3.712324e+00 1.495956e+00 -7.514235e-01 -1.512927e-01 2.066753e-01 -2.696647e-01 -1.360542e-01 -3.174445e-01 -1.186127e+00 -1.304320e+00 -8.356307e-01 -1.489863e+00 -6.454217e-01 1.105471e-02 -5.687292e-01 4.001475e-02 0.000000e+00 
-9.905274e+00 -3.547642e+00 -4.181357e+00 2.470751e-01 -7.599926e-01 -6.520190e+00 6.359675e+00 4.146205e+00 2.506201e+00 1.037817e+01 -1.055901e+00 5.428358e-01 -1.512927e-01 1.263724e+00 -2.097326e+00 -1.303295e+00 -1.788105e+00 -1.263424e+00 1.347435e+00 -1.333543e+00 -8.371637e-01 -1.033959e+00 -4.054922e-01 -7.341677e-01 1.609180e-01 4.090406e-02 
-1.011848e+01 -3.225414e+00 -4.346717e+00 8.049853e-01 -9.290791e-01 -6.667947e+00 2.213749e+00 -5.748189e-01 -4.489263e+00 8.537589e+00 -1.348121e+00 -2.795143e+00 -1.512927e-01 1.466432e+00 -2.502599e+00 -1.710658e+00 -2.005960e+00 -1.146677e+00 2.607938e+00 -2.945647e-01 3.150994e-01 4.534849e-01 -2.032123e-01 1.666532e-01 1.029890e+00 8.771770e-02 
-2.921361e+00 -9.756526e+00 -7.608601e+00 -5.173942e+00 -3.114439e+00 1.996299e+00 3.591764e+00 5.428084e+00 -7.468393e-01 4.363083e+00 1.169204e+00 1.248340e+00 5.322760e-02 8.730015e-01 -2.444408e+00 -1.834356e+00 -1.409343e+00 -2.488730e-01 4.016744e+00 -1.731682e-01 -1.108474e+00 -1.249071e+00 -1.740579e+00 2.482786e-01 4.910408e-01 1.350264e-01 
-4.813253e+00 -9.707130e+00 -9.503777e+00 -5.407532e+00 -5.022527e+00 3.885952e+00 7.209755e+00 4.759165e+00 9.601319e-01 5.703805e+00 1.216670e+00 4.045274e+00 1.850357e-01 -8.145332e-02 -2.609471e+00 -1.140778e+00 -7.120931e-01 3.065601e+00 4.924817e+00 -1.536378e+00 -4.106694e+00 5.641544e-01 1.467217e+00 8.436548e-01 1.421999e-02 1.037319e-01 
-8.192882e+00 -1.252883e+01 -1.077461e+01 -3.693382e+00 4.236650e-02 8.286579e+00 2.995831e+00 -4.063157e+00 -6.463851e+00 3.092168e+00 -1.096904e+00 -4.221686e-01 3.556751e-01 -1.087319e+00 1.445908e-01 1.707265e-01 1.340488e+00 4.879737e+00 6.457382e-01 -4.104028e+00 -3.884736e+00 6.770386e-02 1.581237e-01 -6.128380e-01 -9.108272e-01 -2.287114e-02 
-7.889989e+00 -1.488662e+01 -8.467602e+00 -3.495760e+00 1.282052e+01 1.481100e+01 -5.170175e+00 -1.636267e+01 1.190015e+00 1.650913e+01 4.003207e+00 -1.888789e+00 2.161432e-01 -1.121205e+00 -7.693458e-01 -1.033694e+00 1.938059e+00 6.455147e+00 -2.725258e+00 -4.097557e+00 -6.084593e-01 -1.575062e+00 -9.470871e-01 -5.150071e-01 -1.057053e+00 -6.734131e-02 
-6.819591e+00 -6.443827e+00 -7.273055e+00 5.726149e-01 1.236272e+01 -2.375324e-01 -1.073841e+01 -3.434678e+00 -5.232618e-01 -2.489624e-01 -3.288255e+00 -3.387649e-01 -7.668185e-02 -1.141254e+00 8.585264e-01 -7.912928e-01 1.077561e+00 2.611744e+00 -3.780069e+00 -1.308128e+00 2.000383e+00 -5.682065e-01 -1.389762e+00 -1.610164e-01 -1.089392e+00 -1.148841e-01 
-1.110592e+01 -1.659636e+01 -1.642302e+01 2.149763e+00 2.109303e+01 -5.478283e+00 -6.410909e+00 1.402629e+00 -9.885472e+00 2.638935e+00 -2.626901e-01 -1.281691e+00 6.450766e-02 -1.473078e+00 3.424091e+00 1.659498e-01 -3.863669e-03 -2.563402e+00 -3.099003e+00 1.438382e+00 2.923503e+00 -1.516415e+00 -1.195348e+00 1.306067e-01 5.964466e-01 -7.449255e-02 
-1.229119e+01 -7.381324e+00 -1.075336e+01 -1.128338e+00 8.964834e+00 -4.691257e-01 -2.924443e+00 -2.943891e+00 -3.767139e+00 3.078457e+00 2.309632e-01 -6.172676e+00 -1.429278e-01 -4.126852e-01 4.201549e+00 9.583341e-01 -1.254410e+00 -3.015195e+00 1.240720e+00 4.204732e+00 1.152150e+00 1.166215e+00 2.696128e+00 -3.959711e-02 4.135624e-01 -3.369259e-02 
-1.251958e+01 2.702585e+00 -5.897700e+00 -2.664602e+00 1.702457e+00 -5.682225e-01 -1.885247e+00 -1.990543e+00 -4.770120e+00 8.868685e+00 2.896632e+00 4.010401e+00 -1.231966e-01 6.196426e-01 5.742595e+00 2.505725e+00 -1.803714e+00 -3.682276e+00 1.560585e+00 3.435104e+00 1.871906e+00 3.841421e+00 3.313686e-01 -1.946500e+00 1.255727e+00 -4.399656e-02 
-8.176189e+00 4.914446e+00 -7.744046e+00 -3.292250e+00 6.982030e+00 3.511039e+00 8.022422e+00 4.022658e+00 2.750139e+00 1.011680e+01 -5.065902e+00 -9.169989e-01 -1.512927e-01 5.676627e-01 2.668667e+00 9.042366e-01 -1.849447e+00 -1.741219e+00 3.989317e-01 1.343266e+00 2.202164e+00 2.729169e+00 4.833998e-01 -7.307814e-01 8.066534e-01 -4.482591e-03 
-1.006521e+01 5.968733e+00 -5.399054e+00 -5.786849e+00 3.673053e+00 3.345585e-01 5.291178e+00 7.278882e+00 6.062994e+00 7.766054e-01 -7.346760e+00 2.369103e+00 -1.512927e-01 7.955314e-01 1.179848e+00 1.504652e-01 -3.393498e-01 -7.357253e-01 -1.109678e+00 -7.755153e-01 4.323736e-01 2.616297e+00 -2.251996e-01 -4.720219e-01 -1.001117e+00 -5.495334e-03 
-1.068006e+01 4.328937e+00 -6.481502e+00 -8.814450e+00 -7.265577e-01 1.074142e+00 2.036767e-01 3.432217e+00 4.462149e+00 9.541496e+00 1.698752e+00 -1.318760e+00 -1.512927e-01 1.304399e+00 2.080273e+00 1.667841e+00 1.399231e+00 -6.235632e-02 -5.739096e-01 -2.077248e+00 -1.311521e+00 5.228609e-01 -1.497966e+00 1.346349e+00 -9.332236e-01 1.525955e-02 
-7.289989e+00 8.894579e+00 -5.776647e+00 -1.600251e+00 1.878125e+00 -4.898164e+00 -1.853451e+00 4.665455e-01 7.455359e+00 8.030340e+00 -2.845805e+00 -7.943031e-01 -1.506733e-01 4.728157e+00 1.379736e+00 1.649382e+00 1.532179e+00 -1.381863e+00 -1.493560e+00 -2.243182e-01 -4.081635e-01 -1.709323e+00 -3.751352e+00 1.415582e+00 2.750344e-01 8.377572e-02 
-3.041804e+00 1.385289e+01 7.839572e-01 1.610604e+00 7.567713e+00 3.257853e+00 1.208495e+00 8.712242e-01 4.668261e+00 -9.998951e-01 -5.846357e-01 -4.001413e+00 -7.530463e-02 5.110497e+00 9.371504e-01 1.793387e+00 8.590018e-01 -2.002853e+00 -2.747446e+00 1.117453e+00 2.068953e+00 -2.581166e+00 -6.472044e+00 2.071942e-01 2.204862e+00 8.843693e-02 
9.756449e+00 8.105436e+00 -7.848741e-01 -3.338481e+00 -7.383398e+00 -8.225098e+00 3.667178e+00 6.518561e+00 -2.586675e+00 -1.270946e+01 8.728456e-01 5.085602e+00 2.295919e-01 3.801972e+00 4.219714e-01 1.444419e+00 -2.703463e-01 -2.364995e+00 -2.482368e+00 1.848147e+00 2.962290e+00 -3.199128e+00 -3.315093e+00 7.409568e-01 1.687271e+00 6.697722e-02 
6.349209e+00 9.409260e+00 -1.045227e-02 -3.650327e+00 -6.110062e+00 -1.099962e+01 3.030630e+00 1.075097e+01 -3.422662e+00 -1.244883e+01 8.753977e-01 6.765599e+00 1.007594e-01 3.001833e+00 -1.114898e+00 -1.739048e-01 -9.613236e-01 -1.855554e+00 -1.481887e+00 7.465205e-02 1.381595e+00 -1.648075e+00 -1.139266e+00 8.484632e-01 1.888883e+00 7.228914e-02 
7.024367e+00 1.322625e+01 1.842652e+00 -3.215170e-01 -3.107959e+00 -1.018127e+01 6.476218e+00 1.033812e+01 -4.494818e+00 -2.820661e+00 1.289625e-01 2.258544e+00 9.618080e-02 1.540594e+00 -1.560482e+00 -9.089372e-02 8.426289e-02 2.978603e-01 1.517855e+00 -1.384107e+00 -7.036731e-01 5.075026e-01 -1.445812e-01 6.207497e-01 4.249012e-01 6.304625e-02 
1.333340e+01 5.717990e+00 -1.399330e+00 -4.704496e+00 -3.847775e+00 -3.173496e+00 1.772348e-01 5.869420e+00 -2.618044e+00 -1.164063e+01 4.029622e+00 6.856532e+00 3.528466e-01 2.253745e+00 -2.648593e+00 3.708345e-01 2.477407e-01 -1.298057e+00 1.068547e+00 -1.222675e+00 -1.350917e+00 1.139979e+00 -1.575774e+00 7.935257e-02 2.839541e-01 1.074221e-01 
1.396732e+01 2.148660e+00 -5.449039e-01 -2.390082e+00 -7.025239e+00 -4.548887e+00 -1.826660e+00 5.440973e+00 -4.514706e-01 -1.383646e+01 2.399482e+00 7.164641e+00 4.187796e-01 1.395225e+00 -2.968502e+00 1.778859e+00 2.120120e-01 -3.224671e+00 3.540320e-02 -1.780938e+00 -4.739236e-01 1.249290e+00 -2.753949e+00 -3.805034e-01 3.806193e-01 9.976096e-02 
1.414645e+01 1.705088e+00 3.037498e+00 -1.377341e+00 -1.064171e+01 -8.473077e+00 1.068694e+00 6.444967e+00 2.555604e-01 -1.481980e+01 1.369007e-01 5.732321e+00 4.765703e-01 1.983629e-01 -1.594745e+00 3.094484e+00 4.951652e-01 -3.696842e+00 -7.952735e-01 -8.875246e-01 -3.668328e-01 7.926365e-01 -7.363632e-01 -8.467848e-01 4.233777e-01 5.954837e-02 
1.359397e+01 3.901924e-01 8.518531e+00 -9.250348e-01 -1.583435e+01 -7.354464e+00 -2.874199e+00 7.680730e+00 3.148310e-01 -1.500082e+01 1.728060e-01 4.723746e+00 5.331237e-01 2.402998e-01 -1.178379e+00 2.545536e+00 -6.814211e-01 -3.725321e+00 6.029280e-01 -1.639744e+00 -1.358479e+00 1.098286e+00 6.340675e-02 2.199761e-01 1.666725e+00 6.270603e-02 
1.451190e+01 -1.376502e+00 9.541374e+00 -2.961194e+00 -1.792743e+01 -5.747075e+00 -3.736619e+00 2.915378e+00 9.619881e-01 -1.474026e+01 9.090357e-01 1.019387e+01 5.934164e-01 3.749809e-01 -1.436968e+00 1.127285e+00 -1.940108e+00 -3.297607e+00 1.763715e+00 -2.581960e+00 -1.536320e+00 2.380055e+00 7.754681e-01 1.006633e+00 1.975694e+00 6.811781e-02 
1.498610e+01 -2.202441e+00 8.930840e+00 -5.005261e+00 -2.200899e+01 -2.897248e+00 -7.622725e+00 4.133714e-01 4.686747e+00 -1.355920e+01 3.113295e+00 1.326749e+01 6.738867e-01 1.396413e-01 -1.412182e+00 -5.915300e-01 -2.931405e+00 -2.274387e+00 1.825936e+00 -1.375193e+00 -6.734172e-01 3.836907e+00 9.668705e-01 7.579750e-01 9.308370e-01 7.080933e-02 
1.532529e+01 -4.183434e+00 8.467770e+00 -9.037766e+00 -2.404243e+01 -1.883110e+00 -9.466844e+00 2.397046e+00 9.969880e+00 -1.166327e+01 3.699819e+00 1.133892e+01 7.467779e-01 -4.231225e-01 -1.292910e+00 -1.781561e+00 -3.055429e+00 -1.366073e+00 2.744316e+00 2.063162e-01 1.364718e+00 3.689758e+00 9.215679e-02 -2.007977e-01 -1.472679e+00 6.814581e-02 
1.388548e+01 -5.267251e+00 6.097683e+00 -1.254377e+01 -2.414878e+01 -1.567683e-01 -6.885053e+00 4.572810e+00 1.499542e+01 -1.170497e+01 2.567289e+00 8.805407e+00 8.104897e-01 -5.691220e-01 -1.629025e+00 -1.933424e+00 -2.965903e+00 1.332344e-01 3.162549e+00 1.883595e+00 2.501791e+00 1.849602e+00 -7.661873e-01 -2.079957e+00 -1.975633e+00 5.835784e-02 
1.294660e+01 -6.308646e+00 2.050150e+00 -1.446908e+01 -2.368790e+01 6.604264e+00 -3.073874e+00 7.659249e+00 1.425644e+01 -1.520660e+01 1.780500e-01 5.061517e+00 8.658440e-01 -6.222017e-01 -1.793243e+00 -1.784912e+00 -2.250853e+00 2.025228e+00 2.984446e+00 2.989132e+00 1.016707e+00 -7.382677e-01 -9.394522e-01 -2.984134e+00 -3.327779e-01 4.131943e-02 
1.332984e+01 -9.284961e+00 2.472529e+00 -1.711912e+01 -2.152008e+01 8.671808e+00 -1.401232e+00 1.029123e+01 1.179148e+01 -1.561847e+01 -5.525603e+00 6.528029e+00 9.061428e-01 -5.296133e-01 -1.711696e+00 -1.391741e+00 -7.507877e-01 2.544117e+00 2.570218e+00 1.913278e+00 -8.975399e-01 -1.837474e+00 -6.253197e-01 -2.382126e+00 1.242191e+00 2.370445e-02 
1.249210e+01 -1.114079e+01 1.355784e+00 -1.800436e+01 -1.523064e+01 8.624830e+00 2.736906e+00 4.621371e+00 7.880513e+00 -1.440378e+01 -7.174407e+00 1.081372e+01 9.055485e-01 -5.900763e-01 -1.452648e+00 -1.208475e+00 4.371748e-01 2.737562e+00 1.860904e+00 5.750176e-01 -2.949991e+00 -1.554577e+00 2.402994e-01 -7.924412e-01 2.372763e+00 1.657641e-02 
1.146466e+01 -1.140966e+01 -5.138365e-01 -1.453007e+01 -1.565683e+01 1.168404e+01 -2.240543e-01 1.604050e+00 8.996016e+00 -1.523297e+01 -5.667111e+00 1.214026e+01 9.091597e-01 -4.323741e-01 -1.335439e+00 -1.216100e+00 1.338984e+00 2.202401e+00 1.941887e+00 -6.417721e-01 -3.628967e+00 -6.857854e-01 4.808470e-01 1.048931e+00 2.014686e+00 1.373364e-02 
1.092881e+01 -1.250954e+01 -2.499044e+00 -1.357773e+01 -1.293171e+01 1.440267e+01 -7.873745e-01 -2.747118e+00 7.881286e+00 -1.419785e+01 -3.713402e+00 1.411922e+01 9.472176e-01 -2.031090e-01 -1.395191e+00 -7.680128e-01 1.284921e+00 1.610240e+00 1.906131e+00 -1.999615e+00 -2.328194e+00 -3.210756e-01 1.362047e+00 1.230653e+00 1.350582e+00 1.821474e-02 
1.194962e+01 -1.527778e+01 -1.680556e+00 -1.263751e+01 -1.165754e+01 1.549232e+01 -2.847952e+00 -4.169363e+00 8.362165e+00 -1.331720e+01 -2.011454e+00 1.494871e+01 9.539765e-01 -2.764255e-01 -1.302467e+00 -4.831797e-01 6.081155e-01 2.440062e+00 6.802017e-01 -1.935753e+00 -1.718650e+00 -4.809524e-01 2.941126e+00 3.034379e-01 1.084753e+00 1.940990e-02 
1.123408e+01 -1.618269e+01 -1.900921e+00 -1.252604e+01 -9.179087e+00 1.625134e+01 -5.949221e+00 -4.132893e+00 6.592059e+00 -8.551429e+00 -2.848969e+00 1.616241e+01 9.742138e-01 -5.663178e-01 -7.378003e-01 -1.844962e-01 5.862570e-01 2.483356e+00 -4.321848e-01 -1.868256e+00 -1.334777e+00 3.022609e-01 3.146026e+00 8.094673e-02 -1.844826e-01 1.432378e-02 
9.929893e+00 -1.608541e+01 -3.228797e+00 -1.201534e+01 -5.332831e+00 1.416071e+01 -7.321898e+00 -6.296310e+00 7.235866e+00 -3.350551e+00 -4.582138e+00 1.654243e+01 9.927111e-01 -1.069468e+00 7.758331e-02 -3.358705e-01 6.996233e-01 2.601058e+00 -1.486075e+00 -1.605317e+00 -1.441642e+00 9.375523e-01 2.952228e+00 3.023436e-01 -2.110240e+00 1.173025e-02 
9.107079e+00 -1.579472e+01 -2.647404e+00 -1.095753e+01 -3.677281e+00 1.290755e+01 -7.891681e+00 -8.357527e+00 9.955740e+00 -3.451041e+00 -2.023326e+00 1.239994e+01 9.994692e-01 -1.192301e+00 5.574790e-01 -2.424169e-01 1.387975e+00 1.650569e+00 -2.109528e+00 -1.351023e+00 -1.096848e+00 1.787478e+00 2.075137e+00 3.619618e-01 -3.445322e+00 4.246509e-03 
7.665775e+00 -1.508385e+01 -2.986666e+00 -9.923648e+00 -1.403145e+00 9.733846e+00 -9.903310e+00 -9.265257e+00 1.136809e+01 -1.106254e+00 -9.125566e-01 6.278743e+00 1.000000e+00 -1.177597e+00 9.024771e-01 -3.981624e-01 2.358105e+00 7.920694e-02 -1.982483e+00 -1.383971e+00 -2.777997e-01 2.110396e+00 1.296298e+00 2.535118e-01 -4.375802e+00 -3.293085e-03 
6.404633e+00 -1.389608e+01 -3.234070e+00 -6.632008e+00 -2.891084e+00 7.917136e+00 -1.141363e+01 -8.132662e+00 1.346334e+01 7.021058e-01 -2.873950e+00 4.067644e+00 9.918019e-01 -1.068364e+00 1.142690e+00 -5.799476e-01 2.588237e+00 -5.922799e-01 -2.219662e+00 -1.000929e+00 3.453968e-01 1.963423e+00 1.236421e+00 -7.138427e-01 -3.604502e+00 -9.150267e-03 
5.393132e+00 -1.252235e+01 -4.926276e+00 -2.387576e+00 -5.329895e+00 6.743504e+00 -1.248078e+01 -7.797741e+00 1.603405e+01 1.054368e+00 -2.889267e+00 -1.170424e+00 9.800793e-01 -7.807490e-01 1.133150e+00 -4.528838e-01 2.612616e+00 -1.350370e+00 -1.472110e+00 -8.096787e-01 6.034013e-01 1.588593e+00 4.892241e-01 -7.112156e-01 -2.215467e+00 -1.220457e-02 
4.901579e+00 -1.136202e+01 -4.577337e+00 -1.784382e+00 -4.675306e+00 3.304412e+00 -1.160759e+01 -7.364301e+00 1.743987e+01 1.650754e+00 -4.604185e+00 -1.897984e+00 9.636782e-01 -1.688723e-01 8.910447e-01 -2.368828e-01 2.463126e+00 -1.638672e+00 -9.648906e-01 -5.551136e-01 -1.038253e-01 1.173334e+00 -3.472020e-01 9.308472e-02 -1.226013e+00 -1.879420e-02 
4.513557e+00 -1.068513e+01 -4.579452e+00 7.156193e-01 -7.262887e+00 4.679658e+00 -1.385472e+01 -6.632431e+00 1.732278e+01 8.655424e-01 -3.603517e+00 -1.815779e+00 9.530390e-01 4.359337e-01 6.245713e-01 4.051894e-01 2.554963e+00 -1.911850e+00 -2.072487e-02 -7.719653e-01 -1.379025e-01 -2.862151e-01 -4.493063e-01 8.642437e-01 -6.700153e-01 -3.640193e-02 
6.000059e+00 -1.035946e+01 -4.591896e+00 4.132025e+00 -1.011795e+01 4.124606e+00 -1.350223e+01 -9.234444e+00 1.868564e+01 -9.394917e-01 -2.051402e+00 -1.739746e+00 9.113510e-01 1.031435e+00 3.614424e-01 1.482501e+00 3.335465e+00 -7.885222e-01 -5.441881e-01 1.353827e+00 -4.571552e-01 -3.971528e+00 -1.214308e+00 1.639366e+00 -9.858721e-01 -6.836376e-02 
7.023561e+00 -9.900774e+00 -2.893050e+00 7.429036e+00 -1.216782e+01 6.229782e+00 -1.539329e+01 -7.552183e+00 1.398009e+01 1.029592e-01 1.555600e-01 -4.599620e+00 8.242332e-01 1.194530e+00 3.661291e-01 2.550460e+00 2.093703e+00 8.918376e-01 -1.621997e+00 3.771381e+00 -1.610620e-01 -7.308386e+00 -1.616039e+00 1.715092e+00 -6.875056e-01 -7.849944e-02 
8.803751e+00 -9.946984e+00 1.991968e+00 1.153623e+01 -6.165450e+00 -1.915905e-01 -4.069172e+00 -9.190201e+00 -7.464168e-01 -4.039493e+00 1.713104e+00 -5.435423e+00 6.862622e-01 8.372415e-01 3.571214e-01 3.137424e+00 1.774368e-01 1.757694e+00 -1.623254e+00 4.456412e+00 5.416393e-01 -8.772415e+00 -1.096699e+00 1.055716e+00 1.054083e-01 -6.534623e-02 
9.084362e+00 -9.060723e+00 4.880918e+00 7.482030e+00 -4.779948e+00 -1.272229e+00 2.856570e-01 -7.459862e+00 -9.503117e+00 -5.664650e+00 3.089690e+00 -3.405468e+00 6.730862e-01 4.436200e-01 4.265465e-01 2.727185e+00 -1.305210e+00 1.514020e+00 -1.126356e+00 4.093150e+00 1.864481e-01 -6.747098e+00 -1.103725e+00 6.520486e-01 8.656313e-01 -3.687717e-02 
9.155867e+00 -8.993882e+00 7.208240e+00 4.992712e+00 -5.023418e+00 -2.406602e-01 9.403609e-01 -6.572407e+00 -1.343483e+01 -3.539181e+00 1.760114e+00 -1.809780e+00 6.601934e-01 8.412747e-02 5.243529e-01 1.601848e+00 -1.954236e+00 3.226390e-01 3.451170e-01 1.794307e+00 -1.207567e-01 -2.663702e+00 -3.468474e-01 3.469439e-01 5.995670e-01 -1.172186e-02 
9.065603e+00 -8.244593e+00 8.134739e+00 4.174749e+00 -5.168739e+00 6.225379e-01 2.567695e+00 -7.928839e+00 -1.341119e+01 -5.665823e+00 3.392298e+00 -2.084285e+00 6.528818e-01 -1.317977e-01 8.068317e-01 5.126913e-01 -4.837728e-01 1.924291e-01 6.080713e-01 1.332377e+00 -5.234126e-01 -7.373769e-01 2.175658e-01 1.782718e-02 -3.160126e-01 -1.685741e-02 
9.233768e+00 -7.733284e+00 8.374299e+00 3.418696e+00 -4.357859e+00 5.866108e-01 3.761342e+00 -9.559496e+00 -1.211089e+01 -5.773143e+00 3.296520e+00 -3.098180e+00 6.377552e-01 6.253839e-02 1.411778e+00 -8.621918e-01 6.980860e-01 5.419477e-01 6.826371e-01 1.144936e+00 -4.392734e-01 -9.482308e-02 2.067049e-01 5.939087e-01 -9.811839e-01 -2.656247e-02 
8.386423e+00 -5.656863e+00 6.861344e+00 5.850174e+00 -4.150582e+00 1.354492e+00 5.537050e+00 -8.583381e+00 -1.385197e+01 -3.459840e+00 2.410623e+00 -4.341331e+00 6.000183e-01 3.679420e-01 1.823333e+00 -1.762542e+00 1.266683e+00 1.200303e+00 3.330216e-01 6.276999e-01 6.399791e-01 -4.477221e-01 1.095298e+00 5.142004e-01 -1.117127e+00 -3.663609e-02 
9.808148e+00 -3.228857e+00 3.533978e+00 7.645430e+00 -2.822758e+00 2.806549e+00 5.180363e+00 -8.441503e+00 -1.368856e+01 -3.608648e+00 5.220495e+00 -5.587176e+00 5.538129e-01 3.666483e-01 2.087985e+00 -1.513480e+00 7.180492e-01 2.134758e+00 -2.127579e-01 6.108660e-01 1.578739e+00 -8.439249e-01 8.508917e-01 1.037265e+00 -1.084909e+00 -4.421693e-02 
1.061812e+01 -1.380140e+00 1.742188e+00 8.394795e+00 6.522465e-02 1.177677e+00 4.996684e+00 -5.287940e+00 -1.486097e+01 -1.271578e+00 5.001313e+00 -6.425420e+00 5.116725e-01 6.410971e-02 1.986527e+00 -1.579933e-01 -6.161402e-01 2.761373e+00 -4.283885e-01 1.233639e-01 1.964096e+00 -3.731958e-01 1.722853e-01 1.603162e+00 -5.399995e-01 -4.925064e-02 
9.951159e+00 5.682778e-01 3.366478e+00 5.736631e+00 4.208025e+00 -3.887713e-01 7.085855e+00 -3.313520e+00 -1.582602e+01 -2.612815e+00 7.187498e+00 -7.480680e+00 4.608434e-01 -8.139084e-01 1.490139e+00 1.157644e+00 -8.935152e-01 2.577425e+00 -3.144724e-01 -6.363117e-01 2.395257e+00 6.132261e-01 6.642129e-01 7.150769e-01 4.002948e-02 -5.452596e-02 
8.635467e+00 2.377207e+00 6.155128e+00 3.723872e+00 6.140890e+00 8.102090e-01 5.201123e+00 -1.326890e+00 -1.464922e+01 -3.096330e+00 9.442934e+00 -6.094578e+00 4.002498e-01 -1.422700e+00 8.849770e-01 7.680354e-01 1.057758e-01 1.794195e+00 2.880979e-03 -2.705486e-01 2.579792e+00 2.445985e+00 1.726160e+00 3.709677e-01 4.986688e-01 -6.044438e-02 
6.729935e+00 2.343165e+00 7.115728e+00 5.513315e+00 7.026534e+00 1.417921e+00 1.896585e+00 1.554261e+00 -1.072830e+01 6.247928e-01 6.575069e+00 -5.552450e+00 3.368944e-01 -1.718670e+00 8.732280e-01 -3.646123e-01 1.124769e+00 1.627330e+00 2.431377e-01 4.487844e-01 2.733799e+00 2.627523e+00 1.430595e+00 -1.412117e+00 -1.636957e-01 -6.419462e-02 
5.115234e+00 2.157301e+00 3.707739e+00 9.035333e+00 7.626946e+00 2.887356e-01 6.238576e+00 5.177134e+00 -5.179901e+00 5.740418e+00 7.162365e+00 -4.896191e+00 2.714251e-01 -1.880977e+00 1.047734e+00 -2.829227e-01 8.784595e-01 8.687380e-01 -1.078483e-01 1.348390e+00 2.638672e+00 1.604338e+00 -1.849622e-01 -2.848710e+00 -9.459157e-01 -6.466269e-02 
3.117925e+00 5.044371e+00 2.767111e+00 8.704747e+00 1.160165e+01 1.087654e+00 8.811050e+00 7.103464e+00 -7.423061e+00 1.217859e-01 1.267196e+00 -8.898352e+00 2.042826e-01 -1.693227e+00 1.568985e+00 -4.475411e-01 -1.605511e-02 7.098763e-01 -5.031630e-01 -4.335017e-01 3.554949e-01 4.166891e-01 -8.206478e-01 -1.536995e+00 -7.432585e-01 -6.539979e-02 
1.036588e+00 6.265273e+00 6.914823e+00 6.520453e+00 8.197024e+00 4.361007e-01 8.485838e+00 9.091868e+00 -8.280155e+00 -3.769637e+00 -2.146680e+00 -9.151205e+00 1.432422e-01 -1.500324e+00 1.856149e+00 4.697970e-01 -1.159922e+00 -6.540511e-02 -6.595556e-01 -2.543028e+00 -1.102858e+00 1.006848e+00 -5.804030e-01 -1.293974e+00 3.517034e-01 -5.116900e-02 
3.031230e-01 8.134104e+00 3.274481e+00 6.690479e+00 1.029088e+01 -1.171577e+00 -1.394555e+00 1.374368e+00 -7.094728e+00 1.276582e+00 3.544618e+00 -7.141235e+00 7.398689e-02 -9.966747e-01 1.241422e+00 3.923905e-01 -1.223663e+00 3.789026e-01 -1.408127e-01 -2.387772e+00 -1.953634e+00 1.839724e+00 1.318005e+00 5.899857e-01 1.685070e+00 -2.742175e-02 
-9.789846e-01 9.893182e+00 5.803040e+00 4.242858e+00 7.955306e+00 -1.879427e+00 -1.373762e+00 2.527394e+00 -3.098297e-01 2.261005e+00 -4.462168e-01 -4.016232e+00 8.072793e-02 -6.990506e-01 7.458881e-01 -7.619486e-02 -7.071092e-01 9.080054e-01 -1.068992e-01 -1.671886e+00 -1.717037e+00 1.027558e+00 1.384636e+00 4.992558e-01 1.622569e+00 -2.313011e-02 
-8.576624e-01 9.437528e+00 5.284956e+00 3.725231e+00 1.361702e+01 1.541354e+00 1.801992e+00 6.175294e-01 -2.209602e+00 3.696488e+00 3.366892e+00 -3.040486e+00 9.843099e-02 -5.159379e-01 5.131550e-02 -2.007782e-01 -7.357314e-01 8.461046e-02 -2.115912e-01 -1.117723e+00 -9.975952e-01 -4.474144e-02 4.364613e-01 6.005504e-02 2.212454e-01 -2.388181e-02 
-1.878272e+00 9.343001e+00 5.528611e+00 4.467532e+00 1.107398e+01 -1.454861e+00 -1.471864e+00 8.851020e-01 -5.584929e+00 1.943592e+00 4.384618e-01 -3.088734e+00 1.536959e-02 -6.610624e-01 -7.251215e-02 -1.029947e+00 -9.848899e-01 -1.273510e-01 -6.939672e-01 -2.227843e+00 -1.509277e-01 -4.992288e-01 3.574643e-03 8.314635e-01 9.400590e-02 -3.744446e-02 
-1.826923e+00 8.665771e+00 2.407804e+00 2.899486e+00 9.154592e+00 -2.441816e+00 -6.934121e+00 -2.792462e+00 -4.680886e+00 3.617594e+00 3.402554e+00 -6.498757e+00 -1.274300e-02 -6.684973e-01 3.937948e-01 -3.016841e-01 -6.755545e-01 -4.218176e-01 6.664703e-01 -1.307113e+00 -6.402551e-01 1.030221e-01 1.366623e+00 5.597799e-01 3.513898e-01 -2.509999e-02 
-3.799667e+00 9.916499e+00 2.091880e+00 -2.687187e-01 9.549764e+00 -3.357678e+00 -8.144919e+00 3.477751e+00 -1.570332e+00 2.318325e+00 3.693270e+00 -1.817067e+00 -5.090737e-02 -4.453903e-01 5.726864e-01 -5.786756e-01 -8.481627e-01 -3.336744e-01 1.179837e+00 2.646662e-01 -1.099343e-01 1.680780e+00 2.507568e+00 1.093523e+00 1.476403e+00 -1.118991e-02 
-3.239452e+00 1.111975e+01 5.494900e+00 2.715585e+00 1.227004e+01 5.825114e+00 -1.397046e+00 -3.880071e+00 -3.701790e+00 1.034224e+01 4.538388e+00 -1.919371e+00 6.069541e-03 8.276940e-04 5.857621e-01 -6.250894e-01 -9.456848e-01 -1.599713e+00 8.238188e-01 1.643537e+00 3.657339e-02 9.794346e-01 1.814105e+00 -9.268467e-01 1.420216e+00 -9.745324e-03 
-3.398959e+00 1.097944e+01 1.091685e+00 3.186691e-01 7.847885e+00 3.108613e-01 -2.917071e+00 8.792347e-01 2.329424e+00 1.111911e+01 5.338161e+00 2.003587e+00 -4.998624e-02 3.191453e-01 6.006140e-01 8.943758e-02 8.046136e-02 -2.267970e+00 8.826442e-02 1.726115e+00 -4.378700e-02 4.202034e-01 1.364340e+00 -1.018599e+00 1.693875e-01 -1.274043e-02 
-2.023138e+00 1.106311e+01 -2.175450e-01 -2.122633e+00 2.006964e+00 -1.569922e-01 -1.330360e+00 -1.310337e+00 -1.733591e+00 8.287726e+00 -2.054125e+00 -1.308006e+00 -6.193018e-02 1.877425e-01 2.145114e-01 4.258215e-01 4.682984e-02 -2.466300e+00 -2.267974e+00 4.379675e-01 1.980528e+00 8.717906e-01 -1.215109e+00 -4.437397e-01 -2.706688e-02 -2.911615e-02 
-2.812097e+00 1.294789e+01 5.395291e+00 2.552696e+00 3.341450e+00 7.469749e-02 4.523131e-01 1.973950e+00 -4.534140e-01 1.016728e+01 1.896532e+00 -1.275811e+00 -8.060968e-02 1.108215e-01 1.220913e-01 1.281205e+00 9.911869e-01 -3.008666e-01 -6.467224e-01 1.148107e+00 1.134932e+00 -8.608595e-01 -2.290688e+00 -7.092692e-01 -8.609698e-01 -1.912538e-02 
-2.594170e+00 1.120809e+01 5.472205e+00 1.832720e+00 2.191757e+00 -5.396673e+00 -8.919005e-01 5.475211e+00 2.048582e+00 4.742609e+00 4.040504e+00 -4.150064e-01 -1.241995e-01 -2.045546e-01 2.081923e-01 6.445586e-01 3.082615e-01 6.720530e-01 8.296011e-02 9.764423e-01 8.966646e-01 -2.606092e-01 -1.432811e+00 -3.483590e-01 -8.165386e-01 -2.125938e-02 
-2.559335e+00 1.151741e+01 4.652835e+00 3.296927e+00 6.251155e+00 -3.029106e-01 2.604236e+00 3.161121e+00 -3.865960e+00 1.438233e+00 -1.255499e+00 -2.747762e+00 -1.144785e-01 -4.226816e-01 -6.908642e-01 -6.142635e-01 -4.521844e-01 6.885132e-01 1.090983e+00 7.500871e-01 -4.168125e-01 -9.363663e-01 -1.669931e+00 -4.504781e-01 -4.270436e-01 -1.684592e-02 
-3.172292e+00 1.281931e+01 3.376476e+00 -9.534404e-01 3.912376e+00 4.466124e-01 2.475890e+00 2.579400e+00 -1.330364e+00 5.488193e+00 -2.219905e+00 -4.654724e+00 -1.512927e-01 -3.743719e-01 1.249577e-01 1.968806e-01 3.411601e-01 5.681440e-01 1.585528e+00 1.157575e-01 -1.514937e+00 -1.242260e+00 -4.988590e-01 -5.831329e-01 -4.063908e-01 -2.445412e-03 
-4.636444e+00 8.687957e+00 3.371838e+00 1.684855e+00 5.923707e+00 2.607970e+00 2.518853e+00 1.337793e+00 -3.445773e+00 1.444833e+00 2.774346e+00 -1.291171e+00 -1.512927e-01 5.228510e-02 4.518296e-01 2.824327e-01 7.265325e-01 1.014382e-01 -5.269549e-01 -9.861401e-01 -1.732030e+00 -3.701485e-01 1.227524e-01 3.586239e-01 -9.407650e-01 3.031468e-03 
-3.427475e+00 1.324760e+01 7.097107e+00 4.344557e+00 5.196202e+00 1.075528e+00 -2.704215e-01 -1.187809e+00 -4.372813e+00 2.245014e+00 -8.900831e-01 -3.175256e+00 -1.180195e-01 1.651740e-01 9.097509e-02 1.050898e-01 1.427892e+00 6.624211e-01 -1.993721e-01 -7.338327e-01 -1.484076e+00 2.563737e-01 -1.320046e-01 9.320529e-02 -1.094280e+00 5.347169e-03 
-2.170318e+00 1.356241e+01 4.204683e+00 4.280591e+00 6.116434e+00 -3.252143e+00 -9.533079e-01 -3.615426e+00 -4.195478e+00 3.673584e+00 -1.272905e-01 -8.191320e+00 -1.159577e-01 2.041929e-01 1.321252e-01 -3.446290e-01 6.899422e-01 7.062696e-01 5.128881e-01 -5.070544e-01 1.450738e-01 1.715235e+00 1.141949e+00 -1.552307e+00 -1.487018e+00 3.423178e-03 
-3.579485e+00 1.083696e+01 3.485502e+00 4.888153e+00 7.128118e+00 2.379808e+00 5.428069e-01 -2.364372e+00 3.263569e-01 3.713794e+00 -3.030603e-01 -6.676050e+00 -1.422243e-01 -2.365647e-01 -5.859469e-01 -4.022462e-01 5.996953e-01 9.781821e-01 1.129219e+00 9.306967e-01 1.912810e+00 2.313299e+00 1.357434e+00 -5.741575e-01 -6.530175e-02 2.284551e-03 
-3.539475e+00 1.055390e+01 3.454495e+00 4.862767e+00 8.489097e+00 4.520270e+00 -4.230335e-01 2.651443e+00 2.780817e+00 6.420188e+00 -5.280699e+00 -6.975864e+00 -1.220744e-01 -3.765904e-01 -2.685582e-01 1.699926e-01 4.027959e-01 1.307559e+00 1.990288e+00 1.436336e+00 1.643726e+00 1.681458e+00 1.354733e-01 -6.592633e-01 1.132390e+00 2.696049e-03 
-3.925720e+00 1.182212e+01 5.460970e+00 7.051945e+00 8.900781e+00 2.835418e+00 4.117925e+00 5.242805e+00 3.705536e+00 7.658884e+00 -1.184166e+00 -4.109493e+00 -1.035384e-01 -3.566791e-01 2.021438e-01 7.126602e-01 7.356453e-03 5.070869e-01 3.279771e-01 9.629086e-01 2.544691e-01 2.079732e-01 -1.280344e+00 4.937316e-01 8.941540e-01 -1.788282e-03 
-3.880153e+00 1.172704e+01 4.066913e+00 5.212674e+00 1.176790e+01 6.471492e+00 4.440813e+00 7.996163e-01 2.522222e+00 2.378406e+00 -2.983054e+00 -3.812651e+00 -1.218204e-01 -1.222106e-01 9.165487e-02 -2.562513e-01 -1.089895e+00 -2.026230e-01 -8.338691e-01 7.177101e-01 -1.169884e+00 -1.311104e+00 -1.647480e+00 1.237633e+00 2.038974e-01 -1.061909e-02 
-5.192541e+00 1.126111e+01 6.742595e+00 4.749982e+00 8.024153e+00 3.044083e+00 2.925426e+00 -1.661138e-01 1.495520e+00 -6.670341e-01 1.016775e+00 -3.786887e+00 -1.512927e-01 7.194281e-03 -4.522075e-01 -1.007853e+00 -1.759513e+00 -1.037282e+00 -1.987432e+00 -6.343387e-01 -1.618459e+00 -1.660145e+00 -2.752576e-01 8.522110e-01 3.337387e-01 -1.249808e-02 
-3.517117e+00 1.129269e+01 1.532426e+00 5.642750e-01 7.914296e+00 2.465923e-01 3.761766e+00 -4.935173e-01 -2.669694e+00 2.345749e+00 -1.930053e-01 -6.117680e+00 -1.512927e-01 1.593656e-01 -7.301715e-01 -8.189949e-01 -1.084087e+00 -7.794114e-01 -2.030545e+00 -6.450443e-01 1.301760e-01 -5.299522e-01 8.129033e-01 1.947192e+00 1.296973e+00 -5.894446e-03 
-4.071267e+00 9.778262e+00 1.688948e+00 5.785806e-01 5.641173e+00 -3.989291e+00 1.285755e+00 -2.202922e+00 -1.999231e+00 6.298924e+00 1.681865e+00 -1.288285e+00 -1.512927e-01 1.229331e-01 -2.405994e-01 -6.291565e-01 1.906718e-01 4.222026e-01 -8.982533e-01 -5.283679e-01 3.259435e-01 1.544972e+00 1.902975e+00 -6.990643e-02 8.639926e-01 0.000000e+00 
-3.643962e+00 8.817607e+00 2.498762e+00 1.877939e+00 9.062330e+00 -1.645460e-01 2.035427e+00 2.468901e+00 1.619837e+00 2.959943e+00 6.420359e+00 1.422911e+00 -1.512927e-01 -2.437858e-01 1.523318e-01 4.587133e-01 1.343240e+00 7.213680e-01 -2.287359e-02 -5.369018e-01 3.137141e-01 2.856546e+00 1.463180e+00 -9.214172e-01 3.811985e-01 0.000000e+00 
-4.514453e+00 1.129565e+01 3.113645e+00 5.046509e+00 9.561148e+00 -1.241614e+00 1.146757e+00 -1.760525e-02 7.075615e+00 8.540742e+00 -2.639439e+00 -3.237220e+00 -1.512927e-01 -1.756864e-01 5.512820e-01 3.464276e-01 1.210443e+00 8.338768e-01 4.418285e-01 -1.166667e-01 1.884128e-01 2.360547e+00 1.006443e+00 -1.770241e+00 -8.558000e-01 0.000000e+00 
