-8.984356e+00 2.627684e+00 -4.397535e-01 3.545170e+00 -1.520126e+00 -6.768809e+00 -4.412083e+00 -4.778430e+00 -3.535907e+00 2.400829e+00 -4.757270e+00 -5.987497e+00 -1.292925e-01 -1.405402e-01 -2.328994e-02 -2.647088e-02 -1.978261e-01 -1.450456e-01 1.092278e+00 9.114949e-01 2.984667e-01 7.232094e-01 -2.725508e-01 1.809360e+00 1.361408e+00 5.836916e-03 
-9.677750e+00 9.203221e-01 -1.178352e+00 5.275617e+00 -1.463709e+00 -4.523464e+00 -5.899846e+00 -6.073103e+00 1.661367e+00 4.398811e+00 1.733935e+00 3.776646e-02 -1.184194e-01 2.419666e-01 -5.981534e-02 2.602991e-01 2.976817e-01 6.126362e-01 1.810261e+00 1.358104e+00 8.132164e-01 -5.143672e-01 -7.308267e-01 1.399109e+00 1.310764e+00 2.193820e-03 
-9.340361e+00 3.364916e+00 -2.028087e-01 1.690816e+00 -2.273562e+00 -2.430093e+00 8.892722e-01 -2.638759e+00 -2.518497e+00 3.908384e-02 1.043928e+00 -2.193091e+00 -1.055444e-01 1.027794e-01 -4.839498e-02 4.753444e-01 3.075617e-01 6.327502e-02 6.083106e-01 1.108532e+00 1.149878e+00 3.505062e-01 5.194631e-01 1.300445e+00 8.360481e-01 -4.754901e-04 
-7.596521e+00 1.959992e+00 7.432696e-01 5.960755e+00 1.919773e+00 1.131388e-01 -2.722378e-01 -1.782183e+00 -6.616447e+00 -7.243180e-02 -6.623244e-01 -1.330879e+00 -1.301974e-01 -1.338799e-01 -7.674336e-03 7.991924e-01 2.070937e-01 -1.403907e-01 -1.073312e-01 5.454868e-01 5.645229e-01 -5.492277e-01 2.983291e-01 5.511125e-01 7.458162e-01 -9.742499e-04 
-9.511074e+00 1.865875e+00 9.761578e-01 4.740409e+00 -2.895492e+00 -6.045558e+00 -1.683229e+00 -1.174499e+00 2.355532e+00 7.233767e+00 2.943084e+00 -1.122933e+00 -1.257809e-01 -3.797239e-01 -5.825104e-01 -1.483954e-01 8.401861e-02 -4.367881e-02 -9.427471e-01 3.596339e-01 1.600252e+00 1.196565e+00 7.291045e-01 9.637966e-02 3.681165e-01 -1.522231e-03 
-1.026179e+01 1.631471e+00 2.228127e+00 4.786289e+00 -1.854698e+00 -3.252388e+00 -1.886161e+00 -3.982619e+00 -3.521785e+00 2.293115e+00 3.539919e+00 3.231769e+00 -1.131724e-01 -4.850807e-01 -2.859341e-01 -2.583027e-03 -5.204421e-01 5.456980e-02 -2.221128e-01 1.153897e+00 1.910679e+00 5.775120e-01 -1.913830e-01 -2.535710e-02 1.220665e+00 1.676428e-03 
-9.906345e+00 6.166243e-01 -1.687214e+00 2.698142e+00 -6.047210e-01 -5.461066e+00 3.494403e+00 6.462721e+00 1.916996e+00 2.501833e+00 -5.752959e-01 -2.633833e+00 -1.216681e-01 2.082977e-01 -5.082694e-01 -3.210035e-01 -7.220188e-01 7.381794e-01 1.071054e+00 1.678674e+00 1.222418e+00 -1.442524e+00 -1.110900e+00 -1.002863e+00 6.616945e-01 -2.853131e-03 
-9.824289e+00 1.154947e+00 2.062041e+00 4.379678e+00 1.047236e+00 -1.289671e+00 2.908432e+00 3.952603e+00 -3.509620e+00 1.336620e+00 9.700799e-01 5.527897e+00 -1.238717e-01 3.084312e-01 5.578683e-02 5.387963e-01 6.076388e-02 4.782187e-01 -4.112435e-03 -6.487668e-01 2.630610e-02 -1.885154e-01 8.216732e-01 -4.380782e-01 -9.908115e-01 -6.587148e-03 
-8.688337e+00 -4.372104e-01 -5.458167e-01 1.333620e+00 -6.555622e-01 -1.671646e+00 4.312844e+00 9.699781e-01 -4.863172e+00 2.157513e+00 -7.863129e-01 1.037475e+00 -1.346970e-01 1.169658e-01 6.007637e-01 1.112951e+00 8.727009e-01 -8.023165e-01 9.447534e-02 -1.538063e+00 -2.168182e+00 -4.655651e-01 6.796662e-01 6.131226e-01 4.913206e-01 -8.818627e-04 
-9.328640e+00 2.437322e+00 4.351410e+00 5.772369e+00 5.618166e-01 -5.167659e+00 -5.539216e+00 -1.104717e+00 -1.074278e+00 6.573641e+00 1.455037e+00 -3.557943e+00 -1.395937e-01 2.053237e-01 6.401983e-01 -3.054006e-01 9.420942e-01 -8.834662e-01 -9.210981e-01 -1.145261e+00 -2.987544e-01 7.182463e-01 -7.166017e-01 -6.365253e-01 -1.297508e+00 6.608212e-03 
-9.569340e+00 2.979255e+00 2.732855e+00 6.365302e+00 -4.373593e+00 -3.049695e+00 2.791309e-02 -1.849529e+00 -1.628500e+00 3.281653e+00 2.247838e+00 4.365690e+00 -1.182164e-01 -2.901192e-02 7.530082e-01 2.137877e-01 4.809522e-01 -8.189914e-01 -4.262466e-01 -2.204113e-01 7.925293e-01 6.326060e-01 -3.100548e-01 -1.765238e-01 -8.970629e-01 4.352164e-03 
-8.357168e+00 2.647705e+00 -1.104298e+00 6.574308e+00 -1.511079e+00 -5.206138e+00 -6.754086e-01 3.868584e+00 -1.535725e+00 -2.808458e+00 -3.729622e+00 -2.623749e+00 -9.907091e-02 2.062712e-01 1.412170e-01 -8.941693e-01 -1.487267e+00 2.809627e-01 9.803221e-01 1.570872e+00 4.897586e-01 -6.222042e-01 -5.647087e-01 6.820856e-01 -2.807406e-01 -3.085840e-03 
-9.319132e+00 3.222639e+00 3.250976e+00 3.337411e+00 -3.714071e+00 -3.783640e+00 7.788842e-01 2.445974e+00 -1.469419e+00 5.298289e+00 9.233975e-01 -3.914936e+00 -1.331975e-01 -1.271662e-01 -2.273020e-01 -7.083454e-01 -8.773699e-01 1.332848e+00 1.055929e-01 -6.129476e-01 -7.435260e-02 -4.366460e-01 4.797816e-01 3.215109e-01 -5.727999e-01 -7.603502e-03 
-8.422388e+00 3.021716e+00 -3.784975e-01 -1.500182e-01 1.636869e+00 1.009234e-01 1.939658e+00 -8.036756e-01 -4.264840e+00 2.741780e+00 5.527686e+00 -8.213327e-01 -1.475323e-01 -2.521697e-01 -7.033295e-01 -1.184353e+00 -1.500315e+00 -6.746354e-02 4.390883e-02 -6.730847e-01 -1.328202e+00 4.345834e-01 1.398570e+00 6.858419e-01 1.383574e+00 -8.690131e-03 
-1.017256e+01 1.655740e+00 -1.171772e+00 5.340616e+00 7.166724e-01 -5.175261e+00 -4.344358e+00 1.148382e-01 -2.447173e+00 2.905442e+00 -7.732613e-01 6.004829e-01 -1.320032e-01 2.149191e-02 -4.598165e-01 -1.120665e+00 -4.252709e-01 -5.430564e-01 -9.489446e-01 -9.247057e-01 -4.716461e-01 6.447760e-01 -5.331327e-01 -5.793061e-02 1.796942e+00 -9.713173e-05 
-9.191303e+00 -8.549297e-02 -4.814689e+00 -1.928869e+00 -4.063769e+00 -4.290783e+00 -1.479211e+00 -1.606857e+00 1.126069e+00 5.380817e+00 5.479164e-01 2.036414e+00 -1.431187e-01 1.172645e-01 -7.330457e-01 -2.678707e-01 -1.700826e-01 -2.108592e+00 -1.403456e+00 -9.783850e-02 -2.931087e-01 -1.471272e-01 2.708916e-01 -8.415576e-01 6.080295e-01 2.580464e-03 
-8.827215e+00 2.477161e+00 -1.342518e-01 2.100483e+00 -3.579034e+00 -6.332510e+00 -2.135210e+00 4.893343e-01 -9.409934e-01 1.313107e+00 3.123629e+00 3.640903e+00 -1.358900e-01 6.746636e-02 -5.442184e-01 5.749997e-01 -6.499076e-02 -2.897142e-01 9.091953e-01 1.965788e+00 6.596957e-01 -8.812437e-02 -2.171519e-01 -4.828464e-01 -1.233652e+00 5.570686e-03 
-8.508739e+00 -1.054223e+00 -2.236611e+00 6.196351e-01 -6.758235e+00 -6.337733e+00 3.458906e-01 -2.456467e+00 -5.753566e+00 4.892406e+00 -6.285475e-01 6.986053e-01 -1.326866e-01 -1.473811e-01 1.074765e-01 1.361866e+00 1.584513e+00 5.237249e-01 6.049832e-01 9.818826e-02 1.507399e-01 -1.318359e+00 -3.587720e-01 1.965309e-01 -8.118316e-01 8.127701e-03 
-1.017651e+01 -5.809866e-01 4.141874e-01 3.741410e+00 6.153349e-01 3.941899e-01 4.572032e+00 3.838122e+00 5.520226e-01 2.063888e+00 -2.599262e+00 -4.898872e+00 -1.093658e-01 -2.051336e-01 -1.606456e+00 -7.766804e-01 -3.662796e-01 -1.352988e-01 2.285700e+00 1.801511e-01 2.196614e-01 3.785124e-01 4.407688e-01 1.190776e-01 -8.025613e-01 7.157154e-02 
-9.253561e+00 1.980963e+00 1.720419e+00 5.173233e+00 -3.542329e+00 -4.629217e+00 -4.341890e+00 -2.527552e+00 -6.212233e+00 3.211567e+00 4.392016e+00 2.247144e+00 -1.157423e-01 -2.401969e-01 -2.165610e+00 -1.362340e+00 -8.074933e-01 -4.223557e-01 2.108963e+00 -3.773183e-01 1.014822e+00 1.536405e+00 -3.317434e-01 5.963923e-01 -1.350922e-01 1.216362e-01 
-9.480473e+00 -7.072710e+00 -5.996169e+00 -2.007714e+00 -5.863482e+00 4.241733e+00 1.109436e+00 1.623184e+00 1.180902e+00 4.357370e+00 1.208735e+00 -1.146173e+00 2.134956e-01 5.722542e-02 -3.233011e+00 -1.593603e+00 1.531910e-01 -4.588725e-02 4.762770e-01 -6.791291e-01 1.008071e+00 1.472584e+00 -1.293352e+00 1.033331e-01 7.834772e-01 1.158453e-01 
-1.005774e+01 -8.636413e+00 -5.843132e+00 -5.432697e-01 -5.630606e+00 2.283312e+00 1.905968e-01 3.725110e+00 1.614021e+00 2.086948e+00 4.494152e-01 -1.853206e+00 3.140639e-01 1.026613e-01 -1.280725e+00 -9.531294e-01 1.115035e+00 1.983467e+00 2.025363e-01 6.010230e-01 1.073710e+00 1.533086e+00 -2.097579e+00 -1.903518e+00 8.063351e-01 6.851137e-03 
-9.488293e+00 -1.143735e+01 -3.772052e+00 7.365616e+00 1.430037e+00 -6.806893e-01 -1.089857e+00 5.752145e+00 4.001814e+00 -3.840565e+00 -1.112955e-01 1.068688e+00 2.549574e-01 -1.806933e-01 1.673080e+00 1.595502e+00 2.189265e+00 1.212164e+00 -2.147903e+00 -7.312337e-01 -2.022721e+00 -1.151427e+00 -4.097207e-01 -5.643588e-01 1.646284e+00 -1.056599e-01 
-8.736343e+00 -2.240341e+00 -4.157286e+00 6.061742e+00 2.728248e+00 -1.155324e+00 -2.371290e-01 7.765198e-01 4.274023e-02 -3.177358e+00 -4.465559e+00 5.171388e+00 -1.022176e-01 -8.704186e-04 3.250144e+00 1.575552e+00 -2.988295e-01 2.714262e-01 -5.146649e-01 8.336979e-01 -2.514384e+00 -2.191246e+00 7.408862e-01 -3.383010e-01 8.088366e-01 -1.233861e-01 
-1.104464e+01 -1.905349e+00 1.138418e+00 5.636107e+00 -3.982086e+00 -4.778467e+00 -2.332869e+00 -7.016123e+00 -3.790592e+00 4.940919e+00 8.444283e-01 3.572948e+00 -1.066635e-01 -3.255758e-02 3.793444e+00 1.145975e+00 -2.184693e+00 -6.621109e-01 8.625484e-01 1.136148e+00 -2.729780e+00 -2.254321e+00 3.074864e+00 6.457659e-01 -1.008425e+00 -7.889769e-02 
-9.283922e+00 2.848306e+00 -4.206083e-01 -1.172663e+00 -1.567413e+00 1.758876e+00 4.980593e+00 -2.462675e+00 -5.446006e+00 1.400637e+00 -1.719952e+00 9.388475e-01 -1.220560e-01 1.234566e-01 2.046922e+00 7.273723e-01 -1.603104e+00 -1.347774e-01 7.345112e-01 6.924599e-01 3.448775e-01 1.563869e-01 3.003875e+00 1.589070e+00 -2.417347e+00 -8.955086e-03 
-9.377293e+00 4.985545e+00 8.948606e-02 5.935606e-02 2.673132e-01 2.174952e+00 1.982020e+00 -6.277160e+00 -4.525418e+00 9.244757e+00 1.744730e+00 -1.857167e+00 -1.296118e-01 1.076678e-01 8.214588e-01 -4.082976e-01 -5.672969e-01 1.116823e+00 9.281660e-01 -3.503616e-01 1.451691e+00 1.072260e+00 5.129681e-01 -9.205146e-02 -2.305206e+00 -6.724977e-03 
-8.952734e+00 4.548821e+00 4.040956e-03 8.345983e-01 -7.033843e-02 -9.594780e-01 1.067726e+00 2.131426e+00 1.192088e+00 9.690097e+00 3.029639e+00 -4.200291e+00 -1.355188e-01 6.945076e-01 -3.687364e-01 5.705134e-01 7.352957e-01 -6.624104e-01 6.917143e-01 -1.283373e-01 6.652527e-01 1.993616e+00 7.362527e-01 -8.635550e-01 -1.373799e+00 1.472278e-02 
-1.067189e+01 1.351688e+00 -1.115394e+00 1.795992e+00 8.534900e-01 1.221540e+00 -2.128244e+00 -2.054719e+00 -1.748339e+00 3.361030e+00 -1.990624e+00 -5.383515e+00 -1.335570e-01 4.825124e-01 -1.257410e+00 9.488640e-01 1.354952e+00 3.034316e-01 1.964635e+00 2.486803e+00 2.673276e+00 2.038570e+00 -6.246229e-01 -7.676529e-01 3.960060e-01 2.781669e-02 
-5.164083e+00 2.821553e+00 3.034399e+00 1.635498e+00 -5.172553e+00 5.694154e+00 6.394038e+00 -1.247632e+00 3.133533e+00 8.023765e+00 -4.170049e+00 -4.166973e+00 -4.646957e-02 5.351267e-01 6.304705e-03 1.239102e-01 3.047406e-01 5.946768e-01 7.429781e-01 5.162004e-01 1.775984e-01 -2.547503e-01 -2.109771e-01 -8.287153e-01 1.447306e+00 1.313616e-02 
-8.859056e+00 -4.378719e-01 3.318627e+00 6.433666e+00 4.335578e+00 8.671311e+00 1.175288e+01 8.778749e+00 4.696709e+00 6.954809e+00 1.506310e+00 1.062040e-01 -3.505301e-02 1.175495e+00 -6.502581e-03 1.230802e-01 1.173650e+00 4.495314e-01 -1.288810e+00 5.022402e-02 9.732672e-01 -1.856926e+00 -9.451839e-01 1.118794e+00 6.387585e-01 1.251557e-02 
-7.183520e+00 5.475125e+00 -1.593418e+00 3.946456e-02 1.162002e+00 -9.694732e-01 -3.291834e+00 -2.397317e+00 -3.304188e+00 6.838322e+00 -2.862405e+00 2.913785e-01 -1.190900e-01 -3.637524e-02 -1.060921e+00 -1.497533e+00 9.544060e-01 6.777572e-03 -3.666518e+00 -3.370687e+00 -6.789929e-01 -2.480630e+00 -2.783458e+00 1.925427e+00 1.376793e-01 2.729878e-02 
-3.784700e+00 -7.611156e-03 1.813915e+00 8.462257e+00 -6.613046e-02 -1.890694e+00 2.965811e+00 3.386459e+00 -7.814110e+00 -7.721680e-01 2.949525e+00 -4.418899e+00 -3.466892e-02 -9.163774e-01 -1.130560e+00 -1.193306e+00 2.948951e-01 -1.844439e+00 -3.279422e+00 -2.441402e+00 -2.099653e+00 -3.431574e-01 -1.255832e+00 1.276723e+00 -1.075222e+00 6.622032e-02 
-7.883137e+00 -2.698184e+00 -3.700911e+00 5.393232e+00 -2.937811e+00 -7.357433e+00 -6.065866e+00 -1.946451e+00 -3.014207e+00 -2.030040e+00 4.735480e+00 -1.216025e+00 8.983231e-02 -2.718332e+00 -2.060037e+00 -9.980879e-01 4.499944e-01 -3.918321e-01 -3.981026e-01 7.110052e-01 1.830626e-01 3.013862e+00 8.847197e-01 1.902853e+00 -1.099415e+00 9.922697e-02 
-1.309114e+01 -2.004015e+00 -1.594155e+00 5.231258e+00 -2.836709e+00 -4.531822e+00 9.328868e-01 -1.944948e+00 2.835931e+00 5.109828e+00 4.090983e+00 -4.516206e+00 1.915874e-01 -3.650861e+00 -1.418137e+00 -1.577683e+00 -1.014530e+00 -8.807299e-01 3.657351e-01 -4.893726e-01 -1.015597e+00 3.489810e+00 2.015424e+00 4.810739e-02 1.151411e-01 9.280600e-02 
-1.612196e+01 -3.826859e+00 -4.879823e+00 3.904937e+00 5.881305e-01 -1.639423e+00 1.279655e+00 1.183700e+00 6.440100e+00 8.320922e+00 6.081131e+00 -5.157043e+00 2.639167e-01 -2.218488e+00 -9.372994e-01 -3.796937e-01 -1.064123e+00 -1.538870e+00 1.901417e+00 3.992070e-01 -3.954212e-01 1.160360e+00 1.352782e+00 -7.003792e-01 -3.308665e-01 7.391343e-02 
-1.791959e+01 -6.533958e+00 -5.485043e+00 4.133755e+00 -6.232751e+00 -2.921024e+00 -3.153811e+00 -3.256600e+00 4.907788e+00 4.129474e+00 2.517237e+00 -1.872684e+00 3.423189e-01 -5.626965e-02 -2.376845e-01 -1.592806e-01 -7.731637e-01 -1.391884e+00 2.998972e+00 -9.714463e-01 -3.271299e-01 -1.237411e+00 -1.151560e+00 -9.258253e-01 1.573709e-02 6.537110e-02 
-1.656135e+01 -5.119709e+00 -3.653936e+00 6.213660e-01 -8.934142e+00 1.344256e+00 -2.026481e+00 -3.267731e+00 1.751666e+00 5.224050e+00 2.020458e+00 -4.192118e+00 3.840337e-01 2.739368e+00 1.205730e-03 -8.431490e-01 -1.491515e+00 -1.057695e+00 7.490460e-01 -6.477804e-01 -3.649909e-01 -3.513730e+00 -1.822113e+00 -1.470591e+00 -7.976191e-01 7.269250e-02 
-1.315279e+01 -2.546013e+00 -3.003502e+00 3.007224e+00 -5.034994e+00 8.971197e+00 -2.271277e+00 -1.354882e+00 -1.006909e+00 9.004669e-01 1.492194e+00 -4.919983e+00 4.583844e-01 3.926908e+00 7.343627e-01 -1.025307e+00 -1.669964e+00 7.215496e-01 2.604992e-01 -5.348914e-01 7.504273e-01 -2.424582e+00 -1.262323e+00 1.289660e-01 -4.503576e-01 4.715123e-02 
-4.808525e+00 -5.814803e+00 -1.033634e+01 -2.989375e+00 -5.299222e+00 -3.840304e+00 -2.400514e+00 -1.592114e+00 -8.171205e+00 8.248607e-01 -7.593026e-01 -7.621489e+00 5.693464e-01 4.757804e+00 1.447229e+00 -3.861809e-01 -5.792804e-02 1.959625e+00 -4.969711e-01 -5.546471e-01 1.096686e+00 -6.191929e-01 -2.020215e-01 5.588897e-01 1.217908e+00 -1.562222e-02 
-4.161465e+00 -2.514598e+00 -7.270376e+00 -2.410692e+00 -4.442463e+00 9.737517e-01 -5.641252e+00 -3.422725e-01 -2.253688e+00 1.745379e-02 4.551947e+00 -2.409787e+00 4.854187e-01 6.456500e+00 1.633795e+00 4.730671e-01 -1.941855e+00 1.008579e+00 -1.158543e+00 7.486354e-01 1.222062e+00 9.646071e-01 -8.433644e-01 -1.848547e-01 3.620715e+00 7.414698e-04 
2.732006e+00 2.100727e+00 -3.451403e+00 3.040684e+00 5.677148e-01 2.858123e+00 -3.114729e+00 1.709395e+00 -7.209090e-01 4.655448e+00 3.285030e+00 6.423221e-01 2.924055e-01 6.321990e+00 2.877050e-02 1.553516e+00 -2.745015e+00 -4.180482e-01 1.713263e+00 9.648505e-01 1.698264e+00 2.035687e+00 -3.096715e+00 -3.240944e-01 5.059024e+00 7.806249e-02 
1.535944e+01 1.665197e+00 -4.080634e+00 -9.717083e+00 -2.925567e+00 -1.707324e-01 1.829008e+00 3.104675e+00 9.097874e-02 -5.231648e+00 -1.454246e+00 9.051687e+00 6.005622e-01 5.175025e+00 -2.334526e+00 6.265592e-01 -4.552321e+00 -7.674284e-01 4.033612e-01 1.950029e+00 1.090701e+00 4.712903e-01 -4.100963e+00 -1.241930e+00 3.845334e+00 1.503777e-01 
1.704097e+01 -7.760848e+00 -4.163630e+00 -1.306125e+01 -8.147911e+00 5.298252e+00 -1.311392e+00 5.175730e+00 8.348964e-01 -1.203417e+01 6.233220e-01 1.194290e+01 9.020871e-01 2.104307e+00 -3.614754e+00 9.080963e-02 -4.905693e+00 -7.089374e-01 1.359452e-01 1.940565e+00 2.404866e-01 -3.429953e-01 -3.849737e+00 -5.515908e-01 2.503484e+00 1.680938e-01 
1.455918e+01 -9.256441e+00 -3.781466e+00 -1.712133e+01 -3.921792e+00 1.770494e+00 3.207222e+00 3.378064e+00 -6.751397e-01 -1.214255e+01 -3.268492e-01 1.116659e+01 9.324665e-01 -8.105408e-01 -2.926259e+00 3.490627e-01 -2.183758e+00 7.970210e-01 5.594279e-01 1.615403e+00 -5.932585e-01 -9.671799e-01 -1.012979e+00 3.531756e-01 4.300688e-01 8.412825e-02 
1.365368e+01 -1.051222e+01 -3.146939e+00 -1.778566e+01 -2.478860e+00 2.567236e+00 5.898989e+00 2.775133e+00 -2.052826e+00 -1.113779e+01 -3.662252e-02 1.210229e+01 9.669222e-01 -1.209813e+00 -1.090792e+00 5.636886e-01 -1.433774e+00 2.052385e+00 -6.285826e-01 2.641770e+00 -1.678862e+00 -6.281587e-01 1.173372e-01 1.616940e-01 -2.141719e-01 2.521452e-02 
1.300039e+01 -1.159041e+01 -2.843666e+00 -1.827367e+01 -1.774988e+00 3.991915e+00 6.300832e+00 1.338681e+00 -3.301059e+00 -1.074473e+01 6.416039e-01 1.112234e+01 9.887859e-01 -8.916872e-01 -6.941574e-01 5.450752e-01 -4.869852e-01 1.389050e+00 -1.863188e-01 1.679447e+00 -1.613512e+00 -1.515074e-01 4.759226e-01 9.915958e-02 -8.604660e-02 1.471614e-02 
1.177130e+01 -1.204782e+01 -1.814087e+00 -1.965395e+01 1.040611e+00 1.044628e+00 1.035065e+01 -2.198887e+00 -9.929373e-01 -1.214639e+01 9.475656e-01 1.089417e+01 1.000000e+00 -8.416931e-01 -1.915195e-01 2.756076e-01 -5.693951e-02 1.047135e+00 -3.018152e-01 9.047411e-01 -1.301923e+00 6.907658e-02 6.680959e-01 -2.388279e-01 -3.141127e-02 4.695612e-03 
1.104193e+01 -1.195943e+01 -1.722516e+00 -1.862210e+01 1.263723e+00 1.600204e+00 9.378626e+00 -2.202485e+00 -1.962621e+00 -9.258637e+00 -3.231454e-01 1.134042e+01 9.895083e-01 -7.108008e-01 1.685981e-01 7.744074e-03 4.108629e-01 8.657298e-01 -3.792062e-01 2.321758e-01 -4.296760e-01 -1.263525e-01 1.011928e+00 -4.826388e-01 1.957770e-01 -2.024346e-03 
1.042444e+01 -1.128531e+01 -2.329476e+00 -1.789614e+01 1.237461e+00 2.254016e+00 8.883798e+00 -1.963899e+00 -2.376662e+00 -8.540354e+00 -7.483876e-01 1.183619e+01 9.900391e-01 -4.439821e-01 3.468133e-01 -3.796574e-01 9.298071e-01 3.573444e-01 2.977552e-01 -7.995163e-01 5.814933e-01 -8.033078e-01 1.371300e+00 -5.196621e-01 6.119356e-02 -5.494731e-03 
1.011981e+01 -1.112867e+01 -2.547251e+00 -1.709826e+01 2.455236e+00 1.491189e+00 8.195140e+00 -9.271932e-01 -3.240959e+00 -7.488108e+00 -9.236135e-01 1.163021e+01 9.836447e-01 -1.821761e-01 4.870479e-01 -9.035442e-01 1.503697e+00 -3.288018e-01 7.248615e-01 -1.224357e+00 9.858832e-01 -9.358188e-01 8.364373e-01 -6.841316e-02 1.241751e-02 -5.180591e-03 
1.001245e+01 -1.072913e+01 -3.300006e+00 -1.576684e+01 2.231577e+00 2.587911e+00 6.944817e+00 7.093346e-02 -4.370307e+00 -6.175156e+00 -1.350511e+00 1.105524e+01 9.754581e-01 8.329677e-03 4.318949e-01 -8.339829e-01 1.381449e+00 -3.143332e-01 5.654069e-01 -1.004610e+00 8.265373e-01 -8.241217e-01 6.068328e-01 6.462450e-02 4.526806e-03 -7.757312e-03 
1.033704e+01 -9.802277e+00 -5.754972e+00 -1.216827e+01 -8.773438e-01 5.057564e+00 4.226331e+00 1.709515e+00 -5.644893e+00 -6.259049e+00 -3.641496e-01 1.179298e+01 9.708958e-01 1.026060e-01 3.182867e-01 -6.653181e-01 1.201135e+00 -1.148028e-01 3.195585e-01 -6.610018e-01 1.515591e-01 -1.404751e-01 4.264451e-01 3.503652e-02 -8.564816e-02 -9.857273e-03 
1.035747e+01 -9.789035e+00 -4.895530e+00 -1.345389e+01 1.332084e+00 3.297863e+00 5.845151e+00 8.504331e-01 -5.295304e+00 -6.120719e+00 -7.049971e-01 1.177744e+01 9.576269e-01 6.901996e-02 1.511940e-01 -3.072191e-01 6.923475e-01 4.556746e-01 -2.317902e-01 -3.602128e-01 -1.239850e-01 4.635862e-01 2.001643e-02 9.058119e-02 -9.324884e-02 -9.232747e-03 
1.046033e+01 -1.000729e+01 -5.076080e+00 -1.224906e+01 2.330968e+00 2.734006e+00 5.439963e+00 -5.591477e-01 -3.480836e+00 -5.383101e+00 -1.071188e+00 1.084087e+01 9.432739e-01 -6.647553e-02 -1.469305e-01 2.014421e-01 -2.077042e-01 1.369736e+00 -8.203861e-01 -2.320565e-01 -1.827158e-01 1.066499e+00 -2.342839e-02 -2.279890e-01 -1.743037e-01 -5.215478e-03 
1.029590e+01 -9.870658e+00 -5.175548e+00 -1.226470e+01 2.905794e+00 2.590739e+00 4.536936e+00 5.853395e-01 -3.134405e+00 -6.513048e+00 -5.440857e-01 1.106505e+01 9.431053e-01 -1.470069e-01 -2.539456e-01 -8.279838e-02 7.687597e-02 1.167479e+00 -7.040817e-01 -6.502725e-01 7.496104e-02 1.006619e+00 1.834223e-01 -3.994520e-01 -9.743939e-02 1.311052e-03 
1.003545e+01 -1.049612e+01 -4.607752e+00 -1.380139e+01 5.184481e+00 1.309195e+00 3.720156e+00 9.284823e-01 -1.392847e+00 -6.180027e+00 -1.584550e+00 1.127766e+01 9.520792e-01 -9.694910e-02 -4.341620e-01 5.647554e-02 -2.369982e-01 1.275716e+00 -9.933103e-01 -2.641529e-01 -2.837498e-01 1.316755e+00 -8.081789e-02 7.070278e-02 -6.327915e-01 5.919057e-03 
9.834877e+00 -1.081435e+01 -5.543686e+00 -1.229335e+01 5.742723e+00 4.898598e-01 3.453692e+00 4.814234e-01 -1.306204e+00 -4.805145e+00 -2.445576e+00 1.107184e+01 9.597796e-01 -2.012679e-01 -2.139725e-01 -1.694852e-01 2.984139e-01 8.189276e-01 -1.186839e+00 1.220754e-01 -8.135694e-01 1.876467e+00 -3.087306e-01 5.042004e-01 -1.420870e+00 3.192121e-03 
1.020610e+01 -1.170625e+01 -4.609633e+00 -1.341973e+01 7.291084e+00 -1.182106e+00 4.660821e+00 -1.925939e+00 2.188839e+00 -6.641142e+00 2.330711e-01 7.673516e+00 9.645321e-01 -1.704978e-01 4.945183e-03 -2.835111e-01 8.362373e-01 2.917206e-01 -1.248620e+00 6.657271e-02 -9.450043e-01 2.155920e+00 -3.896852e-01 5.673353e-01 -2.053729e+00 -2.255398e-03 
9.204240e+00 -1.033545e+01 -6.022033e+00 -1.096346e+01 5.947130e+00 -2.097805e+00 4.676981e+00 -2.055297e+00 4.457088e+00 -7.826143e+00 1.068106e+00 5.762770e+00 9.528395e-01 -2.189519e-01 5.491133e-02 -8.390856e-02 1.074574e+00 -1.556216e-01 -1.215022e+00 -4.245493e-01 -4.644361e-01 2.330442e+00 -2.969121e-01 5.589774e-01 -2.313418e+00 -4.166186e-03 
9.498279e+00 -1.071084e+01 -5.786134e+00 -1.028514e+01 6.540880e+00 -3.640073e+00 3.441375e+00 -2.528179e+00 6.505106e+00 -6.617954e+00 -5.047145e-01 3.663550e+00 9.442722e-01 -3.281864e-01 6.103230e-02 2.202887e-01 1.533027e+00 -7.611717e-01 -1.112607e+00 -1.033914e+00 4.959679e-01 1.668565e+00 2.070547e-01 2.511838e-01 -2.354081e+00 -4.297638e-03 
9.094028e+00 -1.103750e+01 -5.374978e+00 -8.487775e+00 5.339717e+00 -4.356265e+00 1.940668e+00 -1.539637e+00 8.187874e+00 -6.301300e+00 7.182043e-01 1.509738e+00 9.490786e-01 -3.396686e-01 -1.829007e-01 1.011337e+00 1.289088e+00 -6.322082e-01 -1.271124e+00 -1.180389e+00 5.316067e-01 1.562106e+00 3.550943e-01 3.466708e-01 -2.517890e+00 -1.007026e-03 
8.620274e+00 -1.105007e+01 -3.831717e+00 -6.992442e+00 3.788932e+00 -5.615912e+00 8.594053e-01 2.960706e-01 8.666270e+00 -6.368290e+00 1.663941e+00 -1.970374e+00 9.449244e-01 -5.901505e-01 1.080134e-01 1.354648e+00 1.203950e+00 -9.251705e-01 -1.608318e+00 -8.413833e-01 5.434152e-01 1.383864e+00 -1.121903e-01 6.223820e-01 -2.087402e+00 -5.351305e-05 
7.944900e+00 -1.108034e+01 -1.942555e+00 -6.164372e+00 4.162063e+00 -7.465504e+00 6.601930e-02 -8.093882e-01 1.118703e+01 -6.175503e+00 1.717132e+00 -4.009721e+00 9.474783e-01 -5.461291e-01 3.861137e-01 1.444540e+00 9.550349e-01 -1.124876e+00 -1.555429e+00 -9.327083e-01 3.883581e-01 1.031706e+00 3.448486e-04 2.919115e-01 -1.250102e+00 -2.335417e-03 
7.122090e+00 -1.014935e+01 -7.291065e-01 -5.427095e+00 2.503855e+00 -1.012704e+01 1.717834e-01 -1.762269e-01 1.192484e+01 -7.241804e+00 2.107732e+00 -4.013732e+00 9.448048e-01 -4.008178e-01 5.582630e-01 1.327201e+00 8.645697e-01 -1.145484e+00 -1.492104e+00 -8.959282e-01 -6.989034e-02 8.566115e-01 1.359890e-01 4.388152e-01 -3.906211e-01 -4.448473e-03 
7.112473e+00 -9.557289e+00 2.964182e-01 -4.495273e+00 3.578738e-01 -9.877844e+00 -2.379062e+00 6.383026e-01 1.171712e+01 -5.862819e+00 1.955866e+00 -3.719092e+00 9.374613e-01 -2.645009e-01 8.277721e-01 8.932805e-01 1.275041e+00 -1.632767e+00 -6.494009e-01 -1.716347e+00 5.798807e-01 -1.604529e-01 4.513979e-01 4.071360e-01 1.613536e-01 -8.717656e-03 
7.032397e+00 -9.020280e+00 1.684803e+00 -3.504143e+00 -3.639333e-02 -1.187026e+01 -2.397695e+00 -7.772264e-01 1.268429e+01 -5.844688e+00 3.738650e+00 -4.068794e+00 9.276905e-01 -9.473448e-02 1.086987e+00 4.375686e-01 1.766066e+00 -1.488985e+00 1.991517e-01 -2.433237e+00 4.551814e-01 -7.904328e-01 6.793919e-01 3.566453e-01 3.726710e-01 -1.540672e-02 
6.667241e+00 -7.506017e+00 1.316893e+00 -7.506454e-01 -2.731650e+00 -9.840899e+00 -7.230978e+00 2.390515e+00 1.000505e+01 -4.617072e+00 2.937353e+00 -3.175422e+00 9.124472e-01 1.290029e-03 1.483685e+00 5.503090e-02 1.924421e+00 -1.260790e+00 5.369118e-01 -2.225844e+00 -1.944651e-01 -1.100046e+00 3.869340e-01 4.717744e-01 8.850540e-01 -2.502550e-02 
6.871034e+00 -5.740056e+00 9.484988e-01 1.530921e+00 -3.396308e+00 -9.149756e+00 -9.568442e+00 1.223574e+00 8.828714e+00 -4.467718e+00 3.400215e+00 -2.422213e+00 8.802782e-01 2.614697e-01 1.709934e+00 -2.038456e-01 1.733663e+00 -1.059677e+00 1.219661e+00 -1.919106e+00 -1.196450e+00 -1.206368e+00 5.825817e-01 2.043554e-01 1.115931e+00 -3.531938e-02 
7.199605e+00 -3.778978e+00 9.397249e-01 2.609300e+00 -4.266120e+00 -8.553537e+00 -9.922910e+00 -1.334423e+00 8.144674e+00 -4.616634e+00 4.483956e+00 -1.171126e-01 8.360399e-01 6.398349e-01 1.430287e+00 1.144098e-01 9.353124e-01 -6.054943e-02 1.288114e+00 -1.158238e+00 -2.110534e+00 -8.860575e-01 3.627225e-01 1.189998e-01 1.071573e+00 -4.767318e-02 
8.073564e+00 -2.334131e+00 8.541591e-01 3.484199e+00 -4.567542e+00 -6.415637e+00 -1.064726e+01 -4.897007e+00 7.582632e+00 -2.931998e+00 3.987125e+00 -1.829410e-02 7.892972e-01 1.312587e+00 7.978169e-01 3.679819e-01 7.790214e-01 4.243377e-01 1.912483e+00 -7.457415e-01 -1.944978e+00 -1.561252e+00 7.639335e-01 -2.286291e-02 2.079605e-01 -6.110117e-02 
9.265151e+00 -2.057546e+00 1.936112e+00 2.949278e+00 -2.448781e+00 -4.767390e+00 -1.248276e+01 -5.101864e+00 6.197802e+00 -3.571319e+00 3.238897e+00 9.804826e-01 7.195718e-01 1.412003e+00 1.016971e+00 -2.545890e-01 5.837469e-01 1.381467e+00 2.046649e+00 -5.223651e-01 -4.895795e-01 -2.181391e+00 1.163290e+00 -5.028316e-01 -9.356894e-01 -7.588658e-02 
1.240120e+01 -2.611687e+00 2.290215e+00 5.256040e+00 -2.183290e+00 -1.480418e+00 -1.201722e+01 -6.617596e+00 1.995892e+00 -1.170708e+00 3.908430e+00 -1.931208e+00 6.330065e-01 2.057199e-01 2.175493e+00 -8.655589e-01 6.284993e-01 1.001665e+00 2.484444e+00 2.073708e-02 7.383747e-01 -2.771675e+00 1.344587e+00 -1.023949e+00 -1.341855e+00 -9.380908e-02 
1.209580e+01 1.444654e+00 -1.051248e+00 4.642115e+00 1.449087e+00 -7.879038e-01 -1.184975e+01 -2.922026e+00 3.109050e-02 3.191687e-01 2.009146e+00 -3.839103e+00 5.347524e-01 -1.742037e+00 2.984777e+00 -2.694386e-01 1.354286e+00 7.830433e-01 2.393134e+00 6.443344e-01 2.751584e+00 -2.049541e+00 2.981536e+00 -7.691228e-01 -1.183520e+00 -8.994041e-02 
7.686836e+00 6.792234e+00 -1.979955e+00 5.780277e+00 -1.508152e+00 4.016840e+00 -1.086008e+01 -2.295053e+00 -3.192389e+00 1.845694e+00 -5.177441e-01 -4.317776e+00 4.126616e-01 -3.785968e+00 2.821527e+00 6.938576e-01 1.528138e+00 1.121363e+00 2.969828e+00 1.964025e+00 2.926909e+00 -1.744616e+00 1.519501e+00 -1.966308e+00 -7.854512e-01 -7.273962e-02 
2.912144e+00 8.164377e+00 2.724004e+00 9.458589e+00 1.128867e+00 4.449650e+00 -9.839663e+00 6.494784e+00 -1.455766e+00 9.828162e+00 1.606370e+00 -3.743831e+00 3.800421e-01 -3.769894e+00 9.835645e-01 1.271209e+00 1.398359e+00 -2.991538e-02 2.128157e+00 2.169861e+00 1.988760e+00 -6.690923e-01 2.054029e-01 -3.217477e+00 -1.069914e+00 -4.108470e-02 
-1.936812e+00 8.136086e+00 3.871877e+00 1.048849e+01 3.583637e+00 1.074994e+01 -3.202142e+00 3.308545e+00 -5.983758e+00 1.672299e+00 -5.721722e+00 -5.906100e+00 3.466635e-01 -2.788561e+00 -1.151582e+00 1.001384e+00 5.463289e-01 2.918616e-01 6.755320e-01 1.923090e+00 1.644153e+00 -4.581285e-02 -1.359924e+00 -1.882890e+00 -1.053858e+00 -1.308146e-02 
-1.941839e+00 5.690550e+00 2.378880e+00 9.279799e+00 -1.246385e+00 6.486328e+00 -4.829414e+00 4.219975e+00 -1.918686e+00 1.432881e+00 -1.147625e+01 -8.394511e+00 3.623279e-01 -1.671584e+00 -1.843232e+00 -1.088135e-01 -1.219326e+00 3.039957e-01 2.108412e-01 1.734621e+00 6.164528e-01 1.039171e+00 -2.167667e+00 -1.239122e+00 -1.478072e+00 -8.762104e-03 
-3.828978e+00 2.271237e+00 3.199527e+00 8.601316e+00 1.138781e+00 6.376161e+00 -3.749753e+00 7.063118e+00 -3.189993e+00 -7.562841e-01 -3.390884e+00 -7.261724e+00 3.561113e-01 -1.440678e-01 -1.223844e+00 4.904679e-02 -1.792916e+00 1.319237e+00 -1.967445e-01 1.190539e+00 -3.565440e-01 1.880059e+00 6.317452e-02 2.096037e-01 -7.877863e-01 -8.855283e-03 
-4.499691e+00 1.880645e+00 2.516111e+00 4.305545e+00 3.871273e+00 7.690748e+00 -8.927536e-01 7.699762e+00 2.343209e+00 2.041174e-01 -5.754661e+00 -1.045638e+01 3.315077e-01 1.060602e+00 -2.905011e-01 3.641309e-01 -2.031607e+00 1.916840e+00 5.854260e-01 1.618203e+00 -8.823665e-01 5.201690e-01 6.768396e-02 1.132887e+00 7.319828e-01 -1.736861e-02 
-1.378224e+00 3.921820e+00 4.048495e+00 4.011042e+00 7.620992e+00 9.164011e+00 7.822230e-01 -2.140681e-01 1.285592e+00 2.602553e+00 -7.534500e+00 -8.814098e+00 3.177972e-01 2.704015e+00 -5.383625e-01 8.306884e-01 -1.133003e+00 -3.343466e-01 5.179109e-02 1.258378e+00 -1.166728e+00 5.987088e-01 -9.806182e-02 3.261998e-01 1.148111e+00 -9.011984e-03 
2.135795e+00 3.412753e+00 3.775051e+00 1.416901e+00 5.096707e+00 8.019533e+00 9.956110e-01 3.446735e+00 -1.555634e+00 9.188211e-02 -3.740012e+00 -3.958410e+00 2.946420e-01 3.792484e+00 -3.136311e-01 7.326142e-01 3.587766e-02 -1.583208e+00 -6.464123e-01 7.969491e-01 -1.148084e+00 -8.081752e-01 -1.104222e-01 9.887373e-01 1.451308e+00 -2.676427e-04 
6.373353e+00 -1.186630e+00 6.723499e+00 4.380622e+00 -1.145669e+00 6.470724e+00 1.597955e+00 3.355993e+00 1.752972e+00 -1.190476e+00 -2.767209e+00 -4.770153e+00 3.294843e-01 3.581609e+00 7.595633e-01 -1.083697e-01 1.014979e+00 -9.083713e-01 -1.352716e-01 6.363538e-01 2.028840e-01 -2.027894e-01 -3.901140e-01 2.040987e-01 1.193746e-01 2.213227e-02 
1.058694e+01 2.866714e+00 4.841681e+00 4.300144e+00 3.385650e-01 5.805330e+00 2.684126e+00 1.743131e-01 -1.931357e+00 1.548521e+00 -3.194620e+00 -5.221812e+00 3.243259e-01 2.427042e+00 2.270137e+00 -8.901066e-01 1.446540e+00 6.826653e-01 -8.263540e-01 6.060640e-02 -7.345614e-01 -3.635752e-01 -3.143456e-01 -1.186445e-02 3.265045e-01 1.109582e-02 
1.230424e+01 7.992656e+00 2.973332e+00 7.644314e+00 5.458207e+00 9.594754e+00 3.119734e+00 2.436563e+00 4.595069e-01 -7.633638e-02 -6.786702e+00 -7.585524e+00 4.136165e-01 8.532437e-01 2.949072e+00 -1.185337e+00 -4.122588e-01 1.099159e+00 2.927643e-01 -7.142785e-01 -6.124414e-01 8.597113e-01 -1.371419e-01 5.508078e-01 5.179089e-01 -8.605659e-03 
1.130556e+01 1.017380e+01 1.199601e+00 7.017755e+00 5.208096e+00 2.325747e+00 5.377535e-01 2.336423e-01 -2.726777e+00 -2.036915e+00 -1.789588e+00 -9.182019e-01 3.080549e-01 -1.327604e-01 2.196774e+00 -4.325857e-01 1.411108e-01 1.338159e+00 -2.413642e-01 -1.847365e-01 4.126397e-01 7.350238e-01 3.386877e-01 2.173317e-01 3.955415e-01 -4.922003e-03 
1.028026e+01 9.905191e+00 2.617856e+00 9.605222e-01 1.915363e+00 9.674336e+00 -9.002509e-01 2.641214e-01 6.449239e+00 -8.346689e-02 -7.156863e-01 -4.332414e+00 2.945915e-01 -9.406173e-01 1.544764e+00 -1.228557e-01 -5.401028e-01 -9.156547e-02 -5.486941e-01 4.046468e-01 -5.627971e-01 -2.331500e-01 1.627625e+00 5.573156e-01 1.432325e-01 -4.011040e-02 
1.093513e+01 1.289432e+01 2.856490e+00 8.347593e+00 8.800784e+00 4.558718e+00 3.770436e+00 3.323732e+00 -1.251104e+00 3.245524e+00 -5.143470e+00 -4.870660e+00 3.592284e-01 -1.182235e+00 7.792059e-01 6.442448e-01 -4.166610e-01 -1.486521e+00 -8.435890e-01 1.386817e+00 -2.507467e-02 -5.500507e-01 2.588705e+00 6.721243e-01 -1.437021e+00 -3.176402e-02 
7.786372e+00 1.435622e+01 1.530609e+00 4.278881e+00 3.204036e+00 5.734799e+00 3.526627e+00 -1.922467e+00 -1.444080e+00 5.420569e+00 -2.323183e+00 -4.893132e+00 1.874778e-01 -1.560819e+00 1.950799e-01 7.277163e-01 1.643602e-01 -2.100571e+00 -2.936762e+00 6.163245e-01 -7.173569e-01 -1.994143e+00 7.357258e-01 9.018013e-01 -7.397151e-01 -6.149679e-02 
6.641330e+00 1.184431e+01 4.964448e+00 3.275270e+00 -2.868847e+00 7.757145e-02 5.258401e+00 1.201563e+00 -1.530372e+00 8.154593e+00 2.374782e+00 -7.822945e+00 2.027917e-01 -2.013968e+00 2.007148e-01 1.102090e+00 -8.096045e-01 -2.238259e+00 -8.419029e-01 -2.479179e-01 -3.954906e-01 -9.468125e-02 -1.043852e+00 1.222733e+00 1.052492e-01 -8.139630e-02 
4.623068e+00 1.140559e+01 5.202458e+00 4.318485e+00 -2.752675e+00 -2.768901e+00 1.437389e+00 -2.261579e+00 -3.381845e+00 1.140628e+00 3.419447e-02 -6.554847e+00 6.532592e-02 -1.990890e+00 -5.524731e-03 7.042658e-01 1.841957e-01 1.756490e-01 -3.323773e-01 -1.298714e+00 1.332667e-01 -5.905205e-01 -1.528177e+00 -3.702938e-01 8.810024e-01 -7.200488e-02 
2.446944e+00 1.537320e+01 6.531017e+00 4.279769e+00 5.878463e-01 4.601053e+00 3.575465e+00 1.515835e+00 -7.556278e-01 1.662360e-01 -2.084923e-01 -3.513557e+00 1.332283e-02 -2.145181e+00 8.276263e-01 6.405118e-01 7.424251e-01 1.798691e+00 9.558592e-01 -1.525916e+00 3.751361e-01 4.840692e-01 -8.244115e-01 -1.088869e+00 1.402256e+00 -6.682615e-02 
-7.088470e-02 1.256415e+01 4.268654e+00 4.697610e+00 2.353935e+00 1.811172e+00 -2.125474e+00 -1.413270e+00 -4.784054e+00 1.773860e+00 -2.883015e+00 -2.642815e+00 -7.781219e-02 -2.218292e+00 -4.950295e-02 3.135942e-01 1.754872e-01 1.081310e+00 4.026960e-01 -1.194745e+00 -1.057628e-02 5.697971e-01 7.370722e-01 -1.081118e+00 9.575946e-01 -4.629598e-02 
-1.737601e+00 1.540317e+01 8.633909e+00 6.797833e+00 3.571306e+00 2.566831e+00 -5.897472e-01 2.653089e+00 1.591079e+00 3.715919e+00 -1.610959e+00 -2.767681e+00 -5.976999e-02 -1.582688e+00 -9.281415e-01 1.220022e-01 7.225893e-01 1.602074e-01 -5.746692e-01 -1.874833e-01 -4.967469e-01 7.554816e-01 1.623834e+00 -1.055566e+00 7.544699e-01 -3.070756e-02 
-4.376117e+00 1.114310e+01 5.718983e+00 3.936888e+00 1.162147e+00 2.616901e-01 -2.453730e+00 -2.883087e+00 -1.706213e+00 3.051147e+00 -4.670162e+00 -2.139812e+00 -1.296076e-01 -1.063860e+00 -5.579691e-01 1.985625e-01 4.572699e-01 -6.634483e-01 -6.464317e-02 6.573373e-01 -1.772241e-01 6.761758e-01 1.543697e-01 -6.182834e-01 9.417357e-01 -6.892848e-03 
-3.313881e+00 1.144302e+01 6.415864e+00 8.273076e+00 1.984777e+00 2.502448e+00 2.802176e+00 -2.329907e-01 1.482860e+00 7.646762e+00 -4.592750e+00 7.291317e-03 -1.143173e-01 -1.115789e-01 -2.234120e-01 3.661585e-03 1.042727e-01 -9.757149e-01 8.084396e-01 -5.009447e-01 -1.306370e+00 -1.135615e+00 2.463040e-01 6.451803e-01 9.511366e-01 -9.479523e-05 
-4.602045e+00 1.175438e+01 6.370490e+00 6.246338e+00 -1.700430e-01 1.520147e+00 -5.347495e-01 -8.563501e-01 -1.349066e+00 5.802869e-01 -4.483536e+00 6.783781e-01 -8.500278e-02 7.194293e-01 8.401046e-01 4.954475e-01 3.733675e-01 7.536714e-02 4.599827e-01 -6.523185e-01 -4.543788e-01 -2.234651e-01 1.602856e-01 3.221603e+00 1.376492e+00 1.615663e-02 
-2.182532e+00 1.398047e+01 8.326464e+00 6.164472e+00 -6.411742e-01 5.979800e+00 -4.053961e+00 -4.892129e+00 -4.265572e+00 6.182870e+00 1.521630e+00 5.789070e-01 -8.254635e-02 9.486216e-01 4.255196e-01 1.094075e-01 -9.501845e-01 -2.371543e-02 1.550381e-02 -3.021969e-01 2.767752e-01 -5.122582e-01 -6.934083e-01 2.105846e+00 -7.813601e-02 1.377922e-02 
-1.344646e+00 1.407490e+01 7.240920e+00 6.858028e+00 2.851959e+00 8.229272e-01 -2.287254e+00 -2.825412e+00 5.067766e-02 4.584522e+00 8.380667e+00 4.456841e+00 -6.470990e-02 8.228817e-01 -6.515694e-02 -3.845185e-01 -4.845738e-01 6.377693e-01 1.883245e-02 1.380669e+00 1.013715e+00 7.177697e-01 8.843235e-01 1.398459e+00 -6.148995e-01 5.375958e-03 
-1.994734e-01 1.241036e+01 6.527686e+00 3.216309e+00 3.551993e-01 2.928577e+00 2.167444e+00 2.135416e+00 -1.778302e+00 2.177604e+00 -4.956207e-01 -2.272620e+00 -5.556762e-02 1.930268e-01 -3.149398e-01 1.620340e-02 3.498141e-01 6.857092e-01 -1.143236e+00 1.619224e+00 9.423507e-01 8.099304e-01 -2.155767e-01 -6.735186e-01 -1.824036e+00 2.202582e-03 
-1.479165e+00 1.221364e+01 5.347286e+00 5.297551e+00 2.520617e+00 3.139921e+00 3.257891e+00 6.984510e-01 9.961485e-01 7.004538e+00 3.517383e+00 -9.703555e-01 -7.161236e-02 3.007717e-02 2.086086e-01 -3.708095e-01 -2.181457e-01 -3.648992e-01 -3.497236e-01 3.302628e-01 1.238708e-01 -1.505254e-01 -1.712525e-01 -2.284452e+00 -2.694180e+00 -2.056861e-03 
-1.150138e+00 1.333639e+01 9.354298e+00 8.693781e+00 2.953043e+00 -8.948750e-01 1.269586e+00 -1.942307e+00 -6.886550e-01 3.894978e+00 5.856786e-01 -5.827675e+00 -6.808221e-02 -2.786703e-02 6.930401e-01 -6.481958e-01 -2.644477e-01 -4.045393e-01 -6.038969e-01 -8.153809e-01 -5.470872e-01 -1.179862e-01 -2.751029e-01 -1.327286e+00 -1.619399e+00 -2.346313e-03 
-7.189274e-01 1.465492e+01 3.973567e+00 3.028563e+00 -2.714592e-01 9.860352e-01 -1.870103e-01 -1.671964e-01 -1.246773e+00 2.869572e+00 -3.582241e+00 -7.236530e+00 -6.873691e-02 1.951686e-01 6.201080e-01 -8.128170e-01 -1.020319e+00 -8.808654e-01 -2.426862e-01 -8.346398e-01 4.381550e-03 -5.043961e-01 -9.295337e-01 -1.836717e+00 -1.394120e+00 5.096197e-04 
