-8.371806e+00 -1.744384e+00 -3.482000e+00 -2.035550e+00 -2.868945e-01 3.361456e-01 1.408921e-01 8.217802e+00 4.243357e+00 2.637000e+00 8.688450e-01 2.461903e-02 -1.512927e-01 2.641970e-01 9.160340e-01 1.397054e+00 1.225498e+00 -6.095398e-01 -7.710505e-01 -2.448433e-01 -1.182101e+00 -6.078407e-01 8.365738e-01 2.436937e-01 4.166436e-01 0.000000e+00 
-7.803044e+00 9.083705e-02 -1.073959e+00 1.421963e+00 -5.444857e-01 -1.632256e+00 2.200040e+00 4.567067e+00 4.597747e+00 9.502543e+00 5.137522e+00 4.690274e+00 -1.512927e-01 3.591146e-01 7.217742e-01 7.862827e-01 1.017530e+00 -4.952081e-01 -9.425775e-01 -8.884741e-01 -9.453034e-01 -5.775207e-01 -1.766872e-01 -2.699034e-01 4.762756e-01 0.000000e+00 
-7.335202e+00 1.918175e+00 2.299251e+00 2.363185e+00 -3.205798e+00 -2.534906e+00 -2.112899e+00 4.132664e+00 1.026958e+00 3.387097e+00 -4.702473e-02 -2.249908e-01 -1.512927e-01 5.874813e-01 6.636540e-01 8.251594e-01 1.718185e-01 -9.271939e-01 -1.614320e-01 -6.293285e-01 -4.388427e-01 -6.845574e-01 -6.539435e-01 -1.508172e-01 -2.664669e-01 0.000000e+00 
-7.094535e+00 3.320704e-02 -2.441212e+00 8.527322e-01 -1.303483e+00 -2.941216e+00 -3.174583e+00 5.533854e+00 2.963953e+00 1.378515e+00 -2.273726e-02 2.530802e+00 -1.512927e-01 1.046014e-01 -3.546420e-01 -3.026174e-01 -8.364725e-01 -1.004910e-01 8.037389e-01 -7.144775e-01 -8.690971e-01 -1.015818e+00 -1.117334e+00 -4.978387e-01 -6.234127e-02 0.000000e+00 
-5.788654e+00 1.602701e+00 1.327424e+00 -8.918420e-01 -4.543365e+00 1.834657e-01 -3.184393e-01 5.540195e+00 1.637466e+00 3.429297e+00 2.694889e+00 -2.279792e-01 -1.512927e-01 -3.685436e-02 -4.557621e-01 -9.481953e-01 -1.063207e+00 7.724946e-01 6.888887e-01 5.758556e-01 -1.537485e+00 -8.713917e-01 2.659948e-01 9.916932e-01 1.082011e+00 0.000000e+00 
-8.053311e+00 -1.524636e+00 -2.101133e+00 -1.132886e+00 -3.781571e-01 1.027252e+00 -2.269578e+00 -4.821842e-01 -7.865998e-01 3.894773e+00 1.277372e+00 4.380062e+00 -1.512927e-01 -3.085362e-01 -9.687254e-02 -2.661203e-01 -1.399947e-01 6.800278e-01 4.878781e-01 1.249751e+00 -3.576829e-01 6.169339e-01 1.345902e+00 5.004689e-01 7.184623e-01 0.000000e+00 
-7.040086e+00 4.182862e-01 -2.611766e+00 -1.960041e+00 1.940119e-01 -1.074697e+00 3.138770e-01 -5.467424e-01 -1.454724e+00 3.458942e+00 4.261387e+00 4.260432e+00 -1.512927e-01 -4.309799e-01 -1.717712e-01 -8.584687e-01 7.180802e-01 1.064219e+00 -1.005154e-01 9.680147e-01 3.212270e-01 1.361731e+00 8.603185e-01 -4.857229e-01 7.700245e-01 0.000000e+00 
-8.011500e+00 1.410517e-01 -1.802219e+00 6.868584e-01 -2.720326e-01 1.272556e-01 2.758016e+00 6.788908e+00 7.594718e+00 8.093204e+00 1.696358e+00 3.878908e+00 -1.512927e-01 5.177651e-02 4.195105e-01 2.845112e-01 9.656373e-01 1.175612e+00 -6.316775e-02 1.450346e+00 1.678655e+00 1.223267e+00 4.412281e-01 7.022540e-01 -3.673119e-02 0.000000e+00 
-7.964459e+00 -8.899863e-02 -3.114377e+00 1.788687e+00 7.246689e-01 1.308872e-01 2.007838e+00 3.510784e+00 4.255463e+00 5.631675e+00 5.678105e-02 3.872720e+00 -1.512927e-01 3.290104e-01 2.924861e-01 4.076440e-01 4.238529e-01 4.945295e-01 -5.155262e-01 9.076552e-01 8.804363e-01 -2.805698e-01 -4.868771e-01 -5.949149e-01 -8.491815e-01 0.000000e+00 
-7.332242e+00 8.265593e-01 -4.272713e-01 1.820937e+00 5.234573e+00 1.086216e-01 4.135173e+00 5.882328e+00 2.474641e+00 5.014547e+00 6.890944e+00 4.390262e+00 -1.512927e-01 6.287724e-01 -1.371075e-01 5.418229e-03 -2.580855e-01 -4.334769e-01 -1.173269e+00 1.307831e-01 -6.442795e-01 -1.690087e+00 -1.366509e+00 -1.235906e-01 -5.635847e-01 0.000000e+00 
-5.734663e+00 1.537963e+00 -1.261019e+00 -4.078159e-01 -8.664376e-02 -3.643011e+00 4.163575e+00 4.308729e+00 -2.975347e-01 2.563884e+00 -1.310481e+00 -2.411528e-01 -1.512927e-01 7.873418e-01 1.797802e-01 -4.263925e-03 -1.496720e-01 -1.700760e+00 -5.671252e-01 4.527400e-01 1.017108e+00 -3.950885e-01 -1.662133e+00 -5.683781e-01 -5.028387e-01 0.000000e+00 
-5.982536e+00 -1.357967e+00 -2.701806e+00 4.946823e-01 -2.033761e+00 -3.852142e+00 2.334063e+00 3.168538e+00 1.420781e+00 2.794552e+00 1.762036e+00 3.117921e+00 -1.512927e-01 4.671126e-01 -4.632626e-01 -3.953979e-01 5.001304e-01 -2.136201e+00 -2.311207e-01 -5.552607e-01 4.451271e-01 3.038161e-01 2.638869e-02 -3.004262e-01 -2.651069e-01 0.000000e+00 
-4.702603e+00 1.902165e+00 -1.998429e+00 1.703454e+00 -4.144962e+00 -7.243572e-01 5.172093e+00 9.953218e+00 2.806950e+00 -1.568993e+00 -2.206552e-01 1.994697e+00 -1.512927e-01 -6.961288e-02 -4.856146e-01 3.960236e-02 1.548801e+00 9.068789e-02 6.109263e-01 -9.629499e-01 4.881931e-01 -8.389403e-01 -5.160190e-01 3.803596e-01 -6.623173e-01 0.000000e+00 
-5.512709e+00 -1.671855e+00 -2.035556e+00 3.265954e+00 -3.417273e+00 -2.506309e+00 8.546104e-01 5.285718e+00 2.441479e+00 7.212929e+00 4.843901e+00 1.946803e+00 -1.512927e-01 -3.221016e-01 -3.925815e-01 1.825859e-01 1.006905e+00 9.321401e-01 7.528096e-02 -1.353495e+00 -6.982604e-01 -2.353220e+00 -1.131605e+00 -1.533422e+00 -1.997876e+00 0.000000e+00 
-6.317641e+00 -7.331662e-01 -1.396133e+00 5.950556e+00 1.058552e+00 -1.261296e+00 8.855146e-02 5.691104e+00 -5.002586e+00 -2.225400e+00 -9.496152e-01 -2.967180e+00 -1.512927e-01 -3.239541e-01 -4.273194e-01 4.914728e-01 2.465934e-01 1.122223e+00 -1.575918e-01 -8.454547e-01 -7.728954e-01 -1.261745e+00 1.388538e-01 -1.208215e+00 -1.332319e+00 0.000000e+00 
-6.785525e+00 -2.003208e+00 -2.090024e+00 3.405658e+00 2.518260e-02 -3.207268e+00 -1.891642e+00 1.808294e+00 -6.440552e+00 -2.535269e+00 -5.540591e+00 -4.390521e+00 -1.512927e-01 -5.318525e-01 2.267779e-01 2.267959e-01 -9.155532e-01 9.900273e-01 9.398731e-01 4.546753e-01 -3.417952e-01 -1.530514e-01 -2.487931e-01 -9.571085e-01 -4.761274e-01 0.000000e+00 
-5.685966e+00 -6.875511e-02 4.861692e-01 2.866569e+00 -2.550734e-01 -1.161837e+00 2.317945e+00 7.827454e+00 9.392403e-01 3.999376e+00 -1.069484e+00 -1.498234e+00 -1.512927e-01 -1.743933e-01 5.473800e-01 3.327533e-01 -1.002266e+00 1.253199e-01 6.890322e-01 -2.158844e-02 -2.244676e+00 1.036677e+00 1.233097e+00 7.179318e-02 1.651464e+00 0.000000e+00 
-8.487809e+00 -8.701709e-01 -1.842728e+00 2.301810e-01 2.189676e+00 2.143328e+00 2.013290e+00 2.508568e+00 -1.294691e+00 2.856576e+00 1.182926e-01 -1.168307e+00 -1.512927e-01 -1.260143e-01 9.081483e-01 3.122792e-01 -1.834343e-01 1.129986e+00 1.079439e+00 -5.548683e-01 -1.545784e+00 1.872636e+00 6.847893e-01 -4.173602e-01 6.205038e-01 0.000000e+00 
-6.338466e+00 1.437215e+00 1.439854e-01 2.526963e+00 6.029046e-01 -4.914327e-01 -1.971857e+00 -5.882411e+00 -2.392130e+00 1.244162e+00 -3.420091e+00 3.679033e+00 -1.512927e-01 -1.108987e+00 1.917125e+00 -1.043389e+00 -1.043911e+00 3.203611e-01 -4.285458e-02 -1.409535e+00 -1.186286e+00 1.077773e+00 -1.290639e+00 -2.450284e+00 -6.721481e-01 5.629121e-02 
-7.089347e+00 1.784548e+00 -3.575369e-01 2.658289e+00 5.246123e+00 1.854724e+00 -2.521082e+00 9.343073e-01 4.588314e+00 2.266284e+00 -6.452089e+00 -3.876635e+00 -1.512927e-01 -2.052209e+00 3.048555e+00 -1.210361e+00 -1.076958e+00 -1.068767e+00 -9.245540e-01 -1.352475e+00 3.010812e-01 1.107856e+00 -1.072658e+00 -1.525087e+00 -4.074795e-01 1.397736e-01 
-1.193013e+01 8.189509e+00 -5.473369e+00 -3.567039e+00 -1.814913e-01 -1.231808e+00 -2.462545e+00 2.683156e+00 3.386605e+00 -2.158671e+00 -1.003571e+01 -3.504811e+00 1.301634e-01 -3.276621e-01 -2.951030e-01 -2.542832e+00 -1.323588e+00 -3.257118e+00 -7.260140e-01 1.384723e+00 1.398303e+00 -1.055759e+00 -5.458447e-01 7.322845e-01 2.717049e-01 1.069555e-01 
-1.595302e+01 1.099646e+01 -5.085858e+00 -2.107610e+00 -2.761960e+00 -2.109255e+00 -4.503741e+00 -2.688099e-01 1.355221e+00 -8.052973e-01 -4.199334e+00 3.862171e-01 4.068474e-01 1.979517e+00 -2.558079e+00 -2.129936e+00 -8.832857e-01 -4.889452e+00 -8.604131e-01 2.363713e+00 5.069672e-01 -3.589938e+00 -8.599953e-02 1.991494e+00 2.007764e+00 7.120849e-02 
-3.544939e+00 -4.644253e+00 -1.020601e+01 -1.708026e+00 -1.167864e+01 -2.139513e+00 5.943090e+00 1.710662e+00 -6.054380e+00 5.072987e-02 -8.850462e-01 2.906131e+00 1.044148e-01 1.488143e+00 -3.465314e+00 1.427824e+00 -1.235698e+00 -1.376960e+00 -1.920942e+00 2.482072e+00 -2.187581e-01 -1.710602e+00 9.682837e-01 2.737547e+00 1.517082e+00 -3.284049e-03 
-1.384358e+00 -4.588967e+00 -8.640896e+00 -2.687645e+00 -1.345256e+01 -1.993489e+00 5.094665e+00 3.955391e+00 -8.640884e+00 7.315856e-01 -1.069954e+00 2.956715e+00 2.176241e-01 -1.185552e+00 -2.563530e+00 4.352548e+00 -7.594748e-02 3.034312e+00 -2.388707e+00 1.391994e+00 -9.455935e-01 3.262592e-01 1.026781e+00 1.488738e+00 -4.792027e-01 1.234037e-02 
-1.177375e+01 -1.344350e+00 3.443269e+00 -9.455509e+00 -1.720989e+00 -1.089440e+01 5.148612e+00 -5.227344e-01 -1.683530e-01 1.914306e+00 2.087332e+00 2.795350e+00 2.083548e-01 -3.211360e+00 1.092593e+00 4.381655e+00 1.979675e-02 5.270435e+00 -6.005894e-01 4.018250e-01 -2.262286e-01 2.661870e+00 2.087828e+00 1.442340e+00 -2.696500e-01 -7.947529e-03 
-1.776637e+01 -3.471150e+00 9.852242e+00 1.386394e+00 7.430772e+00 -9.675345e+00 2.853465e+00 -3.880079e+00 4.350290e-02 3.396821e+00 1.758165e+00 -1.954405e+00 4.165792e-01 1.514236e-01 1.828539e+00 -5.174387e-02 1.874130e+00 1.671438e+00 6.994094e-01 -1.680773e-01 -5.388365e-02 2.062543e+00 9.414645e-02 -1.545938e-01 -7.087235e-02 -4.821955e-02 
-1.141073e+01 2.598040e-01 2.455691e+00 -3.646062e+00 4.231867e+00 -1.301531e+00 9.072816e+00 4.497254e+00 2.912776e+00 9.157251e+00 4.912593e+00 4.013442e+00 -3.480041e-02 3.055210e+00 2.418360e+00 -3.234806e+00 1.535626e+00 -7.402784e-01 8.531120e-01 4.798567e-01 1.124777e+00 3.622033e-02 -7.623321e-01 -1.691818e+00 5.772806e-01 8.335340e-03 
-8.087492e-01 3.751652e+00 -8.405827e+00 3.778284e+00 -8.071796e+00 -3.292877e+00 2.292177e+00 1.175978e+00 1.312672e-01 -2.419155e+00 -3.255553e+00 1.993307e+00 9.810388e-02 1.872045e+00 2.098443e+00 -2.216378e+00 -1.467945e+00 -6.809037e-01 -1.181844e+00 1.258472e+00 3.807395e-01 1.068800e+00 -1.285713e+00 -1.558318e+00 1.432594e+00 3.867474e-02 
-4.976511e+00 7.136048e+00 -3.601728e+00 -2.973325e+00 2.328904e+00 -9.820076e+00 7.828540e+00 2.573123e+00 -3.113353e-02 1.010634e+00 -3.864895e+00 3.707896e+00 4.092692e-01 -1.873038e+00 5.628526e-01 -7.355394e-01 -1.205009e+00 2.657880e-01 -2.527414e+00 -1.495472e+00 -8.629831e-01 3.141837e-01 -1.578148e+00 -2.150278e+00 -1.491395e-01 1.369100e-01 
-1.162326e+01 3.582940e+00 1.799059e+00 -6.289697e+00 4.977736e+00 -1.132529e+01 9.767962e+00 -1.014316e+00 6.859460e+00 1.041567e+00 -1.644683e+00 5.361336e+00 3.879182e-01 -5.031682e+00 2.053804e-01 3.365163e-01 -1.815008e+00 1.103165e+00 -2.223755e-01 -8.890955e-01 -5.538800e-01 7.023511e-01 8.476716e-01 1.565512e-01 2.190881e-01 1.439352e-01 
-1.536866e+01 3.158423e+00 -6.324449e+00 -4.637115e+00 -9.639588e-01 -9.922391e+00 -2.142438e+00 1.277486e+00 1.119598e+00 -4.638471e-01 -6.644232e+00 1.583730e+00 5.048426e-01 -4.270307e+00 1.278212e-01 -1.574107e+00 2.034465e-01 -1.143522e-02 3.274605e+00 -2.533552e+00 -6.075495e-01 5.405612e-01 3.037579e-01 -7.412298e-02 -2.603349e-01 1.265385e-01 
-2.077108e+01 6.767366e+00 -5.361885e+00 -4.464863e+00 -9.095399e-01 -4.353597e+00 2.832188e+00 -9.456033e-01 3.067657e+00 2.556443e+00 -1.083129e+00 4.150831e+00 7.699931e-01 -2.257470e+00 -1.634062e-01 -2.913688e+00 5.718802e-01 -4.479999e-02 3.431793e+00 -1.737487e+00 5.734063e-01 -1.390548e-02 -1.768160e-02 -2.913849e-01 4.020472e-01 1.276110e-01 
-2.175414e+01 6.182941e+00 -7.891792e+00 -2.868510e+00 5.215365e+00 3.067100e+00 -1.371335e+00 -4.989817e-01 4.567574e+00 1.771985e+00 -4.516287e+00 3.011474e+00 8.509244e-01 -9.098814e-01 -1.797979e+00 -2.607907e+00 6.214128e-01 1.696384e+00 2.118579e+00 -4.450197e-02 -3.825826e-01 -2.449053e-01 -6.995656e-01 1.870532e-02 -1.036038e-02 7.566647e-02 
-1.971787e+01 1.253650e+00 -1.198571e+01 -4.314599e+00 1.664074e+00 -6.610731e-01 6.949749e-01 2.740949e+00 5.065945e+00 -1.647570e-01 -4.165579e+00 6.657700e+00 8.529321e-01 9.815121e-02 -2.443975e+00 -2.244126e+00 6.561664e-01 1.194337e+00 -3.489234e-01 -7.375280e-01 -1.981297e-01 -9.023821e-01 -1.453484e+00 3.329765e-01 -3.373578e-01 1.890163e-02 
-2.044468e+01 -3.074616e+00 -1.605207e+01 -1.605183e+00 6.231153e+00 -1.175756e+00 -1.296341e+00 -2.478704e+00 -1.104072e+00 -2.601075e+00 -5.009480e+00 2.784933e-01 8.417055e-01 6.063633e-02 -9.308783e-01 -9.571292e-01 -2.290796e-01 -1.869125e-02 -2.668644e+00 -3.694831e-01 -6.104375e-01 -8.633875e-01 -3.666368e-01 6.359829e-01 -9.126825e-01 1.212745e-02 
-2.093505e+01 -8.237283e-01 -1.250237e+01 -1.815695e+00 4.554249e+00 -3.976785e+00 -8.929490e-01 -9.463906e-01 1.391570e+00 -2.524449e+00 8.283498e-01 3.830533e+00 8.691107e-01 -5.677130e-01 7.074102e-01 1.917369e-01 -1.508259e-01 5.287373e-01 -2.454447e+00 -1.448557e+00 -1.254347e+00 -7.279260e-01 1.313911e-01 2.103626e-01 -1.352263e+00 2.720739e-02 
-2.084237e+01 2.567239e+00 -1.241911e+01 -5.263360e+00 3.676821e+00 -8.618263e+00 -2.424788e+00 -1.707499e+00 2.087824e+00 1.118647e+00 -3.833337e+00 -1.383548e-01 9.034723e-01 -2.472479e-01 7.932093e-01 9.451688e-01 -3.897448e-01 -9.796796e-01 -1.596994e+00 3.751425e-01 3.561842e-01 3.160263e-01 8.216578e-01 -2.476752e-01 1.833048e-01 3.507929e-02 
-2.235759e+01 1.969773e+00 -1.284351e+01 -3.239640e+00 5.584926e+00 -9.212052e+00 -5.983584e+00 -3.916386e+00 -1.696332e-01 -1.367663e+00 -3.701838e+00 1.048069e-01 9.580857e-01 1.088491e+00 5.523300e-01 1.222038e+00 -4.921823e-01 -1.172212e+00 -8.648634e-01 8.320768e-01 -2.999079e-02 5.531546e-01 1.006711e+00 -6.119639e-01 1.549261e-01 6.025535e-03 
-2.096965e+01 -5.053203e-01 -1.115566e+01 -2.841935e+00 8.174170e-01 -6.543092e+00 3.124689e+00 7.872147e-01 1.256661e+00 9.288208e-01 -3.982762e+00 3.057880e+00 9.726145e-01 3.127335e+00 3.138703e-01 3.186564e+00 9.583651e-01 -2.010009e-01 -2.788253e-01 1.032270e+00 2.400049e-01 -1.055120e+00 5.402782e-01 4.676034e-01 -3.938300e-01 -6.030464e-02 
-1.542896e+01 3.474201e+00 -7.023907e+00 -5.487319e+00 1.228893e-01 -9.338688e+00 4.926961e-01 -2.343701e+00 4.572925e+00 2.604017e+00 -2.156758e+00 3.007046e+00 8.646673e-01 7.484674e+00 -3.376410e-01 3.730830e+00 5.358599e-01 -1.939569e-01 -2.264064e-01 -1.965516e-01 -1.114054e+00 -6.804383e-01 1.322608e+00 1.586555e+00 -1.533503e+00 -9.284448e-02 
-8.670009e+00 3.384377e+00 6.039131e-01 6.523044e-01 5.402835e+00 -9.949072e+00 -5.015791e-01 -1.293817e+00 -5.559054e+00 1.834198e+00 -2.267860e+00 -3.558624e+00 6.486583e-01 8.709780e+00 -1.394869e+00 2.675479e+00 1.594495e-01 -2.202671e-01 -9.293871e-01 -2.425629e+00 -3.255397e+00 1.358231e-01 1.058729e+00 2.885251e+00 -2.389573e+00 -3.981624e-02 
8.915956e+00 -1.663280e+00 -6.914297e-02 -2.307460e+00 2.322432e+00 -8.641094e+00 -5.153208e+00 -8.446142e+00 -1.639674e-01 4.792686e+00 3.373485e+00 -4.254455e+00 6.558414e-01 7.357582e+00 -3.123096e+00 8.746156e-01 -2.280864e-01 -1.637344e+00 -2.713698e-01 -2.382411e+00 -2.293429e+00 1.347812e+00 1.165459e+00 3.072139e+00 -1.947704e+00 3.715056e-02 
1.040680e+01 -4.910925e+00 -1.255645e+00 -3.634616e+00 -1.383690e+00 -1.153882e+01 -6.180502e+00 -1.243855e+01 4.304223e+00 5.128131e+00 7.678369e+00 -5.259235e+00 8.779463e-01 4.340287e+00 -3.211683e+00 -8.572431e-01 -1.542364e+00 -2.731472e+00 3.538522e-01 -1.669354e+00 -2.472831e-01 3.078126e+00 9.982351e-01 1.843194e+00 -6.230502e-01 9.033126e-02 
1.182055e+01 -7.993629e+00 -1.721050e+00 -4.484290e+00 -4.670568e+00 -9.900661e+00 -8.579895e+00 -8.238481e+00 6.380345e+00 6.784345e+00 8.230824e+00 -5.881170e+00 9.357761e-01 5.379759e-01 -2.116098e+00 -9.735929e-01 -1.245124e+00 -1.923957e+00 7.159918e-01 -3.853827e-02 2.117527e+00 2.408700e+00 -2.116226e-01 -2.868357e-02 -6.965677e-01 7.307017e-02 
1.157913e+01 -9.508865e+00 -2.856349e+00 -5.971098e+00 -4.758025e+00 -7.550028e+00 -7.135007e+00 -2.634063e+00 6.559419e+00 5.829544e+00 4.519439e+00 -5.860518e+00 9.603472e-01 3.449868e-01 -1.824820e+00 -4.334462e-01 -1.320264e+00 -5.491883e-01 1.841149e+00 2.128967e-01 2.813813e+00 1.079460e+00 -4.857435e-01 -1.156843e+00 2.831413e-01 2.764819e-02 
1.101967e+01 -9.944798e+00 -4.136756e+00 -7.364839e+00 -5.610186e+00 -7.055533e+00 -4.868647e+00 -2.760752e+00 1.075194e+01 3.383866e+00 4.809532e+00 -7.436652e+00 9.799917e-01 2.032824e-01 -1.409244e+00 -9.507520e-02 -1.557968e+00 7.014633e-01 1.458822e+00 7.377218e-01 1.011284e+00 9.809319e-01 -1.371719e+00 -8.395289e-01 7.631121e-01 1.621800e-02 
1.253217e+01 -1.305944e+01 -2.215023e+00 -8.795664e+00 -3.659822e+00 -3.755642e+00 -6.971643e+00 -1.108345e+00 7.515728e+00 4.399652e+00 3.604798e+00 -3.065788e+00 9.940794e-01 3.010840e-01 -8.112018e-01 -1.876144e-01 -1.078264e+00 8.212641e-01 8.604320e-01 6.421894e-01 -2.772535e-01 7.016537e-01 -1.516360e+00 1.582321e-01 1.137828e+00 7.956976e-03 
1.236045e+01 -1.326456e+01 -2.517089e+00 -1.086185e+01 -1.712353e+00 -4.503743e+00 -4.972968e+00 -3.944919e+00 1.080685e+01 6.406934e-01 4.490499e+00 -3.462975e+00 1.000000e+00 4.185019e-01 -3.286167e-01 -2.303104e-01 -4.615704e-01 5.195172e-01 5.985237e-01 2.260405e-01 -3.077680e-01 1.227628e-01 -1.428213e+00 3.699392e-01 2.021080e+00 -5.523145e-04 
1.241416e+01 -1.190499e+01 -4.604254e+00 -9.613913e+00 -2.600620e+00 -4.523763e+00 -3.871900e+00 -3.428247e+00 1.004023e+01 -3.806686e-01 5.470116e+00 -2.158215e+00 9.901279e-01 3.901864e-01 3.745837e-01 -5.048344e-01 6.778426e-02 -3.283768e-01 3.694458e-02 1.858497e-01 -4.803050e-01 5.286520e-01 -1.531672e+00 9.022714e-01 1.983973e+00 -7.322985e-03 
1.317118e+01 -1.216511e+01 -4.093693e+00 -9.263565e+00 -3.542201e+00 -3.678854e+00 -5.288316e+00 -3.139641e+00 1.010350e+01 -1.367039e+00 5.726569e+00 2.214965e+00 9.792059e-01 7.398160e-01 6.178835e-01 -2.168240e-01 4.290745e-01 -8.210210e-01 8.173189e-02 -2.745832e-01 -5.982566e-01 -1.807861e-01 -8.347529e-01 7.557480e-01 2.849160e+00 -1.709201e-02 
1.407773e+01 -1.173625e+01 -3.950893e+00 -9.255883e+00 -4.386783e+00 -3.983363e+00 -5.884721e+00 -3.912509e+00 1.051066e+01 -2.254843e+00 7.498119e+00 4.015106e+00 9.678615e-01 9.265971e-01 9.630653e-01 2.867485e-01 2.330627e-01 -4.910026e-01 1.052930e-01 -3.869730e-01 -1.710115e+00 -3.922686e-01 -1.236687e+00 2.686957e-01 3.466460e+00 -3.374284e-02 
1.522774e+01 -1.025952e+01 -3.927890e+00 -8.895491e+00 -4.924377e+00 -4.365283e+00 -5.339473e+00 -6.694071e+00 9.667702e+00 -2.595984e+00 7.255238e+00 7.696165e+00 9.256731e-01 4.645138e-01 1.469154e+00 5.564857e-01 8.779585e-01 -1.166117e-01 9.553050e-01 -1.796388e-01 -2.485648e+00 -1.313164e+00 -1.393837e+00 -7.665478e-01 3.158194e+00 -6.518023e-02 
1.601887e+01 -8.042461e+00 -3.253413e+00 -8.632637e+00 -4.364545e+00 -3.654083e+00 -5.781186e+00 -1.020160e+01 8.296785e+00 -5.949629e+00 6.049260e+00 1.243348e+01 8.481801e-01 -6.155222e-01 2.212519e+00 5.226611e-01 2.236697e+00 2.721497e-01 2.832706e+00 -8.935595e-01 -1.089373e+00 -3.253756e+00 -9.899027e-01 -1.884554e+00 2.082377e+00 -1.039725e-01 
1.452319e+01 -6.666234e+00 -1.660004e+00 -5.185396e+00 -4.136378e+00 9.330305e-01 -6.238277e+00 -1.242333e+01 4.644616e+00 -6.488831e+00 2.618260e+00 1.379675e+01 7.131454e-01 -2.000599e+00 3.008055e+00 -3.236835e-01 3.225735e+00 1.173132e+00 2.632594e+00 2.515401e-01 3.818737e-01 -4.879770e+00 -1.168194e-01 -2.228282e+00 -7.857130e-01 -1.218718e-01 
1.135240e+01 -2.470295e+00 -2.471530e+00 7.255626e-02 -3.420034e+00 7.531012e+00 -9.903116e+00 -6.494743e+00 -3.246571e+00 -5.257933e+00 3.938386e-01 1.137670e+01 5.542628e-01 -2.839486e+00 3.330461e+00 -6.675413e-01 2.550036e+00 1.589270e+00 1.563956e+00 8.921083e-01 1.160105e+00 -4.644698e+00 1.144117e+00 -1.867096e+00 -3.477415e+00 -1.044787e-01 
7.557979e+00 1.994677e+00 -5.937249e+00 2.880588e+00 4.690292e-01 3.205140e+00 -2.020808e+00 -6.638134e+00 -8.959469e+00 -3.525929e+00 -1.058463e+00 4.295991e+00 4.632726e-01 -1.892444e+00 1.920692e+00 -1.136882e+00 6.768968e-01 1.187549e+00 -5.445831e-01 9.985971e-01 1.339872e+00 -2.868767e+00 1.319259e+00 -4.873233e-01 -3.023926e+00 -3.925375e-02 
5.304043e+00 4.279388e+00 -4.452497e+00 8.455253e-02 1.279100e+00 3.029644e+00 -3.429379e+00 -7.293680e+00 -8.124664e+00 -1.710498e+00 -1.447859e+00 -2.032138e-01 4.507230e-01 4.218979e-01 -1.544153e+00 2.733113e-01 -1.305927e+00 -6.365910e-01 -1.212559e+00 7.966539e-01 -6.014932e-01 1.459339e+00 7.500858e-01 1.868955e-01 -2.017560e-01 5.107400e-02 
8.085146e+00 -4.376180e-01 -6.353929e+00 -1.806910e+00 -5.482014e-01 4.607991e-01 -4.482161e+00 -5.324504e+00 -7.260175e+00 -1.666255e+00 1.102493e+00 4.467075e+00 5.686466e-01 1.711529e+00 -3.772427e+00 1.580915e+00 -1.911003e+00 -2.269009e+00 -2.037637e-01 -7.700199e-01 -1.160962e+00 4.244649e+00 3.781138e-01 -3.390932e-03 2.373071e+00 1.125841e-01 
1.319831e+01 -8.974911e+00 -8.966337e-01 -4.113329e+00 -6.094374e+00 2.840387e+00 -4.689170e+00 -1.015902e+01 3.200477e+00 -2.437340e+00 2.478385e-01 1.028238e+01 7.569458e-01 1.566064e+00 -3.818114e+00 1.637073e+00 -1.308832e+00 -2.292719e+00 1.943336e-01 -9.253460e-01 -1.202662e+00 4.811945e+00 1.188131e-01 -7.326012e-01 2.176966e+00 1.220787e-01 
1.216849e+01 -1.024031e+01 1.893957e-01 -4.575485e+00 -7.189281e+00 2.280950e+00 -5.241012e+00 -1.101027e+01 6.601205e+00 -1.271939e+00 -1.923266e+00 1.091855e+01 8.730818e-01 2.218028e-01 -1.999874e+00 1.624669e+00 -6.493689e-01 -1.507258e+00 6.523572e-01 -1.308957e+00 -8.752455e-01 3.964001e+00 2.541355e-01 -1.346349e+00 -3.047251e-01 8.502106e-02 
1.109269e+01 -9.909836e+00 4.612062e-01 -5.075321e+00 -6.863957e+00 3.091236e+00 -7.676683e+00 -1.046411e+01 9.004373e+00 -1.313591e+00 -3.597986e+00 7.455881e+00 9.088989e-01 -7.194656e-01 -2.947937e-01 8.104858e-01 -1.131451e-01 -4.293120e-01 4.944595e-01 -1.765035e+00 2.135754e-01 1.698846e+00 2.974836e-01 -8.282496e-01 -2.387663e+00 3.588411e-02 
1.024697e+01 -9.969525e+00 1.090495e+00 -4.572759e+00 -7.699700e+00 3.597161e+00 -9.533187e+00 -9.548189e+00 9.657886e+00 -9.574524e-01 -3.706338e+00 4.356699e+00 9.177753e-01 -6.341414e-02 -3.396110e-01 1.002401e+00 5.663776e-01 -8.788068e-01 1.077395e+00 -1.526828e+00 2.332835e-01 2.818113e-01 2.941230e-01 -2.718381e-01 -2.552742e+00 -2.625263e-03 
1.056174e+01 -1.058427e+01 2.705246e+00 -4.680418e+00 -7.985724e+00 4.654580e+00 -1.136826e+01 -9.822188e+00 1.016637e+01 -1.107166e+00 -3.001873e+00 1.624987e+00 9.140196e-01 7.176744e-01 -3.049258e-01 1.101729e+00 2.058370e+00 -1.206597e+00 3.531897e-01 1.887376e+00 -4.755016e-01 -2.997009e+00 1.317114e-01 1.809585e-01 -1.966682e+00 -4.124166e-02 
1.211690e+01 -1.160115e+01 4.079383e+00 -1.941049e+00 -1.102243e+01 6.886254e+00 -1.102937e+01 -1.016481e+01 7.429265e+00 9.546393e-02 -3.580513e+00 1.070284e+00 8.573952e-01 1.018404e+00 2.579091e-01 1.367791e+00 2.225809e+00 -6.913732e-01 -8.798038e-01 4.567202e+00 -1.250765e-01 -5.901260e+00 -1.955297e+00 1.732352e+00 -8.580556e-01 -5.934248e-02 
1.374610e+01 -1.061865e+01 4.475409e+00 3.900672e+00 -1.123557e+01 3.212638e+00 2.508285e+00 -1.253331e+01 -4.866363e+00 -1.181492e+00 -2.756106e+00 -7.343208e-01 7.328807e-01 9.344896e-01 5.251404e-01 1.295408e+00 1.719113e+00 -7.390833e-02 -1.444704e+00 4.878654e+00 3.232478e-01 -6.592771e+00 -2.901931e+00 2.530286e+00 -1.155728e-01 -5.736145e-02 
1.374681e+01 -8.662788e+00 7.044366e+00 2.265739e+00 -9.531640e+00 -8.088726e-02 6.364552e+00 -8.818013e+00 -1.233205e+01 -1.069677e+01 4.832536e+00 1.246074e+00 7.116324e-01 4.552301e-01 6.938548e-01 1.110805e+00 3.726188e-01 9.360656e-01 -1.575145e+00 3.280796e+00 5.599125e-01 -4.743425e+00 -3.139899e+00 2.748008e+00 2.603064e-02 -3.845650e-02 
1.441923e+01 -9.427749e+00 7.699792e+00 1.811754e+00 -9.100660e+00 9.146312e-01 4.328058e+00 -8.879350e+00 -1.291683e+01 -1.022071e+01 5.443035e+00 9.592280e-01 7.000937e-01 -1.682592e-01 7.699043e-01 7.400820e-01 -8.501863e-01 1.294318e+00 -4.523391e-01 -3.515866e-02 1.018600e+00 -1.407781e+00 -1.871028e+00 1.832511e+00 -2.196201e-01 -1.907707e-02 
1.405648e+01 -8.727325e+00 8.021217e+00 9.665043e-01 -7.409560e+00 1.595306e-01 4.464727e+00 -9.192229e+00 -1.226263e+01 -1.108443e+01 6.059958e+00 3.536631e-01 6.815062e-01 -5.581738e-01 1.130853e+00 -5.930004e-02 -1.480655e-01 1.094121e+00 3.515463e-01 -7.990103e-01 8.890696e-01 2.547662e-01 2.367003e-01 7.028203e-02 -1.152554e+00 -2.579329e-02 
1.274997e+01 -6.736865e+00 7.687394e+00 2.993581e-01 -5.825026e+00 8.307336e-01 3.282403e+00 -7.253198e+00 -1.193998e+01 -1.034280e+01 5.792738e+00 -1.386216e+00 6.525584e-01 -6.703994e-01 1.549879e+00 8.894491e-03 1.661422e-01 1.217258e+00 3.247017e-01 -5.287305e-01 1.758532e+00 -1.180210e-02 1.968642e-01 -2.116978e-01 -1.378608e+00 -3.541431e-02 
1.179057e+01 -4.353964e+00 6.754066e+00 2.281610e+00 -5.698852e+00 1.718793e+00 2.892327e+00 -5.185741e+00 -1.154665e+01 -9.452222e+00 5.009094e+00 -3.343975e+00 6.064336e-01 -4.717588e-01 1.497909e+00 1.318888e-01 3.879377e-01 1.449201e+00 5.427307e-01 -4.238157e-01 2.071137e+00 -2.151581e-01 7.199516e-02 1.972628e-02 -1.600241e+00 -4.247863e-02 
1.220019e+01 -3.865033e+00 8.377840e+00 1.984912e+00 -3.869725e+00 1.758508e+00 2.470606e+00 -2.089934e+00 -1.333383e+01 -1.005249e+01 4.909978e+00 -4.084993e+00 5.605585e-01 -1.552383e-01 1.070082e+00 3.894215e-01 6.303948e-01 1.716911e+00 5.681798e-01 -2.418953e-01 2.155911e+00 3.269148e-02 1.002254e-01 -2.794111e-01 -1.439557e+00 -4.778208e-02 
1.197257e+01 -2.673696e+00 8.335438e+00 2.063416e+00 -1.141205e+00 2.409297e+00 2.751548e+00 -1.418177e+00 -1.264149e+01 -1.086961e+01 6.599970e+00 -6.298155e+00 5.151130e-01 -1.234766e-01 6.907355e-01 5.757319e-01 5.078869e-01 2.188146e+00 7.773250e-01 -4.767884e-01 2.085263e+00 2.451687e-01 7.231161e-01 -3.196065e-01 -1.464419e+00 -4.996871e-02 
1.188277e+01 -2.226587e+00 8.843815e+00 3.560430e+00 4.807030e-01 3.326381e+00 2.143317e+00 1.642577e+00 -1.122910e+01 -9.132983e+00 3.600245e+00 -7.106909e+00 4.593083e-01 -1.815095e-01 6.071665e-01 3.576841e-01 4.481675e-01 2.340410e+00 5.362948e-01 -7.530451e-01 2.288364e+00 8.539532e-01 1.637232e+00 -3.692428e-01 -1.105672e+00 -5.348516e-02 
1.133190e+01 -1.719509e+00 9.399738e+00 4.033286e+00 3.066664e+00 4.821482e+00 6.720295e-01 3.374320e+00 -1.137317e+01 -6.296392e+00 4.065928e+00 -9.155112e+00 4.072151e-01 -2.530440e-01 5.467815e-01 -3.547376e-01 8.460472e-01 1.516458e+00 6.204857e-01 -1.005470e-01 2.382693e+00 1.288140e+00 2.166181e+00 -4.650753e-01 2.101480e-01 -5.442521e-02 
1.161298e+01 -1.306293e+00 9.634111e+00 3.240815e+00 5.728391e+00 3.233889e+00 -2.548607e-01 6.955640e+00 -9.698228e+00 -4.152933e+00 4.330785e+00 -8.184874e+00 3.470817e-01 -4.327821e-01 5.613998e-01 -7.789086e-01 7.774144e-01 1.156421e+00 6.684617e-01 5.304157e-01 2.058773e+00 2.066781e+00 2.402381e+00 -7.087326e-01 4.536837e-01 -5.028326e-02 
1.084225e+01 -3.999347e-01 6.166602e+00 6.453459e+00 3.817240e+00 5.557971e+00 3.447901e+00 7.838757e+00 -6.966229e+00 -2.528729e+00 3.909323e+00 -4.708433e+00 2.991003e-01 -7.171647e-01 1.038095e+00 -1.308720e+00 1.970550e+00 2.142432e+00 1.400613e+00 1.376707e+00 1.628931e+00 1.808045e+00 7.195945e-01 -3.198282e+00 -5.146446e-01 -4.521401e-02 
9.963687e+00 -7.937468e-02 6.565841e+00 6.237415e+00 5.887522e+00 6.300445e+00 3.407459e+00 9.704221e+00 -3.098664e+00 9.950900e-01 1.348844e-01 -7.061831e+00 2.619494e-01 -1.069550e+00 1.330537e+00 -1.123751e+00 2.100909e+00 2.229932e+00 1.450451e+00 1.146698e+00 2.903138e-01 1.019462e+00 -4.681485e-01 -3.404330e+00 -5.107475e-01 -4.819914e-02 
8.570721e+00 2.857508e+00 4.390274e+00 1.238774e+01 1.369926e+01 1.029127e+01 5.724403e+00 1.014468e+01 -5.632723e+00 -5.272431e+00 -9.827529e+00 -1.228986e+01 2.237112e-01 -1.032288e+00 1.606991e+00 6.750059e-03 6.647321e-01 1.193448e+00 -3.386273e-01 4.076386e-01 -9.566290e-01 2.506933e-01 -7.219721e-01 -2.096053e+00 -3.583044e-01 -6.310488e-02 
7.400995e+00 3.717668e+00 4.903518e+00 1.077822e+01 1.193704e+01 8.119497e+00 4.340377e+00 7.254245e+00 -5.267670e+00 -5.121824e+00 -5.822437e+00 -6.947899e+00 1.437805e-01 -1.455883e+00 1.186292e+00 -5.463324e-01 -7.875724e-01 -3.378464e-01 -7.781994e-01 3.127456e-02 -1.846645e+00 -5.457690e-01 -6.283795e-01 1.555917e-01 5.549769e-01 -8.304273e-02 
6.962154e+00 5.736498e+00 7.031513e+00 7.506717e+00 6.759722e+00 2.955308e+00 5.019636e+00 4.280601e+00 -4.628260e+00 -3.080132e+00 -3.592282e+00 -6.556921e+00 4.266030e-02 -1.948174e+00 7.909401e-02 -4.768038e-01 -2.334912e+00 -2.217522e+00 -5.421673e-01 -5.570068e-01 -2.857783e-01 1.360358e+00 1.936331e+00 2.181824e+00 1.255265e+00 -8.645363e-02 
3.488557e+00 4.412591e+00 2.513559e+00 4.740063e+00 7.668057e+00 6.077429e+00 3.916215e+00 3.403037e+00 -6.329741e+00 -3.242957e+00 -2.204781e+00 -7.153414e+00 -6.273878e-02 -1.217746e+00 5.276858e-01 -4.205718e-01 -2.032862e+00 -2.154169e+00 -8.366013e-03 -6.054407e-01 3.288543e-01 1.092069e+00 1.344604e+00 1.861687e+00 6.798295e-01 -5.947575e-02 
7.860727e-01 2.905517e+00 3.201235e+00 3.732257e+00 4.746141e+00 8.601468e+00 3.151449e+00 1.064140e+01 1.700104e+00 3.469791e+00 -7.272376e-01 -5.910774e+00 -1.052973e-01 -5.735734e-01 1.057051e+00 -3.377135e-01 -1.251634e+00 -1.378558e+00 -8.979012e-01 -1.009627e+00 4.036075e-01 4.349670e-01 2.013036e-01 3.646576e-01 7.372749e-01 -2.828581e-02 
4.400306e+00 7.771588e+00 4.715798e+00 2.501142e+00 2.172988e+00 5.254587e+00 2.247267e+00 5.718118e+00 -2.971508e+00 -1.673766e+00 2.053475e+00 -3.871825e+00 -7.961941e-02 2.752848e-01 1.651429e+00 3.424535e-01 -8.031346e-01 -1.452808e+00 -1.815266e+00 -9.757404e-01 -5.095645e-01 -8.961210e-02 -3.050655e-01 -6.784977e-01 4.426022e-01 -6.322599e-03 
3.638413e+00 9.342255e+00 4.241826e+00 2.368007e+00 2.614464e+00 -1.122777e+00 8.059768e-01 5.141097e+00 -4.132541e+00 -2.858210e+00 -3.898122e+00 -4.511341e+00 -9.032845e-02 2.214561e-01 1.521719e+00 1.936918e-01 5.412852e-01 1.854990e-01 -1.205311e+00 2.310061e-03 -5.033217e-01 -6.780682e-01 -1.793219e+00 -7.591696e-01 -1.452482e-01 2.215552e-03 
3.438811e+00 9.451369e+00 3.705531e+00 1.406516e+00 1.469856e+00 1.863219e+00 2.102495e-01 3.605364e+00 -3.861478e+00 -1.604284e+00 -4.011827e+00 -5.640120e+00 -1.018362e-01 -2.855964e-01 9.781708e-01 4.990118e-01 1.043487e+00 8.433869e-01 -8.183899e-02 4.494167e-01 -5.815425e-02 3.587331e-01 2.184605e-01 3.815203e-02 7.325464e-01 2.365029e-03 
2.374101e+00 9.674224e+00 4.674827e+00 6.985996e+00 6.025202e+00 4.270596e+00 4.181509e+00 9.181166e+00 -1.245251e+00 -5.531045e+00 -1.490434e+00 -5.752867e+00 -8.311117e-02 -4.178907e-01 3.858159e-01 4.027604e-01 6.296547e-01 1.876312e-01 1.337197e+00 -3.751819e-01 -8.006608e-01 1.279968e+00 1.010045e+00 1.193377e+00 2.137036e-01 -3.073943e-03 
3.604480e+00 1.249646e+01 6.994357e+00 5.409584e+00 4.684554e+00 2.148706e+00 2.806584e+00 3.407312e+00 -2.621487e+00 7.549537e-01 1.040391e+00 4.116708e-01 -7.140291e-02 -5.314264e-01 -9.896679e-02 4.791225e-01 -1.309137e-02 2.629825e-01 9.791471e-01 -2.898318e-01 -4.611691e-01 4.009979e-01 1.020416e+00 1.430385e+00 1.107221e+00 -9.795427e-03 
1.466125e+00 9.748790e+00 4.611215e+00 3.514746e+00 1.945271e+00 5.420464e+00 -2.368100e+00 1.236820e+00 1.647305e+00 1.012397e+00 -4.573432e-01 -6.468718e+00 -1.209148e-01 -6.837555e-01 -3.034258e-01 -1.000914e-01 -1.003275e+00 -3.511756e-01 9.772902e-01 2.752421e-01 -1.320326e+00 5.447005e-01 1.385632e+00 -8.517612e-01 2.593504e-02 -1.962513e-02 
1.235667e+00 8.919252e+00 6.132949e+00 3.076684e+00 4.824733e+00 6.184021e+00 2.035895e+00 5.271692e+00 -3.302767e+00 2.260777e-01 2.623550e+00 2.539088e-01 -1.319115e-01 -9.727755e-01 -6.155639e-01 -4.484753e-01 -4.605184e-01 7.331719e-02 9.144783e-01 2.768947e-01 -6.244111e-02 8.180045e-01 8.460861e-01 -1.867693e+00 -6.762563e-01 -1.888921e-02 
1.397305e-01 9.945698e+00 4.605074e+00 3.136072e+00 4.199234e+00 7.139388e+00 5.943064e+00 1.647345e+00 1.818891e+00 1.661553e+00 -6.540820e+00 -5.544311e+00 -1.509825e-01 -6.398529e-01 -1.858175e-01 -2.854466e-01 7.699919e-03 4.727654e-01 -3.448733e-01 5.329499e-01 1.020983e-01 7.697801e-01 5.019003e-01 -1.639925e+00 4.209796e-01 -7.965934e-03 
-5.962000e-01 9.320185e+00 4.755051e+00 3.296329e+00 3.924158e+00 5.861635e+00 3.547621e-02 2.889844e+00 1.382743e+00 4.660806e+00 -5.256335e+00 -3.431814e+00 -1.508151e-01 -9.120782e-01 -5.509005e-01 -3.712845e-01 -8.414455e-02 -8.343542e-01 -7.078440e-01 1.794534e-02 -3.165223e-01 1.054140e+00 1.004848e+00 -8.920060e-01 1.030161e-01 -3.907251e-03 
-8.172064e-01 8.619236e+00 3.872931e+00 3.443423e+00 4.759386e+00 3.857290e+00 1.296858e+00 2.938235e+00 3.153451e+00 1.304534e+00 -4.717027e+00 -2.520958e+00 -1.512927e-01 -1.041785e+00 -9.502651e-01 -6.844227e-01 -4.704730e-01 -1.027327e+00 -1.034700e+00 -3.339233e-01 6.809643e-01 4.751421e-01 1.177542e+00 1.774091e+00 6.056635e-01 -1.097918e-04 
-2.846255e+00 6.827981e+00 4.642598e+00 2.502285e+00 3.728867e-01 4.285851e+00 4.448724e+00 3.043636e+00 1.300654e+00 5.428826e+00 -2.748377e+00 -7.426870e-01 -1.512927e-01 -6.680924e-01 -6.996407e-01 -4.079774e-01 5.906129e-02 1.288643e-01 8.718101e-02 5.839103e-01 1.952996e-01 7.208576e-02 1.834401e-01 1.229678e+00 1.504035e-01 -9.551048e-05 
-3.944169e+00 6.440474e+00 1.239187e+00 1.180728e+00 8.382360e-01 2.753779e+00 2.066823e+00 4.975270e+00 4.235646e+00 7.165254e+00 1.075654e+00 -3.860557e+00 -1.512927e-01 -2.861653e-01 -5.708613e-01 -5.489137e-01 2.228744e-01 5.850121e-01 9.500184e-01 5.048789e-01 1.005604e+00 -3.759448e-01 8.472597e-01 1.014058e-01 4.693695e-01 0.000000e+00 
-2.373180e+00 6.911362e+00 4.032036e+00 4.722983e+00 6.529055e+00 6.849296e+00 2.570045e+00 2.847825e+00 1.202074e+00 2.647647e+00 -2.004286e+00 -2.009997e+00 -1.512927e-01 2.838352e-01 -6.292977e-02 -3.246590e-01 3.773054e-01 1.119586e+00 6.425359e-01 -9.155787e-01 1.166995e+00 -1.043760e+00 -3.612892e-01 -1.256557e+00 1.062865e+00 0.000000e+00 
-2.484571e+00 5.723238e+00 1.433644e+00 3.447447e+00 4.606362e+00 7.325660e+00 4.760592e+00 8.064160e+00 1.323017e+00 6.931422e+00 -4.582044e+00 4.595444e-01 -1.512927e-01 9.849367e-02 2.626332e-01 3.003761e-01 2.139664e-02 2.989584e-01 -1.910393e-01 -2.136102e+00 -9.263226e-01 -1.864016e+00 -4.672588e-01 -8.384594e-01 1.318779e+00 0.000000e+00 
-2.156878e+00 6.871949e+00 2.922075e+00 3.255454e+00 4.086754e+00 5.212590e+00 -1.476054e+00 7.334168e+00 -2.461829e+00 3.739296e+00 -6.202315e+00 2.411585e+00 -1.512927e-01 -6.521301e-02 1.446827e-01 6.381816e-01 9.121843e-02 -5.298649e-01 -6.311957e-01 -7.957004e-01 -1.883415e+00 -7.046211e-01 -1.086261e+00 -2.912889e-01 -5.781244e-01 0.000000e+00 
-3.559852e+00 7.773346e+00 3.296048e+00 2.021476e+00 3.554178e+00 2.616936e+00 -6.590636e+00 -1.899514e+00 -3.252481e+00 4.283135e+00 -1.017629e+00 5.225494e-01 -1.512927e-01 -1.200592e-01 5.015660e-01 8.069197e-01 1.012739e+00 -3.417477e-01 -2.052560e-02 3.008352e-01 -2.087755e+00 -1.985005e-01 -2.606208e+00 -1.377293e-01 -1.507326e+00 0.000000e+00 
-2.161605e+00 6.609722e+00 6.291742e+00 5.892060e+00 4.405822e+00 6.047679e+00 4.267158e+00 -1.587414e+00 -3.328288e-02 -1.459514e+00 -5.242938e+00 -4.932122e+00 -1.512927e-01 -3.125984e-01 1.338491e-01 -5.900889e-01 9.458717e-01 2.017974e-01 7.842488e-01 1.953475e+00 -6.677889e-01 5.168186e-01 -9.737121e-01 1.344104e+00 9.065984e-01 4.226208e-03 
-3.082503e+00 8.362183e+00 3.783409e+00 7.192841e+00 2.738090e+00 6.805487e+00 3.393163e+00 2.086177e+00 -8.837591e-01 -3.500212e+00 -5.750379e+00 -3.405231e+00 -1.512927e-01 -3.508865e-01 2.241247e-01 -8.574100e-01 1.044442e-01 -8.661008e-03 1.156741e+00 2.200175e+00 2.396080e+00 1.321346e+00 1.679799e+00 2.183009e+00 1.926255e+00 4.366159e-03 
-3.958545e+00 7.246777e+00 -2.720500e-01 5.399130e+00 5.503786e+00 7.039558e+00 3.299420e+00 2.002378e+00 -1.062097e+00 2.762408e+00 2.884582e+00 8.908467e+00 -1.301616e-01 -7.636474e-01 2.431457e-01 -9.810466e-01 -8.677880e-01 -2.576956e-01 -1.039628e+00 -1.028561e+00 9.172087e-01 1.073798e+00 1.763940e+00 1.417493e+00 1.973298e+00 1.126528e-03 
-4.415814e+00 8.575442e+00 2.290894e+00 2.790162e+00 2.961891e+00 7.904701e+00 4.894108e+00 8.285988e+00 3.868656e+00 1.057117e+01 5.833654e+00 3.233529e+00 -1.400274e-01 -5.816008e-01 -8.146791e-02 -8.964679e-02 -8.521433e-01 -1.963635e-01 -1.975074e+00 -1.496411e+00 -6.478561e-01 1.170811e+00 5.211496e-01 -3.226290e-01 2.746954e-01 -2.113104e-03 
-5.313187e+00 7.718821e+00 2.132766e+00 3.754459e+00 3.005443e+00 2.999319e-01 -1.626122e+00 -1.012760e-01 2.959497e+00 3.244939e-01 -3.947488e+00 1.614986e+00 -1.512927e-01 -3.606656e-01 8.746671e-03 4.651505e-01 -2.325045e-01 -4.953133e-01 -2.108402e+00 -1.637131e+00 -1.259457e+00 7.134031e-01 -1.512251e+00 -2.344528e+00 -1.620551e+00 -5.352736e-03 
