-5.330068e+00 2.899866e+00 -5.612034e+00 -2.867410e+00 3.734999e-01 -3.326146e+00 1.392127e+00 4.937037e+00 7.034852e+00 1.086838e+01 3.550585e+00 9.269323e+00 3.700525e-02 -2.345190e-01 2.417388e-01 1.494151e+00 2.032157e+00 9.200422e-01 -8.399935e-01 -1.144274e+00 -2.400448e+00 -1.992112e+00 -1.360430e+00 -9.554268e-01 -3.803801e-01 5.883515e-04 
-4.820598e+00 2.541224e+00 -3.684323e+00 -1.117919e+00 3.721102e+00 -2.036597e+00 9.152470e-01 -7.033186e-01 -1.326807e-01 5.626764e+00 2.127678e-01 5.067694e+00 2.771795e-02 -1.654026e-01 4.950462e-01 1.619990e+00 2.701103e+00 9.378062e-01 -8.429747e-01 -6.412948e-01 -1.717912e+00 -7.665555e-01 -1.821495e-01 -9.928381e-01 4.975580e-01 -1.523876e-03 
-6.757398e+00 4.287881e+00 8.948647e-01 6.418631e+00 3.299910e+00 -8.170889e+00 -4.090805e+00 -4.245024e+00 6.580573e-01 6.687037e+00 4.423599e-01 9.468238e+00 4.459065e-02 1.265101e-01 -8.390641e-03 9.666204e-01 1.502584e+00 -2.178302e-01 -9.410616e-01 -9.307270e-02 2.100842e-01 -2.456036e-01 7.030416e-01 -1.382766e+00 6.048818e-02 2.264547e-03 
-5.443416e+00 4.681090e+00 -7.655318e-01 5.995087e+00 3.599326e+00 -5.118649e+00 9.271183e-01 9.385061e-01 6.390471e+00 1.204830e+01 1.405070e-01 1.165766e+01 2.559316e-02 5.049958e-01 -6.116749e-01 3.185279e-01 -2.579165e-01 -1.023025e+00 -8.245655e-01 -7.294771e-01 -1.749148e-01 1.197307e+00 1.975696e+00 -9.338912e-01 -3.991651e-03 8.568811e-03 
-4.386108e+00 1.787980e+00 -2.238327e+00 1.089005e+00 -6.547632e-01 -6.490428e+00 9.208274e-01 5.166546e+00 2.545258e+00 1.117282e+01 -3.327113e+00 6.276783e+00 4.939038e-02 6.126496e-01 -1.610465e+00 -6.539767e-01 -2.687183e+00 -6.181126e-01 1.626591e+00 -1.637900e-01 6.852565e-01 1.538939e+00 2.962806e+00 6.762286e-01 -8.338712e-01 1.878485e-02 
-3.481263e+00 7.328005e-01 -5.250869e-01 2.573116e-01 5.833154e-01 -6.999655e+00 -5.237955e+00 -6.283678e+00 4.910255e+00 1.326235e+01 -2.571952e+00 6.643463e+00 6.816214e-02 8.222103e-02 -2.097195e+00 2.423464e-01 -1.688774e+00 1.793263e-01 7.091883e-01 -1.372485e+00 -2.245826e-01 9.214311e-01 8.985397e-01 1.141590e+00 -9.086997e-01 3.464792e-02 
-4.675226e+00 -1.790301e+00 -2.495241e+00 -4.148394e+00 1.717352e+00 9.025686e-01 -1.827218e+00 2.792350e+00 9.092861e+00 2.089404e+01 5.179732e+00 7.805978e+00 1.172304e-01 -4.928082e-01 -2.091294e+00 5.981587e-01 -6.665926e-02 8.992783e-01 8.121967e-01 -1.485954e+00 -8.088154e-01 8.562002e-01 -6.662846e-04 5.573565e-01 7.906253e-01 3.951829e-02 
-4.887752e+00 -4.015743e+00 5.746572e-01 1.699172e-01 3.309900e+00 -5.269205e+00 -4.561285e+00 1.002691e+00 7.723825e+00 1.168039e+01 1.595036e+00 6.349561e+00 1.649128e-01 -5.181168e-01 -1.599227e+00 8.327694e-01 1.856913e-01 4.024877e-01 1.827683e-02 -4.146938e-01 6.138171e-01 -5.156710e-01 -9.029045e-01 1.729691e-01 3.840675e-01 3.397305e-02 
-6.146905e+00 -6.294216e+00 2.025943e-01 7.994058e-01 2.478336e+00 -3.294670e+00 -6.847279e+00 -2.520716e+00 5.419474e+00 1.196047e+01 -2.623824e+00 1.037686e+01 1.986065e-01 -2.586993e-01 -8.696278e-01 5.553527e-01 1.935212e-01 2.385273e-01 -5.874611e-01 -4.701789e-01 -5.874176e-01 -1.376367e+00 -1.548708e+00 -1.100617e+00 2.318386e-02 2.040616e-02 
-5.336008e+00 -5.011377e+00 2.289842e+00 -1.288132e+00 2.215262e+00 -4.809651e+00 -4.801393e+00 -5.580599e-01 4.168594e+00 1.321462e+01 2.194672e+00 7.278359e+00 1.973394e-01 -2.602243e-01 -2.150750e-01 -3.120785e-01 -6.634731e-01 -3.585480e-01 5.566825e-01 4.104935e-01 7.120889e-01 -1.128374e+00 -2.667693e-01 2.714514e-01 -3.723965e-01 5.416459e-03 
-5.744595e+00 -5.640623e+00 -5.760705e-01 -2.451764e+00 3.457308e+00 -2.264513e+00 -4.058058e+00 6.356376e-01 3.988643e+00 1.238339e+01 -6.231704e-01 7.457498e+00 2.030479e-01 3.907469e-01 3.199383e-01 -4.033421e-01 -8.552070e-01 -5.165204e-01 1.641319e-01 5.837335e-02 1.005806e+00 -1.661806e-01 -1.459563e+00 2.680636e-01 -1.441901e+00 -4.614687e-03 
-6.390028e+00 -5.417915e+00 -5.964031e-01 -1.521863e+00 1.027674e+00 -3.000870e+00 -3.903428e+00 2.984959e+00 2.797369e+00 1.013508e+01 1.951966e+00 5.947260e+00 1.897743e-01 6.627408e-01 3.944456e-01 -9.330724e-01 -3.161062e-01 -3.540727e-01 6.712462e-01 -3.384817e-01 -4.724719e-01 3.824449e-01 -2.073819e+00 -8.368117e-01 -3.346830e-01 -1.254134e-02 
-3.666161e+00 -4.491256e+00 -3.709934e-01 -3.359764e+00 4.895272e-01 -3.378401e+00 -7.004395e+00 7.368061e-01 5.274184e+00 6.202421e+00 -1.162153e+00 3.832903e+00 1.793156e-01 5.836892e-01 5.578390e-01 -2.368051e-01 -7.534015e-01 -1.214907e+00 1.080050e+00 2.915287e-03 -2.068321e+00 -2.955216e-01 -1.681927e+00 -1.077941e+00 -1.191461e-01 -1.223729e-02 
-3.061521e+00 -3.613833e+00 -2.478058e+00 -2.414663e+00 1.928789e+00 -8.964764e-01 -5.020633e+00 -2.971004e+00 5.438048e+00 5.936005e+00 -1.719895e+00 7.417242e+00 1.464989e-01 -1.726398e-02 2.275416e-01 -1.836627e-01 -2.390478e-01 -6.815068e-01 1.073548e+00 2.712774e-01 -2.341685e+00 -1.175201e+00 -7.889253e-01 -1.624301e+00 -6.670808e-01 -1.202093e-02 
-4.490402e+00 -3.753469e+00 -8.192687e-01 -5.772371e+00 -3.067785e+00 2.083542e+00 -3.484879e+00 -6.727984e+00 1.190695e+00 6.073289e+00 -4.176943e+00 6.126777e+00 1.634992e-01 -8.957788e-01 4.302093e-01 -1.927183e-01 6.852344e-02 -5.272623e-01 9.497005e-01 6.147490e-01 -1.194644e+00 -1.309339e+00 -3.740739e-01 -1.751873e+00 -5.564745e-01 -1.666464e-02 
-6.064227e+00 -4.649100e+00 -1.290579e+00 -1.510799e+00 -6.012039e-01 -3.641028e-01 -4.306798e+00 -4.991071e+00 -1.036893e+00 6.255019e+00 -4.662143e+00 1.464920e+00 1.375778e-01 -6.622708e-01 4.134488e-01 -7.693583e-01 6.840021e-01 1.527886e-02 -8.311808e-04 9.801553e-01 1.258797e+00 -1.647426e-01 -1.028525e+00 -1.370583e+00 -7.598374e-01 -1.469456e-02 
-6.643702e+00 -1.822575e+00 -1.928324e+00 -3.469079e+00 -8.817883e-01 1.103915e+00 -4.287568e+00 -4.226380e+00 1.964960e+00 4.172544e+00 -8.450392e+00 4.026692e+00 1.004529e-01 1.977613e-01 8.433809e-01 -1.057507e+00 9.239953e-01 7.405947e-01 -7.893718e-01 4.970770e-01 1.659063e+00 6.277812e-01 -7.163938e-01 -2.382427e-01 7.659231e-01 -1.952280e-02 
-5.296226e+00 -2.512036e+00 -5.770322e+00 -1.462992e-01 9.121847e-01 -4.108190e-01 2.814875e-01 2.072180e+00 4.227203e+00 1.743752e+00 -6.436088e+00 4.668097e+00 1.045492e-01 8.823530e-01 1.321469e+00 -1.414938e+00 -2.179377e-01 -1.533730e-01 -1.545612e-01 7.735186e-01 2.169559e+00 5.101000e-01 -1.299060e+00 -7.181966e-01 7.373763e-01 -1.067956e-02 
-3.885596e+00 -6.050971e-01 -3.866930e+00 -1.834645e+00 -1.215057e-01 -1.839959e+00 -3.293637e+00 -1.964292e+00 1.697553e+00 4.746954e+00 -4.481184e+00 8.354804e+00 8.239955e-02 4.046552e-01 1.495251e+00 -1.333242e+00 -2.717411e-01 5.573115e-02 -5.355824e-01 1.354073e+00 3.503565e+00 -2.795381e-01 -1.692376e+00 -9.201867e-01 -1.014055e+00 4.131556e-03 
-3.031515e+00 1.349504e+00 -7.395967e+00 -3.417704e+00 -1.748210e+00 3.350285e-01 -9.361711e-01 4.725680e+00 1.647310e+00 -5.274878e-01 -1.023773e+01 2.987746e+00 9.320670e-02 -1.688328e+00 3.093462e+00 5.262513e-02 -1.230130e-02 -4.194603e-02 5.084600e-01 -4.602542e-01 3.915721e+00 1.824441e-01 -2.372520e-01 6.704788e-01 -2.019620e+00 3.905872e-02 
-5.752781e+00 3.722909e+00 -7.781713e+00 -3.192082e+00 7.270651e-01 -1.946921e+00 3.091624e+00 1.196469e+01 1.857216e+00 -3.153717e+00 -1.115050e+01 -2.034097e-01 1.267819e-01 -1.682053e+00 3.057768e+00 2.265432e+00 1.881399e+00 1.910377e+00 1.125656e+00 1.122890e+00 2.823912e+00 9.173256e-01 2.192921e+00 3.466518e+00 -9.428365e-01 9.304404e-04 
-1.280427e+01 1.079127e+01 -3.549804e+00 4.709127e-01 2.781692e-01 2.184962e+00 -5.212414e+00 1.468629e+01 5.059592e+00 4.507827e+00 2.509667e-01 -1.150898e+00 2.776516e-01 -1.053855e+00 2.276219e+00 3.905936e+00 1.949639e+00 2.500612e+00 1.328225e+00 1.647492e+00 -1.591291e+00 -1.760662e-01 3.497957e+00 5.219678e+00 1.313083e+00 -3.689063e-02 
-7.409480e+00 9.962861e+00 5.537147e+00 5.628040e+00 8.417191e+00 2.863355e+00 4.458937e+00 7.174962e+00 4.578040e+00 1.319390e+01 7.607059e+00 5.709943e+00 -5.170703e-03 3.235846e-02 6.493971e-01 2.853545e+00 9.202461e-01 1.318238e+00 4.096863e-02 9.032443e-01 -3.681691e+00 -3.853179e-01 1.681105e+00 2.698158e+00 1.274610e+00 -6.240622e-02 
-7.472441e+00 9.610623e+00 5.474279e+00 1.920430e+00 6.909784e+00 4.571014e+00 6.617635e+00 -8.359100e-01 -5.934329e-01 8.788489e+00 6.481881e+00 6.596484e+00 -2.527010e-02 7.198362e-01 -1.281759e+00 -1.293899e-01 3.877668e-01 4.157618e-01 -1.508754e+00 6.574329e-01 -3.609234e+00 -1.217864e+00 -6.347693e-01 -8.414913e-01 2.850562e-01 -5.458017e-02 
-8.256906e+00 7.560217e+00 1.973970e+00 6.843903e-01 4.002449e+00 -2.935104e+00 1.692821e+00 1.317342e+00 2.757139e+00 3.111475e+00 -7.751710e-01 2.295948e+00 -3.378832e-02 -4.239648e-01 -9.227898e-01 -1.999931e+00 -5.577364e-01 -4.245993e-01 -9.897022e-01 -1.612210e+00 -2.195155e+00 -9.252213e-01 -1.664323e+00 -2.721552e+00 -1.243139e+00 7.151783e-03 
-8.781381e+00 5.583797e+00 -2.415166e+00 4.881572e+00 4.564349e+00 -2.459580e+00 -5.421920e-01 -4.310662e-01 -1.192749e-01 6.375194e+00 2.346252e-01 1.981380e+00 1.905954e-02 -6.696011e-01 -7.284890e-01 -1.271790e+00 -2.083146e-01 -1.471076e-01 -6.748215e-01 -1.381048e+00 -9.300798e-01 1.342611e-01 9.483898e-01 -1.182145e+00 -3.025073e-01 7.935876e-03 
-8.874834e+00 7.362326e+00 -5.177872e-01 1.358787e+00 7.466912e+00 1.430141e+00 -2.220058e-02 -4.003236e+00 -2.851455e-01 6.078935e+00 -2.877073e+00 1.801800e+00 8.423388e-03 -4.850799e-01 -2.120888e-01 6.500885e-01 9.721818e-02 -4.040431e-01 3.568311e-01 3.643333e-01 -1.527949e+00 -1.098398e+00 5.094495e-01 -4.279029e-01 5.307157e-02 -9.251833e-04 
-1.051148e+01 6.067124e+00 3.612096e-01 5.416588e-01 4.442015e+00 -9.857150e-01 5.699053e-01 -2.826021e+00 1.599015e+00 1.204671e+01 1.622108e+00 5.331021e+00 -6.696582e-03 1.829600e-01 8.576326e-01 2.108881e+00 -8.559277e-02 -5.096678e-01 -5.706481e-01 5.697753e-01 -1.125559e+00 -2.132289e+00 -1.281682e+00 -8.596718e-01 -1.230674e+00 -1.980430e-03 
-9.817254e+00 6.258110e+00 3.836225e+00 3.340438e+00 2.043400e+00 -1.887881e+00 2.958439e+00 -5.124928e+00 -3.593997e+00 2.822966e+00 -3.608427e+00 8.864856e-01 -2.553618e-02 1.687338e+00 1.278050e+00 2.244719e+00 -1.026273e-02 -1.299368e+00 -1.471389e+00 1.020423e+00 1.458846e-01 -3.313400e+00 -2.987213e+00 4.364757e-01 -1.567362e+00 4.007110e-02 
-7.395370e+00 1.042407e+01 5.952231e+00 3.462782e+00 4.727766e+00 -3.653810e+00 8.163648e-01 -5.498017e+00 -9.126296e+00 1.594767e+00 -3.698057e+00 -3.714332e+00 2.613717e-02 2.572348e+00 3.558055e+00 3.241662e+00 -2.483454e+00 -5.778261e-01 -1.574493e+00 -8.731335e-01 2.736372e-01 -2.880738e+00 -4.089738e+00 6.643714e-01 -1.394463e+00 1.371299e-01 
-1.996201e+00 1.157410e+01 7.910298e+00 -1.530884e-01 8.271947e-01 -4.592755e+00 4.956685e+00 -1.937815e+00 -1.148949e+01 -3.631158e+00 1.965388e+00 -1.512334e+00 1.923620e-01 4.008903e+00 2.124160e+00 2.391686e+00 -1.741682e+00 -1.660785e+00 -2.553833e+00 -9.858403e-01 1.240791e+00 -1.505132e+00 -1.527983e+00 1.568891e+00 -5.322116e-01 1.931957e-01 
-1.560268e+00 2.119940e+01 1.453248e+01 -1.012885e+01 2.160987e+00 -7.505744e+00 -4.794885e+00 -3.051391e+00 -8.856931e+00 -5.174919e+00 2.157058e+00 -4.418859e-01 5.700037e-01 4.627152e+00 -3.888438e-01 8.579704e-01 2.860468e-01 -2.663935e+00 -2.771389e+00 2.894396e-01 1.628917e+00 -8.609029e-01 4.465480e-01 6.197682e-01 -9.642561e-01 1.816640e-01 
7.309710e+00 1.149124e+01 1.150453e+01 1.427841e+00 -4.977135e+00 -1.273108e+01 8.348627e-01 -1.442837e-01 -1.125434e+01 -1.432105e+00 1.308472e+00 -3.410795e+00 6.685091e-01 3.790031e+00 -2.053098e+00 -6.674474e-01 2.315228e+00 -2.409513e+00 -1.666483e+00 2.650399e-01 1.032254e+00 -2.052970e-01 1.618846e+00 -5.446742e-01 -2.463170e+00 1.201960e-01 
1.108743e+01 8.521278e+00 8.444967e+00 4.102552e+00 -5.689743e+00 -1.344160e+01 4.324474e+00 1.749805e+00 -1.354839e+01 2.727980e+00 -2.707582e-01 -7.586382e+00 6.963838e-01 2.504153e+00 -3.066691e+00 -2.023114e+00 3.295763e+00 -1.823187e+00 -5.309409e-01 6.847172e-01 7.526473e-01 8.043274e-01 8.185161e-01 -1.134531e+00 -2.579873e+00 4.474527e-02 
1.063010e+01 7.647676e+00 7.616817e+00 4.307354e+00 -7.295008e+00 -9.957244e+00 1.722204e+00 8.228580e-01 -1.017025e+01 5.116243e-01 4.559243e-01 -1.025594e+01 7.301520e-01 5.874586e-03 -1.385357e+00 -6.038600e-01 -2.004083e-01 1.879194e-01 6.087245e-01 -1.471357e+00 -3.913297e-01 2.671877e+00 -1.088219e+00 -1.297763e+00 -8.876044e-01 2.829574e-02 
9.300303e+00 7.787727e+00 6.360765e+00 4.910213e+00 -5.796012e+00 -1.154737e+01 -1.814970e+00 2.282743e-01 -5.377339e+00 -2.054203e+00 -3.089323e+00 -9.918682e+00 7.629086e-01 -7.017511e-01 -2.193718e+00 -7.722495e-01 -1.811087e+00 -1.122882e-01 2.106335e+00 -5.223197e+00 5.473247e-01 3.943081e+00 -1.736572e+00 -1.117862e+00 4.722837e-01 3.863720e-02 
8.232649e+00 4.931237e+00 9.527332e+00 2.196947e-02 -3.984403e+00 -1.063457e+01 -3.452199e+00 -1.340167e+00 -1.980480e+00 -4.482109e+00 -3.771058e+00 -6.682667e+00 7.767255e-01 -8.465599e-01 -3.161381e+00 -2.222346e+00 -2.064783e+00 -4.804344e-02 3.672435e+00 -4.641345e+00 1.652095e+00 3.733965e+00 -1.361852e+00 -4.011717e-01 -2.284296e-01 4.804570e-02 
8.777407e+00 -1.089094e+00 3.628462e+00 -2.810192e+00 -7.906486e+00 -2.571257e+00 -1.920431e+01 5.567941e+00 2.072136e+00 -3.458014e+00 -3.746579e+00 -7.011599e+00 8.662831e-01 -9.079262e-01 -3.440947e+00 -3.458841e+00 -1.528946e+00 4.652739e-02 4.887071e+00 -2.751188e+00 1.360858e+00 3.508985e+00 -1.454336e+00 6.240213e-01 -9.780580e-01 5.436027e-02 
6.658751e+00 -3.720816e+00 -2.128758e+00 -2.156359e+00 -6.479989e+00 3.916874e+00 -1.278985e+01 6.413502e+00 4.774837e+00 -5.595729e+00 -1.221306e+00 -1.285163e+01 9.186932e-01 -7.038749e-01 -2.676706e+00 -4.023084e+00 1.562808e-01 8.006759e-01 3.513255e+00 5.746277e-01 -3.691618e-01 2.663121e+00 -4.743102e-01 4.863505e-02 -1.653867e-01 5.161405e-02 
5.547621e+00 -5.090981e+00 -5.105395e+00 -1.645354e+00 -4.315583e+00 5.612263e+00 -1.090208e+01 3.155728e+00 8.789926e+00 -8.769072e+00 -1.244092e+00 -1.172449e+01 9.637260e-01 -6.583829e-01 -1.577631e+00 -2.216374e+00 6.643488e-01 1.690021e+00 1.156246e+00 3.549398e+00 -2.515176e+00 1.099602e+00 4.175336e-01 -9.918518e-01 1.247969e+00 3.216868e-02 
6.328167e+00 -6.451347e+00 -6.221157e+00 2.209546e-01 -1.776475e+00 2.839944e+00 -4.730174e+00 -1.979869e+00 7.976232e+00 -4.198132e+00 -4.779126e+00 -5.153153e+00 9.860743e-01 3.352948e-02 -1.096347e+00 -9.811615e-01 3.402279e-01 1.128488e+00 1.696116e-01 1.841474e+00 -2.970917e+00 2.479783e-01 1.049071e+00 -1.745754e+00 2.683576e+00 1.750007e-02 
5.650784e+00 -7.611985e+00 -5.407209e+00 -6.771045e-01 -1.808139e+00 3.748439e+00 -5.487160e+00 -2.811255e+00 5.969447e+00 -2.069145e+00 -6.926929e+00 -4.620992e+00 9.934360e-01 5.226686e-02 -5.965719e-01 -4.112754e-01 -3.207594e-01 7.119988e-01 5.267116e-01 5.735465e-01 -2.405933e+00 -2.582621e-01 9.861287e-01 -7.106453e-01 1.236891e+00 6.374043e-03 
6.774817e+00 -7.942049e+00 -6.883658e+00 -9.393443e-01 -2.091268e+00 5.696845e+00 -6.289943e+00 -5.457594e+00 7.424967e+00 -3.700337e+00 -7.108660e+00 -2.985497e+00 9.913386e-01 -5.745232e-02 -3.095437e-01 -1.254241e-01 -5.460457e-01 3.593750e-02 1.239165e+00 -4.246221e-01 -1.706758e+00 1.921987e-01 -1.051665e-01 5.681070e-01 -3.931183e-01 1.700813e-03 
5.585630e+00 -7.328489e+00 -6.830522e+00 -2.669001e+00 -5.981927e-01 6.817370e+00 -7.254467e+00 -7.135074e+00 7.774247e+00 -4.087325e+00 -3.632552e+00 -6.623864e+00 9.929641e-01 -2.383752e-02 4.592361e-02 -1.298228e-01 -6.839620e-01 3.792166e-01 9.059349e-01 -3.403381e-01 -1.277097e+00 4.045757e-01 -3.616887e-01 1.195889e+00 -7.899353e-01 -9.613037e-05 
6.073483e+00 -8.140814e+00 -6.136621e+00 -1.513325e+00 -2.201761e+00 7.501303e+00 -5.969631e+00 -8.351752e+00 8.034824e+00 -3.714874e+00 -3.585779e+00 -6.117309e+00 9.948143e-01 -7.160676e-02 -2.107744e-02 3.275872e-01 -8.541371e-01 5.911762e-01 5.247978e-01 -1.351128e-01 -8.915102e-01 3.551324e-01 -9.453411e-02 9.745104e-01 -4.623756e-01 6.601393e-04 
5.882264e+00 -7.282985e+00 -6.429842e+00 -3.809924e+00 1.431904e-01 7.375884e+00 -7.349007e+00 -7.749660e+00 7.687397e+00 -3.870320e+00 -2.708921e+00 -7.004763e+00 9.912175e-01 1.690681e-01 -9.301205e-02 4.582496e-01 -9.740825e-01 8.392127e-01 6.128041e-01 -3.454004e-01 -5.136212e-01 6.881664e-01 2.854222e-01 7.838454e-02 7.460458e-01 1.477015e-03 
6.268466e+00 -8.070189e+00 -5.446062e+00 -4.639568e+00 4.939213e-01 8.041577e+00 -6.918237e+00 -9.607852e+00 9.244054e+00 -4.281510e+00 -2.697923e+00 -5.106926e+00 9.955126e-01 1.355067e-01 1.900368e-01 1.295428e-01 -1.171506e+00 1.124319e+00 4.529343e-01 -2.274399e-01 -8.196457e-01 1.082619e+00 4.901206e-01 -5.153345e-01 1.357569e+00 5.046606e-04 
6.333479e+00 -7.828862e+00 -4.884554e+00 -5.976292e+00 2.250030e+00 9.611255e+00 -8.507166e+00 -9.075130e+00 1.061046e+01 -2.376896e+00 -3.684557e+00 -3.398827e+00 1.000000e+00 2.389304e-01 2.922273e-01 -2.953631e-01 -3.766854e-01 2.082526e-01 6.763210e-01 5.964193e-02 -1.000957e+00 1.366578e+00 9.516430e-02 -3.621355e-01 1.146725e+00 -1.867038e-03 
6.525408e+00 -6.917691e+00 -6.261552e+00 -6.287670e+00 2.366416e+00 8.648290e+00 -6.527750e+00 -1.178725e+01 1.198639e+01 -2.010983e+00 -5.674634e+00 -1.132432e+00 9.929463e-01 1.972788e-01 5.070086e-01 -7.787934e-01 2.622967e-01 -2.569019e-01 6.169783e-01 3.205147e-02 -8.120887e-01 1.121000e+00 1.788931e-01 -2.480488e-01 5.157349e-01 -2.657980e-03 
6.948444e+00 -6.398097e+00 -7.498913e+00 -4.869300e+00 2.482061e-01 1.045413e+01 -7.246041e+00 -1.166475e+01 1.314912e+01 -4.529762e+00 -3.031243e+00 -3.258385e+00 9.831654e-01 1.824160e-01 4.961507e-01 -8.843335e-01 7.818252e-01 -8.199690e-01 6.567898e-01 -1.248486e-01 -4.566798e-01 9.499811e-01 -2.870919e-01 3.676648e-02 3.524674e-01 -2.753329e-03 
6.947378e+00 -6.250528e+00 -8.032849e+00 -3.881581e+00 2.103233e-01 1.070503e+01 -7.388543e+00 -1.237349e+01 1.357973e+01 -2.310612e+00 -4.264824e+00 -2.598473e+00 9.906400e-01 1.612124e-01 3.941911e-01 -6.051895e-01 6.014695e-01 -3.849067e-01 6.858228e-01 -3.183297e-01 1.941450e-01 5.546142e-01 1.163547e-01 8.459268e-02 4.593315e-01 -1.188338e-03 
7.034575e+00 -5.681690e+00 -8.420572e+00 -3.270211e+00 -7.717695e-01 1.186683e+01 -8.701014e+00 -1.106541e+01 1.456370e+01 -3.662541e+00 -4.205630e+00 -9.034696e-01 9.873865e-01 -5.340295e-02 4.033996e-01 -4.388017e-01 3.690293e-02 2.449261e-01 -2.483687e-01 3.196840e-01 -9.645262e-02 1.580891e-01 7.094561e-01 -3.613343e-01 5.671794e-01 -9.369254e-04 
7.288405e+00 -5.304939e+00 -8.826670e+00 -4.079867e+00 9.518700e-01 1.137105e+01 -7.391913e+00 -1.111619e+01 1.405217e+01 -1.862821e+00 -4.664477e+00 -1.323223e-02 9.848941e-01 8.361588e-02 3.626673e-01 -3.913679e-01 3.827610e-02 7.589255e-02 -5.865011e-01 8.602445e-01 -1.777323e-01 5.890655e-03 7.116132e-01 -1.582246e-01 1.335045e-01 -4.444963e-03 
6.510916e+00 -4.853893e+00 -9.296011e+00 -4.585642e+00 1.102063e+00 8.879277e+00 -5.645936e+00 -1.277566e+01 1.370334e+01 -1.206377e+00 -4.638088e+00 -1.715108e+00 9.813538e-01 2.214892e-01 2.618885e-03 1.311893e-01 3.726954e-02 3.810439e-02 -7.034658e-01 7.721483e-01 -1.655565e-01 3.877920e-01 3.890892e-01 5.520898e-01 -7.640392e-01 -5.137968e-03 
7.627286e+00 -4.851090e+00 -9.551970e+00 -3.032484e+00 -3.471303e-01 9.266302e+00 -4.614859e+00 -1.240702e+01 1.403936e+01 1.937199e-02 -4.839718e+00 -1.525131e+00 9.714316e-01 1.538884e-01 -6.840162e-02 1.963659e-01 5.261735e-01 -4.155477e-01 -8.371140e-01 7.471176e-01 -5.597912e-01 9.002553e-01 -2.538572e-01 3.540265e-01 -4.264213e-01 -5.373544e-03 
7.972580e+00 -5.895520e+00 -7.401976e+00 -3.607554e+00 6.825256e-02 9.401880e+00 -6.228798e+00 -1.124778e+01 1.650907e+01 -2.658192e+00 -1.357560e+00 -3.967716e+00 9.684280e-01 1.457626e-01 -3.581524e-02 2.044316e-01 5.676363e-01 -3.043695e-01 -8.957402e-01 5.226881e-01 -4.650259e-02 4.204925e-01 -2.262243e-01 -5.232858e-03 -8.415656e-02 -6.683552e-03 
7.327016e+00 -5.126134e+00 -8.791858e+00 -1.938044e+00 -6.089630e-01 6.924181e+00 -3.364893e+00 -1.467909e+01 1.715058e+01 -2.406199e+00 -4.534609e+00 -1.019034e+00 9.644893e-01 -2.696015e-01 8.892326e-02 4.252662e-01 3.473537e-01 -3.111769e-01 -1.220330e+00 5.357978e-01 3.712591e-01 7.836724e-03 -4.309091e-01 -2.256920e-01 1.221903e-01 -6.837892e-03 
7.389864e+00 -4.895448e+00 -8.653909e+00 -2.294681e+00 -2.888680e-01 5.571636e+00 -3.657478e+00 -1.187214e+01 1.425019e+01 -1.124713e+00 -4.816807e+00 -2.388939e+00 9.514071e-01 -3.983834e-01 3.794451e-01 1.651369e-01 8.651496e-01 -1.066409e+00 -8.044754e-01 4.839118e-01 6.482977e-01 -3.876400e-03 -2.545114e-01 -7.403792e-01 4.046384e-01 -6.646937e-03 
6.570636e+00 -4.906510e+00 -6.799672e+00 -1.952152e+00 -1.724454e+00 5.079773e+00 -3.221530e+00 -1.023854e+01 1.520798e+01 -2.901913e+00 -4.238555e+00 -1.703568e+00 9.457525e-01 -5.578943e-01 2.785592e-01 7.165473e-01 5.772159e-01 -1.135833e+00 -3.125881e-01 -3.969625e-01 1.852834e+00 -1.077127e-01 -6.405177e-01 1.503993e-01 -5.107362e-01 -4.405749e-03 
6.358852e+00 -4.108107e+00 -7.572384e+00 7.252475e-01 -4.706048e+00 6.301707e+00 -3.880921e+00 -1.022656e+01 1.746099e+01 -3.682892e+00 -5.207483e+00 -1.602258e+00 9.445617e-01 -4.883143e-01 1.030607e-02 9.068190e-01 7.282932e-01 -9.378884e-01 -7.928766e-01 5.161619e-02 1.928380e+00 -6.852303e-02 -5.629930e-01 -6.565495e-02 1.464123e-01 -1.196122e-03 
5.053051e+00 -4.127008e+00 -5.749884e+00 -5.619293e-01 -4.079538e+00 4.996206e+00 -5.237984e+00 -6.237709e+00 1.500662e+01 -4.329699e+00 -3.587275e+00 -3.966056e+00 9.458833e-01 -3.495162e-01 6.027193e-02 8.415157e-01 4.516850e-01 -1.044512e+00 -1.242599e+00 8.595088e-01 1.840516e+00 -1.006769e+00 -1.667806e-01 -2.755000e-01 5.999305e-01 -4.941887e-03 
5.707086e+00 -5.233668e+00 -4.644709e+00 6.516731e-01 -3.800768e+00 1.649037e+00 -2.391170e+00 -4.230657e+00 1.400826e+01 -3.225785e+00 -5.470722e+00 -5.256333e-01 9.453611e-01 -2.693856e-01 -9.843139e-02 1.203563e+00 1.204126e-01 -1.092728e+00 -1.209728e+00 2.762245e-01 3.506833e+00 -2.654299e+00 2.632076e-01 8.914914e-02 8.420199e-01 -7.302737e-03 
5.148939e+00 -4.042370e+00 -4.055932e+00 3.430601e-01 -7.399655e+00 1.193113e+00 3.311381e-01 -4.033917e+00 1.190050e+01 -3.964369e+00 -5.484436e+00 7.577724e-01 9.206433e-01 -1.012392e-01 1.000133e-01 1.104464e+00 3.485902e-01 -1.815621e+00 -7.283291e-01 1.695313e-01 3.704903e+00 -2.923869e+00 -1.543989e-02 8.839810e-01 3.637684e-01 -8.412844e-03 
4.963980e+00 -4.642583e+00 -2.401542e+00 8.748161e-01 -8.509628e+00 2.154615e+00 -5.284359e+00 6.205706e+00 5.742557e+00 -2.549519e+00 -3.813157e+00 2.459278e-01 9.206679e-01 -1.160369e-01 2.682809e-01 1.149424e+00 1.828565e-01 -2.288912e+00 -6.449457e-01 2.031093e-01 2.934576e+00 -2.319069e+00 -1.016252e+00 1.827634e+00 -6.231103e-01 -8.511251e-03 
4.918407e+00 -3.922485e+00 -1.349148e+00 1.069450e+00 -1.080321e+01 1.101772e+00 -2.943733e+00 7.068624e+00 4.520130e+00 -4.745031e+00 3.848076e-03 -2.532994e+00 9.161656e-01 -4.538963e-02 3.758731e-01 1.668940e+00 -6.474136e-01 -1.653108e+00 -1.047189e+00 1.333538e+00 1.472776e+00 -1.657895e+00 -7.274040e-01 1.976585e+00 -8.389872e-01 -8.968204e-03 
5.242167e+00 -3.952206e+00 -2.509782e-01 1.202760e+00 -1.354355e+01 -1.530021e+00 2.618117e-01 4.890954e+00 6.103091e+00 -7.916716e+00 9.233072e-01 -1.995801e+00 9.050437e-01 5.345914e-02 6.781648e-01 1.880692e+00 -1.033194e+00 -1.703533e+00 -1.141230e+00 2.961267e+00 -1.062046e+00 -5.530493e-01 -5.228699e-01 1.567929e+00 -4.542874e-01 -1.496764e-02 
4.782897e+00 -2.508192e+00 3.213488e+00 -3.057980e+00 -1.314823e+01 -2.200514e+00 4.225741e+00 3.987338e+00 3.430753e+00 -4.917790e+00 2.030257e+00 -2.316298e+00 8.836144e-01 -1.175282e-01 8.224812e-01 1.901596e+00 -7.199208e-01 -1.561581e+00 -1.170870e+00 2.878460e+00 -1.497414e+00 -9.318253e-01 2.017802e-01 6.484515e-01 -2.921425e-01 -1.627176e-02 
5.299031e+00 -1.958905e+00 4.720601e+00 -2.227439e+00 -1.585478e+01 -1.900392e+00 5.937241e+00 2.436120e+00 3.521999e+00 -5.077489e+00 3.013282e+00 -2.133857e+00 8.621054e-01 -5.606834e-01 5.572761e-01 2.334939e+00 -7.182029e-01 -1.353591e+00 -2.396878e-01 1.367775e+00 -9.397064e-01 -1.346774e+00 -1.975838e-01 6.194685e-01 -8.410637e-01 -1.100359e-02 
4.302334e+00 -8.067291e-01 5.673043e+00 -8.150538e-01 -1.745550e+01 -4.567394e+00 8.610855e+00 8.089709e-01 1.151550e+00 -5.155744e+00 2.201118e+00 -3.924679e+00 8.562760e-01 -7.902773e-01 2.757745e-01 2.390823e+00 -5.974638e-01 -1.509184e+00 9.998169e-01 -2.778330e-01 -4.957801e-01 -1.783653e+00 -1.473728e+00 5.098394e-01 -1.239489e+00 -1.201218e-03 
2.679031e+00 -2.016557e+00 1.019394e+01 -3.509717e+00 -1.815787e+01 -1.545020e+00 4.908129e+00 1.781605e+00 5.088252e-01 -8.785658e+00 3.935220e+00 -5.396930e+00 8.636950e-01 -4.905929e-01 1.257853e-01 2.489695e+00 -9.424276e-01 -1.304623e+00 2.031366e+00 -1.343804e+00 5.892168e-01 -2.725714e+00 -1.383103e+00 6.586271e-01 -1.393530e+00 -6.860971e-04 
2.141511e+00 -1.100494e+00 1.243094e+01 -5.404160e+00 -1.954261e+01 2.620884e+00 3.351132e+00 1.835696e+00 -3.980922e+00 -1.043235e+01 4.118485e+00 -6.882209e+00 8.768135e-01 4.805621e-01 -4.263039e-02 2.198756e+00 -9.643952e-01 -5.289696e-01 2.376219e+00 -1.577792e+00 1.097965e+00 -2.970487e+00 -9.504766e-01 2.232563e-01 2.590151e-01 -1.689076e-02 
3.926478e+00 -1.183096e+00 1.379013e+01 -4.645024e+00 -2.133434e+01 4.662298e+00 1.848081e+00 4.868842e+00 -7.540337e+00 -9.354700e+00 5.347734e+00 -7.622741e+00 8.484061e-01 1.876411e+00 3.467116e-01 2.168120e-01 -5.986710e-02 2.152052e+00 -6.325741e-01 -6.810089e-01 3.778251e-01 -3.454028e+00 -3.228445e-01 3.709127e-01 8.843765e-01 -3.457866e-02 
6.081421e+00 -1.436611e+00 1.486872e+01 -5.069376e+00 -1.851211e+01 4.210040e+00 2.251918e+00 4.755178e+00 -9.676304e+00 -9.623606e+00 2.611142e+00 -1.516698e+00 7.794666e-01 2.071671e+00 7.292328e-01 -1.646848e+00 3.740512e-01 4.789685e+00 -3.182007e+00 3.182673e-02 1.122294e-01 -2.906859e+00 9.033585e-03 1.422016e+00 1.061482e-01 -4.465296e-02 
1.009113e+01 -1.149402e-01 1.005910e+01 -3.976444e+00 -7.912858e+00 -5.502469e+00 2.052691e+00 2.210989e+00 -1.391362e+01 -1.080425e+01 6.543455e+00 -3.657803e+00 7.394751e-01 1.400988e+00 1.407178e+00 -2.703297e+00 7.841533e-01 5.421734e+00 -3.614452e+00 4.805000e-01 1.615413e-01 -2.400192e+00 2.062407e-01 1.768184e+00 -9.821069e-01 -4.203511e-02 
9.417542e+00 2.011592e+00 6.062211e+00 -3.868193e+00 -2.304923e+00 -8.206768e+00 3.407961e+00 3.725769e+00 -1.532857e+01 -9.662403e+00 1.063070e+01 -8.333937e+00 7.080142e-01 6.479591e-01 1.613066e+00 -2.280869e+00 9.391346e-01 3.708525e+00 -2.394524e+00 3.228500e-01 6.449354e-01 -1.336728e+00 7.515823e-01 1.485062e+00 -1.724464e+00 -3.258627e-02 
9.263360e+00 4.128692e+00 4.676905e+00 -1.324848e+00 -2.329265e+00 -7.201557e+00 3.672560e+00 6.191253e+00 -1.671516e+01 -8.304098e+00 1.017887e+01 -9.124656e+00 6.739568e-01 -1.193569e-01 1.726573e+00 -7.412458e-01 9.864928e-01 8.595718e-01 5.291960e-01 7.756883e-01 5.820624e-01 2.658726e-01 8.169889e-01 -1.098250e-01 -1.560812e-01 -3.329528e-02 
9.735103e+00 4.506906e+00 6.155481e+00 -1.699501e+00 -2.761282e+00 -6.913035e+00 3.056234e+00 5.989723e+00 -1.495917e+01 -7.115770e+00 8.218740e+00 -7.405590e+00 6.492945e-01 -1.795125e-01 9.207754e-01 6.654733e-01 6.195588e-01 1.330026e-01 7.628530e-01 -5.812562e-01 -5.672386e-01 7.618918e-01 1.269436e+00 -3.409522e-01 1.046561e+00 -3.196074e-02 
9.335567e+00 7.270268e+00 6.306241e+00 -1.283274e-01 -3.386819e+00 -3.503355e+00 6.106997e+00 3.989324e+00 -1.276896e+01 -7.992622e+00 7.200312e+00 -4.902382e+00 6.023586e-01 -3.378115e-01 -4.058386e-01 5.654083e-01 8.256418e-01 1.025749e+00 4.185525e-01 -1.947591e+00 -1.713791e+00 1.025051e+00 1.464136e+00 1.504795e+00 7.259758e-01 -2.842725e-02 
8.483875e+00 5.044681e+00 8.574910e+00 -1.368660e+00 -1.111133e+00 -6.241604e+00 -7.155385e-01 1.990540e+00 -1.349221e+01 -3.470963e+00 1.041523e+01 -5.212271e+00 5.840096e-01 -5.417172e-01 -2.494653e-01 1.999387e-01 7.216746e-01 1.790554e+00 7.076216e-01 -2.124067e+00 -1.461304e+00 2.076190e-01 6.216739e-01 1.130204e+00 -1.866734e-01 -2.678032e-02 
8.199916e+00 1.830611e+00 6.294232e+00 2.637940e+00 1.974405e+00 -5.444510e+00 -4.179507e+00 -3.781126e-01 -1.232339e+01 -2.805824e+00 1.660460e+01 -6.591436e+00 5.644629e-01 -8.874884e-01 1.867411e-01 4.385541e-01 6.982304e-01 1.266915e+00 1.166261e+00 -6.253969e-01 -2.034719e-01 -3.120592e-01 -7.234154e-01 -2.152268e-01 2.164258e-01 -3.034726e-02 
7.594342e+00 5.979408e+00 7.161179e+00 5.257381e-01 3.510876e+00 -2.404350e+00 -2.420849e+00 8.669223e-01 -1.414387e+01 -6.600800e+00 9.167614e+00 -7.494430e+00 5.343407e-01 -1.177495e+00 1.041554e+00 7.238358e-01 1.063615e+00 9.026052e-01 1.484068e+00 1.447864e+00 1.167869e-01 -1.609066e+00 -2.489471e+00 -2.337224e+00 9.148400e-01 -3.671917e-02 
5.342892e+00 7.736609e+00 9.205877e+00 2.415626e+00 6.367502e-01 4.093232e-01 3.832667e+00 3.533773e+00 -1.400343e+01 -1.004478e+01 6.747983e+00 -2.679173e+00 4.754567e-01 -1.871302e+00 1.001627e+00 1.106642e+00 8.454231e-01 1.474833e+00 1.518649e+00 1.712254e+00 -4.702210e-01 -2.773482e+00 -2.955744e+00 -3.628860e+00 1.048803e+00 -4.993849e-02 
4.024912e+00 7.299449e+00 1.073827e+01 4.060571e+00 4.070721e+00 -1.748182e+00 2.517693e+00 6.185318e-01 -2.069752e+01 -1.229884e+01 3.657413e+00 -2.594202e+00 4.449169e-01 -2.622683e+00 -5.761590e-01 -2.678566e-02 6.158020e-01 1.667025e+00 1.740551e+00 1.496681e+00 -3.977625e-01 -2.587551e+00 -2.654114e+00 -3.066400e+00 3.637095e-01 -7.354733e-02 
6.281219e-01 6.178727e+00 1.003890e+01 5.097640e+00 9.068646e+00 1.820650e+00 1.912491e+00 -2.605022e+00 -2.291397e+01 -1.473553e+01 1.215407e+00 -3.797537e+00 3.594823e-01 -2.494219e+00 -1.806645e+00 -1.273384e+00 -5.439894e-01 4.321805e-01 2.839861e-01 1.543526e+00 1.163150e+00 -5.592211e-01 1.329662e-01 -5.797512e-01 1.447499e+00 -7.815038e-02 
-3.161688e+00 3.877554e+00 6.610739e+00 2.263741e+00 7.630053e+00 5.592740e+00 6.022642e+00 1.947508e+00 -2.262635e+01 -1.752600e+01 -3.398097e+00 -5.116700e+00 2.245913e-01 -2.692666e+00 -2.865558e+00 -3.210461e+00 -2.016286e+00 -8.690137e-01 -1.339341e-01 2.164189e+00 1.994411e+00 1.055676e+00 2.161852e+00 1.254637e+00 2.226386e+00 -7.321895e-02 
-3.534904e+00 4.143312e-01 4.902721e+00 5.940937e-01 1.017986e+00 -1.841207e+00 9.797821e+00 8.685035e+00 -1.583512e+01 -6.766371e+00 7.376982e+00 5.819573e+00 1.948676e-01 -1.740868e+00 -2.046425e+00 -2.897475e+00 -1.338230e+00 -1.594744e+00 -1.121207e+00 1.413485e+00 2.106253e+00 2.369478e+00 3.384675e+00 1.445841e+00 2.503012e+00 -5.129337e-02 
-7.356905e+00 -4.146143e+00 -2.745950e+00 -3.769089e+00 3.750982e+00 -5.869234e-01 9.395971e+00 4.945560e+00 -1.895857e+01 -5.474156e+00 6.849811e+00 3.729171e+00 1.611295e-01 -1.063147e+00 -1.209791e+00 -1.938734e+00 6.081881e-02 -4.759913e-01 -2.129676e+00 1.290369e-01 1.469934e+00 3.626297e+00 3.996692e+00 1.288369e+00 1.284065e+00 -1.975987e-02 
-5.978609e+00 -4.154825e-02 2.298687e-01 1.422905e+00 3.034462e+00 -6.955512e-01 7.293249e+00 6.427217e+00 -1.290047e+01 -3.838070e+00 3.320658e+00 4.294590e+00 1.347464e-01 -8.288282e-01 -3.425552e-01 -2.733353e-01 2.055860e+00 3.671267e-01 -1.151308e+00 -1.473501e+00 4.284135e-01 3.763685e+00 2.271729e+00 -3.909009e-01 -1.169965e+00 -5.837130e-03 
-7.255569e+00 -1.943463e+00 -7.465069e-01 2.153430e+00 4.241858e+00 -5.628470e+00 7.920112e+00 1.042609e+01 -5.962190e+00 9.933157e-01 5.071909e+00 2.066117e+00 1.558525e-01 -3.633491e-01 -1.338646e-01 8.391964e-01 2.465324e+00 8.604738e-01 -6.315151e-01 -9.163909e-01 7.448563e-01 3.667140e+00 2.306541e+00 1.052568e+00 -4.422333e-02 -7.048965e-04 
-7.729712e+00 -2.399785e+00 2.536324e+00 7.912134e+00 2.608182e+00 -5.076973e+00 3.168245e+00 8.086839e+00 -3.514883e+00 1.358538e+00 6.311429e+00 8.012729e-01 1.683205e-01 -2.223862e-01 -6.756839e-01 2.037147e-01 4.856085e-01 7.679306e-01 -2.651723e-01 -8.081707e-01 -6.559755e-01 9.842472e-01 1.499261e+00 1.382967e+00 3.550404e-01 -1.668614e-03 
-8.298099e+00 -3.636348e+00 2.968049e-01 5.312919e+00 8.266491e+00 -1.553788e+00 6.876519e+00 7.840030e+00 -5.315660e+00 3.460247e+00 1.061727e+01 5.254712e+00 1.408180e-01 1.412938e-01 1.234875e-01 6.591469e-02 -4.362056e-01 6.677774e-01 -1.251098e-01 -1.830813e+00 -9.121250e-01 -2.734507e-01 -1.090153e+00 -1.376737e+00 7.710008e-02 -1.135793e-02 
-6.569275e+00 -2.573526e+00 7.267864e-01 2.271203e+00 4.861798e+00 -4.058754e+00 3.774192e+00 4.440369e+00 -8.302503e+00 2.424772e+00 7.462811e+00 4.475494e+00 1.339206e-01 3.783461e-01 4.053543e-01 -2.532327e-01 -7.914190e-01 2.307831e-02 -3.698744e-01 -1.240729e+00 -5.190195e-01 -9.130722e-01 -2.154187e+00 -3.069379e+00 -8.352796e-01 -1.031868e-02 
-7.129318e+00 -1.239155e+00 4.878352e-01 2.792867e+00 6.453937e+00 -6.763129e+00 -1.536929e+00 7.688698e+00 -4.935634e+00 -4.990564e+00 -2.387466e+00 6.145067e-01 1.162628e-01 7.068908e-01 5.074334e-01 3.459163e-01 -1.040714e-01 -1.022184e+00 -1.132041e-01 -1.737901e+00 -4.768921e-01 9.470679e-01 -2.015373e+00 -3.823416e+00 -1.112205e+00 -5.386680e-03 
-6.422372e+00 -1.571610e+00 1.174645e+00 5.215065e+00 3.629850e+00 -4.321674e+00 1.171327e+00 5.567407e+00 -8.270258e+00 -5.186991e+00 -2.533103e+00 -1.055023e+00 1.290047e-01 2.315572e-01 1.988936e-03 -9.501942e-01 3.000398e-02 1.351148e-01 1.912667e+00 3.689480e-01 -4.747085e-01 3.187554e-01 -6.119898e-01 -2.176240e+00 2.040730e-01 -1.039190e-02 
-4.837096e+00 -1.600138e+00 1.802457e+00 3.320631e+00 3.771544e+00 -1.988348e+00 -5.115552e-01 4.892051e+00 -5.964432e-01 -2.810737e+00 -3.501857e+00 2.458946e+00 1.163425e-01 6.734190e-02 -7.687912e-02 -1.025755e+00 3.760908e-01 1.231279e+00 2.979765e+00 1.988074e+00 -1.766790e+00 -1.275930e-01 1.871414e+00 4.876623e-01 8.788395e-01 -1.639065e-02 
-6.557600e+00 -2.383089e+00 -4.681496e+00 2.157341e+00 6.878569e+00 3.117192e+00 5.106246e+00 3.465149e+00 -8.878321e+00 -1.725091e+00 -2.861192e+00 4.573639e+00 8.192116e-02 -3.424177e-02 1.970097e-01 -1.697998e+00 -6.950226e-01 1.391894e+00 1.431823e+00 2.101327e+00 -8.059552e-01 6.393815e-01 1.608504e+00 3.619242e-02 7.819769e-01 -2.361757e-02 
-6.724995e+00 -1.217811e+00 -1.712869e+00 6.202183e+00 1.098597e+01 4.416265e+00 6.435982e+00 -9.412426e-02 -5.269567e+00 2.635556e+00 2.148899e-01 2.194373e+00 5.785131e-02 -2.612351e-01 6.101423e-01 -1.062286e+00 -3.157250e-01 1.433344e+00 6.243568e-01 2.484138e+00 3.153676e-01 -4.652305e-02 1.611270e+00 -1.181455e-01 1.766699e-01 -2.425770e-02 
-5.649632e+00 -7.777250e-01 -5.557684e+00 2.991753e-01 6.982106e+00 -3.648637e-01 8.204193e+00 4.030718e+00 -2.736789e+00 1.323805e-01 -4.210514e+00 2.987148e+00 4.016244e-02 7.131328e-02 1.000402e+00 6.471936e-01 -3.962259e-01 6.387140e-01 -7.215714e-01 1.133271e+00 2.633616e-01 1.255468e+00 1.542943e+00 7.952829e-01 1.204498e+00 -2.103951e-02 
-6.597256e+00 6.478908e-01 -3.070878e+00 2.671088e+00 1.088649e+01 2.874463e+00 1.036016e+01 6.186104e+00 -3.899824e+00 4.316879e+00 -3.417924e+00 4.135541e+00 1.593339e-02 8.977671e-02 1.393317e+00 6.508828e-01 -3.510946e-01 -9.478453e-01 -8.341384e-01 7.363878e-01 1.211384e+00 -1.559528e-01 8.942642e-02 7.675637e-01 7.370663e-01 -1.292664e-02 
-6.264903e+00 1.686069e+00 -7.665231e-01 1.941758e+00 1.012188e+01 2.802356e-01 8.810509e+00 1.641843e+00 -3.285852e+00 5.148964e+00 2.931629e+00 9.625544e+00 -2.317429e-03 3.515259e-01 9.499530e-01 8.918324e-01 1.343682e+00 -7.006386e-01 -8.332607e-01 -7.802349e-01 -2.179045e-01 4.649830e-02 1.276005e+00 1.642514e+00 -4.331141e-01 -1.493740e-03 
-5.968475e+00 4.516880e+00 -8.540356e-01 3.625418e+00 4.676859e+00 -7.697660e-02 9.814763e+00 7.157231e+00 -5.774799e+00 5.743961e-01 4.816366e-01 2.560507e+00 1.445806e-02 3.576198e-01 2.339774e-01 -2.331351e-01 4.390424e-01 -1.221373e+00 -1.398757e+00 -1.152363e+00 -1.189684e+00 1.717843e-01 7.108323e-01 -2.750121e-01 -6.690170e-01 2.328813e-03 
-4.206392e+00 2.037545e+00 -2.206944e+00 6.540421e+00 6.583730e+00 -3.055447e+00 4.575717e+00 2.455632e+00 -1.566810e+00 8.383647e+00 2.052276e+00 1.609095e+00 3.343141e-02 2.576132e-02 -4.255120e-01 -1.086252e+00 4.119419e-01 -2.714811e-01 1.089135e-01 -3.343189e-01 -2.804413e-02 1.299195e+00 2.128913e+00 -1.078132e-01 -7.632585e-01 7.996857e-03 
-5.838412e+00 1.642040e+00 -3.516343e+00 2.566969e+00 6.548701e+00 -2.451481e+00 6.715742e+00 -1.692117e-01 -3.900424e+00 6.253699e+00 -4.353308e+00 4.798681e+00 9.703040e-03 -2.080385e-01 -3.831817e-01 -5.133269e-01 -6.563326e-01 1.436978e-01 1.870399e+00 9.037819e-01 -6.801081e-03 1.098714e+00 2.179812e+00 1.805705e+00 1.584000e+00 4.425532e-03 
-6.201128e+00 9.959288e-01 -4.866632e+00 4.530693e+00 7.828550e+00 2.012056e+00 8.688424e+00 5.164844e+00 2.272936e+00 1.295388e+01 4.810035e+00 4.690165e+00 4.004437e-02 -5.272055e-01 -1.158120e-01 6.319185e-02 -7.833563e-01 1.197871e-01 1.815964e+00 1.340403e+00 1.116933e+00 5.041153e-01 -2.723487e-01 9.256684e-01 1.567959e+00 -2.816802e-03 
-6.011300e+00 3.121780e+00 -2.090826e+00 1.348619e+00 4.772939e+00 6.741270e+00 1.227732e+01 5.768620e+00 -2.201103e+00 9.188339e+00 8.131283e+00 8.939973e+00 3.327924e-02 -2.030937e-01 -1.321507e-01 8.529161e-01 3.729050e-01 6.098781e-01 1.557816e+00 1.132886e+00 1.832960e+00 8.817662e-01 -3.297004e-01 9.016162e-01 -2.062897e-01 -2.081400e-03 
-6.755976e+00 7.186155e-01 -2.603743e+00 3.232814e+00 8.070547e+00 1.427997e+00 8.496943e+00 5.071382e+00 1.041067e-01 5.554583e+00 4.383223e-01 7.378242e+00 7.559299e-03 1.288649e-01 7.223289e-02 6.358143e-01 3.545711e-01 5.899943e-01 4.794986e-01 -1.096206e-01 -2.017536e-02 -1.353022e-01 -1.568909e+00 -1.537639e+00 -1.119164e+00 -5.094904e-03 
-6.576457e+00 1.119943e+00 -3.832064e-01 5.080433e+00 9.477093e+00 5.629630e+00 1.247591e+01 9.042320e+00 1.592822e+00 8.304846e+00 2.340630e+00 2.423193e+00 1.553857e-02 1.036654e-01 -5.219026e-02 1.248482e-01 1.320540e+00 7.024678e-01 -1.211939e+00 -9.401398e-01 -1.204598e+00 -1.685274e-01 -1.220346e+00 -2.268873e+00 -2.247485e+00 6.760436e-03 
-5.274225e+00 2.358012e+00 -2.541370e+00 4.437641e+00 8.426445e+00 4.965368e+00 8.041024e+00 3.427117e+00 -3.005373e-01 5.551082e+00 1.716602e-02 2.352734e+00 2.344018e-02 1.386863e-01 3.566217e-01 1.097376e-01 1.050066e+00 -1.296200e-01 -1.174696e+00 -6.056062e-01 -1.748180e+00 -1.032529e+00 -1.014893e+00 -1.222479e+00 -1.653376e+00 1.467658e-02 
-6.233849e+00 2.041130e+00 -1.497772e+00 7.348907e+00 8.107328e+00 -1.087112e+00 7.804580e+00 5.677604e-01 -2.841418e+00 3.088362e+00 -3.002504e+00 2.153049e-01 5.914098e-02 -2.744064e-02 1.525494e-01 -1.185534e-01 7.448212e-01 -3.058644e-01 -1.948597e+00 -9.579111e-01 -1.980848e+00 -1.140936e+00 -1.289569e+00 -1.370594e+00 -6.553206e-01 1.229056e-02 
