-7.116185e+00 9.832385e-01 1.682909e+00 2.741148e+00 3.810314e+00 -2.387721e+00 1.930540e+00 -4.300327e+00 2.321247e+00 7.369793e+00 -1.675295e+00 7.534122e+00 -4.960501e-02 -1.067846e-01 1.940049e-01 -3.353014e-02 1.020955e-01 -7.813506e-01 -9.084842e-01 -8.095619e-01 1.776078e+00 1.757557e+00 1.618035e-01 -4.272888e-01 9.160373e-01 -3.298271e-03 
-7.812968e+00 7.489228e-01 2.930411e+00 5.978466e+00 -1.403431e+00 -1.047333e+01 -8.101368e-01 1.088467e+00 6.087096e+00 8.023555e+00 -2.581198e+00 7.295034e+00 -5.762005e-02 2.098501e-01 1.769565e-01 1.960537e-01 1.210324e+00 2.940572e-02 -5.517546e-01 -1.466236e+00 4.199907e-01 4.779821e-01 -8.218266e-01 -6.855339e-01 6.938750e-01 2.618456e-03 
-7.301717e+00 2.070421e+00 8.915081e-01 1.632967e+00 2.510434e+00 -2.887339e+00 -7.469311e-01 1.885668e+00 9.226110e+00 7.851930e+00 -3.358787e+00 1.223385e+01 -6.208885e-02 1.949983e-01 7.162166e-02 3.398863e-01 9.392055e-01 -1.532936e-01 6.347731e-01 -6.674948e-01 -3.065250e-01 -9.852657e-01 -1.739545e+00 -1.025269e+00 2.865251e-01 9.724140e-03 
-5.974169e+00 1.324430e+00 3.058879e+00 9.346857e+00 4.607283e+00 -4.896685e+00 -4.061906e+00 -5.293371e+00 1.258727e+00 3.019592e+00 -4.261218e+00 8.653631e+00 -3.027081e-02 2.427061e-01 3.683548e-02 1.214120e+00 1.007305e+00 6.628965e-01 1.506187e+00 1.611325e-01 -1.420138e+00 -2.270457e+00 -1.424007e+00 -4.314147e-01 -1.471666e-01 9.348738e-03 
-7.060594e+00 1.053593e+00 3.318107e+00 5.752980e+00 3.848886e-02 -2.002176e+00 2.189505e-01 -2.642033e+00 -1.908965e-01 1.174048e+00 -5.961631e+00 8.287449e+00 -1.465893e-02 -1.120726e-01 -2.408106e-01 8.997186e-01 5.599893e-01 -4.142717e-01 -1.165844e-01 8.611418e-01 -4.371470e-01 2.323432e-02 1.797274e-01 2.214284e-01 -1.098286e+00 1.924765e-03 
-6.719999e+00 1.441514e+00 7.787714e+00 8.954984e+00 3.147023e+00 -3.384974e+00 -4.874151e-01 -3.748374e+00 -5.566854e-01 4.242461e+00 -3.436850e+00 8.532403e+00 -3.459132e-02 -1.656558e-01 5.260075e-01 3.985463e-01 -7.030861e-01 2.518618e-02 3.907173e-01 1.294778e+00 1.963870e-01 1.092695e+00 4.949373e-01 7.522147e-01 -7.085665e-01 -6.266081e-03 
-7.489164e+00 8.078258e-01 3.025683e+00 4.628851e+00 1.169205e+00 -4.226117e+00 1.771533e+00 -1.072565e+00 1.024999e+01 8.139132e+00 -2.663829e+00 6.803035e+00 -5.030477e-02 4.495654e-01 5.185168e-01 4.920222e-01 2.176549e-01 5.280011e-01 -9.854126e-01 -5.659224e-01 -3.455305e-03 7.461916e-01 2.130674e-01 1.446958e+00 -7.254294e-01 -1.071222e-02 
-6.588162e+00 4.077352e+00 5.197822e+00 6.393491e+00 4.167856e+00 -1.831128e+00 1.635694e+00 -5.096170e+00 1.501760e+00 2.011737e+00 -2.149045e+00 5.853005e+00 -4.377830e-02 3.576683e-01 3.287027e-01 -4.159665e-02 3.315938e-02 -2.325436e-01 -6.130791e-01 -3.849019e-01 -4.588746e-01 -5.116123e-01 -7.024781e-01 7.822332e-01 -8.259348e-01 -1.025187e-02 
-4.878685e+00 2.328259e+00 7.073164e+00 8.122001e+00 2.168078e+00 -7.706161e+00 -3.672216e+00 -1.985412e+00 2.510839e+00 3.354747e+00 6.292577e-01 6.000000e+00 -6.362653e-02 1.320232e-01 7.424068e-02 2.039561e-01 5.675693e-01 -3.517903e-01 -4.814071e-01 -8.782323e-01 7.221574e-02 -1.721701e+00 -1.288381e+00 3.292020e-01 3.744487e-01 -2.446520e-03 
-6.236897e+00 2.324811e+00 5.555990e+00 7.374206e+00 1.484869e+00 -4.710347e+00 3.099496e-01 -5.586324e+00 7.548270e-01 3.122263e+00 -1.172227e+00 4.804246e+00 -7.918978e-02 -2.132879e-01 -2.929369e-01 -7.698240e-01 -2.635677e-01 -5.545697e-01 -2.790727e-01 -9.552261e-01 3.144605e-01 -3.184440e-01 -2.782310e-01 1.581199e-02 1.050888e+00 1.407087e-03 
-7.004681e+00 2.055299e+00 3.866380e+00 6.976340e+00 7.517474e-01 -5.193543e+00 -1.956757e+00 -4.664089e-01 2.014948e+00 1.141965e+00 -1.506228e+00 9.199658e+00 -4.483163e-02 -1.074174e-01 1.138901e-01 -6.773391e-01 -2.900456e-01 3.672976e-01 5.125353e-01 -1.281403e-01 -4.268220e-01 -1.762407e-01 -3.007161e-01 -1.372377e+00 4.323636e-01 6.985557e-03 
-6.591604e+00 2.749147e+00 2.952094e+00 5.648483e+00 2.103173e+00 -4.482800e+00 -3.998167e+00 -4.283369e+00 1.574850e-01 1.726972e+00 -1.002242e+00 9.507618e+00 -4.614031e-02 2.018814e-01 -7.500996e-02 -3.467910e-01 -4.049096e-01 8.762229e-01 2.181393e-01 -3.482176e-01 -4.596042e-01 3.722790e-01 7.663846e-01 -1.566101e+00 -3.095783e-01 2.028978e-03 
-5.238419e+00 2.685541e+00 4.988416e+00 7.534635e+00 3.695415e+00 -5.257258e+00 -2.158859e+00 -4.770999e+00 1.928306e+00 2.548812e+00 -6.317617e+00 5.810133e+00 -4.522347e-02 -1.361760e-01 -5.857409e-01 -2.667778e-01 -4.548399e-01 4.218187e-01 -4.167094e-01 -4.245621e-01 -6.325350e-01 5.389187e-01 1.145268e+00 -1.903991e+00 -1.346791e+00 -6.276417e-03 
-6.110621e+00 1.634641e+00 3.261017e+00 5.070511e+00 4.394150e+00 -3.587793e+00 -1.330087e+00 -5.732050e+00 2.659543e+00 6.250763e+00 -6.597039e+00 4.951118e+00 -6.884897e-02 -2.243713e-01 -8.295578e-01 -2.705126e-01 -1.617484e-01 -3.019803e-01 -2.286076e-01 3.601041e-02 8.546511e-01 1.056513e+00 2.918391e-01 -2.434700e+00 -8.502924e-01 -1.986146e-03 
-7.926052e+00 -3.161521e-01 2.378029e+00 4.991127e+00 1.715353e+00 -7.724594e+00 -5.413608e+00 -2.904743e+00 3.458513e+00 4.606408e+00 -8.228783e+00 4.743954e+00 -6.485939e-02 2.236283e-01 -1.907043e-01 -9.766958e-01 -1.874969e-01 -1.717828e+00 4.907323e-01 1.741848e-01 1.079442e-01 4.805137e-01 -3.401510e-01 -3.831678e-01 1.761896e+00 6.478834e-03 
-6.369644e+00 1.022043e-01 2.904724e+00 6.111495e+00 1.583302e+00 -4.392170e+00 -2.190741e+00 -9.432414e-01 4.674948e+00 2.157370e+00 -1.222016e+01 5.789245e+00 -4.625309e-02 5.152284e-01 2.921539e-01 -7.004812e-01 1.000251e+00 -8.149716e-01 1.184362e-01 -5.216853e-01 -9.062969e-01 -8.209718e-01 -2.801681e-01 1.028515e+00 2.173288e+00 1.579597e-02 
-3.990766e+00 2.498238e+00 2.830834e-01 6.076657e+00 -3.488303e+00 -2.401408e+00 -8.576083e-01 -6.625682e+00 3.323172e+00 2.894753e+00 -5.421897e+00 1.420055e+01 -2.412724e-02 6.167040e-01 2.977449e-01 -1.323194e-01 1.384714e+00 1.203151e+00 1.247546e+00 9.259579e-01 -2.234727e-01 -6.712964e-01 6.091798e-01 1.626341e+00 7.412404e-01 7.761645e-03 
-5.502123e+00 1.688215e+00 8.060837e-01 9.528999e+00 2.921120e+00 -5.657204e+00 -6.216513e+00 -8.403066e+00 -1.377646e+00 5.705750e+00 -2.857907e+00 1.108926e+01 -1.023519e-02 -1.506717e-01 -2.810479e-01 -4.181635e-02 2.097530e-01 1.103268e+00 -4.814494e-01 5.581135e-01 3.952876e-01 -3.929192e-01 4.719855e-01 2.374105e+00 -3.350181e-01 -6.278050e-03 
-5.276293e+00 3.795669e-01 2.765753e+00 1.020594e+01 7.062201e+00 -8.543446e-01 1.229068e+00 -2.921949e-01 3.128328e+00 5.878117e+00 -4.778203e+00 5.800148e+00 -4.406011e-02 -6.490758e-01 -9.073609e-01 2.103093e-01 -9.307764e-01 1.030383e+00 -1.034400e+00 3.657005e-01 2.292039e+00 1.285921e-01 -7.735119e-01 2.845394e-01 -2.088605e+00 -5.383754e-03 
-6.480239e+00 -2.436996e-01 1.454308e+00 5.095618e+00 1.824391e+00 -7.572949e+00 -4.435117e-01 -2.133547e+00 2.807774e+00 3.025615e+00 -6.714790e-01 8.314356e+00 -6.767690e-02 1.203961e-01 -7.277758e-01 1.574453e-01 -1.996362e+00 -1.247316e+00 3.729778e-01 -1.008766e+00 1.941679e+00 1.798436e+00 -2.139468e+00 1.575239e+00 -2.413002e+00 5.613691e-02 
-6.747087e+00 -1.072610e+00 1.010518e+00 3.639466e+00 2.211976e+00 -6.615537e+00 -1.915606e+00 1.699755e+00 1.873423e+00 3.672614e-01 -5.092414e+00 5.144976e+00 -2.232516e-02 1.133377e+00 -8.130103e-01 8.376076e-01 -2.011846e+00 -1.228766e+00 5.190727e-01 -3.673314e+00 1.151188e+00 1.707231e+00 -1.587540e+00 3.162082e+00 -1.863452e+00 1.073384e-01 
-4.164745e+00 -1.224575e+00 2.470927e+00 2.830429e+00 -8.903470e-01 -9.117188e-01 -9.688005e+00 3.093565e-01 8.241986e+00 -2.236162e+00 5.175394e+00 -6.481600e-01 2.595819e-01 1.221278e+00 2.185552e-02 1.160277e+00 -5.842701e-01 4.695934e-01 1.484803e+00 -2.645625e+00 1.707504e+00 2.191681e+00 1.102276e-02 1.762542e+00 -1.559481e+00 7.228953e-02 
-7.671537e-01 -3.195047e+00 6.445481e+00 1.279308e+00 2.275740e+00 -1.589597e+00 -1.251525e+01 4.242293e+00 8.947377e+00 5.713048e-01 8.108770e+00 9.641471e-01 3.290023e-01 2.584049e-01 -1.834451e-01 2.435752e-01 -6.706850e-01 1.396094e+00 1.328061e+00 -4.743904e-01 1.949816e+00 1.517428e+00 1.281091e+00 -5.829679e-01 2.595801e-01 1.178724e-02 
-3.363813e+00 9.267967e-01 4.538210e+00 3.354347e+00 4.140476e+00 -2.661902e+00 -8.371814e+00 5.132704e+00 1.022920e+01 2.978708e+00 1.540639e+00 2.607364e+00 1.181070e-01 -6.927430e-01 -2.064875e-01 -1.243099e+00 -4.698516e-01 1.611823e+00 1.032009e+00 3.439087e+00 -3.229903e-01 -2.249184e+00 1.263596e+00 -3.297349e+00 1.093861e+00 -7.509486e-02 
-5.855528e+00 -3.065521e+00 1.194752e+00 2.408218e-02 6.677033e+00 8.998606e-01 -4.945654e+00 9.037163e+00 8.466953e+00 4.165282e+00 -6.189877e+00 4.815114e+00 1.073484e-01 -7.989951e-01 1.527260e-01 -2.308919e+00 8.807024e-01 1.335697e+00 1.693893e+00 4.517729e+00 -2.034419e+00 -2.889956e+00 -2.292655e-01 -3.840444e+00 5.263603e-01 -7.329431e-02 
-5.084273e+00 -2.321776e+00 -1.119204e+00 1.108784e+00 4.968122e+00 3.003599e+00 3.722631e+00 -3.703030e+00 -2.763721e+00 2.284829e+00 -4.162027e+00 2.895664e+00 -5.065560e-03 -2.368278e-02 2.065152e-01 -1.980321e+00 8.702151e-01 1.149567e+00 1.537224e+00 1.714510e+00 -2.798900e+00 -3.392726e+00 -3.054152e-01 -2.104395e+00 -8.093699e-01 -9.701657e-03 
-3.901899e+00 -8.071305e-01 -2.270406e+00 6.805602e+00 8.540403e+00 4.047119e+00 4.026170e+00 -1.511936e+00 9.940610e-01 -2.280836e-01 -8.242117e+00 3.451799e+00 2.411699e-02 3.804789e-01 6.766468e-01 -1.003757e+00 1.097621e+00 5.632967e-01 4.916725e-02 2.643847e-01 -2.890802e+00 -2.091570e+00 -1.076103e+00 -6.159130e-01 -1.298816e+00 -1.757522e-02 
-4.459042e+00 8.301775e-01 -3.630816e+00 4.314662e+00 8.956625e+00 3.450590e+00 -4.285174e+00 -3.587248e+00 -2.997983e+00 3.648314e+00 -7.955216e+00 -7.578273e-01 1.112145e-01 1.305893e-01 3.762595e-01 -4.523939e-01 1.053400e+00 8.289490e-01 3.534673e-01 1.409888e-01 -3.908707e-01 6.161322e-02 5.364342e-01 -9.551469e-01 -7.114146e-01 -2.385867e-03 
-4.265749e+00 -1.258263e+00 -2.568229e+00 3.909246e+00 7.499266e+00 9.222014e-01 3.801721e-01 -5.474738e+00 -1.873767e+00 -1.896975e+00 -7.372847e+00 1.477804e-01 -3.866768e-02 -5.599898e-01 -2.654963e-01 -7.201384e-01 -7.624844e-01 -1.319366e+00 -2.688889e-01 -2.166656e-01 -1.158652e+00 -5.774587e-01 7.786331e-01 -4.536004e-01 5.579153e-01 -1.209554e-02 
-4.249402e+00 -2.149117e-01 -3.232263e+00 7.823961e+00 9.633436e+00 6.333395e+00 6.250574e+00 -3.675982e+00 -1.021741e+00 5.801445e+00 -9.372396e+00 9.906001e-01 1.439744e-02 -5.247439e-01 5.287005e-01 1.427119e+00 1.016788e+00 -5.897650e-01 5.766778e-01 1.875208e+00 9.052145e-01 1.456309e+00 1.040357e+00 1.296505e+00 2.059217e+00 -1.998647e-02 
-6.806668e+00 -1.612067e+00 -6.070374e+00 1.238531e+00 1.605167e+00 1.261273e+00 -2.325032e+00 -7.260828e+00 -2.881354e+00 2.588516e+00 -9.801529e+00 5.367162e+00 1.204783e-02 -7.376578e-01 6.329081e-02 1.924024e+00 2.669869e+00 5.562510e-01 1.206506e+00 1.168101e+00 7.297745e-01 2.940423e+00 3.024326e+00 2.015456e+00 2.775132e-01 1.873373e-02 
-5.812302e+00 3.650582e+00 5.255850e+00 1.073396e+01 8.954849e+00 6.164444e+00 6.443466e+00 1.831870e+00 4.787357e+00 6.607356e+00 -2.583513e-01 6.928568e+00 -1.407564e-02 -6.195410e-01 -5.201125e-01 1.769792e+00 1.176375e+00 -2.017594e-01 -9.534473e-01 7.120228e-03 3.094261e-01 2.978018e+00 2.523680e+00 1.657974e+00 -2.548030e+00 -5.708337e-04 
-7.172588e+00 -2.874556e+00 2.807834e+00 1.580359e+01 1.061981e+01 7.039207e+00 6.124231e+00 -4.579792e+00 9.923798e+00 1.282170e+01 -1.852592e+00 -1.433638e+00 6.923753e-02 -1.037179e+00 -1.072034e+00 2.022596e+00 1.030192e+00 -1.609609e+00 -1.172729e+00 1.615676e+00 5.259739e-01 2.069593e+00 3.824593e+00 1.708577e+00 -2.615617e+00 1.119640e-02 
-7.164147e+00 -2.184230e+00 1.177591e+00 6.423307e+00 4.117315e+00 -1.322809e+00 2.061544e+00 -3.469370e+00 7.465772e+00 1.330325e+01 -5.056993e+00 -8.349150e+00 -1.705158e-02 -2.464461e+00 -1.895827e+00 1.118954e+00 -1.700452e+00 -1.856910e+00 -2.599314e+00 -7.849718e-03 -1.434260e+00 -7.928196e-01 3.654563e+00 1.290141e+00 -5.358057e-01 4.193615e-02 
-1.131664e+01 -4.054833e+00 6.081738e+00 8.544817e+00 -4.024109e+00 -8.587482e-01 7.944310e+00 -1.980339e+00 6.127404e+00 1.836353e+01 1.140679e+00 -7.206583e-02 6.951779e-02 -2.027295e+00 -7.331085e-01 4.828549e-01 -2.861227e+00 -1.227412e+00 -9.177613e-01 4.507619e-01 -3.745207e-01 -9.145640e-01 1.846512e+00 1.245928e+00 2.013468e+00 3.154210e-02 
-1.606258e+01 -5.238414e+00 9.213668e+00 5.861086e+00 6.992264e+00 -2.883149e+00 5.494178e+00 -6.639155e+00 2.721455e+00 2.210926e+01 4.695717e+00 3.568753e+00 1.954650e-01 -1.106259e+00 -7.402862e-01 -5.786873e-01 -2.172130e+00 -3.725426e-01 1.570642e+00 1.680452e+00 -1.106732e+00 7.423918e-01 9.824404e-01 1.317031e+00 1.810480e+00 4.157229e-02 
-1.285985e+01 -5.013007e+00 1.204070e+00 1.778566e+00 3.045279e+00 3.230571e+00 6.661723e+00 -4.867503e+00 7.723136e+00 1.765126e+01 -4.993081e-01 2.674751e+00 1.206897e-01 9.406860e-01 7.140117e-01 -1.947781e+00 -1.351261e+00 3.307316e-01 1.376836e+00 1.924993e-01 1.008266e+00 1.964827e+00 -2.441635e+00 -9.072357e-01 5.462454e-01 -1.706373e-02 
-1.192384e+01 -5.406574e+00 7.229881e-01 -1.054215e+00 -1.280092e+00 4.485743e+00 1.110510e+01 -7.559449e+00 1.037986e+01 1.857159e+01 2.348153e+00 -6.701584e-01 1.652239e-01 2.974812e+00 -5.341714e-01 -2.776791e+00 -1.024610e+00 -8.896459e-01 4.136910e-01 -1.466487e+00 3.405255e+00 1.872939e+00 -4.770017e+00 9.550856e-01 -1.944164e+00 1.263491e-02 
-8.682581e+00 -4.006945e-01 5.881705e-01 5.246165e+00 1.765726e+00 2.340984e+00 6.101347e+00 3.521139e+00 1.212233e+01 7.924188e+00 -2.221717e+00 4.778617e+00 -6.803274e-04 2.687482e+00 -1.830215e+00 -2.193265e+00 -1.279014e+00 -2.806563e-01 -1.834708e+00 -3.878581e+00 2.967884e+00 -2.488420e-01 -5.264647e+00 2.716699e+00 -4.024170e+00 1.392043e-01 
-3.277155e+00 -1.021543e+01 -4.362337e+00 -9.957619e-01 3.183811e+00 -3.699012e-01 -1.558070e+00 6.192799e+00 9.886553e+00 3.122706e+00 1.033235e+01 -7.204001e+00 3.193246e-01 4.211841e+00 -1.629848e+00 -1.726640e+00 -1.489599e+00 -5.461435e-01 -2.122571e+00 -4.699905e+00 1.539571e+00 -1.696052e+00 -5.268899e+00 1.550527e+00 -4.370526e+00 2.055744e-01 
-3.745782e+00 -1.175965e+01 -7.219594e+00 -4.645729e+00 -5.899534e-01 -3.515149e+00 -6.399594e+00 3.095793e+00 6.725582e+00 -9.475341e-01 9.092091e+00 -1.417918e+01 7.396611e-01 3.990932e+00 -1.462144e+00 -1.136022e+00 -2.248680e+00 -1.585923e+00 -1.466937e+00 -2.929279e+00 -1.167185e+00 -2.170242e+00 -2.885795e+00 6.263921e-01 -4.958097e+00 2.359641e-01 
6.666965e+00 -7.876335e+00 -4.006332e+00 -3.556262e+00 -2.832970e+00 -3.199043e+00 -6.143957e+00 3.510791e-01 4.597981e+00 -3.337042e+00 4.443883e+00 -1.304389e+01 8.229251e-01 3.582717e+00 5.788286e-01 -6.247201e-01 -7.043511e-01 -1.774829e+00 -4.666622e-01 -1.006780e+00 -1.310153e+00 -1.571276e+00 -9.907757e-01 -1.736285e+00 -1.914593e+00 1.491778e-01 
6.300022e+00 -8.880959e+00 -5.269941e+00 -4.716985e+00 -3.155498e+00 -3.579129e+00 -6.252106e+00 6.060741e-01 3.915412e+00 -3.274915e+00 3.854477e+00 -1.709192e+01 9.273399e-01 3.000259e+00 9.256796e-01 -1.038510e+00 4.973276e-01 -4.932503e-01 -4.359252e-01 2.589010e-01 -8.516155e-01 -7.527690e-01 3.967605e-02 -1.110843e+00 -2.516638e-01 5.810825e-02 
9.613531e+00 -8.760632e+00 -8.460764e+00 -4.481889e+00 -4.407560e+00 -2.671222e+00 -6.665715e+00 8.868953e-01 3.435256e+00 -6.674819e-01 4.269731e+00 -1.532060e+01 9.713743e-01 9.073361e-01 9.676798e-01 -1.815795e+00 5.898903e-01 4.590880e-01 -7.152601e-01 1.677444e-01 -4.776865e-01 -4.580485e-01 4.924394e-01 -2.548544e-01 1.086653e-01 3.015107e-02 
9.782231e+00 -6.689107e+00 -1.018493e+01 -1.696277e+00 -2.268910e+00 -5.958686e+00 -4.844211e+00 -1.430192e+00 3.543100e+00 -2.083934e+00 3.624952e+00 -1.429914e+01 9.559777e-01 6.677623e-01 9.493942e-01 -7.758557e-01 3.351060e-01 6.253577e-01 -8.386302e-01 -2.578997e-01 -3.374056e-01 -8.334268e-01 3.849563e-01 -5.566543e-01 6.279539e-01 6.659097e-03 
9.462540e+00 -4.133862e+00 -1.062781e+01 -2.117165e+00 -9.808235e-01 -5.585566e+00 -6.009183e+00 -1.019220e+00 2.493895e+00 -1.470335e+00 3.284373e+00 -1.389695e+01 9.593616e-01 3.858192e-02 7.753320e-01 4.836874e-02 2.589091e-01 3.257778e-01 -7.394531e-01 -2.606318e-01 -1.515224e-01 -6.771938e-01 1.911475e-01 -8.748293e-01 3.307623e-01 6.351173e-04 
9.714329e+00 -6.447372e+00 -8.065696e+00 -4.223817e+00 -1.742077e+00 -6.315108e+00 -7.869870e+00 -1.278963e-01 2.189589e-01 -9.487066e-01 1.563884e+00 -1.466397e+01 9.666418e-01 -6.023965e-02 3.250107e-01 4.120856e-01 7.295938e-02 -7.486276e-01 -2.480750e-01 -7.359695e-02 -5.899025e-02 -1.247411e-01 -3.311903e-01 -1.169315e-01 -1.129662e-01 3.926170e-03 
9.840392e+00 -5.004839e+00 -9.278537e+00 -1.923573e+00 -3.042087e+00 -6.190276e+00 -6.456044e+00 -5.218648e-01 1.711358e+00 -2.793579e-01 9.261184e-01 -1.348437e+01 9.692179e-01 3.205142e-02 -7.189989e-02 5.625836e-01 2.167112e-01 -1.314220e+00 5.872957e-01 -4.454370e-01 2.380400e-01 -8.485095e-02 -4.445364e-01 4.054769e-01 -6.414242e-02 2.576464e-03 
9.292107e+00 -4.628565e+00 -8.799138e+00 -1.428276e+00 -4.981416e+00 -6.896705e+00 -4.988765e+00 -1.973821e+00 3.310663e+00 -4.335374e+00 4.219422e+00 -1.507027e+01 9.706804e-01 -1.236130e-01 7.618880e-02 6.719112e-01 -1.067226e-01 -8.427392e-01 1.121618e+00 -7.402355e-01 3.513540e-01 2.787005e-01 -7.798752e-01 1.189865e+00 2.262390e-01 9.546339e-04 
9.833908e+00 -5.402765e+00 -7.448173e+00 -2.431380e+00 -5.932255e+00 -2.358289e+00 -9.676921e+00 1.093943e+00 5.237880e-01 -1.999683e+00 3.983989e+00 -1.401452e+01 9.702246e-01 -1.669945e-01 -3.211599e-01 1.306069e+00 -1.059446e+00 -1.093597e-02 5.596989e-01 -1.006593e-01 1.857619e-01 -3.690701e-01 -2.548836e-01 1.193930e+00 6.977547e-01 -1.679999e-03 
9.099506e+00 -5.867465e+00 -5.621322e+00 -4.503527e+00 -4.510689e+00 -2.623012e+00 -9.960609e+00 8.209702e-01 2.206247e+00 -3.987920e+00 5.984277e+00 -1.326770e+01 9.709116e-01 -1.977319e-01 -2.065536e-01 1.201526e+00 -1.014169e+00 -1.613386e-01 7.443793e-01 1.419313e-01 2.208684e-01 -8.733886e-01 6.744276e-01 6.977943e-01 1.490456e+00 -4.635614e-03 
9.101721e+00 -5.991189e+00 -4.337102e+00 -5.683179e+00 -3.332130e+00 -5.528628e+00 -4.473418e+00 -9.904509e-01 4.182158e-01 -1.727503e+00 6.013341e+00 -1.089688e+01 9.607023e-01 -2.928098e-01 2.860169e-01 8.362480e-01 -5.080220e-01 -4.461174e-01 1.911226e-01 1.246890e+00 -1.938891e-01 -9.273556e-01 8.507344e-01 7.891290e-01 1.491384e+00 -7.989419e-03 
8.669541e+00 -5.367122e+00 -4.347041e+00 -4.873224e+00 -7.088171e+00 -1.589639e+00 -6.880859e+00 1.727176e-01 -1.003494e+00 -1.099326e+00 6.693718e+00 -9.176805e+00 9.522635e-01 -1.442003e-01 5.782797e-01 5.596863e-01 -1.663975e-01 -1.129690e+00 6.708898e-01 7.431353e-01 7.910925e-01 -1.750659e+00 1.313065e+00 7.067596e-01 9.459856e-01 -8.329844e-03 
8.584842e+00 -4.222852e+00 -3.904073e+00 -4.786642e+00 -6.874101e+00 -1.919362e+00 -4.982347e+00 4.486232e-01 -2.508120e+00 8.096919e-01 7.574913e+00 -8.603047e+00 9.396015e-01 -5.731027e-02 6.053162e-01 5.241240e-01 -6.438691e-01 -1.052648e+00 7.946647e-01 -3.095244e-01 1.152105e+00 -1.262574e+00 1.325233e-01 1.082855e+00 5.632591e-03 -3.489864e-03 
8.636944e+00 -3.860234e+00 -3.039405e+00 -5.783783e+00 -8.388151e+00 -1.073196e+00 -5.990469e+00 4.056896e+00 -5.083881e+00 1.308806e+00 8.737288e+00 -9.684690e+00 9.398128e-01 -3.628039e-03 5.700689e-01 5.660792e-01 -1.380785e+00 -3.516456e-01 5.619514e-02 3.596329e-01 3.131933e-01 -6.032536e-01 -4.999088e-01 9.119409e-01 2.480393e-01 3.768319e-03 
8.831468e+00 -3.718051e+00 -2.370300e+00 -8.447245e+00 -7.945379e+00 -1.813526e+00 -6.466235e+00 2.827983e+00 -3.854463e+00 -2.268952e+00 1.040583e+01 -1.061477e+01 9.494783e-01 1.448423e-01 4.522474e-01 4.574191e-01 -1.645385e+00 -4.674354e-01 3.002576e-01 3.237314e-01 -8.075185e-02 -3.002443e-01 -1.271528e+00 1.168813e+00 6.156185e-01 1.166676e-02 
8.528088e+00 -2.769178e+00 -2.283532e+00 -9.946850e+00 -8.310760e+00 -1.361582e+00 -4.340751e+00 5.490042e-01 -3.346591e+00 -2.059548e+00 9.837964e+00 -6.930746e+00 9.661667e-01 2.600243e-01 6.869864e-01 7.813897e-02 -1.780622e+00 -2.917634e-01 2.832484e-01 7.204543e-01 -8.264101e-01 -4.539682e-01 -1.254651e+00 9.196307e-01 1.149017e+00 1.556545e-02 
9.363482e+00 -2.507143e+00 -1.994914e+00 -1.093203e+01 -9.249973e+00 -2.738812e-01 -4.188549e+00 1.798810e+00 -4.877986e+00 -3.863769e+00 1.286864e+01 -6.901927e+00 9.847584e-01 4.019263e-01 9.869395e-01 -1.750498e-01 -1.083649e+00 -8.639337e-01 4.962231e-01 5.413064e-01 -5.449933e-01 -8.615794e-01 -6.847263e-01 6.668869e-01 8.596869e-01 1.219204e-02 
9.671059e+00 -1.030756e+00 -2.836403e+00 -1.344450e+01 -9.194672e+00 -4.267762e-01 -3.527041e+00 4.394317e-01 -6.841960e+00 -4.167042e+00 1.210404e+01 -5.796026e+00 1.000000e+00 7.137907e-01 8.539289e-01 -1.395102e-02 -6.548916e-01 -9.487192e-01 1.747969e-01 -4.195805e-01 6.673602e-02 -8.435982e-01 -5.147588e-01 -5.847054e-02 -1.736864e-01 3.071290e-03 
1.026961e+01 3.474360e-01 -2.969113e+00 -1.211667e+01 -1.182309e+01 2.001867e-01 -4.166558e+00 1.578026e-01 -6.414675e+00 -4.638837e+00 1.260723e+01 -6.883698e+00 9.935219e-01 6.980820e-01 1.228753e+00 -1.172803e-01 -1.117327e-01 -6.398217e-01 -1.232515e-01 -2.022591e-01 1.662849e-01 -7.032682e-01 -1.211975e-01 -6.800399e-01 -6.370831e-01 -7.024646e-03 
1.164398e+01 7.317686e-02 -1.866187e+00 -1.262899e+01 -1.176780e+01 -7.246311e-01 -6.449649e+00 1.703188e+00 -6.796237e+00 -4.245808e+00 9.676317e+00 -7.808292e+00 9.771414e-01 6.056194e-01 9.423420e-01 2.713819e-01 -1.026249e-01 -4.794114e-01 -8.371861e-02 -9.166288e-02 1.495232e-01 -3.307394e-01 -7.911110e-01 -7.229773e-01 -4.392184e-01 -1.322983e-02 
1.186743e+01 3.084655e+00 -3.066423e+00 -1.189845e+01 -1.116252e+01 -7.412112e-01 -3.738540e+00 1.998356e+00 -8.417189e+00 -4.430373e+00 1.068230e+01 -9.081209e+00 9.610645e-01 3.007441e-01 7.429618e-01 3.583781e-01 -5.447804e-01 -5.435562e-02 -1.124762e-01 1.621623e-02 -2.120220e-02 -6.086160e-01 -1.036706e+00 -8.442600e-01 -2.821389e-01 -1.348032e-02 
1.190025e+01 2.312344e+00 -1.430838e+00 -1.406673e+01 -1.192201e+01 -3.746703e-01 -4.199365e+00 2.667711e-01 -7.494401e+00 -8.226829e+00 9.451614e+00 -6.893363e+00 9.500796e-01 1.322151e-01 4.481965e-01 2.927703e-01 -3.595232e-01 -5.751880e-01 4.940632e-01 3.023169e-01 -9.295222e-01 -1.431251e-01 -1.500849e+00 -8.783085e-01 -9.260940e-03 -1.129259e-02 
1.164520e+01 2.942661e+00 -1.394897e+00 -1.412170e+01 -1.201776e+01 -5.371747e-01 -5.210619e+00 7.700000e-01 -9.108673e+00 -7.831857e+00 8.498280e+00 -8.751858e+00 9.396512e-01 1.295621e-01 8.975229e-02 7.481927e-01 -5.932446e-01 -2.748970e-01 6.372901e-01 -2.257371e-01 -1.789397e-01 -9.727593e-02 -1.222891e+00 -1.295800e+00 3.475578e-01 -8.879149e-03 
1.241617e+01 2.385156e+00 -1.238099e+00 -1.331498e+01 -1.421612e+01 1.643667e+00 -4.202025e+00 -2.330245e+00 -7.166121e+00 -1.004931e+01 6.376785e+00 -8.019273e+00 9.313850e-01 6.707549e-02 4.751407e-01 5.196816e-01 -4.656191e-01 9.449053e-02 6.917348e-01 -9.273195e-02 4.783511e-01 -3.612458e-01 -1.129518e+00 -1.266449e+00 6.679296e-02 -6.707496e-03 
1.225728e+01 3.497011e+00 5.781703e-01 -1.524055e+01 -1.138995e+01 1.436071e+00 -4.865895e+00 2.402166e+00 -9.067709e+00 -9.633590e+00 5.740717e+00 -6.780465e+00 9.260160e-01 8.554516e-02 3.945900e-01 6.669816e-01 -3.984463e-01 -9.887504e-03 3.648039e-01 6.162815e-02 7.439806e-01 -4.987984e-01 -1.643940e+00 -1.490599e+00 2.419147e-01 -6.806976e-03 
1.192958e+01 4.410873e+00 1.810360e-01 -1.583540e+01 -1.176347e+01 2.097381e+00 -4.835386e+00 1.842444e+00 -9.321112e+00 -1.297355e+01 4.498151e+00 -7.545094e+00 9.233597e-01 -2.435945e-01 8.851242e-01 6.295009e-01 -1.923716e-01 -1.345855e-01 1.057441e-01 -3.355022e-01 1.515507e+00 -1.420422e+00 -1.152684e+00 -1.148015e+00 4.314642e-02 -1.201277e-02 
1.231622e+01 3.902753e+00 1.230443e+00 -1.485372e+01 -1.329352e+01 1.059987e+00 -4.585798e+00 2.403559e+00 -1.052517e+01 -1.458944e+01 1.984601e+00 -7.779373e+00 9.096290e-01 -5.395983e-01 8.968891e-01 7.792379e-01 3.383057e-01 -8.053570e-01 -2.630169e-01 -6.448948e-01 2.199327e-01 -1.216947e+00 -5.818445e-01 -9.743431e-01 -2.533067e-01 -2.107551e-02 
1.116873e+01 6.607906e+00 1.583269e+00 -1.447026e+01 -1.393726e+01 2.360429e+00 -6.019585e+00 5.246595e+00 -1.353950e+01 -1.333481e+01 2.514770e+00 -7.304087e+00 8.795147e-01 -7.219869e-01 8.279840e-01 9.977506e-01 5.714188e-01 -5.885550e-01 -5.927167e-01 -9.722646e-01 -8.861538e-01 -3.130590e-01 -7.504082e-03 -5.101824e-01 -2.239614e-01 -2.958688e-02 
9.939717e+00 6.882939e+00 3.773243e+00 -1.423159e+01 -1.432984e+01 -1.053739e-02 -7.498270e+00 1.799754e+00 -1.304325e+01 -1.236218e+01 1.860692e+00 -8.167502e+00 8.425609e-01 -7.920596e-01 1.032846e+00 6.568215e-01 6.988571e-01 2.852264e-01 -4.615216e-01 -1.065866e+00 -2.229279e+00 8.435279e-01 1.149958e+00 -5.212392e-01 -5.839981e-01 -3.193028e-02 
9.507897e+00 7.060699e+00 3.898389e+00 -1.328937e+01 -1.418808e+01 -3.309402e-01 -8.240473e+00 -2.286422e+00 -9.627369e+00 -1.412470e+01 2.009193e+00 -8.470837e+00 8.089593e-01 -5.282580e-01 -6.205481e-01 4.388716e-02 1.232033e-02 1.062799e+00 5.623413e-01 -1.656747e+00 -2.852376e+00 1.019314e+00 1.368847e+00 -5.366656e-01 -6.945402e-01 -2.388191e-02 
9.186335e+00 8.840586e+00 3.356991e+00 -1.194987e+01 -1.174198e+01 9.806395e-02 -8.804682e+00 -4.976325e+00 -8.263597e+00 -8.444701e+00 -3.688071e-01 -1.011599e+01 7.852553e-01 -3.508771e-01 9.169541e-02 -3.533225e-01 2.691216e-01 1.889460e+00 7.379130e-01 -3.354664e-01 -1.322637e+00 -1.709590e-01 1.676761e-01 -6.534575e-01 -7.463217e-02 -2.821813e-02 
8.904129e+00 2.526342e+00 2.010831e+00 -1.554951e+01 -9.917194e+00 5.117835e+00 -1.365011e+01 -5.627243e+00 -1.083276e+01 -8.449315e+00 9.461913e-01 -9.802545e+00 7.887580e-01 -4.118732e-01 1.538832e-01 1.276489e-01 1.905475e+00 2.916188e+00 -1.096783e+00 8.589678e-02 2.188032e-01 -5.476460e-01 -3.216863e-01 -7.687078e-01 1.015711e+00 -4.655322e-02 
8.487216e+00 9.608595e+00 2.950409e+00 -1.175591e+01 -7.017986e+00 9.546397e-01 -6.470782e+00 -3.143022e+00 -1.329535e+01 -1.436150e+01 -8.750951e-01 -7.874809e+00 7.115710e-01 -1.206968e+00 -1.078227e+00 9.010249e-01 4.666505e+00 2.602308e+00 -1.980826e+00 2.397913e+00 1.073610e+00 -5.888297e-01 -9.234584e-01 6.705123e-01 1.326656e+00 -7.049362e-02 
7.798090e+00 7.446111e+00 4.739924e+00 -3.858978e+00 -1.969141e+00 -6.243144e+00 -8.977939e+00 -2.109058e+00 -9.849724e+00 -1.277473e+01 -1.581202e+00 -4.512872e+00 6.130354e-01 -1.454713e+00 -1.278990e+00 1.113878e+00 6.206011e+00 2.841328e+00 -1.472137e+00 3.453483e+00 8.569537e-01 -1.511044e-01 -2.839098e-01 3.674264e-01 1.817470e-01 -7.852679e-02 
3.704515e+00 9.895656e-01 6.497569e+00 5.537381e+00 -2.704467e+00 -4.125575e+00 8.487978e-01 -1.367369e+00 -1.169926e+01 -1.089928e+01 4.247451e+00 -6.127543e+00 5.206485e-01 -7.538161e-01 -1.841207e+00 2.385796e-01 3.937873e+00 2.815889e+00 1.179607e+00 1.409447e+00 7.213715e-01 1.206870e-01 6.185516e-01 -5.648212e-01 8.369417e-02 -6.871600e-02 
4.021917e+00 4.409058e-01 5.806642e+00 6.833894e+00 2.132686e+00 2.972553e-01 -4.248786e-02 -2.230300e+00 -1.238632e+01 -1.159997e+01 2.220502e-01 -9.767443e+00 4.915853e-01 -1.418454e-01 -9.419475e-01 -7.751880e-01 1.481405e+00 1.589897e+00 2.795144e+00 1.413597e+00 -2.387997e-01 1.354208e-01 1.031534e+00 -1.130232e+00 4.754685e-01 -7.817485e-02 
6.606222e+00 3.905165e+00 3.609948e+00 2.587018e+00 5.010546e+00 3.582474e+00 -3.891273e+00 5.244573e-01 -1.142361e+01 -1.185612e+01 -4.600827e+00 -4.829053e+00 4.287161e-01 3.069948e-01 1.772379e-01 -2.276695e+00 -9.381229e-01 1.281719e+00 1.980510e+00 1.091739e+00 3.144289e-01 2.357944e+00 1.998245e+00 -1.085495e+00 3.288640e+00 -9.051456e-02 
5.638010e+00 1.278574e+00 2.307794e+00 5.023228e+00 2.122839e+00 3.878552e+00 4.600822e-01 -4.248970e+00 -9.310444e+00 -7.138646e+00 -2.808225e+00 -2.784775e+00 2.681273e-01 -4.271286e-01 4.757566e-01 -1.079294e+00 -1.104056e+00 9.569791e-01 1.306755e+00 2.418688e+00 8.386795e-01 3.401491e+00 3.180496e+00 3.250108e-01 4.690119e+00 -9.776107e-02 
4.431443e+00 1.456921e+00 -3.136484e+00 1.752100e+00 3.709052e+00 3.986328e+00 6.056209e+00 1.214110e+00 -1.447482e+00 -3.138723e+00 3.351145e-01 6.824324e+00 1.798047e-01 -1.359509e+00 -7.323124e-02 -7.288697e-02 -5.991845e-01 7.698562e-01 9.678057e-01 3.664925e+00 1.295612e+00 2.531223e+00 2.276962e+00 -2.688289e-01 3.219104e+00 -8.394845e-02 
2.973664e+00 4.043811e+00 3.783386e+00 1.731074e+00 7.568328e+00 6.629104e+00 7.077213e+00 1.618271e+00 -3.669324e-01 -5.618811e-02 -6.208668e-01 7.856463e+00 1.272356e-01 -1.060182e+00 3.614853e-01 9.722048e-01 -4.381380e-01 1.622978e+00 1.477124e+00 2.748971e+00 1.618639e+00 5.401801e-01 3.898447e-01 -1.991418e+00 1.337688e+00 -4.784511e-02 
1.140849e+00 2.156390e+00 2.507718e+00 1.237172e+00 6.137083e+00 7.046227e+00 1.112479e+01 4.068899e+00 -3.239255e+00 -4.012539e+00 -7.038651e+00 5.945846e+00 7.941967e-02 -6.589804e-01 8.108979e-01 1.773170e+00 1.112994e+00 1.149572e+00 1.408433e+00 1.606929e+00 -1.008366e-01 -8.972754e-01 -4.501701e-01 -2.352382e+00 -3.822170e-01 -2.956637e-02 
1.982399e+00 2.736266e+00 4.346717e+00 3.090002e+00 9.023712e+00 9.734222e+00 1.167065e+01 2.416831e+00 -5.713657e+00 -4.752515e+00 -9.078432e+00 4.342905e+00 7.909429e-02 -4.701824e-01 9.647922e-02 -6.071770e-01 1.417480e+00 4.052271e-01 8.133157e-01 8.352233e-01 -2.248501e-01 -6.509396e-01 -8.619792e-01 -1.443913e+00 8.140538e-01 -2.099221e-02 
1.632174e+00 6.165183e+00 5.447702e+00 6.637606e+00 8.729221e+00 9.475934e+00 1.179414e+01 3.106465e-01 -3.260497e+00 -3.041410e+00 -7.198014e+00 6.670019e+00 5.604351e-02 -4.450296e-01 4.020034e-01 -9.588475e-01 4.530658e-01 3.089635e-02 -7.928438e-02 -1.127634e-01 -4.271881e-01 1.468143e+00 1.257255e+00 1.472090e+00 8.604471e-01 -2.242507e-02 
3.770890e-01 2.521811e+00 -7.224908e-01 6.118256e+00 8.298394e+00 9.480828e+00 1.091866e+01 2.373147e+00 -3.611010e+00 -4.851648e+00 -7.760748e+00 1.156465e+01 3.396261e-02 -5.102228e-01 7.995922e-01 -9.306524e-01 1.369407e-01 -5.181170e-02 -1.427145e+00 9.691896e-02 1.641783e+00 1.932340e+00 4.934683e-01 1.450822e+00 4.018778e-01 -2.103014e-02 
-2.816443e-01 4.273635e+00 2.480841e-01 1.988373e+00 6.654223e+00 6.776502e+00 1.093697e+01 1.954801e+00 3.050135e+00 2.323302e+00 -3.370407e-01 6.637211e+00 -1.013982e-02 -6.168582e-01 3.368117e-01 -7.561250e-01 -1.252171e+00 2.155435e-01 -7.062250e-01 1.582582e-01 2.562602e+00 1.880761e+00 7.985070e-01 1.287451e+00 -8.276572e-02 -1.466273e-02 
3.881936e-01 7.680001e+00 2.293264e+00 6.099321e+00 9.802153e+00 3.948213e+00 1.258383e+01 9.803672e+00 7.927256e-01 -4.967529e+00 -5.254808e+00 6.368698e+00 7.035255e-03 -7.723657e-01 2.652788e-02 -3.346338e-02 -8.557553e-01 -9.908247e-02 -2.965699e-01 7.076799e-01 1.701185e+00 1.065669e+00 1.964221e+00 1.485357e+00 -3.968792e-02 -1.094408e-02 
-1.457670e+00 5.270146e+00 1.591997e-01 3.862162e-01 9.055059e+00 8.711117e+00 1.175284e+01 9.408393e+00 3.941442e+00 1.009065e+00 -2.013728e+00 8.854164e+00 -3.806472e-03 -9.916916e-01 -9.564516e-01 -3.473534e-01 -3.849154e-02 -6.861531e-01 -1.550000e-01 -1.579411e-01 2.264018e-01 4.153787e-01 1.299766e+00 8.287899e-01 9.509211e-01 -7.958281e-03 
-2.896727e+00 2.156194e+00 -8.453655e-01 2.640558e+00 6.602564e+00 7.030671e+00 1.404912e+01 7.152276e+00 1.271683e+00 5.626575e+00 5.043807e-01 1.025773e+01 -2.392447e-02 -1.332482e+00 -1.669321e+00 -6.558631e-01 -9.143452e-02 -1.356220e+00 6.852476e-01 -2.718972e-01 -2.145582e+00 6.868954e-01 9.924772e-01 3.728133e-01 9.160389e-01 -9.985566e-03 
-3.597642e+00 2.253280e+00 8.063173e-02 3.525297e+00 4.823252e+00 4.460273e+00 9.414617e+00 4.412508e+00 4.887550e+00 3.525081e+00 9.273143e-01 9.447300e+00 -3.445137e-02 -9.660674e-01 -9.534361e-01 -1.556807e-01 8.248504e-01 -1.381956e+00 -1.256431e+00 -1.158085e+00 -2.552099e+00 2.254857e-01 -3.726844e-01 -4.032498e-01 -2.131547e-01 -5.596781e-03 
-5.204231e+00 8.418298e-01 -9.467678e-01 4.072608e+00 5.136957e+00 9.499873e+00 1.239345e+01 1.573706e+00 3.754149e+00 -1.263151e+00 -4.861263e+00 1.065232e+01 -2.757013e-02 -9.547986e-01 -7.126817e-01 -1.431095e-01 -3.027966e-01 -5.233084e-01 -9.910237e-01 -1.684202e+00 -1.904072e+00 1.231299e-01 -4.903556e-01 -8.240910e-01 -6.468028e-01 -4.160798e-03 
-5.134254e+00 1.160148e+00 -5.685024e-01 3.794444e+00 2.878083e+00 1.194362e+00 6.790249e+00 -5.628159e-01 3.827638e+00 2.590506e+00 -1.347155e+00 7.591093e+00 -2.996755e-02 -7.866864e-01 -5.996993e-01 -4.750558e-01 -3.699595e-01 2.104259e-02 6.662021e-02 2.100184e-01 9.196969e-01 -1.298626e-01 1.233129e+00 5.903560e-01 -2.306396e-01 2.822482e-03 
-6.902413e+00 -8.606479e-01 -1.236346e+00 9.920020e-01 4.958606e+00 3.708508e+00 6.940293e+00 1.195785e-01 2.417289e+00 3.642085e+00 -2.478839e+00 7.951819e+00 -4.697037e-02 -4.540347e-01 -2.048037e-01 -3.921681e-01 -3.500299e-01 7.795849e-02 -1.694229e-01 -8.110309e-01 2.131452e+00 1.175278e+00 2.182937e+00 5.980911e-01 1.511194e-01 9.654665e-03 
-6.681983e+00 1.060224e-01 -2.149858e+00 3.215803e+00 5.017641e+00 7.689056e+00 1.319129e+01 9.738056e+00 4.906667e+00 7.238111e+00 2.687882e+00 9.644355e+00 -1.063883e-02 -1.095151e-01 6.791882e-02 2.140915e-01 7.858107e-02 8.243268e-01 9.346651e-01 3.109174e-01 1.813863e+00 1.543882e+00 7.204261e-01 -6.611887e-01 5.690295e-01 -5.558908e-04 
-6.700541e+00 3.448741e-01 -2.116930e+00 2.611779e+00 4.456971e+00 5.405412e+00 5.137779e+00 7.080532e+00 9.091026e+00 7.327730e+00 -3.888327e+00 1.038129e+01 1.103884e-02 -1.170011e-01 -5.676081e-02 4.766782e-01 6.052570e-01 3.289943e-01 -8.022941e-01 3.821919e-01 7.633168e-01 7.580737e-01 -7.203845e-01 -4.282292e-01 8.442737e-01 -6.604898e-03 
-5.782766e+00 8.969812e-01 9.422474e-01 3.377460e+00 7.250535e+00 5.019237e+00 9.246093e+00 5.026025e+00 8.210178e+00 4.349813e+00 -3.948355e+00 9.221505e+00 -6.175160e-02 -3.582365e-01 -3.071598e-01 3.005005e-01 -1.874229e-02 -4.440182e-01 -2.132394e+00 -5.907949e-01 -1.556010e+00 -1.238553e+00 -1.735051e+00 -9.938082e-01 -8.181027e-01 -1.555738e-02 
-7.937027e+00 -1.539931e+00 -3.990073e-01 3.937458e+00 5.487131e+00 1.031947e+00 1.082385e+01 6.292178e+00 4.555902e+00 1.484310e+00 -1.301867e+00 1.238461e+01 -5.443847e-02 -3.038422e-01 -4.254927e-02 -2.226282e-01 -3.518757e-01 -1.395213e+00 -1.390268e+00 1.007974e+00 -7.335169e-01 -1.286067e+00 -1.391169e+00 -2.064482e-01 -2.158847e+00 -6.628299e-03 
-7.854922e+00 -4.873738e-01 -1.506317e+00 2.459252e+00 2.282470e+00 -7.861795e-01 7.394279e+00 2.352183e+00 9.814625e-01 1.484568e+00 -3.574388e+00 4.552181e+00 -5.568707e-02 -3.015749e-01 -1.075119e-01 -4.013601e-01 -1.182240e+00 -1.537855e+00 -1.168797e+00 -1.421099e+00 -7.685769e-01 -1.235981e+00 -9.370661e-01 -7.097281e-01 -1.182484e+00 5.428910e-03 
-7.183674e+00 8.243053e-01 -2.005789e+00 1.311505e+00 -3.506327e-02 1.356778e+00 1.110356e+01 4.749868e+00 6.275048e+00 1.804506e+00 -5.107551e+00 1.921718e+00 -2.513492e-02 1.739395e-01 3.825841e-01 9.815888e-02 -8.428402e-01 -2.165698e-01 1.256834e-01 -1.218343e+00 -1.895873e+00 -1.366053e+00 -6.066818e-01 1.455435e-01 -7.270598e-01 -4.690147e-03 
-7.667317e+00 -8.226964e-01 -2.611623e-01 -1.220762e+00 2.322355e+00 -9.871619e-01 2.000746e+00 1.954296e+00 1.170698e+00 -4.956150e-01 -5.594153e+00 8.540530e+00 -4.925883e-02 3.146009e-01 2.077942e-01 6.058955e-02 1.133838e-02 3.579856e-01 3.813920e-02 -4.965630e-01 -1.772330e+00 -1.698721e+00 -3.318844e-01 8.473414e-01 9.385084e-01 -2.955973e-03 
-7.161132e+00 5.406501e-01 -5.307903e-01 1.563264e+00 4.384339e+00 1.760855e+00 7.428901e+00 -2.988245e+00 -2.368979e+00 -5.590072e-01 4.357333e-01 6.755139e+00 -8.110332e-02 3.920282e-01 -2.620125e-01 -4.782033e-01 6.058545e-01 1.285409e+00 1.305225e-01 -7.942786e-01 -9.178320e-01 -1.161852e+00 -2.131043e-01 -3.196776e-02 5.780989e-01 -6.979943e-04 
-6.293189e+00 6.934249e-01 -1.940869e+00 2.390064e+00 1.862696e+00 -7.975221e-01 6.748793e+00 -2.640410e+00 -3.190130e+00 1.006902e+00 -2.109323e+00 6.828012e+00 -4.248273e-02 6.330336e-01 -1.007240e-01 -1.048313e+00 1.489678e+00 6.474167e-01 1.335877e+00 5.045041e-01 9.298832e-01 9.261112e-02 2.148318e-02 -4.185586e-01 -6.237006e-02 1.940397e-02 
-5.910597e+00 -1.243818e+00 -3.556952e+00 2.535364e+00 6.621811e+00 1.914571e+00 4.758141e+00 2.458061e+00 2.646204e+00 -1.227379e-02 -7.009805e+00 5.668471e+00 -3.201294e-02 5.233203e-01 -3.076973e-01 -8.966482e-01 1.170815e+00 2.690733e-01 1.412191e+00 -4.030654e-01 2.025857e+00 5.306574e-01 -1.873585e-01 -1.065467e+00 5.977751e-01 2.743369e-02 
-5.127417e+00 -4.340825e-01 -3.989644e+00 5.741580e+00 4.440702e+00 5.615368e+00 5.858646e+00 3.880558e+00 -8.738384e-01 -6.615658e-01 -3.964177e+00 8.772014e+00 2.321583e-02 3.114725e-01 -1.445279e-01 -4.530242e-01 9.909245e-01 2.974904e-01 1.652658e+00 -6.797867e-02 1.446443e+00 1.112540e-01 -3.986228e-01 -6.640790e-02 6.991545e-01 1.866259e-02 
