-2.334900e-01 3.322172e+00 3.174397e+00 1.669568e+00 6.543664e+00 9.067625e+00 4.633311e+00 -3.121314e+00 -2.437816e+00 3.838923e+00 5.628211e-01 1.173630e+00 -1.150311e-01 -2.677882e-01 3.964342e-01 8.416012e-01 -9.592297e-02 -4.877666e-01 -1.346750e+00 -6.325504e-01 1.703205e+00 6.758568e-02 -1.676143e+00 -8.606625e-01 6.350054e-02 2.527177e-03 
1.026468e-01 4.369077e+00 5.410007e+00 3.207288e+00 7.488111e+00 6.148904e+00 1.069589e+00 -6.973002e-01 -4.782017e+00 -6.846769e-01 -2.972476e+00 -7.053196e-01 -1.260371e-01 -3.025106e-01 4.267337e-01 8.144048e-01 -1.806752e-01 -1.199797e+00 -1.672299e+00 -1.021698e+00 9.664719e-01 6.775136e-01 -1.840805e+00 -1.071017e+00 7.864500e-01 4.505038e-03 
-1.740499e+00 4.780891e+00 6.264598e+00 4.210929e-01 3.632608e+00 3.793234e+00 3.252420e+00 4.182704e+00 -9.277868e-01 -2.279992e+00 -1.972843e+00 2.430608e+00 -9.689224e-02 -1.060285e-01 5.896533e-02 -3.814631e-01 -6.984668e-01 -1.360076e+00 -1.051773e+00 -9.997994e-01 -2.772214e-01 1.949597e+00 8.230662e-01 -5.426830e-02 2.517998e-01 2.046490e-03 
-9.925385e-01 4.726482e+00 5.701322e+00 1.390429e+00 2.000208e+00 3.343325e+00 2.152674e-01 -1.940964e+00 1.947377e-01 -2.305644e+00 -3.524430e+00 4.477391e+00 -1.015754e-01 7.047367e-02 -1.357681e-01 -9.756754e-01 -6.676868e-01 -8.922466e-01 -5.402363e-02 4.271674e-02 -7.084788e-01 9.748096e-01 1.691392e+00 7.081530e-02 -1.287267e-01 1.185870e-03 
-2.160397e-01 3.438297e+00 1.121425e+00 -9.143367e-01 2.487234e+00 5.211552e+00 6.147504e-02 -3.885590e+00 4.821791e+00 8.764737e+00 5.674567e-01 -1.587265e-01 -1.170295e-01 1.840853e-01 -5.158715e-01 -1.189404e+00 1.671589e-01 3.008753e-01 5.535679e-01 3.495341e-01 -5.571289e-01 -4.155710e-01 1.228338e+00 4.095831e-01 -1.530501e-01 -4.935920e-03 
-3.072147e-01 4.361534e+00 3.103217e+00 5.365686e-01 3.599565e+00 5.169627e+00 2.878646e+00 -2.055475e-01 -2.782757e+00 2.249918e+00 -3.888549e+00 -5.428585e-02 -1.100391e-01 -1.368002e-01 -5.302504e-01 -5.589873e-01 5.531636e-01 1.838847e+00 4.701008e-01 1.595412e+00 8.843123e-01 -7.986981e-01 8.275297e-01 1.524708e+00 2.020839e-01 -1.218057e-03 
-1.162735e+00 2.384007e+00 1.616630e+00 1.683818e+00 4.337306e+00 5.647923e+00 3.668401e+00 5.293516e-01 -1.516894e+00 1.583919e+00 2.571323e-01 3.931196e+00 -1.173400e-01 -2.724899e-01 -3.256053e-01 6.023962e-01 7.735578e-01 1.490243e+00 4.735523e-01 1.529289e+00 1.904368e+00 -4.045406e-01 -1.206882e+00 4.493924e-01 3.927564e-01 3.145885e-03 
-1.203192e+00 2.602375e+00 2.658783e+00 2.857170e+00 1.026941e+01 5.475643e+00 6.388866e+00 2.731272e-01 -6.294103e-01 5.422413e+00 4.254272e+00 3.442850e+00 -1.075104e-01 -3.904201e-01 -6.387199e-01 3.796311e-01 4.439442e-01 1.188828e+00 7.696962e-01 3.530141e-01 6.086314e-01 1.705543e+00 7.588592e-01 1.932614e+00 1.261141e+00 2.809048e-04 
-1.130501e+00 2.689850e+00 4.355623e+00 1.793152e+00 6.603527e+00 7.426305e+00 5.952810e+00 5.396915e+00 1.722414e+00 1.144078e+00 -1.256991e+00 5.648750e-02 -1.025645e-01 -3.357374e-01 -3.708422e-01 3.367178e-01 9.760042e-02 3.487496e-01 9.579046e-01 6.759278e-01 9.259827e-01 7.667367e-01 4.965023e-01 -1.672564e-01 -4.555049e-02 -5.188823e-04 
-2.275433e+00 1.015013e+00 3.631876e+00 2.701623e+00 8.410593e+00 8.128917e+00 3.501512e+00 4.038278e-01 4.125302e+00 6.264134e+00 6.531582e+00 8.188773e+00 -1.160223e-01 -6.121643e-01 -5.200901e-01 -1.287024e-01 3.192148e-02 8.790596e-02 7.103641e-01 9.322668e-01 1.045316e+00 2.425916e-01 3.678014e-01 -8.268387e-01 -1.846470e-01 5.202770e-04 
-2.305302e+00 1.323477e+00 2.813673e+00 2.249593e+00 7.010462e+00 9.110809e+00 8.491718e+00 5.093915e+00 -6.056738e-02 3.645570e+00 -1.717805e+00 1.330482e+00 -1.156784e-01 -5.491654e-01 -4.383515e-01 -9.505624e-03 5.499859e-02 4.649415e-01 4.216554e-01 9.371530e-01 7.173235e-01 -6.727032e-02 -2.606361e-01 -9.995225e-01 -3.805303e-01 -2.441013e-03 
-3.676613e+00 6.851107e-01 2.786246e+00 2.788557e+00 1.050547e+01 8.185211e+00 9.780746e+00 5.651205e+00 1.475038e+00 6.010674e+00 3.504851e-01 1.882618e+00 -9.835207e-02 -1.764463e-01 4.076486e-01 -3.442199e-02 -7.478786e-01 -2.357806e-01 -5.214021e-01 3.239327e-01 7.521392e-01 -3.788442e-01 -1.602778e+00 -1.055023e+00 -1.274529e+00 6.292343e-04 
-3.175737e+00 6.630441e-01 4.730910e+00 2.024678e+00 7.880796e+00 9.506435e+00 7.498958e+00 6.359844e+00 2.711194e+00 -3.237264e-02 -3.164055e+00 1.306914e+00 -1.236047e-01 1.594746e-01 2.081411e-01 1.819152e-02 -1.095695e+00 -5.023909e-01 -9.318210e-01 -1.270541e+00 -1.148549e+00 -4.432477e-01 -6.850834e-02 9.357551e-01 1.098917e+00 -2.866316e-03 
-2.722446e+00 3.383472e+00 2.501147e+00 -9.253121e-01 6.796523e+00 5.324093e+00 5.617555e+00 3.531559e+00 8.452008e-01 8.921309e-02 1.979593e+00 1.827914e+00 -1.089131e-01 2.193567e-01 -2.220581e-02 6.252535e-02 -5.303214e-01 -1.378723e+00 -8.835424e-01 -1.790029e+00 -1.197475e+00 -2.992340e-01 7.412346e-01 3.888567e-01 7.604281e-01 -4.418445e-03 
-1.985012e+00 1.015002e+00 3.047180e+00 -1.371945e+00 6.352981e+00 5.882263e+00 4.220611e+00 4.109942e-01 -1.961887e+00 6.263759e+00 2.146416e+00 6.852421e+00 -1.247295e-01 3.414423e-01 2.291075e-01 4.452310e-01 6.295853e-01 -1.501404e+00 -6.058655e-01 -1.450985e+00 -1.014335e+00 7.578257e-01 1.291299e+00 1.222637e-01 -2.826037e-01 1.287901e-03 
-3.175192e+00 3.981028e-01 3.940738e+00 1.835261e+00 4.375765e+00 5.579586e+00 2.469775e+00 2.638254e+00 2.315409e+00 6.568781e+00 -3.604672e-01 2.912005e+00 -1.198819e-01 2.297726e-01 -4.113185e-02 1.720165e-01 5.999986e-01 -1.361003e+00 7.973818e-01 -1.877379e-01 1.540263e-01 1.318669e+00 2.785974e-02 -1.463815e+00 -1.142381e+00 -1.285374e-03 
-1.242153e+00 3.301266e+00 6.237269e+00 3.792317e+00 1.584154e+00 6.349361e+00 1.817922e+00 1.734822e+00 5.765219e+00 3.184337e+00 -1.382707e+00 -6.481504e-01 -1.116807e-01 8.126469e-01 5.544570e-01 -5.305644e-01 -7.666459e-01 -2.222396e+00 -1.988274e-01 8.533826e-02 9.488335e-01 4.482302e-01 -2.681422e-02 -7.673119e-01 -1.392561e+00 4.140926e-03 
-1.945013e+00 2.034680e+00 1.766185e+00 -5.074504e-01 2.375920e+00 9.077454e+00 5.880210e+00 3.639777e+00 3.574991e+00 1.768223e+00 -3.574921e+00 -1.337066e-01 -1.218643e-01 2.025813e+00 -7.681572e-01 -2.832727e+00 -2.902602e+00 -1.880008e+00 -1.515860e+00 -5.800928e-01 2.690466e-01 -1.906179e+00 -3.053129e-01 2.940208e-01 6.227382e-01 1.736344e-02 
1.463133e+00 2.968998e+00 1.481634e+00 -4.033819e+00 -3.759078e+00 3.139192e+00 2.942085e+00 4.654399e+00 -3.505275e-01 8.529966e+00 -8.291602e-02 1.412471e+00 -1.030337e-01 1.340282e+00 -2.005603e+00 -3.126067e+00 -3.730130e+00 -1.050186e+00 -3.004454e+00 -3.340634e-01 -1.067870e+00 -2.376734e+00 -9.695438e-01 7.052434e-01 1.875872e+00 6.722023e-02 
5.601232e+00 -3.276549e+00 -7.845081e+00 -8.764681e+00 -2.352658e+00 -3.946300e-01 -9.927704e-01 2.523698e+00 -4.157612e+00 2.369402e+00 4.597416e-01 4.995385e+00 -3.738821e-02 1.588156e-01 -1.812472e+00 -1.977271e+00 -2.157469e+00 -2.651598e-01 -3.742259e+00 -4.488602e-01 -2.025344e+00 -8.383020e-01 -1.347893e+00 9.344127e-02 4.771986e-01 1.201495e-01 
1.686134e+00 -4.071136e+00 -4.587431e+00 -1.072972e+01 -1.302486e+00 -3.936868e+00 3.584095e+00 -3.046489e+00 -2.252152e+00 -1.963972e+00 1.261790e-01 6.166665e+00 1.821824e-01 -1.750320e+00 -6.752509e-01 -8.367410e-01 1.201806e-01 1.896103e+00 -1.902362e+00 -5.340170e-01 -2.639078e+00 -5.467888e-01 -1.164838e+00 1.366156e-01 -7.791191e-01 1.541048e-01 
-1.262436e+00 -3.507611e+00 -5.085639e+00 -7.946847e+00 -1.781750e-01 -6.095814e+00 3.314903e+00 -2.636499e+00 3.342943e-01 2.757252e-01 -3.212262e+00 -1.248107e-01 3.362752e-01 -2.558324e+00 7.721069e-01 7.204849e-01 1.477533e+00 2.492122e+00 2.807243e-01 -3.039769e-01 -2.158766e+00 -1.130914e-01 -1.264653e-01 7.009695e-02 -1.943266e+00 1.412223e-01 
-3.856632e+00 -2.917258e-01 -4.081791e+00 -3.841833e+00 4.634192e+00 -3.522027e+00 -1.881838e+00 -5.960892e+00 -5.330425e+00 3.752617e+00 2.436164e+00 7.697292e-02 4.806588e-01 -2.301924e+00 7.984465e-01 -1.693534e-01 1.651122e+00 6.228464e-01 -3.090898e-01 -4.997637e-01 -3.033268e-01 1.426675e-02 5.675488e-01 5.624952e-01 -7.524243e-01 1.039679e-01 
-4.419006e+00 -1.305719e+00 -4.495476e+00 -4.820960e+00 7.139612e+00 8.015714e-01 2.203114e-01 -6.812932e+00 -3.183933e+00 -1.121219e+00 -3.447660e-01 -1.676098e+00 5.194851e-01 -2.432530e+00 2.337411e-01 -4.901899e-01 3.474713e-01 -5.096775e-01 -5.239145e-01 -8.215992e-01 1.134335e-01 5.330297e-01 -4.463820e-01 1.954134e-01 1.438129e+00 8.403657e-02 
-8.245201e+00 -1.179849e+00 -5.729280e+00 -4.037052e+00 -1.847147e+00 -8.931009e+00 2.632573e+00 -2.474907e+00 -4.217052e-01 1.572244e+00 1.504907e+00 3.180187e+00 6.104171e-01 -2.245918e+00 1.033898e+00 8.829956e-02 2.953124e-01 -1.514092e+00 -6.301434e-01 3.262488e-01 8.556749e-01 5.865294e-01 -1.117327e+00 -6.281587e-01 1.606569e+00 7.522024e-02 
-1.123080e+01 -1.894844e+00 -6.712844e+00 -6.111880e+00 5.141070e-01 -6.010895e+00 -3.050298e+00 -3.812324e+00 5.450828e-01 -8.659984e-01 -1.769567e+00 5.514227e+00 6.915789e-01 -2.152271e+00 2.327099e+00 -2.050738e-02 2.532644e-01 -9.442115e-01 -4.337339e-02 -7.587884e-02 2.522855e-01 -6.418628e-01 -1.194862e+00 -1.730040e-01 -7.904625e-02 8.333661e-02 
-1.168032e+01 5.172328e+00 -2.531610e+00 -1.719810e+00 3.764856e-01 -3.266511e+00 1.384711e+00 -3.182821e+00 -4.262285e+00 -1.961629e+00 7.770777e-03 4.514655e+00 7.707132e-01 -1.546403e+00 2.141657e+00 -1.315490e+00 -2.328825e-01 2.655948e-01 2.395976e+00 -8.045273e-02 -5.718749e-01 -2.249642e-01 -9.323406e-01 5.034063e-01 -7.308903e-01 8.277249e-02 
-1.346280e+01 7.153688e+00 -6.196848e+00 -4.713259e+00 1.306738e+00 -2.247545e+00 4.648480e-01 -5.197547e+00 -4.472956e+00 -5.328593e+00 -4.612176e-01 -2.738563e+00 8.560202e-01 -1.255002e+00 1.202680e+00 -1.274437e+00 2.374432e-01 3.462222e-01 2.450541e+00 4.535564e-01 5.568023e-01 2.031798e-01 5.302011e-01 4.129212e-01 -2.037223e+00 7.426307e-02 
-1.486122e+01 5.004169e+00 -1.256473e+01 -5.900776e+00 -9.154892e-01 1.167195e+00 4.727360e-01 -4.641670e+00 9.624932e-01 -8.581616e-01 3.367764e+00 3.652131e+00 9.420589e-01 -1.125722e+00 -6.732830e-01 -1.353677e+00 1.283147e-02 2.358130e-01 1.556009e+00 -4.833535e-02 1.712643e+00 7.490925e-02 6.813759e-01 -5.595818e-01 -2.027618e+00 5.797749e-02 
-1.591537e+01 4.202633e+00 -8.068472e+00 -2.834182e+00 2.891205e+00 4.024959e+00 -3.265281e-01 -2.988878e-01 -1.051407e+00 1.233274e+00 -1.384958e+00 -4.240624e+00 9.772213e-01 1.778679e-02 -7.517814e-01 1.329141e+00 1.076221e+00 4.429444e-01 1.894765e-01 4.047408e-01 3.083753e+00 -1.082343e+00 6.321412e-01 -1.485203e+00 -3.356237e-02 1.544943e-02 
-1.608265e+01 3.281441e+00 -8.364183e+00 -2.595191e+00 7.633169e-01 1.377283e+00 1.538722e+00 2.931066e+00 -5.598514e+00 -1.835683e+00 -2.328268e+00 -4.872406e+00 1.000000e+00 1.086045e+00 -6.183468e-01 1.936751e+00 2.186375e-01 9.701520e-02 -8.334633e-01 -1.843311e-01 1.681897e+00 -1.648469e+00 -2.938518e-02 -1.610173e+00 5.354804e-01 -2.370892e-02 
-1.276315e+01 4.256145e+00 -1.651416e+00 -9.849464e-01 2.682057e+00 -1.405206e+00 1.955559e+00 6.434852e+00 -6.604167e+00 -1.679126e+00 -5.039215e+00 1.355894e+00 9.042968e-01 1.552136e+00 -9.380461e-01 1.255781e+00 -4.532987e-01 -7.587179e-01 -1.371257e+00 -1.027414e+00 -7.543662e-01 -1.600015e+00 -3.568820e-01 3.031756e-01 1.537608e+00 -4.592467e-02 
-1.100710e+01 1.885679e+00 -6.089500e+00 -5.732206e+00 -3.258390e-01 -2.850385e-01 -1.589963e+00 4.009448e-01 -4.503470e+00 4.511124e-01 -2.855974e+00 3.531274e+00 8.599766e-01 1.439286e+00 -1.516974e+00 1.411986e+00 -8.225813e-01 -1.386975e+00 -1.432402e+00 -2.263003e+00 -2.464502e+00 -7.947708e-01 -8.413718e-01 5.305688e-01 5.853001e-01 -5.940615e-02 
-1.069246e+01 2.102840e-01 -2.926907e+00 -3.532168e+00 -3.578062e-01 -2.000163e+00 -3.899257e+00 -2.805658e+00 -9.599007e+00 -1.694535e+00 3.947732e-01 -7.544227e-01 8.176097e-01 1.760516e+00 -1.787473e+00 1.288770e+00 -1.046898e-01 -1.501824e+00 -8.959087e-01 -2.108972e+00 -3.168801e+00 -1.633311e-01 -8.095688e-01 8.344721e-01 -6.283929e-01 -7.148055e-02 
-9.921562e+00 -2.280500e+00 -6.665096e-01 -5.434487e+00 -4.651624e+00 -5.487247e+00 -6.848883e+00 -4.771187e+00 -8.074948e+00 -6.034838e+00 -2.392418e+00 -8.907475e-01 7.463128e-01 4.655651e+00 8.301954e-01 2.437390e+00 1.821287e+00 -1.294867e+00 -2.123949e+00 -2.280521e+00 -3.755676e+00 -2.627066e-01 -2.460562e+00 -2.649835e-01 -2.379416e+00 -9.310009e-02 
-4.503334e+00 -2.598131e+00 2.080941e+00 -1.657255e+00 -2.664170e+00 -3.283646e+00 -5.959841e+00 -6.823086e+00 -5.635084e+00 -2.483994e+00 -1.098632e+00 4.249399e-01 6.037259e-01 7.070879e+00 1.265714e+00 1.982301e+00 1.994588e+00 -2.217850e+00 -3.076441e+00 -3.468217e+00 -4.169327e+00 1.407383e+00 -2.434237e+00 1.587241e-01 -2.992173e+00 -3.919693e-02 
9.176591e+00 7.440864e+00 3.593524e+00 2.436769e+00 -5.646990e+00 -1.026304e+01 -1.196227e+01 -1.636872e+01 -7.798965e+00 -1.145697e+01 -3.434188e+00 -8.955487e+00 5.014180e-01 7.138610e+00 1.270498e-01 1.256809e+00 1.321635e+00 -3.181936e+00 -1.988330e+00 -3.498313e+00 -3.135885e+00 1.819314e+00 -1.721137e+00 2.060835e+00 -3.892194e+00 2.372445e-02 
1.511285e+01 1.678174e+00 4.854582e+00 2.505144e+00 -1.094937e+01 -1.499447e+01 -1.868365e+01 -1.785352e+01 -2.700086e+00 -1.115465e+01 1.709279e+00 -1.168292e+01 7.440724e-01 4.782132e+00 -1.744531e+00 6.453003e-01 4.045634e-01 -3.877048e+00 -8.033674e-01 -2.001324e+00 -6.602019e-01 3.021302e+00 -2.284919e+00 2.277988e+00 -3.687148e+00 5.894860e-02 
1.596339e+01 -3.783403e+00 4.230715e+00 -9.075118e-01 -1.641870e+01 -9.573483e+00 -1.797855e+01 -1.493539e+01 -4.458778e-01 -1.030519e+01 6.507801e+00 -1.429779e+01 7.947618e-01 1.333316e+00 -3.528823e+00 5.508901e-01 -8.422608e-01 -2.450324e+00 8.079599e-01 1.242181e+00 2.247672e+00 3.868516e+00 1.499863e-02 1.742065e+00 -1.977010e+00 5.455958e-02 
1.601393e+01 -5.708653e+00 4.988847e+00 2.037703e+00 -1.666356e+01 -7.645263e+00 -1.295833e+01 -1.084076e+01 5.794881e+00 -1.448448e+01 5.320315e+00 -1.533965e+01 7.517970e-01 2.079094e-01 -2.134589e+00 3.786526e-01 -1.012422e+00 -1.601867e+00 1.077843e+00 3.141121e+00 3.509980e+00 2.448884e+00 8.235812e-01 3.767919e-01 -1.631308e+00 1.006640e-02 
1.539264e+01 -6.509839e+00 6.280842e+00 -1.540815e+00 -1.504152e+01 -9.897848e+00 -8.614031e+00 -8.636745e+00 7.296135e+00 -9.717066e+00 3.470618e+00 -1.701217e+01 7.703536e-01 2.501917e-01 -8.804448e-01 6.769252e-02 -5.858278e-01 -9.862345e-01 -2.278179e-01 3.430794e+00 3.495810e+00 9.107233e-01 1.761290e+00 -1.660504e-01 -3.007079e-01 8.996082e-03 
1.643778e+01 -7.631554e+00 5.722782e+00 -2.240314e+00 -1.964730e+01 -9.443072e+00 -7.660301e+00 -3.452946e+00 5.673328e+00 -7.330810e+00 5.111830e+00 -1.848226e+01 8.066085e-01 4.508393e-01 -4.882862e-01 -6.548585e-01 -6.756422e-01 -6.311001e-01 -4.016294e-01 3.006273e+00 2.632469e+00 -2.045352e-01 1.845111e+00 -2.627098e-01 1.218960e+00 8.116561e-03 
1.700242e+01 -7.224177e+00 4.202210e+00 -1.697642e+00 -1.985800e+01 -9.813668e+00 -3.473588e+00 -1.150248e+00 4.168515e+00 -5.075576e+00 5.781792e+00 -1.423002e+01 8.123364e-01 3.491659e-01 -2.997887e-01 -7.653306e-01 1.818470e-01 -1.168289e-01 5.243333e-01 2.036954e+00 2.153494e+00 -7.155484e-01 8.369818e-02 -8.264300e-01 2.714774e+00 -1.369889e-02 
1.746323e+01 -7.792915e+00 2.753870e+00 -1.262094e+00 -1.741081e+01 -9.695499e+00 -4.971814e-01 -1.421665e+00 6.336015e+00 -7.579665e+00 2.851179e+00 -1.063593e+01 7.713884e-01 2.525169e-02 -1.995163e-01 -1.590003e-01 4.667616e-01 3.284929e-01 1.075498e+00 1.691348e+00 1.289317e+00 -1.315684e+00 1.320906e-01 -8.540655e-01 2.592520e+00 -3.182826e-02 
1.662574e+01 -7.928102e+00 3.938644e+00 -1.120690e+00 -1.674390e+01 -7.149968e+00 -2.010820e+00 1.115085e+00 3.387049e+00 -9.174148e+00 4.687936e-01 -7.361469e+00 7.194692e-01 -1.823412e-01 -3.413993e-01 3.722141e-01 2.001736e-01 3.959555e-01 1.100433e+00 3.386852e-01 6.109460e-01 -1.377545e+00 6.032472e-02 -2.616477e-01 1.915574e+00 -3.559593e-02 
1.675238e+01 -8.277173e+00 5.059563e+00 -1.949826e-01 -1.956188e+01 -5.397430e+00 6.505561e-02 1.860971e+00 -5.143595e-01 -4.621072e+00 3.498002e+00 -8.953938e+00 6.939008e-01 -5.076333e-01 -7.640735e-01 7.473627e-01 5.876588e-01 -1.009449e-01 1.350970e-01 -5.861491e-01 3.384882e-01 -2.244595e+00 9.110300e-01 3.121287e-01 2.220851e+00 -2.253549e-02 
1.644614e+01 -8.689045e+00 4.910434e+00 -1.230330e+00 -1.680269e+01 -6.460537e+00 -2.061281e+00 2.631642e-01 7.059758e-01 -6.253249e+00 4.150142e+00 -5.493143e+00 6.731006e-01 -6.924661e-01 -9.590701e-01 6.238409e-01 1.082562e+00 -3.895416e-01 -1.347390e+00 -5.367357e-01 3.179598e-01 -1.415103e+00 1.388042e+00 8.297547e-01 2.874764e+00 -2.015007e-02 
1.501486e+01 -1.123281e+01 6.004789e+00 1.731020e+00 -1.788615e+01 -9.364730e+00 -3.402697e+00 6.967365e-01 -3.546424e+00 -4.484964e+00 2.571148e+00 -4.658356e-01 6.818953e-01 -2.807579e+00 1.003963e+00 -7.093428e-01 2.087272e-01 -3.700600e-01 -2.087473e+00 -8.834926e-01 1.458156e+00 -9.930704e-02 2.040711e+00 1.605156e+00 4.736067e+00 -1.052908e-01 
1.403217e+01 -1.124563e+01 6.585236e+00 3.329117e+00 -1.952948e+01 -1.190327e+01 -2.960623e+00 3.287001e+00 -2.172431e+00 -2.301993e+00 5.080994e+00 2.768300e+00 6.247216e-01 -4.708468e+00 2.646608e+00 3.541174e-02 1.173371e+00 1.156460e+00 -5.122643e-01 8.233821e-01 2.149632e+00 8.602031e-01 3.486218e+00 2.593829e+00 5.056418e+00 -1.668156e-01 
3.921469e+00 -1.979063e+00 6.754482e-01 -1.431070e+00 -2.004879e+01 -1.311343e+01 -3.902737e+00 7.639832e+00 4.283087e-01 3.606857e+00 1.105836e+01 1.059568e+01 1.916364e-01 -4.765863e+00 3.171140e+00 1.511817e-01 2.396268e+00 3.650983e+00 1.128813e+00 1.446972e+00 2.461124e+00 -4.455044e-01 9.276439e-01 1.682846e+00 3.031862e+00 -1.644112e-01 
-1.549501e+00 -8.287728e-02 7.752163e+00 6.217571e+00 -9.939070e+00 -7.147508e+00 2.305650e+00 7.539777e+00 3.019625e+00 7.131929e+00 1.287568e+01 1.425819e+01 8.415204e-02 -3.307662e+00 2.191165e+00 -9.036770e-02 3.604187e+00 5.836612e+00 3.105828e+00 2.533602e+00 2.047205e+00 -3.431603e+00 -2.366126e+00 -8.140813e-01 1.341309e-01 -1.017179e-01 
-1.023621e+00 -9.584893e-01 6.177234e+00 1.226813e+01 -4.426435e+00 -6.098548e+00 1.199029e+00 1.087597e+01 -8.369973e+00 -4.563705e+00 7.088033e+00 8.948528e+00 1.301240e-01 -6.548996e-01 3.050461e-01 7.709382e-01 3.027922e+00 5.803771e+00 3.600130e+00 3.345956e+00 6.084048e-01 -4.087905e+00 -3.278918e+00 -2.248704e+00 -2.223926e+00 -3.852206e-02 
-3.359413e-02 -8.000940e-01 3.382505e+00 1.450045e+01 1.842406e+00 1.184273e-01 7.156506e+00 1.190496e+01 -1.493130e+01 -1.004734e+01 2.995749e+00 4.262528e+00 1.468883e-01 1.957396e-01 6.593065e-01 -1.071347e+00 -1.152443e+00 3.831038e+00 3.546141e+00 1.886908e+00 -7.559900e-01 -2.639623e-02 -6.302506e-01 -3.419458e+00 -3.355584e+00 -5.262054e-02 
-1.109829e-01 -9.522355e-02 6.714968e+00 9.567101e+00 3.079335e+00 1.254250e+00 1.040161e+01 8.499264e+00 -1.103575e+01 -4.198098e+00 4.754801e+00 4.473880e+00 -3.234208e-02 -2.399273e-02 1.473866e+00 -2.050677e-01 -3.284342e+00 2.181039e+00 4.284901e+00 1.387049e+00 -2.330193e+00 3.677579e+00 3.293379e+00 -2.394755e+00 -2.370637e+00 -6.903152e-02 
-1.027122e+00 2.782022e+00 2.126563e+00 1.805872e+00 5.463233e+00 6.906796e+00 7.138898e+00 4.948179e+00 4.220533e+00 3.797873e+00 -3.054991e+00 -2.823997e-01 -9.771764e-02 -3.459620e-01 1.106825e+00 2.816342e-01 -3.173391e+00 1.078979e+00 2.198521e+00 -5.856485e-01 -1.668793e+00 4.876432e+00 4.239966e+00 -1.362778e+00 -8.363590e-01 -5.990027e-02 
-6.468201e-01 4.619783e+00 5.779867e+00 2.193711e+00 4.668346e+00 1.193177e+01 8.143078e+00 2.703394e+00 4.420004e-01 4.980584e+00 -1.860375e+00 -6.321945e-01 -9.273064e-02 -3.706141e-01 3.144483e-01 -2.431997e-01 -1.136515e+00 8.945541e-01 8.845037e-01 -9.692339e-01 -3.159841e-01 3.733275e+00 2.025270e+00 -7.473245e-01 -1.192604e-01 -2.001831e-02 
-1.495485e+00 2.376525e+00 5.258226e+00 2.320189e+00 6.442795e+00 5.772272e+00 5.357531e+00 6.458930e+00 3.711981e+00 6.563148e+00 -5.105515e-01 2.633771e+00 -1.224188e-01 -4.265310e-01 -6.974851e-01 7.294600e-02 9.559393e-01 8.761219e-01 -1.327309e+00 -1.305794e+00 5.071511e-02 9.065914e-01 -6.533036e-01 -6.809883e-02 2.560025e-01 -5.585206e-03 
-1.729872e+00 1.679767e+00 3.933138e+00 3.627368e+00 7.062325e+00 6.244030e+00 6.446127e+00 6.163968e+00 7.884898e+00 4.545616e+00 -2.540408e-01 2.419493e+00 -1.200831e-01 1.791981e+00 -3.097950e+00 -3.043912e+00 6.062738e-01 -3.624559e-01 -2.868445e+00 -3.036808e+00 -1.730749e+00 6.152086e-02 -1.509997e+00 -1.215359e+00 -9.695244e-03 6.135987e-02 
-2.618252e+00 7.646051e-01 3.414657e+00 5.868740e+00 8.646853e+00 3.114120e+00 1.458402e+00 3.471467e+00 5.032042e+00 7.488382e-01 -4.198652e+00 -5.282311e-01 -1.119674e-01 3.287497e+00 -3.849807e+00 -4.188033e+00 4.305485e-01 -1.712758e+00 -2.276482e+00 -3.754822e+00 -3.407975e+00 -1.111934e+00 -1.644942e+00 -1.750182e+00 -4.576600e-01 1.666740e-01 
8.874466e+00 -1.006401e+01 -8.517908e+00 3.450804e+00 1.754038e+00 -1.081378e+00 -5.091401e+00 -4.456619e+00 8.957434e-02 3.377533e-01 -6.093118e+00 9.003304e-01 2.088431e-01 3.433639e+00 -3.068699e+00 -3.928052e+00 -2.578358e-01 -2.116694e+00 -2.278299e+00 -3.926387e+00 -3.123551e+00 -1.368528e+00 -8.900571e-01 -1.104647e+00 -5.078465e-01 1.834662e-01 
9.639832e+00 -1.100062e+01 -9.456415e+00 4.561213e+00 5.331488e-01 -1.947433e+00 -7.647816e+00 -5.270651e+00 2.049974e+00 4.423677e-01 -6.341921e+00 1.105053e+00 5.464884e-01 1.984777e-01 -9.444271e-01 -1.275450e+00 -1.363030e-02 -1.124178e+00 -2.458065e+00 -1.461547e+00 -1.433457e+00 6.100177e-01 -1.826094e-02 4.530214e-01 8.289521e-01 1.537438e-01 
9.309282e+00 -7.781116e+00 -9.271587e+00 2.991953e+00 5.357065e-01 -2.616689e+00 -8.632698e+00 -5.082729e+00 2.533293e+00 2.485663e-01 -4.705643e+00 -9.363815e-01 4.680198e-01 -4.458381e+00 1.509013e+00 1.744617e+00 -3.067400e-01 7.845156e-02 -1.506948e+00 9.642513e-01 1.324592e+00 1.999972e+00 -5.702608e-01 1.266699e+00 -8.792090e-03 8.707768e-02 
-1.843271e+00 -5.098977e+00 -2.585755e+00 6.030015e+00 3.635128e+00 -8.408547e+00 -4.078684e+00 -3.382760e+00 6.860271e+00 7.021271e-01 -2.627282e+00 4.534885e+00 5.271634e-01 -5.369747e+00 1.271467e+00 1.364885e+00 -1.416621e+00 -3.083055e-01 -7.752835e-01 2.571649e+00 1.504131e+00 9.996608e-01 -9.245942e-01 1.176754e+00 3.034508e-01 4.572356e-02 
-7.675886e+00 -5.469768e+00 -3.230152e+00 1.182703e+00 5.953057e-01 -5.385562e+00 -2.054710e+00 1.222395e+00 7.684287e+00 -2.643430e+00 -1.616939e+00 -8.585466e-01 6.538939e-01 -4.437518e+00 1.420900e+00 2.905411e-01 -1.348249e+00 -1.380953e+00 -1.322117e-02 1.984430e+00 -4.786676e-01 -3.079634e-02 -2.915206e-01 5.822893e-01 5.006782e-01 7.168160e-02 
-8.716318e+00 -5.798960e+00 -5.652709e+00 -1.617266e+00 -1.038178e+00 -4.439414e+00 1.921435e+00 -9.025593e-01 4.472781e+00 -2.734605e+00 -2.002502e+00 2.583389e+00 6.821691e-01 -1.776763e+00 1.908167e+00 -6.878336e-01 -8.057915e-01 -1.644701e+00 1.162298e+00 7.511122e-01 -9.776831e-01 -1.186173e+00 -1.438761e+00 -9.659952e-01 -5.026351e-01 5.429431e-02 
-9.441782e+00 -3.266228e-01 -6.285405e+00 7.434964e-02 -4.032407e+00 -4.667361e+00 -1.710609e+00 -8.716167e+00 3.573056e+00 5.093295e-01 -2.106587e+00 2.542758e+00 7.489250e-01 -7.588627e-01 2.527359e+00 -3.274423e-01 6.401356e-01 -3.847047e-01 2.128722e+00 8.312416e-01 -7.547498e-01 -1.196828e+00 -1.581714e+00 -3.964479e-01 -4.753066e-01 2.276632e-02 
-9.844137e+00 1.870287e+00 -4.497297e+00 2.555234e+00 -2.274521e+00 -2.956157e+00 -4.951739e-01 -3.301894e+00 2.985019e+00 -8.068056e+00 -7.212435e+00 3.210580e-01 7.511194e-01 -6.239433e-01 1.760777e+00 3.225906e-01 4.218507e-01 -3.863622e-01 1.903975e+00 4.139928e-01 4.620293e-01 -7.922378e-01 -1.356230e+00 5.075058e-01 -1.849004e+00 -3.194535e-03 
-1.090629e+01 3.332407e+00 -5.445069e+00 2.297132e+00 -7.100468e-01 4.516420e+00 3.309803e+00 -1.351687e+00 2.444029e+00 -7.885276e+00 -9.942126e-01 -2.103914e+00 7.332504e-01 -4.689396e-01 3.945438e-01 -6.416911e-01 -2.878217e-01 6.012934e-01 1.277498e+00 4.756075e-01 1.149644e+00 -1.048781e+00 -1.657503e+00 1.583605e+00 -8.026112e-01 -1.428818e-02 
-1.110378e+01 1.175410e+00 -4.459923e+00 -6.194033e-01 -4.631169e+00 4.885683e-01 1.481193e+00 -2.274653e+00 1.076106e+00 -5.318455e+00 -2.116036e-02 -4.338294e+00 6.740338e-01 -4.108980e-01 -4.013907e-01 -1.103832e+00 -4.699991e-01 6.646407e-01 -1.827227e-01 -1.079141e+00 -3.127896e-01 -1.115341e+00 1.231324e+00 3.189794e+00 7.874571e-01 -1.569837e-02 
-1.115666e+01 1.993535e+00 -9.512547e+00 2.225602e-01 1.523848e-01 -2.233982e-03 -3.207550e-01 -3.481568e+00 -7.163906e-01 -9.152988e+00 2.215800e+00 8.593779e-01 7.160269e-01 -3.034046e-01 -2.969536e-01 -2.989748e-01 -6.393079e-01 5.804509e-01 -1.503292e+00 -1.962569e+00 -2.687248e-01 -1.071722e+00 1.607105e+00 1.655343e+00 1.596913e+00 -2.928692e-03 
-1.177344e+01 5.327695e-01 -7.982718e+00 1.242524e+00 6.174669e-01 -1.610444e+00 -4.075601e+00 -3.800902e+00 -1.011476e+00 -1.277579e+00 7.131531e+00 2.776698e+00 6.812393e-01 -8.353691e-02 8.209778e-02 5.604572e-02 -3.761936e-01 1.129567e+00 -2.453372e-01 -6.697955e-01 1.183240e+00 -9.713894e-01 2.005330e+00 2.008279e+00 8.921694e-01 1.120698e-02 
-1.208848e+01 2.168959e+00 -5.178545e+00 -1.830372e+00 -4.321103e-01 -1.950534e+00 -3.724645e+00 -1.932187e+00 -1.870793e+00 -1.870190e+00 3.706158e+00 2.323157e+00 7.150041e-01 1.105944e-01 -3.073999e-01 9.207966e-01 -1.020464e+00 -4.910691e-01 -7.052153e-01 -2.207780e-01 1.756713e+00 -3.441430e-01 2.429705e+00 9.326726e-01 4.160624e-01 6.879866e-03 
-1.105555e+01 1.498187e+00 -6.346695e+00 -1.473905e+00 1.308913e+00 2.360320e-01 -1.658394e-01 2.866856e+00 -3.203640e+00 1.066794e+00 9.275054e+00 -6.093361e-01 7.305800e-01 5.317810e-01 -4.904049e-01 -3.006048e-02 -1.612918e+00 -1.400471e-02 -1.384290e+00 1.009630e+00 9.388291e-01 1.783976e-01 8.993724e-01 -1.243692e-01 8.570622e-01 1.116896e-02 
-1.096263e+01 -2.617371e-02 -5.726575e+00 -3.521543e+00 -2.648684e+00 -4.451549e+00 -3.379526e+00 1.968120e+00 -1.341023e+00 1.823352e+00 5.807402e+00 4.632707e+00 7.257559e-01 9.932968e-01 -1.050308e+00 6.555729e-01 -8.367487e-01 1.398275e-01 -1.168710e+00 1.012999e+00 -9.011283e-02 -9.844017e-01 2.677277e-01 -5.568439e-01 1.335592e+00 -9.298360e-03 
-9.677464e+00 -8.216885e-01 -7.859005e+00 -5.976480e+00 1.655730e+00 -7.281386e+00 7.999921e-01 -1.056910e+00 -3.843720e-01 1.372512e+00 5.459064e+00 5.907233e+00 7.317082e-01 1.979910e+00 -8.100082e-01 1.941676e+00 1.524257e-01 -4.484924e-01 -1.658189e+00 3.691886e-01 -8.508234e-01 1.563668e-02 -1.051556e+00 -2.619122e+00 -4.416925e-01 -2.726465e-02 
-7.811043e+00 -1.922644e+00 -1.144526e+00 -3.762828e+00 9.361887e-02 -4.035374e+00 8.574321e-01 -4.208683e-01 -8.202435e+00 -6.844100e-01 2.829934e+00 5.742832e+00 6.679482e-01 2.328929e+00 -7.066694e-01 2.178454e+00 1.136430e+00 5.713528e-01 -5.635343e-01 1.246705e+00 -5.835102e-02 6.453675e-01 1.252311e-01 -2.169900e+00 -2.039755e+00 -5.357109e-02 
-2.731800e+00 -1.603619e+00 1.070658e+00 -5.911342e-01 -2.304700e+00 -8.263002e+00 -4.383750e-01 -1.927673e-01 3.052492e-01 -2.937104e+00 -2.331824e+00 -3.372861e+00 6.231606e-01 2.149204e+00 -1.715324e+00 5.508131e-01 9.258038e-01 3.696602e-01 2.818150e-01 -9.882031e-02 3.229867e-01 1.143540e+00 6.157565e-02 -2.390309e+00 -1.709558e+00 -7.475878e-02 
-2.790817e+00 -3.168556e+00 7.008638e-01 -5.320662e-01 2.188295e+00 -6.778412e+00 3.473184e+00 1.244293e+00 1.541003e+00 4.604315e+00 -1.146658e+00 -9.260221e-01 5.121742e-01 2.523797e+00 -1.565310e+00 -1.426733e+00 1.014972e-03 1.185519e+00 5.267077e-02 -2.677754e-01 3.035532e-01 2.008137e+00 2.726061e-01 -2.187042e+00 -3.170775e-01 -8.472472e-02 
-1.441555e+00 -8.775354e+00 -6.027635e+00 -2.962842e+00 2.456693e+00 -4.500793e+00 -1.001985e+00 -2.745574e-01 4.616063e-01 -9.639723e-01 -4.504186e+00 6.938730e-01 4.358013e-01 2.633974e+00 -8.196867e-01 -8.331126e-01 -1.186771e+00 5.282540e-01 1.143150e+00 -1.063364e+00 1.414909e+00 3.658441e-01 -1.469372e+00 -1.596019e+00 7.609142e-01 -9.443977e-02 
4.162817e+00 -6.163329e+00 -4.729045e+00 -2.571899e+00 3.640519e+00 -5.653125e+00 -1.996396e-01 1.137792e+00 1.760070e+00 -3.079451e-01 -7.019093e+00 2.124078e+00 3.380043e-01 3.391155e+00 2.926411e-01 4.851317e-02 -8.238937e-01 -1.248305e+00 2.521166e-01 -2.704753e+00 1.323266e+00 5.282623e-01 -1.521001e+00 -7.303091e-01 -3.329378e-01 -9.631284e-02 
6.961253e+00 -4.204666e+00 -3.799505e-01 -5.505071e+00 -3.895421e-01 -3.109898e+00 -3.918784e+00 6.935028e+00 2.024936e+00 -7.827836e+00 -7.375699e+00 -1.093340e+00 2.380467e-01 2.627664e+00 1.351875e+00 1.122675e+00 5.512939e-02 -2.394093e+00 1.567185e-01 -1.618025e+00 1.576003e+00 6.560374e-01 -6.071683e-01 -3.493269e-01 -1.785991e+00 -9.759329e-02 
9.963555e+00 -3.990695e+00 -1.880413e+00 -3.380421e+00 -2.630114e+00 -6.213276e+00 -8.592184e+00 4.255831e+00 3.400650e+00 4.312413e-01 -3.362447e+00 -1.697104e+00 1.294873e-01 9.523528e-01 8.552387e-01 4.022116e-01 9.663229e-01 -7.357956e-01 1.063104e+00 -7.162442e-01 3.069049e-01 8.624390e-01 -2.650682e-01 4.584358e-01 -1.334925e+00 -7.977271e-02 
8.796397e+00 -3.102295e+00 -1.838576e+00 -2.282935e+00 -6.378456e+00 -3.437124e+00 -4.895837e+00 6.046439e+00 2.921503e+00 -4.369407e+00 -8.079144e+00 -6.325492e+00 5.209333e-02 -2.411513e-02 1.044160e+00 -6.371030e-01 1.757115e+00 1.585995e+00 3.605753e-01 -6.741422e-01 -1.215794e+00 1.435114e+00 1.160723e+00 4.203421e-01 -4.881020e-01 -6.111792e-02 
8.007010e+00 -2.438321e+00 -1.988675e+00 6.486478e-01 2.955998e+00 -1.739936e-01 -3.292334e+00 3.116612e+00 5.623981e+00 -3.362501e+00 -4.375191e+00 -1.934471e+00 3.211743e-02 -8.517197e-01 1.175458e+00 -3.818700e-01 1.501075e+00 3.119967e+00 7.477478e-01 1.472102e-01 -7.164189e-01 9.934433e-01 6.487648e-01 5.807658e-01 6.836751e-01 -4.165661e-02 
7.818951e+00 2.399474e-01 -3.511334e+00 1.265972e+00 4.747377e+00 -4.326663e+00 -9.939421e+00 1.425667e+00 8.088840e+00 -1.273494e-01 -4.767616e+00 -3.415167e+00 -1.885796e-02 -6.685709e-01 1.410757e+00 -1.302784e-01 5.488664e-01 3.165672e+00 1.667493e+00 2.298529e-01 -1.265692e+00 -2.055343e-01 2.075649e+00 5.304986e-01 1.009819e+00 -2.714589e-02 
6.193680e+00 2.154738e-01 -2.953383e+00 2.350498e+00 7.406802e+00 -2.029768e+00 -5.334341e+00 2.984122e+00 5.784198e+00 1.554037e+00 -2.114381e+00 2.661086e-01 -4.332006e-02 -6.119421e-01 1.516795e+00 3.015780e-02 -6.660730e-01 4.877523e-01 1.494452e+00 9.259443e-01 -5.176858e-01 -1.195771e+00 2.303017e+00 -3.729293e-02 -3.540673e-01 -2.394457e-02 
6.360208e+00 2.624592e+00 -2.007614e+00 -3.895285e-01 7.224503e+00 5.828230e+00 -2.725569e+00 -2.157745e-01 1.813724e+00 3.550571e+00 -6.557055e+00 -2.376685e+00 -4.591739e-02 -8.413069e-01 1.013722e+00 9.693122e-02 -7.688247e-01 -5.606347e-01 1.882856e+00 9.642385e-01 1.264093e-02 -7.943239e-02 2.551086e+00 6.457869e-01 -1.146537e-01 -8.113230e-03 
5.676670e+00 3.953330e+00 -2.589746e+00 -1.853966e+00 4.156197e+00 2.220821e+00 -2.269538e+00 1.348904e+00 2.782684e+00 6.313626e+00 -3.666936e+00 -4.224049e+00 -7.407570e-02 -5.052587e-01 9.134763e-01 1.478504e-01 -1.034839e+00 -5.642027e-01 1.189030e+00 7.585403e-01 -9.335383e-01 2.174920e-01 1.766301e+00 6.776949e-01 -4.949705e-02 -1.046839e-02 
3.870921e+00 3.439628e+00 -3.208497e+00 -4.759190e-01 3.569506e+00 2.962320e+00 -6.650630e+00 2.306481e+00 9.192435e+00 1.024829e+01 -7.624042e-01 -1.743357e+00 -4.404628e-02 -4.764759e-01 8.013246e-02 2.510516e-01 -4.320218e-01 -7.362830e-01 -2.306466e-01 1.483660e-01 -1.327919e+00 -1.312763e-01 4.960345e-01 1.480907e+00 5.978916e-01 -1.198367e-02 
4.912029e+00 4.375338e+00 -1.613690e+00 -2.780499e+00 6.413287e+00 5.348336e+00 4.208909e-01 -2.944697e+00 3.182302e+00 7.036684e+00 -1.623232e+00 -2.980406e-01 -9.659755e-02 -5.895845e-01 -9.829046e-02 5.976567e-01 -7.539968e-01 -1.367460e+00 -4.674531e-01 4.680171e-01 -8.652546e-01 -1.681269e+00 -9.918667e-01 2.343757e-01 5.199258e-02 -1.115251e-02 
4.360148e+00 2.814251e+00 -1.240384e+00 -2.086371e+00 2.414542e+00 3.111239e+00 -3.328953e+00 -4.708570e+00 9.575336e-01 5.669215e+00 -1.743699e-01 -1.350231e+00 -9.457481e-02 -6.295459e-01 -1.849778e-01 9.341817e-01 -2.123793e-01 -1.033685e+00 -3.577379e-01 1.372806e+00 4.557032e-01 -2.373239e+00 -1.548402e+00 -3.616803e-01 -1.260104e+00 -1.668919e-02 
2.484134e+00 3.774566e+00 -5.855193e-01 -4.818725e+00 -2.103623e+00 -1.909037e-01 -1.590291e+00 5.301563e-01 -1.506209e+00 3.643829e+00 -2.789075e+00 -4.160649e+00 -1.045740e-01 -6.715314e-01 3.743028e-01 1.132360e+00 1.378018e+00 -1.051680e-01 -3.085579e-01 6.890447e-01 1.279862e+00 -7.436760e-01 -1.469937e+00 -2.092070e-01 -1.277733e-01 -6.002188e-03 
1.937140e+00 2.815125e+00 9.483261e-01 -5.187027e-01 2.659538e+00 3.943251e+00 1.218989e+00 2.847570e+00 -3.295040e-01 4.202707e+00 -1.987884e+00 -6.112573e+00 -1.235040e-01 -4.878379e-01 6.291386e-01 1.082829e+00 1.154671e+00 7.426831e-01 9.057419e-01 2.709009e+00 1.744697e+00 8.519476e-01 -2.772929e-01 1.155246e+00 2.307132e+00 -2.544773e-03 
2.765877e+00 6.246415e+00 2.953753e+00 3.325758e+00 5.764949e+00 3.389541e+00 1.592143e+00 -3.234559e-01 1.074405e-01 4.202530e-01 -1.762510e+00 1.444264e+00 -1.121439e-01 -1.933669e-01 3.318561e-01 4.522327e-01 9.502908e-01 1.515556e+00 2.816025e+00 2.564356e+00 7.401658e-01 1.469101e+00 -1.880599e-01 1.715887e+00 2.711673e+00 1.580346e-03 
1.780087e+00 4.724020e+00 2.404126e+00 -3.852590e-01 2.193671e+00 5.849727e+00 8.624872e+00 4.441719e+00 4.410447e+00 5.894538e+00 5.088576e+00 7.382974e+00 -1.035137e-01 -7.032234e-01 -3.238533e-01 1.118362e-01 -2.595519e-01 4.158843e-01 2.789814e+00 1.920869e+00 -4.087966e-01 -2.477956e-02 2.328713e-01 1.347871e+00 9.593157e-01 1.986313e-03 
1.595825e+00 4.479399e+00 9.477441e-01 -1.339927e-01 5.707089e+00 1.293598e+01 7.528548e+00 3.433911e+00 3.469323e+00 1.857614e+00 2.252128e+00 2.649942e+00 -1.066674e-01 -6.832059e-01 -7.674042e-01 -4.170843e-02 -1.065077e-01 2.022779e-01 1.745348e+00 -1.388085e-01 2.316021e-01 -7.685235e-01 2.023885e+00 1.278303e+00 -7.306678e-01 2.141917e-03 
-9.939518e-01 2.079366e+00 2.510512e+00 -8.658659e-02 4.767889e+00 1.311910e+01 7.855131e+00 -1.075097e+00 -2.134343e+00 4.648383e+00 2.744153e+00 -1.918833e+00 -1.163107e-01 -1.130403e-01 -3.804293e-01 4.827854e-01 1.144545e+00 4.503105e-01 -7.904900e-01 -1.997870e+00 -7.163798e-01 -1.696491e+00 9.327159e-01 4.102516e-03 -7.081746e-01 -1.190579e-03 
7.368670e-01 3.731721e+00 2.692019e+00 2.643883e+00 5.489229e+00 8.481592e+00 1.282972e+00 3.592962e+00 -4.627819e-01 1.116275e+01 5.801214e+00 2.441828e+00 -9.503579e-02 -1.374737e-01 -2.813528e-01 3.993761e-01 9.251050e-01 2.338947e-01 -2.313842e+00 -1.443941e+00 -9.812522e-02 -1.697131e+00 2.423765e-01 -7.666448e-01 1.536108e-01 -4.251003e-05 
1.644365e+00 3.195712e+00 3.945915e+00 3.948530e+00 4.554154e+00 4.124472e+00 1.758311e+00 7.802938e-01 -2.105957e+00 5.905547e+00 3.334546e+00 3.946158e+00 -1.152824e-01 1.190768e-01 1.743785e-01 2.747543e-01 4.779975e-01 -4.209428e-01 -2.803880e+00 -9.465712e-01 8.886697e-02 -1.214939e+00 -1.272667e+00 -1.664132e+00 1.234619e+00 -1.293361e-03 
-4.107018e-01 2.514462e+00 2.226923e+00 2.473974e+00 6.983431e+00 5.864084e+00 3.357255e+00 2.015589e+00 -5.030525e+00 2.440915e+00 -1.876293e+00 4.855008e-01 -1.073941e-01 -2.471020e-01 1.402580e-01 1.920267e-01 -3.026922e-01 -2.954980e-01 -1.460191e+00 6.308523e-01 -4.743671e-01 -1.597188e+00 -2.074667e+00 -2.490613e+00 -1.607304e-01 -2.928126e-03 
1.752167e-01 3.559887e+00 4.116831e+00 2.388356e+00 1.916075e+00 4.084525e-01 2.085134e+00 1.579245e-01 -5.925167e+00 2.645969e+00 -1.737753e+00 5.232427e+00 -1.165984e-01 -2.886333e-01 6.126060e-01 1.327395e-04 -1.016552e+00 2.779961e-01 1.496285e-01 7.672634e-01 -1.337356e-01 -3.688927e-01 -9.460914e-01 -2.294563e-01 1.065992e+00 2.177739e-03 
2.359314e-01 4.250924e+00 3.566694e+00 1.910509e+00 5.330779e+00 3.038645e+00 4.273822e+00 1.532312e+00 -6.539114e+00 2.419210e+00 -4.115702e+00 9.950417e-01 -1.090184e-01 7.940979e-02 4.666441e-01 8.161217e-01 -5.727654e-01 3.494937e-01 1.411086e+00 5.437378e-01 -9.875089e-02 8.401058e-01 -4.331957e-01 9.166172e-01 3.057280e-01 -5.133307e-03 
-1.221180e-01 5.390512e+00 3.276694e+00 -8.524988e-01 6.770460e+00 6.285335e+00 5.136345e+00 3.532546e-01 -3.196126e+00 1.185943e+00 3.306969e+00 9.021349e+00 -1.035815e-01 -5.532541e-02 1.446175e-01 5.548353e-01 2.000181e-01 6.074134e-01 2.735502e+00 1.643059e+00 1.050539e+00 1.756756e+00 1.273101e-01 2.219917e-01 -4.781829e-01 2.542794e-03 
1.350145e-01 3.932370e+00 6.727600e+00 1.230575e+00 6.303707e+00 9.981075e+00 4.550339e+00 1.424170e+00 -2.194517e+00 1.004949e+00 1.844320e-01 1.196796e-01 -1.395690e-01 1.767683e-02 -2.545098e-01 2.782151e-01 3.806456e-01 2.030064e-01 9.864171e-01 -1.543338e-01 2.956873e-01 1.345150e+00 7.135915e-01 9.100779e-01 -8.644266e-02 -8.216143e-04 
-5.095196e-02 4.442252e+00 5.310555e+00 3.728414e+00 4.466678e+00 1.061475e+01 1.016217e+01 5.464689e+00 6.863148e-01 3.989649e+00 -2.777862e+00 3.279193e+00 -8.860910e-02 -9.383078e-02 -8.644434e-01 -6.939472e-01 2.675480e-01 2.027626e-02 -1.735161e-01 -1.781512e+00 -1.360638e+00 7.320935e-01 1.147709e+00 -1.557784e+00 -1.792372e+00 -6.661070e-03 
2.887325e-01 3.452504e+00 3.940839e+00 1.523281e+00 7.497703e+00 5.806025e+00 9.892403e-01 4.550308e-01 -1.754586e+00 4.585314e+00 3.477103e+00 3.433906e+00 -1.206127e-01 -2.223470e-01 -8.382308e-01 -1.516474e+00 -5.172898e-01 1.750439e-01 -8.061060e-01 -2.523484e+00 -2.620912e+00 4.435849e-01 9.403370e-01 -1.597585e+00 -8.311423e-01 -7.134795e-03 
-6.681309e-01 1.308228e+00 1.200338e+00 3.388882e-01 6.274844e+00 7.505279e+00 -1.990665e+00 -5.965364e+00 2.443767e-01 5.134306e+00 -6.128284e+00 -1.597623e+00 -1.463650e-01 -2.191221e-01 -8.412325e-01 -1.096093e+00 -7.963444e-01 2.393473e-01 -4.519679e-01 -2.728557e+00 -2.928050e+00 1.115086e-01 2.838306e-01 -1.630623e+00 -1.478516e+00 -1.412642e-02 
