-6.905163e+00 1.947607e+00 -6.884888e+00 -5.194648e+00 4.077989e+00 3.561118e+00 7.103690e+00 4.314591e+00 3.890246e+00 1.637147e-01 -2.923826e+00 8.720343e-01 5.236441e-02 3.643126e-01 1.433363e-01 2.115856e-01 1.827108e+00 1.708809e+00 4.291110e-01 -1.937125e+00 -1.829650e+00 -5.570789e-01 5.298914e-01 8.862957e-01 1.018626e+00 -2.046370e-03 
-5.985132e+00 2.675607e+00 -6.294270e+00 -2.346361e-02 1.012794e+01 6.217565e+00 1.161916e+00 1.424737e+00 9.894629e-01 -2.326832e+00 -1.668580e-01 2.595125e+00 4.984647e-02 3.863977e-01 1.659230e-01 1.976353e-01 6.356603e-01 5.406460e-01 1.943428e-01 -3.769210e-01 -2.355124e+00 -2.276388e-01 1.520441e+00 5.972981e-01 5.097170e-01 5.456090e-04 
-5.543615e+00 2.300288e+00 -6.122269e+00 1.355300e+00 9.597059e+00 4.378449e+00 3.889530e-01 -3.388732e+00 2.555244e+00 4.058445e+00 1.291680e-01 5.103617e+00 4.339153e-02 4.190399e-01 3.783075e-01 4.539163e-01 8.262874e-01 6.728702e-01 8.837825e-01 -3.089266e-02 -1.335234e+00 2.979090e-01 1.389842e+00 2.707683e-01 -1.266749e+00 4.709363e-05 
-5.653948e+00 2.600881e+00 -6.278021e+00 -5.291321e+00 4.021684e+00 4.124166e+00 8.576453e+00 -3.609366e+00 3.419554e+00 5.818556e+00 -1.463833e+00 1.304828e+00 5.957890e-02 2.709818e-01 2.985335e-01 2.802257e-01 -5.041957e-02 6.313193e-02 4.494728e-01 4.754577e-01 1.135644e+00 8.469269e-01 2.028583e+00 6.952636e-01 -1.175003e+00 -1.496106e-03 
-4.975555e+00 3.876508e+00 -4.623431e+00 1.570718e+00 1.049547e+01 9.026730e+00 3.241958e+00 1.554737e-01 4.164746e+00 3.040232e+00 -9.214972e-01 -4.816561e+00 4.773366e-02 1.249208e-01 3.128493e-01 1.395536e-01 1.797530e-01 4.496377e-01 -2.414057e-01 4.080989e-01 2.922434e+00 -6.075073e-01 1.867787e-01 1.104965e+00 -1.267647e-01 2.403045e-03 
-4.914253e+00 3.380165e+00 -5.642560e+00 -3.832701e-01 9.994393e+00 6.140789e+00 2.112702e+00 5.330853e+00 4.419347e+00 8.325188e+00 3.834793e+00 1.680200e+00 4.019487e-02 1.306829e-01 2.345105e-01 9.262387e-01 1.779338e+00 1.197693e+00 8.326985e-01 3.584132e-01 2.261441e+00 -6.442077e-01 -8.291446e-01 7.704505e-01 1.440218e-01 -3.659725e-05 
-5.288858e+00 3.474893e+00 -5.742231e+00 -1.999598e-01 8.858892e+00 2.163110e+00 5.661323e+00 6.753327e+00 -9.821888e-01 3.739022e+00 3.004680e+00 4.282107e+00 6.509876e-02 8.600064e-02 2.066464e-01 1.508190e+00 3.402193e-01 -4.626055e-01 -1.310226e-01 1.360902e+00 6.631276e-01 -5.264437e-02 -4.920442e-01 -1.152407e+00 2.494821e-01 1.770240e-03 
-4.843882e+00 3.974241e+00 -1.087427e+00 4.490706e+00 1.082844e+01 1.171947e+01 9.158837e+00 4.398913e+00 2.771983e+00 1.323437e+00 4.253314e-01 -2.524397e+00 5.071336e-02 9.309216e-02 3.784871e-01 1.027850e+00 5.466713e-01 -1.172768e-01 6.852923e-01 2.202685e+00 4.273915e-02 1.260412e+00 -4.338199e-01 -1.235474e+00 -5.886669e-02 1.123589e-03 
-4.580738e+00 4.612702e+00 6.399531e-01 8.348264e-01 7.765419e+00 5.582276e+00 6.523402e+00 3.937082e+00 4.725206e+00 4.080886e+00 -4.978801e+00 -1.466851e+00 5.132562e-02 1.382540e-01 -5.999327e-04 6.526939e-01 4.510315e-01 -1.777332e-01 3.499711e-01 -1.457272e-02 -1.713452e-01 1.892297e+00 -7.882500e-03 -1.151615e+00 -1.789092e-01 -7.010722e-03 
-4.802853e+00 4.703696e+00 -3.694400e+00 1.832693e+00 9.954747e+00 7.857667e+00 1.269509e+01 6.952672e+00 7.867709e+00 5.985157e+00 1.649162e+00 4.260346e+00 5.269939e-02 -1.745518e-01 -3.401187e-01 -3.757636e-01 4.354560e-02 2.541037e-01 6.799193e-02 -1.738757e-01 3.648185e-01 1.468869e+00 1.268617e+00 5.547662e-01 1.667604e+00 -1.752037e-03 
-4.618103e+00 3.107165e+00 -1.175275e+00 3.384204e+00 8.407071e+00 5.843866e+00 3.820335e+00 4.619722e+00 5.931431e+00 1.368751e+00 -3.365311e+00 -4.810393e-03 2.905214e-02 -2.972660e-02 -2.802926e-01 -6.861577e-01 1.209085e+00 9.453797e-01 5.441591e-01 -5.066896e-01 2.363003e-01 3.521611e-01 8.236091e-01 1.542884e+00 8.454523e-01 6.094313e-03 
-5.697958e+00 3.026416e+00 -2.058631e+00 3.433745e+00 1.177813e+01 1.192863e+01 9.640992e+00 5.881686e+00 9.513215e+00 9.022591e+00 2.392417e+00 5.082600e+00 5.308992e-02 5.520176e-01 -1.268935e+00 -5.682713e-01 1.779223e+00 -6.983980e-01 -1.572313e+00 -1.062458e+00 -6.559895e-01 -1.528180e+00 3.591427e-01 1.879212e+00 5.301644e-01 2.105451e-02 
-4.281818e+00 4.049879e+00 -3.608720e+00 6.079727e+00 1.158063e+01 6.267589e+00 5.517001e+00 5.654076e+00 5.663259e+00 6.680214e+00 2.363993e+00 2.349283e+00 8.160192e-02 2.654928e-01 -5.910081e-01 -7.968001e-01 1.392953e+00 -1.465468e+00 -1.954117e+00 -4.123890e-01 2.495347e-01 -2.377648e+00 -3.279545e-01 2.317880e+00 1.090058e+00 3.152809e-02 
-2.210907e+00 -2.112337e+00 -5.319035e+00 9.381049e+00 4.875979e+00 -2.157614e-01 6.534461e+00 3.155547e+00 3.608971e-01 5.125138e+00 8.180572e+00 5.734121e+00 1.316971e-01 -1.024551e-02 -6.641277e-02 -1.006244e-01 4.672876e-01 -1.252751e+00 -1.715639e+00 -1.562066e+00 -4.587902e-01 -1.649146e+00 -1.608791e+00 -7.172146e-01 -1.054370e+00 6.478226e-03 
-5.034164e+00 2.721501e+00 -3.529074e+00 7.375316e+00 4.530804e+00 2.145480e+00 3.311656e+00 7.230465e+00 -1.380649e+00 1.677705e+00 5.330013e+00 5.119718e+00 1.473890e-01 -6.715981e-01 2.540632e-01 9.059364e-01 -1.147246e+00 8.187997e-01 1.067206e+00 -1.068366e+00 -1.208396e+00 6.010491e-01 2.134666e-01 -8.991565e-01 -8.737541e-01 -1.570953e-02 
-5.373013e+00 3.358541e+00 -2.601576e+00 5.122389e+00 9.039286e+00 5.411495e+00 2.933334e+00 2.799540e+00 4.789439e+00 3.479892e+00 -2.676665e+00 -1.574465e+00 5.258751e-02 -2.765072e-01 1.455847e+00 1.059072e+00 -1.726495e+00 2.117658e+00 1.536609e+00 -3.614256e-01 -5.885736e-01 2.299562e+00 2.065577e+00 -1.989540e+00 -8.264356e-01 -2.279424e-02 
-6.058756e+00 2.584757e+00 -4.377663e-01 2.472826e+00 1.359297e+01 8.789990e+00 1.975734e+00 -2.099004e-01 6.454233e+00 8.570170e+00 3.296829e+00 1.634805e+00 4.260904e-02 6.834742e-01 9.283938e-01 -2.516804e-02 -1.156747e+00 6.789857e-01 1.356493e-01 6.617893e-01 -1.293391e+00 6.921660e-01 1.520929e+00 -1.103319e+00 -7.366605e-01 -8.594984e-03 
-3.081147e+00 5.235269e+00 -1.569328e+00 3.199818e+00 1.093318e+01 4.145029e+00 5.395295e+00 3.932862e+00 7.941268e+00 1.200679e+01 -7.505367e-01 3.344400e+00 7.011586e-02 6.918091e-01 7.613069e-01 -1.566680e-01 -4.571508e-01 -5.213147e-01 -5.837193e-01 4.608561e-01 -6.984617e-01 -1.500754e+00 -7.991851e-01 5.156863e-01 2.904667e-01 6.556082e-03 
-2.762726e+00 6.425106e+00 -4.171038e+00 2.552867e+00 6.978783e+00 3.456960e+00 5.389622e+00 1.968520e-01 5.042663e-01 5.018900e+00 -1.149648e+00 -1.023017e+00 9.564990e-02 -9.343746e-01 7.510944e-02 4.787179e-01 -1.577441e+00 4.415070e-01 -1.314266e+00 2.277128e-01 2.227997e-01 -9.934885e-01 -2.183526e+00 -1.434741e-02 3.445067e-01 4.276526e-02 
-3.561982e+00 5.244901e+00 -1.518280e+00 2.796614e+00 9.739807e+00 5.159414e+00 3.530670e+00 -8.961446e-01 2.606545e-01 1.259602e+00 2.125005e+00 1.206780e+00 5.884749e-02 -1.630854e+00 5.293963e-02 1.477209e+00 -3.306487e+00 8.027487e-01 -1.317834e+00 -6.158085e-01 1.208935e-01 -7.033231e-01 -3.107562e+00 -7.586356e-01 -3.958730e-01 6.185030e-02 
-1.049021e+01 2.955488e+00 1.930299e+00 -5.212779e+00 1.639720e+01 1.711467e+00 4.046610e+00 3.318601e+00 5.327097e+00 3.026133e+00 1.787322e+00 4.426149e+00 2.620695e-01 -5.242311e-01 -1.102082e-01 9.667928e-01 -1.849166e+00 -3.028356e-01 -5.666644e-01 -3.281991e-01 4.077542e-01 3.949567e-01 -1.189232e+00 -6.164285e-01 1.506854e-01 1.721657e-02 
-7.371674e+00 7.234776e+00 2.766048e+00 -9.449794e+00 1.023772e+01 -1.571395e+00 2.987758e+00 2.976454e+00 2.013237e+00 -2.534639e+00 -6.012199e+00 -1.359548e+00 2.961575e-01 -5.903602e-01 -1.242186e+00 -9.231784e-02 -1.087252e+00 -1.796101e+00 1.081490e+00 -1.465446e+00 9.747421e-01 -2.223459e-01 1.514766e+00 -9.860554e-02 2.320402e-01 1.303244e-02 
-3.479035e+00 4.879128e+00 -1.479238e+00 -5.697594e-01 5.215648e+00 3.989042e+00 4.020082e+00 2.993236e-01 1.602759e+00 9.698591e-01 -1.631882e-01 1.013574e+00 6.307775e-02 9.509312e-01 -3.135533e+00 -3.961515e-01 -8.763651e-01 -4.052012e+00 1.363819e+00 -3.134951e+00 -7.451459e-01 -1.537889e+00 1.215930e+00 4.944375e-01 8.695453e-01 1.609499e-02 
-1.001937e+01 -1.927849e+00 -2.751009e-01 -4.961154e+00 6.350075e+00 9.428078e+00 -3.783295e+00 5.487205e+00 1.011094e+00 9.861567e+00 2.607232e+00 4.073268e+00 2.235056e-01 9.995252e-01 -2.930549e+00 -2.539822e-01 1.515930e-01 -2.954563e+00 1.483767e-01 -3.125123e+00 -1.316661e+00 -6.058475e-01 7.266299e-01 1.250432e+00 1.584489e+00 1.605886e-03 
-4.411707e+00 -8.140866e+00 1.470116e+00 -1.183892e+01 -1.919041e+00 3.030828e+00 -8.242618e+00 -1.662503e+00 -1.861277e+00 2.907679e+00 -5.020666e-02 6.057467e+00 3.788705e-01 5.993474e-01 -1.653801e+00 3.092692e-01 2.762759e-01 -2.708386e+00 -1.139997e+00 -2.356566e-01 -1.467575e+00 1.792672e-01 -4.214888e-02 4.263321e-01 1.888849e+00 1.076307e-02 
-1.907712e+00 -9.079714e-01 2.145982e-02 -3.057246e+00 -9.677515e-01 -3.504043e-01 -6.506505e+00 -2.625939e+00 7.160170e-01 1.296009e-01 1.834702e-01 4.040952e+00 1.462906e-01 8.611639e-01 -4.894729e-01 1.907483e-01 2.416183e+00 -2.809286e+00 -1.029316e+00 3.077664e+00 -5.851514e-01 1.455014e+00 -5.887752e-01 -2.885652e-01 5.700060e-01 -1.773600e-02 
-4.538128e+00 -3.899818e+00 -8.117223e-02 -1.403337e-01 -4.667370e+00 3.178301e+00 4.203404e+00 -2.981978e+00 2.646633e+00 5.625098e+00 3.180353e+00 1.047398e+01 1.555006e-01 -1.781535e+00 4.367163e-01 1.190823e+00 3.991861e+00 -1.907878e+00 1.496664e+00 3.178747e+00 5.415626e-01 2.179411e+00 7.621604e-01 4.170704e-01 -1.664217e+00 9.590263e-03 
-5.650341e+00 -6.495737e+00 1.454285e+00 1.270469e+00 -6.322191e+00 4.207759e+00 5.382013e+00 3.221185e+00 6.032208e+00 5.558982e+00 -4.508739e-01 4.715044e+00 2.465105e-01 5.602596e-01 -3.004344e+00 5.240155e-01 1.456108e+00 -1.944335e+00 -4.809882e-01 -6.759719e-01 1.116291e+00 5.458332e-01 -1.558294e+00 1.027783e+00 -3.370014e+00 1.111952e-01 
-1.144807e+01 -3.163402e+00 6.707820e+00 5.956523e+00 -8.781212e+00 8.235066e+00 1.706859e+00 -1.878252e+00 6.377684e+00 4.003790e+00 2.352318e+00 -2.600664e+00 3.767118e-01 3.339101e+00 -4.313829e+00 5.690346e-01 -4.504589e-01 -1.001096e+00 -3.562538e+00 -4.133684e+00 1.158703e+00 -1.234874e-01 -3.958420e+00 2.098698e+00 -5.011581e+00 1.677078e-01 
4.348556e+00 -1.629790e+01 -7.529588e-01 1.174864e+00 -8.632504e+00 -5.283728e+00 -8.638092e+00 2.403654e+00 1.579658e+00 -6.851216e+00 5.736403e+00 -6.271797e+00 5.916609e-01 2.920625e+00 -2.771919e+00 -5.798885e-01 -1.238284e+00 -7.229038e-01 -4.585579e+00 -2.421253e+00 1.068821e+00 1.425549e+00 -1.626789e+00 2.483259e+00 -1.429972e+00 8.976819e-02 
7.157931e+00 -2.056788e+01 3.867622e+00 -2.344826e+00 -8.517693e+00 -9.888644e+00 -9.454962e+00 3.220301e+00 4.255472e+00 -7.961903e+00 1.058020e+01 -9.090510e+00 8.214645e-01 3.893023e+00 -5.870789e-01 6.327486e-03 -2.304762e+00 -3.205292e-01 -1.903821e+00 -3.536529e-02 9.745560e-01 -4.853784e-01 -3.022319e+00 -2.003536e-01 -1.305321e+00 6.054210e-02 
-3.502150e-01 -1.165309e+01 -2.505875e-02 -7.702754e-01 -1.006847e+01 -9.658279e+00 -1.143342e+00 6.016011e+00 1.422106e+01 3.407884e+00 7.851479e+00 8.101083e-01 4.729751e-01 1.622741e+00 2.107744e+00 1.339487e+00 -1.719718e+00 -1.125858e+00 3.744022e-01 1.941564e+00 -5.474010e-01 -6.200658e-01 -2.584425e+00 -1.495727e+00 -2.336624e+00 6.899814e-02 
1.036643e+01 -8.421199e+00 6.375508e+00 -4.594717e+00 -9.665874e+00 9.032382e-01 -2.217342e+00 1.188349e+00 -2.369908e+00 -1.623735e+01 2.930117e-01 -1.266822e+01 7.387652e-01 1.974060e+00 2.351886e+00 -7.626189e-01 -1.076654e+00 -1.755057e+00 -5.623592e-01 1.654631e+00 -2.392502e+00 -1.735701e+00 -3.141093e+00 -2.475745e+00 -3.233012e+00 8.083607e-02 
1.085801e+01 -1.183252e+01 4.690534e+00 -6.298782e+00 -1.368770e+01 -8.807658e+00 -2.549081e+00 6.826248e-01 1.792019e+00 -1.563562e+01 3.401363e+00 -1.616606e+01 9.780012e-01 2.110727e+00 9.477181e-01 -8.350147e-01 -1.753894e+00 -8.463705e-01 -2.244043e+00 -2.215566e-01 -2.632718e+00 -3.297913e+00 -2.986165e+00 -1.326103e+00 -3.831751e+00 1.251148e-01 
1.142412e+01 -8.718737e+00 -2.303268e+00 -4.963841e+00 -1.548336e+01 -1.312575e+01 -4.789389e-01 -6.075518e+00 1.791485e+00 -1.414562e+01 4.265368e-01 -1.676749e+01 9.731318e-01 -3.335349e-01 9.054388e-01 -1.870920e+00 -8.136129e-01 -5.219862e-01 -2.933180e+00 -1.995700e-01 -1.406836e+00 -1.113904e+00 9.519879e-01 3.702945e-01 -5.941936e-01 5.258338e-02 
9.674572e+00 -6.765734e+00 1.392558e-01 -9.355184e+00 -1.139158e+01 -1.386400e+01 -3.120327e+00 -3.515647e+00 -4.349204e+00 -1.256881e+01 1.154201e+00 -1.629902e+01 9.813655e-01 -4.911637e-01 1.127160e+00 -7.306579e-01 -2.001808e-01 2.661369e-01 -3.005664e-01 -1.221901e-01 -7.170841e-01 -1.903415e+00 8.911927e-01 -6.080327e-02 7.165161e-01 5.804950e-03 
9.290476e+00 -6.427399e+00 -7.034519e-01 -7.134581e+00 -1.342387e+01 -1.123449e+01 -2.929570e+00 -3.746696e+00 -4.868817e+00 -1.301082e+01 3.268065e+00 -1.557271e+01 1.000000e+00 -3.197784e-01 7.502850e-01 7.394849e-01 2.869335e-01 7.393837e-03 9.842698e-01 5.756351e-01 -2.422957e-01 -4.130715e-01 9.795213e-01 6.830353e-01 1.515659e+00 1.587570e-04 
9.469012e+00 -7.342392e+00 2.373362e-01 -6.214316e+00 -1.338677e+01 -1.125612e+01 -1.934717e+00 -4.067206e+00 -4.394907e+00 -1.174705e+01 1.676582e+00 -1.318087e+01 9.935919e-01 2.452032e-01 4.749731e-01 3.614715e-01 8.953930e-01 -8.956556e-01 6.286324e-01 8.490822e-01 -7.607599e-01 7.367075e-01 1.497992e+00 -2.753926e-01 2.240232e+00 -6.749034e-03 
9.928011e+00 -4.678982e+00 1.345116e+00 -5.099607e+00 -1.444880e+01 -9.508342e+00 1.806432e+00 -7.011217e+00 -2.510206e-01 -9.658888e+00 3.580522e+00 -1.074827e+01 9.678124e-01 2.305186e-01 7.315975e-01 4.191141e-01 6.320959e-01 -8.842932e-01 -2.427410e-01 8.920507e-01 -8.438473e-01 2.323322e-01 1.919850e+00 -2.855074e-01 2.098853e+00 -1.039414e-02 
1.058182e+01 -5.265076e+00 9.223294e-01 -5.895706e+00 -1.535739e+01 -1.158391e+01 -1.242916e+00 -5.687186e+00 -2.974565e+00 -6.754812e+00 -3.789909e-01 -7.510076e+00 9.637141e-01 6.621201e-02 6.330979e-01 6.738806e-01 5.147692e-01 -8.558996e-01 -5.318034e-01 1.979499e-01 -3.693078e-01 -6.401445e-01 2.305311e+00 -3.384393e-01 1.658836e+00 -7.184046e-03 
9.886664e+00 -3.808069e+00 1.049622e+00 -4.133406e+00 -1.686002e+01 -1.228430e+01 1.184784e+00 -7.155942e+00 -4.417327e+00 -5.907687e+00 2.868315e+00 -7.913847e+00 9.629682e-01 -1.850644e-01 -1.036833e-01 6.899530e-01 5.742476e-01 -1.312519e+00 -2.857380e-01 -1.033502e+00 1.741519e-01 -1.594814e+00 1.873747e+00 -8.024700e-01 5.303009e-01 -2.852029e-03 
9.820745e+00 -4.612359e+00 3.754486e+00 -4.123571e+00 -1.646065e+01 -1.252716e+01 -6.341435e-01 -5.841383e+00 -5.512476e+00 -2.096096e+00 3.404894e-01 -6.303896e+00 9.600938e-01 -1.899301e-01 -9.179282e-02 9.530970e-01 9.127669e-01 -1.590898e+00 3.250939e-01 -7.945125e-01 3.110952e-01 -7.674031e-01 1.943754e+00 -1.215741e+00 5.993501e-01 -7.928198e-03 
9.383226e+00 -5.523757e+00 3.378803e+00 -3.114437e+00 -2.045976e+01 -1.046541e+01 -3.665467e+00 -6.063359e+00 -6.956137e+00 -2.619510e+00 -7.915683e-01 -8.699852e+00 9.553624e-01 2.329373e-03 -7.108951e-02 6.925937e-01 8.073797e-01 -1.560601e+00 5.078657e-01 -7.332392e-01 -2.587740e-02 3.321872e-01 1.260873e+00 -1.478921e+00 1.720775e+00 -1.622150e-02 
9.883890e+00 -4.866196e+00 4.523224e+00 -1.841356e+00 -2.151201e+01 -1.086789e+01 -2.790353e+00 -4.678001e+00 -5.542175e+00 1.319871e+00 -4.627756e+00 -4.120323e+00 9.278760e-01 2.009331e-01 5.556977e-01 3.270989e-01 6.452589e-01 -1.459633e+00 1.552579e+00 -6.700168e-01 -8.304515e-02 1.443444e-01 3.665693e-01 2.533262e-01 2.626717e+00 -2.291051e-02 
9.866739e+00 -4.036598e+00 4.128222e+00 -1.237615e+00 -2.213735e+01 -1.057461e+01 -1.403307e+00 -7.867020e+00 -2.741542e+00 -1.311308e+00 -2.042167e+00 -4.017586e-01 8.979695e-01 3.025125e-01 9.173630e-01 9.221420e-01 7.710875e-01 -8.470384e-01 2.151838e+00 -2.724336e-01 -8.738543e-01 -5.708534e-01 1.841042e-01 2.440479e+00 2.419461e+00 -2.613223e-02 
1.058365e+01 -2.577450e+00 5.015271e+00 -1.835688e+00 -2.292002e+01 -4.709663e+00 -5.115307e+00 -5.354779e+00 -6.898051e+00 -9.173509e-01 2.232420e+00 2.680641e+00 8.742377e-01 1.781076e-01 1.127357e+00 1.354253e+00 7.585584e-01 -5.091273e-01 2.434220e+00 -8.461803e-01 -1.154919e+00 -2.070655e+00 -1.969005e-01 3.163587e+00 1.201604e+00 -2.706106e-02 
1.054591e+01 -2.081316e+00 7.743490e+00 7.381667e-01 -2.399095e+01 -2.785332e+00 -3.865158e+00 -1.009424e+01 -9.132465e+00 -5.803781e-01 7.980739e+00 -3.029168e-03 8.515204e-01 -1.823990e-02 7.351451e-01 1.594374e+00 1.233373e+00 3.088016e-02 1.738177e+00 -1.239370e+00 -1.728008e-01 -2.436899e+00 -9.840252e-02 1.740402e+00 2.125955e-03 -2.253252e-02 
1.043484e+01 -2.070534e-01 9.486855e+00 9.635450e-01 -2.313085e+01 -2.591426e+00 -5.790329e+00 -9.338984e+00 -1.269999e+01 -3.009680e-02 6.178725e+00 1.688331e+00 8.157952e-01 -3.242086e-01 8.729336e-02 1.322929e+00 1.354444e+00 5.538248e-01 6.114820e-01 -1.377692e+00 -4.068253e-01 -1.442238e+00 -1.030795e+00 4.392408e-01 -9.798706e-01 -2.241648e-02 
9.849945e+00 -1.546071e+00 9.864302e+00 3.529633e+00 -2.187753e+01 -2.942839e+00 -7.262648e+00 -6.738921e+00 -1.202507e+01 -2.246948e+00 4.686692e+00 1.050260e-01 8.145282e-01 -6.454968e-01 2.443743e-01 1.023939e+00 1.109843e+00 6.860758e-01 -2.677335e-01 -1.747928e+00 9.245086e-02 -1.389414e+00 -7.170639e-01 7.854567e-02 5.165923e-02 -4.671151e-02 
9.310593e+00 -2.408606e+00 1.056951e+01 3.540799e+00 -2.120761e+01 -1.573500e+00 -1.030502e+01 -9.066566e+00 -1.266294e+01 -5.238042e+00 6.075647e+00 -2.272740e+00 7.806515e-01 -9.754514e-01 -5.088680e-01 1.279195e+00 6.516548e-01 8.014946e-01 -4.465488e-01 -1.382442e+00 -2.076473e-01 -1.112888e+00 -3.592045e-02 -2.497463e-02 2.757652e-01 -3.527766e-02 
7.880548e+00 2.413323e-01 1.232186e+01 4.998755e+00 -2.152219e+01 -4.632963e+00 -1.034745e+01 -9.768197e+00 -1.609806e+01 -1.561725e+00 8.425006e+00 2.235803e+00 6.355348e-01 -1.042578e+00 -1.884695e-01 1.713812e+00 5.500333e-01 2.841482e-01 -6.029274e-01 -1.111124e+00 -4.650598e-01 -1.916045e+00 8.427464e-01 4.254751e-02 9.979482e-01 -2.630229e-02 
6.542285e+00 -3.645095e+00 1.465405e+01 3.487258e+00 -1.930105e+01 -3.979108e+00 -1.116014e+01 -8.862582e+00 -1.622793e+01 -5.523102e-01 4.184695e+00 2.001769e+00 7.289037e-01 -2.362731e+00 8.684772e-01 -1.912739e+00 2.444820e-01 8.138520e-01 -3.043555e-01 -1.022042e+00 -6.441347e-01 -1.649604e+00 6.519681e-01 -1.111390e+00 8.731243e-01 -7.401437e-02 
6.021208e+00 -1.870174e+00 1.639109e+01 6.306570e+00 -2.141007e+01 -4.754672e+00 -1.239071e+01 -9.166212e+00 -1.982280e+01 -3.760816e-01 5.844906e+00 2.957512e+00 7.088906e-01 -3.665953e+00 9.765838e-01 -3.666122e+00 3.889720e-01 1.554975e+00 1.291381e+00 1.225821e+00 1.427412e+00 6.890745e-01 1.239306e+00 -1.176711e+00 2.500057e-01 -8.998608e-02 
-1.573392e+00 2.989534e+00 -1.028799e+00 4.109302e+00 -1.719440e+01 -3.034423e+00 -1.439360e+01 -1.258823e+01 -1.904859e+01 -2.571023e+00 1.808746e+00 1.732026e+00 3.739017e-01 -3.740865e+00 1.370216e+00 -3.972396e+00 1.645102e+00 2.639165e+00 2.429310e+00 3.686145e+00 2.902982e+00 2.787036e+00 1.787770e+00 1.803279e-01 8.345469e-01 -1.191670e-01 
-6.391378e+00 1.806937e+00 1.832673e+00 6.632593e+00 -1.480063e+01 1.351602e+00 -2.601616e+00 -7.683138e-01 -1.124236e+01 5.644162e+00 3.729424e+00 3.620702e+00 3.631054e-01 -1.613226e+00 1.950416e+00 -3.093230e+00 8.413747e-01 4.498369e+00 2.149600e+00 3.695196e+00 2.107428e+00 2.563486e+00 1.087780e+00 -1.570607e+00 4.409248e-01 -1.055830e-01 
-5.955746e+00 1.367431e+00 2.071278e+00 1.154976e+01 -9.409943e+00 5.114304e+00 2.376040e+00 1.453380e+00 -6.582969e+00 5.376416e+00 6.144075e+00 5.842909e+00 3.059615e-01 6.720507e-01 1.772545e+00 6.910019e-02 -9.020852e-01 5.665162e+00 4.560263e-01 1.798823e+00 7.675081e-01 2.638995e+00 -6.596380e-01 -2.530515e+00 -8.209097e-01 -8.152985e-02 
1.462555e-01 8.692955e+00 -6.250985e-01 6.793216e+00 -2.810461e+00 1.918964e+00 -2.299550e+00 -5.649880e+00 -1.323818e+01 1.089100e+00 -4.175796e+00 3.106695e+00 2.149459e-01 9.847592e-01 7.565358e-01 -6.050608e-01 -1.308450e+00 6.650165e+00 2.695840e-01 5.312458e-01 -8.777136e-01 2.553525e+00 -1.927763e+00 -3.014226e+00 -1.556192e+00 -9.171525e-02 
-1.481956e+00 8.409248e+00 5.455878e-01 -4.814357e-01 5.136320e+00 -1.037972e+00 -5.550518e+00 -6.309908e+00 -4.855706e+00 -3.591682e+00 -6.891217e+00 -2.115519e+00 4.033214e-02 -1.653875e-01 -1.595385e-01 -9.392999e-01 -1.309195e+00 5.580424e+00 3.996668e-02 1.558428e-02 1.179671e-01 3.588931e+00 -7.750062e-01 -1.870844e+00 -5.082462e-01 -6.842372e-02 
-3.704477e+00 2.068708e+00 -4.297855e-01 6.105941e+00 1.117706e+01 5.775660e+00 4.017892e+00 -1.275237e+00 6.616357e-01 4.893956e-01 -4.824061e+00 -1.810459e-01 3.734380e-02 -1.172445e+00 -1.093971e+00 -4.677437e-02 6.258196e-01 3.433711e+00 8.699926e-01 1.691770e+00 2.277328e+00 4.274130e+00 1.242646e+00 9.436477e-01 7.456745e-01 -3.256153e-02 
-4.857317e+00 3.881862e+00 -2.722878e+00 5.347420e+00 1.149842e+01 3.385789e+00 -7.047602e-01 -1.441059e-01 4.411779e+00 1.801237e+00 -2.886011e+00 4.945548e+00 5.264395e-02 -5.477670e-01 -2.476637e-01 -2.017322e-01 3.856812e-01 4.238945e-01 1.419060e+00 2.459842e+00 2.521209e+00 2.257894e+00 9.050922e-01 1.531173e+00 1.238842e+00 2.092666e-03 
-4.028288e+00 5.486794e+00 7.752626e-01 7.007886e+00 1.117705e+01 4.057046e+00 3.736422e+00 2.653861e+00 3.498734e+00 4.605870e+00 -1.460160e+00 3.304534e+00 4.598236e-02 -2.845592e-01 4.428145e-01 -6.783733e-01 -1.434620e+00 -4.530618e-01 1.066386e-01 7.696656e-01 1.008911e+00 6.324882e-01 9.609823e-02 -8.265515e-02 -8.265680e-01 6.233418e-03 
-4.058886e+00 5.461885e+00 -1.065597e+00 9.959978e-01 7.255798e+00 6.916635e+00 6.889429e+00 4.331586e+00 5.015215e+00 -1.124458e+00 -9.173048e-01 2.335901e+00 4.647619e-02 1.714400e+00 -1.504817e+00 -2.803442e-01 -3.174085e+00 -2.438818e+00 1.780629e-01 -1.723118e-01 8.561821e-01 -1.539607e+00 -8.615568e-01 -4.425322e-01 -1.273218e+00 4.845174e-02 
-5.526489e+00 3.492769e+00 -4.650292e+00 1.108554e+00 1.103306e+01 4.543430e+00 4.069126e+00 1.531474e+00 3.522358e+00 2.432734e+00 -6.221690e+00 -3.009063e+00 7.159477e-02 2.236282e+00 -2.574659e+00 -8.094754e-02 -4.968915e+00 -2.373920e+00 -1.866584e+00 -1.256362e+00 1.033832e+00 -1.473063e+00 -2.065361e-01 3.221046e-01 1.386925e+00 1.763574e-01 
4.463784e+00 -2.645208e+00 -1.411822e+00 -7.573340e+00 -6.236782e-01 4.032911e+00 -1.732671e+00 4.697998e+00 -3.298069e+00 -1.419979e+00 -2.717908e+00 1.736258e+00 2.820964e-01 1.404939e+00 -2.103945e+00 1.968367e+00 -4.158544e+00 -1.748815e+00 -3.504733e+00 -1.742803e+00 1.029155e+00 -1.650792e+00 8.307654e-01 7.844979e-01 2.352904e+00 2.389212e-01 
2.891788e+00 -3.332954e+00 5.436370e-01 -1.355202e+01 3.247184e+00 -3.834014e+00 1.765660e+00 7.639815e+00 2.900628e-01 3.720950e+00 1.050664e+00 1.053898e+01 8.099591e-01 -1.184823e+00 -1.474004e+00 2.604488e+00 -3.253283e+00 -1.750758e+00 -4.726097e+00 -4.756238e-01 6.774112e-01 -5.484141e-01 3.879461e-01 2.036683e+00 2.159750e+00 2.133106e-01 
-1.243329e+00 -1.644980e+00 6.179275e+00 -1.246644e+01 2.404660e+00 -6.418308e+00 -6.728560e-01 6.423192e+00 -1.622596e+00 2.385261e+00 -6.309929e-01 7.326399e+00 8.719000e-01 -4.163095e+00 -3.609205e-01 2.048006e+00 -2.018664e-01 2.012423e+00 -1.690331e+00 1.011583e+00 6.172271e-02 5.883709e-02 -3.966469e-01 7.392892e-01 -3.582913e-01 1.104617e-01 
-8.597048e+00 -4.377366e+00 4.576600e+00 -1.271131e+01 7.651024e-01 -1.386145e+01 1.161099e+00 4.055933e+00 -5.744836e-02 2.469845e+00 2.918267e+00 4.994616e+00 8.432463e-01 -3.298637e+00 -3.152409e-01 1.766481e+00 1.633692e+00 2.195545e+00 1.158319e+00 -8.279873e-01 -4.163648e-01 -1.330198e+00 -1.538108e+00 1.652823e-01 -1.947160e+00 -6.143063e-03 
-1.060727e+01 -3.927605e+00 6.811724e+00 -9.003026e+00 1.067948e+01 5.949700e-01 3.627523e+00 6.798553e+00 -2.830128e+00 -2.777661e+00 4.473710e-02 2.716984e+00 8.177611e-01 -7.604982e-01 -8.742310e-01 3.571456e-01 2.021610e+00 7.111335e-01 1.178151e+00 -3.964490e-01 6.858729e-01 2.498495e-01 -1.661554e+00 1.045174e+00 -1.126218e-01 -2.856031e-02 
-8.919424e+00 -3.767846e+00 9.059816e+00 -7.115263e+00 1.008750e+01 -1.549057e+00 -4.524466e+00 5.370311e+00 -5.757162e+00 -1.388131e+00 1.539211e+00 3.107887e+00 8.063132e-01 1.944201e+00 -6.687862e-01 -5.907099e-01 1.948388e+00 -1.130509e+00 8.934431e-01 -2.417265e-01 1.778996e-01 2.534007e-01 -1.455580e+00 3.049520e-01 1.344940e-01 -4.784869e-02 
-4.884632e+00 -6.320894e+00 5.723395e+00 -5.156413e+00 1.299127e+00 -6.683747e+00 1.876818e-01 9.195368e+00 2.476509e+00 -3.993523e+00 5.284406e+00 7.706655e+00 7.475650e-01 2.932959e+00 -9.097407e-01 -1.613718e+00 3.743911e-01 -2.742302e+00 -5.672559e-01 -3.511105e-01 -7.532401e-02 1.974723e+00 -3.248761e-02 -2.133218e-01 4.466020e-01 -8.232274e-02 
-1.737366e+00 -6.524652e+00 2.167215e+00 -4.892678e+00 -1.972694e-01 -5.754872e+00 1.672388e+00 3.747024e+00 -1.443763e+00 -4.200125e+00 1.823192e+00 3.172250e+00 6.391009e-01 3.184131e+00 -7.399611e-01 -2.783722e+00 1.767615e-01 -3.156908e+00 1.920294e-01 9.735039e-01 2.386475e-01 1.920778e+00 4.124789e-01 -1.126907e+00 -5.926747e-02 -1.130297e-01 
4.664917e-01 -7.097905e+00 2.189436e+00 -8.242364e+00 2.110353e+00 -1.384015e-01 -1.226456e+00 7.233576e+00 4.886785e+00 -1.534102e+00 -1.163863e+00 4.917812e+00 4.897535e-01 2.338304e+00 4.247718e-01 -2.295285e+00 8.110362e-01 -2.269529e+00 -1.272419e-01 4.546080e-01 -6.449888e-01 -3.077325e-01 3.761409e-01 -1.015342e+00 -9.378999e-01 -1.174260e-01 
4.325671e+00 -7.079146e+00 -3.091814e+00 -4.688481e+00 -6.102648e+00 -3.861583e+00 1.050122e+00 7.544444e+00 2.641591e+00 -5.554477e-01 -8.711884e-01 4.205971e+00 3.700705e-01 1.628461e+00 1.097735e+00 -1.356786e+00 1.532396e+00 -1.613820e+00 -8.897085e-02 5.486984e-02 -4.038773e-01 1.940731e-01 5.040487e-01 -4.482133e-01 -1.217705e+00 -9.686130e-02 
3.775370e+00 -3.919788e+00 -3.123514e+00 -1.203331e+00 -7.095830e+00 -8.266602e+00 2.771854e+00 4.071713e+00 -1.104831e+00 -3.935158e+00 1.554884e+00 2.500295e+00 2.949502e-01 8.603395e-01 1.336308e+00 -1.463158e+00 1.966867e+00 -5.229559e-01 -2.995321e-01 6.248200e-01 -2.032245e+00 -1.162110e+00 1.023445e-01 -9.442087e-01 -2.189911e+00 -6.253207e-02 
4.750500e+00 -2.625038e+00 -1.960240e+00 -7.502147e-01 -3.663280e+00 -2.135626e+00 -5.241835e-02 3.308568e+00 2.522410e+00 -4.793543e-01 -1.777248e+00 -1.707515e+00 2.521961e-01 -6.372377e-01 1.503009e+00 -4.173306e-01 4.326324e-01 2.971146e+00 4.386430e-02 -7.192737e-01 -2.669956e+00 3.748515e-01 1.754597e-01 -1.418913e+00 -3.393888e-01 -2.896450e-02 
4.555775e+00 -2.643418e+00 -5.692139e+00 -3.771638e-01 -1.724111e+00 -2.499040e+00 2.448915e+00 -8.097140e-01 -8.641758e-01 -1.060426e+00 -5.431877e+00 -3.074998e+00 2.360304e-01 -4.630416e-01 4.584785e-01 -1.204376e+00 -6.274270e-01 1.945743e+00 -1.278273e-01 -1.468991e+00 -2.629895e-01 5.803283e-01 -2.903703e-01 -2.385674e+00 8.230793e-01 -1.274328e-02 
7.492800e-01 -2.022884e-01 -3.894154e+00 -2.938402e+00 6.067225e+00 -6.526042e+00 -2.384776e+00 -3.364621e+00 4.395521e+00 -1.115515e+00 -4.472374e+00 5.296673e+00 2.547079e-01 -6.108809e-01 1.137847e-01 -1.075476e+00 1.192757e-01 6.110750e-01 -8.726265e-01 -1.989991e-01 8.552786e-01 -4.014730e-01 -1.582383e+00 -2.953262e+00 2.183309e-01 -1.997002e-02 
3.460772e+00 -2.838771e+00 -8.178438e+00 -3.246372e+00 -2.232368e+00 -6.710530e+00 -3.406922e+00 6.093361e+00 8.602547e-01 -5.068929e+00 -9.025923e+00 3.113597e+00 2.299779e-01 -3.744421e-01 2.322978e-01 -1.326237e-01 6.645094e-01 -2.561588e-02 -2.183659e-01 -1.380019e+00 8.688366e-01 4.909960e-01 -1.664239e+00 -2.125836e+00 -1.631116e-01 -2.679663e-02 
2.243597e+00 -1.958438e+00 -6.094469e+00 1.280768e+00 -3.537769e-01 -4.393013e+00 1.880504e+00 4.133424e+00 -3.471701e-01 -6.387018e+00 -1.474654e+01 -3.710158e+00 1.553722e-01 4.085698e-01 6.052877e-01 -7.448623e-01 9.119196e-01 4.282246e-02 1.025676e+00 -6.860877e-01 9.566820e-01 8.519623e-01 2.257277e-01 -7.414035e-01 -2.172882e+00 -3.509646e-02 
1.936406e+00 -6.038544e-01 -5.255099e+00 8.357977e-01 1.358311e+00 -4.657384e+00 -6.583819e+00 -2.145531e-01 3.962149e+00 -6.745869e+00 -1.092397e+01 6.128590e-01 1.517151e-01 -7.107677e-02 1.164164e+00 -1.413770e-01 5.033065e-01 2.204978e+00 1.330832e+00 -1.462113e+00 -1.124106e+00 2.726262e+00 2.202587e+00 6.308388e-01 -2.471901e+00 -3.061324e-02 
3.554312e+00 1.706692e+00 -9.080135e+00 -4.198891e-01 4.485997e+00 -2.424238e+00 -4.226766e+00 4.572746e+00 7.104385e+00 8.515939e-01 -7.230366e+00 -4.317368e+00 1.183570e-01 -2.346962e-01 4.823964e-01 -1.131806e+00 -7.298020e-01 1.295661e+00 -3.698828e-01 -2.012528e+00 -1.168405e+00 1.436009e+00 2.518624e+00 1.868221e+00 -1.098273e+00 -2.091541e-02 
2.450030e+00 1.149487e+00 -7.392490e+00 1.204888e-01 6.372635e+00 -1.040756e+00 -7.663851e+00 2.531679e-01 1.076579e+01 2.324700e+00 -9.629814e+00 -8.942302e+00 9.541929e-02 -5.184184e-01 5.236751e-01 -2.223274e-01 -4.661667e-01 8.952287e-01 -2.455029e-01 -6.010526e-01 -1.159055e+00 -1.097023e-01 2.119771e+00 1.439348e+00 3.480770e-02 -2.313058e-02 
8.133039e-01 -4.231262e-01 -1.068481e+01 -2.010588e+00 3.617368e+00 -8.050741e+00 -7.642121e+00 -1.942460e+00 3.431053e+00 1.670815e+00 -6.052513e+00 -4.423940e+00 7.894307e-02 -1.434577e+00 8.846925e-01 1.492908e+00 5.825061e-01 1.068363e+00 8.159245e-01 3.547958e-01 -1.465127e+00 -5.797827e-01 3.141945e-01 8.871597e-01 2.040099e+00 -1.436047e-02 
7.148180e-01 3.079430e+00 -5.564401e+00 -6.996865e-01 6.268769e+00 -3.071647e+00 -7.881405e+00 -2.752227e+00 5.250304e+00 3.443376e+00 -4.316163e+00 8.401839e-01 5.576915e-02 -1.335927e+00 1.183151e+00 1.758975e+00 1.520119e+00 6.019560e-01 2.088175e+00 1.539218e+00 -8.187725e-01 -2.017688e-01 -7.471634e-01 4.386505e-01 1.343938e+00 -3.739619e-03 
-2.750968e+00 5.165183e+00 -2.529641e+00 2.902729e+00 9.879747e+00 2.670830e+00 -2.344009e+00 -1.250191e+00 6.963214e+00 1.863229e+00 -5.451393e+00 9.918818e-01 6.637973e-02 -1.265963e+00 6.274155e-01 1.814669e+00 1.305188e+00 1.471033e+00 3.606531e+00 2.373148e+00 9.751420e-02 7.942353e-01 -2.766491e-01 1.169634e+00 3.834292e-01 -3.947663e-03 
-2.447469e+00 4.271088e+00 -2.675199e+00 5.264426e+00 6.251225e+00 4.039334e+00 -2.616817e+00 -4.186829e+00 7.990865e+00 -1.507324e+00 -7.737122e+00 -4.930523e+00 8.300287e-02 -5.304483e-01 -5.250523e-02 7.335278e-01 8.948096e-01 8.463815e-01 2.461700e+00 2.333996e+00 4.775694e-01 -4.879606e-01 -1.834483e-01 1.319786e+00 -2.699534e-01 -5.198651e-03 
-3.935366e+00 2.118122e+00 -3.056064e+00 1.533298e+00 1.098130e+01 6.426423e+00 1.591325e+00 -7.375879e-01 6.031950e+00 2.762919e+00 1.506135e+00 3.785593e-01 4.558790e-02 1.007031e-01 -2.967421e-01 -2.469167e-02 -5.571127e-02 2.102440e-01 1.163358e+00 2.020622e+00 3.703847e-01 -1.403891e+00 5.989919e-01 1.023221e+00 3.762619e-01 -6.398702e-03 
-1.345224e+00 4.340434e+00 -1.633551e+00 4.459077e+00 9.949898e+00 7.359057e+00 1.820909e+00 -6.206815e-01 3.276134e+00 2.076289e+00 -1.195999e+00 -2.029220e-01 4.017180e-02 4.558420e-01 7.407042e-01 3.058329e-01 -2.980766e-02 8.671409e-01 7.993532e-01 1.739554e+00 6.203628e-01 -1.606435e+00 4.860584e-01 6.831635e-01 1.606668e+00 -7.350242e-03 
-2.798574e+00 3.646799e+00 -3.173923e+00 3.026847e+00 9.081631e+00 6.827760e+00 5.540239e+00 -1.181341e+00 2.301124e+00 3.066382e+00 -3.605852e+00 5.093908e-01 5.580175e-02 1.849249e-01 8.867706e-01 -4.485426e-02 -1.024143e-01 -5.694850e-01 -1.376629e-04 4.946994e-02 1.775031e-01 -4.748334e-01 1.563949e-01 4.028816e-01 1.972454e+00 8.149547e-03 
-7.366543e-01 7.210270e+00 -1.087105e+00 4.368613e+00 1.153677e+01 7.835432e+00 4.106494e+00 -8.631381e-01 1.824104e+00 7.712373e-01 -1.765311e+00 3.037399e+00 4.114473e-02 -4.614224e-01 7.865860e-01 -5.048201e-01 -9.468740e-01 -4.258229e-01 -7.417192e-01 -7.737765e-01 8.612676e-01 3.941300e-01 1.362919e+00 1.614438e+00 1.630436e+00 1.403563e-02 
-3.315026e+00 5.117057e+00 -3.553558e+00 1.066458e+00 7.340445e+00 6.187547e+00 6.958818e-01 2.711558e-01 4.383797e+00 4.197419e+00 3.805200e+00 8.620670e+00 8.584917e-02 1.334333e-02 9.853860e-01 3.234436e-01 3.418603e-01 6.037927e-01 6.454458e-02 -1.100094e+00 3.999786e-01 -1.887676e-01 9.821928e-01 1.497330e+00 -3.347255e-01 8.575803e-03 
-3.394111e+00 7.538235e+00 -3.967834e+00 7.049021e-01 8.691376e+00 3.970568e+00 3.742044e-01 2.959408e+00 4.205447e+00 8.325367e+00 3.170665e+00 3.893615e+00 9.532624e-02 3.199950e-01 4.103765e-01 4.524543e-01 9.705475e-01 4.646394e-01 -3.396726e-01 -6.801909e-01 -4.796748e-01 -1.915646e+00 -5.474440e-01 -2.127656e-01 -9.208783e-01 4.339010e-03 
-1.403130e+00 8.409746e+00 -1.163409e-01 6.568004e+00 1.352329e+01 9.082914e+00 1.905913e+00 -1.092721e+00 1.666144e-01 4.200281e+00 1.412809e+00 -1.592345e+00 7.159001e-02 7.948067e-01 9.186994e-01 1.613124e+00 1.961513e+00 1.647443e+00 3.327650e-01 2.226241e-01 -5.297328e-01 -1.765643e+00 -1.442066e+00 -6.919060e-01 -9.047841e-01 -4.093266e-03 
-9.262753e-02 7.615808e+00 -5.434418e-01 6.470577e+00 1.076854e+01 4.689385e+00 1.005242e-01 -2.579573e+00 -5.645534e+00 -1.967414e+00 -1.632944e+00 3.539515e+00 6.996936e-02 3.743926e-01 5.369021e-01 1.325677e+00 9.538782e-01 8.784501e-01 2.881351e-01 8.019729e-01 -3.578368e-01 -4.178337e-01 -8.487997e-01 -3.604196e-01 1.597251e-01 -4.891968e-03 
-9.917345e-01 9.671767e+00 2.799864e+00 7.991183e+00 1.453908e+01 7.491963e+00 1.945842e+00 3.919821e-01 4.810731e-01 2.133481e+00 2.747474e+00 4.273800e+00 7.806128e-02 1.839724e-01 2.044308e-01 3.235732e-01 -6.686874e-02 3.709854e-01 2.622817e-01 1.040758e+00 1.344412e+00 1.720195e+00 -3.355994e-01 -4.117738e-01 6.246678e-01 7.863104e-04 
-1.727845e+00 9.591736e+00 1.202449e+00 4.762703e+00 1.257573e+01 6.206719e+00 4.364104e+00 4.278722e-01 1.959049e+00 5.114769e+00 7.012341e-01 1.759168e+00 6.763077e-02 1.092549e-01 3.122621e-02 -1.018915e-01 5.721785e-01 2.591589e-01 9.977158e-01 8.523827e-01 4.033699e-01 1.423858e+00 -5.528613e-01 -9.308023e-01 -9.335470e-01 3.534532e-03 
3.343410e-01 8.443937e+00 6.285796e-01 7.087597e+00 1.447462e+01 9.635656e+00 4.977912e+00 4.125617e+00 4.965299e+00 -1.018807e+00 -1.813149e+00 2.421167e+00 7.669085e-02 3.130767e-01 -4.540796e-01 -7.423236e-01 3.202588e-01 -4.339090e-01 6.739873e-01 9.681363e-01 -5.089992e-01 -9.604080e-01 -1.634344e+00 -1.496372e+00 -1.286888e+00 -3.299707e-03 
-2.093906e-01 8.385855e+00 3.274298e-02 9.783263e+00 1.209656e+01 8.606118e+00 2.846403e+00 -2.429541e+00 -7.683579e-01 -3.155576e+00 -4.006644e+00 -2.019044e-01 8.832723e-02 2.564614e-01 -3.614479e-01 -4.014181e-01 4.633588e-01 -1.798739e-01 6.937507e-01 8.930003e-01 -7.154284e-01 -1.775519e+00 -1.491993e+00 -6.730660e-01 -9.479822e-01 -5.830884e-03 
-1.855783e-01 8.004310e+00 -3.269010e-01 7.082197e+00 1.260912e+01 9.662201e+00 7.545374e+00 -7.243075e-01 -2.957263e+00 -1.903065e+00 -2.380447e+00 -1.180106e+00 5.121452e-02 -1.016027e-01 -1.260799e-01 -2.270605e-01 -2.711865e-01 -3.218456e-01 1.109170e-01 9.833897e-01 -7.994615e-01 -1.803403e+00 -5.160050e-02 4.916004e-02 -8.180748e-01 -8.806539e-03 
