-6.380550e+00 1.297412e+00 -3.447016e+00 -4.127913e+00 7.365693e+00 9.691477e-03 -8.958676e-02 8.284665e-01 1.529170e+00 1.881210e+00 -1.939478e+00 -7.234563e-01 3.172755e-04 -7.177278e-01 -1.301799e-01 6.302136e-01 2.402649e+00 -1.590232e-01 7.540596e-01 8.846237e-02 -2.583374e-02 7.783803e-01 5.845606e-01 9.362910e-01 2.277623e+00 1.057324e-02 
-8.450419e+00 1.024194e+00 1.329932e-01 1.457361e+00 6.460231e+00 2.478647e+00 7.560685e-02 -1.363785e-01 4.291064e+00 -2.467549e+00 -2.530413e+00 5.049072e+00 3.195345e-03 -8.290969e-01 8.905158e-02 9.705824e-01 2.428380e+00 -6.257659e-01 2.251443e-01 7.193263e-01 -1.730812e-01 6.392819e-01 3.813554e-01 -4.544306e-03 1.334335e+00 6.509465e-03 
-8.934255e+00 7.831215e-01 -2.085952e+00 5.092693e+00 7.023307e+00 2.545512e+00 2.701283e-01 1.181720e+00 4.040125e+00 6.978393e+00 3.037444e+00 7.778392e+00 5.174446e-02 -5.049604e-01 -2.232401e-01 3.882469e-01 1.639789e+00 -1.030303e+00 -7.077807e-01 4.839075e-02 -1.328697e-01 6.683572e-01 -1.098878e-01 -1.564699e+00 -5.881831e-01 1.829487e-03 
-9.249183e+00 1.999815e+00 7.253645e-01 3.403686e+00 4.408056e+00 -1.324973e-01 3.327187e+00 -2.135663e-01 3.470102e+00 1.239396e+00 -4.450661e+00 1.697294e+00 7.151008e-03 -5.688362e-02 2.068162e-02 3.012602e-01 -1.775022e-01 -8.725794e-01 -2.304965e+00 -1.503981e+00 -7.019463e-01 -2.397508e-01 4.025616e-02 -8.134313e-01 -1.794325e+00 -6.666475e-03 
-8.505971e+00 -3.065991e-01 -1.801967e+00 3.097869e+00 3.240264e+00 -2.223640e+00 -1.473423e+00 2.027121e-01 5.281437e+00 -5.217013e-01 -8.802849e+00 -1.988483e+00 7.486880e-03 8.346424e-02 -1.290324e-01 4.205188e-01 -1.466867e-01 1.672739e-02 -1.535705e+00 -1.000743e+00 -7.588798e-01 -3.681401e-01 -1.262745e+00 -4.558772e-01 -1.325096e+00 -1.333514e-02 
-8.948979e+00 1.672462e+00 1.497302e+00 1.567262e+00 3.988856e+00 -6.661599e+00 -6.572520e+00 -3.156606e+00 2.471654e+00 1.483778e+00 -6.774226e-01 9.608830e-01 -8.008242e-03 2.216343e-01 -2.685256e-02 -1.000461e-01 -2.689123e-01 6.661656e-02 -7.439728e-01 -4.025495e-02 1.209873e-01 -8.452406e-01 5.584996e-02 2.518680e+00 3.287737e-01 -4.742104e-03 
-8.667035e+00 3.016359e-01 -3.693265e-01 5.277471e+00 7.316545e+00 -1.868460e+00 2.162661e-01 -1.141159e+00 2.698649e+00 5.424747e-01 -1.128561e+00 1.521120e+00 -7.351637e-03 2.735432e-01 5.025602e-01 -6.167936e-03 -1.151406e+00 -7.468828e-01 1.729313e-01 1.427016e+00 8.845514e-01 -3.328845e-01 1.918027e-01 2.856022e+00 1.428173e+00 -3.233993e-03 
-8.060479e+00 1.561435e+00 -4.911861e-01 9.693229e-01 2.702998e+00 -4.029952e+00 2.281068e+00 1.063306e+00 5.352936e-01 9.865575e-01 4.305595e+00 1.586361e+00 -9.140253e-03 6.859085e-01 5.451111e-01 -8.961979e-01 -1.023666e+00 -4.067544e-01 2.141934e+00 1.735071e+00 1.397060e+00 -4.815696e-01 1.451026e-01 3.410811e-01 1.481750e+00 7.380628e-03 
-7.582505e+00 2.261715e+00 -8.385626e-01 -2.360191e+00 1.487789e-01 -2.674807e+00 1.234865e+00 2.515513e+00 4.585195e+00 6.859229e-01 2.985754e+00 4.839644e+00 -8.117080e-03 4.367664e-01 3.988820e-01 -1.645581e-01 -1.484263e+00 -2.556265e-01 7.603377e-01 1.010433e-01 2.106807e-01 -1.077490e+00 4.475598e-01 -3.331693e-01 5.051131e-01 6.362969e-03 
-6.061702e+00 3.417978e+00 -2.749070e+00 2.677654e-01 5.538966e+00 4.451246e+00 1.593537e+00 2.000360e+00 -8.794672e-01 2.137568e+00 -1.029174e+00 6.710372e+00 2.927762e-02 5.954312e-01 1.650443e-01 -4.594874e-02 8.705509e-01 9.283522e-01 -3.578491e-01 -1.582757e+00 -1.458185e+00 5.713901e-01 9.807913e-01 2.641270e-01 5.192313e-01 1.154602e-02 
-7.482592e+00 1.367774e+00 -6.317508e-02 -1.793064e+00 4.620428e+00 -2.307371e+00 1.065248e+00 -5.562826e-01 -1.981422e+00 2.204769e+00 -1.270230e-01 1.484680e+00 5.254269e-03 7.153462e-01 -8.887196e-01 -1.275465e-02 2.342723e+00 6.417262e-01 -1.894876e+00 -1.653921e+00 -1.652329e+00 2.689573e-01 1.829421e+00 6.158050e-01 -9.801438e-01 8.461547e-03 
-5.133280e+00 2.833627e+00 -1.108624e+00 5.038514e+00 5.108935e+00 -6.002915e+00 -5.547908e+00 -4.691722e+00 6.675552e+00 5.131091e+00 7.182618e+00 5.860000e+00 4.190415e-02 3.887881e-01 -1.725509e+00 8.495846e-02 1.622261e+00 -1.547569e-01 -1.648262e+00 -9.938931e-01 -1.116776e+00 1.166189e+00 3.719200e-01 1.664211e-01 -1.116747e+00 3.267807e-03 
-4.469985e+00 -1.889707e+00 -1.722559e+00 6.968048e+00 3.572425e+00 -6.922106e+00 -3.464019e+00 -2.400089e+00 2.152472e+00 8.336266e+00 1.958882e+00 3.641112e-01 2.787739e-02 2.635409e-01 -8.294665e-01 -4.893093e-01 9.886797e-01 -3.415813e-01 1.730561e-01 -3.234850e-01 1.109568e-01 6.341091e-01 -2.262285e-02 -7.507156e-01 -3.160355e-01 8.988136e-03 
-5.624064e+00 -3.580826e+00 -1.494585e+00 3.998513e+00 5.289183e+00 -1.482695e+00 -1.111295e+00 -2.661615e+00 2.884531e+00 9.314193e-01 -1.240021e+00 1.686921e+00 3.430510e-02 -5.350209e-01 -2.589160e-01 -8.227935e-02 -1.531987e+00 -5.235885e-01 7.144343e-01 4.542088e-01 1.311764e+00 -2.986864e-01 -2.891847e-01 -1.251389e+00 -1.534741e+00 -9.860623e-03 
-5.919495e+00 4.276676e-01 -2.316741e+00 3.670335e+00 2.822397e+00 -3.702200e+00 -2.770484e+00 -1.016552e+00 3.084635e+00 4.191491e+00 3.307186e-01 1.991042e+00 5.399448e-02 -7.995073e-01 7.215840e-01 -1.943119e-01 -2.033674e+00 -2.618585e-02 5.636688e-01 -1.174172e-01 7.615927e-01 -1.186987e-01 -2.149558e+00 -1.253799e+00 -7.656635e-01 -1.399425e-02 
-7.083630e+00 3.803600e-01 -1.222929e+00 -9.725659e-01 2.866007e+00 -4.040696e+00 -3.623631e+00 1.175332e+00 4.716039e+00 5.757555e+00 1.739753e+00 -2.627172e+00 -2.045751e-02 -6.655974e-01 7.922356e-01 2.162671e-02 -1.044228e+00 7.058918e-01 8.656190e-01 -4.881648e-01 -2.813111e-01 -7.392110e-01 -1.247722e+00 -1.166924e+00 -4.748906e-01 -1.571367e-02 
-7.737739e+00 -2.623795e-01 -2.829946e+00 -7.147848e-01 4.653084e+00 -2.824762e+00 -2.794937e+00 -5.105991e-01 6.432240e-01 -4.824590e+00 -5.800002e+00 -1.307160e+00 -1.471257e-02 -3.744401e-01 3.536188e-01 5.775777e-01 5.501371e-02 1.093204e+00 4.030704e-01 -1.322387e-01 4.275060e-01 6.414534e-01 -5.611210e-01 -5.476238e-01 8.464031e-02 -1.046174e-02 
-8.042930e+00 7.253757e-01 -1.129849e+00 9.699328e-01 7.903298e+00 2.406680e+00 -3.539893e+00 -4.321146e+00 4.091818e-01 -7.991488e-01 -4.009280e+00 9.615685e-01 -9.909749e-03 -5.778503e-02 6.155106e-01 3.814416e-01 9.923706e-01 2.739621e-01 1.274677e-01 1.760338e-01 1.424515e+00 1.547500e+00 1.145726e+00 6.834171e-01 1.830015e+00 1.148543e-02 
-7.312045e+00 2.023254e+00 5.246075e-01 2.974154e+00 5.769774e+00 -4.910537e+00 -3.473547e+00 3.869217e+00 8.445331e+00 4.664237e+00 4.671162e-01 6.198731e-01 -3.588080e-03 -1.041160e+00 5.794908e-01 7.233760e-01 -1.130200e-01 3.588619e-02 -8.495124e-01 8.979435e-01 4.555658e-01 1.542908e+00 2.182816e+00 1.632543e+00 1.758245e+00 5.570870e-02 
-7.585402e+00 2.315097e+00 -9.929981e-01 2.144817e+00 3.677473e+00 -2.360470e+00 -2.404157e+00 6.107997e+00 8.552485e+00 6.741769e+00 2.023279e+00 5.559388e+00 3.140742e-02 -2.466477e+00 -7.308355e-01 -5.813576e-01 -1.883067e+00 -9.077160e-01 -2.265922e+00 6.029004e-01 -1.654796e+00 -6.870162e-01 -6.704275e-01 -2.413365e-01 6.261934e-01 1.470062e-01 
-1.317230e+01 1.840214e+00 7.185082e-01 -1.867327e+00 6.945428e+00 -4.688748e+00 1.126913e+00 -3.447342e+00 4.286113e+00 2.319032e+00 -6.535679e-01 5.185155e+00 2.431723e-01 -2.884190e+00 -9.086233e-01 -1.688809e+00 -1.692950e+00 -6.826556e-01 -5.201101e-01 -1.351021e-01 -3.271675e+00 -2.551064e+00 -2.011332e+00 -1.504681e+00 1.858259e-01 1.353714e-01 
-1.744519e+01 -2.837282e+00 -4.133588e+00 -6.024662e+00 2.776891e+00 -9.033823e+00 -2.825620e+00 -8.936850e+00 -9.462905e-01 -2.978684e+00 -4.655620e+00 1.809895e+00 6.017408e-01 -1.017678e+00 -2.366694e+00 -2.672084e+00 -2.534132e-01 -1.865161e+00 -9.626321e-02 -2.159271e+00 -1.989405e+00 -3.202140e+00 -9.116157e-01 -1.302479e+00 -8.722411e-01 9.324609e-02 
-1.680310e+01 5.632620e-02 -6.349143e+00 -1.405855e+00 2.806787e+00 -4.174411e+00 -3.938325e+00 -4.966734e+00 4.393961e-01 -5.321952e-01 -3.716837e+00 3.423749e+00 3.881019e-01 1.179278e+00 -1.563121e+00 -1.761956e+00 1.400028e+00 -6.210185e-01 2.236503e+00 -1.929546e+00 1.448007e+00 -1.507920e+00 1.178951e+00 1.885733e-01 -3.576276e-01 -2.317180e-02 
-1.085839e+01 -8.626431e+00 -1.081959e+01 6.470152e-01 -3.579013e+00 -3.098955e+00 -1.066789e+01 -3.079330e+00 -5.534859e+00 3.609304e+00 -2.957481e+00 2.078886e+00 4.251731e-01 2.974731e+00 -1.967424e+00 -3.373285e-01 -1.655666e+00 7.518030e-01 4.003511e+00 -1.116922e+00 2.861539e+00 -3.470479e-01 1.497201e+00 6.343895e-01 -9.565979e-01 -4.587390e-02 
-1.056931e+01 -3.080815e+00 -4.748271e+00 1.796975e+00 7.018288e+00 3.526335e+00 -4.599680e+00 8.639337e-01 -9.592032e-01 4.919795e+00 -5.597708e-01 3.262522e+00 2.155972e-01 2.790235e+00 -2.533956e+00 -3.181784e-01 -5.132804e+00 3.853648e-01 2.788423e+00 -5.057832e-01 2.409679e+00 6.162500e-02 -3.441734e-02 1.515071e-01 -2.380045e+00 5.282810e-02 
-5.688429e+00 -1.110583e+01 -6.620667e+00 -1.590441e+01 4.430156e+00 7.133360e+00 -8.079553e+00 2.455511e+00 -1.982230e+00 1.781326e+00 -3.062206e+00 -2.892480e+00 4.586237e-01 1.571712e-01 3.137373e-01 1.243968e+00 -4.175046e+00 -1.311871e+00 2.189433e+00 3.449338e+00 1.995166e+00 4.619385e-01 -1.800235e+00 -1.308916e+00 -2.905326e+00 6.879185e-02 
-5.436910e+00 -1.137376e+01 -1.003950e+01 -1.879417e+01 7.290258e-01 4.651546e+00 -7.761410e+00 4.314241e+00 -1.028793e+00 2.097074e-01 -2.906939e+00 -5.990793e+00 6.355171e-01 -1.247142e+00 -1.340590e-01 7.892653e-01 -5.005255e-01 -3.400397e+00 1.510208e+00 5.029321e+00 4.841647e-01 -9.580925e-01 -1.542990e+00 3.330975e-01 -2.047209e+00 7.657617e-02 
-1.263874e+01 -2.911275e+00 -1.954136e+00 -9.932642e+00 -6.993739e+00 7.285603e+00 8.159665e+00 5.171348e+00 -3.190371e+00 -3.036829e+00 -8.328479e+00 -7.821086e+00 5.591724e-01 -1.604243e+00 1.941427e-01 -2.060840e-01 4.850829e+00 -3.298961e+00 1.563295e+00 7.112221e+00 -1.192982e-02 -2.275752e+00 -7.809715e-02 4.122567e+00 -1.278651e+00 3.178692e-02 
-1.332987e+01 -7.848388e+00 -3.135210e+00 -3.691536e+00 -4.271748e+00 1.100125e+01 1.242732e+01 1.926839e+00 -5.145595e+00 -3.860775e-01 3.738853e+00 -4.509220e+00 5.482037e-01 -9.386091e-01 -5.875190e-01 -5.431963e-01 5.936222e+00 -4.366711e-01 -1.633053e-01 4.271147e+00 2.081574e+00 -1.563422e+00 -1.436838e-01 4.813367e+00 1.332771e+00 -1.729601e-02 
-9.763164e+00 -1.189780e+01 -1.110323e+01 7.984238e-01 -9.564262e+00 1.177498e+01 1.738718e+01 3.589563e+00 -1.130259e+01 1.688733e+00 1.422773e+01 -1.002652e+01 6.612150e-01 2.673489e-01 1.032813e+00 -8.977693e-01 2.889581e+00 2.313264e+00 -3.527827e+00 -8.317080e-01 2.105977e+00 -6.167994e-01 8.727404e-01 2.489017e+00 2.740834e+00 -5.678225e-02 
-1.156774e+01 -9.818089e+00 -8.180931e+00 5.521410e+00 -1.690679e-01 1.590331e+00 8.980566e+00 1.551300e+01 -4.789792e+00 -2.871492e+00 9.881791e+00 1.775781e+00 4.980158e-01 7.060738e-01 4.118104e+00 3.996281e-01 3.054898e-01 3.484680e+00 -4.795699e+00 -3.254650e+00 1.108788e+00 1.455310e+00 1.164467e+00 -2.157926e+00 2.784708e+00 -1.145069e-01 
-1.218305e+01 3.237640e+00 -3.920122e+00 -9.120703e-02 2.521239e+00 -5.648070e+00 5.724501e+00 8.908149e+00 -6.452270e+00 2.569581e+00 1.045136e+00 2.740586e+00 3.003551e-01 1.594695e+00 3.953590e+00 1.080776e+00 -1.967954e+00 1.489434e+00 -3.466829e+00 -3.708359e+00 -3.147705e+00 2.141648e+00 1.546279e+00 -3.231190e+00 2.299874e+00 -1.560845e-01 
-8.589551e+00 5.174416e+00 -4.728623e+00 -1.719271e+00 7.108902e+00 -4.265718e+00 1.985409e+00 4.811487e+00 -2.942064e-01 4.995831e+00 -4.594795e-01 3.030766e+00 1.560989e-01 4.275815e+00 2.166278e+00 4.725041e-01 -2.784735e+00 -2.519885e+00 4.833328e-01 -1.133876e+00 -5.949764e+00 1.299824e-01 1.096416e+00 -3.208808e+00 -2.092441e+00 -9.094732e-02 
-3.278784e+00 3.739002e-01 -7.425504e+00 -5.421008e+00 -5.756077e+00 -2.631142e+00 2.342970e+00 -6.798203e+00 -2.842143e+00 5.486465e+00 3.242416e+00 8.453518e-01 5.175114e-02 6.173536e+00 6.593822e-01 6.427719e-01 -2.152108e+00 -4.019137e+00 4.904572e-01 -1.325361e+00 -2.911350e+00 -3.666003e-01 -2.610392e+00 -1.470959e+00 -1.593577e+00 1.173115e-02 
5.359200e+00 2.445172e+00 -4.065720e+00 -5.737369e+00 -8.629833e+00 2.498531e+00 5.001949e+00 -6.382642e+00 -5.944943e+00 1.152143e+00 -7.260889e+00 -7.738808e+00 1.675811e-01 4.954483e+00 2.037986e+00 1.159346e+00 -1.737471e+00 -3.105130e+00 -1.659528e+00 -1.827648e+00 3.121450e-01 -7.482566e-01 -3.753364e+00 -1.568996e+00 -3.913091e-01 4.747531e-02 
1.171025e+01 7.899172e+00 -1.037714e+00 -8.842700e+00 -9.705078e+00 -6.577909e+00 -2.410575e+00 -5.153680e-02 -5.459903e+00 -8.560535e+00 -2.908953e+00 1.574889e-01 3.532698e-01 6.962162e-01 2.633329e+00 2.221678e+00 3.920084e-01 7.446516e-01 -2.774376e+00 -3.247522e+00 1.028501e+00 -4.054878e-01 -2.716430e+00 -1.273670e+00 8.524272e-01 4.490077e-03 
8.688344e+00 1.160171e+01 -2.125789e+00 -8.695782e+00 -6.442246e+00 -1.058997e+01 -4.776057e+00 2.998879e+00 -2.726609e+00 -6.747489e+00 -5.228776e+00 1.418152e+00 2.427161e-01 -2.083413e+00 8.804455e-01 1.188724e+00 1.187697e+00 2.495070e+00 -2.870972e+00 -1.761808e+00 8.935999e-01 3.974831e-01 2.581159e-01 1.031471e+00 1.930647e+00 -6.006521e-02 
-1.462276e+00 8.962273e+00 2.712924e+00 -1.981759e+00 -3.126613e+00 -9.958772e+00 -9.005636e+00 -6.346461e+00 -6.478749e+00 -4.145870e+00 -4.141991e+00 5.290080e-01 3.663403e-02 -1.604648e+00 -1.347358e+00 8.922857e-01 2.141201e+00 1.780525e+00 -2.772757e-01 3.140621e-01 6.349804e-01 8.374316e-01 4.859681e-01 1.554082e+00 4.950348e-01 -5.004268e-02 
1.528400e+00 6.315849e+00 2.582729e-03 -3.229355e+00 5.562816e-01 -1.016590e+01 -5.095598e-01 1.232819e+00 -3.448105e+00 2.353892e-01 -1.487014e+00 1.728668e+00 2.557296e-02 1.014080e-02 -1.368261e+00 1.068980e+00 2.110863e+00 4.015433e-01 6.936159e-01 1.494064e+00 1.687977e+00 5.264773e-01 -1.058899e+00 2.435414e+00 5.057590e-01 -7.768840e-03 
7.266986e+00 3.805314e+00 2.359529e+00 -8.699061e-01 -4.301718e+00 -8.176325e+00 -2.973513e+00 4.006395e+00 -9.119976e-01 -9.622134e+00 2.990574e+00 2.477405e+00 2.116280e-01 2.631126e+00 4.609847e-01 2.404065e-02 -3.240981e-01 -9.984453e-01 9.195118e-01 1.467852e+00 2.203547e+00 8.205518e-01 -1.389454e-01 2.183588e+00 1.174881e+00 5.635371e-02 
4.374417e+00 7.338885e+00 3.395807e+00 1.302609e+00 -3.846977e+00 -8.013119e+00 -3.217979e-01 6.262336e+00 -2.877599e+00 -9.303849e+00 3.382011e+00 2.972749e+00 1.163750e-01 3.758536e+00 -2.635299e-01 6.180087e-02 -6.534582e-01 -3.309374e+00 1.031917e+00 3.116807e-01 -3.734565e-01 1.892107e+00 5.046773e-01 2.893214e-02 1.230762e+00 1.378355e-01 
1.027035e+01 1.075568e+01 1.136515e+00 -5.868232e+00 -5.917210e+00 -6.437603e+00 -1.760259e+00 2.156516e+00 -2.661243e+00 -7.097721e-02 4.341434e+00 5.781371e+00 2.730016e-01 3.789150e+00 -1.852783e+00 2.377993e-01 -2.239890e+00 -4.657166e+00 2.161202e+00 -1.853424e-01 -1.171315e+00 3.457911e+00 1.236594e+00 -4.998153e-01 9.087068e-01 1.755930e-01 
1.881940e+01 1.523018e+00 9.230938e-01 -3.997483e+00 -1.518284e+01 -5.875677e+00 4.422165e-01 2.904757e-01 6.887053e+00 -2.016803e+00 -2.017783e+00 6.230497e+00 6.840636e-01 3.758059e+00 -3.865405e+00 8.067676e-01 -3.120042e+00 -5.198202e+00 3.469477e+00 -1.282307e+00 -9.166119e-01 3.951657e+00 -3.670473e-01 -3.438269e-01 -2.578883e-01 2.047317e-01 
1.899025e+01 -2.550666e+00 4.784882e+00 -9.419308e+00 -2.191962e+01 1.560964e+00 -4.282232e+00 1.135749e+00 1.149523e+01 -7.082688e+00 3.191395e+00 5.392065e+00 8.057485e-01 1.890048e+00 -4.546592e+00 1.063866e+00 -2.081151e+00 -4.101036e+00 3.949790e+00 -8.460202e-01 4.635649e-01 1.842195e+00 -1.780449e+00 -8.090485e-01 -8.542126e-01 1.494297e-01 
1.880476e+01 -5.334966e+00 5.605462e+00 -1.252206e+01 -2.183678e+01 5.334982e+00 -5.472345e+00 2.189661e+00 9.802449e+00 -7.633231e+00 2.237896e+00 1.877960e+00 8.736602e-01 5.896368e-02 -2.821632e+00 -1.019824e-01 -1.592568e+00 -1.600230e+00 4.229314e+00 1.238562e-01 -1.236604e-01 -5.529960e-01 -1.694764e+00 -2.128407e-01 -8.097976e-01 6.768706e-02 
1.972791e+01 -8.548289e+00 4.114663e+00 -1.201169e+01 -2.309542e+01 7.706019e+00 -3.033079e+00 3.524748e+00 5.092033e+00 -6.165009e+00 -1.831649e+00 3.686576e+00 9.253518e-01 -1.373890e-01 -2.438592e+00 -1.214462e+00 -2.430286e-01 6.938854e-01 3.190307e+00 1.058298e+00 -5.450495e-01 -2.000792e+00 -3.151487e-01 -1.558770e+00 -1.854297e-02 4.489276e-02 
1.874539e+01 -9.586329e+00 7.482913e-01 -1.066413e+01 -2.259609e+01 1.219837e+01 4.369211e-01 -1.522326e+00 7.323673e+00 -1.094946e+01 -5.704648e-01 3.034254e+00 9.626972e-01 -4.691548e-01 -1.890413e+00 -1.923377e+00 8.664625e-01 1.649845e+00 2.806918e+00 8.249153e-01 -1.555447e+00 -2.098741e+00 6.771365e-01 -1.135890e+00 9.347324e-01 3.130215e-02 
1.833299e+01 -1.261795e+01 1.141159e+00 -1.156342e+01 -1.807054e+01 1.408081e+01 -1.945378e+00 2.664943e-01 2.730661e+00 -7.000316e+00 -3.198274e+00 4.721203e+00 9.856938e-01 -7.027400e-01 -1.409474e+00 -1.745551e+00 1.251793e+00 2.593893e+00 1.999099e+00 -4.399339e-01 -2.018159e+00 -1.828923e+00 1.894081e+00 -4.172457e-01 7.213696e-01 1.758879e-02 
1.715645e+01 -1.275220e+01 -2.524672e+00 -8.413888e+00 -1.610000e+01 1.618218e+01 -1.891619e+00 -3.958450e+00 4.894311e-01 -3.829895e+00 -2.758243e+00 6.034309e+00 1.000000e+00 -8.182322e-01 -8.625600e-01 -1.010790e+00 1.101168e+00 3.239156e+00 7.784130e-01 -2.100134e+00 -7.170656e-01 -2.548131e+00 3.298818e+00 1.052556e-01 -2.202637e-02 3.519416e-04 
1.700868e+01 -1.401272e+01 -2.976613e+00 -6.877847e+00 -1.337400e+01 1.570961e+01 -4.068479e+00 -5.347987e+00 -6.354606e-01 -2.543876e-01 -2.823988e+00 5.793396e+00 9.946443e-01 -7.145321e-01 -4.804451e-01 -5.683063e-01 1.643896e+00 2.399757e+00 -1.474276e-01 -2.283130e+00 -4.168622e-01 -1.382374e+00 2.404629e+00 1.390465e+00 -1.281081e+00 -1.720777e-02 
1.531638e+01 -1.320174e+01 -2.246774e+00 -7.501072e+00 -8.748579e+00 1.527603e+01 -9.002198e+00 -2.300414e+00 -3.733922e+00 2.171664e+00 -2.313300e-01 2.388025e+00 9.599816e-01 -3.583460e-01 -3.927321e-01 4.461396e-01 1.500756e+00 1.513944e+00 -1.451257e+00 -1.553498e+00 -2.682730e-01 -6.313201e-01 2.490327e+00 1.289033e+00 -1.467352e+00 -3.256113e-02 
1.568036e+01 -1.479540e+01 -1.839321e+00 -3.800344e+00 -9.747463e+00 1.379674e+01 -9.805740e+00 -2.646835e+00 -2.069533e+00 2.022049e+00 2.490597e+00 1.389400e-01 9.196641e-01 -1.387500e-01 -7.156686e-02 1.054009e+00 1.974023e+00 1.813157e-01 -1.912951e+00 -1.145278e-01 -1.233475e+00 2.674921e-01 2.065128e+00 1.860639e+00 -1.379596e+00 -4.888029e-02 
1.602888e+01 -1.432452e+01 -8.626192e-01 -2.448859e+00 -1.034355e+01 9.882328e+00 -6.790477e+00 -6.650391e+00 -1.950133e+00 7.483522e+00 1.029627e+00 1.524775e+00 8.746845e-01 -2.190638e-01 8.233632e-01 1.469251e+00 2.547545e+00 -1.682205e-02 -2.759617e+00 1.369473e+00 -1.712835e+00 1.550904e-01 1.417407e+00 2.076005e+00 -1.553159e+00 -7.283016e-02 
1.595868e+01 -1.380917e+01 1.601354e+00 4.661615e-01 -1.166994e+01 8.841711e+00 -5.746978e+00 -9.340376e+00 -1.898947e-01 7.415323e+00 5.848728e+00 -6.729578e-01 7.928915e-01 -6.891241e-02 2.487544e+00 1.663802e+00 2.351697e+00 1.630089e+00 -3.727172e+00 1.826250e+00 -8.268263e-01 -1.708392e+00 -5.524825e-01 1.670513e+00 -1.501243e+00 -8.620095e-02 
1.408190e+01 -9.578044e+00 3.379141e+00 3.103400e+00 -7.871453e+00 3.955463e+00 -4.184216e+00 -7.517816e+00 -3.898289e+00 6.562060e+00 8.469629e+00 -4.971821e+00 6.592171e-01 -1.775492e-01 3.107851e+00 1.648103e+00 1.820468e+00 2.846854e+00 -3.840965e+00 1.436361e+00 1.592263e-01 -3.223231e+00 -2.269450e+00 1.613778e+00 -1.889766e+00 -8.352532e-02 
1.630928e+01 -4.730919e+00 4.358807e+00 5.182014e+00 -2.833068e+00 -1.875684e+00 -1.977623e+00 -6.347254e+00 -9.637417e+00 -2.796328e-01 7.123161e+00 -4.118976e+00 5.963930e-01 -9.123327e-01 5.092381e+00 2.342702e+00 1.434465e+00 3.419929e+00 -3.656010e+00 1.676079e+00 1.190751e+00 -3.263405e+00 -1.661998e+00 6.616878e-03 -1.594184e+00 -7.852527e-02 
1.496583e+01 -3.324389e+00 5.999172e+00 4.295557e+00 -5.277143e-01 -3.963795e+00 -1.493351e+00 -7.350821e+00 -1.334253e+01 -1.624978e-02 8.461301e+00 -6.201043e+00 5.553071e-01 -1.042951e+00 4.884345e+00 1.696936e+00 1.634565e-01 2.472844e+00 -2.261287e+00 1.578425e+00 1.701992e+00 -2.059958e+00 -4.077686e-01 -1.773573e-01 -8.393324e-01 -6.609666e-02 
1.095505e+01 8.525914e+00 1.200485e+01 7.042409e+00 1.757837e+00 -5.478707e+00 1.287986e+00 -3.470119e+00 -1.178480e+01 2.394488e+00 5.885977e+00 -8.029267e+00 4.522201e-01 -1.622886e+00 3.276826e+00 9.348774e-01 -1.455092e-02 1.285897e+00 -1.103081e+00 6.267376e-01 1.981951e+00 -4.238583e-01 4.737067e-01 -4.595132e-01 -1.488244e+00 -6.021982e-02 
1.154426e+01 8.215265e+00 8.040798e+00 2.990485e+00 2.197314e+00 -5.549459e+00 2.075104e+00 -4.464217e-01 -1.312438e+01 3.186157e+00 8.201435e+00 -7.213337e+00 4.008203e-01 -1.622557e+00 1.865483e+00 1.705828e-01 1.767787e+00 1.572757e+00 -4.190854e-01 1.045221e+00 1.756110e+00 1.745670e+00 -8.974308e-01 -2.255086e+00 -2.083176e-01 -5.983327e-02 
9.905636e+00 5.883382e+00 8.012381e+00 5.761795e+00 2.233901e+00 -6.598260e+00 -6.281621e-01 1.103027e-01 -1.186578e+01 4.876977e-01 4.955528e+00 -1.105405e+01 3.725373e-01 -1.382713e+00 -7.539058e-01 -1.642652e+00 1.010981e+00 1.847508e+00 1.128311e+00 8.243370e-01 1.239399e+00 3.209475e+00 -2.324671e-01 -2.507710e+00 8.910357e-01 -6.418288e-02 
7.377753e+00 7.324291e+00 8.848321e+00 1.377480e+01 7.098041e+00 -5.499446e+00 4.690828e+00 -3.604835e-01 -4.573690e+00 -3.550009e+00 -2.348905e+00 -5.730241e+00 2.959822e-01 -1.876333e+00 -1.078519e+00 -1.958038e+00 4.994272e-01 1.874820e+00 2.121279e+00 2.162448e+00 1.288315e+00 4.020287e+00 7.197453e-01 -2.664568e+00 8.830109e-01 -7.409693e-02 
6.124741e+00 5.201873e+00 3.387831e+00 6.705159e+00 8.545015e+00 1.378436e-01 4.101810e+00 2.683907e+00 -1.277685e-02 4.600235e+00 -1.377403e+00 -4.315637e+00 1.837248e-01 -1.632342e+00 -1.398247e+00 -2.417739e+00 -1.519254e+00 1.119581e+00 2.153934e+00 1.737810e+00 1.407920e+00 2.676152e+00 6.270295e-01 -1.527684e+00 8.678776e-01 -7.307085e-02 
4.053045e+00 3.163425e+00 5.628839e-01 5.015939e+00 8.415858e+00 1.688885e+00 1.052236e+01 4.708353e+00 1.050547e+00 4.728614e+00 -1.954938e+00 -6.167488e+00 1.247419e-01 -1.170986e+00 -1.086931e+00 -1.842987e+00 -2.549500e+00 -1.050750e+00 5.130082e-01 1.400831e+00 1.189312e+00 3.831343e-01 -7.104532e-01 -4.542455e-01 1.942078e-01 -5.141661e-02 
3.406279e+00 9.725774e-01 6.640583e-02 2.544957e+00 7.172899e+00 5.772450e-01 5.145124e+00 4.615484e+00 -1.297137e+00 -5.164658e-01 -2.879876e+00 -6.496037e+00 9.280318e-02 -1.391143e+00 -1.986717e-01 -5.814386e-01 -7.931282e-01 -1.048362e+00 1.265840e-01 6.993749e-01 -7.601444e-01 -6.008921e-01 -2.269519e+00 -3.922855e-01 4.892654e-01 -2.272628e-02 
2.882056e+00 4.004282e+00 1.294096e+00 3.107403e+00 2.530349e+00 -3.154106e+00 1.117332e+01 4.620290e+00 -2.015839e+00 -4.543924e+00 -3.868896e+00 -3.669002e+00 8.435994e-02 -1.326484e+00 -4.967182e-02 -5.085435e-01 -4.583750e-02 -1.848387e+00 -4.641698e-01 -1.669707e+00 -1.995698e+00 -7.085893e-01 -1.749505e+00 1.129840e-01 4.818342e-01 -6.293899e-03 
-2.454796e-01 3.788086e+00 1.150317e-01 3.693786e+00 6.245957e+00 3.192260e+00 7.273202e+00 -1.072784e+00 -1.484044e+00 -2.111089e+00 -2.381851e+00 -3.118552e+00 9.028435e-02 -1.239844e+00 1.232199e-01 -7.547335e-02 1.026987e-01 -1.272932e+00 -5.408607e-01 -1.688363e+00 -2.518116e+00 -4.873466e-01 -2.510505e-01 3.433949e-01 2.236007e-01 -5.430245e-03 
-7.534952e-01 1.507312e+00 -2.004147e+00 4.212337e+00 -3.626060e-01 -1.939471e+00 1.109789e+00 -2.426004e+00 -2.398946e+00 -3.221601e+00 -1.639031e+00 -5.447059e+00 9.453183e-02 -9.102249e-01 -1.912186e-01 -8.843257e-02 -3.270728e-01 -1.346980e-01 -1.049163e+00 -3.279436e+00 -1.330361e+00 -1.212480e-01 8.512682e-01 3.407296e-01 2.207101e-01 -1.284969e-02 
-9.751635e-01 2.837162e+00 1.338161e+00 2.505983e+00 2.254714e+00 -2.734376e+00 1.735075e+00 -4.451947e+00 -3.542317e+00 -2.432880e+00 -2.277834e+00 -4.489004e+00 6.056601e-02 -4.186628e-01 -6.563544e-02 -2.232909e-03 -5.750213e-01 3.074941e-01 -1.482762e+00 -1.308863e+00 7.249219e-01 1.527360e+00 1.214944e+00 3.114049e-01 1.218460e+00 -1.787829e-02 
-1.304227e+00 3.523651e+00 2.403690e-01 2.065940e+00 3.852481e+00 -5.436601e+00 -2.454792e+00 -3.419347e-01 -1.592942e+00 -1.266875e-01 -2.217257e+00 -1.880225e+00 3.497064e-02 -2.954519e-01 3.942402e-01 4.741794e-01 -4.489726e-01 1.554747e+00 9.701451e-02 7.601872e-01 1.614238e+00 1.947634e+00 8.725392e-01 9.240925e-01 1.233917e+00 -1.522539e-02 
-2.063428e+00 2.451739e+00 -1.018391e+00 1.891878e+00 5.675885e+00 -2.472987e+00 2.511180e+00 1.509791e+00 5.749754e+00 2.416177e+00 -5.357138e-01 1.190333e+00 3.067350e-02 -4.904439e-01 8.850472e-02 -4.047818e-02 3.532852e-01 5.535267e-01 6.856573e-01 6.433023e-01 6.437272e-01 2.219528e-01 -7.325195e-01 2.985633e-01 2.935755e-01 -3.179008e-03 
-1.686623e+00 3.671224e+00 1.545026e+00 2.274526e+00 5.700542e+00 -1.585093e+00 4.522672e+00 2.664316e+00 2.693189e+00 -1.283433e+00 2.110372e+00 -2.117145e+00 3.335112e-02 -5.734752e-01 2.039036e-01 1.041381e+00 9.407840e-01 4.261128e-01 8.211408e-01 4.218729e-01 -9.235870e-01 -6.527960e-01 -1.470761e+00 4.873627e-01 4.667831e-01 2.378941e-04 
-3.236185e+00 3.205898e+00 4.834411e-01 4.168116e+00 4.098317e+00 -1.231844e+00 1.462854e+00 -2.736437e+00 -4.575619e+00 -5.517105e+00 -2.948832e+00 -2.902667e+00 4.548073e-02 -4.641653e-01 3.572161e-01 8.017494e-01 5.099944e-01 -3.496597e-01 -1.722677e-01 -4.929635e-01 -7.101670e-01 -1.227120e+00 -1.534391e+00 4.320270e-01 -2.740327e-01 5.040347e-04 
-3.585224e+00 4.166089e+00 4.696356e+00 5.631741e+00 6.771830e+00 -1.951469e+00 1.787349e-01 -2.836756e+00 3.057642e-01 -3.513853e+00 1.426116e+00 2.500191e+00 2.875650e-02 -4.504593e-01 6.194379e-02 6.471299e-02 -1.409018e-01 1.669728e-01 -3.423221e-01 -1.111652e+00 -8.409432e-01 -5.161934e-01 -1.091643e-01 3.923893e-02 6.089732e-01 -5.798304e-03 
-3.434954e+00 3.990387e+00 1.414692e+00 2.763243e+00 3.391943e+00 -3.151138e+00 2.218331e+00 7.094921e-01 8.078644e-01 -4.140568e+00 1.966549e+00 -2.488498e+00 3.549099e-02 -2.619717e-01 -1.139742e-01 2.582094e-01 -4.576979e-01 -2.513637e-01 4.153933e-02 -2.149435e-01 5.987900e-01 8.901863e-01 1.046147e+00 -2.179752e-01 -8.183891e-01 -9.237230e-03 
-3.839535e+00 3.588699e+00 1.402966e+00 2.272454e+00 6.888593e+00 -2.337056e+00 -1.413325e+00 -3.263364e+00 -2.579520e+00 -2.517523e+00 -1.511241e-01 7.206369e-01 9.354472e-03 2.017830e-01 -7.429530e-02 -2.678954e-01 -1.283136e-01 -4.107611e-01 1.082511e+00 3.223436e-01 8.806378e-01 1.128767e+00 8.079675e-01 -1.851029e+00 -1.685268e+00 -3.474349e-03 
-4.418888e+00 2.924722e+00 3.421183e+00 3.559270e+00 2.783117e+00 -8.313532e-01 1.184166e+00 4.708179e-01 1.317955e+00 -7.845333e-01 -3.250088e+00 -6.104836e+00 8.995593e-03 3.549067e-01 2.190179e-01 3.966688e-01 8.174871e-01 2.183191e-01 1.160008e+00 5.937843e-01 2.220534e+00 2.627168e+00 1.036822e+00 -1.821774e+00 -6.523410e-01 -5.172717e-03 
-2.084342e+00 4.327445e+00 2.353633e+00 4.592159e+00 5.022437e+00 2.301194e+00 2.307535e+00 1.685770e+00 5.694554e+00 -1.152032e+00 -5.220709e+00 -4.117983e+00 2.463245e-02 2.830468e-01 5.110433e-01 4.613401e-01 1.151847e+00 -1.346299e-01 9.729370e-01 1.751893e+00 2.250271e+00 3.226422e+00 2.365070e+00 -1.112139e-01 1.544072e+00 2.120793e-04 
-2.538016e+00 4.716104e+00 2.922702e+00 5.690826e+00 5.416616e+00 3.297751e-01 3.326823e+00 9.337594e+00 9.806666e+00 3.607972e-01 -4.607527e+00 -3.330893e+00 1.988411e-03 -1.686675e-01 3.165584e-02 -4.494498e-01 7.683079e-01 6.358242e-01 8.082897e-01 8.971033e-01 1.082621e-01 6.801505e-01 1.037878e+00 8.945224e-01 2.739114e+00 2.155358e-03 
-3.364737e+00 5.248225e+00 3.958907e+00 6.965910e+00 4.898695e+00 1.947065e+00 6.274810e+00 3.554604e+00 9.308235e+00 8.735164e+00 -2.847427e-02 7.054026e+00 1.391846e-02 -7.514787e-01 -3.175960e-01 -1.688834e-01 4.940574e-01 4.558136e-01 -3.207114e-01 -5.195259e-01 -8.386963e-01 -5.963699e-01 -3.292578e-01 1.376997e+00 2.216499e+00 1.575738e-03 
-4.622028e+00 2.622612e+00 3.712973e-01 6.213934e+00 6.024109e+00 3.387160e+00 3.686046e+00 7.771099e-02 2.911867e+00 -5.387434e-01 -1.373594e+00 2.004729e+00 2.512938e-02 -6.259667e-01 1.765728e-01 -3.117529e-02 -3.108622e-01 4.782001e-01 -3.440380e-05 -1.887098e+00 -1.679901e+00 -1.621757e+00 -8.457578e-01 8.683850e-01 8.698896e-01 7.431978e-03 
-4.799729e+00 3.786211e+00 2.784918e+00 6.800892e+00 6.997758e+00 -8.310552e-01 -4.697054e-01 2.122230e+00 6.160105e+00 -2.348551e+00 4.730809e-02 4.296699e+00 2.094066e-02 -2.121384e-01 1.277577e-01 3.037670e-01 -4.259442e-01 6.039501e-01 2.564664e-01 -1.044577e+00 -6.265582e-01 -1.993224e+00 -1.927188e+00 -4.443176e-01 -1.359310e+00 -7.238865e-04 
-4.950354e+00 6.329975e+00 3.353820e+00 4.219024e+00 6.758084e+00 1.718663e+00 -2.736407e+00 1.654278e+00 3.271945e+00 1.673865e+00 -3.034933e-01 2.397218e+00 3.563720e-02 1.297541e-01 4.553797e-01 7.833861e-01 -4.836008e-01 1.402303e-01 -3.760047e-01 -5.313568e-02 -2.099025e-01 -1.073439e+00 5.565955e-02 6.906371e-01 -9.600157e-01 -7.121068e-03 
-4.261266e+00 4.033332e+00 3.986480e+00 5.833644e+00 7.551457e+00 4.063645e+00 4.263151e+00 -3.664701e-01 -8.379228e-01 -2.007078e+00 -2.785113e+00 6.123382e-02 5.045116e-03 4.100332e-02 -7.301531e-02 -4.990024e-02 -8.188589e-01 6.657566e-01 6.643862e-01 2.014380e+00 2.793706e-01 5.145454e-01 1.406214e+00 7.350175e-01 -7.659849e-01 -7.538480e-03 
-4.242490e+00 4.775950e+00 3.687447e+00 4.279554e+00 6.448411e+00 -9.402137e-01 1.053939e+00 2.725483e-01 1.043687e+00 -4.311819e-01 3.495802e+00 -6.776172e-01 -2.528191e-03 -6.839609e-02 -4.098841e-01 -3.588309e-01 -6.242695e-01 1.037651e+00 3.959970e-01 2.433073e+00 9.687757e-01 2.383492e+00 1.586447e+00 8.860343e-01 1.156906e-01 -6.932664e-03 
-4.948645e+00 4.198147e+00 2.368604e+00 2.676332e+00 1.048138e+01 3.820314e+00 7.707022e+00 4.209948e+00 9.846961e+00 5.735040e+00 1.822748e+00 2.004192e+00 2.330959e-03 -2.080913e-01 -2.481732e-02 -4.554596e-01 -7.917845e-01 9.892809e-01 4.273865e-01 1.354082e+00 1.309023e+00 3.017304e+00 2.165046e+00 7.542667e-01 6.567725e-01 -5.691648e-05 
