-4.879314e+00 6.209208e+00 -6.988181e-01 1.882297e+00 2.508365e+00 1.840392e+00 6.603242e+00 1.510210e+00 3.382620e+00 2.460494e+00 -2.069106e+00 2.948365e+00 -1.512927e-01 4.340879e-01 -2.404968e-01 -1.089733e+00 -1.948424e-01 7.277457e-02 8.247228e-01 -5.558741e-02 -9.508147e-02 -1.334553e+00 -1.148832e+00 -8.436821e-01 -7.466847e-01 0.000000e+00 
-4.732214e+00 3.022604e+00 -3.187308e+00 1.681953e+00 2.659526e+00 1.277654e+00 5.003093e+00 1.894433e+00 3.849420e+00 -1.851521e+00 -6.650074e+00 -2.118522e+00 -1.512927e-01 4.917498e-01 -1.261008e-01 -8.098549e-01 8.877516e-02 2.766323e-01 3.922531e-01 -3.393734e-01 -1.943460e-01 -1.121314e+00 -6.554769e-01 -7.087636e-03 -5.352415e-02 0.000000e+00 
-2.782425e+00 6.600026e+00 -4.903238e+00 1.008257e+00 2.796657e+00 6.245376e+00 7.125380e+00 8.426913e-01 -3.523545e+00 -1.127661e+00 -3.997033e+00 1.748385e+00 -1.512927e-01 3.727817e-01 -5.094695e-02 -5.193660e-01 -3.295120e-01 -4.334121e-01 2.553380e-02 -2.288456e-01 5.414025e-01 -1.189063e+00 9.545760e-02 1.103086e+00 4.898717e-01 0.000000e+00 
-3.469010e+00 5.383295e+00 -2.645883e+00 2.763192e+00 3.747380e+00 1.599167e+00 4.645307e+00 8.722395e-01 1.229132e+00 9.771866e-01 -1.140581e+00 3.280734e+00 -1.512927e-01 3.188205e-01 1.251265e-01 -5.085865e-01 -6.238937e-04 -1.369341e-01 -1.005991e+00 -7.716554e-01 1.005018e-02 -5.563130e-01 5.076930e-01 1.074752e+00 2.113029e-01 0.000000e+00 
-3.647008e+00 4.774128e+00 -3.566361e+00 -3.058833e-01 -2.026229e-01 1.807305e+00 5.637907e+00 4.728320e+00 -1.252551e+00 1.523428e+00 6.915797e-01 2.698095e+00 -1.512927e-01 -1.274503e-01 -7.207044e-01 -1.599011e-01 6.654072e-01 1.767333e-01 -1.610530e+00 -5.425932e-01 1.023992e-01 2.428204e-01 7.050023e-01 1.228299e-01 -4.110386e-01 0.000000e+00 
-2.705820e+00 4.561185e+00 -6.398679e+00 2.335903e+00 3.474495e+00 -1.533265e+00 1.888552e+00 1.869917e-03 -6.764150e-02 -6.386002e-01 -3.620622e+00 -1.536862e+00 -1.512927e-01 -7.223215e-02 -1.125959e-01 2.178644e-01 1.668423e+00 4.755526e-01 -9.381516e-02 1.620333e-01 -2.924163e-01 -1.020514e+00 -6.742834e-01 -7.971485e-01 7.956909e-02 0.000000e+00 
-3.801271e+00 3.407559e+00 -3.826346e+00 4.548937e+00 3.816766e+00 -2.410570e-01 5.790791e+00 1.789872e+00 -1.661056e+00 3.205244e+00 -2.142863e+00 2.101990e+00 -1.512927e-01 1.255553e-01 5.187265e-01 5.168681e-01 9.862026e-01 1.240272e+00 7.212061e-01 -5.303095e-02 -2.550413e+00 -6.481787e-01 -1.139744e+00 1.594069e-01 9.932073e-01 0.000000e+00 
-3.753039e+00 5.503600e+00 -1.426568e+00 8.677899e+00 4.115448e+00 2.154272e+00 5.379031e+00 8.793818e-01 -3.669187e+00 -3.235139e+00 -3.709102e+00 3.976632e+00 -1.512927e-01 7.324314e-03 8.546503e-01 7.343132e-01 -2.640222e-01 -1.931071e-02 6.886957e-02 -4.221888e-01 -2.337963e+00 -1.403995e-01 -5.619688e-01 9.658560e-01 1.433833e+00 0.000000e+00 
-2.495622e+00 6.896553e+00 -3.468076e+00 1.454132e+00 5.678263e+00 3.569567e+00 3.627513e+00 -8.462500e+00 -2.692672e+00 -2.877025e+00 1.532854e+00 4.907385e+00 -1.512927e-01 1.413243e-01 7.333800e-01 -1.656482e-02 -2.144222e-01 -3.860745e-01 -6.295308e-01 -1.579795e+00 -1.938603e+00 -3.408303e-01 -1.468594e+00 2.501454e-02 2.539373e-03 0.000000e+00 
-3.322023e+00 7.089940e+00 -2.906248e+00 2.563195e+00 2.447193e+00 -3.094229e+00 8.592472e-01 -6.561760e+00 -2.538308e-01 -4.073096e-01 -6.292007e-01 4.229603e+00 -1.512927e-01 1.373195e-01 -1.527158e-01 -4.212679e-01 -5.824064e-01 -8.455911e-01 -6.422658e-01 -5.438881e-01 1.307319e+00 4.800422e-01 -9.676523e-01 -6.267311e-01 -7.548158e-02 0.000000e+00 
-3.310158e+00 6.281290e+00 -3.169330e+00 6.534178e+00 2.720521e+00 -7.644608e-01 1.517105e-01 -4.182573e+00 -5.072886e+00 -5.551642e+00 -3.557741e+00 1.988202e+00 -1.512927e-01 2.449944e-01 -3.557541e-01 7.428028e-02 8.453366e-01 -1.313580e+00 -7.909307e-01 -1.733077e-02 2.136450e+00 1.342423e-02 -4.083633e-01 -1.260309e+00 -1.713143e+00 0.000000e+00 
-2.659174e+00 5.047652e+00 -3.682281e+00 3.225844e+00 1.366364e+00 1.109957e+00 4.397492e+00 5.276013e+00 -7.886946e-02 -6.736092e+00 -4.297460e+00 5.058816e+00 -1.512927e-01 5.326970e-01 -1.017178e-01 1.334213e-01 -2.838564e-01 -3.351080e-01 2.982320e-01 2.130285e-01 1.155525e+00 4.759305e-02 1.707873e-01 -6.086500e-01 -1.733678e+00 0.000000e+00 
-1.602075e+00 6.138927e+00 -2.708658e+00 5.349490e+00 -3.492241e-01 -2.487179e+00 1.771737e+00 -3.699136e+00 -2.713032e+00 -1.754451e+00 -2.934563e+00 -4.072936e+00 -1.512927e-01 -2.413130e-02 -3.058490e-01 8.735771e-02 5.130409e-02 1.050451e+00 -1.582568e-01 1.677175e-01 3.631622e-01 8.987945e-01 4.883027e-01 6.297767e-02 -1.413751e+00 0.000000e+00 
-1.512580e+00 6.652533e+00 -2.469477e+00 1.736257e+00 2.306526e+00 -7.417099e-01 1.114377e+00 -1.025853e+00 -1.195793e+00 -1.451969e+00 -3.984040e+00 -1.408218e+00 -1.512927e-01 -4.607254e-01 -4.090778e-01 -1.771595e-01 5.240881e-01 1.828329e+00 1.044396e+00 2.906322e-04 -6.346912e-01 9.401175e-01 3.571407e-01 1.384634e-01 -4.921399e-01 0.000000e+00 
-4.004111e+00 3.949605e+00 -3.338943e+00 7.535492e+00 7.502694e+00 -6.299115e-01 2.631855e+00 7.841705e-01 -2.045143e-02 -5.752190e+00 -3.399563e+00 -1.847034e+00 -1.512927e-01 -4.586712e-01 -5.796047e-01 -4.227931e-02 6.108489e-01 1.180773e+00 2.342807e+00 3.193462e-01 5.625862e-01 3.758228e-01 -2.257284e-01 9.302891e-01 1.159859e+00 0.000000e+00 
-3.761783e+00 4.096924e+00 -4.252935e+00 4.753284e+00 6.582053e+00 5.403303e+00 3.968886e+00 -1.390959e-01 3.275428e+00 -2.951518e+00 -3.372643e+00 1.485166e+00 -1.512927e-01 -9.025078e-02 -4.981255e-01 3.309622e-01 5.388229e-01 5.865731e-02 1.297496e+00 2.732785e-01 -6.442172e-01 -4.572312e-01 5.167779e-01 5.841649e-01 5.161455e-01 0.000000e+00 
-2.770829e+00 4.518707e+00 -2.028326e+00 6.895221e+00 3.416877e+00 6.154349e+00 1.941214e+00 -1.329583e+00 -3.069528e+00 -2.133318e+00 1.411184e+00 2.796691e-01 -1.512927e-01 2.825242e-01 -5.633247e-03 5.342069e-01 -5.285791e-01 -1.297297e+00 -5.502057e-03 5.648408e-01 -7.218013e-01 -5.623831e-01 1.244402e+00 1.142745e+00 2.487312e+00 0.000000e+00 
-2.580475e+00 3.877354e+00 -1.469975e+00 4.750506e+00 4.642721e+00 2.353640e+00 2.826090e+00 -3.190062e+00 -1.957411e+00 -6.775158e-01 -3.468589e+00 1.091578e-01 -1.512927e-01 3.376864e-01 -9.548599e-02 3.906631e-01 -2.886199e-01 -8.587160e-01 -1.744849e+00 1.381191e-01 5.043899e-01 -2.722266e-02 1.348975e-01 -2.633023e-01 1.238179e+00 0.000000e+00 
-3.182144e+00 4.031223e+00 -2.059389e+00 4.893985e+00 1.985873e+00 8.674098e-01 6.027457e+00 -1.299353e+00 -2.159473e-01 -6.671802e-01 2.362134e+00 1.127753e+01 -1.512927e-01 -1.296817e+00 -2.454714e+00 1.069864e+00 4.298539e-01 -2.549919e+00 -1.228277e+00 1.906451e+00 -1.313610e+00 2.612298e+00 9.161954e-02 2.785430e-01 8.615581e-01 7.379947e-02 
-1.867693e+00 3.863236e+00 -2.284088e+00 4.310802e+00 3.003974e+00 -6.774719e-01 2.616359e+00 2.367739e+00 1.712525e+00 -3.010100e+00 -5.164630e+00 2.177129e+00 -1.512927e-01 -2.576282e+00 -4.075815e+00 1.241475e+00 8.027989e-01 -4.611679e+00 -9.908943e-01 1.439959e+00 -3.442694e+00 2.128698e+00 -4.756286e-01 1.029554e+00 -6.801302e-01 1.534273e-01 
-9.611307e+00 -7.747806e+00 3.728051e+00 9.264343e+00 -8.513345e+00 1.528520e+00 1.157833e+01 -1.067654e+01 8.156994e+00 -5.089287e-01 3.651919e+00 3.553473e+00 2.177047e-01 -2.663743e+00 -1.841216e+00 1.783055e+00 -2.893457e-01 -3.720388e+00 -1.558559e+00 -7.795208e-01 -3.402174e+00 -8.830608e-01 1.157198e+00 -8.125409e-01 -1.330679e+00 1.132540e-01 
-1.224730e+01 -1.061221e+01 1.843680e+00 6.579322e+00 -1.316607e+01 -2.931387e+00 7.250450e+00 -1.571494e+01 4.499611e+00 -3.134784e+00 1.034290e+00 5.705350e-01 4.313453e-01 -1.776744e+00 1.121307e+00 -3.570923e-01 -3.157134e+00 -2.825260e-01 -1.946141e+00 -2.148711e+00 7.154088e-02 -2.459377e+00 1.283462e+00 -5.532781e-01 2.969433e-01 8.743382e-02 
-1.131106e+01 2.062863e+00 4.791999e+00 2.312997e+00 -8.531046e+00 -5.798429e+00 -1.871915e-01 -9.268885e+00 -6.024795e+00 5.181152e+00 -4.800030e+00 5.427434e+00 1.236582e-01 2.060791e+00 2.805959e+00 -2.467300e+00 -3.564599e+00 2.455701e+00 -1.636376e+00 -3.827281e+00 4.683177e+00 -3.366545e+00 8.162297e-01 -2.355057e+00 1.016851e+00 1.437408e-02 
-9.901537e+00 4.564437e+00 -4.601524e+00 -7.999193e+00 1.600195e+00 -6.744699e+00 -2.244437e+00 2.021617e+00 -3.493464e+00 5.621706e-01 -3.705045e+00 2.724865e+00 3.328996e-01 3.613229e+00 1.897403e+00 -1.303306e+00 -1.478213e+00 2.887482e+00 5.632443e-01 -2.315224e+00 5.188069e+00 -1.761362e+00 9.093972e-02 -4.275132e-01 1.338312e+00 -7.070466e-02 
-4.802351e-01 -1.306332e+00 -5.385846e+00 -1.269393e+00 -3.617972e+00 -4.746703e+00 -2.810629e+00 3.871072e+00 -4.679194e+00 1.723742e+00 -5.753701e+00 7.560562e+00 3.387979e-01 1.728459e+00 -5.905954e-01 -8.631200e-01 2.564273e-01 1.670502e+00 9.663698e-01 3.565634e-01 3.686927e+00 -6.721902e-02 -8.965185e-01 9.129144e-01 8.211794e-01 -3.691033e-02 
4.034309e-01 5.594039e-01 4.160709e-01 9.794505e-01 -1.185194e+00 -6.410280e-01 -3.013950e+00 3.655430e+00 -4.980000e+00 -9.513808e-01 -6.264406e-01 6.195530e+00 -2.974784e-02 -3.068286e-01 -7.681609e-01 1.128003e+00 1.104397e+00 4.869814e-02 3.826359e-01 6.572642e-01 1.474146e+00 -6.787223e-01 -3.712218e-01 6.506909e-01 5.828100e-01 -4.518046e-02 
-7.821245e+00 1.112403e+00 -2.032398e+00 -8.941884e-01 1.214162e+00 -4.018415e+00 1.980382e+00 8.348843e+00 -5.617622e+00 1.455336e+00 -1.774760e+00 7.797998e+00 1.204304e-01 -1.380752e+00 1.207135e+00 8.495172e-01 -9.081011e-02 1.142572e+00 -2.840192e-01 9.485342e-01 2.886170e-01 7.763276e-01 -1.014069e+00 3.161390e-01 -1.568679e+00 -7.342522e-02 
-7.765175e+00 -4.857345e-01 -6.382341e-01 -2.664813e+00 -5.723808e-01 -5.195664e+00 -1.353621e+00 7.153461e+00 -6.417862e+00 -1.159735e+00 -2.441061e+00 5.520197e+00 2.161811e-01 -7.454606e-01 6.723580e-01 -5.845180e-01 1.175824e-01 5.305027e-01 -9.719826e-01 8.906623e-01 -2.637209e-01 2.627931e+00 -1.794062e-02 -9.800096e-01 -2.434513e+00 -5.148127e-02 
-3.299693e+00 5.251915e+00 -6.111074e-01 9.868759e-02 1.788481e+00 -3.889482e+00 1.101877e+00 3.565142e+00 -7.862616e-02 -3.242426e+00 -3.265696e+00 5.483437e-02 -1.512927e-01 3.859921e-01 -1.587212e+00 -1.373871e-01 2.019692e+00 3.291256e-01 -8.962538e-01 -3.891497e-02 -5.657346e-01 2.975973e+00 -1.636320e-01 -1.039845e-01 -1.494434e+00 -7.129442e-02 
-5.584648e+00 1.851438e+00 -3.217164e+00 1.070925e+00 1.180160e+00 -5.565408e+00 1.878614e+00 4.728676e+00 5.390155e+00 1.307797e+00 -4.781021e+00 -2.105451e+00 -1.512927e-01 2.435187e-01 -2.635756e+00 -1.293542e+00 2.575628e+00 1.781236e+00 1.814291e+00 1.093585e+00 -7.085273e-01 2.951836e+00 9.195015e-01 4.687699e-01 5.347866e-01 -6.082319e-02 
-6.981548e+00 -7.992244e+00 -1.429868e+00 7.336404e+00 1.983519e+00 -8.314813e+00 1.696897e-01 6.732563e+00 3.358234e+00 -5.965902e-01 -1.124703e+00 4.138652e+00 -5.230486e-02 -6.296682e-01 -1.830336e+00 -1.186419e+00 1.189303e+00 2.037152e+00 2.412373e+00 8.771402e-01 -7.364895e-01 3.730565e-01 7.238921e-01 9.568990e-01 1.965676e+00 1.386392e-03 
-4.706654e+00 -7.042436e+00 -6.696563e+00 6.594466e+00 8.236280e+00 6.088456e+00 4.580400e+00 2.027114e+00 6.622890e+00 2.114855e+00 -1.167707e+00 6.152221e+00 -1.374288e-01 -1.742954e+00 1.581354e+00 1.311389e+00 -1.810116e+00 3.002198e+00 2.411404e+00 1.941289e+00 -5.170946e-02 3.550226e-01 1.461233e+00 1.325491e+00 2.404352e+00 2.060958e-02 
-6.887032e+00 5.471711e-01 -4.803504e+00 3.283433e+00 8.446180e+00 2.345452e+00 4.136685e+00 1.233475e+00 1.170288e+00 -2.649409e-02 -2.878574e-01 5.754376e+00 -1.512927e-01 -2.429361e+00 4.224206e+00 2.385525e+00 -4.964914e+00 1.781171e+00 1.285768e+00 2.920436e+00 1.097776e+00 1.053805e+00 1.588473e+00 4.415253e-01 1.303278e+00 3.751722e-02 
-1.434668e+01 5.488499e+00 5.026600e+00 -5.953170e+00 1.295982e+01 1.161482e+00 9.601560e+00 7.219673e+00 8.259241e+00 8.328916e+00 1.428009e+00 9.108446e+00 1.249135e-03 -6.325253e-01 1.697177e+00 2.819658e+00 -3.727135e+00 -1.681469e+00 -8.555928e-01 1.005311e+00 1.668668e+00 -6.063327e-01 1.431732e-01 8.970180e-01 -2.406972e-01 4.081925e-02 
-1.430834e+01 6.863320e+00 4.636177e+00 -1.121435e+01 8.527606e+00 5.775162e-01 1.226129e+01 9.625163e+00 7.809083e+00 4.238743e+00 -2.149348e-01 9.176929e+00 6.594229e-02 1.273762e+00 -1.363271e+00 1.527560e+00 -1.850940e+00 -2.438049e+00 -4.754627e-01 -4.111802e-01 -6.781082e-02 -1.805804e+00 -1.167661e+00 2.879674e-01 -1.415292e+00 6.631128e-02 
-4.158625e+00 -1.714627e+00 2.681885e+00 -4.792321e+00 -2.117774e-01 2.694459e+00 5.544653e+00 6.174613e+00 2.718296e-01 6.981020e-01 3.280921e+00 3.237459e+00 -4.194999e-02 1.134807e+00 -1.865574e+00 -1.473696e+00 -6.080573e-01 -2.486895e+00 -2.023175e+00 -2.631528e+00 -2.746047e+00 -4.558925e+00 -2.374212e+00 -1.485901e+00 -2.769038e+00 9.079075e-02 
-5.612246e+00 -2.667619e+00 4.006654e+00 -6.551694e+00 2.841734e+00 -7.983504e-01 4.109238e+00 1.416951e+00 -3.865024e+00 -2.049391e+00 2.255236e-01 1.613411e+00 2.018633e-01 -1.068994e+00 -8.116461e-01 -1.570046e+00 -8.458322e-01 -7.046566e-01 -2.046841e+00 -3.447001e+00 -2.812564e+00 -3.270290e+00 -4.689914e-01 -6.603549e-01 -2.933781e+00 1.253403e-01 
-1.302069e+01 9.260976e-01 -2.027115e+00 -1.132478e+01 3.368279e+00 -8.266460e+00 5.199480e-01 -2.406454e+00 -8.698331e+00 -3.980751e-01 -6.221724e+00 -9.549847e-01 3.872424e-01 -3.225060e+00 1.481106e+00 -1.175056e+00 -1.704964e+00 1.571834e+00 -2.427137e+00 -2.173280e+00 -7.942072e-01 -9.031588e-01 8.262240e-01 -1.412088e+00 -1.941375e+00 1.449156e-01 
-1.522228e+01 1.484728e+00 -8.595531e-01 -1.217728e+01 3.214295e+00 -4.176229e+00 -2.461360e+00 -1.471217e-01 -4.057288e+00 2.441874e+00 1.234613e+00 -3.395755e+00 4.780474e-01 -2.598868e+00 1.289061e+00 -1.240026e+00 -1.500751e+00 1.478287e+00 -1.192819e+00 -5.343176e-01 1.502136e+00 6.456984e-01 1.824617e+00 6.005794e-01 5.844355e-03 9.741929e-02 
-1.547891e+01 3.614728e+00 -7.602926e-01 -1.050435e+01 7.461111e+00 -7.752285e+00 -2.036445e+00 2.985613e+00 -4.147833e+00 2.583590e+00 -4.284064e+00 -3.964831e+00 5.445360e-01 -1.444561e+00 1.846974e-01 -6.779854e-01 -1.487499e+00 1.376400e+00 2.227193e-01 -3.100491e-01 1.116601e+00 1.138691e+00 1.309849e+00 1.745635e+00 2.095121e+00 6.456573e-02 
-1.737747e+01 2.433372e+00 -2.826887e+00 -1.446567e+01 8.186753e+00 -7.019531e+00 2.715847e+00 6.231596e+00 -2.911781e+00 5.582861e+00 2.259591e+00 3.147556e+00 6.103129e-01 -6.914059e-01 3.105841e-01 -7.674399e-01 -3.708212e-01 1.641161e+00 6.755525e-01 7.709013e-01 2.959579e-01 -6.254158e-01 6.551952e-01 3.717600e-01 1.653640e+00 5.131818e-02 
-1.916590e+01 1.375263e+00 -4.433375e+00 -1.761809e+01 7.764050e+00 -5.731213e+00 -3.618900e+00 -1.280642e-02 -3.577627e+00 4.580678e+00 1.993963e+00 6.248966e+00 6.439382e-01 -6.010963e-01 1.254811e-02 -4.341781e-01 5.977944e-01 7.351443e-01 9.252800e-01 2.312773e-01 -7.137586e-01 -1.234654e+00 3.839383e-01 1.711776e+00 1.677168e+00 4.285105e-02 
-1.683581e+01 4.157381e+00 -2.860211e+00 -1.047451e+01 1.126863e+01 -1.809003e+00 2.184374e+00 2.831878e+00 -7.469470e+00 4.719306e+00 -4.560077e-02 -2.344552e-01 6.849372e-01 -2.801342e-02 -1.981968e-01 -1.571834e-01 1.879300e+00 -9.710073e-02 -3.578531e-01 1.231470e+00 -1.256403e-02 -4.961923e-01 -4.025861e-01 -1.955414e-01 -4.748835e-01 2.583225e-02 
-1.875522e+01 2.815464e+00 -2.914521e+00 -9.510950e+00 9.595894e+00 -5.731149e+00 -6.143227e-01 1.116679e+00 -8.042258e+00 4.935059e+00 5.427414e+00 6.112013e+00 7.214791e-01 -4.585361e-02 -5.806226e-01 2.712905e-02 1.545596e+00 -8.892256e-01 -6.844642e-01 2.593476e+00 -4.275221e-01 -7.873734e-01 5.503049e-02 -1.199511e+00 -1.245903e+00 1.942027e-02 
-1.772288e+01 7.222874e-01 -4.372231e+00 -9.122734e+00 6.785328e+00 -8.808828e+00 7.370906e+00 5.604033e+00 -3.160427e+00 3.392740e+00 -4.348418e-01 8.416156e-01 7.007037e-01 -8.371105e-02 -5.868458e-01 4.550990e-01 6.442068e-01 -1.866315e+00 -1.632768e+00 7.640408e-01 -1.059493e+00 -4.758634e-01 -9.554111e-01 -1.429561e+00 -5.650800e-01 -3.307074e-03 
-1.895163e+01 1.896966e-01 -3.541720e+00 -1.056600e+01 5.559574e+00 -5.653621e+00 6.755212e+00 -3.536495e+00 -9.669016e+00 5.519113e+00 -3.808971e+00 -5.185819e-01 7.331563e-01 1.232062e+00 4.111791e-01 1.084911e-01 -5.636063e-01 -2.530453e+00 -2.126014e+00 -7.947394e-01 -9.330444e-01 7.812322e-01 -3.108271e-01 -1.464027e+00 -1.150073e+00 -2.661551e-02 
-1.715616e+01 2.536036e+00 -2.711167e-01 -6.725959e+00 3.955217e+00 -1.001161e+01 2.319811e+00 -1.389983e-01 -9.035408e+00 -3.497767e-01 -2.575214e+00 2.554418e-01 6.625632e-01 2.755526e+00 3.954579e-01 -4.393760e-01 -2.444609e+00 -4.209004e+00 -3.309933e+00 -2.606980e+00 -1.345421e+00 6.971375e-01 6.861113e-01 4.752265e-01 2.657221e-02 -6.127180e-02 
-1.287827e+01 3.964485e+00 -4.422623e+00 -1.352737e+01 -1.641318e+00 -1.575983e+01 -2.062472e+00 -6.770273e-01 -1.198606e+00 5.252182e+00 -8.225335e-01 6.547330e-01 6.074718e-01 4.608350e+00 -3.076803e-01 1.543242e-01 -6.390738e-01 -3.452502e+00 -1.581189e+00 -1.308803e+00 1.498503e+00 3.166917e+00 1.829752e+00 2.548610e+00 1.327465e-01 -1.061106e-01 
-6.981926e+00 8.121827e-01 -6.128660e+00 -1.986509e+01 -1.065925e+01 -2.030539e+01 -1.255153e+00 -2.552807e+00 -3.909944e+00 6.956762e+00 4.480716e-01 3.878192e-01 4.571870e-01 6.525063e+00 -1.953698e+00 2.065624e+00 1.168919e+00 -4.023357e+00 2.383654e+00 -1.004367e+00 1.178328e+00 2.521821e+00 8.779106e-01 2.361232e+00 -1.448646e+00 -3.392228e-02 
-9.970045e-01 -4.867783e-01 1.586730e-01 -7.191799e+00 -4.395706e+00 -8.412675e+00 1.998679e+00 5.162927e+00 3.602836e+00 1.101460e+01 7.422436e+00 7.896185e-02 3.052917e-01 6.709783e+00 -4.013799e+00 3.114274e+00 3.560476e+00 -2.520427e+00 6.797159e+00 -1.334571e+00 2.316235e-01 1.566136e+00 -8.595673e-01 1.721812e+00 -2.195107e+00 5.762985e-02 
9.528517e+00 -5.006823e+00 7.766356e+00 -4.049147e+00 -1.478438e+01 -1.766918e+00 -4.732597e+00 2.832663e+00 1.172973e+00 1.158565e+00 5.108461e+00 -6.699901e+00 6.440419e-01 5.180749e+00 -4.930379e+00 2.035763e+00 3.138784e+00 -2.089869e+00 7.702043e+00 -2.754922e+00 -2.874325e-01 1.788734e+00 -3.831643e-01 1.008687e+00 -2.636410e+00 1.528550e-01 
1.241542e+01 -1.319500e+01 4.201239e+00 -3.632965e+00 -1.218089e+01 8.956727e+00 -6.996605e+00 -2.211645e+00 4.090614e+00 3.853443e+00 5.456334e+00 -6.776941e+00 8.021936e-01 2.925258e+00 -4.813848e+00 -5.405535e-01 3.152483e-01 -2.938123e+00 4.984197e+00 -2.798513e+00 -1.634904e+00 7.024690e-01 5.189781e-02 -4.662953e-01 -1.711374e+00 1.697497e-01 
1.221561e+01 -1.748560e+01 2.028872e+00 -5.950588e+00 -1.721600e+01 9.520118e+00 -1.053212e+01 -3.026834e-01 4.789837e+00 8.621521e+00 6.474558e+00 -9.366278e+00 9.730110e-01 5.342237e-01 -3.363120e+00 -2.006124e+00 -3.514501e-01 -9.600512e-01 2.991809e+00 -9.945335e-01 -4.241735e-01 8.051845e-01 9.956933e-01 -1.051483e-01 -4.448943e-02 8.992783e-02 
1.228574e+01 -1.831663e+01 3.246479e-01 -4.664837e+00 -1.787051e+01 1.086479e+01 -9.094124e+00 -1.443918e+00 5.306749e+00 7.542615e+00 4.407911e+00 -7.144721e+00 9.895557e-01 8.336035e-02 -1.518631e+00 -1.009831e+00 -2.027524e-01 -5.867615e-01 8.557039e-01 4.175997e-02 5.974261e-01 5.423026e-02 -7.438960e-01 -3.375524e-01 3.106177e-01 4.094543e-02 
1.226448e+01 -1.926161e+01 -3.259709e-01 -5.290462e+00 -1.673982e+01 1.223809e+01 -8.656506e+00 3.279324e-01 4.590827e+00 4.292446e+00 5.106931e+00 -6.738458e+00 1.000000e+00 2.689527e-01 -6.691883e-01 -1.684404e-01 -1.076455e-01 1.093385e+00 -4.405069e-02 6.934384e-01 2.293523e-01 -1.146327e-01 -1.906500e+00 -4.503381e-01 1.067194e+00 1.039982e-03 
1.280779e+01 -1.990015e+01 3.295046e-01 -4.976790e+00 -1.535279e+01 1.187626e+01 -7.725612e+00 4.601777e-01 4.461270e+00 2.298501e+00 4.452385e+00 -6.537762e+00 9.934263e-01 6.633505e-01 -5.202703e-01 5.121930e-01 -4.648729e-01 1.259031e+00 -9.730656e-01 1.780900e-01 1.598724e-01 5.002949e-02 -1.664173e+00 1.893674e-01 1.259607e+00 -9.165269e-03 
1.329935e+01 -2.003978e+01 1.184242e+00 -6.332839e+00 -1.300794e+01 8.794131e+00 -7.749183e+00 -1.079699e-01 4.639413e+00 1.711078e+00 4.200631e+00 -4.333786e+00 9.762756e-01 1.166150e+00 -3.968185e-01 1.054096e+00 -5.722966e-01 1.177650e+00 -1.784538e+00 -4.155315e-01 -1.535880e-01 -3.559728e-02 -9.457577e-01 7.335166e-01 1.759074e+00 -2.021750e-02 
1.508506e+01 -2.052890e+01 2.130507e+00 -6.468013e+00 -1.344130e+01 7.721447e+00 -8.657335e+00 -4.266052e-01 5.532604e+00 5.124339e-01 5.807898e+00 -2.049024e+00 9.555916e-01 1.477611e+00 -2.922058e-03 1.171442e+00 -5.255212e-01 1.479037e+00 -1.740615e+00 -8.913777e-01 -6.202073e-01 -1.586489e-01 -1.050121e+00 1.173781e+00 2.456362e+00 -4.072166e-02 
1.695659e+01 -2.093133e+01 4.044008e+00 -7.406334e+00 -1.180731e+01 5.392810e+00 -1.026830e+01 3.383875e-03 3.877174e+00 4.566907e-01 8.096758e+00 -1.874589e-01 9.178299e-01 1.131042e+00 6.835880e-01 1.008435e+00 4.649983e-01 1.927891e+00 -8.694843e-01 -6.721668e-01 -1.377303e+00 -8.456106e-01 -1.428088e+00 3.786783e-01 3.033689e+00 -6.753896e-02 
1.836722e+01 -1.946899e+01 4.756833e+00 -7.067649e+00 -8.557912e+00 4.873846e+00 -1.092294e+01 -2.696536e+00 4.049145e+00 -2.324908e+00 8.373229e+00 3.670886e+00 8.190409e-01 3.036640e-01 1.467634e+00 5.582654e-01 9.089808e-01 2.060908e+00 -6.505067e-01 2.517362e-01 -2.224680e+00 -1.104683e+00 -1.800809e+00 -7.154620e-01 3.126952e+00 -8.404287e-02 
1.731347e+01 -1.715179e+01 4.913255e+00 -3.708030e+00 -5.810176e+00 5.870511e+00 -9.977214e+00 -5.859521e+00 1.153089e+00 -4.010694e+00 4.811357e+00 7.974707e+00 7.068561e-01 -4.567412e-01 1.799857e+00 1.399474e-01 1.063763e+00 1.389080e+00 1.606103e-01 8.813456e-01 -2.077373e+00 -8.070312e-01 -1.886698e+00 -1.030236e+00 1.985264e+00 -8.336815e-02 
1.642494e+01 -1.508049e+01 4.487210e+00 -3.772261e+00 -6.135325e+00 4.230063e+00 -7.544198e+00 -8.618551e+00 1.371233e+00 -6.257917e+00 3.873288e+00 9.504654e+00 6.408641e-01 -8.003765e-01 1.227889e+00 3.384421e-01 7.071216e-01 5.769453e-01 3.554583e-01 8.800682e-01 -8.361632e-01 -6.144254e-01 -6.624342e-01 -7.482529e-01 5.975395e-01 -5.865250e-02 
1.564403e+01 -1.412629e+01 4.878556e+00 -3.735212e+00 -6.073207e+00 6.517753e+00 -7.550944e+00 -7.422472e+00 1.180974e+00 -7.010295e+00 5.195549e+00 6.821979e+00 5.900775e-01 -5.578904e-01 3.822161e-01 5.567910e-01 8.095467e-02 -2.423411e-01 1.650494e-01 4.134345e-01 4.623070e-01 2.404786e-01 5.462096e-01 1.232174e-01 -7.804193e-01 -2.516610e-02 
1.520006e+01 -1.484230e+01 6.466393e+00 -3.518450e+00 -5.541670e+00 6.327516e+00 -7.735735e+00 -6.095877e+00 9.630753e-01 -4.137279e+00 4.439868e+00 7.234948e+00 5.841677e-01 -2.391575e-01 -3.346279e-01 7.397327e-01 -2.323976e-02 -8.461195e-01 1.727007e-01 -4.070989e-01 1.474797e+00 2.800397e-01 1.883465e+00 1.140457e-01 -1.319966e+00 4.378796e-03 
1.513646e+01 -1.535981e+01 6.707619e+00 -3.430162e+00 -7.318709e+00 5.647031e+00 -7.814273e+00 -4.809324e+00 2.559561e+00 -2.339965e+00 5.144154e+00 5.207463e+00 6.093738e-01 4.379850e-02 -5.941807e-01 5.520992e-01 -3.654571e-01 -1.406830e+00 -1.214052e-01 -1.111083e+00 1.724574e+00 3.742858e-01 2.675819e+00 1.543140e-01 -1.614309e+00 2.411023e-02 
1.548293e+01 -1.613687e+01 7.271342e+00 -4.040985e+00 -9.743172e+00 5.528927e+00 -9.448029e+00 -2.551140e+00 2.082138e+00 8.242450e-01 4.469214e+00 3.712083e+00 6.531099e-01 1.820137e-01 -6.891823e-02 -9.863701e-02 -4.407029e-01 -1.670999e+00 3.663379e-01 -1.497945e+00 1.735877e+00 7.844890e-02 2.743567e+00 -4.963709e-01 -2.326179e+00 1.922590e-02 
1.572158e+01 -1.644991e+01 7.236577e+00 -5.301230e+00 -1.100661e+01 6.310021e+00 -1.225021e+01 -5.719684e-01 2.492872e+00 3.888035e+00 5.952446e+00 5.118647e-01 6.761576e-01 3.818215e-01 1.981037e+00 -1.389710e+00 -8.266639e-01 6.589010e-01 -6.580610e-01 -1.065153e+00 2.002978e+00 -1.121730e+00 2.163553e+00 -1.271934e+00 -2.277623e+00 -1.814570e-02 
1.581756e+01 -1.464184e+01 5.708728e+00 -4.786430e+00 -1.205272e+01 7.827710e+00 -1.300749e+01 4.648287e-01 1.388664e+00 6.466554e+00 1.553869e+00 -2.048148e+00 6.469053e-01 2.447917e-01 4.073352e+00 -2.112540e+00 -7.409252e-01 2.069837e+00 -6.301465e-01 -1.126116e+00 1.885351e+00 -1.102870e+00 5.070618e-01 -1.690007e+00 -1.429901e+00 -5.364739e-02 
1.687825e+01 -6.202145e+00 5.403765e-01 -7.190758e+00 -2.869431e+00 1.207335e+00 -1.136031e+01 3.697581e+00 -2.702354e+00 5.656644e+00 2.421578e-01 -3.300538e+00 5.217476e-01 1.974062e-01 5.005677e+00 -1.785827e+00 -3.440672e-01 2.317268e+00 3.298810e-01 -1.085642e+00 4.631922e-01 4.215120e-01 -2.229881e+00 -9.282427e-01 5.115378e-03 -7.258974e-02 
1.612856e+01 -8.939962e-01 5.674231e-02 -6.800847e+00 -3.462575e+00 4.929538e+00 -1.552356e+01 4.740841e+00 -8.345995e-01 2.475249e+00 -1.125674e+00 -1.531219e+00 4.620780e-01 9.026241e-02 4.308908e+00 -3.395873e-01 1.299138e+00 1.911048e+00 -6.710674e-01 6.844124e-01 -5.967981e-01 6.045991e-01 -3.761710e+00 1.185762e+00 2.736499e-01 -7.953268e-02 
1.655312e+01 1.704557e+00 1.133434e+00 -6.014358e+00 -3.715338e+00 9.408512e+00 -1.642039e+01 -3.940137e-01 5.712064e+00 -5.265719e+00 2.651003e+00 2.789769e-01 4.056225e-01 -4.626970e-01 2.762348e+00 1.496861e+00 3.328835e+00 3.414840e-01 -1.800514e+00 2.365085e+00 -6.268330e-02 -7.686111e-01 -3.871296e+00 2.742069e+00 -4.909700e-01 -7.362017e-02 
1.643144e+01 2.949349e+00 3.714263e+00 1.121058e+00 -2.074526e+00 3.717840e-01 -7.055388e+00 -4.733645e-01 2.044510e-01 -6.880813e+00 6.278255e+00 -2.469656e+00 3.073044e-01 -1.141603e+00 2.061152e+00 2.192272e+00 3.624889e+00 4.539921e-01 -3.868865e+00 4.134187e+00 9.251322e-01 -3.527689e+00 -1.546754e+00 2.667285e+00 -1.618092e+00 -7.813376e-02 
1.441332e+01 5.687923e+00 6.195922e+00 5.492465e+00 -1.856035e+00 -5.516358e+00 -3.768968e+00 5.991268e+00 -7.064935e+00 -9.021805e+00 1.025054e+01 -5.286169e+00 2.310335e-01 -1.811267e+00 2.095399e+00 2.544577e+00 2.471878e+00 1.017023e+00 -3.671855e+00 2.964436e+00 1.428481e+00 -4.101357e+00 1.073963e+00 1.709164e+00 -2.207126e+00 -7.073630e-02 
1.149044e+01 7.420079e+00 8.486858e+00 5.570186e+00 -2.122266e+00 -6.952353e+00 -1.178333e+00 6.173862e+00 -1.208454e+01 -3.380476e+00 8.410983e+00 -6.839105e+00 1.587037e-01 -1.697661e+00 1.915251e+00 7.716447e-01 2.164606e+00 1.035674e+00 -1.374106e+00 2.052047e+00 8.175099e-01 -1.167557e+00 2.146221e+00 -7.044078e-01 -8.482558e-01 -6.518608e-02 
9.967282e+00 9.946188e+00 1.147002e+01 4.120467e+00 1.393649e+00 -5.288693e+00 -4.536736e+00 3.424778e+00 -8.650228e+00 -1.646072e+00 1.013046e+01 -8.571928e+00 1.262414e-01 -1.121675e+00 5.614802e-01 -9.886142e-01 2.480114e+00 2.660058e+00 1.211056e+00 2.797516e+00 -3.880871e-01 1.647640e+00 1.840655e+00 -3.480922e+00 -1.175114e+00 -4.826658e-02 
1.016616e+01 1.039647e+01 4.935436e+00 1.263009e+01 1.479004e+00 -6.612578e+00 3.588732e+00 4.897430e+00 -4.840689e+00 1.624262e-01 2.816257e+00 -5.068055e+00 3.377008e-02 -5.194329e-01 -3.390219e-01 -2.175872e+00 2.415217e+00 2.859019e+00 2.527235e+00 2.750144e+00 -1.575241e+00 1.934800e+00 1.618834e+00 -3.304677e+00 -9.113482e-01 -3.421541e-02 
9.467091e+00 7.007128e+00 3.028562e+00 1.436308e+01 9.643620e+00 3.690360e-01 7.835078e+00 4.689048e+00 -2.448661e+00 -1.589982e+00 -4.356710e+00 -1.204726e+01 5.216742e-02 -5.984589e-01 -1.097143e+00 -2.348827e+00 1.486266e+00 1.533221e+00 2.212360e+00 2.804721e+00 -1.029737e+00 1.806446e+00 1.008414e+00 -2.670391e+00 4.376278e-02 -3.672633e-02 
9.143373e+00 7.194499e+00 1.828230e+00 1.252497e+01 8.047845e+00 2.854956e+00 6.386477e+00 -2.334479e+00 -5.511325e+00 4.685649e+00 -8.688157e-01 -9.658178e+00 2.466363e-02 -1.044165e+00 -1.206979e+00 -1.394694e+00 -3.336105e-02 2.231547e-01 1.410715e+00 1.057070e-01 -2.271604e+00 8.871433e-01 4.506890e-01 -2.064841e-01 8.674728e-01 -3.561305e-02 
7.486380e+00 6.061458e+00 1.279490e+00 1.160436e+01 5.775335e+00 1.039339e+00 8.087996e+00 1.892045e+00 7.173209e-01 1.134387e+00 -1.378960e+00 -6.058052e+00 -5.283701e-02 -1.256698e+00 -9.726890e-01 -1.272768e+00 -4.933714e-01 -1.211716e+00 -4.998027e-01 -1.318779e+00 -1.706023e+00 1.091698e+00 -3.037717e-01 1.678579e-01 6.076695e-01 -4.272028e-02 
5.935688e+00 4.834414e+00 -1.163495e+00 1.384264e+01 4.528920e+00 1.058425e-01 3.990809e+00 -5.062090e+00 -1.987963e+00 1.053687e+00 2.949613e-01 -3.725296e+00 -9.179294e-02 -1.708434e+00 -8.088750e-01 -1.208147e+00 -1.412250e+00 -1.373505e+00 -1.337180e+00 -1.478303e+00 4.089555e-01 1.232260e+00 -1.607723e+00 -1.601915e+00 -5.257111e-01 -4.022813e-02 
4.787444e+00 3.323726e+00 -1.839417e+00 1.123739e+01 5.344504e+00 -7.554209e-01 2.439019e+00 -2.477263e+00 1.248151e+00 -1.292859e+00 -4.099309e+00 -1.197536e+01 -1.032057e-01 -1.662686e+00 -4.838322e-01 -9.409952e-01 -1.984939e+00 -9.452965e-01 -1.548626e-02 -1.624265e-01 4.325272e-01 5.308024e-01 -7.190126e-01 -5.738574e-01 -8.312212e-01 -2.564111e-02 
1.950670e+00 4.518991e+00 -2.653050e+00 5.647204e+00 1.395738e+00 -2.933565e+00 1.819450e+00 1.894951e+00 3.845620e-01 -2.139341e+00 -7.518218e+00 -9.328081e+00 -1.512927e-01 -1.705325e+00 -1.578253e-03 -8.844520e-01 -2.182083e+00 -9.682465e-01 -8.714111e-02 -4.181125e-01 8.953986e-01 6.855361e-01 -4.370996e-02 -2.051929e+00 -1.382755e+00 -1.670865e-02 
1.165460e+00 3.800009e+00 -2.680709e+00 5.777384e+00 2.615444e+00 2.481611e+00 8.361542e+00 5.761595e-01 2.185070e+00 -8.641623e-01 -3.416578e-01 -7.412766e+00 -1.512927e-01 -1.801209e+00 1.212056e-01 -5.450314e-01 -1.884847e+00 -1.553242e+00 -6.970198e-01 -3.726876e-01 -1.361758e+00 -4.062855e-01 1.564292e-01 -9.750693e-01 8.126501e-01 -9.617400e-03 
-7.799454e-01 4.588381e+00 -5.165109e+00 5.662231e+00 1.052218e+00 -1.948379e+00 -1.061014e+00 -2.111808e+00 9.712578e-01 6.207887e-01 -1.184351e+01 -1.292037e+01 -1.512927e-01 -7.801159e-01 4.799133e-01 3.218052e-01 -6.606694e-01 -6.125615e-01 -1.223109e+00 -1.630156e-01 -1.523304e+00 -3.991582e-01 -1.234541e+00 -6.316528e-01 6.397612e-01 0.000000e+00 
-2.853293e+00 3.895059e+00 -3.308544e+00 1.805636e+00 -2.249947e+00 -4.733112e+00 2.015813e+00 -7.282675e+00 -1.076625e+00 -1.890778e+00 -6.812009e+00 -6.115964e+00 -1.512927e-01 -3.156179e-01 8.989830e-01 1.202798e+00 2.930126e-01 4.855635e-01 -1.555860e+00 -1.439725e+00 -7.655331e-01 -8.025576e-01 -1.935783e+00 -5.004173e-01 1.582119e+00 0.000000e+00 
5.946732e-02 6.871032e+00 -7.301067e-01 4.329731e+00 7.656257e-01 -5.441750e+00 4.177237e+00 -1.792151e+00 1.961839e-02 -7.798738e+00 -7.441306e+00 -6.777676e+00 -1.512927e-01 3.520871e-01 1.001605e+00 1.517653e+00 7.445483e-01 1.114359e+00 -1.805818e-01 -1.111171e+00 2.549148e-01 2.593355e-01 -1.358819e+00 2.196726e+00 2.702493e+00 0.000000e+00 
-8.323364e-01 7.153598e+00 1.115778e+00 7.908697e+00 5.186557e+00 -3.551006e+00 -1.456210e+00 -3.411335e+00 -1.351898e+00 -6.333314e+00 -5.044846e+00 -2.573516e+00 -1.512927e-01 6.280435e-01 1.359922e+00 1.427280e+00 1.233917e+00 1.073799e+00 1.230097e+00 -7.833689e-01 5.721680e-01 1.172872e+00 1.658667e-01 8.440684e-01 8.225954e-01 0.000000e+00 
-2.998829e-02 7.967134e+00 2.109969e-01 6.333443e+00 2.905762e+00 -3.442341e+00 -4.880860e+00 -2.772905e+00 2.405572e+00 -3.952040e+00 -1.743461e+00 -1.179126e+00 -1.512927e-01 -3.745770e-01 5.174573e-01 1.147266e+00 3.880524e-01 1.839754e-01 6.923488e-01 4.504618e-01 7.947095e-01 1.919987e+00 1.467101e+00 7.602845e-01 8.729480e-01 0.000000e+00 
3.316517e-01 1.014662e+01 3.357306e+00 6.973364e+00 2.048981e+00 4.176659e-01 2.628017e+00 -3.931459e+00 3.594759e+00 -2.984793e+00 -5.440590e+00 -4.802262e+00 -1.512927e-01 -3.556793e-01 2.190510e-01 6.356146e-01 1.965830e-01 -1.211447e-01 8.273057e-01 2.195731e+00 1.866683e+00 1.856202e+00 1.638741e+00 1.048496e+00 6.482893e-01 0.000000e+00 
-2.395411e+00 7.961808e+00 3.885460e+00 6.737659e+00 3.254291e+00 -3.964341e+00 4.387432e+00 2.441458e+00 7.146224e+00 -2.137495e+00 -3.442012e+00 -1.298563e+00 -1.512927e-01 -6.276109e-01 -3.723447e-01 -8.438618e-01 6.974125e-02 5.503556e-01 4.041788e-01 1.427240e+00 2.626901e-01 3.931904e-01 8.537245e-01 7.781379e-01 1.288474e+00 0.000000e+00 
-1.428021e+00 8.251516e+00 2.456619e+00 8.689504e+00 4.406569e+00 8.465233e-01 4.888299e+00 3.314900e+00 5.558784e+00 9.531158e-01 1.046908e+00 7.276489e-01 -1.512927e-01 -6.441949e-01 -5.374694e-01 -1.848011e+00 -4.143016e-01 -3.466875e-01 -4.351900e-02 -1.463654e+00 -1.187954e+00 -1.320421e+00 -2.256471e-01 8.813718e-01 1.204449e+00 0.000000e+00 
-2.288206e+00 7.052962e+00 -3.557968e+00 5.824080e+00 4.478746e+00 -1.635876e+00 1.125197e+00 -5.082634e+00 3.389512e+00 -1.652372e+00 -1.096520e+00 2.498289e+00 -1.512927e-01 -2.210503e-01 -4.082907e-01 -1.459906e+00 -8.949032e-01 -1.411848e-01 1.226066e+00 -1.452436e+00 -1.811400e+00 -1.669941e+00 -5.289285e-01 -2.528830e-02 9.084163e-01 0.000000e+00 
-2.942925e+00 7.913695e+00 -2.161035e+00 5.358646e+00 -2.966840e-01 -9.641617e-01 -3.059137e+00 -6.109182e+00 -1.128987e+00 -4.355590e+00 -2.206477e+00 -6.784410e-01 -1.512927e-01 -3.376981e-01 -1.646950e-01 -7.897894e-02 1.217772e-01 3.752800e-01 1.413880e+00 -9.999220e-02 -1.187859e-01 -2.765918e-03 -2.339453e-01 -4.003963e-01 1.914250e-01 0.000000e+00 
-2.743211e+00 6.089265e+00 -1.105245e+00 3.928572e+00 4.899993e+00 3.071329e+00 1.098968e+00 -1.903502e+00 2.140403e+00 -2.127784e+00 -1.941761e+00 3.946563e+00 -1.512927e-01 -2.773509e-01 -3.642744e-01 5.588611e-01 3.667112e-01 4.242330e-01 6.310232e-01 1.783330e+00 1.199058e+00 8.679011e-01 -6.850991e-02 7.225913e-01 8.454385e-01 0.000000e+00 
-2.889009e+00 7.909889e+00 8.353624e-01 1.024614e+01 6.072345e+00 5.562320e+00 4.401453e+00 1.131405e+00 6.169509e+00 2.109557e-02 -5.324528e-01 9.606365e-01 -1.512927e-01 1.414082e-01 1.817880e-01 6.105796e-01 -1.191970e-01 1.357871e+00 -4.952307e-02 2.462737e+00 1.131654e+00 1.111992e+00 8.275665e-01 1.505640e+00 4.698515e-01 0.000000e+00 
-3.701919e+00 5.233493e+00 -2.261861e+00 5.213887e+00 3.415396e+00 -1.744000e+00 6.311554e+00 -2.707638e+00 4.079770e+00 -4.183264e+00 1.679424e+00 5.905943e+00 -1.512927e-01 1.115883e-01 2.813047e-01 2.093388e-01 -1.054202e+00 -4.784203e-01 -4.750061e-03 1.416727e+00 1.240400e+00 3.891149e-01 7.329977e-01 1.274278e+00 -9.067343e-01 0.000000e+00 
-1.756531e+00 9.250521e+00 1.470171e+00 4.120004e+00 7.234972e+00 1.195888e+00 6.648254e+00 -4.884601e-02 3.461291e+00 8.099824e-01 3.511133e+00 6.911265e-01 -1.512927e-01 -3.201262e-01 -6.209444e-01 -7.646719e-01 -2.806455e+00 -7.625653e-01 -4.340563e-02 -9.491284e-01 7.824134e-01 -6.137832e-01 6.217613e-02 -5.369793e-01 -7.535432e-01 0.000000e+00 
-2.751509e+00 6.825473e+00 -3.759556e-01 1.720632e+00 1.926578e+00 5.230795e+00 7.059205e+00 4.888624e+00 5.440086e+00 1.142761e+00 2.407837e+00 -4.523529e-01 -1.512927e-01 -3.729803e-01 -7.962493e-01 -3.161090e-01 -1.320117e+00 -1.565591e-01 1.870190e+00 -1.193923e+00 3.296271e-01 -3.959519e-01 5.330423e-01 -1.837095e+00 -1.311231e+00 0.000000e+00 
-4.964846e+00 4.009177e+00 -3.930950e+00 -2.039503e+00 3.003928e+00 1.857894e+00 -7.180152e-01 1.245341e+00 2.420434e+00 -2.331036e+00 -3.581556e+00 3.720684e-01 -1.512927e-01 -5.623418e-01 -1.370776e+00 -5.989922e-01 -4.881472e-01 -2.152154e-01 1.420526e+00 -8.280498e-01 -9.910719e-01 -4.501351e-01 -2.605355e-01 -2.130922e+00 -2.401952e-01 0.000000e+00 
-3.962663e+00 3.872918e+00 -1.141845e+00 1.693056e+00 4.748123e+00 7.275945e+00 4.025072e+00 -1.706595e+00 2.620439e+00 5.245686e-02 -3.959705e+00 -4.906842e-01 -1.512927e-01 -1.420125e-01 -6.041368e-01 1.257326e-01 3.677406e-01 7.387283e-01 9.508350e-01 -1.325179e-01 -1.614238e+00 -5.439289e-01 2.028854e-02 -1.311323e+00 -9.394151e-02 0.000000e+00 
