-8.587408e-01 4.870334e+00 -3.526869e+00 2.189082e+00 4.164541e+00 -2.686649e+00 5.287963e+00 7.897154e+00 7.339078e+00 1.962819e+00 -7.384816e-01 -1.080079e+00 -1.373831e-01 -7.675268e-01 -4.951166e-01 -2.179370e-01 -3.034557e-01 8.366787e-01 4.211062e-01 -8.233736e-01 -1.274137e+00 -5.067282e-01 -5.407578e-01 4.189860e-01 6.142149e-02 -9.507298e-04 
-3.767304e+00 2.369144e+00 -5.743023e+00 3.670282e-01 7.505721e+00 4.885147e-01 6.306499e+00 3.652397e+00 8.170202e+00 3.958858e+00 4.834058e+00 -1.409037e+00 -1.400290e-01 -6.796881e-01 -1.607528e-01 1.358804e-01 -7.289928e-01 4.524206e-01 1.233852e+00 -8.748158e-01 -1.447715e+00 -1.591568e+00 -4.703154e-02 -3.538851e-01 1.757639e-01 2.780116e-03 
-3.242093e+00 3.645346e+00 -3.508478e+00 1.582830e+00 6.677344e+00 -2.168699e+00 6.618261e-01 3.648846e+00 4.389875e+00 -1.738990e+00 -1.429821e+00 -6.084918e-01 -1.408138e-01 -1.963766e-01 4.445491e-02 -2.379067e-01 -9.065679e-01 1.079142e-01 9.521575e-01 -1.307773e+00 -1.579699e+00 -2.157650e+00 3.365176e-01 -1.159187e+00 -7.547914e-01 1.977801e-04 
-3.065505e+00 4.679064e+00 -2.856663e+00 -1.152757e+00 5.170242e+00 3.223634e+00 3.226953e+00 2.782734e+00 8.558414e-01 3.578565e+00 -2.162237e+00 -4.370527e-01 -1.217672e-01 6.431141e-01 4.269368e-01 -4.726287e-01 -8.269843e-01 2.267831e-01 7.878320e-01 -1.671087e-01 -1.789063e+00 -2.047882e+00 1.626663e+00 2.953287e-01 -7.735816e-01 -1.715791e-03 
-2.191524e+00 3.937649e+00 -6.159583e+00 -1.583865e+00 5.871851e+00 7.065790e-01 2.888722e-01 4.334916e-01 2.080083e-01 3.835553e+00 -3.036268e+00 -5.340028e+00 -1.455251e-01 6.192874e-01 -8.647718e-02 -8.583452e-01 -3.975420e-01 3.822776e-01 1.091783e+00 1.521073e+00 -1.090886e+00 -6.450374e-01 1.257475e+00 7.306674e-01 6.185288e-02 -7.730246e-04 
-1.077019e+00 4.357677e+00 -6.780614e+00 -2.184546e+00 9.042383e+00 2.990035e+00 5.657433e+00 -3.685241e+00 2.172399e-02 9.304900e+00 7.113925e+00 -2.911178e+00 -1.462523e-01 2.758537e-01 -1.880791e-01 -3.108409e-01 4.775089e-01 -4.686768e-01 -5.451067e-01 1.081280e+00 -1.386867e-01 5.357413e-01 -4.839063e-02 1.119351e+00 7.498634e-01 -8.876800e-04 
-1.139899e+00 3.373654e+00 -5.838228e+00 1.110144e-01 6.652661e+00 3.407017e+00 7.051950e+00 1.428404e+00 1.581747e+00 1.685217e+00 -2.414566e+00 9.378351e-01 -1.324364e-01 -5.256959e-01 -2.383292e-01 4.261324e-01 2.011472e-01 -8.822734e-01 -1.388935e-01 9.050512e-01 7.171017e-01 2.481040e-01 -5.156911e-01 7.775515e-01 1.161690e+00 3.235888e-03 
-2.212049e+00 4.020666e+00 -4.571545e+00 3.873482e-01 2.436453e+00 -8.521179e-01 5.251811e+00 1.591845e+00 2.847678e+00 4.411780e+00 3.123666e+00 1.733328e-01 -1.327499e-01 -6.125069e-01 -7.954679e-02 2.103700e-01 4.287630e-01 3.847771e-02 5.534606e-01 1.293287e-01 1.332400e+00 -4.419619e-02 -1.068486e+00 -1.316234e+00 2.482760e-01 3.670692e-03 
-4.252488e+00 2.914508e+00 -5.133455e+00 -1.864076e+00 4.763449e+00 1.933188e+00 5.016940e+00 1.380457e+00 3.555125e-02 3.703657e+00 2.846619e+00 -1.073832e+00 -1.360968e-01 -5.813017e-01 2.559115e-01 1.118395e-01 2.141430e-01 9.597519e-01 4.172800e-01 4.838399e-01 -3.338709e-02 -4.822271e-02 6.547599e-01 5.178779e-01 -4.185743e-02 -5.757213e-04 
-2.583259e+00 4.189516e+00 -6.081151e+00 9.468145e-01 1.017938e+01 6.494252e+00 7.321582e+00 3.000734e+00 5.738408e-01 2.953249e+00 -2.097835e+00 -6.639642e-01 -1.260686e-01 -1.885418e-01 3.069675e-01 -1.179162e-02 1.267407e-01 4.676176e-01 3.257540e-01 6.878943e-01 -1.552985e-02 -2.979643e-01 -7.091116e-01 -1.412933e+00 -7.502603e-01 3.483176e-04 
-3.860803e+00 4.568787e+00 -4.524228e+00 9.019961e-01 7.579958e+00 1.820232e+00 8.436264e+00 5.570240e-01 2.477552e+00 5.688282e+00 2.785575e+00 1.147196e+00 -1.386557e-01 1.747219e-01 8.989923e-02 -1.267980e-01 3.384609e-01 -4.601956e-01 -3.461732e-01 -1.900110e-01 -4.320793e-02 -3.996180e-01 -1.026911e+00 -8.455032e-01 -1.122103e+00 8.117318e-04 
-3.350600e+00 4.728364e+00 -4.935117e+00 -3.619843e-01 3.366286e+00 8.331301e-01 6.981620e+00 1.925912e+00 1.368566e-01 -1.260903e-01 -3.910478e+00 -4.688482e+00 -1.297289e-01 -2.258024e-01 -9.244415e-01 -5.367464e-01 -7.671318e-01 -1.427618e+00 -1.293117e+00 -4.709469e-01 -7.629385e-02 -3.538835e-01 -1.802697e+00 -1.118051e+00 -4.838666e-01 -4.200053e-03 
-2.995208e+00 3.094580e+00 -6.340462e+00 4.826279e-01 5.869017e+00 3.032883e+00 4.236866e+00 1.701828e+00 -1.744047e+00 1.087703e-01 -4.745764e-01 -4.672087e+00 -1.302080e-01 -9.245376e-02 -9.570076e-01 -3.026730e-01 -4.025826e-01 2.283380e-01 -3.330471e-01 -7.941891e-01 -4.072785e-03 -9.746196e-02 -8.080408e-01 -1.242876e+00 -1.965091e-01 -4.683780e-03 
-4.145068e+00 3.044114e-01 -7.856766e+00 -2.679160e+00 3.896758e+00 -5.776600e-01 7.066547e+00 2.046862e+00 9.152227e-01 -3.270480e+00 -6.058014e+00 -1.736559e-01 -1.512927e-01 1.375404e-01 -4.821280e-01 4.820272e-01 7.413180e-01 8.498995e-01 -1.705220e-02 -1.745474e+00 -1.498222e+00 1.028666e-01 1.238557e+00 6.607041e-01 2.074087e+00 -3.401101e-03 
-3.925838e+00 1.995725e+00 -4.576769e+00 4.767156e-02 8.456412e+00 8.603911e-01 4.422856e+00 4.761848e-01 1.601059e+00 3.220273e+00 -2.355036e+00 -2.092762e+00 -1.512927e-01 -2.485041e-01 -3.890843e-02 6.353764e-01 1.837597e-01 2.629737e-01 -8.944841e-02 -1.242472e+00 -9.597161e-01 2.729588e-01 1.024354e+00 5.507094e-01 1.438761e+00 -2.706873e-03 
-2.197583e+00 2.867151e+00 -3.406827e+00 3.562084e+00 6.322085e+00 1.834115e+00 -1.838742e+00 -4.952376e+00 -1.021363e+00 4.510945e+00 3.332727e-01 4.392290e+00 -1.361921e-01 -2.658161e-01 4.788362e-01 8.311307e-01 -2.639462e-01 7.903381e-02 5.920755e-01 -1.842524e+00 -5.532506e-01 -5.131499e-01 -7.124661e-01 5.025941e-01 1.126616e-01 0.000000e+00 
-5.211471e+00 1.618668e+00 -5.388549e+00 -1.719196e+00 5.971221e+00 1.379754e+00 2.477150e+00 4.028671e-01 5.890400e-01 1.339830e+00 -9.166729e-01 2.387444e-01 -1.512927e-01 -4.890852e-01 2.433786e-01 3.709539e-01 -8.448609e-01 -2.015582e-01 -3.679935e-01 -9.320196e-01 -7.035756e-02 -7.691402e-01 -2.393509e+00 -4.509121e-01 -7.030159e-01 2.971888e-05 
-4.831332e+00 2.887121e+00 -3.295222e+00 -3.115458e+00 5.534523e+00 2.123036e+00 -1.173221e+00 -6.827319e-01 -1.144517e+00 -5.892588e+00 -4.264225e+00 -7.761014e-01 -1.512927e-01 2.299936e-01 8.444158e-01 -9.170043e-02 -8.410250e-01 3.912200e-01 -4.236495e-01 4.075313e-01 -1.066518e-01 -1.020547e+00 -2.050372e+00 -8.244046e-01 -1.102787e+00 -5.967736e-04 
-5.054389e+00 3.202633e+00 -2.777802e+00 -8.378620e-01 7.842403e+00 -1.124037e+00 -5.700033e-01 -2.010425e+00 -2.183065e+00 -3.545504e+00 -2.310848e+00 -3.023646e+00 -1.435938e-01 1.339686e+00 1.116102e+00 -1.554060e-01 3.477440e-02 -1.091306e-01 -4.244959e-01 6.932803e-01 -3.302321e-01 -7.206453e-01 1.668289e-01 3.463240e-01 -4.206951e-01 8.267284e-04 
-1.126156e+00 6.297248e+00 -5.170703e+00 -1.083707e+00 7.342595e+00 9.677632e-01 1.722491e+00 -4.278989e+00 -4.738047e+00 -3.298247e+00 -3.091663e+00 5.095478e-01 -1.430254e-01 5.574043e-01 -1.479805e+00 8.441644e-01 3.467324e-02 -2.732113e-01 1.014446e+00 -2.061496e-01 -5.853617e-01 7.041741e-01 1.343533e+00 1.680603e+00 6.908155e-01 4.756186e-02 
-3.656301e-01 5.494114e+00 -5.227839e+00 -2.561199e+00 4.521532e+00 -1.650891e-01 4.495697e+00 5.498354e-01 -1.217422e+00 8.768036e-01 2.286658e-01 -2.507555e+00 -1.512927e-01 -8.658206e-01 -3.196210e+00 2.793739e+00 -2.399931e-01 -1.370566e+00 1.877479e+00 -4.036624e-01 -1.919621e+00 1.134333e+00 1.368662e+00 5.857931e-01 1.530202e+00 1.123176e-01 
-4.388690e+00 -5.657644e+00 2.150619e+00 -2.080423e+00 5.828901e+00 6.715790e+00 -4.736819e+00 -4.889671e+00 1.893532e+00 -1.386076e+00 2.869033e+00 2.419931e+00 9.036607e-02 -1.318681e+00 -1.720415e+00 2.717852e+00 -3.509515e-01 -1.335863e+00 -5.498949e-01 6.292758e-01 -2.565173e+00 1.599811e+00 2.510032e+00 -1.327015e+00 1.307106e+00 8.806879e-02 
-7.752225e+00 -6.800971e+00 7.530231e+00 -1.539470e+00 1.746422e+00 5.389345e+00 6.413398e-01 -1.130319e+01 1.728109e-01 2.341722e+00 -2.362230e+00 3.672172e+00 3.012984e-01 -8.925535e-01 8.538431e-01 5.333421e-02 -4.068439e-02 -7.173030e-01 -3.949385e+00 5.285545e-01 -1.279820e+00 -2.414109e-01 1.442423e+00 -2.133355e+00 4.221826e-01 5.519699e-02 
-4.026261e+00 3.842714e+00 2.039521e+00 -3.349329e+00 2.050837e+00 -4.558928e+00 6.796048e+00 -1.117834e+01 2.565892e+00 8.519452e+00 -8.431292e+00 3.955216e+00 7.102299e-02 9.046297e-01 3.645620e+00 -2.441545e+00 -4.410555e-02 -8.334349e-01 -4.760394e+00 7.953067e-01 1.372502e+00 -8.742400e-02 2.123361e-01 -1.447998e+00 -1.969485e+00 -3.746710e-02 
-5.009612e+00 5.013151e+00 -4.905619e+00 -2.130168e+00 2.824049e+00 -1.427466e+01 1.372035e+00 -2.704927e+00 -2.760656e+00 3.136156e+00 -4.787949e+00 -1.164285e+00 1.343638e-01 2.694359e-01 -2.313528e-01 -1.898078e+00 7.165437e-01 1.821135e-01 -7.494730e-01 -1.651951e+00 3.072560e+00 -2.111138e-01 -9.620374e-01 1.074046e+00 -1.122097e+00 -3.146235e-02 
-1.236848e+00 6.663392e+00 -3.839181e+00 -2.005602e+00 1.122913e+00 -7.254176e+00 -1.125633e+00 -2.326294e+00 2.923145e+00 -7.216127e-01 -3.158100e+00 -5.009263e+00 -1.350212e-02 -1.755475e+00 -4.935083e+00 3.888013e-01 8.711567e-01 -1.362712e+00 3.483407e+00 -3.272107e+00 2.758955e+00 2.247886e-01 1.308983e-01 3.873001e+00 1.470779e+00 6.219738e-02 
-7.799752e+00 -9.368074e+00 9.791896e-01 1.371385e+00 3.120952e+00 2.989604e+00 -3.657575e+00 -3.664132e-01 -1.061385e+00 2.152067e+00 3.714046e-01 2.543925e+00 1.862493e-01 -1.352883e+00 -4.127861e+00 1.300518e+00 1.858344e+00 -2.436774e+00 4.332377e+00 -8.750988e-01 1.556993e+00 7.972660e-01 6.326742e-01 2.407172e+00 1.902023e+00 2.612783e-02 
-1.140857e+01 -1.364209e+01 1.041123e+00 -7.443221e-01 -4.911175e+00 4.225975e+00 -7.049682e+00 1.447178e+00 2.840199e+00 9.665988e+00 8.354039e+00 9.455005e+00 3.560672e-01 -4.061554e-01 -3.381611e-01 -9.594835e-01 5.039138e-01 -2.773087e-01 5.850635e-01 1.165025e+00 1.665311e+00 1.966313e-01 8.847260e-02 -4.725704e-02 8.395269e-02 -3.816121e-02 
-6.688165e+00 -5.473413e+00 -8.431799e-01 6.530914e+00 -6.342779e+00 1.647155e+00 -4.143453e-02 3.193303e+00 1.267147e+00 1.105726e+00 1.491844e+00 1.113698e+00 8.021832e-02 1.450722e+00 4.096349e+00 -2.249524e+00 -8.702708e-01 1.440768e+00 -8.109945e-01 3.121914e+00 7.018958e-01 2.615005e-02 -7.654043e-01 -2.055859e+00 -2.207695e+00 -1.141420e-01 
-3.823419e+00 3.025257e+00 -7.725413e+00 -2.065797e+00 4.468235e+00 -3.657635e+00 2.891421e+00 4.220403e+00 2.742036e+00 2.439206e-01 -3.954605e+00 -3.874386e+00 -1.512927e-01 1.702729e+00 4.028396e+00 -1.845812e+00 -1.331622e+00 3.127240e+00 -9.579695e-01 2.390050e+00 -1.055993e+00 -2.966837e-01 -1.549224e+00 -2.832194e+00 -2.283285e+00 -1.225719e-01 
-4.338716e+00 2.780000e+00 -5.885162e+00 -2.319232e+00 5.635084e+00 2.876436e+00 6.981444e+00 1.756453e+00 -8.815531e-01 3.036079e+00 -3.753571e+00 -1.829853e+00 -1.307811e-01 5.162193e-01 1.725441e+00 -4.662409e-01 -1.656826e+00 2.503317e+00 3.414254e-01 8.186200e-01 -7.177969e-01 -7.701737e-01 1.858057e-01 -2.771967e-02 3.751349e-01 -4.300020e-02 
-4.069650e+00 2.373180e+00 -5.666945e+00 -2.977362e+00 4.736096e+00 -1.178513e+00 1.389130e+00 -3.114360e+00 2.431131e+00 9.546927e-01 -3.184222e+00 -4.896463e-01 -1.512927e-01 -2.863091e-01 -2.173816e-01 7.093320e-01 2.545039e-01 5.795239e-01 7.972311e-01 -1.330976e-01 -8.584797e-02 -6.815168e-01 6.436502e-01 1.534230e+00 1.256389e+00 1.510477e-03 
-3.983953e+00 3.479828e+00 -4.203619e+00 -1.297432e+00 6.039875e+00 2.114721e+00 4.802811e+00 3.271700e+00 -2.428269e+00 1.679369e+00 9.680548e-01 1.297002e+00 -1.347827e-01 8.506611e-01 -2.710302e+00 2.655361e+00 3.469197e-01 -2.988816e+00 -1.021654e+00 -1.483234e+00 1.047396e+00 1.684653e+00 6.131964e-02 2.469082e+00 9.593856e-01 6.441812e-02 
-5.432345e+00 1.588435e+00 -5.019525e+00 -1.304177e+00 7.163459e+00 7.093790e-01 3.315250e+00 3.033540e+00 1.078103e-01 4.140527e+00 1.355735e+00 8.441342e-01 -1.417395e-01 3.409171e+00 -4.388779e+00 4.959942e+00 3.133378e-01 -5.209653e+00 -3.757628e-01 -3.258234e+00 3.059034e+00 -8.382597e-02 -1.204170e-01 1.839735e+00 1.106318e-01 1.981510e-01 
5.959377e-01 -1.037914e+01 7.067933e+00 -1.421225e+00 -1.052268e+01 -3.175778e+00 -1.397788e+00 3.919485e+00 8.703372e+00 1.749760e+00 6.321860e+00 2.300185e+00 1.865330e-01 5.408591e+00 -5.627048e+00 5.861239e+00 5.686190e-01 -7.638039e+00 -9.018872e-01 -4.752725e+00 1.586730e+00 -4.686362e-01 -2.529507e-02 -3.852280e-01 -2.086079e-01 2.926403e-01 
1.068626e+01 -1.264123e+01 1.349699e+01 -1.348777e+00 -1.303089e+01 -4.120774e-01 -1.180174e+01 1.185692e+01 -3.553819e+00 3.174118e-01 3.337550e+00 -4.380784e-01 6.788044e-01 5.456582e+00 -4.587560e+00 5.235397e+00 1.177711e+00 -7.689141e+00 -7.018195e-01 -4.018327e+00 4.635274e-01 -1.283977e+00 -4.810285e-01 -1.284493e+00 -1.934022e-01 3.015093e-01 
1.499970e+01 -1.754058e+01 1.584432e+01 1.567962e+00 -2.205314e+01 -1.833987e+00 -1.140232e+01 6.793663e+00 -2.940636e+00 3.464451e+00 -1.948993e+00 8.950695e-01 9.181467e-01 3.444020e+00 -1.856527e+00 2.404908e+00 1.209292e+00 -3.844846e+00 -5.184061e-01 -2.112930e+00 -1.217426e+00 -1.934937e+00 -1.387883e-01 -1.828565e+00 -1.089300e-02 1.853529e-01 
1.464868e+01 -1.776865e+01 1.676927e+01 3.089782e+00 -2.551701e+01 -3.470614e+00 -1.177412e+01 3.914088e+00 -4.900714e-01 8.780389e-01 -9.313024e-01 5.796810e-01 1.000000e+00 1.273984e+00 -1.622971e-01 5.251721e-01 1.213180e+00 -1.702146e+00 -1.210313e+00 -6.048288e-02 -2.365823e+00 -4.188851e-01 -6.379973e-01 -4.187570e-01 2.199870e-01 3.710876e-02 
1.583483e+01 -1.709806e+01 1.745633e+01 2.405954e+00 -2.350385e+01 -4.238540e+00 -1.197625e+01 1.803771e+00 -2.503185e+00 7.755054e-01 -6.865385e-01 1.736840e+00 9.526998e-01 2.434080e-01 1.789630e+00 -2.189631e-01 -5.484586e-02 2.061580e+00 -1.454348e+00 -3.717833e-01 -1.910644e-01 -1.629898e+00 -2.060237e+00 1.039075e+00 -5.193734e-01 -4.246060e-02 
1.663862e+01 -1.367397e+01 1.531684e+01 4.298125e+00 -2.081627e+01 -5.261363e+00 -1.181719e+01 2.522749e+00 -5.866970e+00 -1.528102e+00 6.125374e-01 2.409714e-01 8.470716e-01 -6.662931e-02 1.859272e+00 1.510471e-01 -4.548492e-01 2.948299e+00 -1.028475e+00 1.589428e-01 -3.036328e-01 -1.942027e+00 -2.096224e+00 1.047029e+00 -1.056095e+00 -5.621497e-02 
1.522177e+01 -1.063977e+01 1.547572e+01 6.895614e-01 -1.409562e+01 -8.210352e+00 -1.323970e+01 6.534010e+00 -8.401675e+00 -5.633662e+00 2.474465e+00 -1.532443e+00 7.823079e-01 -4.929797e-01 1.438854e+00 9.935611e-01 -4.095865e-01 1.044304e+00 1.679997e-01 2.998215e-01 -2.073804e-01 -1.131953e+00 -2.415482e+00 3.053582e-01 -6.153595e-01 -3.149750e-02 
1.462206e+01 -1.170143e+01 1.851481e+01 1.673733e+00 -1.547964e+01 -6.627085e+00 -1.034768e+01 3.080404e-02 -7.250962e+00 -6.398498e+00 2.723339e+00 -3.066154e+00 8.041211e-01 -4.586626e-01 9.384078e-01 1.371410e+00 -3.707952e-02 -6.901177e-01 1.428924e+00 2.971027e-01 -1.193395e+00 -1.534652e-01 -2.216070e+00 -3.540611e-03 1.398050e-01 -1.590484e-02 
1.437820e+01 -1.089006e+01 2.082515e+01 1.670218e+00 -2.095065e+01 -2.715681e+00 -1.121189e+01 2.012841e+00 -7.470955e+00 -8.866704e+00 -2.151484e-01 3.136052e-01 8.166876e-01 -2.933279e-01 5.884815e-01 1.252211e+00 9.287643e-01 -1.968082e+00 2.430449e+00 -6.001310e-02 -2.040838e+00 3.131852e-01 -1.973873e+00 -3.559805e-01 1.074156e+00 -1.070052e-02 
1.476709e+01 -8.856784e+00 1.949917e+01 3.622399e+00 -2.083934e+01 -8.640773e-01 -1.134558e+01 -1.183642e+00 -7.099656e+00 -1.099193e+01 1.939641e+00 1.697242e-02 7.503576e-01 -7.570990e-01 1.453135e+00 1.288717e+00 2.164812e-01 -5.158423e-01 1.545808e+00 -1.243388e+00 -2.952525e-01 -5.572754e-01 -1.919375e+00 1.520844e-01 8.448245e-01 -3.028528e-02 
1.368262e+01 -9.119683e+00 2.124459e+01 4.359050e+00 -2.125617e+01 1.060389e+00 -1.304082e+01 -3.062959e+00 -6.911403e+00 -1.320631e+01 1.086411e+00 2.296775e+00 7.556871e-01 -1.144411e+00 1.941517e+00 1.133664e+00 3.276585e-01 1.105728e+00 5.726060e-01 -1.417093e+00 -1.559831e+00 -7.860842e-01 -1.483518e+00 5.768551e-01 6.873618e-01 -6.286424e-02 
1.118436e+01 -5.320950e+00 2.474868e+01 1.411723e+00 -1.790609e+01 -7.860776e-01 -1.565016e+01 1.092441e+00 -1.031711e+01 -1.382557e+01 2.832981e+00 1.663839e-01 6.831950e-01 -6.283994e-01 7.238511e-01 5.466127e-01 7.201652e-02 7.950217e-01 4.032481e-01 -1.307567e+00 -1.058649e+00 1.908541e-01 -1.624984e+00 -2.259133e-01 5.057304e-02 -4.637884e-02 
1.044751e+01 -2.950397e+00 2.386872e+01 4.413849e+00 -1.688864e+01 1.083493e-01 -1.614507e+01 -6.924354e+00 -9.792646e+00 -1.486748e+01 2.222457e+00 3.675708e+00 5.359477e-01 -5.618110e-01 6.997320e-01 -1.859179e-01 7.313986e-01 5.840595e-01 -1.255403e+00 -4.759258e-01 -2.023659e+00 9.028896e-01 -2.621707e+00 -3.990850e-01 5.219385e-01 -7.100656e-02 
1.324264e+01 -8.322171e+00 2.092017e+01 3.955082e+00 -1.904800e+01 1.628183e+00 -1.633129e+01 -4.546191e+00 -4.704763e+00 -1.828627e+01 2.420516e-01 -4.196289e-01 6.283331e-01 -1.261599e+00 2.507182e+00 -4.614301e+00 1.305528e+00 3.215504e+00 -3.512316e+00 1.968075e+00 -1.799214e+00 -1.461736e-01 -8.241100e-01 -1.454227e+00 8.672158e-01 -1.572555e-01 
9.844422e+00 -4.120412e+00 2.222925e+01 6.744363e+00 -1.776492e+01 -6.423755e+00 -1.507988e+01 -1.036194e+01 -5.203130e+00 -2.408449e+01 3.864510e-01 5.199474e+00 4.280852e-01 -2.315646e+00 4.001598e+00 -6.940152e+00 -6.040305e-01 4.922204e+00 -3.084862e+00 3.356616e+00 1.536720e-02 2.896125e-01 2.659196e+00 -1.607416e+00 -7.847505e-01 -2.002962e-01 
5.177913e+00 7.799968e+00 2.496906e+00 6.774107e+00 -1.390429e+00 -1.508161e+01 -6.342379e+00 -6.184836e+00 -1.334274e+01 -1.333761e+01 -3.520150e+00 3.740579e+00 -4.915106e-02 -3.295803e+00 4.160433e+00 -7.538048e+00 -1.944850e+00 5.969949e+00 -1.221967e+00 4.150679e+00 1.185454e-01 5.370963e-01 5.245406e+00 -1.613635e+00 -9.276263e-01 -2.114128e-01 
2.901646e+00 8.996526e+00 -1.620404e+00 -1.581550e-02 -1.106407e+00 -6.961067e+00 -4.356444e+00 -6.028195e+00 -4.025596e+00 -4.045827e+00 -3.933523e+00 -2.328148e+00 -1.267910e-01 -2.781957e+00 1.420594e+00 -6.276233e+00 -2.957952e+00 4.010763e+00 2.170383e+00 3.584510e+00 8.360268e-01 7.681931e-01 5.852783e+00 -7.270106e-01 -2.152034e+00 -1.218489e-01 
2.350159e-01 5.921526e+00 -4.845235e+00 -2.389077e+00 2.472485e+00 -4.212996e+00 -9.396155e-01 -6.120337e+00 -2.608049e+00 -2.078571e+00 -5.666136e+00 -1.293949e+00 -1.512927e-01 -2.382845e+00 -1.933757e+00 -1.910447e+00 -1.896757e+00 4.455009e-01 3.223593e+00 2.924790e+00 1.411586e+00 3.317895e+00 4.054231e+00 1.395970e+00 -8.225007e-01 -1.431150e-02 
-1.593916e+00 3.921779e+00 -5.480840e+00 -3.463807e+00 3.574421e-01 -1.006146e+00 1.412864e-01 -6.214056e+00 -6.729510e+00 -4.500989e-01 -2.175609e+00 -3.043432e+00 -1.300883e-01 -1.575577e+00 -1.891613e+00 -9.264389e-01 2.219157e-01 1.013010e+00 1.946333e+00 2.643612e+00 1.635968e+00 1.944182e+00 1.856738e+00 1.698541e+00 -3.974777e-02 -1.677060e-03 
-4.488534e+00 6.685548e-01 -5.125113e+00 -9.856803e-01 1.051512e-01 -1.941100e+00 6.032708e+00 9.660237e-01 4.598693e+00 5.135680e+00 2.580743e+00 -1.428270e-02 -1.190599e-01 -6.082631e-01 -9.935690e-01 -5.936961e-01 -1.842345e-01 9.660251e-01 1.254893e+00 1.088479e+00 1.631462e+00 2.118327e+00 1.109739e+00 1.890462e+00 -1.100199e-02 -2.120435e-03 
-2.614465e+00 2.164947e+00 -6.112659e+00 3.920646e-01 5.142313e+00 1.634651e+00 5.375455e+00 -1.391533e+00 2.091945e+00 1.630739e+00 4.357429e-01 -3.166720e+00 -1.512927e-01 3.224030e-01 3.219498e-01 6.722250e-02 3.078067e-01 1.422869e+00 1.304281e+00 -3.811248e-01 7.940079e-01 2.155586e+00 2.907643e-01 5.544726e-01 6.562075e-01 -1.509619e-03 
-2.296025e+00 1.832096e+00 -7.497807e+00 -5.238185e+00 4.910175e+00 7.410693e-01 1.885694e+00 -3.742852e-01 3.572858e+00 2.429703e+00 2.480496e+00 -1.287315e+00 -1.512927e-01 1.989308e-01 7.549590e-01 3.895587e-01 1.260722e-01 8.772229e-01 1.256201e+00 -1.081161e+00 -1.892733e-01 -7.202355e-01 -1.001710e+00 -2.470061e-01 -7.585506e-02 -3.287041e-03 
-1.078156e+00 4.949757e+00 -3.958381e+00 2.014794e-01 5.069277e+00 4.174174e+00 3.091693e-01 -1.573862e+00 4.561339e+00 2.356711e+00 6.468771e-01 8.741220e-01 -1.215200e-01 -3.885717e-01 2.265389e-01 5.481252e-01 3.630582e-01 3.671984e-01 4.894660e-01 -2.664248e-01 3.523517e-01 -1.755126e-01 5.526809e-01 2.026410e-01 9.514617e-01 9.112358e-05 
-4.262034e+00 3.050945e+00 -4.254458e+00 -2.600269e-01 4.527783e+00 3.070142e+00 3.160049e+00 1.108215e-01 -2.371816e-01 -2.358580e-01 1.240145e+00 -2.413979e+00 -1.503814e-01 -2.101316e-01 -1.788754e-01 -2.273906e-01 1.111416e+00 6.868210e-02 -1.512136e-02 3.084272e-01 4.084302e-02 -1.110683e+00 -5.361198e-01 2.235457e-01 6.603187e-01 -1.841664e-04 
-3.574319e+00 2.688217e+00 -4.993707e+00 -2.817237e-01 7.169500e+00 2.917445e+00 3.406154e+00 1.276726e-01 3.119402e+00 5.726923e+00 2.069123e+00 2.153920e+00 -1.512927e-01 -4.915346e-01 -2.807887e-01 -6.603783e-01 3.369271e-01 4.393328e-01 -3.848348e-01 1.060850e+00 1.087315e+00 -7.303072e-01 -7.594138e-01 4.627656e-01 5.186809e-01 3.618598e-04 
-2.098601e+00 2.068489e+00 -8.117096e+00 5.604949e-01 4.203475e+00 1.293827e+00 1.879338e+00 -1.020837e+00 -1.259587e+00 -1.936002e+00 2.887101e+00 1.374379e+00 -1.373272e-01 6.281605e-02 1.882028e-01 -2.072482e-01 -1.665711e-03 -2.653578e-01 -4.075600e-01 6.379120e-01 3.850662e-01 -6.561055e-02 -5.993307e-01 -3.288704e-01 -1.606326e-01 2.944195e-03 
-4.617545e+00 4.037042e+00 -5.328954e+00 1.475854e+00 7.428095e+00 3.138158e+00 6.253776e+00 4.428544e+00 1.421006e+00 -5.902860e-01 2.137227e+00 1.573347e+00 -1.262379e-01 2.396965e-02 4.242329e-02 -2.404616e-01 -4.958088e-01 1.800134e-02 5.247021e-02 1.027645e+00 2.705182e-01 -2.297037e-01 -1.610325e+00 -1.337544e+00 -9.886016e-01 -1.086068e-03 
-3.426341e+00 3.317547e+00 -5.123076e+00 -1.147144e+00 3.071697e+00 9.219856e-01 4.925798e+00 -1.142830e-01 2.839640e-01 -7.390672e-02 -4.382584e-01 -2.926856e+00 -1.481879e-01 -1.423059e-01 -3.157167e-01 7.787256e-02 -3.738732e-01 2.333322e-01 1.866702e-01 8.575485e-01 -1.191842e-01 1.169229e+00 2.665105e-02 -9.396666e-01 -8.772998e-01 -2.945673e-03 
-2.790601e+00 2.275805e+00 -7.693025e+00 -1.906948e+00 7.825396e+00 3.365717e+00 7.021148e+00 1.026986e+00 1.199108e+00 -3.255749e+00 -2.955918e+00 -6.384702e-01 -1.512927e-01 1.747187e-01 -5.064489e-01 6.087261e-02 -3.010445e-01 -9.702898e-01 -4.642605e-01 -4.060547e-01 -1.127383e+00 1.086227e+00 1.477944e+00 -4.355430e-01 5.159005e-01 4.358160e-03 
-3.723603e+00 1.370524e+00 -6.545698e+00 3.825297e-01 5.171485e+00 2.113398e+00 5.783394e+00 8.402061e-02 4.697506e+00 -4.700156e-01 7.353401e-01 -1.906211e+00 -1.395282e-01 1.206686e-01 8.992687e-02 3.094034e-01 -1.259261e-01 -1.661635e-01 -3.812106e-01 2.671461e-02 5.395067e-01 9.973505e-01 1.775606e+00 -5.499372e-01 1.316185e-01 6.950712e-03 
-3.595321e+00 2.478308e+00 -4.313280e+00 -7.942057e-01 1.526752e+00 2.211487e-01 3.794704e+00 -1.307523e+00 4.645368e+00 6.997487e+00 -6.272868e-01 3.642527e+00 -1.087769e-01 4.205438e-01 7.596564e-01 3.217283e-01 -9.795591e-01 -1.421946e+00 -6.137431e-01 -3.047153e-01 1.198004e+00 5.553117e-01 1.870606e+00 -3.200351e-01 -6.104510e-01 7.727110e-03 
-2.420638e+00 3.665929e+00 -5.265932e+00 -2.333146e+00 5.390201e+00 5.882165e-01 6.672593e+00 3.750505e+00 3.547587e+00 3.677507e+00 -4.352260e+00 -4.409262e+00 -1.346922e-01 2.616701e-01 7.564664e-01 -1.180086e-01 -1.069705e+00 -2.363333e-01 -3.179089e-01 -4.254478e-01 3.701856e-01 -1.046502e+00 3.039822e-01 -3.366418e-02 -6.026236e-01 -2.126014e-03 
-1.339364e+00 4.926384e+00 -6.724266e+00 -5.446906e+00 6.063085e-01 1.059592e+00 5.052972e+00 5.183764e+00 4.550626e+00 4.023520e+00 -2.012293e+00 -2.439200e+00 -1.150751e-01 1.088264e-01 2.121282e-01 -3.793742e-01 -3.284516e-01 4.986084e-01 8.759552e-01 -1.962607e-01 -7.837577e-01 -8.822342e-01 -9.245203e-01 5.842560e-01 -4.539307e-01 -8.533692e-03 
-3.543231e+00 3.928818e+00 -5.930247e+00 -2.639643e+00 4.450041e+00 1.046319e-01 3.027021e+00 -1.310695e+00 -4.876357e-01 2.536878e+00 1.259522e+00 -1.878465e+00 -1.470091e-01 -2.333412e-01 -3.317032e-01 -9.618244e-02 6.287330e-01 1.406165e+00 3.557658e-01 -1.170507e+00 -2.823581e+00 -4.220251e-01 -3.151038e-01 1.620194e+00 1.972025e+00 -6.341279e-03 
-2.489892e+00 3.407505e+00 -5.877994e+00 -2.283215e+00 4.489875e+00 4.842717e+00 4.636187e+00 -2.695712e+00 2.251809e+00 2.945199e+00 -5.118982e-01 1.074755e-01 -1.452869e-01 -1.873322e-01 -7.167910e-01 6.074243e-02 1.232460e+00 2.456765e+00 1.664322e+00 2.776498e-01 -5.176882e-01 1.120390e+00 1.226754e+00 2.344948e+00 1.444189e+00 -3.370941e-03 
-3.012080e+00 2.766853e+00 -6.169981e+00 -7.713258e-01 1.047924e+01 4.754829e-01 1.028449e+00 -6.427660e+00 2.586870e+00 2.641148e+00 2.998514e+00 4.177526e+00 -1.512927e-01 6.799240e-02 -3.865042e-01 2.067788e-01 1.468227e+00 1.002785e+00 1.673824e+00 7.831206e-01 1.735096e+00 1.902104e+00 1.238062e+00 1.449345e+00 4.193230e-01 6.544542e-03 
-2.541600e+00 1.923412e+00 -6.300688e+00 -2.187655e-01 9.875534e+00 9.195779e+00 7.440507e+00 5.153806e+00 8.615325e+00 1.010515e+01 8.842953e+00 1.753749e+00 -1.297880e-01 -3.180403e-01 -5.105475e-01 -1.018183e-01 9.073639e-01 -2.413404e-01 9.852991e-02 5.231091e-01 2.038391e+00 1.162459e+00 1.249387e+00 9.485790e-01 4.229477e-01 7.764268e-03 
-3.177415e+00 2.738344e+00 -4.685006e+00 3.669265e+00 6.771136e+00 6.297219e+00 5.540464e+00 3.440024e+00 5.841127e+00 5.147213e+00 3.828824e+00 -6.049873e-01 -1.220359e-01 2.580639e-01 6.323876e-01 2.104520e-01 4.762787e-01 -1.422237e+00 -1.106907e-01 4.850112e-01 6.046959e-01 -5.880294e-01 -6.158863e-01 -1.280804e+00 -8.184515e-01 8.182943e-03 
-3.997426e+00 8.690220e-01 -7.129572e+00 3.330898e-02 5.137226e+00 2.424498e+00 4.995724e+00 2.562401e+00 6.436976e+00 7.939100e+00 3.815842e+00 4.613471e+00 -1.210940e-01 4.399111e-01 8.378576e-01 -7.236508e-02 5.054830e-01 -9.775235e-01 -2.650559e+00 -1.077653e+00 -1.113515e+00 -1.251956e+00 -1.352358e+00 -2.059422e+00 -2.147629e-01 7.516050e-03 
-9.938478e-01 6.455986e+00 -4.703279e+00 1.484030e+00 5.737211e+00 3.307670e+00 4.675896e+00 -2.108479e+00 7.358977e-01 6.447435e-01 -8.919494e-01 -1.344592e+00 -1.147250e-01 3.741752e-01 8.518184e-01 -4.707700e-01 -9.679106e-01 -8.979875e-01 -1.591053e+00 -4.053695e-01 -6.343238e-01 -6.567677e-01 -1.401921e+00 -1.448798e+00 5.236286e-01 9.209121e-03 
-1.433828e+00 4.253880e+00 -6.653377e+00 3.401267e+00 5.504879e+00 -2.562242e+00 2.484526e+00 2.360485e+00 4.908158e+00 5.594600e+00 9.062307e-01 1.049737e+00 -9.586322e-02 1.223686e-01 7.720991e-01 -2.868438e-01 -1.011345e+00 -9.719547e-01 -5.650700e-01 -3.596984e-02 -1.908234e-01 -3.644756e-01 -1.859337e+00 -1.262082e+00 3.502719e-01 9.109604e-03 
-2.588338e+00 5.305007e+00 -7.276954e+00 -2.854266e+00 2.097372e+00 8.353224e-01 4.769216e+00 3.693633e-01 3.321698e+00 -6.901436e-01 -1.960363e+00 3.795022e+00 -8.860564e-02 -4.343490e-01 -1.250830e-01 -5.770927e-01 -1.493213e+00 -1.068719e+00 -1.547131e-01 2.471327e-01 2.964563e-01 3.585140e-01 -8.954518e-01 -5.003420e-01 1.302451e+00 5.949629e-03 
