-1.120645e+01 -1.990477e-01 -7.764609e-02 3.690280e+00 1.112074e+01 -4.379158e-01 5.955833e+00 2.988229e+00 5.449836e+00 1.470902e+01 1.005949e+01 -1.550177e+00 -1.055217e-02 -6.406822e-02 1.668761e-01 -7.555382e-02 -8.206395e-01 -1.167698e+00 -1.427475e+00 -1.657930e-01 -8.616567e-02 1.120684e+00 -1.830618e+00 -5.586468e-01 6.255907e-01 -4.038882e-03 
-1.130598e+01 7.564982e-01 4.767690e-01 2.045589e+00 9.347912e+00 -4.599329e+00 7.725389e+00 6.176065e+00 8.651711e+00 9.438732e+00 8.207162e+00 -1.444801e+00 -3.951931e-02 -9.053592e-02 1.994544e-01 -3.453029e-01 -8.006471e-01 -9.021282e-01 -9.906256e-01 -7.737808e-01 -5.395981e-01 7.768983e-01 -4.191786e-01 -2.792211e-01 8.402630e-01 -2.044678e-04 
-1.147703e+01 1.575598e-01 -7.326227e-01 4.094275e-01 6.168656e+00 -5.494585e+00 4.242090e+00 9.634833e-01 9.452316e+00 8.191080e+00 8.192427e+00 1.525088e+00 -1.626301e-02 -1.091719e-01 2.330009e-01 -1.585778e-01 -2.266131e-01 -1.094174e+00 4.366304e-01 -5.092549e-01 -1.699251e-01 1.133329e+00 4.866654e-01 1.979997e-01 3.603211e-01 2.739441e-03 
-1.152384e+01 6.199208e-01 -1.476672e+00 1.327470e+00 9.086135e+00 -2.862710e+00 2.943800e+00 1.302612e+00 7.333087e+00 1.587210e+01 9.596923e+00 1.113505e+00 -8.719087e-03 -2.945595e-02 3.686106e-01 5.793764e-02 4.700241e-01 -2.150469e-01 6.982833e-01 -7.799613e-02 -5.719495e-02 4.661434e-01 8.785856e-01 -4.567836e-01 -5.495409e-01 1.158583e-03 
-1.164338e+01 1.034245e+00 1.061854e-01 2.916274e+00 5.780753e+00 8.769264e-01 5.800352e+00 4.575330e+00 1.177579e+01 1.392566e+01 1.035461e+01 -1.027725e+00 -1.225507e-02 -1.367865e-01 1.432100e-01 -4.827899e-02 6.098552e-01 6.512173e-01 -2.997244e-01 8.029593e-01 7.071824e-01 -5.931982e-01 -6.029207e-01 -1.117618e+00 -3.371824e-01 -9.158254e-04 
-1.137009e+01 2.161208e+00 3.470532e-01 3.142287e+00 8.466629e+00 -4.293668e+00 6.556277e+00 4.084167e+00 9.820691e+00 1.096437e+01 4.842151e+00 -2.916099e+00 -3.573036e-02 -3.667080e-01 -2.902975e-01 -1.822523e-01 -2.289310e-01 -5.243310e-01 -9.475821e-01 5.757499e-01 -3.839211e-01 -1.621149e+00 -2.619709e+00 -6.598553e-01 6.435812e-01 -7.853985e-04 
-1.223784e+01 1.029662e-01 -1.885880e+00 2.551295e+00 9.734496e+00 -6.277727e+00 6.450648e+00 3.108618e+00 5.242524e+00 7.630343e+00 4.981723e+00 1.853978e+00 -7.336497e-03 -3.083735e-01 -9.847464e-02 2.266231e-02 -2.055977e-01 -1.727244e-01 -7.237678e-01 9.739383e-02 -6.294201e-01 -2.000450e+00 -1.773999e+00 -6.647123e-01 5.421185e-01 2.201927e-03 
-1.306016e+01 -3.659272e-01 -1.391901e+00 3.653038e-01 4.487608e+00 -4.023293e+00 5.497402e+00 1.163628e-01 2.493974e+00 5.921215e+00 8.984091e+00 2.890559e+00 -1.510537e-02 -2.452063e-01 8.743535e-02 1.912637e-01 2.417125e-01 -6.246668e-01 4.123428e-01 -1.022135e-02 -2.558792e-01 1.121356e-01 -1.418627e-01 -8.236517e-02 7.598635e-01 5.718780e-03 
-1.234021e+01 1.805440e+00 1.088974e+00 3.276777e+00 6.906641e+00 -2.877100e+00 6.816759e+00 3.412132e+00 5.436902e+00 7.577244e+00 4.960081e+00 -1.220461e+00 -1.155794e-02 -5.799503e-02 3.151037e-01 3.633502e-01 -6.086169e-01 -1.108922e+00 3.322523e-01 -5.108129e-01 -7.673025e-03 1.531831e+00 8.902642e-01 -2.850887e-01 1.255611e-01 -1.590991e-03 
-1.254493e+01 1.747148e+00 -1.840555e-01 3.988108e+00 6.757222e+00 -3.932267e+00 6.322115e+00 2.653014e+00 1.028418e+01 1.028160e+01 4.441146e+00 2.420438e+00 -5.025744e-03 3.973101e-01 -8.851887e-02 -5.174081e-01 -4.862085e-01 1.120789e-01 1.963895e-01 1.108794e-01 3.194559e-01 1.433748e+00 9.780844e-01 -8.321888e-01 -1.607079e-01 -3.216743e-03 
-1.278543e+01 6.219472e-01 -6.730517e-01 -2.303191e+00 3.055079e+00 -4.661978e+00 3.484227e+00 1.801927e+00 9.006573e+00 9.901470e+00 5.827752e+00 2.716845e+00 -2.033126e-02 9.417032e-01 -1.839112e-01 -1.110187e+00 -8.781764e-01 1.338465e-01 1.112302e-01 -3.642641e-01 -1.346202e+00 -1.413579e+00 -3.893989e-01 4.506430e-01 -4.443455e-02 1.178980e-04 
-1.085100e+01 -2.167751e-01 -3.097929e+00 7.242455e-01 6.973784e+00 -2.148906e+00 7.718065e+00 2.518745e+00 7.877876e+00 9.649524e+00 4.389312e+00 1.183667e-01 -2.680242e-02 1.454285e+00 4.866700e-01 -1.197903e+00 -4.749833e-01 6.838074e-01 8.972648e-01 5.875454e-01 -1.305485e+00 -2.573658e+00 -1.235556e+00 6.533570e-01 -1.027018e+00 3.524757e-03 
-8.478662e+00 1.867845e+00 -3.005023e+00 5.178260e-01 7.467593e+00 -3.212630e+00 4.297463e+00 -3.251743e+00 -4.278407e-01 5.946290e+00 7.239213e+00 -2.915986e-01 -8.010864e-05 1.424399e+00 8.872802e-01 -6.854785e-01 6.324151e-01 1.334413e+00 1.204044e+00 1.568341e+00 -2.191373e-01 -3.104708e+00 -1.992971e+00 4.907815e-01 -1.016384e+00 6.023878e-03 
-7.426886e+00 3.557549e+00 -5.007587e+00 2.026829e-01 7.970003e+00 -1.706173e-01 8.853224e+00 -1.347578e+00 2.133094e+00 6.081413e+00 7.002201e+00 -1.210432e+00 2.472460e-03 5.221964e-01 6.491372e-01 -6.980274e-02 3.909029e-01 7.213001e-01 9.748371e-01 7.121587e-01 3.215712e-01 -1.212979e+00 -1.966034e+00 -9.889048e-01 -2.526992e-01 8.606481e-03 
-7.375489e+00 3.171186e+00 -3.145615e+00 1.119665e+00 9.229034e+00 3.690987e-01 1.075835e+01 2.639402e+00 -3.644577e+00 1.720670e+00 6.975215e+00 -1.700675e+00 -4.849315e-03 -2.026367e-03 2.266444e-01 9.851735e-01 -1.530636e-01 5.212677e-01 7.050188e-01 -2.862667e-01 2.909856e-01 4.479818e-01 -1.152970e+00 -1.525059e+00 -6.084329e-01 5.500662e-03 
-8.791605e+00 2.377240e+00 -3.376647e+00 2.377841e+00 9.699564e+00 9.344153e-01 8.048415e+00 1.181028e+00 3.421349e+00 1.932163e+00 -4.232125e-01 -4.405912e-01 1.861459e-02 -5.144199e-01 -1.035027e-01 1.771603e+00 -6.662215e-01 8.694531e-01 6.175533e-01 -1.781398e+00 -8.319996e-01 -1.336748e+00 -1.621925e+00 -9.591521e-01 -8.829737e-01 1.696208e-02 
-7.806435e+00 3.591222e+00 1.105374e+00 -1.335071e+00 9.209150e+00 -2.400522e-01 3.268534e+00 -3.061118e+00 1.167941e+00 2.256067e+00 3.326627e+00 -3.718684e+00 1.935214e-02 5.021750e-01 1.978606e-01 9.428164e-01 -4.592198e-01 -2.644806e-01 -8.551735e-01 -1.768752e+00 -9.263590e-01 -4.870367e-01 -6.613318e-01 -1.577704e+00 -1.417522e+00 6.772542e-03 
-9.783512e+00 2.830018e+00 1.724936e+00 -1.901057e+00 1.232721e+01 3.221725e+00 3.691142e+00 -2.657316e+00 -6.956905e+00 -2.295913e+00 4.030734e+00 -4.616296e+00 7.518214e-02 1.410264e+00 1.028526e+00 3.623690e-01 -1.975345e-01 -1.509905e+00 -1.893333e+00 -4.005221e-01 -2.105577e-01 -1.760485e+00 -2.496083e+00 -2.028687e+00 -1.934829e+00 3.252530e-03 
-4.368660e+00 3.934101e+00 -9.823241e-01 9.630149e-01 6.592809e+00 -5.050423e+00 4.093229e+00 -7.322073e-02 -8.906331e-01 5.280485e-01 -3.140277e+00 -6.700432e+00 7.296205e-04 2.653114e+00 2.252757e+00 9.707745e-01 1.089834e+00 -2.049750e+00 -3.313834e+00 1.538498e-02 7.564574e-01 -1.329759e-01 -1.736521e+00 -2.937054e+00 -1.729777e+00 4.272917e-02 
-3.459172e+00 7.348431e+00 -5.209523e-01 2.411251e-01 3.458210e+00 -6.127065e+00 5.633457e+00 -1.365709e+00 -4.351791e+00 -9.684241e+00 -7.333193e+00 -8.623862e+00 4.418850e-02 5.040893e+00 2.110059e+00 6.633433e-01 -1.738044e+00 -5.260656e+00 -1.697971e+00 -6.002007e-01 -1.055259e+00 7.022089e-01 -1.774809e+00 -1.410992e+00 -6.218406e-01 1.245033e-01 
2.296963e+00 1.259580e+01 7.082191e+00 3.043008e+00 3.394903e+00 -1.213483e+01 2.374301e+00 7.536495e-02 -7.994957e-01 -2.732376e+00 -5.676678e+00 -1.036378e+01 2.484948e-01 5.045903e+00 1.067990e+00 4.709166e-01 -3.901467e+00 -5.566751e+00 1.075454e+00 -1.463940e+00 -2.004364e+00 -3.076034e-01 -1.624945e+00 5.623891e-01 1.407778e+00 1.892522e-01 
1.208814e+01 9.049463e+00 1.009395e+00 -1.163128e+01 -1.237712e+01 -1.725926e+00 1.549602e+00 -8.007904e+00 -3.491429e+00 -9.539747e+00 -1.756026e+00 -5.893823e+00 5.738162e-01 4.195372e+00 -1.333189e-01 -2.627300e-01 -4.370150e+00 -4.760264e+00 2.002798e+00 -2.293855e+00 -2.304779e+00 3.866549e-01 6.140553e-01 1.168408e+00 2.520636e+00 1.759594e-01 
1.308720e+01 8.423534e+00 6.070850e-01 -1.260812e+01 -1.332328e+01 -1.873723e+00 -1.184542e+00 -6.773942e+00 -2.858831e+00 -7.668924e+00 -3.116915e+00 -1.026563e+00 6.821767e-01 2.069084e+00 -8.953616e-01 -1.259634e+00 -3.159361e+00 -3.340224e+00 2.354679e+00 -2.531566e+00 -1.385010e+00 -7.415595e-02 5.439785e-01 6.293742e-01 2.460137e+00 1.091274e-01 
1.212257e+01 8.767970e+00 1.402951e+00 -1.378406e+01 -1.198402e+01 -1.243627e+00 -4.056399e+00 -9.464949e+00 -1.388848e+00 -4.145691e+00 -2.771032e+00 -6.892926e-01 7.071444e-01 -1.166630e-03 -4.544490e-01 -3.867432e-01 2.145173e-01 -9.918505e-01 3.098250e-01 -3.228633e+00 3.320568e-01 4.647354e-01 1.951204e+00 -4.265281e-01 1.024253e+00 4.212459e-02 
1.262517e+01 8.259739e+00 5.872433e-01 -1.167740e+01 -1.350277e+01 -6.025851e-01 -7.480528e+00 -6.121161e+00 -2.221566e+00 -2.709512e+00 -2.022304e+00 -6.653613e-01 7.274678e-01 -4.723401e-02 -4.466784e-01 -1.715731e-01 2.880055e-01 -1.276681e+00 3.779472e-01 -2.117831e+00 5.465822e-01 1.029524e+00 1.467428e+00 3.625258e-01 3.362580e-01 2.924271e-02 
1.231332e+01 6.859116e+00 -9.144006e-01 -1.102405e+01 -1.724663e+01 -8.123701e-01 -1.144557e+01 -6.674011e+00 -1.486385e+00 -2.263433e+00 -4.435972e+00 -9.531618e-01 7.617936e-01 4.119597e-02 -8.122655e-01 -4.559470e-01 -1.606253e-01 -2.036060e+00 2.552286e-01 -1.039448e+00 7.563152e-01 1.542491e+00 5.340586e-01 1.648533e-01 2.102832e-02 3.148215e-02 
1.275565e+01 7.144569e+00 9.078956e-01 -1.254810e+01 -1.707538e+01 -1.996155e-01 -8.079111e+00 -5.436499e+00 2.337559e+00 -1.272913e+00 -4.718161e-01 7.866614e-01 8.010656e-01 -4.648762e-02 -9.717652e-01 -3.749716e-01 -1.040183e+00 -1.919314e+00 3.740963e-01 5.649681e-01 9.932482e-01 1.972073e+00 -1.933847e-01 -1.858225e-01 4.504746e-02 2.891250e-02 
1.226331e+01 5.264227e+00 -1.037110e+00 -1.415184e+01 -2.037801e+01 -1.689684e-01 -8.954350e+00 -6.025703e+00 4.044044e+00 -2.193697e+00 -2.722010e+00 -1.310162e+00 8.277562e-01 -1.315351e-01 -1.376308e+00 -4.028190e-01 -1.685824e+00 -1.511101e+00 9.471634e-01 1.384300e+00 1.790699e+00 1.237926e+00 -8.676531e-01 -8.292216e-01 8.952018e-02 2.427102e-02 
1.241774e+01 4.198357e+00 -1.226260e+00 -1.531442e+01 -2.153365e+01 9.461956e-01 -5.901298e+00 -1.479074e+00 4.873584e+00 -3.711304e+00 -3.808397e+00 -2.616237e-01 8.390490e-01 -1.324122e-01 -1.994958e+00 -8.903755e-01 -1.724392e+00 -9.238253e-01 2.104310e+00 1.055592e+00 1.974831e+00 4.353038e-01 -1.158435e+00 -1.559740e+00 2.996469e-02 2.498398e-02 
1.182461e+01 1.450684e+00 -1.861418e+00 -1.807001e+01 -2.257300e+01 3.350541e+00 -5.612977e+00 3.007731e-01 3.435235e+00 -5.382504e+00 -6.913790e+00 1.858163e-02 8.641570e-01 -9.962807e-02 -2.264748e+00 -9.805307e-01 -1.906361e+00 2.128613e-01 3.636684e+00 1.421090e+00 1.642030e+00 -1.543705e-01 -1.706631e+00 -8.251563e-01 8.561248e-01 3.404885e-02 
1.231294e+01 -9.234499e-01 -3.131828e+00 -1.921098e+01 -2.059702e+01 8.562180e+00 -4.471837e+00 1.274417e+00 4.818483e+00 -5.470686e+00 -6.174628e+00 2.721128e-01 9.077851e-01 -3.270979e-01 -2.645400e+00 -1.624696e+00 -1.644382e+00 4.362675e-01 4.197070e+00 5.885392e-01 2.903298e-01 -1.630347e+00 -2.458566e+00 -3.751887e-01 8.614478e-01 4.112774e-02 
1.181757e+01 -3.498608e+00 -4.986980e+00 -2.173537e+01 -1.978202e+01 1.420646e+01 -2.563632e+00 8.077043e-01 3.299742e+00 -9.847160e+00 -5.664676e+00 2.703593e+00 9.636324e-01 -4.106988e-01 -2.229584e+00 -1.348903e+00 -5.116902e-02 1.346975e+00 4.189943e+00 1.182965e-01 6.022458e-02 -1.845489e+00 -1.865231e+00 1.200869e+00 1.261521e+00 3.254198e-02 
1.078577e+01 -6.553998e+00 -7.786958e+00 -2.170365e+01 -2.074780e+01 1.650359e+01 -4.483274e+00 -2.808907e-01 -3.210402e+00 -1.377180e+01 -6.308898e+00 2.703110e+00 9.949500e-01 -8.319464e-01 -2.065466e+00 -1.254744e+00 8.943609e-01 2.025141e+00 2.805325e+00 -1.403180e+00 -5.208374e-01 -3.179457e+00 -9.456187e-01 1.518665e+00 9.471203e-01 2.040818e-02 
1.053470e+01 -6.881961e+00 -6.278367e+00 -1.707951e+01 -1.576273e+01 2.032955e+01 -5.015775e+00 1.379550e+00 -1.777767e+00 -1.055810e+01 -8.423090e-01 5.110689e+00 9.832845e-01 -8.289251e-01 -2.106797e+00 -5.960946e-01 1.708918e+00 3.021981e+00 9.165096e-01 -2.404994e+00 -1.401752e+00 -2.913493e+00 2.925950e-01 2.100428e+00 -2.334490e-01 4.003304e-03 
8.794644e+00 -9.559105e+00 -8.759852e+00 -1.706710e+01 -1.248095e+01 1.952726e+01 -1.026167e+01 -1.615693e+00 -8.540047e+00 -9.843311e+00 -9.924865e-01 3.804167e+00 1.000000e+00 -7.052091e-01 -1.594061e+00 -3.260635e-01 2.424865e+00 3.608604e+00 -4.676117e-01 -2.411077e+00 -1.443127e+00 -1.523836e+00 1.212798e+00 1.994624e+00 -6.114432e-01 -9.460473e-03 
8.668503e+00 -1.253004e+01 -7.481006e+00 -1.550906e+01 -8.805532e+00 1.727717e+01 -1.169940e+01 -5.533653e+00 -8.602901e+00 -1.034843e+01 2.179256e+00 9.858198e-01 9.811239e-01 -4.642044e-01 -1.633967e+00 -8.770069e-01 3.067023e+00 2.499370e+00 -1.385287e+00 -2.385279e+00 -1.472064e+00 -1.215669e+00 1.668940e+00 1.563253e-01 -1.009562e+00 -1.180567e-02 
8.192822e+00 -1.170026e+01 -8.815956e+00 -1.036455e+01 -6.183380e+00 1.569172e+01 -1.319684e+01 -4.039925e+00 -7.417017e+00 -7.812648e+00 2.153441e+00 1.708328e+00 9.487279e-01 -2.600531e-01 -1.152950e+00 -3.841360e-01 4.115862e+00 1.686154e+00 -1.599600e+00 -1.507908e+00 -1.902097e-01 7.324719e-01 2.375941e+00 -1.043949e+00 -1.128280e+00 -2.013371e-02 
8.514587e+00 -1.398122e+01 -1.063535e+01 -5.095675e+00 -6.414668e+00 1.532088e+01 -1.547458e+01 -4.768654e+00 -8.417627e+00 -3.228728e+00 -1.633646e+00 1.110800e+00 9.498922e-01 -4.524947e-01 -7.545264e-01 -2.628973e-01 4.287051e+00 1.088319e+00 -1.599133e+00 -1.573648e+00 8.746443e-01 1.661544e+00 2.586019e+00 -2.501233e+00 -1.613374e+00 -1.692615e-02 
7.571337e+00 -1.459827e+01 -9.103360e+00 -1.694481e+00 -5.245615e+00 1.250740e+01 -1.591362e+01 -2.949241e+00 -4.970325e+00 -1.523460e+00 -4.305781e+00 -1.899724e+00 9.149473e-01 -7.079323e-01 -8.162042e-01 7.503076e-01 3.240726e+00 3.183225e-01 -1.731142e+00 -8.759896e-01 1.482988e+00 2.145534e+00 1.357353e+00 -2.778692e+00 -1.651629e+00 -1.799045e-02 
6.716773e+00 -1.485367e+01 -8.651790e+00 1.591161e+00 -3.832819e+00 1.087366e+01 -1.820926e+01 -1.705774e+00 -1.518528e+00 -5.629306e-01 -7.097297e+00 -5.277024e+00 9.133835e-01 -9.082092e-01 -1.417134e-01 1.399288e+00 2.261736e+00 -1.752981e-01 -1.290998e+00 -3.984798e-01 2.603219e+00 2.647169e+00 -1.013045e+00 -1.382095e+00 -1.221427e+00 -2.233755e-02 
5.552068e+00 -1.534506e+01 -6.056199e+00 2.495659e+00 -5.882692e+00 9.259623e+00 -1.620945e+01 1.843577e+00 -1.388979e-01 -2.358780e+00 -9.008194e+00 -3.355904e+00 8.770300e-01 -7.219484e-01 1.055520e-01 1.926267e+00 8.278525e-01 -2.583986e-01 -1.036206e+00 -2.141985e-01 3.391306e+00 1.440653e+00 -1.894512e+00 -3.810681e-01 3.844852e-02 -2.134098e-02 
4.983176e+00 -1.431639e+01 -5.162492e+00 4.117937e+00 -6.972620e+00 1.048978e+01 -1.731906e+01 5.851033e+00 2.402505e+00 -7.876291e+00 -6.192915e+00 -4.268243e+00 8.571631e-01 -4.933814e-01 4.292886e-01 2.344375e+00 -2.244126e-01 -4.566660e-02 -1.191359e+00 -9.514236e-02 4.441442e+00 -2.705222e-01 -1.414173e+00 4.726944e-01 7.562960e-01 -2.655106e-02 
4.828393e+00 -1.433915e+01 -1.216674e+00 1.181394e+00 -4.967708e+00 7.518312e+00 -1.742971e+01 1.022889e+01 2.724257e-01 -7.339337e+00 -6.663313e+00 -2.211872e+00 8.363526e-01 -1.753260e-01 1.163128e+00 2.134203e+00 -7.763560e-01 8.350170e-01 -1.814406e+00 -3.194446e-02 4.165761e+00 -1.651727e+00 -1.295095e-01 1.132319e+00 4.617790e-01 -3.237475e-02 
4.611703e+00 -1.321018e+01 6.503244e-01 1.126231e+00 -4.518644e+00 5.787524e+00 -1.807484e+01 1.630878e+01 -3.076800e+00 -5.143518e+00 -5.906265e+00 -2.067560e+00 8.009669e-01 2.539250e-01 1.450877e+00 1.753755e+00 -6.560091e-01 1.197497e+00 -2.471009e+00 1.920572e-01 3.262334e+00 -2.169639e+00 1.219256e+00 8.627637e-01 6.511913e-01 -4.254695e-02 
4.861175e+00 -1.008252e+01 1.708407e+00 1.097323e-01 -2.934595e+00 2.538722e+00 -1.599129e+01 1.744350e+01 -5.657881e+00 -4.372714e+00 -3.489924e+00 -2.147351e+00 7.432544e-01 6.608828e-01 2.073934e+00 1.478160e+00 1.282468e-01 1.232969e+00 -2.673370e+00 1.493587e+00 6.380181e-01 -1.410334e+00 5.656997e-01 1.804566e+00 -5.088701e-01 -6.294236e-02 
6.236410e+00 -9.190317e+00 2.143742e+00 1.373723e+00 -2.001691e+00 6.245360e-01 -1.707799e+01 1.855539e+01 -5.480534e+00 -3.263322e+00 -3.465791e+00 -1.044547e+00 6.909775e-01 1.081425e+00 2.747325e+00 1.947320e+00 1.018856e+00 -1.018755e-01 -2.912112e+00 4.309652e+00 -4.788031e+00 -1.024949e+00 6.742640e-02 9.204942e-01 2.050576e-01 -6.779201e-02 
7.320454e+00 -5.979414e+00 5.427418e+00 1.698882e+00 -6.133842e-02 -3.267042e+00 -1.046020e+01 1.229567e+01 -5.577376e+00 -5.450937e+00 1.139278e+00 -5.267729e+00 5.766355e-01 1.265804e+00 2.904347e+00 1.421247e+00 2.025182e+00 -1.768180e+00 -2.223646e+00 5.906773e+00 -7.426857e+00 -8.525404e-01 -1.449575e-02 -4.483248e-01 1.656364e+00 -5.521353e-02 
8.789188e+00 -1.525112e+00 8.527419e+00 5.425933e+00 -6.464650e+00 -5.870154e+00 7.078724e-01 -5.057454e+00 -8.241796e+00 -4.267275e+00 -3.618396e+00 5.179169e-01 5.453162e-01 9.776681e-01 2.827568e+00 6.113476e-01 1.840561e+00 -2.253184e+00 -1.676736e+00 6.414731e+00 -8.023577e+00 -5.486290e-01 -3.254145e-01 -1.129142e+00 2.744455e+00 -3.571358e-02 
9.913807e+00 6.066111e-01 5.622806e+00 8.209535e+00 -9.544016e+00 -5.332161e+00 4.649651e+00 -7.884358e+00 -8.539951e+00 -3.943216e+00 -5.655246e+00 5.353240e+00 5.400173e-01 5.278652e-01 2.015847e+00 -3.386335e-01 1.079886e+00 -1.404742e+00 -4.686661e-01 3.592931e+00 -4.934384e+00 1.335745e-02 -1.701822e-01 -1.431969e+00 2.954303e+00 -1.228806e-02 
9.828074e+00 1.654507e+00 5.102786e+00 7.321202e+00 -8.526270e+00 -6.726586e+00 7.440746e+00 -1.147247e+01 -6.742391e+00 -5.644255e+00 -5.714239e+00 7.367243e+00 5.307187e-01 1.325651e-01 1.165856e+00 -5.149137e-01 -2.755184e-02 3.196209e-01 7.343079e-02 8.122923e-01 -6.118612e-01 -6.060476e-02 -6.455984e-02 -2.558867e-01 6.579045e-01 -8.162213e-03 
9.440337e+00 2.510010e+00 5.446567e+00 6.150676e+00 -6.054239e+00 -5.182157e+00 4.138023e+00 -9.168739e+00 -6.260292e+00 -5.613358e+00 -4.972645e+00 6.079125e+00 5.224940e-01 -2.247714e-01 9.854995e-01 1.832777e-01 -5.777654e-01 1.527345e+00 -3.337444e-01 -6.114005e-01 6.543220e-01 -1.662026e-01 -7.948589e-02 3.268974e-01 -1.212373e+00 -9.712482e-03 
9.688749e+00 3.352468e+00 6.040969e+00 6.317604e+00 -6.611434e+00 -5.578003e+00 5.025148e+00 -7.474569e+00 -9.684650e+00 -3.755003e+00 -5.239130e+00 3.444497e+00 5.132668e-01 -4.413289e-01 1.413986e+00 3.951176e-01 -2.580451e-01 2.128704e+00 -6.935430e-01 -1.214552e+00 1.342407e+00 -8.966955e-01 8.102191e-01 8.735177e-01 -1.773250e+00 -1.035139e-02 
8.859612e+00 4.685128e+00 6.070103e+00 5.822507e+00 -2.864707e+00 -7.575175e+00 2.800447e+00 -6.611701e+00 -7.899835e+00 -5.285272e+00 -4.258313e+00 1.252745e+00 5.001808e-01 -5.917088e-01 1.850137e+00 7.971502e-01 -1.822081e-02 1.314137e+00 -5.800818e-01 -6.556126e-01 1.469903e-01 -9.872319e-01 2.683282e-01 1.270772e+00 -7.164639e-01 -9.588689e-03 
7.911792e+00 7.636877e+00 6.766606e+00 6.195061e+00 5.224819e-01 -8.997792e+00 2.036774e+00 -6.038960e+00 -1.040610e+01 -1.757203e+00 -1.703816e+00 9.141803e-01 4.901183e-01 -8.033525e-01 1.494277e+00 1.489827e+00 2.121799e-01 1.077039e+00 -8.089309e-01 -1.058569e+00 -5.929947e-03 4.947948e-01 -5.888206e-01 4.135048e-01 -2.586624e-01 -7.499570e-03 
7.370271e+00 9.618488e+00 9.069500e+00 6.120843e+00 -3.050514e+00 -6.372671e+00 2.354147e+00 -9.151592e+00 -1.083573e+01 -5.270617e+00 -3.864408e-01 3.761964e+00 4.861248e-01 -9.740689e-01 9.525610e-01 1.627549e+00 5.667129e-01 8.722760e-01 -9.828653e-02 -9.535851e-01 5.579491e-01 2.312531e-01 -6.042629e-01 -2.013871e+00 -9.701880e-01 -7.427680e-03 
6.416657e+00 8.357175e+00 1.199040e+01 7.229335e+00 -1.133337e+00 -1.022391e+01 -4.454470e-02 -6.234272e+00 -5.742731e+00 -6.706433e+00 -5.107542e+00 8.965752e-01 4.827970e-01 -1.109203e+00 -3.164292e-01 7.380681e-01 1.623073e+00 2.072270e+00 1.506150e+00 -3.085956e-01 1.850580e-01 4.036934e-01 -1.293446e+00 -3.312880e+00 -1.436486e+00 -1.887932e-02 
4.736835e+00 9.087785e+00 1.159595e+01 8.138935e+00 2.324583e+00 -7.453549e+00 -9.268193e-01 -3.724299e+00 -9.075253e+00 -5.831971e+00 -1.262580e+01 -3.589392e+00 4.667031e-01 -1.243898e+00 -1.351135e+00 -3.796787e-02 2.117923e+00 2.901194e+00 1.761683e+00 8.746002e-01 4.299532e-01 7.837126e-01 -1.230091e-01 -1.862909e+00 -1.420757e+00 -5.050961e-02 
3.682497e+00 6.320082e+00 9.193722e+00 1.330138e+01 8.196281e+00 -9.266026e-01 2.134279e+00 -7.827317e+00 -9.267868e+00 -7.943757e+00 -1.214853e+01 -2.592572e+00 4.054326e-01 -1.799657e+00 -1.698731e+00 -1.193535e+00 1.906200e+00 2.228093e+00 1.164204e+00 8.735911e-01 5.154716e-01 1.745504e+00 1.025316e+00 3.992525e-01 -1.226201e-01 -9.286699e-02 
2.517863e+00 3.881360e+00 1.027800e+01 1.367443e+01 6.790646e+00 -2.212908e+00 5.637736e+00 -6.205305e+00 -5.154597e+00 -5.267001e+00 -6.180487e+00 -1.597248e+00 2.722589e-01 -2.785024e+00 -2.832282e+00 -2.639475e+00 4.877938e-01 6.957791e-01 -8.614550e-01 1.911467e-01 2.226040e+00 3.457903e+00 3.946620e-01 1.646048e+00 5.610229e-01 -1.016268e-01 
-1.472139e+00 2.466733e+00 6.681703e+00 1.399258e+01 7.774095e+00 -7.023208e+00 1.041133e+00 -2.416412e+00 1.024463e+00 -1.862339e+00 -6.333939e+00 -7.125973e-01 1.156841e-01 -2.983360e+00 -2.532491e+00 -2.920969e+00 -7.822846e-01 -1.063643e+00 -2.201291e+00 -8.939669e-01 2.126501e+00 2.485805e+00 1.501765e+00 2.752730e+00 1.248139e+00 -7.882084e-02 
-6.610968e+00 -3.146951e+00 -3.454166e-01 1.023230e+01 6.014572e+00 -8.712523e+00 5.754871e-01 4.700451e+00 3.068098e+00 -6.899370e+00 -7.302862e+00 -1.724265e+00 1.034435e-01 -2.363080e+00 -1.718970e+00 -3.115696e+00 -1.073256e+00 -3.009391e-01 1.334397e-01 3.138213e-01 1.512716e+00 9.658888e-01 1.735394e+00 1.219631e+00 -7.263800e-01 -4.261557e-02 
-6.669887e+00 -2.828220e+00 -9.941348e-02 1.111102e+01 3.266102e+00 -8.683249e+00 1.955695e-01 -2.647691e+00 -9.501891e-01 3.812518e-01 2.176301e+00 3.711632e+00 9.573609e-02 -9.570900e-01 -4.091474e-01 -1.996494e+00 -1.395699e+00 4.321173e-01 9.570072e-01 1.910353e+00 3.824321e-01 2.604206e-01 1.806042e+00 2.109216e+00 -3.357458e-01 -1.729718e-02 
-6.698663e+00 -2.066015e+00 -1.909920e+00 9.748932e+00 7.539946e+00 -7.156894e-01 7.629624e+00 1.473914e+00 6.621733e-01 2.288176e+00 -4.337453e+00 -7.441262e+00 6.915510e-02 2.791867e-01 1.106878e+00 -4.961580e-01 -4.203817e-01 1.971683e+00 1.990122e+00 2.848512e+00 -7.108105e-01 3.216498e-01 2.668915e+00 2.361266e+00 6.077218e-01 -1.836101e-02 
-6.213742e+00 -1.194717e-01 -2.518516e+00 7.255774e+00 9.171994e+00 -6.236588e+00 7.065830e+00 1.109017e+00 3.529528e+00 2.574100e+00 2.729438e+00 4.671726e-01 4.634237e-02 -3.000015e-01 6.430216e-01 -1.800372e-01 -1.043318e+00 2.253308e+00 1.268704e+00 2.167131e+00 5.421618e-01 8.425460e-01 7.799446e-01 1.542891e+00 8.026224e-01 -1.990631e-02 
-5.443107e+00 1.033065e+00 -1.616656e+00 1.005802e+01 1.292004e+01 1.475573e-02 1.138292e+01 -7.319553e-01 2.436488e+00 5.348780e+00 4.226899e+00 2.936573e+00 3.633529e-02 -5.192268e-01 5.492242e-01 1.163888e-01 -1.047687e+00 7.514664e-01 -2.327420e-01 -8.517866e-02 4.106177e-01 5.135880e-01 1.078249e+00 2.544939e+00 2.780875e+00 -1.496661e-02 
-8.797672e+00 -1.162652e+00 -1.146232e+00 5.739891e+00 1.184259e+01 -2.704953e+00 9.154577e+00 1.166053e+00 2.375383e+00 2.750673e+00 5.608581e+00 2.535826e+00 1.261443e-02 -8.326740e-01 3.407131e-01 8.723798e-01 -3.683352e-01 9.346724e-02 5.412713e-01 -5.849625e-01 4.787750e-01 1.718580e-01 4.454965e-01 6.670258e-01 1.085209e+00 -1.177511e-02 
-8.002832e+00 1.201696e+00 -2.014118e+00 5.268439e+00 9.961979e+00 -3.645217e+00 6.159358e+00 3.498485e+00 3.807186e+00 7.591135e+00 6.947671e+00 5.428784e+00 1.118600e-02 -9.239495e-01 1.860962e-01 2.681242e-01 -9.121319e-01 -2.406141e-01 1.253151e-01 -9.217547e-01 3.698327e-01 8.446233e-01 4.898826e-01 3.961916e-01 9.370052e-01 -2.441722e-03 
-9.097250e+00 1.499778e+00 2.042114e+00 7.808887e+00 1.111836e+01 -1.700245e+00 6.752797e+00 1.387672e+00 3.703470e+00 3.680405e+00 4.704180e+00 4.647112e+00 4.148483e-05 -5.000604e-01 9.844492e-02 1.514858e-01 -6.877881e-01 -2.882348e-01 8.351921e-01 3.713327e-01 3.112946e-01 2.128655e-01 7.442282e-01 8.162180e-01 1.235697e+00 -3.120041e-03 
-9.913067e+00 6.323304e-01 -1.870208e+00 4.462860e+00 1.207909e+01 1.389773e-01 7.975033e+00 1.006398e+00 5.995562e+00 7.333327e+00 6.660057e+00 6.565956e+00 3.041315e-02 -3.579671e-01 -1.856339e-01 -5.550525e-02 -5.614027e-01 8.445905e-01 2.187413e+00 1.460222e+00 8.371748e-01 2.176342e-01 2.473417e-01 1.299590e-01 -8.995358e-01 -3.595102e-03 
-1.034286e+01 -3.857446e-01 -4.607578e-01 2.703740e+00 9.342865e+00 -4.210892e-01 1.010340e+01 3.968569e+00 2.345523e+00 6.600718e+00 9.833478e+00 8.145724e+00 -1.259935e-02 7.833586e-02 2.964811e-01 -6.014957e-02 -4.054553e-02 3.938439e-01 9.296657e-01 -1.996879e-01 1.396412e+00 1.003884e+00 1.154935e+00 4.153435e-02 -1.443352e+00 -6.786287e-03 
-9.169863e+00 1.216288e+00 -1.040208e+00 5.013999e+00 1.507268e+01 6.652268e+00 1.178516e+01 6.393910e+00 5.574330e+00 7.367687e+00 5.032817e+00 -8.181996e-01 -4.690886e-04 1.232258e-01 6.125374e-01 2.405707e-01 3.895794e-01 -1.151588e-01 -7.945324e-01 -1.271734e+00 1.198307e+00 8.580654e-01 6.212222e-01 -8.235714e-01 -1.407456e+00 -7.503951e-03 
-9.077171e+00 2.690204e+00 1.326367e+00 7.330590e+00 1.159079e+01 -3.085618e-01 3.849292e+00 5.675975e+00 8.933504e+00 9.437902e+00 5.725472e+00 1.122430e+00 -1.844883e-02 3.478877e-01 8.933880e-01 3.369700e-01 8.568012e-01 -1.038187e-01 -1.090399e+00 -1.819587e+00 3.232998e-01 8.695210e-01 7.978454e-01 -1.078245e+00 -1.065225e+00 3.384817e-03 
-9.929781e+00 2.157043e+00 -1.560917e+00 4.097332e+00 1.037933e+01 -3.889948e+00 4.743419e+00 6.144228e+00 6.991899e+00 9.020845e+00 4.596203e+00 3.040323e+00 -4.181862e-03 -3.603315e-02 5.783412e-01 1.307257e-01 -4.183217e-01 -1.097106e+00 -1.971113e+00 -8.812948e-01 1.969856e-01 -1.832501e-01 1.285792e-01 6.310481e-01 4.968370e-01 2.674556e-03 
-8.223461e+00 3.610818e+00 1.484447e+00 7.446079e+00 1.117044e+01 -6.019759e-01 4.526340e+00 5.709908e+00 5.984344e+00 9.763365e+00 4.660562e+00 8.903377e-01 6.181121e-03 -1.647311e-01 1.010768e-02 -1.364475e-01 -1.555489e+00 -9.114578e-01 -8.415145e-01 1.170408e+00 -6.537045e-01 -1.050676e+00 -4.236271e-01 7.508560e-01 -3.629031e-01 -1.652688e-03 
-9.776884e+00 3.647687e+00 -4.656198e-01 2.864647e+00 9.797318e+00 -3.056588e+00 7.040166e+00 7.361871e+00 6.132660e+00 7.847852e+00 8.720512e+00 1.782032e+00 5.887151e-04 -1.848805e-01 -1.938643e-01 1.926829e-01 -1.513229e+00 -9.955598e-01 -6.416569e-01 1.164570e+00 -1.260247e+00 -7.638918e-01 -4.086265e-01 8.399823e-01 -7.159803e-01 -8.511007e-03 
-9.977276e+00 1.995420e+00 9.648056e-02 1.694859e-01 7.324504e+00 -4.932814e+00 8.552960e+00 1.798630e+00 4.109741e+00 7.906264e+00 7.417597e+00 -6.293941e-02 -2.909756e-02 -3.708020e-01 -4.883063e-01 -2.213831e-01 -1.724835e+00 -1.016469e+00 -1.053790e+00 9.566032e-01 -1.338580e+00 -5.772125e-01 -3.655791e-01 4.211154e-01 -3.751525e-01 -1.002436e-02 
