-9.432743e+00 2.017633e+00 6.632147e-01 2.597307e+00 3.595239e+00 -3.418555e+00 5.062327e+00 3.101228e+00 -1.495038e+00 -1.556583e+00 5.268874e+00 3.311430e+00 -1.112902e-01 -3.353871e-01 -9.291201e-01 1.811293e+00 -7.703581e-01 -1.242899e+00 1.257909e+00 -9.076898e-02 6.139611e-01 1.015496e+00 -3.343339e-01 2.232650e+00 -7.682260e-01 3.346213e-02 
-1.113347e+01 -6.144197e+00 8.008022e+00 -1.048387e+00 -2.849053e+00 5.130438e+00 6.308788e+00 8.987560e+00 1.663808e+00 -2.995305e+00 1.494410e+01 -1.892744e+00 1.192945e-01 5.741196e-02 3.247316e-01 8.680132e-01 1.832255e-01 1.017098e-01 -1.924736e-01 2.518690e-01 1.061111e-01 1.028676e+00 8.436208e-01 4.156017e-01 -1.500469e-01 7.059455e-04 
-1.025932e+01 1.452947e+00 6.047276e+00 5.683632e-01 6.028910e-01 -1.403505e+00 3.985252e+00 3.227866e+00 2.003017e+00 -2.508892e+00 1.159451e+01 2.072387e+00 -5.927193e-02 1.759443e-01 1.019087e+00 -5.103586e-01 1.231887e+00 1.308453e+00 -9.576038e-01 6.610047e-01 -1.482020e-01 -3.156485e-01 4.840286e-01 -1.106068e+00 1.278123e+00 -2.853283e-02 
-8.732397e+00 3.923634e+00 2.311250e+00 4.527906e+00 5.599962e+00 -5.388448e+00 6.860210e+00 3.568464e+00 1.899313e+00 3.137675e+00 4.184063e+00 3.180717e+00 -1.337696e-01 5.245157e-01 1.949769e+00 -2.382583e+00 1.977236e+00 1.891326e+00 -2.451828e+00 1.587457e-01 -1.170798e+00 1.024620e-01 7.201363e-01 -2.858052e+00 1.419388e+00 -4.989455e-02 
-9.753557e+00 2.079154e+00 9.598079e-01 5.968596e+00 5.912997e+00 -2.947131e+00 8.091640e+00 5.069766e+00 -3.191033e+00 -2.202930e+00 5.118553e+00 7.165317e+00 -1.274223e-01 -2.114639e-02 1.022016e-01 -1.350647e+00 8.739696e-01 2.867831e-01 -1.911968e+00 -7.344840e-01 -5.526673e-01 -1.150906e-01 9.354653e-01 -1.279551e+00 -1.755010e-01 -1.021743e-02 
-8.763769e+00 3.291544e+00 -1.361158e+00 6.137677e+00 3.952522e+00 -6.356887e+00 5.049323e+00 2.212622e+00 4.773143e+00 4.523962e-01 3.891819e+00 2.657732e+00 -9.610307e-02 -2.296129e-01 -6.079078e-01 -6.280364e-01 -4.243914e-01 -1.560310e+00 -2.046103e+00 -1.728516e+00 -1.694767e-01 4.107228e-01 7.736273e-02 -2.103273e-01 -5.658365e-01 -5.595684e-05 
-1.034936e+01 2.280000e+00 1.130245e+00 4.133326e+00 2.860527e+00 -1.047912e+01 1.218276e+00 1.142451e+00 -9.351224e-03 3.511074e+00 5.342878e+00 1.456375e+00 -1.291924e-01 2.280487e-01 -3.335550e-01 -3.362715e-01 -4.683411e-01 -2.462830e-01 -9.392894e-01 -7.920455e-01 2.777469e-01 4.957952e-01 1.080589e+00 -1.821725e-01 -4.476025e-01 -5.033148e-03 
-9.582560e+00 7.836719e-01 -9.141501e-01 3.323584e+00 -6.753550e-01 -1.185296e+01 1.654310e+00 4.684737e+00 2.362086e+00 6.674870e-01 3.020264e+00 3.206005e+00 -1.331644e-01 4.749700e-01 2.470151e-01 3.749054e-01 1.939568e-01 1.319402e+00 1.262172e+00 5.684562e-02 1.023911e+00 2.332872e-01 9.910997e-01 3.435419e-01 3.861110e-01 -3.347170e-03 
-8.203918e+00 1.665315e+00 -9.450538e-01 5.033937e+00 6.995521e+00 -4.895540e+00 5.828918e+00 5.222443e+00 4.934719e-01 3.092472e+00 4.643468e+00 4.653168e+00 -1.340574e-01 8.636935e-01 1.173416e+00 1.932932e-01 8.593176e-01 1.335239e+00 2.106794e+00 5.824198e-01 6.175646e-01 1.501500e+00 7.824680e-01 -1.555219e-01 -1.769516e-01 6.170273e-03 
-7.461640e+00 4.833962e+00 1.551018e+00 6.657155e+00 8.482037e+00 -2.837817e+00 3.028230e+00 5.292181e+00 5.688168e+00 5.617196e+00 5.959233e+00 2.989891e+00 -1.104064e-01 5.311807e-01 1.380746e+00 7.147491e-01 1.267340e+00 1.199284e+00 1.361745e+00 2.766759e-01 8.642125e-01 5.471517e-01 1.622230e-01 -3.275253e-01 -1.001592e+00 5.124390e-03 
-7.091353e+00 6.121937e+00 8.641269e-01 6.763127e+00 4.958027e+00 -4.452727e+00 3.443415e+00 3.926552e+00 5.835109e+00 4.948560e+00 3.095784e+00 6.796745e-01 -1.097200e-01 -1.515328e-01 1.975259e-01 1.969738e-01 1.560481e-02 -3.409003e-01 5.528597e-01 9.215878e-01 1.060652e+00 3.746640e-01 -9.734260e-01 -1.226125e+00 -6.258500e-01 -2.557945e-03 
-7.482938e+00 5.459089e+00 1.755005e+00 8.795688e+00 6.339810e+00 -5.265643e+00 4.230441e+00 9.653746e+00 2.427026e+00 5.505580e-01 2.156479e+00 1.847894e-01 -1.197112e-01 -1.990416e-01 -4.941024e-01 -6.158739e-01 -5.638417e-01 1.872706e-01 4.596438e-02 3.314747e-01 4.692651e-01 -6.868290e-01 -6.241861e-01 -5.424570e-01 2.866847e-01 -8.068276e-03 
-8.950933e+00 2.340381e+00 -6.217843e-02 4.042695e+00 6.362132e+00 -9.173279e-01 9.835752e+00 8.344920e+00 3.997363e+00 7.586607e-01 4.142220e-01 2.926468e+00 -1.421947e-01 -1.927939e-01 -4.779199e-01 -5.925566e-01 -1.003756e+00 4.452161e-01 9.461232e-02 -1.097174e+00 -6.783959e-01 -1.424058e+00 -7.935182e-01 6.365380e-01 3.204620e-01 -4.473054e-03 
-7.527058e+00 4.254229e+00 -1.065199e+00 5.198163e+00 8.716337e+00 -4.375694e+00 1.489434e+00 5.429322e+00 3.172896e+00 4.591215e+00 4.587729e+00 3.299917e+00 -1.345104e-01 2.708896e-01 -1.553526e-01 -6.761721e-01 -9.898182e-01 -5.747446e-01 -6.157641e-01 -5.885624e-01 -1.827980e+00 -1.491517e+00 -1.181088e+00 5.642049e-01 3.604857e-01 4.128635e-03 
-8.033262e+00 4.334768e+00 -6.885542e-01 3.543111e+00 5.995845e+00 -4.424640e+00 -6.719499e-01 2.646784e+00 -1.658115e+00 -1.039360e+00 5.062849e+00 7.244208e-01 -1.246856e-01 3.497174e-01 -4.860303e-01 3.860820e-01 -2.683607e-02 -1.970191e+00 -1.941624e+00 -1.340264e+00 -1.393585e+00 -2.773153e+00 -1.193109e+00 5.375423e-02 -1.196824e+00 3.883873e-02 
-6.587326e+00 3.685133e+00 -1.312668e+00 4.096388e+00 3.649231e+00 -6.590808e+00 6.541480e+00 3.362914e+00 -2.202821e+00 -4.455872e+00 2.653190e+00 3.088242e+00 -1.078225e-01 -1.755223e-01 -1.026559e+00 4.096729e-01 7.850432e-01 -1.492906e+00 -8.984028e-01 -8.592131e-01 2.286537e-01 -5.551702e-01 -8.184999e-01 -9.772909e-01 -1.047396e+00 4.686685e-02 
-7.672212e+00 1.947773e-01 1.991966e+00 4.459402e+00 -9.552684e-01 -9.517891e+00 6.084080e-01 2.410197e+00 -7.180543e+00 -6.833407e-01 1.650263e+00 -2.951813e+00 3.865498e-02 2.488029e-01 9.274166e-01 5.019593e-01 1.603288e+00 2.311445e-01 -1.280086e+00 -1.579592e+00 5.037224e-01 -2.733456e-01 -4.457378e-03 -1.966982e+00 6.410185e-01 4.736719e-02 
-8.585196e+00 1.191427e+00 -3.570941e-01 8.665234e+00 4.727364e+00 -6.321083e+00 -3.446810e+00 6.690884e+00 3.158260e+00 3.207064e-01 1.407568e+00 -9.894788e-02 1.815355e-02 -2.557068e-02 1.843376e+00 6.022058e-01 1.177825e+00 6.814066e-01 -5.180962e-01 -1.557372e+00 3.887381e-01 1.638630e+00 1.188123e+00 -2.179837e-01 1.947949e+00 1.377096e-02 
-5.790313e+00 1.021870e+01 1.343456e+00 9.275127e+00 6.612501e+00 -1.095993e+01 -3.575762e+00 3.501411e+00 -5.705383e+00 -3.449935e+00 -4.149250e+00 5.523108e+00 4.916227e-02 -5.758082e-01 1.587535e+00 -5.295432e-01 -1.022936e-01 7.858402e-01 7.884234e-01 2.544159e-01 6.680234e-01 2.702216e+00 -6.849398e-02 4.440381e-01 2.185317e+00 -9.645009e-03 
-7.656128e+00 7.890050e+00 2.022616e+00 7.577649e+00 3.272379e+00 -8.460269e+00 8.467023e-01 4.760998e+00 5.252749e+00 2.868043e+00 4.463028e+00 8.590526e+00 -4.422140e-02 -2.233186e+00 -2.364990e-01 -7.469031e-01 -5.064461e-01 7.928796e-01 1.011596e+00 -1.535962e+00 -4.606367e-01 3.808112e+00 -3.349424e-01 3.089933e-02 1.242813e+00 5.121328e-02 
-1.101579e+01 4.783141e+00 -1.845605e+00 4.491726e+00 3.701425e+00 -4.506181e+00 -2.662687e-01 6.715257e+00 5.283293e+00 -2.299479e+00 2.342723e+00 3.630036e+00 2.161741e-02 -3.368337e+00 -1.262899e+00 -7.853515e-01 1.255426e+00 1.321060e-01 2.024493e+00 -2.427449e+00 -8.860551e-01 4.360715e+00 1.199187e+00 3.001820e-01 -6.017725e-01 1.066211e-01 
-1.713839e+01 2.726713e+00 -2.497079e+00 8.524704e+00 1.014730e+01 -4.489977e+00 -1.278137e+01 2.780777e+00 1.670448e+01 -1.929234e+00 -1.683922e+00 7.061654e+00 2.879924e-01 -3.140083e+00 -5.945917e-01 -1.012366e+00 1.820004e+00 5.664973e-01 -2.113242e-01 -1.340389e+00 -2.128714e+00 1.183331e+00 5.250490e-01 -2.132843e+00 -5.286530e-01 1.288587e-01 
-1.789087e+01 6.485877e+00 -3.234546e-01 1.507873e+01 3.835570e+00 -2.822610e+00 -8.898970e+00 6.124592e-02 1.037233e+01 4.944640e+00 4.251349e-01 3.278681e+00 4.161611e-01 -2.287259e+00 -3.990993e-01 -4.629305e-01 1.937671e-01 5.519425e-01 -6.514436e-01 1.418456e+00 -1.969795e+00 -5.932207e-01 1.574638e+00 -1.803170e+00 -3.643468e-01 8.795534e-02 
-1.991900e+01 4.065724e+00 -3.800287e+00 1.138416e+01 6.037793e+00 -1.035868e+01 -1.538890e+00 -2.555568e+00 8.624888e+00 1.871229e+00 -5.242394e+00 6.122938e+00 4.028003e-01 -3.318420e-01 -1.786012e+00 8.340769e-01 -1.508026e+00 -9.229992e-01 6.207061e-01 3.784666e+00 1.349523e+00 -1.085728e+00 6.996799e-01 -2.330373e+00 -1.857540e+00 1.042312e-03 
-2.106178e+01 2.118139e+00 -3.508653e+00 4.030831e+00 8.515890e+00 -4.829050e+00 1.204773e+00 -4.655476e-01 6.356987e+00 3.673479e+00 -4.893889e+00 2.277660e+00 4.039901e-01 4.267538e-01 -2.681738e+00 9.456023e-01 -1.469604e+00 -1.090322e+00 9.957256e-01 1.872752e+00 1.404651e+00 -5.240054e-01 6.515777e-01 -2.431586e+00 -1.540720e+00 -3.853666e-02 
-1.721215e+01 -4.019479e+00 3.265905e+00 6.508527e+00 3.192144e+00 -3.832264e-01 1.090092e+00 9.791787e+00 1.328352e+01 2.204746e+00 -1.067628e+01 -1.725536e+00 2.992894e-01 1.763778e+00 -1.544686e+00 2.080666e+00 -2.544849e-01 -2.814107e+00 3.137058e-01 1.458416e+00 -3.693230e-01 -6.349648e-01 2.096013e+00 6.117849e-02 -1.965425e+00 -8.455585e-02 
-1.711053e+01 -2.880210e+00 8.714608e-01 1.016853e+01 -1.932139e-01 -2.831706e+00 -8.497028e-01 9.108260e-01 5.422987e+00 8.035769e+00 -9.015854e+00 -5.006795e-01 2.752333e-01 1.157177e+00 -1.374834e+00 1.978110e+00 2.531733e-01 -2.995454e+00 -1.645467e+00 3.536424e+00 -4.726116e+00 -1.431762e+00 1.908362e+00 1.085784e+00 -1.520242e+00 -4.543214e-02 
-1.307574e+01 -1.158531e+00 4.412985e+00 7.042891e+00 -3.678189e+00 -9.788818e+00 6.780426e+00 -5.090370e+00 5.917064e+00 1.017015e+01 -2.875520e+00 -2.315015e+00 4.439944e-02 1.064730e+00 1.085320e-01 9.671322e-01 -6.413165e-01 -1.447863e+00 -2.326025e+00 3.366285e+00 -4.397223e+00 -1.462399e+00 2.138787e+00 2.538295e+00 -1.118135e+00 -6.156247e-02 
-1.734410e+01 -6.186505e+00 5.808355e+00 5.029516e+00 -3.026212e+00 -8.353589e+00 1.604173e+01 -1.665505e+01 2.881401e+00 9.232587e+00 -3.365349e+00 -5.028809e+00 3.042744e-01 1.722150e+00 1.287260e+00 6.106693e-01 -1.364080e+00 3.794370e-01 -1.039723e+00 1.096090e+00 9.754707e-01 -6.040754e-02 -3.690493e-01 2.719564e+00 -5.991275e-01 -8.813458e-02 
-1.177171e+01 -1.823671e+00 5.633119e+00 5.871451e+00 -2.630671e+00 -9.252413e+00 9.475801e+00 -3.411388e+00 7.242311e+00 1.230027e+01 -8.100555e-01 -5.052145e+00 -2.304351e-02 1.797688e+00 1.666984e+00 -1.176966e+00 -1.351171e+00 2.075334e+00 1.659073e+00 -1.420128e+00 5.580009e+00 5.283858e-01 -2.714800e+00 1.640945e-01 -1.399584e+00 -7.348351e-02 
-9.151794e+00 3.888660e+00 3.314740e+00 3.933847e+00 1.180212e+00 -8.298523e+00 3.283062e+00 4.948689e+00 4.458326e+00 5.125460e+00 3.549236e+00 -2.127752e+00 -1.317182e-01 4.232328e+00 1.503180e-01 -1.892673e+00 -2.700951e+00 7.592791e-01 3.678136e+00 -5.431846e+00 4.782481e+00 -3.887195e-01 -4.169837e+00 1.927456e-01 -1.054106e+00 9.794402e-03 
-8.183451e+00 2.138808e+00 -2.250392e-01 8.348687e-01 4.595267e+00 -1.520986e+00 6.059117e+00 1.200781e+01 7.770530e+00 -1.350291e+00 -5.512340e+00 -1.076346e+01 -1.050218e-01 4.836362e+00 -3.680808e+00 -1.786551e+00 -4.181781e+00 -6.095117e-01 5.026154e+00 -5.915772e+00 -1.961935e-01 -1.983494e+00 -3.944445e+00 -1.058876e+00 -1.693589e+00 2.257719e-01 
2.023417e+00 -7.416154e+00 -7.259335e-01 -5.956945e+00 -2.842785e+00 6.171379e+00 -9.409161e+00 -4.522469e-01 6.736941e-01 -4.791313e+00 -5.047846e-02 -7.443683e+00 3.942356e-01 5.429782e+00 -6.685029e+00 -1.309027e+00 -4.419274e+00 -2.486949e+00 5.170688e+00 -5.863441e+00 -1.456953e+00 -2.187074e+00 -1.059070e+00 -1.784267e+00 -1.903630e+00 3.154959e-01 
6.822494e+00 -1.457530e+01 -1.279299e+00 -1.009206e+01 -3.666731e+00 8.643404e+00 -1.375695e+01 -1.691888e+00 -7.828442e-01 -2.463563e+00 -4.304578e+00 -1.086213e+01 8.428389e-01 4.416593e+00 -5.587988e+00 -5.252936e-01 -3.745553e+00 -2.140076e+00 2.770232e+00 -4.278841e+00 -1.452393e+00 -2.434792e+00 1.538632e+00 -9.865844e-01 1.714043e-01 2.771495e-01 
1.049414e+01 -2.117943e+01 -2.703264e+00 -1.269906e+01 -7.123535e+00 1.247272e+01 -1.612611e+01 4.513769e+00 -2.200357e+00 3.867450e-01 -5.975978e+00 -1.159657e+01 9.718311e-01 1.594620e+00 -2.249179e+00 -6.619843e-01 -2.115680e+00 -3.331256e-01 3.297614e-01 -9.051809e-02 3.212118e-01 -6.625751e-01 2.275358e+00 -1.809165e+00 2.139247e-01 1.360618e-01 
9.664148e+00 -1.891949e+01 -1.862842e+00 -1.452184e+01 -3.964740e+00 9.179504e+00 -1.197662e+01 2.262832e+00 -2.966403e+00 3.753839e+00 -7.482512e+00 -7.829997e+00 9.919279e-01 5.102646e-01 -6.072826e-02 -4.752854e-01 -1.054149e+00 -7.847090e-02 -7.362558e-01 9.790435e-01 -4.538810e-01 -5.570767e-01 1.983739e+00 -1.097200e+00 1.137477e+00 3.341352e-02 
8.575689e+00 -1.648995e+01 -3.744083e+00 -1.432046e+01 -4.359408e+00 7.552135e+00 -1.075192e+01 -8.235474e-01 -1.547402e+00 3.476775e+00 -7.507338e+00 -7.890123e+00 1.000000e+00 3.182874e-01 1.328238e+00 -5.279374e-01 7.304710e-01 -5.513164e-01 -5.589935e-01 1.264846e+00 -1.933849e+00 1.532179e-01 1.040967e+00 2.156377e-01 8.143272e-01 1.516390e-03 
1.033304e+01 -1.722368e+01 -3.135316e+00 -1.455211e+01 -5.441149e+00 7.422417e+00 -1.154883e+01 -1.292635e+00 -3.894706e+00 5.910116e+00 -9.024898e+00 -7.027964e+00 9.958221e-01 8.342817e-01 9.874699e-01 -1.117699e+00 1.707584e+00 -1.744357e+00 -4.483881e-02 5.343990e-01 -2.299085e+00 3.924474e-01 1.434059e-01 5.994291e-01 -5.438757e-03 -9.268331e-03 
1.175113e+01 -1.538614e+01 -4.706714e+00 -9.031570e+00 -9.141912e+00 1.055630e+01 -1.001578e+01 -3.377741e+00 -9.701167e-01 4.513441e+00 -4.126596e+00 -7.925949e+00 9.774660e-01 9.998253e-01 1.183661e+00 -1.107926e+00 1.978103e+00 -1.315898e+00 -7.657204e-02 1.057623e+00 -2.087280e+00 3.328528e-01 4.266382e-01 6.123444e-01 3.484720e-01 -1.711450e-02 
1.224784e+01 -1.453405e+01 -6.970022e+00 -8.628359e+00 -1.029527e+01 7.453230e+00 -9.672691e+00 -7.955499e+00 -1.292808e+00 3.952535e+00 -6.175736e+00 -7.839278e+00 9.568533e-01 6.286892e-01 1.462748e+00 -7.433822e-01 1.349479e+00 -2.179921e-01 -3.585859e-01 1.083667e+00 -1.118248e+00 4.087227e-01 3.515850e-01 6.888453e-01 2.726396e-01 -2.143620e-02 
1.261742e+01 -1.191646e+01 -7.366358e+00 -7.391815e+00 -8.511834e+00 7.153868e+00 -6.401869e+00 -7.928516e+00 -1.184086e+00 6.588757e+00 -5.870196e+00 -5.742106e+00 9.339119e-01 2.161331e-01 1.053353e+00 -1.268700e-01 -2.988539e-01 8.048766e-01 -1.125147e+00 7.671260e-01 -2.896079e-01 -3.549271e-01 3.800310e-01 -1.687916e-01 5.009827e-01 -2.181237e-02 
1.304335e+01 -1.164478e+01 -5.522406e+00 -8.624590e+00 -6.846148e+00 7.330701e+00 -7.937445e+00 -4.608485e+00 -1.744107e+00 6.630383e+00 -4.708871e+00 -6.756687e+00 9.104182e-01 1.628268e-01 8.773327e-01 4.485740e-01 -4.189717e-01 3.609843e-01 1.732022e-01 8.228855e-02 9.991004e-01 -4.015960e-01 3.963814e-01 2.182008e-01 8.799658e-01 -1.981903e-02 
1.243404e+01 -1.156401e+01 -6.064872e+00 -1.052772e+01 -6.842093e+00 4.991827e+00 -7.047768e+00 -6.499288e+00 -2.519103e+00 5.074672e+00 -5.703987e+00 -5.962331e+00 8.916217e-01 -4.406815e-02 3.558902e-01 5.623628e-01 -8.752122e-01 -4.845033e-01 5.045033e-01 -7.639318e-01 6.697550e-01 -6.417189e-01 -2.304252e-01 2.332830e-01 8.299505e-01 -1.624668e-02 
1.315366e+01 -1.032361e+01 -5.377895e+00 -9.155263e+00 -9.325224e+00 9.400263e+00 -8.938299e+00 -3.674611e+00 -2.633280e+00 6.691484e+00 -5.167837e+00 -3.329337e+00 8.789032e-01 1.739397e-01 3.800609e-01 3.150416e-01 -4.177717e-01 -9.977230e-01 1.014446e+00 -4.238410e-01 -8.087597e-02 -1.808711e-01 -2.763894e-01 7.414318e-01 9.929649e-01 -1.307519e-02 
1.234192e+01 -1.079760e+01 -4.626799e+00 -1.150254e+01 -9.694813e+00 8.641603e+00 -9.721102e+00 -5.046679e+00 -3.948094e+00 5.406080e+00 -4.474298e+00 -3.306028e+00 8.684360e-01 3.032808e-01 3.834873e-01 3.244179e-01 -1.643032e-01 -9.669029e-01 8.929011e-01 -2.743435e-01 -4.168736e-01 1.352634e-01 -3.741096e-01 1.143712e+00 4.973443e-01 -1.207476e-02 
1.395910e+01 -1.012768e+01 -4.666234e+00 -1.022604e+01 -1.040840e+01 1.057804e+01 -8.719984e+00 -5.739170e+00 -1.933967e+00 5.082732e+00 -1.616556e+00 -3.120014e+00 8.566351e-01 3.026977e-01 1.896206e-01 2.163700e-01 -4.954451e-01 -5.081733e-01 -4.160849e-01 5.473981e-01 -1.233180e+00 1.027775e-01 -7.737488e-01 9.296167e-01 2.829777e-01 -1.265330e-02 
1.354772e+01 -9.744540e+00 -4.798614e+00 -1.081385e+01 -1.113502e+01 8.867441e+00 -8.528643e+00 -7.551376e+00 -2.192442e+00 4.008501e+00 -1.761066e+00 -3.580271e+00 8.423820e-01 4.016934e-01 1.944667e-01 4.043729e-01 -2.696465e-01 -4.928919e-01 -3.500328e-01 6.008404e-01 -8.382772e-01 -7.643614e-02 -5.514240e-01 8.811567e-01 3.745430e-01 -1.256979e-02 
1.406425e+01 -9.902036e+00 -4.210138e+00 -1.197683e+01 -1.114599e+01 7.206919e+00 -6.797537e+00 -8.588162e+00 -2.997219e+00 3.521531e+00 -1.876370e+00 -1.777327e+00 8.286637e-01 2.392590e-01 5.458260e-02 5.554653e-01 -4.619952e-01 -3.187273e-01 -1.587799e-01 2.325590e-01 -4.757761e-01 -5.319128e-01 -1.177558e-01 4.024642e-01 4.945487e-01 -1.176457e-02 
1.429782e+01 -9.938087e+00 -2.832982e+00 -1.197538e+01 -1.179048e+01 8.577002e+00 -7.678122e+00 -7.813568e+00 -3.798649e+00 3.429561e+00 6.139159e-02 -2.104657e+00 8.195727e-01 3.885059e-01 9.475183e-02 7.004486e-01 -2.490471e-01 -6.189690e-02 5.795450e-01 -6.618500e-04 -1.188869e-02 -2.884063e-01 7.555771e-03 6.836012e-01 6.309762e-01 -1.128287e-02 
1.478035e+01 -9.757996e+00 -2.871723e+00 -1.195525e+01 -1.167431e+01 9.929363e+00 -7.982449e+00 -7.986955e+00 -3.790428e+00 4.783423e+00 -5.154643e-01 -1.385077e+00 8.092169e-01 4.106307e-01 1.300394e-01 5.823320e-01 1.691385e-01 1.173512e-01 6.532574e-01 1.524651e-01 -9.833841e-02 9.936497e-02 2.655983e-02 6.296418e-01 7.485019e-01 -1.195243e-02 
1.513220e+01 -9.342801e+00 -1.965578e+00 -1.206988e+01 -1.118034e+01 1.040394e+01 -7.939497e+00 -7.911424e+00 -3.237869e+00 3.415333e+00 9.764868e-01 -6.215149e-01 7.956910e-01 3.973016e-01 3.219357e-01 3.016193e-01 3.055755e-01 3.457747e-01 -6.403007e-02 9.696347e-01 -9.299997e-01 8.482220e-01 -7.256149e-01 5.872115e-01 9.833714e-01 -1.556730e-02 
1.570021e+01 -9.549481e+00 -1.732180e+00 -1.108389e+01 -1.086430e+01 9.559734e+00 -5.904524e+00 -9.030927e+00 -2.780784e+00 3.661444e+00 8.142910e-01 1.223612e+00 7.808424e-01 2.037451e-01 9.142632e-01 -3.312149e-01 8.580028e-01 -4.611263e-02 -3.225153e-01 1.114072e+00 -1.075589e+00 4.337783e-01 -1.023443e+00 4.385580e-01 1.264887e+00 -2.237002e-02 
1.582440e+01 -8.432665e+00 -1.894657e+00 -1.088318e+01 -1.046661e+01 8.441666e+00 -3.868911e+00 -1.194158e+01 -6.236151e-02 3.624761e-01 2.332572e+00 1.507856e+00 7.559234e-01 -5.208254e-03 1.129496e+00 -1.462847e-01 7.134098e-01 -4.626459e-01 -6.916828e-02 6.389024e-01 -7.459938e-01 -2.254930e-02 -9.241972e-01 -1.467819e-01 1.476027e+00 -2.800774e-02 
1.545298e+01 -5.641748e+00 -4.563258e+00 -8.258588e+00 -1.226174e+01 9.297926e+00 -4.447383e+00 -1.134982e+01 -3.209290e+00 1.192634e+00 9.992834e-01 3.874671e+00 7.172505e-01 -3.277625e-01 1.468652e+00 4.117910e-01 -6.639107e-01 -7.704235e-01 1.860855e-01 1.908841e-01 -1.801131e-01 -6.687770e-01 -9.784792e-01 -1.075783e+00 1.979872e+00 -2.843594e-02 
1.522977e+01 -5.649188e+00 -1.281462e+00 -9.915478e+00 -1.279485e+01 1.018901e+01 -5.473555e+00 -1.048195e+01 -3.136363e+00 2.875209e-02 1.500809e-01 5.433090e+00 6.874483e-01 -3.845677e-01 1.431938e+00 1.319196e+00 -1.444936e+00 -1.231544e+00 1.003126e-01 -1.923165e-02 -1.840053e-01 -5.209866e-01 -8.679372e-01 -1.020488e+00 1.432714e+00 -2.753091e-02 
1.435871e+01 -3.597962e+00 2.017725e-02 -1.488729e+01 -1.355230e+01 9.616491e+00 -4.147782e+00 -1.066131e+01 -4.587668e+00 -1.064090e+00 -3.473380e+00 9.160353e+00 6.729003e-01 2.133279e-02 2.925448e+00 5.960296e-01 -1.578886e+00 -7.593279e-01 -1.000797e+00 9.445568e-01 -6.708457e-01 7.949952e-01 -1.432536e+00 -1.281695e+00 8.701706e-02 -3.535657e-02 
1.444869e+01 -2.294868e+00 2.409603e+00 -1.479351e+01 -1.597905e+01 8.783947e+00 -4.114870e+00 -1.320586e+01 -1.978106e+00 -2.848848e+00 -5.335350e-01 6.028585e+00 6.404440e-01 5.791157e-01 3.766818e+00 -9.930288e-01 -1.237217e+00 4.086372e-01 -1.651305e+00 1.412516e+00 5.583639e-02 1.051352e+00 -1.624293e+00 -2.104439e+00 -4.731630e-01 -3.893732e-02 
1.595018e+01 7.308335e+00 -3.428642e+00 -1.371400e+01 -1.446628e+01 4.996474e+00 -4.039416e-01 -1.334209e+01 1.865572e-01 -4.531247e+00 -5.067382e+00 4.012009e+00 5.639698e-01 8.111913e-01 3.636338e+00 -1.559202e+00 -8.312587e-02 7.194275e-01 -2.501071e+00 1.525254e+00 1.382808e+00 5.258249e-01 -2.335901e+00 -1.769892e+00 -1.612457e+00 -4.222088e-02 
1.732962e+01 7.731753e+00 -4.522196e+00 -1.668821e+01 -1.029468e+01 4.242490e+00 -2.828972e-01 -8.862372e+00 -2.667135e-01 -6.359132e+00 -9.575116e+00 5.641447e+00 5.472269e-01 4.679941e-01 1.621274e+00 -8.532596e-01 2.254005e-01 4.950970e-01 -1.927765e+00 1.203045e+00 2.573293e+00 -6.428190e-02 -2.109775e+00 -1.353657e+00 -1.576668e+00 -3.024892e-02 
1.697420e+01 9.570419e+00 -4.309936e+00 -1.435557e+01 -1.279735e+01 -6.181355e-01 1.562504e+00 -5.919017e+00 -2.814240e+00 -1.098845e+01 -7.802051e+00 1.291636e+00 5.084044e-01 -1.706049e-01 1.432817e-02 7.618802e-01 1.336788e+00 1.806259e-02 -2.220898e+00 6.057391e-01 2.777264e+00 -1.083588e+00 -1.400257e+00 1.830448e-01 -2.396834e+00 -2.769444e-02 
1.627666e+01 4.680458e+00 -1.416048e+00 -1.334572e+01 -1.433803e+01 1.952425e+00 9.171309e-01 -4.050933e+00 -7.991165e-01 -1.016912e+01 -5.934486e+00 -4.945663e-01 5.169821e-01 -7.377593e-01 -5.590805e-01 1.577932e+00 1.776616e+00 -9.084486e-01 -1.825526e+00 -8.162342e-02 2.709310e+00 -1.555290e+00 -3.908036e-01 1.230453e+00 -3.018150e+00 -1.854248e-02 
1.562364e+01 8.905623e+00 -1.172315e+00 -8.701306e+00 -1.235429e+01 -4.962985e+00 2.024740e+00 -1.861491e+00 -4.965180e+00 -9.627540e+00 -5.972472e+00 -4.904156e+00 4.406200e-01 -1.560093e+00 4.844282e-01 2.701717e+00 8.650293e-01 1.253659e+00 -1.195081e+00 -1.224641e+00 2.660059e+00 -2.414066e+00 4.410642e-01 3.321202e-01 -2.694867e+00 -2.540747e-02 
1.431610e+01 5.268748e+00 1.798656e+00 -1.063226e+01 -1.505845e+01 -2.712718e+00 -9.221320e-01 2.655415e+00 -6.967692e+00 -8.993608e+00 -4.337638e+00 -6.351409e+00 4.884067e-01 -2.215045e+00 4.172041e-01 3.761594e+00 1.243938e+00 1.813147e+00 -9.391425e-01 -8.364587e-01 1.295082e+00 -3.350960e+00 3.900773e-01 2.811550e-01 -2.104023e+00 -3.609712e-02 
1.015401e+01 1.169841e+01 7.591297e+00 -1.138715e+01 -6.168844e+00 -4.260969e+00 -3.641068e+00 4.028107e+00 -1.180028e+01 -9.370891e+00 -6.939874e+00 -9.254279e+00 3.956547e-01 -2.636596e+00 -2.789593e-01 2.853663e+00 3.839220e+00 3.565594e+00 5.107890e-01 -1.056111e-01 -7.229294e-01 -1.639037e+00 -3.221853e-01 8.741676e-01 4.999827e-01 -6.696419e-02 
7.936242e+00 5.370082e+00 1.301011e+01 -5.783102e+00 -8.365019e+00 -3.094296e+00 -4.322586e-01 -5.203207e-01 -1.413637e+01 -8.347058e+00 -4.045011e+00 -8.839619e+00 3.589791e-01 -3.149052e+00 -1.690508e+00 -4.417689e-01 5.093236e+00 5.681661e+00 1.376985e+00 1.736572e+00 -1.623628e+00 9.882261e-01 -1.622329e+00 1.701100e-01 1.208502e+00 -9.183989e-02 
5.630589e+00 7.460160e+00 7.490273e+00 8.070211e+00 2.126968e+00 -2.218251e+00 1.251748e+00 -3.888271e+00 -9.576025e+00 -1.156174e+01 -1.747948e+00 -1.160137e+00 1.705129e-01 -3.056127e+00 -3.363988e+00 -3.588272e+00 4.219897e+00 3.600655e+00 6.488599e-01 1.626503e+00 -1.151299e+00 3.722592e+00 9.361464e-01 1.628373e+00 1.659139e+00 -9.430338e-02 
8.325543e-01 -1.064665e+00 -3.596767e-01 5.105231e+00 9.201948e+00 3.150850e+00 5.314321e+00 -1.504536e+00 -3.138690e+00 -1.600983e+01 -6.083051e+00 -4.355972e+00 1.417782e-01 -2.562834e+00 -2.154546e+00 -4.929621e+00 1.395237e+00 2.403283e+00 -1.137457e+00 1.323462e-01 -3.356486e-01 3.198933e+00 2.313457e+00 1.737553e+00 2.406655e+00 -8.549450e-02 
-1.574779e+00 -1.904151e+00 -3.665167e+00 4.268166e+00 3.050950e+00 -4.139243e+00 1.618156e+00 -1.236280e+00 1.313841e+00 -8.587728e-01 2.221010e+00 -3.200407e+00 3.273827e-02 -2.042900e+00 -1.585401e+00 -2.954248e+00 -1.307664e+00 -7.214051e-01 -1.834530e+00 -1.258620e+00 -5.391434e-01 5.958932e-01 2.491640e+00 1.620783e+00 1.840801e+00 -4.716900e-02 
-1.275245e+00 -7.204925e-01 -6.060273e+00 3.094106e+00 3.189404e+00 -7.821086e+00 4.626799e-02 -3.524559e+00 -3.586635e+00 -2.131259e+00 2.658277e+00 4.213789e+00 3.938675e-04 -8.311650e-01 9.861845e-01 5.065079e-02 -8.412168e-02 -1.058287e+00 -8.885899e-01 5.330150e-01 2.957744e-01 -1.010365e+00 1.745282e+00 8.005266e-01 1.460587e+00 -3.371015e-02 
-3.530011e+00 -6.389314e-01 -4.430671e+00 2.537456e+00 1.526215e+00 -5.904931e+00 -2.407326e+00 -5.573977e+00 -6.372587e+00 -6.042826e+00 1.985305e+00 3.758985e+00 5.360007e-03 -5.915152e-01 1.051462e+00 1.036003e+00 6.510072e-01 1.081357e+00 1.132273e+00 2.333443e+00 9.727642e-01 -2.769634e-01 -1.636673e+00 -4.341460e-01 1.121147e+00 -1.132029e-02 
-2.345655e+00 3.233647e+00 2.763292e-01 5.549978e+00 4.672881e+00 -4.092555e-01 9.992138e+00 2.143184e+00 -4.347301e+00 -4.691392e+00 -1.962565e+00 -5.327349e-01 -1.308346e-02 -6.082332e-01 1.042015e+00 1.487377e+00 8.586982e-01 2.069275e+00 2.141327e+00 2.846607e+00 2.105009e+00 1.302686e+00 -1.552963e-01 8.292200e-02 4.150393e-01 -1.066291e-02 
-3.997150e+00 1.376087e+00 -1.653450e+00 6.295266e+00 7.715996e+00 -2.183794e+00 8.312439e+00 7.936702e-01 3.093570e-01 -7.762071e+00 2.360700e+00 4.778592e+00 -1.712453e-02 -8.693103e-02 1.431356e+00 1.462674e+00 1.051201e+00 2.635555e+00 1.614599e+00 1.994809e+00 1.553143e+00 9.815800e-01 6.556811e-01 1.845403e+00 1.153460e+00 -1.364455e-02 
-4.082841e+00 3.482074e+00 -1.200020e-02 5.508692e+00 1.044089e+01 1.024982e+00 8.919419e+00 3.816664e+00 -4.141756e-01 -2.048118e+00 2.885189e+00 5.779181e+00 -4.167843e-02 2.223229e-01 1.051397e+00 1.003569e+00 1.057351e+00 1.935884e+00 7.802020e-01 -8.837070e-02 3.472231e-01 6.719410e-02 5.112071e-01 1.404227e+00 5.771356e-01 -1.249566e-02 
-3.096073e+00 6.393638e+00 3.026863e+00 7.814105e+00 1.181998e+01 1.450946e+00 8.103079e+00 1.354998e+00 -3.431249e+00 -4.086058e+00 8.788442e+00 6.370328e+00 -4.856527e-02 8.596338e-01 1.600623e+00 1.490503e+00 5.129246e-01 -3.324578e-02 1.953959e-01 -8.552679e-01 5.380226e-01 -3.321745e-01 -2.050163e-01 -1.544030e+00 -9.898747e-01 -7.912302e-03 
-1.684579e+00 5.981856e+00 2.954017e+00 1.007731e+01 1.230031e+01 1.674385e+00 9.654964e+00 3.598635e+00 -2.141027e+00 -3.973363e+00 1.844699e+00 1.557075e+00 -5.984139e-02 8.188359e-01 1.229469e+00 7.547183e-01 2.733380e-01 -9.859940e-01 -7.509876e-01 -2.257694e+00 -6.443589e-01 7.414749e-02 -1.311457e+00 -1.914472e+00 -1.112429e+00 -4.320025e-04 
-8.981118e-01 8.129310e+00 4.316057e+00 6.575580e+00 6.620059e+00 -1.531515e+00 3.668327e+00 3.592798e+00 -4.880893e-01 -7.824530e+00 -4.839207e+00 1.940272e+00 -4.760456e-02 1.163097e-01 6.903850e-01 -4.449582e-03 -6.934935e-01 -1.170790e+00 -1.163705e+00 -2.443969e+00 -7.961750e-01 2.670206e-01 6.316807e-02 -8.122066e-01 -6.888438e-01 -4.269970e-03 
-1.087642e+00 8.761581e+00 3.116995e+00 7.494646e+00 8.110882e+00 -1.238725e+00 -1.516743e-01 -5.240304e-01 -1.515018e+00 -6.736169e+00 1.266544e-01 2.432066e+00 -4.431880e-02 -3.621395e-01 5.841554e-01 1.063631e-01 -4.795675e-01 -4.523504e-01 -1.365547e+00 -9.153357e-01 1.872386e-01 1.211684e+00 1.792809e+00 1.268890e+00 7.991867e-02 -5.684221e-03 
-2.812993e+00 8.455701e+00 2.923127e+00 5.637971e+00 8.060743e+00 -2.911023e+00 7.865548e-01 -5.645440e-01 -2.409151e+00 -2.388814e+00 5.586431e+00 2.488613e+00 -7.767642e-02 -5.865970e-01 1.030033e-01 2.787103e-01 3.899156e-01 4.665208e-01 -3.000480e-01 1.492594e+00 1.655338e+00 1.782490e+00 2.949118e+00 2.046599e+00 6.574762e-01 -1.028490e-02 
-2.537837e+00 8.739438e+00 4.182297e+00 8.148278e+00 9.318213e+00 -4.463597e+00 6.519172e+00 6.613500e+00 4.877925e+00 2.272822e+00 2.976329e+00 1.682498e+00 -7.322657e-02 -3.295080e-01 5.052705e-02 2.867607e-01 5.028681e-01 3.108422e-01 7.258762e-01 2.609196e+00 1.612653e+00 1.240067e+00 2.176906e+00 1.184296e+00 8.952922e-01 -9.313190e-03 
-3.105999e+00 8.655397e+00 5.176957e+00 8.198341e+00 8.348997e+00 -1.419319e+00 7.795871e+00 8.300724e+00 5.227888e+00 2.416562e+00 3.968950e+00 5.602438e+00 -8.457518e-02 -3.188692e-01 -2.183367e-01 -5.098867e-01 1.937263e-01 1.985211e-02 9.827620e-01 1.294141e+00 3.160865e-01 -1.302238e-01 1.794940e-01 6.278485e-01 4.188128e-01 -4.056024e-03 
-2.588679e+00 8.914369e+00 3.423883e+00 8.728801e+00 9.520966e+00 1.644804e+00 9.389649e+00 3.106598e+00 8.667963e-01 1.745674e+00 6.856874e+00 5.351615e+00 -8.743536e-02 -6.588794e-01 -6.053783e-01 -1.303074e+00 6.315899e-02 1.132040e-01 3.740110e-01 -8.530138e-01 -1.445742e+00 -1.456457e+00 -1.864647e+00 4.900602e-01 5.092225e-02 -9.216225e-03 
-4.381917e+00 7.276552e+00 7.529001e-01 6.316341e+00 8.058627e+00 -1.051414e+00 5.822021e+00 2.769339e+00 -1.054705e+00 -1.227770e+00 6.785401e+00 2.748119e+00 -9.085214e-02 -6.085130e-01 -7.035686e-01 -7.336655e-01 -8.591595e-02 5.991325e-01 -9.101051e-01 -1.070836e+00 -2.081961e-01 -1.428535e+00 -1.914469e+00 3.764105e-03 -9.767254e-01 -1.115366e-02 
-5.194274e+00 6.401969e+00 -1.210418e-01 9.405073e+00 1.002942e+01 -2.777495e+00 3.241028e+00 2.150483e+00 7.369394e-01 -5.228245e+00 4.018404e+00 3.364269e+00 -1.161692e-01 -4.499965e-01 -6.913375e-01 4.886298e-01 3.472666e-01 9.396318e-01 -9.779198e-01 -7.998786e-01 1.939267e+00 -2.645880e-02 -2.102113e-02 -6.629649e-01 -1.214286e+00 -1.284727e-02 
-4.845767e+00 6.393754e+00 3.281092e+00 7.430625e+00 1.109043e+01 -3.758696e+00 5.516004e+00 7.737801e+00 -1.849858e+00 -3.668822e+00 5.407005e+00 1.712484e+00 -1.259766e-01 4.083710e-02 -8.327718e-02 5.664172e-01 1.860238e-01 8.455871e-01 4.342012e-01 6.413803e-02 1.331255e+00 1.512982e-01 1.546918e+00 -1.063987e+00 -1.802628e+00 -5.098343e-03 
-4.606737e+00 5.899079e+00 4.602936e+00 9.907992e+00 1.270322e+01 -1.891154e+00 5.543265e+00 1.031870e+01 1.132079e+00 2.861094e+00 4.231247e+00 -2.019991e-01 -1.341095e-01 -8.731899e-02 -2.459029e-01 -1.398745e-01 -4.014171e-01 -9.398773e-01 4.488478e-01 -7.829139e-03 4.001008e-01 -1.664336e-01 9.035031e-01 -8.282562e-01 -3.594449e-01 -9.987116e-04 
-4.471501e+00 7.111611e+00 1.222997e+00 6.995001e+00 1.094966e+01 6.764221e-01 4.991592e+00 5.341502e+00 -4.957836e-01 2.462147e+00 1.359045e+00 -4.481886e+00 -1.073737e-01 -3.318716e-01 -3.522150e-01 -9.868180e-01 -2.948215e-01 -1.306693e+00 7.751481e-01 -2.837894e-01 -6.849109e-01 1.297257e+00 1.613898e-01 -2.108567e-01 3.073329e-01 5.899799e-03 
-5.818002e+00 4.813527e+00 2.086329e-01 7.615800e+00 5.400416e+00 -2.750815e+00 3.464088e+00 5.349137e+00 -7.722657e-01 -3.776215e+00 1.901103e+00 4.664229e+00 -1.304642e-01 -1.600482e-01 -5.108285e-03 -7.403050e-01 -2.624818e-01 -1.498248e+00 -3.942453e-01 -9.139190e-01 -1.436958e+00 7.845920e-01 3.242910e-01 1.058903e+00 1.936753e+00 1.129508e-02 
-5.899492e+00 5.175456e+00 5.441536e-01 7.102613e+00 8.208372e+00 5.468750e-01 5.136645e+00 6.798030e+00 5.588597e+00 4.567817e-01 5.517794e+00 8.160349e-01 -9.830022e-02 1.455736e-02 5.320982e-01 1.103302e+00 6.356670e-01 -1.723394e-02 4.137671e-02 2.391579e-01 -2.792231e-01 5.728831e-01 1.708293e+00 1.733490e+00 2.078182e+00 4.461145e-03 
-4.692982e+00 6.841616e+00 1.240833e+00 8.541777e+00 6.582626e+00 -3.797607e+00 9.011436e-01 2.405650e+00 2.012849e+00 5.485232e+00 7.446387e+00 6.832806e+00 -8.217084e-02 4.758120e-01 1.290839e+00 1.168610e+00 9.586691e-01 1.126009e+00 2.161756e-01 1.803573e-01 7.203764e-01 3.383540e-01 1.351513e+00 9.118163e-01 -1.499460e+00 4.360950e-03 
-4.961224e+00 8.758058e+00 6.223407e+00 9.710347e+00 1.027239e+01 1.406702e+00 7.468854e+00 5.417130e+00 9.760748e-01 6.372888e+00 7.253854e+00 4.824735e+00 -1.092147e-01 4.767738e-01 1.123674e+00 7.307034e-01 1.056883e+00 6.995997e-01 -3.595693e-01 -1.575125e-01 1.292270e+00 -3.512747e-01 -6.328899e-01 -1.705510e-01 -2.297713e+00 -3.083539e-03 
-3.908076e+00 9.476423e+00 3.212058e+00 1.110528e+01 9.998456e+00 -2.099850e+00 3.199769e+00 9.641469e+00 3.225765e+00 2.329862e-02 5.592155e+00 -4.837419e+00 -1.032022e-01 2.622961e-01 5.987979e-01 9.311006e-02 6.521936e-01 6.557730e-01 -1.110377e-02 3.281675e-02 1.869598e+00 4.675524e-01 -1.727345e+00 -5.370164e-01 -3.300260e+00 -3.605032e-03 
