-7.888895e+00 5.401532e+00 -8.622921e-02 6.848680e+00 2.809123e+00 -5.605564e+00 3.288787e+00 4.832599e+00 2.435721e+00 -1.938998e+00 5.134822e+00 1.939920e+00 9.345412e-03 1.105208e-01 -6.503286e-01 3.818468e-02 -2.000651e+00 -1.466960e+00 -1.089874e+00 -2.185329e+00 -8.777224e-01 -1.150810e+00 -3.631974e-01 1.121910e+00 -1.926694e-01 6.358725e-03 
-5.146449e+00 3.167387e+00 -1.792021e-01 2.236341e+00 1.498346e-01 -3.209491e+00 -6.490347e+00 5.067433e+00 2.863725e-01 -2.971925e+00 1.169236e+01 3.850746e-02 8.717078e-02 -6.213188e-02 -2.084079e-01 -4.782624e-02 -1.582002e+00 -6.492931e-01 -1.321103e+00 -8.912679e-01 -5.690492e-01 -4.144867e-01 5.993943e-02 2.691892e-01 3.515456e-01 -3.191721e-03 
-8.707514e+00 3.266962e+00 1.511806e-01 -8.484039e-01 -3.196033e+00 -1.225297e+01 -2.748292e+00 3.265693e-01 -2.243657e+00 -3.238522e+00 7.465605e+00 1.927279e+00 2.226353e-03 -2.985921e-01 -1.610164e-01 3.847752e-02 4.395469e-01 9.544056e-01 -4.992219e-01 8.884657e-01 -9.898223e-02 1.029037e+00 1.159791e+00 -1.105794e+00 1.680582e-01 -1.462771e-02 
-7.790245e+00 5.426778e+00 -4.440653e-01 2.787212e+00 2.565236e+00 -8.887379e+00 1.850988e+00 4.240367e+00 2.702976e+00 -9.895395e-01 5.315376e+00 3.703969e+00 -3.053665e-03 -2.978918e-01 5.411436e-01 5.933160e-01 1.622003e+00 1.620384e+00 3.946409e-02 2.331071e+00 8.346354e-01 1.654516e+00 1.650795e+00 -1.923255e+00 -9.409869e-02 -2.314389e-02 
-8.059958e+00 3.466755e+00 2.385900e-01 8.770979e+00 6.373450e+00 -5.262730e+00 3.560448e+00 4.751220e+00 6.372604e+00 2.868765e+00 2.794345e+00 9.474804e-01 -1.868093e-02 1.753429e-01 1.169085e-01 2.483633e-01 1.031456e+00 1.625339e+00 1.887814e+00 4.633252e-01 1.060210e+00 9.892260e-01 1.529508e+00 1.085523e-01 -1.952392e-01 -5.437279e-03 
-6.959686e+00 5.773209e+00 2.743673e+00 5.536663e+00 3.467010e+00 -6.507290e+00 2.010636e+00 7.028285e+00 4.250824e+00 2.228406e+00 4.411712e+00 5.791330e-02 -1.809502e-02 1.029835e-02 -3.277971e-01 -1.070022e-01 -1.887305e-01 2.722871e-01 -9.593087e-02 -4.231464e-01 -7.491889e-02 -1.400122e+00 -5.332744e-01 1.015706e+00 -5.317271e-02 6.366968e-05 
-8.246078e+00 3.678289e+00 -2.008724e-01 2.934152e+00 4.479774e+00 -4.003943e+00 -5.114908e-01 4.233661e+00 1.928550e+00 2.800046e+00 8.460198e+00 2.774111e+00 -1.743937e-02 1.903692e-01 -4.936214e-01 -8.953202e-01 -1.355962e+00 -4.060455e-01 -1.429552e+00 1.279243e-01 -5.066269e-01 -2.389627e+00 -1.220111e+00 5.199774e-01 9.485649e-01 1.274754e-02 
-7.645693e+00 3.682026e+00 -7.593449e-01 4.761973e+00 4.873510e+00 -9.996426e+00 1.771225e+00 4.124552e+00 -2.075606e+00 -3.621552e+00 7.560980e+00 2.524790e+00 -3.356099e-03 2.833767e-02 -5.681471e-01 -3.362236e-01 2.881368e-01 -3.659165e-03 -8.691107e-01 9.745985e-01 -1.714418e-01 -7.129751e-01 -6.755812e-01 1.567603e-01 1.127697e+00 2.511954e-03 
-6.765108e+00 2.044239e+00 -2.486502e+00 2.378514e+00 3.639973e+00 -1.066592e+01 4.319775e+00 3.669952e+00 -2.412317e+00 -3.068095e-01 3.819598e+00 4.456867e+00 3.768730e-02 9.147587e-02 -1.128459e-01 2.467573e-01 1.058106e+00 3.874718e-01 -2.565643e-01 1.009706e+00 3.813206e-01 -1.669232e-01 6.321362e-01 9.942285e-01 8.063908e-01 -6.786108e-03 
-7.558483e+00 3.749498e+00 2.205370e+00 7.255166e+00 3.868615e+00 -7.521855e+00 4.467996e+00 6.452930e+00 2.856382e+00 4.039278e-01 7.515813e+00 4.855022e+00 -3.309858e-02 -4.440971e-01 4.400384e-02 6.334682e-02 8.324601e-01 6.672140e-01 1.499370e+00 3.066224e-01 2.827517e-01 1.539208e+00 1.281143e+00 7.948410e-01 3.973192e-01 -5.664384e-03 
-7.832304e+00 3.080323e+00 -4.494435e-01 6.978086e+00 6.919580e+00 -6.524051e+00 3.188656e+00 4.976075e+00 -1.372060e+00 3.947987e+00 1.345392e+01 5.640948e+00 -3.649867e-02 -4.042362e-01 5.075982e-01 1.578839e-01 1.007352e+00 8.665291e-01 8.187923e-01 -8.237106e-01 -1.040043e-01 1.624971e+00 9.800891e-01 6.060518e-01 -1.026286e+00 -2.630699e-03 
-9.332581e+00 3.384003e+00 -1.461140e+00 6.624488e+00 6.569777e+00 -4.570513e+00 3.869897e+00 4.885249e+00 5.100308e+00 6.567659e-01 6.718021e+00 3.919345e+00 5.414963e-03 -7.682587e-01 2.831877e-01 -5.837119e-01 8.088042e-01 -1.083151e+00 5.870988e-01 -1.283811e+00 -3.423420e-01 -6.608534e-01 3.432574e-01 -1.553935e+00 -5.316006e-01 5.338633e-02 
-7.899240e+00 4.764977e+00 1.361728e-01 7.730612e+00 6.622038e+00 -8.047630e+00 5.002718e-01 3.933771e+00 4.590574e+00 4.467216e+00 7.248753e+00 -2.067223e-01 5.277038e-03 -5.412413e-01 8.389594e-01 -2.214579e-01 7.332104e-01 -1.858514e+00 2.611845e-01 -1.040659e+00 6.771805e-01 -3.941871e-01 -1.065090e-01 -2.775964e+00 -8.333361e-01 5.444264e-02 
-1.136631e+01 4.323109e+00 -1.005997e+00 1.092292e+01 -1.398366e+00 -3.824571e+00 -6.068649e-01 5.262372e+00 -3.429202e+00 1.860600e+00 2.848723e+00 5.120855e+00 2.129452e-01 -8.621025e-02 -6.408967e-01 3.619060e-01 2.697620e-01 -1.332993e+00 -6.691362e-01 1.414489e-01 -7.886118e-01 -7.858053e-01 1.088766e-01 -2.314369e+00 -4.897648e-01 1.517422e-02 
-9.521646e+00 6.805567e+00 -1.784304e+00 8.494921e+00 1.611082e+00 -5.591099e+00 2.237434e-01 8.173416e+00 9.217594e-01 2.813525e+00 1.508755e+00 8.735127e-01 1.319494e-01 -1.500290e-01 -1.324080e+00 4.797575e-01 -4.742401e-01 4.366198e-01 -3.309936e-01 7.695057e-01 -1.522547e+00 8.395710e-01 1.031534e+00 9.981537e-03 -3.895817e-02 -1.984201e-02 
-8.952429e+00 -8.407755e-01 1.308629e+00 7.591143e+00 2.410289e+00 -9.144460e+00 4.715405e+00 -1.177632e+00 3.005689e+00 2.027995e+00 -1.983823e+00 9.304032e-01 1.794988e-02 2.751625e-01 -1.365297e+00 2.646638e-01 -1.073365e+00 1.795158e+00 -8.459460e-01 8.734360e-01 -1.504108e+00 1.505495e+00 1.092705e+00 1.677683e+00 -3.129725e-01 -5.549981e-02 
-9.856325e+00 7.265172e-01 1.377647e+00 7.025301e+00 6.900809e+00 -7.042654e+00 1.686665e+00 -4.589632e-01 5.570984e+00 9.541189e+00 9.714933e+00 1.693713e+00 3.564656e-03 -7.754097e-01 -1.069904e+00 1.211165e-01 4.722791e-01 7.117660e-01 -4.496507e-01 7.632395e-01 -8.536703e-01 2.320373e-01 1.046446e+00 1.262215e+00 -4.077041e-01 -1.482785e-04 
-9.823156e+00 5.361512e-01 -1.263654e+00 6.290910e+00 4.932560e+00 -7.328524e+00 3.028854e+00 2.058024e+00 1.773659e+00 3.960291e+00 7.134050e+00 3.145892e+00 -3.614426e-04 -9.388908e-01 9.529315e-01 -4.450138e-01 6.231898e-01 -3.553431e-01 1.300184e+00 1.388088e-01 1.116406e+00 -5.873792e-01 -3.671633e-01 2.745569e-01 -5.230512e-02 4.819886e-02 
-1.296333e+01 7.675850e-01 1.074195e-01 1.150643e+01 3.908776e+00 -8.747320e+00 4.883216e+00 2.287237e+00 2.697961e+00 7.079609e+00 3.260894e+00 -2.272752e+00 1.403637e-01 -7.944762e-01 -1.265723e+00 1.312296e+00 1.592693e+00 -2.567041e+00 2.429938e+00 -1.143837e+00 1.344466e+00 -1.710750e-02 -2.735238e+00 -1.380408e+00 -4.669475e-03 7.323328e-02 
-1.209338e+01 3.903348e+00 -2.813263e-01 8.466526e+00 2.129590e+00 -1.791205e+00 3.811174e+00 3.031296e+00 1.505304e+00 1.422968e+00 2.615982e+00 2.652110e+00 1.905447e-01 -4.188637e-01 -1.758930e+00 1.988312e+00 5.365060e-01 -2.161417e+00 2.604453e+00 -8.573311e-01 -2.977493e-01 1.784558e+00 -1.223987e+00 -1.572944e+00 1.525140e-01 5.938334e-02 
-1.269359e+01 -7.285695e+00 7.447964e+00 1.390096e+01 -4.532910e+00 2.338376e+00 -4.423680e+00 5.776729e+00 5.619624e+00 -2.866337e+00 5.071929e+00 1.917256e+00 2.742780e-01 2.946199e-01 -3.036885e+00 -1.992156e-01 -2.448194e+00 -1.119666e+00 2.186703e+00 3.955468e-01 -1.928535e+00 1.835419e+00 -2.459187e-01 -3.170995e+00 -2.265980e-01 7.317284e-02 
-1.205234e+01 -4.231861e+00 5.007634e+00 7.776178e+00 -1.653684e+00 1.508923e-01 3.395647e+00 -1.175469e+00 9.235618e+00 2.813329e+00 -1.636188e+00 1.813458e+00 2.295981e-01 2.241042e+00 -5.786902e+00 -7.856563e-01 -5.037516e+00 2.446537e-02 1.645069e+00 -1.276767e+00 -7.850382e-01 1.929803e+00 5.206618e-02 -3.195718e+00 -3.050740e+00 1.298130e-01 
-1.151075e+01 -1.034923e+01 -3.533138e+00 -3.893628e-01 2.020812e-01 1.215147e+00 7.068714e+00 -5.252059e+00 8.009899e+00 5.154836e+00 -1.046799e+01 -2.986416e+00 4.867012e-01 4.998579e+00 -3.391335e+00 -1.545090e+00 -5.538457e+00 1.676227e+00 9.811411e-01 -1.743188e+00 -4.793949e-01 -3.267923e-01 -3.140607e-01 -3.103573e+00 -2.819816e+00 1.303179e-01 
-1.479592e+00 -2.349939e+01 1.280943e+00 -9.575894e+00 -1.155787e-01 6.995752e+00 -8.318858e+00 4.620499e+00 9.959181e+00 -2.327287e+00 -5.592647e+00 -1.014975e+01 7.333981e-01 6.076868e+00 -2.723483e+00 -3.812546e-01 -4.131824e+00 4.013558e-01 1.255532e+00 -4.693998e+00 9.840498e-01 -1.546671e+00 -1.594513e+00 -1.623045e+00 -2.598340e+00 1.634680e-01 
7.012925e+00 -1.460861e+01 1.585861e+00 -5.115295e+00 3.079174e+00 3.821651e+00 -7.282369e+00 4.817702e-01 3.623880e+00 -1.866333e+00 -8.467709e+00 -6.200219e+00 6.739672e-01 5.652763e+00 3.460670e-01 2.175903e-01 -2.144169e+00 -1.137184e+00 8.540251e-01 -4.605664e+00 6.981473e-01 -1.757959e+00 -1.402959e+00 -6.989380e-01 -1.393964e+00 1.011776e-01 
9.070158e+00 -1.571959e+01 5.418611e-01 -1.051997e+01 -1.085452e+00 5.125299e+00 -1.289880e+01 8.778660e-01 3.695275e+00 -1.648652e+00 -1.075156e+01 -9.571339e+00 9.533051e-01 3.038304e+00 2.193452e+00 -2.255059e+00 1.878221e-01 -1.519143e+00 -9.327070e-01 -4.837170e-01 -1.407523e+00 -1.966920e+00 7.950850e-01 -1.413209e+00 -3.857280e-01 6.133113e-02 
1.147819e+01 -1.250880e+01 -2.075646e+00 -1.063817e+01 -4.998901e+00 6.420499e+00 -1.366963e+01 1.099946e-01 2.352057e+00 -2.199278e+00 -1.138323e+01 -1.024544e+01 8.826355e-01 9.442546e-01 1.367775e-01 -1.995394e+00 -1.187418e-01 -2.046665e+00 -9.478970e-02 -2.915927e-01 -1.068144e+00 -7.896972e-01 8.770186e-01 -7.659405e-01 -3.479086e-01 5.798031e-02 
1.147929e+01 -1.358203e+01 -8.163601e+00 -5.875346e+00 -3.672255e+00 1.032793e+00 -7.543810e+00 -2.231227e+00 7.604946e-01 1.814611e+00 -1.120093e+01 -1.005578e+01 9.357197e-01 2.953390e-02 1.693645e-01 -7.028217e-01 6.495665e-01 -9.861679e-01 4.405061e-01 7.293956e-01 -1.182025e+00 -3.133405e-01 9.256389e-01 2.375879e-01 6.736010e-01 1.819918e-02 
1.052963e+01 -1.499350e+01 -4.038382e+00 -8.031318e+00 -5.860750e+00 5.393956e+00 -1.141783e+01 -3.304402e+00 1.142785e+00 7.871287e-01 -1.207272e+01 -7.697542e+00 9.726615e-01 -4.596041e-01 -1.266087e-01 3.962836e-01 -8.229542e-02 -4.335540e-01 9.687265e-01 3.684115e-01 -1.383299e+00 4.910890e-01 5.359700e-01 5.666984e-01 8.589085e-01 2.982973e-02 
9.692107e+00 -1.363042e+01 -1.990879e+00 -8.575566e+00 -5.585367e+00 7.841101e+00 -1.037773e+01 -3.325060e+00 2.733209e+00 1.486339e+00 -9.218869e+00 -7.477283e+00 9.992880e-01 -9.164529e-02 3.170109e-01 8.193593e-01 -1.270102e+00 -5.061819e-01 1.318241e+00 -9.551376e-01 -1.080465e+00 -4.181485e-02 1.797972e-02 1.592638e-01 5.222005e-01 1.480588e-02 
1.007376e+01 -1.311765e+01 -3.180589e+00 -9.699537e+00 -6.210115e+00 7.859977e+00 -1.041062e+01 -6.259582e+00 3.821145e+00 6.447079e-01 -9.540770e+00 -7.240146e+00 1.000000e+00 4.401229e-01 6.718500e-01 -3.583516e-01 -1.023671e+00 -1.479618e-01 1.067136e-01 -4.715530e-01 -9.444361e-01 -1.073583e+00 3.280393e-01 4.457118e-01 -4.277793e-01 2.708268e-03 
1.124900e+01 -1.293490e+01 -4.495701e+00 -1.139174e+01 -6.028482e+00 6.390989e+00 -1.282310e+01 -6.155962e+00 -7.877598e-01 1.975720e+00 -1.167059e+01 -7.673475e+00 9.960798e-01 7.890413e-01 6.163657e-01 -7.452261e-01 -8.970039e-01 -1.601820e-01 -4.039110e-01 -7.420252e-01 -8.189217e-01 -1.563176e+00 2.853386e-01 2.278930e-01 -4.741535e-01 -5.761087e-03 
1.195180e+01 -1.198201e+01 -4.577729e+00 -1.174158e+01 -6.379001e+00 6.652580e+00 -1.255291e+01 -6.611132e+00 -2.464648e+00 2.182635e+00 -8.618304e+00 -9.738342e+00 9.878069e-01 6.732601e-01 8.276057e-01 -5.807666e-01 -3.557321e-01 -6.882164e-01 1.184803e-01 -6.793717e-01 -1.841546e-01 -1.744754e+00 7.060567e-01 3.914937e-01 -1.887751e-01 -9.475863e-03 
1.269830e+01 -1.111641e+01 -5.018440e+00 -1.203956e+01 -6.301834e+00 6.425245e+00 -1.301671e+01 -7.243893e+00 -1.939776e+00 2.144068e+00 -8.540637e+00 -8.598952e+00 9.765791e-01 4.319485e-01 8.349557e-01 -2.847404e-01 -9.171410e-02 -7.512566e-01 3.832104e-01 2.210503e-02 -3.387691e-01 -6.515011e-01 6.962332e-01 5.190393e-01 7.104258e-01 -9.403115e-03 
1.271542e+01 -9.888865e+00 -5.823052e+00 -1.115429e+01 -9.514521e+00 8.435251e+00 -1.371067e+01 -6.636389e+00 -4.326617e+00 4.090817e+00 -9.148277e+00 -7.721283e+00 9.623711e-01 5.202436e-03 4.665051e-01 2.449261e-01 -2.345043e-01 -4.991830e-01 4.028912e-01 6.962729e-01 -5.818145e-01 1.392754e-01 6.187885e-01 6.192201e-01 1.620474e+00 -5.165070e-03 
1.302693e+01 -9.806691e+00 -5.296741e+00 -1.214396e+01 -8.217005e+00 7.415705e+00 -1.213369e+01 -7.837179e+00 -3.114281e+00 4.502794e+00 -8.810407e+00 -5.129876e+00 9.617822e-01 -3.946130e-01 9.936238e-03 8.969122e-01 -5.563127e-01 -2.553063e-02 4.868929e-01 9.883543e-01 -7.626878e-01 1.917091e-01 5.911288e-01 1.195219e+00 2.147324e+00 1.991457e-03 
1.181349e+01 -1.030434e+01 -3.213948e+00 -1.286191e+01 -7.917330e+00 8.171806e+00 -9.513049e+00 -9.223562e+00 -1.181019e+00 4.097214e+00 -5.387319e+00 -3.370510e+00 9.693800e-01 -6.774839e-01 -1.448988e-01 9.898073e-01 -3.416556e-01 2.311082e-01 8.845643e-01 3.337052e-01 -3.278183e-01 -1.150654e-01 3.902319e-01 1.519843e+00 2.353166e+00 6.449586e-03 
1.117619e+01 -1.085899e+01 -1.838431e+00 -1.396732e+01 -7.228082e+00 8.991432e+00 -1.017375e+01 -9.763746e+00 -2.554029e+00 5.096514e+00 -4.445020e+00 -3.771687e-02 9.830319e-01 -7.355330e-01 -5.793257e-02 8.591364e-01 3.407484e-01 3.027668e-02 1.132939e+00 -1.516964e-01 5.827799e-02 -6.999561e-01 4.187753e-01 1.276430e+00 2.189538e+00 2.811932e-03 
1.025337e+01 -1.008721e+01 -2.603170e+00 -1.195089e+01 -8.853441e+00 1.207021e+01 -1.302212e+01 -7.312197e+00 -5.182070e+00 5.745117e+00 -3.731753e+00 1.498468e+00 9.839941e-01 -9.716719e-02 2.410918e-01 5.837155e-01 5.243181e-01 -3.196737e-01 7.551165e-01 -6.121063e-03 -3.314117e-01 -1.147687e+00 1.318531e-01 5.398657e-01 1.864308e+00 -1.223897e-02 
1.012933e+01 -1.020492e+01 -1.306448e+00 -1.089573e+01 -7.597566e+00 1.113120e+01 -1.113764e+01 -8.501471e+00 -4.613536e+00 5.772719e+00 -3.256041e+00 3.383322e+00 9.685348e-01 6.454226e-01 8.575726e-01 3.577655e-01 5.332430e-01 -1.335381e+00 2.476223e-01 5.051628e-01 -5.238689e-01 -5.949429e-01 -5.530205e-01 1.103355e-01 1.021737e+00 -2.689322e-02 
1.185109e+01 -9.425918e+00 -5.613619e-01 -1.177611e+01 -9.330957e+00 1.087751e+01 -9.061709e+00 -1.151176e+01 -5.889702e+00 4.418377e+00 -3.282479e+00 4.240509e+00 9.154337e-01 1.225835e+00 1.221213e+00 1.024803e-01 1.789452e-01 -1.959826e+00 -4.321503e-01 1.294308e+00 -1.125194e+00 -2.369100e-01 -9.414778e-01 -5.168924e-01 1.059198e+00 -3.053179e-02 
1.360445e+01 -6.901775e+00 -1.070508e+00 -1.138849e+01 -1.366623e+01 1.082590e+01 -9.628140e+00 -1.028331e+01 -5.174928e+00 2.994781e+00 -4.117979e+00 3.699946e+00 8.828460e-01 1.390930e+00 1.078501e+00 2.888935e-01 -3.543644e-01 -1.884436e+00 -4.578161e-01 1.544986e+00 -1.004748e+00 7.616267e-02 -1.611914e+00 -4.260325e-01 9.711666e-01 -2.697698e-02 
1.464499e+01 -5.632716e+00 -2.208739e+00 -1.080978e+01 -1.561824e+01 1.006211e+01 -7.305328e+00 -1.204725e+01 -6.085924e+00 2.426697e+00 -5.885246e+00 6.636146e+00 8.741795e-01 8.679807e-01 8.359079e-01 4.459776e-01 -2.607250e-01 -1.367624e+00 -6.060219e-02 1.477023e+00 -5.094467e-01 5.523911e-01 -1.820933e+00 -7.286930e-02 1.226977e+00 -1.850517e-02 
1.568703e+01 -6.709017e+00 9.617077e-01 -1.315071e+01 -1.387610e+01 9.249815e+00 -4.290899e+00 -1.325747e+01 -4.134612e+00 -1.291012e+00 -4.084820e+00 7.041337e+00 8.542770e-01 7.721178e-01 1.280684e+00 4.232845e-01 -6.759958e-01 -3.194346e-01 -1.014040e+00 2.041113e+00 -7.694995e-01 1.088628e+00 -2.061228e+00 -1.658568e-01 9.241946e-01 -2.347864e-02 
1.514970e+01 -5.342757e+00 6.524184e-01 -1.219862e+01 -1.606414e+01 1.136254e+01 -4.345213e+00 -1.257191e+01 -3.647904e+00 -2.543391e+00 -3.663405e+00 8.704698e+00 8.371924e-01 2.969829e-01 1.590709e+00 4.328457e-01 -1.124319e+00 -3.218777e-01 -1.156581e+00 1.675861e+00 -7.379512e-02 1.540691e+00 -2.383541e+00 -8.090782e-01 2.550076e-01 -3.082448e-02 
1.721268e+01 -6.433325e-01 -3.846643e-01 -1.407405e+01 -1.504045e+01 5.105484e+00 -9.026351e-01 -1.386847e+01 -9.507997e-01 -4.826312e+00 -6.058184e+00 7.286643e+00 7.839464e-01 -2.714342e-01 2.699712e+00 7.861530e-03 -3.323582e-01 8.624459e-03 -2.249605e+00 1.417000e+00 7.330102e-01 1.179711e+00 -1.988011e+00 -2.289568e+00 -1.456400e+00 -5.331863e-02 
1.536707e+01 -7.120144e-01 6.286753e-01 -1.596971e+01 -1.664545e+01 6.351367e+00 -6.201558e-01 -1.211072e+01 2.562579e-02 -7.723360e+00 -8.943955e+00 7.788530e+00 7.552224e-01 -2.745890e-01 2.704834e+00 3.442869e-01 -2.681761e-01 1.429771e-01 -2.041570e+00 1.927659e+00 1.114361e+00 1.466379e+00 -1.641466e+00 -2.778568e+00 -1.774190e+00 -5.845581e-02 
1.422117e+01 4.474170e+00 1.012887e+00 -1.292696e+01 -1.354233e+01 5.073714e-01 9.315698e-01 -9.823011e+00 -7.282172e-02 -8.641082e+00 -1.289239e+01 2.174218e-01 6.286688e-01 -3.196986e-01 3.650377e+00 3.367952e-01 6.378731e-01 3.146256e-01 -2.505156e+00 9.452531e-01 1.879227e+00 3.983948e-02 -1.176985e+00 -2.087769e+00 -2.656734e+00 -5.532106e-02 
1.527251e+01 5.622663e+00 1.675077e+00 -1.411305e+01 -1.609832e+01 3.453739e+00 4.375981e+00 -9.022839e+00 3.245003e+00 -8.843339e+00 -1.413914e+01 3.368360e+00 6.225521e-01 -2.100420e-01 4.334482e+00 4.765182e-01 1.339982e+00 9.360973e-01 -2.782861e+00 5.903557e-01 2.120861e+00 -5.371455e-01 -5.457809e-01 -5.476950e-01 -2.569839e+00 -6.269112e-02 
1.566147e+01 1.444122e+01 7.761106e-01 -1.181302e+01 -1.374089e+01 -5.971482e+00 1.325562e+00 -6.016282e+00 -2.361291e+00 -1.015125e+01 -1.389943e+01 -3.786944e+00 5.736763e-01 -1.309885e+00 1.627968e+00 1.154077e+00 3.838886e+00 3.754792e+00 -2.791821e-01 1.507935e-01 1.717035e+00 -1.138265e+00 -5.241206e-01 1.320343e+00 -2.298136e+00 -7.928777e-02 
1.359671e+01 1.597687e+01 3.129654e+00 -9.826773e+00 -1.186568e+01 -4.323509e+00 2.134627e+00 -3.409779e+00 -1.515867e+00 -9.697183e+00 -1.117891e+01 -3.058481e+00 4.692631e-01 -2.608171e+00 -2.481388e-01 2.974517e-01 4.969901e+00 5.756186e+00 -3.889282e-01 1.030050e+00 1.749907e+00 -1.362305e+00 7.245810e-01 2.331495e+00 -1.502779e+00 -1.193152e-01 
8.509642e+00 7.436906e+00 6.055984e+00 4.124332e+00 3.115317e+00 3.000084e+00 2.806214e+00 -4.044369e+00 -3.383713e+00 -1.083476e+01 -7.770789e+00 -8.059839e+00 3.088744e-01 -4.102590e+00 -3.594784e+00 -1.152975e+00 4.586772e+00 5.358757e+00 7.933081e-01 1.968178e+00 1.589463e+00 -1.365230e+00 2.301750e+00 3.142559e+00 6.479852e-01 -1.265497e-01 
5.807568e+00 7.884124e+00 5.223994e-01 2.767785e+00 4.254511e+00 -2.976686e+00 8.785904e+00 -1.259262e+00 -3.055312e+00 -4.878675e+00 -5.545991e+00 -2.009089e+00 1.583770e-01 -3.827949e+00 -3.293438e+00 -2.736191e+00 2.511985e+00 3.226251e+00 -5.268828e-01 1.223522e+00 9.032574e-01 -1.313979e+00 2.146058e+00 4.476874e+00 3.031779e+00 -9.827840e-02 
-9.569035e-01 5.136682e-01 -3.685135e+00 4.823563e+00 4.992795e+00 -2.678353e+00 7.840812e+00 8.557745e-01 -8.417717e+00 -1.051750e+00 -1.003095e+00 -1.071714e+00 9.637088e-02 -3.637833e+00 -1.955420e+00 -4.647027e-01 -1.216980e+00 -6.664896e-03 -7.643899e-01 1.049907e+00 1.823352e+00 -1.450617e+00 1.138160e+00 4.892846e+00 2.147596e+00 -2.212868e-02 
-8.097572e-01 2.971300e+00 -5.680741e+00 2.383536e+00 3.326832e+00 -4.118704e+00 5.734939e+00 -1.343564e+00 -5.568763e+00 -3.858401e+00 7.821617e+00 8.606352e+00 8.412284e-02 -3.208322e+00 -1.394497e+00 3.479053e+00 -8.552124e-01 2.890838e-01 1.482857e+00 2.040041e-01 2.228853e+00 -9.207646e-01 -4.146971e-01 4.365581e+00 -5.027283e-01 4.222060e-02 
-6.370864e+00 1.162181e-01 6.834041e+00 -1.768442e+00 3.545832e+00 -2.508559e-01 9.581230e+00 5.114544e+00 -9.380073e+00 -5.654100e+00 1.000964e+01 -2.629580e+00 2.353581e-01 -4.036650e-01 1.462231e+00 3.173028e+00 1.003191e+00 1.387976e+00 1.069449e+00 -9.201718e-03 1.108329e+00 2.793683e-01 -1.150718e+00 1.551563e+00 -1.142759e+00 6.544775e-03 
-7.527063e+00 1.110363e+00 1.265808e+01 1.787725e+00 6.423411e+00 3.223850e+00 8.935715e+00 7.755619e+00 -7.177957e+00 -4.650986e+00 1.077555e+01 -3.743798e+00 2.999864e-01 6.917237e-01 2.034114e+00 1.323429e+00 2.330082e+00 1.881488e+00 2.903991e-01 2.052113e-01 9.576693e-01 1.788840e+00 5.645067e-01 -7.311423e-01 -1.343001e+00 -3.544211e-02 
3.834248e-01 8.755293e+00 3.010594e+00 1.013742e+01 1.038439e+01 -1.002386e+00 6.194415e+00 1.847830e+00 -6.216278e+00 -6.409050e+00 5.277757e+00 -6.104329e-01 2.116299e-02 1.423985e+00 2.364347e+00 -2.432463e+00 2.381876e+00 1.635592e+00 -5.341049e-01 -3.905250e-01 2.050740e-01 2.804933e+00 1.697767e+00 -1.440750e+00 1.894510e+00 -7.122557e-02 
-7.282829e-01 8.822330e+00 2.848126e+00 8.081017e+00 9.314995e+00 -2.290944e+00 8.454403e+00 5.078140e+00 1.793540e+00 -6.583923e-01 6.531846e+00 8.817751e-01 1.400983e-02 4.241145e-01 1.353046e+00 -2.867765e+00 1.959408e-01 1.972729e-01 -5.266618e-01 -4.397413e-01 5.183262e-01 1.975747e+00 2.146649e+00 -6.995357e-01 1.904016e+00 -5.851454e-02 
-2.650327e+00 8.081967e+00 -4.233016e-01 6.994291e+00 1.027800e+01 -1.639838e-01 7.869262e+00 7.478653e+00 1.588439e-01 8.384359e-01 4.927735e+00 4.530184e+00 2.221853e-02 -1.099145e+00 8.494544e-02 -6.163024e-01 -1.316421e+00 -2.490399e-01 2.257334e-01 5.540925e-01 1.175683e+00 2.196731e-01 2.125879e+00 4.119617e-01 1.958041e-01 -7.000542e-03 
-3.889615e+00 8.212256e+00 3.619742e-02 4.338994e+00 7.462967e+00 1.713395e-01 5.899585e+00 7.531837e+00 -4.867844e-01 2.458516e+00 7.452879e+00 3.205974e+00 6.885886e-03 -8.104440e-01 -2.302381e-01 -9.555972e-02 -3.715727e-01 -2.923397e-01 3.098377e-01 2.118104e-01 -8.211544e-01 -1.562339e+00 -3.276647e-01 -3.769042e-01 -3.668035e-01 -1.247001e-02 
-3.531633e+00 9.485058e+00 1.335046e+00 5.426329e+00 1.006520e+01 -1.104861e+00 1.024229e+01 6.499395e+00 -3.977750e+00 2.661889e+00 6.877049e+00 -7.935114e-01 -1.027775e-02 -5.756757e-01 -6.053901e-01 -1.523042e-03 1.791217e-01 -5.689540e-01 1.859681e-01 -5.005193e-02 -1.565368e+00 -6.111542e-01 -1.041629e+00 -5.929652e-01 -2.921616e-01 -3.243005e-03 
-4.339849e+00 6.969594e+00 1.491153e+00 7.007135e+00 7.959697e+00 -2.713165e-01 8.326942e+00 1.461997e+00 -3.949857e+00 -3.208443e+00 3.672668e+00 1.709605e+00 -3.209209e-02 -4.537337e-01 -5.957127e-01 -2.660741e-01 5.244825e-01 -5.931646e-01 1.838427e-01 -3.468540e-01 -7.258292e-01 -8.265679e-02 -1.519592e+00 -1.486738e+00 2.282271e-02 9.552544e-03 
-5.303588e+00 5.676348e+00 -1.158395e+00 6.555829e+00 7.184868e+00 9.871845e-01 6.405323e+00 2.686731e+00 -1.165391e+00 -1.536230e+00 3.853015e+00 3.817560e+00 2.549249e-02 -2.641293e-01 -1.255512e-03 1.869849e-01 5.737427e-01 1.797430e-01 6.890352e-01 -6.893644e-01 1.573098e-01 1.127769e+00 -5.755811e-01 -7.214229e-01 -2.052329e-01 1.245086e-02 
-5.272306e+00 7.138048e+00 -4.745269e-02 6.396656e+00 5.937310e+00 4.453039e-02 6.083797e+00 5.809023e+00 -2.306248e+00 -3.040385e+00 1.531208e+00 1.014552e+00 3.676349e-02 -8.193111e-03 1.226079e+00 1.911771e+00 8.272152e-01 5.049502e-01 4.858561e-01 2.096913e-02 9.016272e-01 1.174623e+00 1.316637e+00 -1.205864e-01 -1.748774e+00 5.762243e-03 
-4.386051e+00 9.394553e+00 3.039274e+00 8.600282e+00 1.197511e+01 2.182392e+00 7.917037e+00 5.112431e+00 8.392882e-01 -3.000448e-01 4.340665e+00 -1.472149e+00 1.754874e-02 1.033542e-01 8.648998e-01 1.634275e+00 5.761994e-01 3.714623e-01 -2.640077e-01 -1.121205e-01 1.269506e+00 1.356527e+00 1.327039e+00 3.964609e-02 -1.468654e+00 -1.149422e-02 
-4.839583e+00 1.124089e+01 8.951176e+00 1.012099e+01 8.089328e+00 1.560360e+00 7.675931e+00 4.757283e+00 9.209181e-01 2.756651e+00 2.825911e+00 -4.389409e+00 6.909966e-04 -2.921252e-01 -1.821208e-01 3.952318e-01 4.252676e-01 -3.390272e-01 -1.229256e+00 -2.926117e-01 6.246492e-01 1.159948e+00 1.620809e+00 -2.348404e-01 -1.012868e-01 -6.785077e-03 
-5.003179e+00 7.949426e+00 2.513665e+00 7.574661e+00 7.966170e+00 -1.090769e+00 5.048654e+00 9.560129e+00 4.003660e+00 2.200449e+00 3.403893e+00 -8.237286e-01 -1.394236e-02 -1.114698e+00 -1.442221e+00 -1.228808e+00 -3.918195e-01 -1.263573e+00 -2.735465e+00 -1.205382e+00 5.148342e-02 1.579702e-01 5.790485e-01 9.882631e-02 1.781684e+00 -2.560288e-03 
-6.424369e+00 6.950007e+00 2.191510e+00 9.035804e+00 6.246644e+00 -4.465169e+00 6.054931e+00 6.708420e+00 1.911306e+00 3.813413e+00 8.253920e-01 1.839073e-01 1.858366e-02 -1.007271e+00 -1.769357e+00 -2.453458e+00 -1.426312e+00 -1.214109e+00 -2.192328e+00 -1.266936e+00 -1.118551e+00 3.764785e-01 1.867461e-01 9.713541e-01 1.731223e+00 -3.062963e-04 
-9.167147e+00 4.328888e+00 2.750682e-01 7.183774e+00 6.578587e+00 -8.482166e+00 2.700630e+00 4.394279e+00 1.133945e+00 2.066816e+00 5.835056e+00 5.149614e+00 -4.199028e-03 -6.643575e-01 -8.996092e-01 -1.004961e+00 -9.207568e-01 -1.060780e+00 -1.476149e+00 -6.750718e-01 -7.806451e-01 4.405989e-02 -3.524977e-01 1.253424e+00 5.184997e-01 -1.720166e-03 
-7.793955e+00 4.204370e+00 -2.196814e+00 3.184870e+00 2.712574e+00 -5.705583e+00 2.515265e+00 1.747450e+00 4.238168e+00 3.757198e+00 6.467100e+00 1.280033e+00 -5.712152e-03 -9.187450e-02 -5.124100e-01 -7.590536e-01 -9.472135e-01 -3.340017e-01 1.843555e-01 -6.982046e-01 -8.571861e-01 2.398546e-01 -1.050390e+00 9.857725e-01 -8.903797e-01 -5.166030e-03 
-7.640173e+00 4.824199e+00 -3.169800e-01 5.896344e+00 4.429305e+00 -7.851306e+00 3.443127e+00 8.137388e+00 3.060529e+00 4.660680e-01 6.850161e+00 1.220707e+00 -1.039529e-02 2.601713e-01 -2.109176e-01 -3.540281e-01 -4.021323e-01 2.982585e-01 1.694367e+00 4.849892e-01 5.412735e-02 -2.350903e-01 -4.237679e-01 3.905749e-01 -8.979368e-01 -1.697683e-03 
-7.647228e+00 4.140302e+00 -1.307734e+00 4.943451e+00 5.651276e+00 -3.858822e+00 2.192659e+00 5.509347e-01 2.147288e+00 -6.381636e-01 5.246703e+00 -2.303537e+00 -4.148364e-03 2.738051e-01 2.211221e-01 3.625515e-01 5.374559e-01 8.122017e-01 1.586233e+00 9.500688e-01 4.798001e-01 -1.506960e+00 -1.529523e+00 -3.330885e-01 1.050638e+00 1.863051e-03 
-7.939653e+00 3.306335e+00 -1.939612e+00 4.293822e+00 6.600529e+00 -9.337106e-01 5.286880e+00 5.263174e+00 1.003934e+00 2.145657e+00 8.398129e+00 2.451715e+00 -1.346934e-02 -4.385843e-02 1.604358e-01 4.577141e-02 3.338617e-01 1.188836e-01 1.136830e+00 1.162890e+00 4.455172e-01 -7.244144e-01 -5.827834e-01 -1.097580e+00 9.589019e-01 4.834837e-03 
-6.275189e+00 6.068913e+00 4.272600e-01 6.673410e+00 5.687971e+00 -1.233214e+00 6.343734e+00 5.583558e+00 -2.268333e+00 -4.730213e+00 4.027673e+00 5.917718e+00 5.140126e-03 -2.012527e-01 1.875628e-01 7.072338e-01 5.812411e-01 8.544624e-02 -2.670222e-01 1.640169e+00 1.593468e+00 -2.477828e-01 -9.315424e-02 -3.564338e-01 5.917804e-01 -1.136017e-03 
-8.545485e+00 4.662072e+00 -9.556199e-01 6.700673e+00 5.005376e+00 -3.479959e+00 7.182041e+00 7.848663e+00 1.646267e+00 -4.018246e-01 1.971775e+00 1.904589e+00 9.134650e-03 -1.170239e-01 3.265775e-01 1.087184e+00 9.477018e-01 1.107226e-01 1.990564e-01 -7.334401e-02 -7.842781e-01 7.112179e-01 5.780924e-01 -2.926797e-01 -7.287148e-01 -5.325973e-04 
-8.350576e+00 4.400247e+00 1.736439e+00 6.646232e+00 6.876084e+00 -3.920809e+00 9.445925e+00 7.225533e+00 5.872071e-01 1.698062e-01 6.677711e+00 9.289279e-01 -2.113044e-02 1.019913e-01 5.051681e-01 2.458471e-01 8.375597e-01 1.574828e-01 4.250553e-01 -1.211746e+00 -1.387804e+00 2.190634e-01 1.123810e+00 2.448554e-01 -7.994943e-01 4.317415e-03 
-7.487080e+00 5.773555e+00 2.841719e+00 9.045921e+00 6.560085e+00 1.405368e+00 3.369064e+00 5.207964e-01 3.132253e+00 2.586110e+00 5.609713e+00 1.302536e+00 -2.997041e-03 6.558239e-01 1.039264e+00 -5.517218e-02 9.018177e-01 2.072551e-02 6.228922e-01 -1.723552e+00 -1.599744e+00 -9.627770e-01 -1.181553e-01 -3.223171e-02 1.925712e-01 1.012403e-02 
-6.294436e+00 8.039011e+00 -2.421741e-01 9.688585e+00 5.698030e+00 -1.550601e+00 2.191494e+00 2.308472e+00 -1.916009e+00 -6.051320e-01 3.432981e+00 2.221272e+00 3.279305e-02 5.304926e-01 9.542986e-01 -7.041119e-01 6.727370e-01 -3.218163e-01 1.784444e-01 -1.568643e+00 -8.046446e-01 -1.005470e+00 -4.741119e-01 -8.666189e-01 3.503425e-01 1.436371e-02 
