3.395255e+00 6.671365e+00 5.156937e+00 4.692919e+00 -3.206981e+00 -8.725541e+00 -4.930501e+00 -7.499802e+00 -7.350479e+00 -2.507228e+00 -4.683382e+00 -4.286547e+00 -1.512927e-01 -2.787721e-01 5.758734e-02 -6.203930e-01 3.441601e-02 4.570896e-01 1.804882e+00 1.421087e+00 1.648071e+00 2.630769e-01 -1.774204e-01 -7.235526e-01 4.380910e-01 0.000000e+00 
3.161148e+00 7.112158e+00 3.954548e+00 5.251332e+00 1.015662e+00 -1.321794e+00 3.067686e+00 -7.344867e+00 -9.033998e+00 -5.071980e+00 -1.095165e+01 -5.969810e+00 -1.512927e-01 -2.219590e-01 5.751944e-02 -7.237047e-01 -1.126505e-01 5.454329e-01 1.962101e+00 1.403514e+00 1.783159e+00 2.339387e-03 -1.761066e-01 -3.235198e-01 3.632490e-01 0.000000e+00 
2.118448e+00 6.738905e+00 2.656167e+00 4.585792e+00 -3.032855e+00 -3.403005e+00 -1.824162e+00 6.630840e-01 -5.193336e+00 -2.111954e+00 -5.167009e+00 -1.254461e+00 -1.512927e-01 -1.116422e-01 1.092038e-01 -5.693206e-01 -4.639599e-01 2.074980e-01 1.056628e+00 -2.404796e-01 1.119729e+00 -1.230607e-01 -6.281359e-01 -1.535782e-01 3.833384e-01 0.000000e+00 
2.923863e+00 6.925192e+00 2.788799e+00 4.183229e+00 -5.668798e-01 -1.576302e+00 5.338998e-01 -2.665449e+00 -8.417355e+00 -3.585398e+00 -6.059167e+00 -3.986345e+00 -1.512927e-01 -4.287872e-02 8.118377e-02 -7.323623e-04 -7.434946e-01 -3.667166e-01 -7.103655e-01 -1.021195e+00 -4.364899e-01 4.360451e-01 9.316187e-02 9.132019e-01 9.239327e-01 0.000000e+00 
2.955687e+00 7.310867e+00 2.893209e+00 2.907171e+00 -1.378221e+00 -3.315147e+00 -4.866006e+00 -4.240867e+00 -8.274105e+00 -6.391198e+00 -7.897515e+00 -3.361588e+00 -1.512927e-01 9.539042e-02 -1.734825e-01 3.300159e-01 -2.476879e-01 -4.451694e-01 -5.675811e-01 -2.096922e-02 -1.330855e+00 -1.840720e-01 6.736289e-01 6.166098e-01 3.890432e-01 0.000000e+00 
2.528135e+00 7.232096e+00 3.832365e+00 2.373170e+00 -1.645238e+00 -4.917551e+00 -5.173671e-01 -7.075341e+00 -5.313388e+00 -2.466548e+00 -5.020390e+00 -2.965832e-01 -1.512927e-01 -1.657715e-02 -9.491467e-02 5.185282e-01 -6.577412e-01 -1.916392e+00 -1.150578e+00 -6.058262e-01 -6.355522e-01 1.195671e+00 1.218766e+00 1.387318e+00 1.910579e+00 0.000000e+00 
2.793264e+00 5.718040e+00 3.784463e+00 4.252382e+00 -4.719523e+00 -4.570286e+00 -1.403375e+00 -3.786245e+00 -7.665679e+00 6.967659e-01 -2.603348e+00 -1.154126e+00 -1.512927e-01 2.217181e-01 7.665124e-02 2.987401e-01 -2.506153e-01 -1.922766e+00 -6.940315e-01 4.564148e-01 7.510185e-04 -2.605303e-01 1.266138e+00 7.909883e-01 1.972541e+00 0.000000e+00 
2.922189e+00 7.247032e+00 4.935812e+00 2.219176e-01 -8.478189e+00 -6.701623e+00 -4.226547e+00 -6.070521e+00 -2.743210e+00 -1.035550e+00 -1.769657e+00 4.462817e+00 -1.512927e-01 -5.158959e-02 -3.384427e-01 -6.475399e-01 6.415603e-02 -3.322673e-01 7.142853e-01 1.534462e-01 1.018059e+00 -2.600383e-01 8.091834e-01 1.520481e-01 5.820688e-01 0.000000e+00 
3.867250e+00 7.686655e+00 3.835185e+00 2.729720e+00 -7.575578e+00 -5.893269e+00 -7.293422e-01 -4.739522e+00 -1.086185e+01 -7.760069e-01 -5.567940e+00 4.121418e+00 -1.512927e-01 -2.299052e-01 -6.103827e-01 -1.412187e+00 -3.955458e-01 8.990784e-01 7.652441e-01 7.579121e-01 9.967201e-01 9.719902e-01 7.275541e-01 -1.300374e-01 -7.514957e-01 0.000000e+00 
1.733194e+00 4.555575e+00 5.693048e-01 3.455281e+00 -1.878547e+00 -6.846328e-01 -8.715248e-02 -1.508407e+00 -5.015496e+00 2.315755e+00 -2.777854e+00 -2.401072e-02 -1.512927e-01 1.036509e-01 -8.561395e-01 -1.616722e+00 1.203903e-01 1.529907e+00 1.065049e+00 1.384530e+00 1.430841e+00 1.193287e+00 4.990382e-01 -7.439820e-02 -2.326011e+00 0.000000e+00 
2.238235e+00 4.011855e+00 -1.093217e+00 6.579718e-01 -3.523952e+00 -3.752560e+00 3.164883e-01 -1.083702e+00 -1.669584e+00 2.658884e+00 -2.749437e+00 -2.668190e+00 -1.512927e-01 3.845552e-01 -2.442832e-01 5.125704e-02 7.578637e-02 1.343870e+00 3.460087e-01 -6.844761e-02 2.693252e-01 1.263827e+00 -6.133198e-01 1.713599e-01 -2.129391e+00 0.000000e+00 
4.254951e+00 4.803734e+00 -6.835986e-01 1.859743e+00 -2.854468e+00 -2.446730e+00 2.173187e+00 -7.442268e-01 -1.372907e+00 -2.578042e-01 -3.550900e+00 -3.772436e+00 -1.512927e-01 8.241431e-01 6.006664e-01 8.631649e-01 8.083624e-01 3.436350e-01 -6.068619e-01 7.926739e-01 3.745476e-01 -9.262317e-01 -1.555758e+00 -6.222156e-01 -5.203313e-01 0.000000e+00 
4.529148e+00 6.341160e+00 4.717922e+00 3.906421e+00 -3.682684e-01 -3.282176e+00 -2.201750e+00 -3.774986e+00 -6.364006e+00 -2.555826e+00 -4.324618e+00 -4.651325e+00 -1.512927e-01 3.795858e-01 7.377404e-01 1.097371e+00 7.799245e-01 -3.629156e-01 -7.749704e-01 2.617622e-01 -1.051277e-01 -1.655728e+00 -1.500702e+00 -7.329956e-01 5.640483e-01 0.000000e+00 
4.708453e+00 6.394255e+00 1.979560e+00 5.872869e+00 -1.738214e+00 -3.954134e+00 5.135336e+00 1.709974e+00 -7.299444e+00 -2.855682e+00 -5.101342e+00 -1.634100e+00 -1.512927e-01 2.134275e-01 6.014109e-01 3.921817e-01 -4.756460e-02 -8.129036e-01 -1.001437e+00 -2.574697e-01 -5.071954e-01 -1.108603e+00 -4.651520e-01 -1.395809e-01 1.314697e+00 0.000000e+00 
3.909413e+00 6.905297e+00 3.062057e+00 2.551032e+00 -5.896657e+00 -6.873710e+00 1.442251e-01 -2.836440e+00 -6.984955e+00 -3.545689e+00 -5.639194e+00 -9.171167e-01 -1.512927e-01 -3.116531e-02 3.878165e-01 -3.523454e-01 -2.728496e-01 -1.083825e+00 -1.096670e+00 -8.223928e-01 -3.733652e-01 5.528643e-01 4.660665e-01 5.355563e-01 1.409229e+00 0.000000e+00 
5.631955e+00 7.528720e+00 2.105243e+00 2.299615e+00 -4.154792e+00 -5.658150e+00 -2.871492e-01 -3.749476e+00 -6.605445e+00 -2.088633e+00 -3.591516e+00 9.339448e-01 -1.512927e-01 -6.200506e-01 -6.362319e-02 1.939947e-01 1.536403e-02 4.401233e-01 1.405222e-01 -1.446551e+00 -7.522323e-01 -2.287949e-01 -7.360292e-03 -2.100269e-01 4.277325e-01 0.000000e+00 
3.911571e+00 7.713010e+00 2.893354e+00 4.328800e+00 -4.579107e+00 -7.913519e+00 -3.602472e+00 -2.912087e+00 -3.946684e+00 -6.090180e-01 -2.401749e+00 1.110795e+00 -1.512927e-01 -7.627643e-01 -4.338865e-01 3.195101e-01 1.323004e+00 1.787873e+00 1.199482e+00 1.135695e-01 1.267472e+00 2.885908e-01 2.787971e-01 -4.272954e-01 -1.079132e+00 0.000000e+00 
1.607121e+00 5.672282e+00 3.033885e+00 5.060804e+00 -1.963727e-01 -2.731618e+00 -2.240708e-01 -2.013365e+00 -9.962554e+00 -4.360819e+00 -7.770199e+00 -5.093932e-01 -1.512927e-01 -1.131864e+00 -7.656831e-01 2.014183e-01 9.858324e-01 1.238719e+00 1.531782e+00 4.133517e-01 1.141313e+00 8.915472e-02 -5.146388e-01 -8.677524e-01 -2.100777e+00 0.000000e+00 
2.108008e+00 5.664083e+00 4.195286e+00 7.785458e+00 1.063498e+00 -2.339567e+00 6.805336e-01 2.632864e+00 -3.863447e+00 -1.015610e+00 -5.686330e+00 -5.591106e+00 -1.512927e-01 -9.406852e-01 -2.283929e+00 2.405849e-01 1.201391e+00 8.124197e-01 1.462586e+00 1.353904e+00 1.546892e+00 7.143497e-01 -5.898340e-01 -9.421908e-01 -2.171760e+00 0.000000e+00 
8.744183e-01 4.724768e+00 2.461368e+00 5.500448e+00 -7.824966e-01 -7.862155e-01 -3.618934e-01 -8.153881e-01 -6.201291e+00 -4.458530e+00 -6.287988e+00 -6.218990e+00 -1.512927e-01 -1.346359e+00 -4.952050e+00 -2.504410e-01 8.053570e-01 -1.042780e+00 2.047968e-01 3.658304e-01 5.194227e-01 2.129663e+00 1.002741e-01 1.834755e+00 -3.058206e-01 8.233058e-02 
-4.255037e-01 -3.232877e+00 4.382536e+00 1.011593e+01 -2.239462e-01 -1.573293e+00 3.235962e+00 4.223384e+00 -2.255568e+00 -3.509332e+00 -7.853808e+00 -6.893207e+00 -1.512927e-01 -1.036701e+00 -5.862966e+00 8.135810e-01 1.384808e+00 -2.461764e+00 2.759312e-01 -7.039490e-01 -7.232629e-01 1.180652e+00 -1.954245e-01 2.834822e+00 1.242100e+00 1.184944e-01 
-3.857917e+00 -1.463949e+01 1.688055e+00 7.922352e+00 -4.766549e+00 -2.090771e+00 3.273671e-01 -2.115116e-01 -1.181817e-01 -2.612587e+00 2.487316e+00 -1.387446e+00 2.603602e-01 -9.960994e-01 -1.965029e+00 1.287350e+00 -2.288747e+00 -1.658851e+00 1.124000e-01 -1.134958e+00 -1.238398e+00 1.714145e-01 2.278182e-01 2.030418e+00 1.317735e+00 8.869146e-02 
-7.093296e-01 -1.396861e+01 8.649847e+00 1.349854e+01 -9.253297e+00 -3.076329e-01 -3.183841e+00 -1.285389e+00 -1.001742e+00 -2.915704e+00 4.100128e+00 -1.796380e+00 2.353528e-01 -2.256251e+00 2.824143e+00 1.479612e+00 -5.735851e+00 -7.800520e-01 9.092292e-01 -6.523303e-01 -1.597560e+00 -1.109399e-01 6.243982e-01 2.178118e+00 1.313196e+00 9.466869e-02 
-3.964166e+00 2.674929e-01 6.764465e+00 -7.634591e+00 -4.562078e+00 -8.570457e-01 -2.826781e+00 -4.252994e+00 -5.971131e+00 -3.616253e+00 -2.112866e+00 -2.178730e+00 9.884185e-02 -2.707803e+00 5.400331e+00 1.916954e+00 -4.581778e+00 1.510992e+00 2.626818e-01 -8.149910e-02 -1.418637e+00 -5.145454e-02 -6.910259e-01 9.754868e-01 3.903333e-01 7.374857e-02 
-1.165363e+01 3.434346e+00 9.242393e+00 -1.078485e+01 -4.226442e+00 2.355990e+00 1.551384e+00 -1.743674e+00 1.162076e-01 1.144922e-01 5.336874e+00 6.841499e-02 4.028100e-01 -3.949347e+00 3.243994e+00 8.856131e-01 -3.464145e+00 6.820130e-01 -9.265631e-01 9.005151e-02 -1.428801e+00 5.065672e-01 -2.066301e+00 -1.689534e-01 -2.648807e-01 1.287709e-01 
-1.192478e+01 3.660683e+00 1.097655e+01 -2.844839e+00 2.749855e-01 -2.109174e+00 -2.447741e+00 -7.075552e+00 -9.344292e-01 -7.582814e+00 6.746377e+00 -3.681766e-01 5.453745e-01 -3.037884e+00 -6.134290e-01 6.273419e-01 1.476500e+00 -1.063726e+00 2.643061e-01 1.325687e+00 -6.334227e-01 7.454867e-01 -2.017180e+00 4.099209e-01 -3.908811e-01 1.511191e-01 
-1.647575e+01 5.547601e-01 1.097187e+01 -6.217058e+00 -8.261764e+00 -4.314385e+00 -2.923104e+00 -7.018116e+00 -9.872565e-01 -1.126393e+01 -1.174260e+00 -4.026060e+00 6.559407e-01 -1.594845e+00 -1.047111e+00 4.437291e-01 1.923784e+00 -8.352615e-01 5.523702e-01 1.616943e+00 4.070992e-01 2.743219e-02 -9.814110e-01 7.585859e-03 7.827853e-01 9.200688e-02 
-1.674252e+01 -1.359859e+00 9.036436e+00 -2.535986e+00 -7.863048e+00 3.799672e+00 6.038900e+00 -4.782886e+00 -1.691965e+00 -8.012944e+00 3.192306e+00 -2.085898e+00 7.278721e-01 -1.509251e+00 -8.558755e-01 -3.035414e-01 3.794418e-01 -3.799045e-01 2.384202e+00 2.052484e+00 2.344383e+00 2.067682e+00 2.200003e+00 7.622832e-01 1.549981e+00 7.105306e-02 
-1.721899e+01 7.090625e-01 1.243110e+01 -1.320358e+00 -4.333733e+00 2.163418e+00 5.392779e+00 -8.545111e-01 6.321367e-01 -4.577498e+00 7.151839e+00 4.841202e+00 7.715956e-01 -6.345501e-01 -1.649433e-01 -4.197490e-01 2.067799e-01 1.544608e+00 2.081688e+00 1.466833e+00 2.637367e+00 2.300207e+00 2.187470e+00 1.970710e+00 2.136214e+00 5.500960e-02 
-1.909942e+01 -6.958460e-01 8.729231e+00 -3.395980e+00 -3.588552e+00 6.572934e+00 3.656739e+00 1.564560e+00 8.594283e+00 7.398808e-02 6.394743e+00 2.948095e+00 8.428124e-01 -3.297270e-01 6.382411e-01 -6.476868e-01 -7.534644e-01 1.004925e+00 -3.343054e-01 -6.790928e-01 1.363921e+00 2.558750e+00 1.739805e+00 5.284361e-01 4.942627e-02 3.956517e-02 
-1.847005e+01 -6.019630e-01 9.026727e+00 -4.753161e+00 -2.675973e+00 4.707424e+00 5.602144e+00 2.994998e+00 5.370656e+00 -4.370042e+00 7.078071e+00 4.138011e+00 8.735186e-01 -1.441359e-01 8.554773e-01 -8.382217e-01 -3.975841e-01 4.507547e-01 -6.185102e-03 -8.170921e-01 -8.327849e-02 9.618204e-01 4.812262e-01 -9.140917e-01 -9.656922e-01 3.065131e-02 
-1.776562e+01 2.486859e+00 7.500187e+00 -4.586906e+00 -3.667304e+00 8.561423e-01 2.538753e+00 1.119657e-01 8.732525e+00 5.823529e-01 5.871371e+00 -1.487171e+00 8.747364e-01 3.061768e-01 1.351501e+00 2.155194e-01 7.352444e-01 5.562404e-01 -9.909783e-02 -3.577181e-01 -1.522138e-02 2.074843e-01 -2.816719e-01 -8.002553e-01 -6.200055e-01 2.447614e-02 
-1.860656e+01 3.395097e+00 8.854510e+00 -2.712815e+00 -2.040583e+00 4.990889e+00 1.866311e+00 -5.446064e-01 5.372118e+00 -2.425549e+00 2.843067e+00 2.230374e+00 9.088901e-01 6.855003e-01 1.222073e+00 1.259137e-01 1.612025e+00 6.644078e-01 9.269232e-01 1.116152e+00 -1.295402e-01 -3.939092e-01 9.584513e-02 -1.335813e-01 4.956020e-01 2.430909e-02 
-1.750029e+01 4.063128e+00 9.892937e+00 -7.399311e-01 -1.125045e+00 5.935713e+00 3.736065e+00 3.258255e+00 9.630974e+00 -2.306618e+00 4.510969e+00 8.018857e-01 9.475073e-01 9.215059e-01 2.747447e-01 -2.375921e-01 1.093116e+00 7.263605e-01 6.706803e-01 9.953585e-01 8.092729e-01 -1.576750e+00 -9.513887e-01 -6.139154e-02 4.955660e-01 1.580404e-02 
-1.517522e+01 4.720268e+00 8.459920e+00 1.383476e+00 -6.250629e-01 6.802255e+00 1.058425e+01 7.741520e-01 2.951886e+00 -2.446331e+00 7.090365e+00 5.471493e+00 9.586786e-01 1.196208e+00 9.717188e-02 -8.585180e-01 5.074912e-01 2.431009e-01 -2.394001e-01 2.296278e-01 1.679542e+00 3.433406e-01 7.657763e-01 1.186264e+00 -1.756983e+00 1.103347e-02 
-1.487376e+01 3.197997e+00 6.509521e+00 -1.169470e+00 -7.432616e-01 3.303861e+00 3.156577e+00 3.498951e+00 2.058890e+00 -4.164200e+00 3.440764e+00 -6.299005e-01 9.288624e-01 7.503492e-01 -1.172601e+00 -1.227484e+00 -4.104584e-02 3.026332e-01 -4.610719e-01 -9.475311e-01 9.922096e-01 4.661895e-01 6.890637e-01 1.130625e+00 -1.190709e+00 -3.944260e-03 
-1.393879e+01 4.313522e+00 6.253628e+00 3.940982e-02 -1.015971e+00 5.109814e+00 3.304194e+00 7.732757e+00 1.087486e+01 2.332123e+00 9.309490e+00 -5.838647e+00 9.733799e-01 1.530536e+00 -1.836316e+00 -5.847874e-01 6.203165e-02 5.352482e-01 -8.506077e-01 -2.287440e+00 -3.225558e-01 6.714430e-02 1.382436e-01 -3.550525e-01 -1.368091e+00 -4.512121e-02 
-1.436676e+01 -1.596504e+00 4.858662e+00 -2.731271e-01 5.835744e-01 4.476574e+00 2.638436e+00 4.740001e+00 8.000433e+00 -1.250527e+00 9.054534e+00 5.034122e-01 9.204353e-01 5.486344e+00 -3.545680e-02 -3.981048e-01 -4.058972e-01 -1.010554e+00 -2.899560e+00 -2.551904e+00 -2.657798e+00 -3.650845e+00 -8.418459e-01 -2.187016e-01 3.804680e-01 -8.179616e-02 
-7.776048e+00 -2.064061e+00 6.361413e+00 1.245463e+00 1.387760e+00 1.962859e+00 -5.938814e-01 -1.459152e+00 3.168358e-01 -3.211950e+00 2.508218e+00 -1.935619e+00 7.372861e-01 8.374925e+00 -2.527501e-01 -2.000338e+00 -1.281487e+00 -1.641632e+00 -4.811889e+00 -3.212590e+00 -4.680655e+00 -5.072472e+00 1.293499e+00 -2.279547e+00 1.285308e+00 -5.929293e-02 
9.476589e+00 6.209505e+00 4.465104e+00 -3.801982e+00 -6.997896e+00 -9.620461e+00 -7.653904e+00 -5.194085e+00 -1.091632e+01 -5.601393e+00 5.747892e+00 -6.790747e-01 6.379285e-01 8.573622e+00 -1.264244e-01 -2.934782e+00 -1.863777e+00 -2.309266e+00 -4.486453e+00 -2.489661e+00 -3.635272e+00 -2.879508e+00 5.597556e+00 -3.101923e+00 3.108821e-01 1.167488e-03 
1.601416e+01 -8.532328e-01 -3.551283e+00 -4.603598e+00 -5.433394e+00 -1.190111e+01 -7.612585e+00 -1.070348e+01 -5.029122e+00 1.097505e+01 -4.349260e-01 1.179136e+00 8.181686e-01 5.542926e+00 -1.362373e+00 -3.340498e+00 -9.367431e-01 -3.104105e+00 -2.680819e+00 -3.749009e-01 -2.311929e+00 1.180065e+00 6.702083e+00 -3.287440e+00 8.569453e-01 5.319196e-02 
1.660625e+01 -2.834040e+00 -4.858901e+00 -6.667480e+00 -7.552177e+00 -1.102370e+01 -6.300515e+00 -8.814198e+00 -3.724126e+00 1.964375e+01 -4.983508e+00 5.004452e-01 8.858315e-01 1.901413e+00 -3.680732e+00 -2.063650e+00 8.724629e-01 -1.526317e+00 -3.443879e-01 5.182326e-01 -3.052644e-01 3.984910e+00 4.548406e+00 -3.756577e+00 1.114656e+00 6.127800e-02 
1.637376e+01 -4.354153e+00 -5.679074e+00 -2.005504e+00 -1.385562e+01 -1.073962e+01 -3.145080e+00 -1.120874e+01 2.621065e+00 1.767589e+01 -8.563283e+00 1.759348e+00 8.792944e-01 7.463669e-01 -2.748169e+00 -4.890906e-01 1.521402e+00 -1.236245e+00 1.369762e-01 -4.567094e-01 2.196674e+00 3.629344e+00 -8.662186e-01 -2.322439e+00 9.068327e-01 2.197706e-02 
1.880386e+01 -1.044370e+01 -4.789250e+00 -7.387147e-01 -1.041836e+01 -1.192315e+01 -7.296494e+00 -6.467775e+00 5.183139e+00 1.379022e+01 -8.970815e+00 4.604102e+00 9.137556e-01 7.198660e-01 -1.953327e+00 -5.146004e-01 2.115391e+00 3.176835e-01 -2.940834e-01 -2.121094e+00 2.556074e+00 3.576107e+00 -2.528640e+00 -1.458380e+00 5.693794e-01 5.116862e-03 
1.864719e+01 -1.078925e+01 -6.031562e+00 3.903009e-02 -1.018153e+01 -1.076651e+01 -9.398143e+00 -8.933176e-01 8.663968e+00 9.570725e+00 -1.005347e+01 3.661471e+00 9.140919e-01 5.472209e-01 -6.459980e-02 -1.041446e+00 5.844916e-01 4.315656e+00 -4.979878e-01 -4.216787e+00 2.066280e+00 2.528616e+00 -2.332306e+00 -1.558460e+00 8.581667e-01 -1.006960e-02 
1.906886e+01 -9.383126e+00 -7.255659e+00 2.887208e+00 -7.800809e+00 -1.248067e+01 -1.377945e+01 -1.191540e+00 1.113496e+01 1.105314e+01 -1.153031e+01 2.396281e+00 8.940170e-01 -6.089269e-01 2.050376e+00 -8.425870e-01 9.648100e-01 4.369790e+00 -1.592444e+00 -1.966688e+00 2.463477e+00 1.638173e+00 -3.608844e+00 -9.809927e-01 -1.373661e-01 -6.520437e-02 
1.897736e+01 -5.207437e+00 -9.653098e+00 -8.960077e-01 6.413881e+00 -1.295079e+01 -2.098754e+01 -3.515458e+00 1.228824e+01 7.382897e+00 -1.507584e+01 7.154091e+00 8.388157e-01 -2.008114e+00 2.835031e+00 -2.080781e-01 1.706946e+00 3.292269e+00 -1.329955e+00 2.886229e-01 2.701545e+00 1.874583e+00 -4.603623e+00 -4.849658e-01 -4.991408e-01 -1.464286e-01 
1.559414e+01 -2.982722e+00 -7.191417e+00 4.552854e+00 3.132884e+00 -1.879322e+01 -1.133524e+01 7.160680e+00 1.156187e+01 -3.160091e+00 -1.136459e+01 2.170961e+00 6.253718e-01 -4.027768e+00 1.426475e-01 4.289339e-01 8.525842e-01 2.070249e+00 9.646013e-01 2.575171e+00 1.035818e+00 1.224890e-02 -3.803507e+00 2.932103e+00 1.317915e+00 -1.878264e-01 
1.034398e+01 1.857035e-01 -7.104074e+00 7.740935e+00 8.129731e-01 -1.426001e+01 -9.177135e+00 8.438296e+00 1.782343e+01 -6.340778e+00 -1.256116e+01 1.278427e+00 3.162717e-01 -4.507737e+00 -2.633160e+00 1.272691e-01 9.673817e-01 1.097234e+00 3.285807e+00 2.919274e+00 -1.719122e+00 -1.892469e+00 -1.203708e+00 5.022035e+00 3.919172e-02 -1.606627e-01 
3.246705e+00 -1.136646e+01 -6.385502e+00 2.831658e+00 5.350890e+00 -7.003057e+00 -6.808798e+00 -1.989329e+00 8.428606e+00 -1.102560e+00 1.872863e+00 1.192369e+01 2.161571e-01 -3.559087e+00 -4.933786e+00 -4.275706e-01 -2.057181e+00 3.044933e+00 6.573533e+00 7.963699e-01 -3.622262e+00 -2.192541e+00 3.011642e+00 4.088333e+00 -6.886414e-01 -3.600644e-02 
2.612391e+00 -1.418137e+01 -9.419710e+00 4.801499e+00 1.079105e+01 -2.416842e+00 -8.654386e+00 -7.536063e+00 4.392523e+00 3.355910e-01 3.415610e+00 2.473686e+00 2.401095e-01 -2.746966e+00 -2.567939e+00 -1.034152e+00 -1.555878e+00 3.499367e+00 5.450671e+00 -4.072094e-01 -1.180106e+00 -2.913629e+00 4.499089e+00 1.998251e+00 -1.933248e+00 4.211551e-02 
1.664498e+00 -2.046811e+01 -8.171452e+00 -4.263333e+00 1.336851e+01 8.152857e+00 -7.614763e+00 -2.963452e+00 7.314618e+00 8.559935e+00 1.088687e+00 -1.869876e+00 4.834207e-01 -1.843460e+00 2.555623e+00 -2.404375e-01 -5.682541e-01 8.163194e-02 2.943591e+00 1.353669e-01 2.096164e+00 -2.139099e+00 2.440379e+00 -6.531274e-01 -2.065049e+00 7.473406e-02 
-2.599742e+00 -8.103165e+00 -1.138186e+01 3.509042e+00 1.430100e+01 5.415386e+00 -1.081020e+01 3.024830e+00 3.812278e+00 1.132342e+01 -2.177814e+00 -1.491031e+00 3.932174e-01 -1.408784e+00 3.662810e+00 1.156553e+00 -6.065081e-01 -2.228864e+00 7.558908e-01 7.786362e-01 1.473271e+00 -2.648006e+00 -1.072085e+00 -1.196269e+00 -1.445935e-01 9.277607e-02 
-3.364530e+00 -1.627444e+00 -6.606615e+00 6.366162e-01 4.004073e+00 3.798785e+00 -5.054056e+00 3.211046e+00 -1.976768e+00 5.605421e+00 1.403938e+00 3.580804e+00 5.132735e-01 -2.525689e+00 2.771046e+00 1.781526e+00 5.614474e-01 -3.129616e+00 -2.489347e+00 -1.025336e+00 -5.524579e-01 -1.864028e+00 -4.273407e+00 -1.421064e+00 -8.281425e-01 1.206620e-01 
-1.917016e+00 -5.287655e+00 -4.419362e+00 -6.810164e-01 4.328942e+00 3.539647e+00 -6.041558e+00 -3.256955e+00 -4.201812e+00 -3.547578e+00 -2.723359e+00 -9.746215e-01 6.890634e-01 -3.348367e+00 -6.525802e-03 2.666996e+00 -6.852840e-01 -2.910342e+00 -2.102057e+00 -4.844938e-01 -5.359738e-01 2.012829e+00 -2.366024e+00 -4.958903e-01 -1.925875e+00 1.639099e-01 
-1.130531e+01 -8.020639e+00 -2.745068e+00 6.389337e-01 2.706460e+00 -3.356009e+00 -1.512576e+01 -2.584849e+00 2.001521e+00 -5.371605e+00 -5.743862e+00 -6.268793e+00 9.388075e-01 -3.788502e+00 -2.692148e-01 1.811997e+00 -1.235979e-02 -1.146026e+00 -6.222208e-01 -5.246856e-01 4.907365e-02 3.384351e+00 -6.094679e-01 -1.074477e-01 -1.185323e+00 1.254779e-01 
-1.537119e+01 -4.939196e+00 2.234900e-02 8.146338e-02 3.980974e-01 -1.517499e+00 -8.196815e+00 3.242908e+00 1.188728e+01 4.981810e+00 -1.083365e+00 -6.195609e+00 1.000000e+00 -3.166222e+00 1.206553e+00 2.235322e+00 1.324635e-01 -1.400555e+00 5.601648e-01 1.699983e+00 1.489530e+00 2.274753e+00 5.347330e-01 7.646245e-01 5.962542e-01 5.764514e-02 
-1.557995e+01 -3.147748e+00 2.325149e-01 1.935774e-01 2.393632e-01 3.216254e+00 -6.599855e+00 2.064826e-01 6.900440e+00 -1.706613e+00 4.670238e-02 2.646858e-01 9.851948e-01 -9.149712e-01 2.056357e+00 2.757603e+00 3.346479e-01 -7.027232e-01 1.824800e+00 3.566468e+00 1.104550e+00 9.418733e-01 -1.641486e-01 1.133146e+00 1.722623e+00 -5.828857e-03 
-1.561081e+01 -1.691335e+00 5.268460e+00 2.039790e-01 -1.440287e+00 3.054340e+00 -1.804598e+00 2.795032e+00 4.722495e+00 -2.706409e+00 -1.795519e+00 -1.260089e+00 9.540955e-01 3.668804e-02 1.321521e+00 2.936582e+00 1.496113e-01 1.400211e-01 2.038418e+00 3.142851e+00 8.589754e-02 2.017519e-01 -1.222742e+00 1.271101e+00 2.841765e+00 -2.160788e-02 
-1.576036e+01 6.372145e-01 8.419891e+00 2.250915e+00 1.120354e-01 3.482073e+00 -4.895318e-01 3.161841e+00 1.029328e+01 -2.348238e+00 2.779448e-01 -1.234388e-01 9.326155e-01 6.708716e-01 1.107076e+00 2.406356e+00 -3.662103e-01 3.261512e-01 8.665720e-01 2.143251e+00 -6.126590e-02 1.212425e+00 1.785595e-01 1.038663e+00 1.697313e+00 -2.179509e-02 
-1.509754e+01 -2.240746e-01 1.061157e+01 -1.991491e-01 1.161867e+00 8.541681e+00 4.462276e+00 2.194716e+00 1.119962e+01 -8.110875e-01 5.156520e+00 8.207281e+00 9.182503e-01 7.795998e-01 8.748523e-01 1.617139e+00 -7.820306e-01 5.527111e-01 1.200362e+00 1.336861e+00 1.346259e-01 1.161879e+00 7.555717e-01 1.678493e+00 8.996246e-01 -1.273804e-02 
-1.248223e+01 1.654001e+00 9.592742e+00 -1.435910e+00 5.690427e-01 4.805444e+00 9.829624e-01 2.003106e-01 9.724006e+00 -1.761476e+00 1.763999e+00 4.017564e+00 8.941420e-01 4.182970e-01 9.549799e-02 4.229685e-01 -3.779774e-01 -4.697649e-01 4.426665e-01 1.418469e+00 -1.067772e-01 -1.231711e+00 6.984551e-01 9.755038e-01 -1.067157e-01 -8.265567e-03 
-1.335187e+01 2.174533e+00 1.276773e+01 -1.862761e+00 1.094765e+00 8.394465e+00 4.143462e+00 4.948926e+00 1.081653e+01 7.780687e-01 5.853920e+00 1.167533e+00 9.096420e-01 -2.647421e-01 -5.672341e-01 -1.191440e+00 -2.175343e-01 -5.953194e-01 -3.100399e-01 1.345119e-01 -3.200938e-01 -8.850163e-01 8.276716e-01 3.601131e-01 -1.060250e+00 -1.882380e-03 
-1.454171e+01 -8.459929e-02 9.456654e+00 1.192834e+00 -2.203238e+00 5.769013e+00 6.762218e+00 1.250850e+00 4.326271e+00 3.494588e-01 4.806764e+00 2.862857e+00 8.955917e-01 -9.361618e-01 -1.207949e+00 -1.409121e+00 -7.395847e-02 1.071774e-01 -4.512129e-02 1.473695e-01 3.716359e-02 -1.533229e+00 -6.553017e-01 -2.360052e-01 7.187759e-01 1.152188e-03 
-1.539151e+01 -2.190945e+00 4.722416e+00 -2.601193e+00 -4.285903e-01 6.509697e+00 2.245208e+00 6.897774e-02 9.473406e+00 2.271803e+00 5.435703e+00 3.483386e+00 9.081135e-01 -6.544226e-01 -1.287820e+00 -6.936182e-01 -1.336496e-01 -1.486926e-02 -1.791071e-01 5.044308e-02 2.240208e-01 -1.354707e+00 -2.203029e+00 -1.001379e+00 6.908742e-01 -3.530121e-03 
-1.614322e+01 -2.203007e+00 6.569794e+00 -1.436487e+00 1.866607e+00 5.522222e+00 2.668937e+00 2.826103e+00 2.729419e+00 -5.784852e+00 7.930812e-01 6.453517e+00 9.006672e-01 3.697308e-01 -7.347631e-01 6.361325e-01 -4.447188e-01 3.600653e-01 -2.029499e-01 -1.701062e+00 1.269982e+00 -8.501005e-03 -1.825533e+00 4.137242e-01 -2.327425e-01 -1.173314e-02 
-1.582323e+01 -3.205365e+00 1.074307e+01 -1.216348e+00 -1.014504e+00 7.622326e+00 6.442318e+00 5.281404e+00 4.841415e+00 -7.169924e+00 2.853868e+00 2.826573e+00 8.894537e-01 1.468139e+00 -7.695662e-01 1.342304e+00 5.261314e-01 -7.074816e-01 -6.291528e-01 -7.627565e-01 6.621245e-01 -4.588572e-01 -8.210863e-01 9.123866e-01 7.278438e-02 -4.032778e-02 
-1.247719e+01 -3.251205e+00 9.626988e+00 -1.723182e+00 -1.099551e-01 4.197949e+00 -3.841646e+00 4.994549e+00 6.599761e+00 -4.057345e+00 8.166302e+00 2.027551e+00 8.462559e-01 2.666062e+00 -9.921232e-01 -5.129109e-01 3.325559e-01 -1.206976e+00 -1.184068e+00 -6.862586e-01 -9.425095e-01 -5.281682e-01 8.701731e-01 1.734644e+00 -6.863018e-01 -7.677162e-02 
-9.883830e+00 -5.514677e+00 9.905340e+00 1.728120e-01 -2.977717e+00 4.026069e+00 1.686717e+00 2.295377e+00 5.243948e+00 -2.697381e+00 6.311026e+00 6.060291e+00 7.336802e-01 3.250995e+00 -5.264796e-01 -1.826600e+00 7.378272e-01 -2.067042e-01 -1.879199e+00 -3.161310e-01 -7.984337e-01 -1.696403e+00 4.884130e-01 5.866049e-01 -4.340322e-01 -1.056916e-01 
-5.782603e+00 -6.008967e+00 4.424105e+00 -4.682871e-01 -3.186666e+00 1.400011e+00 1.615445e+00 -3.934312e-01 -1.126893e-01 -3.670258e+00 7.737724e+00 1.405149e+00 5.946958e-01 3.579702e+00 -3.287862e-01 -1.226858e+00 6.147380e-01 -1.010822e-01 -2.411362e+00 8.787645e-01 -4.388260e-01 -2.773592e+00 -3.131229e-01 -8.458692e-01 -1.075459e+00 -1.149308e-01 
-2.915551e+00 -4.458881e+00 4.211511e+00 1.845340e+00 -5.096695e-01 -3.747005e-01 2.133118e+00 3.983226e+00 -2.843734e-01 -4.921402e+00 6.001182e+00 9.676132e-01 4.867759e-01 3.912239e+00 6.624068e-01 -1.175452e+00 -1.840097e-01 7.137307e-01 -1.637379e+00 1.237706e-01 1.053533e+00 -1.054429e+00 -2.888180e-01 -5.080600e-01 -1.931834e+00 -1.106902e-01 
1.937176e+00 -5.423033e+00 6.339612e+00 5.142434e-01 -1.849390e+00 -5.658478e+00 3.289757e-01 1.956494e+00 -4.504039e+00 -4.510949e+00 4.091878e+00 -8.034077e-01 3.950539e-01 3.500787e+00 6.607966e-02 -1.194901e+00 -9.045275e-01 2.060761e+00 6.958891e-01 -3.030482e-01 1.850917e+00 -6.335015e-01 9.399826e-01 -4.719649e-01 -1.854849e+00 -8.958659e-02 
5.817473e+00 -2.495610e+00 3.070326e+00 -1.238502e+00 -7.770190e-02 -6.315808e-01 2.948805e+00 6.388077e+00 2.167478e+00 -3.721126e+00 5.593649e+00 -2.494600e+00 2.800505e-01 2.354418e+00 -7.944161e-01 -1.820000e+00 -1.462025e+00 1.697721e+00 1.575788e+00 -1.867638e+00 1.750442e+00 7.959187e-02 1.068014e+00 1.878626e-01 -8.995779e-01 -5.806134e-02 
7.354821e+00 -6.660204e+00 -9.798063e-01 -3.449003e+00 6.901155e+00 5.007896e+00 -3.076401e-01 7.658726e+00 -4.506123e+00 4.295176e-01 5.581666e+00 -6.137991e+00 2.501256e-01 8.260757e-01 -7.080764e-01 -2.997611e+00 -1.968312e+00 8.424808e-01 2.426284e+00 -1.734647e+00 2.157681e+00 1.587291e+00 9.598793e-01 2.310893e-01 2.259072e-02 -3.778067e-02 
6.147717e+00 -7.812376e+00 -1.228781e+00 -3.483162e+00 3.603665e+00 2.171055e+00 -6.886762e+00 9.884317e+00 1.146278e-01 -2.051568e+00 6.195601e+00 -8.629847e-01 2.689333e-01 -1.605839e-01 -1.250781e+00 -1.747166e+00 -8.696396e-01 1.776971e-01 7.939249e-01 -4.453703e-01 1.783833e+00 4.286268e-01 9.844148e-01 7.256709e-01 3.348669e-01 -2.021588e-02 
5.902432e+00 -6.305032e+00 -6.498887e+00 -8.204985e+00 5.223307e-01 5.071627e+00 -3.426478e+00 1.099678e+01 4.458838e+00 -5.463312e-01 4.946349e+00 -1.506262e+00 2.117091e-01 -1.430358e-01 -2.769619e-01 -5.778006e-01 2.509840e-01 -5.244555e-02 -6.119529e-01 6.535373e-01 1.052258e+00 9.688569e-01 -8.148627e-02 -7.221648e-01 4.949304e-01 -2.574249e-02 
5.740748e+00 -8.927102e+00 -2.905962e+00 -3.208709e+00 4.000196e+00 3.306179e+00 2.281372e+00 1.363821e+01 -1.718689e-01 1.688873e+00 9.539662e+00 -3.136130e+00 1.981793e-01 4.760129e-01 3.211136e-01 1.005847e-01 9.044739e-01 1.537534e+00 4.885936e-02 1.112013e+00 -1.336766e+00 -1.111133e+00 -9.553834e-01 -2.524373e+00 -1.612591e+00 -3.762271e-02 
6.843127e+00 -7.487651e+00 -3.030219e+00 -2.331310e+00 6.440662e+00 1.380570e+00 -1.624020e+00 1.104307e+01 4.814106e-01 -1.848134e+00 2.988114e-01 -2.526767e+00 1.567901e-01 6.004956e-01 4.317122e-01 5.179191e-01 5.315158e-01 1.976624e+00 1.023228e-01 3.341208e-01 -2.436330e+00 -1.897335e+00 -1.105932e+00 -1.894770e+00 -9.346241e-01 -3.352987e-02 
8.057435e+00 -5.615499e+00 -2.460192e+00 -1.897630e+00 8.332168e+00 4.260880e+00 -2.227926e+00 3.177344e+00 -3.452326e+00 -6.177584e+00 -4.102495e+00 -8.415687e+00 1.082792e-01 4.365864e-02 1.445387e+00 -8.967609e-01 2.454003e-01 4.552403e-01 1.345132e+00 2.602479e-01 -1.653472e+00 -1.204894e+00 -4.482431e-01 -2.076806e+00 -1.456694e+00 -3.245989e-02 
7.746567e+00 -5.802273e+00 -4.132177e+00 -6.202945e+00 8.239463e+00 5.105890e+00 4.987755e-01 4.045567e+00 -3.387606e+00 -2.142762e+00 2.293578e+00 -3.539604e+00 8.900976e-02 -1.128227e+00 2.398970e+00 -2.083313e+00 1.139367e+00 -1.370873e+00 1.474508e+00 6.988538e-01 -7.528114e-01 3.453894e-01 1.054618e+00 -1.058246e+00 -2.280801e+00 8.013922e-03 
5.507321e+00 -2.542856e+00 -6.838787e+00 -4.589006e-02 5.376997e+00 8.169177e+00 2.521214e+00 8.869603e+00 -4.261830e+00 -4.050288e-01 -1.841751e+00 -9.913182e+00 6.977004e-02 -6.668735e-01 1.478581e+00 -1.789487e+00 1.269074e+00 -1.070133e+00 2.440231e-01 3.624224e-01 -9.750427e-01 4.696348e-01 1.351605e+00 -1.261628e+00 -2.166352e+00 -9.963649e-03 
2.477049e+00 2.970878e+00 -1.125749e+01 2.439652e+00 1.063883e+00 6.798963e+00 -5.043213e-01 4.432878e+00 2.613110e+00 5.386782e-01 -6.122790e+00 -1.318202e+01 2.161143e-01 -1.613092e-03 5.073918e-01 -1.327753e+00 4.171254e-01 -6.021144e-01 -8.772756e-01 -1.898454e-01 -6.019392e-01 7.310178e-01 5.603205e-01 -1.897837e+00 -1.393759e+00 -3.122705e-02 
7.357827e+00 -2.609168e+00 -7.844974e+00 1.264411e-01 6.569292e+00 4.634459e+00 8.573461e-02 -1.891526e+00 -4.104510e+00 -7.602794e-01 -6.202449e+00 -1.442624e+01 -5.091310e-03 1.165411e+00 -3.881741e-01 -9.391356e-02 -8.200604e-01 7.177536e-01 -8.566458e-01 -2.501150e-02 -2.006092e-01 1.470499e+00 2.294963e-01 -9.546843e-01 1.923847e+00 -5.027901e-02 
6.813249e+00 -3.232158e+00 -1.026785e+01 -4.203484e+00 4.632743e+00 2.486871e+00 7.672880e-01 6.416435e+00 1.888224e-01 8.364660e-01 -5.015260e+00 -8.251870e+00 -2.969480e-02 9.990482e-01 3.116181e-01 1.038156e+00 3.166877e-01 1.525707e+00 -1.156306e+00 2.250008e+00 6.589745e-01 6.187969e-01 -1.249495e+00 1.707201e+00 2.423164e+00 -4.962350e-02 
9.166275e+00 -1.382208e+00 -7.803173e+00 -8.246239e-01 7.181334e+00 6.041994e+00 1.760352e+00 6.874779e+00 4.302807e+00 5.935587e-01 -7.168938e+00 -2.759025e+00 -5.872047e-02 -1.380724e+00 2.387989e+00 9.331961e-01 2.030799e+00 1.338865e+00 -2.291570e+00 2.831923e+00 8.036284e-01 1.541736e+00 -2.663493e+00 3.937430e+00 2.299570e+00 5.520006e-02 
6.568066e+00 3.915488e+00 -6.087609e+00 4.498623e+00 8.386397e+00 3.136649e-01 9.908412e+00 3.344599e+00 1.503436e+00 -6.385718e+00 2.896461e+00 -6.899809e+00 -5.188584e-03 -6.771374e-01 1.845145e+00 5.291381e-01 2.208103e+00 9.309827e-01 -1.118055e+00 1.917504e+00 -1.624703e+00 7.502649e-01 -1.889967e+00 2.839441e+00 3.429406e-02 2.775993e-02 
5.767984e-01 5.756951e+00 -5.269114e+00 5.929383e+00 1.138679e+01 -5.736788e+00 9.674789e+00 3.662535e+00 2.946861e+00 -1.046665e+01 9.528840e+00 -3.604418e+00 2.586559e-01 -4.671600e-01 2.457101e-01 -1.325838e-01 2.373272e-01 -1.553855e+00 -1.374883e+00 -3.531755e-01 -6.527867e-01 3.092543e-01 1.101099e+00 1.074457e-01 -2.423660e-01 -2.295392e-02 
7.722301e+00 2.423989e+00 -8.889189e+00 3.460030e+00 7.184929e+00 2.785984e+00 6.397591e+00 -1.009568e-01 4.618120e+00 -3.083261e+00 8.330553e-01 -7.657704e+00 -4.958332e-02 9.920419e-01 -6.293475e-01 -5.826081e-01 -1.507232e+00 -2.190113e+00 9.738666e-01 -1.977635e+00 4.993110e-02 -4.472864e-01 2.726449e+00 -2.467772e+00 8.853878e-01 -6.817324e-02 
6.253357e+00 5.920926e-01 -7.065302e+00 8.813087e-01 1.279616e-02 -2.068582e+00 1.749885e+00 5.333623e+00 4.291737e+00 4.447827e+00 -5.600006e+00 -3.591908e+00 -1.512927e-01 1.501039e+00 -5.715152e-01 -2.544220e-01 -1.766212e+00 -2.117037e+00 1.919861e+00 -1.246680e+00 -4.824305e-01 -2.263907e+00 1.946864e+00 -2.874795e+00 2.469899e+00 -8.887677e-02 
8.689996e+00 3.351180e+00 -8.102555e+00 -5.135028e-01 3.122832e+00 3.348895e+00 3.982689e+00 2.758710e+00 -1.405433e+00 -2.107158e-01 -1.877975e+00 -2.479125e+00 -1.410805e-01 2.061381e-01 9.389941e-02 3.975289e-01 -1.065497e+00 -1.781732e-01 1.338621e-01 -1.170686e+00 -6.009120e-01 -2.530367e+00 -3.369819e-01 -1.145570e+00 2.781853e+00 -1.921054e-02 
7.598146e+00 2.435779e+00 -6.934541e+00 -9.149131e-01 2.832654e+00 3.581062e+00 4.648840e+00 -1.794513e-01 -5.360899e+00 -2.168606e+00 -3.489620e+00 6.155789e+00 -1.399794e-01 1.766797e-01 9.562065e-02 2.089797e-01 -3.018967e-01 4.376322e-01 6.104861e-01 -3.597078e-01 -1.671049e+00 -1.532977e+00 -7.326763e-01 6.573001e-01 1.756276e+00 -1.021218e-03 
8.080597e+00 1.971642e+00 -6.966925e+00 -9.693459e-01 4.884134e+00 6.304729e-01 -9.053180e-01 -3.489791e-01 -3.207398e+00 -1.459954e+00 -5.949990e+00 1.377716e+00 -1.512927e-01 -3.681181e-01 -3.406073e-01 6.537504e-02 -4.036131e-01 -1.808331e-01 -9.684489e-01 4.623590e-02 2.960618e-01 1.116367e+00 4.272551e-01 5.018058e-01 -4.967892e-02 -3.173769e-03 
7.441455e+00 1.759965e+00 -6.588219e+00 -4.002530e-01 1.320306e+00 2.343060e+00 2.395350e+00 -1.467779e+00 -2.472165e+00 1.409065e+00 -2.774985e-01 3.261054e+00 -1.512927e-01 -1.651854e-02 1.681685e-03 -1.959381e-01 -8.409680e-01 -3.651045e-01 -8.364553e-01 3.481857e-01 7.902045e-01 1.107498e+00 7.815404e-01 1.761103e+00 -4.583545e-01 -2.262664e-03 
6.927751e+00 1.986051e+00 -7.948841e+00 -2.788898e+00 2.974841e+00 -8.743486e-01 5.340614e+00 4.883183e+00 2.732034e+00 1.367242e-01 -9.750073e-01 -1.280152e+00 -1.512927e-01 8.366499e-02 2.643026e-01 -3.955595e-01 -1.249701e+00 -6.215096e-01 -3.375167e-01 6.786169e-01 -9.353912e-01 -2.248629e-01 1.808714e+00 2.062046e+00 -2.548957e-01 0.000000e+00 
8.091976e+00 2.436984e+00 -7.423273e+00 -4.209977e+00 1.961778e+00 1.511958e-01 3.266802e+00 1.155491e+00 -2.793127e+00 9.407569e-01 2.828405e+00 5.192951e+00 -1.512927e-01 -1.933313e-01 -1.681842e-01 -2.422895e-01 -1.292117e+00 -2.757264e-01 5.117311e-02 -3.991438e-01 -2.414450e+00 -1.826342e+00 9.545265e-01 -4.611804e-01 -9.738220e-01 0.000000e+00 
8.173660e+00 2.954646e+00 -8.527195e+00 -5.312990e+00 1.455850e+00 3.882122e-02 2.052040e+00 -6.337570e+00 -4.171232e+00 7.817767e+00 2.807286e+00 -8.627115e-01 -1.512927e-01 -2.547085e-01 5.489206e-03 1.017507e+00 -5.649600e-02 -4.707849e-03 1.630347e+00 -4.454523e-01 -1.777456e+00 -1.306630e+00 2.291657e-02 -5.259322e-01 5.916101e-01 0.000000e+00 
5.851844e+00 4.347464e-01 -7.510489e+00 -5.598790e+00 7.011698e-01 2.142340e+00 2.043917e+00 -7.929655e+00 -8.152241e+00 2.341177e+00 -4.474547e+00 -1.816777e+00 -1.512927e-01 -4.948576e-01 1.230470e-01 6.824129e-01 7.143701e-01 1.376456e-01 1.386942e+00 -6.299345e-01 -2.324943e-01 3.880259e-01 1.813850e-02 2.159326e-01 1.169166e+00 0.000000e+00 
6.774274e+00 3.014615e+00 -2.817696e+00 -2.376971e+00 3.581606e+00 6.281816e+00 3.724795e+00 5.384772e-01 -1.121560e+00 -4.489028e-01 4.680824e-02 5.182762e+00 -1.512927e-01 -2.868598e-01 2.659977e-01 3.055296e-01 1.178425e+00 -1.758629e-01 8.391560e-01 -3.736141e-01 8.584776e-01 8.217356e-01 -6.518543e-01 1.509658e+00 2.066111e+00 5.390644e-04 
6.317382e+00 3.022234e+00 -6.865958e+00 -2.106135e+00 1.587129e+00 3.964407e+00 -7.192476e-01 -3.445004e+00 -2.377833e+00 5.164784e+00 5.288307e+00 8.016045e+00 -1.512927e-01 -3.278165e-02 4.651228e-01 3.467239e-01 1.338353e+00 2.247858e-01 -3.676852e-01 -3.885179e-01 1.246309e-03 7.319592e-01 8.496656e-02 1.468429e+00 6.734879e-01 2.695322e-04 
6.506593e+00 2.990891e+00 -7.321813e+00 -1.167194e+00 1.335564e-01 3.323568e+00 1.565552e+00 -4.287507e+00 -2.949758e+00 3.146691e+00 5.474147e+00 4.551431e+00 -1.485974e-01 -5.663087e-01 -2.978611e-03 -1.696579e-01 2.584746e-01 6.334585e-01 4.089454e-01 1.428529e+00 -9.252699e-02 2.197983e-01 1.060049e+00 1.563544e-01 -1.172557e+00 0.000000e+00 
5.821776e+00 2.772223e+00 -3.524812e+00 4.880872e-01 3.549124e+00 1.783038e+00 1.180949e+00 -5.510431e+00 -3.578345e+00 9.682121e-01 1.539299e-01 1.866328e+00 -1.512927e-01 -5.954025e-01 -1.976693e-01 5.210299e-01 7.340642e-02 1.283104e+00 1.196587e+00 3.369855e+00 1.768943e+00 3.483248e-02 -1.839683e-01 -1.284473e+00 -1.335346e+00 -2.695322e-04 
4.190534e+00 3.124728e+00 -5.336559e+00 -2.381710e+00 5.767900e+00 9.417227e+00 9.917343e+00 1.108555e+00 5.776874e-01 6.949628e+00 3.395769e+00 2.394837e+00 -1.512927e-01 -2.506866e-01 7.828386e-02 -2.031856e-02 -9.573080e-02 2.667986e-01 5.550228e-01 2.243202e+00 1.332745e+00 -8.469893e-01 2.671886e-01 -5.084703e-01 -1.270190e-01 -5.390644e-04 
4.498399e+00 1.966969e+00 -5.253436e+00 -1.131845e+00 5.185475e+00 6.900513e+00 1.195413e+01 2.701681e+00 -3.967393e+00 2.343474e+00 -9.486717e-02 2.417610e+00 -1.512927e-01 -1.987462e-01 1.900445e-01 -4.679613e-01 -5.646796e-01 -1.730549e+00 -8.796381e-01 4.215682e-01 1.023327e+00 -1.039085e+00 2.692502e-01 6.877422e-03 6.403076e-01 0.000000e+00 
5.914848e+00 3.784937e+00 -6.559093e+00 -8.358814e-01 6.493735e-01 3.539945e+00 7.394972e+00 -1.729839e+00 -6.990180e+00 3.795003e+00 3.056194e+00 3.640695e+00 -1.512927e-01 -1.032150e-01 2.559652e-01 -8.830242e-02 6.751810e-01 -2.122427e+00 -1.740221e+00 -1.785521e+00 -4.611712e-01 -1.290114e+00 -1.306710e+00 3.209377e-01 1.530480e+00 0.000000e+00 
3.965888e+00 3.392341e+00 -5.253351e+00 -3.108225e+00 -2.544360e+00 3.234890e-01 4.549976e+00 1.025401e+00 -4.989836e+00 3.891775e+00 3.581047e-01 4.444937e+00 -1.512927e-01 -6.732244e-01 -3.544922e-02 8.754290e-01 3.043119e-01 -1.174876e+00 -1.372459e+00 -2.147593e+00 -4.907064e-01 -1.529166e-01 3.785229e-01 1.729205e+00 1.202730e+00 0.000000e+00 
3.940714e+00 3.691868e+00 -5.778113e+00 1.982385e+00 -9.793192e-01 4.004633e+00 4.691814e+00 -3.591611e-01 -5.361660e+00 -3.580751e-01 4.773972e+00 9.033573e+00 -1.512927e-01 -1.046007e+00 -4.660353e-01 7.409592e-01 -2.153079e-01 1.574485e-01 -1.264480e+00 -1.421615e+00 -5.016826e-01 -2.516239e-01 -2.378868e-01 1.141070e+00 -6.411934e-02 0.000000e+00 
2.119344e+00 1.836257e+00 -1.266781e+00 -1.019419e+00 1.254399e-01 -1.941261e-01 2.567746e+00 -4.371904e-01 -5.546237e+00 6.312628e+00 7.692270e+00 5.734823e+00 -1.512927e-01 -4.699445e-01 -5.238821e-02 7.431723e-01 3.925750e-01 5.315295e-01 -4.375280e-01 -1.044875e-01 -3.586794e-01 1.178375e-01 -3.332744e-01 -2.591396e-01 -9.108120e-01 0.000000e+00 
1.608087e+00 2.232802e+00 -4.847582e+00 -2.956824e+00 1.017159e-01 -2.523647e+00 1.278011e+00 -3.506956e+00 -7.970099e+00 1.395143e+00 5.094463e+00 2.675155e+00 -1.512927e-01 -5.485546e-01 -2.315615e-01 2.801118e-01 -1.119696e+00 -1.111368e+00 -1.386061e+00 4.446073e-01 2.721767e-01 4.065203e-01 1.765954e-01 -1.377012e+00 -8.184086e-01 0.000000e+00 
2.782479e+00 3.859933e+00 -2.002755e+00 1.324254e+00 -4.272303e-01 1.399989e+00 5.734440e+00 8.059023e-01 -3.096429e+00 1.348794e+00 -1.097839e+00 3.070085e+00 -1.512927e-01 -5.133361e-01 -4.592057e-01 -6.526170e-01 -6.492372e-01 -1.223983e+00 -4.388560e-01 -5.233828e-01 -4.276861e-01 6.703917e-01 -6.638653e-01 -1.980854e+00 -2.494344e-01 0.000000e+00 
8.663731e-01 1.522223e+00 -4.009568e+00 -4.787933e+00 -6.259822e+00 -3.722729e+00 5.331503e+00 3.801759e-01 -4.553962e+00 3.006818e+00 2.283965e+00 6.273899e+00 -1.512927e-01 -4.271092e-01 -4.618488e-02 1.875651e-02 -5.168108e-01 -4.105567e-01 5.804590e-01 -5.988605e-01 -5.014805e-01 8.400128e-01 1.102208e+00 -1.358532e+00 -1.109548e+00 0.000000e+00 
-7.647991e-02 -1.044819e-01 -4.948874e+00 -3.350050e+00 -2.813706e+00 -1.788865e+00 -2.075914e+00 -4.519187e+00 -3.902347e+00 2.187464e+00 -8.067502e-01 2.688279e+00 -1.512927e-01 -4.096623e-01 6.672078e-01 5.836645e-01 3.257504e-01 3.288912e-01 3.746901e-02 -5.897914e-01 -1.617565e+00 -9.124311e-01 4.322926e-01 2.128741e-01 -1.635409e+00 0.000000e+00 
9.020205e-01 3.984085e+00 -3.280740e+00 -3.203725e+00 -7.578294e-01 1.973076e+00 2.188886e+00 -3.351814e+00 -3.367076e+00 6.486849e+00 -1.843742e+00 -2.681680e+00 -1.512927e-01 -9.313774e-02 7.980253e-01 1.130505e+00 1.362162e+00 1.232869e+00 -3.617305e-01 -3.959849e-01 -3.590929e-01 3.741090e-01 3.185066e-01 1.804145e-01 -1.602287e+00 0.000000e+00 
7.163439e-01 5.965041e+00 5.511544e-01 2.160903e+00 -1.533771e+00 -1.260568e+00 4.356792e+00 -5.415925e+00 -8.252028e+00 1.770242e+00 2.030385e+00 -6.291686e-01 -1.512927e-01 1.616383e-03 4.491383e-01 1.220157e+00 3.939683e-01 9.697022e-01 -1.077096e-01 8.679188e-01 -1.515608e-01 4.700562e-01 2.133675e-02 7.622105e-01 5.220572e-01 0.000000e+00 
4.272461e-03 2.477588e+00 -1.107057e+00 -7.325984e-01 -7.354440e-01 -5.795530e+00 1.352253e-01 -9.669194e-01 -5.085769e-01 4.807962e+00 1.767470e+00 -7.881093e-02 -1.512927e-01 -1.610787e-01 -4.565615e-01 4.564546e-01 1.178670e+00 6.806482e-01 1.238538e+00 -8.383534e-02 7.221980e-01 1.035940e+00 5.396416e-01 2.054697e+00 2.457072e+00 0.000000e+00 
3.804760e-01 2.894458e+00 6.506860e-02 -2.615772e+00 2.023612e+00 1.556889e+00 3.290511e+00 -6.469439e+00 -2.981315e+00 3.133591e+00 1.198697e+00 3.997130e+00 -1.512927e-01 -6.432781e-02 -4.697963e-01 -2.261525e-01 1.164467e+00 6.403145e-01 2.858778e+00 -1.940259e-01 1.415657e+00 1.454444e+00 1.716170e+00 2.070851e+00 2.320874e+00 0.000000e+00 
2.645607e-01 3.236569e+00 -7.554244e-01 5.077959e+00 8.667198e-01 6.757039e+00 2.302850e+00 7.859325e-01 -8.227299e-01 8.503383e+00 8.845584e+00 7.290530e+00 -1.512927e-01 4.046612e-02 1.860072e-01 -1.172268e-02 1.931485e+00 2.047435e-01 3.030529e+00 3.347588e-01 1.076108e+00 1.530279e-01 1.276063e+00 2.180312e+00 1.803208e+00 0.000000e+00 
