-8.927603e+00 -7.538791e-01 -1.615596e+00 -6.233167e+00 -9.846199e-02 -3.985989e+00 -2.525881e+00 1.053355e+00 5.249896e-01 -3.296512e+00 7.768226e-01 -1.514108e+00 -1.441541e-01 -2.744001e-01 -1.524067e-01 5.819072e-01 -6.092469e-01 -1.291386e+00 1.399640e+00 9.586356e-01 -4.023232e-01 1.248679e+00 1.084249e+00 1.707271e+00 1.583003e+00 -1.857102e-03 
-9.471704e+00 -1.322080e+00 2.449455e+00 -4.451079e+00 -2.096743e+00 6.812184e-01 -9.263930e-01 6.205819e-01 -9.979419e-01 -1.439284e+00 3.249321e+00 -2.308421e-01 -1.484479e-01 -6.293437e-01 -2.063113e-01 5.099987e-01 -3.284578e-01 -1.544330e+00 1.750484e+00 1.523898e+00 -6.976334e-01 1.870928e+00 9.359570e-01 1.847787e+00 2.202137e+00 -5.214095e-04 
-1.002755e+01 -1.231812e+00 -7.385855e-01 -1.017044e+01 -5.556252e+00 6.786060e-01 1.467554e+00 -7.418751e-01 7.529848e+00 1.196118e+00 8.076927e+00 5.759274e+00 -1.512927e-01 -4.217542e-01 1.610947e-01 5.694603e-01 5.119293e-02 -7.055327e-01 1.305110e+00 1.359819e+00 -3.109721e-01 1.831215e+00 9.339994e-01 1.303989e+00 1.035843e+00 -9.021163e-04 
-1.152435e+01 -1.546469e+00 4.958923e-01 -5.906816e+00 -5.091215e+00 2.434132e+00 3.096895e+00 -1.537197e+00 6.377200e+00 -8.630422e-01 6.365708e+00 5.859889e+00 -1.431918e-01 4.314699e-01 8.256682e-01 3.778196e-01 3.372904e-01 5.849859e-01 -9.530613e-01 6.156766e-02 -6.749834e-02 9.356561e-02 1.267733e-01 -1.004886e+00 -2.567741e-01 1.170540e-03 
-1.001005e+01 1.637886e-01 2.208487e+00 -5.249333e+00 -2.128890e+00 1.663103e+00 2.261568e+00 5.773838e-01 5.993492e+00 1.085364e+00 5.738573e+00 6.197431e-01 -1.512927e-01 1.091697e+00 1.150442e+00 2.189017e-01 1.436638e+00 8.386275e-01 -9.988703e-01 -2.449686e-01 3.746753e-01 -1.257803e+00 -8.048771e-01 -1.279140e+00 -1.369441e+00 5.249298e-03 
-7.323105e+00 2.108460e+00 2.865017e+00 -5.225183e+00 -8.854941e-01 -4.576337e+00 -1.015562e+00 -3.765392e-01 2.380642e-01 -7.500408e-01 -6.059341e-01 1.055053e+00 -1.425952e-01 9.724544e-01 1.145629e+00 -1.202795e-02 6.242714e-01 6.822435e-01 -6.241524e-01 -5.358853e-01 2.530561e-01 9.849031e-02 3.005137e-01 -6.160820e-01 -1.232028e+00 9.746432e-04 
-6.669689e+00 2.692932e+00 -8.286395e-01 -3.328073e+00 -3.465974e+00 -8.105109e-01 2.298939e+00 5.511725e-01 4.310401e+00 -2.884768e+00 5.167047e+00 1.314487e+00 -1.253445e-01 1.115059e-01 4.199061e-01 -1.845231e-01 7.348188e-01 -1.579998e-01 1.023180e+00 2.328529e-01 -4.916382e-02 -5.578423e-02 -9.527125e-01 1.961299e-01 6.528224e-01 7.577872e-03 
-8.332256e+00 2.917103e+00 1.954316e+00 -3.746090e+00 -1.011455e+00 5.501768e-01 3.987830e-01 -2.588112e-01 7.711197e+00 2.624592e+00 3.571061e+00 -6.476228e-01 -1.512927e-01 -6.490291e-01 -4.232337e-01 -1.765801e-01 4.889627e-01 3.456135e-02 1.473074e+00 2.865434e-01 2.964963e-01 1.366670e+00 8.559628e-01 1.743191e+00 1.017699e+00 -1.105070e-04 
-8.947948e+00 1.858997e+00 1.741222e+00 -2.314786e+00 -2.855907e+00 4.215746e+00 2.718660e+00 2.727007e-01 1.978005e+00 -5.365515e+00 4.630724e+00 4.735193e+00 -1.090546e-01 -4.441805e-01 -3.360471e-01 4.673848e-02 -5.464324e-01 -8.353250e-02 -9.090508e-01 -8.417671e-01 2.065954e-01 8.135471e-01 1.279390e+00 1.839311e-01 -4.964463e-01 -4.009247e-03 
-9.429121e+00 4.092591e-01 6.971855e-01 -3.287013e+00 -1.017721e+00 2.759048e-01 2.072947e-01 1.245178e+00 8.237612e+00 4.770147e+00 8.378184e+00 4.433192e+00 -1.512927e-01 2.195225e-02 -6.601927e-01 -4.141269e-01 -7.092043e-01 -1.507479e-01 -1.233810e+00 4.762440e-01 7.949611e-01 -4.467879e-01 -6.757675e-01 -3.483266e-02 5.834920e-01 -3.633618e-03 
-8.342159e+00 2.266619e+00 3.361797e-02 -6.289773e+00 -3.880504e+00 -5.218629e+00 -1.814152e+00 8.321545e-01 8.114929e+00 2.439403e+00 3.683141e+00 -3.708151e+00 -1.453907e-01 4.111306e-01 -2.690704e-01 -6.332469e-03 -7.754582e-01 4.901586e-01 -7.100327e-01 2.943489e-01 1.601228e+00 1.031477e+00 -5.936460e-01 -5.548388e-01 -6.764818e-01 -7.322359e-03 
-8.525391e+00 -5.876708e-01 7.374833e-01 -5.304618e+00 -1.252897e+00 -9.016857e-01 5.046409e+00 3.436267e+00 2.408795e+00 -4.656704e+00 3.870690e+00 6.491509e+00 -1.512927e-01 3.471612e-01 -2.451410e-01 4.007041e-02 -2.447221e-01 6.739385e-01 6.376855e-01 3.191511e-01 8.165817e-01 -3.870133e-01 -2.320865e+00 -5.263513e-01 2.847077e-01 6.864357e-03 
-7.344161e+00 1.012110e+00 1.689411e+00 -5.183275e+00 -2.875265e-01 1.254378e+00 1.770847e+00 7.183296e+00 1.004980e+01 -3.620320e+00 4.110278e+00 3.236248e-01 -1.456664e-01 3.790426e-02 -4.339609e-01 5.833368e-01 4.204037e-01 7.181550e-01 1.397093e+00 -9.787018e-01 -1.756670e+00 -1.911502e+00 -2.475164e+00 -4.519494e-01 1.637784e+00 9.347725e-03 
-8.192314e+00 -1.891916e-01 6.964111e-02 -5.063873e+00 5.554827e-01 2.278289e-01 1.055026e-02 2.152516e+00 5.335111e+00 -3.804316e+00 5.532860e+00 3.840843e+00 -1.168331e-01 2.794361e-03 5.701910e-02 7.027893e-01 -1.724822e-01 -4.209122e-01 7.299681e-01 -2.023182e+00 -1.047765e+00 -1.605178e+00 -1.448185e+00 -3.209211e-01 7.245288e-01 1.732080e-02 
-8.319176e+00 -1.024258e-01 3.284223e+00 -4.308128e+00 -1.193919e+00 1.202076e+00 -4.189732e+00 -7.309319e+00 -2.905741e+00 -1.036261e+01 5.923085e-01 5.806103e+00 -1.158819e-01 -4.586737e-01 -3.124723e-01 9.767990e-01 -3.980170e-01 -1.278996e+00 -1.271663e-02 -1.448938e+00 -6.549236e-01 -2.533389e+00 -1.449126e+00 -7.031194e-01 1.282924e+00 1.922348e-02 
-8.023911e+00 2.546928e-01 3.454024e+00 -6.604603e+00 -2.904261e+00 2.774306e+00 -2.089210e+00 5.443750e+00 8.606737e-01 -8.526483e+00 4.025069e+00 7.372914e+00 -7.958090e-02 -1.520029e-01 -4.032121e-01 3.799682e-01 -5.931087e-01 -1.910575e+00 -1.217947e+00 -6.857152e-01 2.477073e-01 -1.042030e+00 -8.676230e-01 -1.499532e-01 3.771542e-01 1.336348e-02 
-9.721731e+00 -7.721934e-01 4.881215e+00 -6.402995e+00 -4.952633e+00 -8.244342e-02 -4.423961e+00 2.263062e+00 -3.799275e-01 -8.504864e+00 1.348576e+00 4.972209e+00 -6.817508e-02 -3.618801e-01 -9.286221e-01 -4.616179e-01 -9.827174e-01 -1.094867e+00 -1.940109e+00 4.000724e-01 3.175158e-01 3.369846e-01 -5.758781e-02 5.659562e-01 -6.821178e-01 1.434052e-02 
-8.251051e+00 -1.870368e+00 1.170986e+00 -6.981982e+00 -7.118035e+00 -5.219649e+00 -3.300911e+00 -1.395138e+00 -1.137944e+00 -9.071303e+00 4.404960e+00 6.143560e+00 -7.386911e-02 -5.641154e-01 -1.292621e+00 -3.456382e-01 -3.593681e-01 1.714390e-01 -6.903594e-01 4.105749e-01 -1.907791e+00 2.953503e-01 1.004911e+00 2.891525e-01 -1.642373e+00 1.371562e-02 
-1.001501e+01 -3.683006e+00 2.117652e+00 -9.033026e+00 -4.561365e+00 -4.501489e+00 -1.583519e+00 -2.302295e+00 -2.215090e-01 -1.037814e+01 3.232144e+00 3.010191e+00 -4.703522e-02 -3.237477e-01 -6.714480e-01 -4.928545e-01 -5.359760e-01 5.832137e-01 1.056460e+00 4.030817e-01 -1.601756e-01 1.997693e-01 5.661068e-01 6.605279e-01 -3.594911e-01 2.245375e-02 
-1.069785e+01 -4.753006e+00 3.107614e+00 -7.086428e+00 -2.242700e+00 1.532032e+00 -1.456557e+00 -1.812526e+00 2.258216e+00 -2.565289e+00 4.529047e+00 1.420572e-01 -2.157271e-02 -8.016674e-01 5.868341e-01 -2.759706e-01 6.451702e-01 1.480749e-01 1.556586e+00 -2.530089e-01 1.558742e+00 -1.591667e+00 7.675451e-01 1.251016e+00 -1.277047e-01 4.700921e-02 
-1.011707e+01 -2.688114e+00 1.448628e+00 -9.030652e+00 -4.474232e+00 1.824015e+00 -3.330730e+00 1.670878e+00 -1.079161e+00 -8.927337e+00 4.589172e+00 6.175506e+00 1.794547e-02 -1.116654e+00 1.329888e+00 -5.989317e-01 2.349805e-01 -1.411814e+00 1.439030e+00 -4.350078e-01 1.584035e+00 -1.629181e+00 9.748904e-01 1.147578e+00 1.503183e+00 7.907709e-02 
-1.220836e+01 5.663564e-01 1.256452e-01 -3.757318e+00 -6.421227e+00 -5.994716e-01 -3.692351e+00 4.411984e+00 -8.667453e+00 -5.958979e+00 9.981525e+00 3.922380e+00 1.286866e-01 -1.728105e+00 1.206268e+00 -6.087497e-01 -1.010116e+00 -1.177976e+00 2.437082e-01 -3.832633e-01 4.007245e-01 -6.037418e-01 1.345070e+00 -3.959343e-01 1.218927e+00 9.949195e-02 
-1.484302e+01 3.067513e-01 6.139777e-01 -9.522678e+00 -9.531171e+00 3.759413e+00 -2.640661e+00 2.505624e+00 -2.904578e+00 -3.806842e+00 6.243795e+00 8.635943e+00 2.732206e-01 1.407623e-02 5.296991e-01 9.395905e-01 -1.432282e+00 -8.519387e-02 -6.285906e-01 -8.421799e-01 -1.090526e+00 1.756672e+00 1.024218e+00 -3.615763e-01 1.218513e+00 9.823376e-02 
-1.697540e+01 -2.190988e-01 4.811902e-01 -1.189100e+01 -5.604110e+00 1.782874e+00 -3.717908e+00 -2.262767e-01 1.522152e-01 1.599814e+00 1.722065e+00 5.006472e+00 3.482495e-01 9.965024e-01 2.400685e-01 2.448567e+00 -1.202729e+00 1.006446e+00 -1.124393e+00 -1.444461e+00 -2.007033e+00 3.336987e+00 -1.085603e+00 -1.325235e+00 1.372852e+00 7.924028e-02 
-7.663167e+00 3.531089e-01 5.968808e+00 -1.212522e+01 -5.308760e+00 -2.510110e+00 -7.528851e+00 -1.462620e+00 3.294365e+00 -7.585641e+00 6.911021e+00 1.172602e+01 3.993328e-01 9.866945e-01 -2.874258e-01 2.441004e+00 1.211366e+00 1.768187e+00 -2.140839e+00 -1.115113e+00 -2.193311e-01 1.368574e+00 -1.794137e+00 -1.219363e+00 -6.482390e-01 4.925787e-02 
-1.081577e+01 1.743520e+00 9.691064e+00 -8.469689e+00 -3.500204e+00 -3.086677e+00 -8.470560e+00 -3.639060e+00 4.918012e+00 -9.497594e+00 3.021739e+00 9.241602e+00 4.618319e-01 6.844312e-01 -1.433132e+00 2.921046e-01 2.675924e+00 3.695461e-01 -1.326092e+00 1.962253e-01 9.338349e-01 7.722734e-01 -1.182991e+00 -1.515832e+00 -3.065635e+00 -7.662308e-03 
-1.298936e+01 -2.111687e+00 8.214063e+00 -5.176502e+00 -1.742188e+00 -4.510008e+00 -5.839898e+00 3.115360e+00 1.555394e+00 -7.228824e+00 -5.028558e-01 3.277184e+00 4.627188e-01 8.944174e-01 -2.135393e+00 -1.456320e+00 3.540725e+00 1.873397e+00 6.460463e-01 1.552938e+00 1.785394e+00 -5.398961e-01 1.488807e+00 -2.249864e+00 -5.435912e+00 -7.866476e-02 
-1.089015e+01 -6.152361e+00 8.190858e-01 -1.985736e+00 -5.539665e+00 -3.847637e+00 -3.581258e+00 2.153908e+00 4.883068e+00 -4.493552e+00 -2.150155e+00 -6.097285e+00 2.782450e-01 2.670626e+00 -1.626557e+00 -2.578294e+00 2.607249e+00 4.707787e-01 5.946273e-01 1.407506e+00 2.445924e-01 -6.368734e-01 3.107938e+00 -2.146046e+00 -4.566109e+00 -1.143029e-01 
-3.153893e+00 -6.375913e+00 3.123196e+00 2.336426e+00 5.077954e+00 1.100602e+00 -2.208815e+00 4.567865e+00 6.123567e-01 -2.643627e+00 -1.752353e+00 -7.784093e+00 9.780246e-02 3.088637e+00 -2.842464e-02 -2.456694e+00 1.029976e+00 -6.038030e-01 8.559394e-03 1.019011e+00 -2.465632e+00 3.538541e-01 2.660248e+00 -1.111806e+00 -2.720875e+00 -1.135512e-01 
-2.380379e+00 -4.257150e+00 -6.549726e-01 8.100901e-01 -4.556381e+00 -2.918845e+00 -3.248573e+00 -3.142350e+00 2.205163e+00 3.749499e+00 -7.083744e+00 -8.058304e+00 7.277554e-02 1.982566e+00 2.170753e+00 -1.754628e+00 -1.601579e+00 -3.220327e-01 1.171029e+00 1.465648e+00 -1.746277e+00 1.011260e-01 1.418061e+00 -9.221341e-01 -7.496371e-01 -8.570265e-02 
-1.801063e+00 -3.201416e+00 -3.332377e+00 -1.424537e+00 -5.252845e+00 -4.931607e+00 -9.111836e-01 -6.564672e+00 4.663617e+00 1.950890e+00 -3.595093e+00 -9.346682e+00 -2.302527e-03 -3.930513e-01 2.906627e+00 -2.108165e+00 -2.176378e+00 -2.342284e-01 2.182683e+00 3.354831e+00 1.513187e+00 1.809688e+00 9.684159e-01 -7.677279e-02 -4.771684e-01 -4.592847e-02 
-1.653732e+00 3.114156e+00 -4.726270e+00 -8.113151e+00 -1.984429e+00 5.023612e+00 3.098169e+00 -1.011210e+00 3.363068e+00 2.994934e-01 -5.839455e+00 -9.064177e+00 -1.002158e-01 -1.845042e+00 2.492071e+00 -8.701921e-01 -7.407721e-01 2.936322e+00 3.317412e+00 3.060967e+00 2.616528e+00 -8.571642e-01 -7.801834e-01 2.165660e+00 1.047606e+00 -8.183504e-03 
-5.482473e+00 4.471568e+00 -5.381980e+00 -4.083841e+00 2.620836e+00 8.042791e+00 1.139197e+01 1.106823e+01 9.081845e+00 3.923455e+00 -2.758361e+00 -9.667000e+00 -4.534423e-02 -2.220833e+00 6.213320e-01 1.411984e+00 9.509999e-01 1.729966e+00 2.050014e+00 4.554531e-01 3.159170e-01 -2.165493e+00 -3.199271e-01 2.921497e+00 4.408378e+00 3.155774e-03 
-9.764881e+00 4.366714e+00 -3.981131e+00 -1.564118e+00 6.188388e+00 7.181015e+00 5.904686e+00 1.123840e+00 -4.289773e+00 -1.137701e+00 3.326190e+00 -2.660116e+00 5.337888e-02 -1.795955e+00 -7.686731e-01 2.877668e+00 2.861026e+00 8.530977e-02 -2.447242e-01 -2.707973e+00 -2.474843e+00 -1.986865e+00 -2.275665e-01 2.923511e+00 5.484362e+00 1.382625e-02 
-8.849655e+00 -7.210350e-01 3.354976e+00 5.594587e-02 -6.894239e-01 4.239765e+00 -3.717685e-02 -6.052612e+00 -2.337428e+00 1.069852e+00 6.429571e+00 9.493176e+00 -6.332099e-02 -7.999218e-01 -5.203116e-02 3.311207e+00 1.587721e+00 -8.553122e-01 -1.570245e+00 -3.193849e+00 -2.898980e+00 -1.350398e+00 -9.606259e-01 5.217540e-01 3.016827e+00 -2.873719e-02 
-8.949915e+00 1.867092e+00 5.293591e+00 4.122086e+00 9.724939e-02 5.701505e+00 -4.727122e+00 -4.825003e+00 -8.616198e-01 5.884629e-01 4.184133e+00 8.777545e+00 -2.209616e-02 -2.212641e-01 8.602177e-01 2.542486e+00 2.588139e-01 -7.343713e-01 -1.509586e+00 -1.467183e+00 -5.327647e-01 1.026793e+00 -4.812873e-01 1.358018e-01 9.590159e-02 -4.973148e-02 
-9.889565e+00 5.461223e+00 6.536695e+00 1.011663e+00 1.389844e+00 9.313231e-01 7.386310e-01 -4.522505e-01 6.157777e-01 -1.742756e+00 -5.785623e-01 -3.016920e-01 -1.512927e-01 -2.915176e-01 1.490954e+00 3.914250e-01 -6.204789e-01 8.373783e-01 -1.460244e+00 2.724513e-01 5.020973e-01 9.682717e-02 -2.143596e-01 1.418998e+00 -1.210348e+00 -3.051399e-02 
-1.035125e+01 5.576673e+00 7.140440e+00 -7.479072e-01 1.476898e+00 1.287306e+00 -1.819135e+00 -4.340164e+00 -6.324090e-01 -2.137834e+00 7.509266e+00 2.716825e+00 -1.512927e-01 -1.413023e-01 5.753964e-01 -9.066994e-02 -1.127776e+00 4.805788e-02 -1.245097e+00 1.176501e+00 1.989193e-01 -2.645192e-01 1.778774e-01 2.430098e+00 -3.540675e-01 -2.583930e-02 
-9.606577e+00 4.878946e+00 4.388676e+00 -6.114523e-01 2.807643e+00 -8.543549e-01 -1.289136e-01 -3.784544e+00 -1.967897e+00 1.361202e+00 1.186199e+01 6.471795e+00 -1.512927e-01 5.533395e-01 5.833319e-01 5.771410e-01 -1.534469e-02 8.484115e-02 1.696036e+00 1.261872e+00 8.928958e-01 9.968866e-01 5.831483e-01 2.564221e+00 1.123909e+00 2.821851e-03 
-9.797920e+00 5.035213e+00 5.914250e+00 -7.052367e-01 -3.713607e-01 3.688601e-01 1.589154e+00 -2.164259e+00 -8.923782e-01 -7.412958e-02 1.011434e+01 3.620464e+00 -1.512927e-01 2.703437e+00 2.823515e+00 2.142281e+00 1.944904e+00 6.570683e-02 1.526780e+00 8.885874e-01 7.367051e-01 1.647012e+00 -2.482014e-01 -1.162091e+00 5.226445e-02 5.534927e-02 
-7.399531e+00 8.648613e+00 1.003549e+01 9.136043e-01 2.738179e+00 9.870728e+00 5.343844e+00 2.924276e+00 5.730196e+00 1.411327e-01 1.094001e+01 4.866033e+00 -1.371834e-01 4.712378e+00 4.118491e+00 2.631891e+00 3.684894e+00 -1.247724e+00 -5.202479e-01 -1.276128e-01 1.608095e-02 -1.035458e+00 -2.813271e+00 -1.551977e+00 -9.358738e-01 1.422995e-01 
2.062417e+00 1.780941e+01 1.502843e+01 8.214083e+00 1.840164e+00 3.558666e+00 -1.125772e-01 -4.011049e+00 3.753602e+00 -2.768806e+00 2.159805e+00 3.781029e+00 1.183990e-01 5.146839e+00 2.569935e+00 1.903598e+00 4.308690e+00 -1.049328e+00 -3.545210e+00 -1.795416e+00 -3.440841e-01 -3.647790e+00 -2.682332e+00 1.524477e-01 -7.706550e-01 1.745463e-01 
8.025145e+00 1.908430e+01 1.299104e+01 1.335336e+01 -4.536738e+00 -5.050497e+00 8.388758e-02 -2.780745e+00 -9.468175e+00 -1.135781e+01 8.079376e+00 1.712144e+00 4.253590e-01 3.893051e+00 4.350436e-01 8.890429e-01 2.630818e+00 -2.340086e+00 -3.642859e+00 -2.090545e+00 -1.884897e+00 -4.446729e+00 -2.485996e+00 1.677581e+00 -9.236781e-01 1.588108e-01 
8.223938e+00 1.266705e+01 1.395447e+01 1.461833e+01 -1.980543e+00 -9.896580e+00 -4.757947e+00 -1.032169e+00 -1.153214e+01 -7.736314e+00 1.230690e+01 1.344133e+00 4.401676e-01 1.762117e+00 -2.199750e+00 -4.510370e-01 6.562526e-01 -1.914414e+00 -4.363075e-01 -5.982650e-01 -1.585886e+00 -2.271602e+00 -1.593359e+00 2.961620e+00 -3.082312e-01 9.130004e-02 
8.984962e+00 1.339502e+01 1.501769e+01 1.086557e+01 -7.051898e+00 -1.615945e+00 -2.786197e+00 -7.989646e+00 -8.860576e+00 -9.805092e+00 1.425437e+01 1.466090e+00 4.959865e-01 8.212284e-01 -2.618854e+00 -5.352942e-01 -5.369307e-01 -2.481534e-01 2.179114e+00 -1.044077e+00 -2.059634e+00 1.099572e+00 3.203288e-01 3.103813e-01 2.931575e-01 3.721443e-02 
1.039310e+01 9.655305e+00 1.175992e+01 1.273924e+01 -6.474329e+00 -3.401481e-01 -1.668860e+00 -9.336030e+00 -7.908206e+00 -1.151196e+01 1.388041e+01 2.362899e+00 5.395855e-01 9.004711e-01 -1.719712e+00 -1.202918e+00 -9.562484e-01 3.688146e-01 2.723920e+00 -1.380888e+00 -1.510041e+00 2.761607e+00 -2.806827e-01 -1.577617e+00 -1.580951e-01 3.329587e-02 
1.104671e+01 7.495899e+00 1.141184e+01 1.160825e+01 -3.530612e+00 1.066856e+00 -6.681040e+00 -8.926988e+00 -5.782283e+00 -7.868346e+00 8.844527e+00 2.668548e+00 5.617222e-01 -3.471122e-02 -2.432235e+00 -1.863028e+00 -2.002179e+00 2.319550e+00 -4.503164e-02 -3.047738e+00 2.170278e+00 1.667232e+00 2.051918e+00 -2.952672e+00 -1.044780e+00 3.325139e-02 
1.169542e+01 7.018045e+00 9.742805e+00 9.465752e+00 -1.897113e+00 2.381622e+00 -9.714967e+00 -8.113705e+00 7.367475e-01 -1.010810e+01 7.123733e+00 -4.757094e-02 5.737791e-01 3.359606e-02 -2.957485e+00 -2.570406e+00 -3.299433e+00 1.043741e+00 -6.946473e-02 -1.589115e+00 1.376163e+00 1.953824e+00 4.246166e+00 -2.737899e+00 -1.277477e+00 4.750806e-02 
8.160243e+00 2.552467e+00 6.711108e+00 2.491421e+00 2.257244e+00 -3.201988e+00 -1.400183e+01 2.250582e+00 -4.846892e+00 -2.474300e-01 2.869345e+00 -2.552573e+00 6.451466e-01 -1.642262e-01 -2.885571e+00 -3.745054e+00 -3.423777e+00 -5.514558e-01 5.092515e-01 1.249458e+00 8.630264e-01 2.356342e+00 4.522557e+00 -2.473797e+00 -1.652086e+00 6.365781e-02 
1.200431e+01 -2.660404e+00 1.258260e+00 8.004913e-01 -4.149553e+00 1.446950e+00 -5.954040e+00 -8.044001e+00 1.393220e+00 5.908415e+00 3.178504e+00 -1.413923e+00 7.354136e-01 -5.997516e-01 -2.567672e+00 -3.472564e+00 -2.198328e+00 -1.707938e+00 8.266286e-01 3.797541e+00 7.887363e-01 1.203781e+00 4.332638e+00 -3.035140e+00 -7.455667e-01 6.402248e-02 
1.007113e+01 -2.092731e+00 -3.071155e+00 -1.178004e+00 -5.161671e+00 4.080449e+00 -2.314214e+00 -4.646707e+00 5.671194e+00 6.736180e+00 -1.551844e+00 -4.908709e+00 7.991940e-01 -5.333520e-01 -1.622807e+00 -3.333073e+00 -4.035344e-01 -1.367406e+00 1.424758e+00 5.009409e+00 3.883525e-01 -2.177741e-01 1.782855e+00 -1.977576e+00 -5.843706e-01 5.604551e-02 
7.741218e+00 -3.497718e+00 -2.728882e+00 3.088231e-01 -6.727343e+00 2.873546e+00 3.428929e+00 -7.213784e-01 1.496608e+00 8.063281e+00 -5.841374e+00 -2.597336e+00 8.168678e-01 -7.910663e-01 -1.040551e+00 -2.837458e+00 -2.261547e-01 6.785074e-01 1.133384e-01 3.813303e+00 1.931759e+00 -2.730202e+00 6.487352e-01 -1.524632e+00 -9.068094e-01 5.130189e-02 
7.625028e+00 -5.142912e+00 -7.960684e+00 7.195835e-01 -3.290890e+00 3.208506e+00 6.353729e+00 5.310336e-01 -5.987456e+00 7.589413e+00 -2.508596e+00 -4.882719e+00 8.846470e-01 9.579293e-02 -1.187393e+00 -2.507846e+00 -3.627487e-01 1.753247e+00 -6.192721e-01 2.872048e+00 6.889879e-01 -3.467258e+00 6.408172e-01 -6.228294e-01 -2.637560e-01 4.748598e-02 
9.272029e+00 -6.338069e+00 -1.048426e+01 -1.279076e+00 -1.692407e+00 2.449614e+00 8.778506e+00 -9.740776e-01 -6.428466e+00 8.725475e+00 -3.966278e+00 -5.960965e+00 9.491965e-01 8.518461e-01 -1.072420e+00 -2.310605e+00 -6.060125e-01 1.900522e+00 -4.343248e-01 1.421147e+00 1.131882e-01 -2.227169e+00 2.757879e-01 -3.995303e-01 1.250035e-01 4.299028e-02 
9.784693e+00 -6.609522e+00 -1.173269e+01 -2.197798e+00 1.087097e+00 1.196055e+00 9.371238e+00 -1.075418e+00 -7.702561e+00 9.609169e+00 -5.603539e+00 -4.545674e+00 9.704596e-01 5.944260e-01 -7.395486e-01 -1.001893e+00 -4.377506e-01 1.029960e+00 -1.501171e-01 4.922051e-01 3.808039e-02 -9.464369e-01 2.286028e-01 -6.854299e-01 -1.048918e-02 2.620046e-02 
1.092062e+01 -8.126511e+00 -1.239590e+01 -1.262549e+00 5.862736e-01 1.708148e+00 9.025909e+00 6.477886e-01 -8.781683e+00 8.432343e+00 -6.291554e+00 -2.140841e+00 9.889129e-01 2.710798e-01 -9.346817e-01 4.404869e-02 6.942032e-02 3.015833e-01 2.796938e-01 -1.642261e-01 5.218561e-01 -1.338172e+00 7.380298e-01 -8.579890e-01 -4.186597e-02 1.269386e-02 
9.772863e+00 -7.946434e+00 -1.201433e+01 -1.477433e+00 7.195682e-01 2.828653e+00 8.691052e+00 -8.949751e-02 -9.543032e+00 8.878993e+00 -4.773108e+00 -6.845227e+00 9.957911e-01 -3.002825e-02 -3.007988e-01 -1.338104e-01 2.453645e-01 2.416131e-01 2.412386e-01 -1.518669e-01 4.424514e-01 -1.411974e+00 9.820738e-01 -3.479217e-01 -7.714282e-01 6.200099e-03 
1.063334e+01 -1.034302e+01 -1.012320e+01 -1.292157e+00 -7.257462e-04 3.031784e+00 8.297468e+00 1.142243e+00 -1.219909e+01 1.278071e+01 -8.671438e+00 -5.020518e+00 1.000000e+00 -2.186997e-01 2.388542e-01 -2.434025e-02 -3.526356e-02 7.650590e-01 -1.204571e-01 -3.674840e-01 1.094783e-01 -4.493431e-01 7.635256e-01 -5.497596e-01 -4.659342e-01 -1.125604e-03 
9.778189e+00 -7.005260e+00 -1.353809e+01 -9.561713e-01 2.588662e+00 1.740429e+00 8.976125e+00 8.896118e-01 -1.305372e+01 1.234535e+01 -6.153205e+00 -6.962977e+00 9.959165e-01 -8.552112e-02 7.702903e-02 3.030174e-01 -2.178039e-01 5.219923e-01 -6.977332e-02 -8.006443e-01 5.849122e-01 8.223219e-02 -4.934368e-02 -5.144562e-01 7.107290e-01 -4.432231e-03 
9.824455e+00 -7.402826e+00 -1.175572e+01 -1.699498e+00 3.477021e+00 1.649974e+00 7.045954e+00 7.056254e-01 -9.273052e+00 1.051679e+01 -8.350304e+00 -4.411637e+00 9.832222e-01 -9.775615e-02 2.502967e-01 -5.708056e-02 -8.658014e-02 6.867539e-01 -6.309713e-01 -6.569662e-01 5.709501e-01 3.320192e-01 -7.499567e-01 1.928581e-01 2.053917e-01 -4.487532e-03 
9.749702e+00 -9.031386e+00 -9.682983e+00 -2.362782e+00 1.590656e+00 3.170692e+00 5.313588e+00 3.053372e+00 -1.059489e+01 9.764235e+00 -7.505956e+00 -3.596023e+00 9.820188e-01 1.838708e-02 -2.686412e-01 4.418884e-01 2.015536e-02 1.147549e-01 -2.665800e-01 -9.527467e-01 4.091054e-01 9.780927e-01 -1.019353e+00 -4.116500e-01 8.743939e-01 -5.165053e-03 
1.015881e+01 -8.078475e+00 -1.233616e+01 -1.021752e+00 3.932046e+00 -8.382037e-01 6.843905e+00 2.915113e+00 -1.176841e+01 1.032149e+01 -7.030772e+00 -5.677037e+00 9.845112e-01 1.424398e-01 -2.726713e-01 -2.502328e-01 4.141999e-01 -7.647669e-03 -1.806858e-01 -6.079757e-01 -7.332301e-03 1.013515e+00 -9.024984e-01 -4.302444e-02 4.062653e-02 -1.438475e-03 
9.702950e+00 -8.010642e+00 -1.103843e+01 -1.194267e+00 2.934925e+00 1.651618e+00 4.313415e+00 1.830395e+00 -6.915581e+00 7.346239e+00 -8.871222e+00 -1.958307e+00 9.694468e-01 2.981206e-01 -4.766655e-02 -5.803908e-01 7.720499e-01 -3.318931e-01 2.292473e-01 -8.942388e-01 -6.698695e-01 2.398433e+00 -1.827658e+00 4.937127e-01 -6.022298e-01 -2.895928e-03 
1.056003e+01 -9.276555e+00 -1.232916e+01 -2.127557e-01 2.766649e+00 1.506081e+00 4.506162e+00 1.280453e+00 -6.045132e+00 7.213297e+00 -7.882793e+00 -5.027362e+00 9.823158e-01 9.885783e-02 -5.996036e-03 2.344112e-02 5.820898e-01 -3.455193e-01 -2.395206e-01 -7.201185e-01 -6.655278e-01 2.548637e+00 -1.396982e+00 5.842905e-02 -3.334060e-01 -5.703092e-03 
1.103969e+01 -8.670679e+00 -1.258844e+01 1.092969e+00 5.138892e-01 3.144786e+00 2.011266e+00 5.213553e-01 -1.464366e+00 2.180039e+00 -4.611382e+00 -6.932009e+00 9.686369e-01 -9.286518e-02 -2.129278e-02 6.161874e-01 2.852387e-01 -2.939347e-01 -4.327331e-01 -9.297517e-01 2.799209e-01 5.925607e-01 9.706917e-01 -1.380726e+00 2.085352e-02 -5.692983e-03 
9.984723e+00 -7.778437e+00 -1.144395e+01 7.450786e-01 3.414968e+00 -2.782390e+00 4.394387e+00 2.419937e-01 -1.750834e+00 5.919675e+00 -8.868546e+00 -4.857216e+00 9.564007e-01 -5.709456e-01 5.766785e-01 8.368139e-01 3.952374e-01 -7.016932e-01 -8.644131e-01 -1.064596e+00 6.220175e-01 8.261964e-01 1.229632e+00 -2.104985e+00 6.840160e-01 -9.673285e-03 
9.526278e+00 -8.866165e+00 -8.400099e+00 -2.469912e-01 1.141092e+00 1.632189e+00 -2.794559e-01 3.749229e+00 -6.099926e+00 1.284651e+01 -1.528198e+01 -1.939113e+00 9.539394e-01 -5.109742e-01 5.092932e-01 1.413837e+00 -2.524362e-01 -7.322780e-01 -1.259804e+00 -7.664114e-01 3.626954e-01 1.504659e+00 1.182095e+00 -3.113389e+00 1.549254e+00 -1.240217e-02 
8.462010e+00 -6.295420e+00 -1.023926e+01 2.433412e+00 -1.055418e+00 -2.059686e+00 3.285441e-01 2.776603e+00 4.036297e-01 8.028221e+00 -1.307242e+01 -4.103730e+00 9.412981e-01 -2.720876e-01 3.574262e-01 1.978192e+00 1.435658e-01 -2.391240e+00 -7.741805e-01 -2.865892e-01 2.421045e-01 2.102868e+00 -6.293092e-01 -1.728792e+00 1.354328e+00 -2.058941e-02 
9.246178e+00 -6.865722e+00 -6.121597e+00 -1.013378e+00 -9.123081e-01 -3.515588e+00 2.121303e-01 1.067528e+00 4.981698e+00 7.036243e+00 -1.807639e+01 4.375179e-01 9.141773e-01 -3.265581e-01 6.016203e-01 2.154026e+00 7.902613e-01 -3.285478e+00 -1.219344e+00 1.231012e+00 -9.412262e-01 2.411682e+00 -2.014351e+00 -3.741928e-01 1.558424e+00 -2.737461e-02 
8.764335e+00 -6.991528e+00 -2.692244e+00 1.846101e+00 -7.514533e+00 -4.079405e+00 2.715648e+00 2.793367e+00 3.222692e+00 5.678262e+00 -1.611530e+01 7.261102e-01 8.733347e-01 -2.530310e-01 4.276967e-01 2.797289e+00 1.578628e-01 -3.259642e+00 4.926363e-01 2.653594e-01 -1.156549e+00 1.290948e+00 -1.282279e+00 -2.931946e-01 1.749736e+00 -2.837903e-02 
7.742324e+00 -5.510010e+00 -1.403477e+00 3.997971e+00 -1.205674e+01 -3.454670e+00 4.682050e+00 -9.652836e-01 4.548954e+00 3.949731e+00 -1.563150e+01 3.438089e+00 8.510481e-01 -3.467039e-01 5.721698e-01 2.048466e+00 6.941935e-01 -3.184642e+00 1.352948e+00 -7.675277e-01 -1.040449e+00 1.164474e+00 -1.995803e+00 1.649990e+00 7.420742e-01 -2.175667e-02 
7.948782e+00 -4.834792e+00 1.388124e+00 7.170510e-01 -1.178141e+01 3.730368e-01 -5.796187e-01 -1.989737e+00 7.074741e+00 3.160082e+00 -1.576084e+01 3.144662e+00 8.309675e-01 -1.426921e-01 7.746867e-01 1.244911e+00 -4.539065e-02 -1.164818e+00 1.303139e+00 -2.070050e+00 -1.161766e+00 1.863787e+00 -1.984149e+00 1.762729e+00 7.478902e-01 -1.671921e-02 
7.920434e+00 -5.083241e+00 2.080550e+00 3.022114e+00 -1.470208e+01 1.022930e+00 -1.977875e+00 -1.743166e+00 8.878045e+00 -1.683680e+00 -1.000367e+01 2.938613e+00 8.265775e-01 5.723605e-01 7.303948e-01 1.895396e-01 8.373521e-01 4.018508e-01 -5.239728e-01 -2.031903e+00 -1.322777e-01 4.531962e-01 -1.296869e+00 2.240636e+00 -1.272594e-01 -2.178159e-02 
7.961820e+00 -3.331479e+00 1.790299e+00 2.107076e+00 -1.201595e+01 1.974907e-01 -4.304642e+00 -2.626521e+00 1.037708e+01 -1.425779e+00 -1.011557e+01 4.715300e+00 8.019739e-01 1.244360e+00 7.808692e-01 -5.794274e-01 2.492373e+00 2.141599e+00 -1.512403e+00 -1.343747e+00 8.557623e-01 -1.534023e+00 -4.987704e-01 2.416199e+00 -3.637765e-01 -4.688883e-02 
1.059761e+01 -2.609693e+00 -6.568661e-01 7.489718e+00 -9.930217e+00 -5.986761e+00 -3.614952e+00 -1.308280e+00 5.163766e+00 -2.416840e-01 -7.250952e+00 2.016474e+00 7.566370e-01 1.410383e+00 1.434986e+00 1.768548e-01 2.951059e+00 4.238513e+00 -1.957098e+00 -2.911592e+00 3.695283e-02 -2.815357e+00 -1.786560e-01 3.201218e+00 -3.789307e-01 -5.592995e-02 
1.283199e+01 -2.167220e+00 -1.403050e-01 1.094512e+01 -3.459345e+00 -3.684130e+00 -6.479816e+00 2.071631e+00 1.261767e+00 -5.476761e-02 -5.056201e+00 1.786849e+00 6.314937e-01 9.417223e-01 1.145218e+00 1.141949e+00 2.535070e+00 4.658881e+00 -2.298435e+00 -2.719370e+00 -5.241622e-01 -3.782020e+00 6.022006e-01 3.630558e+00 -4.416105e-01 -4.411762e-02 
1.253726e+01 1.509559e+00 3.930126e+00 1.335839e+01 2.212179e+00 -6.821752e+00 -1.544825e+01 -3.907478e+00 -6.410831e-01 -3.262465e+00 3.472737e+00 2.508184e+00 6.321679e-01 -8.916707e-02 2.722815e-01 1.817561e+00 1.107100e+00 3.458741e+00 -9.715780e-01 -2.139850e+00 -1.500582e+00 -3.237085e+00 1.345853e+00 3.758486e+00 -1.035089e+00 -1.550894e-02 
1.170060e+01 3.349855e-01 5.206548e+00 1.184809e+01 5.207252e+00 -1.087719e+01 -1.198485e+01 -3.947733e+00 -5.630597e+00 3.095615e+00 2.675375e+00 2.261392e+00 6.436204e-01 -3.319655e-01 -1.079866e+00 -2.871383e-01 -3.358337e-01 4.048924e-01 -1.087571e+00 1.129418e+00 -3.147500e-01 -2.553898e+00 1.565703e+00 2.776552e+00 -2.146393e+00 3.139514e-02 
1.071747e+01 -2.499388e+00 5.757511e+00 1.257373e+01 3.030190e+00 -7.248122e+00 -1.156169e+01 -5.801510e+00 -7.575477e+00 4.912390e+00 7.675689e+00 -3.396244e+00 6.730289e-01 -5.228477e-01 -1.718048e+00 -2.054493e+00 -5.389632e-01 -1.161262e+00 -2.224391e+00 5.403005e+00 2.289948e+00 -1.419994e+00 1.873719e+00 -9.945528e-01 -2.936981e+00 4.277580e-02 
1.208206e+01 -5.562078e+00 -2.489689e+00 9.658276e+00 -1.843888e+00 -8.908802e+00 -2.776008e+00 1.444898e+00 -8.040524e+00 3.686321e+00 6.725084e+00 -5.992899e+00 7.680389e-01 -1.069398e+00 4.235381e-01 -1.860060e+00 -9.877586e-01 -1.419655e-01 -8.964422e-01 5.314815e+00 2.640969e+00 1.591029e-01 1.598090e+00 -2.871922e+00 -2.906952e+00 1.192983e-02 
9.732296e+00 -4.132151e+00 -2.494224e+00 1.175848e+01 -6.855941e-02 -1.892790e+01 6.962355e+00 4.845946e+00 -6.536091e+00 5.810779e+00 -3.524881e+00 -8.049574e+00 7.838377e-01 -1.394367e+00 2.415631e+00 -9.061499e-01 -4.767333e-01 1.380909e+00 4.591493e-01 3.962109e+00 3.764903e+00 1.386428e+00 1.203240e+00 -3.977906e+00 -2.848144e+00 -3.055780e-02 
6.846199e+00 3.269057e+00 3.211498e-02 7.316922e+00 6.046799e+00 -9.519511e+00 5.327205e+00 3.933381e+00 -5.354776e+00 1.063687e+01 -6.083951e+00 -9.946703e+00 6.478652e-01 -1.682979e+00 3.196921e+00 8.290709e-01 -4.040117e-01 2.348837e+00 2.949123e+00 1.432409e+00 2.847328e+00 2.641200e+00 2.650905e-01 -2.358877e+00 -7.691204e-01 -7.865854e-02 
6.363563e+00 5.163198e+00 -3.414059e-02 1.136074e+01 5.989393e+00 -4.647021e+00 4.197248e+00 1.177876e+01 -1.986214e+00 7.453314e+00 -5.809322e+00 -1.566006e+01 5.803268e-01 -1.357646e+00 1.255096e+00 6.483258e-01 -1.141743e+00 1.851214e+00 5.419047e+00 6.163075e-02 4.848707e-01 2.492266e+00 -2.566786e-02 7.484238e-01 2.629894e+00 -9.063614e-02 
5.351536e+00 5.774852e+00 4.256241e-01 7.837087e+00 6.871319e+00 -1.303627e+00 5.768589e+00 1.221513e+01 2.890536e+00 4.190506e+00 -3.927082e+00 -6.033258e+00 4.765016e-01 -8.926099e-01 -1.345891e+00 5.977066e-01 -2.101883e+00 1.200079e+00 4.314792e+00 -1.290169e-02 -1.179090e+00 2.539128e+00 -5.027895e-01 1.404602e+00 4.210841e+00 -7.422820e-02 
3.691397e+00 8.904297e-01 5.506511e-01 5.789684e+00 8.775249e+00 4.059395e+00 7.049816e+00 3.129426e+00 1.802585e+00 8.905622e+00 -8.611970e-01 3.143171e+00 4.163387e-01 -7.064862e-01 -2.310174e+00 7.355846e-01 -3.136018e+00 9.788494e-01 3.251947e+00 -1.415498e-01 -4.040157e+00 1.099796e+00 8.581953e-02 1.530275e-02 4.196304e+00 -6.357266e-02 
3.719233e+00 -1.324013e+00 2.728252e+00 -4.069641e-01 1.065426e+01 7.701242e+00 3.836412e+00 2.362599e+00 5.446465e+00 7.396770e+00 -1.535006e+00 1.705884e+00 3.587182e-01 -2.348259e-01 -2.110423e+00 1.843143e-03 -2.210724e+00 2.757077e-01 9.090719e-01 -6.051207e-01 -2.918098e+00 4.961432e-01 4.264145e-02 -1.778237e+00 1.327112e+00 -4.904620e-02 
3.647283e+00 -2.838239e+00 2.492469e+00 -1.973219e-01 8.992167e+00 7.110279e+00 4.455588e+00 -3.495759e+00 2.234799e+00 6.279280e+00 -6.928846e+00 1.451887e+00 3.213552e-01 -3.024584e-01 -5.014732e-01 -2.189449e-01 -1.852998e+00 -6.756606e-01 -1.040515e+00 -7.889525e-01 -8.556088e-01 1.580880e-02 -5.204459e-01 -1.910369e+00 -2.318048e-01 -5.872288e-02 
4.199463e+00 -2.912927e+00 -5.360689e-01 -2.230310e-01 8.141398e+00 1.716290e+00 4.040100e+00 9.372317e-01 5.155145e+00 5.716885e+00 -9.784441e+00 1.447943e+00 2.787624e-01 -3.527570e-01 2.974013e-01 -1.269494e+00 -1.242933e+00 -1.533314e+00 -2.105352e+00 -4.026854e-01 -3.900542e-01 -6.577846e-01 -7.481041e-01 -1.362420e+00 -1.224832e+00 -6.061675e-02 
1.938990e+00 -8.224795e-01 1.088087e+00 -3.567275e+00 6.653378e+00 1.849296e+00 3.003210e+00 -4.359344e-01 2.027289e+00 7.143335e+00 -6.288326e+00 2.113118e+00 1.627023e-01 -7.164711e-01 5.453079e-01 -1.384862e+00 -1.413326e+00 -1.702713e+00 -1.258064e+00 3.112328e-03 5.681040e-01 1.050337e-01 -1.016655e+00 5.954314e-01 -7.690393e-01 -7.098807e-02 
2.809594e+00 -8.448863e-01 -2.917027e+00 -4.936651e+00 4.157090e+00 -1.950259e-01 2.549175e+00 -1.117584e+00 2.261298e+00 3.224221e+00 -8.667364e+00 -4.748889e+00 1.349609e-01 -6.222236e-01 1.281343e+00 -1.206017e+00 -1.103725e+00 -1.173088e+00 8.953230e-01 1.438543e+00 2.470437e-01 -1.573343e+00 -2.612060e+00 7.535400e-01 -8.798066e-01 -6.381794e-02 
7.598624e-01 -1.145720e+00 -3.241364e+00 -4.907140e+00 2.470754e+00 1.775615e+00 5.216612e+00 3.721688e-01 4.206891e+00 2.442336e+00 -4.510227e+00 7.051058e-01 3.831559e-02 -3.176668e-01 1.451328e+00 -8.124182e-01 -1.948687e-01 -4.378957e-01 1.629149e+00 1.323493e+00 9.057590e-01 7.763134e-01 -2.433336e+00 -5.563116e-02 -1.033186e+00 -5.027530e-02 
1.677909e+00 3.655410e+00 -4.401427e+00 -5.071723e+00 4.367272e+00 6.229745e+00 1.012611e+01 1.768399e+00 -3.801372e+00 -4.992916e+00 -6.905790e+00 -2.247084e+00 2.186602e-02 -4.807190e-01 1.717638e+00 3.092811e-01 -3.392867e-01 2.757845e-01 1.378687e+00 -9.240277e-02 1.088143e+00 1.857727e+00 -1.694101e+00 7.327590e-01 1.172370e+00 -5.430027e-02 
9.164982e-01 4.184011e+00 -2.231804e+00 -4.474082e+00 4.358809e+00 6.782653e+00 5.832206e+00 2.649869e+00 8.940191e+00 -9.147733e-01 -7.447269e+00 -4.303713e+00 -3.212678e-02 -5.128589e-01 1.757213e+00 1.530747e+00 7.341505e-01 1.451410e+00 3.011332e-01 -1.465237e+00 1.217132e+00 2.406753e+00 -6.389165e-02 1.124957e+00 1.011310e+00 -4.617352e-02 
3.276811e-01 5.078439e+00 -1.875401e+00 -6.849613e+00 4.591985e+00 4.194890e+00 1.779364e+00 3.184278e+00 9.183281e+00 -3.567729e+00 -3.535048e+00 3.617371e+00 -1.013192e-01 -6.711833e-01 9.095756e-01 1.705481e+00 1.076808e+00 1.481637e+00 -3.373153e-01 -1.775575e+00 1.180011e+00 1.767341e+00 -2.715489e-01 1.610850e+00 1.229449e+00 -3.646704e-02 
-1.129318e+00 6.928832e+00 3.149357e+00 -3.474419e-01 9.615449e+00 4.298709e+00 2.063804e+00 5.749889e+00 9.748330e+00 1.410284e+00 -5.708122e-01 2.829429e+00 -1.309594e-01 -5.890852e-01 1.528326e-01 -1.580348e-01 9.049598e-01 5.674161e-01 -6.414691e-01 -6.327498e-02 -1.072315e+00 -1.699038e+00 3.811067e-01 2.334226e+00 1.589590e+00 -1.563895e-02 
-6.550994e-01 6.830878e+00 1.435399e+00 -1.751003e+00 9.147137e+00 5.785141e+00 3.132442e+00 6.118443e+00 4.631265e+00 -7.513189e+00 -2.289769e+00 3.335876e-01 -1.110529e-01 -4.279336e-01 -3.732820e-01 -7.950980e-01 9.151721e-02 -1.656545e+00 -5.799249e-01 8.841876e-01 -2.320297e+00 -2.188773e+00 9.436585e-01 1.465260e+00 -4.627004e-02 2.172768e-03 
-1.537538e+00 4.071955e+00 -4.677378e+00 -2.498589e+00 4.918314e+00 2.780183e+00 4.839293e+00 -4.178791e+00 2.721008e+00 2.963490e+00 3.601223e+00 5.286127e+00 -1.054547e-01 -1.843381e-01 -3.077949e-01 -1.017695e+00 -1.041104e+00 -3.325408e+00 -1.055346e+00 6.080104e-01 -1.177679e+00 -1.194496e+00 -5.853682e-02 1.476406e+00 6.168002e-01 7.682419e-03 
-1.607877e+00 4.640468e+00 -1.937523e+00 -5.316454e+00 -1.342171e+00 2.054529e+00 4.812557e+00 -3.452866e+00 1.753077e+00 3.739598e-01 1.705235e+00 2.157672e+00 -1.032077e-01 -1.503632e-01 -2.386989e-01 -1.774657e-01 2.807190e-01 -1.668848e+00 -9.513055e-01 -3.265548e-01 7.729574e-01 -4.981376e-01 3.924707e-01 1.278684e+00 1.882046e-01 7.601166e-03 
-1.574619e+00 6.485063e+00 -2.526579e-01 -3.770238e+00 -1.766938e+00 8.872851e-01 4.263798e+00 4.647147e+00 5.214944e+00 -2.825975e+00 4.813718e+00 5.001388e+00 -9.646988e-02 3.093723e-01 -2.371429e-01 5.359191e-01 1.211732e+00 7.317325e-01 -2.821962e-01 -1.506013e+00 8.840683e-01 -6.411577e-01 -9.661299e-01 -6.293114e-01 -1.651292e+00 1.165234e-02 
-1.388374e+00 4.430830e+00 -1.664289e+00 2.884164e-01 4.145523e+00 1.975062e+00 1.787415e+00 5.570261e+00 8.936087e-01 -2.656103e+00 3.497403e+00 1.416980e+00 -7.753944e-02 -4.903936e-02 -1.682359e+00 -7.861514e-01 1.470151e+00 2.290173e+00 -3.357071e-01 -2.559916e+00 -6.950513e-01 -6.320106e-01 -1.323610e+00 -1.140292e+00 -1.262237e+00 1.732700e-02 
-1.004276e-01 2.991059e+00 -2.134399e+00 7.576332e-01 5.833130e+00 1.408935e+00 -1.178201e+00 -4.270013e+00 -5.504692e-02 -3.521284e-01 -4.414182e-01 -2.599989e+00 -6.002712e-02 -4.809507e-01 -1.953555e+00 -4.542418e-01 8.144789e-01 1.338370e+00 -4.711107e-01 -2.105168e+00 -7.389349e-01 -7.119890e-01 -1.781554e+00 -4.736000e-01 -9.225653e-02 1.753600e-02 
-2.590170e+00 -2.024328e+00 -4.927410e+00 -2.296357e-01 6.308660e+00 1.151689e-01 -5.266026e+00 -2.469542e+00 1.228019e+00 -7.481015e+00 -1.368656e+00 -3.528256e-01 -3.479409e-02 -5.467494e-01 -9.208353e-01 4.946017e-01 1.200543e-01 -8.584692e-01 -4.162655e-01 -9.125612e-01 6.840715e-01 1.025967e+00 -4.849373e-01 1.579483e+00 1.485873e+00 1.444149e-02 
-3.378475e+00 -5.513549e-02 -8.923068e-01 5.611830e-01 3.843344e+00 -5.383214e-01 -2.735322e+00 4.972374e+00 1.487794e+00 -9.321289e+00 4.878747e+00 5.425008e+00 -3.016257e-02 -8.477678e-01 -3.097882e-01 8.171717e-01 2.620583e-01 -2.022632e+00 -4.057407e-01 2.238022e-01 2.231864e+00 9.163935e-01 1.204586e-01 2.833005e+00 1.226662e+00 1.344360e-02 
-2.483098e+00 1.349751e+00 1.876726e-01 9.869132e-01 8.480694e-01 8.673628e-01 -1.996831e+00 4.369425e+00 5.252025e+00 -5.962093e-01 8.734733e+00 4.833845e+00 -2.026427e-02 -5.977067e-01 8.332806e-01 1.455501e+00 4.379476e-01 -1.293082e+00 -5.881949e-01 -1.797330e-01 -1.229448e-01 -6.560191e-01 1.411041e+00 2.106321e+00 -3.406744e-01 1.132002e-02 
-4.392803e+00 -2.449214e-01 -6.060820e-01 1.459651e+00 -1.549736e+00 -9.958659e-01 -1.693787e+00 3.469821e+00 2.514917e+00 -3.192238e+00 8.671915e+00 9.399861e-01 -7.402897e-05 -7.293764e-01 4.750015e-01 1.090424e+00 9.642116e-01 8.195955e-01 -2.104790e-01 -4.440267e-01 -1.500863e+00 -1.063275e+00 5.584470e-01 -7.030671e-01 -2.586221e+00 1.132816e-02 
-5.071539e+00 2.236968e+00 2.206981e+00 1.510869e+00 2.539792e+00 -2.597033e+00 -6.685458e+00 -2.332990e+00 -2.565638e+00 -3.490337e+00 7.266365e+00 1.863134e-01 6.761730e-03 -7.779692e-01 3.103792e-01 1.012467e+00 1.951571e+00 2.981877e+00 4.720002e-02 -1.529610e+00 -2.452751e+00 -1.743506e+00 -1.796524e+00 -1.442550e+00 -1.861655e+00 1.508493e-02 
-5.731136e+00 1.876264e+00 3.550157e+00 5.120263e+00 7.095460e+00 1.414816e-01 -2.611142e+00 8.192661e-01 8.025086e-02 -5.081990e+00 2.097596e+00 -5.182333e+00 1.296520e-02 -8.495836e-02 7.986487e-01 4.838257e-01 1.032309e+00 2.734500e+00 9.237208e-02 -1.716913e+00 -1.323464e+00 -9.219193e-01 -6.897792e-01 -8.820602e-01 -5.787428e-01 1.411253e-02 
-5.703777e+00 1.841054e+00 3.171889e+00 8.914460e+00 1.143485e+01 5.346891e-01 -9.186204e+00 -6.569052e+00 -2.248173e+00 -8.633956e+00 4.809140e+00 -1.413269e+00 4.864079e-02 1.244789e-01 6.258656e-02 -8.307811e-01 1.893765e-01 2.168766e-01 -8.601834e-01 -1.285672e+00 -4.299825e-01 -4.658627e-01 -1.571633e+00 -3.098520e-01 -5.359902e-01 1.151984e-02 
-4.501476e+00 3.946279e+00 1.330593e+00 2.919400e+00 7.675234e+00 -2.099867e+00 -9.027981e+00 -1.029466e+00 -2.253412e+00 -4.069325e+00 5.490226e+00 -1.153936e+00 4.954910e-02 1.506074e-01 1.204931e-01 -5.158218e-01 -8.481488e-01 -6.939427e-01 -5.725636e-01 -5.217080e-01 -3.431129e-01 -9.620750e-02 -5.625920e-01 5.051585e-01 3.630782e-01 9.223461e-03 
-5.063975e+00 1.514893e+00 -8.371425e-01 3.558183e+00 3.334288e+00 -5.777276e+00 -9.905400e+00 -3.558536e+00 -3.728120e+00 -1.185484e+01 4.020790e+00 -4.507836e+00 4.606897e-02 -3.348657e-01 -2.335223e-02 -3.235874e-01 -1.516980e+00 -1.765177e+00 1.030897e-01 1.386250e+00 7.596181e-01 5.187302e-02 -4.382629e-02 -5.861816e-01 -3.271796e-01 6.172168e-03 
-5.298000e+00 2.641810e+00 2.975564e+00 3.557658e+00 7.676030e+00 4.346459e-01 -4.860084e+00 -2.401556e+00 3.391865e-01 -6.284509e+00 5.017563e+00 -1.819658e+00 6.036842e-02 -1.652044e-01 4.451373e-02 7.098536e-01 -3.699097e-01 -1.062619e+00 6.779643e-01 1.948653e+00 1.226207e-01 -1.042529e-01 1.245411e-01 -8.668029e-01 3.844380e-01 3.668618e-03 
-6.979844e+00 2.376527e+00 7.314665e-01 1.010433e+00 2.608573e+00 -2.171186e-01 -4.338902e+00 -2.084917e+00 -3.285108e+00 -7.745495e+00 2.114564e+00 -2.716306e+00 7.409197e-02 2.317259e-01 5.542494e-01 1.098539e+00 -3.642845e-01 -6.169614e-01 6.649534e-01 1.846698e+00 6.059113e-01 -1.871494e-01 1.349031e+00 -6.731168e-01 1.045280e+00 9.135723e-04 
-4.369564e+00 3.738030e+00 4.095556e+00 2.343726e+00 2.724998e+00 -1.490124e+00 -2.067969e+00 -1.153172e+00 -2.996182e+00 -5.501290e+00 2.109325e+00 -1.275110e-01 5.388069e-02 4.467153e-01 3.553943e-01 5.604075e-01 -1.094570e-01 -9.785641e-01 -5.122545e-01 7.855163e-01 3.428514e-01 -6.381813e-01 3.810644e-01 -5.821716e-01 5.973090e-01 -3.318673e-03 
