-5.021978e+00 3.587693e+00 -6.596979e-01 7.498083e-01 6.887000e+00 4.913862e+00 1.925010e+00 1.033613e+01 -7.726186e-01 5.643590e+00 -7.026273e-01 -1.175867e+00 -1.512927e-01 -8.212374e-01 -1.605891e-01 6.609281e-01 6.215200e-01 3.584374e-01 -5.327241e-01 3.490067e-01 6.344917e-02 -6.698762e-01 -1.476269e+00 -6.269783e-01 -1.186218e+00 0.000000e+00 
-7.119555e+00 2.777313e+00 3.683320e-01 1.889476e+00 8.947612e+00 4.022093e+00 4.757420e+00 8.152896e+00 -3.627171e+00 7.335914e+00 -9.381716e-01 -2.666871e+00 -1.512927e-01 -1.176035e+00 -7.103058e-01 3.341485e-01 3.213194e-01 1.995284e-01 -1.629137e+00 -3.170825e-01 -7.574481e-01 -4.633319e-01 -1.313798e+00 -5.373901e-01 -1.377151e+00 0.000000e+00 
-8.079377e+00 3.189937e+00 2.130927e+00 3.287575e+00 7.648880e+00 2.696126e+00 2.253839e+00 1.174500e+01 -2.694724e+00 -2.583919e+00 -3.719747e+00 -6.361453e+00 -1.512927e-01 -1.154283e+00 -1.070630e+00 -5.782902e-02 -1.272578e-02 6.701419e-01 -7.470625e-01 -9.518959e-02 -1.019472e+00 -8.168852e-03 -1.005423e+00 -1.206719e+00 -9.912989e-01 0.000000e+00 
-9.373454e+00 2.350419e-01 -3.842682e-01 1.087522e+00 7.503701e+00 -2.122954e+00 1.751830e-01 5.844462e+00 -2.128226e+00 3.188354e+00 -1.881018e+00 -5.468827e+00 -1.512927e-01 -4.486670e-01 -5.156355e-01 -1.570156e-01 1.517737e-01 1.114454e+00 4.565144e-01 -8.070232e-01 -3.243952e-01 7.064723e-01 1.223121e-01 -6.662579e-01 8.067396e-01 0.000000e+00 
-9.666442e+00 -4.943238e-01 -5.725430e-01 1.087156e+00 1.095966e+01 4.251073e+00 3.740180e+00 6.392991e+00 -1.562935e+00 2.690257e+00 -6.264797e+00 -4.731383e+00 -1.512927e-01 -6.036602e-01 -3.624928e-01 -5.662101e-01 5.466195e-01 2.216219e+00 9.399149e-01 -1.068699e+00 6.439337e-01 7.427775e-01 4.541136e-01 -8.290352e-01 1.486104e-01 1.452215e-02 
-8.569358e+00 2.041266e+00 9.349893e-01 3.748554e+00 1.286449e+01 5.527191e+00 -2.086665e-02 9.206924e+00 -6.607034e-01 5.310387e+00 -2.996936e+00 5.517917e-01 -1.512927e-01 -1.992735e-01 1.558916e-01 4.230319e-01 1.344973e+00 1.938797e+00 1.245491e+00 -1.235206e+00 1.853896e+00 7.357579e-01 -3.340671e-01 -1.069822e+00 -3.318112e-01 7.261074e-03 
-1.149973e+01 4.743612e-01 -1.359752e+00 4.690156e+00 1.604958e+01 3.570628e+00 -2.991632e+00 1.328344e+01 2.854027e-01 -1.374368e+00 -7.306964e+00 -8.628711e+00 -7.868195e-02 6.172943e-01 3.875480e-01 1.089456e+00 1.390967e+00 2.749096e-01 8.216248e-02 -1.951896e+00 7.388590e-02 5.086575e-01 3.914692e-01 2.036166e-01 -6.863405e-01 0.000000e+00 
-9.453179e+00 5.301573e-01 2.124496e+00 6.010885e+00 1.465273e+01 4.444725e+00 -2.634941e+00 1.166872e+01 6.263951e-01 3.550330e+00 -6.709045e+00 -5.179220e+00 -1.512927e-01 1.289964e+00 6.798959e-03 2.197099e+00 -2.135548e-01 -1.650890e+00 -5.805339e-01 -1.373951e+00 -1.587567e+00 -1.076312e+00 -3.266953e-01 4.509754e-01 3.263470e-01 1.865828e-03 
-6.138060e+00 2.198971e+00 4.279985e+00 6.910826e+00 1.144009e+01 5.203118e+00 -4.712261e+00 5.531524e+00 3.368031e-01 5.527631e+00 -3.390660e+00 -5.297580e+00 -1.512927e-01 1.022856e+00 -1.312577e-01 2.880175e+00 -1.108027e+00 -3.323829e+00 -7.889341e-01 -6.633008e-01 -1.997450e+00 -1.252800e+00 1.141200e-01 8.667091e-01 1.616355e+00 5.425191e-03 
-4.800372e+00 1.212956e+00 9.100616e+00 1.570445e+00 6.914783e+00 1.808276e+00 -6.030304e+00 5.145045e+00 -6.067965e+00 2.259107e-01 -2.700211e+00 5.179610e-01 -1.056582e-01 5.643835e-02 8.395395e-02 -1.856209e-01 -1.574562e+00 -1.634711e+00 4.106577e-01 1.802130e+00 -3.270113e-01 -9.324986e-01 -1.293143e+00 8.678562e-01 6.745895e-01 7.691944e-03 
-8.711848e+00 -5.233268e-01 9.553060e+00 1.370244e+00 3.299411e+00 9.441823e-01 -4.610454e+00 6.558024e+00 -2.631419e+00 8.584423e-01 -4.977836e+00 -3.395525e+00 -7.437325e-02 -6.102389e-01 -1.279777e-01 -2.307225e+00 -1.346366e+00 6.563627e-01 6.393611e-01 2.549402e+00 1.444485e-01 -4.452802e-01 -1.080666e+00 2.228866e-01 -1.950530e-01 -4.563451e-03 
-7.884093e+00 2.311076e+00 -1.440147e+00 9.083652e-01 1.054952e+01 8.627482e+00 6.324809e+00 9.520412e+00 -2.551987e+00 -5.807872e-01 -1.576176e+00 -2.757300e+00 -1.512927e-01 -7.159483e-01 -5.261462e-01 -2.782354e+00 -8.358754e-01 1.306191e+00 1.595506e+00 9.890594e-01 -6.574286e-01 -5.490338e-01 6.604794e-01 1.006968e+00 -1.620206e+00 -1.681885e-02 
-7.647393e+00 1.010022e+00 -1.985761e+00 5.100350e-01 1.290454e+01 4.990321e+00 1.857188e+00 4.066083e+00 -3.647587e+00 5.276504e-01 -2.838244e+00 -4.635214e+00 -1.512927e-01 1.418739e-01 -1.426129e+00 -9.908878e-01 -1.060314e+00 2.202333e+00 2.420241e+00 -2.719635e+00 -1.876566e+00 2.906848e-01 5.934072e-01 8.940843e-01 -6.765183e-01 -3.668022e-03 
-8.912341e+00 -2.184449e+00 9.582587e-01 -2.178828e+00 8.643173e+00 7.762735e+00 -4.318828e+00 3.103873e+00 -8.305050e+00 3.693704e+00 1.264834e+00 -6.963227e+00 -1.512927e-01 -2.897797e-02 -8.680791e-01 1.383479e+00 -9.874010e-03 7.680416e-03 1.987123e-01 -2.605706e+00 -1.285431e+00 -2.382593e-01 1.141198e+00 1.025383e-01 -5.103828e-01 5.857932e-03 
-7.488355e+00 -5.406206e+00 3.399419e+00 -2.387732e+00 1.526425e+01 1.347776e+01 -1.288681e+01 3.834662e-01 1.698537e+00 1.688232e+00 -1.927919e+00 -4.675152e+00 -9.271336e-02 3.887333e-01 6.005864e-01 8.237059e-01 9.215754e-01 -1.850976e-01 1.378710e-01 9.308982e-01 1.332425e+00 4.133773e-02 1.057478e+00 -2.610222e-01 -5.895059e-01 0.000000e+00 
-8.108502e+00 1.178795e+00 2.784657e+00 2.307878e+00 9.408063e+00 5.377324e+00 6.682791e-01 4.934565e+00 -6.416345e+00 4.544913e+00 -1.518647e+00 -5.289245e+00 -1.512927e-01 1.078418e+00 1.639829e+00 -1.050611e+00 5.599508e-01 -1.138050e+00 -1.798590e+00 3.045049e+00 1.733527e+00 -1.322184e-01 -9.328888e-01 -1.313672e+00 -5.717230e-01 -5.857932e-03 
-6.105646e+00 2.331332e+00 1.219569e+00 2.874559e+00 1.159661e+01 6.872382e+00 4.018126e+00 9.812862e+00 -4.385251e+00 5.389434e+00 -2.751614e+00 -8.419735e+00 -1.512927e-01 6.884916e-01 1.619590e+00 -1.620451e+00 6.899251e-01 -1.756368e+00 -2.118402e+00 3.425461e+00 2.449022e+00 -1.168972e+00 -4.858398e-01 -8.360351e-01 -6.230769e-01 -1.171586e-02 
-4.211606e+00 2.145926e+00 -3.204871e+00 -2.010219e+00 4.786746e+00 2.072476e+00 2.453947e+00 7.056809e+00 -5.924248e+00 -2.821341e+00 -4.891680e+00 -7.949551e+00 -1.512927e-01 -4.628372e-03 3.133816e-01 -5.589949e-01 6.086215e-01 -2.400396e-01 -1.145776e+00 -5.311490e-01 1.009912e+00 1.102697e+00 -8.055618e-01 -6.871494e-01 7.825714e-01 0.000000e+00 
-5.994345e+00 2.208179e+00 -1.708074e+00 3.220942e+00 8.793067e+00 4.538173e+00 3.347660e+00 1.156745e+01 -4.392374e+00 2.942161e+00 -4.421579e+00 -6.460383e+00 -1.512927e-01 -9.575018e-01 -1.360628e-01 1.086226e+00 4.487062e-01 -5.066670e-01 -1.051275e+00 -1.369151e+00 2.624835e-01 4.963802e-01 3.585035e-01 1.022176e+00 1.371558e+00 0.000000e+00 
-8.187295e+00 2.807279e+00 1.453504e+00 5.177794e+00 9.609634e+00 8.155463e-01 -1.652233e+00 9.106831e+00 -8.993012e-01 1.740740e+00 -4.119411e+00 -2.356063e+00 -1.512927e-01 -4.552346e-01 -2.562470e+00 8.850197e-01 -1.906138e+00 -1.894006e+00 1.481384e+00 -2.180363e+00 1.471142e+00 1.822286e+00 1.336120e+00 8.010308e-01 8.574478e-01 1.415775e-01 
-8.905311e+00 1.320342e+00 4.321510e+00 1.524083e+00 6.651827e+00 2.244469e+00 -7.745392e-01 1.010027e+01 -4.415823e+00 4.900911e+00 1.973131e+00 -4.358686e+00 -1.512927e-01 -9.349459e-01 -2.871250e+00 -6.639353e-01 -4.955649e+00 -3.225045e+00 7.450038e-01 -3.069375e+00 1.066195e+00 1.515300e+00 -1.765269e-01 1.438811e+00 7.548909e-01 2.797906e-01 
-5.032296e+00 -1.022251e+01 -1.794564e+00 -1.069248e+01 -3.612663e+00 1.062625e+01 -6.386767e+00 1.514611e+01 3.198907e+00 2.879884e+00 -4.083881e+00 -4.713161e+00 5.565950e-01 -2.325628e+00 -1.483397e+00 -4.224195e-01 -5.857761e+00 -4.071408e+00 -5.586915e-01 -4.101972e+00 1.113342e-01 -3.830481e-01 -2.705923e-01 2.409507e+00 -1.861946e-01 3.347594e-01 
-1.224657e+01 -5.633176e+00 -3.403716e+00 -1.362217e+01 -7.210093e-01 3.357841e+00 -9.631946e+00 1.387879e+01 1.135020e+00 1.489954e+00 2.754711e+00 -1.507381e+00 8.937165e-01 -3.564167e+00 2.975825e-01 8.407022e-01 -3.456316e+00 -1.860749e+00 -1.965512e+00 -3.782793e+00 -1.564312e+00 -8.158602e-01 -3.911910e-01 1.086763e+00 1.974441e+00 2.676652e-01 
-1.814480e+01 -1.132946e+00 3.204020e+00 -1.653788e+01 -7.060985e+00 -2.534597e+00 -1.773339e+01 7.774241e+00 -5.589963e+00 2.093257e+00 7.537333e+00 -4.712689e+00 1.000000e+00 -3.977110e+00 1.303657e+00 3.586572e+00 1.304136e+00 8.833100e-01 -2.847326e+00 -5.736375e-01 -2.050961e+00 -1.349477e+00 -5.031481e-01 3.389310e-01 2.545409e+00 8.262930e-02 
-2.016990e+01 -1.736526e+00 6.025730e+00 -1.283479e+01 -9.277554e-01 -1.002670e+00 -1.401519e+01 5.964643e+00 -4.100689e+00 3.338269e+00 1.596340e+00 5.513286e+00 9.653307e-01 -8.397196e-01 -1.036483e+00 2.907323e+00 2.436281e+00 3.566214e-01 -8.731564e-01 2.959054e+00 4.728219e-01 1.237919e-01 -3.377834e-01 -4.918337e-01 2.844573e+00 -1.159623e-02 
-2.095618e+01 -5.652549e+00 1.142357e+01 -4.565485e+00 9.072604e-01 -1.430128e+00 -7.063332e+00 8.848383e+00 -9.306246e-01 -5.600142e-01 -1.810041e+00 4.503552e+00 9.339344e-01 1.804209e+00 -1.705341e+00 8.887094e-01 3.509301e+00 1.475880e+00 -1.119409e+00 4.339050e+00 1.997385e+00 1.506635e+00 9.809966e-02 -1.162006e+00 1.677965e+00 -5.355694e-02 
-1.503948e+01 -8.555790e+00 7.023122e+00 -7.426965e+00 -2.922025e+00 -1.560175e+00 -1.717016e-01 1.570583e+01 -5.756899e-01 1.127673e+00 4.969230e+00 8.107364e+00 8.687681e-01 3.008377e+00 -1.021133e+00 -2.982459e-01 2.493938e+00 5.226333e-01 -1.906668e+00 3.244154e+00 2.521080e+00 2.147577e+00 1.260274e+00 6.470129e-01 -1.280679e+00 -6.937177e-02 
-1.168897e+01 -6.250017e+00 7.148871e+00 -1.695296e+00 1.315552e+00 -7.852889e+00 -2.959883e+00 1.289057e+01 1.807141e-01 3.689054e+00 4.086018e-02 2.380096e+00 7.804966e-01 3.313020e+00 3.442287e-01 -1.272441e+00 1.669841e+00 1.196036e+00 -8.940725e-01 1.534344e+00 1.126258e+00 2.670206e+00 1.530740e+00 6.806572e-01 -1.503136e+00 -8.090506e-02 
-9.761621e+00 -6.543454e+00 6.671852e+00 -1.800201e+00 1.481266e+00 -7.324629e+00 1.538565e-01 1.654895e+01 6.081528e+00 7.515105e+00 3.905954e+00 1.716168e-01 6.951908e-01 2.795133e+00 1.183100e+00 -1.802503e-01 2.766498e+00 1.483657e+00 -1.875953e-01 -6.987416e-01 -7.341211e-01 2.455614e+00 3.783949e-01 -1.602377e-01 -1.726645e+00 -8.165140e-02 
-7.030013e+00 -4.937574e+00 5.237005e+00 9.703398e-01 4.685797e+00 -3.018264e+00 4.456112e-01 1.405811e+01 9.091798e+00 3.899971e+00 2.124883e+00 9.557443e-01 6.161978e-01 2.474066e+00 9.187903e-01 -1.910276e-02 2.155774e+00 7.474608e-01 -5.514554e-01 -2.943060e-01 -2.291038e-01 1.999873e+00 -6.042601e-01 -1.771151e-01 -1.821570e+00 -7.330929e-02 
-3.393292e+00 -3.296513e+00 7.077803e+00 5.072708e+00 2.811138e+00 -4.915464e+00 -5.368157e+00 1.145145e+01 7.246837e+00 2.914189e+00 3.126030e+00 1.863146e-01 5.426605e-01 3.500326e+00 -1.709267e-01 -7.953963e-02 3.563832e+00 -7.096208e-01 -2.212300e+00 -1.611034e+00 -4.335891e+00 8.399172e-02 -2.566942e+00 -2.278143e+00 -8.778798e-01 -1.176673e-03 
-2.502797e+00 -3.279536e+00 6.850381e+00 5.647119e+00 4.387919e+00 -1.181475e+01 -1.670407e+00 1.429380e+01 9.597425e+00 2.968211e+00 -4.547534e-01 -6.735102e+00 4.902153e-01 3.520757e+00 -1.491264e+00 -2.591744e-01 3.799846e+00 -2.825225e+00 -3.277554e+00 -1.883332e+00 -6.519034e+00 -7.160425e-02 -1.937468e+00 -2.921213e+00 2.589492e-01 8.224353e-02 
5.476402e+00 -8.227107e+00 5.467465e+00 1.368057e+01 -1.917900e+00 -1.398788e+01 -6.843306e+00 -5.248350e+00 6.248673e+00 -4.853727e+00 -6.194944e+00 -3.723590e-01 7.522987e-01 2.153523e+00 -1.856092e+00 -6.135325e-01 2.469114e+00 -2.854923e+00 -2.690306e+00 -1.230477e+00 -6.407982e+00 1.727414e-01 -1.226748e+00 -3.643021e+00 1.165742e+00 1.307874e-01 
6.138924e+00 -9.928598e+00 4.746302e+00 1.566564e+01 -7.075807e+00 -1.486982e+01 -8.233475e+00 -1.018715e+01 9.232859e+00 -1.903413e+00 -7.820694e+00 2.529827e+00 9.225963e-01 9.268019e-01 -1.476527e+00 -6.116010e-01 1.005594e+00 -2.495847e+00 -1.299196e+00 -1.795488e+00 -5.339025e+00 -1.686856e-01 -4.749626e-01 -2.811946e+00 1.903972e+00 1.226257e-01 
3.053463e+00 -9.252442e+00 5.062180e+00 1.240902e+01 -5.731615e+00 -1.683946e+01 -8.239008e+00 -8.347980e+00 8.292827e+00 -7.837415e-01 -1.140611e+01 1.382559e+00 9.804069e-01 -5.325896e-01 -5.375983e-01 -3.794350e-01 -1.014079e+00 -6.801971e-01 -7.324661e-01 -9.269586e-01 -1.196823e+00 2.155005e-01 5.265390e-01 -9.646059e-01 6.332727e-02 5.220667e-02 
3.342682e+00 -1.014951e+01 3.995019e+00 1.131087e+01 -6.184457e+00 -1.688494e+01 -9.949995e+00 -1.085151e+01 7.731920e+00 -1.441595e+00 -1.190890e+01 1.907299e+00 9.892899e-01 -3.674078e-03 -4.466937e-01 -2.941462e-01 -1.266305e+00 2.214092e-01 -7.352676e-02 -7.805889e-01 -5.874691e-01 -3.354993e-01 -2.265060e-01 1.740561e-01 -4.478745e-01 6.745130e-03 
4.211575e+00 -1.080464e+01 3.945932e+00 1.078756e+01 -5.764560e+00 -1.664266e+01 -1.061984e+01 -1.090029e+01 8.076645e+00 -2.451941e+00 -8.973869e+00 2.555411e-01 9.799852e-01 9.486332e-01 -5.390331e-01 -4.726243e-01 -4.648056e-01 -1.868541e-01 8.906195e-01 -6.211572e-01 -9.733890e-01 -4.050193e-01 6.113238e-02 1.085505e+00 5.261414e-02 -1.255324e-02 
5.541497e+00 -1.138597e+01 3.833695e+00 1.014484e+01 -5.952288e+00 -1.533586e+01 -1.094600e+01 -1.184834e+01 7.663454e+00 -2.201843e+00 -8.166533e+00 8.539634e-01 9.565328e-01 1.049293e+00 -2.146271e-01 -7.122125e-01 -6.500368e-02 -3.048867e-01 1.537941e+00 -4.926417e-01 -7.947847e-01 -4.966010e-01 5.665215e-01 1.255347e+00 1.233565e-01 -1.803700e-02 
6.697222e+00 -1.132938e+01 2.779720e+00 1.066800e+01 -6.781970e+00 -1.316090e+01 -1.084679e+01 -1.271651e+01 6.301964e+00 -9.795570e-02 -7.849768e+00 2.172297e+00 9.340193e-01 7.151108e-01 3.944862e-01 -1.425670e+00 3.683119e-01 -5.827888e-01 1.998088e+00 -5.035278e-01 -1.125036e+00 -4.716770e-01 5.799567e-01 1.355116e+00 2.609832e-02 -1.732644e-02 
7.346322e+00 -1.096027e+01 1.017062e+00 1.104563e+01 -7.200186e+00 -1.093612e+01 -1.229973e+01 -1.391732e+01 6.136256e+00 2.140198e-01 -6.194219e+00 1.565704e+00 9.220878e-01 3.375638e-01 7.702850e-01 -1.754173e+00 4.230991e-01 -7.085246e-01 2.002309e+00 -4.362407e-01 -1.466188e+00 -1.542333e-01 -1.321754e-01 1.891445e+00 -4.082994e-01 -1.557958e-02 
6.884717e+00 -9.045059e+00 -1.774100e+00 1.217873e+01 -8.054556e+00 -8.852084e+00 -1.246062e+01 -1.549098e+01 6.481859e+00 -7.600889e-01 -3.184447e+00 3.016257e-02 9.105755e-01 2.011764e-01 8.595455e-01 -1.622062e+00 -7.503395e-02 -5.817789e-01 1.872903e+00 -1.686963e-01 -1.682077e+00 -1.230441e-01 -9.488115e-01 2.514737e+00 -7.507547e-01 -1.611247e-02 
7.135569e+00 -8.676700e+00 -2.660258e+00 1.150497e+01 -8.858618e+00 -7.478722e+00 -1.232029e+01 -1.779205e+01 6.802340e+00 -2.531653e+00 -1.041969e+00 -1.164660e-01 8.903568e-01 1.933413e-01 8.395681e-01 -1.215112e+00 -6.150495e-01 -1.357435e-01 1.710080e+00 6.204373e-01 -1.693694e+00 -5.366788e-01 -8.294956e-01 2.584415e+00 -2.178061e-01 -1.600561e-02 
7.808480e+00 -8.173437e+00 -3.491930e+00 1.006316e+01 -8.861649e+00 -5.525081e+00 -1.167999e+01 -1.918953e+01 5.353702e+00 -3.469177e+00 2.147790e+00 -7.403916e-01 8.693224e-01 1.979466e-01 6.137517e-01 -7.767536e-01 -1.162457e+00 4.472342e-01 1.325860e+00 1.351265e+00 -1.677236e+00 -9.479586e-01 -6.121570e-01 2.423162e+00 6.186866e-01 -1.314906e-02 
7.851146e+00 -7.198245e+00 -4.199583e+00 9.028166e+00 -7.475358e+00 -4.049215e+00 -9.587855e+00 -2.053652e+01 4.016941e+00 -2.578914e+00 4.061739e+00 8.619504e-01 8.626863e-01 1.172457e-01 6.121867e-01 -6.967512e-01 -1.227977e+00 6.315603e-01 1.073689e+00 2.065190e+00 -1.377456e+00 -1.189167e+00 -6.431224e-01 2.014858e+00 1.355878e+00 -1.009746e-02 
7.516661e+00 -6.715528e+00 -4.888206e+00 7.604846e+00 -6.510015e+00 -3.937539e+00 -7.070510e+00 -2.250492e+01 3.134765e+00 -3.797244e+00 6.379510e+00 2.634387e+00 8.586655e-01 1.070906e-01 6.209188e-01 -3.890141e-01 -1.300966e+00 1.358513e-01 1.217188e+00 2.433144e+00 -7.710487e-01 -9.608786e-01 -1.226164e+00 1.418427e+00 1.908348e+00 -1.296199e-02 
7.867707e+00 -6.344721e+00 -5.445875e+00 6.594246e+00 -6.876633e+00 -2.904049e+00 -4.299081e+00 -2.302164e+01 1.965973e+00 -5.583231e+00 6.916461e+00 4.975534e+00 8.451980e-01 1.929654e-01 7.753909e-01 -1.859241e-01 -1.196777e+00 -8.540735e-01 1.344628e+00 2.829309e+00 -1.993662e-01 -2.536595e-01 -2.190167e+00 7.430216e-01 2.100588e+00 -1.773145e-02 
8.335652e+00 -5.495605e+00 -4.813853e+00 4.775288e+00 -8.481754e+00 -1.172283e-02 -2.158656e+00 -2.180221e+01 1.574792e+00 -8.097839e+00 7.812563e+00 6.744555e+00 8.132566e-01 1.882919e-01 1.125452e+00 8.497787e-02 -1.334539e+00 -1.184402e+00 1.244143e+00 2.954579e+00 2.932503e-01 -8.337788e-02 -2.387075e+00 -2.454853e-01 2.264740e+00 -2.061523e-02 
8.406477e+00 -3.931252e+00 -5.166379e+00 4.459062e+00 -1.075986e+01 7.110170e-01 2.102765e+00 -2.188470e+01 3.528630e+00 -1.137945e+01 7.060321e+00 9.309808e+00 7.967335e-01 1.236100e-01 1.410842e+00 1.705970e-01 -1.314629e+00 -1.382024e+00 8.024560e-01 3.011987e+00 2.098448e-01 1.656087e-01 -2.424079e+00 -1.149989e+00 2.329092e+00 -1.880658e-02 
8.188735e+00 -2.295002e+00 -4.603064e+00 1.999741e+00 -1.049041e+01 4.756441e-01 4.501460e+00 -2.160714e+01 1.936548e+00 -1.283451e+01 5.080153e+00 1.179095e+01 7.798216e-01 1.402984e-02 1.658746e+00 1.184573e-01 -1.215486e+00 -1.121863e+00 1.588325e-01 2.893505e+00 2.115860e-01 3.931189e-02 -1.979247e+00 -2.059337e+00 2.040452e+00 -1.740472e-02 
8.559216e+00 -8.908126e-01 -4.698285e+00 1.408874e+00 -1.278242e+01 8.645476e-01 7.430796e+00 -2.206995e+01 2.613139e+00 -1.533529e+01 2.532720e+00 1.409780e+01 7.678826e-01 -3.082763e-03 1.709491e+00 5.174617e-01 -1.249760e+00 -6.852501e-01 -1.673113e-01 2.348998e+00 4.709805e-01 8.319473e-03 -1.766708e+00 -2.100929e+00 1.252040e+00 -2.102270e-02 
8.329432e+00 1.277905e+00 -4.455614e+00 2.229536e-01 -1.307978e+01 7.056744e-01 9.644852e+00 -2.065166e+01 2.229097e+00 -1.601616e+01 -2.203214e-01 1.455282e+01 7.406585e-01 -8.430313e-02 1.930942e+00 9.825799e-01 -1.574653e+00 -2.430050e-01 -6.021413e-01 1.692607e+00 1.566673e+00 -7.119191e-02 -1.216818e+00 -1.786546e+00 -3.780815e-01 -2.302118e-02 
8.320715e+00 2.829752e+00 -2.652797e+00 -9.013426e-01 -1.289142e+01 -2.405546e-01 1.127606e+01 -2.000754e+01 3.423953e+00 -1.862217e+01 -7.940896e-01 1.418907e+01 7.112015e-01 3.454251e-02 1.887896e+00 1.340127e+00 -1.762593e+00 9.579239e-02 -8.094568e-01 1.147882e+00 2.182095e+00 -1.015774e-01 -8.884732e-01 -1.485914e+00 -1.357915e+00 -2.388896e-02 
7.886470e+00 5.499424e+00 -7.129088e-01 -4.718415e+00 -1.165094e+01 -1.982511e+00 1.104187e+01 -1.480498e+01 1.175181e+00 -1.727516e+01 -2.189171e+00 9.854905e+00 6.930562e-01 1.273974e-01 1.869635e+00 1.308815e+00 -1.718054e+00 -3.575510e-01 -5.211494e-01 7.424188e-01 2.370762e+00 3.424093e-01 -9.345186e-01 -1.048287e+00 -1.567915e+00 -2.131007e-02 
8.953409e+00 6.437910e+00 1.309962e-01 -4.933406e+00 -1.301788e+01 -1.838644e+00 1.247170e+01 -1.408282e+01 2.632210e+00 -1.914815e+01 -3.912423e+00 9.657178e+00 6.722389e-01 2.903443e-01 1.754092e+00 8.522472e-01 -1.344710e+00 -1.019762e+00 1.068876e-01 -6.686211e-03 2.721683e+00 8.154176e-01 -4.014128e-01 -1.066739e+00 -1.741534e+00 -1.946586e-02 
8.650073e+00 8.822000e+00 6.965632e-01 -6.351287e+00 -1.480431e+01 -1.101028e+00 1.275912e+01 -1.176021e+01 4.337015e+00 -2.042576e+01 -3.902590e+00 8.979196e+00 6.535894e-01 4.649866e-01 1.344680e+00 5.368662e-01 -9.101130e-01 -9.069875e-01 3.265069e-01 -4.955599e-01 1.804292e+00 1.610678e+00 8.748379e-02 -3.816980e-01 -1.761010e+00 -2.092093e-02 
9.390635e+00 9.938926e+00 9.037040e-01 -6.808458e+00 -1.641355e+01 -1.468581e-01 1.038400e+01 -7.921506e+00 5.920125e+00 -1.905394e+01 -5.271074e+00 5.919251e+00 6.336057e-01 2.988472e-01 1.214473e+00 7.541133e-01 -8.138469e-01 -4.406071e-01 -1.048443e-01 -1.146343e+00 2.018329e+00 1.341956e+00 8.742698e-01 1.413117e-01 -1.709097e+00 -2.424195e-02 
9.992790e+00 1.047232e+01 1.585068e+00 -8.331453e+00 -1.448805e+01 -1.195869e+00 9.607918e+00 -8.864170e+00 7.584612e+00 -1.688485e+01 -3.418335e+00 2.918817e+00 6.077682e-01 2.366038e-01 7.106058e-01 7.437785e-01 -1.157694e-02 9.774277e-01 -1.125255e+00 -1.971719e+00 1.212294e+00 1.212983e+00 2.364064e+00 2.419965e-01 -1.882059e+00 -2.901622e-02 
9.776286e+00 1.168512e+01 3.457310e+00 -8.012558e+00 -1.537905e+01 -2.315444e+00 8.315590e+00 -5.439189e+00 7.718189e+00 -1.654726e+01 -3.447992e+00 4.141883e+00 5.739398e-01 -8.584009e-02 6.974737e-01 7.547795e-01 4.548717e-01 1.558818e+00 -1.016741e+00 -2.071422e+00 3.194577e-01 5.649315e-01 2.829400e+00 4.894956e-01 -9.680589e-01 -3.239764e-02 
9.640265e+00 1.150193e+01 3.138653e+00 -5.807122e+00 -1.043442e+01 -5.643009e+00 3.934733e+00 -6.939898e+00 9.502899e+00 -9.858778e+00 -3.604148e+00 4.575868e-01 5.383413e-01 -1.155230e-01 5.153734e-01 1.460147e-01 1.164701e+00 1.479845e+00 -1.383035e-01 -1.957670e+00 2.921652e-01 -1.365003e-01 2.624046e+00 2.037520e-01 -6.168703e-01 -3.489208e-02 
9.137696e+00 1.291149e+01 3.900809e+00 -5.796266e+00 -1.064627e+01 -3.006991e+00 2.863481e+00 -7.286354e+00 7.785638e+00 -8.419975e+00 -2.730690e+00 2.309572e+00 5.063310e-01 1.651345e-01 8.242340e-02 -3.074905e-01 1.438170e+00 1.924210e+00 8.243815e-01 -2.416949e+00 -3.904482e-01 -2.068754e-01 3.006499e+00 3.428089e-01 -2.214038e+00 -3.868482e-02 
9.734470e+00 1.243600e+01 2.093392e+00 -3.616096e+00 -9.455210e+00 -1.541614e+00 2.545624e+00 -6.479762e+00 6.868386e+00 -7.828260e+00 -2.758227e+00 7.506208e-01 4.671122e-01 6.795708e-01 -6.977272e-01 -1.273995e-01 5.915752e-01 1.820876e+00 9.775430e-01 -1.553904e+00 1.272768e+00 -7.675670e-01 1.530277e+00 3.754434e-01 -1.621555e+00 -4.565026e-02 
1.055486e+01 1.163020e+01 2.442488e+00 -1.917222e+00 -6.247602e+00 -2.442346e-01 -3.074598e+00 -7.621499e+00 8.001068e+00 -2.530020e+00 -2.156909e+00 -7.074825e+00 4.161302e-01 8.212579e-01 -1.226249e+00 -4.140882e-01 9.532899e-01 2.625489e+00 -1.143749e+00 -1.594443e+00 2.324728e+00 -8.032805e-01 2.249327e+00 4.122305e-03 -2.603753e+00 -5.178380e-02 
1.232954e+01 8.653940e+00 3.230816e+00 -4.788769e+00 -3.529374e+00 -2.136673e+00 -8.657491e-01 -4.084878e-01 5.557349e+00 -5.152371e+00 -2.013822e+00 -2.957987e+00 3.551903e-01 3.087784e-01 -1.569038e+00 8.242019e-01 1.292405e+00 1.543635e+00 -1.319570e+00 -1.112870e+00 2.435458e+00 -2.669635e+00 2.291349e+00 6.709886e-01 -1.446414e+00 -5.354222e-02 
1.194645e+01 8.671273e+00 1.261657e+00 -4.434793e-01 -4.817448e-01 -8.428208e+00 -3.403045e+00 1.301651e+00 4.424755e+00 1.488718e+00 -3.082280e+00 -8.854890e+00 3.033729e-01 -4.427793e-01 -9.071310e-01 1.193778e+00 1.943312e+00 -1.425931e-01 -8.926505e-01 1.516194e-01 1.561702e+00 -3.134676e+00 2.051102e+00 1.449502e+00 8.438797e-02 -4.115064e-02 
1.058257e+01 6.070274e+00 6.804818e+00 2.109057e+00 -4.619964e+00 -4.047476e+00 -2.854501e+00 1.235951e+00 -4.691630e+00 1.619114e+00 1.059402e+00 -5.591415e+00 2.557798e-01 -8.559564e-01 1.794388e-01 1.408002e+00 2.162102e+00 -1.797250e+00 -4.377004e-01 1.915107e+00 -2.321995e-01 -2.990198e+00 2.547981e+00 1.842931e+00 -4.773842e-01 -2.650257e-02 
9.214448e+00 8.386378e+00 6.624377e+00 4.350425e+00 -6.415272e+00 -3.752085e+00 -1.322125e+00 -6.352072e-01 -2.547822e+00 4.339749e+00 3.553992e+00 -5.336171e+00 2.600823e-01 -7.490035e-01 5.199922e-01 1.190497e+00 1.562641e+00 -1.069635e+00 -2.782289e-01 3.273795e+00 -3.797169e-01 -1.890394e+00 1.955707e+00 1.961505e+00 4.709415e-01 -2.938222e-02 
9.415760e+00 9.693582e+00 7.589468e+00 3.624788e+00 -9.548861e+00 -6.663237e+00 7.669326e+00 -6.010561e-01 -5.907351e+00 6.162018e+00 3.882699e+00 -7.104267e+00 2.443228e-01 -7.146567e-01 2.003454e-01 -8.201852e-02 1.103200e+00 1.595214e+00 9.717412e-02 3.618871e+00 8.021196e-01 2.431260e-01 2.468668e+00 9.427376e-01 1.548808e-01 -4.681088e-02 
8.784837e+00 9.459580e+00 6.821815e+00 6.611862e+00 -3.365470e+00 -8.511473e+00 7.704019e+00 3.215704e-01 -4.419356e+00 8.995798e+00 5.313598e+00 -5.743756e+00 1.621903e-01 -1.419143e+00 -1.073604e+00 -3.684432e-01 -1.881716e-01 2.712327e+00 2.456764e+00 3.408696e+00 2.522948e+00 7.857621e-01 3.068109e+00 1.365761e+00 5.950429e-01 -8.370297e-02 
7.224087e+00 6.535400e+00 6.296006e+00 6.494339e+00 1.831204e+00 -1.181912e+00 1.072678e+01 4.768161e+00 -2.540232e+00 1.163443e+01 4.893288e+00 -4.613219e+00 7.067138e-02 -2.367520e+00 -1.888631e+00 -1.108663e+00 -1.920822e+00 2.630298e+00 3.324530e+00 7.797886e-01 2.510575e+00 7.713906e-01 1.912547e+00 8.751043e-01 3.612590e-01 -1.025028e-01 
3.214571e+00 4.597446e+00 5.428892e+00 1.974791e+00 1.456327e+00 5.791071e+00 1.419263e+01 9.294923e+00 -3.025709e-01 1.694408e+01 9.877502e+00 -3.606481e+00 -7.160687e-02 -2.169426e+00 -1.668587e+00 -1.976450e+00 -3.743676e+00 1.657850e-01 1.910082e+00 -1.167800e+00 2.348908e+00 1.233613e-01 -2.310506e-01 -2.135299e-01 8.673946e-02 -8.489300e-02 
3.632913e-01 2.681496e+00 2.742612e+00 -3.660787e+00 1.191731e+00 2.808140e+00 8.323963e+00 7.465144e+00 -4.108791e+00 1.175061e+01 5.976268e+00 -6.366610e+00 -1.512927e-01 -1.306686e+00 -9.309046e-01 -2.453657e+00 -3.604028e+00 -1.706449e+00 -5.294049e-01 -1.669045e+00 1.605237e+00 -1.613504e-01 -2.469177e+00 -2.866573e+00 6.755247e-01 -5.236139e-02 
1.368105e+00 3.043595e+00 -1.283738e+00 -7.028953e+00 -2.216809e+00 -9.560916e-01 3.066429e+00 1.071762e+01 -3.018270e+00 7.782457e+00 3.704458e+00 -4.433363e+00 -1.512927e-01 -3.299568e-01 -7.711118e-01 -2.923604e+00 -2.659505e+00 -1.581583e+00 -1.335227e+00 -2.458898e+00 1.069570e+00 -1.123689e+00 -3.505349e+00 -3.366157e+00 7.225911e-01 -1.593716e-02 
1.613888e+00 2.657803e+00 -2.615966e+00 -7.023931e+00 -4.864473e+00 -4.553550e-01 7.944658e+00 1.208300e+01 -1.989135e+00 3.869364e+00 -6.353057e+00 -8.221538e-01 -1.512927e-01 -1.004200e-02 -1.109670e+00 -2.537459e+00 -7.931594e-01 -8.279570e-01 2.331118e-01 -6.179498e-01 1.713190e-01 -1.174186e+00 -3.329890e+00 -1.603107e+00 1.190324e+00 0.000000e+00 
9.394884e-01 7.537332e-01 -6.509840e+00 -9.641161e+00 -3.423485e+00 7.466859e-01 2.087788e+00 1.233385e+01 -6.980845e+00 3.357962e+00 -7.886204e-01 -2.765754e+00 -1.512927e-01 -4.701277e-01 -1.343412e+00 -2.149868e+00 2.147629e-01 1.014639e+00 1.686477e+00 9.045146e-01 -6.032382e-01 -1.805873e+00 -2.016383e+00 4.388188e-01 1.466672e+00 1.498151e-03 
5.273895e-01 -1.721922e+00 -7.331631e+00 -6.320479e+00 -2.344716e+00 3.122311e+00 5.723535e+00 7.513625e+00 -7.998436e+00 -2.686591e+00 2.072715e-01 -1.248796e+00 -1.512927e-01 -5.444606e-01 -1.037854e+00 -1.350087e+00 1.046541e-01 1.581931e+00 1.988651e+00 9.921108e-01 -1.128374e+00 -2.221637e+00 -5.165448e-02 1.786049e+00 1.325405e+00 7.490754e-04 
-4.392843e-01 -1.483604e+00 -9.675245e+00 -6.306864e+00 1.596506e+00 5.687460e+00 8.699563e+00 9.986115e+00 -9.042985e+00 9.785213e-01 2.618387e+00 3.113316e+00 -1.438019e-01 -2.893235e-01 -2.272115e-01 -6.206239e-01 6.293723e-01 1.836615e+00 1.301301e+00 4.033044e-01 -1.777811e+00 3.766570e-01 1.613449e+00 2.003977e+00 8.274664e-01 0.000000e+00 
-4.190283e-01 -1.412798e+00 -7.783697e+00 -8.167809e+00 5.351853e-01 7.017510e+00 9.599324e+00 7.614992e+00 -1.206625e+01 4.800812e+00 8.736811e-01 2.865336e+00 -1.512927e-01 2.423496e-02 6.554887e-02 -4.865862e-01 -5.867748e-01 1.859261e+00 8.736669e-01 -5.484087e-01 -7.448300e-01 4.277790e-01 1.995426e+00 1.965108e+00 5.167707e-01 -7.490754e-04 
-3.392029e-02 -5.368866e-01 -9.386928e+00 -5.570635e+00 4.319638e+00 5.305591e+00 2.166415e+00 3.394106e+00 -3.063653e+00 7.681509e+00 8.898058e+00 -6.854875e-01 -1.512927e-01 -2.060003e-01 -2.852698e-01 1.637766e+00 -2.509533e-01 1.089514e+00 2.194791e+00 -9.350834e-01 -2.658958e+00 2.145196e+00 2.087868e+00 7.859938e-01 2.152298e-01 7.276607e-03 
4.458823e-01 -1.867536e+00 -9.908721e+00 -9.622468e+00 5.590024e+00 7.681580e+00 6.248065e+00 7.085480e+00 -8.849208e+00 3.939047e+00 6.892975e+00 3.234459e+00 -1.512927e-01 -5.544523e-01 1.783291e-01 1.102371e+00 1.775868e+00 4.889537e-01 2.370462e+00 6.955387e-02 -1.903001e+00 2.380136e+00 1.992211e+00 4.247069e-01 4.818385e-01 2.187839e-02 
-1.901741e+00 -2.682583e+00 -4.239033e-01 -6.834301e+00 4.516655e+00 1.632938e+01 5.699776e+00 -3.043918e+00 7.447672e-02 1.184875e+01 3.538709e+00 4.004904e+00 -1.074189e-01 -2.936313e-01 2.113196e-01 3.471731e-01 1.093396e+00 1.901818e-01 1.111957e+00 1.422879e-01 -5.329165e-01 -4.559646e-02 6.579423e-01 -5.496695e-01 6.472391e-01 8.745504e-03 
-2.257380e+00 5.516965e-01 -6.753352e+00 1.343365e+00 2.881446e+00 1.335793e+01 8.180413e+00 1.319000e+00 -1.734634e+00 1.267825e+01 5.676890e+00 2.929332e+00 -6.383765e-02 3.075593e-01 5.824357e-01 -5.304741e-01 1.422104e+00 1.825808e+00 3.147526e-01 -7.821967e-01 -8.466199e-01 -3.853048e-01 4.958301e-01 3.893405e-01 -3.522788e-01 -4.387379e-03 
-1.504459e-01 -6.899049e-01 -9.228746e+00 -5.586572e+00 6.624836e+00 8.027204e+00 1.911680e+00 3.612763e+00 -6.848921e+00 6.601619e+00 6.757752e+00 2.703272e+00 -1.512927e-01 5.472428e-01 3.807030e-01 -2.222077e+00 -2.398107e-01 2.664519e+00 -1.244654e+00 -1.674322e+00 5.481089e-01 -1.860795e+00 -2.951030e-01 1.282520e+00 7.205409e-01 -1.752026e-02 
1.108031e+00 4.830348e-02 -8.158669e+00 -3.135813e+00 1.366497e+01 1.340643e+01 4.231129e+00 -4.759603e-01 -7.314033e+00 9.041759e+00 7.230156e+00 2.123881e+00 -1.512927e-01 -1.844559e-02 -3.338041e-01 -8.964784e-01 -2.302162e+00 1.101608e+00 -1.907121e+00 -2.978491e+00 4.480856e-01 2.225804e-03 -2.100666e-01 4.566267e-01 2.827087e-01 -1.749101e-02 
-8.482323e-01 -5.273716e-01 -1.083163e+01 -5.793766e+00 1.244749e+01 1.008186e+01 -6.971917e-01 5.941067e-01 -6.439799e+00 1.219147e+01 9.174675e+00 8.010334e+00 -1.512927e-01 -9.718987e-01 -3.576682e-01 2.091470e-02 -7.319393e-01 -3.839831e-02 -9.574718e-01 -1.758273e+00 -1.176613e-01 2.191077e-01 -7.545480e-01 -1.008719e+00 -1.110223e+00 0.000000e+00 
-2.000714e+00 -1.198591e+00 -1.043430e+01 -1.006385e+01 5.478158e+00 2.794993e+00 -5.407604e+00 5.068756e+00 -1.928066e+00 8.832989e+00 6.751563e+00 1.689345e+00 -1.512927e-01 -1.070539e+00 1.491122e-01 7.515943e-01 -2.002802e-01 -2.339077e-01 -5.347700e-01 -9.689186e-02 5.228108e-01 -9.214458e-01 -2.428865e+00 -1.629227e+00 -1.715088e+00 0.000000e+00 
-3.455566e+00 -1.854799e+00 -7.986357e+00 -5.782250e+00 1.052625e+01 8.545564e+00 -2.060318e+00 2.520981e-01 -8.446366e+00 2.933265e+00 1.953455e+00 -2.630576e+00 -1.512927e-01 -2.652105e-01 8.090979e-01 1.893319e+00 1.666497e+00 1.677919e-01 -3.157770e-01 1.400336e+00 5.074466e-01 -9.089296e-01 -2.726112e+00 -1.732143e+00 -3.093813e+00 0.000000e+00 
-2.940995e+00 1.457578e+00 -5.823335e+00 -4.142972e+00 1.345605e+01 1.150073e+01 4.428233e+00 2.309098e+00 -1.091798e+01 1.526537e+00 2.694631e+00 -1.131104e+00 -1.512927e-01 7.148790e-02 1.036353e+00 1.440842e+00 1.937701e+00 2.341481e-01 3.521028e-01 1.710690e+00 2.425114e-01 -5.051675e-01 -1.188846e+00 -5.115085e-01 -2.220594e-01 0.000000e+00 
-1.704144e+00 2.190033e+00 -3.670519e+00 -4.217215e-01 9.297499e+00 4.150105e+00 1.386570e+00 4.511169e+00 -6.489491e+00 2.214143e+00 2.542425e+00 -6.048507e+00 -1.512927e-01 3.600944e-01 9.313439e-01 7.457453e-01 5.605359e-01 -1.499197e+00 -1.610937e+00 -1.042761e-01 7.878090e-01 1.477800e+00 7.548253e-01 1.151047e+00 1.132959e+00 0.000000e+00 
-2.518986e+00 1.960758e+00 -5.388008e+00 -3.055608e+00 7.263275e+00 6.753236e+00 1.422400e+00 4.151777e+00 -5.432341e+00 3.248321e+00 3.899536e+00 2.288013e+00 -1.512927e-01 2.865578e-01 4.769838e-01 -2.428350e-02 -4.478567e-02 -8.973039e-01 -1.726990e+00 -8.243954e-01 7.456229e-01 1.522815e+00 9.130347e-01 9.184538e-01 1.096558e+00 0.000000e+00 
-1.866099e+00 2.550330e+00 -4.475294e+00 -3.523253e+00 6.126653e+00 2.864623e+00 -1.078782e+00 3.269804e+00 -3.800184e+00 5.846499e+00 7.106237e+00 1.324661e+00 -1.512927e-01 1.645588e-01 4.646222e-01 -3.898050e-01 -4.549353e-01 5.806591e-01 -4.527881e-01 4.212561e-02 6.799572e-01 4.465657e-01 5.149990e-01 6.030597e-01 1.180431e+00 0.000000e+00 
-1.427229e+00 3.662349e+00 -5.542365e+00 -2.816134e+00 1.055495e+01 3.508522e+00 1.538932e+00 6.657896e+00 -4.648556e+00 4.275532e+00 5.004994e+00 6.651018e-01 -1.512927e-01 2.622384e-01 4.515200e-01 -1.375785e-01 1.186065e-01 1.101166e+00 -5.845529e-01 2.850779e-01 8.400329e-01 7.191987e-02 4.834545e-02 1.096747e-02 -3.905383e-01 0.000000e+00 
