-8.023087e+00 2.486548e+00 -1.855971e+00 4.323579e+00 5.207907e+00 1.824266e+00 1.685935e+00 2.847959e+00 7.351786e+00 2.867163e+00 2.482519e+00 6.785423e+00 2.073032e-02 -7.529173e-02 -5.545676e-01 6.474770e-01 -2.263685e-01 -5.952917e-01 -1.010829e+00 -9.952403e-01 1.158846e-01 -7.017778e-01 5.931085e-01 6.635613e-01 -7.294505e-01 -1.888460e-03 
-6.009492e+00 -2.901217e+00 -2.370140e+00 4.639428e-01 6.276907e+00 -4.390346e+00 -6.128398e+00 2.328942e+00 2.409513e+00 3.865250e+00 4.661843e+00 3.211122e+00 9.193420e-02 -6.042695e-01 2.978904e-01 1.543111e+00 4.927073e-01 -1.790745e+00 -2.789875e-01 1.256049e+00 -5.211483e-01 1.571267e-01 8.244898e-01 7.865304e-01 -6.219088e-02 -1.296515e-02 
-9.406343e+00 2.407592e+00 1.638499e+00 5.121555e+00 1.696948e+00 -1.225730e-01 6.168995e-01 3.686890e+00 6.314033e+00 5.333662e+00 4.710665e+00 4.925322e+00 -2.431393e-02 -1.113354e+00 7.423034e-01 1.252907e+00 6.441552e-01 -1.153648e+00 1.240923e+00 2.740317e+00 -5.064389e-01 4.485482e-01 1.496451e+00 6.694357e-01 9.408935e-01 -1.925315e-02 
-1.035281e+01 4.015477e+00 4.112347e+00 6.388127e+00 -1.990338e+00 1.402749e+00 8.500695e+00 -1.772484e-01 8.656296e+00 5.756362e+00 5.301099e+00 7.404520e+00 -2.157331e-02 -1.213941e+00 1.506128e+00 9.728883e-01 6.627650e-01 -8.906388e-01 2.550621e+00 3.770161e+00 1.551358e-01 1.183438e+00 -3.225969e-01 -4.516848e-01 1.381036e+00 -1.384356e-02 
-1.141820e+01 2.739717e+00 1.167322e+00 4.582263e+00 3.573291e+00 5.132334e+00 8.072973e+00 1.568860e+00 6.471135e+00 9.403864e+00 5.510070e+00 9.393192e+00 -1.878166e-02 -5.259178e-01 4.913292e-02 -2.689481e-01 -3.135374e-01 1.707698e-01 7.175156e-01 4.535522e-01 9.748085e-01 6.468590e-01 -1.302883e+00 -5.115328e-01 2.335232e-01 8.920753e-03 
-1.107327e+01 4.463361e+00 2.729890e+00 4.047414e+00 8.855414e-01 5.735304e+00 8.994368e+00 4.163636e+00 8.248154e+00 2.171648e-01 2.003716e+00 7.882366e+00 1.995027e-02 -4.498220e-01 -2.915064e-01 -7.985765e-01 1.727664e-02 3.414232e-01 -2.601871e-01 -1.921660e+00 -8.427578e-01 -8.736932e-02 -1.057531e+00 9.617336e-02 -6.840273e-01 5.953205e-03 
-1.167570e+01 2.429315e+00 9.849868e-01 4.724225e+00 1.112857e+00 1.298727e+00 2.637824e+00 6.390491e+00 9.752399e+00 1.588846e+00 3.801692e+00 5.854014e+00 -4.719496e-04 -3.050709e-01 -1.574811e-01 -3.259764e-01 4.191579e-01 3.389949e-01 -9.076952e-01 -7.904543e-01 -1.374731e+00 3.838373e-01 -1.331935e+00 -7.482589e-01 -1.901771e+00 -2.495480e-03 
-1.247317e+01 2.713146e+00 2.106323e-01 6.403530e+00 9.469950e-01 2.018617e+00 1.609970e+00 -6.801853e+00 6.578816e+00 4.376217e+00 6.636154e+00 5.753973e+00 -9.621382e-04 -3.893511e-01 -6.756356e-01 -7.836123e-01 8.325328e-01 1.030105e+00 -7.329311e-01 3.999413e-01 -6.642447e-01 -1.528382e-01 1.074538e+00 2.677415e-01 2.413572e-01 -6.190610e-03 
-1.224360e+01 2.827419e+00 7.970685e-01 5.499994e+00 5.237538e+00 2.452201e+00 7.812901e+00 1.779468e-01 9.224991e+00 6.646631e-01 -5.474443e-01 9.485333e-01 -2.080286e-02 3.542269e-01 -8.904079e-01 -1.176275e+00 8.126057e-01 6.032045e-01 -5.143675e-01 1.958156e+00 1.277509e+00 -8.375772e-01 -4.138550e-01 -4.992113e-01 1.328731e+00 5.707288e-03 
-1.273607e+01 8.861309e-01 -1.094212e+00 7.822193e+00 3.973724e+00 1.493911e+00 8.406536e+00 3.948685e+00 7.747667e+00 6.051946e+00 5.516992e+00 1.154189e+01 -8.373260e-04 1.521198e+00 -1.659457e+00 -3.750023e-01 2.333935e-01 -1.411443e+00 -1.277220e+00 4.128470e-01 1.761212e+00 -7.231711e-01 1.494680e-01 -1.383507e+00 -1.757286e-01 1.593623e-02 
-9.773115e+00 -1.109217e+00 -4.243968e+00 8.077922e+00 2.615515e+00 -1.010758e+00 9.030319e+00 7.402768e+00 4.980089e+00 -1.318294e+00 1.865217e+00 9.603710e+00 2.800208e-02 1.941303e+00 -2.143185e+00 -5.304924e-01 8.057699e-02 -1.385017e+00 -4.794150e-01 -9.576014e-01 -5.028992e-01 -1.302048e+00 8.328204e-01 -5.802672e-01 -4.344707e-01 2.814580e-02 
-6.102420e+00 -3.615822e+00 8.561394e-01 6.281533e+00 -4.799211e+00 -2.636006e+00 3.065495e+00 -1.608204e+00 5.085412e+00 6.115035e+00 -1.487709e+00 5.477412e-01 5.431652e-02 1.331216e+00 -2.397334e+00 -5.306695e-01 -1.256079e+00 -6.231488e-01 5.022312e-01 -7.813804e-01 -1.707168e+00 -2.051203e-01 1.375890e+00 1.505361e-01 -9.005585e-01 4.668425e-02 
-5.853914e+00 -5.637532e+00 -2.830569e+00 6.673209e+00 2.698921e+00 2.120085e+00 5.695414e+00 4.418953e-01 4.045879e+00 4.797221e+00 5.357003e-02 4.273256e+00 9.234923e-02 2.777596e-01 -1.882100e+00 -2.863789e-01 -1.458622e+00 1.615662e-01 1.095395e+00 -6.556479e-01 -7.925697e-01 1.170903e+00 1.541912e+00 9.413476e-01 2.145795e-01 5.362103e-02 
-8.039589e+00 -8.836381e+00 -4.454259e+00 2.244154e+00 8.162777e-01 2.439646e+00 6.167087e+00 -1.106718e+00 7.189170e+00 9.873638e+00 7.175496e+00 9.704328e+00 2.004104e-01 -6.828780e-01 -1.382427e+00 -8.244057e-01 -3.240855e-01 1.230761e+00 1.457243e+00 2.617425e-01 6.774086e-01 1.415776e+00 -1.750512e-01 1.878322e+00 6.578223e-01 4.315858e-02 
-7.415732e+00 -7.909437e+00 -3.020664e+00 2.803501e+00 6.156021e-01 1.928390e+00 4.201285e+00 3.189177e+00 9.782726e+00 4.511967e+00 2.240353e+00 6.098314e+00 2.230603e-01 -9.875994e-01 -1.340744e+00 1.938427e-01 1.175234e+00 8.397728e-01 6.275915e-01 -3.258084e-01 -5.543269e-02 -6.274395e-02 -2.158873e-01 1.836808e+00 -2.539364e-01 2.488806e-02 
-8.735901e+00 -9.392003e+00 -3.170842e+00 6.595960e+00 2.396251e+00 4.746057e+00 5.121272e+00 4.051985e-01 9.295870e+00 5.382406e+00 6.810510e+00 2.924323e+00 2.047539e-01 -1.063854e+00 -1.108227e+00 6.388345e-01 2.417463e+00 2.033499e-01 3.362982e-01 -2.088348e-01 -6.162366e-01 -1.403884e+00 -2.342548e-01 1.082389e+00 -8.260719e-01 7.313013e-03 
-1.044375e+01 -1.206344e+01 -2.503065e+00 1.037348e+01 6.107798e+00 4.104837e+00 4.589279e+00 -5.912266e-01 2.678809e+00 5.963400e+00 9.420103e+00 6.393577e+00 2.146178e-01 -1.943430e+00 -8.675666e-01 2.762339e-01 1.703972e+00 8.367743e-02 -7.287533e-01 9.931308e-02 -3.587777e-01 -1.265647e+00 9.134699e-01 9.235425e-01 4.264840e-01 4.077933e-02 
-1.184485e+01 -1.230051e+01 -1.518886e+00 1.054648e+01 -9.130704e-01 3.032914e+00 4.928916e+00 -2.297699e+00 3.721711e+00 7.976647e+00 8.997567e+00 5.426337e+00 2.411967e-01 -2.797317e+00 -2.381891e-01 1.822082e-01 -4.722320e-01 -1.708280e-01 -2.092721e+00 -1.484102e+00 1.426580e-01 -1.431162e+00 2.802153e-01 1.223746e-01 1.208854e-01 1.040438e-01 
-1.557841e+01 -1.079302e+01 -2.465472e+00 9.348103e+00 2.688650e+00 -8.588053e-01 4.794029e+00 2.746738e+00 6.241573e+00 7.782196e+00 5.764536e+00 6.979728e+00 4.087356e-01 -2.568074e+00 3.137102e-01 -1.051969e+00 -2.272294e+00 -9.994761e-01 -1.274741e+00 -1.635770e+00 -9.048697e-01 -1.999270e+00 -1.002494e+00 -4.283028e-01 -2.513599e-01 1.303097e-01 
-2.015516e+01 -1.121816e+01 -2.278597e+00 4.747487e+00 3.251685e+00 -3.235724e+00 -2.401613e+00 -5.504936e-01 3.586807e-01 5.874084e+00 9.250166e+00 3.235675e+00 6.279140e-01 -1.211520e+00 5.452513e-01 -2.187548e+00 -1.268538e+00 -1.648967e+00 -2.034890e-01 -1.552512e+00 -1.488418e+00 -1.889923e+00 -9.396982e-01 -7.514117e-01 -4.137813e-01 1.112795e-01 
-1.912897e+01 -1.103607e+01 -7.383052e+00 1.911507e+00 -9.719613e-01 8.654512e-01 7.569408e-02 -5.989178e+00 -5.636027e+00 2.002214e+00 7.152290e+00 6.232108e+00 6.728076e-01 1.996045e+00 9.531752e-01 -1.733522e+00 -2.956910e-02 -3.809422e+00 1.182704e+00 -1.272651e+00 -1.630323e+00 -1.281508e+00 -5.833460e-01 -1.734120e+00 -2.519918e-01 4.774157e-02 
-1.612717e+01 -9.452730e+00 -9.997837e+00 7.922091e+00 -7.327601e+00 1.153341e+00 -4.744759e-01 -5.371831e+00 2.108960e-01 6.168148e+00 4.546632e+00 3.731240e+00 6.655583e-01 4.321038e+00 1.066125e+00 -9.371817e-01 9.658992e-01 -3.566390e+00 6.331913e-01 8.408036e-02 -6.828448e-01 4.729529e-01 -5.762303e-01 -2.338385e+00 1.030219e-02 -2.182531e-03 
-7.612181e+00 -6.909855e+00 -7.273464e+00 7.612955e+00 -1.106882e+01 2.860182e+00 -2.532794e+00 -2.994209e+00 -9.207582e-02 4.718434e+00 -5.542972e-01 5.471986e+00 6.286212e-01 2.683375e+00 1.170702e+00 1.204726e+00 1.468216e+00 -8.367552e-01 -4.924507e-02 2.948496e-01 1.149725e+00 1.591669e+00 3.571358e-01 -6.930199e-01 -6.361649e-01 -2.092022e-02 
-4.308366e+00 -7.950640e+00 -7.019300e+00 6.726258e+00 -9.531836e+00 -1.067133e+00 -6.769671e-01 -5.462202e+00 -4.853058e-02 1.634822e+00 1.411533e+00 3.667247e+00 6.390945e-01 -3.862667e-02 4.656110e-02 2.939238e+00 9.192339e-01 1.406196e+00 -8.043844e-01 6.220852e-01 1.998652e+00 6.171803e-01 -3.285468e-01 7.445363e-01 2.044587e-02 -2.678840e-02 
-1.162150e+01 -5.933601e+00 -2.848691e+00 9.850505e+00 -4.053620e+00 1.729463e+00 1.651188e+00 -1.953658e-01 2.452032e+00 6.054555e+00 5.254740e+00 3.083280e+00 5.814384e-01 3.082131e-01 -8.922605e-02 5.456327e-01 -3.384504e-01 2.036525e+00 -5.749594e-01 1.403585e+00 1.256196e+00 8.953331e-02 1.622785e-01 1.517921e+00 -1.795144e-02 -2.693735e-02 
-1.431564e+01 -9.708052e+00 2.485967e+00 1.139949e+01 -3.804219e+00 -2.303222e+00 5.439587e-01 3.222010e+00 2.024744e+00 3.857353e+00 5.364795e+00 5.027822e+00 5.552077e-01 2.280741e+00 4.980602e-02 -8.800741e-01 -1.270478e+00 1.492411e+00 1.324713e-01 1.736880e+00 8.746339e-01 -3.554198e-01 9.764393e-01 9.328966e-01 6.362348e-01 -1.679951e-02 
-1.067477e+00 -6.477280e+00 -9.297934e+00 3.584089e+00 -3.749998e+00 6.034298e-01 3.874667e+00 -1.055335e+00 -6.810465e-01 4.418561e+00 5.058676e+00 4.701941e+00 5.358778e-01 5.190022e+00 1.302890e+00 8.647337e-02 -2.309109e+00 3.719873e-02 -1.284151e+00 -1.112497e+00 -7.838737e-01 -1.127132e+00 -7.550796e-01 -1.375108e+00 -7.987512e-01 -2.010024e-02 
1.818326e+00 -7.429770e+00 -8.195049e+00 3.507076e+00 -2.221591e+00 1.582401e-01 6.895691e+00 -6.590481e-01 -2.590899e-01 7.335015e+00 6.174047e+00 6.039090e+00 5.778772e-01 5.932157e+00 4.054702e+00 8.950278e-01 -6.302030e+00 -1.675422e+00 -9.936779e-01 -2.538786e+00 -1.384877e+00 -2.180309e+00 -1.298990e+00 -3.732279e+00 -2.312930e+00 4.210720e-02 
6.261626e+00 -5.582933e-01 2.924184e+00 2.251163e+00 -4.658940e+00 -5.922025e+00 -7.087162e+00 -2.174205e+00 -2.041708e+00 5.403264e-01 -2.025429e+00 -1.416110e+00 4.696025e-01 3.750658e+00 4.126262e+00 2.680309e+00 -8.185211e+00 -2.475356e+00 -6.123900e-01 -3.121384e+00 -1.177521e-01 -2.804583e+00 -8.347297e-01 -4.817805e+00 -1.523472e+00 9.956810e-02 
1.168059e+01 7.605965e+00 8.500475e-01 -1.944420e+01 -1.172686e+01 -4.008883e+00 -6.669058e+00 -3.142938e+00 -8.196469e+00 -6.984768e-01 -9.754546e+00 -3.477804e+00 7.988814e-01 2.651471e+00 3.015737e+00 1.538318e+00 -9.211347e+00 -2.881656e+00 -2.730870e-01 -2.083311e+00 -3.511543e-01 -3.026166e+00 -4.506486e-01 -4.674052e+00 -1.073018e+00 1.252837e-01 
1.275468e+01 6.636163e+00 -4.189379e-01 -2.586633e+01 -1.137415e+01 -3.749585e-01 -4.949877e+00 -4.021500e-01 -1.073527e+01 4.261659e+00 -1.106605e+01 1.843027e+00 9.232162e-01 1.374171e+00 1.198112e+00 1.478733e-01 -6.597087e+00 -1.377904e+00 6.187836e-01 7.080278e-01 7.173957e-01 -1.406337e+00 1.564746e+00 -1.798785e+00 8.688402e-01 1.228455e-01 
1.182915e+01 4.051685e+00 1.168102e+00 -2.849091e+01 -1.327227e+01 -3.980728e+00 -4.589505e+00 -3.300847e+00 -1.104314e+01 3.221106e+00 -1.267590e+01 -9.555678e-01 9.774887e-01 2.905656e-01 2.544945e-01 7.270237e-01 -1.367472e+00 -6.278223e-01 -5.637002e-01 -8.040631e-01 1.170987e+00 2.069177e-01 8.330525e-01 -1.850061e-01 2.924047e-01 4.658807e-02 
1.305820e+01 7.209406e+00 3.504523e+00 -2.621091e+01 -1.077575e+01 -2.842185e+00 -4.586799e+00 1.491728e+00 -7.650056e+00 6.404266e+00 -9.558679e+00 1.666973e+00 9.945264e-01 3.468769e-01 7.548968e-01 1.338792e+00 9.868675e-01 -8.794988e-01 -1.243365e+00 -1.132308e+00 8.508911e-01 1.487871e+00 -6.221948e-01 1.348596e+00 -9.732952e-01 1.525099e-02 
1.298166e+01 8.591816e+00 2.523435e+00 -2.610927e+01 -1.516516e+01 -5.593771e+00 -1.087091e+01 1.765060e+00 -8.704490e+00 2.395482e+00 -1.143326e+01 -1.927753e+00 9.961667e-01 4.687837e-01 9.617647e-01 8.983898e-01 1.322195e+00 -1.773021e+00 -3.966230e-01 -1.663397e+00 2.844459e-01 1.212573e+00 -1.340869e+00 1.467267e+00 -1.053489e+00 1.067084e-03 
1.391281e+01 8.140581e+00 5.597355e+00 -2.212281e+01 -1.482519e+01 -5.785259e+00 -7.470713e+00 1.319352e+00 -4.465244e+00 1.563497e+00 -4.944393e+00 -2.537356e+00 9.901322e-01 2.223334e-02 3.830404e-01 1.138645e-01 1.312356e+00 -2.253558e+00 -6.776628e-01 -1.488581e+00 -8.462078e-01 1.029864e+00 -2.761415e+00 1.124222e+00 -9.730293e-01 -4.019511e-03 
1.374577e+01 8.394921e+00 4.613635e+00 -2.392398e+01 -2.011265e+01 -4.492306e+00 -1.146453e+01 -1.792429e+00 -6.572680e+00 -1.062856e+00 -7.646705e+00 -4.120851e+00 9.850212e-01 -6.852527e-02 1.883086e-01 -5.383880e-01 -5.524177e-02 -1.455759e+00 -5.390191e-01 -9.496884e-01 -2.137137e+00 6.901369e-01 -2.812859e+00 6.595127e-01 -4.519366e-01 -5.848247e-03 
1.278731e+01 9.223056e+00 3.028746e+00 -2.074178e+01 -1.956980e+01 -6.781232e+00 -1.173289e+01 -9.605663e-01 -3.566641e+00 -5.673639e+00 -5.830851e+00 -2.101625e+00 9.800016e-01 -8.958125e-02 -7.858715e-02 -1.064728e+00 -5.198778e-01 -9.646742e-01 -7.367893e-01 -7.711449e-01 -1.695581e+00 -5.931644e-01 -2.581662e+00 5.699264e-01 -1.664608e-01 -6.766552e-03 
1.320178e+01 8.992122e+00 1.115800e+00 -2.707599e+01 -2.007166e+01 -7.790881e+00 -1.348827e+01 -7.780665e+00 -5.703107e+00 -8.050243e+00 -7.692472e+00 -4.405302e+00 9.719908e-01 1.974029e-01 -3.395007e-01 -5.243679e-01 -6.789166e-01 3.428062e-01 1.110885e-01 2.958942e-01 -1.154387e+00 -6.060256e-01 -5.099009e-01 8.532702e-01 -4.044053e-01 -8.716946e-03 
1.373690e+01 7.449045e+00 2.022632e+00 -2.314620e+01 -1.966906e+01 -7.819918e+00 -1.031457e+01 -4.164433e+00 -7.865853e+00 -7.851121e+00 -2.071877e+00 -3.227434e+00 9.628146e-01 4.494891e-01 -7.647842e-01 -1.408170e-01 -8.437685e-01 2.063408e-01 1.196008e+00 1.112412e+00 -1.294625e+00 -8.233415e-01 5.927310e-01 3.297893e-01 -6.032871e-01 -1.195555e-02 
1.425799e+01 7.584423e+00 2.494852e+00 -2.611636e+01 -1.834899e+01 -3.417520e+00 -1.069422e+01 -5.962433e+00 -7.453202e+00 -2.523619e+00 -5.259840e+00 -5.579972e+00 9.500300e-01 3.325475e-01 -5.784438e-01 -8.911909e-02 6.467484e-01 1.168194e+00 1.655116e+00 2.220038e+00 2.657719e-02 -7.935619e-02 1.308614e+00 1.100225e+00 -6.692556e-01 -1.576589e-02 
1.450665e+01 6.102984e+00 1.635134e+00 -2.544044e+01 -1.939943e+01 -2.987874e+00 -7.567852e+00 -8.342808e+00 -6.808301e+00 -5.473296e+00 -5.398220e+00 -4.530725e+00 9.312042e-01 1.490315e-01 -2.655780e-01 -1.201096e+00 3.391319e-01 1.714702e+00 9.948017e-01 2.678230e+00 -1.075205e-01 -2.989947e-01 1.253242e+00 -6.309838e-01 -6.525869e-01 -1.685715e-02 
1.447964e+01 6.772933e+00 8.639539e-01 -2.269513e+01 -1.436551e+01 -1.931320e+00 -3.761435e+00 -5.558592e+00 -6.628664e+00 -2.696084e+00 -5.281744e-01 -7.099935e+00 9.089665e-01 -6.670809e-02 -6.498357e-01 -1.279307e+00 6.522398e-01 1.757939e+00 7.027275e-01 3.461379e+00 1.234460e+00 -1.457831e+00 7.299213e-02 -1.418071e-01 1.840413e-01 -1.055878e-02 
1.437123e+01 6.526900e+00 -3.167396e+00 -2.316115e+01 -1.308729e+01 -3.589009e+00 -3.898168e-01 -4.903956e+00 -9.773096e+00 -1.498682e+00 -7.592629e+00 -5.730388e+00 8.990606e-01 -1.078089e-01 -1.212533e+00 -1.631556e+00 4.233250e-01 2.313205e+00 1.105023e+00 3.025115e+00 8.317345e-01 -1.886806e+00 -4.339765e-01 5.742523e-01 1.428157e-01 2.401418e-03 
1.399216e+01 4.123287e+00 -1.500419e+00 -2.399480e+01 -1.271536e+01 3.966851e-01 3.023656e+00 -1.509557e+00 -1.325996e+01 -4.145966e+00 -4.871671e+00 -4.059935e+00 9.133078e-01 -2.744576e-01 -2.641957e+00 -1.286428e+00 4.238693e-01 2.002018e+00 1.145229e+00 1.773825e+00 -2.490317e-01 -1.708829e+00 -1.600226e+00 1.821735e+00 -1.765426e-01 1.541467e-02 
1.421135e+01 1.365142e+00 -5.340458e+00 -2.267398e+01 -8.658472e+00 1.373236e+00 4.165178e+00 -6.208653e+00 -1.292669e+01 -6.918237e+00 -3.552103e-01 -5.336647e+00 9.410406e-01 -2.407599e-01 -3.242496e+00 -1.204688e+00 1.608718e+00 3.097973e+00 9.176180e-01 4.086242e-01 -1.814992e-01 -2.096214e-02 -1.585880e+00 4.184674e+00 -1.277905e+00 2.443995e-02 
1.318729e+01 -3.855971e+00 -4.481653e+00 -2.081937e+01 -6.569828e+00 1.313702e+00 2.830194e+00 -6.151402e+00 -1.359601e+01 -7.987438e+00 4.961792e+00 -8.179518e+00 9.650499e-01 -3.768427e-01 -3.441193e+00 -1.817651e+00 2.552061e+00 3.690351e+00 -9.398602e-01 -9.370429e-01 -4.896120e-01 1.568148e+00 -1.203925e+00 3.192822e+00 -2.433216e+00 2.277330e-02 
1.356986e+01 -5.695951e+00 -7.700222e+00 -1.670528e+01 -6.701932e-01 5.405719e-01 1.750035e+00 -3.490530e+00 -9.709880e+00 -7.507346e+00 8.414011e+00 -1.006012e+01 9.953893e-01 -4.843184e-01 -3.151150e+00 -1.551264e+00 3.187168e+00 2.975255e+00 -1.500900e+00 -2.261154e+00 1.018172e+00 2.144950e+00 -1.316021e+00 1.676679e+00 -2.524124e+00 1.460577e-02 
1.242869e+01 -9.552132e+00 -9.408791e+00 -1.421885e+01 1.742254e+00 -3.886284e+00 -4.539866e-01 -5.316679e+00 -7.027623e+00 -9.871037e+00 6.707828e+00 -1.386428e+01 1.000000e+00 -4.730922e-01 -2.394578e+00 -1.703894e+00 3.441741e+00 1.842991e+00 -1.295671e+00 -3.159414e+00 2.016430e+00 2.318029e+00 -2.273069e+00 1.079528e-01 -2.110831e+00 5.314708e-03 
1.216906e+01 -1.154253e+01 -1.063321e+01 -1.003840e+01 2.061762e+00 -3.531271e+00 -5.498499e+00 -1.535153e+00 -5.486129e+00 -1.255654e+01 7.155166e+00 -1.511489e+01 9.965944e-01 -2.872496e-01 -2.033479e+00 -1.249455e+00 2.541645e+00 1.088385e+00 -1.156439e+00 -4.170726e+00 2.123857e+00 2.333560e+00 -3.464651e+00 -1.829048e+00 -7.928812e-01 -6.345826e-03 
1.152223e+01 -1.290557e+01 -1.153463e+01 -6.944108e+00 1.279147e+00 -3.128730e+00 -9.342606e+00 2.953057e+00 -4.117743e+00 -1.682819e+01 6.130979e+00 -1.620629e+01 9.910209e-01 2.417458e-01 -4.429440e-01 -1.036952e+00 2.093006e+00 1.430343e+00 -8.741172e-01 -3.196793e+00 2.500533e+00 2.190965e+00 -2.786466e+00 -2.997703e+00 1.298663e+00 -2.487152e-02 
1.258685e+01 -1.418662e+01 -1.288458e+01 -7.634423e+00 5.003285e+00 -5.620398e+00 -1.465929e+01 2.993885e+00 5.029759e-01 -2.135202e+01 -4.428067e-01 -1.285352e+01 9.681498e-01 4.804885e-01 1.263814e+00 -3.880978e-01 1.271134e+00 7.518958e-01 2.703521e-01 -1.008083e+00 1.753157e+00 1.888935e+00 -1.204492e+00 -3.646141e+00 3.239129e+00 -4.603398e-02 
1.342853e+01 -1.044480e+01 -1.346787e+01 -4.955807e+00 7.423207e+00 -7.212306e+00 -1.185756e+01 4.921466e+00 9.326510e-01 -1.940563e+01 -4.481701e+00 -8.501643e+00 8.898647e-01 6.038711e-01 2.159851e+00 2.639390e-01 1.524685e+00 1.253660e-01 2.957374e-01 1.398969e+00 1.510538e+00 3.233947e-01 1.677469e-01 -2.058626e+00 3.817981e+00 -6.406662e-02 
1.361835e+01 -6.453840e+00 -1.160708e+01 -4.676885e+00 2.749211e+00 -1.377224e-01 -9.281435e+00 6.246427e+00 1.433352e+00 -1.729029e+01 -5.769198e+00 -2.771567e+00 8.170026e-01 3.690841e-01 1.901455e+00 8.810717e-01 2.163491e+00 4.026790e-02 2.995623e-01 2.022457e+00 2.014057e+00 -1.472597e+00 8.418852e-01 -1.998586e-01 3.234236e+00 -6.714524e-02 
1.402583e+01 -5.972708e+00 -1.085368e+01 -7.994547e-01 3.033014e+00 -4.391381e+00 -5.036686e+00 8.879476e+00 -2.965957e+00 -1.802032e+01 -1.498954e+00 -2.157362e+00 7.462614e-01 -3.308029e-01 7.581394e-01 9.468101e-01 2.290933e+00 5.051726e-01 1.797873e-01 8.495516e-01 1.291987e+00 -2.091622e+00 9.859377e-01 4.696338e-01 9.666048e-01 -6.044335e-02 
1.413361e+01 -6.915399e+00 -9.786310e+00 1.104857e+00 7.399721e+00 -5.533050e+00 -7.957437e+00 1.108517e+01 -4.910706e+00 -1.783525e+01 -2.933473e+00 1.455200e-01 7.042253e-01 -8.011711e-01 7.398210e-02 1.215348e+00 3.158295e+00 1.403251e+00 -1.706212e+00 5.001261e-01 6.458356e-01 -9.368137e-01 1.489402e+00 -1.492509e+00 -1.534376e+00 -5.561316e-02 
1.151688e+01 -6.423328e+00 -9.644201e+00 3.607989e+00 7.623815e+00 -3.615706e+00 -8.271801e+00 8.962032e+00 -6.353432e+00 -1.420345e+01 -3.551394e+00 -5.127163e+00 6.440367e-01 -1.654338e+00 -2.852638e-01 1.755129e+00 3.148886e+00 2.052853e+00 -1.679210e+00 4.950595e-01 -2.927087e-01 6.118270e-01 2.950803e+00 -3.009410e+00 -1.500863e+00 -4.834829e-02 
1.086697e+01 -5.858620e+00 -6.135080e+00 8.910867e+00 7.470066e+00 -9.056620e+00 -5.163247e+00 9.434327e+00 -1.556980e+00 -1.175171e+01 -1.220552e+01 -8.958545e+00 5.900491e-01 -2.437741e+00 -7.958323e-01 2.089284e+00 2.828960e+00 2.816251e+00 -1.630719e+00 1.426101e+00 -1.728291e+00 1.769330e-01 3.306284e+00 -2.380607e+00 9.078641e-02 -4.456305e-02 
7.387465e+00 -7.927416e+00 -3.903650e+00 1.104197e+01 1.326210e+01 -1.102565e+01 -3.958484e+00 8.241352e+00 -1.583684e+00 -6.308074e+00 -1.190998e+01 -5.109645e+00 5.616080e-01 -3.388090e+00 -1.455346e+00 2.967045e+00 8.157892e-01 2.977686e+00 -4.872656e-01 6.478589e-01 -2.900578e+00 1.667345e-01 3.753627e+00 -1.908566e+00 1.759071e-01 -3.996368e-02 
4.009618e+00 -1.014252e+01 -2.210167e+00 1.153267e+01 1.866183e+01 -9.981674e+00 -2.983591e+00 2.804051e+00 -6.410914e+00 -5.251521e+00 -1.065722e+01 5.906930e-01 5.226244e-01 -3.843379e+00 -1.865573e+00 2.490006e+00 -1.074143e+00 1.095538e+00 1.765922e+00 4.731092e-01 -1.768953e+00 5.814493e-01 4.769938e+00 1.342302e+00 3.917513e-01 -4.503804e-02 
-1.994887e+00 -1.155811e+01 3.228569e+00 6.376035e+00 1.691636e+01 -5.589507e+00 -6.122335e+00 -2.225719e+00 -3.092792e+00 1.314589e+00 -1.386838e+01 -9.022246e+00 4.779306e-01 -2.855630e+00 -6.187932e-01 6.236280e-01 -1.772009e+00 -2.796272e+00 3.284999e+00 8.769975e-01 9.285327e-01 1.194623e+00 2.592358e+00 3.374503e+00 -2.971238e-01 -5.518904e-02 
-3.658746e+00 -1.337114e+01 2.748840e+00 5.873120e+00 1.112062e+01 -2.945081e+00 -1.715775e+00 5.823097e+00 2.104820e+00 8.286655e+00 -4.514812e+00 -5.043488e+00 4.066976e-01 -2.206912e+00 1.649619e+00 -1.232077e+00 -4.716172e-01 -5.094547e+00 3.695408e+00 6.197669e-01 2.402934e+00 1.418928e+00 1.700674e+00 3.215863e+00 -4.087761e-01 -3.061414e-02 
-3.056505e+00 -9.407072e+00 -3.265014e+00 5.011699e+00 3.051348e+00 1.881050e+00 -2.074046e-01 1.137449e+01 1.315618e-01 -1.153731e-01 1.891330e+00 -3.778174e+00 3.436262e-01 1.152020e-01 1.973848e+00 -3.787926e-01 1.148328e+00 -4.262964e+00 3.283448e+00 4.849191e-01 1.022519e+00 3.110752e-01 6.833219e-03 2.960704e+00 1.418603e+00 -2.951980e-02 
-6.494134e+00 -2.969943e+00 -5.123760e+00 9.856750e+00 1.216006e-01 4.760087e+00 -2.842221e+00 8.018613e+00 -9.284496e-01 3.966832e+00 -2.457753e+00 -4.075224e+00 4.367059e-01 1.071963e+00 2.020158e+00 1.807649e+00 7.604743e-01 -8.194203e-01 3.366807e+00 2.620746e-01 -1.722792e+00 -1.946148e-01 -9.315723e-01 1.444499e+00 -1.213191e-01 -3.551059e-02 
-1.183033e-03 -6.889467e+00 5.270905e+00 1.012586e+01 1.101055e+00 6.975153e+00 -3.134516e+00 1.789121e+00 -2.078056e-02 3.508666e+00 -9.338617e-02 -2.413362e+00 3.153275e-01 9.511353e-01 1.221987e+00 2.062892e+00 5.352644e-01 2.154060e+00 1.709287e+00 1.076481e+00 -4.396102e+00 6.764453e-01 8.333780e-01 1.254952e+00 4.695763e-01 -6.315000e-02 
1.734080e-01 -4.529147e+00 7.519124e+00 7.118410e+00 7.998670e+00 1.134191e+01 1.058154e+00 2.001825e+00 1.207917e+00 1.816773e+00 3.700040e+00 -6.332489e+00 2.432941e-01 1.088756e+00 2.489662e+00 1.486182e+00 -4.724673e-01 2.286713e+00 2.517894e-01 1.873835e+00 -3.534670e+00 2.612095e-01 -1.730951e-01 1.279158e+00 1.481376e+00 -9.449141e-02 
-1.634600e+00 -2.517537e+00 7.280025e-01 9.057190e+00 9.883116e+00 7.136578e+00 3.224815e+00 -7.597624e+00 2.445605e+00 5.126546e+00 5.087193e+00 -3.016601e-01 1.245821e-01 -4.059935e-02 4.651784e+00 -6.550383e-01 -7.054827e-01 3.463299e-01 -4.947701e-01 1.802513e+00 -1.339097e+00 3.899644e-01 1.404440e-01 2.004343e-01 2.495136e+00 -7.397924e-02 
-2.336440e-01 7.292401e+00 4.578604e+00 8.028749e+00 7.164135e+00 5.938322e+00 3.347287e+00 -4.961367e+00 -8.555946e-01 2.292416e+00 1.347747e+00 2.275807e+00 5.962151e-02 -1.867347e-02 4.536664e+00 -3.286141e-01 -4.958444e-01 -1.726788e+00 -1.828812e+00 1.195867e-01 -1.896768e-01 1.143002e-01 1.951367e-01 -3.814993e-01 2.861779e+00 -5.153731e-02 
-6.537437e-04 1.045868e+01 3.465974e+00 6.143278e+00 3.249972e+00 7.203094e+00 4.733484e+00 -1.424769e+00 2.960797e+00 3.973065e+00 2.084932e+00 5.758172e+00 3.726751e-02 -3.480580e-01 2.595838e+00 1.130982e+00 7.556193e-02 -1.078151e+00 -4.009324e-01 3.308048e-01 1.720048e+00 -1.875728e-01 -1.401448e+00 -7.217541e-01 9.038931e-01 -2.646551e-02 
-7.369323e-01 1.166607e+01 4.507067e+00 6.096145e+00 2.681300e+00 2.164587e+00 9.017525e-01 -2.032986e+00 1.521822e+00 3.369198e+00 3.293674e+00 4.946490e+00 2.926481e-02 -1.091931e+00 4.699373e-01 1.491210e+00 7.568820e-01 2.330538e-01 1.064564e-01 1.617373e+00 1.838423e+00 3.386831e-01 -1.407251e+00 -9.165726e-01 -4.409676e-01 -1.259442e-02 
-3.123246e+00 8.274817e+00 6.418679e+00 1.040130e+01 6.733780e+00 7.018783e+00 6.101605e+00 -4.615764e-01 3.190322e-01 -2.419085e+00 5.054588e-01 2.882464e+00 7.432938e-03 -1.517522e+00 -6.461948e-01 1.488993e+00 1.386305e+00 1.120264e+00 5.481247e-01 1.790138e+00 1.662095e+00 8.051874e-01 -8.155592e-01 -1.076489e+00 -1.601135e+00 -1.085672e-02 
-4.132002e+00 1.073402e+01 1.055830e+01 9.684147e+00 6.587500e+00 6.562759e+00 1.075009e+01 3.749155e+00 2.158704e+00 -1.547764e+00 -2.445380e+00 1.508823e+00 1.156670e-02 -1.340840e+00 -7.598827e-01 5.716671e-01 6.794423e-01 5.949649e-01 -3.636831e-01 1.651822e+00 1.106560e+00 2.154256e+00 1.610424e+00 -8.189831e-02 -4.543603e-01 -1.026232e-02 
-5.890729e+00 7.693729e+00 7.885325e+00 1.128080e+01 6.898190e+00 7.744631e+00 8.760001e+00 3.994638e+00 6.668293e+00 2.353749e+00 -4.279847e-01 -5.286684e-01 -8.167028e-03 -4.849215e-01 5.161951e-01 3.966444e-01 4.651664e-01 -5.153981e-01 -1.926943e+00 -5.639012e-01 -5.527776e-01 1.516532e+00 3.189490e+00 1.675731e+00 1.188071e+00 5.060852e-04 
-6.057388e+00 8.157201e+00 6.632080e+00 9.053605e+00 5.573919e+00 -1.675284e-02 7.831665e+00 1.271704e+00 9.118471e+00 9.034899e+00 3.350904e+00 4.380255e+00 -1.424682e-02 -1.294107e-01 4.905997e-01 -3.946922e-01 1.227381e+00 7.203186e-01 -2.057070e+00 -1.524232e+00 -1.262197e+00 6.856022e-01 1.711857e+00 9.857947e-01 2.379014e-01 1.079941e-02 
-4.585161e+00 1.214420e+01 1.036501e+01 1.304240e+01 4.663580e+00 6.738240e-01 4.741313e+00 -1.986739e+00 4.421807e+00 8.237031e+00 5.985972e+00 7.387105e+00 2.287012e-02 2.322226e-01 6.461898e-01 1.620609e-01 9.703861e-01 1.290956e+00 -1.234820e+00 -1.904016e+00 -1.651611e+00 -5.356244e-01 -2.496481e-01 -1.250668e-01 -2.155822e-01 1.043221e-02 
-5.431840e+00 1.096178e+01 7.344995e+00 1.494025e+01 1.130640e+01 -1.871874e-01 5.138278e+00 4.288577e-01 6.709958e+00 4.069881e+00 -7.233844e-01 -1.259557e+00 5.004519e-02 -8.272552e-02 1.693401e-01 5.146313e-03 4.325380e-01 6.573998e-01 1.047783e-01 -1.301176e+00 -1.187356e+00 -1.300394e+00 -1.486298e+00 -9.485602e-01 -8.719701e-01 4.435563e-03 
-5.042390e+00 9.522388e+00 8.339172e+00 1.318941e+01 1.048673e+01 1.655747e+00 5.866156e-01 -3.841993e+00 5.194428e+00 3.588017e+00 9.838254e-01 1.213327e+00 1.184803e-02 -7.169201e-01 -7.503083e-01 2.757959e-02 -4.311291e-01 3.548623e-01 6.510666e-01 -5.209292e-02 -6.172242e-01 -1.218766e+00 -1.598375e+00 -1.371867e+00 -3.610931e-01 -7.294744e-03 
-6.242401e+00 1.031481e+01 7.670731e+00 1.114279e+01 5.949343e+00 1.617718e-02 3.403135e+00 -3.737451e+00 2.230192e+00 3.927917e+00 1.109176e+00 3.107294e+00 1.344204e-02 -4.783040e-01 -3.652333e-01 7.381638e-01 -6.723167e-01 -1.747189e+00 -1.631136e-01 -4.957680e-01 -1.165997e+00 -5.338029e-01 -1.340408e-02 -1.799939e-02 4.044139e-01 -9.777963e-03 
-7.764481e+00 8.716146e+00 1.034004e+01 1.278549e+01 9.116419e+00 3.827475e+00 5.348420e+00 -2.989705e+00 5.678611e-01 3.161378e-01 -1.789643e+00 3.398214e+00 4.697978e-03 1.718234e-01 7.443191e-01 1.011821e+00 4.790255e-01 -5.476273e-01 6.416501e-01 3.634619e-01 -2.240849e-01 5.490900e-01 9.477558e-01 -3.960457e-01 -1.167990e+00 4.292244e-03 
-6.462315e+00 9.538734e+00 1.003538e+01 1.178063e+01 3.255608e+00 -2.088620e+00 2.785358e-01 -5.827273e+00 6.354227e+00 5.638801e+00 5.733531e-01 -3.299317e-01 4.730403e-03 7.401980e-01 5.038682e-01 2.991268e-01 4.017477e-02 -1.528208e-01 1.357375e+00 9.643711e-01 6.645799e-01 9.687490e-01 6.321660e-01 -9.644818e-02 -1.003132e+00 -2.857876e-03 
-4.073316e+00 1.363202e+01 1.221595e+01 1.526562e+01 9.095461e+00 5.916396e+00 3.966225e+00 -3.917506e+00 5.877861e+00 7.471355e+00 -7.284918e-01 -2.908010e+00 3.766507e-02 5.363509e-01 6.601963e-02 -2.507201e-01 -6.831527e-02 1.783625e-01 2.403626e+00 1.863667e+00 1.173003e+00 2.230156e-01 3.527057e-01 5.394099e-01 -4.416778e-01 -3.895837e-03 
-4.386993e+00 1.037621e+01 8.228409e+00 1.010360e+01 5.195718e+00 5.758590e+00 8.916088e+00 4.934897e-02 4.418937e+00 3.511138e+00 9.635949e-02 1.244744e+00 -1.733088e-02 1.079166e-01 -2.442187e-01 -1.180672e-01 -2.197383e-01 -3.449602e-02 1.061495e+00 1.124230e+00 1.011826e+00 -9.323741e-01 -1.534504e+00 4.914833e-01 5.200919e-01 -2.961963e-03 
-6.120388e+00 8.627505e+00 9.989925e+00 1.328243e+01 9.038176e+00 1.192200e+01 1.034798e+01 -6.300144e-02 2.650584e+00 3.143497e+00 1.145903e+00 4.024875e-01 -3.750563e-03 -3.835592e-01 -7.562567e-01 1.468105e-02 -3.828391e-01 -3.889778e-01 -5.063610e-01 9.837198e-02 7.771355e-01 -9.775102e-02 -2.068158e+00 5.138419e-01 8.064650e-01 -2.132875e-03 
-4.899196e+00 1.081990e+01 1.055806e+01 1.167353e+01 3.111771e+00 2.160549e-01 2.708809e+00 -2.695396e+00 3.305995e+00 1.302104e-01 2.093572e+00 6.152794e-01 1.062840e-02 -4.677583e-01 -3.642603e-01 4.298087e-01 3.266791e-01 7.090291e-01 -6.689388e-01 -8.835842e-01 -2.971664e-01 -8.098489e-01 -8.772793e-01 -6.159469e-01 -1.938984e-01 6.165832e-03 
-5.735011e+00 9.628894e+00 1.112453e+01 1.256646e+01 8.192546e+00 6.155858e+00 7.561724e+00 1.340544e+00 5.945577e+00 -1.178968e+00 8.421116e-01 1.439048e+00 1.302105e-02 -3.615447e-01 -3.912263e-01 -1.107460e-01 -1.953442e-01 6.302912e-01 -8.169153e-01 -5.730885e-01 -3.593368e-01 -1.244057e+00 -2.559279e-01 -1.287982e+00 -2.149339e-01 1.221013e-03 
-6.918473e+00 8.054215e+00 9.810148e+00 1.209498e+01 9.163678e+00 5.296966e+00 5.891295e+00 -2.138256e+00 -1.277804e+00 1.285975e+00 -2.831479e+00 -2.430282e-01 5.112469e-03 -5.222015e-01 -7.106045e-01 -2.810200e-01 3.714209e-02 1.307495e+00 9.302931e-01 4.694543e-01 -2.364519e-01 -1.639098e+00 4.776473e-01 -1.352369e+00 -3.398691e-01 -1.894045e-03 
