5.002687e+00 8.667442e+00 9.688853e+00 9.492422e+00 5.339872e+00 3.709058e+00 -3.793765e+00 -3.387100e+00 4.605725e-01 4.751901e+00 2.858038e+00 -1.844848e+00 2.005756e-03 -5.024595e-01 -1.742175e-01 5.225422e-01 -9.151621e-02 7.098817e-01 8.000247e-01 3.351770e-01 4.116921e-01 -7.905253e-01 -1.621822e+00 -1.121536e+00 1.882362e-02 7.415664e-03 
4.400796e+00 9.088828e+00 1.003315e+01 8.436124e+00 3.436077e+00 3.534812e+00 -4.512225e+00 -3.299226e+00 -5.020867e+00 -2.946281e+00 -5.150692e-01 2.406011e+00 1.439077e-02 -6.278813e-01 -6.212808e-01 9.816046e-02 -3.457913e-01 1.413110e+00 2.166539e+00 8.594028e-01 7.710498e-01 -6.557741e-01 -1.620094e+00 -4.269598e-01 9.570541e-01 4.888904e-03 
2.791334e+00 7.585662e+00 1.212942e+01 9.562990e+00 9.841177e+00 7.796305e+00 -1.758650e+00 -1.372577e+00 -7.513342e-01 4.918806e-01 -1.063091e+00 -3.876159e+00 3.289157e-02 -1.051268e+00 -1.574629e+00 -7.931183e-01 -6.282102e-01 1.714281e+00 2.309342e+00 6.801332e-01 1.130008e+00 -1.414289e-01 -1.625522e+00 1.279333e-01 1.727781e+00 -3.618705e-03 
2.968956e+00 6.101929e+00 8.959374e+00 7.728182e+00 1.015477e+01 1.249813e+01 -5.143089e-01 -5.391126e-01 -2.212345e+00 -1.218558e+00 2.683803e+00 3.956078e+00 1.100737e-02 -1.728994e+00 -1.967688e+00 -1.111248e+00 -8.610736e-01 1.270152e+00 1.530601e+00 3.359553e-01 1.870562e+00 1.314918e+00 -1.019453e+00 9.785731e-01 1.950978e+00 -1.131178e-02 
4.622650e-01 2.287747e+00 6.260150e+00 6.705342e+00 1.055193e+01 1.077411e+01 -2.392057e+00 8.828815e-01 -1.650833e+00 -4.239571e+00 1.898268e+00 6.019025e+00 -1.439607e-02 -1.704251e+00 -1.214782e+00 -1.411918e+00 -1.084532e+00 -4.607855e-01 -2.336322e-01 1.562244e+00 2.586844e+00 1.927649e+00 7.048634e-01 5.471197e-01 1.206686e+00 -1.301997e-02 
-3.079641e+00 1.899348e+00 7.411543e+00 5.559580e+00 9.431459e+00 9.698915e+00 -2.515745e+00 4.925854e+00 2.003473e+00 -5.677822e+00 2.897117e+00 7.213306e+00 -1.852429e-02 -1.467877e+00 -8.079008e-01 -1.409967e+00 -1.033201e+00 -1.413917e+00 -9.663545e-01 2.137706e+00 2.254358e+00 1.855740e+00 1.143302e+00 5.616871e-01 -7.786897e-01 -1.102216e-02 
-2.705622e+00 3.613042e+00 5.843741e+00 5.224630e+00 7.898904e+00 8.027752e+00 7.053289e+00 8.829163e+00 6.779002e+00 6.245830e+00 1.565851e+00 5.286580e-01 -1.744246e-02 -7.183808e-01 -3.530899e-01 -1.410004e+00 -5.334455e-01 -1.471407e+00 -4.965381e-01 1.541589e+00 1.052440e+00 1.304457e+00 2.773984e+00 1.409383e+00 -7.433151e-01 7.931590e-04 
-2.786487e+00 1.399777e+00 2.117742e+00 3.302533e+00 4.411696e+00 9.039536e+00 5.451550e+00 6.759539e+00 2.851436e+00 -7.447501e-01 5.658447e+00 2.807813e+00 -4.258025e-02 -2.541634e-01 -1.074085e+00 -1.854581e+00 1.202094e-01 -1.030099e+00 -6.565449e-01 7.760962e-01 -6.316000e-01 -1.864343e-02 2.515014e+00 8.448200e-01 -7.681527e-02 -1.126713e-03 
-3.276217e+00 7.720826e-01 1.857028e+00 5.166638e+00 5.704780e+00 8.621106e+00 1.332239e+00 5.228238e+00 4.447472e+00 7.163812e+00 7.564516e+00 4.505197e+00 1.597703e-03 -6.790725e-01 -1.236804e+00 -8.010108e-01 9.445931e-01 -6.283022e-01 -1.344777e+00 -2.902967e+00 -2.104911e+00 1.248458e-01 1.049643e+00 1.707926e+00 1.493378e+00 -3.036284e-03 
-4.065161e+00 -2.050596e+00 1.319933e-01 6.189623e+00 5.378027e+00 6.119513e+00 4.225262e+00 3.568316e+00 3.076021e+00 6.438255e+00 4.121884e+00 4.840961e+00 -3.367794e-02 -5.289055e-01 -9.299039e-01 -4.804345e-01 -1.240355e-01 -1.055304e+00 -1.560576e+00 -2.262855e+00 -1.747797e+00 -8.310402e-01 1.802912e-01 1.114125e+00 -1.381667e-01 2.748221e-03 
-5.461647e+00 -8.457909e-01 2.831562e+00 8.504050e+00 4.274228e+00 2.763878e+00 -6.848403e+00 -9.977984e-02 7.290939e+00 7.902541e+00 1.087376e+01 6.978972e+00 -3.707504e-02 1.113416e+00 -1.115520e+00 -2.333605e-01 -2.053421e+00 -2.512281e+00 -2.340689e+00 -3.982013e-01 -1.961366e-01 -1.795004e+00 -1.981868e+00 -4.130802e-01 -1.005038e+00 1.810747e-02 
-4.338299e+00 -2.440806e+00 -7.716974e-01 1.013650e+00 -1.495475e-01 4.165269e+00 -1.772406e+00 6.845604e-01 -2.725498e+00 -2.126592e-01 9.574450e+00 8.800917e-01 -9.502769e-03 2.039869e+00 -3.387245e-01 1.254263e-01 -2.463001e+00 -2.832860e+00 -2.128223e+00 4.986715e-01 1.307584e+00 -1.645867e+00 -1.585523e+00 -8.220579e-01 -4.376711e-01 3.510460e-02 
2.427435e+00 -4.610413e+00 1.142071e+00 -2.512482e+00 -4.092840e+00 -2.105216e+00 2.340066e+00 5.689432e+00 -1.626789e+00 5.799301e-01 2.772833e+00 1.460443e+00 8.004749e-02 1.228892e+00 5.997175e-01 1.273896e-01 -9.275451e-01 -6.668662e-01 -7.450660e-01 1.342927e+00 1.149830e+00 -7.905941e-01 -3.551111e-01 -3.120803e+00 -2.178864e-01 1.494250e-02 
2.189641e+00 -1.861907e+00 1.603870e+00 -6.171162e-01 -4.602742e+00 -2.087054e+00 2.124385e+00 7.211630e+00 -6.944511e-01 2.171945e+00 4.062059e+00 5.411870e+00 8.328378e-02 -4.521718e-01 1.170170e+00 3.090969e-01 8.378527e-01 1.120626e+00 7.616893e-01 4.248834e-02 -1.789227e-02 2.103611e+00 1.808575e+00 -2.107590e+00 7.937647e-01 -7.386208e-03 
-2.581157e+00 1.863347e+00 2.280726e+00 4.681708e+00 3.166494e+00 2.164709e+00 -2.082164e+00 2.385838e+00 2.322445e+00 4.934684e+00 -1.974059e+00 3.623651e+00 -8.755803e-03 -1.663894e+00 1.348190e+00 -7.286649e-01 3.307803e-01 6.937633e-01 2.152947e+00 -5.688800e-01 -1.589138e+00 1.279322e+00 3.648401e-01 -3.674253e-01 4.193164e-01 -2.939332e-02 
-4.094862e+00 1.731632e-01 2.044596e-01 1.605818e+00 1.823914e+00 5.838754e+00 6.511511e-01 2.246897e+00 5.817937e+00 6.652838e+00 1.409946e+00 3.767311e+00 -2.032161e-03 -6.638142e-01 6.572213e-01 -1.042406e+00 -1.374503e+00 -3.814897e-01 2.059698e+00 2.431943e-01 -1.379188e+00 -6.261613e-02 -1.293536e+00 -6.485928e-01 -1.535548e+00 -2.381706e-02 
-2.749785e+00 1.113003e+00 -1.801548e+00 -1.970048e+00 -3.837351e+00 4.696617e+00 2.322833e-01 2.261110e-01 1.513627e+00 1.636840e-01 2.261763e+00 4.379304e+00 -2.426112e-02 1.379887e+00 -5.825849e-01 -1.666300e+00 -1.958806e+00 -1.315745e+00 1.177979e+00 6.951427e-01 -1.407021e-02 -8.636247e-01 -1.163728e+00 1.275040e-01 -1.424314e+00 -4.262161e-03 
-1.045115e+00 1.799371e+00 -1.567023e+00 -4.163755e+00 -3.008267e+00 6.945482e+00 2.183133e+00 1.395553e+00 -6.031228e-01 -1.910233e+00 -1.298816e+00 -2.643698e+00 -2.804887e-02 1.269688e+00 -1.754704e+00 -7.765403e-01 1.213465e-01 -8.766834e-01 -4.663785e-01 -6.254287e-01 -6.137689e-01 -1.719833e+00 -1.850103e+00 3.223964e-01 -9.776320e-01 2.512841e-02 
2.793407e+00 -1.862681e+00 -5.165031e+00 -2.227537e+00 -9.961399e-01 7.501237e+00 6.275591e-01 2.741158e+00 1.214852e+00 3.397579e+00 1.784158e-02 -2.924125e-01 -1.705825e-02 -3.685080e-01 -1.942902e+00 8.636610e-01 1.227486e+00 -7.675883e-01 -1.729066e+00 -6.897616e-01 1.773295e-01 -3.728245e-01 -1.073889e+00 4.364858e-01 3.764767e-01 8.394308e-02 
-5.180206e-01 -7.112518e+00 -1.996500e+00 2.341295e+00 -3.980108e+00 2.104550e+00 -2.673630e+00 -2.079471e+00 -2.631840e+00 -4.214623e+00 4.143888e+00 1.215008e+00 1.200085e-01 -2.544735e+00 -1.549342e+00 1.405062e+00 6.326600e-01 -8.382398e-01 -1.902842e+00 -5.796591e-01 3.663647e-01 7.825055e-01 -4.019279e-01 1.556122e+00 2.033662e+00 1.387119e-01 
-4.855873e+00 -4.145561e+00 2.731495e+00 9.148577e-01 -7.189373e+00 -1.528247e+00 -7.881435e-01 2.850270e+00 6.638632e-01 -4.053567e+00 1.722840e+00 4.332335e+00 3.214256e-01 -3.985487e+00 -2.028052e-01 1.191882e+00 -1.179505e+00 -8.943645e-01 -5.598274e-01 8.671070e-03 1.091576e+00 1.568013e+00 -1.476030e-02 1.446000e+00 1.168677e+00 1.577728e-01 
-9.944151e+00 -4.805901e+00 1.510024e+00 -2.571653e+00 -4.102850e+00 1.946016e+00 -7.311285e-03 3.172820e+00 3.584899e+00 -1.942997e-01 5.629296e+00 5.212237e+00 4.962686e-01 -3.294246e+00 6.736773e-01 -3.103909e-01 -1.569271e+00 1.257202e+00 1.147290e+00 -1.217993e-01 2.213747e+00 1.224080e+00 1.827361e+00 1.174450e+00 -5.222702e-01 1.354935e-01 
-1.242096e+01 -4.030016e+00 -9.588847e-01 -5.668590e+00 -5.406591e+00 4.781367e+00 -6.622450e-01 5.572891e+00 5.946548e+00 1.313616e+00 6.505136e+00 3.552358e+00 5.836756e-01 -2.633723e+00 -3.147084e-01 -1.638659e+00 -1.663022e+00 2.032134e+00 1.351112e+00 1.749380e-01 2.302750e+00 5.075125e-01 2.587352e+00 2.431436e-01 -9.498407e-01 9.540164e-02 
-1.320671e+01 -3.801903e+00 -1.703265e+00 -2.213334e+00 1.414513e+00 4.686192e+00 -3.345576e+00 7.627953e+00 8.472207e-01 2.238588e+00 7.624991e+00 -1.006354e+00 6.663510e-01 -1.467094e+00 -4.967326e-01 -1.699480e+00 -1.879010e-02 1.683870e+00 -3.246304e-01 -7.760576e-01 1.188504e+00 -4.004028e-02 1.902166e+00 -1.943510e+00 -3.075244e-01 6.093485e-02 
-1.639321e+01 -6.221102e+00 -3.855153e+00 -7.579411e+00 2.126130e-01 3.857224e+00 1.755679e+00 1.213645e+01 4.570265e+00 7.666750e+00 1.940710e+00 2.692426e+00 7.133926e-01 -7.378006e-01 -3.722332e-01 -1.416160e+00 6.888244e-01 7.374250e-01 -1.865977e+00 -8.154203e-01 -3.589630e-01 -2.294028e-02 6.513657e-01 -2.488384e+00 2.484334e-01 4.375003e-02 
-1.529350e+01 -6.194021e+00 -5.539242e+00 -1.710193e+00 1.506896e+00 7.849352e-01 -5.096561e+00 5.833557e+00 4.072839e+00 6.139962e+00 -1.806041e+00 4.104581e+00 7.360843e-01 -5.690672e-01 -9.252144e-01 -2.191485e+00 2.901493e-01 -4.638754e-01 -1.515420e+00 2.726564e-01 -2.170476e+00 9.730509e-01 -2.281015e-01 -2.138865e+00 9.578082e-01 3.241311e-02 
-1.506657e+01 -4.695123e+00 -6.121696e+00 -2.476038e+00 -1.765658e+00 -2.597889e+00 -3.863854e+00 4.675274e+00 4.219037e+00 2.619757e+00 -1.221267e+00 2.239058e+00 7.675591e-01 -4.136505e-02 -2.940412e-01 -1.968069e+00 1.699700e-01 -3.147623e-01 -8.322245e-01 7.936194e-01 -2.518867e+00 -8.114824e-01 -1.415923e+00 -8.332586e-01 -6.147357e-01 2.497249e-02 
-1.671536e+01 -9.190965e+00 -1.152742e+01 -3.314274e+00 8.427107e-02 3.366468e-01 8.274719e-01 5.061579e-01 5.888089e+00 3.621577e+00 -1.488342e+00 4.009371e+00 8.013333e-01 -4.093113e-02 4.344040e-01 -1.161051e+00 -1.069614e+00 -5.032994e-01 -9.049306e-02 2.958559e+00 -2.759163e-01 -2.013009e-01 -2.490585e-01 9.524222e-02 -3.611643e-01 1.711973e-02 
-1.588910e+01 -6.192836e+00 -1.070141e+01 -5.927520e+00 -6.498860e-01 -7.975411e-02 2.761759e+00 2.205817e+00 -3.947723e-01 1.846328e+00 -2.384433e+00 -3.336473e-01 8.056306e-01 2.091303e-01 7.112261e-01 1.339367e-01 -9.662767e-02 2.877889e-01 1.014584e+00 2.454658e+00 9.495483e-02 -1.301962e+00 1.825892e-01 -4.246889e-01 -4.603484e-01 6.056034e-03 
-1.508689e+01 -3.273145e+00 -9.054639e+00 -5.332524e+00 -1.567487e+00 -9.265974e-01 6.383426e+00 5.688704e+00 5.373239e+00 5.281384e+00 -7.482474e-01 3.585112e+00 8.026472e-01 4.801178e-01 1.676926e+00 1.647092e+00 1.665758e+00 8.009375e-01 -7.530870e-02 5.295061e-01 1.122143e+00 -1.623582e+00 -4.624248e-01 8.556557e-01 -2.183583e-01 6.470025e-04 
-1.483516e+01 -4.097903e+00 -6.688402e+00 -1.950052e+00 4.991654e-01 3.106653e+00 5.631458e+00 2.558775e+00 -2.033347e+00 2.702799e+00 -3.714759e+00 1.494453e-01 7.971823e-01 6.612320e-02 5.228024e-01 6.978627e-01 1.996251e+00 1.417362e+00 -1.485361e-01 1.407856e-01 -1.058351e-01 2.446396e-01 -6.280303e-02 1.458139e+00 6.175202e-01 8.464372e-03 
-1.484175e+01 -1.853801e+00 -5.298458e+00 3.025783e+00 3.514432e+00 -1.633100e+00 2.040153e+00 5.940395e+00 -1.410531e+00 8.812169e-01 3.455100e+00 2.676034e+00 8.087925e-01 -3.159599e-02 5.141440e-02 -8.120226e-01 1.087127e+00 1.318082e+00 -3.891028e-01 -7.714223e-01 -5.901567e-01 -7.109592e-01 -4.705647e-01 7.593762e-01 9.580503e-02 2.478194e-02 
-1.568106e+01 -4.288496e+00 -9.090185e+00 -1.254201e-01 3.895963e+00 -4.691832e-01 5.637324e+00 1.550795e+00 4.220310e+00 3.732397e+00 2.804587e+00 3.208493e+00 8.448798e-01 8.789814e-01 9.604357e-02 -1.295330e+00 -1.727222e-01 -3.868249e-01 -1.187328e+00 -1.035912e+00 4.069550e-01 -5.499207e-01 -1.834946e+00 2.771675e-01 -9.104096e-01 2.414339e-02 
-1.482192e+01 -2.920776e+00 -1.191386e+01 -8.092037e-01 3.324523e+00 -1.084193e+00 2.523381e+00 3.241911e+00 -1.308386e+00 2.413763e+00 -2.110391e-01 2.534613e+00 9.027082e-01 2.476461e+00 3.806134e-01 1.208922e+00 -1.192534e-01 -2.371960e+00 -1.294147e+00 -1.577933e+00 -2.091682e+00 -9.374334e-01 -2.252347e+00 -1.324796e+00 -2.794963e-01 -1.452055e-02 
-1.045016e+01 -3.084197e+00 -9.857349e+00 -8.961692e-01 -1.340004e+00 -3.104442e+00 2.102831e-01 5.942793e+00 -4.834023e+00 -7.238203e+00 -4.958522e-01 -4.331892e+00 8.709413e-01 6.143763e+00 3.379942e-01 2.480939e+00 -8.503836e-01 -3.922237e+00 -4.510689e+00 -3.309996e+00 -2.429667e+00 -7.967514e-01 -1.983259e+00 -2.313163e+00 -6.631649e-01 -3.378334e-02 
-5.074886e+00 -5.528831e-01 1.129732e+00 2.814891e+00 -5.727385e+00 -6.786208e+00 -3.135990e+00 -6.714014e+00 -1.570531e+00 -4.895220e+00 -1.518661e+00 5.048745e+00 7.231590e-01 6.941058e+00 -1.667516e+00 2.451226e+00 -3.019063e+00 -3.075459e+00 -6.769608e+00 -1.988592e+00 -2.723129e+00 7.403214e-01 4.097083e-01 -3.309213e+00 -3.172547e-01 -3.682804e-03 
1.016424e+01 -3.782471e+00 -3.207284e+00 -6.189384e+00 -1.118927e+01 -2.017162e+01 -8.082972e+00 -5.619575e+00 3.676262e-01 -2.529409e+00 -8.107420e+00 -1.364398e+00 7.657377e-01 4.951124e+00 -2.816748e+00 9.274198e-01 -4.987739e+00 -1.800935e+00 -6.131177e+00 -3.283076e-01 -1.619815e+00 1.417371e+00 1.785284e+00 -4.190824e+00 -8.530984e-01 4.706912e-02 
9.576171e+00 -1.090922e+01 -2.982765e+00 -1.325791e+01 -7.128138e+00 -2.639864e+01 -3.272950e+00 -4.592547e+00 -2.076035e-01 2.107907e+00 -1.295132e+01 -5.354078e-01 9.368960e-01 1.949670e+00 -3.070039e+00 -3.753660e-01 -5.186339e+00 4.321133e-01 -2.956621e+00 1.326673e+00 1.390898e+00 2.402386e-01 -3.831594e-01 -3.020387e+00 -2.781668e+00 7.652372e-02 
6.979928e+00 -1.198977e+01 -3.164001e+00 -1.779846e+01 -9.644305e+00 -2.395411e+01 -1.362775e+00 -3.217017e+00 1.571367e+00 -1.813345e+00 -1.573364e+01 -5.805308e+00 9.994184e-01 -8.400646e-01 -1.640053e+00 1.101231e+00 -2.328946e+00 1.876111e+00 1.534961e+00 2.548486e+00 1.527590e+00 -9.065807e-02 -2.255175e+00 -4.090109e-01 -1.724699e+00 4.795585e-02 
6.265624e+00 -1.179943e+01 -7.687392e-01 -1.731227e+01 -4.339299e+00 -1.967807e+01 1.372786e-01 -9.608021e-01 -9.712083e-01 -7.169048e+00 -1.280749e+01 -6.639142e+00 9.889372e-01 -4.797403e-01 -4.771740e-01 8.983942e-01 -1.115871e+00 1.113967e+00 2.212167e+00 9.629818e-01 8.039553e-01 -5.825795e-01 -4.023859e+00 6.857994e-01 -2.531741e+00 8.372182e-03 
7.619195e+00 -1.153763e+01 1.191857e+00 -1.580694e+01 -3.203128e+00 -1.585710e+01 2.954346e+00 2.025001e-01 2.961383e-01 -9.166807e+00 -1.022439e+01 -6.936024e+00 9.794964e-01 -1.986446e-02 -8.238012e-01 3.519145e-02 -6.912088e-01 6.034424e-01 5.889753e-01 5.274336e-01 -6.288372e-01 -1.457470e+00 -3.494797e+00 4.508262e-01 -1.764314e+00 9.438396e-05 
6.857835e+00 -1.352116e+01 -6.687230e-01 -1.983303e+01 -4.778892e+00 -1.938631e+01 -6.166006e-01 -2.282530e+00 -2.482887e+00 -1.433466e+01 -1.227695e+01 -1.262875e+01 9.887179e-01 5.171148e-01 -1.676830e+00 -8.500935e-01 -2.589998e-01 -7.725483e-01 -3.282585e-01 3.887337e-01 -1.034159e+00 -1.740711e+00 -2.179084e+00 -5.215352e-01 -1.064980e+00 1.805663e-03 
6.584499e+00 -1.524791e+01 -3.038052e+00 -1.999412e+01 -6.407297e+00 -2.115511e+01 1.651333e+00 -5.700339e+00 -4.960142e+00 -1.570453e+01 -1.374478e+01 -1.163207e+01 1.000000e+00 1.104951e+00 -1.271595e+00 -1.250729e+00 1.327873e+00 -2.857671e-01 -1.245439e-01 1.113144e+00 -1.138591e-01 -1.317725e+00 -2.261619e-01 5.644805e-01 1.423015e-01 -1.467319e-02 
9.368546e+00 -1.832844e+01 -2.904252e+00 -1.651367e+01 -6.599956e+00 -1.867035e+01 2.732454e+00 -3.180176e+00 -7.046622e+00 -1.479561e+01 -1.365497e+01 -9.616018e+00 9.877137e-01 1.510856e+00 -2.666555e-01 -6.350983e-01 3.111546e+00 3.440348e-01 7.989132e-01 2.825912e+00 1.315915e+00 -1.143676e-01 2.256180e+00 2.014941e+00 1.278090e+00 -3.618719e-02 
1.188859e+01 -1.549196e+01 -3.944023e+00 -1.082725e+01 -3.721431e+00 -1.683780e+01 6.845541e+00 8.202738e-02 -4.010616e+00 -1.006714e+01 -6.712979e+00 -7.730885e+00 9.066325e-01 7.562457e-01 4.798397e-01 -3.591512e-01 2.030572e+00 -1.520227e+00 5.113136e-01 2.303752e-01 7.825705e-01 -5.955041e-01 2.411073e+00 2.868572e+00 5.364084e-02 -8.074772e-02 
1.176007e+01 -1.473241e+01 -3.391229e+00 -8.858735e+00 -4.401650e+00 -1.755040e+01 1.091586e+01 1.405864e+00 -3.529487e+00 -5.872453e+00 -5.718140e+00 -8.188899e+00 8.544657e-01 -3.266233e-01 1.177556e+00 -8.354675e-01 9.781343e-01 -3.001876e+00 -1.096816e+00 -1.874151e+00 -3.644953e-02 -1.406532e+00 3.132262e-01 2.788037e+00 -1.099455e+00 -1.124118e-01 
9.169967e+00 -1.464673e+01 -4.590320e+00 -1.366873e+01 -1.510759e+01 -1.915852e+01 -1.288493e+00 -4.080506e+00 -9.696230e+00 -8.110741e+00 -3.370333e+00 -1.207743e+01 6.628854e-01 -6.451413e-01 1.843643e+00 -8.549128e-02 1.500881e+00 -3.883307e+00 -1.660421e+00 -3.788804e+00 -8.036615e-01 -2.902277e+00 -8.300465e-01 2.121374e+00 -1.255138e+00 -1.305812e-01 
9.094742e+00 -1.286328e+01 -6.758442e+00 -1.020226e+01 -1.591626e+01 -2.299407e+01 -2.571282e+00 -1.281157e+00 -1.123648e+01 -1.420768e+01 -1.386109e+00 -1.294002e+01 5.475285e-01 -8.597237e-01 3.778383e+00 2.011452e+00 4.004328e+00 -1.252847e+00 4.470863e-01 -4.545542e+00 1.639746e-01 -9.993927e-01 1.017918e+00 1.629887e+00 9.366142e-01 -1.674120e-01 
9.995549e+00 -7.208313e+00 -2.687874e+00 -2.651082e+00 -1.738066e+01 -2.241807e+01 -5.354911e+00 -2.592770e+00 -1.466851e+01 -1.004976e+01 1.727877e+00 -1.163101e+01 4.071952e-01 -2.136573e+00 4.596445e+00 2.710683e+00 5.249861e+00 3.613530e+00 4.494626e+00 -7.657715e-01 1.287643e+00 1.724162e+00 2.325845e+00 1.591102e+00 3.533451e+00 -1.756058e-01 
7.048657e+00 4.402981e-01 5.714806e+00 5.654078e+00 -9.529349e+00 -1.368520e+01 -9.778644e+00 1.481868e+00 -6.040311e+00 1.866463e-01 -1.178093e-01 -3.729035e+00 1.452511e-01 -3.714242e+00 3.092461e+00 1.662496e+00 3.165441e+00 4.999336e+00 7.639561e+00 1.412182e+00 6.719023e-01 4.069194e+00 4.645476e+00 7.994739e-01 6.112227e+00 -1.522726e-01 
-4.898548e-01 1.683708e+00 2.726473e+00 4.652400e+00 -2.333895e-01 -1.339832e+00 -1.513669e+00 9.761945e-01 -3.673504e+00 -3.678677e+00 3.951025e+00 9.843321e-01 -1.400506e-02 -4.026768e+00 6.596226e-01 -9.614290e-01 5.913125e-01 5.012331e+00 6.930843e+00 2.029873e+00 5.803326e-01 4.701589e+00 2.663218e+00 5.647243e-01 5.837008e+00 -9.613921e-02 
-4.233765e+00 -1.846986e+00 -1.153135e+00 1.973200e+00 5.067869e-01 4.664614e+00 2.569007e+00 2.938727e-01 3.611989e+00 5.834159e+00 1.499687e+00 1.131344e+01 -3.234267e-03 -3.145627e+00 -1.048426e+00 -2.029222e+00 -7.441092e-01 2.551295e+00 3.774915e+00 2.168141e+00 2.962843e-01 1.925687e+00 1.385557e+00 1.744279e+00 2.732745e+00 -3.192033e-02 
-4.497078e+00 -2.766557e+00 -4.061049e+00 2.145920e+00 2.662927e+00 3.061240e+00 -1.379370e+00 9.028910e-01 4.013285e+00 4.425763e-01 3.742751e+00 1.003279e+01 7.417798e-04 -1.415991e+00 -1.171071e+00 -4.841479e-01 -6.279892e-01 1.433319e-01 1.593172e+00 9.494225e-01 9.852273e-01 1.236588e+00 1.551857e+00 1.464192e+00 -1.122544e-01 -8.753503e-03 
-6.675867e+00 -2.576697e+00 -1.037544e+00 3.186773e+00 1.778968e+00 2.988843e+00 9.949112e-01 2.999941e+00 -2.552687e-01 5.053804e+00 8.707721e+00 5.410460e+00 -2.172399e-02 -3.725025e-01 -4.323809e-01 4.794888e-01 4.067627e-01 2.913814e-01 6.725935e-01 2.508299e-01 6.864753e-02 -9.001010e-01 -7.154799e-03 6.216502e-01 -2.043009e+00 -1.311367e-02 
-6.348759e+00 -3.806793e+00 2.479380e-01 9.056683e-01 -1.528205e-01 7.463913e+00 4.020491e+00 4.549296e+00 4.443067e+00 4.470784e+00 7.667967e+00 3.374550e+00 -4.852772e-02 2.764050e+00 -8.032278e-01 -2.779645e+00 -7.684892e-01 1.568083e+00 -2.939256e-01 7.655287e-01 -3.239499e+00 -2.512479e-01 -4.386226e-01 -4.145373e-01 -2.316486e+00 7.586621e-02 
-5.170437e+00 -3.488773e+00 -9.101835e-01 4.627139e+00 3.371568e+00 5.826245e+00 1.123226e+00 -1.186092e+00 -1.103406e+00 3.784281e+00 2.645330e+00 4.427515e+00 -4.416788e-02 4.573647e+00 -9.269984e-01 -5.581024e+00 -1.281798e+00 2.780289e+00 -1.028578e+00 -2.026999e-02 -5.402667e+00 3.606308e-01 -1.629038e+00 -9.443253e-01 -1.881798e+00 1.684097e-01 
8.570457e+00 -6.326659e+00 -1.802295e+01 -2.416709e+00 9.707042e+00 1.729109e-01 2.384116e+00 -1.320159e+01 3.181114e+00 -1.115775e+00 4.701260e+00 -1.058163e+00 3.912948e-01 2.076965e+00 -6.024663e-01 -4.227386e+00 6.926937e-02 1.176973e+00 -1.396469e+00 -8.798438e-01 -2.776124e+00 4.681711e-01 -2.603517e-01 -3.888178e-01 -1.476856e+00 1.793455e-01 
8.732759e+00 -5.951756e+00 -1.980722e+01 -1.561030e+00 1.075048e+01 1.491456e+00 1.711748e+00 -1.513795e+01 2.178862e+00 -2.981083e-01 5.469448e+00 -1.782172e+00 6.004130e-01 -1.756573e+00 -8.084394e-02 -5.398178e-01 8.573637e-01 -9.272959e-01 -5.928367e-01 -1.290397e+00 1.578679e+00 1.744040e+00 4.691466e-01 -5.323625e-01 -1.518497e+00 1.663965e-01 
-2.915531e+00 -5.587633e+00 -1.144047e+01 4.346100e+00 2.042584e+00 2.648965e+00 -6.729888e-01 -2.355393e+00 5.142788e+00 5.210220e+00 4.311819e+00 -9.048836e-01 5.259091e-01 -5.891043e+00 1.003148e+00 2.544388e+00 1.146597e+00 -2.569365e+00 -7.812027e-01 -2.500097e+00 4.110095e+00 1.356946e+00 1.466999e+00 -2.796056e+00 7.402685e-01 8.596634e-02 
-8.210306e+00 -4.262506e+00 -6.900515e+00 5.532554e+00 2.567317e+00 1.624035e+00 -3.800207e+00 1.284206e+00 6.635956e+00 2.967017e+00 1.782382e-01 -3.241608e+00 7.205074e-01 -5.512787e+00 1.157683e+00 1.386775e+00 -8.512986e-01 -2.635272e+00 -1.799559e+00 -2.082153e+00 3.037412e+00 2.722211e-01 9.952132e-01 -3.108293e+00 6.188626e-01 6.073238e-02 
-1.241323e+01 -2.155545e+00 -1.175437e+01 -2.305155e-01 9.517993e-01 -3.799392e+00 -7.360389e+00 -8.621885e-01 7.737295e+00 4.586657e+00 -6.633415e+00 3.372897e+00 7.610793e-01 -2.895953e+00 1.416574e+00 2.115559e-01 -1.543186e+00 -9.563580e-01 -1.114204e+00 -7.615527e-01 -6.504437e-01 -8.013048e-01 4.496276e-01 -1.142465e+00 1.246375e+00 5.943065e-02 
-1.408233e+01 -1.879387e+00 -1.271640e+01 -3.529216e+00 -1.880482e+00 -4.282161e+00 -5.355318e+00 -6.974918e-01 2.242713e+00 4.989739e+00 -4.599399e+00 -8.267498e-01 7.864898e-01 -1.417413e+00 9.055554e-01 -9.591822e-02 -9.831018e-01 -1.526310e+00 -4.124698e-01 9.643500e-01 -7.142559e-01 -9.284773e-01 1.480151e+00 2.076901e+00 1.742297e+00 1.531845e-02 
-1.445929e+01 3.036757e-01 -7.474751e+00 1.161053e+00 -5.153056e-01 3.104138e-02 -3.703197e+00 -4.616763e+00 3.332886e+00 6.446997e+00 9.883095e-01 4.119561e+00 7.900711e-01 -6.244017e-01 -3.445024e-01 6.310412e-01 -4.336353e-01 -1.505824e+00 9.938443e-01 2.407501e+00 3.079262e-01 -7.336556e-01 8.224602e-01 1.742321e+00 -1.310513e+00 6.040263e-03 
-1.427434e+01 -9.643393e-01 -9.519913e+00 -7.874027e-02 -4.330681e+00 -2.353531e+00 -8.070530e-01 -4.097865e-01 4.195774e+00 9.437600e+00 6.751882e+00 5.096547e+00 7.826037e-01 -1.638868e-01 -6.965211e-01 4.087875e-01 -1.574424e-01 4.974871e-02 1.246673e+00 2.461441e+00 1.014618e+00 -9.413301e-01 3.261089e-04 9.386761e-01 -7.736725e-01 6.103200e-03 
-1.543923e+01 -4.335581e+00 -1.019740e+01 -4.123930e+00 -5.352219e+00 2.055144e-01 2.402984e+00 5.335898e-01 3.092487e+00 6.475027e+00 -3.597451e+00 -6.141318e+00 7.932237e-01 -2.778463e-01 -1.228853e+00 -3.446045e-01 -4.433981e-01 2.808639e-01 1.417641e+00 2.213756e+00 2.286398e+00 -6.331396e-03 -2.672772e+00 -4.857612e-01 -2.095507e+00 1.511959e-02 
-1.441179e+01 -3.042364e+00 -9.311133e+00 -1.673936e+00 7.867180e-01 1.863968e+00 3.898794e+00 1.800420e+00 -2.343738e+00 4.977355e+00 2.386863e+00 4.353275e-01 8.154296e-01 8.564264e-01 8.240946e-01 1.111026e+00 1.130836e+00 2.163591e+00 1.358119e+00 9.897750e-01 4.952631e-01 -6.565239e-01 -5.177906e+00 -1.977414e+00 -9.562699e-01 2.560454e-02 
-1.577979e+01 -4.801575e+00 -9.302164e+00 -2.583394e-01 -1.669686e+00 5.010499e+00 5.012660e+00 5.710125e+00 6.570985e+00 -4.686743e+00 7.420130e-01 -4.027365e+00 8.492562e-01 2.874357e+00 3.053687e+00 1.410693e+00 1.745840e+00 1.352761e+00 -1.196025e+00 -9.188080e-03 -1.023888e+00 -1.994608e-01 -4.326102e+00 -8.049948e-01 1.359617e+00 3.250036e-02 
-9.821928e+00 3.389131e+00 -4.412403e+00 3.642644e+00 4.646006e+00 2.034571e+00 2.836984e+00 -5.217383e-01 -8.260944e-01 -1.087105e+01 -5.304921e+00 -7.417798e-01 8.826102e-01 2.404232e+00 1.508984e+00 3.885742e-01 1.219732e+00 5.021656e-01 -2.633397e+00 -1.026224e+00 -2.977961e+00 1.740662e+00 -1.698010e+00 -1.816034e+00 4.511169e-01 1.012079e-02 
-3.362371e+00 7.717106e+00 -5.593302e+00 1.946982e+00 -5.180579e-01 -5.859909e+00 2.887949e+00 -3.424772e+00 1.336361e+00 -7.231280e+00 -3.776533e+00 1.245323e+00 9.221352e-01 2.123270e+00 4.487714e-01 2.475983e-01 8.318431e-01 8.537142e-01 -2.329318e+00 -1.040542e+00 -3.266801e+00 5.395786e-01 1.952441e+00 -7.521653e-01 9.319703e-01 -3.386288e-02 
-8.599342e+00 -1.756784e+00 -9.222693e+00 3.322063e+00 2.721732e+00 -5.867813e+00 -1.699706e-01 -8.521938e+00 8.976883e+00 -2.240426e+00 -4.434032e+00 5.456853e-02 8.295940e-01 1.120659e+00 -1.692814e+00 3.065644e+00 -1.989315e+00 1.328216e-01 8.301977e-01 -1.548726e+00 -5.969225e-01 8.318138e-01 2.491380e+00 1.896183e+00 -2.282403e-01 -7.258166e-02 
-5.774738e+00 1.523900e-02 -5.659027e+00 4.061167e+00 3.561022e+00 -2.684901e+00 1.313426e+00 -6.623777e+00 4.367389e+00 7.601544e-01 -3.454258e+00 2.343127e-01 7.064499e-01 1.583632e+00 -2.292277e+00 5.557942e+00 -2.817827e+00 1.668636e+00 3.638271e+00 -1.624853e+00 2.402853e+00 -3.743714e-01 1.668203e+00 2.355745e+00 -2.945581e-01 -1.105830e-01 
-3.012449e+00 -1.224004e+00 1.094868e+01 -7.361024e+00 3.270574e+00 4.598055e+00 -4.119387e+00 -1.906848e+00 1.817461e+00 -2.409862e+00 4.014854e+00 -1.377476e+00 6.275445e-01 4.835336e+00 1.085376e+00 4.996799e+00 -1.740349e+00 9.102129e-01 3.688996e+00 -1.059010e+00 2.760714e+00 -2.212803e+00 1.589426e+00 2.029912e+00 -1.444656e-01 -1.290323e-01 
1.762342e+00 -4.010670e+00 1.211073e+01 -6.800611e+00 7.550703e+00 7.098512e+00 -3.261608e+00 5.281948e+00 3.044215e+00 1.194454e+00 3.777750e+00 4.885546e-01 4.702449e-01 5.406080e+00 1.675890e+00 1.096174e+00 3.780196e-01 2.909660e-04 2.940883e+00 3.959067e-01 9.997896e-01 -2.044509e+00 5.615784e-01 4.694931e-01 -9.081455e-01 -1.176314e-01 
1.180880e+01 5.683050e+00 6.876426e+00 5.120534e-02 5.277956e+00 7.685459e+00 -3.177503e+00 -6.712323e-01 -1.425544e+00 5.489555e+00 2.099525e+00 -7.948804e-01 3.025351e-01 4.502637e+00 2.724215e+00 -2.236705e+00 2.560486e+00 -1.365399e+00 9.184390e-01 1.226365e+00 -5.892059e-01 -1.473588e+00 1.033014e+00 -6.719998e-01 1.231241e-02 -9.174397e-02 
1.384504e+01 4.941159e+00 1.857967e+00 2.245150e+00 2.558786e+00 1.047581e+01 2.822017e+00 -2.242637e+00 -4.233653e+00 -3.816627e-01 -1.491272e-01 -4.597713e+00 2.807978e-01 2.583897e+00 2.252989e+00 -1.872685e+00 2.433176e+00 -2.174587e+00 7.816904e-01 1.981743e+00 -1.950087e+00 -1.421024e+00 -2.208638e-01 -9.095589e-01 5.570517e-01 -4.650588e-02 
1.345939e+01 7.921157e+00 4.891533e+00 9.185238e-01 -1.060461e+00 7.501601e+00 -1.029374e+00 -1.090585e+00 -1.911543e+00 3.543266e+00 2.618294e+00 1.227220e+00 2.635483e-01 1.971983e-01 3.893202e-01 1.328218e-01 1.082605e+00 -8.312067e-01 3.311897e-01 1.216093e+00 -3.304738e-01 -7.727075e-01 -9.688656e-01 1.056076e-01 9.197857e-01 -9.609163e-03 
1.385653e+01 6.135221e+00 3.739748e+00 4.931609e+00 -1.530236e-01 1.109889e+01 5.573043e+00 -4.258809e+00 -3.817904e+00 1.063280e+00 -1.029429e+00 2.262763e+00 2.572090e-01 -2.779070e-01 2.364428e-01 4.557897e-01 -3.222318e-02 -1.093286e-01 -6.184133e-01 -8.895262e-01 -1.028377e+00 -5.423036e-01 5.086507e-01 5.800811e-01 1.374793e+00 -1.096440e-02 
1.278904e+01 7.032620e+00 6.599645e+00 4.120999e+00 2.477827e+00 9.029866e+00 1.527447e+00 -1.315515e+00 -5.496957e+00 -7.724345e-02 3.067714e+00 3.738101e-01 2.662837e-01 -7.105385e-01 4.113781e-01 4.152166e-01 -1.049852e+00 -9.094928e-01 -1.506536e+00 -8.409557e-01 -8.066851e-01 -7.031080e-01 -2.666497e-03 -4.225281e-01 -1.814709e+00 -2.157491e-02 
1.279068e+01 6.567641e+00 3.282860e+00 4.827968e-01 2.429988e-01 6.619611e+00 -2.904023e+00 -7.272059e+00 -5.152464e+00 3.971845e+00 2.526569e+00 2.702958e+00 2.246081e-01 -8.432212e-01 1.186643e+00 8.218266e-01 -9.284784e-01 -5.627190e-01 -1.864391e+00 -1.317293e+00 1.530171e-01 1.677981e-01 3.302259e-01 -6.325802e-01 -8.234872e-01 -2.349677e-02 
1.043962e+01 9.761837e+00 7.196060e+00 -2.106330e+00 -5.805936e+00 2.208562e+00 -9.956194e-01 -3.617386e+00 -4.759803e+00 2.075651e+00 -1.272345e+00 -8.066423e+00 1.719742e-01 -6.317590e-01 7.928337e-01 2.629934e-01 -2.688371e-01 -6.484987e-01 -1.517552e+00 -2.681496e-01 5.741873e-02 -1.420873e+00 -1.469504e+00 -1.531956e+00 1.323980e-01 -2.340346e-02 
1.081513e+01 1.070383e+01 7.550673e+00 3.402882e+00 1.175263e+00 5.187588e+00 2.481100e-01 -2.342788e+00 -3.347491e+00 1.637962e+00 -2.022301e+00 2.365444e+00 1.868799e-01 -2.972835e-01 5.778499e-01 2.627280e-01 2.317851e-01 -1.450046e-01 -9.730461e-01 9.118640e-01 1.145188e+00 -2.278137e-03 -1.378146e+00 -7.788471e-01 -1.084378e-01 -1.130181e-02 
1.061802e+01 8.928695e+00 5.780705e+00 1.316771e+00 -1.230798e+00 2.158115e+00 -1.389368e+00 -3.493057e+00 -1.350381e+01 -6.257819e+00 -2.317634e+00 1.204557e+00 1.681305e-01 -2.912432e-01 -1.559963e-01 -4.257903e-02 5.576925e-01 6.875256e-01 2.438773e-01 1.210034e+00 9.240721e-01 2.320817e+00 1.188404e+00 5.411544e-01 8.680118e-01 -8.802188e-03 
1.121506e+01 9.873462e+00 5.304177e+00 -6.982818e-02 -2.769593e+00 1.779603e+00 1.852171e+00 -1.608283e+00 -7.918522e-01 1.247850e+00 -8.450220e-01 -2.474721e+00 1.700209e-01 -6.789196e-01 -3.007861e-01 7.241814e-01 -1.945103e-01 -1.627125e-01 2.673836e-01 4.771804e-01 9.684960e-01 3.388773e+00 1.963991e+00 5.357060e-01 -8.862113e-01 -1.862535e-02 
8.783443e+00 9.397039e+00 8.106413e+00 2.418487e+00 -3.958803e-01 5.131941e+00 4.252522e+00 6.357217e-01 5.566463e+00 8.212727e+00 8.447876e-01 -1.306282e+00 1.363928e-01 -6.032954e-01 2.803857e-01 8.237820e-01 8.530415e-01 1.188772e+00 1.197633e+00 -4.980949e-02 5.218259e-01 2.786550e+00 2.228642e+00 5.092784e-01 -2.858801e-01 -1.420658e-02 
8.337822e+00 8.965727e+00 1.000873e+01 1.879472e+00 -5.575836e-02 5.037593e+00 -1.869328e-01 4.353025e-01 4.061242e+00 4.222644e+00 -9.249818e-01 -8.101931e-01 1.096220e-01 -3.217423e-01 4.975285e-01 5.200056e-01 1.844242e+00 1.290743e+00 9.257754e-01 -3.912950e-01 -6.900012e-01 -9.743730e-01 -9.395577e-01 4.339525e-01 2.869762e-01 -3.065515e-03 
9.040161e+00 1.078449e+01 7.547340e+00 4.607328e+00 3.356146e+00 6.517287e+00 -6.188638e-01 -1.905720e+00 -1.997604e+00 3.397993e+00 2.687376e-01 -1.057107e+00 1.272970e-01 8.748953e-02 1.829572e-01 -7.144645e-01 8.695406e-01 6.016135e-01 -5.264931e-01 -1.857751e+00 -6.506929e-01 -1.315641e+00 -1.407363e+00 9.626877e-01 -3.957435e-01 -1.020789e-02 
9.477992e+00 1.166738e+01 8.183742e+00 8.056963e+00 1.808108e+00 5.715807e+00 2.331388e+00 -3.787568e+00 -1.881683e+00 -1.042571e+00 1.612766e+00 -1.164428e+00 1.592412e-01 1.939421e-01 3.568645e-01 -2.644067e-01 1.914358e-01 -1.094678e-01 -1.005082e+00 -1.367223e+00 -5.454180e-01 -9.267855e-01 -1.086140e+00 5.390772e-01 3.304648e-01 -4.213250e-03 
8.650806e+00 8.960999e+00 5.446582e+00 3.677445e+00 1.680254e+00 2.160368e+00 -6.295396e+00 -5.063076e-01 1.959722e+00 3.808518e+00 4.389352e+00 -3.107882e+00 6.054372e-02 -6.818580e-03 2.253829e-01 1.856695e-01 -4.358402e-01 -6.137541e-01 -1.233179e+00 -1.177596e+00 -6.228621e-01 1.163219e+00 1.509362e-01 4.286385e-02 1.049974e+00 -9.172308e-03 
9.502211e+00 1.166179e+01 9.737072e+00 3.301593e+00 2.348487e-01 2.190643e+00 -4.184779e+00 -2.991494e+00 -2.551348e+00 -1.413319e+00 -2.899036e-01 1.867518e+00 1.219324e-01 -1.646946e-01 3.765577e-01 9.732242e-02 -8.199266e-01 -1.021475e-01 -1.060545e+00 -2.302897e-01 -4.382200e-02 3.707066e-01 7.250528e-02 -9.463356e-01 1.112294e+00 -1.027858e-02 
8.993959e+00 1.191420e+01 7.699023e+00 4.805813e+00 1.074005e+00 2.113972e+00 -3.248762e+00 -5.418068e+00 4.153323e+00 4.338048e+00 1.434391e+00 2.676790e+00 1.000898e-01 -3.692600e-01 2.546682e-01 -2.345637e-01 -8.154117e-01 -1.506826e+00 -7.769663e-01 1.989299e+00 1.461122e+00 4.263491e-01 2.845388e-01 -3.812594e-01 3.661284e-01 -7.553250e-03 
8.482943e+00 1.207357e+01 7.544133e+00 3.393147e+00 1.600495e+00 4.362800e-01 -3.433773e-01 -1.550798e+00 -1.124950e+00 -9.448092e-01 -1.641432e+00 1.504707e+00 8.807522e-02 -6.638743e-01 -6.028810e-01 -9.168850e-01 -3.701647e-01 -8.001294e-01 -6.671594e-01 1.183021e+00 1.931859e+00 1.341019e+00 1.289941e+00 7.462959e-01 -6.592102e-01 -1.782099e-02 
7.314141e+00 1.002845e+01 5.370233e+00 -4.453898e-01 -6.536698e+00 -8.472822e-01 1.730399e+00 6.078954e+00 3.378269e+00 4.996958e+00 3.158819e+00 -1.095834e+00 3.970605e-02 -4.696077e-01 -8.761776e-01 -1.285615e-01 7.234157e-01 -2.172158e-02 4.629907e-01 2.613340e-01 1.156114e+00 -7.214851e-01 -7.589420e-01 3.321735e-01 -4.174851e-01 -8.298707e-03 
7.022748e+00 9.590261e+00 6.317042e+00 4.076370e+00 3.955340e-02 3.354731e-01 -7.592547e-01 9.192891e-01 4.541271e+00 4.706932e+00 2.579362e+00 4.577789e-01 6.301934e-02 -2.878028e-01 -4.047368e-01 5.882472e-01 2.106474e+00 1.320797e+00 1.651130e+00 6.342567e-01 -2.196522e-01 -1.637397e+00 -1.435985e+00 -1.595883e-02 1.365208e-01 7.385564e-03 
7.376018e+00 8.774962e+00 7.669762e+00 8.081279e+00 1.745868e+00 4.479329e+00 -1.734153e+00 -8.725421e-01 -2.287214e+00 -2.282533e+00 9.848620e-01 1.112828e+00 7.112426e-02 4.490194e-02 3.741230e-01 1.245464e+00 3.044164e+00 2.562103e+00 1.889699e+00 -3.269448e-01 -1.434489e+00 -1.885683e+00 -1.985509e+00 -1.113567e+00 4.121797e-01 2.237777e-02 
7.012990e+00 1.067663e+01 9.335605e+00 9.662184e+00 4.063198e+00 6.028626e+00 4.560182e+00 8.266887e-01 -6.479193e+00 -4.484987e+00 -6.342473e-01 1.082979e+00 1.092939e-01 -2.764134e-01 -7.933378e-02 8.717610e-01 2.045270e+00 1.600548e+00 1.561612e+00 3.267429e-01 4.311604e-01 -1.408998e+00 -1.769020e+00 -8.667248e-01 -2.716546e-01 6.418264e-03 
7.543530e+00 1.135588e+01 1.008827e+01 1.198252e+01 4.261995e+00 5.754638e+00 -2.564044e+00 -1.047191e+00 -5.399147e-01 -3.346274e-01 -8.022084e-01 6.524640e-01 1.284576e-01 -5.347716e-01 -4.030228e-02 -1.895706e-01 3.357706e-02 3.990484e-01 7.475833e-01 -4.260017e-01 -4.390574e-01 9.820556e-03 -3.822378e-01 -4.153203e-01 -5.193225e-01 -1.335695e-02 
5.556925e+00 7.903131e+00 9.466591e+00 1.235210e+01 6.784232e+00 7.505878e+00 1.289405e+00 3.162416e+00 -3.377370e+00 -5.112123e+00 -8.607268e-01 -6.703119e-01 6.644398e-02 -3.743424e-01 -2.125182e-01 -5.727911e-01 -1.437844e+00 -6.612406e-01 5.151474e-01 -2.727190e-01 -4.353701e-01 -6.801953e-02 -1.067242e-01 -3.885643e-01 -6.423028e-01 -2.610371e-02 
5.430192e+00 9.960200e+00 6.656415e+00 6.904207e+00 2.380593e+00 7.478620e+00 -2.228773e+00 -4.235692e+00 -3.789023e+00 -3.880154e+00 -9.784999e-01 -6.071384e-01 2.576447e-02 -1.616284e-01 2.671956e-01 -3.530863e-01 -1.425314e+00 -3.165582e-01 6.117236e-01 1.145653e+00 -3.612306e-01 -6.329911e-01 3.265435e-01 7.875860e-02 -2.701219e-01 -7.110584e-03 
6.197947e+00 1.031188e+01 8.187578e+00 5.012121e+00 1.697696e+00 7.742373e+00 3.028952e+00 2.440885e-01 -5.194736e+00 -3.245845e+00 -2.488923e+00 -1.498734e+00 3.012198e-02 2.700588e-01 8.696000e-01 1.297444e-01 -6.030580e-01 -2.816408e-02 3.594650e-01 6.533309e-01 -6.271680e-01 2.155201e-01 1.519925e+00 3.917001e-01 1.095959e-01 1.745446e-02 
6.414877e+00 1.148749e+01 8.962347e+00 8.525941e+00 5.222472e+00 8.695008e+00 2.294448e+00 -1.394180e+00 -2.796187e+00 3.649508e-01 4.056826e-01 -2.839346e-01 1.110657e-01 2.186299e-01 4.230182e-01 5.386633e-01 6.757287e-01 9.208534e-01 3.385414e-01 8.311939e-01 4.044755e-01 4.384221e-01 1.210101e+00 5.662971e-01 1.861207e-01 2.515461e-02 
