-8.294572e+00 3.842745e+00 -4.073147e+00 -1.568125e+00 6.213265e+00 9.511255e+00 8.888230e+00 1.535793e+00 5.734184e+00 -1.313908e+00 1.383373e+00 2.045691e+00 -1.512927e-01 4.769386e-01 -2.967291e-01 8.826953e-02 8.718198e-01 3.705459e-01 1.770401e-03 -7.186791e-01 2.444660e-01 -4.879972e-01 -4.253984e-01 2.279514e-01 -4.573728e-01 0.000000e+00 
-7.289239e+00 1.354531e+00 -5.378688e+00 -1.809583e-01 6.410857e+00 1.217465e+01 1.173049e+01 1.805847e+00 3.674334e+00 -3.382663e+00 3.123955e+00 4.545865e-01 -1.512927e-01 3.584839e-01 1.001673e-01 -1.237149e-01 1.020850e-01 7.217324e-02 -2.311991e-01 1.609928e-01 3.000802e-01 -9.042320e-01 -6.763117e-01 1.359477e+00 5.721662e-02 0.000000e+00 
-6.412545e+00 3.603207e+00 -2.979028e+00 2.097391e+00 7.967199e+00 8.188410e+00 3.873707e+00 2.623096e+00 4.324122e+00 -2.406523e+00 1.652838e+00 5.543794e-01 -1.512927e-01 3.269676e-01 4.952549e-01 1.816138e-01 -4.536628e-01 -1.893322e-01 -1.296807e+00 -7.691250e-01 -3.463743e-01 -1.258000e+00 -1.259303e+00 -1.296947e-01 5.606697e-01 0.000000e+00 
-7.443166e+00 4.463351e+00 -5.238780e+00 -2.890458e+00 5.697165e+00 9.016683e+00 1.220046e+01 2.492543e+00 1.918054e+00 -4.149159e+00 8.046023e+00 3.077430e+00 -1.512927e-01 1.180166e-01 6.648553e-01 2.558126e-01 -7.626305e-01 -3.237251e-01 -1.168325e+00 -1.345788e+00 -8.214934e-01 2.806093e-01 -7.480575e-01 -3.029679e-01 1.569775e+00 0.000000e+00 
-6.582770e+00 4.764610e+00 -3.235032e+00 -2.481689e+00 5.623450e+00 4.606205e+00 4.807620e+00 -5.394263e-01 3.223248e-01 -7.227173e+00 -1.726135e+00 3.537618e+00 -1.512927e-01 8.534718e-02 -4.595346e-02 -3.751720e-01 -5.615555e-01 -5.021140e-01 -4.057875e-01 -3.092579e-01 -5.802873e-01 3.663234e-01 -7.846577e-01 -9.557158e-01 1.317464e+00 0.000000e+00 
-6.614043e+00 4.098105e+00 -3.971624e+00 -1.704571e+00 5.964106e+00 8.124130e+00 4.534592e+00 -7.203585e-01 7.078279e+00 -4.712626e+00 3.298602e+00 6.811842e+00 -1.512927e-01 4.788700e-01 -2.513730e-01 -4.834790e-01 7.055225e-01 8.318191e-01 -7.450811e-01 -1.383291e+00 -3.287726e-01 3.860501e-01 2.890788e-01 -1.527786e+00 -5.198858e-01 0.000000e+00 
-6.400371e+00 3.556062e+00 -5.488466e+00 -1.303330e+00 5.323159e+00 6.605748e+00 6.160350e+00 1.328110e+00 3.575627e+00 -6.048078e+00 -7.520295e-01 5.274495e+00 -1.512927e-01 2.569536e-01 -3.520896e-01 -1.017960e+00 -1.907028e-01 7.687155e-01 -1.915866e-01 -3.599959e-01 -4.498865e-01 -7.625983e-01 -2.019669e-01 -1.308095e+00 -2.186096e+00 0.000000e+00 
-5.140016e+00 3.810760e+00 -6.529458e+00 4.797554e-02 1.000641e+01 4.291505e+00 4.607636e+00 -8.508825e-02 2.221653e+00 -3.293313e+00 -7.995707e-02 -3.904373e-01 -1.512927e-01 4.056572e-01 -9.518343e-02 -2.283328e-01 -4.756283e-01 3.659495e-01 -7.200237e-01 -8.195063e-01 -1.071413e+00 -1.281407e+00 4.085593e-01 -9.442091e-01 -1.477633e+00 0.000000e+00 
-6.035016e+00 3.147835e+00 -7.045915e+00 -4.311476e+00 7.445878e+00 5.564585e+00 2.971118e+00 -3.106494e+00 -1.062354e+00 -8.946664e+00 -6.577331e+00 -3.791724e+00 -1.512927e-01 1.466739e-01 -5.916088e-02 3.783780e-01 -7.252830e-01 -4.093658e-01 -5.123174e-01 -3.020836e-01 -2.727289e-01 1.700821e-01 1.633062e+00 5.258005e-01 2.246774e-01 0.000000e+00 
-4.768435e+00 3.826302e+00 -4.334563e+00 -2.578639e+00 6.732493e+00 5.044594e+00 2.031676e+00 -3.860123e+00 2.990237e+00 -1.220536e+00 1.490207e+00 3.956784e+00 -1.512927e-01 -2.890652e-01 1.901592e-01 1.128037e+00 -2.016583e-01 -1.050107e+00 -1.650203e-01 3.004345e-01 8.511675e-01 2.078627e-01 6.413857e-01 1.222486e+00 1.118362e+00 0.000000e+00 
-5.852792e+00 3.252486e+00 -4.694024e+00 -3.616438e+00 4.913286e+00 3.667617e+00 5.937912e+00 1.851983e+00 4.041746e+00 1.080843e+00 1.091891e+00 4.224271e+00 -1.512927e-01 -3.740088e-01 3.938320e-01 1.273610e+00 1.116253e+00 -3.426988e-01 -2.638618e-02 6.172398e-01 2.897957e-01 2.087625e-01 1.117554e-02 1.400754e+00 1.388732e+00 0.000000e+00 
-6.676454e+00 4.709230e+00 -2.065219e+00 -1.307835e+00 6.022167e+00 4.414888e+00 4.626411e+00 1.691511e+00 7.089169e-01 -5.100138e+00 2.197860e+00 1.193373e+00 -1.512927e-01 -4.863428e-01 5.450788e-01 9.923170e-01 1.083259e+00 2.558392e-01 8.096747e-01 1.451546e+00 4.111629e-01 1.594958e-02 -9.737902e-01 -5.700694e-01 -6.925997e-01 0.000000e+00 
-6.951051e+00 4.675531e+00 -1.812538e+00 6.343889e-01 6.087547e+00 5.747507e+00 4.759950e+00 -4.433332e+00 1.122118e+00 -6.950985e+00 7.261306e-02 4.533642e+00 -1.512927e-01 -3.924427e-02 2.299203e-01 2.993175e-01 1.184663e+00 5.504569e-01 3.700050e-01 7.365143e-01 -4.326037e-01 3.322986e-01 1.555345e-01 -5.735249e-01 -1.734095e+00 0.000000e+00 
-6.651019e+00 5.840174e+00 -8.137217e-01 7.122421e-01 7.424559e+00 8.053022e+00 9.878386e+00 1.338349e+00 4.529799e+00 -2.073572e+00 -8.505009e-01 3.391004e-01 -1.512927e-01 4.542923e-03 -4.542960e-01 -7.661856e-01 1.532913e-01 6.147324e-02 3.034203e-02 6.029504e-01 2.529726e-02 5.760130e-01 1.283322e+00 -3.688237e-01 -1.025939e+00 0.000000e+00 
-6.061730e+00 3.836616e+00 -3.823185e+00 1.296839e+00 6.964375e+00 3.698574e+00 6.994497e+00 -1.344545e-01 3.792798e+00 3.452334e-01 -2.515525e-01 -4.019067e+00 -1.512927e-01 2.220879e-01 -7.576861e-02 -1.626435e-01 7.882304e-02 -2.477681e-01 -7.484263e-01 -4.742508e-01 1.167929e+00 4.876475e-01 7.143844e-01 -8.686139e-02 -7.026339e-01 0.000000e+00 
-7.098399e+00 2.857207e+00 -4.890824e+00 -8.726039e-01 5.891119e+00 5.591064e+00 6.523890e+00 -3.314410e-01 2.253642e+00 -2.331635e+00 5.158244e-01 3.400315e-01 -1.512927e-01 3.836702e-01 4.059319e-01 6.473075e-01 7.089975e-01 -4.753681e-01 -1.066351e+00 -1.640032e+00 -6.318517e-01 -8.371881e-01 -8.375913e-01 -1.843444e-02 2.541375e-01 0.000000e+00 
-5.616921e+00 5.788171e+00 -5.872040e-01 1.820927e+00 5.615426e+00 3.236354e+00 4.065943e+00 2.241208e+00 4.698434e+00 -3.250032e+00 -1.044857e+00 1.020007e+00 -1.512927e-01 7.820277e-01 6.592726e-01 1.663372e-01 -1.034379e-02 -7.635935e-01 -6.958419e-01 -1.189040e+00 -6.264297e-01 -4.924538e-01 -6.315528e-01 1.202595e+00 1.389540e+00 0.000000e+00 
-4.955072e+00 6.894055e+00 8.048253e-01 3.995186e+00 5.722192e+00 2.952379e+00 3.142503e+00 -3.008741e+00 -1.089604e-01 -4.463896e+00 -5.460210e-01 -9.097492e-01 -1.512927e-01 5.990598e-01 1.644643e-01 -4.822667e-01 -1.354145e+00 -1.037278e+00 -1.363272e+00 -1.374106e+00 -1.725179e+00 -1.168997e+00 -6.493824e-01 3.728370e-01 -5.179732e-01 0.000000e+00 
-3.223255e+00 5.114555e+00 -5.839324e+00 -1.188775e+00 3.230871e+00 1.538707e+00 2.739990e+00 -1.927953e+00 2.511830e+00 -1.746400e+00 6.292346e+00 3.553523e+00 -1.512927e-01 6.160066e-01 -2.454888e+00 -1.162848e+00 -3.860907e+00 -6.883160e-01 -1.494908e+00 -1.308509e-01 -4.533940e-01 -1.594761e+00 2.520675e-01 4.601355e-01 -6.393223e-01 1.543472e-02 
-5.299933e+00 4.016337e+00 -4.676097e+00 -6.138478e+00 1.897006e+00 -3.764729e-01 3.163357e-01 -6.872755e+00 -2.498040e+00 -6.330363e+00 -1.288591e+00 -3.516593e+00 -1.512927e-01 5.930670e-01 -3.437588e+00 -7.366924e-01 -4.841472e+00 -1.978720e-01 -2.447360e+00 6.119803e-01 7.466022e-01 -1.045032e+00 1.432455e-01 -2.056880e-01 -1.147669e+00 7.182740e-02 
-2.364458e+00 -5.047411e+00 -3.660982e+00 -1.241678e+01 4.086439e+00 -2.573761e+00 4.824772e+00 1.906245e+00 -2.080831e+00 -1.056461e+00 1.627106e+00 -8.731829e-01 -7.411909e-02 -7.001513e-01 -2.062076e-01 7.960967e-01 -2.898212e+00 7.242891e-01 -3.638627e+00 9.262081e-01 -4.208866e-01 -2.287498e+00 -1.226117e-01 -9.918092e-01 -1.464471e+00 8.647724e-02 
-2.419136e+00 -5.212899e+00 -3.967808e+00 -1.459817e+01 4.305048e+00 -7.228186e+00 5.160014e+00 -1.192829e+00 -3.037791e+00 -4.092638e+00 7.581584e-01 -4.434740e+00 1.692575e-01 -1.442228e+00 1.033658e+00 -4.040019e-01 -1.264395e+00 1.017631e+00 -2.718842e+00 1.084137e+00 8.205178e-01 -7.676145e-01 5.193038e-01 3.053309e-01 7.976184e-02 7.883875e-02 
-8.164411e+00 8.698135e+00 -2.212985e+00 -1.144999e+01 5.648295e+00 -1.322857e+01 4.949192e+00 -6.872349e+00 -8.655787e+00 -3.478321e+00 3.099240e-01 -3.309760e+00 1.208184e-01 -1.360613e+00 1.081039e+00 -1.069646e+00 1.032918e-01 -5.965953e-02 -1.620165e+00 2.192611e-01 4.548645e-03 -8.277340e-02 -3.165469e-01 5.480342e-01 -3.228370e-01 6.362520e-02 
-9.611096e+00 2.311852e+00 -7.420105e+00 -1.294385e+01 6.204234e+00 -8.643275e+00 5.674812e+00 1.619132e+00 -3.048635e+00 -2.522914e+00 8.966540e-01 -1.899495e+00 1.454323e-01 -2.312191e+00 -5.358646e-01 -5.249666e-01 9.989274e-01 1.114541e+00 -1.146852e-01 -9.247807e-02 8.769730e-01 7.081386e-01 1.978016e+00 9.884120e-01 1.191724e-01 4.861323e-02 
-5.571542e+00 -3.404593e+00 -7.283065e+00 -1.272748e+01 2.838549e+00 -9.967038e+00 5.663679e+00 5.230076e-01 -2.489276e+00 -3.424057e+00 4.298029e+00 -3.754990e+00 2.559195e-01 -1.206512e+00 -2.373315e+00 4.948114e-01 2.310955e-01 1.051912e+00 2.781619e-01 -6.592668e-01 1.538541e+00 7.377558e-01 1.799399e+00 2.087457e-01 -2.044636e-01 9.961220e-02 
-1.527653e+01 -1.840858e+00 -4.057601e+00 -8.964787e+00 1.128262e+01 -9.432379e+00 4.340380e+00 -5.056425e-01 -2.580353e+00 5.770310e+00 3.706166e+00 -3.616263e+00 3.447731e-01 -4.207438e-01 -7.190496e-01 2.483311e+00 -2.032415e-01 -1.512833e-02 3.399433e-01 -1.013881e+00 1.118467e+00 -1.819409e-01 1.119094e+00 6.032439e-01 -8.207520e-01 1.205014e-01 
-1.136426e+01 -1.092086e+00 -1.420180e+00 -1.228404e+01 8.368659e+00 -1.144321e+01 2.320074e+00 1.882744e+00 -5.201148e+00 1.372062e+00 -5.110353e-02 -3.473694e+00 5.192090e-01 -2.397593e-01 -3.138337e-01 3.317731e+00 -1.264678e-01 -2.252871e+00 2.949131e+00 3.188561e-01 1.276413e+00 -2.814450e-01 9.060526e-03 1.142063e+00 2.625976e-01 8.449654e-02 
-8.818458e+00 -2.439650e+00 2.065006e+00 -1.418178e+01 3.363538e+00 -6.205472e+00 2.277210e+00 6.531598e+00 -2.602403e+00 6.744943e-01 6.087440e+00 -6.143904e+00 6.162947e-01 9.795872e-01 -2.241274e+00 2.050173e+00 1.558650e+00 -5.032567e+00 2.951171e+00 1.013023e+00 1.551653e-01 8.956526e-01 -1.677156e+00 1.080556e+00 1.269369e+00 3.133508e-02 
-9.999373e+00 -4.674366e+00 6.244289e+00 -1.075132e+01 -4.466264e+00 3.165162e+00 8.289544e+00 3.386450e+00 -3.885476e+00 -8.308468e-01 8.817705e+00 -1.178182e+00 5.426414e-01 5.592480e-01 -2.739623e+00 1.323555e+00 5.815911e+00 -3.004934e+00 1.727589e+00 1.174190e+00 8.723475e-01 1.610543e+00 -1.912329e+00 6.761290e-01 2.019727e+00 -7.582844e-04 
-1.106103e+01 -1.125609e+01 2.361027e+00 -1.937893e+00 -7.462746e+00 -1.980709e+00 6.420760e+00 -4.816693e-01 1.240073e+00 -1.514014e+00 4.674543e+00 1.582826e+00 4.897323e-01 3.666324e+00 -3.749905e-01 -5.259293e-01 5.861518e+00 -6.295952e-01 -1.405644e+00 -1.948754e+00 -3.000427e-01 1.144256e+00 -1.144318e+00 -1.055449e+00 1.973351e+00 -2.109564e-02 
-7.446729e+00 -1.038198e+01 5.049583e+00 1.067358e+01 -1.242871e+00 -4.917646e+00 6.119248e+00 9.751115e+00 9.303269e-01 -7.095328e+00 4.035990e+00 2.761576e+00 5.786988e-01 7.471079e+00 1.069946e+00 -2.775801e+00 2.949991e+00 1.562881e+00 -2.244211e+00 -5.522175e+00 -2.276062e+00 1.482993e+00 6.123700e-01 -2.358109e+00 3.443418e-01 2.496204e-02 
8.236837e+00 -1.460794e+00 3.271294e-02 4.413366e+00 -1.396135e+00 -9.192289e+00 -6.381412e+00 1.849052e+00 7.109767e-01 -1.914853e+00 3.201052e+00 1.752971e+00 4.927878e-01 8.903481e+00 1.582917e+00 -3.025025e+00 -1.010023e+00 7.948726e-01 1.655900e+00 -7.268892e+00 -3.741056e+00 -8.081784e-02 3.555655e+00 -2.711085e+00 -8.499182e-01 5.846300e-02 
1.770709e+01 -4.222284e+00 -6.470558e+00 8.230014e-01 3.148370e-01 -4.450101e+00 -1.292024e+01 -9.159219e+00 3.794038e+00 2.431423e+00 -2.236092e+00 4.584554e-01 6.659238e-01 6.933628e+00 8.185282e-02 -3.343640e+00 -3.231647e+00 -1.201757e+00 4.619326e+00 -7.592127e+00 -4.935647e+00 -7.732679e-01 5.795944e+00 -2.936673e+00 -1.773500e+00 6.561627e-02 
2.087946e+01 -6.421351e+00 -7.004026e+00 -2.062722e+00 -4.267237e+00 6.065019e+00 -2.040395e+01 -9.731781e+00 -5.958714e-01 1.150088e+01 -5.744841e+00 -1.515204e+00 7.384348e-01 2.654874e+00 -1.862832e+00 -2.069695e+00 -7.838039e-01 -1.891644e+00 5.409879e+00 -5.791226e+00 -1.174075e+00 -1.056011e+00 4.807564e+00 -2.730232e+00 -2.067546e+00 7.903853e-02 
2.090010e+01 -7.492440e+00 -8.150246e+00 -2.246616e+00 -5.816104e+00 1.055033e+01 -2.483012e+01 -9.136701e+00 -2.282588e+00 1.517652e+01 -6.174427e+00 -4.471836e+00 7.839567e-01 -1.423253e-01 -1.783669e+00 -2.088427e-01 1.063730e+00 -2.097921e+00 2.459609e+00 -4.309448e+00 2.404652e+00 -8.451001e-01 2.924550e+00 -1.557863e+00 -2.024578e+00 5.208463e-02 
1.991470e+01 -9.139878e+00 -9.475916e+00 2.029155e+00 -7.788887e+00 1.035689e+01 -2.938261e+01 -4.032582e+00 -1.530763e+00 1.575042e+01 -8.480939e+00 -6.119616e+00 8.289641e-01 -1.480924e+00 -1.793916e+00 9.665613e-01 2.087367e+00 -1.223586e+00 -1.682760e+00 -1.990943e+00 3.676630e+00 4.890552e-01 -5.808544e-02 -9.177212e-01 -1.224813e+00 4.466454e-02 
1.747784e+01 -1.178137e+01 -6.278827e+00 4.095710e+00 -8.413946e+00 5.702007e+00 -2.997816e+01 1.444161e-02 3.598356e-02 1.492941e+01 -8.657360e+00 -7.362228e+00 8.810824e-01 -1.867341e+00 -1.885641e+00 2.304395e+00 2.316655e+00 -1.341732e+00 -4.006391e+00 6.271263e-01 4.093852e+00 4.150404e-01 -1.697020e+00 -6.363271e-01 7.476463e-01 3.679762e-02 
1.518597e+01 -1.324647e+01 -3.106929e+00 5.202950e+00 -9.086245e+00 7.537937e-02 -2.778465e+01 4.075800e+00 6.901183e-01 1.133402e+01 -9.091981e+00 -6.194072e+00 9.131947e-01 -1.799898e+00 -1.856009e+00 3.863658e+00 1.672966e+00 -1.674296e+00 -5.034307e+00 3.612249e+00 2.977282e+00 -3.352256e-01 -2.558147e+00 2.075719e-01 1.943019e+00 3.321388e-02 
1.392776e+01 -1.486735e+01 1.872358e-01 7.749760e+00 -1.187609e+01 -4.340869e+00 -2.249347e+01 7.278366e+00 -1.317827e+00 8.899624e+00 -9.050542e+00 -6.963760e-01 9.258295e-01 -1.523153e+00 -1.354860e+00 4.226432e+00 1.727338e+00 -2.527090e+00 -4.228195e+00 5.075384e+00 1.933959e+00 -1.475174e+00 -2.269829e+00 1.329680e-01 2.874389e+00 2.883238e-02 
1.269025e+01 -1.687693e+01 6.609345e+00 8.566959e+00 -1.442930e+01 -9.793205e+00 -1.506371e+01 7.221866e+00 -2.529986e+00 5.974570e+00 -7.246488e+00 2.625552e-01 9.726599e-01 -1.402766e+00 -6.349531e-01 4.360408e+00 9.284593e-01 -2.929387e+00 -2.444043e+00 5.443402e+00 6.110758e-01 -2.506351e+00 -1.416542e+00 -3.104493e-01 3.490180e+00 2.432928e-02 
1.110994e+01 -1.674044e+01 9.995196e+00 1.105040e+01 -1.837787e+01 -1.050468e+01 -1.096171e+01 8.111202e+00 -5.729836e+00 6.259985e+00 -8.915266e+00 3.781403e+00 9.955117e-01 -1.153076e+00 2.814007e-01 4.073225e+00 -1.415281e-01 -2.383641e+00 -1.207221e+00 4.658546e+00 -2.558046e-01 -2.680936e+00 -9.597818e-01 -3.158363e-01 3.034264e+00 1.028608e-02 
9.581053e+00 -1.548469e+01 1.379113e+01 8.194929e+00 -2.048229e+01 -9.062932e+00 -6.333512e+00 6.714761e+00 -9.635635e+00 5.571123e+00 -1.071187e+01 9.017940e+00 1.000000e+00 -8.854977e-01 1.184152e+00 3.432487e+00 -8.988864e-01 -1.665385e+00 -9.705438e-02 3.403958e+00 -5.709966e-01 -2.314605e+00 -1.024993e+00 1.728379e-01 2.183794e+00 -1.443043e-02 
9.716981e+00 -1.415647e+01 1.696247e+01 7.228134e+00 -2.076780e+01 -1.074211e+01 -3.565833e+00 6.252895e+00 -1.116968e+01 4.302439e+00 -8.897035e+00 1.009725e+01 9.635898e-01 -5.035452e-01 2.022650e+00 2.508739e+00 -5.767924e-01 -1.226298e+00 1.263900e-01 2.397545e+00 -5.198605e-01 -2.094864e+00 -8.154069e-01 1.057078e+00 7.714096e-01 -4.307193e-02 
8.959241e+00 -1.224816e+01 2.028815e+01 5.983658e+00 -2.156126e+01 -1.015976e+01 -1.741856e+00 5.296036e+00 -1.138309e+01 1.828380e+00 -6.391414e+00 8.023599e+00 9.164686e-01 -2.502428e-01 3.019599e+00 1.834974e+00 -1.507966e-01 -5.710856e-01 2.189210e-01 9.525940e-01 -2.614485e-01 -8.601780e-01 -1.579058e+00 1.631578e+00 -4.558976e-01 -8.504896e-02 
8.903115e+00 -8.245454e+00 1.929039e+01 9.272069e+00 -2.396987e+01 -9.324313e+00 -1.269811e+00 6.221262e+00 -1.533043e+01 4.054322e+00 -5.790102e+00 8.135622e+00 8.219177e-01 -6.308908e-01 3.686127e+00 1.357223e+00 2.680732e-01 -1.984774e-01 1.001820e+00 9.694933e-01 -1.740297e+00 -5.012973e-01 -1.505950e+00 2.652553e+00 -1.702435e+00 -1.019428e-01 
8.736772e+00 -3.342201e+00 2.180204e+01 6.418979e+00 -2.173668e+01 -8.677225e+00 -2.718553e+00 5.423335e+00 -1.185615e+01 -2.200107e+00 -4.107439e+00 7.719267e+00 6.455913e-01 -7.582989e-01 3.379337e+00 1.148346e+00 3.646869e-01 4.216618e-01 1.324511e+00 1.768664e+00 -2.852905e+00 -8.978996e-02 -1.579672e+00 2.408538e+00 -7.075554e-01 -1.050661e-01 
6.673762e+00 -1.788055e-01 2.299163e+01 8.350840e+00 -2.167247e+01 -6.474279e+00 1.769982e+00 -2.512240e+00 -1.343964e+01 -1.213067e+00 3.223745e+00 1.737243e+00 5.893147e-01 -4.767219e-01 1.969832e+00 3.694161e-01 -7.446663e-01 4.899145e-01 9.878125e-01 2.610812e+00 -2.832652e+00 8.825439e-01 -1.564335e+00 1.992546e+00 4.155933e-01 -8.911502e-02 
6.282423e+00 6.152015e-01 2.417925e+01 8.267707e+00 -2.060165e+01 -4.962222e+00 5.581568e+00 -4.601740e+00 -1.277743e+01 -3.436287e+00 1.144350e+00 7.685011e+00 5.074397e-01 1.219556e-01 5.984539e-01 -1.372635e+00 -3.376506e-01 1.061085e+00 2.134201e-01 2.079240e+00 -9.787524e-01 2.382286e+00 -1.210622e+00 5.934209e-01 1.037437e+00 -8.156655e-02 
7.746680e+00 -3.749934e-01 1.994886e+01 4.624373e+00 -2.208781e+01 -6.242752e+00 7.634188e+00 -2.929460e+00 -1.045707e+01 -3.149260e+00 1.546736e+00 1.023072e+01 4.454184e-01 7.576685e-01 -4.299503e-01 -3.753447e+00 -1.566276e+00 4.974492e+00 -7.595234e-02 -5.089606e-01 2.809879e+00 3.729046e+00 -1.405080e+00 -3.512364e-01 -2.598165e-01 -9.334173e-02 
8.810091e+00 -2.518371e-01 1.646025e+01 6.593959e+00 -1.622359e+01 -7.725888e+00 4.745546e+00 7.381830e-01 -1.436010e+00 -7.285121e+00 -3.018293e-01 8.659717e+00 3.097067e-01 7.463703e-02 -6.187540e-01 -5.154562e+00 -1.230694e+00 7.493754e+00 1.610920e-01 -2.453649e+00 2.940327e+00 4.793948e+00 -4.666690e-01 -1.332508e-02 -3.251741e+00 -1.225454e-01 
9.198271e+00 -1.895038e+00 8.083900e+00 1.356335e+00 1.010955e+00 -5.472208e+00 -3.568101e-01 8.867190e+00 -4.651186e-01 -6.314051e+00 2.190653e+00 -4.919232e-02 2.214726e-01 -1.299321e+00 3.893346e-02 -5.894309e+00 -1.008128e+00 7.102254e+00 7.040244e-01 -3.023263e+00 -7.338620e-01 2.059216e+00 1.723543e+00 2.241278e-03 -4.541034e+00 -1.480941e-01 
5.929813e+00 -1.718547e+00 4.338924e+00 3.748258e+00 5.317739e+00 -4.542034e+00 -2.691176e+00 4.201571e+00 6.196331e+00 -4.187237e+00 7.557662e-01 -3.433743e+00 6.685793e-03 -1.976315e+00 6.184642e-01 -4.894479e+00 -1.038953e+00 3.912715e+00 1.231754e+00 -2.662766e+00 -3.659285e+00 1.419319e-01 2.577621e+00 5.413955e-01 -3.288431e+00 -1.287013e-01 
2.690216e+00 5.530285e-01 -3.462022e+00 1.006586e+00 2.652793e+00 -4.314557e+00 -3.763766e+00 -8.330463e+00 -3.977158e+00 3.919512e+00 1.029145e+00 -6.427724e+00 -1.435417e-01 -2.143646e+00 9.460912e-01 -2.297092e+00 5.245776e-01 8.295304e-01 1.375189e+00 5.096927e-01 -3.613065e+00 -4.666499e-01 7.392219e-01 -3.039853e-01 -1.875674e+00 -9.035090e-02 
2.182542e+00 1.616451e+00 -2.239181e+00 1.574068e+00 2.519072e+00 -2.145942e+00 -6.864808e+00 -8.959416e+00 1.029669e+00 4.862032e-01 2.985903e+00 -4.593172e+00 -1.512927e-01 -1.538078e+00 1.092850e+00 -1.475929e+00 -3.006873e-01 1.182626e-01 1.146596e+00 5.489650e-01 -8.690783e-01 -1.403744e+00 -1.554216e+00 5.989567e-02 -7.807323e-01 -3.237079e-02 
3.536739e-01 1.167920e+00 -1.125088e-01 5.066318e+00 6.557941e+00 2.056918e-01 4.278469e+00 -2.617640e+00 -2.150369e-01 -4.954661e+00 -4.443418e-01 -8.847845e+00 -1.512927e-01 -9.832638e-01 8.236679e-01 -5.048046e-01 -7.836584e-01 -7.016204e-02 7.111166e-01 9.798160e-01 1.905250e+00 2.833213e-01 -2.161333e+00 -1.367488e+00 1.578412e-02 -1.550198e-03 
-5.923052e-01 3.438259e+00 -4.715479e+00 2.149553e-01 3.956479e+00 -1.069177e+00 -3.967469e+00 -3.000233e+00 -2.703448e+00 -7.521232e+00 1.791988e+00 -6.127344e+00 -1.512927e-01 -7.668529e-01 3.221077e-01 -6.990511e-01 -6.979020e-01 -4.907004e-01 3.665933e-01 1.008428e+00 1.934126e+00 1.144276e-01 -1.180920e+00 -1.941254e+00 1.006942e+00 0.000000e+00 
-8.386793e-01 3.760464e+00 -4.747896e+00 -2.232150e+00 1.583280e+00 -1.297357e+00 -3.133559e-01 -1.783803e+00 -6.939933e-01 -2.883435e+00 -5.211339e+00 -5.581718e+00 -1.512927e-01 -9.132719e-02 6.376980e-01 -3.288925e-03 -2.025615e-01 -3.405681e-01 1.107164e+00 3.012830e-01 1.239233e+00 1.613533e+00 1.064925e+00 -5.394829e-01 1.787246e+00 0.000000e+00 
-1.055546e+00 1.930717e+00 -3.416743e+00 1.733791e+00 2.552901e+00 4.385490e-01 4.732466e-01 2.942927e-01 1.841285e+00 -6.454010e+00 -4.336869e+00 -1.191524e+00 -1.512927e-01 4.306293e-01 8.619968e-01 1.662694e+00 9.768959e-01 1.687539e+00 2.120570e+00 2.197233e+00 2.198558e+00 3.025567e+00 2.282334e+00 1.145215e+00 7.260007e-01 0.000000e+00 
1.286583e-01 5.110180e+00 -7.783215e-01 3.294092e+00 5.556889e+00 4.987649e+00 3.564527e+00 1.931264e+00 5.580260e+00 -1.636462e-01 -7.732779e-02 -2.379524e+00 -1.512927e-01 5.383098e-01 8.274240e-01 1.282275e+00 1.252448e+00 2.040573e+00 1.033595e+00 8.066309e-01 1.461128e+00 2.175704e+00 2.594536e+00 3.317923e+00 -4.075260e-01 0.000000e+00 
1.077172e+00 7.073385e+00 1.613202e+00 2.336314e+00 1.040737e+01 6.391171e+00 5.079753e+00 6.135026e+00 9.287261e+00 2.530544e+00 4.951059e+00 -4.098437e+00 -1.512927e-01 2.941992e-01 8.056186e-01 5.878165e-01 6.234368e-01 -3.585119e-02 -9.836119e-01 5.892067e-02 -4.947592e-01 8.343469e-01 2.485992e+00 1.772670e+00 -1.370942e+00 0.000000e+00 
7.865105e-01 5.326251e+00 -8.514955e-01 3.728829e+00 7.858909e+00 8.943076e-01 1.416545e+00 2.601469e+00 6.461536e+00 5.596968e+00 6.734312e+00 -6.165892e+00 -1.512927e-01 -1.890919e-01 -4.117842e-02 -7.466069e-01 -1.608861e-01 -6.941456e-01 -1.644782e+00 -8.533627e-01 -1.249351e+00 -1.382616e+00 1.125866e-01 -8.667549e-01 -4.813669e-01 0.000000e+00 
8.652401e-02 5.850775e+00 -4.410734e-01 4.633607e+00 1.222635e+00 -2.432839e+00 1.841841e+00 -2.514606e+00 5.572381e+00 3.095643e+00 1.120660e+00 -6.153051e+00 -1.512927e-01 -5.495210e-01 -9.799810e-02 -1.025951e+00 -6.036042e-01 -9.012079e-01 -2.635281e-01 -9.756294e-01 -1.658248e+00 -2.146263e+00 -5.810115e-01 -1.987996e+00 1.475777e-01 0.000000e+00 
-3.214769e-01 5.515594e+00 -3.484218e+00 1.341015e+00 6.678530e+00 1.175743e+00 9.166698e-01 9.326458e-03 5.246173e-01 1.167376e-01 -2.495903e+00 -3.759052e+00 -1.512927e-01 -1.382372e-01 2.716249e-01 -5.446928e-01 -1.547699e+00 -9.246645e-02 2.327629e+00 6.179949e-01 -3.307273e-01 -9.435793e-01 -1.123816e+00 -1.154970e+00 5.292329e-01 0.000000e+00 
-1.116439e+00 6.488723e+00 -2.200191e+00 5.121999e-01 6.491522e+00 4.932813e+00 4.515438e-01 -8.601409e-01 1.524407e+00 2.365602e+00 -3.738158e-01 -4.563969e+00 -1.512927e-01 -1.132344e-01 8.222532e-03 -4.564038e-01 -9.136039e-01 8.206646e-01 1.711094e+00 5.981178e-01 5.209611e-01 -2.657579e-01 -6.524574e-01 4.623059e-01 8.916481e-01 0.000000e+00 
6.968060e-01 6.365401e+00 -2.695400e+00 -1.948963e+00 4.762134e+00 8.849627e+00 5.201668e+00 1.206002e-01 3.767627e+00 3.429074e-01 1.706702e+00 -4.314269e+00 -1.512927e-01 -3.900236e-01 -5.103146e-01 -3.134631e-01 1.078892e-03 -4.401570e-01 -1.398295e-01 5.398623e-01 4.211660e-01 7.764463e-01 -6.673409e-01 1.396603e+00 8.108443e-01 0.000000e+00 
-9.887896e-01 5.466984e+00 -3.117501e+00 1.710577e+00 6.284156e+00 2.285690e+00 2.689931e+00 3.456271e-02 2.622087e+00 -2.797284e-01 1.330888e+00 -1.417202e+00 -1.512927e-01 -3.659019e-01 -6.482904e-01 -1.426531e-01 2.444433e-01 -1.270605e-01 -2.731732e-01 1.237627e-01 -1.496018e-01 3.029728e-01 -1.503245e-01 1.229307e+00 1.461038e+00 0.000000e+00 
-2.335420e+00 3.474890e+00 -4.592879e+00 7.472210e-01 4.581427e+00 1.800156e+00 2.496788e+00 1.667805e+00 3.858009e+00 -1.897302e+00 3.634761e+00 -1.278213e+00 -1.512927e-01 -6.876429e-01 -4.331852e-01 7.834564e-02 7.425137e-02 -3.867035e-01 -1.146254e+00 -1.366315e+00 -9.711978e-01 5.201123e-01 1.469804e+00 6.796764e-01 6.562954e-01 0.000000e+00 
-1.429835e+00 4.692526e+00 -1.964718e+00 3.863239e-01 5.946572e+00 7.091682e+00 2.422797e+00 -2.381752e+00 2.994080e+00 2.734084e+00 4.808689e+00 1.223196e+00 -1.512927e-01 -2.681769e-01 2.372477e-02 1.397574e-01 -9.240555e-01 -7.505236e-01 -2.995613e-01 -3.584076e-01 -1.237293e+00 6.979645e-01 9.928342e-01 -1.221274e-01 3.689595e-01 0.000000e+00 
-2.520885e+00 4.586703e+00 -2.880064e+00 -9.155803e-01 2.997408e+00 7.153606e-01 -1.496342e+00 -3.527231e+00 6.182192e+00 6.185020e+00 3.366183e+00 -2.352991e+00 -1.512927e-01 -4.940649e-01 5.714960e-02 -2.782517e-01 -5.933257e-01 -6.260707e-01 -1.012035e+00 -7.919281e-01 -1.345877e+00 -3.404551e-02 1.406102e+00 -2.399984e-01 1.823724e-02 0.000000e+00 
-2.236941e+00 5.029701e+00 -3.275122e+00 -2.078300e+00 3.323548e+00 1.330282e+00 2.894458e+00 -3.554384e+00 4.949818e+00 6.432815e-01 8.545395e-01 9.649845e-01 -1.512927e-01 -4.799183e-01 4.893843e-01 -1.230061e-01 1.895738e-01 1.422997e-01 -5.286309e-01 -6.274861e-01 4.479924e-01 9.873872e-02 -2.388041e-01 -2.031947e-01 2.860254e-01 0.000000e+00 
-4.402191e+00 3.592051e+00 -5.328935e+00 -9.870958e-01 2.762586e+00 -3.793206e-01 -1.698683e+00 -4.475262e+00 2.709913e+00 6.178610e+00 4.411843e+00 -1.057921e+00 -1.512927e-01 -7.514000e-02 5.470064e-01 -5.187365e-01 5.418974e-01 5.885706e-01 1.736109e+00 1.032379e+00 1.116480e+00 1.583219e-01 -7.112101e-01 -1.614402e-01 1.540687e+00 0.000000e+00 
-2.888774e+00 7.636775e+00 -1.355313e+00 1.369951e+00 6.775482e+00 4.995869e+00 -6.134629e-01 3.322248e-01 5.223913e+00 1.543269e+00 3.269885e+00 2.005788e+00 -1.512927e-01 -3.526630e-02 2.311127e-01 -4.307783e-01 1.062967e-01 5.486018e-01 1.390817e+00 5.586539e-01 6.943369e-01 4.045154e-01 -8.109717e-01 -1.997047e-01 5.426040e-01 0.000000e+00 
-2.570669e+00 6.018199e+00 -6.433651e+00 6.978130e-02 4.214294e+00 7.563113e+00 5.419512e+00 1.118634e-01 6.836754e+00 2.178976e+00 1.351309e+00 4.830043e+00 -1.512927e-01 -3.412331e-01 -9.242243e-01 -1.965381e-01 -6.247153e-01 -7.578954e-01 -4.060509e-02 1.155237e+00 -1.683355e+00 -4.265159e-03 -1.089346e+00 -3.662038e-01 -7.932311e-02 0.000000e+00 
-3.329034e+00 4.972191e+00 -4.876656e+00 -2.075255e+00 5.340703e+00 4.313151e+00 2.128630e+00 -2.376263e+00 4.908975e+00 -1.411760e+00 1.386283e+00 7.340225e-01 -1.512927e-01 -6.256808e-01 -1.200944e+00 -4.945526e-02 -1.014781e+00 -1.536480e+00 -1.653800e+00 9.143786e-01 -9.838398e-01 -6.670144e-01 -2.603269e-01 2.669922e-01 2.346601e-01 0.000000e+00 
-5.888227e+00 3.032210e-01 -4.550954e+00 -2.388069e+00 -3.095012e-01 -2.409873e-01 2.706457e+00 -1.153779e+01 2.846056e+00 2.209393e+00 3.522625e+00 -8.186537e-01 -1.512927e-01 -4.353703e-01 -6.021817e-02 5.101866e-01 -6.870229e-01 -4.891233e-01 -1.280780e+00 -4.182646e-01 9.079157e-01 -4.544599e-01 -9.482226e-01 -1.190152e-01 3.005624e-01 0.000000e+00 
-4.358399e+00 4.489544e+00 -2.543937e+00 -2.475031e+00 1.354977e+00 6.289177e-01 5.314958e+00 1.237853e+00 3.884190e+00 2.264264e-01 3.519188e+00 6.003438e+00 -1.512927e-01 -1.522188e-02 7.627691e-01 -8.429661e-02 -2.957756e-01 9.127164e-02 6.186724e-02 -1.758642e-01 2.482347e+00 2.566535e-01 -9.529563e-01 -7.225850e-01 1.044505e+00 0.000000e+00 
-4.232838e+00 5.958431e+00 -5.049077e+00 -3.165445e+00 3.761540e+00 3.001329e+00 1.735025e+00 2.844384e+00 5.076847e+00 -3.381230e+00 -3.102196e-01 3.698148e+00 -1.512927e-01 3.436339e-01 1.277931e+00 -3.501386e-01 -2.245165e-01 1.054865e+00 8.857044e-01 -5.522798e-01 3.037088e+00 5.654237e-01 -1.478890e+00 -1.149510e+00 6.728314e-01 0.000000e+00 
