-1.485953e+00 -1.292389e-01 -1.296727e+01 -5.084093e+00 6.336963e+00 2.368209e+00 1.802526e+00 -3.010509e+00 -3.875538e+00 -8.290053e+00 -1.299792e+01 -6.371460e+00 7.585877e-02 5.821630e-01 -3.146349e-01 -4.280721e-01 -2.158401e-02 -1.306679e-01 7.248818e-01 1.354183e+00 1.221269e+00 1.742886e+00 1.374021e+00 -1.978731e-01 -6.439557e-01 9.220516e-03 
-6.744585e-01 -6.046745e-01 -1.137647e+01 -2.259029e+00 9.651324e+00 8.219695e+00 8.842140e+00 6.885905e-01 7.159281e-01 -3.108035e+00 -1.380430e+01 -7.457584e+00 1.066673e-01 8.114252e-01 -1.017256e+00 -1.400931e+00 -1.255153e-01 5.347365e-01 2.442814e-01 1.150976e+00 1.494990e+00 9.893936e-01 1.210150e+00 3.438961e-01 -3.109026e-03 1.413871e-02 
1.019114e+00 -1.464696e+00 -1.590302e+01 -6.604545e+00 4.026443e+00 3.066875e+00 5.053634e+00 1.246286e+00 2.543158e+00 -4.010957e+00 -1.358409e+01 -9.048177e+00 1.065571e-01 3.716402e-01 4.148340e-02 -3.286445e-01 8.252053e-01 8.971058e-01 1.387363e-01 5.846364e-01 9.271345e-01 7.974988e-01 1.118122e+00 4.595195e-01 1.165043e+00 9.460932e-03 
1.318639e+00 -4.547791e+00 -1.850404e+01 -4.951443e+00 1.016590e+01 3.240283e+00 5.931850e+00 2.336043e+00 -2.137918e+00 -4.378849e+00 -1.098535e+01 -5.048647e+00 1.312032e-01 -7.430908e-01 1.296215e+00 1.749211e+00 5.748587e-01 -2.843523e-03 -6.189729e-01 -4.515311e-01 -8.610146e-02 3.140544e-01 -3.118791e-01 1.620785e+00 2.228598e+00 -1.147774e-02 
-6.243010e-01 2.049736e+00 -1.104670e+01 3.881412e-01 1.056520e+01 5.551596e+00 6.180853e+00 8.014371e-01 1.538879e+00 -2.064037e+00 -1.210979e+01 -1.750716e+00 1.108955e-01 -1.606518e+00 1.712527e+00 3.549026e+00 8.606428e-01 3.789428e-01 -6.914734e-02 3.136718e-01 3.412211e-02 1.347738e+00 1.082341e+00 2.975091e+00 3.111700e+00 -2.265657e-02 
-3.568205e+00 4.119184e+00 -5.058576e+00 -2.881078e+00 6.367727e+00 3.882470e+00 6.020876e+00 4.805076e-01 2.788340e+00 -5.640890e+00 -6.437525e+00 3.667539e-02 4.710943e-02 -1.737154e+00 1.560320e+00 3.437570e+00 -4.483928e-01 -1.797783e+00 -5.272462e-01 -6.900050e-01 -8.634487e-01 1.712180e+00 2.032399e+00 2.577443e+00 1.675707e+00 -2.241914e-02 
-4.570052e+00 2.764450e+00 -4.880625e+00 -3.336513e+00 7.820246e+00 2.400045e+00 6.577480e+00 2.344664e+00 6.818716e+00 2.031771e+00 -9.825438e-01 3.967660e+00 3.532112e-02 -1.394065e+00 -2.217298e-01 1.404356e+00 -5.813830e-01 -1.060096e+00 -1.112456e+00 -6.625835e-01 2.805653e-02 1.312484e+00 3.106606e+00 2.857571e+00 1.152439e+00 -1.203173e-02 
-5.394258e+00 2.896450e+00 -4.399226e+00 -5.331079e+00 2.549469e+00 2.179828e+00 2.283511e+00 -2.752814e+00 3.783065e+00 3.735241e+00 -3.661757e+00 4.706986e-01 5.689466e-02 -7.028067e-01 -4.288614e-01 -1.423275e-01 -2.184091e-02 -2.524468e-01 -4.673256e-01 -4.656605e-01 -1.552053e-01 3.926882e-01 3.091780e+00 8.345942e-01 6.548209e-01 4.572779e-03 
-6.681602e+00 1.552454e+00 -4.354599e+00 -1.293773e+00 7.173853e+00 8.406392e-01 4.736618e+00 2.558381e+00 7.603938e+00 8.780926e+00 7.901764e-01 3.794466e+00 4.584426e-02 -3.340099e-01 4.824283e-01 5.838814e-01 3.297710e-01 -2.779463e-01 3.473302e-02 -2.676118e-01 -8.625653e-02 3.437528e-01 4.789746e-01 4.297702e-01 -4.220315e-01 1.067489e-03 
-6.026464e+00 2.580874e+00 -6.033226e+00 -4.011652e+00 5.428690e+00 2.325544e+00 4.613005e+00 -4.023771e-01 4.359170e+00 6.443431e+00 -3.150914e+00 3.397377e+00 6.471175e-02 -1.303467e-01 4.259383e-01 7.172898e-01 -9.563942e-02 2.857028e-01 3.063308e-01 7.175618e-01 3.008358e-01 3.739203e-01 -3.497430e-01 7.041033e-01 1.178274e-01 -8.817076e-04 
-5.923999e+00 5.334379e+00 -1.144217e+00 -2.347372e+00 4.990904e+00 2.500852e+00 4.074675e+00 7.381630e-01 8.249428e+00 3.072549e+00 9.108853e-01 3.941635e-01 3.675002e-02 -3.752880e-02 1.950866e-01 2.072439e-01 -1.120283e+00 -4.997855e-01 -3.546656e-01 -1.324014e+00 -5.630735e-01 -1.184260e-01 -3.324860e-01 1.020852e+00 -1.070243e-01 -1.563346e-03 
-6.424792e+00 3.135180e+00 -2.417968e+00 -5.282477e+00 5.069457e+00 2.881376e+00 6.202292e+00 -3.385260e-01 5.329922e+00 4.840714e+00 -2.015955e-01 2.759987e+00 5.703324e-02 2.295156e-01 -2.366064e-01 1.358894e-01 2.638427e-01 5.087614e-01 -1.669681e-01 -9.879732e-01 1.618149e-01 3.391503e-01 -9.486847e-02 2.639501e-01 5.277658e-01 -5.765718e-03 
-6.670081e+00 2.250735e+00 -5.126009e+00 -6.259778e+00 4.854542e+00 -1.210604e+00 -2.678098e+00 -2.889125e-01 6.526433e+00 7.919854e+00 4.419780e+00 3.578039e+00 4.186678e-02 1.412028e-01 -8.348254e-01 -9.016641e-01 4.956208e-01 1.871592e-01 3.324267e-01 -1.958511e-01 -7.956610e-01 2.625085e-01 9.146659e-01 6.400891e-02 9.926075e-01 -1.512647e-04 
-4.505844e+00 2.939665e+00 -3.362884e+00 -7.362361e-01 8.040678e+00 3.346432e+00 3.049525e+00 9.202352e-01 6.916419e+00 3.545437e+00 -3.585611e+00 4.444268e+00 3.332478e-02 2.764145e-01 1.894921e-03 -4.328527e-01 1.129774e+00 -6.734879e-02 1.536067e-01 1.132884e+00 -5.352720e-01 4.508039e-01 4.663296e-01 -2.283843e-01 -1.513969e-01 -3.054434e-03 
-6.177459e+00 1.258009e+00 -5.180080e+00 -2.142389e+00 4.441090e+00 3.930457e+00 4.671803e+00 -3.869522e+00 8.768722e+00 8.293518e+00 2.922937e+00 4.515060e+00 4.784793e-02 -1.073751e-02 -9.382035e-02 -9.360784e-02 8.933080e-01 -4.263350e-01 -3.006988e-01 1.431830e+00 -9.037066e-02 -7.778260e-01 -3.032708e-02 -2.191294e-01 -1.105720e+00 5.991745e-03 
-5.289031e+00 3.641017e+00 -4.555195e+00 -1.692301e+00 4.939439e+00 1.078878e+00 8.191762e+00 -1.224581e+00 6.462797e+00 6.985530e+00 -5.950959e-01 1.534492e+00 3.877050e-02 -2.244627e-01 -3.432944e-01 -2.382412e-01 8.861630e-02 -5.418283e-01 -1.217585e+00 3.195016e-02 -8.588557e-02 -1.258327e+00 1.138993e+00 1.608535e+00 -2.158527e-01 3.956109e-03 
-6.332175e+00 1.430957e+00 -4.997891e+00 -1.315206e+00 4.273486e+00 -1.580322e+00 1.909934e+00 3.316424e-01 2.864114e+00 6.048172e+00 1.828876e+00 -4.956733e-01 6.910264e-02 -4.088173e-02 -1.117662e-01 3.831460e-01 -2.611769e-01 3.365538e-01 -1.076937e+00 -8.516902e-01 7.588006e-01 -2.121888e+00 -1.851404e-01 6.608764e-01 1.176238e+00 4.269779e-04 
-5.550799e+00 1.136719e+00 -4.645184e+00 -7.067461e-01 5.415339e+00 1.389480e-02 4.590210e+00 -1.609775e+00 3.577090e+00 1.036308e+01 5.004096e+00 5.870371e+00 4.247797e-02 -2.105331e-01 -8.232859e-01 1.667662e+00 -2.904825e-01 -1.009525e+00 -8.363862e-01 -1.919142e+00 7.819645e-01 -3.781146e-01 -1.198109e+00 1.352126e+00 1.701056e+00 9.881020e-03 
-6.250983e+00 1.951327e+00 -3.219356e+00 -3.941050e+00 5.885909e+00 -9.217360e-01 2.214128e+00 1.170774e-01 -3.978662e-01 5.679043e+00 3.427723e+00 8.228312e+00 4.812908e-02 1.723719e+00 -1.467568e+00 4.351680e+00 -1.503959e-01 -2.069993e+00 4.451691e-01 -1.025844e+00 2.983566e+00 -4.484369e-01 -2.275530e+00 1.186036e+00 -1.225654e+00 9.597019e-02 
-6.382293e+00 -7.355979e-01 2.893847e+00 -1.831791e+00 -9.143982e-01 -3.432345e+00 -1.556047e+00 2.792524e+00 6.203214e+00 1.179551e+00 5.366109e+00 5.677781e+00 9.866238e-02 3.173635e+00 -1.131400e+00 4.285366e+00 -1.952932e-02 -2.409570e+00 7.799385e-02 -2.059852e+00 3.943008e+00 -1.463515e+00 -1.792667e+00 8.441185e-01 -3.004958e+00 1.762153e-01 
2.702165e+00 -4.970726e+00 1.299099e+01 -1.504663e+00 -2.911609e+00 2.368644e+00 -1.461582e-01 1.304832e+01 -6.911328e-01 -7.377172e-01 7.578049e+00 -6.527650e+00 5.208614e-01 4.656090e+00 -1.761776e+00 2.053529e+00 1.127846e+00 -3.332236e+00 -1.856163e-01 -3.414613e+00 3.975469e+00 -2.063290e+00 -1.391759e+00 9.911773e-01 -2.665913e+00 2.367271e-01 
5.840803e+00 -1.059254e+00 8.676470e+00 -2.022586e+00 -2.233750e+00 -1.241326e+00 -4.528908e+00 1.163964e+01 -3.593852e+00 4.608121e+00 7.149526e+00 -1.776436e+00 6.871881e-01 4.386140e+00 -1.386733e+00 -5.138763e-01 7.907644e-01 -2.322986e+00 -6.541568e-01 -4.032193e+00 3.113189e+00 -2.856206e+00 -1.056112e+00 1.166158e+00 -1.228771e+00 2.139850e-01 
1.091792e+01 -6.695723e+00 4.156976e+00 1.793579e+00 -1.011560e+01 -2.945327e+00 -1.337250e+01 1.557086e+01 -5.815783e+00 -2.994035e+00 7.491901e+00 -1.374144e+00 9.375019e-01 2.191413e+00 -9.309627e-01 -1.900352e+00 1.018691e+00 -2.145447e+00 -2.129392e+00 -2.643147e+00 -3.736620e-02 -7.898291e-01 -1.303245e+00 9.974768e-01 1.007537e+00 1.178493e-01 
1.144053e+01 -6.806763e+00 4.741473e+00 4.729104e-01 -8.927334e+00 -4.046144e+00 -1.510384e+01 1.709720e+01 -5.515491e+00 -2.972850e+00 1.123997e+01 -3.042825e+00 9.602669e-01 8.264001e-01 -1.118737e+00 -4.656211e-01 1.425987e+00 -2.045778e+00 -1.630652e+00 8.128624e-02 -1.398818e+00 3.149181e-01 -1.232911e+00 6.884306e-01 2.162249e-01 6.173833e-02 
1.085937e+01 -6.751785e+00 5.456732e+00 2.341043e+00 -1.029205e+01 -6.875906e+00 -8.074426e+00 1.013272e+01 -3.679459e+00 -3.463455e+00 1.052021e+01 -8.567723e-01 9.735686e-01 -4.062790e-01 -9.164667e-03 7.174771e-01 8.166444e-01 -7.459243e-01 -1.473528e+00 1.981278e+00 -2.826984e+00 1.119970e-01 8.403799e-01 -2.185087e-01 3.971877e-01 1.049802e-02 
1.000208e+01 -6.624906e+00 5.698486e+00 4.833614e+00 -1.237441e+01 -7.429298e+00 -6.771516e+00 7.364629e+00 -3.087423e+00 -1.321725e+00 9.077525e+00 -9.539973e-01 9.778465e-01 -6.007265e-01 9.782090e-02 7.647001e-01 7.051586e-01 -8.448965e-01 -1.087716e+00 1.487915e+00 -2.594931e+00 -5.566696e-01 7.299175e-01 -8.768007e-01 6.157421e-01 6.455278e-03 
9.605752e+00 -6.832474e+00 7.265855e+00 3.696449e+00 -1.212168e+01 -8.621389e+00 -7.632274e+00 6.302228e+00 -6.469831e+00 3.823023e-01 7.480582e+00 -4.326195e-01 9.812022e-01 -3.468476e-01 3.259401e-02 6.517755e-01 2.382600e-01 -4.188091e-01 -4.517294e-01 3.875572e-01 -1.250791e+00 -1.315136e+00 4.567692e-01 -2.687486e-01 -5.639800e-01 6.374287e-03 
9.063707e+00 -6.277314e+00 7.660412e+00 3.321001e+00 -1.223700e+01 -8.611982e+00 -7.885341e+00 6.037784e+00 -6.903653e+00 -1.246141e+00 8.375784e+00 -1.761908e-01 9.887265e-01 -1.503443e-01 2.270890e-01 4.342411e-01 8.061790e-02 -2.756626e-01 8.825375e-01 -4.782127e-01 -2.291685e-01 -1.572092e+00 -3.709598e-01 1.856778e-01 -4.349109e-01 2.460492e-03 
9.594316e+00 -6.762611e+00 7.734647e+00 4.288650e+00 -1.245480e+01 -8.543211e+00 -5.579727e+00 4.542183e+00 -8.347026e+00 -1.217402e+00 9.527336e+00 -4.065576e+00 1.000000e+00 -3.092504e-03 2.815507e-01 2.116003e-01 4.728083e-01 -1.499731e-01 1.782873e+00 -9.001399e-01 2.987877e-01 -1.010039e+00 -8.024470e-01 6.368617e-01 -9.309406e-01 -4.328477e-03 
9.256077e+00 -5.524393e+00 7.635296e+00 4.940603e+00 -1.358616e+01 -3.055699e+00 -1.018885e+01 7.098810e+00 -1.000928e+01 -2.376672e+00 8.982537e+00 -1.312074e+00 9.807501e-01 3.424661e-02 2.637824e-01 4.120139e-01 5.834044e-01 -9.531269e-02 1.804467e+00 -1.002313e+00 4.780596e-01 -1.149279e+00 -3.213901e-01 5.711890e-01 -4.890488e-01 -1.097896e-02 
9.494104e+00 -5.801181e+00 8.336414e+00 5.250689e+00 -1.219696e+01 -2.485166e+00 -1.098122e+01 7.265654e+00 -9.967209e+00 -3.064667e+00 1.036151e+01 -4.519381e+00 9.635481e-01 -3.760597e-01 4.352552e-01 9.804457e-01 2.069267e-01 -9.263229e-02 1.003744e+00 -8.893520e-01 -1.942457e-01 -7.850680e-01 2.090821e-01 7.473807e-01 1.687719e-01 -1.281762e-02 
9.285047e+00 -5.439117e+00 9.419598e+00 5.757003e+00 -1.284248e+01 -2.618669e+00 -1.019616e+01 7.066347e+00 -1.183996e+01 -1.929459e+00 1.081464e+01 -2.394532e+00 9.520577e-01 -2.809202e-01 8.962683e-02 1.091401e+00 4.756912e-01 -7.156647e-01 -2.304084e-01 8.136070e-01 -1.734902e+00 -4.671118e-01 3.801315e-01 3.197076e-01 -8.834493e-02 -2.708995e-03 
7.699533e+00 -4.628973e+00 1.174472e+01 4.915083e+00 -1.328980e+01 -3.743007e+00 -1.002283e+01 3.587186e+00 -1.135703e+01 -3.955975e-01 1.234819e+01 -2.680487e+00 9.502581e-01 9.632480e-03 -1.483455e-01 1.040469e+00 4.828385e-01 -1.081412e+00 1.994407e-01 9.100119e-01 -2.167408e+00 -2.927467e-01 1.433463e-02 -3.927826e-01 3.028810e-01 8.726716e-04 
8.748762e+00 -5.662363e+00 1.138815e+01 7.486862e+00 -1.661807e+01 -3.578821e+00 -6.600010e+00 2.635355e-01 -1.164993e+01 -1.810549e+00 9.587738e+00 -2.673245e+00 9.738501e-01 1.967298e-01 1.217079e-02 8.191994e-01 -4.547501e-03 -1.601122e-01 4.857671e-01 4.965822e-01 -1.248732e+00 3.263111e-02 -6.178052e-01 -1.129743e+00 -1.631654e-01 -1.052523e-02 
9.810410e+00 -6.431286e+00 1.255449e+01 6.799952e+00 -1.571623e+01 -1.007886e+00 -8.229234e+00 -1.699774e-01 -1.152596e+01 -3.052449e+00 9.011052e+00 -2.865620e+00 9.570152e-01 -6.694381e-01 1.108985e+00 8.061970e-01 -1.259976e+00 1.608994e+00 1.741581e-02 1.480835e-01 2.851495e-01 -1.058211e+00 -4.596388e-02 -1.356435e+00 -1.146256e-01 -2.253450e-02 
9.213257e+00 -4.477107e+00 1.311071e+01 4.791831e+00 -1.242983e+01 -1.557394e+00 -8.610050e+00 2.701267e+00 -1.159234e+01 -3.690059e+00 6.834492e+00 -3.117793e+00 8.960530e-01 -5.486896e-01 1.493978e+00 1.329190e+00 -2.199553e+00 2.348004e+00 3.425965e-01 -1.532685e+00 5.617710e-01 -9.581594e-01 -6.801547e-01 -4.897618e-01 4.347884e-01 -4.514172e-02 
4.120094e+00 3.233227e-01 1.491443e+01 -3.728294e-02 -7.338950e+00 -4.666641e+00 -8.277394e+00 3.794067e+00 -1.667688e+01 3.143383e-01 6.942638e+00 -3.031341e+00 8.764842e-01 1.716636e-01 1.661633e+00 4.101742e-01 -1.776513e+00 1.800843e+00 1.385836e+00 -1.936832e+00 -8.662726e-01 1.104934e+00 -1.659311e+00 -8.548811e-01 8.712769e-01 -5.619951e-02 
8.850471e+00 -1.569775e+00 1.685413e+01 -9.228611e-02 -9.066689e+00 -3.646064e-02 -1.423935e+01 1.090368e+00 -1.386527e+01 -6.894716e+00 8.173136e+00 -4.164425e-01 7.884070e-01 2.685073e-01 1.511032e+00 8.130074e-01 9.130239e-01 1.351478e-01 3.922513e-01 -2.421787e-01 -1.704510e+00 3.141208e+00 -1.819300e+00 -2.136469e+00 2.057242e+00 -7.338106e-02 
1.085012e+01 4.232123e-01 1.273365e+01 3.594480e-01 -8.393585e+00 5.160827e+00 -1.509874e+01 -3.695891e+00 -4.864820e+00 -9.746677e+00 4.067325e+00 1.400893e-01 7.298406e-01 3.472077e-01 7.744945e-01 8.852959e-01 3.902640e+00 -1.605407e+00 9.886913e-02 1.070735e+00 -2.499145e+00 4.574705e+00 -2.935655e+00 -2.961447e+00 2.043632e+00 -9.367637e-02 
7.190781e+00 3.028111e+00 1.826614e+01 9.158587e+00 -1.122678e+01 -4.509871e+00 -6.410269e+00 -2.076305e+00 -1.792330e+00 -7.756051e+00 -2.410197e+00 5.582700e+00 6.024694e-01 -1.969995e+00 2.299124e+00 -2.937310e+00 1.592338e+00 1.382010e+00 -1.394115e+00 3.471598e+00 -2.116194e+00 1.925843e+00 2.063195e-01 -3.949183e+00 -8.912416e-02 -1.613190e-01 
6.685978e+00 1.896852e+00 1.863490e+01 1.485048e+01 -1.428594e+01 -1.935590e+00 -6.838262e+00 -7.118320e+00 1.601765e-01 -1.393327e+01 -2.572931e+00 4.187248e+00 5.010711e-01 -3.341211e+00 1.842149e+00 -4.922600e+00 -1.302781e+00 3.864427e+00 -1.094124e+00 2.639588e+00 -1.626697e+00 1.266502e-01 2.349449e+00 -3.000257e+00 -1.631191e+00 -1.840403e-01 
1.082565e+00 9.189024e+00 -7.830482e-01 6.238885e-01 7.895408e-01 -3.458829e+00 -1.011606e+00 -7.779385e+00 -6.748554e+00 -3.769823e+00 -8.252650e+00 -2.885643e+00 9.619665e-02 -3.332430e+00 6.593055e-01 -6.416711e+00 -4.218426e+00 5.472502e+00 1.166377e+00 1.454001e+00 1.279807e-01 9.358862e-01 3.725278e+00 -1.242072e+00 -1.444002e+00 -1.575201e-01 
-2.801829e+00 6.553502e+00 -2.354756e+00 -1.887111e+00 4.920394e+00 -8.353155e-01 -4.600135e+00 -8.977837e+00 -1.753456e+00 7.454634e-03 -8.012732e+00 -3.781696e+00 6.277561e-02 -3.018040e+00 -2.842610e-01 -5.388791e+00 -4.648286e+00 4.167267e+00 5.921741e-01 1.923576e+00 1.132003e+00 1.770465e+00 5.107629e+00 5.503479e-01 3.370934e-01 -1.039357e-01 
-4.727466e+00 3.996313e+00 -3.322588e+00 -3.564748e+00 6.532567e+00 7.718781e-01 -2.593288e-01 -5.066433e-01 3.843917e+00 3.899976e+00 -5.900654e+00 2.347162e+00 3.401667e-02 -9.568806e-02 -4.181100e+00 -1.399161e+00 -1.668346e+00 -2.589557e+00 1.821630e+00 1.302338e+00 -1.037688e+00 2.327783e+00 1.369622e+00 1.312212e+00 1.242895e+00 1.122081e-01 
-5.499207e+00 3.071903e+00 -7.039282e+00 -6.296629e+00 3.678882e+00 -1.090074e+00 2.403478e+00 -5.094677e+00 3.716264e+00 7.769976e+00 -9.971893e-01 3.256312e+00 1.248246e-02 3.893329e-01 -4.672114e+00 -3.240338e-01 -2.041453e+00 -5.566086e+00 1.370483e+00 1.877269e+00 -2.399379e+00 8.481916e-01 -4.175237e-01 4.553073e-01 1.264479e+00 2.317997e-01 
1.952814e+00 -9.975676e+00 -5.436591e+00 -5.513084e+00 -1.153749e+01 5.776700e+00 1.998279e+00 -1.490940e+01 2.155502e+00 -8.029747e-01 -5.199361e+00 -1.901717e-01 6.823838e-01 -1.410945e+00 -4.002613e+00 1.895260e+00 -5.403018e-02 -4.876729e+00 8.245323e-01 8.212841e-01 -3.184594e+00 -2.457940e-01 -1.508443e+00 -1.369848e+00 -2.566848e-01 2.627737e-01 
-4.195305e+00 -9.821073e+00 -2.917924e+00 -1.112020e+01 -1.387501e+01 3.514689e+00 3.657405e+00 -1.377335e+01 3.331709e+00 2.713113e-01 -6.086842e+00 3.809364e+00 8.975906e-01 -1.600663e+00 -1.754538e+00 3.833412e+00 1.937549e+00 -2.105450e+00 3.911511e-01 -5.562819e-01 -1.071053e+00 -1.074516e-01 -1.394107e+00 -2.014945e+00 -9.790629e-01 1.660085e-01 
-1.243414e+01 -9.570263e+00 4.093033e+00 -1.423110e+00 -9.074132e+00 2.592158e+00 3.220128e+00 -1.209027e+01 2.807225e+00 1.070948e-01 -1.020507e+01 7.872123e-01 9.053308e-01 -4.245202e-01 1.152589e+00 3.760239e+00 2.714271e+00 1.811450e+00 -7.385191e-01 -4.802202e-01 2.095897e+00 6.242130e-01 -3.056956e-02 -2.629919e-02 -1.072154e+00 -5.486480e-02 
-6.309045e+00 -5.903491e+00 7.362964e+00 1.346129e+00 -8.080045e+00 2.457953e+00 -9.888563e-01 -1.185951e+01 2.853144e+00 3.444065e-01 -8.569060e+00 -2.127694e+00 7.310514e-01 2.808335e+00 1.140699e+00 1.301216e-01 2.059702e+00 2.373800e+00 -6.981476e-02 5.041613e-02 3.678137e+00 1.176528e+00 -1.231821e+00 9.149927e-01 -5.236832e-01 -1.717466e-01 
8.870831e-01 -6.171520e+00 8.224157e+00 1.825105e+00 -5.377717e+00 2.612473e+00 1.920309e+00 -5.386842e+00 5.515850e+00 -9.923701e-01 -4.089747e+00 -2.582414e+00 4.913294e-01 4.306498e+00 1.297271e+00 -2.561626e+00 5.111028e-01 2.666788e+00 -1.015788e-03 5.595986e-01 4.075680e+00 1.082792e+00 -2.352686e+00 5.066876e-01 3.656633e-01 -1.889707e-01 
3.185755e+00 -5.816951e+00 -4.332878e+00 -2.445801e+00 -3.854217e+00 3.155458e+00 4.559395e+00 1.265616e+00 7.860036e+00 -5.338060e+00 -4.569538e+00 2.875761e+00 2.458583e-01 2.488664e+00 1.110675e+00 -4.447481e+00 3.968852e-01 3.483608e+00 -6.099323e-01 9.403364e-01 3.199824e+00 1.729676e-01 -1.308417e+00 -2.340526e-01 7.122695e-01 -1.455530e-01 
4.350945e+00 -3.127180e+00 -2.867175e+00 3.028368e+00 2.146893e+00 2.238327e+00 3.243995e+00 1.725566e+00 5.717741e+00 -8.815103e+00 -9.671389e+00 1.138012e-01 2.030737e-01 2.656616e-01 1.816285e+00 -3.278022e+00 2.207398e-01 4.654819e+00 -5.681746e-01 9.860519e-01 1.564416e+00 -2.880250e-01 8.242849e-01 3.227778e-01 9.033619e-01 -8.912404e-02 
4.402346e+00 -1.872289e+00 -9.328775e+00 2.728924e+00 5.575689e+00 -4.046352e-01 3.050983e+00 5.834057e-01 3.617037e+00 -2.286312e+00 -6.948503e+00 8.554587e-02 1.474143e-01 -1.159555e+00 1.869481e+00 -9.808183e-02 1.171093e+00 3.684661e+00 -4.482042e-02 -5.867415e-02 4.554547e-01 -7.719372e-01 1.891480e+00 1.427005e+00 -5.299525e-01 -4.148559e-02 
1.607096e+00 9.375724e-01 -5.668004e+00 3.414412e-01 1.318143e+01 1.551647e+00 7.604774e+00 2.776344e+00 6.197224e+00 1.603181e+00 -1.286376e+00 3.329503e+00 9.493119e-02 -1.724424e+00 1.551017e+00 7.665890e-01 4.212362e-01 1.224616e-01 8.552485e-01 4.765036e-01 4.935236e-01 -1.441586e+00 1.829045e+00 3.423893e+00 3.625726e-01 -1.727502e-02 
-1.240094e+00 1.498079e+00 -3.422872e+00 4.753129e+00 9.051821e+00 3.274696e+00 2.085635e+00 3.017501e+00 3.760608e+00 -1.089802e+00 -1.627019e+00 -1.381852e+00 9.250164e-02 -1.627298e+00 1.506878e+00 2.516469e+00 3.898192e-01 -9.290321e-01 1.389158e+00 4.603561e-01 -4.686586e-01 -1.436108e+00 7.650543e-01 2.172896e+00 -4.064023e-01 -8.583230e-03 
-1.449954e+00 2.942721e+00 -1.987182e+00 4.122447e+00 1.021135e+00 4.674903e+00 6.109187e+00 2.976137e+00 -1.561977e+00 -2.681310e-01 4.787336e+00 2.660363e+00 1.441549e-01 -5.067112e-01 9.764284e-01 1.083147e+00 -2.305790e-01 -1.990467e+00 3.573812e-01 1.317409e-01 -1.220960e+00 -1.601275e+00 -1.130001e-01 -1.979841e-01 -8.322185e-01 -3.924340e-03 
-2.205617e+00 4.659525e+00 1.413159e+00 2.787517e+00 7.010674e+00 4.979526e+00 6.100558e+00 -1.859784e+00 3.160956e-01 2.474615e+00 8.791223e-01 -1.611896e+00 7.988626e-02 4.175005e-02 4.475808e-01 -4.681330e-01 -1.457697e+00 -2.040634e-01 -1.677618e+00 9.003513e-01 -1.869043e+00 -1.322487e+00 -6.540273e-01 -8.230417e-01 -2.021490e-01 -9.666532e-03 
-4.436989e-01 4.238991e+00 -2.670286e+00 1.713524e-01 4.249660e+00 2.486138e+00 6.256018e+00 -8.898115e-01 -8.689594e-02 -7.440281e-01 -3.529367e+00 -7.165681e-01 8.161718e-02 -2.392001e-01 -1.930148e-01 -3.879088e-01 -1.197338e+00 1.742513e-01 -2.924489e+00 -1.449652e+00 -1.742777e+00 -7.587162e-01 -2.461372e+00 -1.821763e+00 -1.445710e+00 -2.067519e-02 
-1.534472e+00 3.087848e+00 -5.421985e+00 -5.598087e-01 6.417241e+00 -4.019010e+00 6.513976e+00 -4.394740e+00 -3.589369e+00 -4.121990e+00 -1.583876e+00 -7.041312e-01 7.543784e-02 -3.901730e-01 -3.947682e-01 -7.656168e-01 -9.551396e-02 -8.078753e-01 -1.941789e+00 -1.176955e+00 -2.348663e-01 -4.107700e-01 -1.785543e+00 -9.067953e-01 3.450819e-01 -5.362153e-04 
-2.981527e+00 2.763485e+00 -5.091541e-01 -1.905799e-01 2.189108e+00 -5.448273e+00 -1.345781e+00 -4.470269e+00 -3.402826e+00 -9.276689e+00 -3.089982e+00 -5.022070e+00 4.300314e-02 -7.620243e-01 -3.272581e-01 -1.920145e-01 -3.866943e-01 -3.442491e-01 -5.825871e-01 -1.427521e+00 -2.374398e-01 2.450901e-01 4.741185e-01 8.838623e-01 1.073546e+00 -4.009336e-03 
-2.887568e+00 3.423437e+00 -3.495491e+00 2.490913e+00 4.001574e+00 -7.622137e-01 4.016683e+00 -1.243887e+00 -7.978964e-02 -2.186772e+00 -3.874547e+00 2.266265e+00 9.651220e-02 -8.700312e-01 -1.697627e-01 3.850510e-01 -1.754544e-01 2.018880e-01 1.435974e+00 -3.917272e-01 5.599158e-01 1.410299e+00 1.012067e+00 3.061533e-03 3.402302e-01 -2.114558e-03 
-3.577272e+00 2.434906e+00 -4.593605e+00 -3.287480e+00 3.736249e+00 -2.055195e+00 3.670607e-01 -3.652437e+00 -6.162353e-01 6.589557e-01 2.035279e+00 3.165963e+00 5.103332e-02 -6.414218e-01 -1.966370e-01 -5.185658e-01 -1.171610e-01 6.326860e-01 9.431976e-01 1.742691e+00 1.066449e+00 9.285034e-01 1.184695e+00 2.942160e-01 2.537135e-01 -2.629936e-04 
-5.586755e+00 2.403324e+00 -1.454504e+00 1.113696e-01 6.653111e+00 1.464322e+00 3.698919e+00 -2.004077e+00 2.068829e+00 -4.029479e+00 -4.131199e+00 -3.096997e+00 6.084996e-02 -2.601870e-01 1.070967e-01 3.307541e-01 -4.863812e-01 3.326152e-01 4.474010e-02 5.058764e-01 6.258602e-01 2.748099e-01 1.520622e-01 5.146438e-01 -5.268263e-01 -1.078176e-02 
-4.839043e+00 2.290357e+00 -4.122476e+00 4.133868e-01 4.026770e+00 -1.845553e+00 7.526555e+00 1.242071e+00 1.653819e-01 -2.431858e+00 -1.490576e+00 -1.071871e+00 5.951929e-02 -1.330919e-02 4.137406e-01 6.230956e-01 7.071183e-01 -5.613859e-02 -1.915911e-01 -4.555271e-01 9.901718e-01 1.448334e+00 -1.640387e-01 -3.682784e-01 6.821861e-01 -1.229882e-03 
-3.557617e+00 4.031195e+00 -2.077285e+00 -1.791426e+00 5.519389e+00 -6.433344e-01 2.966317e+00 -5.618393e-01 9.034512e-01 1.189456e-01 4.615993e-01 1.751051e+00 3.836042e-02 3.113477e-01 3.509626e-01 -1.359858e-01 -3.079271e-02 -6.967551e-01 -7.564739e-01 -1.198868e+00 -1.694459e-01 2.231330e+00 2.066965e+00 6.231116e-01 8.883726e-01 -2.224523e-03 
-4.658387e+00 3.689674e+00 -1.166737e+00 1.199509e+00 4.022417e+00 -1.959323e+00 -1.544274e+00 5.773029e-01 7.208124e+00 -2.235450e+00 -2.102513e+00 4.152870e+00 5.612868e-02 3.812565e-01 4.941846e-01 -2.979624e-01 -3.665382e-01 1.435473e-01 -1.747704e-01 -1.682009e+00 -1.052508e+00 2.118709e+00 2.005765e+00 1.678940e-02 1.350199e-01 -1.588619e-03 
-4.120344e+00 3.458479e+00 -3.612303e+00 -4.356551e-01 3.171511e+00 -2.261163e+00 2.239992e+00 -2.518923e+00 9.704109e+00 6.207141e+00 -7.096730e-01 -1.267505e+00 5.142266e-02 1.588144e-01 1.285792e-01 -6.684327e-01 -1.604612e-01 -1.123574e-01 5.722079e-01 4.109581e-01 -1.750214e-01 8.716007e-01 1.382928e+00 -4.623640e-01 -1.268986e+00 2.151942e-03 
-2.651397e+00 5.047638e+00 -4.844779e+00 -2.097190e+00 5.918445e+00 -1.910491e+00 -5.203290e-01 -3.041926e+00 6.358599e+00 4.552869e+00 -8.209926e-01 1.112507e+00 4.504508e-02 1.223999e-01 -4.171035e-02 -3.776242e-01 1.869878e-01 7.082940e-01 1.765488e+00 1.547885e+00 -5.076768e-01 -2.094123e+00 4.346543e-01 -4.089359e-01 -1.121189e+00 7.574594e-03 
-3.767040e+00 3.995110e+00 -3.580427e+00 -9.453826e-01 4.009588e+00 2.193289e+00 4.509135e+00 3.726683e-01 5.686218e+00 3.639427e+00 -2.490981e+00 -3.073700e+00 5.466193e-02 -2.563504e-01 -3.793025e-02 5.257874e-01 7.116682e-01 1.278123e+00 1.172932e+00 2.879665e-01 -5.663585e-01 -2.707689e+00 -1.342942e+00 -5.816474e-01 -1.525005e-02 5.908167e-03 
-4.223040e+00 3.212807e+00 -3.070796e+00 2.389312e+00 7.144848e+00 4.640890e+00 5.060578e+00 -3.406876e+00 -1.253548e+00 1.221679e+00 -3.256538e+00 -5.499772e-01 9.238201e-02 -5.729140e-01 -2.724118e-01 -1.124396e-01 4.192620e-01 4.935424e-01 6.078892e-01 7.852710e-01 -8.692846e-02 -5.031303e-01 5.617316e-01 5.960588e-01 5.403038e-01 4.727674e-03 
-4.616275e+00 4.186243e+00 -1.870358e+00 8.794351e-01 8.948924e+00 3.278062e-01 8.893709e-01 -5.168240e+00 -2.826214e-02 1.158028e+00 -2.400137e+00 -5.125136e-01 5.729502e-02 -3.872077e-01 -3.137943e-01 -4.138236e-01 -3.374135e-01 4.092290e-01 -1.028339e+00 -1.422689e-01 -5.881220e-01 -2.391945e-01 -2.311764e-02 1.246013e+00 1.851935e+00 -3.880644e-03 
-5.091350e+00 3.590012e+00 -6.262012e+00 -9.132886e-01 5.916489e+00 2.061697e+00 5.215909e+00 -7.061143e-01 6.700187e+00 8.602226e+00 2.113880e+00 2.533432e+00 6.736690e-02 -1.567245e-01 1.591523e-01 -2.927180e-01 -1.446004e+00 -2.420670e-01 -9.891120e-01 3.714325e-01 3.409588e-01 1.340874e+00 6.281013e-01 1.490413e+00 1.713864e+00 -7.435990e-03 
-5.268924e+00 2.237535e+00 -4.053937e+00 -9.811499e-01 6.669913e+00 -1.658808e+00 3.720125e+00 -3.918323e+00 5.133779e-01 -1.664352e-01 1.053877e+00 4.644269e+00 4.776627e-02 5.843190e-01 6.898621e-01 1.189737e-01 -7.279900e-01 -7.096955e-01 4.579336e-01 2.685491e-01 4.020570e-01 4.137161e-02 8.767782e-01 -4.328851e-01 -1.822603e-01 2.039724e-03 
-4.680338e+00 4.982923e+00 -3.442596e+00 -3.910417e+00 7.074018e+00 6.886369e-01 5.502363e+00 -2.327041e+00 5.180003e+00 5.024417e+00 2.468522e+00 5.440951e+00 5.996644e-02 8.158548e-01 6.201196e-01 9.419514e-01 3.998939e-01 6.479377e-01 8.413476e-01 -3.598077e-01 -8.434725e-03 -1.207045e+00 -6.564673e-01 -1.367470e+00 -9.054486e-01 -3.651333e-03 
-1.900186e+00 6.939098e+00 -2.685197e+00 -1.261951e+00 4.821682e+00 3.304004e+00 2.088889e+00 -2.347491e+00 9.386880e-01 7.330824e+00 -4.741884e+00 -2.877574e+00 7.119387e-02 7.400716e-01 3.165893e-01 9.985285e-02 3.910597e-01 3.458041e-01 4.608511e-01 -5.537721e-01 1.601891e-01 -1.762919e-01 4.608160e-01 -5.383350e-01 -1.063272e+00 -3.793633e-03 
-2.696445e+00 4.339829e+00 -2.236625e+00 1.226582e+00 1.008029e+01 3.787029e+00 4.232488e+00 -1.533703e+00 4.523053e-01 1.571260e+00 -1.825590e+00 1.767111e+00 3.739643e-02 3.579324e-01 -4.478858e-01 -2.902587e-01 4.299733e-01 1.717671e-01 -7.392523e-01 -8.335007e-01 -3.540563e-01 -5.311392e-01 -5.786988e-01 1.332614e-01 -4.509844e-01 -7.087743e-03 
-2.560513e+00 4.142028e+00 -4.157659e+00 -1.594351e+00 6.895797e+00 -9.037483e-01 1.586203e+00 -3.514046e+00 1.995767e+00 3.864223e+00 5.092583e-01 1.164828e+00 4.008311e-02 -1.184722e-01 -5.791939e-01 -4.865957e-01 -3.485732e-01 9.637332e-02 -1.310628e+00 -3.651658e-01 -4.313451e-01 3.657621e-01 -4.640238e-01 1.283713e+00 7.482520e-01 -5.953485e-03 
