-1.084353e+01 2.239585e+00 6.188289e+00 4.710143e+00 1.741972e+00 -1.550238e+00 2.270746e+00 2.540089e+00 3.532488e+00 2.811204e+00 5.326390e+00 2.329205e+00 -1.581895e-02 3.978350e-01 1.292881e-01 1.062215e-01 9.017363e-01 5.312388e-01 -6.512829e-01 -1.317323e-01 -1.045160e+00 3.005105e-01 9.409121e-01 -1.625805e-01 1.132691e-02 -7.584882e-03 
-9.088402e+00 2.935018e+00 7.134094e+00 7.105197e+00 2.322340e+00 -2.179083e+00 5.330944e+00 1.480213e+00 1.890717e+00 5.282133e-01 3.345772e+00 3.999088e+00 -3.707135e-02 2.031046e-01 7.783473e-03 -6.200287e-01 2.985583e-01 4.756568e-01 -7.112157e-01 -6.553985e-01 -4.623296e-01 1.029731e+00 1.248414e+00 -4.981488e-01 -5.814028e-03 -1.797938e-03 
-9.731926e+00 2.538309e+00 6.246494e+00 8.021298e+00 4.107982e+00 -4.492230e+00 8.198643e-02 -2.155774e+00 5.855927e+00 8.657260e+00 5.503796e+00 1.550898e+00 -4.311717e-02 6.896172e-02 -9.722143e-02 -6.433746e-01 -7.151629e-01 -1.979196e-01 -3.217673e-01 -2.258153e-01 3.645784e-01 2.458576e-01 1.644049e+00 1.038776e-01 1.411857e-01 4.079485e-03 
-1.038382e+01 2.129140e+00 3.059043e+00 4.547357e+00 2.937251e+00 -3.635320e+00 8.813429e-02 2.576372e+00 7.519423e+00 6.130244e+00 2.746943e+00 2.689288e+00 -1.115954e-02 -1.214390e-02 -2.365602e-01 -5.049011e-01 -7.207958e-01 3.220299e-01 4.620364e-01 -3.179923e-01 2.355105e-01 3.649297e-02 8.119920e-01 8.137327e-01 -3.417111e-01 4.300952e-03 
-9.851019e+00 2.156416e+00 5.008942e+00 2.413248e+00 4.449186e-01 -2.430956e+00 3.763075e+00 3.814901e+00 1.947423e+00 8.230433e+00 6.145193e+00 3.690033e+00 -8.377433e-03 3.828054e-01 3.734504e-01 4.695403e-01 -1.882639e-02 6.272849e-01 1.674062e+00 7.202979e-01 3.314435e-01 -3.895749e-01 -1.408834e+00 -2.213329e-01 4.062671e-01 8.882284e-04 
-9.089575e+00 1.943163e+00 5.228365e+00 6.305243e+00 5.764021e+00 -8.995380e-01 1.900438e+00 -3.275725e-01 4.027434e+00 4.801587e+00 7.093737e+00 1.220965e+00 -3.293645e-02 3.738363e-01 5.262243e-01 7.696687e-01 2.397391e-01 1.567149e+00 1.260318e+00 3.675521e-01 -4.304453e-01 -9.428720e-01 -2.810240e-02 5.220416e-01 -2.391749e-01 -4.693174e-03 
-8.465019e+00 4.498549e+00 7.509534e+00 7.048223e+00 5.831021e+00 2.510191e+00 2.777324e+00 9.534156e-01 5.654047e+00 2.277420e+00 2.223734e+00 4.316395e+00 -2.778757e-02 2.367739e-01 4.860622e-01 -1.864443e-02 2.819621e-01 1.058194e+00 1.181792e+00 5.301195e-01 -3.363681e-01 2.417671e-01 2.717876e-01 -1.036937e+00 -2.055339e-01 -4.693746e-04 
-9.207634e+00 3.589195e+00 5.657091e+00 3.428565e+00 8.079945e+00 1.956942e-01 2.418770e+00 1.854888e+00 9.517512e-01 8.966239e+00 7.317880e+00 1.180233e+00 -2.492034e-02 5.526714e-02 4.451238e-01 -3.933701e-01 3.487071e-02 -3.234119e-01 2.699195e-01 1.402057e+00 1.031445e-01 4.304619e-01 1.233826e+00 -1.314726e-01 6.694502e-01 7.213128e-03 
-8.608120e+00 3.763711e+00 4.701357e+00 5.261397e+00 4.577928e+00 2.930391e+00 6.154506e+00 1.041830e+00 4.694100e+00 7.507045e+00 8.484367e-01 2.682730e+00 -1.473236e-02 -1.878686e-01 -4.351698e-01 -1.131124e-01 3.272194e-01 -5.083527e-02 -7.843510e-01 -3.058105e-01 -4.222445e-01 1.378409e+00 1.769535e+00 1.445950e+00 2.426784e-01 1.164591e-03 
-8.741690e+00 4.536201e+00 4.665604e+00 7.373009e+00 4.773509e+00 2.399598e-01 7.222135e+00 1.439428e-01 6.659717e+00 8.355905e+00 7.124023e+00 5.385048e+00 -3.398418e-03 -2.774507e-01 -4.442160e-01 6.097573e-01 1.244253e+00 -1.595606e-01 -7.066845e-01 -6.781526e-01 -3.631484e-01 9.399430e-01 8.500133e-01 2.473030e-01 -4.576354e-02 -4.939318e-04 
-9.637335e+00 1.849198e+00 7.439716e+00 6.712098e+00 7.230062e+00 -1.433696e+00 -1.153410e+00 -3.023342e-01 9.692111e+00 1.143026e+01 9.550413e+00 3.427379e+00 -3.272557e-02 -3.466739e-01 -2.950100e-01 8.412880e-01 7.558047e-01 -1.365180e-01 -2.415231e-01 -7.457598e-01 -5.329154e-01 4.139135e-02 9.262043e-01 8.627068e-01 -7.672217e-01 -5.097032e-04 
-1.008028e+01 2.325372e+00 7.336698e+00 8.924478e+00 5.956074e+00 -1.155685e+00 2.681965e+00 7.112281e-01 3.152461e+00 1.125470e+01 4.203407e+00 5.790902e-01 -1.839340e-02 -1.935213e-01 -1.696136e-01 3.912964e-01 -2.696875e-01 -6.310252e-01 2.120414e-01 -1.745704e-01 -8.540427e-02 -6.248530e-01 -4.565904e-01 -6.924623e-01 -7.951220e-01 -1.712072e-03 
-9.672194e+00 3.394076e+00 7.572250e+00 8.264687e+00 3.304055e+00 2.420598e+00 4.695791e+00 -1.906389e+00 6.654685e+00 1.068867e+01 6.622279e+00 1.249600e+00 -9.783387e-03 9.441853e-02 2.593589e-01 -5.624066e-02 -6.208897e-02 1.164383e-01 5.834608e-01 7.383162e-01 8.067743e-01 -9.903046e-01 -1.711338e+00 -2.521453e-01 -5.656962e-01 -1.076853e-03 
-9.691866e+00 2.915694e+00 6.555819e+00 5.248278e+00 3.581387e+00 -6.269799e-01 3.424681e+00 5.189492e-01 5.054165e+00 6.443749e+00 5.125779e+00 2.498328e+00 -2.342987e-02 -5.661621e-02 -1.463341e-01 -6.379067e-01 -7.115978e-01 1.100158e-01 -6.687843e-01 -1.959075e-01 1.381873e+00 -7.514703e-02 -1.390752e+00 1.192211e+00 -1.113749e+00 3.304637e-03 
-9.359449e+00 2.850832e+00 7.548953e+00 8.239754e+00 8.999598e+00 1.219255e+00 2.166813e+00 3.827677e+00 3.789736e+00 5.279047e+00 7.828500e+00 -3.607208e-01 -3.559160e-02 -2.001486e-01 -6.471089e-01 -1.426994e+00 -8.023044e-01 -4.584140e-01 -1.577454e+00 -2.805422e-01 2.647838e-01 -3.687631e-01 -6.966397e-01 -1.260450e-01 -1.229194e+00 8.233273e-03 
-1.051973e+01 1.865323e+00 4.158813e+00 5.378955e+00 3.658381e+00 -3.898935e+00 2.966917e+00 4.753561e+00 4.209199e+00 7.005746e+00 9.561351e+00 -4.184496e+00 1.103389e-02 1.929834e-01 3.583232e-01 -1.136584e+00 -1.757704e-01 -1.245435e+00 -3.750114e-01 -9.342507e-01 -1.175588e+00 -8.047080e-01 -1.565524e+00 -9.805257e-01 -1.056046e-01 2.849939e-02 
-1.025900e+01 6.837171e-01 1.635782e+00 4.187826e+00 9.734874e-01 -3.830693e+00 3.521963e+00 -2.699776e+00 5.233352e+00 6.924473e+00 3.774268e+00 -1.554957e+00 1.415110e-02 7.521927e-01 4.576466e-02 -9.318725e-01 1.321062e-02 -1.323925e+00 -2.136057e-01 -3.991024e-01 -1.585202e+00 -8.988055e-01 -2.193202e+00 -2.626880e+00 5.052999e-01 4.799718e-02 
-8.277172e+00 5.790867e+00 3.829484e+00 6.395389e+00 1.367269e+00 2.293730e-02 -1.924147e+00 -2.095265e+00 3.088168e-01 -2.206583e+00 2.250267e+00 2.567423e+00 9.419572e-02 1.014270e+00 -6.879786e-01 3.461046e-01 1.195564e+00 9.042082e-01 4.770762e-01 3.567375e-01 -1.074402e+00 -2.418529e+00 -1.787656e+00 -2.154760e+00 -3.712354e-02 7.161982e-02 
-6.719767e+00 1.116883e+00 3.054254e+00 7.797589e+00 3.525529e+00 -1.809709e+00 2.616832e+00 -6.739211e-01 1.245900e+00 -1.080800e+00 -1.650359e+00 -1.210181e+00 1.628134e-01 2.197265e+00 -7.679884e-01 2.909925e-02 4.338448e-01 5.706134e-01 1.433855e-01 9.523516e-01 2.857348e-01 -3.059137e+00 2.048828e-01 -4.536495e-01 -3.262901e-02 7.440429e-02 
-7.218003e+00 -1.791152e+00 5.180100e+00 9.551893e+00 6.903401e+00 -2.524046e+00 5.203169e+00 -1.631375e+00 -5.889722e+00 2.070104e+00 1.499863e+00 -4.542502e+00 2.948019e-01 4.128279e+00 -1.143543e+00 -1.328895e+00 -3.454317e+00 -1.926004e+00 -4.978315e-01 3.389875e-01 -5.527785e-01 -4.213557e+00 1.917494e+00 -6.310179e-01 -3.389786e-01 1.186468e-01 
1.977358e-01 6.347848e-01 1.105970e+00 4.778798e+00 1.058488e+00 -1.840275e+00 4.720063e+00 -1.503047e+00 -6.963066e+00 5.810543e+00 1.881222e+00 1.836861e+00 2.858695e-01 5.180574e+00 -7.195619e-01 -1.096283e+00 -6.371394e+00 -3.160493e+00 3.425045e-01 -1.716312e+00 -4.386973e-01 -4.840725e+00 1.391498e+00 1.162901e-02 1.042584e+00 1.733944e-01 
8.905472e+00 3.142024e-01 -1.840850e+00 -9.366800e+00 -7.029233e+00 -2.450938e+00 -1.280824e+00 -4.444594e+00 -1.665449e+01 3.935216e+00 -2.670614e+00 -6.509898e-01 6.259018e-01 4.831710e+00 -1.180605e+00 -1.068549e+00 -7.316319e+00 -2.805653e+00 1.201217e+00 -2.159318e+00 -1.057508e-01 -3.509308e+00 4.626261e-01 -1.347277e-01 1.382923e+00 1.844796e-01 
1.112137e+01 -3.533604e+00 1.083316e+00 -1.460003e+01 -5.310617e+00 -1.337407e-01 -2.722731e+00 -1.460798e+00 -1.757534e+01 4.944135e+00 4.930240e-01 2.056984e+00 8.642352e-01 2.301086e+00 -1.170712e+00 -7.107066e-01 -5.004460e+00 -1.956855e+00 1.170321e+00 -1.205625e+00 -2.560626e-01 -3.965811e+00 -7.982287e-01 -5.398798e-02 -1.556944e-01 1.574073e-01 
1.147873e+01 -5.609981e+00 -1.513171e-01 -1.734028e+01 -3.940310e+00 2.628774e+00 -1.872022e+00 -2.181254e+00 -1.813012e+01 4.816439e+00 1.520323e+00 2.262053e+00 9.280170e-01 3.238840e-01 3.264910e-02 -6.214009e-01 -1.386827e+00 -9.492756e-01 1.139278e+00 2.989034e-01 4.861073e-01 -2.187476e+00 -1.486357e+00 3.740875e-01 -4.624852e-02 6.351544e-02 
1.041654e+01 -2.256682e+00 -3.292329e+00 -1.625676e+01 -1.027025e+01 1.471472e+00 -1.012462e+00 -3.915031e+00 -2.605431e+01 1.378788e+00 -4.841862e-01 -3.981327e-01 9.218482e-01 9.118323e-02 1.269790e+00 -1.140991e+00 2.354904e-01 -1.963496e+00 8.256420e-01 4.245883e-01 5.117739e-01 -1.598796e+00 -2.008383e+00 -8.958891e-01 -6.970162e-01 1.123683e-02 
1.087731e+01 -1.610132e-01 -2.760032e+00 -1.547257e+01 -9.295795e+00 2.442845e+00 -6.414418e-01 -7.869418e-01 -2.335238e+01 -1.713898e+00 -3.115713e-01 3.453262e-01 9.146726e-01 4.861689e-01 1.374900e+00 -5.002084e-01 9.992477e-01 -2.241868e+00 9.684584e-01 -7.330928e-02 1.510407e+00 -4.900408e-01 -1.202798e+00 -1.783229e+00 -4.153105e-01 3.628433e-03 
1.187800e+01 9.086186e-02 -3.317283e+00 -1.435644e+01 -1.245036e+01 4.087433e+00 -1.215080e+00 4.009156e-01 -2.295819e+01 -1.832612e+00 -3.070475e+00 -4.697334e-01 9.270916e-01 6.395433e-01 5.773607e-01 -4.454418e-01 1.025330e-01 -2.434208e+00 3.720086e-01 -7.546575e-01 5.135965e-01 1.146474e+00 -1.475961e+00 -2.877088e+00 -4.852547e-01 8.317649e-03 
1.317885e+01 9.074506e-02 -2.639882e+00 -1.329421e+01 -1.405960e+01 6.163085e+00 -2.137259e+00 3.212809e+00 -2.212838e+01 4.081464e-01 -6.102680e+00 2.213010e-01 9.435374e-01 4.432813e-01 6.791618e-01 -4.133043e-02 1.010950e-01 -2.612931e+00 -8.158616e-01 -4.930496e-04 -3.020273e-01 2.143851e+00 -9.801760e-01 -2.927820e+00 -3.224860e-01 7.607371e-03 
1.246348e+01 5.042425e-01 -5.579613e+00 -1.683328e+01 -2.005939e+01 1.471395e+00 -4.037840e+00 -3.346923e+00 -2.093394e+01 -7.062037e+00 -1.197407e+01 -2.762393e+00 9.490040e-01 2.089171e-02 1.284930e+00 7.451770e-01 -3.859735e-01 -2.087809e+00 -2.066345e+00 7.565327e-01 -9.697865e-01 2.626065e+00 -3.967806e-01 -2.744832e+00 5.734906e-01 -3.334642e-04 
1.280097e+01 3.028105e+00 -1.835519e+00 -1.372868e+01 -1.855593e+01 -3.284434e-01 7.674732e-01 -4.231589e-01 -1.364526e+01 -4.000065e+00 -1.049887e+01 -1.207738e-01 9.417532e-01 -2.117567e-01 1.405475e+00 1.108903e+00 -5.353523e-01 -1.422764e+00 -2.800097e+00 1.045101e+00 -1.935172e+00 2.819348e+00 5.227289e-02 -1.697984e+00 3.159642e-01 -7.786185e-03 
1.217139e+01 5.046830e+00 6.420612e-03 -1.606907e+01 -2.064123e+01 -2.998527e+00 1.115217e+00 -2.630033e+00 -1.406943e+01 -1.612409e+00 -1.459653e+01 2.568757e+00 9.263164e-01 -3.287888e-02 1.262706e+00 1.721341e+00 -2.473640e-03 -8.004314e-01 -1.539089e+00 8.820199e-01 -1.375268e+00 2.547032e+00 1.422322e+00 -3.682916e-01 5.725747e-01 -1.098139e-02 
1.226611e+01 4.846825e+00 1.116157e-01 -1.635307e+01 -2.088250e+01 -5.602436e+00 5.117188e-01 -6.821497e+00 -1.146390e+01 -2.055303e+00 -1.328137e+01 -8.644533e-01 9.159503e-01 1.481079e-01 6.245729e-01 9.461926e-01 -2.752985e-01 -1.105806e+00 -5.251414e-01 -5.523700e-01 -1.510468e+00 1.570790e+00 6.675142e-01 1.398716e-01 -1.963244e-01 -1.108613e-02 
1.256652e+01 5.908410e+00 2.053525e+00 -1.553345e+01 -2.289827e+01 -3.587055e+00 5.001364e-01 -7.024096e+00 -9.289459e+00 -9.228101e-01 -1.242428e+01 4.723197e-01 9.069985e-01 2.825316e-01 2.716122e-01 4.162294e-01 2.834232e-01 -9.344091e-01 2.129167e-01 -4.638613e-01 -9.410722e-01 1.643175e+00 3.915244e-01 1.042802e+00 -1.178526e+00 -1.020880e-02 
1.334395e+01 5.720180e+00 1.871892e+00 -1.537298e+01 -2.295645e+01 -2.659886e+00 -1.686836e+00 -5.778466e+00 -8.181293e+00 -1.007294e+00 -1.088564e+01 -5.417705e-02 8.959815e-01 4.070517e-01 3.104640e-01 2.762964e-01 8.304971e-01 -6.445805e-01 9.671556e-01 2.731099e-01 4.252630e-01 1.279538e+00 8.136629e-01 1.210721e+00 -8.611232e-01 -1.006390e-02 
1.304513e+01 5.968213e+00 1.207429e+00 -1.514200e+01 -2.427630e+01 -3.405219e+00 -1.048117e-01 -7.856910e+00 -7.494857e+00 -1.787921e-01 -1.058039e+01 -3.729012e+00 8.852568e-01 3.547471e-01 -2.871068e-01 -8.227434e-02 9.385401e-01 -4.212376e-01 9.518784e-01 3.843576e-01 7.676350e-01 1.255986e+00 3.562538e-01 9.471877e-01 -1.373913e+00 -9.426671e-03 
1.406206e+01 6.369244e+00 1.916145e+00 -1.239631e+01 -2.341638e+01 -8.575764e-01 2.179742e+00 -4.278775e+00 -5.963510e+00 1.641003e+00 -8.149709e+00 -3.069403e+00 8.765017e-01 2.919119e-01 -6.054407e-01 -2.071214e-01 1.521901e+00 -5.962738e-01 1.626915e+00 6.534954e-01 1.075606e+00 1.931849e+00 -1.309795e-01 6.274831e-01 -1.126172e+00 -6.817782e-03 
1.398120e+01 4.148344e+00 1.620027e+00 -1.232908e+01 -2.477449e+01 2.711820e-01 4.886351e-01 -3.935766e+00 -4.118419e+00 -4.656894e-01 -9.056311e+00 -4.889633e+00 8.696051e-01 4.515874e-01 -1.127269e+00 -2.484200e-01 1.510553e+00 -1.701233e-01 2.269252e+00 9.783300e-01 1.671242e+00 2.453930e+00 -1.214106e+00 9.320822e-01 -7.255406e-01 5.270243e-04 
1.433547e+01 3.602911e+00 6.299863e-01 -9.169935e+00 -2.568872e+01 3.636487e+00 1.283917e+00 -2.361010e+00 -2.102664e-01 -1.518742e+00 -8.510266e+00 -5.104727e+00 8.697184e-01 1.464009e-02 -1.613801e+00 -6.747679e-01 2.736244e-01 4.176745e-01 1.815609e+00 1.265385e+00 1.768942e+00 6.093761e-01 -1.593766e+00 3.187433e-01 -5.117032e-01 1.151764e-02 
1.516636e+01 1.715035e+00 6.084089e-01 -9.202421e+00 -2.399075e+01 5.694010e+00 5.234751e+00 -4.595798e-01 1.898174e+00 -4.669449e+00 -5.739699e+00 -6.339054e+00 8.912835e-01 -3.714418e-01 -1.712343e+00 -4.334516e-01 -1.097511e+00 2.118228e+00 2.539032e-01 1.843669e+00 2.051314e+00 -1.413005e+00 -8.506321e-01 6.093863e-01 4.960902e-01 1.356575e-02 
1.354268e+01 -4.831057e-01 -9.518852e-01 -1.259152e+01 -2.171988e+01 5.509056e+00 6.133610e+00 2.827839e+00 -5.924926e+00 -4.225949e+00 -8.214298e+00 -4.903209e+00 9.232507e-01 -1.257356e+00 -1.532747e+00 -1.003988e+00 -1.692572e+00 3.201914e+00 -1.042208e+00 9.034035e-01 1.294027e+00 -2.481098e+00 -4.812350e-01 2.019840e+00 1.345797e+00 1.786477e-02 
1.252039e+01 -2.370363e+00 2.437043e-01 -1.610585e+01 -1.616777e+01 6.044137e-01 7.282134e+00 3.726380e+00 -8.326112e+00 -3.365246e+00 -6.157364e+00 -2.509941e+00 9.106677e-01 -1.408762e+00 -1.372182e+00 -1.719557e+00 -8.831724e-01 4.193599e+00 -7.670538e-01 -2.428764e-02 1.056810e+00 -1.984826e+00 -2.518781e-01 3.401382e+00 3.150482e+00 2.435325e-02 
9.371681e+00 -2.018126e+00 -4.207600e+00 -1.418108e+01 -1.359064e+01 9.702446e-01 4.777243e+00 2.016147e+00 -7.503613e+00 -4.577019e+00 1.797764e+00 -2.902974e-01 9.493502e-01 -9.971034e-01 -1.190058e+00 -1.852955e+00 7.128283e-01 4.787332e+00 -3.425602e-01 -4.679654e-01 4.878184e-01 4.854816e-01 -1.186525e+00 3.989293e+00 3.803203e+00 1.264306e-02 
1.020805e+01 -4.378366e+00 -6.361518e+00 -1.282350e+01 -7.087369e+00 4.128146e+00 5.791496e+00 5.230315e+00 -7.236613e+00 -5.753305e+00 6.261181e+00 7.106902e+00 1.000000e+00 -6.824612e-01 -1.030260e+00 -2.463076e+00 2.263964e+00 4.679335e+00 7.023258e-01 -1.988334e+00 2.095891e-01 1.513868e+00 -1.970853e+00 2.680113e+00 3.304218e+00 8.037364e-03 
9.713327e+00 -5.429396e+00 -6.914046e+00 -1.066855e+01 -2.323417e+00 2.034389e+00 4.539102e+00 4.514964e+00 -4.042267e+00 -8.964544e+00 5.522894e+00 9.304386e+00 9.417998e-01 -2.777915e-01 -9.351504e-01 -2.253926e+00 2.580371e+00 4.532381e+00 5.060059e-03 -3.205425e+00 8.338387e-02 2.746379e+00 -2.111121e+00 -9.961677e-02 1.998389e+00 -1.011993e-02 
8.937258e+00 -5.816029e+00 -1.071845e+01 -6.542292e+00 1.595294e+00 3.583971e+00 -2.540465e+00 3.524917e+00 -2.487444e+00 -1.102575e+01 5.380636e+00 9.213804e+00 9.546297e-01 -2.554491e-01 -4.150830e-01 -1.799369e+00 2.662269e+00 3.273578e+00 -7.751320e-01 -4.543684e+00 -6.197322e-01 4.360528e+00 -1.811574e+00 -1.649231e+00 -4.917609e-01 -2.598706e-02 
8.618122e+00 -5.975046e+00 -1.329876e+01 -4.419828e+00 4.729929e+00 1.267633e+00 -7.083902e+00 3.285765e+00 3.853696e+00 -1.249640e+01 1.739953e+00 8.648195e+00 9.214357e-01 2.399883e-02 2.485228e-03 -1.576496e+00 2.039322e+00 2.778369e+00 -3.752101e-01 -4.433091e+00 -1.203535e+00 4.577421e+00 1.768248e-01 -1.982128e+00 -1.885328e+00 -1.674658e-02 
9.478412e+00 -6.180955e+00 -1.216601e+01 -2.636516e+00 5.753849e+00 6.358644e-01 -1.111542e+01 2.746254e+00 1.061805e+01 -1.304524e+01 -9.350365e-02 4.976193e+00 8.802468e-01 2.284442e-01 2.668224e-01 -8.990978e-01 1.117438e+00 2.730474e+00 -3.829911e-01 -2.974339e+00 -2.080047e+00 4.330376e+00 1.701358e+00 -1.892662e+00 -2.629745e+00 -1.205265e-02 
9.562745e+00 -5.234507e+00 -1.407275e+01 -2.424827e+00 9.489149e+00 1.632392e+00 -1.333887e+01 -1.113377e+00 1.229209e+01 -7.070673e+00 -1.650676e+00 1.996552e+00 8.952584e-01 2.110842e-01 5.985011e-01 -6.162615e-01 2.200269e-01 2.730252e+00 4.629096e-02 -1.982069e+00 -2.900477e+00 2.230388e+00 2.531418e+00 -1.318314e+00 -2.870230e+00 -4.899251e-03 
9.607166e+00 -4.852186e+00 -1.482695e+01 -1.952604e+00 1.286806e+01 1.486635e+00 -1.428468e+01 -4.675746e+00 1.494524e+01 -5.231824e+00 -2.387362e+00 -6.091015e-01 9.074551e-01 1.767204e-01 7.970535e-01 -1.066907e+00 9.415699e-01 2.123463e+00 4.639155e-01 -1.587799e-01 -2.644285e+00 -4.584751e-02 1.100428e+00 -1.533477e+00 -2.070443e+00 -1.903724e-02 
9.609165e+00 -3.646925e+00 -1.504960e+01 -3.661649e+00 1.482409e+01 1.073702e+00 -1.540962e+01 -7.505620e+00 1.284204e+01 -3.746026e+00 -3.704689e+00 -2.910310e+00 8.833352e-01 -1.377648e-01 1.014223e+00 4.658436e-01 2.577500e+00 3.797355e-01 9.270912e-02 8.874748e-01 -9.569542e-01 -1.567348e+00 -1.965788e+00 -1.622918e+00 -1.517514e+00 -6.806662e-02 
1.033880e+01 -2.989479e+00 -1.701212e+01 2.689745e+00 1.370370e+01 3.234787e+00 -1.087395e+01 -7.279051e+00 1.011383e+01 -9.205424e+00 -6.733884e+00 -2.922589e+00 7.910222e-01 -8.033930e-01 1.372016e+00 1.954270e+00 4.330293e+00 -3.328375e-01 -4.787404e-01 5.247470e-01 -1.513175e-01 -2.026146e+00 -3.403354e+00 -2.098953e+00 -1.610869e+00 -1.032653e-01 
8.508102e+00 -1.094743e+00 -1.065095e+01 8.141496e+00 1.097001e+01 1.221862e+00 -1.060686e+01 -4.596496e+00 6.871054e+00 -1.491281e+01 -7.592002e+00 -4.434274e+00 6.131418e-01 -1.641894e+00 1.063413e+00 2.932000e+00 4.110758e+00 6.687470e-01 9.357665e-01 1.293594e+00 5.456610e-01 -1.730156e+00 -2.767020e+00 -1.413497e+00 -1.993479e+00 -1.152541e-01 
6.140733e+00 7.318050e-01 -7.254921e+00 1.379729e+01 1.313091e+01 -9.811463e-01 -1.406232e+01 -6.886895e+00 7.800003e+00 -1.666520e+01 -1.093847e+01 -7.901464e+00 5.262254e-01 -2.487902e+00 -2.118407e-01 3.309835e+00 2.499314e+00 1.627751e+00 1.066825e+00 -3.033199e-02 2.568276e-01 -6.405154e-01 -9.454263e-01 -9.168186e-01 -1.671005e+00 -9.164035e-02 
3.498731e+00 -1.905028e-01 -5.268195e+00 1.133837e+01 1.845422e+01 7.860501e+00 -7.347463e+00 -4.973393e+00 5.348179e+00 -1.385124e+01 -8.669877e+00 -1.038827e+01 4.394630e-01 -2.586583e+00 -1.687857e+00 2.097833e+00 1.392342e+00 9.583669e-01 6.692804e-01 7.177509e-01 7.017307e-01 -8.963600e-01 8.123907e-01 9.183003e-01 -1.123809e+00 -6.024726e-02 
4.039803e-01 -4.500803e+00 -3.154319e+00 1.358788e+01 1.810035e+01 5.249594e+00 -1.265531e+01 -5.806464e+00 7.672695e+00 -1.446334e+01 -1.077904e+01 -8.300615e+00 4.196598e-01 -2.202854e+00 -2.798109e+00 4.998145e-01 -1.216190e+00 -9.896678e-01 1.664040e-01 2.157367e+00 2.400814e+00 -1.108639e+00 1.433420e+00 2.849133e+00 4.179284e-01 -4.581214e-02 
-1.556438e+00 -6.917726e+00 -2.212084e+00 1.520791e+01 1.327712e+01 1.452894e+00 -7.721616e+00 -1.628058e+00 2.452908e+00 -1.195179e+01 -3.080217e+00 -9.853743e+00 3.651883e-01 -1.829357e+00 -3.023139e+00 -3.855270e-01 -9.709767e-01 -2.379401e+00 -1.928874e+00 1.359951e+00 2.507277e+00 7.047880e-01 2.537583e+00 3.710012e+00 1.502830e+00 -3.506347e-02 
-2.345953e+00 -9.895128e+00 -6.283904e+00 5.781568e+00 1.077112e+01 3.054678e+00 -3.088410e+00 3.444504e+00 3.704446e+00 -1.044783e+01 5.123609e-01 -6.079083e+00 3.343021e-01 -1.027152e+00 -2.117672e+00 -1.107751e+00 -2.174620e+00 -2.879871e+00 -1.029027e+00 2.616447e+00 1.439578e+00 6.472741e-01 3.650743e+00 3.367894e+00 1.296652e+00 -4.396724e-02 
-4.273085e+00 -1.260903e+01 -5.631038e+00 1.038664e+01 1.022183e+01 -6.864117e-01 -5.331157e+00 2.937507e+00 1.085624e+01 -3.171079e+00 4.234483e+00 -3.984883e+00 3.068245e-01 -2.364971e-01 -6.294622e-01 -6.747386e-01 -1.317129e+00 -1.143302e+00 3.139805e-01 1.863800e+00 3.555083e-01 1.243013e+00 3.227501e+00 1.121603e+00 1.974169e+00 -4.430372e-02 
-3.373458e+00 -1.224351e+01 -6.983595e+00 5.125412e+00 5.228637e+00 1.174111e+00 -7.683001e-01 -8.913580e-01 6.707397e+00 -5.999788e-01 2.403080e+00 -4.751787e+00 2.290055e-01 -1.236141e-01 6.979573e-01 3.575416e-01 7.605748e-01 -5.130327e-02 5.049866e-01 1.305854e+00 9.653926e-02 4.568780e-01 2.884645e+00 6.154268e-02 1.340036e+00 -5.279719e-02 
-2.225171e+00 -8.890846e+00 -5.235931e+00 8.950344e+00 1.033185e+01 3.963079e+00 4.373264e-01 2.317415e+00 7.166497e+00 -7.382042e-01 1.582437e+00 -6.465435e-01 1.963180e-01 -8.440237e-02 1.705137e+00 2.339849e-01 2.063529e-01 4.113844e-01 2.318692e-01 1.022106e+00 6.041423e-01 -9.071243e-01 1.487885e+00 -5.991656e-01 8.573841e-01 -5.918616e-02 
-3.987980e+00 -8.264435e+00 -4.693749e+00 1.030259e+01 1.045959e+01 3.254865e+00 5.566168e-01 4.237247e+00 7.833709e+00 2.758963e+00 2.146097e+00 -1.048074e+00 1.255694e-01 -4.923299e-01 1.809242e+00 7.329881e-01 2.537135e-01 4.920226e-01 -8.750938e-01 2.560745e-01 3.729931e-01 -8.706297e-01 6.631837e-01 -6.690161e-01 -1.121346e-01 -5.717909e-02 
-4.387836e+00 -6.072885e+00 -5.606036e+00 8.829815e+00 9.663273e+00 -5.674427e-01 -8.830867e-01 3.393916e+00 5.757466e+00 2.588877e+00 1.367147e+00 -1.549819e+00 6.261176e-02 -1.092239e+00 1.578734e+00 7.392964e-01 -1.996900e+00 -7.691604e-01 -9.086832e-01 -2.697332e-01 -1.214808e-01 -3.610478e-01 4.187606e-01 -5.128635e-01 -5.745711e-01 -5.426363e-02 
-4.753775e+00 -4.606284e+00 -3.133602e+00 6.454244e+00 8.023039e+00 -9.360967e-01 1.172279e+00 4.353565e-01 3.058765e+00 1.052399e+00 -8.343546e-01 -4.860822e+00 9.963214e-03 -1.446507e+00 1.981429e+00 1.571049e+00 -1.851392e+00 -1.125963e+00 -9.406899e-01 -8.860135e-02 -7.477066e-01 -8.783029e-01 -4.651257e-01 -6.231956e-01 -6.468340e-01 -3.577255e-02 
-7.303470e+00 -2.826252e+00 -2.319523e+00 8.900166e-01 7.704322e+00 1.515144e+00 -1.219171e+00 3.610956e+00 7.748730e+00 2.208881e+00 5.083460e-01 -1.613025e+00 -1.719701e-02 -1.584599e+00 1.654051e+00 2.076702e+00 -9.191054e-01 -1.209213e+00 -9.989182e-01 -2.130543e-01 -1.502321e+00 -7.355501e-01 7.967670e-02 5.907857e-01 5.917382e-01 -1.566774e-02 
-9.762699e+00 1.939496e-02 1.518239e+00 5.015528e+00 5.809247e+00 -2.489877e+00 2.816520e-01 3.901938e-01 2.446563e+00 6.233320e-01 -5.404808e-01 -4.250641e+00 -1.338899e-02 -1.220080e+00 2.114994e+00 2.150019e+00 2.097689e-01 -8.607146e-01 -1.397870e+00 -2.390038e-01 -2.251643e-01 -4.241087e-01 9.161819e-01 1.887770e+00 2.150927e+00 -3.015602e-03 
-9.806370e+00 -1.154690e-01 2.451551e+00 4.953646e+00 4.724105e+00 -4.785143e+00 -1.503045e+00 -4.095105e+00 2.385816e+00 3.201794e+00 4.174139e+00 1.103782e+00 -4.050851e-03 -2.627031e-01 1.841938e+00 2.079501e+00 1.310512e+00 -6.974159e-01 -1.082842e+00 1.008640e+00 4.401267e-01 -6.915796e-01 5.825211e-01 1.410594e+00 1.018146e+00 -8.275986e-04 
-9.602722e+00 4.613296e+00 5.230955e+00 5.471274e+00 5.209574e+00 -4.775306e+00 1.191969e-01 3.162566e+00 3.619678e+00 5.136852e+00 6.771600e+00 4.535409e+00 -1.168787e-02 3.077042e-01 8.336027e-01 7.785443e-01 4.203488e-01 6.927301e-01 8.267260e-01 8.825323e-01 1.299909e+00 6.222966e-01 3.366666e-01 1.094129e+00 1.279745e+00 -8.478761e-04 
-8.696974e+00 4.086485e+00 6.221626e+00 7.214702e+00 4.517079e+00 -2.756350e+00 3.905257e+00 4.425404e+00 3.704275e+00 2.864727e+00 3.905275e+00 -9.153214e-01 -2.218556e-02 2.586927e-01 6.565243e-01 8.002055e-01 2.656549e-01 6.410128e-01 1.425116e+00 1.161918e+00 7.598817e-01 5.412048e-01 5.736591e-01 -5.029620e-01 -9.574652e-01 -4.335070e-03 
-8.778877e+00 2.086431e+00 3.525923e+00 5.986744e+00 9.376411e+00 6.293560e-01 1.990163e+00 2.629485e+00 4.898817e+00 2.475199e+00 5.064595e+00 3.157634e+00 -8.561015e-03 9.297867e-02 -2.851439e-01 4.103033e-01 -6.399944e-01 -7.758405e-01 1.168215e+00 1.917076e+00 -5.514742e-01 -2.901653e-01 1.781678e-01 -1.439300e+00 -4.081826e-01 -2.603579e-03 
-8.924829e+00 4.430585e+00 7.305094e+00 6.024185e+00 5.845750e+00 -3.618962e-01 3.371061e+00 -2.915663e-02 4.452271e+00 7.400916e+00 2.512831e+00 -2.994657e+00 -2.728963e-02 -9.802351e-02 -2.728320e-01 -1.755948e-01 -1.054626e+00 -1.488786e+00 -3.676698e-01 8.251849e-01 -5.682414e-01 -4.082528e-01 6.124741e-01 -4.416526e-01 5.323316e-01 -5.221462e-03 
-9.023901e+00 3.015526e+00 6.740737e+00 2.866560e+00 6.660361e-01 -1.314583e-01 9.971678e+00 2.632475e+00 1.794853e+00 3.759596e+00 2.713246e-01 3.534164e+00 -2.215374e-02 -1.298561e-02 -1.089317e-01 2.904735e-01 2.283591e-01 -8.233722e-01 -9.323584e-01 2.771838e-01 1.773880e-01 -8.714525e-01 4.188180e-02 3.113618e-01 6.256863e-01 -4.577494e-03 
-9.064579e+00 2.257777e+00 3.736245e+00 3.501663e+00 1.428336e+00 -4.214292e+00 4.040424e+00 1.582702e+00 3.214992e+00 5.284899e+00 4.093647e+00 1.558072e+00 -4.149652e-02 -2.125814e-01 -7.095129e-01 -6.339240e-01 6.983338e-02 -2.970651e-01 -4.795626e-01 -7.780690e-01 1.209329e+00 -9.581469e-02 -9.671876e-01 4.895811e-01 8.562303e-01 -2.330780e-03 
-8.773930e+00 2.628176e+00 6.762716e+00 8.389800e+00 7.468256e+00 -2.106238e+00 3.041401e+00 2.710496e+00 1.160193e+00 3.742616e+00 5.830996e+00 4.009701e+00 -2.434504e-02 -3.474188e-01 -1.341435e-01 1.243889e-04 4.769236e-02 6.877130e-01 4.479044e-01 -1.201971e+00 8.321720e-01 1.329895e+00 3.229128e-01 7.698426e-01 -1.185671e-01 2.260673e-03 
-1.011272e+01 1.076695e+00 4.124485e+00 3.611732e+00 9.593148e-01 -1.772319e+00 2.945855e+00 5.978477e+00 4.290527e+00 2.573468e+00 2.180901e+00 1.048725e+00 -3.784788e-02 -1.770966e-01 -2.499146e-01 2.527915e-01 -3.689924e-01 3.355670e-01 1.005049e+00 1.740651e-01 -9.756880e-02 6.326483e-01 1.532941e-01 2.305509e-01 2.924684e-01 4.571080e-03 
-1.023692e+01 2.935350e+00 6.547239e+00 3.049987e+00 4.339112e+00 8.870775e-01 4.509107e+00 4.595448e+00 7.906559e+00 6.729876e+00 5.076911e+00 3.196002e+00 -1.267469e-02 1.569929e-01 -5.881166e-02 -2.520787e-01 -3.350523e-01 -3.567111e-01 -4.672404e-02 5.403287e-01 -1.204626e+00 2.443263e-02 7.355447e-02 3.526959e-01 2.663116e-01 -7.940411e-04 
-9.218565e+00 8.546176e-01 5.107941e+00 4.326607e+00 4.670743e+00 -6.857020e-01 4.176896e+00 1.523817e-01 3.005050e+00 4.557740e+00 5.623444e+00 3.427263e+00 -2.447629e-02 5.390552e-01 4.076348e-01 3.657832e-02 9.037038e-01 3.355195e-01 -4.532678e-01 4.348521e-01 -8.130354e-01 -7.505183e-01 -4.309578e-01 5.984114e-01 8.758639e-01 1.537716e-03 
-8.436045e+00 2.445157e+00 5.010594e+00 6.357101e+00 3.828987e+00 -2.883167e+00 5.127523e+00 -3.995872e-01 1.925095e+00 3.118253e+00 5.873204e+00 4.151990e+00 -3.500104e-02 3.503027e-01 4.541089e-01 5.377889e-02 9.606441e-01 1.480595e-01 -1.187354e+00 -7.555873e-01 6.092469e-01 2.399265e-01 -1.045708e+00 1.092944e-02 -4.768442e-01 -3.067982e-03 
-8.317886e+00 3.359966e+00 5.075699e+00 6.476694e+00 2.891974e+00 -2.153536e+00 4.810907e+00 4.410818e+00 3.528668e+00 2.224491e+00 4.774812e+00 4.950050e+00 -1.899612e-02 3.996434e-01 2.498558e-01 5.733656e-01 7.016789e-01 7.284250e-01 -5.854696e-01 -4.788014e-01 1.884212e+00 4.518985e-01 -1.242989e+00 -3.142770e-01 -5.105553e-01 -1.320136e-03 
-8.935749e+00 3.953220e+00 6.832255e+00 6.778164e+00 5.968794e+00 -4.315775e+00 4.141650e-01 5.512465e+00 8.844383e+00 2.667959e+00 5.555874e+00 5.038738e-02 -3.075469e-02 4.278488e-01 -4.200684e-01 6.094930e-01 3.682513e-01 1.117895e+00 -7.703674e-02 -2.647250e-01 1.624060e+00 -1.964162e-01 -1.275717e+00 -3.889048e-01 -4.478166e-01 -1.060224e-03 
-6.970496e+00 1.349865e+00 7.063939e+00 7.624470e+00 7.242965e+00 -2.896746e+00 4.139568e+00 6.617416e+00 1.804899e+00 -1.432058e+00 4.210724e+00 2.925288e+00 -3.320014e-02 4.660036e-01 -6.623555e-01 4.208164e-01 3.141857e-01 9.976152e-01 -6.738973e-03 2.382725e-01 5.518149e-01 -1.048702e+00 -1.141311e+00 -2.473327e-01 -1.174623e-01 -3.085351e-03 
