1.599091e+00 2.775223e+00 4.847892e+00 9.395339e-01 5.677639e+00 2.972388e+00 -2.106078e+00 -6.748452e-01 5.112201e+00 3.325534e+00 1.887120e+00 -1.467764e+00 -1.512927e-01 2.413728e-01 1.256049e-01 -1.351037e+00 -1.912505e+00 -2.123250e+00 -1.052694e-01 1.927601e-01 -5.497293e-01 -9.844965e-01 -9.763247e-01 -1.977945e+00 -7.900509e-01 0.000000e+00 
2.187718e+00 3.152732e+00 1.280728e+00 -4.161176e+00 3.977561e-01 5.589932e+00 -6.010854e-01 -1.221970e+00 3.301378e+00 1.695567e+00 -2.364442e+00 -5.079734e+00 -1.512927e-01 1.301599e-01 2.390682e-02 -1.118730e+00 -1.194896e+00 -1.435688e+00 -6.005634e-01 -4.465337e-02 -2.975882e-01 -1.306921e+00 -6.950358e-01 -1.221767e+00 -6.273473e-01 0.000000e+00 
2.511641e+00 3.214493e+00 -1.237106e-01 -6.072638e+00 -2.298669e+00 1.137269e+00 -1.894774e+00 -3.149930e+00 1.095130e+00 -7.411055e-01 -5.876822e+00 -3.612033e+00 -1.512927e-01 -1.256354e-01 -6.012286e-02 -7.634805e-01 -6.102955e-01 -5.139387e-01 3.352223e-01 3.736185e-01 5.442436e-01 -1.207952e+00 -4.422910e-01 -3.866405e-02 -7.756848e-01 0.000000e+00 
1.793615e+00 2.675122e+00 1.740041e+00 -1.528860e+00 2.487356e+00 8.871298e-01 -2.434997e+00 -9.252438e-01 5.861304e-01 1.883675e+00 -3.397450e-01 -3.532366e+00 -1.512927e-01 -4.484760e-01 -3.594283e-01 -2.058733e-01 5.225517e-01 4.344231e-01 -2.926702e-01 -1.055746e+00 1.187882e-01 -1.782186e+00 -1.043378e+00 7.903939e-01 9.231160e-02 0.000000e+00 
1.167965e+00 2.713413e+00 8.008323e-01 -3.428102e+00 2.063146e+00 6.999900e+00 6.789706e-01 1.898010e+00 4.300631e-01 1.020025e+00 6.814515e-01 -6.119872e+00 -1.512927e-01 -4.220522e-01 -3.219688e-01 2.064340e-02 8.642623e-01 2.884821e-01 2.725755e-01 -5.628027e-01 -3.465714e-01 -3.520202e-01 -7.605728e-01 7.107372e-01 -2.041944e-01 0.000000e+00 
6.171761e-01 1.606130e+00 -2.109098e-01 -2.870686e+00 3.889642e-01 1.195265e+00 -7.166689e+00 -3.151999e+00 -5.277019e+00 -4.401890e+00 -1.691609e+00 -3.364257e+00 -1.512927e-01 -1.814310e-01 -1.817165e-01 -6.018350e-02 6.488460e-01 1.523353e-01 -4.402811e-01 -3.506737e-02 -4.719268e-01 8.963521e-02 -1.258824e+00 3.501408e-01 1.187027e+00 0.000000e+00 
9.895992e-01 2.139145e+00 9.549820e-01 -1.080413e+00 1.929374e-01 2.346078e+00 -2.342941e+00 -3.769409e+00 2.266603e+00 -1.401187e+00 -1.647204e+00 -4.717059e+00 -1.512927e-01 1.458092e-02 1.148302e-01 3.829088e-01 4.470403e-01 1.121235e+00 -1.053652e+00 -1.452916e-01 -8.589862e-02 4.971580e-01 -2.338443e-01 -2.321138e-02 2.306448e+00 0.000000e+00 
9.756432e-01 2.053674e+00 1.362049e+00 5.415262e-01 4.184137e+00 1.012635e+00 -1.099378e+00 -4.511681e-01 1.160363e-01 -3.199837e+00 2.575287e+00 1.701363e+00 -1.512927e-01 8.270302e-02 4.912089e-01 7.422279e-01 -9.406315e-02 1.640618e+00 4.141960e-01 9.463837e-01 1.129318e+00 2.021296e+00 1.887599e+00 5.597191e-01 1.706362e+00 0.000000e+00 
1.061636e+00 3.063793e+00 1.928897e+00 -2.899006e+00 5.771736e+00 1.822953e+00 -3.081143e+00 1.181014e-01 2.193252e-01 -7.502229e-01 -1.568053e+00 2.879559e+00 -1.512927e-01 -3.061161e-02 3.094187e-01 1.020112e+00 -2.340834e-02 1.345417e+00 2.764495e-01 -1.849777e-01 5.646439e-01 9.546509e-01 1.282067e+00 1.989188e-01 8.540559e-01 0.000000e+00 
9.946728e-01 3.599851e+00 3.013272e+00 -2.431705e+00 5.802657e+00 3.527808e+00 -2.065670e+00 5.508375e-01 5.853101e+00 4.710623e+00 1.067411e+00 1.369243e+00 -1.512927e-01 -1.420824e-01 1.546985e-01 1.038235e+00 3.513933e-01 4.797426e-01 9.175647e-01 6.400041e-02 2.228825e-01 1.637356e+00 1.316702e+00 4.142058e-01 -1.733496e-01 0.000000e+00 
8.270264e-01 2.913150e+00 5.229930e+00 2.891609e-01 6.110765e+00 2.470740e+00 -2.784683e+00 -1.447192e+00 4.171325e+00 1.053919e+00 1.013275e-01 -2.807199e-01 -1.512927e-01 -1.087055e-02 6.356394e-03 4.722245e-01 1.094521e+00 3.632759e-01 8.391565e-01 3.798809e-01 6.203288e-01 5.944310e-01 -9.066224e-02 2.448051e+00 -1.674313e-01 0.000000e+00 
3.825359e-01 2.902488e+00 4.902707e+00 7.044091e-01 6.413335e+00 5.276566e+00 -9.276056e-01 1.445891e+00 6.326814e+00 2.481600e+00 3.811625e+00 2.414755e+00 -1.512927e-01 1.006833e-01 1.174502e-01 -3.907797e-01 4.399360e-01 -1.888706e-01 -3.579502e-01 7.873497e-02 2.845128e-01 -8.061288e-01 -6.277674e-01 1.692331e+00 -1.597846e-01 0.000000e+00 
1.313352e+00 3.444256e+00 3.345302e+00 1.005543e+00 7.282776e+00 5.144357e+00 -1.750771e+00 2.772218e+00 2.954624e+00 -8.902240e-02 9.300095e+00 1.519647e+00 -1.512927e-01 2.175508e-01 7.551638e-01 -4.374691e-01 1.373408e-01 -5.360698e-01 5.583334e-02 7.235047e-01 6.123729e-01 1.709180e-01 4.587730e-01 6.348206e-01 -2.022311e-01 0.000000e+00 
1.254927e+00 3.921549e+00 2.001688e+00 -5.902164e-01 4.272298e+00 4.012480e-01 -2.188951e+00 -1.363038e-01 2.430807e+00 2.143256e+00 4.929683e+00 -3.298632e-01 -1.512927e-01 1.831188e-01 1.588335e-01 -4.678341e-01 2.609674e-01 -3.661705e-01 -6.445474e-02 6.144085e-01 -6.268810e-01 7.861531e-01 9.046717e-01 -7.268428e-01 8.055542e-01 0.000000e+00 
1.478585e+00 6.179438e+00 4.493094e+00 1.623178e+00 4.500934e+00 5.187565e+00 1.463513e+00 2.405770e+00 6.973919e+00 3.516955e+00 2.716402e+00 8.043361e-02 -1.512927e-01 4.870663e-02 7.126428e-02 -9.678411e-03 5.389923e-01 -7.712377e-01 -4.478775e-01 1.574951e-01 -3.206546e-01 1.796614e+00 8.168482e-01 -1.626847e+00 1.937138e-01 0.000000e+00 
1.215513e+00 2.329064e+00 1.989640e+00 1.700429e+00 5.973403e+00 4.932688e+00 5.372951e-01 -1.505290e+00 8.247932e+00 5.201969e+00 3.469258e+00 7.162132e+00 -1.512927e-01 8.658285e-02 -9.032135e-02 6.508427e-01 3.350208e-02 -4.296885e-01 3.788236e-01 1.210745e+00 9.177480e-01 2.422387e-01 -6.281396e-01 1.400221e-01 1.043435e+00 0.000000e+00 
1.576591e+00 4.596820e+00 3.302933e+00 2.555182e+00 2.576035e+00 6.392498e-01 -2.326419e+00 1.853438e+00 9.029134e+00 2.465863e+00 1.896074e+00 -1.257782e+00 -1.512927e-01 -1.131651e-01 -2.038031e+00 1.272173e-01 2.980314e-01 1.195564e-01 -1.657517e-01 2.025932e-01 3.503289e-02 -9.384981e-01 1.294565e-03 4.663913e-01 -3.358966e-01 0.000000e+00 
1.638838e+00 4.261251e+00 5.850982e+00 -8.887081e-01 3.086305e+00 4.569523e+00 5.759738e+00 4.728602e+00 2.614393e+00 -4.718949e-01 6.039957e+00 5.556418e+00 -1.512927e-01 -2.303263e-01 -1.682358e+00 6.470305e-01 7.350430e-01 4.964859e-01 -1.988667e-01 9.837699e-02 5.828733e-01 -3.450608e-01 1.515245e+00 7.763241e-01 -1.999395e+00 0.000000e+00 
7.010975e-01 -4.976809e+00 3.198510e+00 4.407903e+00 6.542265e+00 4.540389e+00 -1.347430e-01 -5.360114e-01 5.098197e+00 6.360360e+00 3.763008e+00 -7.961922e-01 -1.512927e-01 -3.866327e-01 -8.871229e-01 4.936837e-01 -7.375873e-01 6.010778e-02 9.273262e-02 5.158855e-01 4.378353e-01 -4.158512e-01 6.455682e-01 4.917764e-01 1.877766e-01 0.000000e+00 
5.016289e-01 -1.295913e+00 5.277005e+00 4.449284e+00 6.472717e+00 1.987785e+00 -6.665778e-02 2.603801e+00 8.488096e+00 1.083095e+01 6.417410e+00 -3.065637e+00 -1.512927e-01 -3.980459e-01 -3.534040e+00 -2.355212e+00 -4.209562e-01 1.450385e+00 -9.807930e-01 -4.518096e-01 -1.592276e+00 1.244462e+00 1.100291e-01 -5.620757e-01 -1.065074e+00 7.199822e-02 
2.120323e-01 2.939787e+00 6.058340e+00 -3.801751e+00 1.183367e+00 2.393782e+00 3.166207e+00 5.105015e+00 4.013026e+00 4.228318e-02 4.166229e+00 3.992129e+00 -1.512927e-01 -6.139946e-03 -3.597926e+00 -3.123697e+00 -3.382238e-01 2.334466e+00 -5.759035e-01 1.741575e-01 -1.806060e+00 1.025652e+00 -6.901082e-01 -3.603157e-01 -1.165401e-01 8.866610e-02 
-1.068592e-01 -1.736725e+01 -7.354992e+00 1.111338e+00 1.301768e+01 7.388620e-01 1.850215e+00 -6.053289e+00 9.379292e+00 3.237289e+00 3.027969e+00 -2.163112e+00 2.086985e-01 -1.730928e-01 -2.882609e+00 -1.219647e+00 8.499611e-01 2.780161e+00 -8.653256e-01 -1.025052e+00 -1.147109e+00 -6.406745e-01 -3.773529e-01 -7.441230e-01 -6.692082e-01 3.810377e-02 
9.746418e-01 -1.493077e+01 -6.103975e+00 4.385757e+00 1.494211e+01 2.285333e+00 -2.223921e-01 -5.237766e+00 9.780859e+00 6.706648e+00 3.656151e+00 -1.830155e+00 1.120422e-01 2.514639e-01 7.021716e-01 -7.743759e-02 4.622680e-01 5.190493e-01 -1.752710e-02 -6.812406e-01 5.963718e-01 7.794695e-02 1.077061e+00 -7.262534e-01 -5.900918e-01 -3.011398e-02 
-7.451401e-01 -6.773678e+00 5.259928e+00 4.605335e+00 1.349415e+01 -2.284618e+00 -3.497617e+00 2.039645e+00 2.400807e+00 5.612000e+00 2.951834e+00 -3.500536e+00 -9.244132e-02 4.314894e-01 5.742757e+00 1.869843e+00 -2.486950e+00 -4.399667e+00 -3.405097e-01 3.498533e-01 3.046293e+00 -4.289409e-01 3.859765e-01 -4.195401e-01 2.329378e-01 -9.833172e-02 
1.788492e+00 1.153860e+00 -6.363082e-01 -3.237410e+00 3.540379e+00 3.817887e+00 2.433920e+00 4.040406e+00 7.892003e+00 4.240233e+00 5.730293e-01 1.710382e+00 -1.512927e-01 -1.240809e-01 4.998636e+00 -7.760865e-01 -1.328538e+00 -4.988503e+00 6.576668e-01 1.994237e+00 9.081998e-01 -2.364767e+00 -2.345139e+00 -7.319000e-01 5.225242e-02 -1.517891e-02 
1.643662e+00 3.304218e+00 -7.396135e-01 -7.511831e+00 -3.279785e+00 -1.729963e+00 2.271326e+00 4.539088e+00 8.179015e+00 6.400378e+00 2.471829e+00 -2.768691e+00 -1.512927e-01 -3.019163e-01 2.466471e+00 -2.489290e+00 1.240643e+00 -2.946483e+00 1.387221e+00 1.631856e+00 -8.502871e-01 -2.438325e+00 -3.222014e+00 -2.196710e-01 -7.925907e-01 5.946844e-02 
-8.401642e-01 5.023458e+00 -6.984637e+00 3.801651e+00 -1.613434e+00 5.296339e+00 6.864321e+00 -1.946488e+00 -4.932079e+00 -5.413234e+00 2.366537e-01 -1.934815e+00 6.557339e-02 -2.979527e-01 -4.168123e-03 -1.976495e+00 1.497622e+00 -1.826346e-01 -4.781204e-01 -1.187894e-01 -1.652693e+00 -2.463897e+00 -1.336532e+00 8.597897e-01 -1.146396e+00 5.467391e-02 
-9.403934e-01 3.623876e+00 -4.012358e+00 7.289022e+00 1.338642e+00 3.912258e+00 2.446464e+00 7.816571e-01 -3.378778e+00 -5.671338e+00 2.021667e+00 -5.640891e+00 9.646785e-02 -3.091760e-01 -1.049844e+00 -1.718859e+00 1.224122e-01 2.508219e-01 -1.331929e+00 -2.887267e+00 -1.714216e+00 3.142298e-01 1.533941e+00 1.662081e+00 6.010341e-01 5.087923e-02 
1.590756e+00 9.731899e-01 -8.882410e+00 -3.149729e+00 3.179927e-01 -1.393826e+00 1.752404e+00 -2.344344e+00 1.351413e+00 3.593432e+00 5.097059e+00 -2.585500e+00 -1.803398e-03 -4.317516e-01 -1.095410e+00 -1.028562e+00 -2.695133e+00 -1.214920e+00 -3.188544e+00 -3.057812e+00 -7.610421e-01 3.356316e+00 3.516438e+00 1.475393e+00 1.465071e+00 4.701540e-02 
-1.117678e+00 8.013022e-02 -8.385021e+00 -3.424081e+00 -2.991389e+00 -5.044527e+00 -9.609049e+00 -3.833063e+00 6.608418e+00 9.566750e+00 8.352030e+00 5.618215e-01 1.367919e-01 -1.272755e+00 -4.446307e-01 -1.013105e+00 -1.858336e+00 -6.111788e-01 -8.419046e-01 3.797925e-01 7.580849e-01 2.683144e+00 1.235525e+00 1.429619e-01 1.762177e+00 8.742962e-02 
-2.910280e+00 1.318279e+00 -9.941114e+00 -4.317466e+00 -5.523021e+00 -6.167986e+00 -2.396982e+00 -3.444339e+00 6.855903e+00 4.549911e+00 4.448438e+00 2.289186e+00 2.804884e-01 -2.198871e+00 1.088126e-01 -1.049428e+00 1.732959e-01 2.005585e-01 2.649175e+00 2.622070e+00 1.783876e+00 -1.710521e-01 -1.632105e+00 -9.652580e-01 1.640054e+00 1.302844e-01 
-5.053650e+00 1.228178e+00 -8.548531e+00 -1.418790e+00 1.203255e+00 2.089815e+00 6.420120e+00 5.122079e+00 7.284697e+00 2.804840e-02 3.060787e+00 7.326527e-01 3.924701e-01 -2.452144e+00 1.232653e-01 -1.284772e+00 1.578789e+00 2.322276e+00 4.065430e+00 4.404153e+00 2.543928e+00 -2.473611e+00 -3.069741e+00 -2.022295e+00 7.098699e-01 1.194701e-01 
-7.435614e+00 9.432290e-01 -1.404779e+01 -3.285894e+00 -7.765365e-01 8.284876e+00 6.848168e+00 2.097463e+00 1.580129e-01 2.022582e-01 2.916390e+00 5.529355e+00 5.217797e-01 -2.281699e+00 -2.146056e-03 -1.075713e+00 2.096058e+00 2.341629e+00 3.533731e+00 1.324981e+00 1.357956e+00 -2.055831e+00 -2.038359e+00 -1.028958e+00 4.231805e-01 1.062895e-01 
-1.111573e+01 8.839819e-01 -1.275554e+01 3.954081e+00 6.246748e+00 8.056190e+00 7.789140e+00 6.115678e+00 -2.410691e+00 -3.608131e+00 -9.934209e-01 2.491086e+00 6.134967e-01 -1.714864e+00 5.582401e-01 -3.299963e-01 2.976396e+00 7.834176e-01 1.386732e+00 -9.623507e-01 -1.634139e+00 -1.216854e+00 -6.566250e-01 -1.400131e+00 -3.172933e-01 9.462187e-02 
-1.128773e+01 1.479647e+00 -1.321618e+01 3.476388e+00 3.663378e+00 8.517481e+00 3.543412e+00 2.848643e+00 1.424441e+00 -3.823797e+00 1.330753e+00 3.525872e+00 7.014226e-01 -1.185636e+00 4.838378e-01 2.550969e-01 1.891327e+00 -6.062403e-01 -9.829811e-01 -1.650073e+00 -1.362525e+00 1.080855e+00 6.596379e-01 -3.291909e-01 -1.296296e+00 7.661779e-02 
-1.170191e+01 3.751169e+00 -1.061432e+01 1.008205e+01 2.900385e+00 8.907172e+00 3.260744e+00 -3.424207e+00 5.672110e-01 -1.242049e+00 -3.147050e+00 1.479280e-01 7.757580e-01 -5.262121e-01 7.141920e-01 5.940447e-01 5.109286e-01 -7.916185e-01 -6.514148e-01 -1.189543e+00 -1.230859e+00 1.069798e-01 4.810663e-01 1.716334e-01 -8.736416e-01 5.532029e-02 
-1.307071e+01 1.928824e+00 -1.384292e+01 3.106756e+00 -2.134556e+00 2.944479e+00 8.619983e-01 5.478209e-02 4.073335e+00 2.317407e+00 2.347250e+00 2.194542e-01 8.237380e-01 -1.058653e-01 8.617918e-01 1.098995e+00 6.147636e-01 1.000745e+00 -3.929456e-01 8.710679e-02 1.354019e-01 -1.053101e+00 2.997915e-01 -1.283457e-01 -9.901892e-01 3.385636e-02 
-1.285531e+01 4.230353e+00 -9.471947e+00 6.693540e+00 5.187623e+00 7.585617e+00 3.182132e+00 1.358314e+00 -3.200239e+00 -4.273401e+00 -6.435027e-01 -2.239134e-01 8.289404e-01 4.909515e-02 -1.396703e-01 2.658321e-01 -2.148216e-01 -2.069069e-01 -1.060240e+00 -1.712899e-01 1.235740e+00 -1.175706e+00 -3.161042e-01 3.615181e-01 -2.789242e-01 2.510305e-02 
-1.124036e+01 5.549014e+00 -8.292389e+00 8.244459e+00 7.523485e+00 7.213531e+00 4.018252e+00 1.134392e+00 -1.957340e+00 -8.091635e-01 -5.627494e-01 -1.239154e+00 8.441132e-01 4.976614e-01 6.305537e-02 1.975539e-01 1.368836e+00 5.113579e-01 -7.708991e-01 4.856269e-02 3.963500e-01 -6.953091e-01 7.856383e-02 -7.481501e-01 5.517424e-02 1.812639e-02 
-1.237160e+01 1.242723e+00 -1.206043e+01 6.439087e+00 -2.963170e+00 1.471446e+00 8.261677e-01 2.214689e+00 -2.295979e+00 -1.259285e+00 1.155406e-01 -5.173889e-01 8.910856e-01 6.657280e-01 2.148991e-01 1.661644e-01 1.716267e+00 4.361290e-01 -1.215352e+00 -7.453514e-01 -1.226764e+00 4.440315e-01 9.855825e-01 5.213145e-02 8.991575e-01 1.648571e-02 
-1.082425e+01 3.737916e+00 -1.156091e+01 1.007816e+01 4.497629e+00 2.147069e+00 2.282794e+00 1.608344e+00 1.446598e-01 1.203168e+00 -1.773022e+00 6.420631e-01 8.832973e-01 -1.370621e-03 2.891878e-01 1.611961e-01 1.411349e+00 8.439563e-01 3.712695e-01 -8.107225e-01 -1.420542e+00 -1.094534e-02 7.849174e-01 3.841965e-01 1.937901e+00 2.328629e-02 
-9.734722e+00 6.210398e+00 -7.006864e+00 1.435803e+01 8.881196e+00 4.042086e+00 3.231039e-01 -5.012483e+00 -2.031082e+00 -3.516543e-01 2.222908e-01 3.331266e+00 8.917769e-01 -2.115498e-01 1.240505e+00 1.160708e+00 2.936736e-01 1.325272e+00 1.315530e+00 1.281357e-02 -1.129621e+00 4.561292e-01 5.109485e-01 -5.745734e-01 9.396598e-01 2.137094e-02 
-1.256566e+01 4.511116e+00 -1.001319e+01 1.134173e+01 5.821083e+00 7.784558e+00 2.161722e-01 -2.354730e+00 -2.144516e+00 2.661608e+00 1.304858e+00 6.526025e+00 9.601990e-01 -2.916519e-01 8.548141e-01 6.626266e-01 -4.746609e-01 -4.011826e-01 5.847097e-01 -4.403683e-01 4.764408e-01 7.299918e-01 -7.855265e-01 -8.408751e-01 -2.118183e-01 2.257426e-02 
-1.255865e+01 7.058649e+00 -7.030748e+00 7.275670e+00 3.001464e+00 5.230353e+00 1.923546e+00 -1.451879e+00 1.129254e+00 5.662382e-01 -4.296267e+00 1.238929e+00 9.594895e-01 -6.286755e-01 -5.204265e-02 -3.820986e-01 -1.140883e+00 -7.130427e-01 4.478300e-01 -3.520015e-01 1.597056e+00 7.552756e-01 -1.969362e-01 -1.143766e+00 -5.090317e-01 2.185596e-02 
-1.087055e+01 7.587861e+00 -8.235836e+00 1.124604e+01 5.431582e+00 4.476484e+00 -7.192690e-01 2.210247e+00 2.214451e+00 -3.183410e+00 -3.718119e+00 6.291399e-01 9.623123e-01 -1.902039e-01 -2.921363e-01 -3.759670e-01 -1.161045e+00 -8.762706e-01 -3.044830e-01 1.320677e-01 4.901804e-01 -1.118298e-01 -6.807872e-01 -4.644403e-01 -1.169499e-01 4.287756e-03 
-1.372565e+01 4.411812e+00 -9.806034e+00 8.701459e+00 5.510733e+00 7.935272e+00 -9.691827e-01 6.903110e-01 -4.341873e-01 1.586174e+00 -2.985049e+00 3.734550e+00 1.000000e+00 -1.355497e-01 -2.404061e-01 -4.682111e-01 -1.439545e+00 -9.372153e-01 -4.421946e-01 -1.053963e-01 -2.883372e-01 -7.247837e-01 9.985064e-01 5.498198e-01 1.417463e-02 -8.422995e-03 
-1.293317e+01 4.373853e+00 -1.050538e+01 4.823615e+00 1.850958e-01 4.909684e+00 2.322875e+00 -9.749233e-01 -1.921944e+00 -1.252296e+00 -1.672953e+00 4.693465e+00 9.613825e-01 1.312318e+00 3.882971e-01 4.244544e-01 -3.383498e+00 -1.971868e+00 -1.343652e+00 -5.676137e-01 -2.408868e+00 -1.908076e+00 8.204647e-01 6.052700e-01 -9.127088e-01 -3.923609e-02 
-1.220509e+01 7.463623e+00 -8.237030e+00 3.289157e+00 9.386306e-01 2.802780e+00 -1.245072e-01 -1.300980e+00 -4.264666e-01 4.593212e+00 -2.569750e+00 -7.223605e-01 9.178394e-01 5.069388e+00 1.570395e-01 3.131838e+00 -1.948655e+00 -3.608360e+00 -4.239985e+00 -2.219959e+00 -2.080347e+00 -1.619137e+00 -1.913990e+00 -7.083563e-01 -1.967817e+00 -9.309326e-02 
-5.069242e+00 8.003442e+00 -6.898065e+00 -2.965301e+00 -2.141706e+00 3.244705e-01 -3.979675e+00 -8.838449e+00 -7.329790e+00 -5.846058e-01 -8.994185e-01 -1.705949e+00 8.072122e-01 7.156264e+00 -2.128465e+00 5.174382e+00 -1.574149e+00 -2.981377e+00 -4.364430e+00 -4.157540e+00 2.638903e-01 -2.531964e+00 -1.139165e+00 -8.369538e-01 -1.564082e+00 -7.930017e-02 
7.689322e+00 3.382215e+00 4.049497e+00 2.852643e+00 -1.136767e+01 -1.097205e+01 -8.917702e+00 -5.779658e+00 -5.825951e+00 -8.317620e+00 -6.913598e+00 -2.904826e+00 6.116189e-01 7.095273e+00 -4.239652e+00 4.885274e+00 -1.926846e+00 -3.316094e+00 -3.157812e+00 -4.118014e+00 1.885049e+00 -3.236730e+00 -7.733326e-01 -9.216021e-01 -5.392302e-01 -3.560435e-02 
1.290094e+01 -4.227771e+00 9.223265e+00 -2.828871e+00 -8.568640e+00 -1.002505e+01 -1.406823e+01 2.583868e+00 -1.188202e+01 -4.927027e-01 -3.685798e+00 -2.035713e+00 7.179919e-01 4.397534e+00 -4.414718e+00 3.104015e+00 -1.771591e+00 -2.544076e+00 -1.780040e+00 -3.107884e+00 3.304454e+00 -2.541542e+00 5.561901e-01 -6.322469e-01 -5.268913e-01 1.949148e-02 
1.428618e+01 -7.619032e+00 8.128675e+00 -6.413286e+00 -1.242837e+01 -7.811520e+00 -1.567030e+01 2.413107e+00 -1.433400e+01 6.805978e-01 -5.784571e+00 -3.253630e+00 7.844278e-01 1.236063e+00 -3.001077e+00 4.545222e-01 -2.219086e+00 -9.099441e-01 5.561363e-01 -5.555416e-01 2.370652e+00 -2.134499e+00 1.467709e+00 4.095265e-01 -2.815288e-01 5.654220e-02 
1.362000e+01 -8.569524e+00 6.582420e+00 -7.190291e+00 -1.433173e+01 -1.015599e+01 -1.614279e+01 3.587437e+00 -1.578347e+01 -2.302764e+00 -4.625166e+00 -4.166003e+00 8.182651e-01 -2.633627e-01 -1.329182e+00 -2.902114e-01 -8.908390e-01 -8.711740e-01 3.103406e-01 1.475318e+00 7.880532e-01 -7.319500e-01 -1.293989e-02 -1.318120e-01 -4.215994e-01 3.495701e-02 
1.351011e+01 -9.452293e+00 7.642529e+00 -6.062076e+00 -1.303584e+01 -8.125897e+00 -1.065813e+01 5.571819e+00 -1.454772e+01 -7.404625e-02 -4.396281e+00 -3.247325e+00 8.441933e-01 -7.011876e-01 -6.285225e-01 1.954314e-01 -5.106104e-01 1.696241e-01 6.381102e-02 2.170649e+00 8.072672e-01 -2.569756e-01 1.794291e-01 -5.217929e-02 7.999325e-03 1.869594e-02 
1.197217e+01 -9.957051e+00 8.015280e+00 -7.458672e+00 -1.262078e+01 -8.316160e+00 -9.197725e+00 4.944777e+00 -1.543491e+01 -1.800802e-01 -5.039003e+00 -4.146863e+00 8.628942e-01 -4.008643e-01 -7.325233e-01 7.911448e-01 -7.511763e-01 3.908825e-01 2.567101e-01 2.246930e+00 1.883662e-01 5.027237e-02 5.571381e-01 -5.406600e-01 4.189994e-01 1.203787e-02 
1.160416e+01 -1.006788e+01 8.389402e+00 -8.832148e+00 -1.243573e+01 -8.412380e+00 -8.289592e+00 5.770773e+00 -1.579316e+01 5.164013e-01 -5.838549e+00 -3.223204e+00 8.555929e-01 -3.697228e-01 -1.020670e+00 5.443360e-01 -1.260227e+00 -7.697287e-01 -2.274682e-01 3.447456e-01 -3.312148e-01 -8.162500e-01 -3.242511e-01 -1.079890e+00 -8.842721e-02 1.105608e-02 
1.256865e+01 -1.192435e+01 1.016471e+01 -9.561137e+00 -1.267738e+01 -8.729199e+00 -6.092411e+00 4.429791e+00 -1.490939e+01 1.877028e-01 -6.607333e+00 -2.083067e+00 8.727547e-01 -2.955762e-01 -1.079369e+00 4.926084e-01 -1.257060e+00 -1.074224e+00 -7.560288e-01 2.966823e-01 -8.256136e-01 -4.385557e-01 -1.039877e+00 -1.129010e+00 -2.547864e-01 1.217269e-02 
1.136325e+01 -1.357199e+01 9.289495e+00 -1.131198e+01 -1.685618e+01 -9.056719e+00 -1.048706e+01 4.173238e+00 -1.889173e+01 -1.879193e+00 -9.011567e+00 -4.721359e+00 8.945435e-01 -1.366153e-01 -6.507056e-01 9.027039e-01 -5.062402e-01 -4.291290e-01 -2.827700e-01 9.699486e-01 -3.095010e-01 5.420569e-01 -4.454579e-01 -9.975481e-03 1.462587e-01 1.288342e-02 
1.061474e+01 -1.360184e+01 1.002827e+01 -1.250406e+01 -1.578167e+01 -1.177413e+01 -6.615582e+00 1.615477e+00 -1.607841e+01 -4.181668e+00 -9.097546e+00 -4.671717e+00 9.042824e-01 -3.312920e-01 -1.617659e-01 5.568045e-01 -4.503421e-01 -5.620548e-01 -2.367496e-01 5.335180e-01 -2.718088e-01 3.065252e-01 -3.207844e-01 3.029112e-01 -7.675096e-01 3.959882e-03 
1.189804e+01 -1.248266e+01 1.297114e+01 -9.891889e+00 -1.302923e+01 -8.303762e+00 -3.178263e+00 5.630425e+00 -1.249837e+01 4.737973e-01 -4.643320e+00 -1.197585e+00 9.042462e-01 7.819772e-02 4.666567e-01 8.834435e-01 4.251366e-01 -1.150269e-01 9.814247e-01 1.008393e+00 7.830499e-01 9.788154e-01 6.982390e-01 1.208004e+00 -5.024543e-01 -6.100071e-03 
1.064480e+01 -1.327784e+01 1.110791e+01 -1.252289e+01 -1.740113e+01 -1.028943e+01 -7.079218e+00 2.342154e+00 -1.657345e+01 -2.592715e+00 -7.276900e+00 -7.682502e+00 8.877028e-01 1.311103e-01 6.423205e-01 6.174514e-01 9.729595e-02 -7.555600e-02 6.004750e-01 5.177768e-01 8.796074e-01 4.733342e-01 7.951452e-01 7.752585e-01 -5.066127e-01 -1.393722e-02 
1.173921e+01 -1.140071e+01 1.316689e+01 -9.176879e+00 -1.662159e+01 -4.891950e+00 -5.213274e+00 7.725150e+00 -1.375013e+01 8.175254e-01 -3.881872e+00 -5.728238e+00 8.723329e-01 -2.349383e-01 3.792907e-01 5.501933e-01 -6.546524e-01 8.964348e-02 -1.658175e-01 2.098184e-01 4.271598e-01 1.900639e-01 4.247714e-01 -5.058174e-02 -3.229320e-01 -1.163991e-02 
1.134971e+01 -1.093121e+01 1.301765e+01 -1.237508e+01 -1.436327e+01 -1.047767e+01 -3.009192e+00 4.966151e+00 -1.308585e+01 -3.778068e-01 -5.601976e+00 -4.939454e+00 8.505529e-01 -3.308893e-01 5.531043e-01 8.292545e-01 -2.438590e-01 8.238109e-01 -5.134909e-01 1.215848e+00 6.776296e-01 1.153769e+00 8.600658e-01 4.469953e-01 9.185026e-01 -3.691637e-03 
1.037089e+01 -1.175952e+01 1.476723e+01 -1.323906e+01 -1.409994e+01 -9.038730e+00 -4.164185e+00 6.454225e+00 -1.329184e+01 1.490200e+00 -5.733690e+00 -4.183769e+00 8.646215e-01 -5.641409e-01 6.169672e-01 2.463229e-01 -4.842748e-02 2.997402e-01 -9.508631e-01 1.307847e+00 -2.762854e-01 1.036680e+00 6.752218e-01 2.049901e-01 5.199875e-01 -7.461297e-03 
9.674513e+00 -1.033291e+01 1.445401e+01 -1.171110e+01 -1.454290e+01 -1.078349e+01 -1.524523e+00 6.365764e+00 -1.103374e+01 1.371277e+00 -4.116015e+00 -3.862223e+00 8.731003e-01 -4.479242e-01 8.557240e-01 -3.911241e-01 5.473922e-01 -3.126455e-01 -1.306548e-01 8.944445e-01 -3.706998e-01 5.813346e-01 6.906188e-01 1.867886e-01 1.599459e-01 -1.976461e-02 
9.756107e+00 -8.615024e+00 1.368033e+01 -9.751008e+00 -1.503307e+01 -9.493353e+00 5.836248e-01 5.643916e+00 -9.592787e+00 3.319093e+00 -3.599902e+00 -3.666916e+00 8.237528e-01 -1.617067e-01 1.087529e+00 -7.202607e-01 5.750049e-01 -2.568180e-01 -4.081743e-01 1.277965e+00 -1.221085e+00 4.468288e-01 7.800583e-01 1.095279e-01 1.845403e-01 -3.267218e-02 
9.417479e+00 -8.224843e+00 1.160548e+01 -1.138215e+01 -1.545993e+01 -1.090363e+01 -9.108748e-01 3.517807e+00 -1.202871e+01 2.160841e+00 -5.734927e+00 -4.398151e+00 7.721642e-01 2.565973e-01 7.416322e-01 -2.916643e-01 4.742031e-01 -2.249369e-01 -1.934714e-01 1.186048e+00 -1.373517e+00 2.598146e-01 4.505841e-01 5.905878e-01 2.566247e-01 -3.945220e-02 
9.690876e+00 -7.375916e+00 1.259019e+01 -1.052851e+01 -1.492551e+01 -1.101953e+01 1.918817e+00 1.772778e+00 -1.056022e+01 4.995709e+00 -4.376595e+00 -2.993103e+00 7.517287e-01 3.589484e-01 1.080291e+00 -6.992140e-02 1.135501e+00 -5.422564e-01 -1.756823e-01 8.854448e-01 -1.368205e+00 1.109484e-01 2.411738e-01 9.424729e-01 6.426862e-01 -3.433396e-02 
1.099011e+01 -7.244308e+00 1.354076e+01 -8.951334e+00 -1.572136e+01 -1.098776e+01 3.738120e+00 1.433750e+00 -9.250956e+00 2.785888e+00 -7.747297e-01 -2.916006e+00 7.118514e-01 2.831141e-01 8.790781e-01 3.548831e-01 1.462748e+00 -7.353285e-01 -9.601988e-01 1.540222e+00 -1.122769e+00 1.250539e-01 1.447029e+00 1.985523e+00 1.692988e+00 -2.185127e-02 
1.076453e+01 -3.703838e+00 1.236308e+01 -5.288911e+00 -1.761364e+01 -1.032970e+01 2.686352e+00 -1.550810e-01 -1.042692e+01 4.212438e+00 -1.367636e+00 -1.194558e+00 6.822394e-01 3.139612e-01 1.205740e+00 3.932160e-01 1.645532e+00 -4.178108e-01 -3.771090e-01 1.470430e+00 -1.414844e+00 -6.613555e-01 7.722093e-01 2.097310e+00 2.245515e+00 -4.704676e-02 
1.029622e+01 -5.665491e+00 1.349345e+01 -6.688204e+00 -1.779251e+01 -1.604954e+01 6.406466e+00 -1.132108e+00 -1.147009e+01 9.787623e+00 2.688210e+00 3.167514e+00 6.976525e-01 4.561855e-01 8.058170e-01 6.066726e-01 1.829930e+00 -2.976490e-01 1.115124e-01 1.426098e+00 -2.170333e+00 -4.570507e-01 8.921434e-01 2.154866e+00 2.611503e+00 -7.331380e-02 
1.160763e+01 -2.136622e+00 1.457993e+01 -3.432414e+00 -1.597899e+01 -1.037419e+01 7.936795e+00 -4.018514e+00 -1.275743e+01 5.355889e+00 4.378485e+00 5.192714e+00 5.235943e-01 -2.889547e-01 9.012629e-01 -7.426866e-01 2.597046e+00 8.976589e-01 -2.619114e-01 -1.022056e+00 -1.032692e+00 1.682833e+00 1.037722e-02 2.808364e+00 2.301421e+00 -1.657263e-01 
1.284949e+01 -3.998831e+00 1.546570e+01 -7.299345e-01 -1.802693e+01 -1.040795e+01 8.243389e+00 -7.486198e+00 -1.037096e+01 6.674880e+00 7.126537e+00 6.947871e+00 4.246050e-01 -2.914891e+00 9.153403e-01 -2.665138e+00 4.847309e+00 3.595019e+00 5.439814e-01 -3.001568e+00 -1.698836e-01 2.418253e+00 -1.353346e+00 1.014214e+00 1.271670e+00 -1.688870e-01 
8.043122e+00 -3.085446e-02 7.663528e+00 4.717185e+00 -1.300813e+01 -1.446005e+01 -3.342392e+00 -2.141496e+00 -2.562323e+00 5.820696e+00 1.045502e+01 8.422370e+00 -9.868264e-03 -4.792434e+00 -1.045401e+00 -2.794975e+00 5.366343e+00 7.041518e+00 6.447264e-01 -4.247874e+00 8.837732e-01 3.029099e+00 -1.919263e+00 -2.353832e+00 1.441711e-01 -8.442844e-02 
-2.495979e+00 -2.141673e+00 3.625965e+00 1.347354e+01 -1.302844e+00 -1.128670e+01 -2.961780e+00 -2.920034e+00 -4.476375e+00 2.788489e+00 4.721010e+00 7.911033e+00 1.199487e-01 -3.243617e+00 1.774688e+00 -2.689889e+00 4.169829e+00 5.931315e+00 1.105338e+00 -2.950600e+00 1.740274e+00 1.296237e+00 -3.509219e+00 -4.245637e+00 -1.149318e+00 -2.027499e-02 
-4.681807e+00 -8.292203e+00 6.524920e+00 1.629757e+01 1.086655e+01 -6.711181e+00 -7.699993e+00 -1.882730e+00 -5.592233e-01 -2.297231e+00 -6.187913e+00 5.431989e+00 2.537802e-01 -7.327231e-01 2.186057e+00 -1.364670e+00 1.392607e+00 3.415007e+00 2.921712e+00 8.902128e-01 1.704116e+00 -2.685183e-01 -3.283983e+00 -3.145129e+00 -1.690744e+00 7.079947e-03 
2.993874e+00 9.005286e+00 2.585561e+00 1.432902e+01 -3.076992e-01 -8.755698e+00 -4.330811e+00 1.085790e+00 -4.891319e+00 -6.812253e+00 -5.780183e+00 2.696475e+00 1.914058e-01 3.015812e-01 2.591510e+00 -2.248048e+00 -1.045371e+00 8.429064e-01 3.827099e+00 1.646044e+00 8.509433e-01 1.183708e+00 -1.771669e+00 -1.232378e+00 -2.831485e-01 -2.101642e-03 
1.634581e+00 5.325951e+00 1.360379e+00 1.125248e+01 3.569327e+00 -1.116991e+00 1.793187e+00 4.376173e+00 -3.697442e+00 -5.798849e+00 -2.002782e-02 2.575927e+00 -1.019704e-02 4.078686e-01 1.894913e+00 -1.806497e+00 -2.484886e+00 -7.646136e-01 3.149277e+00 1.824307e+00 4.789498e-01 1.417493e+00 1.789820e-01 1.815246e+00 1.342795e+00 -7.015052e-02 
-4.146267e+00 4.006801e+00 -5.032006e+00 1.076923e+01 6.560301e+00 5.051699e+00 5.218503e-01 -1.794769e+00 3.011273e+00 -4.319048e+00 -4.524824e+00 7.923321e+00 2.414292e-01 -4.132061e-01 -2.717129e+00 3.317263e-01 -1.620436e+00 1.529734e+00 1.222608e+00 -1.549292e-01 -2.317943e-01 2.694615e+00 1.295864e+00 1.622585e+00 9.641474e-01 -7.971840e-02 
9.276066e-01 3.681605e+00 1.301217e+00 5.653028e+00 3.609485e+00 2.131507e+00 -1.004789e+00 1.952299e+00 2.576948e+00 -2.648923e+00 2.260639e+00 9.532542e+00 -1.219841e-01 4.480690e-01 -1.253210e+00 1.382798e+00 -2.341074e+00 3.752881e-01 1.334446e-01 -1.420750e+00 -2.544738e-01 2.317420e+00 1.442111e+00 1.021540e+00 -1.114520e+00 -6.749131e-02 
1.281330e+00 -3.758186e+00 4.273773e+00 9.026565e+00 7.320891e+00 -4.266905e+00 -3.706468e+00 1.138755e+00 5.444561e+00 -1.907895e+00 1.192411e+00 4.038904e+00 -1.512927e-01 2.027270e+00 -2.211453e+00 -2.181775e+00 -1.030107e+00 -1.749135e-01 -4.425634e-01 -2.132517e+00 -2.268797e+00 7.595747e-01 8.114641e-01 9.206516e-01 -4.309934e+00 2.591274e-02 
1.161127e+00 2.942395e+00 3.621481e+00 4.184431e-01 5.065473e+00 4.209534e+00 -3.196402e+00 1.637041e+00 6.673016e+00 2.061294e-01 2.229055e+00 -1.054465e+00 -1.512927e-01 1.187501e+00 -2.202790e+00 -4.806689e+00 -2.360668e-01 -3.121889e-02 -6.234689e-01 -1.302977e+00 -3.635490e+00 9.667559e-01 7.275046e-01 -7.258877e-01 -3.256572e+00 1.596600e-01 
5.873324e+00 -6.680861e+00 -1.710102e+01 8.235988e+00 4.957740e+00 1.799869e+00 -9.044930e+00 -1.298112e+01 4.761113e+00 -1.689254e+00 9.422636e-02 -8.332843e+00 3.856471e-01 -1.819402e+00 -1.494948e+00 -4.316379e+00 2.264638e-02 -9.988535e-01 -1.606725e+00 8.477160e-01 -1.053306e+00 6.517368e-01 -8.670006e-01 -2.309514e+00 -7.588819e-01 2.011532e-01 
4.569116e+00 -5.871005e+00 -1.204484e+01 4.867982e+00 4.634966e+00 -4.019224e+00 -4.850446e+00 -9.165211e+00 7.752450e+00 8.792791e-01 -8.197075e-01 -5.644412e-01 4.078459e-01 -3.946764e+00 -1.339215e+00 -1.727286e+00 9.207029e-01 -1.658662e+00 -2.826962e+00 2.708235e+00 1.621774e+00 6.109663e-01 -1.008350e+00 -2.507186e+00 1.028997e+00 1.787215e-01 
-9.519676e+00 -6.826223e+00 -9.474962e+00 6.915027e+00 2.541877e+00 -8.186150e+00 1.359133e+00 1.273353e+00 8.163527e+00 -6.579473e+00 -8.830778e+00 -5.176067e-04 5.749041e-01 -5.233533e+00 1.631547e+00 2.031929e+00 -5.018485e-01 -2.088551e+00 2.993672e-01 4.458068e+00 3.753537e+00 -3.083848e-01 -4.264925e-01 -1.099533e+00 1.438836e+00 9.147412e-02 
-1.087619e+01 -3.680997e+00 -8.827974e+00 5.682438e+00 -2.019907e+00 -4.932269e+00 5.142743e+00 2.618674e+00 8.026640e+00 -2.390513e+00 -5.844376e+00 -7.564366e-02 6.476862e-01 -3.494394e+00 2.788803e+00 1.292752e+00 -1.041127e+00 -2.491584e+00 1.947898e+00 1.810633e+00 1.141160e+00 -9.363321e-01 -5.641833e-01 -3.581088e-01 2.186691e-01 7.152834e-02 
-1.257169e+01 3.818688e-01 -8.549803e+00 5.319517e+00 -2.157579e+00 3.753227e+00 8.248816e+00 -1.053799e-01 3.082094e+00 -2.186820e+00 -2.891107e+00 -1.383060e+00 7.230975e-01 -6.327818e-01 1.928374e+00 -7.738670e-01 -5.631882e-01 8.711948e-02 2.753175e+00 1.857858e-01 -1.477472e+00 -6.709049e-01 2.377189e-01 1.775931e+00 -5.012317e-01 3.052750e-02 
-1.137685e+01 4.468963e+00 -6.043658e+00 4.601005e-01 -5.473229e+00 -2.494235e-01 7.578796e-01 -2.770046e+00 5.611506e+00 -4.137964e+00 -5.580087e+00 1.220176e+00 6.913909e-01 -2.164644e-01 1.505985e+00 -1.276202e+00 -9.016226e-01 1.255025e+00 1.222918e+00 -7.646819e-01 -1.588913e+00 -6.699381e-01 -8.265783e-01 1.348122e+00 2.868037e-01 8.691614e-03 
-1.243326e+01 -1.259332e+00 -1.473646e+01 6.710255e+00 4.704135e+00 3.238305e+00 4.480494e+00 -3.419648e+00 6.016569e+00 -4.517154e+00 -8.326626e-02 -3.154585e+00 7.056893e-01 1.363155e-01 1.066911e+00 -1.348388e+00 -7.087010e-01 1.012995e+00 -9.858427e-02 -6.024961e-01 -5.845610e-01 2.309794e-01 -4.079654e-01 9.635266e-01 1.269361e+00 -3.844988e-03 
-1.202773e+01 4.669526e+00 -1.211566e+01 4.789564e-01 8.243632e-01 1.439781e+00 3.203495e+00 -3.668757e+00 3.209712e+00 -5.358238e+00 -5.076834e-01 2.244137e+00 6.998484e-01 -5.648785e-02 8.297159e-01 -6.975010e-01 -8.923163e-02 1.228254e+00 1.989992e+00 1.412374e+00 6.763440e-01 6.654147e-01 9.318188e-01 -1.843331e-01 4.581988e-01 -3.181762e-03 
-1.156467e+01 5.616142e+00 -1.225574e+01 1.766584e+00 -2.413979e-01 2.415704e+00 4.013528e+00 -2.578830e+00 5.437889e+00 -3.616510e+00 -6.096754e-01 4.451767e+00 6.996438e-01 -5.078983e-02 1.155194e+00 7.652047e-01 -9.187908e-01 5.875510e-01 1.840076e+00 8.020576e-01 1.149863e+00 -1.217743e-01 -6.819768e-01 -1.651810e+00 1.611044e-01 -1.493610e-02 
-1.209358e+01 5.179806e+00 -1.077152e+01 2.485778e+00 3.140808e+00 1.011184e+01 8.053232e+00 1.912644e-01 9.227920e+00 7.080841e-02 -6.238548e+00 -2.920065e-01 6.785048e-01 -1.594076e-01 -3.545676e-01 -7.041683e-02 -4.187900e-01 8.183792e-01 4.688277e-01 7.360986e-01 1.756269e+00 1.164226e+00 -3.769641e-01 4.595133e-01 -5.116404e-01 -2.165394e-02 
-1.265428e+01 4.261499e+00 -1.158250e+01 1.112890e+00 6.483668e+00 8.102659e+00 6.065913e+00 3.996532e-01 2.398593e+00 -1.064156e+01 -5.476883e+00 -1.080992e+00 6.416806e-01 -1.376459e-01 -5.437564e-01 -2.773587e-01 -7.390543e-01 -1.520591e-01 -7.190576e-01 5.826461e-01 1.227390e+00 1.169280e+00 4.649459e-01 1.476012e+00 -4.439816e-01 -1.999542e-02 
-1.227996e+01 3.574009e+00 -1.280436e+01 -1.288146e+00 1.553726e+00 9.404416e-01 5.857796e+00 3.623349e+00 1.055049e+01 -3.730533e+00 4.223487e+00 2.452314e+00 6.205603e-01 3.518637e-01 -1.383356e-01 -1.195873e-01 -1.029589e+00 -1.013837e+00 -2.154801e+00 -7.594685e-02 -7.767978e-01 8.750220e-02 2.377630e-01 2.378330e+00 8.819720e-01 -1.602503e-02 
-1.215971e+01 3.700258e+00 -1.262612e+01 -4.172537e-02 -2.081523e-01 3.406113e+00 8.024477e+00 1.842077e+00 1.062300e+01 6.088908e-01 1.539365e+00 8.596985e-01 6.286390e-01 1.931129e+00 7.862715e-02 3.522614e-01 -4.774310e-01 -4.346492e-01 -1.255676e+00 1.576185e+00 -1.822923e+00 -1.304575e+00 6.102656e-01 1.044584e+00 -4.273897e-01 -1.068082e-02 
-1.058155e+01 4.768748e+00 -1.084765e+01 -2.084861e+00 1.417532e+00 1.686103e+00 6.694216e+00 -4.413936e+00 5.553226e+00 -4.365602e+00 2.144976e+00 3.147508e+00 6.049005e-01 2.275660e+00 2.699430e-02 1.538510e+00 1.899927e-01 8.848003e-01 -7.644161e-01 1.676203e+00 -2.804696e+00 -3.972835e+00 -1.287328e+00 -1.305829e-01 -2.507267e-01 -2.484492e-02 
-3.847843e+00 4.057266e+00 -1.079955e+01 -8.759075e-01 4.378519e+00 1.451448e+00 1.352863e+01 -4.696320e+00 -1.625650e+00 -7.272698e+00 7.852935e-01 -3.565537e+00 5.961064e-01 1.699198e+00 -1.149704e+00 2.045736e+00 2.934909e-01 1.480659e+00 -1.821106e+00 7.440280e-01 -9.936067e-01 -2.572917e+00 -1.007762e+00 3.762777e-01 -7.633714e-02 -5.072359e-02 
-5.057594e+00 3.530477e+00 -6.025094e+00 7.890829e-02 3.684392e+00 -1.904306e+00 1.148674e+01 -7.130932e+00 -3.189356e+00 -6.226376e+00 3.947608e+00 3.411299e+00 5.126020e-01 1.448390e+00 -2.133482e+00 2.115309e+00 -8.384080e-02 8.007568e-01 -9.245199e-01 -4.523053e-02 1.124756e+00 -1.655528e-01 9.716692e-01 1.189933e-01 -6.696550e-01 -9.734304e-02 
-6.425695e+00 -1.429125e+00 -4.808712e+00 3.438446e-01 6.061711e+00 -3.904212e+00 9.348356e+00 -1.767458e+00 2.129707e+00 -3.499530e+00 2.519437e+00 3.461177e-01 4.211703e-01 1.466377e+00 -2.202059e+00 2.144969e+00 -6.538454e-01 5.238173e-02 1.729772e-01 -1.694011e+00 1.355766e+00 2.818079e+00 2.251182e+00 5.012186e-01 -9.556744e-01 -1.516811e-01 
-2.050673e+00 -3.155464e+00 -3.266523e+00 -3.113941e+00 4.579720e+00 -2.586660e-01 8.558199e+00 -2.545872e-01 2.847783e+00 -1.393840e+00 1.872870e+00 -2.156594e+00 2.056534e-01 2.771781e+00 -1.170458e+00 1.464488e+00 -1.087920e-01 8.104777e-03 1.360464e+00 -2.746083e+00 8.388450e-01 2.532138e+00 1.719095e+00 -1.079357e+00 -2.969700e+00 -1.757784e-01 
1.980583e+00 -3.610058e+00 -1.453987e+00 -2.548710e+00 4.192764e+00 1.493514e+00 6.522840e+00 -1.355665e+00 9.446175e+00 1.566944e+00 4.328755e+00 -5.559963e+00 -8.824587e-03 2.875704e+00 9.531651e-01 1.364601e+00 -1.141066e-01 1.834890e-01 2.427266e+00 -2.421115e+00 5.027628e-01 1.385645e+00 -3.134395e-01 -8.862247e-01 -1.654449e+00 -1.501872e-01 
4.598171e+00 -1.231348e+00 -3.800173e-01 9.812258e-01 4.659389e+00 2.199151e+00 -8.309197e-01 -3.142604e+00 5.813098e+00 -1.641374e-01 -2.353836e+00 -8.484159e+00 -1.512927e-01 1.435385e+00 1.843956e+00 6.807187e-01 -2.611228e-01 -1.597780e-01 1.433268e+00 -1.932882e+00 8.361291e-01 1.035860e-01 -5.314208e-01 3.735418e-01 5.535725e-01 -8.563602e-02 
4.628401e+00 2.374642e+00 5.710397e-01 -2.274271e+00 6.939321e+00 7.003207e+00 1.937339e+00 2.190365e+00 7.575274e+00 -5.681580e+00 2.016661e-01 -4.762345e+00 -1.512927e-01 1.565817e-01 1.713000e+00 6.487315e-01 3.423690e-01 2.326568e-01 3.692323e-01 -1.434002e+00 6.588286e-01 -1.666937e+00 -6.311075e-01 2.393820e-01 2.095181e+00 -2.849362e-02 
3.802343e+00 3.071968e+00 -8.754430e-01 -4.556774e+00 2.407551e+00 4.152829e+00 1.186540e+00 2.153044e+00 4.301164e+00 -4.266827e-01 5.804124e+00 2.124597e-01 -1.512927e-01 -2.134649e-01 1.071366e+00 7.328843e-01 3.046198e-01 6.790630e-01 6.549731e-01 5.229934e-01 3.729182e-01 -1.119904e+00 -7.731503e-01 -4.837675e-02 1.854109e+00 0.000000e+00 
3.161406e+00 2.803284e+00 2.037383e+00 1.932135e+00 6.481967e+00 2.362836e+00 -1.655899e+00 -7.093455e-01 1.867460e+00 -1.457321e+00 1.446685e+00 5.676301e-01 -1.512927e-01 -3.071004e-01 4.049293e-01 9.261411e-01 1.043327e+00 3.313300e-01 -5.543105e-01 2.864240e-01 6.631656e-02 -5.665323e-01 9.169521e-02 -6.694757e-01 1.161618e+00 0.000000e+00 
4.264344e+00 3.911162e+00 2.551233e+00 4.011218e-01 8.283381e+00 7.794201e+00 3.580666e+00 1.718424e-01 3.067484e+00 -6.142018e+00 -3.218230e+00 -1.878600e+00 -1.512927e-01 -3.200726e-01 4.056695e-01 4.329723e-01 3.687892e-01 7.487198e-01 4.116663e-01 2.458960e-01 1.688188e-01 5.720142e-01 7.899501e-01 -9.177675e-01 6.765648e-01 0.000000e+00 
2.861898e+00 3.979692e+00 3.488407e+00 4.634160e-01 5.658056e+00 2.410968e+00 2.172396e+00 3.512548e+00 5.359452e+00 -2.365436e+00 1.365465e+00 2.091272e+00 -1.512927e-01 -5.305884e-01 1.775919e-01 -4.156065e-01 -7.364224e-01 -2.176473e-01 3.725408e-01 -1.368703e-01 4.452059e-02 4.144005e-02 1.299451e+00 7.919083e-01 6.557984e-01 0.000000e+00 
2.351734e+00 4.512112e+00 5.639062e-01 -1.978469e+00 6.563106e+00 6.187095e+00 5.018725e-01 8.861909e-01 5.415239e+00 3.977125e+00 1.255897e+00 2.833462e+00 -1.512927e-01 -4.762759e-01 6.634174e-02 1.486162e-01 1.195493e-01 -2.524583e-01 1.495951e-01 -1.157685e+00 -2.669537e-01 -7.303479e-02 1.853612e+00 1.308771e+00 2.410913e-01 0.000000e+00 
1.464768e+00 3.390769e+00 9.530141e-01 -5.601822e-01 6.253869e+00 5.029094e+00 -8.008540e-01 -8.439168e-01 9.007821e-01 -1.963711e-02 3.169163e+00 1.490591e+00 -1.512927e-01 -3.968775e-01 -3.505897e-01 2.822362e-01 1.509085e-01 3.226005e-02 9.173199e-01 -5.762872e-01 -7.230088e-01 -1.961427e-01 -3.942548e-02 2.148829e-01 2.833910e-01 0.000000e+00 
2.581530e+00 4.537333e+00 4.562010e+00 1.510667e+00 6.723184e+00 7.233114e+00 -7.211356e-01 1.015306e+00 4.931645e+00 1.953144e+00 2.423779e+00 -3.728030e-01 -1.512927e-01 -6.708915e-01 -7.139847e-01 7.525613e-01 -3.635607e-02 -7.506124e-01 -7.142233e-01 -4.270182e-01 -1.291928e-01 -1.419032e-01 -7.605244e-01 3.854759e-01 4.643219e-01 0.000000e+00 
7.626133e-01 2.214133e+00 2.900536e+00 -5.266098e-01 5.739317e+00 6.474557e+00 -9.753633e-02 -1.670533e-01 4.620536e+00 -1.550572e+00 1.855938e+00 5.111360e+00 -1.512927e-01 -6.500607e-01 -5.736225e-01 2.254190e-01 -4.631306e-01 -8.320853e-01 -1.861871e+00 -5.520490e-01 -1.616909e-01 -1.040804e-01 -2.660519e-01 -5.849396e-01 5.635766e-01 0.000000e+00 
-6.516457e-01 1.530507e+00 3.352952e+00 -2.177035e+00 3.067320e+00 1.893246e+00 -1.984877e+00 -9.820485e-02 2.845847e+00 9.399712e-01 3.839889e+00 3.344687e+00 -1.512927e-01 -4.706707e-01 -2.292340e-01 -7.483941e-01 -1.405366e+00 -3.012422e-01 -1.198178e+00 -7.887990e-01 -1.079646e+00 -5.940932e-01 7.447927e-02 -9.938466e-01 -4.155969e-01 0.000000e+00 
-1.689472e-01 2.026069e+00 2.684638e+00 -1.031984e+00 3.921374e+00 -1.610325e+00 -2.929228e+00 -1.095616e+00 1.423279e+00 -8.433101e-01 -4.635902e-01 2.449729e+00 -1.512927e-01 2.086382e-01 3.271914e-01 -1.568433e-01 -6.243738e-01 -4.349672e-01 -8.414499e-01 5.221792e-01 -5.077423e-01 1.882115e-02 5.572875e-01 2.186315e-01 -1.390303e+00 0.000000e+00 
6.939564e-01 3.485194e+00 9.279888e-01 -5.263474e+00 6.125944e+00 5.284667e+00 -3.249285e+00 -3.918645e+00 3.559807e+00 1.971909e+00 -1.385690e+00 -1.119972e+00 -1.512927e-01 4.615145e-01 2.122406e-01 5.069609e-02 -1.257782e-01 6.281426e-02 5.437374e-04 8.645579e-01 -6.970338e-01 2.808225e-01 4.370349e-02 5.265583e-01 -9.723915e-01 0.000000e+00 
1.133003e+00 2.872746e+00 3.328801e+00 -2.105259e+00 2.035169e+00 5.715971e-01 3.145564e+00 -7.955449e-01 4.357661e+00 7.198958e-01 5.561885e+00 3.921745e-01 -1.512927e-01 2.099707e-01 1.569602e-01 2.054429e-01 2.046309e-01 8.610655e-02 4.922085e-01 3.387143e-01 -2.720342e-01 8.507489e-01 6.684274e-01 1.027207e+00 -1.903012e-02 0.000000e+00 
1.004951e+00 2.168371e+00 3.284351e+00 -2.269289e+00 4.324493e+00 8.050036e-01 -6.994841e-01 -3.733409e+00 2.782768e+00 3.768857e-01 3.459943e+00 -4.884933e-01 -1.512927e-01 5.267582e-02 3.077018e-01 1.584456e-01 9.248183e-01 -7.056338e-01 -4.851115e-02 4.664369e-01 -4.529934e-01 2.196013e-01 3.175237e-01 -4.083118e-01 7.148086e-01 0.000000e+00 
7.254086e-01 3.469282e+00 2.533671e+00 -1.505922e+00 5.252632e+00 3.090549e+00 -2.510557e+00 -2.548405e+00 6.065543e+00 3.296339e+00 2.249628e+00 2.038839e+00 -1.512927e-01 1.504238e-01 5.865644e-01 -3.584358e-01 4.875922e-01 -2.898059e-01 8.840588e-01 -9.712505e-02 -7.262963e-01 -4.995751e-01 1.948731e-01 -1.188113e+00 7.885712e-01 0.000000e+00 
1.161133e+00 4.725435e+00 2.117781e+00 -9.390513e-01 9.890437e-01 3.782635e+00 1.910960e+00 -5.307182e+00 3.803873e+00 2.271307e+00 -1.771120e+00 1.630739e+00 -1.512927e-01 1.388237e-01 3.542009e-01 -2.795063e-01 3.388778e-01 -1.411511e-01 1.327430e+00 1.027058e+00 3.258885e-01 -2.969342e-01 -1.335085e-01 -3.352071e-01 1.275100e+00 0.000000e+00 
1.807032e+00 4.527036e+00 2.119907e+00 -3.324172e-01 2.253864e+00 3.503075e+00 1.354716e+00 -3.640140e+00 1.349233e+00 7.470510e-01 2.236851e+00 3.275415e+00 -1.512927e-01 -1.619928e-01 -3.443758e-01 -3.404636e-02 3.805731e-01 4.153487e-01 -8.989122e-02 3.743554e-01 1.012931e+00 -1.344355e+00 -5.373884e-01 1.366952e+00 8.939090e-01 0.000000e+00 
1.158258e+00 3.410499e+00 2.093702e+00 -1.161652e+00 5.118122e+00 7.235893e+00 2.503169e+00 -1.558099e+00 3.656252e+00 9.839869e-01 1.790296e+00 5.268721e+00 -1.512927e-01 -5.118223e-01 -3.663986e-01 6.425042e-01 7.374932e-01 1.325297e+00 -6.868923e-02 -2.870778e-01 1.710357e+00 5.670624e-02 7.790136e-03 1.604770e+00 3.007569e-02 0.000000e+00 
-8.311844e-02 2.404871e+00 2.375480e+00 5.082439e-01 5.264836e+00 9.144645e-01 -9.348843e-01 6.417068e-01 -5.824202e-01 1.253057e+00 7.303678e+00 4.689393e+00 -1.512927e-01 -3.379618e-01 -2.220545e-01 8.722519e-01 1.375807e+00 6.469225e-01 -1.231015e-01 -3.591565e-02 8.949751e-01 4.502687e-01 -2.271930e-01 -3.926746e-01 -1.324142e+00 0.000000e+00 
-4.529037e-01 3.954525e+00 5.202516e+00 2.328084e+00 6.110042e+00 4.733495e+00 1.620371e+00 1.103678e+00 5.053231e+00 2.057254e+00 3.719316e+00 1.074128e+00 -1.512927e-01 2.474726e-01 -3.097033e-01 5.332695e-01 8.921435e-01 -1.185578e-01 -9.993718e-02 9.922628e-02 2.616596e-01 2.252374e-01 -2.636223e-01 -3.160887e-01 -2.164630e+00 0.000000e+00 
9.228039e-01 3.144751e+00 4.926760e+00 4.801748e+00 4.992517e+00 4.138766e+00 1.616537e+00 -4.961526e-01 2.902088e+00 -9.255475e-01 -6.910325e-01 -1.248001e+00 -1.512927e-01 3.717993e-01 -3.473889e-01 -4.034319e-01 -4.899410e-01 -7.093030e-01 4.687042e-01 4.902689e-01 1.316701e-01 1.704846e+00 -1.164250e+00 -1.143476e+00 -5.826777e-01 0.000000e+00 
1.892660e+00 1.492043e+00 3.484409e+00 1.152314e+00 4.661493e+00 5.124056e+00 1.723590e+00 3.191288e-01 3.040185e+00 7.551775e-01 4.207208e+00 -2.585733e+00 -1.512927e-01 2.567511e-01 -3.153641e-01 -1.021808e+00 -2.018646e+00 -1.177433e+00 -3.551807e-01 2.685026e-02 -1.228035e-01 3.265838e-01 -1.597990e+00 -3.969557e-01 -2.263749e-01 0.000000e+00 
6.030960e-01 1.899167e+00 1.217373e+00 -1.353576e+00 2.442596e+00 3.062705e+00 1.464851e+00 1.692332e+00 8.948332e+00 -3.917155e+00 1.342351e+00 3.605935e+00 -1.512927e-01 -2.209084e-01 -1.900751e-01 -6.182209e-01 -1.599133e+00 -8.714603e-01 -1.092805e+00 -8.134447e-01 -3.212832e-01 -3.427382e-01 -2.590677e-01 -6.696050e-02 1.773748e-01 0.000000e+00 
9.907055e-01 3.000496e+00 1.948168e+00 -4.687482e+00 1.497837e+00 3.495622e+00 1.830466e+00 -6.045820e-01 3.663028e+00 -4.436893e+00 7.178462e-01 -2.484714e+00 -1.512927e-01 -3.580698e-01 -5.628072e-02 -3.748664e-02 -1.773114e-01 -5.114452e-01 -1.484394e+00 -1.242440e+00 -7.252729e-01 -1.239778e+00 3.532248e-01 -7.600229e-01 3.306227e-02 0.000000e+00 
2.692394e-01 1.440149e+00 2.603775e+00 -2.740207e-01 2.217043e+00 -5.110407e-01 -2.504125e+00 -1.640713e+00 8.769753e-01 3.751493e-01 7.188458e-01 -4.116364e-01 -1.512927e-01 -1.389179e-01 -2.478385e-01 3.428411e-01 6.572571e-01 2.681012e-02 -1.115415e+00 -1.227254e+00 -7.702221e-01 -1.892877e+00 1.339665e+00 -1.246010e-01 -5.962065e-01 0.000000e+00 
