-4.966016e+00 -3.997581e+00 -4.056687e+00 1.174015e+01 5.895809e+00 -5.525212e+00 -9.454652e+00 -5.701848e+00 -3.686785e+00 3.413005e+00 1.149052e+01 1.596817e+00 -1.442560e-01 -4.266071e-01 -5.169423e-01 -2.149406e-01 -3.662543e-01 5.036172e-01 1.710103e-01 2.394779e+00 1.539604e+00 2.579945e+00 2.611820e-01 2.171378e-02 1.082263e+00 5.182683e-03 
-5.797801e+00 -5.741810e+00 -4.232993e+00 1.241533e+01 7.560627e+00 -3.498397e+00 -1.395740e+00 -6.221178e-01 4.121144e+00 4.316204e+00 9.983804e+00 5.181252e+00 -1.137056e-01 -5.221680e-01 1.288069e+00 1.317649e+00 -1.619969e+00 -7.045251e-01 9.442108e-01 3.530254e+00 1.045912e+00 2.375128e+00 -7.435045e-01 -8.380698e-01 8.143604e-01 -3.435135e-04 
-6.683159e+00 -5.710177e+00 -5.043238e+00 9.571293e+00 7.581487e+00 -5.683568e+00 -1.510212e+00 -5.436942e-01 5.308975e+00 4.267316e+00 1.235245e+01 5.215914e+00 -1.336178e-01 -5.067401e-01 2.668731e+00 1.800424e+00 -2.888851e+00 -2.009261e+00 6.950900e-01 2.246372e+00 -4.458977e-01 1.429914e+00 -1.436803e+00 -2.207012e+00 -5.042379e-01 -5.166042e-03 
-6.718285e+00 3.299060e+00 3.024830e+00 4.724738e+00 1.530346e+00 -7.249799e-01 4.224400e+00 -3.051365e+00 3.690976e+00 -7.316726e-01 6.869210e+00 3.859071e+00 -1.512927e-01 -3.416689e-01 2.894350e+00 1.526655e+00 -2.715749e+00 -2.259326e+00 8.760408e-01 -2.446433e-01 -1.114654e+00 -6.617635e-01 -8.260859e-01 -1.410950e+00 -4.238603e-01 -9.284901e-03 
-7.039474e+00 4.825639e+00 1.316519e+00 1.141193e+00 -1.135354e+00 -3.436470e+00 -1.032860e+00 -6.716712e+00 3.677872e+00 -1.247069e+00 2.012759e+00 -2.632815e-01 -1.512927e-01 -1.907570e-01 1.757444e+00 7.843751e-01 -2.067288e+00 -1.424853e+00 6.435382e-01 -6.066014e-01 6.494747e-01 -1.560507e+00 -1.398983e+00 -1.453362e+00 2.026368e-01 -3.534985e-03 
-7.327988e+00 3.462032e+00 2.204056e-01 3.051632e+00 6.224177e-01 -2.417414e-01 -2.857633e+00 -3.108880e+00 1.627878e+00 2.942966e+00 8.098902e+00 5.801549e+00 -1.512927e-01 3.873840e-01 -1.340004e+00 -1.274869e+00 1.072216e-01 -2.331007e-01 -9.670677e-02 -7.704321e-01 8.128786e-02 -1.502799e+00 6.735433e-01 1.041210e-01 -7.486787e-02 4.234600e-03 
-7.332092e+00 2.995559e+00 2.808499e-01 7.140613e-02 9.111843e-01 -2.707496e+00 -1.002203e+00 2.732437e+00 -1.462010e+00 -4.564919e+00 4.470798e+00 5.257859e+00 -1.512927e-01 3.587483e-01 -1.457018e+00 -4.091055e-01 1.320711e+00 1.792336e-01 9.797743e-01 6.224453e-01 1.131108e-01 -5.735815e-01 1.268430e+00 1.659295e+00 1.968518e-01 2.117300e-03 
-4.635056e+00 -2.485919e+00 -2.831678e+00 5.795740e+00 -6.584272e-01 -1.573001e+00 3.569109e-01 -7.369501e+00 -1.253078e+00 4.294969e+00 6.160796e+00 7.241608e-01 -1.301197e-01 1.383711e-01 -9.786981e-02 8.352212e-01 9.515190e-01 7.395435e-01 2.114313e-01 9.218516e-02 1.186529e-01 1.355251e+00 1.685834e+00 5.485477e-01 -9.766672e-01 0.000000e+00 
-6.592199e+00 5.145221e-01 7.970335e-01 6.372694e+00 4.012365e-01 2.128031e+00 4.720950e-01 -4.020848e+00 2.250443e+00 4.419081e+00 1.127829e+01 3.259672e+00 -1.512927e-01 -1.385748e-01 9.682446e-01 8.444778e-01 4.874269e-01 8.486708e-01 6.901308e-01 -1.435973e-01 1.015243e-01 1.547542e+00 1.509718e+00 -1.899815e-02 -4.769232e-01 -2.117300e-03 
-7.006079e+00 4.213201e+00 4.138420e+00 4.658584e+00 4.575109e+00 -1.602349e+00 -3.133856e+00 8.610276e-01 6.547906e+00 6.880136e+00 7.437897e+00 1.917307e+00 -1.512927e-01 -5.192022e-01 1.867816e+00 1.373870e+00 -3.534414e-01 7.094070e-01 4.560231e-01 3.593360e-01 2.027820e+00 7.374942e-01 -3.559165e-02 -1.438935e+00 -1.967765e-01 -4.234600e-03 
-6.839455e+00 4.487222e+00 1.018189e+00 3.077119e+00 2.537770e+00 7.578316e-01 2.519369e-02 -8.752054e-01 2.375207e+00 1.691087e+00 3.737257e+00 2.276670e+00 -1.512927e-01 -1.065678e-01 7.988560e-01 3.193620e-01 -1.160586e+00 -3.723598e-01 -1.385301e+00 3.781764e-01 7.517913e-01 -3.478815e-01 -1.031046e+00 -1.241405e+00 6.742231e-02 0.000000e+00 
-7.107439e+00 4.866810e+00 3.927093e+00 5.676320e+00 1.820341e+00 1.392214e+00 2.377042e+00 1.196777e+00 2.372010e+00 5.481008e+00 2.736634e+00 2.317787e-01 -1.512927e-01 1.287321e-01 7.039410e-01 1.870433e-01 -7.524956e-01 -3.951179e-01 -1.097880e+00 6.244410e-01 -2.622191e-01 -3.881581e-01 -6.293996e-01 -3.322818e-01 1.353181e-01 0.000000e+00 
-7.074358e+00 4.181998e+00 2.499506e+00 6.089354e-02 -8.317852e-02 -6.295754e+00 -3.924720e-01 -4.297667e-01 2.598983e+00 -3.658652e-02 7.421893e+00 4.439547e+00 -1.512927e-01 1.370018e-01 5.354342e-01 2.835554e-01 -6.438550e-01 -2.367629e-01 -5.977398e-01 2.021725e-01 9.413886e-03 5.524097e-01 -5.006804e-01 1.718073e-01 5.627629e-01 0.000000e+00 
-6.244967e+00 7.885518e+00 4.332978e+00 2.404217e+00 3.909994e+00 -3.564953e+00 1.971822e-01 -6.727875e-01 4.495227e+00 4.596975e+00 3.934169e+00 1.512459e+00 -1.512927e-01 1.281645e-01 -6.426977e-02 -6.834204e-01 -9.602272e-01 -1.178755e-01 3.712321e-01 2.599989e-01 8.025779e-02 -1.267923e-01 -1.782155e+00 6.854891e-01 5.013320e-01 0.000000e+00 
-6.585682e+00 5.655039e+00 2.233024e+00 1.493895e+00 3.091288e-01 2.477164e-01 2.125986e+00 1.066464e-01 4.075647e+00 -3.702986e-01 3.997526e+00 4.450145e+00 -1.512927e-01 1.372478e-01 -4.126982e-01 -5.147873e-01 1.812282e-01 -7.516849e-02 1.684450e+00 1.124441e+00 1.027676e-01 -2.354865e-01 -1.440066e-01 6.924288e-02 -6.147309e-01 0.000000e+00 
-6.710955e+00 3.808940e+00 6.432328e-01 1.586831e-01 1.034810e+00 -2.336073e-02 2.417807e+00 1.329860e+00 9.997167e-01 -3.262910e+00 7.876264e+00 2.733140e+00 -1.512927e-01 -8.822632e-03 -1.256742e+00 -4.765911e-01 4.699920e-01 -3.053498e-01 6.690683e-01 8.147635e-01 -5.416402e-01 -7.190654e-02 4.025513e-01 1.011021e+00 -1.242494e-01 0.000000e+00 
-6.155125e+00 4.156796e+00 1.770443e+00 2.089802e+00 9.785712e-01 3.557010e-01 4.119422e+00 -9.172521e-01 3.169306e+00 3.173323e+00 5.797061e+00 7.555522e-01 -1.512927e-01 -1.150322e-01 -1.313227e+00 -4.912921e-01 9.873250e-01 -7.262850e-03 -6.628732e-01 1.515002e-01 -6.806114e-01 -2.899148e-01 2.116491e-01 3.662020e-01 -7.438073e-01 0.000000e+00 
-6.504358e+00 2.350928e+00 2.181313e+00 4.456224e+00 2.048524e+00 -2.736039e-01 3.274282e+00 -2.869039e+00 4.588865e+00 4.837921e+00 8.089508e+00 2.738508e+00 -1.512927e-01 -1.913635e-01 -1.985683e+00 -2.001614e-02 -9.422266e-02 3.343520e-01 -9.725906e-01 8.026386e-01 -2.660303e-01 -1.573600e+00 -8.346809e-01 -1.263069e-01 1.115191e+00 2.753649e-02 
-7.264141e+00 -1.820879e-01 -9.924765e-01 4.281749e+00 -2.340426e-01 -2.941528e+00 2.455250e+00 -1.196961e+00 8.314989e-01 -3.362469e+00 5.721914e+00 7.284241e-01 -1.512927e-01 -1.309976e+00 -6.506494e-01 -2.181448e-01 -1.259426e+00 -3.139799e-01 -1.174526e+00 3.488277e-01 3.157735e-03 -1.086989e+00 -2.418845e+00 2.461187e-01 4.067643e-01 6.967453e-02 
-7.113264e+00 -3.950031e+00 1.924612e+00 -1.408404e+00 3.312877e+00 -3.237699e+00 7.263086e+00 1.395631e-01 -5.699379e+00 -4.168419e+00 7.282302e+00 8.322660e+00 -1.361024e-02 -1.551338e+00 8.894070e-01 -3.339402e-01 -1.170120e+00 1.462976e-01 -1.057286e+00 1.626707e+00 1.188891e+00 1.151099e+00 -3.205595e+00 -6.257468e-01 -2.112704e-01 8.233010e-02 
-1.240055e+01 4.054029e+00 8.080695e-01 -1.275014e+00 -1.223505e+00 -4.034881e+00 3.869159e+00 -2.405765e+00 2.878481e+00 -4.417730e+00 7.431257e+00 -2.702296e-03 1.282387e-01 -4.657028e-01 1.390652e+00 1.414816e-01 1.799966e-01 1.287579e-01 -1.345139e-01 5.870634e-01 6.563511e-01 2.633360e+00 3.192431e-01 -1.078320e+00 -5.643803e-01 1.791807e-02 
-1.169284e+01 4.679905e+00 -3.886607e-01 1.384005e+00 3.274743e+00 -5.013358e+00 1.070086e+01 3.679819e+00 9.320867e+00 -1.066242e+01 4.106102e+00 2.047719e+00 1.205921e-01 5.832472e-01 1.351727e+00 -1.976581e-01 1.105398e+00 -4.506996e-01 6.979418e-01 -1.603168e+00 1.142717e+00 1.806330e+00 -8.505078e-02 -2.592854e+00 -1.733485e+00 -5.324071e-02 
-7.302866e+00 2.456204e+00 8.715680e-01 3.785528e+00 4.288137e-01 -2.726268e+00 3.671678e+00 3.146662e-01 6.488175e+00 1.480749e+00 1.918415e+00 1.043993e+00 -1.288035e-01 1.664966e+00 -8.329557e-01 1.035061e-01 1.629080e+00 -5.909586e-03 9.524441e-01 -8.887499e-01 2.153607e+00 -5.200688e-01 4.377041e-01 -1.132810e+00 5.658562e-02 -8.023570e-02 
-6.745871e+00 3.607518e+00 9.045722e-01 1.588313e+00 2.332196e-01 -4.022958e-01 -6.540151e-01 4.492933e+00 1.527425e+00 -7.542912e+00 -2.925545e+00 -8.681097e-01 -1.512927e-01 1.142055e+00 -2.187591e+00 -9.613864e-02 1.301771e+00 -1.371446e+00 -1.090070e-01 -1.392518e+00 2.161725e+00 -1.596150e+00 5.451630e-01 -7.293189e-01 -2.068100e-01 -3.650972e-02 
-6.549208e+00 4.254434e-01 6.789837e-01 6.768234e+00 2.677093e-01 -1.578191e+00 5.102848e+00 7.955713e+00 4.174858e+00 -3.788965e+00 5.283029e+00 1.738140e+00 -1.369973e-01 2.688629e-01 -5.195550e-01 1.239577e-01 4.878874e-01 3.069610e-01 2.392832e-01 3.156514e-01 1.960205e+00 1.258362e-01 1.111127e-01 5.800340e-01 -1.871095e-01 4.845476e-03 
-6.359396e+00 -5.242668e+00 -7.730618e-01 6.401505e+00 -3.501936e+00 -6.132431e+00 3.022688e+00 1.066792e+01 2.496776e+00 -5.301751e+00 -1.222799e+00 6.665959e-01 -5.785954e-02 1.619221e-01 4.691433e-01 6.966127e-01 3.927508e-01 5.589433e-01 -1.031391e-01 -6.776689e-02 -1.090869e+00 1.076797e+00 2.290388e+00 1.914458e+00 1.085676e+00 -1.429534e-03 
-6.151789e+00 4.283522e+00 2.330173e+00 3.818369e+00 3.831197e+00 1.335216e+00 3.411583e+00 7.028201e+00 6.632681e+00 9.157321e-01 3.967212e+00 -6.589074e-01 -1.512927e-01 1.118076e-01 2.086809e+00 4.473378e-01 -1.608303e+00 5.852776e-02 1.062353e+00 -1.624118e+00 -3.120755e+00 -2.723650e-01 7.659442e-01 8.188753e-01 9.135011e-01 -1.220238e-02 
-6.134970e+00 4.024195e+00 3.562041e+00 5.027000e+00 1.246192e+00 -2.374695e+00 -1.472173e-01 -4.976543e-01 5.682499e+00 1.556677e+00 7.304651e+00 5.758793e+00 -1.512927e-01 -2.908342e-01 2.083812e+00 -2.915518e-01 -9.357967e-01 8.415691e-01 2.160266e+00 -1.302427e+00 -1.909227e+00 1.581593e-01 7.378315e-01 2.288307e+00 3.991117e-01 -4.123688e-03 
-6.102383e+00 6.226055e+00 7.481215e-01 -5.860291e-01 -1.813716e+00 1.854704e+00 -1.432791e+00 -2.065276e+00 1.220171e+00 -3.388458e+00 5.113680e+00 3.759547e+00 -1.512927e-01 -3.547600e-01 -1.346337e-01 -1.413995e+00 -5.701948e-01 -5.202632e-02 1.381348e+00 -7.224104e-01 5.982679e-01 -6.758515e-01 -7.215500e-04 1.173484e+00 -3.122644e-01 2.471683e-02 
-7.838270e+00 4.205123e+00 -1.439795e+00 3.924720e+00 3.528366e+00 4.409153e+00 -1.067259e+00 5.668522e+00 5.993827e+00 5.395012e-01 9.645502e+00 4.529273e-01 -7.847798e-02 -1.713221e-01 8.522606e-03 -3.401155e-01 -2.004579e-01 2.261839e-01 4.242172e-01 5.734559e-01 1.408763e+00 -7.263478e-02 3.951088e-01 -2.818721e-01 -3.321031e-01 8.717680e-03 
-7.073938e+00 3.519890e+00 -2.238885e+00 1.518534e+00 2.429978e+00 4.850032e+00 2.595522e-01 6.936451e+00 3.097759e+00 1.420712e+00 8.664207e+00 4.327038e-01 -6.411588e-02 1.842821e-01 -2.693066e-01 9.571872e-01 1.217491e+00 9.888470e-01 -1.026795e+00 2.611208e-01 7.840375e-01 6.425666e-01 2.058704e+00 1.905149e-01 8.184999e-01 -7.281470e-03 
-6.505802e+00 5.419891e+00 3.354967e+00 2.972429e+00 2.552648e-01 -1.751272e+00 1.873891e+00 2.045297e+00 4.380531e+00 1.127636e+00 4.120027e+00 5.761700e+00 -1.512927e-01 4.565706e-01 5.198550e-02 1.170883e+00 1.707413e-01 2.188495e-01 -5.105404e-01 5.746285e-01 -8.471716e-01 -7.017082e-01 4.987102e-01 -1.432710e-01 1.625863e+00 -2.328062e-02 
-5.847206e+00 4.272138e+00 3.136676e+00 5.977572e+00 4.767069e+00 -1.990585e-01 -1.597762e+00 3.666524e+00 5.239652e+00 6.610996e+00 8.828992e+00 5.197660e+00 -1.512927e-01 2.731327e-01 2.102728e-01 8.589489e-01 6.753244e-01 4.000936e-01 -1.150250e-01 5.296527e-01 -7.440872e-01 9.677355e-02 -6.476281e-02 -4.474535e-02 9.473574e-01 -1.743536e-02 
-6.168783e+00 4.088926e+00 1.726840e+00 2.548908e+00 3.454068e+00 4.380997e+00 2.734541e+00 3.067628e+00 1.414340e+00 4.379106e-01 8.846755e+00 6.199764e+00 -1.512927e-01 1.298480e-01 -5.405668e-02 -2.624573e-01 2.444013e-01 1.588574e-01 2.311658e-01 3.420628e-01 -2.874812e-01 2.722772e-01 -4.244401e-01 2.194331e-01 -4.765148e-01 0.000000e+00 
-5.876784e+00 5.236736e+00 2.869923e+00 5.106917e+00 2.831045e+00 1.208772e+00 2.477491e+00 2.704850e+00 5.064723e+00 1.441761e+00 6.077117e+00 4.950459e+00 -1.512927e-01 9.937388e-01 3.879845e-01 -5.019456e-02 -1.070273e-02 -3.323000e-01 2.550311e-02 3.579025e-01 -7.895451e-01 -2.423674e-01 -1.604450e+00 -1.381145e+00 -1.095555e+00 0.000000e+00 
-5.841773e+00 4.667309e+00 2.176057e+00 4.629763e+00 2.017564e+00 -1.299358e+00 1.546578e+00 1.088728e+00 5.829382e+00 1.590053e+00 6.593130e+00 3.502727e+00 -1.512927e-01 3.476033e+00 -3.153318e+00 -1.339658e+00 -1.783845e+00 6.832634e-01 -1.439780e+00 -1.788338e+00 2.221861e-01 -2.803004e+00 2.607911e-01 -4.072370e+00 -1.160026e+00 1.735282e-01 
-1.042017e+00 5.922869e+00 2.661095e+00 4.883631e+00 3.823821e+00 2.768634e+00 7.857316e-01 7.082486e-01 1.820294e+00 -1.987324e+00 3.050078e+00 1.068404e+00 -1.512927e-01 4.529386e+00 -4.899036e+00 -2.371749e+00 -3.348551e+00 9.732872e-01 -7.925507e-01 -8.279764e-01 1.965556e+00 -4.459136e+00 2.679884e-01 -6.177933e+00 -1.066416e+00 2.842545e-01 
8.794000e+00 -1.202073e+01 -4.867038e+00 -6.258673e+00 6.373997e+00 -3.597833e+00 -5.361270e+00 5.176859e+00 -1.097847e+01 3.456409e+00 -1.000157e+01 2.340660e+00 7.163483e-01 3.870829e+00 -5.706523e+00 -1.718501e+00 -3.784345e+00 4.603910e-03 -6.879436e-01 -2.579598e-01 2.279430e+00 -5.149519e+00 7.017913e-01 -6.352744e+00 -1.857780e+00 3.159818e-01 
9.452257e+00 -1.091443e+01 -5.467274e+00 -6.191618e+00 5.519264e+00 -1.604744e+00 1.791533e+00 1.048857e+01 -8.827037e+00 1.848525e+00 -1.651520e+01 1.994114e-01 8.361591e-01 1.655818e+00 -4.747533e+00 -1.090263e+00 -3.192883e+00 -9.860831e-01 -1.458895e+00 2.259092e-01 1.663266e+00 -3.693627e+00 6.696929e-01 -4.746795e+00 -2.535608e+00 2.395454e-01 
8.265233e+00 -1.544666e+01 -2.352265e+00 -8.754338e+00 1.192862e+00 -2.552387e+00 -2.461212e-01 7.595718e+00 -1.459455e+01 3.181084e+00 -1.538795e+01 -5.351678e+00 9.348906e-01 -5.917670e-01 -1.164624e+00 2.491505e-01 -1.137976e+00 -1.433070e+00 -7.935629e-01 1.349841e+00 -1.283098e-01 -1.350287e+00 -6.285713e-01 -1.658886e+00 -2.951998e+00 6.319816e-02 
7.501456e+00 -1.610183e+01 -4.047607e+00 -9.832952e+00 1.483973e+00 -5.048564e+00 -6.422968e-01 7.815152e+00 -1.483980e+01 1.498803e+00 -1.799071e+01 -7.763468e+00 9.371634e-01 -6.376715e-01 -8.716387e-01 -1.525097e-01 -7.345018e-01 -1.163563e+00 -1.109560e+00 5.344932e-02 -1.223693e+00 -1.006392e+00 -7.685436e-01 -2.818054e-01 -2.220237e+00 3.690378e-02 
6.810566e+00 -1.525014e+01 -4.331119e+00 -1.012788e+01 1.226291e+00 -5.843738e+00 2.604850e+00 5.872017e+00 -1.472352e+01 4.884136e-01 -1.755824e+01 -8.437892e+00 9.818369e-01 -4.533556e-01 2.744522e-01 -9.520212e-01 -5.965586e-02 -1.090202e+00 -5.079597e-01 -3.731251e-01 -6.634308e-01 1.737394e-02 -1.421637e+00 3.101864e-02 -1.570747e+00 1.852745e-02 
6.991233e+00 -1.537088e+01 -5.240396e+00 -9.177354e+00 -3.152676e-01 -5.506867e+00 6.332939e-01 5.231953e+00 -1.379451e+01 -6.478578e-01 -1.683908e+01 -9.358666e+00 9.972048e-01 -1.693027e-01 1.487320e-01 -2.821787e-01 3.333254e-02 -1.207942e+00 2.882890e-01 -1.077240e+00 -2.828093e-01 4.544415e-01 -1.144671e+00 6.316616e-01 -1.070823e+00 1.413435e-02 
6.253566e+00 -1.443988e+01 -6.515977e+00 -9.380417e+00 -3.358529e+00 -4.863034e+00 -2.749542e+00 5.570164e+00 -1.503032e+01 -2.853768e+00 -1.580868e+01 -1.240781e+01 9.975071e-01 2.068607e-01 2.830942e-01 1.390930e-01 2.511888e-01 -7.420827e-01 9.751917e-01 -1.388919e+00 2.802745e-01 1.311042e+00 -5.916446e-01 9.311934e-01 -3.306312e-01 1.969051e-03 
6.933442e+00 -1.576331e+01 -4.366072e+00 -1.004002e+01 -2.263325e+00 -4.097470e+00 -3.351303e+00 6.552032e+00 -1.241419e+01 -2.553463e+00 -1.570719e+01 -1.113262e+01 1.000000e+00 3.214296e-01 3.282472e-01 5.324661e-01 2.736396e-01 -3.283171e-01 8.566777e-01 -6.542307e-01 2.731496e-01 1.739252e+00 -2.045381e-01 6.937273e-01 4.474825e-01 -2.905023e-03 
7.873765e+00 -1.363846e+01 -4.072815e+00 -8.440606e+00 -1.510094e+00 -1.672477e+00 -2.347447e+00 6.613350e+00 -8.858469e+00 -1.517007e+00 -1.346822e+01 -9.204070e+00 9.902846e-01 2.898959e-01 1.186934e-01 5.409948e-01 -7.022104e-02 -3.160305e-01 2.493455e-01 -3.126780e-01 -3.507608e-01 1.602156e+00 -1.747432e-02 -1.092903e-01 8.066176e-01 -6.828821e-03 
7.788282e+00 -1.413035e+01 -3.799646e+00 -8.279061e+00 -2.881070e+00 -2.818758e+00 -2.838907e+00 6.076108e+00 -8.184180e+00 -2.338929e+00 -1.454067e+01 -8.723126e+00 9.862909e-01 1.500289e-01 3.372202e-01 1.871327e-01 -5.621049e-01 -4.232196e-01 -5.919853e-01 -4.137539e-01 -7.574691e-01 8.745072e-01 -1.337694e-01 -7.556375e-01 4.956671e-01 -1.316062e-02 
7.275626e+00 -1.466289e+01 -4.094216e+00 -1.061200e+01 -4.629808e+00 -4.255663e+00 -4.569130e+00 4.054322e+00 -9.134545e+00 -3.048407e+00 -1.693839e+01 -9.579474e+00 9.702175e-01 3.485785e-02 4.154997e-01 -3.469195e-01 -1.046036e-01 -8.534080e-01 -1.017445e+00 -4.817173e-01 -1.055322e+00 9.449580e-01 -4.929770e-01 -1.196575e+00 4.986073e-01 -1.638230e-02 
7.982656e+00 -1.356499e+01 -3.419708e+00 -1.176485e+01 -2.819566e+00 -5.765804e+00 -4.309231e+00 4.044200e+00 -7.903617e+00 -2.456610e+00 -1.775029e+01 -8.466584e+00 9.442304e-01 2.034170e-01 6.006120e-01 1.396386e-01 1.124573e-01 -1.603122e-01 -4.627646e-01 1.679821e-02 -5.977052e-01 1.512723e+00 1.021467e-01 -3.385197e-01 8.722418e-01 -1.671585e-02 
7.950867e+00 -1.184364e+01 -5.997382e+00 -7.220730e+00 -5.807886e+00 -5.286179e+00 -4.020872e+00 2.352695e+00 -4.273960e+00 -3.923051e+00 -1.784628e+01 -6.839304e+00 9.294033e-01 3.777824e-01 3.782740e-01 5.235655e-01 3.811258e-01 -1.847503e-01 -3.866119e-02 2.584051e-01 -3.662779e-01 1.621469e+00 6.204576e-01 -1.298109e-01 8.751965e-01 -1.424317e-02 
8.467747e+00 -1.253691e+01 -2.149870e+00 -9.412412e+00 -3.093592e+00 -4.617323e+00 -3.029045e+00 3.938395e+00 -3.050858e+00 -1.390873e+00 -1.577932e+01 -5.732003e+00 9.231188e-01 1.935482e-01 2.724491e-01 3.820251e-01 3.857592e-01 -5.639846e-01 3.543959e-01 2.161613e-02 -2.666010e-01 1.139263e+00 6.313814e-01 3.834726e-01 3.190554e-01 -1.267770e-02 
8.921993e+00 -1.328556e+01 -2.111307e+00 -9.882593e+00 -5.416547e+00 -5.023210e+00 -3.917198e+00 2.275836e+00 -3.453580e+00 -4.789872e-01 -1.857293e+01 -6.570783e+00 9.095575e-01 -9.333241e-03 3.008645e-01 3.981415e-01 -6.082276e-01 -3.612943e-02 -6.638765e-02 -2.975803e-01 -6.472608e-01 6.275790e-01 5.819286e-01 4.406485e-01 -4.108720e-01 -1.282913e-02 
8.464834e+00 -1.148179e+01 -3.452620e+00 -8.505122e+00 -5.835158e+00 -4.125309e+00 -4.252987e+00 2.749625e+00 -2.617494e+00 -1.021735e+00 -1.546961e+01 -7.005568e+00 8.907648e-01 -1.319481e-01 7.292804e-01 -4.443263e-01 7.283373e-02 -1.550442e-01 -5.135242e-01 -3.883007e-01 -9.129769e-01 2.663959e-01 9.809338e-01 1.664841e-01 -6.350794e-01 -1.420333e-02 
7.905657e+00 -1.086688e+01 -3.355299e+00 -1.071551e+01 -4.617750e+00 -5.864123e+00 -4.896802e+00 -2.892249e-01 -1.352747e+00 -1.197978e+00 -1.579790e+01 -8.256882e+00 8.814346e-01 -2.405141e-01 9.183920e-01 -3.461753e-01 1.296185e-01 5.088302e-01 -8.285772e-01 -4.791308e-01 -7.293196e-01 8.293531e-02 1.587363e+00 4.321341e-01 -2.101166e-01 -1.184579e-02 
8.316174e+00 -1.009985e+01 -3.749506e+00 -8.631783e+00 -4.268211e+00 -6.764487e+00 -4.480747e+00 6.560405e-01 -2.769296e+00 3.873291e+00 -1.633441e+01 -8.064350e+00 8.661636e-01 -4.403634e-02 7.689177e-01 5.781798e-02 1.967625e-01 1.831048e-01 -3.444963e-01 -6.651852e-01 -8.842332e-01 3.300769e-02 2.250839e+00 5.799410e-01 -1.337503e-01 -1.089176e-02 
7.793753e+00 -9.384566e+00 -3.693741e+00 -9.171170e+00 -3.655869e+00 -7.846506e+00 -6.198973e+00 -3.239698e-01 -2.963003e+00 5.010314e+00 -1.597986e+01 -7.091975e+00 8.626292e-01 2.428318e-01 7.702052e-01 4.244556e-01 4.244320e-01 5.542288e-02 4.774272e-01 -9.517221e-01 -3.474506e-01 3.053759e-01 2.586398e+00 1.169617e+00 5.716460e-01 -1.261925e-02 
8.300605e+00 -8.378357e+00 -2.994309e+00 -8.293481e+00 -5.400575e+00 -4.856600e+00 -6.927828e+00 -1.654168e+00 -1.647328e+00 7.128311e+00 -1.247892e+01 -8.256773e+00 8.457087e-01 5.069481e-01 6.835907e-01 7.384859e-01 9.060288e-03 2.343787e-01 6.870372e-01 -1.184932e+00 -7.529262e-01 9.323457e-01 1.999873e+00 1.699484e+00 7.364079e-01 -1.470875e-02 
9.127601e+00 -7.876601e+00 -1.610620e+00 -8.762504e+00 -3.774454e+00 -4.430931e+00 -8.431872e+00 -8.713732e-01 -3.868512e-01 1.010650e+01 -1.187756e+01 -5.302440e+00 8.285658e-01 7.073486e-01 4.956826e-01 8.504046e-01 -1.974675e-01 -2.375093e-01 6.070991e-01 -1.067031e+00 -6.864679e-01 3.895837e-01 1.942087e+00 1.701593e+00 1.133755e+00 -1.668838e-02 
1.018399e+01 -7.435878e+00 -1.098637e+00 -8.790815e+00 -3.037025e+00 -5.037089e+00 -9.288959e+00 -2.834889e+00 6.043569e-01 1.132456e+01 -9.888140e+00 -5.277078e+00 8.096516e-01 7.741811e-01 6.829022e-01 3.167355e-01 -6.859894e-02 -1.202657e+00 7.255410e-01 -1.431524e+00 -7.885023e-01 -4.976606e-01 1.294461e+00 1.859252e+00 1.316410e+00 -1.683188e-02 
1.038880e+01 -7.377393e+00 -3.895545e-01 -9.909841e+00 -6.025190e+00 -4.720766e+00 -1.035356e+01 -3.165949e+00 -2.140927e+00 1.262262e+01 -8.767283e+00 -2.913045e+00 7.972159e-01 6.940639e-01 1.108165e+00 3.294539e-02 4.218584e-01 -2.199939e+00 1.187645e+00 -9.024021e-01 -1.493937e+00 -9.460281e-01 7.192237e-01 2.892026e+00 6.306103e-01 -1.789740e-02 
1.154091e+01 -5.213450e+00 -2.021164e+00 -8.062807e+00 -1.028849e+01 -1.083977e+00 -1.312460e+01 -4.449392e+00 -3.258593e+00 1.234255e+01 -4.737801e+00 -2.869421e+00 7.772242e-01 7.439418e-01 1.471000e+00 -2.409643e-01 9.166943e-01 -2.456156e+00 2.225526e+00 -5.553684e-01 -1.992809e+00 -1.414533e+00 1.182103e-01 3.935737e+00 1.404780e-01 -2.208891e-02 
1.191946e+01 -3.446990e+00 -9.846287e-01 -7.017216e+00 -1.114842e+01 -4.692602e-01 -1.102606e+01 -7.533807e+00 -3.185517e+00 1.319362e+01 7.403135e-03 -3.353217e+00 7.552924e-01 7.612554e-01 1.709016e+00 -6.498151e-01 1.403612e+00 -1.346112e+00 3.285926e+00 -2.519792e-01 -2.769239e+00 -2.917272e-01 -1.490281e+00 4.670289e+00 -4.387091e-01 -3.095710e-02 
1.313837e+01 -2.046080e+00 -2.005921e+00 -5.653656e+00 -1.275619e+01 3.964787e+00 -1.172955e+01 -1.061500e+01 -5.946012e+00 1.163011e+01 5.403200e+00 -4.354602e+00 7.201688e-01 6.936607e-01 1.455154e+00 -3.576568e-01 6.605713e-01 3.172169e-02 2.808428e+00 4.793497e-01 -3.164964e+00 3.703161e-01 -2.571118e+00 3.314423e+00 1.597974e-02 -4.079003e-02 
1.339635e+01 -4.159958e-01 -3.646252e+00 -4.096357e+00 -1.152190e+01 9.184484e+00 -1.231098e+01 -1.392934e+01 -2.255853e+00 5.527437e+00 9.513660e+00 -4.364000e+00 6.709582e-01 9.131239e-01 1.870981e+00 -8.682154e-01 4.535655e-01 2.949896e-01 2.327883e+00 8.654348e-01 -3.321951e+00 7.491701e-01 -3.535077e+00 1.513510e+00 8.000840e-01 -4.704266e-02 
1.427077e+01 5.468249e-01 -2.478637e+00 -6.220380e+00 -9.943142e+00 8.131289e+00 -1.008539e+01 -1.707645e+01 -1.871844e+00 3.320057e+00 7.081183e+00 -2.284130e+00 6.154412e-01 8.013628e-01 2.289134e+00 -8.913589e-01 1.562748e+00 4.767164e-01 5.368906e-01 2.138826e+00 -1.631873e+00 -8.499376e-02 -4.326768e+00 -1.656932e-01 2.377601e+00 -5.930845e-02 
1.591888e+01 4.611461e+00 -5.089348e+00 -4.466026e+00 -1.108000e+01 9.086906e+00 -7.520968e+00 -2.091284e+01 -1.476750e+00 -3.267305e-01 6.735960e+00 -3.880328e-01 5.724429e-01 2.863371e-01 2.372892e+00 -1.461709e-01 2.152061e+00 9.300240e-01 5.334672e-01 3.210347e+00 -2.762517e-01 -1.423369e+00 -5.018217e+00 -2.320366e+00 1.742680e+00 -6.910499e-02 
1.588392e+01 6.885862e+00 -5.741167e+00 2.344918e+00 -1.059356e+01 6.698029e+00 -3.430428e+00 -1.528262e+01 -6.760532e+00 -7.076644e+00 5.963584e+00 5.545419e+00 4.728842e-01 -5.806014e-01 2.176932e+00 -1.641414e-01 2.527152e+00 2.418325e+00 1.038535e+00 3.228202e+00 1.486201e+00 -1.196991e+00 -5.629869e+00 -3.225755e+00 1.290650e+00 -7.334359e-02 
1.402146e+01 8.278947e+00 -2.745841e+00 2.381299e+00 -6.546567e+00 1.256845e+01 4.132676e-01 -1.620751e+01 -6.928353e+00 -1.436530e+01 -1.529371e+00 4.346229e-01 3.967117e-01 -1.686412e+00 1.091826e+00 9.099415e-01 2.137921e+00 3.876185e+00 5.603282e-01 3.239212e+00 2.818846e+00 -3.035113e-01 -4.367143e+00 -3.602423e+00 6.541179e-01 -8.301061e-02 
1.231647e+01 9.597740e+00 -4.471097e+00 2.991715e+00 -1.182318e-01 1.158319e+01 2.088502e+00 -1.199811e+01 -5.130997e+00 -1.781000e+01 -4.914927e+00 3.757793e+00 3.365889e-01 -2.149943e+00 4.332013e-02 1.088387e+00 7.921727e-01 3.770240e+00 -3.107985e-01 3.158230e+00 2.601069e+00 1.963949e+00 -1.775328e+00 -3.064888e+00 -1.152898e+00 -8.835621e-02 
9.270546e+00 8.714649e+00 -1.174675e+00 5.900180e+00 3.063264e+00 9.445965e+00 5.915625e+00 -8.460867e+00 -3.809074e+00 -1.679576e+01 -5.836903e+00 3.776370e+00 2.255375e-01 -2.170490e+00 -1.062997e+00 6.121377e-01 1.083921e-01 1.985204e+00 -1.401479e+00 2.817208e+00 2.770004e+00 2.140921e+00 1.475400e+00 -1.269887e-01 -9.187731e-01 -9.448094e-02 
7.509658e+00 6.884611e+00 -1.084813e+00 4.546341e+00 3.452723e+00 6.705278e+00 9.609544e+00 -6.150593e+00 1.499572e+00 -1.473805e+01 -7.207088e+00 -1.889947e+00 1.166902e-01 -1.816559e+00 -1.294901e+00 1.066147e+00 6.449038e-01 1.351844e+00 -4.170772e-01 1.424421e+00 1.800390e+00 1.692666e+00 2.548615e+00 2.482428e+00 -4.982461e-01 -8.588696e-02 
5.572415e+00 4.320529e+00 -1.378294e+00 2.145947e+00 1.593976e+00 8.000012e+00 1.073878e+01 -5.281249e+00 4.609680e-01 -8.524277e+00 -1.018233e+00 -1.335373e+00 3.425634e-02 -7.417063e-01 2.501217e-01 2.141046e+00 8.585476e-01 7.853402e-01 3.036194e-01 -1.739392e-01 2.423473e+00 2.917237e+00 3.601013e+00 2.529676e+00 1.154159e+00 -4.316637e-02 
5.082743e+00 5.320296e+00 9.614475e-01 8.093350e+00 7.375633e+00 1.022078e+01 6.799027e+00 -4.585969e+00 1.197314e+00 -9.202671e+00 5.087877e+00 3.822434e+00 2.794623e-03 -2.299114e-01 1.627133e+00 2.869889e+00 1.224879e+00 1.184401e+00 5.135350e-01 2.435400e-01 2.792328e+00 1.926699e+00 2.908811e+00 2.233726e+00 2.135820e+00 -1.020457e-02 
6.775472e+00 1.074742e+01 8.507423e+00 8.419413e+00 5.028510e+00 9.206309e+00 6.451188e+00 2.874186e+00 1.092824e+01 -1.558389e+00 6.639960e-01 6.690973e+00 6.665343e-02 -3.799438e-01 1.806385e+00 2.516149e+00 1.258332e+00 1.387588e+00 1.027353e-01 1.388388e+00 3.281626e+00 1.443903e+00 1.949819e+00 1.903934e-01 8.865069e-01 -1.288219e-02 
5.758573e+00 1.180683e+01 8.321774e+00 7.534001e+00 7.657462e+00 8.669806e+00 1.297104e+01 3.733330e+00 5.899431e+00 -3.676938e+00 3.120427e+00 4.775982e+00 4.946882e-02 -1.286767e+00 8.735279e-01 1.116039e+00 5.753481e-01 8.231241e-01 -2.898103e-01 1.554294e+00 2.741738e+00 -1.856112e-01 1.308169e+00 -1.303506e+00 -1.614006e+00 -3.692201e-02 
3.334782e+00 1.010918e+01 7.522287e+00 8.717282e+00 8.391001e+00 9.289179e+00 1.459472e+01 6.967231e+00 5.329424e+00 -1.538050e+00 9.174592e-01 2.620387e+00 -5.349171e-02 -2.204230e+00 -4.628170e-01 -1.010743e+00 7.143493e-02 -1.431897e-01 -6.570339e-01 5.154283e-01 1.368033e+00 -2.076221e+00 -6.399602e-01 -4.053140e-01 -2.512113e+00 -5.977402e-02 
3.692513e-01 1.000705e+01 7.034210e+00 1.082116e+01 9.810007e+00 8.730298e+00 1.049873e+01 7.076199e+00 3.068667e+00 -2.671994e+00 -1.556385e+00 -2.212305e+00 -1.217428e-01 -2.232869e+00 -1.108335e+00 -1.537949e+00 -9.188827e-01 -1.385763e+00 -1.162508e+00 -2.234144e+00 -1.504754e-01 -6.694812e-01 -1.690386e-01 5.047432e-01 -1.448431e+00 -4.946421e-02 
-1.551016e+00 9.333221e+00 4.097491e+00 7.133010e+00 3.236289e+00 5.890894e+00 1.026448e+01 8.042918e+00 1.962518e+00 -5.260662e+00 9.758321e-01 -2.375448e+00 -1.466109e-01 -1.924292e+00 -8.292290e-01 -1.296545e+00 -2.171952e+00 -2.085320e+00 -2.369176e+00 -3.182127e+00 -1.252866e+00 -2.468834e-01 1.658489e-01 1.954258e+00 1.174256e-01 -2.251518e-02 
-2.962872e+00 6.653139e+00 2.344424e+00 3.731724e+00 3.306002e+00 4.556408e+00 3.965436e+00 2.443110e+00 4.235477e+00 -2.660825e+00 5.614957e+00 3.174493e-02 -1.512927e-01 -1.486306e+00 -1.069535e+00 -9.319741e-01 -2.001828e+00 -2.061096e+00 -1.577165e+00 -1.703855e+00 -6.831521e-01 1.982050e-02 9.877259e-01 2.576679e+00 1.786249e+00 -6.378150e-03 
-4.620617e+00 7.639995e+00 3.384456e+00 1.402240e+00 1.216405e+00 -4.697578e-01 1.950731e+00 3.019445e+00 3.511602e+00 -7.143905e-01 7.103080e+00 2.085490e+00 -1.512927e-01 -1.000137e+00 -8.714839e-01 1.562152e-01 -5.049752e-01 -1.722272e-01 -9.159013e-01 -1.351919e+00 -6.822556e-01 -8.936737e-02 1.509269e+00 1.544287e+00 1.282150e+00 -9.363651e-04 
-5.527476e+00 5.505987e+00 2.730857e+00 3.677400e+00 5.144696e-01 4.024797e+00 6.136334e+00 6.172175e+00 2.393228e+00 -6.500721e-03 8.263388e+00 4.488469e+00 -1.512927e-01 -6.080317e-01 -6.595627e-01 -8.596361e-03 4.313693e-02 6.682333e-01 -1.076740e-01 -3.041881e-01 -4.917224e-01 1.975821e-02 1.049088e+00 1.180976e-01 9.594430e-01 0.000000e+00 
-5.269397e+00 5.549377e+00 4.685350e+00 4.635296e+00 3.770918e+00 1.577193e+00 2.419440e+00 2.767107e+00 2.436806e+00 9.585195e-01 7.373052e+00 1.806938e+00 -1.512927e-01 -3.805476e-01 -5.933922e-01 -5.554420e-01 -3.306943e-01 7.782836e-01 6.350323e-01 -1.323789e-01 -1.370555e+00 -4.208696e-01 1.005247e+00 -4.485870e-01 -3.351044e-01 0.000000e+00 
-5.678640e+00 4.400634e+00 1.650996e+00 2.330881e+00 5.369912e+00 2.994563e+00 2.210141e+00 1.106668e-01 4.871666e+00 1.748159e+00 6.070459e+00 4.968236e+00 -1.512927e-01 -2.137690e-01 8.640144e-02 -1.697316e-02 -6.766356e-01 -6.087798e-01 -2.429719e-01 6.766249e-02 -1.351062e+00 -3.306755e-01 -8.626461e-02 -9.775221e-01 -5.291136e-01 0.000000e+00 
-6.447773e+00 5.225710e+00 1.147177e+00 4.220285e-01 2.680102e+00 3.220521e+00 3.251933e+00 -8.025758e-01 1.680344e-01 3.434513e+00 5.956609e+00 1.700844e-01 -1.512927e-01 -3.032089e-01 2.754951e-01 2.360236e-01 -7.080765e-01 -1.622171e+00 -4.348591e-01 3.872092e-01 -7.373682e-01 -1.188517e-02 -4.761034e-01 -6.666081e-02 8.392757e-01 0.000000e+00 
-6.007133e+00 6.099828e+00 4.415078e+00 2.400856e+00 -1.984021e+00 1.988274e+00 6.058400e+00 1.201705e+00 1.874236e+00 -1.675820e+00 4.083998e+00 2.661328e+00 -1.512927e-01 -2.006872e-01 2.237409e-01 8.352090e-01 3.668737e-01 -1.795822e+00 -1.251934e+00 -7.342849e-01 -4.735735e-02 5.422298e-01 -2.456161e-01 4.137340e-01 -3.823890e-01 0.000000e+00 
-6.621195e+00 6.077256e+00 4.483428e+00 1.059926e+00 -6.629720e-01 -9.395838e-02 2.431356e+00 -1.465252e+00 3.876095e+00 2.899926e-01 8.032978e+00 7.156770e+00 -1.512927e-01 6.015701e-02 -1.406827e-01 2.278357e-01 3.416057e-01 -3.411590e-01 -1.591089e+00 -1.094327e+00 7.172438e-01 7.640284e-01 -4.464609e-01 -4.134319e-01 2.838587e-01 0.000000e+00 
-6.595366e+00 5.093566e+00 4.158916e+00 3.846300e+00 -1.937661e+00 -1.607869e+00 -1.050995e+00 2.052183e-01 5.728785e+00 2.092339e+00 7.100945e+00 -4.370515e-01 -1.512927e-01 -3.022895e-01 -3.945127e-01 -2.935605e-01 3.115360e-01 6.677900e-02 -1.362976e+00 -1.145048e+00 -2.360689e-01 -3.904693e-01 5.134407e-01 2.937018e-01 -1.904367e-01 0.000000e+00 
-5.852872e+00 5.025428e+00 2.414436e+00 1.407335e+00 9.511261e-01 -2.936850e+00 1.334993e+00 3.281886e+00 2.060902e+00 -6.818713e-01 2.380976e+00 3.138568e+00 -1.512927e-01 -8.346748e-02 -7.379349e-02 -5.446077e-01 2.894552e-01 1.103102e-01 -2.947968e-01 -4.688043e-01 -1.597517e-01 -9.568462e-01 -1.851588e-01 -5.349345e-01 -1.127750e-01 0.000000e+00 
-7.902742e+00 4.653179e+00 3.981771e+00 3.784832e+00 -2.457175e+00 -3.405158e+00 8.813412e-01 -2.352209e+00 8.294859e-01 1.377315e+00 8.378509e+00 3.718246e+00 -1.512927e-01 -1.095048e-01 -1.503639e-01 -8.539345e-01 -6.371049e-01 3.197171e-01 7.351590e-01 -2.128412e-01 -5.605211e-01 -1.902020e-01 -4.403311e-01 -4.556070e-01 1.111523e+00 0.000000e+00 
-6.384844e+00 5.928482e+00 1.848961e+00 2.537937e+00 1.483364e-01 -6.692979e-01 -8.788333e-01 -9.852976e-01 1.541513e+00 -2.782898e-01 4.719523e+00 4.515246e+00 -1.512927e-01 -1.446552e-01 -2.449748e-02 -3.814809e-01 -7.205790e-01 2.589714e-01 1.216731e+00 -4.221948e-01 -4.868790e-01 1.614264e+00 1.644810e-01 2.338321e-01 5.459323e-01 0.000000e+00 
-6.876904e+00 3.890219e+00 1.719804e-01 9.547472e-02 6.231976e-02 9.341506e-01 -1.008288e+00 -4.637952e-01 5.037469e+00 -3.111074e-01 3.653636e+00 4.432222e+00 -1.512927e-01 1.988922e-01 2.148417e-01 -2.854677e-01 -9.393238e-01 1.187989e+00 1.124346e+00 4.972680e-02 8.336024e-01 1.675914e+00 2.532440e-01 4.979483e-02 -3.478457e-01 0.000000e+00 
-7.089067e+00 5.284421e+00 2.411927e+00 -3.508818e-01 9.862356e-01 9.771502e-01 1.688340e-01 -9.671557e-02 8.028229e+00 9.847448e-01 5.912573e+00 5.511241e+00 -1.512927e-01 -7.913990e-02 -4.724145e-01 -1.808736e-01 -3.433022e-01 8.619045e-01 2.088573e-01 -6.837357e-01 1.223042e-01 5.228993e-01 4.233383e-01 2.164790e-01 -5.133277e-01 0.000000e+00 
-6.556170e+00 6.049418e+00 2.272949e+00 5.326221e-01 3.063821e+00 1.393350e+00 6.061416e-01 1.371513e+00 5.965697e+00 2.012018e+00 8.030958e+00 1.481019e+00 -1.512927e-01 -1.311678e-01 -3.010723e-01 3.972831e-01 1.201024e-01 2.940501e-01 -4.897161e-01 -4.039662e-01 -1.419673e-01 -7.474639e-01 1.462460e-01 7.969110e-01 -6.442206e-01 0.000000e+00 
-6.940910e+00 2.486810e+00 -1.058912e-01 6.028523e-01 2.957108e+00 1.453891e-01 -5.104727e+00 -1.291430e+00 3.691896e+00 6.768394e-01 3.613257e+00 3.424209e+00 -1.512927e-01 -2.086159e-01 -5.267271e-01 3.155111e-01 8.265009e-02 -3.394891e-01 -6.643298e-01 -2.117826e-01 -2.906905e-01 -1.161721e+00 -2.259282e-01 6.507441e-01 -5.739597e-01 0.000000e+00 
-7.606821e+00 3.783663e+00 3.417305e+00 2.191198e-01 5.471337e-01 -1.098549e+00 -3.913388e-01 -5.762746e-01 3.468316e+00 5.740752e-01 8.787848e+00 2.254635e+00 -1.512927e-01 -2.767214e-01 -3.234658e-01 5.811907e-01 -1.010737e-01 -7.443350e-01 -6.227736e-01 2.718427e-01 -3.180419e-01 -5.218341e-01 -2.978649e-01 6.688371e-01 3.776567e-02 0.000000e+00 
