-5.903567e+00 -1.382467e-02 -5.184760e+00 -3.995140e+00 3.793029e+00 -9.479769e-01 4.814866e-01 7.664716e-01 -3.207866e-01 3.637413e+00 1.193733e+00 -2.205834e-01 3.471392e-02 1.499235e-01 6.807159e-01 1.384188e+00 3.203996e-01 -2.463376e-01 5.446911e-01 1.141079e+00 -1.267332e-01 1.153548e+00 6.413521e-01 2.005247e-01 8.818336e-01 -7.410258e-03 
-5.218652e+00 1.871884e+00 -2.680141e+00 -1.591259e+00 5.208353e+00 6.736393e-01 5.349660e+00 3.145527e+00 1.746183e+00 5.832379e+00 2.902581e+00 2.972955e+00 1.906013e-02 2.019815e-01 9.943074e-01 1.158065e+00 -1.299666e-02 1.050402e-01 2.430125e-01 3.420564e-01 -4.575695e-01 1.011552e+00 7.126001e-01 5.068817e-01 7.416236e-01 -3.154624e-03 
-5.496408e+00 2.446901e+00 4.838685e-01 -3.595082e+00 1.853678e+00 9.646703e-01 3.752795e+00 -1.056722e+00 4.413470e+00 5.746690e+00 1.341932e+00 2.591815e+00 5.489528e-03 1.191370e-01 4.169913e-01 5.211553e-01 2.916030e-01 4.264360e-01 -5.181557e-02 -8.930117e-01 -7.211398e-01 -5.894965e-02 8.499845e-01 6.728000e-01 1.200190e-02 -5.073810e-03 
-5.097239e+00 3.727350e+00 -2.228747e+00 -4.260152e+00 5.287905e+00 -6.892378e-01 5.561142e-01 -6.097791e-01 2.369843e+00 6.145774e+00 3.654042e+00 2.081335e+00 3.355300e-02 8.109665e-03 -1.351973e-01 -1.933065e-01 -4.330366e-01 -1.738262e-01 -3.718289e-01 -1.014929e+00 -5.141224e-01 -7.305232e-01 2.878878e-01 -2.223339e-01 -7.345906e-01 -8.805335e-04 
-5.368588e+00 1.143399e+00 -2.804680e+00 -1.202678e+00 5.885433e+00 -5.256162e-01 -1.586799e+00 -9.615746e-01 -9.273651e-01 7.730638e+00 4.182002e+00 2.852356e-01 2.098441e-03 -7.247257e-02 -6.459216e-01 -8.712527e-01 -2.986721e-01 3.077669e-01 -6.523186e-02 5.843266e-01 8.982319e-01 -4.170093e-01 -1.169586e+00 -9.586479e-01 -6.645516e-01 -2.535069e-03 
-5.242013e+00 1.847648e+00 -2.002399e+00 -4.952644e+00 2.323345e+00 -4.403616e-01 2.944814e+00 5.273408e-01 7.639843e-01 6.279844e+00 3.708761e-01 4.532912e-01 1.635301e-02 -3.429376e-01 -8.151375e-01 -7.353176e-02 -2.721490e-01 -5.090749e-01 4.826775e-01 1.735039e+00 1.606011e+00 -2.955137e-01 -1.667703e+00 -9.250784e-01 2.203092e-01 -3.379679e-03 
-5.786384e+00 1.571434e-01 -3.985569e+00 -4.742197e+00 4.874793e+00 5.140729e-01 5.480078e+00 2.865877e+00 3.131354e+00 -1.682738e-01 -1.809725e+00 8.307958e-02 1.414180e-03 -2.458048e-01 -1.938771e-02 -4.135962e-01 -1.153046e+00 -3.235898e-01 2.602786e-01 4.799740e-01 1.018921e+00 8.360000e-01 -1.210843e+00 -9.079736e-01 1.869247e-01 4.379642e-03 
-6.603030e+00 1.447906e-01 -2.005961e+00 -3.851138e+00 3.247850e+00 1.204305e+00 5.697869e+00 5.506550e+00 -1.137085e+00 1.756715e+00 2.024513e+00 3.283959e+00 1.699674e-02 -1.288504e-01 -1.367316e-01 -4.267217e-01 -2.038104e-01 -8.653877e-01 -8.477411e-01 -1.511003e+00 -6.397158e-01 5.081275e-01 1.960545e-02 -5.107969e-01 -7.516443e-01 2.824706e-03 
-5.917104e+00 1.897889e+00 -4.870880e+00 -7.518662e+00 3.805231e+00 -4.655656e-02 -5.634561e-01 1.643427e+00 4.203169e+00 3.937988e+00 -1.184685e+00 -1.954749e-01 2.367479e-02 -6.029529e-02 1.069510e-01 -7.632592e-02 1.819108e-01 -5.565204e-01 -1.238287e+00 -1.278578e+00 -1.285762e+00 2.539710e-01 6.612210e-01 -1.342112e-01 -4.470419e-01 6.758368e-03 
-5.820905e+00 2.936172e-01 -3.693352e+00 -4.583464e+00 -1.468813e+00 -4.398753e+00 -1.588435e+00 -2.060013e+00 2.768714e+00 4.324741e+00 -2.495629e+00 -3.165653e+00 1.934624e-02 2.466967e-01 1.124089e-01 -5.744679e-02 1.358679e-01 4.864992e-01 -2.939365e-01 -1.855835e-01 -5.315889e-01 -2.537985e-01 -7.417612e-01 1.404312e-01 -1.610494e-03 -9.231627e-04 
-6.478923e+00 6.174850e-01 -3.523503e+00 -3.466480e+00 4.450522e+00 -2.875832e+00 2.730339e+00 2.203486e-01 2.448309e+00 1.853818e+00 -2.207096e-01 1.072676e+00 3.403127e-02 1.754499e-01 -8.891438e-02 2.141089e-01 1.028745e+00 9.115347e-01 5.286415e-01 8.166226e-01 -2.166324e-01 -1.064609e+00 -8.464031e-02 1.772505e+00 9.654673e-01 -2.169365e-03 
-5.088637e+00 1.347037e+00 -2.966884e+00 -5.197889e+00 5.357700e+00 1.149261e+00 3.123054e+00 3.560145e+00 -1.528647e+00 -9.100059e-01 2.244682e+00 2.641831e+00 7.202685e-03 -1.063404e-02 4.687638e-01 1.730277e-01 9.558216e-01 1.321322e+00 1.229167e+00 8.758353e-01 5.631367e-01 4.591079e-01 2.642050e-01 5.863658e-01 7.481750e-01 3.389746e-03 
-5.405988e+00 9.266071e-01 -4.163569e+00 -2.067723e+00 4.949647e+00 -1.773558e-01 1.163912e+00 -2.249814e+00 1.028804e+00 6.132160e+00 5.307687e+00 1.728119e+00 1.889974e-02 -1.948088e-01 9.668849e-02 2.219224e-01 -1.916647e-02 -5.849651e-03 1.046474e+00 -5.636240e-01 4.250833e-01 1.123330e+00 5.045538e-02 -5.544060e-01 -3.358620e-01 1.731837e-03 
-6.410542e+00 2.482875e+00 -2.508180e+00 -5.037341e-01 4.888235e+00 3.978457e-01 3.573955e+00 1.990752e+00 5.774006e+00 3.506595e+00 -2.327999e+00 2.474999e-01 4.386073e-02 -1.847792e-01 -5.384648e-03 3.217964e-01 -3.313472e-01 -1.072199e+00 3.124239e-01 -6.828420e-01 -4.969333e-01 1.072977e+00 1.032298e-01 -3.751466e-01 -3.628671e-01 2.206135e-03 
-6.792014e+00 5.330084e-01 -2.643243e+00 -5.909389e+00 4.656007e+00 2.732248e+00 -3.132317e-01 3.130462e+00 4.413635e+00 -1.022054e-01 -7.063992e-01 5.905316e-01 2.436143e-02 1.715595e-01 4.009939e-02 5.404425e-01 -2.759063e-01 -4.792281e-01 1.599237e+00 6.120579e-01 3.538987e-01 1.732028e-01 2.486181e-03 8.370255e-01 5.089480e-01 -6.385088e-04 
-5.319520e+00 1.516913e+00 -2.118065e+00 -4.933792e+00 1.435280e-01 1.256578e+00 4.474156e-01 -1.614660e+00 2.143824e+00 2.723326e+00 3.375992e+00 1.396289e+00 1.550251e-02 2.767336e-01 -6.298466e-02 4.522327e-01 6.002105e-01 1.261232e-01 7.581848e-01 1.067535e+00 5.275695e-02 -3.141181e-01 2.926452e-01 1.651772e+00 7.251716e-01 -3.087020e-03 
-5.093701e+00 1.610085e+00 -1.656414e+00 -1.232226e+00 4.925861e+00 7.389463e+00 5.787471e+00 1.322386e+00 3.709909e+00 6.536225e+00 6.640819e+00 3.698465e+00 2.988631e-02 4.520682e-01 9.283844e-01 5.702527e-01 1.479998e+00 6.263182e-01 -4.687351e-02 2.128222e+00 1.570195e+00 3.296928e-01 -1.794990e-01 -1.333657e-01 7.654266e-01 4.829371e-03 
-5.876031e+00 1.629413e+00 -7.404308e-01 1.587367e-01 5.383924e+00 1.860162e+00 5.861277e+00 3.158575e+00 4.555279e+00 1.650606e+00 2.257252e+00 2.319391e+00 2.566320e-02 4.105950e-01 7.103885e-01 3.633947e-01 1.041380e+00 9.232926e-01 -1.273049e+00 -1.898369e-01 1.645921e+00 9.042344e-01 -4.997551e-01 -1.330899e+00 7.099472e-01 9.309774e-03 
-4.253418e+00 5.118680e+00 -4.807963e-01 -1.055662e+00 5.167399e+00 2.196088e+00 7.620948e+00 8.594819e+00 4.856371e+00 -4.633404e-01 -8.138574e-01 3.956114e+00 4.342794e-02 3.245727e-01 4.315474e-01 -3.821626e-02 -9.246516e-02 -4.874112e-01 -2.754576e+00 -1.342077e+00 2.527843e-01 4.087915e-01 7.517429e-02 -1.343717e+00 1.295063e-01 8.338511e-04 
-3.686687e+00 3.314558e+00 -8.889001e-01 1.848264e-01 4.639222e+00 -2.511981e+00 -1.418508e+00 2.978731e+00 6.091765e+00 3.724334e+00 4.488380e-01 4.817201e+00 5.528057e-02 9.418487e-04 -2.567449e+00 -6.400401e-01 -1.572371e-01 7.991410e-01 -1.251271e-01 -1.790887e+00 -6.195522e-01 -7.312254e-01 -1.094192e+00 -7.860997e-01 1.615622e-01 4.134291e-02 
-4.565510e+00 2.925250e+00 -1.773261e+00 -1.707596e+00 2.861156e+00 -4.197347e+00 2.716978e+00 2.676229e+00 4.985623e+00 5.875233e+00 8.264410e-01 3.097091e+00 1.924688e-02 -1.203573e+00 -4.299012e+00 -7.266371e-02 -4.609521e-01 1.310913e+00 1.576850e+00 -2.613782e+00 -1.410900e+00 -1.503641e+00 -2.419902e+00 -5.501773e-01 3.895659e-01 1.037485e-01 
-5.715276e+00 -1.011112e+01 -3.294399e+00 -3.014812e-01 1.053275e+01 4.431244e+00 -6.411710e-01 3.020109e+00 8.345262e-01 -6.989640e+00 -2.493396e+00 3.556713e+00 2.444683e-01 -3.304947e+00 -9.167538e-01 1.499769e+00 -2.916071e+00 1.552580e+00 1.862848e+00 -5.384400e-01 -3.370127e-01 -6.928015e-01 -2.627704e+00 1.231823e+00 -1.359539e+00 1.408024e-01 
-9.256989e+00 -9.663545e+00 3.586346e-01 -3.117269e+00 8.775200e+00 6.608725e+00 -5.836633e+00 1.519632e+00 -3.321612e-02 -7.205865e+00 -2.093627e+00 6.534187e+00 4.675764e-01 -3.278136e+00 2.377642e+00 1.804155e+00 -3.960571e+00 1.618954e+00 1.360610e+00 1.559756e-01 1.314341e+00 1.181302e+00 -1.291674e+00 2.482770e+00 -2.318794e+00 1.044421e-01 
-1.786568e+01 5.025187e+00 5.543997e+00 -1.369069e+01 9.445099e+00 1.399221e+00 1.660976e-01 1.871966e+00 5.137177e+00 -2.873638e+00 8.067988e+00 -3.699042e+00 5.351276e-01 -6.782564e-01 4.301878e+00 7.749280e-01 -2.081712e+00 -1.048812e+00 -7.966491e-01 1.994492e+00 2.079780e+00 1.215907e+00 2.531799e+00 1.902152e+00 -8.472667e-01 -4.081043e-02 
-1.488098e+01 7.245309e+00 2.828314e+00 -1.481584e+01 1.149975e+01 4.121716e+00 3.093221e+00 9.822007e+00 8.740808e+00 -2.641139e+00 7.959599e+00 -4.868999e+00 3.961277e-01 1.948894e+00 2.262847e+00 -1.062805e+00 4.649965e-01 -1.311338e+00 -5.439445e-01 2.558428e+00 1.751390e+00 1.659904e+00 2.475905e+00 -5.022771e-01 4.943338e-01 -1.307223e-01 
-6.294560e+00 2.943847e+00 -6.545991e-01 -4.860754e+00 3.926417e+00 1.691503e+00 4.866360e+00 9.267819e+00 2.527050e+00 3.386990e+00 1.990753e+00 5.021973e+00 7.614046e-02 2.513421e+00 -1.306698e+00 -1.195840e+00 2.767897e+00 -2.258165e+00 1.943291e+00 -4.678788e-01 1.020018e+00 1.563816e+00 2.310320e+00 -2.110889e+00 1.693459e+00 -9.459488e-02 
-5.298081e+00 2.691362e+00 -1.856090e+00 -5.207256e+00 4.977849e+00 3.742862e+00 4.605373e+00 6.578657e+00 9.571365e+00 2.043347e+00 -1.566395e+00 4.645349e+00 4.345834e-02 1.076920e+00 -1.287809e+00 -1.714501e-01 1.977170e+00 -2.315708e+00 1.224920e+00 -1.240777e+00 -8.061135e-01 7.765849e-01 1.359388e+00 -1.351002e+00 5.321177e-01 -3.977425e-02 
-1.009003e+01 7.686706e-01 1.906999e+00 -4.655502e+00 1.415227e+00 1.130510e+01 -2.929372e+00 8.593733e+00 1.254098e+01 6.335719e+00 2.276538e+00 1.107860e-02 2.384879e-01 1.014152e+00 -1.412683e+00 6.120539e-01 -4.619670e-01 -3.782368e+00 -1.462132e+00 -2.822052e+00 -1.014093e+00 4.050741e-02 -6.311805e-01 -9.280642e-01 -1.888511e+00 4.621945e-02 
-7.598653e+00 1.893855e+00 6.902646e-01 -5.032618e+00 1.176808e+00 5.439517e+00 7.872007e-01 6.128483e+00 7.616766e+00 2.681438e+00 1.061695e+00 2.970366e-01 1.160827e-01 2.033917e+00 -1.735761e+00 3.787027e-01 -8.784760e-01 -5.807397e+00 -4.561782e+00 -3.674294e+00 -1.012111e+00 -1.856495e+00 -1.115893e+00 -1.138848e+00 -1.739479e+00 5.938394e-02 
-7.351589e-02 -3.720817e+00 1.132493e+00 -7.257909e+00 -1.308490e+01 -6.467484e+00 -7.334813e+00 4.422440e+00 3.706886e+00 -8.795795e-02 -3.963613e+00 -2.246424e+00 2.709255e-01 1.956897e+00 1.175012e-01 -5.209207e-01 -4.785334e-01 -2.526706e+00 -3.775820e+00 -1.615808e+00 -2.858006e+00 -2.620809e+00 -4.615308e-01 -3.596284e-01 1.202811e+00 -8.707369e-03 
-1.367512e-01 -3.742700e+00 4.246768e-01 -8.298433e+00 -1.680907e+01 -1.017976e+01 -1.156338e+01 3.603749e+00 4.705939e+00 -3.242810e-01 -4.140559e+00 -2.923293e+00 3.241592e-01 6.118002e-02 1.079866e+00 -2.348712e-01 7.217331e-01 2.279289e+00 5.438005e-01 1.181166e+00 -2.703746e+00 -2.021959e+00 1.643876e+00 1.087337e+00 6.810266e-01 -3.833784e-02 
-4.036491e+00 4.174454e+00 -5.648106e-01 -5.415262e+00 -2.225363e+00 2.356365e-01 -4.833122e+00 -4.433931e+00 8.923486e-01 5.530924e+00 3.079523e+00 7.635300e+00 9.091282e-02 -1.529399e+00 1.787097e+00 -7.927198e-01 1.381864e+00 5.983362e+00 2.626362e+00 3.305327e+00 -6.429716e-01 2.979302e-01 2.421626e+00 1.992698e+00 7.526088e-01 -8.319475e-02 
-5.311265e+00 3.345550e+00 3.645605e-01 -2.345276e+00 7.143485e+00 4.806959e+00 5.442184e+00 -2.962063e+00 -1.085759e+00 8.091378e+00 2.976815e+00 -1.238692e+00 1.439989e-02 -1.119359e+00 1.023103e+00 -4.091180e-01 1.646838e+00 5.385540e+00 1.824879e+00 3.522398e+00 3.381349e-01 -1.583004e-03 1.312907e+00 1.422484e+00 -4.813433e-02 -6.741073e-02 
-5.133252e+00 1.670543e+00 -2.801048e+00 -3.325165e+00 4.855630e+00 -8.290327e-01 6.890402e-01 4.490489e+00 8.092385e+00 7.812340e+00 2.441189e+00 6.743188e-01 9.831429e-03 -3.339012e-01 -3.016963e-01 -2.582452e-01 9.710926e-01 1.623832e+00 -6.660620e-01 8.005732e-01 1.586161e+00 4.701794e-01 -4.830369e-01 3.219748e-02 -9.466642e-01 -1.125951e-02 
-5.185168e+00 2.624769e+00 -5.027946e-01 -1.109293e+00 6.578135e+00 -5.230281e-01 3.287529e+00 8.322140e-01 1.098006e+00 5.099544e+00 3.291027e+00 3.165252e-01 2.764624e-02 -1.424086e-01 1.024702e-02 5.665551e-01 3.553293e-02 -9.657804e-01 -1.007159e+00 -1.019785e+00 8.486805e-01 9.870814e-01 -5.992080e-01 -1.492062e+00 -6.491281e-01 7.937831e-03 
-5.769046e+00 3.026363e+00 -1.422359e+00 -1.177790e+00 6.176473e+00 -4.296798e-01 2.470722e-01 1.599733e+00 2.151364e+00 4.611657e+00 3.083404e+00 2.124369e+00 2.799207e-02 -6.852894e-02 -1.356902e-01 1.021900e+00 -3.770680e-01 -1.119118e+00 9.120381e-01 8.810812e-01 -5.937394e-01 -5.523793e-01 -3.520161e-01 -1.654395e+00 -1.045421e+00 5.191946e-03 
-5.705411e+00 2.718875e+00 2.507992e+00 -3.241299e+00 1.654161e+00 -4.285118e-01 5.642450e-01 2.726716e+00 6.820159e+00 6.695680e+00 -4.804605e+00 -5.209357e+00 4.500872e-02 4.377537e-02 -4.814474e-01 -3.572714e-01 -1.248755e+00 -1.304181e+00 6.126065e-02 1.288021e+00 1.249271e+00 2.226384e-02 4.807797e-01 1.635765e-01 -4.989097e-01 -1.869226e-03 
-5.215775e+00 9.450391e-01 8.030597e-01 -4.144502e+00 1.722025e+00 3.683900e+00 6.456088e+00 5.745405e-01 2.469412e+00 5.254191e+00 -1.782970e+00 -1.789847e+00 2.710992e-02 1.320513e-01 -9.252641e-01 -1.450995e+00 -1.735513e+00 -1.522609e+00 -1.761310e-01 2.202048e+00 1.768472e+00 -1.178210e+00 5.543818e-01 2.217057e+00 4.656105e-01 -4.266310e-03 
-5.242927e+00 1.258194e+00 -3.401861e+00 -5.869710e+00 2.284452e+00 -2.273515e+00 6.623127e+00 7.591167e+00 1.050301e+00 7.182175e+00 6.542096e+00 -2.209151e-01 1.874119e-02 3.227421e-01 -1.903597e-01 -1.435690e+00 -8.692538e-01 -6.219544e-01 -1.258563e+00 1.120166e-01 -1.805248e-01 -1.419783e+00 1.139380e-01 2.699035e+00 1.235464e+00 -7.271671e-03 
-5.340032e+00 -8.696167e-01 -5.722408e+00 -8.541149e+00 -1.751715e+00 -3.878334e-01 8.227871e+00 8.009869e+00 -8.547555e-01 7.140318e+00 8.495339e+00 1.958201e+00 1.979429e-02 3.543720e-02 1.392178e-01 -8.441073e-01 -7.382611e-01 -3.961070e-02 -1.297785e+00 -1.569871e+00 -1.996978e+00 -4.279311e-01 -5.911483e-01 2.051179e-01 2.958258e-01 -3.313303e-03 
-4.029572e+00 2.674404e+00 -1.407726e+00 -5.389244e+00 2.812591e-01 -4.685463e+00 2.384367e-01 -1.893572e+00 1.383330e+00 6.322306e+00 3.551417e+00 -9.060626e-01 1.230818e-02 -3.088781e-01 -2.518124e-01 2.004144e-01 2.894755e-01 -3.230287e-01 -1.542821e-01 -2.266345e+00 -3.261909e+00 5.199066e-01 -1.065989e+00 -1.938943e+00 -4.257351e-01 3.707647e-04 
-5.645267e+00 9.330229e-01 -4.414545e+00 -8.076041e+00 2.525568e+00 -1.599050e+00 1.799076e+00 -4.667982e+00 1.632420e-01 2.728384e+00 7.379596e-01 3.185582e-02 1.375991e-02 -3.870276e-01 1.563873e-01 5.985807e-01 8.389682e-01 4.088221e-01 -4.217815e-01 -4.774931e-01 -1.219819e+00 1.351314e+00 -1.074901e+00 -2.123912e+00 -6.089851e-01 2.372038e-03 
-6.634700e+00 -9.021880e-01 -3.053721e+00 -4.654887e+00 -1.469333e+00 -2.439317e+00 -1.494200e+00 -2.379450e+00 3.140835e+00 4.058199e+00 7.260697e-01 -1.386418e+00 2.361220e-02 -3.434219e-01 -1.594888e-01 -1.717386e-02 4.096721e-01 1.398473e+00 1.481379e+00 8.037979e-01 6.792511e-01 6.410965e-01 -6.582896e-01 -4.775405e-04 1.439690e-01 2.135873e-03 
-5.972606e+00 1.700616e+00 -1.906507e+00 -4.713487e+00 1.167691e+00 -3.619813e+00 6.706723e+00 2.153711e+00 5.023062e+00 2.897865e+00 -7.115494e-01 -8.465475e-01 2.600247e-02 4.902067e-01 -3.157748e+00 1.671609e+00 -6.471281e-02 -1.048783e+00 1.421203e+00 -1.999283e-01 -9.585246e-01 -1.675266e-01 -1.435043e+00 -5.581677e-01 4.011959e-01 1.656214e-01 
-5.583013e+00 1.493164e+00 -2.747614e+00 -5.022161e+00 7.952561e+00 3.731816e+00 1.803603e+00 -1.908163e+00 2.158902e+00 2.946118e+00 4.273784e+00 2.529838e-01 1.686627e-02 -4.303093e-01 -3.039975e+00 1.561743e+00 -1.897795e+00 -1.719196e+00 1.247420e+00 -8.829882e-01 -2.273435e+00 -1.194645e+00 -2.746458e+00 -8.700911e-01 1.295287e+00 2.772013e-01 
-3.720077e+00 -1.605340e+01 3.790446e+00 -8.215968e+00 -7.429292e+00 2.421397e+00 -8.494673e-01 -9.696249e+00 -1.834245e-01 -3.890791e+00 -3.826736e+00 1.218134e+00 8.452396e-01 -1.308287e+00 -2.140279e+00 1.813003e+00 -2.124930e+00 -2.439332e+00 4.260661e-01 -2.992836e+00 -1.632424e+00 5.480066e-01 -2.945067e+00 -1.250187e+00 2.071862e+00 2.891206e-01 
-9.912511e+00 -7.225060e+00 1.906515e+00 -1.239262e+01 -5.766821e+00 7.771784e-01 -2.131046e+00 -7.821646e+00 -2.291462e-01 -6.279763e+00 -2.066792e+00 4.057674e+00 1.000000e+00 -1.605114e+00 -4.276727e-01 2.012580e+00 -7.875987e-01 -1.469568e+00 -1.136616e+00 -2.580461e+00 5.031313e-01 1.928964e+00 -2.891040e+00 -2.203941e+00 6.747826e-01 1.770891e-01 
-1.034929e+01 -4.641665e+00 4.831445e+00 -1.165291e+01 -4.169277e+00 -1.216424e-02 -6.290135e+00 -3.051668e+00 8.957119e+00 -7.214531e+00 -3.792194e+00 7.610415e+00 9.800385e-01 -2.863207e-01 1.973015e+00 2.323911e+00 1.727060e+00 1.143546e+00 -1.156244e+00 -1.769395e+00 1.168769e+00 1.553441e+00 -1.203786e+00 -1.744829e+00 -4.268083e-01 -3.084387e-02 
-1.029397e+01 -6.351065e+00 6.794786e+00 -7.241684e+00 -1.025284e+00 -7.344832e-01 -8.378366e+00 -2.714797e+00 7.233453e+00 -9.847214e+00 -6.763191e+00 4.307566e-01 8.349121e-01 3.430262e+00 5.689198e-01 3.416015e+00 4.650770e+00 3.582001e-01 1.585475e-01 -8.880396e-01 1.222517e+00 -5.367866e-01 1.470270e-01 -1.222968e+00 -2.326548e+00 -8.107883e-02 
-4.960948e+00 -6.625316e+00 1.296587e+01 -2.156136e+00 -4.082329e+00 -2.603994e+00 -6.572779e+00 -6.405829e+00 3.852480e+00 -8.125996e+00 -1.020268e+01 8.975523e-01 7.735642e-01 6.336212e+00 -7.321458e-01 2.303834e+00 6.264159e+00 -2.445473e+00 1.202984e+00 -1.511022e+00 -3.452361e-01 -2.764043e+00 4.414558e-01 -5.515056e-02 -2.230036e+00 -3.181712e-02 
4.544630e+00 -3.388635e+00 1.491938e+01 6.112839e+00 -4.019295e+00 2.865831e+00 -6.429922e+00 -3.198004e-02 -3.607597e-01 -5.088896e+00 -4.976392e+00 -4.218635e+00 6.978430e-01 6.829160e+00 -1.169191e+00 6.493434e-01 6.029383e+00 -3.797560e+00 7.273020e-01 -2.226351e+00 -7.815065e-01 -2.747658e+00 1.349588e+00 6.139221e-01 -1.011129e-01 3.487715e-02 
1.391247e+01 -9.783608e+00 1.228832e+01 1.299063e+01 -1.489964e+01 4.202600e+00 -1.481947e+01 -6.119256e+00 -1.065988e+00 -7.386411e+00 -4.961347e+00 -1.215071e+00 8.894874e-01 4.820763e+00 -1.454691e+00 -1.476110e+00 4.982089e+00 -3.853114e+00 4.179847e-02 -2.733216e+00 -1.022116e+00 -1.276425e+00 6.083778e-01 5.966176e-01 6.031713e-01 6.761286e-02 
1.441511e+01 -1.061787e+01 1.038028e+01 1.533185e+01 -1.460443e+01 -5.012703e-01 -1.538678e+01 -6.765615e+00 -4.045601e+00 -3.469067e+00 -6.314248e+00 9.815037e-01 9.513363e-01 2.093718e+00 -1.573481e+00 -1.820107e+00 2.708410e+00 -2.886357e+00 -1.536143e+00 -2.095252e+00 -1.372982e+00 -5.259506e-01 -2.234726e-02 -1.217550e-01 1.118294e+00 6.815760e-02 
1.420762e+01 -1.028415e+01 7.854868e+00 1.814481e+01 -1.805533e+01 -7.114509e-01 -1.576043e+01 -8.149590e+00 -6.872226e-01 -5.894021e+00 -6.550665e+00 1.313339e+00 9.848819e-01 3.136919e-01 -2.180669e-01 -1.303947e+00 1.259887e+00 -6.225106e-01 -1.692595e+00 -3.117922e-01 -1.518184e-01 -1.771838e-01 -3.566664e-01 7.400354e-01 -4.476482e-01 2.351969e-02 
1.486564e+01 -1.100577e+01 8.035571e+00 1.707780e+01 -1.687323e+01 -2.357856e+00 -1.643570e+01 -5.881724e+00 -3.179895e+00 -5.946827e+00 -4.790507e+00 1.086316e-01 9.909337e-01 3.077146e-01 -2.681627e-02 -7.812440e-01 5.233240e-01 -2.273510e-01 -6.683255e-01 -6.715733e-01 7.540292e-01 -3.677225e-01 -9.272842e-01 1.418791e+00 -1.476033e+00 6.247628e-03 
1.525566e+01 -1.067999e+01 6.940938e+00 1.841709e+01 -1.687779e+01 -3.332083e+00 -1.585397e+01 -7.320294e+00 -2.384759e+00 -7.930863e+00 -2.023040e+00 -3.016876e+00 9.872872e-01 5.547744e-01 2.833134e-01 -1.051015e+00 5.351418e-01 6.272169e-01 -1.216673e+00 2.116098e-01 6.695234e-01 -5.933649e-01 -3.807107e-01 9.926966e-01 -1.231639e+00 -4.868763e-03 
1.542966e+01 -1.055403e+01 6.931022e+00 1.781233e+01 -1.632995e+01 -2.532582e+00 -1.869788e+01 -3.410118e+00 -5.035445e+00 -7.087067e+00 -1.484105e+00 -4.233553e+00 9.813718e-01 6.455964e-01 7.729881e-01 -1.614475e+00 8.440254e-01 9.126436e-01 -1.556453e+00 9.019512e-01 8.969021e-03 -2.260679e-01 -1.437348e-01 1.818701e-01 -4.395169e-01 -1.302693e-02 
1.669948e+01 -9.093453e+00 3.152067e+00 2.045325e+01 -1.519089e+01 -6.707455e+00 -1.357129e+01 -6.037776e+00 -2.726272e+00 -7.227454e+00 -3.240384e+00 -2.673764e+00 9.653190e-01 5.822199e-01 8.197935e-01 -1.623775e+00 6.397918e-01 1.094064e+00 -1.332567e+00 8.508156e-01 -1.173770e-01 1.090765e-03 -8.127546e-03 -5.563082e-01 3.458790e-01 -1.797791e-02 
1.737172e+01 -7.934100e+00 1.857631e+00 2.027984e+01 -1.315346e+01 -8.452435e+00 -1.306728e+01 -6.478138e+00 -4.139479e+00 -7.017206e+00 -3.272485e+00 -2.260509e+00 9.367831e-01 4.912812e-01 7.620983e-01 -1.303581e+00 5.395008e-01 1.077216e+00 -9.336012e-01 1.161911e+00 -1.269337e+00 5.003887e-01 -1.315488e-01 -7.913994e-01 7.437088e-01 -2.226206e-02 
1.719574e+01 -7.890995e+00 1.358760e+00 2.038229e+01 -1.299571e+01 -7.034994e+00 -1.441519e+01 -6.373168e+00 -2.827289e+00 -8.006432e+00 -3.910391e+00 -2.274003e+00 9.196919e-01 2.766968e-01 6.041110e-01 -9.542829e-01 3.625875e-01 6.404902e-01 6.308806e-01 3.354611e-01 -1.391511e+00 5.824561e-02 5.783904e-01 -1.151261e+00 7.317169e-01 -2.407866e-02 
1.763794e+01 -7.344772e+00 1.309771e+00 2.054531e+01 -1.204146e+01 -7.036818e+00 -1.246638e+01 -9.589107e+00 -2.482994e+00 -7.355322e+00 -5.106098e+00 -7.148888e-01 8.928750e-01 -6.097137e-01 1.321879e+00 -9.730784e-01 -4.320469e-01 1.889422e+00 8.150253e-02 5.897924e-01 -1.447928e+00 -2.575006e-01 1.275832e+00 -1.255444e+00 2.415857e-01 -2.403630e-02 
1.794985e+01 -6.367563e+00 -1.345419e+00 2.213345e+01 -1.254444e+01 -4.260860e+00 -1.219444e+01 -1.143985e+01 -3.263287e+00 -4.166444e+00 -8.079882e+00 2.120106e-01 8.668798e-01 -1.319223e+00 2.164461e+00 -9.980794e-01 -1.428955e+00 3.282674e+00 -3.788282e-01 6.652580e-01 -1.475554e+00 -6.689623e-01 1.296552e+00 -5.905038e-01 -4.634913e-01 -2.575081e-02 
1.394609e+01 -2.086422e+00 -1.655672e+00 1.724403e+01 -3.931993e+00 -9.431989e+00 -1.122869e+01 -1.118444e+01 -5.208983e+00 -2.558040e+00 -7.464957e+00 -2.295588e+00 8.430077e-01 -5.854568e-01 1.526271e+00 -5.265560e-01 -1.470590e+00 2.632974e+00 7.444504e-01 -5.832220e-01 -2.698649e-01 -1.188684e+00 8.351753e-01 2.052577e-01 -5.319769e-01 -2.612340e-02 
1.244555e+01 3.021362e-01 -2.148916e+00 1.488816e+01 -6.370816e-01 -7.731549e+00 -1.170774e+01 -1.295327e+01 -4.809105e+00 -3.922312e+00 -5.683480e+00 -3.801110e+00 8.158715e-01 3.471516e-01 8.177017e-01 1.450595e-02 -1.366469e+00 1.695504e+00 1.552700e+00 -6.507454e-01 5.412398e-02 -1.330055e+00 3.527139e-01 4.844669e-01 8.117259e-02 -2.753728e-02 
1.746281e+01 -3.048264e+00 -9.212603e-01 1.681501e+01 -4.830272e+00 -1.579221e+00 -1.562584e+01 -1.018172e+01 -7.653506e+00 -3.301512e+00 -5.278010e+00 -1.368213e+00 7.877622e-01 1.255981e+00 2.085047e-01 3.233122e-01 -8.264738e-01 1.883686e-01 2.783391e+00 -1.952876e-01 -3.152706e-01 -1.221726e+00 -1.740904e-02 9.912173e-01 2.160749e-01 -2.936046e-02 
1.792725e+01 -1.798134e+00 -1.640095e+00 1.551562e+01 -3.617778e+00 -4.237449e-01 -1.324960e+01 -1.167059e+01 -8.691299e+00 -2.031139e+00 -6.751020e+00 1.541862e-01 7.568162e-01 9.419596e-01 8.152742e-01 3.400014e-01 -1.593642e+00 -1.228506e-01 1.488152e+00 3.282308e-01 -1.582113e-01 -1.078172e+00 5.800122e-01 2.423078e+00 1.194444e+00 -2.804867e-02 
1.748514e+01 6.235860e-03 -2.935210e-01 1.279793e+01 -1.499801e+00 8.310634e-01 -1.143420e+01 -1.340214e+01 -9.376514e+00 -3.590672e+00 -1.975100e+00 -3.192861e+00 7.257330e-01 -2.640278e-01 1.944914e+00 2.828152e-01 -2.706165e+00 8.984448e-01 -5.816079e-02 1.522269e+00 -2.689286e-01 8.566952e-02 -1.006518e-01 2.918020e+00 1.585861e+00 -2.886581e-02 
1.714418e+01 2.851258e+00 -7.627780e-01 8.928491e+00 -2.916570e+00 -1.495932e+00 -1.216240e+01 -1.213412e+01 -9.338461e+00 -8.776706e-01 4.780457e+00 3.083433e+00 7.066427e-01 -4.787756e-01 2.241193e+00 4.722802e-01 -2.534314e+00 7.547829e-01 -7.820210e-01 2.528844e+00 1.171630e+00 -1.040616e-01 -1.664344e-01 2.280545e+00 1.837335e+00 -3.750651e-02 
1.653421e+01 4.351613e+00 5.415750e-02 6.577747e+00 -6.886520e-01 -1.333932e+00 -8.558094e+00 -1.129460e+01 -6.901577e+00 -4.381505e+00 3.546351e+00 5.096470e+00 6.685199e-01 -7.257150e-01 1.739745e+00 9.027309e-01 -1.840384e+00 1.519956e-01 -3.982890e-01 3.682112e+00 3.030986e+00 -7.426821e-01 -9.759660e-01 1.206676e+00 1.742198e+00 -4.721823e-02 
1.600884e+01 7.235145e+00 5.474671e-01 5.954134e+00 -2.494378e-01 -3.251353e+00 -2.043432e+00 -6.866207e+00 -1.044908e+01 -2.467894e+00 1.890977e+00 5.196198e+00 5.978903e-01 -1.094599e+00 1.147062e+00 1.191279e+00 -1.742696e+00 9.742478e-01 4.072924e-01 4.503500e+00 3.792454e+00 -2.303369e-01 -1.488814e+00 -1.384685e-01 4.358330e-02 -5.594282e-02 
1.442424e+01 6.513016e+00 3.565011e+00 5.083185e+00 -2.073389e+00 -2.826710e-01 1.916871e+00 -8.811613e-01 -1.253462e+01 -7.675390e+00 5.503020e+00 4.461745e+00 5.440181e-01 -1.538932e+00 1.202667e-01 4.754203e-01 -8.027502e-01 1.345761e+00 6.369953e-01 5.264246e+00 4.679404e+00 1.994853e-01 -1.179091e+00 6.860822e-01 1.851045e-01 -5.543488e-02 
1.272617e+01 7.505866e+00 3.438190e+00 9.622931e-01 2.647038e+00 1.489985e-02 5.117618e+00 1.621434e+00 -7.673625e+00 -6.674798e+00 3.109780e+00 3.618712e+00 4.891795e-01 -1.570365e+00 -1.072575e+00 4.578176e-01 -1.067951e+00 1.372471e+00 9.044262e-01 4.670918e+00 3.493645e+00 1.033670e+00 -2.380088e+00 -2.037136e-01 -3.593751e-01 -4.558266e-02 
1.048088e+01 4.817585e+00 9.858977e-01 5.059916e+00 4.591914e+00 2.179185e-01 1.418261e+01 7.858603e+00 -7.291876e+00 -8.173508e+00 6.367360e+00 6.810736e+00 4.457008e-01 -1.521100e+00 -1.412639e+00 1.388969e-01 -1.030087e+00 1.299436e+00 8.633854e-01 3.169515e+00 3.019025e+00 9.694614e-01 -1.407353e+00 1.211571e-01 -2.014251e+00 -5.471990e-02 
1.012869e+01 2.719985e+00 4.126112e+00 6.260152e-01 3.280264e+00 1.020484e+00 1.517829e+01 6.232136e+00 -7.902098e+00 -1.411928e+01 4.402392e-01 2.224827e+00 4.191356e-01 -1.763344e+00 -1.368497e+00 -7.526756e-01 -1.425605e+00 -3.421622e-01 5.018762e-01 2.007391e+00 2.102023e+00 -1.614570e-01 -1.736765e-01 2.061436e-01 -2.401997e+00 -8.026105e-02 
8.117477e+00 1.842762e+00 3.915534e+00 1.008887e-01 4.107176e+00 3.531464e+00 1.273411e+01 1.190862e+01 -7.573074e+00 -1.098991e+01 7.443576e+00 -4.912569e+00 3.054406e-01 -1.992824e+00 -8.819502e-01 -2.277179e+00 -2.613272e+00 -1.236866e+00 4.390509e-02 5.536712e-01 3.487392e-01 -2.283457e-01 1.165713e+00 -1.172284e+00 -3.353226e+00 -8.882701e-02 
5.091153e+00 2.150791e+00 -1.790006e+00 -3.686216e+00 1.178596e+00 8.675086e-01 1.587882e+01 1.010654e+01 -8.340311e+00 -6.134978e+00 3.602390e+00 -2.529623e+00 1.580043e-01 -2.257827e+00 -4.051369e-01 -2.694275e+00 -1.072762e+00 -1.312116e+00 -1.202888e+00 -4.542530e-01 -2.506556e-01 -5.267369e-01 1.379861e+00 -1.407092e+00 -2.659343e+00 -7.842139e-02 
3.035533e+00 6.924322e-01 -7.441937e+00 -5.850327e+00 -5.415807e-01 5.139314e-01 1.660070e+01 7.665097e+00 -8.214498e+00 -6.337090e+00 -1.075135e+00 -7.578171e+00 1.321314e-01 -1.557746e+00 -3.098649e-01 -9.011540e-01 -8.293958e-02 -9.483896e-01 -7.453595e-01 -9.699486e-01 -1.444006e+00 2.674294e-01 8.360699e-01 -2.236783e+00 -5.976152e-01 -4.737730e-02 
1.380532e+00 1.269466e+00 -3.666526e+00 -1.762186e+00 -9.559379e-01 -3.485188e+00 1.097373e+01 7.100617e+00 -1.021507e+01 -9.546385e+00 -2.335866e+00 -9.739090e+00 1.136833e-01 -9.894928e-01 7.233938e-02 6.586993e-01 8.055164e-01 -7.389015e-01 -7.778732e-02 -2.087412e+00 -1.849604e+00 -6.112161e-02 8.685820e-01 -6.917144e-01 -9.838457e-02 -1.565355e-02 
2.184059e+00 7.341005e-01 3.480238e-01 -1.275825e+00 4.324951e-01 1.981014e+00 1.033692e+01 6.191545e+00 -5.298547e+00 -5.103861e+00 -7.712102e-01 -4.295911e+00 9.071463e-02 -5.845897e-01 4.660205e-01 1.261695e+00 1.242612e-01 -1.289167e-01 2.286853e-01 -1.799696e+00 -1.774171e-01 1.025086e+00 4.871508e-01 -1.959790e-01 -9.649487e-02 -1.863318e-02 
5.694256e-01 2.491653e+00 -2.391490e+00 -1.945885e+00 -3.002949e+00 -2.549694e-01 8.573655e+00 1.595295e+00 -1.010389e+01 -2.408682e+00 -8.144617e-03 -4.662676e+00 1.004450e-01 -5.647832e-01 2.254810e-01 8.620022e-01 -4.971817e-01 4.881421e-01 1.156078e+00 -4.390596e-01 9.718585e-01 2.304607e+00 1.541809e+00 -8.716019e-01 -7.496411e-01 -1.979478e-02 
5.181379e-01 2.411441e+00 -1.770983e+00 -5.137170e+00 -1.626582e-01 4.224883e-02 8.802257e+00 9.530673e+00 -3.144654e+00 -7.470187e+00 -3.218890e+00 -1.059885e+01 4.558468e-02 -7.170808e-01 2.279392e-01 1.359310e-02 -2.427820e-01 1.444715e+00 1.495693e+00 4.843627e-01 1.084659e+00 2.046028e+00 2.026436e+00 3.701109e-01 1.269476e-01 -1.527820e-02 
-6.104231e-01 1.558200e+00 1.702988e+00 -2.317421e+00 1.782349e+00 3.264586e+00 9.545760e+00 1.029035e+01 2.310199e-01 -6.541766e-01 -5.470036e+00 -1.033582e+01 3.727436e-02 -5.315877e-01 3.384160e-01 -9.381388e-02 -2.703530e-01 1.258871e+00 1.899427e+00 3.567094e-01 9.607568e-02 2.235674e+00 1.888158e+00 3.008947e-01 1.174050e+00 -8.738518e-03 
-8.114204e-01 2.340523e+00 -1.631250e+00 -2.303967e+00 5.263419e+00 7.699701e+00 1.227268e+01 7.267314e+00 -2.358647e-01 4.151068e+00 3.810290e+00 -8.245988e-01 4.590893e-02 -7.633696e-01 3.609656e-01 -7.421354e-01 7.972212e-02 8.749233e-01 9.450929e-01 -7.852808e-01 -1.936417e+00 7.607154e-01 2.708281e+00 1.732179e+00 2.640325e+00 2.612323e-03 
-1.423734e+00 4.219192e+00 -2.930426e+00 -4.714252e+00 5.783682e-01 5.413439e+00 8.621992e+00 3.207353e+00 -3.799193e-01 1.221479e+00 -2.018261e+00 -3.679552e+00 5.659026e-02 -4.804688e-01 6.536615e-01 -7.506987e-01 -4.999750e-01 4.406225e-01 -4.151464e-01 -1.283314e+00 -1.646960e+00 5.012332e-01 6.963207e-01 1.772281e+00 2.268685e+00 -1.917231e-03 
-2.892055e+00 2.885773e+00 -3.164953e+00 -3.540144e+00 4.813949e+00 3.693287e+00 5.337737e+00 3.390084e+00 9.643924e-01 5.133391e+00 3.716116e+00 -7.253649e-01 4.898834e-02 -7.210767e-01 1.689410e-01 -2.374443e-01 2.659020e-02 -4.451759e-02 -1.013398e+00 -1.921938e+00 -5.871052e-01 8.324546e-01 7.438241e-01 2.365107e-01 1.368617e+00 -3.975630e-05 
-1.972450e+00 4.553883e+00 -1.283654e+00 -4.199207e+00 4.210196e+00 3.192061e+00 6.596659e+00 3.994162e+00 2.137058e+00 2.336265e+00 3.438455e+00 9.579837e-01 2.614850e-02 -7.142605e-01 1.633365e-02 3.363919e-01 5.231987e-01 -9.421358e-02 -3.230503e-01 -4.217989e-01 -3.644437e-01 7.179252e-01 8.832176e-01 3.305944e-01 2.563336e-01 -3.142542e-03 
-4.142446e+00 3.017883e+00 -3.641857e+00 -2.428538e+00 3.224917e+00 3.743401e+00 3.675654e+00 3.938384e+00 2.667920e+00 7.312796e+00 2.264485e+00 3.699718e+00 6.093103e-02 -6.138388e-01 2.060323e-01 5.379880e-01 -4.892259e-01 -1.104746e+00 -5.684263e-01 -7.892413e-01 -1.537697e+00 -2.357861e-02 2.418142e-01 -7.013799e-01 -5.496165e-01 -4.115415e-03 
-4.369841e+00 4.234806e+00 -1.010014e+00 -2.654062e+00 9.018164e-01 3.773130e+00 7.344038e+00 1.110984e+00 2.357943e+00 4.547865e+00 3.605266e-01 -4.610425e+00 3.490621e-02 -1.048711e+00 -4.587053e-01 6.517000e-02 -3.697003e-01 -1.045150e+00 -1.312483e+00 -2.295381e+00 -2.763041e+00 -3.202068e-01 5.043124e-01 -4.187914e-01 -3.654564e-01 -1.825213e-03 
-4.762553e+00 4.075473e+00 -6.118326e-01 -6.758846e+00 9.444087e-01 5.606208e-01 1.017841e+00 -2.856810e+00 7.360567e-01 5.236662e+00 1.748181e+00 -6.892428e-01 2.403241e-02 -5.109754e-01 -3.885523e-01 8.946848e-01 -4.344142e-01 -3.519401e-01 -2.333795e+00 -1.198400e+00 -3.502485e-01 -1.449598e-01 -5.502888e-01 -1.386509e+00 -9.040872e-01 -7.257747e-03 
-6.905951e+00 1.731561e+00 -2.472816e+00 -3.882554e+00 1.246996e-01 -1.778962e+00 -3.551339e+00 -6.423445e+00 1.501955e+00 5.895894e+00 1.602650e+00 1.325182e+00 3.547174e-02 -9.687443e-02 -3.870102e-01 1.674504e-01 9.790995e-02 1.041064e+00 -1.638649e+00 -3.809313e-01 1.011035e+00 -4.846040e-01 -6.079772e-01 -6.845762e-01 3.434989e-01 -2.868223e-03 
-5.429267e+00 2.326744e+00 1.562968e+00 -3.986363e+00 1.853775e+00 -5.149529e+00 3.131345e+00 5.954355e+00 2.371115e+00 3.887337e+00 -5.289121e+00 -3.788521e+00 2.435952e-02 -1.914652e-01 -3.395822e-01 -5.136630e-01 6.877611e-01 1.750003e+00 6.326339e-01 2.117515e+00 1.522462e+00 -8.628334e-02 1.487514e-01 2.882020e-01 6.510379e-01 -1.858544e-03 
-4.520856e+00 3.174120e+00 -1.260162e+00 -3.550754e+00 5.652453e+00 -1.565039e+00 4.382630e+00 1.760576e+00 -8.826063e-01 2.182642e+00 4.562964e-01 -1.343291e+00 2.040154e-02 1.081312e-01 1.127358e-01 -5.512189e-01 3.396830e-01 2.163120e+00 1.915019e+00 1.680964e+00 8.070889e-01 2.649454e-01 8.416349e-01 8.481476e-01 3.821170e-01 -3.953218e-03 
-6.912427e+00 1.656283e+00 -3.786475e+00 -3.485941e+00 6.930545e+00 3.616829e+00 7.638430e+00 6.634915e-01 1.496921e+00 7.837045e+00 3.762367e+00 3.900183e+00 2.227479e-02 -2.434208e-01 1.166105e-01 -7.070613e-01 3.177607e-01 6.517332e-01 2.006357e+00 5.348638e-01 -1.442160e+00 7.750857e-01 1.337379e+00 2.242745e+00 8.449411e-01 3.270912e-03 
-5.623715e+00 2.630471e+00 -2.554189e+00 -2.434350e+00 8.401917e+00 3.412956e+00 2.599936e+00 2.574311e-01 3.263779e+00 8.129214e+00 1.317644e+00 -6.085849e-01 1.674801e-02 -1.315124e-01 1.996760e-01 4.008646e-01 -1.184911e-01 -8.565051e-01 2.300539e-01 2.149601e-01 -5.089396e-01 1.675460e-01 -2.215364e-01 -2.296273e-01 -1.524538e-01 3.376174e-03 
-6.094941e+00 3.181621e+00 -1.325325e+00 -2.955761e+00 3.737709e+00 2.393260e+00 6.697011e+00 -5.048730e-01 4.173351e+00 7.600946e+00 5.493931e+00 6.883144e-02 4.254085e-02 6.050138e-01 3.385363e-01 4.492720e-01 -5.283468e-01 -1.596387e+00 -6.205423e-01 -6.026698e-01 -2.931400e-01 -5.170178e-01 -1.493551e+00 -1.147323e+00 -7.365848e-01 3.756249e-03 
-5.587161e+00 3.409831e+00 -4.864142e-01 -4.408299e+00 2.966345e+00 1.970151e-01 5.928140e+00 -1.999403e-01 -1.383091e+00 1.193009e+00 -1.557622e+00 -1.898844e-01 2.714938e-02 4.528025e-01 1.039103e-01 1.106339e-01 -5.057040e-01 -9.091504e-01 -5.477929e-01 -4.841617e-01 -3.240238e-01 -1.008057e+00 -1.321484e+00 -8.808562e-01 8.119594e-01 -2.275336e-03 
-3.905635e+00 2.959285e+00 -2.574003e+00 -5.140700e+00 1.666397e+00 2.122087e+00 2.960978e+00 -5.735226e-01 1.235267e+00 3.837393e+00 -5.366139e-01 7.908344e-03 3.585535e-02 4.413975e-01 1.049805e-03 -9.929803e-02 -1.291382e-01 4.233697e-01 -2.554801e-01 -1.318073e+00 -2.775402e-01 -7.886007e-01 -6.184188e-01 -9.644333e-01 1.049724e+00 -8.608883e-03 
-4.454356e+00 3.261190e+00 -1.376681e+00 -3.870401e+00 4.891820e+00 8.095779e-01 2.047144e+00 -1.328363e+00 -3.074656e-01 3.403571e+00 -7.136393e-02 3.481674e+00 8.714080e-03 1.716888e-01 4.624605e-04 -5.832135e-02 2.346096e-01 7.076374e-01 -8.738399e-03 -8.675825e-01 -3.011685e-01 6.085193e-02 3.987303e-01 3.437766e-01 1.081688e+00 -6.401187e-03 
