-5.939270e+00 3.780534e+00 -4.252529e+00 -2.743556e+00 6.653026e+00 1.432408e+00 -3.904325e+00 2.661961e+00 3.561820e+00 2.670988e+00 -3.698189e-01 4.386643e+00 3.155953e-02 -5.828932e-01 -4.611020e-01 6.623459e-01 -9.402149e-01 -2.757131e-01 6.147543e-01 2.570754e+00 -5.502803e-01 -5.951721e-01 -1.114384e-01 1.745628e+00 -6.336619e-01 -5.999023e-03 
-7.962191e+00 1.733373e+00 -2.574037e+00 -5.271926e+00 4.238512e+00 5.297230e+00 6.298340e+00 5.535575e+00 5.143860e+00 5.220339e+00 1.970429e+00 2.036133e+00 1.339281e-02 -4.298040e-01 -2.884278e-02 7.026413e-01 -5.961877e-01 -4.410888e-01 -3.490297e-01 1.671727e+00 -1.313430e+00 -3.468822e-01 -3.977568e-01 1.978633e+00 1.760323e-01 -4.447418e-03 
-7.842276e+00 2.498605e+00 -1.780046e+00 -6.180446e+00 6.481717e+00 2.573768e+00 3.848110e+00 -1.526247e+00 -2.050618e-01 8.391211e-01 7.188196e+00 2.393589e+00 1.064777e-02 -1.963900e-01 4.571189e-01 5.785769e-01 -6.694532e-03 1.153132e-01 -7.999192e-01 6.042731e-01 -8.780670e-01 -9.789417e-01 -9.756536e-01 1.274986e+00 5.143821e-01 -1.632530e-03 
-7.136787e+00 4.277285e+00 -1.975564e+00 -4.006050e+00 4.533237e+00 -8.834202e-01 5.780902e-01 -1.811085e+00 3.710849e+00 1.598138e+00 5.744339e+00 6.263332e+00 1.977831e-02 3.146753e-01 6.766835e-01 -4.007751e-02 4.778503e-01 1.165358e+00 -9.985157e-01 -8.026921e-01 -8.240551e-01 -6.012273e-01 -3.138403e-01 -6.202655e-02 1.531459e-01 1.848340e-05 
-7.333921e+00 4.794172e+00 -1.658881e+00 -3.409967e+00 7.082230e+00 5.231373e-01 1.977165e+00 1.944956e+00 -6.163838e-01 -3.961796e-01 4.118155e+00 4.844954e+00 2.020413e-02 1.035895e-01 -1.925322e-01 -4.396579e-01 1.711953e-01 3.690295e-01 4.193871e-01 -5.952885e-01 7.500478e-01 1.264629e+00 1.225352e+00 -1.426341e+00 -9.763952e-02 -3.064793e-03 
-6.642991e+00 3.969007e+00 -2.835007e+00 -4.267914e+00 9.765047e+00 1.329967e+00 3.220352e+00 -3.203018e-01 2.343385e+00 4.268787e+00 3.195316e+00 1.576180e+00 8.707047e-03 -1.686466e-01 -5.147372e-01 -3.996820e-01 -8.010791e-02 6.734174e-02 1.254525e+00 -3.810021e-01 -4.834816e-01 7.145419e-01 9.086707e-01 -1.033773e+00 -8.425084e-01 -1.333714e-04 
-7.571226e+00 1.690083e+00 -3.548614e+00 -5.193537e+00 5.710958e+00 3.564010e+00 -4.494634e-01 1.478601e+00 6.801813e+00 5.630554e+00 1.331002e+00 4.248968e+00 8.594394e-04 4.473601e-02 -2.430603e-02 8.126478e-01 6.328270e-01 -5.991915e-01 3.432367e-02 -9.201310e-01 1.986127e-01 1.628236e+00 1.198016e+00 -1.718404e-01 -3.951108e-01 -1.284671e-03 
-7.861368e+00 3.255644e+00 -3.029108e+00 -3.514804e+00 5.555581e+00 3.868771e+00 -1.136062e-01 -3.995315e+00 3.574460e+00 3.128125e+00 1.969051e+00 2.348783e+00 2.878380e-02 1.782415e-01 -1.356912e+00 4.536861e-01 1.250956e+00 -2.724585e-01 -1.816638e-01 -7.640184e-01 -1.225481e-02 1.998695e-01 8.445410e-02 8.655839e-02 8.272959e-01 8.470440e-03 
-6.501053e+00 5.029324e+00 2.501409e+00 -6.223869e-01 6.191005e+00 -5.746461e-01 -9.565108e-01 4.775526e+00 6.909258e+00 6.164231e+00 3.872086e+00 2.483099e+00 3.742397e-03 2.333425e-01 -3.048200e+00 -7.735699e-01 1.603094e+00 5.256103e-01 8.466104e-01 6.551653e-01 9.770890e-02 -1.372718e-01 -6.502385e-01 -4.854717e-02 4.541425e-01 2.194574e-02 
-6.286870e+00 -4.485175e+00 -3.591588e+00 -2.987118e-01 8.162731e+00 2.490976e+00 -3.462157e-01 -2.030039e+00 3.289010e+00 4.424219e+00 2.357566e+00 6.595594e+00 4.961777e-02 2.286346e-01 -1.710485e+00 -1.104903e+00 -2.211215e-01 -7.741659e-01 9.736036e-01 1.482677e+00 2.779797e-01 -2.622108e-01 -1.259666e+00 -1.454507e+00 5.630149e-01 5.976379e-03 
-7.191763e+00 -9.680509e+00 -7.135223e+00 1.213884e+00 7.035434e+00 8.485959e+00 2.942668e+00 9.845068e-01 6.258179e+00 1.731314e+00 8.940086e-01 4.396275e+00 1.001711e-01 -1.261213e-01 1.126718e-03 -1.144119e+00 -1.305537e+00 -5.587578e-01 1.133069e+00 8.281366e-01 -1.362398e+00 -1.266218e+00 -1.811666e+00 -1.051846e+00 2.396306e-01 -5.243552e-03 
-6.372840e+00 2.058135e+00 -3.735305e+00 -5.538547e+00 1.262537e+00 4.206486e+00 5.350189e+00 -7.099069e-01 2.588946e+00 -9.537463e-01 -3.814445e+00 4.207270e+00 1.045132e-02 -3.713587e-01 2.575189e+00 1.096083e+00 -9.617163e-01 -9.562534e-01 -7.679550e-01 -4.252525e-01 8.477902e-03 -7.540910e-01 3.364299e-01 1.750863e-01 -1.076318e+00 -1.716500e-02 
-7.088675e+00 1.763302e+00 -3.147327e+00 -4.530156e+00 6.847314e+00 4.232946e+00 3.359696e-01 -2.696532e+00 9.281983e-01 -2.051156e-01 1.698861e+00 4.875413e+00 -2.892137e-03 -3.632136e-01 2.425758e+00 1.422626e+00 -7.109178e-01 4.594519e-01 -1.528692e+00 -2.828883e-01 -2.556388e-01 -1.850145e+00 6.993093e-01 1.580303e+00 -8.554138e-01 -1.438792e-02 
-8.195208e+00 2.668867e+00 -1.051195e-01 -2.235273e+00 3.475525e+00 7.777077e-01 -1.169129e+00 -1.471298e-01 2.183545e+00 7.074584e+00 2.830572e+00 9.744345e-01 1.532441e-02 -6.366682e-01 2.397495e-01 9.351842e-02 -1.954280e-01 7.062193e-01 -1.154833e+00 -7.897798e-01 -5.456026e-01 1.807296e-01 7.417556e-01 1.116994e+00 -1.072602e+00 9.212052e-03 
-8.096647e+00 2.142916e+00 -1.837186e+00 -3.992342e+00 8.226199e+00 2.556885e+00 4.787886e+00 -5.750757e-01 -2.789847e+00 1.213696e+00 5.473014e+00 1.735623e+00 2.579498e-02 -1.827248e-01 7.693845e-02 -6.589667e-01 -1.923295e-01 -2.840717e-01 -1.236827e+00 -2.461484e-01 2.542525e-01 1.044366e+00 -4.146878e-01 -5.085688e-01 -6.473809e-01 6.333011e-03 
-9.052195e+00 3.067076e+00 -3.922784e+00 -6.784594e+00 4.104190e+00 -7.296464e-01 -8.246672e-01 -4.498648e+00 5.351617e+00 2.045626e+00 -1.165514e-01 4.141546e-01 4.216802e-02 8.978462e-02 2.083481e-01 -6.621826e-01 1.397684e-01 6.234071e-02 -1.671847e-01 4.490789e-01 1.809514e-01 1.427414e+00 -1.450021e+00 8.745208e-02 9.507607e-01 -1.373881e-03 
-7.573805e+00 1.948890e+00 -4.533329e+00 -3.217143e+00 5.112622e+00 -1.197514e+00 -1.067003e+00 7.504902e-01 4.565989e+00 2.359241e-01 6.295786e-01 1.918649e+00 1.535112e-02 2.588655e-01 3.920040e-01 -3.039025e-01 -4.133077e-01 -7.541779e-01 8.413865e-01 -1.648786e-01 4.786563e-02 2.168350e+00 1.639806e+00 5.259919e-02 7.366732e-01 -4.101759e-03 
-8.007706e+00 3.807620e+00 -2.067961e+00 -1.924031e+00 5.344017e+00 1.818984e+00 4.003710e+00 9.484434e-02 5.642698e+00 3.133638e-01 5.689550e+00 5.636725e+00 1.367694e-02 3.796154e-01 5.141104e-01 5.223173e-01 5.123801e-01 1.020264e+00 1.330010e+00 4.654574e-01 -2.041394e-01 -2.049704e-01 1.215949e+00 1.277819e+00 9.857090e-01 -4.335302e-03 
-7.324564e+00 3.732664e+00 -4.284110e+00 -8.489162e+00 3.835396e+00 5.489503e+00 1.549304e+00 -2.632494e+00 7.906363e+00 1.027886e+01 2.832960e+00 2.807704e+00 1.953173e-02 -1.314860e+00 -1.834340e+00 2.664024e+00 5.049797e-01 4.645780e-01 1.927926e+00 -4.680085e-03 -1.399121e+00 -3.225756e-01 5.555871e-01 7.581929e-01 1.694848e-01 5.962449e-02 
-7.278738e+00 4.745741e+00 -1.435806e+00 -1.586684e+00 9.844125e+00 2.576895e+00 1.944658e-01 -3.827853e+00 2.656579e+00 3.103903e+00 5.170854e+00 4.898172e+00 1.840121e-02 -2.003150e+00 -3.382360e+00 3.408597e+00 1.025937e+00 -1.092211e-01 1.577426e+00 -1.128374e+00 -1.562773e+00 -1.187003e+00 -6.044220e-01 6.140364e-01 4.825988e-01 9.618721e-02 
-1.451259e+01 -7.691872e+00 8.470715e+00 -8.609176e-01 5.185458e+00 8.063160e+00 8.142179e-01 -4.283768e+00 4.446171e+00 1.618590e+00 4.679891e+00 3.135349e+00 3.111115e-01 -7.169880e-01 -1.239590e+00 1.566166e+00 6.166965e-01 -7.996727e-01 -6.291451e-02 1.173026e-01 -2.816030e-01 -5.748813e-01 -1.090620e+00 -3.084486e-01 4.687219e-02 3.431541e-02 
-1.442945e+01 -7.391912e+00 8.597610e+00 -6.084681e-01 4.122880e+00 8.419287e+00 -1.270617e+00 -6.893381e+00 1.437778e+00 1.621387e+00 7.836266e+00 7.885897e+00 3.488231e-01 4.043718e-01 7.095481e-01 -6.950490e-01 -1.721227e+00 -1.515180e+00 -4.895896e-01 -2.722567e-01 1.565582e+00 8.145655e-01 2.867207e-01 -9.628240e-01 -1.675015e+00 -1.945972e-02 
-7.334150e+00 3.603538e+00 -1.469989e+00 -5.894788e+00 2.697655e+00 2.253735e+00 2.868358e+00 -2.507745e+00 5.641356e+00 5.567014e+00 -4.198933e-02 1.548203e+00 2.589780e-02 1.657753e+00 3.532457e+00 -2.247617e+00 -2.210787e+00 3.084148e-01 -2.089397e+00 -6.944897e-01 3.072335e+00 -5.014726e-01 -6.271518e-01 -1.045226e+00 -1.498067e+00 -7.631384e-02 
-8.846098e+00 2.645777e+00 5.930018e-02 -7.675886e+00 3.512129e+00 3.033660e+00 -2.193888e+00 3.112047e+00 6.131813e+00 2.563295e+00 2.717674e+00 -2.683331e+00 6.370944e-02 1.794888e+00 2.513410e+00 -1.596809e+00 -1.027465e+00 5.200726e-01 -1.230128e+00 -1.193142e+00 1.065426e+00 -5.952655e-01 -1.601342e+00 -1.391597e+00 -9.512709e-01 -6.631000e-02 
-9.015499e+00 4.951569e+00 1.501785e+00 -8.381144e+00 7.032908e+00 3.089901e-01 -2.196595e+00 6.075192e+00 -4.082090e-01 -1.988123e+00 2.013055e+00 9.296278e-01 7.209909e-02 1.056467e+00 2.123702e-01 -2.898499e-01 -2.132313e-01 -6.270006e-01 -3.824573e-01 -6.675788e-01 -4.474415e-01 -1.044794e+00 -2.090735e+00 -9.993984e-01 5.451494e-01 -1.213259e-02 
-4.614331e+00 4.501123e+00 -8.723211e-01 -4.502617e+00 4.555617e+00 3.241019e+00 -4.703850e+00 -5.857720e+00 1.486234e+00 -2.607754e+00 -1.492410e-01 3.438829e+00 -5.827546e-03 1.087177e+00 -2.217958e-01 -1.253614e+00 -3.146742e-01 -1.659517e+00 -4.424693e-01 1.740429e+00 -5.668456e-01 -4.657213e-01 -9.547987e-02 -9.980831e-01 7.130186e-02 -9.146333e-03 
-4.167698e+00 3.737716e+00 -2.453428e+00 -8.547579e+00 -9.590917e-01 2.377684e-01 7.854452e-01 -2.600691e-01 2.740177e+00 -2.301136e+00 -3.605524e+00 1.212870e+00 3.337860e-06 9.388722e-01 -3.630107e-01 -1.020797e+00 -8.059248e-01 -2.697646e+00 -1.275206e+00 2.949424e+00 1.260973e+00 9.803626e-01 1.760758e+00 6.390498e-02 -1.823826e+00 -5.662441e-04 
-5.834116e+00 2.143724e+00 -4.231164e+00 -9.166039e+00 -7.894530e-01 8.569244e-01 5.017238e+00 3.445449e+00 2.229014e+00 2.242402e+00 5.365474e-01 -2.468443e+00 5.402565e-02 -9.750376e-02 -5.428834e-02 -2.586998e-01 -6.552812e-01 -1.689148e+00 -2.262837e+00 1.111846e+00 2.511920e+00 2.078479e-01 2.154861e+00 1.783904e+00 -1.457620e+00 1.137570e-02 
-3.711246e+00 4.315215e+00 -1.922781e+00 -1.007906e+01 -3.782786e+00 -4.874991e+00 7.689983e+00 7.728473e+00 4.122214e+00 4.390588e+00 1.989686e+00 -5.235866e+00 3.934127e-02 -4.369173e-01 4.686809e-02 -4.459183e-01 6.923092e-01 7.972950e-01 -4.594707e-01 -1.519552e-01 5.693761e-01 5.080471e-01 2.234831e+00 2.995872e+00 1.271479e+00 5.973601e-03 
-5.330076e+00 3.940932e+00 -2.431144e+00 -7.013284e+00 -2.478275e+00 -5.516787e+00 -2.596889e+00 2.707611e+00 1.834455e+00 4.820691e+00 5.972674e+00 -6.249044e-01 3.138196e-02 -6.035286e-01 -4.736576e-02 -4.456744e-01 1.354992e+00 1.565627e+00 5.616791e-01 -5.805320e-01 -1.459435e+00 2.246604e-01 -6.094369e-01 3.985450e-01 2.007571e+00 -3.043056e-03 
-6.604304e+00 3.073453e+00 -5.583030e+00 -6.162410e+00 3.871794e+00 1.127270e+00 3.832733e+00 2.955731e+00 5.477692e+00 7.583875e+00 8.655771e+00 6.648494e+00 4.119319e-02 -1.219325e+00 -4.788805e-01 -3.277742e-01 1.901670e+00 2.895998e+00 1.811831e+00 -1.187320e+00 -2.376248e+00 -6.721372e-01 -9.108301e-01 -3.587193e-01 1.484962e+00 -4.096329e-04 
-7.405230e+00 2.527776e+00 -4.629412e+00 -4.349400e+00 3.211394e+00 6.641893e-01 4.043203e+00 -1.465353e+00 2.674577e+00 -2.401425e+00 -8.037703e-01 1.627232e+00 3.788441e-02 -4.349235e-01 4.828495e-02 3.781647e-01 9.990649e-01 1.574394e+00 1.369666e+00 3.976679e-01 -9.600774e-01 3.199199e-01 -7.435941e-01 -1.069281e+00 -4.156727e-01 -4.032237e-03 
-8.770292e+00 2.627390e+00 -2.462518e+00 -1.902646e+00 7.852366e+00 1.093678e+00 -1.566666e+00 -2.066285e+00 3.414670e-01 3.447496e+00 3.584311e+00 1.062877e+00 3.404188e-02 -7.208633e-02 -1.938871e+00 7.993593e-01 -1.084372e+00 1.293213e+00 -1.003670e+00 8.388772e-01 2.138462e-01 4.819133e-01 -5.942920e-01 -2.582599e+00 -2.509498e+00 7.530488e-02 
-6.421700e+00 4.405388e+00 -2.100576e+00 -4.147841e+00 3.403411e+00 1.348339e+00 2.091149e+00 4.182317e-01 6.002167e+00 3.170910e+00 3.161999e+00 8.954048e-02 1.479644e-02 3.018581e-01 -2.897015e+00 2.318625e-01 -2.767319e+00 1.096015e+00 -2.657824e+00 1.195637e+00 6.643625e-01 7.223691e-01 2.880648e-01 -2.275348e+00 -1.858376e+00 2.052123e-01 
-7.456501e+00 -7.559710e+00 -2.850651e+00 -1.168505e+01 1.024185e+01 -4.233153e+00 9.003145e+00 3.083170e+00 6.223464e+00 1.826247e+00 -6.240111e+00 -5.130153e+00 4.292616e-01 1.669317e+00 -1.766163e+00 3.627841e-01 -1.998779e+00 4.521399e-01 -3.204936e+00 2.174772e-01 -1.177132e+00 1.320554e-01 -1.465164e+00 -2.354197e+00 -3.680285e-01 2.275510e-01 
-6.552835e+00 -6.863750e+00 -3.276033e+00 -1.329479e+01 7.496728e+00 -9.961513e+00 4.736484e+00 -7.182676e-01 3.345424e+00 -1.504767e-01 -7.268299e+00 -4.568136e+00 8.663360e-01 2.457944e+00 -4.958840e-01 7.295021e-01 1.394105e+00 -9.643933e-01 -2.254475e+00 -2.534089e+00 -4.421041e+00 -6.771465e-01 -1.269650e+00 -1.338700e-01 2.694224e-01 2.225236e-01 
-3.581400e-01 -5.688581e-01 -6.086946e-02 -7.323068e+00 8.066408e+00 -9.276078e+00 -1.801947e+00 -7.383698e+00 2.330115e+00 -2.217630e+00 -2.971522e+00 1.551572e+00 7.460272e-01 4.080770e+00 5.195308e-01 1.045494e+00 5.619204e+00 -3.967316e+00 -4.234012e-01 -4.277956e+00 -5.729706e+00 -7.795562e-01 -1.018847e-01 1.946178e+00 1.747937e+00 1.195979e-01 
2.318843e+00 -1.569458e+00 1.520443e-01 6.416926e-01 -3.308344e-01 -7.402573e+00 -5.176747e+00 -1.645354e+01 4.563109e+00 -1.155399e+00 8.583546e-01 -1.904210e+00 9.690315e-01 4.657361e+00 -1.375035e+00 3.398482e-01 7.370467e+00 -2.541703e+00 4.709975e-01 -3.758198e+00 -2.085817e+00 -1.737226e+00 4.439345e-01 2.377127e+00 1.020436e+00 1.123798e-02 
8.511513e+00 -7.609201e+00 6.627800e-01 9.442726e+00 -5.680949e+00 -7.629629e+00 -7.430021e+00 -1.769773e+01 1.716841e+00 1.819284e+00 -5.725493e-01 2.277571e+00 9.759033e-01 2.694166e+00 -1.321538e+00 -9.168308e-01 4.292618e+00 5.418704e-01 5.464534e-01 -3.160280e+00 9.004859e-01 -1.766362e+00 3.626953e-01 5.477875e-01 3.482504e-02 -1.727787e-02 
1.229914e+01 -1.021875e+01 -1.938616e+00 1.517465e+01 1.661891e+00 -8.429749e+00 -1.124047e+01 -5.990336e+00 -5.034068e+00 5.073881e-02 3.417852e+00 1.710433e-01 8.075879e-01 2.434597e+00 -1.103820e+00 -1.356627e+00 1.643020e+00 2.053196e+00 4.708493e-01 -2.390050e+00 2.113599e+00 -1.726615e+00 4.085324e-01 -8.301600e-01 -2.393593e-01 -4.204928e-02 
8.122541e+00 -2.851904e+00 -3.599693e+00 6.873543e+00 9.779397e+00 -6.030223e+00 -1.457148e+01 -8.112867e+00 -1.703108e+00 -1.007222e+00 -1.512333e+00 6.880707e-01 7.403597e-01 2.489767e+00 -1.313460e+00 -1.244663e+00 1.685696e-01 2.534144e-01 1.849948e+00 -2.795420e+00 1.233900e+00 -9.354733e-01 7.198541e-01 -1.179532e+00 -1.049373e+00 -1.481831e-04 
1.468631e+01 -9.467206e+00 -4.499856e+00 1.014138e+01 2.204975e+00 -5.848029e+00 -1.355626e+01 -1.067797e+01 -2.359990e+00 2.300516e+00 -2.822554e+00 -2.306257e+00 8.765569e-01 2.367359e+00 -1.899094e+00 -4.736295e-01 -6.822395e-02 -2.779479e+00 2.643748e+00 -2.898664e+00 2.239690e-02 -2.086796e-01 1.481321e+00 -1.762002e+00 -4.994970e-01 4.934755e-02 
1.976676e+01 -1.455228e+01 -4.279914e+00 1.280221e+01 -4.685419e+00 3.292487e-01 -2.024923e+01 -9.184410e+00 -4.297565e+00 4.293666e+00 -3.350005e+00 -1.730646e+00 9.406779e-01 2.256530e+00 -2.502012e+00 3.670684e-02 1.146055e+00 -3.724503e+00 2.005860e+00 -2.648522e+00 1.198833e+00 -8.679053e-01 1.922113e+00 -1.078939e+00 -2.116761e-01 5.518347e-02 
1.831383e+01 -1.386404e+01 -3.966653e+00 1.186920e+01 -5.003096e+00 1.609255e+00 -2.289492e+01 -5.342581e+00 -4.780237e+00 4.806900e+00 -4.473322e+00 -1.117084e+00 9.541665e-01 2.330466e-01 -5.608331e-01 3.169489e-01 3.124027e-01 -1.530354e+00 8.052515e-01 -2.017148e+00 1.680145e+00 -2.674112e-02 8.416234e-01 -7.633481e-01 2.564884e-01 2.652116e-02 
1.759143e+01 -1.316355e+01 -3.682760e+00 1.173991e+01 -5.239083e+00 2.704359e-01 -2.314477e+01 -4.786396e+00 -4.832511e+00 7.350149e+00 -6.081642e+00 -9.648964e-01 9.774722e-01 -7.830452e-01 3.299310e-01 3.476926e-01 1.667707e-01 -3.067078e-01 -1.119875e+00 -3.884331e-01 1.373888e+00 6.601940e-01 -2.137014e-01 -5.286098e-01 -1.098855e-01 1.552432e-02 
1.693921e+01 -1.296573e+01 -3.213688e+00 1.223454e+01 -5.169964e+00 -1.792365e+00 -2.219424e+01 -4.476250e+00 -2.226223e+00 4.980392e+00 -5.273476e+00 -1.406689e+00 9.907656e-01 -5.610745e-01 1.092317e-01 4.609574e-01 9.559128e-01 -8.200821e-01 -1.396257e+00 2.416842e-01 1.128487e+00 5.172119e-01 -1.052878e+00 -2.252227e-01 -1.658159e-01 1.052724e-02 
1.653885e+01 -1.335177e+01 -2.917933e+00 1.345339e+01 -6.135523e+00 -3.569317e+00 -2.254173e+01 -2.748135e+00 -2.273603e+00 3.138413e+00 -5.592977e+00 -2.135270e+00 1.000000e+00 -3.550332e-01 -3.233253e-01 8.876638e-01 1.588532e+00 -1.365531e+00 -1.216649e+00 6.820162e-01 1.147099e+00 1.433162e-01 -1.960913e+00 2.834477e-01 -2.128651e-01 4.545152e-03 
1.603475e+01 -1.322377e+01 -2.044280e+00 1.579202e+01 -8.655287e+00 -3.452152e+00 -2.198802e+01 -7.192780e-01 -3.473632e+00 1.648378e+00 -5.843768e+00 -1.360976e+00 9.955388e-01 -5.491394e-01 -4.508228e-02 1.110039e+00 1.604816e+00 -1.539372e+00 -1.093193e+00 1.294626e+00 8.889820e-01 -5.400950e-01 -1.886330e+00 4.587035e-01 -4.789965e-01 3.176332e-04 
1.626850e+01 -1.465116e+01 1.708546e-01 1.790383e+01 -1.032408e+01 -4.982916e+00 -1.983780e+01 -9.293879e-01 -3.492225e+00 -7.884111e-01 -4.379257e+00 -2.052078e+00 9.978113e-01 -8.600700e-01 3.730659e-01 1.382807e+00 1.337897e+00 -1.612590e+00 -7.327684e-01 1.727709e+00 4.074320e-01 -8.017143e-01 -1.722774e+00 7.406110e-01 -6.122569e-01 -2.925903e-03 
1.432869e+01 -1.254145e+01 7.921121e-01 1.803341e+01 -1.077255e+01 -6.551533e+00 -1.707308e+01 -9.407135e-01 -4.317386e+00 -2.487848e+00 -3.586818e+00 -3.843267e+00 9.934481e-01 -8.573774e-01 6.664070e-01 1.635712e+00 7.358646e-01 -1.554704e+00 -2.793660e-01 2.143575e+00 -4.053741e-01 -1.009597e+00 -1.434731e+00 5.275189e-01 3.211319e-03 -1.073071e-02 
1.309153e+01 -1.182760e+01 2.577904e+00 1.902218e+01 -1.313984e+01 -5.683469e+00 -1.636066e+01 -6.002566e-01 -5.860297e+00 -3.407344e+00 -3.018397e+00 -3.955409e+00 9.864159e-01 -6.995831e-01 1.014243e+00 1.696786e+00 5.793636e-01 -2.020920e+00 1.005312e+00 1.320830e+00 -6.639273e-01 -1.032183e+00 -1.146893e+00 3.874904e-02 3.347957e-01 -1.878849e-02 
1.333635e+01 -1.130351e+01 4.930754e+00 1.891217e+01 -1.502093e+01 -4.498705e+00 -1.300871e+01 -2.910714e+00 -7.337582e+00 -4.215813e+00 -3.886604e+00 -3.932542e-01 9.475830e-01 -4.640842e-01 1.229084e+00 1.790839e+00 4.594013e-01 -1.782380e+00 1.339793e+00 9.922277e-01 -1.214095e+00 -7.519163e-01 -9.668844e-01 -2.840153e-01 5.412819e-01 -2.887150e-02 
1.326675e+01 -1.019892e+01 6.585464e+00 2.036127e+01 -1.830449e+01 -9.827678e-01 -1.526582e+01 -3.264024e+00 -7.143040e+00 -5.658892e+00 -4.035619e+00 -2.103106e+00 9.268014e-01 -6.836563e-01 1.731542e+00 1.705803e+00 -1.870117e-02 -9.965767e-01 1.003202e+00 1.064319e+00 -1.501484e+00 -5.025675e-01 -9.191297e-01 -2.435123e-01 2.697857e-01 -3.530423e-02 
1.192065e+01 -7.210373e+00 7.742527e+00 1.966087e+01 -1.710213e+01 -2.202917e+00 -1.265936e+01 -5.679306e+00 -7.435596e+00 -6.196496e+00 -4.498284e+00 -2.063009e+00 8.788978e-01 -1.243604e+00 2.702385e+00 1.134350e+00 -8.610426e-01 -5.962257e-02 -6.261543e-02 1.387031e+00 -1.103595e+00 3.831622e-01 -7.925185e-01 -1.216732e-01 -2.047763e-01 -4.106159e-02 
1.038109e+01 -5.216459e+00 9.701033e+00 1.855433e+01 -1.708212e+01 -1.815353e+00 -1.121374e+01 -6.723379e+00 -8.324127e+00 -7.012650e+00 -3.930119e+00 -1.771603e+00 8.442373e-01 -1.324908e+00 3.062713e+00 1.098383e+00 -2.289540e+00 -1.482944e-01 -1.350063e+00 2.280917e+00 1.555694e-01 1.883190e+00 -1.052245e-01 -4.812264e-01 2.368435e-01 -4.585420e-02 
8.561158e+00 -2.828133e-01 9.044718e+00 1.551043e+01 -1.593022e+01 -4.395490e+00 -8.099601e+00 -6.699013e+00 -4.831227e+00 -7.501526e+00 -4.547720e+00 -1.582887e+00 7.835571e-01 -8.847526e-01 3.024884e+00 1.145653e+00 -3.650766e+00 -1.384885e+00 -1.402410e+00 2.984184e+00 9.488178e-01 3.450413e+00 1.432967e-03 -5.166267e-01 2.109420e-01 -4.182377e-02 
8.321957e+00 1.650870e+00 1.142628e+01 1.098879e+01 -1.963191e+01 -6.636797e+00 -6.141117e+00 -1.976324e+00 9.707246e-01 -5.532500e+00 -6.417033e+00 -1.158950e+00 7.452008e-01 -6.109074e-01 2.948683e+00 1.409941e+00 -4.784576e+00 -1.613546e+00 -5.389591e-01 3.434477e+00 1.587542e+00 2.774595e+00 4.068647e-01 -5.510745e-01 -2.723286e-01 -3.728100e-02 
8.526457e+00 4.480382e+00 1.260817e+01 5.189808e+00 -2.275166e+01 -6.804244e+00 -2.747500e-01 -3.308744e+00 5.169043e+00 -6.929407e+00 -5.837960e+00 -1.314626e+00 7.192973e-01 -1.722592e-01 2.454239e+00 1.503404e+00 -4.424501e+00 -9.247406e-01 1.503377e+00 2.715173e+00 4.856514e-01 1.257710e+00 6.689540e-01 -8.695938e-01 -3.242891e-01 -3.534180e-02 
7.343904e+00 7.145357e+00 1.496901e+01 -2.082467e-01 -2.173914e+01 -3.305772e+00 2.046214e+00 -4.808043e-01 5.487100e-01 -5.264386e+00 -6.040371e+00 -3.267377e+00 6.899623e-01 -1.028406e-01 2.207078e+00 4.634395e-01 -3.887505e+00 1.227620e+00 3.716056e+00 2.879115e+00 -1.382239e+00 -7.517215e-01 -3.053654e-01 -4.056410e-01 -1.014865e+00 -3.860258e-02 
8.188888e+00 9.241137e+00 1.479037e+01 -1.013563e+00 -1.950031e+01 1.455884e+00 1.382597e+00 -5.018516e+00 1.668332e+00 -4.290812e+00 -9.084021e+00 -2.150119e+00 6.344674e-01 -2.977877e-02 1.378597e+00 -6.064627e-01 -3.303162e+00 3.381332e+00 5.122791e+00 9.430689e-01 -9.977593e-01 -1.172724e+00 5.392943e-02 -5.197036e-01 -1.717621e+00 -4.367935e-02 
7.976538e+00 1.030588e+01 1.265238e+01 -5.347051e+00 -1.511949e+01 7.813418e+00 7.425782e+00 -8.032632e+00 -1.037528e+00 -8.378624e+00 -6.822208e+00 -5.815527e+00 5.946028e-01 5.025788e-01 -8.543434e-02 -1.971131e+00 -3.134506e+00 3.176873e+00 4.407382e+00 1.229647e+00 -1.173291e+00 -1.724065e-01 1.059232e+00 -3.633268e-01 -4.638394e-01 -5.391240e-02 
8.061247e+00 9.793107e+00 1.073417e+01 -8.756599e+00 -9.154819e+00 1.325012e+01 1.750810e+00 -4.521626e+00 9.854221e-02 -5.102641e+00 -8.045560e+00 -8.628658e+00 5.485803e-01 -2.211686e-01 -7.900126e-01 -2.786188e+00 -1.709971e+00 4.511556e+00 1.500948e+00 1.374635e+00 1.243843e+00 6.520324e-01 1.429831e+00 1.445657e+00 -2.289438e-01 -8.797472e-02 
9.920619e+00 6.442201e+00 7.141459e+00 -1.200926e+01 -1.102752e+01 1.283403e+01 8.010342e+00 -6.595704e+00 4.715725e-01 4.376855e-01 -8.376235e+00 -2.347305e+00 4.633438e-01 -1.291921e+00 -1.934698e+00 -1.832293e+00 1.199852e+00 4.078313e+00 -2.710666e+00 4.788564e-01 4.497045e+00 -2.678998e-01 1.192357e-01 2.785472e+00 1.110872e+00 -9.452194e-02 
6.111004e+00 7.222914e+00 3.614891e+00 -6.232314e+00 1.011485e+00 6.450319e+00 7.963492e+00 4.822338e-01 4.173944e+00 -1.549812e+00 -1.078720e+00 -5.028950e+00 2.602233e-01 -2.117660e+00 -2.778448e+00 -1.830885e+00 2.816934e+00 2.886998e+00 -4.253736e+00 1.281061e+00 4.906620e+00 -1.797535e+00 -2.089516e+00 3.355038e+00 1.479344e+00 -8.250447e-02 
2.492052e+00 1.917485e+00 7.050552e+00 -6.099334e-01 1.889257e-01 -2.340014e+00 6.713723e+00 1.195066e+01 -4.414728e+00 -9.558860e+00 3.621734e+00 -2.061024e+00 2.661716e-01 -2.328467e+00 -2.154066e+00 -1.628128e+00 2.183197e+00 1.969939e+00 -3.759235e+00 -5.971799e-02 3.347894e+00 -2.579261e+00 -2.287144e+00 2.592916e+00 3.208748e-01 -6.440212e-02 
1.187230e+00 -1.836776e+00 1.625200e+00 -3.715901e-01 -3.280511e-01 -4.315472e-01 8.804423e+00 1.073829e+01 -6.445981e+00 -1.055195e+01 2.730643e+00 -1.375076e+00 2.346440e-01 -1.552060e+00 -1.737524e+00 -2.320138e+00 2.419372e-02 1.476400e-01 -1.764269e+00 -1.085772e-01 7.187207e-01 -1.710709e+00 -7.835407e-01 1.544809e-01 6.635956e-01 -4.337220e-02 
7.401714e-01 2.017158e-01 -4.333973e-03 -4.023633e+00 -5.080566e-01 -2.521217e+00 7.291286e+00 5.015736e+00 -7.114771e+00 -6.496965e+00 2.683666e+00 -2.569867e+00 1.541228e-01 -5.504899e-01 2.298828e-01 -3.358603e+00 -1.283657e+00 1.650740e-01 -3.669944e-01 -1.506378e-01 -1.877732e+00 1.229923e+00 1.290593e+00 -5.980397e-01 2.070290e-01 -4.759472e-02 
-7.733545e-01 -6.068230e-01 -4.458358e+00 -4.404496e+00 2.098176e+00 -2.280421e+00 7.131824e+00 7.543300e+00 -3.029579e+00 -6.998463e+00 1.627185e-01 -1.456550e+00 9.938669e-02 -4.861559e-01 1.422826e+00 -1.189523e+00 -6.120154e-01 4.483496e-01 7.158194e-02 1.440744e-02 -2.168277e-01 2.382747e+00 2.221575e+00 -1.307412e-01 2.335653e-01 -4.012769e-02 
7.198944e-01 2.451923e+00 -6.700682e+00 -5.011768e+00 -1.988177e-01 -3.250548e+00 6.796834e+00 4.159496e+00 2.668619e-02 -4.882637e+00 1.915498e+00 -9.851420e-01 9.582669e-02 -4.403196e-01 1.409744e+00 2.507875e-01 6.012973e-01 7.707236e-02 5.936905e-01 2.491902e-01 3.403338e-01 1.292113e+00 2.106580e+00 -2.388361e-01 1.973305e-01 -1.730650e-02 
-1.233411e+00 4.152248e+00 -9.742440e-01 -2.937600e+00 1.759077e+00 2.910281e-01 9.123687e+00 1.008227e+01 1.897024e+00 -2.512394e-01 2.461021e+00 -9.996122e-01 6.315362e-02 -6.423789e-01 9.569921e-01 1.247554e+00 1.172242e+00 3.888686e-01 1.810045e+00 1.259270e+00 -5.579787e-01 -1.696548e-02 8.727784e-01 6.471373e-01 3.240650e-01 -1.016575e-02 
-1.231399e+00 4.870898e+00 -4.924535e-01 -1.750595e+00 4.685450e-02 -8.384894e-01 7.541306e+00 5.447919e+00 -3.117507e+00 6.623211e-01 3.403347e-01 -1.811684e+00 8.570689e-02 -6.152226e-01 5.571249e-01 1.276523e+00 1.023475e+00 1.033316e+00 9.201409e-01 4.834137e-02 -6.471239e-01 1.172395e-02 2.132170e-01 -2.453005e-01 5.013215e-01 -9.825801e-03 
-3.009603e+00 2.968650e+00 -1.324701e+00 -1.738715e-01 3.919683e+00 5.563775e+00 1.305594e+01 4.109195e+00 -1.542310e+00 -5.407050e+00 4.185986e+00 5.770460e-01 5.361784e-02 -1.597316e-01 4.054022e-03 -8.858080e-02 2.905346e-01 7.739990e-01 1.469826e-01 -8.842844e-01 -1.329592e+00 1.858456e-01 9.202043e-01 -6.718941e-01 8.162778e-01 -7.418275e-04 
-1.468122e+00 5.829346e+00 -1.428356e-01 -1.276257e+00 3.887458e+00 -1.286218e+00 5.072415e+00 3.910415e+00 1.804973e+00 -1.238647e+00 -1.734872e-01 7.331363e-01 5.146557e-02 -1.969936e-01 -5.187970e-01 -3.546826e-01 -4.446941e-01 6.155574e-01 -3.912880e-01 -6.050708e-01 1.599259e-01 5.741760e-01 1.677038e+00 4.106681e-01 2.549499e-01 4.532814e-04 
-1.913707e+00 3.693294e+00 -1.591957e+00 -1.722095e+00 3.708771e+00 1.249805e+00 5.936710e+00 4.203063e+00 3.650126e-01 5.300265e+00 -6.415386e-01 1.809367e+00 7.656515e-02 -3.483295e-02 -5.859653e-01 -2.943913e-01 -4.007935e-01 7.797011e-02 -7.516907e-01 -5.182705e-01 6.556869e-01 -1.104459e+00 5.171190e-01 -4.190503e-01 -1.000664e+00 8.006001e-03 
-2.764315e+00 1.914591e+00 -2.132238e+00 -3.199953e+00 3.230097e+00 -6.379443e-01 8.075565e+00 6.200614e+00 -1.200288e+00 3.693856e+00 4.807437e+00 -1.153095e+00 7.649964e-02 -1.765645e-01 -8.020895e-01 -3.901698e-01 -6.660382e-01 2.306004e-01 7.060744e-01 1.069928e+00 1.061115e+00 -1.232287e+00 -1.601958e+00 -3.737953e-01 -1.683536e+00 6.839877e-03 
-2.535671e+00 1.996202e+00 -1.801956e+00 -1.215991e+00 4.638214e+00 1.481185e+00 8.963009e+00 6.242529e+00 -5.561974e+00 -5.287706e+00 -3.997278e-01 -3.483159e+00 8.113080e-02 6.359537e-01 -6.508905e-01 2.025385e-01 -3.985758e-01 -1.164456e+00 -2.099595e-02 1.394240e+00 -1.388909e+00 -5.459689e-01 -5.488639e-01 -2.708470e-01 -7.772585e-01 1.394905e-02 
-2.039963e+00 2.667445e+00 -1.988685e+00 -4.859500e+00 4.575738e+00 2.128464e+00 8.908906e+00 8.196255e+00 -1.392969e+00 -3.954451e+00 -2.163369e+00 -5.038280e+00 8.338213e-02 5.033288e-01 3.878615e-02 1.133012e+00 7.031076e-01 -9.370927e-01 1.276259e-01 5.192450e-01 -2.059741e+00 2.152081e-01 1.323998e+00 1.952238e-02 -8.291578e-02 1.100954e-02 
9.038858e-01 6.241465e-02 -6.510410e-01 -2.885201e+00 -2.786330e+00 -2.383787e-01 1.249124e+01 -3.739301e+00 -2.268491e+00 6.380099e+00 1.489630e+00 -1.343336e-01 1.428692e-01 2.364132e-01 2.024447e-01 9.463577e-01 8.406693e-01 -3.865102e-01 -5.474912e-01 4.236499e-01 -5.245827e-01 5.380549e-01 1.669044e+00 3.077664e-01 1.268858e+00 4.412669e-03 
-1.967449e+00 3.075415e+00 2.957365e+00 1.150190e+00 2.256906e+00 8.599670e-01 8.907677e+00 8.928268e-01 -1.770989e+00 4.479941e+00 3.960371e+00 -3.242086e+00 1.006781e-01 -5.592872e-01 -2.892868e-01 -3.217995e-02 1.532046e+00 7.525092e-01 -1.206086e-01 -2.153197e-01 2.722263e-01 2.065305e-01 2.975334e-01 7.027694e-01 1.147245e+00 -1.914048e-03 
-1.389862e+00 2.804440e+00 4.568076e-01 -1.748896e-02 3.865079e+00 -6.220227e-01 1.108187e+01 7.271330e+00 -2.682689e+00 -1.159682e+00 -1.922766e+00 1.963035e+00 9.454614e-02 -9.201543e-01 9.258737e-02 -6.978510e-01 4.850934e-01 1.608065e+00 -5.912896e-01 -1.233887e+00 1.783062e+00 -7.347790e-01 -4.290530e-01 1.577704e-01 3.147298e-01 -6.595051e-03 
-3.689525e+00 -1.500020e-01 -2.703509e+00 1.366873e+00 5.012580e+00 1.717244e+00 8.536989e+00 4.052071e+00 -1.532174e-01 1.303107e+00 3.056675e+00 -3.507375e-01 9.797341e-02 -2.726072e-01 3.445701e-02 -1.230900e+00 -3.866481e-01 1.018726e+00 1.027900e-01 -1.078378e+00 5.228383e-01 -7.625186e-02 -8.675031e-02 5.970448e-01 1.855564e-01 -2.675295e-04 
-2.835848e+00 2.138060e+00 -1.309859e+00 -5.680757e-01 3.876157e+00 -3.623465e+00 6.507147e+00 3.596387e+00 -6.751272e+00 5.823252e+00 2.730330e+00 -6.359220e-03 1.112463e-01 -2.772487e-01 6.075562e-01 -1.479605e-01 -7.221386e-01 7.486744e-01 1.302754e+00 2.659732e-01 6.225040e-01 1.079863e+00 2.224555e-01 7.758685e-01 -1.064181e+00 -5.499631e-03 
-2.607492e+00 3.580890e+00 -2.313800e+00 -5.077572e-01 7.344998e+00 2.874639e+00 5.803149e+00 5.344490e+00 -1.179569e-01 5.547230e-01 4.619047e+00 -1.329608e+00 9.099042e-02 3.555298e-01 1.274318e+00 1.077667e+00 -8.110820e-01 2.767392e-01 8.362131e-01 1.400142e+00 1.031085e+00 1.781071e-01 -1.107020e+00 -7.781784e-01 -1.142237e-01 -1.197875e-02 
-3.317122e+00 3.976775e+00 -4.778495e-01 -2.690867e+00 6.442242e+00 5.313051e+00 1.377866e+01 9.737640e+00 2.698996e+00 3.267875e-01 1.175391e+00 -2.868435e+00 7.053947e-02 4.340468e-02 4.567162e-01 -7.165551e-02 -1.353198e+00 -5.246885e-01 1.197840e-01 7.508486e-01 1.271443e-02 -5.029478e-02 -2.050450e+00 -1.334534e+00 -6.173662e-02 -1.222974e-02 
-1.671239e+00 5.302228e+00 2.268820e+00 -1.627141e+00 5.113234e+00 1.430051e+00 1.190194e+01 6.136871e+00 -3.987816e+00 -1.483761e+00 -5.674744e-02 5.091817e-01 5.843306e-02 -1.858203e-01 1.557438e-02 -3.219235e-01 -1.333109e+00 -8.115609e-01 -1.265625e+00 1.128096e-01 -5.740145e-01 -2.232760e+00 -5.190266e-01 -5.652331e-01 2.927303e-01 -1.782078e-03 
-3.086951e+00 3.560972e+00 -3.959446e+00 -6.774374e+00 2.368597e+00 -2.302252e+00 7.211993e+00 3.263769e+00 -5.067817e+00 -3.409755e+00 -1.604442e+00 -1.234437e+00 6.637627e-02 -4.179960e-01 -1.272141e-01 -6.836368e-01 -2.130649e-01 -6.384494e-01 -2.998520e-01 -1.334942e+00 -1.128686e+00 -1.601756e+00 -4.712958e-02 3.319362e-01 1.029904e+00 1.077383e-02 
-3.651679e+00 3.866663e+00 -2.182619e+00 -5.131549e+00 5.324016e+00 3.541675e-01 9.650530e+00 5.711353e+00 -7.398351e+00 -1.721393e-01 3.182798e+00 -6.829551e-01 8.416164e-02 -5.352576e-01 -4.319896e-01 -7.459742e-01 -3.429684e-01 -2.952577e-01 2.974347e-01 -6.898501e-01 2.162816e-01 7.799938e-01 -2.020403e-01 3.392201e-01 1.425920e-01 5.724919e-03 
-4.416882e+00 4.058487e+00 -1.670314e+00 -2.003988e+00 3.144603e+00 4.351733e+00 8.229656e+00 4.306970e+00 -3.604517e+00 -5.646713e-01 1.215299e+00 2.877156e+00 1.115443e-01 1.506543e-01 2.041282e-01 3.962204e-01 5.250235e-02 -5.562542e-02 -7.959343e-02 -6.227762e-01 5.021096e-01 7.942815e-01 -6.728185e-01 1.786843e-01 3.142269e-01 3.469098e-03 
-3.682562e+00 2.893523e+00 -2.605617e+00 -5.727177e+00 3.248942e+00 -4.097677e-01 7.943861e+00 6.696679e+00 -8.194966e-01 -3.916504e+00 2.294824e-01 -8.336548e-01 6.447363e-02 4.316018e-01 1.545941e-01 -9.238966e-02 -6.651644e-02 -1.096457e-01 -9.656684e-01 -1.232992e+00 5.328717e-02 1.712300e+00 -4.071534e-02 6.399083e-02 3.979296e-01 -1.727295e-03 
-2.318238e+00 5.068183e+00 -1.766846e+00 -6.214048e+00 3.128007e+00 -2.318251e+00 4.951447e+00 5.281655e+00 -4.385837e+00 -4.901665e+00 7.656367e-01 4.120471e-01 9.356576e-02 4.887350e-01 1.393860e-01 -1.842659e-01 -3.421512e-02 4.814109e-01 -1.171125e+00 -9.029153e-01 1.160722e-01 1.268995e+00 1.042419e+00 8.522669e-01 2.697085e-01 -3.401893e-03 
-2.542992e+00 4.134786e+00 -2.596301e+00 -3.359101e+00 4.784086e+00 -1.139182e+00 5.124673e+00 5.490447e+00 1.553807e+00 1.792781e+00 3.727583e+00 2.539247e+00 8.451444e-02 2.054387e-01 1.549128e-01 -8.108251e-02 7.591099e-01 4.726368e-01 -2.797606e-02 -5.465149e-01 -2.203672e-01 1.068625e+00 1.811301e+00 9.958149e-01 8.873004e-01 3.103030e-03 
