-2.320229e+00 1.132218e+01 -2.119196e+00 -1.248123e+01 -1.041001e+01 -1.099213e+01 1.310825e+00 3.611026e-01 1.166270e+00 -3.212511e+00 9.654490e-01 5.462027e-01 -1.265895e-02 -1.463405e+00 4.998989e-02 5.058388e-01 2.073930e+00 1.322587e+00 3.765724e-01 -2.470891e-01 -2.096743e-01 1.279131e+00 1.947495e+00 -6.712010e-02 -3.802841e-02 -1.042594e-02 
-1.279292e+00 1.273339e+01 -4.212720e+00 -1.255613e+01 -1.361723e+01 -1.651348e+01 2.825308e-02 -2.442891e+00 -9.290171e-01 -3.319113e+00 -2.871720e-01 1.141284e+00 2.617663e-02 -2.659032e+00 -2.504812e-01 1.412839e+00 3.659810e+00 3.915005e+00 1.298774e+00 2.518215e-01 3.586520e-01 1.843256e+00 2.141464e+00 1.868828e-01 -1.388359e-01 -2.373390e-02 
-1.015772e+01 1.086653e+01 1.456760e+00 -2.074121e+00 -2.193471e+00 -6.348594e+00 7.166650e-01 7.147279e-01 8.609568e+00 6.578267e+00 1.256159e+00 5.851984e-02 -8.420646e-02 -3.561090e+00 -5.352079e-01 1.700501e+00 3.093418e+00 4.991517e+00 2.810088e+00 -4.445943e-01 2.156619e-01 2.899768e-01 1.951036e+00 9.375016e-01 2.024690e-01 -6.215828e-03 
-1.169664e+01 1.029760e+01 3.157022e+00 6.142728e-01 5.056743e+00 -6.820029e+00 2.867012e+00 1.977550e+00 6.660900e+00 2.599418e+00 1.754508e+00 9.586453e-02 -9.555471e-02 -2.695621e+00 -1.233117e+00 1.348700e+00 2.720404e+00 3.985277e+00 3.012199e+00 -2.231955e-01 7.434193e-01 8.574864e-01 5.825282e-01 1.358986e+00 4.808579e-01 -9.613985e-03 
-1.491701e+01 9.864038e+00 2.698437e+00 -3.599339e+00 5.210584e+00 -1.788415e+00 -2.331526e+00 -7.708081e-01 -1.178804e+00 3.583401e+00 4.632117e+00 2.081258e+00 1.712757e-02 -6.324947e-01 -1.577399e+00 -4.437949e-01 -3.950180e-01 -1.635814e-01 5.696528e-01 -1.725512e+00 2.205627e-02 -6.869022e-01 -8.172972e-01 2.211553e+00 1.841213e+00 3.525859e-02 
-1.237776e+01 7.069050e+00 1.909941e+00 1.808496e+00 2.607127e+00 -3.732574e+00 4.363711e-01 2.016974e+00 8.252601e+00 1.090961e+00 4.819778e+00 2.534205e+00 -7.256031e-02 -7.836914e-03 -7.824179e-01 -4.953293e-01 -1.625272e-01 -1.336942e+00 1.049315e+00 -1.720550e+00 -7.358114e-01 -2.449124e-01 -8.991804e-01 1.450547e+00 2.432931e+00 1.675498e-02 
-1.297964e+01 4.593807e+00 -1.386745e-01 -4.646323e+00 -1.786570e+00 -5.044057e+00 -6.695574e+00 8.052973e-01 4.379207e+00 3.246009e+00 1.078129e+01 8.045414e+00 8.058929e-02 6.087643e-01 -9.078920e-03 1.172969e-01 1.557013e+00 -8.922627e-02 -5.268388e-01 8.119345e-01 1.998208e-01 1.569357e+00 -3.741579e-01 -1.068082e+00 3.767072e-01 -2.175895e-02 
-1.270451e+01 9.020631e+00 2.098931e+00 3.251288e-01 1.870610e+00 5.436563e-02 -3.553713e+00 -2.489559e+00 2.657333e+00 -1.727788e+00 5.932655e+00 9.278442e+00 -4.351068e-02 1.112810e-01 7.058091e-01 6.761410e-01 9.359789e-01 6.162922e-01 3.513075e-01 1.845699e+00 -5.142065e-01 -8.929645e-01 -2.093137e-01 -1.799078e+00 -2.567876e-01 -2.585968e-02 
-1.170981e+01 8.842853e+00 3.190426e+00 4.927411e+00 5.132711e+00 -6.316080e+00 3.723188e+00 2.481563e+00 9.465614e+00 3.121986e+00 -1.264730e+00 5.926752e-01 -1.061920e-01 2.778862e-01 6.311150e-01 8.873444e-01 1.137324e+00 8.963952e-01 5.805383e-01 3.085219e+00 1.082919e-01 -3.633376e-01 -1.009332e-01 -1.283007e+00 -1.855448e+00 -4.756103e-02 
-1.245627e+01 8.473573e+00 3.626095e+00 1.701524e+00 2.228947e+00 -1.340025e+00 4.455482e+00 -1.392191e+00 1.244574e+00 1.064038e-01 1.847396e+00 4.976637e+00 -1.084681e-01 3.443642e-02 -2.797403e-01 2.517167e-01 5.531192e-02 -3.465374e-01 -1.313597e-01 1.773219e+00 1.024891e+00 3.875570e-02 1.698560e+00 7.316044e-01 -1.837301e+00 -1.299698e-02 
-1.171433e+01 8.022911e+00 3.534465e+00 3.520973e-01 2.516237e+00 -1.444170e+00 4.725925e+00 7.980728e-01 3.268898e+00 1.824247e+00 6.408882e+00 9.190750e-01 -1.247371e-01 -3.994751e-03 -1.693102e-01 -2.093391e-01 -2.886071e-01 -4.043043e-01 1.391657e+00 -2.511316e-01 1.394551e-01 -1.313742e-01 4.921858e-01 1.667701e+00 -5.881717e-01 1.148999e-03 
-1.253007e+01 8.031900e+00 3.185495e+00 2.889345e+00 1.446160e+00 -3.038388e+00 4.811014e+00 3.476640e+00 5.949470e+00 7.413880e+00 5.753871e+00 -7.126021e-02 -9.922302e-02 4.259977e-01 3.465713e-01 -3.544442e-01 7.180266e-01 1.087540e+00 3.950245e-01 -6.910805e-01 3.500162e-01 1.928314e+00 1.181820e+00 8.044691e-02 -1.244694e+00 1.659226e-03 
-1.169288e+01 8.217138e+00 2.364031e+00 2.890465e+00 3.502583e+00 1.491385e+00 2.289764e+00 7.444227e-01 6.456296e+00 1.929177e+00 5.120535e+00 1.757653e-01 -1.050695e-01 1.321593e+00 1.327029e+00 -5.035147e-01 4.354054e-01 1.078415e+00 -6.126792e-02 -7.090937e-01 2.451683e-01 8.981910e-01 -3.735881e-01 -9.951868e-01 -7.770337e-01 7.211017e-03 
-1.033700e+01 1.010932e+01 2.439092e+00 4.022473e+00 7.173475e+00 -8.326800e-01 2.218161e+00 3.847147e-01 9.292445e+00 5.963038e+00 2.893804e+00 -8.751786e-01 -1.100057e-01 1.321831e+00 5.225147e-01 -2.321434e-01 -8.635353e-01 -7.104953e-01 -7.351784e-01 -3.380747e-01 -2.915902e-01 -8.442396e-01 -1.109072e+00 -9.756702e-01 -7.612009e-01 5.428624e-03 
-6.202895e+00 1.361934e+01 1.390093e+00 1.962561e+00 5.044656e+00 -2.853364e+00 2.476882e+00 3.569877e+00 6.088366e+00 6.817279e-01 2.862981e+00 -2.564135e+00 -8.329070e-02 2.553543e-01 -2.037965e+00 1.302607e+00 9.214295e-01 -3.010848e+00 -8.273119e-01 1.137431e+00 3.787696e-02 -1.117555e+00 1.811457e-01 -1.028453e+00 -9.751751e-02 5.525159e-02 
-8.665905e+00 7.943370e+00 2.511747e+00 -9.643792e-01 -2.877353e+00 -4.541905e+00 3.027081e+00 6.059623e-01 1.912237e+00 2.492242e+00 2.004297e+00 -2.507315e+00 -8.296931e-02 -7.915039e-01 -2.633062e+00 8.350183e-01 2.369908e+00 -2.341563e+00 -1.251400e-01 -2.941082e-01 -1.274307e+00 -1.315640e+00 2.377316e-01 -3.563734e-01 9.350642e-01 6.591482e-02 
-1.125166e+01 -8.897147e-01 8.840740e+00 9.991038e+00 -6.526239e+00 -7.905624e-01 7.572457e+00 8.231837e-01 4.558625e+00 4.570303e+00 4.230219e-01 5.042458e-01 1.576702e-01 -2.071207e+00 -2.410979e+00 -1.343200e+00 1.877536e+00 -3.402542e-01 8.726597e-01 -4.463796e-01 -1.614446e+00 -1.134468e+00 -6.423675e-01 -2.308874e-01 1.988811e+00 7.079727e-02 
-1.177014e+01 4.198535e+00 2.888860e+00 1.185777e+01 1.251110e+00 -2.489780e+00 -1.800167e+00 -4.613473e+00 3.479117e+00 5.207408e+00 2.331916e+00 2.265952e+00 9.908789e-02 -1.923784e+00 -5.946687e-01 -3.060958e+00 8.942302e-01 1.829107e+00 1.308980e+00 2.792048e-01 -1.648228e-01 -4.407991e-01 -2.174470e+00 -9.272484e-01 8.911384e-01 6.380145e-02 
-1.500681e+01 3.436868e+00 -5.514463e+00 4.939162e+00 1.279154e+00 4.838719e-01 2.658608e+00 -1.892636e+00 -3.674138e-01 -3.887692e+00 1.544735e+00 4.993285e+00 1.796671e-01 -1.266083e+00 8.755134e-01 -3.830626e+00 -5.643618e-01 1.773930e+00 5.030898e-01 -1.482376e+00 3.256906e-01 -1.036759e+00 -1.692976e+00 -2.989978e-01 -6.153221e-02 3.769852e-02 
-1.640725e+01 2.806735e+00 -5.615443e+00 6.032710e+00 2.365485e+00 1.365778e+00 6.880029e+00 1.139758e+00 2.171261e+00 -4.151110e+00 -3.192801e+00 -2.961420e-01 2.250395e-01 -9.824804e-01 -1.482296e-03 -1.222864e+00 -3.709640e-02 1.357749e-02 -2.778525e-02 -1.486831e+00 4.061025e-01 -4.633505e-01 -1.008107e-01 -2.045386e-01 -5.919520e-01 6.078279e-02 
-1.526352e+01 4.183753e+00 -6.060238e+00 1.008176e+01 1.786224e+00 -2.028928e-01 -4.179523e+00 -4.249793e-01 2.875710e-02 7.846832e-01 1.690392e+00 1.477632e+00 2.831870e-01 3.801096e-01 7.058259e-01 8.830082e-01 9.791616e-01 -4.776543e-01 -7.356897e-01 -2.069560e+00 -5.075048e-01 -5.970962e-02 9.913468e-01 4.742924e-01 -9.373709e-01 5.251105e-02 
-1.655419e+01 3.817681e+00 -2.952572e+00 9.100992e+00 1.065463e+00 -2.285324e+00 -5.815256e+00 -3.316790e+00 9.642791e-01 2.367167e+00 1.236395e+00 1.064019e+00 3.512419e-01 1.424343e+00 8.084900e-01 1.299600e+00 -6.256374e-01 -6.356512e-01 -6.375002e-01 -1.323120e+00 -1.302328e+00 -1.630013e+00 -6.176108e-01 9.613029e-01 -5.872789e-01 2.356280e-02 
-1.303280e+01 6.460525e+00 -2.430857e+00 8.300829e+00 -4.591060e-01 -1.369025e+00 -1.341548e+00 -2.201886e+00 -6.247091e-02 -2.190096e+00 1.701599e+00 -3.736495e-01 3.791211e-01 2.684439e+00 -3.573366e-01 1.939415e+00 -1.837376e+00 9.322710e-02 -8.589155e-01 1.005660e+00 7.012627e-02 -1.316268e+00 -2.652547e-01 8.204279e-01 -2.878750e-01 -5.828798e-04 
-1.040089e+01 5.710799e+00 -9.321356e-01 3.794989e+00 3.098946e-01 -1.238657e+00 -1.154558e+00 -4.483428e+00 -5.933191e+00 -5.751774e+00 1.608110e+00 -2.306896e+00 2.948865e-01 6.421969e+00 -2.144651e+00 9.271466e-01 -2.958090e+00 -1.973520e-01 -3.047852e-01 8.524109e-01 1.154499e+00 -1.503497e+00 1.131160e-01 8.109151e-01 -4.596372e-01 5.146465e-02 
-4.917976e+00 1.450511e+00 2.626620e+00 3.547884e+00 2.630143e+00 -5.020804e+00 -1.481572e+00 5.089716e-01 -3.103850e+00 3.517880e+00 5.606674e+00 1.723714e+00 3.084503e-01 7.633417e+00 -4.403547e+00 9.902157e-01 -3.531210e+00 -1.234152e+00 7.145322e-01 -2.408259e-01 1.121631e+00 -5.960001e-01 1.570363e+00 3.552544e-01 3.809002e-01 1.385699e-01 
1.149825e+01 -4.400567e+00 -8.455782e-01 -3.312984e+00 -1.465922e+00 -1.983361e+00 -1.483189e+00 1.100279e+00 -5.032519e+00 7.875872e-02 3.338433e+00 -2.282849e+00 6.439006e-01 6.556046e+00 -4.795483e+00 8.702685e-01 -3.511175e+00 -1.627402e+00 1.235506e+00 1.280968e-01 1.667897e+00 1.301504e-01 2.229619e+00 -9.007864e-01 5.724637e-01 1.926045e-01 
1.418472e+01 -1.050153e+01 2.476942e+00 -5.801234e+00 -5.741958e+00 2.575988e+00 -2.381362e+00 6.144141e-01 -3.492808e+00 2.746453e+00 2.612709e+00 1.518828e+00 8.974637e-01 3.479644e+00 -3.686084e+00 5.324723e-01 -3.286943e+00 -6.904427e-01 9.443215e-01 1.436247e+00 4.959137e-01 -1.477474e-01 7.424879e-01 -1.958688e+00 -1.595697e-01 1.667064e-01 
1.282799e+01 -1.229059e+01 3.494045e+00 -9.086326e+00 -3.641063e+00 1.140476e+00 -6.417942e-02 3.803335e+00 -5.087960e+00 5.782033e+00 -1.398840e+00 6.578658e-01 9.634020e-01 -1.746113e-01 -2.232788e+00 7.771885e-01 -2.127739e+00 1.132934e+00 -5.432933e-01 2.447204e+00 1.186829e-01 1.449836e-01 1.020612e+00 -1.547383e+00 -2.042503e-01 7.969665e-02 
1.181537e+01 -1.303490e+01 3.119169e+00 -1.000016e+01 2.655005e-01 -1.861116e+00 4.990158e+00 1.637012e+00 -3.814866e+00 4.378682e+00 -1.818130e+00 -5.444913e-01 9.822313e-01 -3.303276e-01 -1.160767e+00 -4.354775e-01 -9.174541e-01 1.166641e+00 -5.465565e-01 2.562451e+00 -3.922988e-01 2.499906e-01 -1.070288e-01 -1.234328e+00 -8.024796e-01 2.142541e-02 
1.180987e+01 -1.429782e+01 2.719251e+00 -1.185222e+01 1.195018e+00 -2.481276e+00 7.067070e+00 1.182395e+00 -4.146572e+00 4.365706e+00 -2.183060e+00 -2.272441e+00 1.000000e+00 1.409936e-01 -7.763478e-01 -8.499181e-01 -1.335113e-01 2.875960e-01 7.095259e-01 1.477210e+00 -3.741531e-01 -2.049089e-01 -1.999895e-01 -1.013623e+00 -1.882598e-01 3.606272e-03 
1.304214e+01 -1.530175e+01 6.869520e-01 -9.005558e+00 -2.326791e+00 1.654081e+00 6.865269e+00 -3.661031e-02 -2.713549e+00 2.919473e+00 -3.166822e+00 -1.028417e+00 9.862917e-01 3.623593e-01 -4.443918e-01 -8.788716e-01 1.398754e-01 -3.295873e-01 1.532846e+00 2.162716e-01 4.856587e-01 -9.024849e-01 1.357222e-01 -9.218523e-01 4.685938e-01 -4.744089e-03 
1.291958e+01 -1.503891e+01 4.605637e-01 -1.025118e+01 -9.069371e-01 2.930507e+00 6.384314e+00 2.769381e+00 -6.663163e+00 5.511691e+00 -5.792610e+00 -4.147053e-02 9.794031e-01 2.442980e-01 1.564150e-01 -6.423192e-01 6.058091e-01 2.260075e-02 1.780189e+00 -2.190704e-02 3.413809e-01 -1.022227e+00 -7.161431e-02 -8.939065e-01 5.715221e-01 -1.225766e-02 
1.307232e+01 -1.488631e+01 -1.458447e-01 -1.010130e+01 -3.314586e-01 3.097221e+00 6.412893e+00 3.271813e+00 -7.068995e+00 4.484301e+00 -4.622617e+00 6.829927e-01 9.688093e-01 -4.166918e-02 4.691916e-01 -2.160735e-01 4.213181e-01 6.237670e-01 1.241587e+00 1.467037e-02 -2.646426e-01 -4.876767e-01 -6.044464e-01 -6.147457e-01 5.013069e-01 -1.355239e-02 
1.301627e+01 -1.372346e+01 -7.594681e-02 -8.275302e+00 3.103552e-01 5.698099e+00 7.183722e+00 1.235088e+00 -7.079986e+00 3.225221e+00 -5.924695e+00 -2.705352e-01 9.474529e-01 -6.736837e-02 6.046721e-01 -2.271477e-01 6.150631e-01 6.131850e-01 7.868193e-01 2.083734e-01 -1.161075e+00 -1.422298e-01 -5.862511e-01 -5.377568e-01 6.613866e-01 -1.116455e-02 
1.278545e+01 -1.361351e+01 -1.251602e-01 -7.886908e+00 1.833982e-01 6.478222e+00 6.538917e+00 -5.926772e-01 -4.943521e+00 1.040476e+00 -6.174509e+00 1.592650e+00 9.345049e-01 -1.643484e-01 7.103798e-01 -4.449125e-01 9.779391e-01 1.220709e-01 6.623723e-01 -1.633012e-01 -1.342608e+00 2.629642e-01 -7.139558e-01 -7.412281e-02 1.689103e-01 -8.660495e-03 
1.272617e+01 -1.265195e+01 -6.855173e-01 -8.283063e+00 1.901559e+00 5.174104e+00 7.363169e+00 -1.103747e+00 -8.437049e+00 4.302348e+00 -7.705448e+00 2.810633e+00 9.407326e-01 2.560439e-01 3.283644e-01 -5.202686e-01 1.182520e+00 -8.206035e-01 6.695927e-01 -4.953016e-01 -1.475812e+00 8.737587e-01 -8.323811e-01 2.745230e-01 1.890579e-01 -7.849622e-03 
1.239562e+01 -1.187017e+01 -2.065622e+00 -5.207724e+00 -5.167060e-01 6.671081e+00 5.506664e+00 -2.271810e+00 -5.075643e+00 3.759589e-01 -4.102854e+00 -1.304030e-02 9.288670e-01 4.900025e-01 1.707592e-02 -2.483645e-01 1.162591e+00 -9.085829e-01 4.951094e-01 -4.182950e-01 -1.489378e+00 1.077833e+00 -8.439021e-01 5.990790e-01 -3.395255e-01 -8.011246e-03 
1.449140e+01 -1.295331e+01 -1.707059e+00 -3.702294e+00 -3.442611e+00 8.949634e+00 5.223341e+00 -5.304408e+00 -2.645132e+00 -6.044269e-01 -5.587907e+00 1.477599e+00 9.110237e-01 4.481288e-01 -2.550526e-01 1.088511e-01 9.447041e-01 -8.862120e-01 3.456431e-01 -5.464803e-01 -9.890739e-01 1.056460e+00 -1.124626e+00 7.989825e-01 -5.399461e-01 -9.352922e-03 
1.435284e+01 -1.337745e+01 -8.562121e-01 -4.364337e+00 -1.687431e+00 7.066004e+00 5.517356e+00 -5.939236e+00 -2.450313e+00 -7.256477e-01 -4.237884e+00 5.615399e-01 9.093031e-01 3.167608e-01 -2.487969e-01 2.349223e-01 3.999445e-01 -3.329566e-01 -2.677975e-02 -4.931156e-01 -4.025697e-01 5.497217e-02 -8.681755e-02 4.833322e-01 -4.164506e-01 -6.278837e-03 
1.398820e+01 -1.317357e+01 -7.459664e-01 -3.981236e+00 -1.944138e+00 6.704858e+00 4.625422e+00 -4.215403e+00 -4.467413e+00 -7.699780e-01 -3.643021e+00 -1.763870e-01 9.037499e-01 -8.682537e-02 1.909483e-01 2.164743e-02 4.786370e-01 8.957873e-02 -2.480002e-01 -8.615061e-01 5.151634e-01 -5.277148e-01 1.949179e-01 9.957480e-01 -1.163904e+00 -5.750716e-03 
1.423103e+01 -1.300403e+01 -1.371557e+00 -3.068531e+00 -2.930725e+00 7.659570e+00 3.340045e+00 -4.829160e+00 -3.889641e+00 2.464676e-02 -2.658637e+00 -1.268300e+00 9.011097e-01 -1.952468e-01 6.578439e-01 -3.105355e-01 9.084085e-01 -7.954931e-02 -1.641189e-01 -1.086266e+00 6.154271e-01 -2.335155e-01 4.553488e-01 3.956402e-01 -1.129232e+00 -9.404433e-03 
1.411818e+01 -1.218528e+01 -1.341150e+00 -1.957013e+00 -2.373070e+00 7.412849e+00 2.004465e+00 -3.283629e+00 -4.564042e+00 -4.984617e-03 -1.398790e+00 -3.427001e+00 8.863668e-01 -2.745718e-01 6.641735e-01 -8.337076e-02 1.198093e+00 -4.102166e-01 -1.432322e-01 -1.551908e+00 6.712654e-01 3.496774e-01 3.419922e-01 1.916386e-01 -1.025809e+00 -9.367543e-03 
1.331162e+01 -1.058237e+01 -2.111298e+00 -8.344069e-01 -1.870712e+00 5.891414e+00 1.396504e+00 -3.327988e+00 -3.569576e+00 1.168600e+00 -3.381798e+00 -3.459315e+00 8.709725e-01 -4.520679e-01 5.200031e-01 3.139212e-01 7.443412e-01 -1.443114e-01 -5.148057e-01 -1.694190e+00 8.271964e-01 6.601273e-01 -1.691046e-01 1.900516e-01 -1.004523e+00 -6.600243e-03 
1.307505e+01 -1.106353e+01 -7.929494e-01 8.921649e-01 -4.525228e+00 6.872775e+00 -2.162349e+00 -1.609662e+00 -2.879058e+00 3.680065e-01 -2.323247e+00 -4.209924e+00 8.719808e-01 -4.357751e-01 3.291817e-01 3.741705e-01 3.472339e-01 -1.782176e-01 -5.489625e-01 -1.538856e+00 4.129178e-01 1.162567e+00 -7.345878e-01 4.957760e-01 -6.568273e-01 -3.225738e-03 
1.249225e+01 -1.096489e+01 -7.605076e-02 -7.714134e-01 -2.576203e+00 5.355578e+00 -3.047496e+00 -1.530161e+00 -1.431496e+00 -1.007372e+00 -1.246150e+00 -5.899456e+00 8.753015e-01 -2.034724e-01 1.921749e-01 2.012390e-01 5.250649e-01 -4.880729e-01 -1.978307e-01 -1.621845e+00 6.342760e-01 9.345267e-01 -5.467658e-01 3.514493e-01 -3.455848e-01 -3.712773e-03 
1.234899e+01 -1.034812e+01 -4.879210e-01 -2.523397e-01 -2.911412e+00 4.935955e+00 -3.467817e+00 -2.117953e+00 1.797535e-01 -2.589938e+00 1.226604e-02 -5.491067e+00 8.680736e-01 -2.286399e-01 2.802952e-01 1.738393e-01 5.245589e-01 -3.595665e-01 -3.715502e-01 -1.309326e+00 7.586150e-01 4.010786e-01 3.605832e-01 -5.597801e-01 3.836880e-01 -6.841987e-03 
1.265729e+01 -9.979206e+00 -1.257617e+00 2.363170e+00 -5.117984e+00 5.870670e+00 -6.059989e+00 9.753770e-02 -4.263482e-01 -8.625722e-02 -2.792307e+00 -4.546667e+00 8.543622e-01 -8.329745e-02 2.639408e-01 3.993803e-01 8.720671e-01 -8.526645e-01 -1.347334e-01 -1.461032e+00 6.990557e-01 1.914630e-01 1.065481e+00 -9.667283e-01 8.379507e-01 -1.023589e-02 
1.184933e+01 -1.015489e+01 6.670303e-01 1.947668e+00 -5.052170e+00 4.757478e+00 -7.202731e+00 1.369563e+00 -1.376239e+00 1.710365e+00 -4.349069e+00 -2.967877e+00 8.482406e-01 -4.202998e-01 7.215267e-01 2.925545e-01 9.900466e-01 -9.591799e-01 -3.736567e-01 -1.383096e+00 2.749639e-01 5.543901e-01 8.664697e-01 -4.582803e-01 4.330088e-01 -1.010023e-02 
1.232560e+01 -9.741796e+00 1.343375e+00 2.488918e+00 -5.769147e+00 4.771150e+00 -8.485199e+00 2.213585e-01 3.038154e-01 2.169883e+00 -3.899124e+00 -2.971297e+00 8.340386e-01 -3.541309e-01 8.431541e-01 5.143529e-01 3.488705e-01 -5.116695e-01 -1.039018e+00 -9.934767e-01 1.549482e-01 5.225318e-01 2.374022e-01 6.422849e-01 4.253037e-02 -1.176879e-02 
1.041333e+01 -6.859188e+00 -3.256447e-01 4.635019e+00 -7.381730e+00 3.617432e+00 -9.170691e+00 -8.050437e-01 2.586622e+00 6.143403e-01 -1.725727e+00 -4.113709e+00 8.277343e-01 -1.024214e-01 1.084878e+00 4.073735e-02 5.462824e-01 -6.685437e-01 -1.078171e+00 -9.823830e-01 3.761579e-01 8.471797e-02 1.745724e-01 1.050283e+00 -1.381401e-01 -1.525879e-02 
1.160463e+01 -7.411290e+00 1.810485e+00 2.763846e+00 -6.511551e+00 1.245605e+00 -1.004339e+01 1.959582e+00 2.048800e-01 1.648767e+00 -8.925539e-01 -3.761100e+00 8.057714e-01 3.215846e-01 1.017389e+00 1.303317e-01 1.283658e-01 -3.142242e-01 -7.789238e-01 -1.045996e+00 4.479700e-01 -5.363212e-01 6.463609e-02 1.165655e+00 2.303502e-01 -2.229954e-02 
1.169771e+01 -5.895756e+00 6.371622e-01 4.541616e+00 -8.023686e+00 1.129397e+00 -1.133555e+01 2.381241e+00 -9.031816e-01 2.843785e+00 -6.009406e-01 -3.263676e+00 7.860802e-01 6.014389e-01 1.133569e+00 3.689861e-01 -2.309060e-03 3.745416e-01 -3.726068e-01 -9.406053e-01 -2.967837e-01 -8.385311e-01 4.223790e-02 8.444149e-01 1.346533e+00 -3.658918e-02 
1.329133e+01 -5.136569e+00 1.513630e+00 3.177449e+00 -7.019290e+00 2.120548e+00 -1.263275e+01 8.680660e-01 -6.328886e-01 1.378341e+00 1.366760e+00 -2.244562e+00 7.433679e-01 1.401795e-01 2.199226e+00 1.214074e-01 4.685755e-01 7.712252e-01 2.597890e-01 -3.198184e-01 -1.451824e+00 -9.930933e-01 -6.611027e-01 9.855391e-01 2.107336e+00 -5.642615e-02 
1.257718e+01 -2.328703e+00 1.667713e+00 4.416673e+00 -5.255153e+00 1.316926e+00 -1.257904e+01 -1.743204e+00 -1.187149e+00 9.607427e-01 1.366691e+00 1.860689e+00 6.759901e-01 -4.130633e-01 2.838916e+00 5.968946e-01 3.526269e-01 1.837094e+00 -6.169815e-02 1.090783e+00 -1.636533e+00 -1.348896e+00 -8.620434e-01 3.627415e-01 1.530709e+00 -7.941451e-02 
1.186579e+01 1.801314e+00 1.902246e+00 5.169196e+00 -4.039692e+00 2.450785e+00 -1.102074e+01 -3.237314e+00 -4.618603e+00 -7.152257e-01 3.051326e+00 4.213397e+00 5.786856e-01 -1.572202e+00 3.496743e+00 1.121010e+00 2.197368e-01 2.814348e+00 3.777611e-01 2.072449e+00 -1.260543e+00 -1.048283e+00 -7.246978e-01 -3.919963e-01 -1.296628e-01 -9.782855e-02 
1.034516e+01 4.829881e+00 3.427327e+00 5.308877e+00 -3.280144e-01 6.557879e-01 -6.687641e+00 -3.748734e+00 -5.654804e+00 -4.196486e-01 3.704835e-01 1.160887e+00 4.713488e-01 -3.059876e+00 2.887828e+00 1.609713e+00 4.576077e-01 4.064056e+00 1.318835e+00 3.750363e+00 5.095994e-01 3.281531e-02 -2.485107e-01 -1.162472e+00 -2.110955e+00 -1.021133e-01 
6.546330e+00 8.767856e+00 6.238873e+00 3.830030e+00 4.588882e+00 4.339922e+00 -5.216207e+00 -4.431881e+00 -3.640475e+00 -1.554952e+00 -9.511805e-02 -2.542974e+00 3.565458e-01 -4.465847e+00 1.533382e+00 1.479114e+00 5.546798e-01 3.795738e+00 1.560274e+00 4.021329e+00 1.602151e+00 1.165614e+00 -4.880990e-01 -1.314622e+00 -2.190867e+00 -7.433156e-02 
-6.247330e-02 8.627169e+00 7.547963e+00 7.374294e+00 1.075084e+01 6.966533e+00 3.270510e+00 1.402076e+00 -1.512136e+00 1.380525e-01 -2.872448e+00 -5.315901e+00 2.764935e-01 -4.827398e+00 -6.779066e-01 -3.619305e-01 2.232202e-01 1.004305e+00 9.869223e-01 2.910148e+00 2.396755e+00 1.595139e+00 -1.163412e+00 -8.077534e-01 6.010541e-02 -2.619365e-02 
-5.259627e+00 7.569579e+00 7.237499e+00 6.909886e+00 9.399570e+00 7.096785e+00 4.106827e+00 2.198036e+00 -8.618667e-01 -3.434571e+00 -1.900316e+00 -3.502546e+00 3.044555e-01 -4.175814e+00 -2.662701e+00 -2.400408e+00 -9.459552e-01 -1.821383e+00 -2.803283e-01 9.148240e-01 2.529448e+00 2.613044e+00 -1.024287e+00 -1.605821e+00 8.148572e-01 1.651614e-02 
-7.888850e+00 2.039486e+00 1.118361e+00 4.885051e+00 2.288167e+00 4.211968e+00 3.201585e+00 4.920082e+00 9.315857e-01 -5.296901e+00 -2.765685e+00 1.941200e+00 3.664257e-01 -2.094428e+00 -2.529716e+00 -2.744946e+00 -2.073629e+00 -2.697887e+00 -1.719496e+00 -1.250899e+00 7.968707e-01 1.588690e+00 2.490356e-01 -1.012557e+00 1.048476e+00 3.141673e-02 
-1.041955e+01 -1.251808e+00 -2.548366e+00 3.448761e-01 -2.866940e-01 4.315563e+00 -6.076245e-01 6.456355e+00 8.202885e+00 -3.958911e+00 -8.177604e+00 -2.097239e+00 3.941604e-01 -1.417879e-01 -1.542620e+00 -1.486830e+00 -9.848002e-01 -1.378054e+00 -2.279990e+00 -1.742989e+00 -2.087736e-01 7.660927e-01 6.629142e-01 -7.905582e-01 -7.976348e-01 1.402506e-02 
-7.954652e+00 3.892803e-01 -1.283833e+00 2.886555e-01 2.104538e+00 -2.403378e-01 -6.267576e-01 3.257271e+00 1.898939e+00 1.645401e+00 -4.796589e+00 -7.761744e-01 3.887247e-01 1.515679e+00 4.336928e-01 1.187092e-01 -4.153673e-01 2.173362e-02 -3.106195e+00 -6.403053e-01 -5.680092e-01 1.604696e-01 1.470219e+00 1.102816e+00 -1.464121e+00 -1.251172e-02 
-5.935666e+00 6.815810e-01 1.004448e+00 4.284083e+00 2.601113e+00 -2.077013e+00 -2.693945e+00 1.985574e+00 2.484920e+00 -3.591151e+00 -4.837654e+00 -6.132033e+00 3.634313e-01 1.892315e+00 6.685627e-01 1.006476e+00 -9.501508e-02 -4.493201e-02 -2.564843e+00 7.443717e-01 -6.580300e-01 -6.628086e-02 1.517878e+00 2.671135e+00 -6.393220e-01 -2.903977e-02 
-2.552395e+00 3.241256e+00 -6.449962e-02 8.386110e-01 9.529314e-01 -8.122720e+00 1.043218e+00 4.315426e+00 4.592916e+00 1.870312e+00 1.078420e+00 -3.362008e+00 3.192317e-01 1.216005e+00 1.410009e-01 8.782865e-01 -1.358537e+00 -2.484142e-01 2.935436e-02 5.614545e-01 -3.659713e-01 2.260937e-01 5.982013e-02 1.489728e+00 3.957017e-01 -5.268852e-02 
-3.659103e+00 6.650181e-01 1.874346e+00 -4.051771e-01 6.444931e-02 -4.567462e+00 2.279246e+00 2.637127e+00 6.524492e+00 3.518023e+00 2.240566e+00 -4.000932e+00 2.837081e-01 6.808220e-01 -1.888119e-01 3.650942e-01 -1.672491e+00 1.679051e-01 1.530050e+00 5.487665e-01 -5.724674e-01 -2.733055e-01 -3.823386e-01 5.693737e-01 1.056552e+00 -6.252755e-02 
-3.012910e+00 1.102566e+00 2.672650e+00 -4.159399e+00 2.130799e+00 1.151659e+00 -3.060806e-01 1.101638e+00 1.009622e+00 -1.610086e+00 -8.870614e-01 1.367834e-01 1.651437e-01 3.576645e-01 -6.308553e-01 -9.529280e-02 -2.616567e-01 2.482191e-01 2.040120e+00 -1.091021e+00 -1.871989e+00 -1.189530e+00 -2.418329e+00 -1.947013e+00 -2.403241e-01 -5.195802e-02 
-2.301299e+00 8.068662e-01 1.461344e+00 -1.579369e+00 2.851705e+00 9.360476e-01 7.245371e-01 7.301309e-01 2.910040e+00 -3.762645e+00 -1.008045e+00 -2.598667e+00 1.278375e-01 4.358623e-01 -5.880648e-01 -1.503834e+00 7.950826e-01 -3.591094e-01 4.116049e-01 -1.540907e+00 -1.243285e+00 -5.416229e-01 -2.321881e+00 -1.189604e+00 2.486603e-01 -3.495177e-02 
-1.442975e+00 1.605511e-02 -3.344626e-01 1.174231e-01 8.003988e-01 -6.738737e-01 -3.634534e+00 -4.091023e+00 4.524930e-01 -6.580999e+00 -7.032341e+00 -5.264761e+00 1.373768e-01 2.247214e-01 -4.570572e-01 -1.955137e+00 5.713288e-01 -4.275079e-01 -4.101413e-01 -1.014314e+00 -3.614501e-02 8.334433e-01 -9.279490e-01 4.148839e-01 3.952283e-01 -9.985519e-03 
-2.264760e+00 -1.732050e+00 -4.141268e+00 1.431825e+00 -1.065897e+00 -1.596672e+00 -3.761062e+00 -9.829667e-01 4.094942e+00 -5.605927e+00 -6.348122e-01 -5.685830e-02 1.228327e-01 1.862972e-01 1.816262e-01 -1.446743e+00 -3.713718e-01 -8.251106e-01 -9.148332e-01 -7.593153e-01 -9.577684e-02 -1.061114e+00 -1.323679e+00 1.965352e+00 7.789668e-01 -5.542600e-03 
-1.907573e+00 8.673859e-02 -4.301729e+00 -2.808352e+00 1.952061e+00 3.673117e-01 -3.134851e+00 1.777462e+00 4.584387e+00 -5.328190e+00 1.000742e+00 8.420205e-01 1.177185e-01 1.032048e-01 1.008142e+00 -7.120517e-01 -2.964283e-01 -8.232269e-02 -8.626359e-01 1.202174e+00 6.765845e-01 -9.498662e-01 -7.313098e-01 1.764338e+00 9.451020e-01 -1.926944e-02 
-1.137514e+00 1.679656e+00 -3.788735e+00 -1.973340e+00 -1.849679e+00 -4.158711e+00 -3.321881e+00 -2.682995e+00 -4.461477e+00 -1.100744e+01 4.802176e+00 -1.757224e+00 1.099537e-01 3.918972e-02 1.342890e+00 4.107460e-01 -1.192096e-01 -2.312413e-01 -1.170816e+00 7.053621e-01 -1.366483e-01 -7.842171e-01 3.212695e-01 1.771591e-02 1.958799e-01 -2.875275e-02 
-1.490574e+00 3.350910e+00 -4.070988e+00 3.378648e-01 7.806759e-01 -3.706033e+00 2.156744e+00 1.419138e-01 -1.862836e-02 -7.536789e+00 -9.291425e-01 3.109322e-01 4.746914e-02 -4.399436e-01 6.233176e-01 2.610561e-01 1.058904e+00 4.930563e-01 -5.799299e-01 5.881953e-01 9.379263e-02 -4.053376e-01 1.005449e+00 -3.185576e-01 2.888461e-01 -3.350908e-02 
-2.277310e+00 3.350315e+00 -2.202909e+00 -7.373310e-01 -1.636411e+00 -5.414079e+00 -2.880049e+00 -8.484341e-01 2.475364e+00 -2.895279e+00 4.187096e-01 1.188085e+00 1.419359e-02 -8.095968e-01 2.439704e-01 1.963034e-02 5.363370e-01 9.861671e-01 -5.064028e-01 -2.388179e-01 4.913325e-01 1.052394e+00 1.783002e+00 -1.751500e-01 1.583714e-01 -2.914665e-02 
-3.537393e+00 2.367997e+00 -3.789362e+00 1.868165e+00 4.310709e+00 -1.904654e+00 -4.147902e-01 1.329144e+00 -9.107218e-01 -4.357028e+00 1.599687e+00 8.135962e-01 -1.946807e-03 -8.616046e-01 3.393199e-01 -1.722588e-01 6.694165e-01 4.479109e-01 -6.884734e-01 -9.282355e-02 3.371271e-01 1.986005e-01 1.145306e-01 1.191394e+00 2.972412e-01 -1.839504e-02 
-4.162088e+00 3.390964e+00 -3.831397e+00 -5.680512e-02 1.316140e+00 -7.591415e+00 -3.230203e+00 -8.199477e-01 1.246539e+00 -3.682314e+00 2.662011e+00 -1.216699e+00 -1.107156e-02 -6.710154e-01 9.230868e-01 -9.175375e-01 -2.258747e-01 -4.705758e-01 -5.267066e-01 1.080428e+00 5.100978e-01 -4.017432e-01 1.071913e-01 1.115288e+00 1.128229e+00 -1.285136e-02 
-4.856208e+00 5.027185e+00 -4.118038e+00 3.344685e+00 1.543955e+00 -6.059732e+00 1.867704e+00 1.813306e+00 1.588786e+00 -6.570619e+00 3.906179e+00 2.999531e+00 -3.187346e-02 -4.888902e-01 1.118637e+00 -5.366153e-01 -7.941228e-01 -1.398865e+00 -6.578530e-01 7.141786e-01 6.652875e-01 3.372454e-01 1.051702e+00 3.717930e-01 9.570732e-01 -1.165292e-02 
-4.972980e+00 6.636155e+00 -6.626258e+00 -2.604965e+00 -2.605913e+00 -5.970073e+00 1.380842e+00 1.459974e+00 -7.831061e-01 -1.252527e+00 4.841904e+00 5.736262e+00 -3.509986e-02 -4.800053e-02 1.287102e+00 4.824390e-01 -2.064919e-01 5.516694e-01 1.522193e+00 1.395402e+00 1.350246e+00 -6.636408e-02 5.887874e-01 -8.145021e-01 2.410491e-01 -1.296237e-02 
-5.576398e+00 6.338589e+00 -5.075008e+00 -8.283696e-01 -7.225866e-01 -6.004591e+00 8.505802e-01 3.515621e+00 1.790328e+00 -3.134086e-01 2.368706e+00 2.122481e+00 -4.819727e-02 1.016774e-01 1.057855e+00 7.259209e-01 -3.139548e-01 1.760927e+00 1.962010e+00 1.033957e+00 1.492173e-01 -4.564485e-01 9.398538e-01 -9.915201e-01 -5.338064e-01 -1.403520e-02 
-4.041996e+00 9.170774e+00 -9.407167e-01 9.972627e-01 5.207758e+00 -8.022070e-03 4.255369e+00 5.080127e+00 8.139483e-01 -3.866982e+00 -6.417629e-01 4.270709e-01 -6.772149e-02 2.647691e-01 1.358006e+00 1.675292e+00 1.569213e+00 2.279711e+00 1.381557e+00 4.317764e-01 -4.233880e-01 6.377008e-02 1.974929e-01 -7.012018e-01 -2.087009e-01 -1.304226e-02 
-4.813313e+00 9.049150e+00 -3.331204e+00 -2.620295e-02 6.441755e+00 7.692931e-01 5.600224e+00 7.493162e-01 -1.491983e+00 -5.641215e-01 1.690412e+00 2.985094e+00 -8.573866e-02 -1.370013e-01 7.906963e-01 9.205963e-01 9.433575e-02 1.385891e+00 1.135832e+00 5.317284e-01 -2.445848e-01 -1.505642e-01 3.089826e-01 -6.282266e-01 2.649364e-01 -1.162755e-02 
-4.030677e+00 1.207091e+01 8.783000e-01 4.840016e+00 5.210472e+00 -2.449228e+00 1.164902e+00 7.261860e-01 1.176900e+00 -1.397059e-01 1.675042e+00 4.261452e+00 -8.154047e-02 -4.998586e-01 1.000204e-01 6.527482e-01 4.095864e-01 4.045516e-03 -1.657680e-01 -7.828366e-01 -7.604839e-01 -6.147076e-01 4.477258e-01 1.549212e-01 2.599016e-01 -5.948186e-03 
-6.267064e+00 8.842004e+00 -1.381535e+00 -2.278067e+00 6.205514e+00 8.951714e-01 5.054456e+00 4.469667e+00 8.560309e-01 -6.321340e-01 -1.930830e+00 1.529973e+00 -9.942555e-02 -3.927674e-01 7.241790e-02 -1.096996e-01 -2.785544e-02 -2.316315e-01 -4.830449e-01 -9.948686e-01 -9.979146e-01 -1.540277e-01 1.924521e-01 7.189276e-01 8.566858e-01 9.455681e-05 
-5.814413e+00 9.774448e+00 1.348190e+00 4.171127e+00 5.346107e+00 -8.998010e-01 6.140697e-01 -5.824678e-01 -3.433597e+00 -1.594347e+00 1.943464e+00 2.454139e+00 -9.061897e-02 -7.166382e-01 -7.786749e-01 -1.306627e+00 -9.440802e-01 -8.749708e-01 -5.329550e-01 -1.265018e+00 -1.997854e+00 -1.240247e+00 -3.098669e-02 1.214510e+00 1.199951e+00 -1.631665e-03 
-5.885282e+00 1.055947e+01 -4.114647e+00 1.689641e-01 5.215780e+00 -2.420645e+00 9.012971e-01 -3.585930e+00 4.312658e-02 1.125460e+00 5.150839e+00 8.172179e+00 -8.072662e-02 -5.065736e-01 -5.502056e-01 -1.144996e+00 -2.926694e-01 -1.376568e+00 -1.125883e+00 -1.997380e+00 -2.406273e+00 -1.213211e+00 -6.616937e-02 1.453847e+00 1.530622e+00 -7.674694e-04 
-7.804759e+00 7.318800e+00 -4.288280e+00 -1.103900e+00 1.330484e+00 -3.456095e+00 -3.083608e+00 -5.235287e+00 -4.617883e+00 -1.173436e+00 4.206757e+00 6.940102e+00 -9.904826e-02 -5.900170e-01 -8.151965e-01 -1.144657e+00 -1.182292e+00 -1.191654e+00 -6.148038e-01 -1.138026e+00 -1.095500e+00 -7.029580e-01 -1.457074e-01 3.582504e-01 7.739846e-01 -3.518021e-03 
