-1.168346e-01 2.444247e+00 -3.373218e+00 3.523326e+00 3.889954e+00 1.298156e+00 1.014172e+01 2.408746e+00 5.816637e+00 3.789413e+00 1.952626e+00 1.289889e+00 -5.708623e-02 -1.183521e-01 -1.967424e-01 5.518997e-01 -5.484506e-01 -8.132664e-01 8.212673e-01 -9.492376e-02 -3.808196e-01 -2.099166e+00 -5.149231e-02 5.413364e-01 -3.084572e-01 -4.805207e-03 
-1.630039e-01 1.177781e+00 -6.193573e-01 2.508102e+00 9.643357e-01 5.466353e+00 1.075187e+01 4.283513e+00 -8.931006e-01 2.319358e+00 8.526689e-01 -1.363313e-02 -6.681466e-02 -1.336517e-01 -2.754014e-01 8.598778e-01 -1.167126e-01 -4.193830e-01 7.579597e-01 2.181030e-01 -5.347595e-01 -1.761322e+00 -1.076903e-01 3.196670e-01 7.286541e-01 -7.652652e-03 
-6.855106e-01 2.093769e+00 -1.990649e+00 1.288685e+00 1.286432e+00 3.320395e+00 9.362027e+00 -4.327359e-01 -1.324323e+00 4.266979e+00 5.209287e+00 3.993636e-01 -7.624805e-02 -1.817949e-01 -1.187672e-01 8.844105e-01 2.300712e-01 -4.702722e-01 -1.025010e-01 9.063904e-02 -9.884877e-01 -6.997310e-01 -4.659505e-01 -2.438708e-01 -6.996555e-01 -2.718341e-03 
-5.007553e-01 1.242480e+00 2.348869e-01 4.057084e+00 3.094801e+00 4.076836e+00 1.162208e+01 1.155689e+00 5.805039e-01 3.012178e+00 1.922631e+00 5.378423e+00 -8.576858e-02 4.211397e-01 3.607156e-01 -3.714992e-01 -4.124910e-01 -2.554199e-01 -1.228806e+00 -1.315709e+00 -1.761932e+00 1.217980e-01 -4.959707e-02 -2.107703e-01 -5.171601e-01 4.238629e-03 
-8.569336e-01 1.818061e+00 6.217127e-01 3.899191e+00 4.733605e-01 1.480410e+00 1.015981e+01 -9.697812e-01 1.581179e+00 1.113250e+00 1.982912e-01 -4.904417e+00 -6.120098e-02 2.228123e+00 -1.850926e-01 -2.341428e+00 -1.447844e+00 -5.877213e-01 -2.970098e+00 -3.298039e+00 -1.871218e+00 -4.839781e-01 5.702543e-02 -5.017148e-01 -4.649321e-01 2.560604e-02 
2.028406e+00 3.119212e+00 -3.783035e+00 -8.596066e-01 9.377146e-02 2.423155e-01 3.774433e+00 -4.257623e+00 -1.736862e+00 3.648237e+00 2.304315e+00 5.245697e-02 -5.314505e-02 1.675758e+00 4.629433e-02 -2.723027e+00 -2.431291e+00 -1.398690e+00 -2.872266e+00 -3.309802e+00 -2.519717e+00 -1.026072e+00 -2.655326e-01 6.261281e-01 1.263777e+00 1.844857e-02 
9.190523e+00 2.299392e-01 -1.168883e+01 -3.492188e+00 -1.516607e-01 -9.612835e+00 -3.204342e+00 -7.082173e+00 -2.585531e+00 4.234076e+00 2.509871e+00 7.376854e-01 3.547037e-02 1.402101e-01 7.378008e-02 -4.256276e-01 -7.010427e-01 -2.540858e-01 -7.715266e-01 -1.316756e+00 -5.341761e-01 2.639090e-01 1.604926e-01 4.776055e-01 1.791105e+00 2.293181e-03 
2.854304e+00 2.268012e+00 -7.224979e+00 -4.403682e+00 -3.586138e+00 -4.737873e+00 1.755148e+00 -8.386702e+00 -2.466500e+00 1.241024e-01 3.897482e+00 8.876255e+00 -4.186141e-02 -1.654154e+00 2.848003e-01 1.952304e+00 1.806881e+00 1.085032e+00 1.691815e+00 1.698756e+00 7.420989e-01 1.199808e+00 2.648169e-01 2.444727e-01 -1.975649e-01 -1.201377e-02 
-5.688324e-01 2.612562e+00 2.145469e-01 2.166016e+00 1.042886e+00 1.128711e-01 4.585677e+00 -1.576122e+00 3.265543e+00 3.677781e+00 1.789735e+00 -3.607892e-01 -5.537689e-02 -2.452582e+00 5.031558e-01 2.796415e+00 2.094889e+00 1.111887e+00 2.490358e+00 2.664687e+00 1.732972e+00 1.429760e+00 6.154663e-01 -1.451343e-01 -2.901363e-01 -2.411770e-02 
-1.362684e+00 3.351902e+00 2.679652e-02 5.345694e+00 4.921657e+00 3.838537e+00 8.373203e+00 -3.300153e+00 1.336641e+00 5.250470e+00 3.886746e+00 -3.861302e-01 -6.779027e-02 -5.299168e-01 3.262801e-01 1.024000e+00 1.829140e+00 1.281570e+00 1.029101e+00 1.175282e+00 1.927202e+00 1.181126e+00 6.646842e-01 3.505672e-01 -6.410819e-01 -6.203127e-03 
-9.638939e-01 2.203773e+00 -1.332644e+00 2.107571e+00 1.153878e+00 -1.449251e+00 6.810064e+00 -9.605846e-01 2.661698e+00 4.748224e+00 1.789568e+00 3.918196e+00 -7.215369e-02 2.514764e-01 4.224501e-01 -3.185397e-01 6.708755e-02 -6.567574e-01 -3.935085e-01 3.264878e-01 1.346823e+00 4.081163e-01 -5.872247e-01 4.071198e-01 8.183409e-01 -3.227949e-04 
4.022512e-01 4.103807e+00 -1.331384e+00 4.771244e+00 2.766215e+00 1.188693e+00 6.519361e+00 9.415402e-01 3.741051e+00 2.912302e+00 5.650402e+00 3.531353e+00 -6.448865e-02 2.415678e-01 2.284857e-01 9.430188e-02 -1.562383e-01 -1.059952e+00 -2.133420e-01 1.346883e-01 1.293528e-01 -2.111971e-01 -2.163284e-01 2.451878e-01 2.884953e-01 -3.857493e-04 
-1.939182e-01 4.348860e+00 -6.990613e-01 2.788679e+00 -1.163180e+00 -5.297494e-01 7.145037e+00 3.037144e+00 4.103920e+00 1.910741e+00 2.943507e+00 1.772174e+00 -5.864167e-02 2.747507e-02 2.281985e-02 1.372849e-01 -2.647347e-01 3.376508e-01 1.430446e+00 1.004547e+00 -5.791963e-01 -9.073961e-01 2.125484e-01 -3.261589e-01 -1.299455e-01 -1.143086e-03 
-5.398331e-01 3.421788e+00 1.815143e-01 4.223948e+00 7.804266e-01 2.312076e+00 8.879159e+00 -4.652254e+00 -4.404548e-01 5.587569e+00 4.535716e+00 2.129358e+00 -7.647502e-02 -1.064449e-01 -3.828493e-01 -5.104846e-01 -7.526696e-01 5.338108e-01 3.973701e-01 5.317599e-01 -1.542549e+00 1.758189e-02 9.798977e-01 -7.696206e-01 -9.665056e-02 -4.460394e-03 
-3.554764e-01 2.658882e+00 -1.402669e+00 1.057545e+00 3.835026e+00 5.141288e+00 1.065290e+01 -1.059669e+00 2.154703e-01 4.473332e+00 7.161156e-01 3.969466e+00 -7.187593e-02 1.570881e-01 -6.535219e-01 -4.097005e-01 -3.124123e-01 8.066810e-01 8.602725e-01 -1.035577e+00 -1.298184e+00 2.062777e-01 -1.074819e-01 9.426329e-01 6.030763e-01 -8.244395e-04 
-4.919434e-02 3.034549e+00 -3.532003e+00 1.873462e+00 2.936166e+00 3.400251e-01 7.424228e+00 -4.722797e+00 5.773185e+00 6.530494e+00 2.915994e+00 1.949454e+00 -8.017349e-02 2.268345e-01 -2.769730e-02 -1.834320e-01 -6.988849e-02 -2.945730e-01 -5.441906e-01 -1.520719e+00 -6.818449e-02 7.324258e-01 -7.677329e-01 2.129514e-01 -1.563177e-02 3.243327e-03 
3.462029e-01 1.274869e+00 -8.908049e-01 2.401861e+00 1.792355e+00 4.757638e+00 2.694617e+00 -3.418502e+00 2.028488e+00 9.018694e-01 8.466532e+00 4.877507e+00 -6.091464e-02 8.704727e-01 9.805832e-01 3.366335e-01 -5.965446e-01 -2.756782e+00 -2.461798e+00 -1.931998e+00 -4.528919e-01 -5.475335e-01 -7.816676e-01 7.686075e-01 3.266364e-01 6.025875e-03 
2.434998e-01 3.975308e+00 -9.915778e-01 3.202348e+00 3.288968e-01 -2.170526e-01 5.254705e+00 -3.813760e+00 2.315165e+00 3.534636e+00 1.725265e+00 1.597178e+00 -6.573904e-02 1.468134e+00 7.043164e-01 -8.335243e-01 -2.256584e+00 -2.997999e+00 -3.135583e+00 -7.928248e-01 1.886648e+00 7.868475e-01 7.779732e-01 -6.357677e-01 8.342112e-01 1.738336e-02 
3.850540e+00 7.091419e+00 -9.897141e-01 -2.589621e+00 -8.645249e+00 -6.889166e+00 2.077672e+00 -3.778647e+00 -7.931870e-01 2.062923e+00 5.154518e+00 5.778787e+00 -4.896379e-02 6.401888e-01 -1.858308e-01 -6.662204e-01 -2.811496e+00 -4.422828e-01 -2.668212e+00 -1.196275e-01 2.308210e+00 1.699276e-01 1.121007e+00 -1.668428e+00 -1.395143e+00 4.705266e-02 
5.539305e+00 3.647857e+00 -7.650170e+00 -6.913715e+00 -6.835028e+00 -9.514486e+00 3.768576e+00 4.890516e+00 1.111826e+01 9.839833e+00 1.393163e+00 5.669870e+00 7.678866e-04 -1.934594e+00 -1.514399e+00 -5.829422e-02 -2.953272e+00 3.194850e+00 -3.306458e-01 -1.662555e+00 1.648487e+00 -1.481221e+00 -5.882939e-01 -1.598567e+00 -7.605329e-01 1.251174e-01 
8.992443e-01 5.094405e-01 -8.926107e-01 -6.597589e+00 3.162903e+00 -3.934706e+00 2.839545e+00 3.770411e+00 -1.523422e+00 3.354308e+00 2.904419e-01 -4.134555e+00 1.410952e-01 -4.597469e+00 -1.602365e+00 3.013630e-01 -1.819529e+00 5.018924e+00 2.226436e+00 -7.463633e-01 -8.019562e-01 -3.472133e+00 -1.383510e+00 -1.707815e+00 -9.253410e-01 1.867346e-01 
-7.953823e+00 -3.056980e-01 -1.331601e+00 -9.560027e+00 1.039907e+01 -3.347512e+00 -3.439006e+00 6.541455e-01 -4.725821e+00 -5.252528e-02 -3.835532e+00 2.751185e+00 4.648185e-01 -5.000913e+00 3.697522e-01 1.510602e+00 -9.345012e-01 2.934933e+00 2.148859e+00 1.664951e-01 -3.116601e+00 -5.145541e+00 -1.229433e+00 6.073040e-01 -1.018727e+00 2.123372e-01 
-1.239024e+01 1.056369e+00 -2.642184e+00 -1.036411e+01 7.832318e+00 1.159527e+00 1.949647e+00 -5.670242e+00 -1.023181e+01 9.155440e-02 -7.702117e-01 2.611424e+00 6.526839e-01 -3.744460e+00 9.483336e-01 -1.463195e-01 -1.037462e+00 -4.023231e-01 -3.315845e-01 2.630940e-01 -1.540990e+00 -9.512661e-01 2.875419e-01 7.304298e-01 -4.003223e-01 1.877332e-01 
-1.282051e+01 5.223154e+00 7.776288e-01 -9.702962e+00 5.504930e+00 -1.317311e+00 5.046000e+00 -5.972160e+00 -1.025525e+01 5.324046e+00 4.960010e+00 -2.796754e+00 8.066596e-01 -2.032633e+00 6.814238e-01 -3.656773e-01 -1.319780e+00 -2.222721e+00 -5.212404e-01 5.521594e-01 -1.057728e-01 1.173316e+00 1.524069e-01 -6.344701e-01 -2.335776e+00 1.237331e-01 
-1.538971e+01 2.486683e+00 -2.678823e+00 -1.171343e+01 3.598360e+00 -6.607729e+00 -8.748817e-02 -6.213868e-01 -3.515038e+00 2.103731e+00 -4.551803e-01 -3.362197e+00 9.088407e-01 -1.073924e+00 1.696382e-01 3.884789e-01 -2.480547e-01 -3.685525e-01 -6.612352e-01 -1.106664e+00 1.517000e+00 2.177144e+00 -6.775822e-02 -1.399732e+00 -1.905191e+00 8.433782e-02 
-1.661726e+01 2.386264e+00 -3.141668e+00 -1.548426e+01 1.402447e+00 -2.070086e+00 3.403587e-01 -2.399147e+00 -2.217627e+00 -2.965794e-01 -7.165398e+00 -5.940883e+00 9.554054e-01 -1.013687e+00 -9.776909e-01 9.136834e-02 -2.727938e-02 1.144700e-02 -2.930317e-02 -2.639016e-01 1.877034e+00 1.306310e+00 -1.338230e-01 -4.171918e-01 -6.823932e-01 4.635385e-02 
-1.586149e+01 3.323004e+00 1.259859e+00 -8.713731e+00 8.040797e+00 -1.770262e+00 -1.230851e+00 1.282489e-01 -3.364901e+00 2.563076e+00 -1.706167e+00 -5.342467e+00 1.000000e+00 -5.810814e-02 -7.593283e-01 6.744847e-01 8.733218e-01 -3.588409e-01 -2.643310e-01 4.699099e-02 4.675695e-01 -1.370491e+00 -3.490821e-01 9.611062e-01 -5.442309e-03 1.080908e-02 
-1.765306e+01 -8.346164e-02 -7.348703e-01 -1.133921e+01 3.340946e+00 -3.882560e+00 4.298174e+00 3.038192e+00 -3.798768e+00 4.425259e+00 3.499544e+00 -5.218585e+00 9.928492e-01 1.322288e+00 -2.410080e-01 8.333020e-01 2.082736e+00 1.121288e-01 -1.019674e+00 -1.141032e+00 -1.512217e-01 -1.258196e+00 -5.537515e-01 1.544725e+00 8.325222e-01 -2.977300e-02 
-1.516235e+01 -7.509571e-02 -5.097978e-01 -9.419349e+00 8.349059e-01 -7.023147e+00 -1.831441e+00 -1.002208e+00 -9.576923e+00 -2.002598e+00 -9.821202e-01 -3.750557e+00 9.441642e-01 2.475402e+00 -5.547637e-01 7.729067e-01 2.169569e+00 6.416288e-01 6.926654e-01 -5.824663e-01 -1.472871e-01 5.969948e-01 -1.122451e+00 -1.977707e-01 4.636495e-01 -7.403196e-02 
-1.035539e+01 2.880274e+00 1.909670e+00 -4.717775e+00 5.566036e+00 -4.542013e+00 -5.064507e+00 -2.590026e+00 -5.402595e+00 -7.824998e-01 1.962051e-01 -2.574226e+00 8.344584e-01 5.700565e+00 7.107259e-01 2.222736e+00 3.698792e+00 1.334235e+00 1.360546e+00 -2.307427e+00 -1.314916e-01 4.919023e-01 -6.325189e-01 -4.217431e-01 -7.048452e-02 -1.018407e-01 
-7.133316e+00 -9.326825e-01 3.802122e+00 -1.176602e+00 1.013640e+01 2.022791e+00 5.381579e-01 2.205923e+00 4.219861e-01 -4.452979e-01 -1.043351e+00 -4.346399e+00 7.090356e-01 8.047496e+00 -6.892613e-01 2.555175e+00 4.110027e+00 -1.216138e+00 1.881915e+00 -3.270986e+00 4.387100e-02 -4.772453e-02 5.587379e-01 8.832725e-01 -2.771574e-01 -6.634959e-02 
6.835249e+00 3.898961e+00 8.222850e+00 3.033377e+00 5.361375e+00 -1.602797e+00 -8.423759e+00 7.766683e-01 -6.338711e+00 4.840139e-01 1.421444e+00 -5.273087e+00 6.012098e-01 8.143689e+00 -2.695878e+00 2.285275e+00 3.104320e+00 -4.472318e+00 1.718120e+00 -5.002672e+00 2.556786e-02 -1.678596e+00 4.432701e-01 6.212324e-01 1.095222e-02 -1.832008e-03 
1.647981e+01 -4.030746e+00 9.109489e+00 7.255210e+00 -5.143454e+00 9.168193e-01 -1.650674e+01 -2.466201e+00 -9.347488e+00 1.578345e-01 2.821623e+00 -3.786914e+00 7.290405e-01 6.013447e+00 -2.833063e+00 1.021740e+00 2.365960e+00 -5.945593e+00 9.019741e-01 -5.048118e+00 -8.189243e-01 -1.284648e+00 -2.001038e-01 6.067728e-01 2.312559e-01 4.943517e-02 
1.855649e+01 -9.050083e+00 1.068236e+01 6.587919e+00 -9.155630e+00 4.601572e+00 -2.155542e+01 -1.261256e-01 -8.910837e+00 1.132284e+00 1.369880e+00 -2.799208e+00 8.152959e-01 2.057902e+00 -3.159597e+00 -5.885374e-01 1.562714e+00 -4.460505e+00 1.203160e+00 -2.106596e+00 -6.122280e-01 1.441569e+00 -9.212435e-01 5.091286e-01 -6.095879e-02 6.583341e-02 
1.707330e+01 -8.623477e+00 7.681063e+00 8.875923e+00 -1.233307e+01 3.430478e+00 -1.813660e+01 -1.437302e+00 -4.715189e+00 -1.769952e+00 2.016295e+00 -4.427059e+00 8.491684e-01 5.929338e-01 -1.998955e+00 -3.488949e-01 2.817265e-01 -1.904813e+00 9.525013e-02 -2.860800e-01 9.542533e-01 1.341774e+00 7.735119e-02 -3.716447e-01 1.900661e-01 2.995498e-02 
1.682802e+01 -9.602660e+00 5.994376e+00 1.003659e+01 -1.334634e+01 3.156171e+00 -1.814181e+01 -2.798921e+00 -1.447015e+00 -3.158310e+00 4.369751e+00 -5.257808e+00 8.703129e-01 8.937863e-01 -1.483814e+00 -4.899279e-01 6.538779e-01 -1.331500e+00 -2.843615e-01 2.641361e-01 1.209862e+00 7.787587e-01 4.083651e-01 -6.417587e-01 7.908018e-01 6.123352e-03 
2.030872e+01 -1.374923e+01 9.709009e+00 6.939507e+00 -1.257216e+01 2.115770e+00 -1.964395e+01 3.641464e+00 -6.370530e+00 2.689888e+00 -5.365360e-01 -1.607283e+00 8.513069e-01 1.149316e+00 -1.275671e+00 -1.912868e-01 8.791056e-01 -1.049183e+00 4.973197e-03 -3.881573e-01 1.492542e+00 2.901808e-01 2.643228e-01 -9.365943e-01 1.546007e+00 -4.546314e-03 
2.140771e+01 -1.390627e+01 7.218752e+00 1.082552e+01 -1.569358e+01 3.837118e+00 -1.948106e+01 3.383800e+00 -4.189373e+00 9.441898e-01 -5.624979e-01 -2.550873e-01 8.448434e-01 7.178154e-01 -3.088153e-01 -1.947699e-01 1.071429e+00 -6.176645e-01 -6.855657e-01 -2.156181e-02 1.555961e+00 7.220948e-02 -6.700479e-01 -1.152322e+00 1.761984e+00 -1.204981e-02 
2.053003e+01 -1.285002e+01 6.112441e+00 1.287699e+01 -1.640536e+01 3.114870e+00 -1.940776e+01 2.934046e+00 -1.893106e+00 -2.499588e+00 -2.005517e-01 8.016150e-01 8.391716e-01 -2.800646e-02 6.846026e-01 -5.149294e-01 1.983134e+00 -4.386589e-01 -1.296174e+00 7.362000e-01 3.210502e-02 1.278161e+00 -2.638492e+00 -4.609171e-01 1.726881e+00 -1.601822e-02 
2.030643e+01 -1.159634e+01 6.818811e+00 1.242500e+01 -1.451806e+01 -7.712075e-01 -1.836771e+01 5.334596e+00 -3.324680e+00 -3.913811e+00 -1.559852e+00 2.347664e+00 8.161315e-01 -3.545060e-01 1.034348e+00 6.815588e-01 1.637215e+00 1.997654e-01 -1.337623e+00 3.983746e-01 4.482535e-01 5.662295e-01 -3.170995e+00 -7.854919e-01 2.329883e+00 -2.677538e-02 
2.071932e+01 -1.148118e+01 7.334332e+00 1.605544e+01 -1.535321e+01 -2.060939e+00 -1.651962e+01 2.826591e+00 -4.120730e-01 -8.073572e+00 -2.342444e+00 5.725747e+00 7.855718e-01 -8.909626e-01 1.729559e+00 1.343759e+00 1.678188e+00 1.056318e+00 -1.455381e+00 4.167787e-01 8.804961e-02 3.896394e-01 -3.756206e+00 -9.856094e-01 2.735052e+00 -5.501743e-02 
1.954053e+01 -9.418952e+00 1.001560e+01 1.742237e+01 -1.522083e+01 -2.630945e-01 -1.893326e+01 5.678795e+00 -2.098742e+00 -1.212379e+01 -3.419012e+00 8.932261e+00 7.377664e-01 -2.466178e+00 3.995716e+00 1.110664e+00 1.136990e+00 4.036772e+00 -1.201395e+00 3.737074e+00 7.474993e-01 8.157398e-01 -2.381350e+00 -1.695880e-01 1.222956e+00 -1.569926e-01 
1.645817e+01 -5.290922e+00 1.123284e+01 1.876924e+01 -1.077239e+01 -4.416089e+00 -1.704110e+01 3.202195e+00 -5.578785e-01 -1.717563e+01 -4.199019e+00 1.118458e+01 6.032670e-01 -4.122151e+00 5.328681e+00 -9.155189e-01 -1.621486e+00 5.945804e+00 -7.605973e-01 6.092990e+00 -2.002805e+00 -1.244327e+00 8.399525e-01 3.692985e-01 -1.308040e+00 -2.299499e-01 
1.010612e+01 5.287110e+00 1.042288e+01 1.675304e+01 3.375386e+00 -5.600610e+00 5.783920e-01 8.884291e+00 8.269215e-01 -1.126954e+01 -1.479504e+00 5.733031e+00 1.223210e-01 -4.752213e+00 4.320332e+00 -2.831592e+00 -3.052877e+00 4.963277e+00 -9.311692e-02 7.456055e+00 -2.663217e+00 1.147553e-01 4.440112e+00 1.241039e+00 -2.090180e+00 -2.253774e-01 
4.825771e+00 7.809192e+00 2.553099e+00 8.282668e+00 5.077698e+00 -3.195168e+00 4.189501e+00 -8.790180e+00 -8.096538e+00 -4.300938e+00 -1.465706e+00 7.851610e-01 -5.645502e-02 -3.684935e+00 2.586529e+00 -2.652028e+00 -3.620345e+00 2.627205e+00 1.607057e+00 6.130195e+00 -1.198504e+00 5.060407e-01 5.898812e+00 6.231551e-01 -2.702465e+00 -1.434587e-01 
1.595664e+00 5.632648e+00 1.975096e-01 7.401269e+00 1.670514e+00 -1.339140e+00 7.731716e+00 -1.641103e+00 2.244365e+00 3.639421e+00 1.419525e+00 3.681069e+00 -5.925965e-02 -2.117755e+00 1.268591e-01 -1.293464e+00 -2.420294e+00 -1.703854e-01 2.010183e+00 2.746300e+00 1.555395e-02 9.173012e-01 3.845758e+00 -1.608754e-01 -4.542104e-01 -3.265212e-02 
2.288724e+00 7.468955e+00 3.085386e+00 5.343404e+00 3.216068e+00 1.488462e+00 1.003322e+01 2.472369e+00 1.263603e+00 4.863956e+00 -2.532759e+00 -1.301768e+00 -2.323627e-02 -1.023280e+00 -6.548270e-01 -2.322562e-01 -1.341839e+00 -5.122789e-01 1.405689e+00 1.787582e+00 3.102560e+00 2.088945e+00 3.549809e-01 -4.217094e-01 -6.841234e-01 -4.551411e-05 
7.858667e-01 6.091525e+00 3.689413e+00 6.121205e+00 3.454274e+00 2.108488e+00 1.138804e+01 3.330786e+00 7.333567e-01 3.376806e+00 -1.750355e+00 4.505445e+00 -5.754900e-02 -6.304620e-01 -1.861585e+00 -8.358651e-01 8.107448e-01 1.263758e+00 -3.556343e-01 -7.451909e-01 7.334387e-01 6.990340e-01 -1.468957e+00 -4.282764e-01 -8.640333e-01 9.898066e-04 
1.142712e-01 4.305619e+00 -3.541331e-01 2.213505e+00 1.624424e+00 2.109463e+00 1.129925e+01 4.236673e+00 3.103692e+00 -2.394726e+00 -1.989312e+00 -3.047644e+00 -5.753791e-02 -1.022523e+00 -1.717693e+00 -4.111142e+00 2.197534e+00 1.465579e+00 9.690671e-01 -2.979433e+00 -2.007730e+00 -6.225716e-01 -1.892915e+00 6.497968e-01 -1.636480e+00 6.124900e-02 
-4.694195e-01 -2.093608e+00 -2.262057e+00 1.301994e+01 8.785125e+00 -3.427812e+00 3.372745e+00 1.143939e+00 4.819490e+00 -7.602179e-02 -9.935797e-01 2.338405e-01 -3.715980e-02 5.818733e-01 -2.126137e+00 -6.155831e+00 2.608548e-01 -5.430172e-01 2.813219e-01 -5.570492e+00 -2.483292e+00 -2.297856e+00 -2.127436e+00 1.872824e+00 -2.337255e+00 1.591001e-01 
-2.196247e+00 2.973057e+00 -1.449459e+01 1.288170e+01 7.878539e+00 9.101948e+00 -8.563042e-01 -6.472856e+00 -3.892321e+00 -2.874205e+00 3.378376e-01 -7.348366e+00 2.728141e-01 1.405947e+00 -1.455651e+00 -3.689159e+00 -2.414706e+00 -5.494519e-01 -1.269983e+00 -5.757771e+00 -1.794014e+00 -3.339508e+00 -1.011993e+00 1.117121e+00 -4.092499e-01 1.928416e-01 
4.850492e+00 -3.872882e+00 -2.001952e+01 2.091379e+00 -2.387870e+00 1.885527e-02 -1.038665e+01 -3.730910e+00 -7.257918e+00 -7.020635e+00 6.450190e+00 -5.030470e+00 5.727756e-01 -8.344936e-01 -3.263053e-01 1.462037e+00 -4.529752e+00 -2.494233e-01 -1.840410e+00 -3.277507e+00 1.261009e+00 -1.460630e+00 -2.928905e-01 -2.331617e-01 4.456592e-01 2.005698e-01 
4.484051e+00 -2.082999e+00 -9.921200e+00 -4.395743e+00 4.463662e+00 -5.963783e+00 -1.060991e+01 -2.295971e+00 -7.555144e+00 -3.982383e+00 -1.255933e-01 -2.461738e+00 6.017024e-01 -3.863316e+00 -1.059262e+00 5.091596e+00 -4.011787e+00 6.395088e-01 -3.444150e+00 -8.323271e-01 3.222713e+00 5.644794e-01 9.378328e-01 -2.035425e+00 1.191810e+00 1.440465e-01 
-7.982037e+00 -1.197107e+00 2.761437e+00 -9.900938e-01 9.245447e+00 -5.096997e+00 -8.137984e+00 5.360541e+00 -6.522481e-01 -9.863851e-01 -1.927673e+00 1.882255e-02 8.012452e-01 -5.761184e+00 5.813326e-01 5.188649e+00 -1.421894e+00 2.064787e+00 -1.139959e-01 1.974104e+00 2.536033e+00 1.147249e+00 8.478885e-01 -2.441673e+00 -3.822644e-01 9.081754e-02 
-1.509656e+01 -3.661139e+00 -4.270823e-01 -5.636495e+00 5.259425e+00 -5.560876e+00 -6.142270e+00 5.094981e+00 -4.372759e+00 -1.202166e+00 -5.650357e+00 -3.913963e+00 8.788120e-01 -4.938727e+00 1.093566e-02 2.337162e+00 -1.130454e+00 -9.148669e-02 -9.101391e-04 5.733355e-01 1.584000e+00 5.618194e-01 2.347459e-01 -1.166155e-01 -1.242281e+00 7.731275e-02 
-1.416512e+01 -1.771486e-01 1.176672e+00 -4.397717e+00 7.538183e+00 -7.525772e-01 -2.749947e+00 5.253779e+00 -3.112863e+00 -4.171301e+00 -2.995795e+00 -6.215680e+00 8.883085e-01 -1.889721e+00 4.509096e-01 9.071993e-01 -1.196066e+00 -1.668066e-01 4.891399e-01 8.107128e-02 -1.185307e-01 -4.321169e-01 -6.270255e-02 1.027191e+00 -1.065762e+00 3.529353e-02 
-1.711805e+01 -2.538300e+00 2.556996e+00 -8.344203e+00 4.859860e+00 -8.140543e+00 -1.043725e+01 5.677409e+00 -3.515739e+00 -1.216196e+00 -1.746098e-01 -5.555894e+00 9.447345e-01 -4.381790e-01 6.254991e-01 9.181916e-01 -6.263785e-02 9.573892e-01 1.245359e+00 3.920709e-01 3.573206e-01 1.638341e+00 -7.959936e-02 9.613472e-01 -1.205312e-01 1.065381e-02 
-1.641990e+01 4.960217e-01 5.805395e+00 -5.616572e+00 8.611197e+00 -1.361464e+00 -5.585136e+00 4.476674e+00 -3.241343e+00 -1.292883e+00 4.704069e-01 -4.489023e+00 9.447516e-01 -2.237320e-02 -1.414966e-01 1.209826e-01 -1.080019e+00 -1.188130e+00 1.271808e+00 -9.266351e-01 -3.305723e-01 1.752380e+00 -5.915312e-01 -6.455187e-02 -1.532223e-01 4.430831e-04 
-1.616007e+01 -8.702282e-01 1.849514e+00 -5.340257e+00 9.509865e+00 9.703625e-01 -2.764320e+00 7.270137e+00 3.883184e+00 -3.039372e+00 -2.576722e+00 -5.379947e+00 9.038594e-01 1.024810e+00 8.968957e-02 -4.433243e-01 -8.349021e-01 -1.287656e+00 1.844239e+00 9.039716e-02 -2.197259e+00 2.534153e+00 2.141109e-02 -8.671330e-01 3.489272e-01 -2.642852e-02 
-1.475597e+01 -1.718667e+00 2.135325e+00 -1.129979e+01 -7.274706e-01 1.051009e+00 -1.121959e+01 2.804554e+00 1.949577e+00 -6.217369e+00 -2.117498e+00 -7.069765e+00 9.109614e-01 1.011297e+00 -7.964759e-01 -3.784465e-01 -1.076473e+00 -1.997561e+00 -7.818214e-01 -1.383075e+00 -1.445133e+00 1.696567e+00 7.527008e-01 -1.207661e-01 1.055611e+00 -3.089990e-02 
-1.282596e+01 -9.825073e-01 2.175409e+00 -9.677107e+00 3.090914e+00 -1.255839e-01 -7.168041e+00 -4.472827e+00 6.559565e+00 1.353103e+00 -3.216321e+00 -2.520887e+00 8.294870e-01 9.429640e-01 -1.103103e+00 -2.172986e-01 -1.468339e+00 -1.803296e+00 -1.394493e+00 -1.075595e+00 -1.450118e+00 -8.135414e-02 4.815041e-01 5.645245e-01 2.035543e+00 -3.012565e-02 
-1.303047e+01 -3.430218e+00 3.750215e+00 -8.830515e+00 1.832867e+00 -4.722598e+00 -1.029865e+01 3.122489e+00 3.903303e+00 2.743838e-01 1.863762e-01 -6.404991e-01 8.274384e-01 5.770098e-01 -1.106961e+00 -6.563023e-01 -8.344042e-01 -1.091013e-01 -6.169603e-02 5.627829e-01 -1.306901e+00 -1.675160e+00 -7.569558e-01 -5.511932e-02 2.242480e+00 -3.206608e-02 
-1.230800e+01 -5.529966e+00 -4.442352e-02 -1.391659e+01 -7.867856e-01 -3.115297e+00 -8.602765e+00 -1.394198e-01 2.499551e+00 -3.877728e+00 -9.060370e-01 1.583138e+00 7.949927e-01 4.877659e-01 -1.413834e+00 -7.372380e-01 4.779844e-02 -3.522573e-01 5.431875e-01 4.978916e-01 -8.012180e-02 -1.455951e+00 -1.866225e+00 -5.933816e-01 8.961567e-01 -2.512604e-02 
-1.212990e+01 -4.979742e+00 -3.626996e-02 -1.335207e+01 6.658723e-01 2.237386e+00 -7.688312e+00 -5.896652e+00 -4.396216e+00 -7.386733e+00 -3.548237e+00 2.090622e+00 7.678782e-01 7.736673e-01 -5.336213e-01 -7.701206e-01 7.043881e-01 7.066892e-01 1.395569e+00 1.392560e+00 -2.416118e-01 3.882080e-01 -4.164303e-01 -7.736882e-01 2.198544e-02 -3.096808e-02 
-1.083741e+01 -7.276915e+00 3.824614e-01 -7.177338e+00 1.913125e+00 -8.896384e-01 -5.983752e+00 -3.638651e-01 3.429570e+00 -4.147464e+00 -4.315923e+00 5.943363e-01 7.336369e-01 6.213196e-01 -2.597094e-01 -3.250369e-01 2.468820e-01 -3.558556e-01 4.208853e-02 4.332428e-02 1.083106e+00 1.478974e+00 -1.098058e-01 3.923414e-02 -2.932974e-01 -2.201834e-02 
-9.897425e+00 -5.224851e+00 -3.138305e-01 -8.678198e+00 4.016358e+00 1.142416e+00 -4.645358e+00 2.026653e+00 5.379333e+00 -1.672900e+00 -1.977122e+00 -3.617132e-02 7.032759e-01 8.998535e-01 1.101720e-01 -6.318007e-02 -4.243574e-01 -4.716239e-01 -9.578732e-01 -7.520334e-01 1.673715e+00 2.461849e+00 7.593051e-01 2.213762e-02 -1.853729e-01 -1.987895e-02 
-1.031764e+01 -6.705959e+00 -1.530828e+00 -1.501911e+01 -4.241307e+00 -2.357369e+00 -9.907620e+00 1.314460e+00 5.006644e+00 -7.283673e+00 -1.495424e+00 1.180048e+00 7.172022e-01 1.000437e+00 1.138268e-01 2.644523e-02 -1.418736e+00 8.466008e-02 -1.766942e-01 -1.707691e+00 -1.156860e+00 -4.361293e-01 7.695743e-01 1.111584e+00 7.163957e-01 -1.288732e-02 
-7.890520e+00 -4.714359e+00 6.044742e-01 -1.155297e+01 1.384969e+00 -1.818115e+00 -9.486545e+00 1.632760e+00 7.124494e+00 -2.022103e+00 -4.847799e+00 8.709016e-01 6.767008e-01 1.314340e+00 1.462894e-01 2.548667e-01 4.427019e-01 1.068125e+00 1.191414e+00 -5.886315e-01 -1.782186e+00 2.069578e-02 2.222557e-01 1.209819e-01 8.135535e-01 -2.343046e-02 
-6.838680e+00 -6.963026e+00 5.553514e-02 -1.283363e+01 3.652120e+00 -2.928441e-01 -1.210161e+01 -5.951216e+00 3.763433e-01 -1.249903e-01 2.677338e+00 3.722779e+00 6.824878e-01 1.654832e+00 7.078847e-01 5.149475e-01 9.128017e-01 1.887766e+00 2.502696e+00 8.678509e-01 -9.279661e-01 6.559286e-01 4.557928e-01 -8.211379e-01 8.524872e-01 -3.529384e-02 
-5.065205e+00 -4.364870e+00 1.673219e-01 -7.557427e+00 5.410273e+00 6.067222e+00 -6.491519e+00 -3.251439e+00 7.797962e+00 -4.140963e+00 -3.458594e+00 2.760231e+00 6.034808e-01 2.258450e+00 1.034615e+00 1.505755e+00 1.406125e+00 -3.626170e-01 1.314936e+00 1.648953e+00 3.275210e-01 1.765831e+00 -6.730472e-01 -8.718702e-01 1.051208e+00 -3.528864e-02 
-3.456142e+00 -3.341280e+00 1.262486e+00 -1.245287e+01 3.184873e+00 6.213439e+00 -7.065879e+00 -8.832717e-01 7.949553e+00 -3.945279e+00 -6.295716e+00 4.497819e+00 5.773430e-01 2.693561e+00 1.262289e+00 1.792903e+00 8.227265e-01 -2.627100e+00 -6.381631e-02 2.354393e+00 1.892173e+00 2.155359e+00 -6.278858e-02 -8.327230e-01 1.049668e+00 -6.205548e-02 
1.710459e+00 -1.352159e+00 7.529774e+00 -4.712722e+00 -1.944926e-01 1.503425e+00 -3.759645e+00 7.363925e-01 1.216704e+01 -3.477195e+00 -4.720623e+00 5.739420e+00 5.528300e-01 2.345497e+00 2.351038e-01 7.305498e-01 -5.994661e-01 -3.560029e+00 -2.208215e+00 1.247358e+00 1.087224e+00 7.773308e-01 1.673578e+00 7.378449e-01 6.705832e-02 -8.324843e-02 
3.241293e+00 -2.157938e+00 5.338826e+00 -1.014235e+01 -6.680999e+00 1.669973e+00 -1.695585e+00 1.515735e+00 8.968597e+00 -7.708172e-01 -8.552624e-01 7.481522e+00 3.975359e-01 1.545474e+00 -4.933884e-01 -5.426080e-01 2.751760e-01 -2.733119e+00 -1.177159e+00 1.820616e+00 4.899035e-01 -2.080771e-01 9.671086e-01 3.289325e-01 -2.666968e+00 -1.087239e-01 
3.313562e+00 -3.781022e+00 1.781901e+00 -1.171002e+01 -7.456939e+00 -2.702122e+00 -2.939878e+00 9.851761e-01 1.117509e+01 2.639697e+00 -2.489596e+00 1.603671e+00 2.771422e-01 5.364305e-01 -6.143188e-01 -2.155467e+00 1.350051e+00 -1.068623e+00 8.645822e-01 1.338439e+00 -7.546005e-01 -1.426854e+00 4.258638e-01 -4.443889e-02 -3.087088e+00 -1.198771e-01 
3.469675e+00 -4.593791e+00 1.423382e+00 -7.578344e+00 -6.849499e+00 2.430419e+00 1.627316e+00 1.441854e+00 7.405142e+00 -2.168182e+00 -5.766567e+00 -6.769146e+00 1.715674e-01 6.883357e-01 3.466551e-01 -2.361014e+00 2.814623e+00 3.848524e-02 -5.067196e-01 4.671212e-01 -1.245543e+00 -2.649699e+00 -6.162772e-01 -1.418584e-01 -2.579439e+00 -9.873401e-02 
4.278420e+00 -3.205827e+00 -1.289840e+00 7.555280e-01 -5.453360e+00 5.446113e+00 1.271099e+00 -2.999669e+00 5.814500e+00 -6.491929e-01 -2.487164e+00 -2.570687e+00 6.642872e-02 6.843256e-01 1.001115e+00 -2.276958e+00 2.440320e+00 -1.454731e-01 -6.138531e-01 1.173927e+00 -1.079519e+00 -3.218816e+00 -3.170178e-01 6.167617e-01 9.488873e-02 -6.588928e-02 
6.200542e+00 -7.122606e-01 -4.930373e+00 -2.302011e+00 -7.490362e+00 -4.937743e+00 -1.465467e+00 -2.719555e+00 -1.599601e+00 -2.207758e+00 -1.565770e+00 -3.328495e+00 9.222567e-03 9.345900e-01 1.418851e+00 -2.392833e+00 9.818649e-01 6.654336e-01 -1.103680e+00 1.465862e+00 -8.580758e-01 -2.490134e+00 1.058466e+00 1.354903e+00 2.276627e+00 -4.211862e-02 
5.369757e+00 -7.162142e-01 -6.426011e+00 -2.146586e+00 -7.863873e+00 -2.087307e+00 4.476151e+00 -2.331716e+00 -4.166138e-01 1.074396e+00 -1.506186e+00 3.577893e-01 2.886826e-02 3.705584e-01 9.512652e-01 -1.720964e+00 4.709413e-01 1.532606e+00 -4.210857e-01 1.749914e+00 -7.727073e-01 -1.845530e+00 6.849405e-01 3.656394e-01 1.166899e+00 -1.780570e-02 
7.596957e+00 1.255660e+00 -7.972698e+00 -1.217962e+00 -2.317074e+00 6.787276e-01 7.354098e+00 -3.182502e+00 -1.929973e+00 2.262352e+00 5.174578e-01 3.149751e+00 -2.024543e-02 -6.060193e-01 4.166448e-01 -3.425478e-01 9.704624e-01 1.309291e+00 1.238661e+00 2.863211e+00 1.064070e+00 5.493016e-01 6.881504e-01 1.233615e+00 1.140063e+00 -1.924630e-02 
5.433005e+00 5.665389e-01 -8.373499e+00 2.568210e+00 -3.769724e-01 5.324497e-01 5.610888e+00 -6.631733e+00 -3.247965e+00 5.404549e-01 -1.700582e+00 2.468324e-02 -7.865787e-03 -4.443922e-01 8.260906e-01 1.994815e-01 6.909921e-02 6.497461e-01 9.594946e-01 1.527969e+00 6.906655e-01 -4.048606e-01 -4.494313e-01 7.452819e-02 -2.668173e-01 -2.336833e-02 
3.138822e+00 7.295867e-01 -5.669368e+00 1.929029e-01 -4.687357e+00 -5.431408e-02 1.228322e+01 4.750802e+00 2.562582e+00 1.499965e+00 4.699503e+00 2.538371e+00 -6.864190e-02 -5.950814e-01 8.643960e-01 2.414675e-01 -9.440632e-01 -1.100286e+00 1.729437e-01 9.330799e-01 4.441890e-01 -2.567831e-01 -7.012531e-01 -1.567969e+00 -1.693532e+00 -7.446027e-03 
5.376863e+00 3.677276e+00 -6.580269e+00 -2.506523e+00 -3.430001e+00 3.076687e+00 9.651432e+00 -2.845041e+00 -4.687195e+00 -7.915665e-01 -3.224568e+00 -6.706076e-01 -6.377518e-02 -2.454977e-01 1.357374e+00 1.079857e+00 -2.407502e-01 1.701909e-01 2.497022e-01 4.783735e-01 5.808128e-01 -3.219034e-01 -6.040002e-01 -8.593845e-01 -8.834208e-01 1.193440e-03 
4.649621e+00 4.022272e+00 -7.661976e+00 -3.400911e+00 -6.291988e+00 2.713273e-01 9.999226e+00 -2.854903e+00 -2.494274e+00 -5.779025e-01 -6.560395e+00 -4.970265e+00 -2.952087e-02 -4.508495e-02 1.083239e+00 1.715771e+00 2.123024e+00 2.250648e+00 5.441076e-01 -6.325481e-01 1.978418e-01 3.153217e-01 7.425073e-01 -1.000437e+00 -1.279060e+00 7.540548e-03 
3.450117e+00 5.707068e+00 -1.977910e+00 3.161366e+00 1.276298e+00 1.618140e+00 9.144753e+00 7.518291e-02 -2.329053e+00 -1.440613e+00 -3.675548e-01 -6.381026e-01 -2.145910e-02 -4.321780e-01 -1.666433e-01 1.681105e+00 3.319618e+00 2.414144e+00 2.855124e-01 3.267934e-01 2.708758e+00 2.587593e+00 1.275821e+00 5.460309e-01 -4.028687e-01 -1.325297e-03 
3.876770e+00 5.130887e+00 6.083084e-01 7.974076e+00 4.212733e+00 3.395497e+00 9.373820e+00 4.279899e+00 2.960120e+00 5.537024e+00 -1.731189e+00 -3.873183e+00 -5.209720e-02 -2.801940e-01 2.105046e-01 1.006007e+00 1.485523e+00 5.102032e-01 6.578579e-01 3.483035e-01 1.722191e+00 1.518229e+00 1.020752e+00 1.816602e+00 1.330631e+00 -8.875847e-04 
3.602399e+00 2.289752e+00 -2.309886e+00 8.404070e+00 3.388359e+00 2.942164e+00 1.159810e+01 7.131349e+00 5.523572e+00 2.530075e+00 -2.909016e+00 -3.233492e+00 -5.911350e-02 -4.108906e-02 -1.254581e-01 -3.968714e-01 4.208078e-02 -2.748430e-01 -2.266494e-01 -4.870860e-01 4.610028e-02 2.473590e-01 -1.350929e+00 3.228633e-01 -7.404351e-02 -4.510641e-04 
3.172510e+00 6.783453e+00 -2.465951e+00 1.405351e+00 -4.797003e+00 2.898605e+00 1.051407e+01 2.227970e+00 1.170558e+00 2.540514e+00 3.793346e+00 2.980587e+00 -1.513159e-02 -2.310344e-01 1.104057e-01 -1.098049e+00 -1.585886e+00 -8.874155e-01 -6.718239e-01 -4.382074e-01 -8.183144e-01 -1.521968e+00 -1.959276e+00 3.641255e-01 8.956829e-01 3.412533e-03 
3.596802e+00 4.253495e+00 -2.425137e+00 6.656133e+00 4.406950e+00 7.333393e-01 6.139198e+00 1.331649e+00 -1.974777e-01 -6.697001e+00 -1.515506e+00 -4.435205e+00 -4.219723e-02 -4.681977e-01 1.522250e-01 3.505610e-01 -1.135795e+00 -2.666687e-01 7.434515e-02 -6.266727e-01 -1.185499e+00 -1.066277e+00 -2.912266e-01 3.948471e-01 5.024840e-01 -3.688812e-03 
2.724397e+00 4.701044e+00 -4.824309e+00 9.186172e-01 -7.336409e-01 1.140790e+00 9.912234e+00 3.088177e+00 -1.789192e+00 3.541827e-01 -6.073166e-01 1.206088e+00 -4.349267e-02 -5.609847e-01 -8.492084e-02 9.087937e-01 7.223588e-01 1.073833e+00 9.963319e-01 4.120254e-01 -1.019199e+00 -4.621729e-02 1.581039e+00 2.723579e-01 1.580661e-01 -4.536474e-03 
1.485467e+00 4.092081e+00 6.220985e-01 2.968461e+00 2.333403e-02 4.192797e+00 8.765655e+00 7.737498e-01 1.672065e+00 2.167108e+00 1.265550e+00 1.661779e-01 -6.337702e-02 -8.188792e-01 1.773845e-01 1.493847e+00 3.482990e-01 1.080947e-01 1.512008e+00 7.801940e-01 -1.212229e+00 3.435518e-01 2.079952e+00 3.133090e-01 1.353465e+00 -2.589190e-03 
1.423254e+00 6.439556e+00 5.543994e-01 6.860981e+00 2.763969e+00 6.150535e+00 1.126097e+01 -2.589077e+00 4.700422e-03 6.013655e+00 3.764607e+00 1.470226e+00 -2.722406e-02 -7.316127e-01 -3.325675e-01 1.437678e+00 3.223504e-01 2.377432e-01 -3.400652e-01 -9.344721e-01 -8.913416e-01 -3.312832e-01 -3.366658e-01 6.571957e-01 -9.428964e-02 2.280355e-04 
1.529770e-01 4.271162e+00 2.354745e+00 5.426446e+00 3.198619e+00 5.788507e+00 9.365802e+00 -1.890870e+00 6.233349e-01 8.730239e-01 -2.134923e+00 2.200052e+00 -6.327748e-02 -5.131710e-01 -3.265781e-01 -2.248670e-01 -4.078369e-01 4.563362e-01 -9.784735e-01 -1.378682e+00 1.640193e-01 -5.547584e-01 -5.227083e-01 1.448374e+00 6.981963e-01 6.370783e-03 
-2.674217e-01 2.948666e+00 1.497755e+00 1.301376e+00 -1.132567e+00 -1.357391e+00 4.939800e+00 -3.622103e-02 -2.921243e+00 -6.821045e-01 4.378899e+00 -2.822976e-01 -4.240227e-02 -2.125780e-01 -5.134169e-01 -7.913004e-01 -4.337163e-01 -7.023062e-02 -1.033870e+00 -8.660469e-01 1.120380e+00 4.676355e-01 -3.587011e-01 1.079654e+00 -1.011062e-03 -1.620305e-03 
-2.350502e-01 4.204636e+00 -9.739146e-01 3.709078e+00 4.253283e+00 3.054393e+00 5.032825e+00 3.174183e-01 3.612449e-01 2.901446e+00 8.200275e+00 4.533422e+00 -2.393401e-02 8.605604e-02 -1.581097e-02 -8.219365e-01 6.962000e-01 6.326187e-01 3.411677e-01 1.038863e+00 7.271048e-01 1.109118e-02 -1.129088e-01 3.833288e-01 -9.660517e-01 -1.728618e-03 
5.543776e-01 3.905734e+00 -1.737772e+00 5.551083e+00 1.885484e+00 2.348242e+00 9.097220e+00 1.908680e+00 2.473923e+00 3.205938e+00 3.995276e+00 2.984861e-01 -5.499732e-02 1.397451e-01 -1.299119e-02 -6.564101e-01 9.282135e-01 8.841364e-01 6.903817e-01 1.764187e+00 5.255393e-01 8.421717e-01 3.028318e-01 -9.731081e-01 -8.169626e-01 -7.609618e-03 
1.723576e-01 3.713573e+00 -1.371732e-01 6.782593e+00 4.852687e+00 5.641529e+00 1.248141e+01 7.722030e-01 -2.018792e+00 -1.635541e+00 -2.646828e-02 -2.920598e+00 -6.562304e-02 -4.151144e-02 -2.962873e-01 4.437461e-02 3.002548e-02 -7.082205e-01 -1.122687e+00 4.001768e-01 -4.642619e-01 -1.508733e-01 3.108390e-01 -1.041195e+00 -1.143756e+00 -1.041774e-02 
2.276001e-01 3.129242e+00 -2.202666e+00 4.405686e+00 2.988413e+00 8.009491e-01 1.003644e+01 2.364083e+00 2.479633e+00 3.100549e+00 3.626730e+00 -6.401013e-01 -5.960584e-02 -1.015749e-01 -1.734295e-01 6.672719e-01 -6.808388e-01 -1.528944e+00 -1.985682e+00 -9.704741e-01 -6.885351e-01 3.533943e-02 5.517299e-01 -9.733256e-01 1.165573e-01 -6.537259e-03 
-2.792187e-01 3.111445e+00 -5.195947e-01 4.431904e+00 1.607158e-01 -1.785397e+00 6.564098e+00 -2.231592e+00 -3.959767e-01 4.508336e+00 3.178575e+00 -7.160632e-01 -7.371843e-02 -1.305929e-01 -1.173363e-01 4.308309e-01 -9.424781e-01 -1.503576e+00 -1.523693e+00 -1.550372e+00 -1.267086e+00 1.053041e+00 8.425158e-01 -1.096857e+00 1.531973e+00 -8.608460e-04 
2.722912e-01 3.339650e+00 1.789798e+00 3.322233e+00 -3.413251e+00 -3.866704e+00 7.203504e+00 -3.209734e-02 1.839212e+00 2.892649e+00 -2.473873e+00 -2.209945e-01 -8.363593e-02 -1.684839e-01 -3.048661e-02 4.987174e-01 -5.407489e-01 -4.530628e-01 1.254173e-01 -8.198940e-01 -1.559198e+00 6.136585e-01 -2.666472e-01 -1.781339e+00 1.558541e+00 1.919341e-03 
-5.029526e-01 3.021688e+00 2.074903e-02 2.611929e+00 5.356381e-01 3.568913e-01 6.146015e+00 -4.365135e+00 3.566625e+00 2.680987e+00 -2.460453e+00 4.529714e+00 -5.791223e-02 -1.222712e-01 -4.974780e-02 -6.883613e-02 -4.350253e-01 4.698733e-01 8.508172e-01 -1.893655e-01 -8.600122e-01 9.652616e-01 -3.866360e-01 -1.126464e+00 1.524226e+00 5.733609e-03 
