-7.939404e+00 2.244722e+00 -5.534142e+00 -1.085067e-02 9.214243e+00 3.693788e+00 8.183387e+00 2.930067e+00 -5.213457e-02 5.200386e+00 3.773790e+00 7.086230e+00 1.720619e-02 -2.528784e-01 -1.492985e-01 -5.244371e-01 -3.916304e-01 1.406378e-01 -3.921113e-02 -3.592200e-01 5.639898e-01 -2.484706e-01 1.834514e-01 -1.078356e+00 -1.558388e+00 8.297700e-03 
-8.381269e+00 1.379781e+00 -6.506845e+00 5.572886e-01 1.105445e+01 1.427449e+00 1.540894e+00 1.825103e+00 -5.336790e+00 3.212409e+00 2.307261e+00 6.221477e+00 4.070431e-02 -7.401333e-02 -1.816354e-01 -7.044030e-01 -5.841277e-01 -8.242469e-01 -2.055076e+00 -9.116358e-01 4.912822e-01 1.777612e-01 2.267771e-01 -1.275004e+00 -1.198413e+00 1.141289e-02 
-8.982862e+00 1.930699e+00 -7.669975e+00 -2.253072e+00 8.997328e+00 4.630901e+00 9.708533e+00 6.302498e+00 1.347840e+00 7.111632e+00 -8.847234e-01 -2.733347e-01 4.694563e-02 1.227325e+00 4.248205e-01 5.431452e-01 -2.622056e-01 -8.273951e-01 -2.622327e+00 -2.070765e+00 -5.404913e-01 1.653555e+00 4.400181e-01 -9.972426e-01 -1.227315e+00 1.712540e-02 
-7.787741e+00 1.493556e+00 -7.988239e+00 -1.810378e+00 5.201466e+00 -7.050150e+00 2.862635e+00 3.700263e+00 1.366839e-01 5.378649e+00 -2.719737e-01 4.773946e+00 5.940092e-02 2.280618e+00 8.193600e-01 1.594221e+00 -2.142049e-01 -1.761859e-01 -2.479980e+00 -2.849336e+00 -9.847995e-01 2.907964e+00 4.418824e-01 -3.702179e-02 -7.006890e-01 3.082748e-02 
-2.099544e+00 4.311937e+00 -2.077718e+00 -1.380450e-01 8.003759e+00 -5.179049e+00 -2.831311e+00 -7.099695e-01 5.478902e+00 6.317357e+00 7.719535e-02 1.673423e+00 9.348488e-02 1.049068e+00 8.553458e-01 1.393900e+00 2.609076e-01 -3.801322e-02 -1.303302e+00 -3.154294e+00 -2.443061e+00 -3.989242e-01 2.595400e-02 1.124187e-01 -9.903431e-02 1.403742e-02 
-4.198370e-01 4.285962e+00 -1.331867e+00 -1.571249e+00 1.067031e+01 -6.067478e+00 -6.435865e+00 4.073396e-01 7.137497e+00 5.818959e+00 1.641193e+00 1.744653e+00 1.715721e-01 -8.901504e-01 -8.466367e-02 7.985831e-05 4.260871e-02 -1.233565e-01 1.850140e+00 1.936476e+00 -9.651981e-02 -1.348620e+00 -5.232060e-01 -2.968763e-01 -9.800647e-01 -5.470103e-03 
-7.421473e+00 4.811225e+00 -4.028663e+00 -1.068098e+00 6.072842e+00 -2.376945e+00 -1.413684e+00 -4.266344e+00 -4.147187e+00 7.021247e+00 -1.279213e+00 7.461400e-01 6.104714e-02 -2.460511e+00 -5.900186e-01 -1.468681e+00 -1.790153e-01 4.025911e-01 1.864501e+00 3.298506e+00 1.739328e+00 -2.287317e+00 -6.432835e-01 -3.784171e-01 -4.670524e-01 -2.129528e-02 
-9.577528e+00 8.205934e-01 -7.012367e+00 -1.132308e+00 5.550142e+00 7.994982e-01 1.183620e+01 4.995852e+00 -1.793373e+00 2.410674e+00 -1.078151e+00 3.372641e-01 4.826927e-02 -2.019536e+00 -1.156327e+00 -1.960298e+00 4.249370e-01 3.348428e-01 8.659649e-01 2.643110e+00 2.498401e+00 -6.583025e-01 -1.632341e-01 4.788919e-01 6.144617e-01 -2.146193e-02 
-9.823252e+00 3.094528e+00 -6.580872e+00 -1.252592e+00 1.257680e+01 7.099692e-01 4.525185e+00 5.692415e+00 -1.492246e+00 4.805082e+00 -4.552184e-01 4.185566e-02 4.865986e-02 1.315802e-01 -6.198977e-01 -7.437544e-01 7.231401e-01 1.301463e+00 -2.923367e-02 8.765324e-01 2.981807e+00 2.046220e+00 -5.687615e-01 1.992635e-01 1.676356e-01 -4.192531e-04 
-9.316628e+00 -6.373262e-01 -9.857253e+00 6.456827e-01 9.092542e+00 -3.281110e+00 3.810249e+00 7.919965e+00 2.518513e+00 6.110871e+00 3.623655e+00 5.169104e+00 7.045609e-02 7.638721e-01 5.218922e-01 4.936883e-01 4.300151e-01 5.319689e-01 3.036450e-02 -1.373173e+00 2.031364e-01 1.003976e+00 -2.635130e-01 -4.531884e-01 -6.431121e-01 7.616639e-04 
-6.894022e+00 2.440697e+00 -6.324992e+00 1.658607e+00 1.080896e+01 -4.828091e-01 6.981955e+00 9.180635e+00 3.927970e+00 2.327341e+00 -2.633799e+00 -8.316016e-01 4.785746e-02 1.376951e+00 8.157438e-01 1.110322e+00 3.796912e-01 -6.446606e-01 4.749140e-01 1.640603e-01 -2.122696e-01 -6.004885e-01 -1.167806e+00 -9.775160e-01 -8.535157e-01 -1.054162e-03 
-7.222782e+00 3.756970e+00 -4.671865e+00 -4.378321e-01 9.093905e+00 1.547710e+00 3.741952e+00 4.267423e+00 5.164003e-01 2.331979e+00 -2.254803e+00 -2.441568e+00 5.247879e-02 1.220637e+00 8.000671e-01 1.667087e+00 -8.770657e-02 -1.231204e+00 9.194742e-01 2.317640e-01 -2.763995e+00 -2.187661e+00 6.539605e-01 -6.681452e-01 -1.683048e+00 5.791766e-03 
-3.985419e+00 4.976099e+00 -3.621958e+00 1.187621e+00 9.352811e+00 6.701293e-01 5.379635e+00 6.457338e+00 -3.493632e+00 8.554955e-01 -2.403569e+00 -4.203869e-01 5.237770e-02 4.973992e-01 -5.989543e-01 1.406858e-02 -4.991367e-01 -1.021269e+00 9.492927e-01 3.315072e-02 -2.501228e+00 -2.578158e+00 1.006306e+00 1.872197e+00 6.574184e-01 1.515030e-02 
-4.667744e+00 2.095308e+00 -2.873337e+00 4.426425e-01 3.664598e+00 7.397923e-01 5.770229e+00 -4.538361e+00 -4.708989e+00 1.011660e+01 1.678146e-01 -3.451742e+00 9.715480e-02 1.444995e-01 -1.019564e+00 -5.633744e-01 3.436938e-01 -1.928443e-01 9.184570e-01 6.397400e-01 -1.232531e+00 -7.681060e-01 8.645350e-01 1.484894e+00 4.700361e-01 1.008628e-02 
-5.684546e+00 2.767563e-01 -7.153913e+00 -1.277314e+00 8.417266e+00 4.667613e+00 6.133570e+00 1.077387e+00 -6.350127e+00 3.466563e+00 5.515877e+00 2.960577e+00 1.012710e-01 -7.962693e-01 -5.057558e-01 -4.220353e-01 -1.574831e-01 3.340392e-01 9.587628e-01 9.831952e-01 -1.045433e-01 1.661439e+00 1.091331e+00 5.575808e-01 5.381098e-01 -2.521712e-03 
-5.650722e+00 1.008821e+00 -5.722759e+00 2.513105e+00 8.597456e+00 4.141253e+00 6.563684e+00 7.947416e-01 -1.895883e+00 5.349120e+00 1.209945e+00 -1.781870e+00 7.846355e-02 -8.251463e-01 3.034461e-01 -7.819201e-01 -5.954340e-01 1.260055e+00 1.603624e+00 1.485058e+00 3.197178e+00 2.897604e+00 5.268571e-01 1.083918e+00 1.456017e+00 -1.523002e-02 
-7.475277e+00 2.990564e+00 -4.307424e+00 -6.350250e-01 8.556578e+00 3.763213e+00 9.898883e+00 3.268071e+00 3.407010e+00 8.695888e+00 -1.367301e-01 1.435226e+00 4.911476e-02 -8.742650e-01 6.402847e-01 2.010231e-01 -2.871163e-01 5.739239e-02 -1.107006e-02 1.323675e+00 2.481190e+00 3.290591e+00 1.379099e+00 -3.479382e-01 1.118335e+00 -1.725233e-02 
-7.898109e+00 2.255635e+00 -8.206182e+00 -2.855672e+00 9.895219e+00 9.210112e+00 1.131287e+01 1.035219e+01 4.900459e+00 1.013622e+01 8.413709e+00 4.591018e+00 4.708278e-02 -6.114899e-01 7.560822e-01 4.071792e-01 1.517229e-01 3.508171e-01 -2.902701e-01 5.688921e-01 2.296479e+00 6.780726e-01 -5.680412e-01 -1.233054e-02 1.544965e+00 -7.806510e-03 
-8.932177e+00 2.854773e+00 -4.907086e+00 -2.850759e-02 8.055347e+00 2.077833e+00 1.037736e+01 8.704614e+00 6.704660e+00 7.968509e+00 1.743045e-01 5.365807e+00 3.069973e-02 -7.250126e-01 6.633891e-01 1.535189e-01 1.266212e+00 -1.618971e-01 -3.269324e-02 -5.410030e-01 -2.773918e-01 -7.714186e-01 -1.410145e+00 -1.990505e+00 1.865262e-02 5.132543e-02 
-7.979721e+00 4.857127e+00 -3.387032e+00 2.968461e+00 1.060216e+01 3.532592e+00 9.168908e+00 9.558865e+00 -1.543446e-01 2.872604e+00 9.927753e-01 3.977665e+00 4.863852e-02 -1.306670e+00 6.395598e-02 -4.782569e-02 1.841654e+00 -3.910260e-01 -2.683536e-01 -1.604679e+00 -2.799871e+00 -1.180163e+00 -1.787666e+00 -2.454465e+00 -9.546336e-01 1.363886e-01 
-1.105953e+01 5.006763e+00 -5.949404e+00 2.783970e+00 7.393623e+00 6.438506e+00 8.265846e+00 2.277775e+00 2.077319e+00 5.276970e+00 -6.378787e+00 1.835165e+00 3.049641e-01 -8.405184e-01 -2.226880e-01 -1.327892e+00 1.940681e-01 -1.176359e+00 -6.653926e-01 -8.956926e-01 -1.264431e+00 2.535322e-01 -7.843515e-01 -7.349394e-02 -5.686518e-01 1.964872e-01 
-1.336778e+01 1.499419e+00 -7.924152e+00 4.946359e+00 8.270951e+00 5.688007e+00 4.345224e+00 -4.337473e-01 1.313317e+00 2.543656e+00 -5.820721e-01 1.583171e+00 5.918937e-01 1.939195e+00 1.016484e+00 -1.040667e-01 -4.017019e-01 -2.662981e+00 -4.004297e+00 -2.540945e+00 -2.607434e+00 7.013865e-01 -7.432068e-01 -1.422903e+00 -7.464946e-01 1.666893e-01 
-1.044074e+01 3.420187e+00 -9.277988e+00 -4.711616e-02 3.339153e+00 -2.326838e+00 8.310736e+00 7.378763e+00 7.238491e+00 4.211226e+00 5.942585e-01 3.719795e+00 7.415080e-01 5.427566e+00 -1.180865e+00 2.760778e+00 -2.214624e+00 -3.078084e+00 -5.666226e+00 -5.145127e+00 -3.255587e+00 8.831611e-02 -2.061497e+00 -6.668583e-01 -1.205495e+00 1.227618e-01 
1.406858e+00 1.073283e+01 -2.243073e+00 2.375494e+00 -6.855106e-01 -1.210622e+01 -3.558259e+00 -6.028799e+00 7.720021e-01 -3.105581e-01 -9.608264e+00 -6.971225e-01 6.638131e-01 6.748032e+00 -3.693411e+00 4.210073e+00 -2.118626e+00 -4.648901e+00 -4.321747e+00 -7.738884e+00 -5.063094e+00 -1.216458e+00 -2.603392e+00 -1.223713e+00 -1.979306e+00 7.729407e-02 
8.690975e+00 -5.514270e+00 5.013947e+00 -7.003715e+00 -3.518567e+00 -1.299551e+01 -1.350805e+01 -1.120263e+01 2.789557e+00 -3.603407e+00 -5.199983e+00 -3.052164e+00 8.828136e-01 5.513931e+00 -5.043837e+00 2.909543e+00 2.380411e-01 -3.709879e+00 -1.876471e+00 -7.154292e+00 -5.632927e+00 -2.248510e+00 -2.222285e+00 -3.407097e-01 -1.609886e+00 5.012652e-02 
1.080652e+01 -1.250041e+01 5.980243e+00 -2.168471e+00 -1.154470e+01 -1.058639e+01 -2.343980e+01 -1.645852e+01 -2.544508e+00 -6.565989e+00 -3.803514e+00 -4.927379e+00 9.077112e-01 3.110647e+00 -4.548179e+00 -4.835234e-01 1.806181e+00 -1.995377e+00 1.492643e-02 -3.064737e+00 -1.993918e+00 -9.194435e-01 -1.238067e+00 1.557452e+00 -1.357708e-01 3.361376e-02 
1.242909e+01 -1.018238e+01 1.158068e+00 3.415072e+00 -9.780648e+00 -1.246911e+01 -1.751995e+01 -1.557101e+01 -2.345803e+00 -3.772483e+00 -4.011664e+00 -2.214507e+00 8.701916e-01 1.894971e+00 -1.916847e-02 -3.341323e+00 3.044521e+00 2.554346e-01 9.987459e-02 -1.924925e-01 -5.909920e-03 -7.091361e-01 -5.424500e-01 1.701608e-01 2.661012e-01 -2.036840e-02 
1.509104e+01 -9.674009e+00 -2.732751e+00 6.197005e+00 -7.531356e+00 -1.229479e+01 -1.687599e+01 -1.381420e+01 -1.257535e+00 -6.416355e+00 -2.415164e+00 -1.794805e+00 8.381929e-01 1.638968e+00 1.639532e+00 -3.863932e+00 1.017356e+00 2.719071e+00 -1.905317e-01 1.150413e+00 1.372377e+00 5.884821e-01 -3.587132e-01 -5.564217e-01 8.556623e-01 -2.421876e-02 
1.602357e+01 -7.023312e+00 -7.336174e+00 4.036151e+00 -4.248064e+00 -1.164194e+01 -1.775241e+01 -1.255434e+01 -1.399610e+00 -6.390473e+00 -5.043354e+00 -3.287945e+00 8.157307e-01 1.261926e+00 1.500239e+00 -2.864739e+00 -2.371834e-01 2.606874e+00 5.831518e-01 2.576117e-01 9.945032e-01 1.458150e+00 -1.146362e+00 -1.596213e-01 1.376738e+00 -1.048136e-02 
1.720412e+01 -5.882281e+00 -9.092296e+00 2.607767e+00 -7.156315e-01 -1.195264e+01 -1.757151e+01 -1.110497e+01 -7.519448e-02 -7.050560e+00 -6.069778e+00 -1.123479e-01 8.138478e-01 5.331572e-01 1.060290e+00 -1.579637e+00 -5.845180e-01 1.577749e+00 1.146027e+00 -1.235702e-01 9.736879e-01 1.321035e+00 -8.443074e-01 1.717205e-01 1.966058e+00 6.048554e-03 
1.768218e+01 -4.577047e+00 -9.985854e+00 4.023774e+00 -1.541424e-01 -9.724427e+00 -1.588414e+01 -1.195311e+01 4.353775e+00 -9.187191e+00 -2.982463e+00 3.827957e+00 8.299573e-01 5.586252e-02 -1.544484e-01 -5.046001e-01 -5.650228e-01 -2.143050e-01 7.030055e-01 -1.808874e-01 7.196042e-01 1.485912e+00 -1.728447e+00 6.612273e-01 1.757057e+00 2.234580e-02 
1.692752e+01 -5.595692e+00 -9.306095e+00 3.280604e+00 -1.689570e+00 -7.523412e+00 -1.842798e+01 -9.246375e+00 2.470949e+00 -9.239533e+00 -2.587007e+00 4.477536e+00 8.613224e-01 -2.310830e-01 -1.214455e+00 -1.789612e-01 -1.007966e+00 -1.939697e+00 1.869560e-01 -3.101830e-01 1.094791e+00 1.603641e+00 -2.463004e+00 6.442829e-01 -1.409190e-01 3.241663e-02 
1.644118e+01 -7.938848e+00 -9.752275e+00 8.746182e-01 -4.832620e+00 -1.034152e+01 -1.822861e+01 -9.885615e+00 4.756879e+00 -1.393822e+01 -3.478603e+00 3.202399e+00 9.037224e-01 -3.843609e-01 -1.913242e+00 1.193634e-01 -1.016399e+00 -2.667888e+00 -3.894835e-02 -3.987885e-01 2.293675e+00 1.314299e+00 -2.157248e+00 6.113970e-02 -1.426413e+00 3.369847e-02 
1.666920e+01 -1.027366e+01 -1.010389e+01 -8.574875e-01 -8.074878e+00 -1.070931e+01 -1.795018e+01 -6.664760e+00 7.741459e+00 -1.699006e+01 -2.600294e+00 -5.041636e-01 9.390485e-01 -4.895023e-01 -1.989144e+00 6.975065e-01 8.602738e-03 -2.907380e+00 7.004948e-02 4.014435e-01 3.234740e+00 1.687772e+00 -1.901787e+00 6.515900e-01 -2.092045e+00 2.996160e-02 
1.588954e+01 -1.180428e+01 -8.990139e+00 1.010826e+00 -1.030093e+01 -8.326221e+00 -1.811698e+01 -1.775548e+00 8.290014e+00 -1.609817e+01 -2.670121e+00 -8.132606e-01 9.595866e-01 -7.827729e-01 -1.306341e+00 1.800661e+00 1.156526e+00 -2.543663e+00 1.033909e+00 1.426451e+00 4.047108e+00 1.369696e+00 -3.041834e-01 1.298039e+00 -1.553817e+00 2.153749e-02 
1.475583e+01 -1.360870e+01 -6.199630e+00 3.255514e+00 -1.349232e+01 -8.180816e+00 -1.647658e+01 2.872291e+00 9.143239e+00 -1.766850e+01 2.667028e-01 -3.974860e+00 9.831983e-01 -1.080480e+00 -9.573061e-01 2.511616e+00 1.344590e+00 -2.741258e+00 1.110091e+00 1.627741e+00 3.380664e+00 1.650795e-01 7.663957e-01 1.162467e+00 -1.113172e+00 1.516514e-02 
1.348400e+01 -1.280303e+01 -2.701102e+00 4.600748e+00 -1.484222e+01 -6.436226e+00 -1.183316e+01 5.581398e+00 1.090447e+01 -1.511992e+01 1.578091e+00 -2.831336e+00 9.893349e-01 -8.972856e-01 -4.795223e-01 3.028288e+00 6.638032e-01 -2.635916e+00 1.072647e+00 1.974049e+00 2.033872e+00 -2.550778e-02 1.766959e+00 1.207244e+00 -5.138195e-01 9.553874e-03 
1.246957e+01 -1.456081e+01 -6.903324e-01 4.070500e+00 -1.951052e+01 -6.103852e+00 -1.295339e+01 6.560090e+00 7.259628e+00 -1.364721e+01 1.087935e+00 -5.060984e+00 1.000000e+00 -6.708056e-01 -1.443443e-01 3.123848e+00 -1.383623e-01 -2.274147e+00 1.074438e+00 1.529547e+00 4.579480e-01 -3.303612e-01 2.653659e+00 9.694800e-01 3.024128e-01 4.216158e-03 
1.254624e+01 -1.372583e+01 3.396653e+00 3.922348e+00 -2.047140e+01 -4.001469e+00 -1.000833e+01 6.549912e+00 9.104280e+00 -9.274016e+00 2.955482e+00 -2.839296e+00 9.989551e-01 -6.075937e-01 3.368740e-02 3.162488e+00 -8.311105e-01 -1.755337e+00 7.624056e-01 3.305224e-01 -2.367608e-01 -1.142483e+00 2.760995e+00 8.322098e-01 7.574052e-01 2.071136e-03 
1.187069e+01 -1.386902e+01 6.370735e+00 2.902902e+00 -2.204845e+01 -4.026005e+00 -9.741261e+00 4.677773e+00 8.391528e+00 -7.323154e+00 4.425407e+00 -2.458817e+00 9.994690e-01 -7.140360e-01 8.221006e-01 3.034816e+00 -9.699289e-01 -6.803657e-01 6.011783e-01 3.171909e-01 -7.297891e-01 -1.235323e+00 2.305930e+00 1.107971e+00 1.482220e+00 -2.143967e-03 
1.074547e+01 -1.298049e+01 9.580808e+00 1.028995e+00 -2.234993e+01 -3.663122e+00 -1.178661e+01 5.338752e+00 4.626103e+00 -4.476973e+00 4.070404e+00 -3.453939e-01 9.999561e-01 -9.648932e-01 1.210593e+00 2.687853e+00 -1.147384e+00 -5.227470e-02 4.065837e-01 -3.182430e-01 -6.557931e-01 -2.596881e+00 1.559246e+00 9.142073e-01 1.389313e+00 -5.370242e-03 
9.799772e+00 -1.082298e+01 1.139167e+01 6.675328e-01 -2.197309e+01 -3.267134e+00 -1.047829e+01 3.516725e+00 3.322100e+00 -4.516077e+00 6.070330e+00 1.103164e+00 9.887797e-01 -9.390518e-01 1.434729e+00 2.681670e+00 -1.494529e+00 9.775284e-01 4.626783e-01 1.466690e-01 -7.045122e-01 -3.141463e+00 9.143906e-01 1.160378e+00 9.885410e-01 -7.384730e-03 
8.757233e+00 -9.195888e+00 1.432545e+01 -6.968867e-01 -2.077046e+01 -2.347986e+00 -1.123103e+01 3.851472e+00 -1.345411e+00 -2.881325e+00 6.704058e+00 2.326278e+00 9.774486e-01 -7.502931e-01 1.421080e+00 2.509615e+00 -1.396952e+00 1.273594e+00 6.248875e-01 7.424303e-01 -1.198511e+00 -2.795906e+00 -1.310892e-02 1.599071e+00 1.517187e-01 -9.454179e-03 
8.169549e+00 -8.587675e+00 1.740676e+01 -3.706802e+00 -1.795055e+01 -2.370181e+00 -9.285707e+00 1.898853e+00 -4.330028e+00 -3.549026e+00 8.910472e+00 1.148053e+00 9.737991e-01 -5.733536e-01 1.157227e+00 2.249855e+00 -1.354962e+00 1.123779e+00 8.634750e-01 8.714634e-01 -1.666309e+00 -2.273352e+00 -7.063400e-01 1.529705e+00 -1.015926e+00 -1.012078e-02 
7.809121e+00 -6.992742e+00 1.912133e+01 -3.768597e+00 -1.799323e+01 -9.871604e-01 -8.670753e+00 1.551340e-01 -5.527363e+00 -5.026043e+00 1.064569e+01 3.907551e-01 9.601755e-01 -3.879159e-01 1.061688e+00 1.702706e+00 -7.858151e-01 5.567373e-01 1.388307e+00 8.147130e-01 -1.820014e+00 -1.495481e+00 -1.101007e+00 1.202330e+00 -1.626705e+00 -1.217846e-02 
7.407061e+00 -6.138419e+00 2.024300e+01 -4.571423e+00 -1.774281e+01 3.698283e-01 -7.401114e+00 -2.966652e+00 -5.953686e+00 -6.975418e+00 1.174804e+01 -3.008703e+00 9.468123e-01 -2.756312e-01 1.283453e+00 1.056217e+00 1.079777e-01 -1.499241e-01 2.101287e+00 4.477978e-03 -1.509334e+00 -7.958128e-01 -9.620377e-01 4.836586e-01 -1.393648e+00 -1.853526e-02 
7.198898e+00 -5.112078e+00 2.142086e+01 -4.193652e+00 -1.809064e+01 3.223544e+00 -8.099758e+00 -2.815847e+00 -8.010986e+00 -6.673162e+00 1.129693e+01 -3.728868e+00 9.300497e-01 -2.576798e-01 1.566753e+00 4.472977e-01 4.594519e-01 -3.644791e-02 2.081329e+00 -1.846187e-01 -1.416291e+00 -6.364840e-01 -6.102355e-01 -2.011061e-01 -9.580401e-01 -2.644665e-02 
7.096504e+00 -3.110743e+00 2.153808e+01 -2.954387e+00 -1.865147e+01 6.030903e+00 -9.548815e+00 -4.162329e+00 -7.067280e+00 -7.535655e+00 1.100315e+01 -3.760374e+00 8.961857e-01 -2.833093e-01 1.943851e+00 -9.712067e-02 6.976469e-01 1.829143e-01 1.654914e+00 3.730288e-01 -1.471366e+00 -4.472806e-01 -1.170775e-01 -1.501437e+00 9.524412e-02 -3.676393e-02 
6.676000e+00 -6.728168e-01 2.071028e+01 -2.279855e+00 -1.772114e+01 6.588944e+00 -8.519997e+00 -6.328484e+00 -8.152987e+00 -7.797102e+00 1.001260e+01 -4.023610e+00 8.532556e-01 -1.925392e-01 2.426358e+00 -5.773096e-01 4.168343e-01 2.080986e-01 8.989347e-01 1.505068e+00 -1.606616e+00 -3.135716e-01 1.712172e-01 -2.480390e+00 6.586763e-01 -5.143401e-02 
6.251963e+00 1.361206e+00 2.011269e+01 -2.040087e+00 -1.701299e+01 6.961700e+00 -5.325851e+00 -8.567163e+00 -8.119089e+00 -6.998836e+00 4.883011e+00 -2.385112e+00 8.013897e-01 -3.752560e-01 3.228710e+00 -5.009729e-01 3.234980e-01 9.694862e-02 4.682500e-01 2.373820e+00 -4.370624e-01 -3.082535e-01 5.237780e-01 -2.606188e+00 4.513773e-01 -6.646235e-02 
6.658472e+00 4.783738e+00 1.924701e+01 -2.566631e+00 -1.786939e+01 7.252819e+00 -2.685901e+00 -8.646512e+00 -9.052940e+00 -6.085485e+00 1.955044e+00 -1.123118e+00 7.202777e-01 -8.994616e-01 3.731241e+00 -3.044108e-01 2.744482e-01 2.161053e+00 5.934071e-01 2.488841e+00 -4.040890e-02 1.231754e-01 2.335857e+00 -2.066970e+00 1.607585e-01 -7.808526e-02 
5.228988e+00 1.030453e+01 1.976485e+01 -1.193509e+00 -1.809260e+01 8.040216e+00 -5.967612e-01 -5.188626e+00 -8.158571e+00 -5.772573e+00 2.000987e+00 -2.953733e+00 6.303629e-01 -1.136415e+00 2.743524e+00 -1.020420e+00 -5.114435e-02 5.309403e+00 3.265498e-01 2.405833e+00 7.678801e-01 1.021722e+00 3.599225e+00 -2.069632e+00 -4.078462e-01 -7.919633e-02 
2.690179e+00 1.351173e+01 1.936214e+01 -1.330903e+00 -6.376072e+00 9.016722e+00 1.559663e+00 -8.219796e+00 -7.517368e+00 3.269053e+00 1.118768e+00 -2.935507e+00 5.483427e-01 -6.406340e-01 1.310334e+00 -1.733364e+00 5.073912e-02 6.622711e+00 4.897942e-01 1.742959e+00 4.133859e-01 1.085499e+00 3.348854e+00 -1.877852e+00 -2.961378e-01 -7.150345e-02 
2.554033e+00 1.071483e+01 1.495302e+01 -2.913672e+00 3.787370e+00 7.712497e+00 4.580531e+00 -4.941120e+00 -3.778266e+00 6.320020e+00 -5.047013e+00 -3.518148e+00 4.913755e-01 9.474945e-02 -2.773520e-01 -2.342649e+00 1.539444e+00 5.455540e+00 7.875884e-01 1.290912e+00 -1.416360e+00 4.912038e-01 1.103832e+00 -1.198986e+00 4.895279e-01 -6.781842e-02 
4.792780e+00 1.113026e+01 1.298611e+01 -1.452854e+00 4.304180e+00 9.865649e+00 3.440248e+00 -6.703336e+00 -5.815597e+00 4.612486e+00 -3.910216e+00 -2.321599e+00 4.322541e-01 1.520229e-01 -9.661503e-01 -2.287079e+00 2.020358e+00 1.942096e+00 1.007500e+00 1.361802e+00 -1.083553e+00 -2.002835e-02 -1.659535e+00 -1.652739e+00 -1.668638e-01 -7.779337e-02 
4.651435e+00 1.010850e+01 1.123962e+01 6.564688e+00 3.844978e+00 1.155369e+01 4.917509e+00 -1.302865e+01 -6.553437e+00 -9.251282e-01 -1.479451e+00 -8.130475e-01 3.493150e-01 -8.795136e-01 -1.389135e+00 -2.696136e+00 4.506503e-01 -8.290747e-01 2.200782e-01 1.211481e+00 1.040856e-01 4.829181e-01 -1.469062e+00 -1.048446e+00 5.637249e-01 -8.872271e-02 
2.401592e+00 8.984140e+00 9.783448e+00 4.031704e+00 3.305604e+00 1.213362e+01 8.200187e+00 -9.593794e+00 -6.229924e+00 -1.406049e+00 -8.928706e+00 -5.122376e+00 2.304061e-01 -2.053496e+00 -2.132014e+00 -3.219734e+00 -8.220004e-01 -6.365065e-01 -8.054655e-01 7.994846e-01 1.095091e+00 1.346055e+00 2.444889e-01 -1.376193e+00 -1.007087e-01 -7.856761e-02 
-6.479416e-01 4.842215e+00 3.073673e+00 -3.402699e+00 1.412840e-01 7.678902e+00 8.257970e+00 -2.975463e+00 -1.156512e+00 1.983979e+00 -7.779999e+00 7.008647e-01 1.486860e-01 -2.223433e+00 -1.768218e+00 -2.626170e+00 -1.853215e+00 -2.460810e-01 -2.307375e+00 6.651576e-01 1.879305e+00 1.243658e+00 1.111192e+00 -1.136888e+00 -1.469731e-01 -5.902766e-02 
-2.825013e+00 3.103333e+00 9.704134e-01 -5.791620e-01 2.973494e+00 7.775718e+00 5.767441e+00 -6.254478e+00 -1.783787e+00 4.380376e+00 -7.640908e+00 -3.582099e+00 1.397306e-01 -1.605546e+00 -1.036883e+00 -2.159435e+00 -2.715375e-01 7.067889e-01 -1.619110e+00 -5.468262e-02 9.199679e-01 -2.617686e-01 9.702058e-02 7.475243e-01 1.612895e+00 -3.561732e-02 
-3.852428e+00 4.207815e+00 2.515292e+00 -3.959566e-01 2.780628e+00 2.195771e+00 9.459670e+00 -5.301788e+00 -2.558218e+00 1.737621e+00 -7.807791e+00 -2.318052e+00 9.951448e-02 -1.175538e+00 3.123116e-01 -8.206435e-01 3.764493e-01 9.609491e-01 -8.818774e-01 4.891050e-01 1.344686e+00 -9.932486e-01 -4.502069e-01 1.780065e+00 1.833640e+00 -1.951324e-02 
-4.023896e+00 4.116928e+00 -7.345339e-01 1.170646e+00 5.519876e+00 6.779636e+00 7.325924e+00 -3.830791e+00 -6.837914e+00 -7.977674e-01 -5.177189e+00 4.451559e+00 7.690525e-02 -4.859706e-01 5.378152e-01 -1.562658e+00 -6.146095e-01 5.828244e-01 -1.022844e+00 1.074633e+00 2.950833e+00 -1.239643e-01 -8.942537e-01 1.407133e+00 1.922026e+00 -2.193234e-02 
-5.926192e+00 5.896975e+00 -1.770704e-01 -2.395357e+00 3.672838e+00 3.767556e+00 9.924253e+00 2.536126e+00 -3.595691e+00 2.322017e+00 -1.115329e-01 5.852233e+00 8.253247e-02 -4.602148e-01 1.408207e-01 -1.692747e+00 4.272532e-02 1.029338e+00 -1.283654e+00 -6.447940e-01 1.798917e+00 5.504037e-01 -1.744523e-01 1.734561e-01 1.019195e-01 -1.552582e-02 
-4.217984e+00 4.947829e+00 -5.496696e+00 -2.652510e+00 5.441511e+00 1.875605e+00 1.090831e+01 4.580732e+00 -1.884872e+00 -3.830898e-01 -4.453373e+00 1.942890e+00 3.855991e-02 -4.298180e-01 -3.882577e-01 -1.288386e+00 5.144038e-01 1.131868e+00 -1.618223e+00 -1.186962e+00 -1.323173e-01 3.729260e-01 4.310319e-01 -5.932905e-01 -1.271579e+00 -1.354517e-02 
-6.056458e+00 4.496468e+00 -3.567361e+00 1.729248e+00 7.966501e+00 -1.770485e+00 4.444505e+00 -5.129623e-01 -2.282720e+00 6.580207e-01 -7.302419e+00 -5.541197e-01 4.105806e-02 -2.898072e-01 -6.364831e-01 -7.786955e-01 6.307172e-01 7.485334e-01 -6.806841e-01 -1.185712e+00 -1.921926e-02 4.654914e-01 -1.929763e-01 -1.234042e+00 -2.432823e+00 -9.400862e-03 
-6.107853e+00 2.875894e+00 -5.481317e+00 1.680362e+00 9.032384e+00 1.457541e+00 4.130985e+00 -2.967834e+00 -5.629769e+00 2.189390e+00 -4.548199e+00 1.296841e+00 2.991658e-02 -9.195260e-01 -2.216203e-01 5.288049e-01 4.025181e-01 3.048701e-01 -4.365933e-01 -1.847491e-01 1.130762e+00 1.099874e+00 9.787031e-01 8.975002e-01 -1.259002e+00 4.546583e-04 
-6.430294e+00 3.750527e+00 -4.078238e+00 -1.408207e+00 5.620069e+00 5.731680e-01 7.384358e+00 6.214313e+00 6.042151e-01 7.089520e-02 -6.234328e+00 -5.988857e+00 3.984982e-02 -7.014658e-01 -1.287659e-02 2.516164e-01 -1.150590e-01 -2.955276e-01 2.020639e-01 1.799123e+00 2.626052e+00 1.671413e+00 9.051808e-01 1.825037e+00 1.132538e-01 7.756710e-04 
-8.628696e+00 4.212698e+00 -2.597233e+00 9.288081e-01 8.139078e+00 -1.479188e+00 8.514641e+00 6.870907e+00 2.171031e+00 4.803988e+00 -4.999171e-01 -1.634752e+00 4.143733e-02 -4.556391e-01 2.800114e-01 1.270014e-01 -2.843742e-01 -1.303993e-02 -1.102470e-01 8.902382e-01 1.511064e+00 8.284099e-01 1.772167e+00 2.671565e+00 8.355759e-01 8.120179e-04 
-8.303366e+00 3.763682e+00 -3.751320e+00 1.529730e+00 6.935516e+00 7.081992e-01 1.124829e+01 7.697927e+00 2.173943e+00 3.876626e+00 -2.013747e-01 1.477946e+00 3.917605e-02 -9.017372e-02 4.769125e-01 -3.724191e-01 1.578050e-02 7.030286e-01 1.450236e-01 -1.381571e+00 -1.053881e+00 -1.467823e-01 2.067115e+00 1.878293e+00 1.256664e+00 -7.582605e-04 
-7.449512e+00 4.269372e+00 -5.009768e+00 -1.210477e+00 8.309461e+00 8.387904e-01 6.650208e+00 3.845681e+00 -2.272584e+00 9.147359e+00 5.793149e+00 1.741319e+00 3.431356e-02 2.702053e-01 1.357987e-01 -6.227197e-01 -5.216864e-01 4.427750e-01 9.600186e-01 -5.214566e-01 -8.396931e-01 -2.301953e-01 1.251995e+00 2.871540e-01 6.307954e-01 -4.719198e-04 
-7.470755e+00 6.106751e+00 -4.734066e+00 -2.596620e-01 9.050019e+00 1.392969e-01 1.408721e+00 2.457521e+00 2.092111e+00 8.234787e+00 1.060337e-02 -1.393573e+00 3.962040e-02 1.270247e-01 -1.687688e-01 -6.120877e-02 -4.265175e-01 4.101874e-01 4.455660e-02 -4.376913e-01 -9.118593e-01 -6.046257e-02 -7.915507e-02 -1.097496e+00 -3.836686e-01 -1.260986e-02 
-7.693975e+00 3.720157e+00 -5.219459e+00 -7.849280e-01 9.295701e+00 3.605356e+00 1.082714e+01 5.292644e+00 1.060970e+00 8.884884e+00 8.298640e-01 2.954984e+00 3.885555e-02 -1.481342e-01 -8.508030e-01 -2.405165e-01 -3.589362e-01 2.925116e-01 -3.612385e-01 8.131189e-01 8.415483e-01 1.146126e+00 -5.129013e-01 -1.623509e+00 -9.316415e-01 -2.072487e-02 
-7.546011e+00 3.194447e+00 -3.952518e+00 -8.156323e-01 8.493333e+00 -4.523005e-01 6.971370e+00 2.415149e+00 2.048533e-01 3.612088e+00 -3.207214e+00 -1.047230e+00 -2.614427e-02 -2.864628e-01 -7.191837e-01 -1.524828e-01 -5.622988e-01 5.742556e-02 7.027619e-01 2.368608e+00 1.947770e+00 1.046974e+00 -6.810905e-01 6.250798e-01 -1.114604e-01 -1.932161e-02 
-8.152555e+00 1.471510e+00 -6.603125e+00 -2.727173e+00 1.005036e+01 -6.716034e-01 7.934478e+00 8.074610e+00 4.401675e+00 8.894202e+00 -7.154872e-01 -3.090059e+00 -3.642845e-02 -2.265837e-01 -5.601733e-02 -6.561992e-02 -2.567439e-02 8.395275e-03 7.641585e-01 7.674368e-01 9.087633e-01 1.787152e-01 -3.805454e-02 9.388793e-01 -1.226328e+00 -1.319653e-02 
-8.673779e+00 3.635156e+00 -4.804647e+00 -2.100034e+00 8.959817e+00 5.791586e+00 1.469809e+01 1.080539e+01 5.656630e+00 4.824675e+00 3.908678e+00 1.071647e+00 -1.934564e-02 6.737518e-02 2.653385e-01 -1.003802e-01 5.315334e-01 1.205204e-01 1.121742e+00 7.782346e-01 3.147224e-01 -7.456619e-01 1.261126e-02 2.910216e-01 -3.209076e-02 6.765676e-03 
-8.263010e+00 3.219715e+00 -5.121494e+00 -2.710993e-01 9.104436e+00 4.304205e+00 1.080097e+01 5.641341e+00 -7.713421e-01 8.088318e+00 1.966314e+00 -4.236096e+00 -3.052640e-02 -3.347637e-01 -6.835809e-01 -2.778422e-01 7.228063e-01 -1.849669e-01 4.102020e-01 -1.527643e-02 -5.616223e-01 -8.934343e-01 -5.596786e-01 -1.005088e+00 2.649197e-01 1.817479e-02 
-7.153908e+00 3.647037e+00 -5.195234e+00 6.139981e-01 9.568898e+00 2.668506e+00 9.429298e+00 5.205395e+00 -9.369478e-01 4.078086e+00 -3.093007e+00 -6.346654e-01 4.733086e-03 -2.883617e-01 -1.142871e+00 -5.141112e-01 4.920568e-01 3.770674e-01 -1.055378e+00 -1.884875e+00 -8.358414e-01 5.671061e-01 -1.518541e-01 -1.357650e+00 1.436308e-01 1.816284e-02 
-1.058631e+01 -1.952335e+00 -7.797042e+00 -4.701576e-01 8.820987e+00 2.940947e+00 1.049249e+01 8.066494e+00 3.231292e+00 6.469104e+00 -2.240084e+00 -9.123048e-01 4.240614e-02 -4.074688e-01 -7.262135e-01 -6.716521e-01 -3.462613e-01 2.309630e-01 -7.933356e-01 -8.768054e-01 -9.044838e-02 1.671692e+00 -1.213913e+00 -1.484174e-01 1.838204e+00 1.791077e-02 
-8.953938e+00 5.068257e-01 -6.037429e+00 4.597796e-01 1.098688e+01 1.196327e+00 5.427955e+00 5.413604e+00 6.490843e+00 4.875011e+00 -7.763699e-01 1.279052e-01 3.500229e-02 -2.744766e-01 -3.488348e-02 -1.785330e-01 -5.948618e-01 -6.755693e-02 3.046582e-01 5.000799e-01 -1.362436e-01 6.341369e-01 -2.137614e-01 2.039660e+00 1.399607e+00 8.847970e-03 
-9.400339e+00 1.158753e+00 -8.058658e+00 -1.925297e+00 9.550261e+00 1.073617e+00 8.417611e+00 5.084995e+00 3.873223e+00 1.620289e+00 6.590891e-02 4.573639e+00 4.389286e-02 3.436125e-01 1.177897e+00 5.189966e-01 -8.021132e-01 -1.698204e-01 -1.535361e-01 5.254432e-01 -5.726725e-01 -1.530857e+00 -3.441272e-01 1.567312e+00 1.661711e+00 2.066165e-03 
-9.119276e+00 1.917075e+00 -5.957091e+00 -1.632741e+00 8.866477e+00 5.125462e+00 1.296714e+01 6.014927e+00 1.912771e+00 5.433687e+00 5.952296e+00 3.620398e+00 4.822958e-02 9.514809e-02 7.523677e-01 4.406834e-01 -9.297651e-01 -4.427760e-01 -2.840175e-01 8.776833e-01 -1.204791e-01 -2.325678e+00 2.037079e-01 8.183254e-01 1.212056e+00 2.447254e-03 
-8.785578e+00 3.232027e+00 -5.242228e+00 -3.434463e+00 9.032085e+00 2.086987e-01 9.350118e+00 4.902471e+00 -2.133959e+00 4.469130e+00 2.232141e+00 5.650002e+00 4.612333e-02 1.563221e-01 5.461500e-01 6.347724e-01 -4.820054e-01 -8.707420e-02 -6.646599e-01 -1.752008e-01 -1.477505e-01 -1.606109e+00 4.733126e-01 6.123092e-02 4.182331e-01 2.354681e-04 
