-6.906116e+00 8.245079e+00 5.362730e+00 9.708405e-02 2.187244e+00 -2.433284e+00 -2.118381e+00 6.968059e+00 2.024136e+00 8.034750e+00 6.688894e+00 7.258165e+00 1.603490e-02 1.041776e-01 -2.883069e-01 6.775060e-01 1.463023e-01 1.282931e-01 6.257475e-01 -8.290399e-01 -7.102726e-01 -4.101287e-01 -1.515822e+00 -7.219602e-01 -3.575054e-01 -3.820169e-03 
-7.038036e+00 7.056418e+00 6.430694e+00 -1.382370e+00 2.453721e+00 -3.303921e+00 -6.102158e+00 7.344980e+00 2.476959e+00 3.902471e+00 1.537849e+00 5.760432e+00 1.215035e-02 -1.575477e-01 -2.542627e-01 5.561938e-01 -2.897807e-01 1.203234e-01 1.237608e+00 -1.252117e+00 -9.723665e-01 -5.093639e-02 -1.620403e+00 -2.992840e-01 1.419767e+00 -6.099761e-04 
-6.319267e+00 7.397875e+00 8.216278e+00 1.568323e+00 2.695472e+00 1.130772e+00 -4.271692e+00 3.228235e+00 -2.529187e-01 2.521777e+00 5.654615e+00 6.219505e+00 -1.123667e-03 -2.900652e-01 -1.050914e-01 4.917103e-01 1.689758e-01 9.593745e-02 1.210325e+00 -4.843406e-01 -1.027555e+00 -3.146485e-01 -1.322533e+00 -3.834112e-01 8.178838e-01 7.762552e-04 
-7.987278e+00 7.397368e+00 6.716925e+00 -2.087439e+00 2.534748e+00 1.972730e+00 -7.302310e+00 3.976138e+00 2.907981e+00 2.689220e+00 5.709613e+00 1.487633e+01 2.156430e-02 -4.625404e-01 -2.456249e-01 -1.024016e-01 -2.540305e-01 -5.353605e-01 9.632016e-01 9.015415e-01 -1.431893e+00 -7.590714e-01 -2.716011e-01 3.085143e-01 -1.046665e-01 -1.667225e-03 
-7.881821e+00 7.549148e+00 7.678165e+00 1.294497e+00 2.626418e+00 9.800159e-01 -3.940007e+00 3.514706e+00 2.353821e-01 2.028712e+00 2.685956e+00 6.789635e+00 1.520920e-02 -5.055229e-01 -2.478091e-01 -1.739786e-01 -9.114894e-01 -3.995191e-01 -1.245645e+00 7.387961e-01 -3.440881e-01 -6.041272e-01 -3.514966e-01 -4.664553e-01 -1.374833e+00 -2.331656e-03 
-8.569462e+00 5.752658e+00 6.187742e+00 -2.515610e+00 -1.885550e-01 1.587466e+00 -1.760293e+00 4.227805e-02 -1.562549e+00 2.790998e+00 4.564750e+00 4.952034e+00 -4.352212e-03 -2.115932e-01 4.475682e-02 -1.596850e-01 3.467207e-02 -2.141719e-01 -1.324608e+00 1.196766e+00 -3.564614e-03 -6.865446e-01 2.153785e-01 2.683419e-01 -1.734279e+00 -1.659548e-03 
-8.555790e+00 6.981184e+00 7.610976e+00 -2.775039e+00 2.059527e+00 -4.904823e+00 -3.348721e+00 3.474725e+00 -1.038290e+00 7.134045e-01 3.894770e+00 4.307488e+00 1.763105e-04 3.579693e-01 4.022693e-01 -4.258083e-01 -1.461862e-01 6.418887e-01 -2.173731e-01 1.120301e+00 1.091197e+00 5.364027e-01 2.836524e-01 1.610634e-01 4.945547e-01 3.051102e-04 
-8.708260e+00 7.905134e+00 5.952095e+00 1.206896e-01 1.747334e+00 -1.707889e+00 -1.614122e+00 3.978306e+00 1.120939e-01 4.423766e+00 6.446916e+00 7.446009e+00 2.078301e-02 8.527771e-01 9.061847e-01 -5.436493e-01 4.223002e-01 3.104584e-01 6.748101e-01 -3.691080e-01 1.868003e+00 2.517886e+00 1.332436e+00 -1.434362e+00 1.231052e+00 1.105662e-02 
-6.022575e+00 8.484256e+00 5.666948e+00 -7.545835e-01 4.867918e+00 1.540827e+00 1.588410e+00 7.002676e+00 2.080074e+00 2.630590e+00 2.550190e+00 8.015421e+00 4.167140e-03 8.208929e-01 7.078491e-01 -4.592937e-02 7.503740e-01 -3.216177e-01 8.792320e-01 -1.215030e+00 4.518678e-01 2.099139e+00 1.407137e+00 -1.710007e+00 7.289823e-01 6.987405e-03 
-5.572184e+00 9.532045e+00 4.441510e+00 -1.414337e+00 -4.045820e-02 1.738691e+00 -6.074398e+00 7.618316e+00 9.467701e+00 8.494586e+00 -1.934768e+00 9.253327e+00 4.893547e-02 4.276733e-01 -1.734117e-01 -1.713961e-01 -4.045102e-01 -8.986387e-02 7.740020e-01 -4.640154e-01 1.511656e-01 -5.526513e-01 -4.880362e-01 -1.104812e+00 -1.020114e+00 2.684295e-04 
-6.019363e+00 9.706974e+00 8.136621e+00 1.744344e+00 1.345335e+00 -2.231952e+00 -7.193735e+00 3.914059e+00 4.779601e+00 5.713678e+00 -4.644231e-01 7.048740e+00 2.103710e-02 -1.717749e-01 -1.296768e+00 -9.244314e-01 -6.317796e-01 -3.581523e-01 9.744436e-01 3.816722e-01 -1.126726e+00 -2.204841e+00 9.560223e-02 1.249638e+00 -1.177626e+00 2.596200e-03 
-6.571499e+00 6.426716e+00 3.860277e+00 -3.151325e+00 3.059305e+00 4.048511e+00 4.568739e-01 6.278442e+00 -4.000926e+00 4.420405e-01 2.430164e+00 2.828781e+00 1.369017e-02 -2.074425e-01 -2.037233e+00 -1.833961e+00 -6.695943e-02 -1.156212e-01 1.208906e+00 1.489003e+00 -4.500921e-01 -2.727044e+00 -6.163473e-01 9.905407e-01 -9.806856e-01 2.585503e-02 
-6.381792e+00 3.553080e+00 1.335407e+00 -3.044987e+00 1.527274e+00 5.258135e+00 2.311354e-01 2.038984e+00 -2.209816e+00 7.134874e+00 6.615915e+00 5.339565e+00 3.477079e-02 -5.822579e-01 -1.854084e+00 -2.323362e+00 9.042990e-01 -1.467386e-01 1.626307e+00 5.196404e-02 5.126663e-01 -1.202693e+00 2.409081e-01 -9.005070e-01 5.126197e-01 7.763571e-02 
-6.428182e+00 2.422827e+00 -1.327688e+00 6.455314e-01 -7.095337e-01 4.038176e+00 -2.341819e+00 6.305392e+00 -6.728096e-01 4.702251e+00 -5.222334e-01 5.204487e+00 1.713438e-01 -6.570333e-01 -9.581217e-01 -1.202906e+00 2.763427e+00 -5.613750e-01 5.958619e-01 -1.254327e+00 -5.801007e-01 -3.638739e-01 1.210217e+00 -1.571833e+00 1.326789e+00 1.070260e-01 
-9.002312e+00 2.438499e+00 -8.862066e-01 4.367411e+00 2.496061e+00 5.904749e+00 -5.534568e+00 6.463916e+00 -2.897921e+00 4.788113e+00 -3.490759e+00 8.423985e+00 3.303888e-01 -9.291728e-01 -4.388680e-01 4.014843e-01 2.851058e+00 -2.207172e-01 7.639526e-01 -5.011918e-01 6.045967e-01 -1.533844e-01 -8.674135e-01 -1.451767e+00 4.758918e-01 7.044792e-02 
-8.546406e+00 2.193398e+00 -1.043445e+00 6.959609e+00 -2.319632e-01 6.704514e+00 -2.931908e+00 1.165473e+00 -5.476243e+00 7.666506e+00 -3.756648e-01 7.920516e+00 4.010110e-01 -7.172506e-01 -3.302622e-01 3.247590e-01 1.058797e+00 -6.060745e-01 3.466582e-02 -4.971595e-01 -4.630468e-01 -4.748333e-01 -7.796305e-01 2.846241e-02 -4.464912e-01 1.162285e-02 
-9.968544e+00 1.473454e+00 3.200707e+00 8.053265e+00 1.849029e-01 7.744730e+00 -1.979780e+00 7.631927e+00 -5.750211e-01 1.315679e+00 -7.162060e-01 6.361010e+00 2.721768e-01 -2.715660e-01 9.767151e-02 3.228899e-01 7.634392e-02 -1.677659e+00 -1.897745e+00 -1.034555e+00 -6.074633e-02 -2.243502e-01 -9.415361e-01 1.442682e+00 -3.706140e-01 -2.427267e-02 
-9.531319e+00 1.254038e+00 -1.747350e+00 4.096592e+00 -2.584327e+00 3.291515e+00 -6.605011e+00 3.406153e+00 -4.208426e+00 2.540316e+00 -1.767198e+00 4.003519e+00 2.585641e-01 -3.974283e-01 2.489284e-01 -6.466303e-01 -6.819873e-01 -6.162670e-01 -2.002240e+00 -4.616807e-01 1.897749e+00 3.688922e-02 -6.058701e-01 1.713133e+00 2.578807e-01 -8.388007e-03 
-9.867685e+00 3.396536e+00 1.080195e+00 6.180639e+00 -4.716052e+00 -1.877474e+00 -8.870792e+00 5.039845e+00 -4.653581e+00 2.643528e+00 4.418417e+00 8.529414e+00 2.802489e-01 5.292969e-02 -1.471772e-02 -8.619076e-01 -4.141294e-01 2.158071e-01 -3.461602e-01 9.254753e-01 4.306684e-01 -5.957476e-01 3.949857e-01 2.295715e-01 -7.161107e-01 3.241118e-02 
-1.058398e+01 2.476499e+00 -3.216341e+00 4.485985e+00 -8.628206e-01 1.504413e+00 -1.794805e+00 1.195026e+01 -3.252517e+00 3.973231e+00 5.622689e+00 8.125717e+00 3.550349e-01 3.225798e-01 -3.885179e-02 4.623625e-01 -5.284950e-01 7.630437e-01 2.657084e-01 1.630928e+00 8.834374e-02 -5.977672e-01 1.558843e-01 -9.351697e-02 -8.269609e-01 4.281337e-02 
-9.177567e+00 7.886348e-01 -3.743353e-01 5.787921e+00 4.031851e-01 6.907479e+00 2.424935e-01 5.513216e+00 -4.031713e+00 2.574150e+00 -3.263292e+00 7.193573e-01 3.859973e-01 1.718568e+00 -4.663165e-01 1.114129e-01 -1.593352e+00 1.122079e+00 -2.044145e-01 2.105319e+00 -1.609550e-01 4.898705e-01 -7.282111e-01 -1.193272e+00 -1.766927e+00 -1.971829e-03 
-8.263479e+00 2.363730e+00 1.291728e+00 1.650476e+00 -1.328727e+00 2.275802e-01 -3.007012e+00 3.611185e+00 -7.508196e+00 3.354427e+00 1.606072e+00 3.773742e+00 4.197567e-01 3.232991e+00 9.801327e-01 6.923176e-01 -1.282247e+00 1.325708e+00 -1.150605e+00 5.916385e-01 -1.000914e+00 8.018600e-01 -1.848722e+00 -1.366525e-01 -4.103553e+00 -2.773839e-02 
-2.435094e+00 1.121338e+00 -6.167750e-01 -3.683672e-01 1.127294e+00 -2.261130e+00 2.261909e+00 8.404606e+00 -7.638907e-02 -6.881251e-01 4.603655e-01 1.870765e+00 2.380289e-01 5.169049e+00 -6.018897e-01 -1.092068e+00 -2.265885e+00 -1.084355e+00 -1.858900e+00 -4.675363e-01 -2.876649e+00 1.661829e+00 -2.387116e+00 1.761792e+00 -3.974875e+00 7.228182e-02 
2.209742e+00 7.210811e+00 3.664675e-01 1.152895e+00 5.403666e+00 3.356919e-01 1.536798e-01 5.499995e+00 -1.220879e+00 -3.639241e+00 3.077598e+00 -1.296775e+01 2.903271e-01 4.959889e+00 -2.489433e+00 -1.757087e+00 -2.329120e+00 -1.911909e+00 -5.082970e-01 -2.226633e-01 -4.160947e+00 2.438365e+00 -2.505253e+00 1.355073e+00 -4.215704e+00 1.676090e-01 
1.143107e+01 -4.644354e+00 -5.372045e+00 -5.292712e+00 -8.384785e+00 -2.441076e+00 -3.675534e+00 -9.814431e+00 1.133774e+00 -5.864595e+00 4.809904e+00 -1.078427e+01 8.121212e-01 3.150218e+00 -3.076236e+00 -1.820897e+00 -1.900886e+00 -2.679424e+00 6.173372e-03 -1.736843e-01 -5.247535e+00 1.527153e+00 -1.559657e+00 5.623924e-01 -1.717862e+00 2.160336e-01 
9.602889e+00 -7.200588e+00 -5.116071e+00 -7.532953e+00 -6.132235e+00 -2.223932e+00 -1.151607e+00 -8.084030e+00 4.078546e+00 -6.583601e+00 6.206669e+00 -1.097726e+01 9.707554e-01 1.266480e+00 -3.291809e+00 -1.501147e+00 -1.442309e+00 -1.816314e+00 -1.056139e-01 1.340462e+00 -3.587823e+00 1.350918e+00 -5.555756e-01 -1.269796e+00 1.650057e+00 1.552752e-01 
9.619421e+00 -7.054142e+00 -6.979989e+00 -5.529875e+00 -6.501873e+00 -9.504514e-01 2.046131e+00 -1.104106e+01 4.909665e+00 -7.014232e+00 1.707792e+00 -7.713789e+00 9.779828e-01 -3.702269e-01 -8.910955e-01 -4.243626e-01 3.143169e-01 1.091321e+00 7.196423e-01 1.918013e+00 -1.416563e+00 7.566433e-01 2.684759e-01 -2.172411e+00 1.226266e+00 3.887746e-02 
9.447964e+00 -8.043341e+00 -6.335296e+00 -5.940068e+00 -4.619359e+00 -9.376901e-01 3.995159e+00 -1.182581e+01 3.645767e+00 -5.842300e+00 -1.720327e+00 -6.252707e+00 9.837724e-01 7.627291e-03 -4.299214e-01 -3.221312e-01 9.342276e-01 9.322094e-01 8.219910e-01 1.135595e+00 -1.853276e+00 -1.422848e-01 1.131590e+00 -2.211056e+00 1.139866e+00 6.682592e-03 
9.657395e+00 -8.678455e+00 -6.884245e+00 -4.517570e+00 -3.684619e+00 5.140143e-01 3.341149e+00 -1.502636e+01 5.133380e+00 -4.892866e+00 -2.088655e+00 -7.015220e+00 1.000000e+00 -2.535527e-02 -1.769093e-01 3.694668e-02 6.765934e-01 9.267866e-01 7.101611e-01 4.910235e-01 -1.295144e+00 -8.764343e-01 1.627495e+00 -9.347920e-01 4.662393e-01 -4.881740e-04 
9.622038e+00 -8.538038e+00 -6.774599e+00 -3.367967e+00 -2.879815e+00 1.153790e+00 3.878860e+00 -1.535776e+01 3.255264e+00 -1.986332e+00 -2.950386e+00 -5.627214e+00 9.931598e-01 -2.335930e-03 1.474752e-01 6.706848e-02 8.759878e-01 2.679823e-01 1.074621e+00 -1.580441e-01 -5.937244e-01 -1.501223e+00 1.831215e+00 -4.723223e-01 8.160502e-01 -9.907502e-03 
9.405607e+00 -7.691340e+00 -6.575604e+00 -3.432958e+00 -2.737712e+00 1.554614e+00 4.559399e+00 -1.575080e+01 7.227454e-01 -8.047388e-01 -2.351139e+00 -5.695340e+00 9.708483e-01 -2.025839e-01 4.474367e-01 3.273312e-01 6.531388e-01 2.423693e-01 4.973152e-01 3.093762e-01 -8.850136e-02 -1.564961e+00 1.703863e+00 -6.273831e-01 1.366457e+00 -1.810227e-02 
9.562178e+00 -7.799523e+00 -6.154274e+00 -2.102435e+00 -3.752900e+00 3.915116e+00 2.595814e+00 -1.443221e+01 -1.655034e+00 1.269713e+00 -3.950696e+00 -2.832396e+00 9.488108e-01 -3.709868e-01 4.961394e-01 2.080402e-02 8.648888e-01 4.871650e-02 1.689421e-01 3.063056e-01 -2.017725e-01 -7.070383e-01 7.969950e-01 -2.679648e-01 6.524292e-01 -1.698419e-02 
8.674406e+00 -6.810529e+00 -5.557751e+00 -1.884642e+00 -2.036230e+00 1.619927e+00 5.529553e+00 -1.593164e+01 -2.362759e-01 1.998427e+00 -4.725415e+00 -1.580345e+00 9.316632e-01 -3.771134e-01 3.447835e-01 7.708912e-02 7.185894e-01 3.756944e-01 -1.682912e-01 4.218973e-01 -2.470280e-01 3.492016e-01 3.777350e-01 -1.862701e-01 3.078776e-01 -1.331879e-02 
8.132705e+00 -6.497747e+00 -7.179505e+00 1.823184e-01 -2.986974e+00 1.965844e+00 4.925310e+00 -1.627620e+01 1.995831e-01 5.970607e-01 -3.103072e+00 -4.422565e+00 9.278314e-01 -2.042471e-01 7.315025e-02 2.866529e-01 1.593536e-01 8.948483e-01 -7.934094e-01 7.111310e-01 -1.557705e-01 5.485064e-01 5.165889e-02 -5.610943e-04 -3.020121e-01 -1.021576e-02 
8.234777e+00 -6.618310e+00 -5.677543e+00 -9.823880e-01 -1.242204e+00 1.687794e+00 5.504137e+00 -1.606395e+01 1.541445e+00 1.420262e+00 -3.706302e+00 -3.360867e+00 9.147440e-01 2.506393e-02 -2.243161e-01 2.704676e-01 2.435437e-01 5.330219e-01 -2.257620e-01 2.795748e-01 1.306654e-01 3.882993e-01 -1.148319e-01 2.616538e-01 -3.060399e-01 -7.411730e-03 
8.760756e+00 -7.529881e+00 -4.661114e+00 -1.756794e+00 3.243287e-01 -8.586472e-02 6.164177e+00 -1.514491e+01 1.986375e-01 1.817090e+00 -4.463058e+00 -3.452196e+00 9.061915e-01 1.652683e-01 -3.494376e-01 4.682228e-01 1.807120e-02 6.014047e-01 -1.938877e-01 3.772369e-01 4.209189e-01 -3.072369e-01 2.013610e-01 1.634768e-01 1.001809e-01 -8.036906e-03 
8.485700e+00 -7.416043e+00 -5.464609e+00 3.026330e-01 -1.026772e+00 1.516972e+00 6.307993e+00 -1.584396e+01 1.705693e+00 8.142521e-01 -2.737153e+00 -3.595729e+00 9.054244e-01 1.962326e-01 -3.591153e-01 2.419393e-01 1.381837e-01 2.664483e-01 1.948727e-01 2.594701e-01 3.198692e-01 -4.187725e-01 -1.887290e-01 4.936275e-01 -6.991215e-02 -7.443809e-03 
8.833585e+00 -7.846069e+00 -4.944858e+00 -3.698361e-01 -8.766651e-02 1.081817e+00 6.409566e+00 -1.428160e+01 -1.418725e+00 1.906871e+00 -2.770262e+00 -3.804229e+00 8.923066e-01 3.125751e-01 -2.427483e-01 1.087170e-01 1.079292e-01 3.971878e-01 4.620624e-01 2.162334e-01 -3.923416e-04 -1.144068e-02 -2.692944e-01 4.663285e-01 1.148989e-01 -7.911277e-03 
9.179526e+00 -8.255793e+00 -4.325975e+00 -9.849486e-01 2.960353e-01 2.078317e+00 6.678793e+00 -1.489625e+01 2.562642e-01 4.317267e-01 -2.084563e+00 -3.534411e+00 8.844674e-01 3.193517e-01 -8.085003e-02 -6.289587e-02 -7.176054e-02 8.215116e-01 5.111346e-02 3.761961e-01 -1.509728e-01 -3.124073e-02 3.584397e-03 -2.742979e-01 5.108272e-01 -7.987773e-03 
9.976719e+00 -8.323748e+00 -4.686846e+00 -5.733576e-01 1.648864e+00 1.943775e+00 7.059944e+00 -1.562072e+01 8.661487e-01 6.618801e-01 -2.457711e+00 -2.908360e+00 8.771136e-01 3.097609e-01 5.182629e-02 -3.432844e-01 3.625094e-01 4.866951e-01 1.714559e-01 3.544087e-01 -3.825054e-02 -8.521125e-02 2.565882e-01 -4.784610e-01 6.826813e-01 -5.641586e-03 
9.510891e+00 -7.581454e+00 -5.908094e+00 4.559112e-02 2.212522e+00 1.341560e+00 7.863785e+00 -1.592926e+01 4.070528e-01 1.454670e+00 -4.264918e+00 -1.489528e+00 8.730820e-01 3.260175e-01 4.915972e-02 -3.967596e-01 4.256592e-01 2.889119e-01 9.190421e-02 2.832808e-01 -6.308250e-02 -2.437052e-01 2.927735e-01 -5.416098e-01 5.408992e-01 -5.063874e-03 
1.021671e+01 -7.924107e+00 -5.870221e+00 9.274411e-01 1.387566e+00 2.307475e+00 7.589114e+00 -1.395635e+01 -1.920176e+00 2.678341e+00 -4.072390e+00 -1.413264e+00 8.697914e-01 1.652940e-01 1.052162e-01 -2.993051e-01 3.998592e-01 -1.447622e-01 3.871386e-01 -2.147861e-01 6.162460e-01 -8.295228e-01 6.389263e-01 -8.928257e-01 7.478138e-01 -6.327641e-03 
1.068962e+01 -8.209814e+00 -5.718086e+00 3.929482e-01 1.871244e+00 2.355988e+00 7.830612e+00 -1.604385e+01 4.309006e-01 8.873643e-01 -3.985272e+00 -1.577463e+00 8.628092e-01 1.845358e-01 1.136895e-01 -1.058945e-01 3.099202e-01 -3.725836e-01 3.908161e-01 -2.209363e-01 5.938699e-01 -2.496770e-01 -1.962436e-02 -2.952855e-01 1.619026e-01 -8.249062e-03 
1.021382e+01 -7.483486e+00 -6.278376e+00 1.252260e+00 1.095692e+00 3.372254e+00 6.002600e+00 -1.248220e+01 -3.293389e+00 4.140164e+00 -7.061662e+00 8.746760e-01 8.506119e-01 1.033239e-01 2.068989e-01 -8.468199e-02 3.269861e-01 -4.455326e-01 -7.809772e-02 7.614231e-02 4.424128e-01 1.818286e-01 -2.766549e-01 -3.647150e-01 -1.200657e-01 -1.004405e-02 
1.043501e+01 -7.233317e+00 -6.233489e+00 1.432783e+00 4.955401e-01 2.763251e+00 7.552361e+00 -1.369699e+01 -1.547258e-01 6.256360e-01 -4.246709e+00 -1.823985e+00 8.414265e-01 -4.394518e-02 4.190848e-01 -1.092785e-01 4.815848e-01 -5.617104e-01 -2.608401e-01 1.610964e-01 6.703542e-01 2.942647e-01 -6.908557e-01 4.412226e-01 -8.966507e-01 -1.168771e-02 
1.086063e+01 -7.377861e+00 -6.035929e+00 2.042454e+00 -1.522455e-01 1.713355e+00 8.108952e+00 -1.291772e+01 -7.182198e-01 1.425930e+00 -5.765247e+00 -1.890332e+00 8.302625e-01 1.299025e-01 9.478283e-02 3.678416e-01 3.629489e-02 -2.873442e-01 -4.800118e-01 8.008881e-02 5.940107e-01 7.351947e-01 -1.303466e+00 9.714835e-01 -1.302451e+00 -1.054824e-02 
1.014649e+01 -6.167202e+00 -6.385702e+00 2.405775e+00 -3.133390e-01 1.881237e+00 7.582918e+00 -1.247432e+01 6.146395e-01 -1.209797e+00 -2.427367e+00 -4.678213e+00 8.145453e-01 7.039940e-02 1.063604e-02 5.895776e-01 -1.619612e-01 -1.496377e-01 -4.714713e-01 -6.994467e-01 1.453918e+00 3.252599e-01 -7.936682e-01 4.052881e-01 -8.354902e-01 -9.361428e-03 
1.100760e+01 -7.542629e+00 -4.363061e+00 9.472382e-01 6.341076e-02 1.413203e+00 6.387765e+00 -1.012348e+01 -2.098560e-03 -1.459449e+00 -3.113916e+00 -4.210463e+00 8.113112e-01 6.438994e-03 -4.176226e-02 7.740947e-01 -4.102623e-01 -1.420631e-01 -5.284244e-01 -9.163011e-01 1.612469e+00 1.059907e+00 -1.403529e+00 6.092651e-01 -6.665733e-01 -8.396137e-03 
1.071352e+01 -7.097753e+00 -4.122035e+00 1.170585e+00 -3.604767e-01 5.559706e-01 4.915720e+00 -7.824519e+00 1.113513e+00 -1.900015e+00 -3.545934e+00 -4.841370e+00 8.040950e-01 -4.698039e-02 1.819849e-02 8.280358e-01 -6.372254e-01 -9.577067e-02 -9.458460e-01 -7.051145e-01 1.559549e+00 1.482672e+00 -1.316833e+00 1.037318e-01 -2.389960e-01 -8.681762e-03 
1.060931e+01 -7.121397e+00 -3.297289e+00 6.087379e-01 -8.389924e-01 -2.661339e-01 4.861045e+00 -7.180273e+00 4.331877e+00 -5.246608e+00 -2.159638e+00 -5.141620e+00 7.935070e-01 -2.839477e-01 2.922778e-01 9.205843e-01 -5.878674e-01 -2.709331e-01 -1.401336e+00 -4.315067e-01 1.387912e+00 1.937601e+00 -1.415684e+00 2.704395e-01 -2.626080e-01 -1.242932e-02 
1.011073e+01 -6.286826e+00 -2.778409e+00 -6.111021e-01 -3.409908e-01 -2.008325e+00 4.820705e+00 -6.148175e+00 5.861012e+00 -5.900386e+00 -2.385847e+00 -5.407614e+00 7.800387e-01 -2.021327e-01 5.470079e-01 8.904546e-01 -2.897698e-01 -9.410108e-01 -1.269573e+00 -6.694903e-01 1.436315e+00 2.118911e+00 -1.721314e+00 5.973309e-01 -6.825008e-02 -1.873989e-02 
9.889255e+00 -6.486703e+00 -4.319530e-01 -1.101255e+00 -1.300998e+00 -4.311328e+00 4.277739e+00 -4.022092e+00 7.312160e+00 -6.537684e+00 -2.341762e+00 -5.240381e+00 7.611928e-01 -2.231574e-02 7.978856e-01 9.306534e-01 1.525739e-01 -1.226931e+00 -1.245080e+00 -1.501908e+00 2.182865e+00 1.098624e+00 -7.268935e-01 4.771400e-01 1.323202e-01 -2.534506e-02 
1.006289e+01 -4.680061e+00 -1.102429e+00 5.767322e-01 -4.834528e+00 -3.769297e+00 1.859922e+00 -2.222034e+00 1.021793e+01 -9.861045e+00 -4.682180e-01 -5.133240e+00 7.265526e-01 1.932119e-01 1.131078e+00 9.067753e-01 3.680352e-01 -1.380121e+00 -1.152298e+00 -2.279621e+00 2.730544e+00 4.185811e-01 -4.732077e-01 7.749804e-01 1.835430e-01 -3.253367e-02 
1.052165e+01 -3.935352e+00 5.179882e-01 7.776904e-01 -4.726879e+00 -5.611046e+00 -1.168101e+00 1.770979e+00 7.646540e+00 -6.900746e+00 -7.327521e-01 -4.617206e+00 6.935247e-01 3.434904e-01 1.490903e+00 8.124090e-01 4.059628e-01 -1.366810e+00 -1.074883e+00 -2.588648e+00 3.146249e+00 -5.173456e-01 -1.627261e-01 1.476115e+00 -3.383748e-01 -3.709030e-02 
1.076059e+01 -1.907110e+00 1.280498e+00 2.896008e-01 -5.528656e+00 -7.119956e+00 -3.854477e+00 4.608008e+00 7.786728e+00 -8.084893e+00 6.845502e-01 -4.801486e+00 6.512043e-01 2.623699e-01 1.723433e+00 9.784200e-01 3.402853e-02 -3.793936e-01 -1.417218e+00 -2.908624e+00 3.057884e+00 -9.637494e-01 5.052499e-01 1.536408e+00 -3.349736e-01 -3.730436e-02 
1.125785e+01 -4.186640e-01 2.438629e+00 1.072124e+00 -7.787983e+00 -8.010413e+00 -5.808301e+00 8.294130e+00 5.941031e+00 -8.239390e+00 4.462430e+00 -7.098132e+00 6.134154e-01 1.243293e-01 1.870441e+00 7.968980e-01 3.720964e-01 5.177655e-01 -1.176461e+00 -2.696384e+00 1.742256e+00 -1.275144e+00 3.291869e-01 1.811001e+00 -2.021389e-01 -3.953946e-02 
1.100664e+01 2.178758e+00 2.829350e+00 5.996580e-01 -5.200943e+00 -9.655706e+00 -1.036310e+01 9.805812e+00 6.251935e+00 -6.665473e+00 4.616233e+00 -5.567646e+00 5.800855e-01 -6.901483e-02 1.707431e+00 9.185181e-01 6.233950e-01 1.350746e+00 -3.521820e-01 -1.757679e+00 6.874028e-01 -2.965606e+00 1.433752e-01 1.588111e+00 2.713927e-01 -3.944884e-02 
1.102028e+01 3.373919e+00 3.728052e+00 2.483144e+00 -2.301907e+00 -1.022548e+01 -1.139571e+01 7.883357e+00 2.038218e+00 -5.964521e+00 6.356412e+00 -5.244821e+00 5.313869e-01 -3.334869e-01 8.644765e-01 7.126207e-01 9.052391e-01 1.851059e+00 1.418528e-01 8.306360e-02 2.975104e-01 -3.156297e+00 -1.538168e+00 5.698999e-01 4.432580e-01 -3.782854e-02 
1.053431e+01 4.733751e+00 5.228376e+00 2.701066e+00 -1.517965e+00 -7.773334e+00 -9.849166e+00 8.250409e+00 -5.089896e+00 -8.505452e+00 7.678113e+00 -4.371178e+00 4.949744e-01 -1.603158e+00 1.584389e+00 2.204169e+00 1.634137e+00 1.924773e+00 1.967950e+00 2.344141e+00 -2.375032e-01 -4.005426e+00 -1.364022e+00 -2.137991e+00 9.887060e-01 -6.329931e-02 
9.826584e+00 2.626221e+00 4.802219e+00 4.547616e+00 -3.741755e-01 -8.242335e+00 -5.649949e+00 1.055938e+01 -4.169540e+00 -1.501024e+01 5.780990e+00 -5.480075e+00 4.668282e-01 -3.742000e+00 1.280374e+00 1.702628e+00 1.490470e+00 2.418486e+00 4.611356e+00 3.077201e+00 -4.722404e-02 -2.799327e+00 -5.644103e-01 -3.364467e+00 6.935813e-01 -6.248398e-02 
3.587693e+00 1.047455e+01 1.331311e+01 7.738109e+00 3.459054e+00 -8.075277e-01 -1.515274e+00 7.280282e+00 -1.067132e+01 -8.962720e+00 -5.786010e+00 -5.064883e-01 2.958682e-01 -5.204389e+00 -6.003265e-02 2.188476e-01 9.194320e-01 1.776008e+00 3.867680e+00 3.006135e+00 -4.651732e-01 -1.420730e-01 2.157960e+00 -2.516285e+00 3.079122e-01 -4.171507e-02 
-4.216415e+00 6.905388e+00 8.198825e+00 7.416973e+00 7.302011e+00 9.348399e+00 -1.766515e-01 8.132300e+00 -9.167707e+00 -8.557939e+00 -3.733863e+00 -3.709260e+00 3.185201e-01 -5.530441e+00 -1.167388e+00 -1.936096e+00 -1.007245e+00 3.827350e-02 1.764061e+00 2.620175e+00 -9.309502e-02 1.547718e+00 4.016473e+00 -1.500377e+00 1.460524e-01 -1.594937e-02 
-8.466139e+00 2.294005e+00 4.624311e+00 5.863547e+00 3.523980e+00 2.769700e+00 2.444860e+00 7.138085e+00 -3.301177e+00 -9.418048e-01 -1.458853e-01 -3.717025e+00 3.605531e-01 -3.541822e+00 -2.800960e+00 -3.953496e+00 -2.359076e+00 -9.040249e-01 -4.483024e-01 2.287763e+00 1.114116e+00 1.690445e+00 2.367620e+00 4.876847e-01 3.973394e-01 1.488187e-02 
-1.179871e+01 8.795571e-01 -5.338616e-01 4.486704e-01 -2.152708e-01 -1.210646e+00 5.470860e+00 1.016501e+01 -1.160183e-01 1.061667e+00 -4.540958e+00 -3.144545e+00 3.547389e-01 -1.316725e+00 -2.187038e+00 -2.916046e+00 -2.016515e+00 -1.325448e+00 -2.657795e+00 3.864361e-01 5.540272e-01 1.169889e+00 1.561244e+00 4.616261e-03 1.359115e+00 7.083577e-03 
-1.033027e+01 -5.173302e-01 -2.088029e+00 -5.731201e-01 2.697571e+00 2.230483e+00 7.099786e+00 1.183451e+01 -6.744935e+00 -1.934424e+00 -2.944040e+00 1.197851e+00 3.521681e-01 2.415258e-01 -1.069283e+00 -2.183434e+00 -9.903865e-01 -4.786136e-01 -1.234538e+00 -2.189898e+00 -8.477948e-01 -8.928984e-01 -6.246741e-02 1.122477e+00 2.884867e+00 -5.014163e-03 
-9.867975e+00 -2.624133e+00 -3.025235e+00 5.527303e-01 1.087974e+00 -3.670968e+00 -5.719335e-01 8.554225e+00 -1.596382e+00 -2.554073e-01 -2.311705e+00 6.288786e-01 3.581305e-01 7.457249e-01 -8.615170e-01 -1.146544e+00 -2.850741e-01 5.874219e-02 -1.074281e-01 -2.602578e+00 -9.039192e-01 1.494555e-01 7.619031e-01 2.298465e+00 2.386308e+00 -6.019831e-03 
-8.223875e+00 -1.300562e+00 -5.047175e+00 8.595848e-01 4.792891e-01 -2.172830e+00 -5.483234e+00 3.704503e+00 -7.025488e+00 -5.956048e-01 4.351873e+00 8.820601e+00 3.337865e-01 5.333326e-01 -3.827077e-01 -1.887498e-01 -5.595583e-01 -7.454056e-01 -2.850199e-03 -5.848967e-01 -2.409328e-01 2.981060e+00 2.455953e+00 1.845478e+00 7.727021e-01 -1.010407e-02 
-9.123280e+00 -3.036412e+00 -4.787008e+00 -1.693052e+00 1.187581e+00 4.538693e-01 -1.250520e+00 9.710414e+00 7.715356e-01 4.201772e+00 3.303409e+00 4.975619e+00 3.338305e-01 7.947081e-01 -3.967461e-01 -3.465363e-01 -1.420425e+00 -1.198319e+00 1.508158e-01 8.969021e-01 2.289815e-02 1.400379e+00 1.507228e+00 9.224825e-01 -8.609722e-01 -1.645556e-02 
-8.035955e+00 -2.224729e+00 -2.150892e+00 -2.248020e+00 -1.079260e+00 1.538128e-01 4.514596e+00 1.005175e+01 6.976404e+00 8.116753e+00 3.475792e+00 2.887991e+00 3.137978e-01 6.259515e-01 -1.021606e+00 2.079777e-01 -9.960073e-01 -5.063994e-01 -5.483282e-02 1.419168e+00 1.149217e+00 4.299412e-01 5.020487e-01 -7.879782e-02 -1.691837e+00 -1.924849e-02 
-5.988395e+00 -4.145780e+00 -6.206058e+00 -4.995590e+00 -4.124347e+00 -4.080211e+00 -1.086338e+00 5.495092e+00 -1.595433e+00 2.924551e+00 2.738748e+00 -7.096777e-01 2.858471e-01 1.054387e+00 -9.121276e-01 2.275921e-01 -4.715730e-01 -1.317600e-01 -4.910207e-02 -8.460888e-01 -1.511572e-01 -1.828417e+00 -1.025695e+00 -3.373794e-01 -5.182765e-01 -3.397130e-02 
-6.661560e+00 -5.853909e+00 -3.297761e+00 -2.469183e+00 6.032560e-01 -1.799538e-01 1.530514e+00 1.155825e+01 -3.692297e+00 2.553249e+00 4.240215e+00 3.204065e+00 2.615358e-01 7.334853e-01 -4.400813e-01 5.636142e-01 9.883057e-01 1.398603e+00 6.948282e-01 -1.595301e+00 -5.252826e-02 -9.582999e-01 -4.369907e-01 -2.159164e+00 -1.164441e+00 -4.500739e-02 
-4.538544e+00 -5.782460e+00 -3.075613e+00 -3.940336e+00 -3.124771e-01 3.752422e-01 -3.988923e+00 8.201379e+00 -3.036200e+00 1.855049e+00 1.234301e+00 2.226200e+00 1.901050e-01 1.688337e-01 6.828296e-01 2.037620e+00 1.874512e+00 1.568591e+00 8.828548e-02 -7.648740e-01 -3.220236e-01 5.282801e-01 -1.251864e-01 -2.351298e+00 -1.568130e-01 -5.269566e-02 
-5.093454e+00 -3.606796e+00 -8.980436e-01 2.165881e+00 4.007820e+00 1.400227e+00 -2.010618e+00 8.435966e+00 2.905288e+00 6.466549e+00 -6.567805e+00 -4.402153e+00 1.366318e-01 5.204414e-01 2.285854e+00 1.888561e+00 1.196166e+00 6.301985e-01 -7.972364e-01 -2.803646e-01 -1.279851e+00 9.107392e-01 4.496551e-01 -1.938660e+00 -1.090089e+00 -5.351944e-02 
-5.928279e+00 -1.855189e+00 2.782182e+00 2.059437e+00 2.016326e+00 -4.428874e+00 -3.140142e+00 5.446115e+00 -2.252825e+00 3.419695e-01 -3.613734e+00 2.309366e+00 8.482075e-02 2.071429e-01 2.800522e+00 1.103697e+00 -6.389380e-02 3.001685e-01 -1.961268e-01 9.150855e-01 -8.084599e-01 -6.199334e-01 -1.266944e+00 -7.643512e-01 -7.273019e-01 -4.172225e-02 
-3.364486e+00 3.611727e+00 3.216146e+00 5.117602e-01 2.589847e+00 -1.764078e+00 -2.956995e-01 6.536623e+00 4.697118e-01 5.558064e+00 -3.029069e+00 -2.287964e+00 4.658079e-02 3.448882e-01 2.485603e+00 5.158995e-01 -1.818824e+00 -3.071439e-01 1.015365e+00 -5.025730e-01 -7.752280e-01 -1.528404e+00 -2.140752e+00 5.089360e-01 4.412568e-01 -2.666240e-02 
-4.367313e+00 4.610888e+00 3.857756e-01 -3.432745e+00 1.897352e+00 9.767607e-01 -2.709548e-01 5.108750e+00 -4.918079e+00 -4.025429e+00 -4.356822e+00 -2.467403e+00 2.651930e-02 3.342794e-01 1.675550e+00 1.281052e-02 -6.665550e-01 -9.602700e-02 1.522289e+00 -5.514053e-01 8.623724e-01 1.663392e-01 -1.118157e+00 -1.003389e-02 -9.133051e-01 -1.372311e-02 
-4.149496e+00 5.588180e+00 2.879657e+00 -4.182149e+00 2.531587e+00 3.774237e+00 -5.958076e+00 4.728508e+00 -3.404104e+00 -2.053514e+00 -3.651580e+00 1.925159e-01 3.247058e-02 -3.790299e-01 5.018600e-01 5.026068e-01 5.753472e-01 4.396015e-01 -1.338920e-01 -4.503039e-01 1.257119e+00 9.512135e-01 -1.189114e-01 3.073099e-01 4.621221e-01 -7.066840e-03 
-3.864377e+00 5.534335e+00 3.014478e+00 1.073617e+00 1.565321e+00 4.134141e-01 -3.065980e+00 1.066203e+01 5.157788e-01 -1.443028e+00 -3.352648e+00 -3.497400e+00 2.326030e-02 -4.650405e-01 1.179957e-01 1.526910e-01 7.021474e-01 2.530878e-02 -8.258594e-01 6.810712e-01 8.326961e-01 1.498303e+00 1.767854e+00 8.235132e-01 3.934754e-01 -1.737148e-03 
-5.511104e+00 5.659304e+00 4.414828e+00 1.135316e+00 4.953870e+00 -2.151865e+00 -1.149706e+00 1.004558e+01 2.508850e+00 3.672307e+00 -1.994607e+00 5.376444e-01 1.287609e-02 -1.169376e+00 4.172618e-01 -1.295768e-01 -8.021309e-02 -4.340361e-01 -7.604347e-01 1.989122e+00 -1.169552e+00 -3.512363e-01 -2.442617e-02 1.919789e+00 -6.947070e-01 3.086149e-02 
-6.011712e+00 5.165304e+00 3.816447e-01 -2.580740e+00 8.127542e-01 -1.894860e-01 7.302158e-01 6.613697e+00 -3.830435e-01 1.950932e+00 -1.067743e+00 -6.725903e-01 2.763081e-02 -1.310829e+00 5.298454e-01 -4.158468e-01 -1.289794e+00 -6.596186e-01 -4.106230e-01 7.569401e-01 -2.818669e+00 -1.651922e+00 -1.387531e+00 1.748839e+00 -7.884518e-01 4.410290e-02 
-8.922709e+00 7.859004e+00 3.548190e+00 -2.756037e+00 7.376902e-01 2.735129e-01 2.089437e+00 9.049165e-01 -4.710875e+00 -3.872625e+00 4.804914e+00 -4.693424e+00 1.845928e-01 -7.163552e-01 1.679472e-01 -9.429238e-02 -8.520404e-01 -4.438199e-01 6.361095e-01 -1.258140e-02 -1.599645e+00 -7.904193e-01 -1.674264e+00 5.638157e-01 7.147781e-01 1.177429e-02 
-8.712719e+00 7.083711e+00 1.368564e+00 -3.429675e+00 3.753178e-01 -2.852390e+00 -9.008512e-01 1.139022e+00 -4.133967e+00 -4.608216e+00 1.991786e+00 -4.824125e+00 1.579164e-01 -6.486435e-02 3.249087e-01 1.248984e+00 3.737046e-02 4.182684e-01 5.580626e-01 -3.213668e-01 -3.470180e-02 -3.026008e-04 -1.324112e-01 -1.595773e-01 2.521778e+00 -2.185792e-02 
-7.742376e+00 5.539836e+00 3.449907e+00 -2.700419e+00 2.953489e+00 2.360134e+00 -3.970792e-01 4.784687e+00 4.322157e-01 -1.419440e+00 -7.052936e-01 6.187302e+00 6.604731e-03 4.777436e-01 -6.275497e-02 1.440241e+00 2.135616e-01 -1.976459e-01 -1.784968e-01 -1.086010e+00 8.415531e-01 9.261523e-01 1.954941e+00 -5.455246e-01 2.993540e+00 -5.228059e-02 
-6.926200e+00 7.949431e+00 6.675703e+00 -2.421697e+00 1.796197e+00 1.557516e+00 3.666396e-01 4.500303e+00 -2.956102e+00 6.228354e-02 8.894740e-01 6.495935e+00 7.335246e-03 1.022434e-02 1.773927e-01 1.510772e+00 6.253555e-01 -1.344582e-01 6.400619e-02 -1.031869e+00 -4.287487e-01 1.183589e+00 2.669470e+00 9.581917e-01 2.599939e+00 -3.022181e-02 
-7.427250e+00 7.112369e+00 8.095826e+00 -2.192218e+00 -9.609792e-01 -2.823924e+00 -3.974358e+00 3.432041e+00 -6.690453e-01 3.566830e+00 2.628447e+00 4.614248e+00 -1.519561e-03 7.727823e-02 6.072461e-01 4.820209e-01 8.327001e-01 -1.800637e-01 -9.620392e-02 -1.110567e+00 -5.183960e-01 9.943903e-01 2.116782e+00 1.249512e+00 -3.956310e-01 1.224083e-03 
-8.819160e+00 7.184408e+00 6.599463e+00 -5.569980e-01 1.660261e+00 5.967039e-02 -4.271557e+00 -3.283987e-01 2.334607e+00 6.246000e+00 5.115874e+00 8.962095e+00 1.086950e-02 9.115458e-02 3.743412e-01 1.110654e-01 8.220094e-01 4.557144e-01 -1.146461e-01 -1.035867e+00 5.027007e-01 1.196743e+00 1.360689e+00 2.111499e-01 3.501356e-01 5.949646e-03 
-6.409505e+00 8.958578e+00 5.898132e+00 5.307326e-01 2.121138e+00 2.628038e+00 -3.630818e+00 4.607058e+00 2.758813e+00 6.072610e+00 3.429065e+00 2.976068e+00 1.095802e-02 2.735762e-01 5.284952e-01 2.198517e-01 5.922058e-01 7.862828e-01 3.630935e-02 -2.733122e-01 1.274321e+00 2.944541e-01 3.458861e-01 -5.738024e-01 9.006519e-01 8.470369e-03 
-6.979300e+00 8.898033e+00 8.329878e+00 3.268747e-01 2.533710e+00 -1.741695e+00 -4.984466e+00 6.426298e+00 1.313686e+00 5.612840e+00 1.544915e+00 9.065703e+00 3.084469e-02 3.109927e-01 3.366704e-01 5.892574e-01 1.563888e-01 2.159471e-01 -7.972463e-01 -2.779464e-01 1.532863e+00 -3.486970e-01 -1.726089e-01 -9.026068e-01 6.296853e-01 5.983704e-03 
