-2.494402e+00 3.241296e+00 -2.659009e+00 -5.656443e-01 6.641159e-01 5.068530e+00 -5.813537e-01 1.748101e+00 6.232468e+00 5.684047e+00 4.843060e+00 2.788685e+00 -1.244830e-01 1.231794e-02 7.279570e-02 5.437237e-01 -1.566158e-01 3.413756e-01 -1.554903e+00 1.410277e+00 9.066103e-01 -4.568462e-01 -2.711996e-01 -1.855193e+00 -6.485363e-01 -1.217973e-03 
-3.830691e+00 2.128905e+00 -8.066144e-01 -3.503084e-01 2.840708e+00 1.346803e-02 4.572025e+00 4.455266e+00 1.065018e+01 6.188938e+00 1.630366e-01 7.707524e-01 -1.451142e-01 -2.762627e-01 -3.393185e-01 1.014804e-01 -6.700304e-01 -3.725186e-01 -1.016784e+00 1.571561e+00 1.000935e+00 -7.505207e-01 -5.555171e-01 -1.310577e+00 1.117777e-01 2.559805e-03 
-1.764668e+00 4.161469e+00 -8.665885e-01 -1.456391e+00 1.282698e+00 -1.784544e-01 3.893343e+00 4.927569e+00 1.739380e+00 4.075603e+00 -2.092891e+00 5.549697e-01 -1.202573e-01 -6.150959e-01 -3.659244e-01 -3.212324e-01 -6.232971e-01 -4.585642e-01 -7.095313e-01 7.024739e-01 -9.589065e-01 -1.167864e+00 -3.295710e-01 1.629899e-01 5.105686e-01 9.559358e-03 
-4.240582e+00 1.084616e+00 -3.047818e+00 -3.470423e+00 -1.507768e+00 2.608099e+00 5.039103e+00 5.163041e+00 4.726408e+00 3.710683e+00 1.758153e+00 4.464431e+00 -1.137968e-01 -3.825728e-01 -5.698018e-02 -7.224708e-01 3.021479e-04 -5.425687e-01 -2.714127e-01 -3.767060e-01 -1.644809e+00 -8.467653e-01 -2.618432e-02 1.364844e+00 1.057767e+00 1.150553e-02 
-5.364936e+00 1.933818e+00 -3.144569e+00 -2.122073e+00 5.455332e-01 2.235575e-01 2.697477e+00 -3.400320e+00 3.355032e+00 5.275320e+00 4.860452e+00 3.494689e+00 -9.234488e-02 -2.763937e-01 -1.260482e-01 -5.348576e-01 5.611691e-01 8.823062e-01 3.941379e-02 4.586115e-01 -7.945589e-01 1.189573e+00 2.907194e-01 7.227017e-01 1.236491e+00 2.533567e-03 
-3.943421e+00 2.957830e+00 -3.279978e+00 -1.595688e-02 4.964471e-01 -1.544601e+00 3.286428e+00 3.951641e-01 5.608527e+00 5.458158e+00 3.510584e+00 4.589727e+00 -1.015427e-01 4.663769e-01 6.294019e-01 8.993983e-02 1.141599e+00 1.651834e+00 -2.957384e-01 -1.485562e-01 -3.730754e-01 2.947130e-01 2.390454e-01 -8.597156e-01 4.999812e-01 1.487565e-03 
-3.295217e+00 2.594622e+00 -3.424797e+00 -3.777785e-01 4.692121e+00 2.094965e+00 7.062738e+00 3.338714e+00 7.246184e+00 4.655463e+00 6.444023e-01 6.674778e+00 -1.137165e-01 4.416360e-01 4.416395e-01 1.301683e-01 6.764456e-01 9.772359e-01 -2.280952e-01 -5.583590e-01 7.071950e-01 -7.818742e-02 5.403926e-01 -1.028260e+00 -6.931955e-01 -1.875043e-04 
-2.943558e+00 3.901224e+00 -2.458005e+00 1.365426e+00 4.678107e+00 1.937034e-01 2.113691e+00 -7.185274e-02 4.254396e+00 5.215839e+00 -4.324005e-01 5.374292e+00 -9.567320e-02 4.753818e-02 -7.854977e-02 -1.229631e-01 2.618281e-01 1.294292e+00 6.386474e-01 -7.969010e-01 -7.358955e-01 -6.587818e-01 -4.341130e-01 -6.653057e-01 -7.287013e-01 -5.280971e-06 
-3.656688e+00 3.670318e+00 -2.904714e+00 5.694642e-01 3.340882e+00 -1.786071e+00 4.920502e-01 3.691640e-01 3.641160e+00 8.098443e+00 1.690645e+00 -3.635715e-01 -9.621716e-02 -9.467287e-02 -2.518698e-01 -2.609835e-01 1.862994e-01 3.995105e-01 1.142209e-01 -6.158763e-01 -1.195661e+00 4.704339e-01 -1.841362e-01 -6.133975e-01 -1.577921e+00 4.678488e-04 
-3.524995e+00 2.027232e+00 -4.154834e+00 8.195622e-01 7.643526e+00 3.589153e+00 2.587267e+00 -1.799539e+00 4.117130e+00 1.566103e+00 -3.390663e-01 4.465395e+00 -1.103188e-01 -5.332794e-02 -8.471889e-01 -2.907120e-01 8.689048e-02 9.589264e-01 1.392289e+00 2.486954e-02 -5.350296e-01 3.143621e-01 -1.199914e+00 -8.031349e-01 3.977509e-01 -7.469582e-03 
-3.477862e+00 2.272268e+00 -3.881300e+00 8.266499e-01 5.206964e+00 9.683440e-01 3.746569e+00 -1.775748e+00 9.666986e+00 5.559649e+00 -2.469253e+00 -7.603773e-01 -1.040545e-01 1.030253e-01 -3.570899e-01 -3.884022e-01 -5.755388e-01 2.126878e-01 4.592592e-01 -5.030842e-01 -1.606589e-01 -3.705475e-01 -1.401892e+00 -1.069139e+00 1.257840e+00 -6.397235e-03 
-3.299610e+00 3.643042e-01 -3.423272e+00 1.671285e+00 8.539699e+00 5.777943e+00 6.107793e-01 -1.674545e+00 2.813293e+00 4.856680e-01 -2.368126e+00 7.561450e+00 -1.291025e-01 -5.074282e-02 1.298157e-01 -4.474841e-02 -6.277024e-01 -1.257263e+00 -6.659909e-01 -3.832123e-01 7.241904e-01 -1.081563e+00 -7.613508e-01 2.387690e-01 1.508254e-01 -7.801652e-04 
-3.254253e+00 2.716333e+00 -5.212506e+00 -2.734091e+00 3.956235e+00 -5.841696e-01 -1.035127e+00 -4.966274e-01 2.440341e+00 1.629201e+00 -2.640522e+00 4.377599e+00 -1.188115e-01 4.608889e-02 1.296814e-01 -2.267183e-01 5.740166e-02 -6.308235e-01 9.229441e-02 2.407373e-01 6.615866e-01 -1.448450e+00 -2.909019e-02 1.635740e+00 6.324945e-01 7.916928e-04 
-3.890513e+00 2.454278e+00 -3.712973e+00 -5.385791e-01 1.982574e+00 1.035456e+00 3.062053e+00 1.181853e+00 2.322636e+00 -2.754258e-01 9.404137e-01 2.650534e+00 -1.068411e-01 1.989684e-01 4.096214e-01 -4.869475e-01 1.700492e-02 -3.388584e-01 -4.239114e-01 9.844609e-01 1.150803e+00 -4.364842e-01 3.691666e-01 4.153155e-01 -1.138268e+00 5.999065e-03 
-2.951966e+00 1.875688e+00 -4.870041e+00 2.218590e+00 5.331409e+00 3.801059e+00 3.724618e+00 1.039864e-01 2.670065e+00 5.794745e+00 4.055177e+00 4.857553e+00 -1.112267e-01 1.472806e-01 1.098063e-01 -1.487271e-01 5.485666e-01 1.210665e+00 3.910955e-01 8.128851e-01 8.142744e-01 -1.384188e-01 4.466556e-01 -4.571585e-01 -4.547542e-01 3.536606e-03 
-2.455912e+00 2.832734e+00 -6.029243e+00 -7.200310e-01 6.157819e+00 1.465771e+00 3.153211e+00 3.779163e+00 5.160108e-01 2.487286e-01 -3.639398e+00 1.630135e+00 -1.028996e-01 3.206391e-01 2.183530e-01 -1.672089e-01 -4.751762e-01 3.808292e-01 -2.810432e-01 -3.374552e-01 -7.692191e-01 -1.711287e-01 4.287171e-03 -1.576736e+00 2.513357e-01 -1.369190e-03 
-3.235151e+00 3.076137e+00 -4.798007e+00 9.946775e-02 7.921937e+00 1.156150e+00 2.983719e+00 2.276090e+00 2.651560e+00 3.600401e+00 -2.636409e+00 2.614028e+00 -1.030992e-01 -2.856539e-01 -3.082911e-01 4.527360e-01 -8.700196e-01 -6.111278e-01 5.091200e-01 9.419969e-01 1.209916e-01 9.054545e-01 -1.569630e-01 -5.487725e-01 -2.877764e-01 -4.588497e-03 
-2.145725e+00 2.945819e+00 -4.585035e+00 -1.854898e+00 2.591455e+00 9.526947e-01 1.745227e+00 -3.750294e+00 1.476245e+00 8.431820e-01 -3.597475e+00 5.028975e+00 -1.177508e-01 -4.479955e-01 -5.943907e-01 5.614865e-01 -5.287848e-01 -1.420710e+00 -2.182513e-01 4.387107e-01 2.381557e-01 1.854302e-01 2.869718e-01 9.178846e-01 2.986020e-01 -3.349960e-03 
-4.535329e+00 2.776901e-01 -3.328465e+00 -1.564074e+00 4.058952e+00 6.603198e+00 9.138596e+00 4.473673e+00 6.717220e+00 4.712704e+00 1.290353e+00 1.719251e+00 -1.267436e-01 -2.806968e-01 -3.353772e-01 1.218059e-01 -7.341336e-01 -1.700089e+00 -9.369324e-01 3.999224e-01 4.869753e-01 -9.030877e-01 -6.573888e-01 2.986045e-02 -2.381300e-01 4.548907e-04 
-4.045800e+00 1.260004e+00 -3.956581e+00 -2.532184e+00 9.857626e-01 -2.349009e+00 2.269326e+00 3.871150e+00 -5.896683e-01 1.127436e+00 -1.013355e+00 3.570534e+00 -1.078272e-01 -2.702209e-01 4.958691e-02 -2.461121e-01 -1.661757e-02 8.905502e-02 -9.733122e-01 -6.876574e-01 -3.109814e-01 -1.343686e+00 -4.776454e-02 9.262638e-01 2.860509e-01 6.098413e-03 
-3.688598e+00 2.242159e+00 -4.503204e+00 -3.232558e+00 2.243409e-01 -1.877660e+00 4.721281e+00 9.002441e-01 -8.309221e-01 1.713300e-01 -3.779167e+00 2.152599e+00 -1.057866e-01 3.043869e-01 -8.427464e-01 4.917184e-01 1.289131e+00 1.437727e+00 -9.266846e-01 -3.884933e+00 -2.276385e+00 4.745892e-01 -5.315000e-01 -7.314153e-01 -1.000268e-02 2.955233e-02 
-3.920196e+00 2.211519e+00 -5.228226e+00 -1.103745e+00 4.954036e+00 3.265629e-01 5.155973e-01 -3.518486e+00 -1.468117e+00 2.875046e+00 3.568604e+00 6.242556e+00 -9.773719e-02 3.440665e-01 -2.368285e+00 1.527425e+00 2.177014e+00 2.769265e+00 7.273582e-01 -4.071250e+00 -1.596921e+00 3.700494e+00 7.518376e-01 -1.007292e+00 -1.243075e-01 6.484778e-02 
-3.076197e+00 -4.411799e+00 -2.340508e-01 4.167362e+00 9.263449e+00 6.319888e-01 -9.409203e+00 -3.213433e+00 9.529390e+00 1.181399e+00 -4.657703e+00 3.332267e-01 1.597309e-02 7.848729e-01 -1.298741e+00 1.858191e-01 1.007962e+00 1.869209e+00 4.359216e-01 -2.029448e+00 8.426899e-02 1.876928e+00 -3.992427e-01 -8.998122e-01 6.202425e-01 2.775720e-02 
-2.631668e+00 -7.254443e+00 1.545966e+00 4.652925e+00 1.031253e+01 3.295732e-02 -1.102168e+01 -2.056618e+00 1.273264e+01 4.381590e+00 -5.610548e+00 3.858682e+00 1.555319e-01 8.057140e-01 1.283398e-01 -8.538333e-01 -8.365366e-01 -3.497918e-01 1.660993e-01 1.750100e+00 8.303006e-01 -2.196789e-01 -1.492214e+00 -1.603025e+00 4.131098e-02 -1.201227e-02 
-4.084969e-01 4.814354e-01 -6.961205e+00 -1.071080e+00 6.891135e+00 4.487512e-01 3.426809e-01 5.906547e-01 1.453336e+00 -2.578155e+00 -3.688652e+00 6.445747e+00 -9.363508e-02 3.627161e-01 2.344823e+00 -1.653537e+00 -1.725449e+00 -1.317100e+00 1.288410e+00 4.927519e+00 1.650552e+00 -1.725026e+00 -8.765334e-01 -3.160644e-01 5.314506e-01 -4.664927e-02 
-1.225475e+00 4.066006e-01 -6.133815e+00 -2.667207e+00 4.391234e+00 1.248678e+00 4.390154e+00 -1.269027e+00 1.471516e+00 -2.706248e+00 -4.931046e+00 3.392850e+00 -1.029944e-01 -1.576093e-01 2.340909e+00 -9.959882e-01 -6.918126e-01 -8.871733e-01 1.054492e+00 3.416681e+00 8.442701e-01 -1.351266e+00 -5.974255e-02 2.483119e-01 -6.134956e-01 -5.313005e-02 
-1.965713e+00 3.481797e+00 -4.661844e+00 -7.998183e-01 5.638599e+00 6.466180e+00 7.522474e+00 4.645530e+00 6.534821e+00 3.426507e-01 -6.577776e+00 3.223396e+00 -8.801007e-02 -6.744687e-01 9.979798e-01 1.148954e+00 4.775619e-01 -7.090700e-02 3.127268e-01 6.300124e-01 5.897501e-01 5.381873e-01 1.513753e+00 3.371863e-01 -1.667008e+00 -4.713810e-03 
-2.641107e+00 2.949918e+00 -4.583655e+00 1.058231e+00 6.502934e+00 2.296702e+00 2.471825e+00 1.372951e-01 3.435569e+00 2.622474e+00 -2.924427e+00 2.402380e+00 -1.129309e-01 -4.944369e-01 8.619229e-01 8.306891e-01 4.735329e-01 2.164132e-01 -2.550527e-01 5.211532e-02 7.893759e-01 5.415823e-01 -7.501767e-02 9.201034e-01 -9.430324e-01 -7.183588e-03 
-3.073025e+00 4.199676e+00 -1.991513e+00 -5.459892e-01 5.480750e+00 1.488373e+00 4.451907e+00 2.836244e+00 3.162246e+00 2.326251e+00 -3.006030e+00 -1.394057e+00 -1.122359e-01 -3.236910e-01 1.546455e-01 6.133825e-01 2.671570e-01 -6.077250e-01 -1.078621e+00 -5.886515e-01 -9.202238e-01 4.462350e-01 -6.732426e-02 2.767358e-01 -5.642753e-01 -7.447409e-03 
-3.144004e+00 4.357275e+00 -3.315536e+00 -4.264565e-01 5.552224e+00 2.462318e+00 6.186014e+00 3.582496e+00 5.865715e+00 -4.073136e+00 -2.116402e+00 9.864141e-01 -1.267995e-01 -2.112489e-01 1.234319e-01 4.811606e-01 1.944182e-01 1.205929e-01 -1.867311e-01 -6.818395e-01 -1.066865e+00 1.248523e+00 9.734141e-01 5.925287e-01 1.741536e+00 -2.040899e-03 
-3.332719e+00 3.551346e+00 -2.228991e+00 1.278311e+00 3.075329e+00 9.902651e-01 2.722121e+00 -1.678189e+00 7.550923e+00 3.353835e+00 -5.598109e+00 1.110002e+00 -1.183128e-01 -5.550575e-02 -2.435828e-01 2.652848e-01 1.102257e+00 1.082499e+00 4.842574e-01 -7.894862e-01 -6.801323e-01 3.442255e-01 1.507808e+00 4.460355e-01 1.872481e+00 -2.033627e-03 
-3.567504e+00 3.891243e+00 -2.059113e+00 1.118172e+00 8.308609e+00 1.612101e+00 -7.247972e-02 -2.939813e+00 7.483847e+00 6.975752e+00 1.334257e+00 9.858031e+00 -1.200969e-01 1.286382e-01 -2.094252e-01 1.277031e-01 3.807738e-01 2.256723e-01 7.653481e-01 -4.012681e-01 4.879064e-01 6.456741e-01 2.223603e+00 1.218290e-01 -2.847768e-01 5.995607e-03 
-3.138803e+00 3.214778e+00 -1.293300e+00 4.192984e+00 9.515052e+00 4.334769e+00 3.633723e+00 2.696737e+00 4.074307e+00 4.340846e+00 -2.501183e+00 3.532541e+00 -1.257553e-01 1.809508e-01 1.679922e-01 -8.641072e-02 8.550162e-01 -3.410149e-02 2.009613e-01 1.563858e+00 1.651148e+00 5.482664e-02 5.372463e-01 8.084346e-01 -1.097041e+00 8.886421e-03 
-2.597771e+00 3.478433e+00 -3.144866e+00 2.007580e-02 3.460724e+00 4.616807e+00 3.723873e+00 3.834565e+00 1.083239e+01 6.551373e+00 -3.055721e+00 -1.648740e+00 -9.310019e-02 3.368155e-01 2.019732e-01 -3.542720e-01 -2.065742e-01 -9.072315e-01 8.589854e-02 1.694371e+00 3.926449e-01 -8.904743e-01 -3.932287e-01 1.412164e-01 -1.532264e+00 8.283961e-03 
-2.912831e+00 4.597712e+00 -2.118169e+00 6.102440e+00 5.328764e+00 4.927185e-01 8.643234e+00 3.190361e+00 6.150784e+00 6.252256e+00 6.390522e-01 1.378182e+00 -8.737910e-02 1.768141e+00 -2.729219e+00 5.117453e-01 -1.064043e+00 -3.384396e+00 -1.531116e+00 -9.555240e-02 -2.514169e-01 -1.867289e+00 -3.015882e+00 8.377991e-01 -1.868925e+00 1.269003e-01 
-1.996412e+00 4.209642e+00 -3.418039e+00 -8.694270e-01 5.865595e+00 3.962619e+00 5.894622e+00 -1.223400e+00 1.993237e+00 4.053904e+00 4.702213e-01 3.273891e+00 -9.786522e-02 2.838208e+00 -4.522406e+00 1.382702e+00 -1.352044e+00 -5.314259e+00 -1.945208e+00 -2.244616e+00 1.525381e+00 -2.031626e+00 -5.570849e+00 1.614640e+00 -2.545270e+00 2.300750e-01 
5.401220e+00 -1.079692e+01 1.402013e+00 -6.824788e-01 -8.609362e+00 -2.993716e+00 2.070586e+00 3.968635e+00 -8.425610e-01 -9.489829e+00 -7.515836e-02 -8.273400e+00 5.111289e-01 3.270423e+00 -4.934086e+00 1.304601e+00 -2.415666e+00 -6.784305e+00 -1.926226e+00 -3.401658e+00 2.475104e+00 -3.536310e-01 -5.521937e+00 1.364682e+00 -3.446292e+00 2.608601e-01 
7.436244e+00 -1.143628e+01 2.008553e+00 -3.347684e+00 -1.614151e+01 -3.366017e+00 -4.212883e+00 1.107233e+01 4.170933e+00 -1.343183e+01 5.374586e+00 -9.549298e+00 7.580207e-01 2.335013e+00 -3.911891e+00 1.194878e+00 -1.196424e+00 -5.933101e+00 -2.019120e+00 -2.441399e+00 2.176063e+00 9.449819e-01 -3.681612e+00 1.331176e+00 -2.531505e+00 2.185198e-01 
8.722959e+00 -1.224976e+01 1.691543e+00 -4.736761e+00 -1.758921e+01 -5.474096e+00 -3.311303e+00 9.418015e+00 3.293780e+00 -1.261456e+01 5.010279e+00 -9.441682e+00 7.889786e-01 4.844967e-01 -7.913747e-01 2.583967e-01 -9.346468e-01 -2.271459e+00 -3.857226e-01 -1.031951e+00 1.358986e-02 1.375672e+00 -5.780862e-01 1.124620e+00 3.463880e-01 8.876170e-02 
8.017782e+00 -1.462340e+01 2.411587e+00 -4.824405e+00 -1.930999e+01 -4.892790e+00 -3.621428e+00 6.932227e+00 4.649976e+00 -1.279179e+01 4.583383e+00 -8.799495e+00 8.558091e-01 -2.266971e-01 -5.593182e-01 5.220345e-01 -2.052321e-01 -4.819174e-01 -2.530158e-01 5.421696e-02 -1.187596e+00 2.893672e-02 8.209434e-01 -1.591072e-02 1.045898e+00 4.587992e-02 
7.532934e+00 -1.316024e+01 2.492479e+00 -4.617352e+00 -1.838242e+01 -4.158943e+00 -3.384898e+00 6.106637e+00 5.796277e+00 -1.270028e+01 5.943544e+00 -6.916362e+00 9.060432e-01 -4.968001e-01 -5.733423e-02 9.956340e-01 1.128995e-01 -1.545542e-01 -8.890405e-02 -3.679439e-01 -4.244464e-01 -5.745208e-01 1.071251e+00 3.610906e-01 6.104757e-01 4.179161e-02 
6.897770e+00 -1.377763e+01 4.218258e+00 -4.433549e+00 -1.815449e+01 -5.288672e+00 -3.905000e+00 6.790042e+00 3.064368e+00 -9.284254e+00 4.828400e+00 -5.582466e+00 9.288880e-01 -3.210475e-01 1.959641e-01 1.520872e+00 5.428991e-02 -1.516720e-01 -1.663398e-01 -8.051214e-01 1.848592e-01 -1.729089e+00 1.815085e+00 4.148822e-01 4.386315e-01 3.289259e-02 
6.798964e+00 -1.295931e+01 5.766378e+00 -4.367692e+00 -1.893973e+01 -5.720675e+00 -5.009236e+00 7.366874e+00 1.213980e+00 -9.012079e+00 6.693223e+00 -7.997818e+00 9.613972e-01 -2.542105e-02 -3.012603e-01 2.210212e+00 -9.257292e-03 -3.582859e-01 -4.386382e-02 -1.030170e+00 -1.369357e-01 -2.923888e+00 2.543423e+00 1.894650e-01 2.145781e-01 2.516207e-02 
6.779530e+00 -1.374404e+01 8.378997e+00 -4.677786e+00 -1.978969e+01 -4.943623e+00 -6.834866e+00 7.226404e+00 -1.704319e+00 -5.560465e+00 6.282954e+00 -6.065609e+00 9.925951e-01 2.438564e-02 1.562703e-01 2.601604e+00 -1.821844e-01 3.507614e-04 1.626997e-02 -9.777988e-01 -8.053063e-01 -3.255876e+00 2.233264e+00 4.673699e-01 2.708042e-01 1.357127e-02 
7.464949e+00 -1.468333e+01 1.146317e+01 -4.541520e+00 -1.935625e+01 -4.550787e+00 -7.070813e+00 5.203778e+00 -6.438819e+00 -1.845060e+00 6.163592e+00 -5.601900e+00 1.000000e+00 -2.838992e-01 7.562039e-01 2.758658e+00 -2.820716e-01 5.621721e-01 2.018714e-01 -1.016186e+00 -1.715002e+00 -3.554128e+00 2.152929e+00 9.875183e-02 4.468376e-01 -2.847272e-03 
6.686706e+00 -1.213427e+01 1.437788e+01 -5.257556e+00 -1.794448e+01 -5.792267e+00 -7.763206e+00 3.845059e+00 -9.388613e+00 -1.701443e+00 7.430064e+00 -5.426404e+00 9.774429e-01 -7.196527e-01 1.798045e+00 2.102888e+00 1.733886e-01 8.240894e-01 2.071767e-01 -1.041028e+00 -2.408541e+00 -2.985162e+00 1.212597e+00 1.637463e-01 -3.781530e-01 -1.896181e-02 
5.425880e+00 -9.983178e+00 1.656022e+01 -5.488164e+00 -1.705148e+01 -4.286996e+00 -9.625996e+00 4.825359e-01 -1.271451e+01 -1.769475e-01 6.613427e+00 -6.083233e+00 9.547369e-01 -7.673448e-01 2.265113e+00 1.007436e+00 4.009563e-01 1.069275e+00 6.018614e-01 -1.369537e+00 -2.421370e+00 -2.032932e+00 2.409529e-02 1.886069e-01 -1.006159e+00 -3.302633e-02 
4.200801e+00 -7.103894e+00 1.634491e+01 -3.337521e+00 -1.682163e+01 -4.039635e+00 -1.076241e+01 -2.455678e+00 -1.349228e+01 -3.315392e-01 6.876768e+00 -7.715708e+00 9.204176e-01 -5.368656e-01 2.103506e+00 2.191969e-01 6.080189e-01 9.202722e-01 1.117450e+00 -2.219635e+00 -1.369244e+00 -1.515793e+00 -4.055054e-02 -5.260744e-01 -1.056211e+00 -4.147771e-02 
4.871178e+00 -5.872951e+00 1.551684e+01 -3.496757e+00 -1.457130e+01 -2.417796e+00 -1.241889e+01 -3.752704e+00 -1.455164e+01 -2.409535e+00 7.383275e+00 -9.488045e+00 8.633810e-01 -8.406754e-02 1.898924e+00 -5.982552e-02 1.009143e-01 5.583155e-01 9.698467e-01 -2.220727e+00 -6.541252e-01 -6.283317e-01 -4.150774e-01 -1.252792e+00 -9.264595e-01 -4.718858e-02 
4.279729e+00 -3.671851e+00 1.599556e+01 -3.213166e+00 -1.458320e+01 -1.139615e+00 -1.746494e+01 -8.835434e-01 -1.604901e+01 -7.879021e-01 4.414768e+00 -9.005053e+00 8.157323e-01 2.935108e-01 1.366632e+00 5.721491e-01 -5.538806e-01 6.355900e-01 -8.931756e-03 -1.261539e+00 -9.739535e-01 1.389877e-01 -2.818811e-01 -1.391957e+00 -8.857217e-01 -4.884506e-02 
4.966078e+00 -2.204580e+00 1.643577e+01 -5.045771e+00 -1.537911e+01 -8.877726e-01 -1.737837e+01 -3.574158e+00 -1.457781e+01 -2.024153e+00 1.580467e+00 -1.007086e+01 7.711366e-01 5.414914e-01 8.247296e-01 8.746624e-01 4.326841e-01 -2.788599e-01 -5.318769e-01 -2.802349e-01 -1.616530e+00 2.592980e-01 5.043882e-01 -1.276658e+00 -6.671586e-01 -4.688618e-02 
5.620904e+00 -2.104921e+00 1.874619e+01 -5.332417e+00 -1.323977e+01 -4.849305e+00 -1.459037e+01 -7.414719e+00 -1.278426e+01 -1.933636e+00 2.818388e+00 -1.185291e+01 7.223145e-01 9.027206e-01 9.062742e-01 -2.143242e-01 1.973644e+00 -5.833025e-01 -9.651150e-01 8.638336e-01 -2.968571e+00 7.228699e-02 6.021184e-01 -3.870537e-01 -6.403443e-01 -5.363239e-02 
6.908047e+00 -2.532768e+00 1.851484e+01 -2.737103e-01 -1.663731e+01 -3.222336e+00 -1.525735e+01 -8.569768e+00 -1.488753e+01 6.852725e-01 1.798173e+00 -1.139991e+01 6.756591e-01 1.237942e+00 2.095128e+00 -1.786370e+00 2.425141e+00 6.195677e-01 -1.537891e+00 8.435495e-01 -2.443396e+00 -5.464457e-01 2.417647e-01 -6.339852e-01 4.430735e-01 -7.487377e-02 
7.822348e+00 1.023614e+00 1.388441e+01 4.269023e+00 -1.687061e+01 -4.797908e+00 -1.420628e+01 -1.322859e+01 -1.553272e+01 8.679774e-01 2.370646e+00 -1.154225e+01 5.953091e-01 1.373274e+00 2.133592e+00 -4.088905e+00 1.846635e+00 2.954660e+00 -1.644115e+00 3.012634e+00 -4.368710e-01 -3.005758e-01 -1.948205e+00 -1.742469e+00 2.399350e+00 -1.205183e-01 
1.005507e+01 6.706792e+00 9.934810e+00 2.279216e+00 -1.046585e+01 -8.602924e+00 -1.335267e+01 -1.288420e+01 -1.593581e+01 -2.216136e+00 -1.365588e+00 -8.010821e+00 4.602705e-01 -6.969071e-03 2.491344e+00 -4.824557e+00 -2.264401e-01 5.062274e+00 -3.601870e-01 4.897846e+00 1.141423e+00 1.042988e+00 -3.505113e+00 -1.782802e+00 3.575683e+00 -1.766361e-01 
1.091376e+01 3.943260e+00 2.591677e+00 2.624295e+00 -1.552202e+00 -1.037959e+01 -4.795418e-01 -7.441858e+00 -1.376300e+01 -1.022396e+01 -4.312077e+00 -1.550704e+00 2.274175e-01 -2.331476e+00 1.255245e+00 -3.662321e+00 -1.410858e+00 4.729229e+00 8.501156e-01 4.377591e+00 3.514270e+00 3.706168e+00 -1.982083e+00 -1.304006e+00 3.676749e+00 -1.854899e-01 
5.327494e+00 8.464130e+00 3.841496e-02 -5.835472e-01 1.014852e+00 -2.232431e+00 2.368514e+00 -5.756021e+00 -1.055744e+01 -1.129432e+01 -3.774474e+00 1.482734e+00 -2.357543e-02 -3.779411e+00 -3.039207e-01 -2.318135e+00 -1.308401e-01 3.737888e+00 2.211213e+00 2.762607e+00 2.158682e+00 3.862816e+00 1.168085e+00 -1.069496e+00 1.435056e+00 -1.447163e-01 
-1.471243e+00 6.421169e+00 5.209999e-01 -1.353883e+00 1.035181e+00 -3.732577e+00 -1.789155e-01 7.786677e-01 3.089383e-01 -4.503345e+00 -2.944941e+00 2.094719e+00 -9.021759e-02 -3.532624e+00 -7.995524e-01 -1.758769e+00 4.419715e-01 3.007631e+00 2.660482e+00 6.371720e-02 1.659523e+00 3.449017e+00 3.438541e+00 -4.644735e-01 -5.380583e-01 -7.329403e-02 
-2.649480e+00 3.948234e+00 -6.205242e-01 3.614105e+00 6.929898e+00 -8.703637e-01 3.100514e-01 -6.201053e+00 -3.657699e+00 7.639828e-01 -7.396636e+00 -2.658254e+00 -1.044935e-01 -1.632777e+00 -1.406491e+00 -1.251170e+00 7.439297e-01 2.138006e+00 2.688528e+00 6.932653e-01 1.531671e+00 2.608230e+00 3.923546e+00 4.621490e-01 -1.135489e+00 -1.790811e-02 
-2.760872e+00 2.203447e+00 -5.872700e+00 2.735327e+00 1.052843e+01 2.241788e+00 8.682756e-01 1.078274e+00 3.221107e-02 9.395953e-01 -4.823363e+00 -2.170502e+00 -9.859359e-02 -2.517611e-01 -8.688370e-01 -9.291221e-01 6.781583e-02 1.036015e+00 2.681339e+00 1.372055e+00 7.141708e-01 8.032238e-01 1.636175e+00 8.744070e-01 -2.236428e-02 -1.526129e-03 
-2.191576e+00 3.540537e+00 -3.020587e+00 1.091497e+00 6.958259e+00 8.223027e+00 5.311245e+00 1.752528e+00 2.622069e+00 5.601935e+00 -5.245183e-01 -2.062098e+00 -1.089280e-01 -2.685857e-01 -4.792991e-01 2.824867e-02 -2.267363e-01 -4.064150e-02 8.004014e-01 1.006969e+00 2.072435e+00 1.554884e+00 7.237998e-01 2.221679e+00 1.271883e+00 -6.600857e-04 
-2.959001e+00 2.280833e+00 -2.924579e+00 2.464997e-01 6.201076e+00 5.127422e+00 4.180760e+00 3.727310e-01 1.185173e+00 1.258552e+00 -2.008965e+00 1.684820e+00 -9.563100e-02 -3.329894e-01 -2.042418e-01 5.052179e-01 5.190936e-01 -6.542102e-01 -9.621794e-01 1.152624e-01 3.190445e-01 1.315008e+00 1.130629e+00 1.650126e+00 1.464068e+00 -4.286540e-03 
-3.893344e+00 1.513046e+00 -1.953341e+00 3.724837e+00 8.890366e+00 1.688826e+00 3.688655e+00 4.513895e+00 3.540241e+00 4.223504e+00 2.304561e+00 1.773500e+00 -1.092752e-01 -5.248535e-01 -3.016450e-01 -6.601326e-01 9.151818e-01 4.092057e-02 -1.577184e+00 -3.070413e-01 5.476252e-01 2.815199e-01 4.202947e-01 1.270710e+00 1.663087e+00 5.622888e-03 
-3.574935e+00 2.195983e+00 -3.880233e+00 4.014125e+00 6.291322e+00 6.979914e-01 2.255883e+00 1.292813e+00 6.148167e+00 7.281958e+00 2.012725e+00 3.232039e+00 -1.198527e-01 -4.819813e-02 4.592796e-02 -6.866557e-01 5.031047e-02 1.961025e-02 -3.207782e-01 -1.570027e-02 3.130733e-01 5.732650e-01 7.139317e-01 4.368969e-01 4.598700e-01 2.104652e-03 
-4.507876e+00 2.074737e+00 -5.843423e+00 3.783593e+00 7.117739e+00 2.551821e+00 4.738478e+00 4.030613e+00 1.548172e+00 4.691706e+00 3.818187e+00 5.479727e+00 -6.870270e-02 1.913969e+00 -1.284748e+00 1.816975e-01 -7.802725e-03 -1.337295e+00 -1.598687e+00 -1.125268e+00 -2.424096e+00 -3.695269e+00 -2.794617e+00 -4.458354e-01 -9.657729e-01 4.643251e-02 
-2.892725e+00 2.229627e+00 -4.412816e+00 4.686738e-01 7.185441e+00 3.092034e+00 3.577348e+00 2.179738e+00 5.047533e+00 4.594109e+00 -5.812933e-01 2.131057e+00 -1.053940e-01 2.597717e+00 -1.219222e+00 1.245939e+00 6.171297e-01 -1.593815e+00 -2.505957e+00 -1.262768e+00 -3.150893e+00 -5.386590e+00 -3.415227e+00 -1.193963e-01 -1.620380e+00 5.080107e-02 
5.335398e+00 -4.927516e+00 -7.785623e-01 5.458549e+00 1.756833e+00 -7.501630e+00 -2.598415e+00 -8.050050e+00 -1.438579e+01 -8.405656e+00 1.372393e+00 -2.504873e+00 1.156580e-01 1.660449e+00 -1.116180e+00 5.729980e-01 1.035908e+00 -9.663576e-01 -1.995106e+00 -4.934583e-01 -1.902045e+00 -3.193393e+00 -2.455474e+00 -8.310440e-01 -8.912037e-01 1.337207e-02 
4.492013e+00 -3.989988e-01 -1.829686e-01 6.262296e+00 1.002702e+00 -6.805067e+00 -3.895082e-01 -8.421318e+00 -1.281780e+01 -3.245498e+00 2.638640e+00 -8.775601e-01 4.197234e-02 7.015262e-01 4.655195e-01 -2.131839e-02 1.727988e+00 7.833065e-01 6.679274e-01 1.920158e+00 4.273951e-01 -1.227055e+00 -1.902285e+00 -5.099326e-01 6.594886e-01 -1.324090e-02 
1.019993e-01 -2.191851e+00 -5.093357e+00 6.066322e+00 5.377320e+00 -2.475157e+00 4.254614e+00 -1.790833e-01 -5.486123e+00 -3.665862e+00 -1.947000e+00 2.528017e+00 -7.552552e-02 -9.766815e-01 1.635145e+00 -1.561594e+00 -7.343204e-01 3.004008e+00 4.270743e+00 3.350181e+00 2.101547e+00 1.776480e+00 2.655546e-01 -8.138329e-01 1.347733e+00 -5.768940e-02 
3.231606e+00 3.189393e+00 -2.362011e+00 8.804729e+00 9.291730e+00 3.918434e+00 9.751625e+00 3.812303e-01 -5.537574e+00 -7.287214e+00 -1.471260e+00 2.912055e+00 -7.600677e-02 -1.210597e+00 3.568681e-01 -1.528493e+00 -2.707679e+00 7.631685e-01 2.578508e+00 8.652020e-01 4.942746e-01 1.796117e+00 -2.648806e-01 -1.027078e+00 6.725575e-01 -3.431494e-02 
1.082194e+00 1.454011e+00 -7.497010e+00 5.157299e-01 1.263236e+01 8.490335e+00 9.081924e+00 -1.943588e+00 -9.143501e+00 -5.057025e+00 -6.418216e-01 2.338982e+00 -1.137995e-01 -9.618562e-01 5.708498e-01 -2.664926e-01 -3.025292e+00 -1.271945e+00 9.992404e-02 -2.174915e+00 -1.742299e+00 1.633911e+00 -2.720330e-01 -4.564172e-01 5.088701e-02 -9.638143e-03 
-2.051071e+00 -4.375895e-01 -6.623606e+00 -4.500805e+00 1.191024e+00 6.047268e-01 1.522846e+00 -5.067693e+00 -2.008527e+00 -3.874320e+00 -3.149341e+00 2.579744e+00 -1.104654e-01 -1.443688e+00 -6.488255e-02 4.455908e-01 -1.917703e+00 -2.479663e+00 -2.680669e+00 -3.121363e+00 -1.564788e+00 1.329331e+00 1.640058e-01 -1.580494e+00 -1.324070e+00 -4.971027e-03 
-2.065944e+00 2.475889e+00 -4.295023e+00 -2.407370e+00 3.067948e+00 -3.186831e-01 -2.505573e+00 -6.166118e+00 9.189081e-01 -6.732474e+00 -3.390046e+00 2.948607e+00 -1.064869e-01 -4.865812e-01 6.197932e-01 1.034214e+00 5.910614e-01 -1.576597e+00 -2.029191e+00 -1.777979e+00 -8.050358e-01 8.658880e-01 6.771068e-01 -8.895853e-01 -5.528001e-01 6.796241e-04 
-2.412766e+00 2.354041e+00 -1.735051e+00 6.777632e-01 1.675622e+00 -5.080400e+00 -6.143999e-02 -5.331446e+00 -3.922123e+00 -5.629460e+00 -7.999619e+00 -4.013109e+00 -1.045182e-01 3.258462e-01 1.208167e+00 3.359316e-01 1.770040e+00 5.680646e-01 -4.701117e-02 4.607469e-01 8.425663e-01 6.729154e-02 1.097939e+00 5.604865e-02 -5.581448e-02 8.436859e-03 
-1.169865e+00 3.157162e+00 -4.770219e+00 8.817527e-01 4.507074e+00 1.186941e+00 9.841707e-01 -5.836891e+00 -3.857263e+00 -7.939202e-01 -2.664608e+00 2.871409e+00 -1.133749e-01 2.309621e-01 7.099727e-01 -8.671296e-02 1.203438e+00 4.112414e-01 1.153255e+00 1.498104e+00 1.338229e+00 3.622126e-01 1.938944e+00 1.059952e+00 1.150558e+00 5.434525e-03 
-8.698797e-01 5.262609e+00 -4.706349e+00 2.704834e+00 3.311784e+00 -3.831410e-01 2.081709e+00 -1.019475e+00 7.160158e-01 -1.353901e+00 -3.231817e+00 2.339271e+00 -6.483710e-02 4.387999e-02 2.353154e-01 -8.254851e-01 5.326015e-01 -1.180032e-01 1.052041e+00 4.297948e-01 1.511757e+00 1.252329e+00 2.516242e+00 1.713110e+00 1.641894e+00 1.749235e-02 
-1.682576e+00 4.571468e+00 -3.242938e+00 2.596286e+00 4.306074e+00 3.098963e+00 3.913375e+00 -1.630960e+00 4.109013e-01 8.244656e-01 -4.741898e-01 5.525206e+00 -9.915483e-02 -2.104528e-01 -4.661362e-02 4.059336e-01 3.288237e-01 8.473611e-03 -1.675273e-01 -2.857745e-01 2.017278e+00 2.156407e+00 1.936690e+00 -5.531256e-01 -3.243870e-01 7.142139e-03 
-1.937010e+00 2.823465e+00 -6.626116e+00 2.483504e+00 1.186106e+00 -7.762043e-01 6.229320e-01 1.243721e-01 2.054415e-01 6.142557e+00 -5.292790e-01 2.869461e+00 -2.416646e-02 -2.581915e-01 -1.225903e-01 8.111933e-01 -9.090952e-01 5.572802e-01 1.352798e+00 7.827714e-01 3.479653e-01 1.062959e+00 2.033810e+00 -2.470608e-01 -4.835749e-02 -7.635224e-03 
-1.688563e+00 4.143666e+00 -1.780668e+00 2.636536e+00 5.612281e+00 5.458360e-01 2.846866e-01 3.677578e+00 7.180059e+00 5.141302e+00 -6.781505e+00 9.843789e-01 -9.799957e-02 7.052298e-02 5.359246e-01 1.508907e+00 -5.700459e-02 1.740343e+00 1.497720e+00 7.429752e-01 -4.748936e-01 1.769032e+00 5.435110e-01 -6.140214e-01 5.287611e-02 -1.435344e-02 
-2.157844e+00 4.863559e+00 -1.381518e+00 -1.860767e+00 5.445082e+00 7.657413e+00 7.809910e+00 -1.933917e+00 2.646231e+00 6.656729e+00 -1.313463e+00 4.367897e+00 -1.035908e-01 3.251755e-01 5.519814e-01 1.571761e+00 6.510953e-01 2.653440e+00 2.305911e+00 1.729235e+00 -1.912670e-01 1.859363e+00 1.246049e-01 1.698384e+00 1.484668e+00 -2.191422e-02 
-1.219544e+00 6.231044e+00 1.679299e+00 4.483398e+00 1.087830e+01 6.370753e+00 4.034762e+00 -2.976283e+00 8.035667e+00 3.284935e+00 -3.152205e+00 5.040368e+00 -1.312099e-01 3.898045e-01 4.681573e-02 3.450975e-01 1.103434e+00 1.879125e+00 1.477359e+00 1.380292e+00 2.063665e-01 1.021700e+00 6.141962e-01 3.332045e+00 1.845777e+00 -5.180729e-03 
-5.456419e-01 4.539683e+00 -4.972925e-01 4.815549e+00 1.182030e+01 7.840891e+00 7.394068e+00 2.494968e+00 9.074450e+00 7.693765e+00 6.147991e+00 8.264808e+00 -1.171324e-01 3.898306e-01 -2.339113e-01 -4.081402e-02 1.368478e+00 1.369242e+00 1.837096e-01 2.527621e-01 1.432902e+00 1.389522e+00 6.482903e-01 2.422310e+00 1.101826e+00 -1.300573e-03 
