-5.006763e+00 4.775457e+00 6.779277e-01 8.274904e-01 2.594427e+00 3.091037e-01 4.174793e+00 2.399805e+00 1.089309e+01 3.839976e+00 6.803314e+00 8.332031e+00 -1.512927e-01 -5.634362e-01 -1.809764e-01 -4.246946e-01 2.434194e-01 5.327241e-01 4.792000e-01 8.315445e-01 -1.249145e-01 -8.126666e-01 4.671918e-01 -1.430162e+00 -1.801159e+00 0.000000e+00 
-6.838805e+00 5.196828e+00 1.810042e+00 5.028859e+00 5.858578e+00 2.828825e+00 8.106448e+00 7.563304e-01 5.357212e+00 5.880422e+00 2.566462e+00 2.280488e+00 -1.512927e-01 -7.768980e-01 -5.381361e-01 -8.393766e-01 5.128511e-01 5.766152e-01 5.279974e-02 1.366605e+00 2.550256e-01 -8.571657e-02 1.291457e+00 -1.311516e+00 -1.075892e+00 0.000000e+00 
-6.907922e+00 3.659890e+00 -2.011603e+00 -5.609629e-02 3.625972e+00 1.445243e+00 6.366688e+00 2.596969e+00 9.597689e+00 5.155713e+00 1.770931e+00 2.352009e+00 -1.512927e-01 -4.490631e-01 -2.247322e-01 -1.120775e+00 1.548290e-02 1.906555e-01 -8.458465e-01 4.219055e-01 -1.241906e-02 1.168895e-01 8.988758e-01 -8.468167e-01 3.644651e-01 0.000000e+00 
-7.940673e+00 2.642560e+00 -2.174190e+00 3.833540e+00 4.961730e+00 5.032778e-03 9.911872e+00 3.576350e+00 1.111220e+01 9.639391e+00 2.761926e+00 5.942582e+00 -1.512927e-01 -1.414869e-01 -4.709629e-01 -8.405045e-01 -4.279615e-01 -2.123363e-01 -4.135137e-01 -3.083329e-01 2.857466e-01 4.600265e-01 3.407494e-01 -1.201353e-01 1.449916e+00 0.000000e+00 
-6.701144e+00 4.928930e+00 -2.933831e+00 1.502564e+00 3.996128e+00 -2.508233e+00 5.381609e+00 9.276993e-01 8.600039e+00 6.454871e+00 2.471498e+00 8.323310e+00 -1.512927e-01 5.422268e-02 3.623188e-04 -3.089802e-01 -5.167384e-01 6.950822e-02 6.270306e-01 -3.940606e-02 -1.547105e-01 -3.201973e-02 -1.258589e-01 4.876463e-02 1.185329e+00 0.000000e+00 
-7.649629e+00 2.207494e+00 -1.931366e+00 2.109721e+00 4.611818e+00 2.737994e+00 7.057323e+00 3.019699e+00 8.156170e+00 6.934590e+00 1.615501e+00 6.544419e+00 -1.512927e-01 4.474392e-02 -1.307624e-01 1.447533e-01 -1.443110e+00 -9.324959e-01 6.326796e-01 -9.758798e-01 -1.026272e-01 1.044498e+00 -3.319791e-01 -2.430831e-01 -1.100950e+00 0.000000e+00 
-6.782331e+00 3.879235e+00 -3.677916e+00 -1.777879e+00 4.148469e+00 3.213915e+00 7.596932e+00 2.101742e+00 1.091561e+01 5.878819e+00 2.587966e+00 7.977733e+00 -1.512927e-01 -6.349697e-02 -1.749748e-01 -6.113303e-03 -7.422941e-01 -3.171851e-01 1.287332e+00 1.819945e-01 4.954913e-01 1.174347e+00 1.202020e+00 -1.859631e-01 -2.965011e+00 0.000000e+00 
-7.676360e+00 2.513596e+00 -1.078382e+00 -1.741788e+00 2.230806e-01 3.073571e-01 3.924811e+00 2.476193e+00 1.517691e+01 8.267521e+00 1.488276e+00 6.106222e-01 -1.512927e-01 2.039599e-01 4.770871e-01 1.828692e-01 -1.788939e-01 4.612394e-02 5.738858e-02 1.377309e-01 -3.979943e-01 -7.303094e-01 8.068609e-01 -4.660158e-01 -2.700439e+00 0.000000e+00 
-7.005263e+00 3.901005e+00 -3.390890e+00 -2.831516e-01 4.604572e+00 5.143744e+00 7.857838e+00 3.676908e+00 1.096140e+01 1.179850e+01 1.605295e+00 -3.534849e+00 -1.512927e-01 2.424145e-01 -2.721701e-01 2.542562e-01 5.348984e-01 1.326393e+00 6.077471e-01 2.936686e-01 -2.759807e-01 -1.570275e+00 1.960198e-01 2.830465e-02 -5.500317e-01 0.000000e+00 
-6.518363e+00 4.582044e+00 -1.160533e+00 4.678875e-01 4.614387e+00 2.060023e+00 7.615525e+00 2.421438e-01 4.481724e+00 8.009052e+00 -2.232424e-01 -1.201483e+00 -1.512927e-01 6.298336e-01 -8.129379e-01 -9.656496e-01 1.028596e+00 2.565102e+00 5.548797e-01 1.150407e+00 -5.264519e-01 -1.649779e+00 -6.854884e-01 2.854211e-01 2.683246e+00 0.000000e+00 
-6.149257e+00 1.484160e+00 -2.365559e+00 -2.082247e-01 8.584784e+00 5.376318e+00 7.219918e+00 1.838863e+00 8.411823e+00 6.988153e+00 3.585248e+00 6.133627e+00 -1.512927e-01 8.206211e-01 -1.721995e+00 -2.242136e+00 -9.958301e-02 1.244060e+00 -5.807341e-01 -6.812876e-01 -3.566922e-01 -3.620756e-01 -3.184166e+00 -3.864847e-01 2.851954e+00 0.000000e+00 
-4.955195e+00 -3.426714e-01 -6.419295e+00 3.363729e+00 1.105848e+01 2.965469e+00 9.995804e+00 7.629554e-01 8.202805e+00 7.245255e+00 1.925405e+00 9.192616e+00 -1.512927e-01 1.190040e+00 -1.133714e+00 -2.798707e+00 -1.171769e-01 8.811677e-01 -3.454208e-03 -4.783660e-01 9.069690e-01 7.826754e-01 -2.600023e+00 -3.861068e-01 1.427910e+00 0.000000e+00 
-3.683742e+00 -2.246612e+00 -1.197219e+01 -2.228987e+00 7.602824e+00 1.787351e+00 3.261261e+00 1.633042e+00 7.290485e+00 -3.740429e+00 -1.401452e+00 5.527873e+00 -1.512927e-01 1.285768e+00 -1.287791e+00 -2.121664e+00 5.574876e-01 -3.411527e-01 -1.605331e+00 -6.157894e-01 1.063510e+00 6.643640e-01 -2.466981e+00 -2.036645e+00 -3.697124e-01 6.426334e-04 
-1.800920e+00 7.788591e-01 -1.035076e+01 8.923845e-01 9.511205e+00 3.837235e+00 7.203023e+00 4.879900e+00 8.955770e+00 3.732294e-01 3.395740e-01 6.240942e+00 -1.512927e-01 1.176890e+00 -1.430427e+00 -4.595945e-01 9.330225e-01 -1.783796e+00 -1.754480e+00 -6.302360e-01 -7.011615e-01 -5.831280e-02 -1.248788e+00 -2.995977e+00 -1.096874e+00 7.553458e-03 
-1.297554e+00 -5.515557e+00 -1.100815e+01 3.814886e+00 7.652659e+00 -3.086221e+00 5.537361e+00 5.097942e+00 1.135716e+01 -1.910742e+00 -5.805063e+00 5.760902e+00 -1.480795e-01 6.456148e-01 -1.208542e+00 1.651011e+00 3.282073e+00 -1.675555e+00 -3.635725e-01 4.745064e-01 -1.857265e+00 1.018572e+00 1.075753e+00 -1.985632e+00 -1.569896e-01 1.724954e-02 
-2.638416e-01 -5.860333e+00 -9.199288e+00 5.006906e+00 2.114585e+00 -3.370148e+00 5.706573e+00 -4.475302e+00 5.877903e+00 8.647311e-02 -1.085267e+01 3.591729e+00 -1.151320e-01 5.305519e-01 -4.415945e-01 2.230551e+00 1.848371e+00 -2.168621e+00 3.634854e-01 -1.238039e+00 -1.743127e+00 1.352921e+00 1.362996e+00 -3.920707e-01 6.332346e-01 8.042777e-03 
-1.224207e+00 -4.969727e+00 -4.292868e+00 1.212412e+01 2.923359e+00 3.573179e+00 6.382018e+00 -2.975680e+00 1.392228e+01 1.781713e+00 -5.733490e+00 6.067532e+00 -8.312535e-02 3.915198e-01 2.522525e+00 3.481024e+00 3.651066e-01 -1.222701e+00 1.944563e+00 -3.552344e-01 6.510234e-02 -5.358715e-02 1.944027e+00 2.980660e+00 7.488412e-01 -3.485024e-03 
8.151655e-01 -1.702029e+00 -2.555640e+00 5.979626e+00 1.032750e+00 2.324963e+00 5.904994e-01 2.010746e-01 1.443782e+01 5.341981e+00 -1.656566e+00 9.253801e+00 -1.435559e-01 -7.285155e-01 2.412002e+00 1.781944e+00 -1.506099e+00 -6.068990e-01 1.133792e+00 3.154835e-01 1.176120e+00 -9.723445e-01 1.021739e+00 3.379763e+00 9.482146e-04 -1.404887e-02 
1.205416e-01 5.017912e+00 3.075150e+00 5.154059e+00 2.080070e+00 3.789037e+00 6.319226e+00 3.085266e+00 6.809268e+00 5.181637e+00 4.500184e+00 6.674072e+00 -1.512927e-01 -1.504721e+00 1.547703e+00 7.603331e-01 -2.431345e+00 -5.277930e-01 -2.524841e-01 1.472499e+00 8.167030e-01 -2.280844e+00 5.051135e-01 2.599052e+00 -8.028555e-01 -1.440715e-02 
-4.578794e+00 1.205858e+00 -3.973578e+00 9.614403e-01 -4.982653e-01 2.190883e+00 7.315387e+00 -1.625174e+00 4.572686e+00 3.495207e+00 9.293038e-01 3.293200e+00 -1.512927e-01 -2.232374e+00 -8.811412e-01 2.276504e+00 -1.928703e+00 -1.646626e+00 2.513757e-01 1.365951e+00 4.884871e-02 -2.078275e+00 -1.793412e+00 -1.086871e-01 -2.535934e+00 4.163481e-02 
-6.050834e+00 1.314843e+00 2.177657e-01 2.476485e+00 1.049901e+00 2.377798e+00 1.038207e+01 2.020959e+00 7.450624e+00 5.230667e+00 5.968835e+00 5.033554e+00 -1.512927e-01 -1.563172e+00 -1.696162e+00 3.059973e+00 -9.463422e-01 -2.030888e+00 8.351566e-01 -3.413500e-01 -4.480460e-02 -4.281833e-01 -1.692698e+00 -1.277725e+00 -1.745426e+00 5.172388e-02 
-7.261016e+00 -4.256200e+00 1.025557e+01 -2.325103e+00 -6.685293e+00 4.287460e+00 5.388833e+00 9.774716e-01 3.725767e+00 -3.649596e+00 -2.934328e+00 -2.605610e+00 6.461817e-02 5.157871e-02 6.434866e-01 1.316622e+00 -1.438084e-01 1.390683e-01 8.510056e-01 -8.452136e-01 9.568005e-01 4.343273e-01 -6.129285e-01 -7.201585e-01 -8.041300e-01 1.506640e-02 
-6.354209e+00 -7.318711e-01 1.126044e+01 2.065620e+00 -4.980856e+00 6.916531e+00 5.575753e+00 1.559920e+00 5.091811e+00 2.905487e-01 4.337406e-02 8.963483e-01 -6.287098e-04 5.860149e-01 1.519225e+00 -2.039802e+00 -8.259527e-02 8.987101e-01 -1.292657e+00 -1.087980e+00 6.833411e-01 1.060740e+00 4.693278e-01 -6.847116e-01 -5.984825e-01 -2.159109e-02 
-4.169212e+00 5.446648e+00 -2.911803e+00 4.478309e-01 3.212455e+00 4.176545e+00 5.492476e+00 3.389348e+00 7.923728e+00 2.900624e+00 2.912422e-01 1.341153e+00 -1.512927e-01 8.257540e-01 2.447141e+00 -4.089336e+00 3.140976e-02 2.350943e+00 -1.129489e+00 4.847709e-01 4.518947e-01 2.548326e+00 2.770862e+00 9.042145e-01 1.238498e+00 -5.824857e-02 
-4.666661e+00 4.059544e+00 -3.397556e+00 6.770411e-01 5.945773e-01 -4.030031e+00 4.890344e+00 4.231726e+00 1.065534e+01 4.302197e+00 9.324924e-01 6.776011e-02 -1.512927e-01 2.528644e-01 1.233089e+00 -2.636830e+00 -4.611886e-01 2.138574e+00 -6.775891e-01 9.938717e-01 3.952931e-01 2.702947e+00 1.629444e+00 3.082499e-01 1.002080e+00 -3.013279e-02 
-3.976020e+00 5.583797e+00 -2.862110e+00 -1.473765e+00 2.281705e+00 4.113295e+00 8.155392e+00 1.901042e+00 1.368563e+01 8.198887e+00 1.142186e+00 4.001177e+00 -1.512927e-01 -3.316333e-01 -8.344118e-01 1.227649e+00 -2.006737e+00 -1.447921e+00 -1.212693e+00 2.275021e+00 -1.018336e+00 -3.003842e-01 -7.598702e-01 -1.422867e+00 1.699188e+00 7.696923e-02 
-5.186483e+00 5.364998e+00 -1.948558e+00 7.204746e-01 6.177388e+00 3.560210e+00 9.213654e+00 4.280539e+00 1.572559e+01 5.788636e+00 1.159152e+00 4.576737e+00 -1.512927e-01 -1.413324e+00 1.480942e-01 5.014377e-01 -2.044529e+00 -2.757871e+00 -7.385081e-01 1.447634e+00 -1.052260e+00 -2.674073e+00 -1.940070e+00 -1.772451e+00 1.282952e+00 1.941204e-01 
-5.567468e+00 6.218617e-01 2.501944e+00 -9.607571e+00 -6.818556e+00 -5.682039e+00 1.470593e+01 -1.726740e+00 3.886683e+00 -1.641947e+00 -6.936421e+00 7.582607e+00 2.335535e-01 -4.595274e+00 1.149838e+00 -3.792061e-01 1.217583e-01 -4.802291e-01 -1.381513e+00 -1.641031e+00 -1.290957e+00 -3.078923e+00 -1.087781e+00 -5.698196e-01 -8.221723e-01 2.735893e-01 
-1.093756e+01 7.280982e+00 -3.572395e+00 -5.478700e+00 -8.644648e+00 -2.824904e+00 8.853246e+00 7.843153e-01 2.184454e+00 -4.777389e-01 -3.890461e+00 4.691807e+00 6.268862e-01 -4.762639e+00 1.494032e+00 -1.850751e+00 -3.961540e-01 8.898684e-01 -2.639093e-01 -2.415214e+00 -1.217839e+00 -1.383011e+00 4.338774e-01 5.265344e-01 -1.195546e+00 2.530758e-01 
-2.407685e+01 1.037500e+01 -3.946222e+00 2.234613e+00 7.291577e+00 3.982871e-01 1.304407e-01 -2.805631e+00 5.061587e+00 5.893170e+00 8.178941e-01 -1.672199e-01 8.275646e-01 -1.827346e+00 1.793083e+00 -2.993341e+00 -1.226346e-01 3.251276e+00 1.046058e+00 -2.702017e+00 6.413927e-01 1.656837e+00 1.299150e+00 2.107246e+00 -1.054676e+00 1.268385e-01 
-1.974498e+01 7.958591e+00 -7.978230e+00 -7.181387e+00 3.571663e+00 -7.994995e-01 4.425327e+00 -1.269209e+00 8.223086e+00 4.190465e+00 -8.533382e-02 2.473920e+00 8.170809e-01 2.030552e-01 -1.151129e-01 -7.159733e-01 -1.698316e+00 1.955016e+00 -1.670961e-01 -6.932957e-02 6.205159e-01 4.747195e-01 1.004107e+00 1.298368e+00 4.269042e-01 1.943963e-02 
-1.030048e+01 9.248472e+00 -1.026184e+01 -9.369400e+00 3.329666e+00 -1.464449e+00 3.409801e+00 2.506986e+00 9.151552e+00 2.519704e+00 1.697246e+00 3.418170e+00 7.726485e-01 1.989246e+00 -9.890270e-01 3.029187e-01 -2.265826e+00 -3.967212e-01 2.732746e-01 2.107377e+00 1.030950e+00 -5.546206e-01 -4.213448e-01 1.122905e-01 -2.604960e-01 -2.573996e-02 
-1.681047e+01 7.268680e+00 -3.994452e+00 -8.168272e+00 3.111387e+00 -2.729017e+00 6.866918e+00 1.230586e+00 2.513069e+00 6.229527e+00 2.161704e+00 5.033633e+00 7.515424e-01 4.619694e-01 -1.347162e+00 1.904782e+00 3.974367e-01 -3.432484e-01 1.071859e+00 2.736133e+00 3.544309e-01 -1.734494e+00 -7.453496e-01 3.610163e-02 -4.021815e-01 -3.196871e-02 
-1.559788e+01 5.774816e+00 -4.423518e+00 -8.601076e+00 5.538110e+00 2.729419e+00 9.446527e+00 1.099219e+00 5.143493e+00 2.766915e+00 2.558278e-01 -2.749556e+00 7.316340e-01 7.677010e-01 -8.720067e-01 3.532848e+00 1.479061e+00 -1.551254e+00 -8.483843e-01 7.289373e-01 -1.635662e+00 -2.194172e+00 -1.209561e+00 -1.671115e+00 -1.495268e+00 -4.365890e-02 
-1.478644e+01 2.959606e+00 -1.373483e+00 -5.578366e+00 7.511992e-01 2.462864e+00 1.508763e+01 1.206829e+00 1.554648e+00 3.401110e-01 8.158833e-01 3.546876e+00 6.777445e-01 5.276797e+00 -1.867634e+00 2.617194e+00 1.474831e+00 -3.900569e+00 -2.990773e+00 -3.246297e+00 -1.885085e+00 -2.246341e+00 -2.822495e+00 -2.819402e+00 -1.752013e+00 -2.416914e-02 
-7.473992e+00 7.042975e+00 6.091912e+00 -3.269047e+00 -3.246510e+00 -8.302311e+00 2.944130e+00 -5.659447e+00 -1.340097e+00 -5.833926e-01 -5.985419e+00 -3.314792e+00 5.912529e-01 6.346352e+00 -4.097682e+00 3.298749e+00 1.433562e+00 -6.229592e+00 -3.463811e+00 -7.760222e+00 3.781939e-01 -3.266551e+00 -1.890587e+00 -2.483729e+00 -2.064084e+00 2.338768e-02 
5.511576e+00 -2.703570e+00 3.833803e+00 -3.460132e+00 -1.199915e+01 -1.216702e+01 -6.113369e+00 -4.815503e+00 -5.476843e+00 -6.207791e+00 -8.814680e+00 -3.443813e+00 7.008873e-01 5.199210e+00 -4.853051e+00 3.851807e+00 2.457607e-01 -5.121534e+00 -2.099668e+00 -9.594179e+00 2.496594e+00 -3.247178e+00 -7.178838e-01 -5.423680e-01 -1.859926e+00 7.149814e-02 
5.984869e+00 -1.188200e+01 9.466588e+00 -2.492381e+00 -1.923468e+01 -7.274699e+00 -1.875409e+01 6.001354e+00 -7.673515e+00 -3.412071e+00 -7.347536e+00 -9.574629e+00 8.370010e-01 1.976385e+00 -4.799273e+00 3.576669e+00 -9.823601e-01 -2.779123e+00 -7.426746e-01 -6.863437e+00 3.259256e+00 -3.214038e+00 2.633380e-01 2.264795e+00 4.359887e-01 9.871314e-02 
4.480184e+00 -1.184316e+01 1.619821e+01 -4.737895e+00 -1.686239e+01 -8.549284e+00 -2.203416e+01 7.859400e+00 -1.151453e+01 -1.834969e+00 -1.214898e+00 -2.622837e+00 9.123611e-01 -8.888798e-01 -1.557343e+00 3.368196e+00 -1.459287e+00 1.645643e-01 -8.203799e-01 -3.598094e+00 1.289919e+00 -2.142305e+00 1.234840e+00 3.614249e+00 9.781638e-01 7.130115e-02 
2.923632e+00 -1.238360e+01 1.779305e+01 -7.541965e+00 -1.471050e+01 -1.382455e+01 -2.341266e+01 4.299378e+00 -1.439144e+01 -1.453114e+00 1.538663e+00 -1.545336e+00 9.790817e-01 -8.635010e-01 6.897562e-01 1.446331e+00 -1.504225e+00 1.514984e+00 -1.406471e+00 -9.660847e-01 -1.081919e+00 -1.266953e+00 4.251259e-01 3.355330e+00 1.155216e+00 3.846118e-02 
2.597795e+00 -1.023949e+01 1.651155e+01 -8.231774e+00 -1.343841e+01 -1.299399e+01 -2.177456e+01 2.485081e+00 -1.282940e+01 -1.013072e+00 4.813468e+00 -2.567640e+00 9.863527e-01 -5.889748e-01 1.141036e+00 -1.568996e-01 -4.400488e-01 9.544128e-01 -5.742297e-01 -1.795107e-01 -9.805627e-01 -2.744770e-02 4.186290e-01 2.338476e+00 -5.169542e-01 1.880989e-02 
2.608558e+00 -9.235059e+00 1.654157e+01 -8.266568e+00 -1.337174e+01 -1.208470e+01 -2.371431e+01 3.278917e+00 -1.335085e+01 -1.697390e+00 6.414932e+00 -3.826148e+00 9.923111e-01 -2.872930e-01 1.015457e+00 -4.877758e-01 5.862613e-02 2.835844e-01 1.591709e-01 -5.065098e-02 3.666187e-02 3.541792e-01 5.447755e-01 1.469534e+00 -1.169797e+00 5.527967e-03 
1.692846e+00 -7.712249e+00 1.603945e+01 -6.575838e+00 -1.275970e+01 -1.229036e+01 -2.278088e+01 3.466817e+00 -1.217207e+01 3.803138e-01 8.039348e+00 -4.067203e+00 9.997959e-01 3.309007e-02 5.125633e-01 -6.536770e-02 5.445608e-01 6.791874e-01 -1.260591e-01 7.044746e-01 4.358069e-01 8.201872e-01 1.079867e+00 1.120100e+00 -6.144348e-01 8.329749e-04 
1.939641e+00 -8.569932e+00 1.559022e+01 -8.076803e+00 -1.363194e+01 -1.338051e+01 -2.316275e+01 3.991819e+00 -1.294921e+01 5.740709e-01 7.273395e+00 -6.644539e+00 1.000000e+00 1.782583e-01 -1.468270e-01 -1.624514e-01 5.648597e-01 2.605904e-01 -6.162788e-01 3.927645e-01 1.608404e-01 8.481027e-01 7.335495e-01 3.914037e-01 -8.266374e-01 -6.522125e-03 
3.097704e+00 -8.009233e+00 1.666039e+01 -5.603853e+00 -9.912379e+00 -1.297638e+01 -1.852796e+01 4.307664e+00 -8.929283e+00 3.250531e+00 9.984735e+00 -4.230618e+00 9.866732e-01 2.823577e-01 -3.848554e-01 -1.554047e-01 6.593106e-01 -3.107014e-02 -3.729383e-01 -7.301296e-01 4.567266e-01 6.645317e-01 -5.148752e-02 -3.507109e-02 -7.162549e-01 -1.419169e-02 
2.797421e+00 -9.820702e+00 1.541885e+01 -5.928261e+00 -1.349245e+01 -1.482308e+01 -2.387695e+01 3.662696e+00 -1.073173e+01 5.352492e-01 7.399256e+00 -7.877627e+00 9.662619e-01 2.146096e-01 -2.434256e-01 -1.152164e-01 1.029438e+00 -5.061436e-02 -1.671534e-01 -1.537612e+00 8.927864e-01 8.926541e-01 -7.372130e-01 -2.982704e-01 -4.286102e-01 -2.127570e-02 
2.675745e+00 -9.011141e+00 1.534812e+01 -4.353556e+00 -1.298480e+01 -1.343376e+01 -2.607443e+01 5.915012e+00 -9.958157e+00 1.422870e-01 7.801061e+00 -7.031933e+00 9.457065e-01 3.151577e-01 9.520626e-02 9.369183e-02 9.070242e-01 2.456526e-01 5.553799e-01 -1.241193e+00 1.289660e+00 9.266720e-01 -9.631909e-01 -4.592429e-01 -3.696501e-01 -2.970679e-02 
3.223669e+00 -9.286106e+00 1.567028e+01 -3.554764e+00 -1.234880e+01 -1.398759e+01 -2.707758e+01 7.652077e+00 -7.971506e+00 -1.557872e+00 6.873880e+00 -7.386932e+00 9.141048e-01 7.260762e-01 4.227523e-01 3.860964e-01 9.902304e-01 1.099824e+00 1.600546e+00 3.721560e-01 1.386878e+00 8.947002e-01 -4.286515e-01 -4.274938e-01 -1.987596e-01 -3.530762e-02 
4.460369e+00 -7.800500e+00 1.700313e+01 -2.255481e+00 -9.255943e+00 -1.061723e+01 -2.313361e+01 8.761271e+00 -5.676033e+00 -5.188627e-01 7.951209e+00 -6.324216e+00 8.642178e-01 9.178322e-01 -8.951578e-02 -2.857552e-01 5.445365e-01 4.338838e-01 1.085021e+00 2.722473e-01 4.422373e-01 -4.496399e-01 -1.230870e+00 -2.059477e+00 -1.286291e+00 -3.949789e-02 
5.535490e+00 -8.312261e+00 1.652182e+01 -2.026147e+00 -9.857759e+00 -8.228624e+00 -2.348658e+01 9.173955e+00 -8.399286e+00 -1.277434e+00 5.186714e+00 -9.225284e+00 8.304682e-01 1.274300e+00 -9.893274e-02 -9.620187e-01 6.986626e-01 2.292169e-01 1.250740e+00 3.631372e-01 7.889891e-03 -1.032302e+00 -9.266300e-01 -2.664382e+00 -1.552090e+00 -4.423669e-02 
6.108995e+00 -9.945642e+00 1.349357e+01 -2.395182e+00 -1.206090e+01 -1.088814e+01 -2.650869e+01 7.365260e+00 -1.199247e+01 -6.152284e+00 -1.652743e+00 -1.254421e+01 7.900354e-01 1.352665e+00 9.497671e-02 -1.880039e+00 7.687796e-01 -5.773796e-01 1.265657e+00 -2.571125e-01 -1.055473e+00 -1.566651e+00 -7.443439e-01 -2.807018e+00 -1.915760e+00 -5.364924e-02 
8.770854e+00 -8.708199e+00 1.261497e+01 8.399874e-03 -9.800239e+00 -7.598431e+00 -2.357435e+01 8.389532e+00 -9.974798e+00 -3.374312e+00 -1.646052e+00 -1.203738e+01 7.300125e-01 1.183780e+00 8.992544e-01 -2.782174e+00 7.302240e-01 -4.973711e-01 5.995151e-01 -2.405247e-01 -2.936277e+00 -8.610657e-01 4.041653e-02 -2.550133e+00 -2.157122e+00 -6.159887e-02 
9.606012e+00 -7.127647e+00 9.556368e+00 5.711436e-01 -1.217160e+01 -4.604039e+00 -2.437529e+01 3.876119e+00 -1.272153e+01 -3.192143e+00 -2.667496e+00 -1.449697e+01 6.461994e-01 1.224457e+00 2.007225e+00 -3.255024e+00 1.100858e+00 -2.196402e-01 5.328541e-01 7.584915e-02 -4.149794e+00 3.047360e-01 1.709839e+00 -1.311887e+00 -1.873428e+00 -6.087179e-02 
9.705881e+00 -5.224986e+00 4.579552e+00 1.418106e-01 -1.228926e+01 -8.373100e+00 -2.575591e+01 -3.762858e+00 -1.234008e+01 -2.555421e+00 -7.056572e+00 -1.903452e+01 5.943918e-01 1.098922e+00 2.485095e+00 -3.856003e+00 7.328517e-01 9.684812e-01 9.626436e-02 -3.655361e-01 -3.769161e+00 1.081971e+00 1.152183e+00 -6.851096e-01 -1.429375e-01 -4.897720e-02 
1.176377e+01 -1.651123e+00 1.236158e+00 3.042403e+00 -1.191459e+01 -7.836536e+00 -2.503867e+01 -7.307515e+00 -9.286144e+00 1.987467e+00 -5.506918e+00 -1.841279e+01 5.534868e-01 1.173661e+00 2.348467e+00 -3.354020e+00 1.592604e-01 2.579968e+00 5.340607e-01 -1.685856e-01 -3.593452e+00 8.823576e-02 5.265440e-01 -1.359742e-01 1.727999e+00 -3.629199e-02 
1.318659e+01 9.790136e-01 -2.504945e+00 2.437029e+00 -5.086340e+00 -5.500861e+00 -2.507034e+01 -4.864456e+00 -6.282638e+00 -2.032018e-01 -3.651889e+00 -1.079416e+01 5.314828e-01 9.804366e-01 2.154908e+00 -1.815519e+00 -2.994077e-02 2.964014e+00 2.394536e+00 2.835738e+00 -2.691207e+00 -2.470694e+00 -9.628911e-02 1.039687e+00 3.542400e+00 -3.841905e-02 
1.373396e+01 1.512686e+00 -3.671484e+00 2.198364e-01 -2.873222e+00 -3.369855e+00 -2.556100e+01 -1.354034e+01 -1.530907e+01 -1.735533e+00 -5.049708e+00 -9.977151e+00 4.961939e-01 1.577679e-01 1.389242e+00 -4.664374e-01 -3.237490e-01 2.599000e+00 2.837614e+00 5.183941e+00 -3.264819e+00 -3.810417e+00 -2.150254e+00 6.088605e-01 3.124065e+00 -4.268671e-02 
1.362297e+01 3.967649e+00 -2.044220e+00 1.403390e+00 -1.989874e+00 1.366242e+00 -1.131605e+01 -1.410248e+01 -2.168209e+01 -1.175367e+00 -2.086743e+00 -5.540335e+00 4.309430e-01 -3.766504e-01 4.645494e-01 3.946933e-01 -6.110134e-02 1.683578e+00 2.442733e+00 6.939816e+00 -3.658631e+00 -2.725535e+00 -3.269161e+00 -9.721850e-01 1.430682e+00 -4.580019e-02 
1.233441e+01 3.800771e+00 -1.326391e+00 1.940477e+00 -4.678221e-01 2.917982e+00 -5.996109e+00 -1.901260e+01 -2.063850e+01 -8.277722e+00 -3.245189e+00 -5.419376e+00 3.903232e-01 -8.588970e-01 -4.285632e-01 8.583897e-01 2.415666e-01 3.713027e-01 1.779596e+00 5.900006e+00 -1.779816e+00 -8.051909e-01 -4.356716e+00 -1.678818e+00 1.127160e+00 -4.183350e-02 
1.200311e+01 2.157718e+00 -1.704025e+00 1.271202e+00 2.128850e+00 3.568885e+00 -1.537075e-01 -2.042148e+01 -1.724560e+01 -1.327791e+01 -9.415073e+00 -5.919633e+00 3.554173e-01 -1.027947e+00 -8.931782e-01 3.044585e-01 8.580284e-01 4.098748e-01 6.772650e-01 2.954449e+00 -7.244835e-01 -5.088806e-02 -3.703021e+00 -1.920524e+00 2.854493e-01 -3.508461e-02 
1.024941e+01 2.748353e-01 4.503670e-01 1.493763e+00 -3.076071e+00 4.426805e+00 -1.642144e+00 -1.927992e+01 -2.155327e+01 -1.746784e+01 -9.779634e+00 -4.151701e+00 3.247893e-01 -6.624762e-01 -5.517603e-01 -4.524523e-01 9.288126e-01 3.117960e-01 6.302186e-01 1.512824e+00 5.242914e-01 -7.742388e-01 -1.983462e+00 -1.561665e+00 -4.275241e-02 -3.426526e-02 
9.525737e+00 1.264726e+00 -1.410307e+00 5.916889e+00 1.363625e+00 3.998156e+00 1.279214e+00 -1.759123e+01 -2.147914e+01 -1.509541e+01 -8.422138e+00 -4.746926e+00 2.882869e-01 -4.412859e-01 -1.617612e-01 -7.674386e-01 1.069025e+00 7.153525e-01 3.589800e-01 7.438761e-01 6.789722e-02 -3.450798e-01 -1.105165e-01 -7.145134e-01 -1.024312e+00 -3.621134e-02 
1.026072e+01 1.488465e+00 -3.735512e+00 4.261697e+00 1.473771e+00 5.854439e+00 8.515520e-01 -1.780626e+01 -2.239292e+01 -1.728628e+01 -1.154998e+01 -6.219491e+00 2.525620e-01 -3.401830e-01 2.180781e-01 -3.540714e-01 6.772044e-01 1.015403e+00 4.390062e-01 1.779900e-01 5.340315e-01 1.549021e+00 6.871155e-01 -1.035539e+00 -1.574435e+00 -4.101487e-02 
9.791022e+00 7.420969e-01 -3.448278e+00 5.232360e+00 3.430692e+00 4.649968e+00 2.318825e+00 -2.081883e+01 -1.855117e+01 -1.392127e+01 -1.210247e+01 -1.000730e+01 2.104742e-01 -6.391338e-01 5.196484e-01 7.898258e-01 -1.430083e-01 2.263301e-01 8.004423e-01 1.009859e-01 9.305620e-01 2.721035e+00 3.979263e-01 -6.286483e-01 -7.081921e-01 -5.389645e-02 
8.415850e+00 1.626541e+00 -3.010042e-01 5.222050e+00 9.674120e-01 6.295930e+00 -1.271999e+00 -1.499597e+01 -1.527215e+01 -1.461934e+01 -1.311717e+01 -9.393690e+00 1.586213e-01 -1.127831e+00 5.574077e-01 7.050401e-01 -2.272127e-01 7.305360e-03 -2.823007e-01 4.464636e-01 2.125914e+00 3.266917e+00 6.525539e-01 -1.954376e-01 8.738103e-01 -7.498463e-02 
7.252502e+00 3.793930e+00 8.215684e-01 4.721671e+00 2.748455e+00 7.779622e+00 2.845920e+00 -1.434357e+01 -1.143436e+01 -1.443925e+01 -1.078179e+01 -6.700788e+00 6.577498e-02 -1.395765e+00 1.479280e-01 -1.411350e-01 -8.681407e-01 1.747611e-01 -2.248352e-01 1.534693e+00 4.022935e+00 4.152646e+00 6.808761e-01 1.045734e+00 1.882225e+00 -8.925698e-02 
5.890824e+00 2.749587e+00 -2.345235e+00 3.380978e+00 1.851416e+00 2.878109e+00 2.820323e+00 -1.041432e+01 -9.616749e+00 -1.376452e+01 -1.318751e+01 -3.503696e+00 -5.001152e-02 -1.390414e+00 -6.875652e-01 -1.508569e+00 -1.476014e+00 4.240129e-02 -8.379342e-01 1.351498e+00 3.196644e+00 4.883449e+00 2.923802e+00 2.944574e+00 2.786937e+00 -8.170973e-02 
4.074708e+00 9.202136e-01 -3.131838e+00 1.812192e+00 3.862496e+00 5.234702e+00 7.946127e+00 -2.994973e+00 -6.156435e-01 -1.094430e+01 -6.838629e+00 -3.541173e+00 -1.314943e-01 -1.372700e+00 -9.673170e-01 -1.818937e+00 -1.291976e+00 4.197977e-01 -4.382146e-01 2.035077e+00 4.198389e+00 4.906183e+00 3.598424e+00 4.092156e+00 2.582242e+00 -5.354165e-02 
3.052676e+00 -3.744271e-01 -5.867144e+00 -7.032790e-01 6.223979e-01 3.378719e+00 2.935389e+00 -4.687046e+00 3.735734e+00 -1.747802e+00 -3.658779e-01 2.961188e+00 -1.512927e-01 -1.218477e+00 -1.071237e+00 -1.463078e+00 -1.072606e+00 3.209621e-01 2.812348e-01 1.757162e+00 2.494184e+00 3.933316e+00 2.999121e+00 2.784768e+00 2.384821e+00 -2.095834e-02 
1.808077e+00 5.193520e-01 -6.512162e+00 3.039202e-01 5.461952e+00 5.338244e+00 1.296377e+01 3.784735e+00 6.420315e+00 -2.455491e+00 3.268180e+00 2.977980e+00 -1.512927e-01 -5.775337e-01 -7.608011e-01 -1.661067e+00 -7.043775e-01 -2.590914e-01 4.339232e-01 1.533804e+00 2.311581e+00 2.199021e+00 1.902251e+00 1.449731e+00 2.351829e+00 -2.571631e-03 
9.317560e-01 -2.406168e+00 -7.970465e+00 -1.227916e+00 2.656498e+00 4.232512e+00 9.097309e+00 -1.333261e+00 6.531855e+00 -3.013320e+00 -4.317076e+00 5.160832e+00 -1.449040e-01 3.219689e-01 2.171731e-01 -6.522058e-01 6.412691e-01 8.053957e-01 6.176051e-01 1.513904e+00 2.749760e+00 1.281417e+00 8.472837e-01 4.671601e-01 9.403694e-01 6.290078e-04 
2.247499e+00 -1.867922e+00 -1.038551e+01 -1.447377e+00 1.549988e+00 6.977422e+00 1.253419e+01 6.886040e+00 8.981400e+00 -8.002832e-01 2.385627e+00 7.118152e+00 -1.475468e-01 7.027148e-01 6.410713e-01 4.671303e-01 1.765921e+00 8.166943e-01 3.367661e-01 4.015330e-01 2.015879e+00 1.204735e+00 1.937878e+00 5.128912e-01 6.289973e-01 -5.116582e-04 
4.442809e+00 1.905075e+00 -7.191498e+00 3.378715e+00 6.605359e+00 5.647155e+00 1.071970e+01 7.511100e+00 8.862278e+00 1.661012e+00 2.411199e+00 5.592950e+00 -1.500206e-01 5.257820e-01 1.174834e+00 7.943175e-01 1.217770e+00 1.760126e+00 6.303329e-01 9.861099e-01 1.914404e+00 -7.463432e-01 2.227845e+00 2.073991e+00 -1.103937e-01 -1.652324e-03 
3.566124e+00 1.569087e+00 -4.565994e+00 6.830212e+00 7.570993e+00 6.314753e+00 1.416024e+01 9.441949e+00 1.127878e+01 4.896733e+00 2.468499e+00 5.906908e+00 -1.512927e-01 6.273403e-02 6.010930e-01 2.454146e-01 -1.809542e-01 1.540840e+00 6.006532e-01 5.832382e-01 -3.697252e-02 -1.013433e+00 1.348654e+00 1.204665e+00 3.661219e-01 -8.562684e-04 
2.901354e+00 1.749500e+00 -6.908636e+00 7.221404e-01 8.446624e+00 7.715511e+00 1.321483e+01 6.960807e+00 1.651450e+00 5.277394e+00 6.011444e+00 5.214485e+00 -1.512927e-01 -3.368785e-01 -2.692633e-01 -6.899109e-02 -1.430150e+00 6.072668e-01 6.844226e-01 4.044243e-01 -1.049804e+00 1.331205e-01 9.465920e-01 1.851274e+00 1.168101e+00 -2.443552e-04 
3.331897e+00 1.215331e+00 -9.299870e+00 -1.023861e+00 8.333558e+00 8.946510e+00 1.420281e+01 6.976324e+00 7.519648e+00 4.134798e+00 6.608828e+00 9.137994e+00 -1.511921e-01 -4.364638e-01 -1.045132e-01 1.782951e-02 -9.382429e-01 -6.639521e-02 -5.530049e-01 -7.411119e-01 -1.465229e+00 -8.176336e-02 -8.108781e-02 6.086281e-01 1.537548e-01 0.000000e+00 
2.875530e+00 7.356367e-01 -5.169516e+00 1.550005e-01 9.260410e+00 7.753390e+00 1.272054e+01 3.494890e+00 1.140745e+01 6.774940e+00 9.597404e+00 9.817913e+00 -1.512927e-01 -6.636447e-01 -1.403981e-01 -1.875845e-01 3.917075e-01 -4.987961e-01 -1.172634e+00 -3.063868e-01 -9.463778e-01 9.549779e-02 1.731430e-01 -5.710354e-01 -4.336718e-01 -1.006126e-05 
1.396717e+00 1.553452e+00 -5.346406e+00 2.422567e+00 6.832124e+00 3.530789e+00 1.070183e+01 3.848762e+00 5.991962e+00 3.742522e+00 3.718659e+00 4.373967e+00 -1.512927e-01 -7.370683e-01 3.815451e-01 4.632808e-01 1.131561e+00 -3.010517e-01 -9.257591e-01 8.182225e-02 -5.434865e-01 -1.483777e+00 -7.409160e-01 -1.811334e+00 -1.095567e+00 -2.012253e-05 
5.507202e-01 8.784488e-01 -9.823290e+00 9.574642e-01 6.703360e+00 4.560199e+00 1.343339e+01 3.792699e+00 2.892781e+00 6.339248e+00 4.601351e+00 5.428140e+00 -1.512927e-01 -6.299325e-01 5.583967e-01 -1.678505e-02 9.135038e-01 5.964454e-01 5.098733e-01 -1.878920e-02 -1.074773e+00 -1.953093e+00 -1.897105e+00 -1.590282e+00 -3.282326e-01 0.000000e+00 
8.089609e-01 3.051650e+00 -4.656579e+00 4.232710e+00 8.106825e+00 5.914310e+00 1.425550e+01 4.109987e+00 4.358096e+00 6.480639e-01 5.018294e-02 5.855043e+00 -1.512927e-01 -2.417657e-01 7.039899e-01 5.022100e-01 5.692939e-01 1.381570e+00 1.481060e+00 7.332808e-01 -1.091009e+00 -4.774914e-01 -1.306125e+00 7.526839e-01 1.052446e+00 0.000000e+00 
1.974583e-02 2.778521e+00 -5.598355e+00 3.817448e+00 1.160529e+01 9.110996e+00 1.084976e+01 -2.009586e+00 2.458916e+00 -1.163357e+00 3.480231e+00 7.436212e+00 -1.512927e-01 -3.259470e-01 6.094469e-01 1.214556e+00 -5.435116e-02 5.181131e-01 1.452695e+00 1.096776e+00 -4.838092e-02 1.025750e+00 -1.059652e+00 1.408493e+00 -5.573013e-01 0.000000e+00 
4.533758e-01 4.123365e+00 -4.947824e+00 3.839044e+00 1.128901e+01 8.660691e+00 1.566005e+01 1.294861e+00 3.821438e+00 9.631978e-01 8.042639e+00 8.632162e+00 -1.512927e-01 -2.175601e-01 6.131977e-01 -3.772664e-03 -2.066598e-01 -4.096413e-01 9.245765e-01 5.947522e-01 1.559466e+00 8.193868e-01 3.236592e-01 1.178186e+00 -1.565240e+00 0.000000e+00 
-9.012222e-01 3.389826e+00 -3.604890e+00 8.825413e-01 7.702834e+00 1.045048e+01 1.821499e+01 4.958358e+00 8.289858e+00 8.834186e-01 7.647588e+00 1.253074e+00 -1.512927e-01 2.136506e-01 5.671310e-01 -1.289601e-01 3.503641e-01 -3.416584e-01 -5.350274e-01 -6.906624e-01 7.659048e-01 5.122334e-01 1.243447e+00 -1.543019e-01 -6.441620e-01 0.000000e+00 
1.816444e-01 5.811986e+00 -5.672174e+00 4.666865e+00 8.009845e+00 9.867448e+00 1.354664e+01 8.423347e+00 5.539558e+00 1.242972e+00 3.857432e+00 1.120415e+00 -1.512927e-01 1.867204e-01 -1.758463e-01 -3.831935e-01 3.096008e-01 -1.007250e+00 -1.858218e+00 -2.505107e+00 -5.391033e-01 -8.594854e-01 5.026837e-01 -1.442134e+00 -1.277709e-01 0.000000e+00 
1.223865e+00 4.769866e+00 -5.880980e+00 5.155359e+00 1.153658e+01 5.832480e+00 8.453149e+00 -1.744305e+00 4.161023e+00 4.913989e+00 4.801325e+00 7.971276e+00 -1.512927e-01 2.772307e-01 -9.263794e-01 -1.045205e+00 2.623392e-01 -4.123562e-01 -1.581688e+00 -2.020423e+00 -5.003211e-01 -1.302640e+00 -6.299676e-01 -1.734958e+00 6.246141e-01 0.000000e+00 
3.244343e-01 2.554114e+00 -5.725746e+00 3.250640e+00 4.335889e+00 1.678602e+00 8.015437e+00 1.950676e+00 1.588428e+00 1.461331e+00 2.255102e+00 4.634207e+00 -1.512927e-01 -2.074950e-01 -1.521665e+00 -1.261828e+00 -9.650110e-01 -8.436409e-01 -1.260290e+00 1.481744e-01 -4.793513e-01 -6.039720e-02 -1.137376e+00 -1.108388e+00 -2.776512e-01 0.000000e+00 
4.135361e-01 3.868651e-01 -8.804130e+00 2.902350e+00 7.478030e+00 6.636468e+00 1.087848e+01 5.693088e+00 3.752223e+00 -2.375599e+00 -2.260380e-01 2.619249e+00 -1.512927e-01 -4.124163e-01 -1.090836e+00 -1.407152e+00 -1.065641e+00 -9.946302e-01 -3.851551e-01 1.430281e+00 8.461615e-01 6.415443e-01 -1.368664e+00 -9.370229e-01 -1.335224e+00 0.000000e+00 
-4.506664e-01 3.951612e-01 -1.051974e+01 9.683142e-01 5.820913e+00 3.164004e+00 1.307485e+01 2.307894e+00 5.441973e+00 -7.991114e-01 8.291744e-01 2.408173e+00 -1.512927e-01 -2.414404e-01 -4.309610e-01 -1.130360e+00 -6.498687e-01 1.312931e-01 -5.016587e-02 1.231519e+00 -2.670758e-01 9.396838e-01 -2.944397e-01 -1.796643e-01 -4.663145e-01 0.000000e+00 
