-6.993664e+00 1.592808e+00 -2.518493e+00 2.799901e+00 3.372276e+00 -1.591728e+00 7.363159e+00 3.692585e+00 8.475004e+00 4.874209e+00 9.867349e-01 2.075653e-01 -1.054735e-01 -1.250723e-01 -1.371070e-02 -3.068827e-01 -6.925818e-01 -3.468211e-02 1.126522e-01 -8.480220e-02 -1.901641e-01 -2.783362e-01 -4.952984e-01 1.090119e-01 2.113943e-01 5.317593e-03 
-7.801085e+00 2.992631e+00 -3.523525e+00 -1.021225e+00 3.737753e+00 1.659769e+00 8.086306e+00 1.776835e+00 8.623447e+00 -1.844726e+00 -7.007948e-01 -9.401822e-02 -7.688904e-02 1.622702e-01 -1.215241e-01 -2.324375e-01 -8.607911e-01 -1.077407e-01 5.919682e-01 -3.111475e-01 -6.311792e-01 -6.253214e-01 -6.375357e-01 2.094831e-01 3.606648e-01 1.235008e-04 
-7.215315e+00 8.243429e-01 -3.550391e+00 1.247555e+00 3.016128e+00 -2.654215e+00 6.577575e+00 3.699640e+00 7.009101e+00 5.757186e+00 2.375559e+00 1.415329e+00 -9.317780e-02 3.629679e-01 4.207568e-02 1.891770e-01 -2.335106e-01 -7.277517e-02 4.336182e-01 -3.899752e-01 1.824806e-01 -1.087047e-01 5.502498e-01 2.764812e-01 9.314230e-01 -3.204131e-03 
-6.071487e+00 1.369420e+00 -3.164732e+00 -7.278818e-01 3.011647e+00 1.899357e+00 6.200213e+00 5.331623e-01 6.081348e+00 1.245043e+00 1.339738e+00 1.407007e+00 -1.110039e-01 3.683724e-01 1.711737e-01 2.415857e-01 7.481317e-01 1.769621e-01 4.703708e-01 -9.449998e-01 1.378381e-01 2.895208e-01 8.363119e-01 1.442693e-01 9.776915e-01 -3.390467e-03 
-6.043623e+00 2.614792e+00 -1.752005e+00 1.485676e+00 3.371453e+00 4.565694e-01 6.356329e+00 5.226824e+00 9.202530e+00 6.080574e+00 1.348875e+00 4.114167e+00 -1.044368e-01 2.042574e-01 5.866944e-01 5.883323e-02 4.718767e-01 1.712708e+00 1.280691e+00 -5.974833e-01 -2.175111e-01 1.103632e+00 8.403955e-02 -2.441911e-01 -4.420255e-01 2.855241e-03 
-6.545069e+00 2.953275e+00 -3.214790e+00 2.600373e+00 4.444901e+00 2.456231e+00 3.471930e+00 1.702433e+00 8.974337e+00 2.175139e+00 5.338941e-01 3.445019e+00 -8.821189e-02 -5.694637e-02 3.698943e-01 -7.674421e-02 5.398771e-01 1.606028e+00 2.719809e-01 -5.828719e-01 -6.251595e-02 3.566924e-01 1.678650e-01 9.581614e-02 -9.433843e-01 2.653265e-03 
-5.957237e+00 2.965888e+00 -3.231196e+00 1.942811e+00 1.086304e+01 3.470803e+00 4.954300e+00 2.027449e+00 1.108077e+01 5.712336e+00 1.557526e+00 -1.813805e+00 -9.029758e-02 9.095383e-03 2.371674e-01 4.303683e-01 -5.337852e-01 7.829362e-01 5.065827e-01 -7.555940e-01 -1.798311e+00 -4.574998e-01 -2.868624e-01 5.198421e-02 -5.840570e-01 -1.378787e-03 
-6.399412e+00 3.043344e+00 -2.808857e+00 1.742936e+00 7.295991e+00 1.752145e+00 3.986868e+00 1.820270e+00 6.925693e+00 2.268488e+00 1.714493e+00 -3.459284e-01 -1.048071e-01 1.747934e-01 2.605677e-02 4.800732e-01 -7.401137e-01 4.247984e-01 6.942608e-01 7.527599e-01 -6.760026e-01 -2.935064e-01 5.376632e-01 3.827108e-01 -2.214151e-02 -6.022656e-03 
-6.070974e+00 3.755595e+00 1.968708e-01 -7.545314e-01 5.860589e+00 3.341526e+00 2.320890e+00 -3.823647e+00 7.939354e+00 4.599587e+00 1.018496e+00 3.089356e+00 -1.030331e-01 7.838821e-03 -4.729712e-02 -1.573340e-02 2.544511e-01 -7.592993e-01 -3.045321e-03 1.037621e+00 3.021467e-01 7.865316e-01 7.131087e-01 3.504993e-01 6.408769e-02 -3.513038e-03 
-5.614233e+00 2.688705e+00 -2.528457e+00 2.484753e-01 9.070119e+00 5.992174e+00 8.552435e+00 1.247968e+00 9.077512e+00 5.419829e+00 2.716963e+00 8.827314e-01 -1.119574e-01 4.883436e-01 8.615275e-02 -1.767634e-01 3.398339e-01 -3.849213e-01 1.263759e-01 1.155517e+00 1.954642e+00 9.170009e-01 1.215891e+00 -3.436221e-01 -1.842368e-01 4.348516e-03 
-6.310633e+00 2.906721e+00 -3.450063e+00 3.962297e+00 6.179481e+00 1.335562e+00 7.859622e+00 3.824334e+00 1.393751e+01 7.702209e+00 2.808788e+00 -2.107696e+00 -1.042876e-01 3.297015e-01 -4.227371e-02 -4.483985e-01 4.636336e-01 -1.153497e+00 -8.422792e-02 5.287844e-01 2.021788e+00 -3.125603e-01 1.703735e-01 -2.480423e-01 3.282730e-01 1.051458e-02 
-3.837865e+00 3.898544e+00 -1.869207e+00 1.083691e+00 5.211939e+00 3.387006e+00 6.995085e+00 7.769488e+00 8.511617e+00 6.796630e+00 -8.987631e-01 1.331414e+00 -8.243728e-02 3.851075e-01 1.298500e-01 2.901831e-01 1.012071e+00 -3.975563e-01 1.971632e-01 -1.626166e+00 -4.020325e-01 -1.963832e+00 -1.421153e+00 -2.366019e-01 4.657368e-01 9.601200e-03 
-5.310651e+00 2.939307e+00 -2.374747e+00 1.146029e+00 2.022195e+00 4.222970e+00 5.743486e+00 3.024532e+00 6.659500e+00 4.763055e+00 1.586147e+00 4.506380e+00 -6.522024e-02 4.351626e-01 2.907397e-01 2.254486e-01 4.847064e-01 4.191668e-01 8.805310e-01 -1.087443e+00 -1.450746e+00 -2.244731e+00 -2.003574e+00 6.586795e-02 5.009563e-01 1.058531e-03 
-4.188686e+00 3.321662e+00 -1.615200e+00 6.716966e+00 9.160980e+00 5.534286e+00 1.479674e+00 -3.622935e-01 2.897357e+00 -2.163613e-01 2.145274e+00 -9.562254e-02 -8.348513e-02 3.063006e-01 4.658364e-01 -6.940378e-01 7.091240e-01 3.777794e-01 1.085652e-01 -1.039107e+00 -1.785829e+00 -1.415845e+00 -1.932937e+00 2.127421e-01 1.942132e-01 1.769686e-03 
-3.959409e+00 4.648860e+00 -2.449824e+00 3.569192e+00 6.300794e+00 4.664577e+00 5.180115e+00 6.364963e-01 5.520987e+00 1.190832e+00 1.616109e+00 1.110603e+00 -9.847105e-02 4.693310e-01 2.832160e-01 -7.238679e-01 -6.028440e-02 4.194028e-01 -4.819580e-01 -3.598808e-01 -4.879658e-01 3.417622e-01 -7.577907e-01 1.408497e-01 4.453443e-01 -1.562238e-03 
-2.981983e+00 5.372949e+00 -5.301857e+00 3.417730e+00 4.961536e+00 3.709029e+00 2.081234e+00 3.436160e-02 2.001646e+00 -1.081946e+00 1.499665e-01 4.000368e+00 -5.696344e-02 4.019070e-01 3.596935e-01 -1.294600e+00 -9.223278e-01 -5.260462e-01 -4.506091e-01 2.221337e-01 3.622393e-01 1.310688e+00 2.459377e-01 2.367072e-01 1.322617e+00 6.123054e-03 
-3.567348e+00 3.329743e+00 -4.150758e+00 2.494225e+00 6.218931e+00 2.725809e+00 3.643302e+00 3.863755e-01 8.816166e+00 1.406893e+00 3.288049e+00 4.685106e+00 -8.629227e-02 1.792949e-01 7.719536e-02 -6.407599e-01 -3.007717e-01 -5.671306e-01 -3.753224e-01 5.213274e-02 7.697454e-01 1.091716e+00 5.799356e-01 3.615069e-03 1.601222e-01 4.914117e-03 
-2.375182e+00 5.779688e+00 -7.237734e+00 2.642811e+00 6.571681e+00 4.250624e+00 3.358749e+00 1.573963e+00 7.803207e+00 9.052966e-01 2.492840e+00 4.730209e+00 -5.895925e-02 7.410250e-02 -2.373483e-02 2.318076e-01 -9.438269e-02 3.614621e-02 -2.677373e-02 8.178726e-01 5.318403e-01 1.068379e+00 1.101069e+00 9.968879e-01 -3.752618e-02 -8.313906e-03 
-3.366335e+00 4.831468e+00 -4.685685e+00 2.452793e+00 2.660069e+00 2.517168e+00 4.802021e+00 3.715423e+00 8.078785e+00 3.096889e+00 4.627478e-01 1.546293e+00 -7.290256e-02 2.811336e-01 -1.407857e-01 1.894668e-01 -2.233775e-02 2.305051e-01 5.723562e-01 2.041970e-01 4.848762e-01 -1.848766e-01 1.595823e+00 8.714640e-01 -3.589815e-01 -1.416385e-03 
-2.711977e+00 4.503413e+00 -3.875356e+00 2.966532e+00 6.921699e+00 3.679481e+00 5.591238e+00 1.029040e+00 7.712232e+00 3.578400e+00 6.547057e+00 5.382143e+00 -1.052278e-01 -8.392280e-01 -3.332309e+00 3.190193e-01 -8.802438e-03 1.626404e+00 1.505180e+00 -1.121743e+00 5.926312e-01 3.002611e-01 2.054447e+00 8.780953e-01 3.368328e-01 4.651352e-02 
-1.993282e+00 3.263952e+00 -4.884613e+00 2.220675e+00 7.196448e+00 5.873161e+00 3.548043e+00 3.083218e+00 7.937271e+00 8.049458e+00 5.618260e+00 2.564232e+00 -7.023990e-02 -6.522581e-01 -3.015034e+00 1.741176e-01 1.054207e+00 3.348810e+00 2.606298e+00 -1.887209e+00 -2.771709e-01 -2.127731e-02 5.347801e-01 2.725097e-01 -3.262714e-01 5.300175e-02 
-7.257849e+00 -1.009810e+01 -5.543174e+00 2.714857e+00 1.243551e+01 1.009853e+01 -1.622978e+00 4.853221e+00 9.375269e+00 8.701249e+00 4.305560e+00 5.905404e+00 1.722770e-01 -4.268598e-01 -5.908884e-01 5.007585e-01 5.408766e-01 5.487761e-01 1.714814e-01 -7.552750e-01 2.962588e-01 1.160790e+00 -6.256225e-01 -2.919935e+00 -1.696850e+00 1.208876e-02 
-4.354690e+00 -2.942947e+00 -2.981188e+00 7.849665e+00 1.664721e+01 1.233914e+01 -1.026917e+00 4.174770e-01 7.140879e+00 3.209365e+00 2.946044e+00 -3.466942e-01 5.335379e-02 2.056274e-01 2.165872e+00 8.710483e-01 2.399805e-01 -1.187534e+00 -1.185508e+00 1.052153e+00 1.318526e+00 2.019866e+00 -1.092932e+00 -2.489171e+00 -8.896211e-01 -2.702553e-02 
-3.665572e+00 4.652420e+00 -2.323276e+00 2.856421e+00 4.940197e+00 1.303900e+00 4.102343e+00 3.843204e+00 1.391438e+01 2.870334e+00 -6.716513e+00 -1.646644e+00 -1.065809e-01 1.206596e+00 4.138700e+00 1.312438e+00 -2.832923e-02 -2.365769e+00 -1.966086e+00 2.949768e+00 1.659549e+00 1.636392e+00 5.379680e-01 -1.514832e+00 -1.367324e+00 -6.514404e-02 
-2.761284e+00 6.718053e+00 -2.139321e+00 3.349796e+00 5.006434e+00 4.342935e+00 5.946149e+00 1.018086e+01 1.576705e+01 5.500252e+00 -1.316559e+00 1.892150e+00 -6.593859e-02 3.295218e-01 1.782669e+00 6.037841e-01 -2.678666e-01 -1.899716e+00 -1.337363e+00 2.381151e+00 1.480599e+00 1.617603e-01 3.500795e-01 2.355330e-01 4.871529e-01 -2.099866e-02 
-2.021570e+00 5.764899e+00 5.980828e-01 4.823146e+00 6.427055e+00 4.266196e+00 9.639330e+00 8.269279e+00 1.324415e+01 1.024565e+01 -1.137299e+00 -2.050635e+00 -9.379697e-02 -9.385468e-01 -3.325489e-01 -1.654654e+00 9.209236e-01 1.859262e+00 9.086000e-01 -8.168091e-01 -1.107750e+00 -1.256830e+00 -9.843529e-01 2.879403e+00 1.868391e-01 6.813121e-02 
-3.529081e+00 5.414157e+00 -1.422946e+00 5.526969e+00 6.405202e+00 4.171175e+00 8.110347e+00 5.607435e+00 8.284796e+00 1.272107e+00 1.334102e+00 2.291066e+00 -5.803144e-02 -1.205444e+00 -7.026121e-01 -2.198031e+00 5.355286e-01 1.200116e+00 6.353215e-01 -1.831547e+00 -2.377742e+00 -6.716065e-01 -1.057008e+00 1.422256e+00 -1.935645e+00 5.601567e-02 
-7.974407e+00 3.641624e+00 -1.095473e+01 6.372452e+00 1.353712e+01 5.932780e+00 -1.063802e+00 5.911653e-01 1.137135e+01 6.264234e-02 6.355174e+00 -9.119062e-01 2.301216e-01 -6.503052e-01 -4.075618e-01 -1.543059e+00 -3.070904e-01 -1.947062e-01 5.486906e-02 -1.093650e+00 -1.504214e+00 -1.152051e+00 -4.763266e-01 8.051348e-01 -3.054271e-01 1.294010e-02 
-5.812084e+00 4.266630e+00 -7.353069e+00 5.252786e+00 7.451981e+00 6.686251e+00 2.139978e+00 2.131201e+00 1.334541e+01 5.306712e+00 2.048482e+00 -8.355442e+00 5.218047e-02 2.623750e-01 -4.235259e-01 6.600963e-01 -1.067029e+00 -1.329904e+00 -3.720792e-01 2.119616e-01 -1.467602e-01 -5.914164e-03 1.320533e+00 -7.284759e-01 2.505326e-03 -4.168070e-02 
-4.131595e+00 4.300854e+00 -4.152150e+00 3.424786e+00 4.930135e+00 3.283004e+00 7.156267e+00 2.486327e+00 4.953583e+00 5.846709e+00 2.531186e+00 1.745483e+00 -8.420241e-02 1.213801e+00 1.913627e-01 2.038702e+00 -1.442666e+00 -2.036602e+00 -1.358663e+00 1.587620e+00 3.807801e-01 -1.905089e+00 2.835084e-01 -1.295044e+00 1.243254e+00 -7.971713e-02 
-4.138613e+00 2.966913e+00 -1.523755e+00 1.665659e+00 4.059175e+00 3.635667e+00 5.060121e+00 3.926053e+00 1.146411e+01 4.982738e+00 -3.962833e-01 9.748979e-01 -1.092730e-01 1.036306e+00 -2.005771e-01 6.374500e-01 -2.069609e-01 4.994218e-01 -1.131035e+00 1.677020e-01 -2.696522e-01 -2.623742e+00 -2.013503e+00 -7.143286e-01 2.351492e+00 -2.506983e-02 
-2.742140e+00 5.248296e+00 -3.675879e+00 9.526860e-01 5.050514e+00 6.647553e-01 5.414226e+00 1.597640e+00 2.786560e+00 1.642171e+00 1.102338e+00 6.391945e-01 -8.773732e-02 6.305863e-01 -2.148494e-01 2.724563e-01 2.226793e-01 9.452904e-01 -3.069199e-01 -4.123546e-01 -3.419391e-01 -7.090842e-01 -1.337620e+00 2.795965e-01 2.775381e-01 2.142537e-03 
-1.325283e+00 2.790024e+00 -4.403954e+00 5.454031e+00 9.888901e+00 2.340200e+00 3.849509e+00 1.227284e+00 1.310210e+00 -2.658535e+00 -8.087378e-01 3.955162e+00 -7.140124e-02 5.722631e-01 1.635936e-01 3.017210e-01 1.473105e+00 9.021140e-01 3.772934e-01 2.532681e-01 3.071137e-01 -9.562042e-01 -5.972602e-01 2.192148e-01 -2.181530e-05 7.432413e-03 
-2.385328e+00 3.315051e+00 -1.349769e+00 2.643996e+00 6.741724e+00 2.396138e+00 5.699800e+00 2.126016e+00 6.485112e+00 2.979246e+00 4.135396e+00 1.643042e+00 -9.242558e-02 4.930177e-01 -3.058150e-01 -3.970562e-01 1.139234e+00 -2.389636e-01 1.783650e-01 -2.429622e-01 -2.072339e-02 5.592334e-01 8.073077e-02 -4.945690e-01 -6.227951e-01 6.934726e-03 
-1.455703e+00 4.751503e+00 -1.178205e+00 8.185528e+00 7.724141e+00 4.656443e+00 6.183673e+00 5.197433e+00 4.833813e+00 1.327900e+00 -8.167382e-01 4.728651e-01 -6.976676e-02 4.392275e-01 -3.905080e-02 -5.225257e-01 9.437779e-01 -3.190820e-01 -8.520510e-01 -1.772131e+00 -1.454105e+00 9.688174e-01 1.897945e+00 -5.434432e-02 -1.853685e+00 9.916711e-03 
-2.118416e-01 2.738482e+00 -7.274035e+00 5.283109e+00 4.938076e+00 3.984587e-01 3.032332e+00 -4.910517e-01 3.820925e+00 5.260754e-02 -1.366507e+00 -7.336327e-01 -5.388093e-02 9.513927e-01 -1.900731e-01 -1.309872e+00 1.248723e-01 5.276760e-02 -2.740338e-01 9.726896e-02 -5.775100e-01 8.409609e-01 1.570458e+00 -4.609725e-01 -2.099032e+00 1.845565e-02 
-2.158890e-01 2.883055e+00 -4.054449e+00 8.853364e+00 9.195314e+00 -9.212149e-01 -3.677412e+00 -4.734705e+00 7.486390e+00 8.294508e+00 1.670492e+00 -4.124928e+00 -4.109001e-02 1.485484e+00 -3.268543e-01 1.033459e-01 -1.762842e+00 -2.058556e+00 -2.259136e-01 1.876090e+00 5.528956e-02 5.993023e-01 6.311761e-01 1.477462e+00 -8.340066e-01 2.926531e-02 
1.751728e+00 3.298910e+00 -6.461007e+00 2.934439e+00 6.269975e+00 3.814797e+00 1.111669e+01 4.204535e+00 9.363628e+00 7.348230e+00 5.869181e-01 -6.553221e+00 -1.448572e-02 1.525393e+00 -3.302888e-01 1.609272e+00 -1.122579e+00 -2.559603e+00 7.860810e-01 1.888543e+00 1.156698e-01 -1.010962e+00 -4.358591e-01 1.353206e+00 6.849070e-02 4.631967e-02 
4.989935e+00 2.837018e+00 -1.067990e+00 5.456538e-01 -3.234588e+00 1.818706e+00 1.152195e+01 3.126088e+00 5.058973e+00 8.359690e-01 5.593857e+00 -7.873738e-01 5.686218e-02 1.106408e+00 -1.367476e-01 5.648793e-01 -9.684044e-01 -3.315161e+00 -6.199226e-01 1.402656e+00 1.565121e-01 -1.340852e+00 -4.220821e-01 2.340406e+00 2.975623e+00 3.259724e-02 
4.812210e+00 1.110056e+00 -7.209024e-01 3.824070e+00 -1.644987e+00 2.958904e+00 4.875368e+00 -3.843099e+00 -2.017450e-02 1.602581e+00 3.437840e+00 -2.059956e+00 1.287413e-01 -5.761569e-01 2.120178e-01 4.150616e-01 6.395023e-01 -1.101618e+00 -1.719826e+00 -1.785148e+00 -1.752184e+00 -1.910776e+00 -1.585861e-01 2.234215e+00 3.081381e+00 -4.791844e-03 
3.785911e+00 3.293744e+00 -4.100105e+00 3.566526e+00 -3.423010e+00 -3.592881e+00 6.456530e+00 7.167220e-02 5.474030e+00 9.056922e+00 1.194706e+01 8.506554e+00 5.028266e-02 -1.310021e+00 5.633053e-01 -8.917685e-01 2.933942e-01 5.027769e-01 -2.781835e+00 -3.192684e+00 -2.064742e+00 -1.220212e+00 3.334698e-01 3.844529e-01 1.333217e+00 -3.450366e-02 
-5.270443e-01 4.130636e+00 -2.869642e+00 4.621514e+00 8.560939e-01 -2.078541e+00 4.723656e+00 -3.029175e+00 -3.977795e-01 2.444823e+00 8.581390e+00 4.206719e+00 -3.515518e-02 -1.595437e+00 9.395234e-01 -6.199690e-01 -5.823785e-01 -1.085488e-01 -2.218644e+00 -2.790469e+00 -1.374010e-01 1.339575e-01 -3.430286e-01 -3.182827e-01 1.953716e+00 -4.528718e-02 
1.109456e+00 4.143254e+00 -4.452462e+00 1.613903e+00 -1.971244e+00 -9.571748e+00 -4.365616e+00 -7.604586e+00 -8.532825e-01 2.082197e+00 4.944346e+00 2.745372e+00 -3.370786e-02 -1.988827e+00 2.106555e-01 3.327461e-02 -4.161156e-01 1.120285e+00 5.467597e-01 -1.007678e+00 1.349286e+00 9.233658e-01 -9.321232e-01 -1.729310e+00 -4.760535e-01 -2.840619e-02 
-1.826748e+00 5.382918e+00 -3.644569e+00 1.888490e+00 -2.913614e+00 -5.144883e+00 -3.665902e+00 -6.919750e-01 3.813269e+00 3.374800e+00 5.347784e+00 1.058921e+01 -5.569935e-02 -2.176507e+00 -7.118326e-01 -4.131927e-01 -6.390580e-01 1.900741e+00 2.023384e+00 9.258870e-01 9.393388e-01 2.722881e+00 2.485651e-01 -8.468869e-01 -9.902234e-01 -1.084218e-02 
-5.508369e+00 3.720880e+00 -3.546268e+00 2.852461e+00 4.063268e+00 6.740882e-01 5.612917e+00 5.649501e+00 7.985334e+00 3.931317e+00 4.917315e+00 2.935039e+00 -8.147621e-02 -2.558205e+00 -6.118175e-01 -6.750184e-01 -2.741246e-01 2.421714e+00 2.974644e+00 3.616634e+00 3.490087e-01 2.514609e+00 -1.024443e+00 -4.190139e-01 -1.898834e+00 6.968379e-03 
-8.100666e+00 7.826596e-01 -5.388702e+00 8.069452e-01 7.342542e+00 2.915460e+00 4.363825e+00 -4.959525e+00 8.797319e+00 2.763088e+00 4.360472e+00 -8.392313e-01 -6.548190e-02 -1.324295e+00 -1.178221e+00 -1.144655e+00 -1.328125e+00 1.531238e+00 4.662054e-01 1.776891e+00 -1.329641e+00 1.530836e+00 -2.390657e+00 -8.761657e-01 -2.700282e+00 6.785621e-02 
-8.544611e+00 3.384296e+00 -6.955487e+00 7.840520e-01 5.009250e+00 1.271300e+00 9.702687e+00 -3.725767e+00 9.227738e+00 -2.734164e+00 3.342933e+00 -1.034574e+00 6.025314e-03 -1.940096e-01 -1.557721e+00 -3.691104e-01 -1.862803e+00 -7.771597e-01 -8.076791e-01 -3.831293e-01 -1.190945e+00 8.330141e-01 -1.023871e+00 -7.775377e-01 -7.978002e-01 1.755781e-01 
-6.930101e+00 -3.398945e-01 -7.663233e+00 -3.717931e+00 4.269583e+00 -3.112462e+00 3.173665e+00 -2.652544e+00 1.084624e+01 -5.245743e+00 1.754146e+00 -9.273888e-01 2.398310e-01 3.889069e-01 -1.691790e+00 1.733958e+00 -8.129144e-01 -2.615581e+00 2.312496e-01 -1.379398e-01 -4.851976e-01 7.932457e-01 1.128959e+00 -1.010126e+00 -2.486551e-03 2.186190e-01 
-7.063700e+00 -3.506446e+00 -4.254555e+00 -4.199119e+00 1.713949e+00 -3.503457e-01 4.292350e+00 -1.458715e+00 1.112594e+01 2.816375e+00 2.332790e+00 -1.009883e+00 6.437580e-01 1.654874e+00 -2.074371e+00 3.235576e+00 1.697493e+00 -1.888858e+00 -8.634794e-01 -2.093598e+00 -4.617741e-01 -1.756980e+00 -3.557855e-01 -3.099715e+00 -9.193358e-01 1.516075e-01 
-6.896587e+00 -4.230917e+00 1.930621e+00 -7.660413e-01 -4.087712e+00 4.882532e+00 6.379294e+00 -8.519039e+00 1.181445e+01 5.632613e+00 -1.850841e-01 -8.640096e-01 7.087466e-01 4.567044e+00 -1.062530e+00 1.913126e+00 2.761203e+00 -1.211074e+00 -2.313322e+00 -3.358056e+00 -1.644566e+00 -4.415895e+00 -2.187488e+00 -2.854729e+00 -5.896533e-01 6.852353e-02 
-2.869959e-01 -5.042048e+00 4.425467e+00 7.795571e+00 -2.563901e-01 -7.043593e+00 -2.368117e+00 -3.101390e+00 -4.126406e-02 -9.952270e+00 -1.118603e+01 -5.662943e+00 5.296050e-01 7.205658e+00 -6.528630e-01 -1.763544e+00 2.574652e+00 8.288379e-02 -2.749993e+00 -6.420976e+00 -2.218631e+00 -5.598937e+00 -3.333540e+00 -2.414233e+00 4.464182e-01 1.655516e-02 
1.251677e+01 -4.884746e+00 -2.437616e+00 4.090741e+00 -8.006206e-01 -1.133245e+01 -1.028638e+01 -1.005404e+01 -5.649624e+00 -9.798860e+00 -5.760092e+00 -1.549125e+00 6.395251e-01 7.386992e+00 -4.133052e-01 -5.034058e+00 -3.179898e-01 1.415083e+00 -1.122211e+00 -8.998838e+00 -1.487342e+00 -5.094575e+00 -2.233382e+00 -1.219348e+00 1.503699e+00 4.444420e-02 
1.925791e+01 -6.443847e+00 -1.088816e+01 6.245751e+00 4.848218e-01 -5.992822e+00 -1.947969e+01 -1.178437e+01 -8.136709e+00 -6.135591e+00 -6.950869e+00 1.564766e+00 7.611445e-01 4.660882e+00 -2.215742e-01 -5.198089e+00 -3.745174e+00 7.371926e-01 2.270011e+00 -8.602060e+00 -1.141975e+00 -2.435057e+00 1.446705e+00 -1.733059e-01 1.669213e+00 8.162090e-02 
2.026592e+01 -5.596544e+00 -1.558285e+01 -1.581081e+00 2.617098e+00 -1.253910e+00 -3.005911e+01 -1.161426e+01 -9.610704e+00 -7.442636e+00 -8.399405e+00 3.040631e+00 8.151978e-01 1.313706e+00 -3.425744e-01 -2.835818e+00 -3.991716e+00 5.823749e-01 3.194675e+00 -6.863306e+00 1.563771e+00 -9.179894e-01 1.585939e+00 -3.296479e-01 1.066666e-01 5.814835e-02 
1.914284e+01 -5.794020e+00 -1.499236e+01 -8.094388e+00 1.720714e+00 -7.328070e-01 -3.549206e+01 -8.031156e+00 -1.023601e+01 -3.896855e+00 -1.073290e+01 3.882456e-01 8.498732e-01 -1.375943e-01 -2.898739e-01 -4.812311e-01 -3.826982e+00 4.218332e-01 2.069985e+00 -3.396386e+00 2.683074e+00 8.492643e-01 1.173669e+00 1.499436e+00 -8.173073e-01 3.801871e-02 
1.914284e+01 -6.922531e+00 -1.456461e+01 -8.697771e+00 1.493308e+00 2.010921e+00 -3.659673e+01 -4.111791e+00 -9.189920e+00 -2.988534e+00 -5.517316e+00 -4.275320e-01 8.859025e-01 -3.069488e-01 -1.073753e+00 3.738603e-01 -1.555836e+00 7.456310e-02 6.898190e-01 -1.011437e+00 3.615505e+00 1.451108e+00 1.078715e+00 2.206887e+00 -1.394823e+00 3.142615e-02 
1.913148e+01 -7.230223e+00 -1.380344e+01 -9.330815e+00 3.155883e+00 2.724687e+00 -3.319282e+01 -2.120230e+00 -4.100780e+00 -2.494297e+00 -8.947325e-01 -7.876894e-01 9.158857e-01 -5.802590e-01 -1.486140e+00 2.525877e-01 3.837724e-01 -1.745267e-02 -3.884629e-01 -2.093315e-01 3.709751e+00 2.117688e+00 -3.866033e-01 2.136135e+00 -1.782543e+00 2.520343e-02 
1.873685e+01 -1.024721e+01 -1.430801e+01 -8.742048e+00 2.272329e+00 4.664376e-01 -3.626592e+01 3.507799e+00 -5.422780e+00 -2.750340e+00 -2.284052e+00 -3.345516e+00 9.393223e-01 -1.069797e+00 -1.913549e+00 8.348031e-01 1.277991e+00 -8.683221e-01 -1.961666e+00 -4.470177e-02 3.785114e+00 1.983495e+00 -1.371988e+00 7.270939e-01 -2.488340e+00 1.773676e-02 
1.644454e+01 -1.156238e+01 -1.385771e+01 -6.153388e+00 1.243940e+00 -1.902880e+00 -3.670412e+01 6.707803e+00 -1.531139e+00 -5.948969e+00 -1.668856e+00 -7.065476e+00 9.491804e-01 -1.473208e+00 -2.079763e+00 1.711282e+00 1.943032e+00 -2.230458e+00 -2.733977e+00 7.392014e-01 3.259853e+00 1.131838e+00 -2.147226e+00 4.531574e-02 -2.232877e+00 1.171415e-02 
1.513733e+01 -1.432420e+01 -1.036345e+01 -3.896531e+00 -1.892331e+00 -5.483627e+00 -3.506459e+01 1.039976e+01 -5.572667e-01 -8.121137e+00 -1.494784e+00 -9.730336e+00 9.579390e-01 -1.451856e+00 -1.637846e+00 3.234921e+00 2.163045e+00 -3.100211e+00 -2.397974e+00 3.140633e+00 2.416374e+00 5.181004e-01 -1.852491e+00 8.117973e-01 -7.276478e-01 8.335399e-03 
1.356520e+01 -1.559054e+01 -7.219305e+00 -2.038417e+00 -5.914080e+00 -7.970165e+00 -3.009748e+01 1.073305e+01 -8.743477e-01 -1.054503e+01 -1.062788e+00 -8.759663e+00 9.651482e-01 -1.427541e+00 -1.378028e+00 4.117610e+00 1.322060e+00 -4.235634e+00 -1.871575e+00 4.329224e+00 1.023854e+00 -1.477767e+00 -1.187781e+00 9.432445e-01 2.702109e-01 8.910984e-03 
1.291724e+01 -1.642236e+01 -1.452615e+00 1.569253e-02 -9.649718e+00 -8.489789e+00 -2.386608e+01 1.357705e+01 -3.160674e+00 -9.714768e+00 1.471901e+00 -6.136662e+00 9.730154e-01 -1.700635e+00 -2.714050e-01 4.365525e+00 6.071023e-01 -4.284193e+00 -2.538538e-02 4.680916e+00 -1.828625e-01 -2.281558e+00 1.519996e-01 1.514916e+00 9.350960e-01 1.026006e-02 
1.041687e+01 -1.740344e+01 2.274917e+00 -1.499199e+00 -1.605554e+01 -9.757675e+00 -2.065726e+01 1.023843e+01 -7.618272e+00 -1.109105e+01 1.564023e+00 -7.511259e+00 9.861971e-01 -1.838845e+00 7.431934e-01 4.309626e+00 -6.654935e-01 -3.250846e+00 1.055722e+00 3.901669e+00 -9.114150e-01 -2.708582e+00 1.687435e+00 9.392997e-01 7.292059e-01 8.284008e-03 
8.208318e+00 -1.477477e+01 6.717062e+00 -1.130628e+00 -1.824257e+01 -4.716799e+00 -1.638012e+01 9.732760e+00 -8.593097e+00 -7.088124e+00 4.766391e+00 -5.679059e+00 9.987148e-01 -1.981008e+00 1.504923e+00 3.660532e+00 -2.095894e+00 -1.983648e+00 1.292916e+00 2.206433e+00 -2.402523e+00 -2.463697e+00 1.786705e+00 1.395440e-01 8.807905e-02 6.149054e-03 
6.725436e+00 -1.269837e+01 1.024399e+01 -4.792724e+00 -1.787188e+01 -4.578052e+00 -1.433211e+01 8.098118e+00 -1.170105e+01 -3.421174e+00 1.986466e+00 -5.342435e+00 9.937185e-01 -1.579449e+00 2.233282e+00 3.140670e+00 -2.053342e+00 -5.465580e-01 1.421133e+00 1.019590e+00 -1.851691e+00 -2.371958e+00 2.596288e+00 -5.402002e-01 5.139542e-01 2.770150e-03 
4.857915e+00 -1.125028e+01 1.286551e+01 -8.817016e+00 -1.865979e+01 -4.615019e+00 -1.599648e+01 2.634588e+00 -1.343777e+01 -4.616184e+00 1.958400e+00 -6.780679e+00 1.000000e+00 -1.143119e+00 2.185426e+00 2.413700e+00 -1.064480e+00 2.691364e-02 2.182632e-01 -7.665901e-02 -1.973877e+00 -1.957032e+00 2.395722e+00 -3.358125e-01 3.972455e-01 -2.811670e-03 
4.194829e+00 -7.999279e+00 1.490405e+01 -7.922714e+00 -1.857972e+01 -2.702899e+00 -1.575112e+01 4.529063e+00 -1.705573e+01 6.544125e-01 2.670178e-01 -4.390678e+00 9.994053e-01 -8.092436e-01 1.837743e+00 1.697468e+00 1.531228e-01 -4.410814e-01 -4.473418e-01 -7.165148e-01 -2.743587e+00 -1.509426e+00 1.620744e+00 4.736020e-01 2.945812e-01 -7.658911e-03 
3.758026e+00 -6.197186e+00 1.645553e+01 -4.888033e+00 -1.775408e+01 -4.563060e+00 -1.605391e+01 1.647905e+00 -1.570092e+01 2.852692e+00 3.947052e+00 -4.168710e+00 9.818131e-01 -2.728553e-01 1.332331e+00 1.397602e+00 7.898760e-01 -5.197147e-01 -3.973822e-01 -3.291447e-01 -2.537644e+00 -6.887634e-01 1.781654e+00 6.256490e-01 7.765927e-01 -1.200300e-02 
3.229163e+00 -6.036202e+00 1.693632e+01 -5.991601e+00 -2.053014e+01 -6.840741e+00 -1.788597e+01 -5.126476e+00 -1.811660e+01 9.481089e-01 3.360149e+00 -5.175513e+00 9.645174e-01 -5.533247e-02 5.939126e-01 9.617321e-01 -1.549549e-01 -6.440372e-01 -5.079406e-01 -2.920914e-01 -3.271877e+00 2.367441e-01 -1.451772e-01 7.348177e-01 -2.548530e-01 -1.645490e-02 
3.976471e+00 -5.570163e+00 1.883738e+01 -5.833192e+00 -2.028315e+01 -4.533009e+00 -1.657478e+01 -5.225862e+00 -1.635115e+01 4.145235e+00 3.540079e+00 -2.505297e+00 9.574289e-01 1.539925e-01 4.287760e-01 8.842531e-01 -7.080572e-01 -4.557495e-02 7.002073e-01 3.391085e-01 -1.946827e+00 5.560257e-01 -6.177993e-02 7.364798e-02 1.188076e-01 -1.655036e-02 
3.808944e+00 -5.343228e+00 1.852178e+01 -8.224909e+00 -2.053537e+01 -5.257627e+00 -1.695114e+01 -8.393436e+00 -1.554689e+01 -7.177451e-01 4.144593e+00 -6.496649e+00 9.293228e-01 2.362802e-01 6.204856e-01 2.409336e-01 -3.259065e-01 5.045019e-01 1.346380e+00 5.796391e-01 -6.981409e-01 8.846977e-01 6.060968e-02 -4.297116e-01 2.319181e-02 -2.018911e-02 
4.238098e+00 -4.399793e+00 2.008406e+01 -7.311665e+00 -1.797934e+01 -1.853580e+00 -1.482578e+01 -6.452748e+00 -1.420565e+01 3.376719e+00 3.923070e+00 -2.914104e+00 9.166586e-01 2.902610e-01 7.092066e-01 -5.369312e-01 2.448053e-02 7.209265e-01 4.960422e-01 5.875662e-01 -2.584223e-01 -1.814144e-01 2.048044e-01 -1.488739e+00 -1.093126e-01 -3.153001e-02 
4.279751e+00 -3.518959e+00 1.751764e+01 -6.881897e+00 -1.915953e+01 -1.448554e+00 -1.586228e+01 -8.003737e+00 -1.476586e+01 1.635415e+00 1.020096e+00 -4.855151e+00 8.839570e-01 8.000605e-01 1.268943e+00 -1.121052e+00 1.180461e+00 1.069690e+00 -2.958756e-01 1.274633e+00 5.381147e-01 -1.157619e+00 1.521911e+00 -1.793780e+00 3.864606e-01 -4.105525e-02 
5.192373e+00 -2.936264e+00 1.665480e+01 -6.382296e+00 -1.736643e+01 -3.957335e+00 -1.418138e+01 -6.712823e+00 -1.764873e+01 3.992677e+00 -2.341366e+00 -3.872609e+00 8.224618e-01 7.384424e-01 1.790285e+00 -1.065292e+00 6.577578e-01 9.059076e-01 -8.712257e-01 1.347828e+00 -2.161949e-01 -1.276188e+00 9.199868e-01 -2.263209e+00 1.497412e-01 -4.678046e-02 
7.332108e+00 2.697214e-01 1.463116e+01 -2.787291e+00 -1.549338e+01 -5.685128e+00 -1.090018e+01 -5.572825e+00 -1.961344e+01 6.583832e+00 -1.692089e+00 -4.085093e+00 7.711450e-01 3.476636e-01 1.817858e+00 8.391913e-01 2.164501e-01 1.270981e+00 -8.716099e-01 1.670313e+00 -9.268963e-01 -1.104916e-01 9.818541e-01 -2.512293e+00 9.536754e-01 -3.988829e-02 
6.404131e+00 2.657292e+00 1.620085e+01 -6.070179e+00 -1.528288e+01 -4.091422e+00 -1.056769e+01 -8.749179e+00 -1.816280e+01 5.502445e+00 -6.036880e+00 -2.550427e+00 7.391623e-01 -3.830946e-01 2.048718e+00 2.266841e+00 4.824821e-01 2.215458e+00 -3.471076e-01 1.589518e+00 -1.949721e+00 1.458920e+00 5.722437e-02 -2.360899e+00 1.271252e+00 -4.428146e-02 
5.412190e+00 2.773551e+00 2.194057e+01 -5.955705e+00 -1.384641e+01 -5.739560e+00 -9.317562e+00 -1.162004e+01 -1.506129e+01 5.789802e+00 -9.693613e+00 -7.478659e-01 7.261653e-01 -1.224522e+00 1.564771e+00 1.504875e+00 1.251709e+00 4.207086e+00 4.885498e-01 3.348736e+00 -2.623333e+00 3.595994e+00 -1.988739e+00 -1.822639e+00 5.411692e-01 -6.943396e-02 
4.236859e+00 6.055410e+00 2.433429e+01 -2.385678e+00 -7.112628e+00 -5.665658e+00 -7.025099e+00 -1.343782e+01 -1.263021e+01 4.675814e+00 -1.014510e+01 8.150389e-01 6.235443e-01 -1.928673e+00 5.537904e-01 -3.122786e-01 2.335914e+00 6.029011e+00 1.075055e+00 5.331414e+00 -8.256545e-01 4.909331e+00 -2.915018e+00 -7.567495e-01 -2.983320e-01 -8.254272e-02 
2.293134e+00 6.394516e+00 1.808881e+01 1.629003e+00 1.456925e+00 -2.455261e+00 4.072211e+00 -1.634517e+01 -4.399763e+00 -2.946548e+00 -8.751177e+00 -3.061980e+00 4.817842e-01 -2.256193e+00 -2.891180e-01 -2.394130e+00 1.210724e+00 4.526881e+00 1.665508e+00 5.432602e+00 1.320158e+00 4.894476e+00 -3.464722e+00 4.723482e-02 -3.843465e-01 -7.333656e-02 
-1.679705e+00 3.615761e+00 1.656534e+01 1.817039e+00 7.210504e+00 -3.582932e-01 9.394490e+00 -1.051489e+01 1.053093e+00 -4.704469e+00 -1.029185e+01 -2.885030e+00 4.486393e-01 -2.293399e+00 -1.794367e+00 -3.395943e+00 -4.939157e-01 1.319677e+00 8.939090e-01 5.218658e+00 3.271030e+00 5.071911e+00 -1.471584e+00 8.277622e-01 -8.473730e-03 -3.352084e-02 
-2.910491e+00 2.547786e+00 1.385440e+01 -2.003441e+00 1.626436e+00 -6.569993e-02 9.635654e+00 -6.480716e+00 2.569441e+00 -6.843668e+00 -9.384066e+00 -8.195643e-01 4.469350e-01 -1.280226e+00 -1.751082e+00 -2.706131e+00 -1.382836e+00 -1.128798e+00 -3.631506e-01 2.192587e+00 3.136638e+00 2.024980e+00 2.216492e+00 9.602569e-01 1.084549e-02 -2.398676e-02 
-4.628325e+00 -9.930598e-01 9.471778e+00 -3.039035e+00 -5.989976e-01 -2.390893e+00 1.628647e+01 -2.014895e+00 9.244746e+00 -7.335472e-01 -5.689845e+00 -3.485377e-01 4.733647e-01 -2.615012e-01 -1.551984e-01 -2.079643e+00 -1.040919e+00 -2.402119e+00 3.570650e-01 9.194376e-01 7.987871e-02 -2.277281e+00 3.021560e+00 1.163705e+00 -9.443483e-01 -3.410831e-02 
-2.633688e+00 -5.648497e-02 8.104932e+00 -2.857142e+00 -2.823162e-01 -3.254714e+00 1.158916e+01 -4.911976e+00 1.629309e+00 6.150452e+00 -6.250893e+00 -4.275999e+00 3.494877e-01 2.976766e-01 7.539102e-01 -4.798759e-01 -7.001699e-01 -2.320844e+00 2.647704e-01 -3.211215e-01 -2.236182e+00 -5.136749e+00 2.087025e+00 -5.324383e-02 -9.674867e-01 -3.977397e-02 
-3.125612e+00 4.141904e+00 9.041857e+00 -2.960706e+00 -3.845714e+00 3.021539e+00 1.301493e+01 -1.089986e+01 -9.863244e+00 3.906270e+00 -6.039909e+00 -5.878554e+00 3.268214e-01 7.571597e-01 1.345234e+00 8.145472e-01 -1.936829e-01 -2.252600e+00 4.623238e-01 -6.608368e-01 -3.092042e+00 -7.675789e+00 -8.014027e-01 2.583366e-01 4.884706e-01 -4.457675e-02 
-2.173465e+00 3.749854e+00 1.166998e+01 -5.543455e+00 -8.354424e+00 -1.448064e+00 9.665819e+00 -1.321914e+01 -1.356031e+01 1.271550e+00 -9.475252e+00 -2.891990e+00 3.213368e-01 5.636802e-01 3.233736e-01 3.750237e-01 2.235130e-01 -1.523118e+00 7.273138e-01 9.524359e-01 -1.504486e+00 -4.991671e+00 -3.033084e+00 4.760311e-01 7.770128e-01 -2.787338e-02 
-1.072639e+00 3.829938e+00 1.176199e+01 -2.664293e+00 -7.825944e+00 -9.825994e-01 1.394395e+01 -1.332152e+01 -2.153939e+01 -2.301109e+00 -2.785982e+00 1.401811e+00 2.645564e-01 5.274541e-01 -9.677160e-01 -4.426573e-01 8.847920e-01 -2.724435e-01 2.965271e-02 1.435300e+00 1.254474e+00 -1.586217e+00 -2.986998e+00 -9.309258e-02 3.402024e-01 -2.493274e-02 
-8.417740e-01 1.716366e+00 8.619984e+00 -1.887784e+00 -5.907793e+00 2.383924e+00 1.588682e+01 -1.122358e+01 -1.749097e+01 -5.911280e+00 -5.497701e+00 -4.031117e+00 2.412533e-01 -3.888149e-01 -1.264532e+00 -1.890391e+00 9.302732e-01 1.019587e+00 1.912878e-01 1.664228e+00 2.529481e+00 1.032947e+00 -1.063767e+00 -6.649590e-03 -9.710054e-02 -3.147218e-02 
-1.154187e+00 3.200685e-01 8.353569e+00 -3.645814e-01 -6.431247e+00 1.253808e+00 1.708092e+01 -5.625277e+00 -1.582899e+01 -7.437306e+00 -8.494148e+00 -3.607979e+00 2.421995e-01 -4.215065e-01 -8.130471e-01 -2.309967e+00 2.124736e-02 1.483005e+00 -2.058709e-01 5.504729e-01 2.222970e+00 2.724112e+00 6.389508e-01 -4.584533e-01 5.158423e-01 -2.996747e-02 
-4.076765e+00 -8.178709e-01 3.922237e+00 -2.041945e+00 -3.953838e+00 -1.609829e+00 1.641847e+01 -4.419860e+00 -1.125077e+01 -1.479186e+00 -6.654418e+00 -8.725977e-01 1.751544e-01 -1.704108e-01 -4.827010e-01 -2.103664e+00 -2.389781e-01 1.463095e+00 -3.801829e-01 -4.806165e-01 1.662504e+00 2.321895e+00 9.384028e-01 4.014851e-01 1.333285e+00 -3.931692e-02 
-1.562675e+00 1.031822e+00 2.561029e+00 -2.480976e+00 -1.387897e+00 -1.507723e-02 1.643049e+01 -5.608533e+00 -1.103893e+01 -1.322402e+00 -4.499890e+00 2.401763e+00 1.477685e-01 -8.246231e-02 -4.825937e-01 -1.910750e+00 -5.784372e-01 1.562011e+00 3.514895e-01 -8.373960e-01 1.506612e+00 2.010987e+00 -2.821919e-01 1.259738e+00 1.892433e+00 -3.624404e-02 
-1.489584e+00 -1.053015e+00 9.979353e-01 -2.024477e+00 -1.113992e+00 1.117452e+00 1.380896e+01 -2.919430e+00 -8.276527e+00 -4.276719e+00 -5.487404e+00 -3.695626e-01 9.188414e-02 1.778773e-01 -4.698461e-01 -5.299401e-01 -5.735053e-01 3.654214e-01 7.153744e-01 -1.286086e+00 1.852271e+00 1.969828e+00 -1.603709e+00 1.080290e+00 9.185463e-01 -2.009084e-02 
-2.860089e+00 -1.975328e+00 2.619703e-01 -3.265501e+00 -4.111481e-02 1.647615e+00 1.419870e+01 1.157566e+00 -7.261182e+00 -7.449500e+00 -2.778967e+00 5.602671e+00 1.026144e-01 -7.517815e-03 -3.889086e-01 -8.836038e-01 1.355552e-01 2.355262e-01 -4.952843e-02 -1.270511e+00 2.891816e+00 2.060975e+00 -1.002828e-01 2.076607e+00 1.072690e+00 -1.704395e-02 
-2.538671e+00 -1.663526e+00 2.422065e+00 -4.517208e+00 -2.800122e+00 1.135696e+00 1.110394e+01 1.458445e+00 -3.290506e+00 -6.434183e+00 -2.113429e+00 2.119680e+00 9.727722e-02 7.052038e-01 4.764562e-01 -8.411686e-01 1.172211e+00 7.500729e-01 -1.154987e+00 -1.228900e+00 2.006467e+00 1.209318e+00 5.274597e-01 2.865866e+00 1.165934e+00 -2.004036e-02 
-1.075721e+00 -6.074659e-01 -2.569055e+00 -5.568339e-01 6.327996e-01 -2.718414e-01 1.143045e+01 6.661608e+00 -3.227068e+00 -7.450842e-01 4.196157e+00 6.520592e+00 5.985218e-02 1.076834e+00 1.043645e+00 -1.098343e+00 1.700896e+00 6.322387e-01 -9.041014e-01 -1.198567e+00 9.663807e-01 5.310796e-01 3.469381e-01 2.418435e+00 2.162809e-02 -3.383115e-02 
1.144251e+00 6.453345e-01 -1.792395e+00 2.482246e+00 2.299416e+00 -3.697755e+00 9.048583e+00 4.360883e+00 -4.246992e+00 -4.991628e+00 5.354366e+00 5.001144e+00 1.306343e-02 6.676999e-01 9.545237e-01 -9.885241e-01 1.653464e+00 6.563686e-01 -8.170944e-01 -9.725957e-02 1.277364e+00 3.651240e-01 -4.257461e-01 8.771906e-01 5.283953e-01 -3.397749e-02 
6.826210e-01 2.088468e+00 -3.122516e+00 1.739250e+00 5.703101e-01 -4.561661e-01 9.233543e+00 4.538251e+00 -4.127541e+00 -6.436087e+00 5.579311e+00 4.270079e+00 -2.443445e-02 1.990228e-01 9.672725e-01 3.655144e-01 7.553750e-01 9.558906e-02 4.682074e-01 1.251812e+00 1.926108e+00 8.931772e-01 -4.745145e-01 -1.967562e-01 -4.551993e-02 -2.785320e-02 
-7.934284e-02 1.761125e+00 -2.243824e+00 2.602069e+00 5.129652e-01 -2.857614e+00 1.171609e+01 8.906944e+00 -1.014650e+00 -5.717412e+00 1.580947e+00 5.886912e+00 -3.046691e-02 -5.758117e-01 4.915326e-01 -1.337477e-01 7.157835e-01 7.575327e-01 1.460671e+00 6.415431e-01 1.422647e+00 5.612725e-01 6.947827e-01 -4.480275e-01 4.646810e-01 -1.855034e-02 
5.311899e-01 3.671001e+00 -5.157681e-01 3.160130e+00 2.003970e+00 1.649125e+00 1.635575e+01 1.401912e+01 -3.773527e-01 -2.754765e+00 5.099085e+00 5.850108e+00 -5.764866e-02 -7.390473e-01 4.890602e-01 -4.846552e-01 3.580198e-01 1.080746e+00 4.969166e-01 -7.435991e-01 -3.495460e-01 5.433190e-01 9.946202e-01 -3.357371e-01 7.814925e-01 -1.145434e-02 
-1.659092e+00 2.311731e+00 -3.764508e+00 5.350723e+00 5.370249e+00 2.552956e+00 8.695194e+00 6.733686e+00 -3.315723e+00 -3.358375e+00 3.354341e+00 6.534534e+00 -6.308115e-02 -1.261108e+00 1.244299e-01 -1.189846e+00 -6.097234e-01 5.464414e-01 3.543921e-01 -1.465129e+00 -1.932455e+00 8.695187e-02 3.877151e-01 -3.253790e-01 -9.532078e-01 -9.875333e-03 
-2.222741e+00 4.258466e+00 -4.785450e+00 2.155022e+00 3.545401e+00 -6.768683e-01 7.025998e+00 3.877150e+00 -2.604089e-01 -2.642504e+00 3.013928e+00 7.853730e+00 -6.539905e-02 -1.152228e+00 -2.974868e-01 -1.397730e+00 -5.495073e-01 6.056899e-01 -2.470600e-01 -2.346850e+00 -2.498620e+00 1.721724e-01 -3.702245e-01 -1.538063e+00 -1.325530e+00 -2.681136e-03 
-5.007919e+00 2.089542e+00 -6.058212e+00 5.600607e-02 2.474457e+00 7.734382e-02 9.055328e+00 4.315651e+00 -6.383624e-01 -3.834967e+00 9.966307e-01 1.190624e-01 -7.596838e-02 -6.716100e-01 -5.950435e-01 -9.131207e-01 -6.400286e-01 1.452330e-01 9.391743e-01 1.057775e-01 -3.142518e-01 1.876121e+00 5.323972e-01 -2.522877e-01 -5.962136e-01 -4.904151e-04 
-3.555538e+00 2.294662e+00 -6.357564e+00 3.059952e+00 6.480316e+00 1.651632e+00 4.441437e+00 2.735036e+00 -8.551712e-01 -4.367591e+00 -1.412374e+00 2.430193e+00 -6.461072e-02 -5.252841e-01 -9.102508e-01 -4.502903e-01 -1.939172e-01 8.480119e-01 9.699866e-01 7.062911e-01 4.359876e-01 1.702332e+00 5.773952e-01 8.360100e-01 -2.062087e-01 -9.598112e-03 
-4.350743e+00 3.184149e-01 -7.544055e+00 1.698115e+00 4.628956e+00 6.084578e+00 1.051636e+01 5.733484e+00 6.362265e+00 1.661541e-01 4.306054e+00 6.265235e+00 -6.592739e-02 -4.408535e-01 -5.920104e-01 -4.587108e-01 -8.758534e-01 5.888454e-01 3.624024e-01 -1.470927e-01 -5.779403e-01 1.968234e+00 -2.379408e-01 -7.653990e-01 1.021718e-01 -1.211491e-02 
-5.177750e+00 5.927754e-01 -6.293981e+00 3.643811e-01 6.708210e+00 1.169447e+00 9.826937e+00 5.348171e+00 4.750937e+00 -1.756089e+00 5.539267e+00 3.749601e+00 -1.184101e-01 -4.565923e-01 -3.444862e-02 5.128947e-01 -6.318464e-01 -1.033944e+00 -7.649297e-01 -1.366087e+00 -7.367530e-01 2.296522e+00 2.419267e-02 -2.969917e-01 -1.118671e+00 -1.015207e-02 
-6.401081e+00 -1.956668e-02 -8.383557e+00 -2.975476e+00 5.304737e+00 2.130448e+00 5.627115e+00 1.193824e-01 6.399753e+00 -6.330422e+00 -6.306185e+00 -2.978230e-02 -1.096432e-01 -1.386521e-01 4.742082e-01 1.123500e+00 -1.600336e-01 -2.868672e-01 -1.043076e+00 -2.150092e+00 -1.083024e+00 5.139831e-01 -5.139098e-01 -1.219861e+00 -1.413579e+00 -5.713833e-03 
-4.813331e+00 2.291409e+00 -3.373339e+00 2.237516e+00 9.727073e-01 -1.959513e-01 5.562735e-02 1.858322e+00 1.060870e+01 -9.983400e-01 2.408787e+00 -1.565242e-02 -9.351313e-02 2.000942e-02 2.978631e-01 5.855531e-01 -1.732918e-01 -1.183947e+00 -9.660260e-01 -1.435081e+00 -1.450352e-01 -6.072710e-01 2.865025e-01 -2.298952e-01 -7.124236e-01 5.862951e-03 
-5.226213e+00 1.840139e+00 -3.386875e+00 -3.862038e-02 6.062372e+00 1.551899e+00 4.651554e+00 2.063290e+00 6.003301e+00 -2.782269e+00 -2.280102e-01 1.079968e+00 -1.069450e-01 4.856898e-01 5.863189e-01 -7.797289e-02 -3.469404e-01 -4.424998e-01 -5.438088e-01 6.978446e-01 7.632729e-01 -2.103641e+00 2.563388e-01 9.685892e-01 3.959884e-02 5.661034e-03 
-5.665136e+00 1.152238e+00 -5.864556e+00 -1.970506e+00 4.096570e-01 -3.371408e+00 3.139310e+00 3.651042e+00 1.912808e+00 -2.097653e+00 1.350704e+00 -3.673923e-01 -9.044445e-02 5.837581e-01 5.741896e-01 -9.129438e-01 -7.550310e-01 1.903739e-02 -9.289145e-02 1.371846e+00 3.246789e-01 -1.765381e+00 -1.610131e-01 -2.407496e-01 9.493179e-01 8.712458e-03 
-3.546729e+00 3.481613e+00 -7.527813e+00 -2.606167e+00 3.373762e+00 9.991327e-01 7.574496e+00 3.039387e+00 2.294917e-01 -4.499072e+00 -9.341971e-01 3.440819e-01 -8.287239e-02 4.614682e-01 5.743582e-01 -3.992158e-03 3.315327e-01 -2.747989e-01 -3.496426e-01 3.160678e-01 6.865979e-01 -9.116790e-01 -2.991835e-01 6.882933e-01 1.418630e+00 4.878843e-03 
-2.734282e+00 4.341620e+00 -5.867589e+00 -2.538663e-01 2.412199e+00 -3.840255e-01 5.453387e+00 2.993668e+00 4.668696e+00 -9.450041e-01 1.558132e+00 5.098880e+00 -6.198716e-02 1.724104e-01 3.565628e-01 9.040968e-01 8.829349e-01 6.868243e-01 6.736672e-02 1.371447e-01 7.133427e-01 -3.854221e-01 -5.869157e-01 7.562016e-01 1.671065e+00 -2.657712e-03 
-4.384299e+00 3.117239e+00 -3.405319e+00 7.607236e-01 3.687106e+00 -1.690005e+00 5.074854e+00 5.824966e+00 6.696224e-02 -4.854511e+00 3.109742e+00 5.439981e+00 -9.677947e-02 -3.325157e-01 -1.953130e-01 1.070726e+00 7.748371e-01 1.901595e-01 -6.684257e-01 -5.377817e-01 8.402455e-01 -4.926793e-01 -4.620386e-01 9.639488e-01 1.053290e+00 -6.260646e-03 
