-7.919842e+00 4.928582e+00 2.731253e+00 -7.030876e-01 4.352080e+00 -2.053574e+00 1.941138e+00 2.926258e-01 -6.688384e-01 1.840171e+00 3.158267e+00 -2.352130e-01 -7.816422e-02 -3.097270e-01 2.641599e-01 8.981348e-01 9.152207e-01 9.564703e-01 4.114971e-01 1.059550e+00 1.051466e+00 2.195035e-01 9.412138e-01 4.932648e-01 4.473370e-01 -1.719379e-03 
-8.243346e+00 6.288424e+00 5.665596e+00 1.439025e+00 4.895980e+00 -1.323624e+00 4.881358e+00 -1.586205e+00 -2.435221e+00 5.586766e+00 2.505070e+00 3.252077e-01 -8.894289e-02 -4.765741e-01 4.793159e-01 9.021088e-01 6.156930e-01 3.722316e-01 7.081238e-01 1.330828e+00 7.880859e-01 6.547098e-02 7.559247e-01 8.804525e-01 3.895277e-01 -2.736986e-03 
-9.306725e+00 5.569461e+00 5.754755e+00 2.801960e+00 8.862481e+00 -3.610633e-01 5.768777e+00 6.489372e+00 1.311870e+00 4.672942e+00 5.951189e+00 1.721261e+00 -8.137178e-02 -6.568949e-01 5.154616e-01 7.449542e-01 1.234944e-01 -9.131540e-01 -7.082832e-02 6.872222e-01 3.422115e-01 3.850312e-01 1.597684e+00 3.585796e-01 9.872199e-04 -1.038241e-03 
-9.609271e+00 7.004723e+00 5.730046e+00 6.228538e-01 3.958038e+00 6.407899e-01 6.681456e+00 1.134682e+00 -1.331838e+00 4.203408e+00 6.164068e+00 7.341883e-01 -9.024537e-02 -4.014907e-01 -6.645477e-02 -6.100011e-02 -4.881369e-01 -1.355754e+00 2.054558e-02 -1.029119e-01 4.343742e-01 9.233152e-01 7.008065e-01 2.528572e-01 -4.302083e-01 -1.514471e-03 
-1.052135e+01 7.147740e+00 6.423799e+00 3.224701e-01 2.552810e-01 -3.389923e+00 4.477200e+00 6.432394e-01 7.046257e-01 1.052027e+01 3.121665e+00 -4.347672e-01 -8.270419e-02 -1.761084e-01 -4.249141e-01 -3.060517e-02 -2.200583e-01 -7.887465e-01 2.539380e-01 -6.301680e-01 -4.883890e-01 1.368509e+00 9.857062e-01 -2.200004e-01 -1.460733e+00 -2.025473e-03 
-9.643485e+00 5.167010e+00 5.026074e+00 2.380856e-01 2.420809e+00 2.935331e-01 5.012588e+00 3.508733e+00 2.484977e+00 6.167135e+00 5.184117e+00 -7.478195e-01 -9.584904e-02 -3.923059e-01 -7.497629e-01 -1.082003e-01 1.253663e-01 4.097293e-01 -8.301377e-02 -5.228587e-01 -2.365599e-01 7.725688e-01 2.245781e-01 -4.897736e-01 -8.648303e-01 2.177715e-03 
-1.017016e+01 4.363747e+00 5.953715e+00 1.894053e+00 5.687364e+00 1.082255e+00 3.452371e+00 2.860402e+00 6.246009e+00 8.619609e+00 5.341162e+00 -4.841401e+00 -8.869731e-02 -9.166412e-02 -6.787220e-01 -6.875194e-02 -1.261523e-01 2.737899e-01 -5.880604e-01 -8.246209e-01 -7.996839e-01 -7.128451e-02 -8.041830e-01 3.230256e-01 -1.340610e-01 -1.643133e-03 
-1.174640e+01 4.647905e+00 5.424087e+00 4.638939e-01 3.290643e+00 -2.010368e+00 4.579576e+00 -1.156699e+00 -2.396856e-01 6.276629e+00 2.605452e+00 -1.386646e+00 -7.636023e-02 -5.242939e-02 -7.554077e-02 3.510458e-01 -2.989816e-01 -6.843003e-01 -1.709597e+00 -3.002167e-01 -3.447226e-01 1.999803e-01 3.288736e-01 -4.966377e-01 2.405048e-01 -3.138924e-03 
-9.928218e+00 4.013683e+00 5.881033e+00 -4.211957e-01 1.189313e+00 -5.178275e+00 5.706005e-01 -1.022465e+00 1.710534e+00 6.444608e+00 6.026126e+00 -7.856591e-01 -1.006643e-01 4.870451e-01 -9.791183e-03 -2.612885e-01 -7.172408e-01 -6.381418e-01 -9.462856e-01 -2.168570e-01 6.706017e-01 3.197323e-01 -7.482227e-01 -1.113045e+00 1.299055e+00 -4.116642e-03 
-1.002660e+01 4.964338e+00 6.817644e+00 -9.919836e-02 1.248332e+00 -5.124185e+00 4.952389e+00 3.726553e+00 5.752616e+00 8.899004e+00 2.358447e+00 -1.573166e+00 -1.055602e-01 9.782006e-01 -3.732875e-01 -1.684368e+00 -3.210848e-01 6.724339e-01 1.610421e+00 8.772098e-01 5.570458e-01 6.901846e-01 -9.412380e-01 1.637616e-01 1.619875e+00 -2.268159e-03 
-8.594831e+00 4.156574e+00 3.950494e+00 -1.410605e+00 3.517810e+00 -2.092265e+00 2.181680e+00 3.771785e+00 4.848520e+00 3.567308e+00 -1.005577e-01 1.747134e+00 -9.468055e-02 9.085425e-01 -6.464213e-01 -2.296443e+00 4.804154e-01 2.703595e+00 2.721037e+00 1.061626e+00 -6.369202e-01 -2.003845e+00 -2.027070e+00 -4.502733e-01 1.406984e+00 9.631539e-03 
-7.522088e+00 2.710022e+00 -2.032482e+00 -6.468251e-01 5.488564e+00 4.498734e+00 8.160086e+00 -7.685944e-01 1.642244e+00 3.009089e+00 6.487601e+00 5.446332e+00 -9.069288e-02 1.305166e+00 -9.589055e-01 -2.864873e+00 4.321175e-01 2.310016e+00 1.649552e+00 -2.790012e-01 -1.677350e+00 -3.207481e+00 -2.383464e+00 -3.659664e-01 1.202211e+00 1.857563e-02 
-6.637763e+00 1.908735e+00 -1.176117e+00 2.254695e+00 1.258717e+01 3.615449e+00 4.274882e+00 -1.959492e+00 -6.253505e+00 -7.457826e-01 1.710182e+00 2.739511e+00 -5.994022e-02 1.384881e+00 -7.267472e-01 -2.143607e+00 4.907499e-01 1.719534e+00 9.086326e-01 -4.050937e-01 -1.739992e+00 -2.027822e+00 -6.451629e-01 3.883743e-03 5.357720e-01 1.454116e-02 
-4.479309e+00 1.293731e+00 -4.943414e+00 2.287392e-01 8.263729e+00 2.697190e-01 2.510782e+00 -1.794557e+00 -4.733775e+00 -8.617730e-01 -3.767554e-01 3.941702e+00 -3.005219e-02 1.629631e+00 -4.703366e-01 -4.568589e-01 2.085897e-01 5.868573e-01 3.142034e-01 -9.499080e-01 -1.762511e+00 -3.046673e-01 1.609106e-02 -5.824694e-01 8.204846e-02 1.155567e-02 
-3.191813e+00 1.230984e+00 -5.312074e+00 6.053621e-01 1.072790e+01 4.565405e+00 2.980863e+00 -4.415197e+00 -2.102582e+00 2.276924e+00 3.351039e+00 5.178308e+00 -5.229509e-02 1.236987e+00 -3.005926e-01 -2.012486e-02 3.145253e-01 -7.314655e-01 5.164855e-01 -4.081772e-02 -1.086446e+00 2.759829e-01 4.874911e-01 4.952437e-01 4.287458e-01 1.198220e-02 
-1.096910e+00 6.972142e-01 -2.248798e+00 1.220790e+00 9.352489e+00 5.594773e+00 4.057555e+00 -8.353297e+00 -1.956554e+00 1.578191e+00 2.754826e+00 4.637176e+00 -3.673708e-02 7.412084e-01 1.766988e-01 1.046484e+00 2.046155e-01 -1.535546e+00 -8.285740e-01 9.441550e-02 1.002504e-01 -1.594650e-01 5.931603e-01 1.103396e+00 -1.306017e+00 1.317990e-02 
-2.144028e+00 7.040300e-01 -2.624050e+00 3.331296e+00 8.385467e+00 3.535350e+00 3.297407e+00 -4.112352e+00 -6.262201e+00 4.716914e-01 2.620610e+00 4.535503e+00 3.313243e-03 4.967965e-01 2.382559e-01 1.975767e+00 7.450032e-03 -3.777725e+00 -3.976337e+00 2.766454e-01 1.779918e+00 -1.447816e-01 7.819370e-01 1.661253e+00 -2.601942e+00 3.052114e-02 
-1.297160e+00 2.440702e+00 -1.055006e+00 -1.111500e-01 1.757214e+00 -3.358123e+00 2.824588e+00 -1.444728e+00 -3.451291e+00 3.006644e+00 5.505439e+00 -2.266978e+00 8.043170e-03 -3.648412e-01 9.969336e-01 2.568773e+00 1.032595e+00 -3.344134e+00 -5.110778e+00 -5.913429e-01 1.821700e+00 6.939120e-01 1.489772e+00 2.052454e+00 -1.473295e+00 4.485376e-02 
-6.077056e-01 1.550519e+00 3.969866e+00 1.308582e+00 -4.363087e+00 -1.083983e+01 4.980573e+00 1.030108e+00 -2.079122e+00 5.472382e+00 1.028200e+01 -4.379323e+00 7.792050e-02 -1.419190e+00 8.177098e-01 2.143948e+00 2.288063e+00 -4.473090e-02 -9.258364e-01 -1.132718e-01 3.810117e-01 1.467488e+00 6.147555e-01 3.067230e-01 -4.133958e-01 5.305129e-02 
-3.689277e+00 5.258638e+00 7.298110e+00 7.395121e+00 -9.939060e-01 -1.277153e+01 2.592573e-01 -1.816028e+00 -5.785333e-01 6.526703e+00 9.186400e+00 1.728112e+00 1.502281e-01 -2.511827e+00 -2.677971e-01 5.622976e-01 2.043550e+00 7.966915e-01 9.787334e-01 -7.562383e-01 -1.095464e+00 8.117369e-01 -7.631515e-01 -1.390574e+00 1.020749e+00 6.910007e-02 
-8.043921e+00 3.383611e+00 3.919134e+00 1.101848e+01 9.537372e+00 3.612870e+00 4.013713e+00 -2.021643e+00 -3.611377e-01 1.785439e+00 2.313745e+00 4.709797e-01 1.974772e-01 -3.065279e+00 -1.094095e+00 -8.878252e-01 8.427832e-01 1.133278e+00 2.605912e+00 -1.039438e-01 -1.793962e+00 2.770209e-01 -6.043588e-01 -1.368152e+00 1.543856e+00 7.363327e-02 
-1.013818e+01 1.851704e-01 1.781848e+00 5.251653e+00 -1.209558e+00 -5.690808e+00 -4.731741e-01 -5.396173e+00 -2.515980e-01 1.034358e+00 2.536697e+00 4.116137e-01 2.937651e-01 -2.973342e+00 -2.408206e+00 -1.997977e+00 -1.133637e+00 1.057669e-01 2.821812e+00 1.899312e+00 -5.668131e-01 7.152599e-01 4.231524e-02 -1.105333e-01 1.522261e+00 7.601766e-02 
-1.270964e+01 -1.383224e+00 2.288871e+00 6.594232e+00 1.411127e+00 -1.350631e+00 4.827070e+00 -6.149633e+00 -8.574845e-01 5.196760e+00 6.766089e+00 3.998206e+00 3.743183e-01 -2.596033e+00 -2.036465e+00 -1.340910e+00 -1.349530e+00 -3.568677e-01 -2.042767e-01 2.001430e+00 1.664762e+00 1.826243e+00 1.371305e+00 2.243212e-01 -1.721006e-01 7.453371e-02 
-1.622313e+01 -4.398973e+00 -1.876641e+00 3.939058e+00 3.598051e+00 3.819286e+00 9.349138e+00 -2.586099e+00 3.245940e+00 5.032619e+00 6.407562e+00 7.575804e+00 4.418958e-01 -2.052721e+00 -1.665282e+00 -9.499642e-01 -2.464498e-01 1.596719e+00 1.631580e+00 2.030502e+00 1.438870e+00 1.538841e+00 5.989214e-01 -1.274970e+00 -1.800482e+00 6.015915e-02 
-1.798162e+01 -4.506643e+00 -9.561706e-01 4.927125e+00 5.349229e+00 -2.163560e+00 9.109707e+00 4.897129e+00 7.021306e+00 6.642835e+00 1.499918e+00 -3.971618e+00 4.960804e-01 -1.003141e+00 -1.615801e+00 -1.078330e+00 -3.734500e-01 7.108524e-01 9.877790e-01 -1.107869e-01 -7.442374e-01 5.536411e-01 -2.215999e+00 -2.474616e+00 -2.964404e+00 4.116698e-02 
-1.776580e+01 -6.579527e+00 -1.345453e+00 4.852957e+00 4.804984e+00 2.873557e+00 7.538019e+00 -3.725201e+00 3.503209e+00 3.305928e+00 -1.205068e+00 -4.605886e+00 5.336798e-01 8.695072e-01 -3.164147e-01 1.568146e-01 -1.595926e-01 -2.311862e-01 -6.071068e-01 -2.361634e+00 -2.402508e+00 -2.611961e+00 -2.912134e+00 -1.513716e+00 -2.416595e+00 6.185162e-03 
-1.695401e+01 -8.371951e+00 -3.368375e+00 4.270032e+00 4.361922e+00 4.061129e+00 5.178695e+00 -9.301269e+00 1.782087e+00 -5.019891e+00 -1.800675e+00 -4.732971e+00 5.342612e-01 3.045710e+00 7.372004e-01 8.526129e-01 -4.577875e-02 5.582486e-02 -2.581857e-01 -2.855334e+00 -2.723230e+00 -2.932235e+00 -1.569438e+00 4.427201e-01 -3.585776e-01 -4.002684e-02 
-1.238939e+01 -4.048393e+00 1.135340e-01 3.469641e+00 2.935773e+00 -2.328592e+00 -4.935274e-01 -7.499440e+00 -7.194253e+00 -3.696688e+00 4.892765e-01 -4.126493e+00 4.537312e-01 7.427893e+00 2.387087e+00 5.370148e-01 -3.083795e+00 -4.134069e+00 3.497352e-02 -2.610975e+00 -1.291739e+00 -2.655274e+00 -7.121812e-01 5.368654e-01 1.592969e-01 9.555024e-03 
-5.441269e+00 -2.086208e+00 2.577400e+00 5.389889e+00 6.562959e+00 -8.534134e-01 -1.151190e+00 -6.831899e+00 -2.291138e+00 2.296953e+00 2.866347e+00 -6.004203e+00 3.359205e-01 8.507194e+00 1.717178e+00 9.531784e-03 -5.250475e+00 -7.476280e+00 2.505931e+00 -2.888925e+00 4.550388e-01 -2.953772e+00 8.450522e-02 7.754347e-01 2.274976e-02 1.029559e-01 
1.361729e+01 2.213037e+00 -1.633266e+00 -1.112595e+01 -1.696588e+01 5.505695e+00 -2.351913e+00 -1.141858e+01 -7.736550e+00 -3.913400e+00 -8.542517e-01 -3.173786e+00 6.806253e-01 6.403619e+00 4.782920e-02 -6.375507e-01 -6.307610e+00 -8.600583e+00 4.857966e+00 -1.991685e+00 6.596526e-01 -2.583074e+00 -6.479769e-01 1.857274e-01 -3.709072e-01 1.590807e-01 
1.257861e+01 -2.916778e+00 -2.447316e+00 -1.468455e+01 -2.306865e+01 1.267364e+01 -8.336739e+00 -5.066504e+00 -1.271562e+01 -4.489009e+00 2.748263e+00 -5.095575e+00 9.355938e-01 2.911285e+00 -6.882654e-01 -2.512818e-01 -5.732358e+00 -7.219068e+00 4.293969e+00 -1.627286e+00 1.065296e+00 -2.572057e+00 -1.403439e+00 -5.062723e-01 -4.440540e-01 1.485784e-01 
1.061876e+01 -3.393962e+00 -5.618610e-01 -1.803119e+01 -2.525134e+01 1.519771e+01 -6.859178e+00 -5.083875e+00 -1.489738e+01 -3.543592e+00 1.476955e+00 -6.435342e+00 9.492979e-01 -1.145003e+00 -5.187677e-01 6.717937e-01 -2.311414e+00 -2.018296e+00 1.997154e+00 -2.697560e-01 8.152391e-01 -9.044628e-02 -8.013619e-01 -3.232105e-01 -1.116346e+00 5.351524e-02 
1.061442e+01 -2.724036e+00 7.852883e-01 -1.981928e+01 -2.538965e+01 1.577042e+01 -7.033986e+00 -4.672774e+00 -1.157101e+01 -4.905146e+00 -8.306183e-01 -6.593695e+00 9.444763e-01 -8.968980e-01 1.267087e+00 5.444710e-01 -1.252819e+00 -9.269508e-01 -3.592978e-02 9.901332e-01 -8.914093e-01 2.341000e+00 -1.586925e+00 -4.646494e-01 -8.436602e-01 -7.727146e-05 
8.874378e+00 -4.771726e-01 1.093998e-01 -2.011565e+01 -2.589686e+01 1.394307e+01 -4.352070e+00 -7.539252e+00 -8.761089e+00 -7.712140e+00 -6.808635e-01 -8.006455e+00 9.437603e-01 -6.137590e-01 1.853020e+00 4.288602e-02 -2.006569e-01 -9.718300e-01 -3.727354e-01 5.337080e-01 -9.383108e-01 3.170784e+00 -2.175447e+00 -3.973939e-02 -2.530257e-01 -3.832954e-03 
8.966316e+00 1.960264e+00 -6.059170e-02 -1.990641e+01 -2.738064e+01 1.312131e+01 -4.639627e+00 -8.295861e+00 -4.078770e+00 -1.033936e+01 1.503926e+00 -8.528320e+00 9.379762e-01 -2.678412e-01 1.763505e+00 3.891862e-01 2.374134e-01 -1.027162e+00 -1.655324e-01 5.684481e-01 -5.916003e-01 3.125251e+00 -1.550549e+00 2.703711e-01 1.299866e-01 -3.785783e-03 
8.374020e+00 3.528990e+00 7.550907e-02 -1.899091e+01 -2.911499e+01 1.465859e+01 -5.387817e+00 -7.963885e+00 -2.789582e+00 -1.170372e+01 1.109864e-01 -6.733158e+00 9.333832e-01 1.523387e-01 1.592823e+00 9.068589e-01 3.133183e-01 -9.348621e-01 2.952700e-02 2.301091e-01 4.309946e-01 2.262709e+00 -3.377797e-01 -3.687664e-01 3.302220e-01 -4.829550e-03 
9.525395e+00 4.090409e+00 2.748165e+00 -1.919459e+01 -2.891640e+01 1.458500e+01 -3.673872e+00 -7.418459e+00 1.069494e+00 -1.066210e+01 1.253126e-01 -6.580410e+00 9.307359e-01 1.544183e-01 1.273802e+00 8.197622e-01 2.983150e-01 -8.039455e-01 -4.115444e-01 3.357457e-01 6.042706e-01 1.311478e+00 2.523275e-01 -1.301656e+00 -2.061231e-01 -9.278000e-04 
9.356532e+00 6.421867e+00 3.239316e+00 -1.890497e+01 -2.980330e+01 1.335886e+01 -3.684402e+00 -5.822980e+00 -2.167439e-02 -9.239669e+00 -1.835389e+00 -7.329301e+00 9.232327e-01 3.499030e-01 5.940930e-01 8.545107e-01 -6.461258e-02 -6.793095e-01 -1.115997e+00 1.563997e-02 5.871170e-01 1.129075e+00 3.572021e-01 -1.513940e+00 -1.283279e+00 6.336159e-03 
9.247151e+00 6.882834e+00 2.456316e+00 -1.845781e+01 -3.105622e+01 1.171345e+01 -3.812606e+00 -6.344961e+00 1.094666e+00 -1.030975e+01 -4.031168e+00 -9.260864e+00 9.384125e-01 5.282551e-01 -1.335718e-01 8.840197e-01 -2.905216e-02 -3.885189e-01 -1.043410e+00 -3.053350e-01 8.681942e-01 1.095355e+00 4.149300e-01 -1.601919e+00 -1.412919e+00 1.385614e-02 
1.026266e+01 5.103243e+00 4.493987e+00 -1.968236e+01 -3.144163e+01 1.051438e+01 -5.240251e+00 -5.565049e+00 2.843205e+00 -1.009389e+01 -5.380473e+00 -1.180933e+01 9.612257e-01 7.383078e-01 -7.968842e-01 1.034070e+00 7.358418e-02 -6.353875e-02 -2.207058e-01 -9.846182e-02 8.374289e-01 1.270025e+00 4.281543e-01 -3.784416e-01 -1.129601e+00 1.760598e-02 
1.171361e+01 4.081862e+00 6.540928e+00 -1.895115e+01 -3.003983e+01 1.079020e+01 -4.422623e+00 -3.206453e+00 5.113827e+00 -8.160341e+00 -6.111740e+00 -1.140499e+01 9.810202e-01 5.720218e-01 -9.196817e-01 3.385500e-01 1.694061e-01 4.566807e-01 5.774412e-02 6.336832e-02 6.794398e-01 3.757526e-01 2.129563e-01 3.117361e-01 -4.132339e-01 1.519081e-02 
1.181484e+01 3.837932e+00 6.367359e+00 -1.829038e+01 -3.062919e+01 1.271696e+01 -3.871702e+00 -3.205090e+00 4.318872e+00 -8.173601e+00 -2.687311e+00 -1.190524e+01 9.899588e-01 3.022704e-01 -7.455978e-01 -6.841161e-01 4.776995e-01 1.111606e+00 5.662060e-02 9.440534e-01 6.062458e-01 -9.477696e-01 -3.164412e-01 9.786184e-01 8.569986e-01 6.816274e-03 
1.133117e+01 2.917081e+00 3.212380e+00 -1.830677e+01 -2.917904e+01 1.090088e+01 -4.180038e+00 -4.127742e+00 2.235595e+00 -1.020511e+01 -3.819068e+00 -1.127908e+01 1.000000e+00 -2.250476e-02 -4.621487e-01 -1.427317e+00 1.352615e+00 1.022430e+00 -4.866220e-01 1.317227e+00 1.057275e+00 -2.077805e+00 -6.603526e-01 1.808645e+00 2.154372e+00 -9.628063e-03 
1.196523e+01 1.957644e+00 2.737680e+00 -1.761606e+01 -2.631399e+01 1.074214e+01 -6.412759e-01 -2.073176e+00 -4.565270e-01 -1.065371e+01 -1.633716e+00 -7.587294e+00 9.858171e-01 -1.732109e-01 -7.522759e-01 -2.315284e+00 1.860225e+00 1.437755e+00 -1.521888e+00 7.327088e-01 1.222406e+00 -2.945044e+00 -6.981239e-01 1.478406e+00 4.176054e+00 -1.379619e-02 
1.152589e+01 2.711263e+00 1.219184e+00 -1.252524e+01 -2.708528e+01 9.344495e+00 5.482969e-01 1.513966e+00 -2.887496e+00 -1.022205e+01 2.404689e+00 -2.792108e+00 9.349506e-01 2.971328e-01 -1.484576e+00 -2.673059e+00 2.766894e+00 2.128734e+00 -1.426904e+00 -4.109536e-01 1.332090e+00 -2.542017e+00 -1.465619e-01 2.757874e+00 5.432051e+00 -6.464386e-03 
1.085143e+01 1.794617e-01 -4.212465e+00 -1.188002e+01 -2.448729e+01 5.885713e+00 -2.572326e+00 8.608478e-02 -7.844802e+00 -1.165575e+01 1.592841e+00 4.731540e+00 9.535025e-01 3.208838e-01 -1.989257e+00 -3.525325e+00 2.643885e+00 2.989240e+00 -2.167313e+00 -1.862439e+00 4.075896e-01 -1.998459e+00 7.474243e-01 2.074854e+00 5.145388e+00 5.491507e-03 
1.337373e+01 -3.616707e+00 -6.677842e+00 -7.340319e+00 -1.944872e+01 6.194575e+00 -5.269281e+00 1.453078e+00 -6.780355e+00 -1.043690e+01 8.357025e+00 9.721762e+00 9.838354e-01 4.992608e-01 -2.470796e+00 -3.302805e+00 1.847082e+00 4.906205e+00 -2.502653e+00 -2.531060e+00 -3.396541e-01 -7.218982e-01 2.633678e+00 5.421395e-01 3.206289e+00 1.198689e-02 
1.264573e+01 -4.824657e+00 -1.094043e+01 -6.989092e+00 -1.518607e+01 1.480538e+00 -7.044680e+00 -4.783690e-03 -8.502392e+00 -6.809163e+00 5.764384e+00 1.188271e+01 9.888323e-01 2.706754e-01 -1.823336e+00 -1.973233e+00 1.997862e+00 5.039235e+00 -2.228603e+00 -2.233792e+00 -5.051242e-01 1.369580e+00 3.635205e+00 -5.285863e-01 -1.252863e-01 -5.025345e-03 
1.312504e+01 -7.140656e+00 -1.193086e+01 -5.735289e+00 -7.204863e+00 -9.661804e-01 -9.870827e+00 -1.388704e-01 -6.168192e+00 5.230477e-01 3.029615e+00 9.663754e+00 9.772202e-01 -2.935863e-01 -1.146984e+00 -1.194096e+00 1.978357e+00 4.313983e+00 -1.772177e+00 -2.859830e+00 -1.968934e-01 1.642754e+00 3.078925e+00 -1.914267e+00 -2.088658e+00 -1.667589e-02 
1.232915e+01 -7.175244e+00 -1.145212e+01 -2.693222e+00 -5.413045e+00 -1.676925e+00 -1.144051e+01 -1.643562e+00 -1.302983e+00 1.040300e+00 1.613615e+00 4.134112e+00 9.316834e-01 -2.981606e-02 -7.090595e-01 -1.840130e-01 2.686759e+00 2.749559e+00 -3.371413e-01 -3.378008e+00 1.354528e+00 1.714367e+00 2.291092e+00 -1.719455e+00 -2.713978e+00 -2.113857e-02 
1.206409e+01 -8.176333e+00 -1.239248e+01 4.035302e-01 -2.765312e+00 -1.087578e+00 -1.737052e+01 1.288000e+00 -2.166289e+00 1.032993e+00 8.610752e-01 3.152769e+00 9.290304e-01 1.294299e-01 -4.623719e-01 1.862289e-01 2.154857e+00 1.631257e+00 -5.142825e-01 -2.819877e+00 1.760245e+00 1.212591e+00 1.236808e+00 -1.914205e+00 -1.774144e+00 -1.607976e-02 
1.302712e+01 -7.852116e+00 -1.162969e+01 3.375295e+00 -3.658052e+00 -1.444702e-01 -2.018488e+01 6.054423e+00 -1.931508e+00 4.391327e+00 -1.748620e+00 1.568309e+00 9.072343e-01 6.212441e-01 -5.823213e-01 -1.853869e-01 1.709910e+00 1.399792e+00 -1.962761e+00 -1.226573e+00 1.300825e+00 9.052254e-01 1.005032e+00 -2.307930e+00 -3.656965e-01 -5.065316e-03 
1.342321e+01 -9.114079e+00 -1.091093e+01 2.004739e+00 7.392502e-02 -4.303820e+00 -1.959803e+01 4.813363e+00 2.090231e-01 5.031574e+00 -4.860292e+00 2.075933e+00 9.090459e-01 6.138301e-01 -1.006433e-01 -3.475235e-01 9.547690e-01 1.726639e+00 -3.281871e+00 2.841841e-01 4.628369e-01 7.048499e-01 9.963782e-01 -2.647181e+00 4.952549e-01 -4.935181e-03 
1.475581e+01 -9.617978e+00 -1.311983e+01 5.055725e+00 1.662965e-01 -9.882609e+00 -1.645962e+01 3.097885e+00 2.035488e+00 4.066170e+00 -7.065354e+00 2.844048e+00 9.163491e-01 2.029648e-01 4.871582e-01 4.410435e-01 -4.140137e-01 2.012062e+00 -3.440724e+00 9.614986e-01 -3.460820e-01 6.161486e-01 7.527397e-02 -2.165864e+00 7.872308e-01 -1.606854e-02 
1.426890e+01 -7.796618e+00 -1.338502e+01 4.337160e+00 3.955710e+00 -1.262787e+01 -1.781223e+01 5.080454e+00 -6.255374e-01 6.177463e+00 -9.716463e+00 4.991174e+00 8.997971e-01 -3.681001e-01 4.174646e-01 1.189293e+00 -3.057798e-01 2.322332e+00 -2.838097e+00 1.783457e+00 -1.213740e-01 -2.954342e-01 2.791916e-01 -2.168163e+00 8.470305e-01 -2.197663e-02 
1.361910e+01 -6.075055e+00 -8.187424e+00 1.390159e-01 4.461366e+00 -1.318607e+01 -1.627029e+01 4.190468e+00 1.566515e+00 4.194752e+00 -1.014985e+01 4.046843e+00 8.315160e-01 -7.287619e-01 6.512095e-01 2.333253e+00 1.539301e-01 3.429551e+00 -1.537848e+00 2.811378e+00 2.534193e-01 1.127207e-01 -4.964888e-01 -1.782332e+00 5.478432e-01 -5.068568e-02 
1.215106e+01 -8.798218e+00 -7.430670e+00 2.934194e+00 9.538050e+00 -1.684258e+01 -1.077541e+01 3.660201e+00 -1.033661e+00 6.363241e+00 -1.415886e+01 5.709688e+00 8.415793e-01 -1.157447e+00 1.586586e+00 3.013258e+00 2.023896e+00 3.900183e+00 -5.248340e-01 4.203876e+00 -7.098599e-01 1.050571e+00 -2.129931e+00 -9.920548e-01 -6.724962e-01 -9.024786e-02 
1.217092e+01 -5.861131e+00 -4.430738e+00 6.526858e+00 1.452288e+01 -1.546449e+01 -5.921132e+00 5.075108e+00 2.803153e+00 1.490837e+00 -1.375581e+01 5.224008e+00 6.920296e-01 -1.706046e+00 2.211367e+00 2.352375e+00 3.024255e+00 4.362005e+00 1.694394e-01 4.045007e+00 -7.565111e-01 7.848458e-01 -2.224549e+00 1.870861e-02 -9.769888e-01 -1.096149e-01 
9.205755e+00 2.935100e-02 -1.970735e-01 1.126272e+01 1.842587e+01 -1.411282e+01 -1.967422e+00 1.088835e+00 4.008998e+00 -3.120235e+00 -1.287376e+01 1.040111e+00 5.183010e-01 -1.811163e+00 2.139313e+00 1.768724e+00 1.693935e+00 2.870965e+00 1.119277e+00 2.552403e+00 -1.066371e+00 1.647963e+00 -2.912666e+00 9.484724e-01 -1.505445e+00 -1.152987e-01 
6.561522e+00 5.679950e-01 -4.234838e-02 1.109603e+01 2.182748e+01 -1.370375e+01 -4.492421e-01 1.693596e+00 2.969414e+00 -2.186254e+00 -1.069886e+01 1.496687e+00 4.450803e-01 -1.656687e+00 8.577173e-01 4.278199e-01 2.646476e-01 1.170535e+00 6.514571e-01 9.628016e-01 -3.061655e-01 1.350486e+00 -2.320636e+00 3.609101e-01 -9.572968e-01 -7.857512e-02 
5.899944e+00 -1.316217e+00 -7.812438e-01 9.119284e+00 2.024057e+01 -1.212656e+01 -7.493415e-01 1.910245e-02 7.123020e+00 -6.361544e+00 -1.094497e+01 4.612374e-02 3.885607e-01 -1.282103e+00 -4.946991e-01 -4.440136e-01 -1.799942e-01 7.400209e-01 2.026470e-01 -1.540210e-01 -3.735835e-02 7.046860e-01 -1.618886e+00 -8.250946e-01 -1.510290e+00 -5.106117e-02 
5.540389e+00 -8.997600e-01 -1.999553e+00 8.921813e+00 1.946820e+01 -1.320034e+01 -1.716164e+00 4.079146e+00 7.998569e+00 -8.491687e+00 -1.291565e+01 9.345164e-01 3.640242e-01 -1.265647e+00 -5.471228e-01 -6.804657e-01 2.229786e-01 4.387504e-01 1.645943e+00 3.749123e-01 2.817191e-01 1.148059e-01 -1.329337e+00 -1.547340e+00 -2.416012e+00 -5.274858e-02 
3.305807e+00 -1.710267e+00 -1.438539e+00 1.144985e+01 2.330561e+01 -1.335129e+01 -2.104065e+00 -2.907325e-01 5.017850e+00 -8.061949e+00 -1.589083e+01 -6.230256e+00 3.035232e-01 -1.741093e+00 -9.991911e-01 -1.288130e+00 5.969563e-01 5.386790e-01 1.598711e+00 1.014535e+00 1.404978e+00 -6.036182e-01 -1.982210e-01 -4.522713e-01 -1.870320e+00 -3.865286e-02 
1.530357e+00 -1.970594e+00 -3.116029e+00 1.104563e+01 2.248872e+01 -4.861667e+00 2.102681e+00 3.257109e+00 4.596029e+00 -7.982736e+00 -1.596263e+01 -7.445182e+00 2.238562e-01 -1.869140e+00 -1.039496e+00 -1.034449e+00 6.019722e-01 -3.444718e-01 1.327750e+00 1.096486e+00 2.263019e+00 4.393320e-02 3.407127e-01 6.421726e-01 6.062064e-02 -3.382435e-02 
-8.005071e-01 -5.776755e+00 -6.663656e+00 1.104215e+01 2.142371e+01 -8.302342e+00 2.413910e+00 7.455013e+00 5.806200e+00 -7.607124e+00 -1.168284e+01 -5.115627e+00 2.653804e-01 -1.221151e+00 -6.532831e-01 -8.008569e-01 1.477545e-01 -1.578226e+00 -2.054349e-01 -2.515284e-01 1.954848e+00 6.179081e-01 1.441952e+00 2.441423e+00 3.257662e+00 -2.356526e-02 
-1.752155e+00 -4.063997e+00 -4.559241e+00 1.213552e+01 1.868679e+01 -9.086060e+00 1.507276e+00 1.152137e+01 7.824061e+00 -7.015535e+00 -1.180879e+01 6.803055e-01 2.139738e-01 -8.205322e-01 -9.131058e-01 -5.913200e-01 -4.653794e-01 -2.145913e+00 -1.315854e+00 -8.202419e-01 6.143393e-01 -3.455690e-01 1.093987e+00 2.896629e+00 3.358595e+00 -1.884018e-02 
-1.158691e+00 -3.929981e+00 -4.721218e+00 1.164368e+01 1.731544e+01 -1.226627e+01 -3.064005e+00 5.351378e+00 6.493375e+00 -1.335789e+00 -5.760639e+00 5.995311e+00 1.906381e-01 -2.567612e-01 -3.455653e-01 -9.885903e-02 -1.238204e+00 -2.895386e+00 2.496966e-01 -1.215570e-01 -2.550768e-01 -6.468369e-01 1.203193e+00 1.854245e+00 7.864381e-01 -3.557045e-02 
-2.393212e+00 -7.459510e+00 -7.043849e+00 8.417974e+00 1.381328e+01 -9.458974e+00 7.404294e-01 7.380622e+00 2.524596e+00 -5.648471e+00 -4.440587e+00 3.792323e+00 1.670264e-01 2.951190e-01 3.294502e-01 5.688343e-02 -2.624508e+00 -3.774928e+00 1.164710e-01 8.452487e-02 -1.395902e-01 -5.944595e-01 2.443702e+00 3.705543e+00 -9.921833e-01 -3.401300e-02 
-1.763784e+00 -5.806826e+00 -5.915647e+00 6.709912e+00 9.383534e+00 -6.867403e+00 2.189549e+00 8.250002e+00 5.221747e+00 -2.274690e+00 -6.095718e+00 -2.739446e+00 1.110018e-01 2.272397e-01 7.849956e-01 4.070982e-01 -2.111647e+00 -3.852370e+00 2.183436e-01 5.882040e-01 5.986004e-02 1.790703e-01 2.138989e+00 3.192259e+00 -5.513843e-01 -3.262452e-02 
2.598619e-02 -1.478324e+00 -3.677609e+00 1.479869e+00 3.778110e+00 -1.120314e+01 -6.968765e-01 9.374105e+00 5.487577e+00 5.672421e+00 6.886470e+00 8.676744e-02 8.372694e-02 -3.188950e-01 8.701271e-01 8.555668e-01 -3.001922e-01 -1.277453e+00 9.057180e-01 1.270498e+00 -7.531735e-01 2.462545e-01 2.368314e+00 1.745086e+00 3.408646e-01 -3.513107e-02 
-1.232092e+00 -2.995596e+00 -4.368846e+00 4.554498e+00 3.071181e+00 -1.030247e+01 5.956683e-01 4.653937e+00 5.907236e+00 3.698708e+00 4.537127e+00 5.091166e+00 6.916523e-02 -7.088165e-01 1.412979e-01 5.692300e-01 1.227953e+00 1.685764e+00 1.866784e+00 2.263694e+00 -1.232016e+00 -2.059772e+00 2.581625e-01 1.123792e+00 1.363768e+00 -2.696582e-02 
-4.253533e+00 -4.514489e+00 -3.539415e+00 7.994720e+00 1.058220e+01 -3.212851e+00 7.889859e+00 5.412787e+00 3.413124e+00 3.206401e+00 -1.031577e+00 1.581340e+00 1.228935e-02 -8.670427e-01 -1.222472e-01 9.247788e-01 2.328196e+00 3.289499e+00 3.950691e+00 3.422040e+00 -4.062355e-01 -2.656969e+00 -2.281811e+00 -5.084561e-01 1.374016e-01 -2.354583e-02 
-3.168107e+00 -3.582254e+00 -3.138594e+00 9.592252e+00 1.441031e+01 -1.528626e+00 9.214652e+00 4.070581e+00 -4.039884e+00 2.491329e-01 3.482265e+00 3.332109e+00 1.189154e-02 -8.552614e-01 -1.136036e+00 4.035882e+00 1.376193e+00 1.623122e-01 3.985345e+00 2.005557e+00 -1.942386e+00 -3.349044e+00 -1.990004e+00 2.082229e-01 -3.712077e-02 2.294831e-02 
-3.341220e+00 -1.796232e+00 3.311591e-01 1.060197e+01 1.455604e+01 4.163397e+00 1.210383e+01 7.634606e+00 -2.823707e+00 -4.011846e+00 4.871621e+00 1.653304e+00 -5.365372e-03 -8.197156e-01 -1.233239e+00 5.154813e+00 1.003024e+00 -2.717387e+00 2.977500e+00 9.498907e-01 -1.845012e+00 -2.103203e+00 -1.338160e+00 1.925469e-01 6.304799e-01 4.772456e-02 
-5.964556e+00 -1.003491e+01 1.387527e+01 1.013184e+01 1.895821e+00 5.936131e+00 8.516464e+00 -6.168900e+00 -7.719568e+00 -2.642190e+00 2.626642e+00 4.869580e+00 1.927341e-01 -3.706995e-01 5.598055e-01 2.446736e+00 -1.181888e-01 -1.118793e+00 1.555960e+00 -2.726999e-01 -3.819579e-01 5.352144e-01 7.568530e-01 -7.262931e-01 7.736884e-01 2.207541e-03 
-6.953887e+00 -7.454356e+00 1.372772e+01 1.274005e+01 3.252507e+00 7.942269e+00 1.298841e+01 1.307466e+00 -5.263049e+00 -2.038740e+00 3.589686e-01 3.965004e+00 1.604909e-01 -5.358524e-02 2.256953e+00 -7.891555e-01 -5.583938e-01 1.115361e+00 -3.590115e-01 -2.502373e+00 -1.379666e+00 3.652122e-01 2.446816e+00 -6.844868e-01 -2.136677e-01 -3.738074e-02 
-3.215271e+00 2.045836e+00 2.396806e+00 7.932271e+00 1.446811e+01 4.361740e+00 7.408866e+00 5.324361e+00 -1.441410e-01 3.046845e+00 2.107126e+00 6.044702e+00 -5.999887e-02 9.615193e-02 3.687062e+00 -3.692161e+00 -1.679268e+00 3.043681e+00 -2.105126e+00 -2.390948e+00 7.852629e-01 2.199794e+00 1.696144e+00 -1.769120e-01 -1.361311e+00 -8.042324e-02 
-4.983788e+00 3.448163e+00 2.124616e+00 8.909785e+00 1.384670e+01 3.155536e+00 1.457672e-01 -5.010354e+00 -4.785359e+00 5.377717e+00 1.708945e+00 -2.594471e-03 -6.590259e-02 -1.007204e-01 2.279866e+00 -1.573846e+00 -1.479468e+00 4.314089e-01 -1.724960e+00 -1.736286e+00 -6.165473e-01 1.621288e+00 1.920067e+00 1.028372e-01 -1.321291e+00 -4.858823e-02 
-6.468845e+00 2.949145e+00 1.216020e+00 3.650631e+00 1.181713e+01 -2.196130e+00 2.983045e+00 9.163236e-01 3.040559e+00 2.130299e+00 1.067095e+00 4.682255e-02 -9.618533e-02 -8.462703e-01 5.148702e-01 1.313069e+00 -5.218989e-01 -2.307337e+00 -5.558036e-01 6.901765e-01 -1.599337e-01 3.429612e-01 1.026239e+00 -3.892970e-01 -1.277426e+00 2.908289e-03 
-5.830702e+00 3.493319e+00 6.448877e+00 7.483527e+00 6.735042e+00 2.596405e+00 6.519888e+00 4.287485e-01 1.251041e+00 8.019870e+00 1.393170e+00 3.574870e-01 -6.435704e-02 -6.245538e-01 7.268811e-01 1.348888e+00 -1.180650e+00 -2.059118e+00 -1.394985e-01 1.874817e+00 1.123758e+00 1.020922e+00 1.584319e+00 9.742514e-01 1.191282e+00 -2.325273e-03 
-7.023166e+00 4.597610e+00 6.800018e+00 6.035906e+00 6.487254e+00 1.862287e+00 7.672688e+00 1.805142e+00 -1.447535e+00 6.856963e+00 3.185277e-01 -5.224717e-01 -4.623020e-02 -5.704888e-01 8.927509e-01 8.189480e-01 -9.141558e-01 -5.351373e-01 4.214431e-01 -9.503194e-02 1.815499e-01 1.040292e+00 2.512148e+00 2.092370e+00 9.616708e-01 -2.355373e-03 
-7.829397e+00 6.258336e+00 6.077055e+00 1.813901e+00 6.216049e+00 4.288344e-01 7.175029e+00 1.640281e-01 2.563298e+00 1.093598e+01 6.954485e+00 6.238463e+00 -1.025065e-01 -6.285001e-01 1.055825e+00 3.699479e-01 -1.431635e+00 -1.662025e-01 -3.884597e-01 -5.819748e-01 6.861233e-01 1.068781e+00 -1.009748e-01 1.377860e+00 5.028830e-02 -7.545483e-03 
-8.321941e+00 6.030391e+00 5.496671e+00 1.914665e+00 9.400940e+00 9.948705e-01 2.180315e+00 1.956433e+00 7.585891e+00 1.323298e+01 8.748287e+00 1.914688e+00 -8.888745e-02 -1.107609e-01 1.149513e+00 3.549102e-01 -8.616257e-01 -7.858267e-01 -2.077440e-01 -2.194152e-01 1.218213e+00 1.228982e+00 -5.705603e-01 1.201347e+00 2.741550e-01 -1.920176e-03 
-8.323814e+00 8.056055e+00 8.950290e+00 2.385974e+00 4.447187e+00 1.087814e+00 6.356201e+00 3.783719e+00 2.078235e+00 4.326987e+00 4.067590e+00 -6.096516e-01 -8.075583e-02 -1.185921e-01 2.156772e-01 2.091657e-01 4.848886e-01 -3.355128e-01 2.420300e-01 -9.775386e-02 1.218948e+00 2.236552e-01 -1.710041e+00 4.072618e-01 3.853983e-01 5.518103e-03 
-7.329762e+00 9.446318e+00 7.137952e+00 1.441741e+00 3.442551e+00 4.940776e-01 6.985026e+00 6.086360e+00 4.939905e+00 7.308659e+00 7.768712e+00 4.272361e+00 -6.670642e-02 3.028032e-01 4.928715e-02 -1.065202e-01 6.723108e-01 -5.594261e-01 -1.359989e-01 6.091388e-01 -3.381963e-02 -4.997583e-01 -1.369732e+00 -1.799785e-01 1.729294e+00 -4.009867e-03 
-8.918447e+00 5.628759e+00 6.302243e+00 4.474806e+00 7.517679e+00 1.889381e+00 4.283904e+00 4.193804e+00 5.004567e+00 5.347937e+00 9.480582e+00 6.986619e+00 -8.600652e-02 6.564140e-03 -5.702860e-01 -4.591582e-01 5.622044e-01 7.471423e-01 -1.824201e-01 -2.840351e-01 -1.298293e+00 1.568387e-01 6.512240e-01 -1.545454e-01 1.400161e+00 -5.611884e-03 
-6.510609e+00 7.490475e+00 6.288094e+00 4.231803e+00 5.068563e+00 -8.590734e-02 6.262157e+00 1.582293e+00 3.623933e+00 5.873847e+00 5.141899e+00 6.763025e+00 -1.063114e-01 -2.523740e-01 -5.973753e-01 6.601381e-02 4.047607e-01 7.706896e-01 -1.480416e-01 -2.361577e-01 -1.773366e+00 -4.323134e-01 4.936283e-01 -1.119320e+00 -9.387160e-03 -4.761887e-03 
-8.700570e+00 6.182547e+00 7.079428e+00 3.801965e+00 7.369893e+00 4.657066e-01 5.297460e+00 -4.557126e-01 3.520414e+00 8.300512e+00 4.608269e+00 5.145823e+00 -8.901274e-02 -1.754207e-01 -2.003517e-02 2.345705e-01 -1.775520e-01 2.005756e-01 -2.295735e-01 1.062415e-01 -1.133704e+00 -3.071824e-01 8.331817e-01 -1.027825e+00 -5.298795e-01 1.128626e-03 
