-7.871675e+00 1.106670e+01 5.594612e+00 5.934928e+00 3.722009e+00 -1.078665e+00 3.904427e+00 3.701507e+00 1.170931e+01 3.465518e+00 4.505199e+00 3.349238e+00 -1.512927e-01 -4.006558e-02 -6.829391e-01 -3.712917e-01 -5.550830e-02 -6.057655e-01 3.348869e-02 -1.988157e-01 -7.671952e-01 -7.079827e-01 8.853960e-03 3.743995e-01 8.787597e-01 0.000000e+00 
-8.179070e+00 9.094428e+00 5.826603e+00 6.060924e+00 1.864911e+00 -2.111775e+00 -5.137963e-01 -2.330946e+00 1.117736e+01 7.308506e+00 5.047993e+00 1.340436e+00 -1.512927e-01 1.564537e-01 -3.442402e-02 -3.138947e-01 -7.522248e-01 -8.022579e-01 8.367621e-01 7.740077e-01 -2.754724e-01 -1.404503e+00 -7.983895e-01 8.163830e-01 1.490737e+00 0.000000e+00 
-7.918306e+00 8.638135e+00 3.622159e+00 5.594388e+00 1.621731e+00 -3.946672e-01 5.119460e+00 2.881758e+00 8.435368e+00 1.588293e+00 6.105800e+00 8.747438e+00 -1.512927e-01 7.055874e-02 -1.863973e-01 -1.483082e-01 -1.490972e+00 -4.911249e-01 1.240056e+00 3.675528e-01 7.305998e-01 -6.768525e-01 -2.669013e-01 6.180268e-01 1.298593e+00 0.000000e+00 
-7.066092e+00 1.210886e+01 5.011366e+00 2.344074e+00 7.608590e-01 2.763146e+00 7.166948e+00 2.734020e+00 6.323766e+00 4.121826e-01 7.786814e+00 8.103822e+00 -1.512927e-01 -4.012775e-02 5.571913e-02 1.617475e-01 -1.287045e+00 2.202275e-01 1.239500e+00 1.505903e-01 1.225715e+00 -3.388617e-01 -5.011698e-01 3.773737e-01 8.477567e-01 0.000000e+00 
-8.075371e+00 8.627495e+00 5.260690e+00 3.384945e-01 1.818411e+00 2.684155e+00 1.901819e+00 4.822023e+00 1.075184e+01 5.579173e+00 6.225923e+00 6.460509e+00 -1.512927e-01 8.971558e-02 -3.341842e-02 3.648389e-01 -5.182949e-01 -2.552931e-01 6.688679e-01 -9.985667e-01 2.072057e-01 -2.209578e-02 3.445534e-01 -7.953795e-01 -1.460363e+00 0.000000e+00 
-8.301176e+00 9.378344e+00 5.816074e+00 2.253645e+00 2.867708e+00 2.546311e+00 1.847976e+00 2.827497e+00 8.324817e+00 2.807217e+00 6.874800e+00 6.722684e+00 -1.512927e-01 2.195473e-01 1.619917e-01 4.079654e-01 5.328493e-01 -2.256546e-01 -3.409335e-01 -1.146746e-01 -2.267709e-01 1.884545e-01 6.729389e-01 -7.652745e-01 -1.670921e+00 0.000000e+00 
-6.852186e+00 9.836299e+00 5.043999e+00 3.048128e+00 -7.081597e-01 3.058090e+00 2.786113e+00 3.871048e+00 7.324363e+00 2.113543e+00 2.584909e+00 2.136190e+00 -1.512927e-01 2.334754e-01 5.125911e-01 -7.455651e-02 7.357155e-01 -4.689242e-01 -7.587135e-01 7.030981e-01 -2.062654e-01 4.263780e-02 2.579789e-01 -1.298158e-01 -1.064663e+00 0.000000e+00 
-6.579947e+00 1.231441e+01 7.159538e+00 3.653504e+00 8.958714e-01 8.715114e-01 6.151428e+00 2.075653e+00 8.979778e+00 5.509693e+00 5.780948e+00 1.911378e+00 -1.512927e-01 -1.026083e-01 -3.041097e-01 -7.395453e-01 4.830191e-01 -3.322185e-01 -1.154307e+00 5.059146e-01 -1.275325e-03 -5.725663e-02 1.147831e-01 -7.157515e-01 -9.054728e-02 0.000000e+00 
-7.768608e+00 9.722416e+00 4.216176e+00 3.317142e+00 4.597077e-01 -2.720128e-01 3.265583e+00 4.166617e+00 1.063755e+01 5.517830e+00 6.123770e+00 3.542848e+00 -1.512927e-01 -4.371163e-01 -7.830591e-01 -8.116004e-01 4.218151e-01 3.287848e-01 -1.761801e+00 -6.309155e-01 -3.128746e-01 -3.533425e-01 4.152621e-01 7.328434e-02 6.500981e-01 0.000000e+00 
-8.356007e+00 7.914737e+00 2.532260e+00 4.534233e+00 6.226821e-01 -1.560171e+00 4.137814e+00 2.673335e+00 6.381939e+00 1.678989e+00 1.526612e+00 5.566619e+00 -1.512927e-01 3.701878e-02 -1.048853e+00 -8.822552e-01 1.959430e-01 6.870254e-01 -4.445592e-01 -6.154861e-02 6.123077e-01 3.013895e-01 -7.244872e-01 -4.188240e-01 1.386226e+00 0.000000e+00 
-8.149738e+00 8.120842e+00 3.299636e+00 4.716838e+00 1.072359e+00 -4.535074e+00 6.383426e-01 2.007834e+00 6.856570e+00 6.105206e+00 5.078499e+00 3.559061e+00 -1.512927e-01 5.221602e-01 -4.840496e-01 -6.296571e-01 -5.864690e-01 8.682626e-01 8.921700e-01 7.828942e-01 -5.302528e-01 2.209356e-01 -1.376473e+00 1.564431e-02 6.447651e-01 0.000000e+00 
-6.204288e+00 7.870937e+00 3.206532e+00 3.933371e+00 4.024673e+00 7.802461e-01 7.157305e+00 6.216584e+00 1.237722e+01 1.593569e+00 4.209464e+00 8.834402e+00 -1.512927e-01 4.643344e-01 -1.397897e-01 -5.483094e-01 -8.492156e-01 1.385777e+00 1.526701e+00 5.655802e-01 -1.117208e+00 6.559474e-01 -3.874058e-01 3.447448e-01 1.017724e-01 0.000000e+00 
-6.233666e+00 7.324068e+00 7.307539e-01 6.852286e-01 3.100026e+00 3.018629e+00 5.670308e+00 -2.562714e-01 8.744591e+00 -1.321826e+00 4.860566e+00 5.132782e+00 -1.512927e-01 -8.852692e-02 1.546861e-01 1.345863e-01 -1.130036e+00 3.691582e-01 1.338205e+00 -1.998691e-01 -7.164763e-01 -1.338594e-01 -7.402686e-01 1.015363e+00 -4.506207e-01 0.000000e+00 
-6.992371e+00 7.614175e+00 1.075154e+00 2.303960e+00 6.537733e+00 2.296484e+00 4.449733e+00 -1.780654e+00 8.717666e+00 3.455476e+00 3.359303e+00 5.288620e+00 -1.512927e-01 2.472431e+00 8.966731e-01 1.092653e-02 3.453401e-01 1.054716e+00 -3.599017e-02 -2.675371e+00 -1.674923e+00 -2.712008e+00 -1.550145e+00 7.413660e-01 -1.621059e+00 1.868677e-02 
-8.198332e+00 9.022653e+00 5.038257e+00 -1.186380e-01 1.661620e+00 1.397831e+00 9.927833e-01 2.424072e+00 8.017050e+00 1.472908e+00 1.058039e+01 3.078848e+00 -1.512927e-01 4.569150e+00 1.097562e+00 3.246031e-01 2.028411e+00 2.830734e+00 -1.003097e+00 -2.615252e+00 -6.017352e-01 -4.126303e+00 -1.984191e+00 -2.615025e-02 -1.023177e+00 5.800299e-02 
7.140201e+00 1.150501e+01 1.107413e+00 6.062005e+00 1.001746e+01 1.410694e+00 -3.880789e+00 -3.498205e+00 -8.190498e-01 -7.554524e+00 5.056380e+00 1.756072e+00 -5.785882e-02 3.080994e+00 -1.633942e-01 1.214015e+00 2.264934e+00 1.655987e+00 -1.227837e-01 -1.524645e+00 -1.781027e+00 -3.046120e+00 -1.216415e+00 -4.140222e-01 4.736848e-01 4.941656e-02 
9.545797e+00 1.086646e+01 2.337640e+00 8.948261e+00 1.551383e+01 -1.553962e+00 -3.240694e+00 -2.406172e+00 -7.118564e+00 -5.737781e+00 3.881276e+00 1.783172e+00 9.200531e-02 1.428963e-01 -1.899547e+00 1.023807e+00 1.667649e+00 -2.427440e+00 2.967799e-01 1.143879e+00 -1.639406e+00 7.686438e-02 1.434083e+00 -2.502397e-01 1.945148e+00 3.922856e-02 
-4.594641e-01 5.875299e+00 8.495538e+00 9.095181e+00 7.891562e+00 3.158462e+00 -1.056752e+00 -8.270665e+00 1.054869e+00 9.787484e-01 4.638750e+00 8.304882e+00 -2.585888e-02 -4.235314e+00 -2.303812e+00 4.317413e-01 -1.036960e+00 -5.287993e+00 -4.496824e-01 1.929668e+00 4.092538e-01 1.928160e+00 2.200634e+00 8.761026e-01 1.370436e+00 4.096532e-03 
-3.684018e+00 2.339771e+00 6.463231e+00 6.703017e+00 -9.412633e+00 2.007846e+00 5.300157e+00 -3.386727e+00 7.464412e+00 4.376689e+00 9.538009e+00 9.530181e+00 2.885014e-02 -4.629426e+00 -2.145639e+00 -1.367275e+00 -1.530450e+00 -4.503104e+00 -6.250312e-01 9.716675e-01 1.432501e+00 2.069048e+00 2.940378e-01 -8.272631e-01 -9.752581e-01 -1.308079e-02 
-7.421461e+00 4.249297e+00 1.203324e+00 1.999827e+00 -3.959273e+00 -2.618622e+00 1.497123e+00 -9.616582e-01 1.530264e+00 -1.608588e+00 6.608526e+00 4.734750e+00 -5.798578e-03 -2.135283e+00 -9.183032e-01 -2.367883e+00 -1.067586e+00 -1.771508e+00 -1.436159e+00 -1.208429e-01 3.141389e+00 1.548345e-01 4.008377e-01 -9.988995e-01 -1.876564e+00 2.278589e-02 
-1.012033e+01 9.512677e-01 -8.526292e-01 4.843688e+00 -1.076269e+00 -1.790576e+00 3.407066e-01 1.101831e+00 2.988980e+00 -2.973924e+00 -1.239928e+00 -1.308052e+00 1.657122e-02 -1.168150e+00 -2.132895e-01 -2.584134e+00 -7.346671e-01 -6.485206e-01 -1.704574e+00 -2.625664e+00 1.361958e+00 3.074596e-01 1.522833e+00 -5.396807e-01 1.615142e+00 6.077202e-02 
-7.917725e+00 1.978035e+00 3.140540e-01 4.686916e+00 -5.134159e+00 -2.123122e+00 8.187592e-01 5.192000e+00 4.066758e+00 6.658243e+00 5.033221e+00 4.341177e+00 9.421003e-02 -7.439718e-01 -6.644168e-02 -2.435073e+00 7.673368e-01 -1.447472e+00 -1.851879e+00 -2.526042e+00 -7.492772e-01 1.468442e+00 2.609504e+00 1.852916e+00 4.183273e+00 9.929943e-02 
-9.276636e+00 2.408955e+00 -6.012805e+00 1.686137e+00 -1.206779e+01 -6.762772e+00 -7.488982e+00 3.462353e-01 7.733463e+00 7.857438e+00 7.627258e+00 1.780268e+01 2.827060e-01 -1.531417e+00 -5.625372e-01 -2.426083e+00 1.228466e+00 -2.690125e-02 -1.496907e+00 -1.586890e+00 -2.149334e+00 9.747347e-01 1.641438e+00 2.661695e+00 2.166060e+00 1.027967e-01 
-1.156317e+01 3.188245e+00 -8.391953e+00 7.415287e+00 -5.700871e+00 -9.391921e+00 -7.218244e+00 -4.330246e+00 6.500230e+00 6.023254e+00 1.143951e+01 1.609575e+01 3.576312e-01 -2.101735e+00 -1.542501e+00 -1.226945e+00 6.973404e-01 1.947133e+00 -1.331212e-01 5.160853e-01 -1.713081e+00 8.338822e-01 -7.212207e-01 4.805902e-01 -9.396613e-01 7.122783e-02 
-1.595469e+01 -2.466523e+00 -8.630040e+00 9.621833e+00 -9.274199e-01 -5.640711e+00 -3.575243e+00 -4.883716e+00 6.645917e+00 5.550761e+00 8.865402e+00 3.644962e+00 3.988441e-01 -1.358137e+00 -1.573559e+00 1.564312e+00 9.524096e-01 2.613509e+00 1.390578e+00 2.822892e+00 -1.902654e-01 -3.224573e-01 -1.785867e+00 -1.983572e+00 -4.239706e+00 2.965358e-02 
-1.508737e+01 -3.296730e+00 -4.512053e+00 4.205770e+00 -9.686811e-01 -3.349759e+00 1.442316e+00 -7.584276e-01 8.779941e+00 4.205478e+00 6.817100e+00 6.721729e+00 3.922801e-01 -2.104961e-01 -1.157116e+00 2.071051e+00 -8.699101e-01 2.269782e+00 1.784068e+00 3.858359e+00 1.172301e+00 -6.734389e-01 -2.307009e+00 -2.536855e+00 -2.991949e+00 3.877401e-03 
-1.430522e+01 -2.216351e+00 -1.311932e-01 8.052943e+00 -1.366340e+00 -2.830965e+00 2.295199e+00 -2.391001e+00 4.981321e+00 -1.630083e-01 2.060485e-02 1.291157e+00 4.136494e-01 1.627403e+00 -4.228992e-02 1.972327e+00 -7.173114e-01 1.750235e+00 4.640789e-01 3.148241e+00 7.404853e-01 -6.732455e-01 -1.911208e+00 -1.303644e+00 1.434521e-01 -3.050591e-02 
-1.344039e+01 -2.722420e+00 -2.286121e+00 3.850181e+00 5.867500e+00 -1.876456e+00 9.138330e+00 2.849002e-01 3.965334e+00 -2.654905e+00 3.177633e+00 2.312906e+00 3.696156e-01 5.928626e+00 1.519643e+00 1.765669e-01 -2.070651e+00 -4.723919e-01 -3.627701e-01 1.380373e+00 -6.102093e-01 -2.859145e+00 -9.747517e-01 -1.160801e+00 -1.148953e+00 -3.682908e-02 
-8.641171e+00 -2.965128e+00 1.186280e-01 6.213070e+00 4.405664e+00 -4.056968e+00 8.317954e+00 -1.702953e+00 5.686993e+00 -5.750898e-01 4.166913e+00 6.566634e+00 2.576469e-01 8.533689e+00 9.714533e-01 -1.532795e+00 -5.675181e+00 -2.583086e+00 -9.419467e-02 -1.928242e-01 -2.719181e-01 -4.499165e+00 6.587238e-01 -5.521888e-01 -1.589586e+00 4.936407e-02 
1.172374e+01 4.675873e+00 -3.754128e+00 -5.227549e+00 -6.216643e+00 -4.550608e+00 5.332806e+00 -4.153499e+00 -5.868620e+00 -4.622394e-01 -1.060060e+00 -1.660774e+00 2.861360e-01 8.040586e+00 -6.600745e-01 -1.859910e+00 -6.205611e+00 -4.269324e+00 1.148626e+00 -1.595389e+00 4.510689e-02 -4.778553e+00 1.525222e+00 -1.515404e+00 -2.745872e+00 1.346826e-01 
1.578116e+01 -1.058230e+00 -7.061165e+00 -1.578410e+01 -8.239697e+00 -1.964862e+00 3.233840e+00 -1.531392e+00 -1.259753e+01 2.034278e+00 -6.214926e-01 -4.669934e+00 7.022096e-01 4.557490e+00 -2.164539e+00 -1.700798e+00 -5.878342e+00 -2.784977e+00 2.863149e+00 -1.510596e+00 9.471873e-01 -4.058738e+00 1.011435e+00 -1.705143e+00 -2.983649e+00 1.751451e-01 
1.455138e+01 -6.976241e+00 -7.995775e+00 -1.617929e+01 -9.156439e+00 2.820620e+00 3.703442e+00 4.246545e-01 -1.078517e+01 3.666522e+00 -2.005183e+00 -5.798171e+00 8.207470e-01 -2.542818e-01 -3.594538e+00 1.740108e-01 -2.696023e+00 3.412616e-01 3.744038e+00 -7.282672e-01 1.590106e+00 -1.175299e+00 8.822426e-01 -4.482874e-01 -1.216717e+00 1.408909e-01 
1.273246e+01 -7.961765e+00 -6.264537e+00 -1.770277e+01 -8.049325e+00 6.573162e+00 1.579654e+00 7.439077e-01 -1.214842e+01 2.417703e+00 -3.886242e+00 -6.282910e+00 8.660669e-01 -1.559365e+00 -2.336325e+00 8.330061e-01 -4.382834e-01 1.468260e+00 3.090992e+00 -9.276228e-01 4.442138e-01 -2.082697e-01 3.767500e-01 -6.155094e-01 -9.576328e-01 5.732030e-02 
1.197668e+01 -9.845051e+00 -3.282389e+00 -1.774833e+01 -4.605521e+00 9.900568e+00 2.518563e+00 2.659381e+00 -1.196967e+01 3.757261e+00 -1.669122e+00 -6.937870e+00 9.086620e-01 -1.449437e+00 -1.148853e+00 8.079569e-01 3.718599e-01 2.231059e+00 2.178916e+00 -9.149469e-01 -2.265050e-01 -4.566937e-02 3.873984e-01 2.674351e-02 -6.879989e-01 3.636350e-02 
9.271686e+00 -1.130545e+01 -5.252828e+00 -1.719100e+01 -3.173857e+00 9.950126e+00 -8.118339e-01 -4.276867e-01 -1.304663e+01 3.872658e+00 -3.867070e+00 -8.888249e+00 9.448536e-01 -1.167225e+00 -8.851721e-01 3.040070e-01 9.363899e-01 1.931307e+00 1.373170e+00 -7.159087e-01 -6.466315e-01 6.452618e-01 2.835551e-01 5.630578e-01 -8.100930e-01 2.526983e-02 
9.034578e+00 -1.104867e+01 -4.461845e+00 -1.457588e+01 -4.388797e-01 1.202672e+01 3.244519e-01 -1.220734e-01 -1.056441e+01 4.876036e+00 -1.881051e+00 -7.935496e+00 9.631712e-01 -9.316311e-01 -6.284984e-01 -2.175756e-01 5.363871e-01 1.072480e+00 4.643784e-01 -9.972879e-01 -1.271182e+00 5.111626e-01 -4.951464e-01 1.251300e-01 -9.832368e-01 1.214043e-02 
8.367384e+00 -1.178582e+01 -4.154774e+00 -1.460704e+01 -4.761121e-01 1.237594e+01 -9.028335e-01 -1.098523e+00 -9.624741e+00 3.276091e+00 -9.649885e-01 -9.834562e+00 9.651615e-01 -2.615387e-01 -5.963070e-01 8.838415e-02 1.125330e-01 5.673689e-01 3.071948e-01 -6.704043e-01 -9.067665e-01 4.519278e-01 -8.570145e-01 3.816525e-01 -1.130347e+00 2.687168e-03 
7.770674e+00 -1.274736e+01 -4.919293e+00 -1.635837e+01 -5.919950e-01 1.100955e+01 -2.422376e+00 -3.361111e+00 -1.112480e+01 1.579813e+00 -2.494513e+00 -1.138090e+01 9.592102e-01 5.445274e-02 -1.012365e+00 1.249967e-01 -4.146084e-01 3.491664e-01 -2.218260e-01 -9.164087e-01 -8.932888e-01 -1.005630e-01 -9.288691e-01 -2.214409e-01 -1.375100e+00 -2.139211e-05 
8.595945e+00 -1.343764e+01 -4.582183e+00 -1.573708e+01 -2.604551e-01 1.199468e+01 -2.790441e+00 -3.342001e+00 -1.050680e+01 1.235697e+00 -1.652076e+00 -1.281729e+01 9.602699e-01 3.787420e-01 -1.001366e+00 2.375644e-01 -1.414888e-01 6.372442e-01 -2.778200e-01 -5.560487e-01 -5.762789e-01 -1.877823e-02 -3.684483e-01 -4.214480e-01 -9.200624e-01 2.282280e-03 
9.192562e+00 -1.528458e+01 -3.623158e+00 -1.608390e+01 1.199124e+00 1.110822e+01 -3.313788e+00 -3.466779e+00 -1.062620e+01 1.251888e+00 -2.644712e+00 -1.331963e+01 9.655100e-01 4.812769e-01 -9.584299e-01 5.333694e-01 4.301071e-03 1.129816e+00 -4.147893e-01 -9.236984e-02 -3.326825e-01 2.018773e-01 1.999303e-01 -4.279688e-01 -2.588618e-01 7.430041e-03 
9.550150e+00 -1.552404e+01 -3.615020e+00 -1.545173e+01 1.814550e+00 1.093751e+01 -3.237371e+00 -3.927083e+00 -9.967929e+00 1.597812e+00 -2.997129e+00 -1.346551e+01 9.734230e-01 6.134957e-03 -4.886461e-01 -8.523937e-02 3.699795e-01 6.916038e-01 -3.768549e-01 -1.358857e-01 -4.456440e-01 3.779873e-01 -1.067679e-01 -3.510382e-01 -4.190993e-01 9.317076e-03 
9.699956e+00 -1.649631e+01 -2.736028e+00 -1.647955e+01 4.019585e+00 9.464195e+00 -2.660760e+00 -4.731982e+00 -1.038484e+01 2.398407e+00 -3.961831e+00 -1.235110e+01 9.897839e-01 -2.391280e-01 -4.034939e-02 -5.368760e-01 1.043395e+00 -5.660664e-02 2.007512e-01 -3.032342e-01 -3.613219e-02 4.715126e-01 -3.444062e-01 1.930826e-01 -6.995185e-01 9.027535e-03 
8.372923e+00 -1.527501e+01 -5.451944e+00 -1.368936e+01 1.787333e+00 1.093242e+01 -3.796383e+00 -4.937619e+00 -8.737540e+00 1.285983e-01 -2.748708e+00 -1.539705e+01 9.947184e-01 -3.594683e-01 1.649927e-01 -8.255588e-01 1.420262e+00 -9.796984e-02 4.020920e-02 6.350651e-02 4.180563e-01 6.220493e-01 -3.550175e-01 1.462193e-01 -6.364282e-01 4.169762e-03 
8.585535e+00 -1.561085e+01 -5.389075e+00 -1.174811e+01 9.296989e-01 1.211452e+01 -4.550453e+00 -3.142172e+00 -8.883833e+00 2.644635e-01 -1.803509e+00 -1.585145e+01 1.000000e+00 -3.700215e-01 3.966898e-01 -1.005381e+00 1.406224e+00 2.371475e-02 -5.872981e-01 2.019328e-01 4.552384e-01 4.729605e-01 -5.907062e-01 -3.224175e-01 -5.798962e-01 -2.723128e-03 
8.310019e+00 -1.514181e+01 -6.416290e+00 -1.071614e+01 2.869643e+00 9.813392e+00 -1.974992e+00 -2.631707e+00 -7.608188e+00 8.896964e-01 -3.345194e+00 -1.489747e+01 9.891638e-01 -2.114896e-01 1.407001e-01 -2.281232e-01 7.382889e-01 6.458432e-01 -1.331253e+00 4.076115e-01 7.519160e-01 1.402807e-02 -2.521159e-01 -1.291113e+00 3.303720e-01 -4.963607e-03 
7.881300e+00 -1.457946e+01 -7.280760e+00 -1.093504e+01 3.597003e+00 7.087219e+00 -2.561792e+00 -3.608746e+00 -8.584718e+00 -9.356735e-01 -5.275676e+00 -1.550037e+01 9.789456e-01 -3.988947e-01 -1.461025e-01 2.446515e-01 2.119383e-01 7.711764e-01 -2.157723e+00 2.337909e-01 9.721367e-01 -9.759398e-02 -2.286227e-01 -2.344784e+00 8.401605e-01 -4.091245e-03 
7.667593e+00 -1.508720e+01 -5.646718e+00 -1.040445e+01 3.682897e+00 6.789804e+00 -2.752656e+00 -9.447520e-01 -8.816957e+00 -5.319126e-01 -7.468191e+00 -1.392073e+01 9.804276e-01 -3.434939e-01 -2.804573e-01 1.174404e+00 1.426897e-02 4.933930e-01 -2.088684e+00 -1.125397e-01 2.028129e+00 -4.170637e-02 7.787950e-02 -2.735117e+00 1.347355e+00 -3.289455e-03 
6.912275e+00 -1.636866e+01 -4.550604e+00 -1.084426e+01 4.378954e+00 2.837698e+00 -2.992666e+00 8.750346e-01 -8.767418e+00 -1.678453e-01 -1.146593e+01 -1.213902e+01 9.839119e-01 -2.167450e-01 -2.555445e-01 1.763039e+00 1.232872e-02 -5.131199e-02 -2.264196e+00 4.040267e-01 3.111443e+00 -2.137308e-02 3.152191e-01 -2.865633e+00 2.004556e+00 -7.402211e-03 
7.077062e+00 -1.564949e+01 -1.909350e+00 -1.069018e+01 4.945633e+00 1.494733e+00 -2.322254e+00 5.267048e+00 -7.725369e+00 8.951798e-01 -1.392565e+01 -9.841366e+00 9.702333e-01 6.602781e-02 -2.549215e-01 1.582646e+00 2.616474e-01 -1.849214e+00 -2.552987e+00 8.945875e-01 2.657649e+00 2.307339e-01 -4.972884e-01 -2.430831e+00 1.403179e+00 -8.600330e-03 
7.092840e+00 -1.557603e+01 -3.342471e-01 -1.073053e+01 2.709075e+00 -1.586228e+00 -7.568593e-01 8.842567e+00 -9.237377e+00 -7.312432e-02 -1.637511e+01 -7.517272e+00 9.470316e-01 5.197620e-01 -8.932171e-02 2.064935e+00 1.049053e+00 -3.406102e+00 -1.654731e+00 1.748399e+00 2.672668e+00 1.015715e+00 -1.820913e-01 -1.175992e+00 1.663497e+00 -9.396094e-03 
7.907449e+00 -1.675812e+01 1.583319e-01 -9.153076e+00 -4.728234e+00 -3.763169e+00 6.023781e-01 8.359723e+00 -7.428308e+00 -3.065715e+00 -1.716776e+01 -9.215712e+00 9.558660e-01 3.525367e-01 7.430305e-02 1.839055e+00 8.607551e-01 -4.315049e+00 -2.327633e+00 1.874975e+00 1.288706e+00 7.366585e-01 -1.075923e-01 -8.060371e-01 1.490514e+00 -1.443586e-02 
9.095892e+00 -1.626096e+01 4.740232e+00 -6.367544e+00 -7.814624e+00 -2.807004e+00 4.287011e+00 1.269204e+01 -3.837372e+00 9.021456e-01 -1.572484e+01 -4.134360e+00 9.441150e-01 4.035927e-01 7.831108e-01 1.374986e+00 1.361374e+00 -4.089953e+00 -1.868187e+00 1.238694e+00 3.646508e-01 9.365125e-01 8.466908e-01 3.564806e-01 1.706085e+00 -2.529766e-02 
7.838220e+00 -1.493551e+01 4.748686e+00 -8.567900e+00 -1.136776e+01 -9.533046e+00 4.530685e+00 9.785846e+00 -6.742080e+00 -1.304164e-01 -1.828097e+01 -4.080251e+00 8.995123e-01 9.710923e-03 2.062581e+00 1.140814e+00 6.182045e-01 -1.646065e+00 -2.275774e+00 6.195710e-01 1.061413e+00 -2.864621e-01 2.280228e+00 1.357639e+00 1.810617e+00 -4.058194e-02 
9.145418e+00 -1.257178e+01 4.245505e+00 -4.216248e+00 -1.442093e+01 -8.042223e+00 3.472456e+00 9.952760e+00 -4.897929e+00 2.692681e+00 -1.403610e+01 -1.554579e+00 8.487202e-01 -2.425422e-01 2.365473e+00 4.310720e-01 -7.925566e-01 -3.422032e-01 -3.309477e+00 -1.186526e+00 1.260147e+00 -1.767867e+00 1.983503e+00 2.000974e+00 4.037508e-01 -4.112915e-02 
7.931240e+00 -8.289803e+00 6.109764e+00 -7.137702e+00 -9.655407e+00 -1.252443e+01 4.107511e+00 1.503643e+01 -8.330340e+00 7.440159e+00 -1.122393e+01 -1.452517e+00 8.006538e-01 -6.824157e-02 2.483978e+00 6.168387e-01 -9.577318e-01 3.769794e-01 -2.434553e+00 -2.509379e+00 2.143768e+00 -1.250949e+00 1.627719e+00 2.730895e+00 2.856171e-01 -3.715862e-02 
7.836671e+00 -7.756445e+00 6.215054e+00 -1.104543e+01 -1.038182e+01 -1.785870e+01 -1.434033e+00 1.636748e+01 -1.188258e+01 7.034372e+00 -9.248490e+00 -3.429473e+00 7.878985e-01 9.230305e-02 1.740544e+00 6.781698e-01 -3.694296e-01 -7.579784e-02 -2.133466e+00 -2.595384e+00 8.880380e-01 -5.297464e-01 2.360921e-02 1.907042e+00 -3.467132e-01 -3.848927e-02 
8.151385e+00 -4.923293e+00 6.848105e+00 -9.941969e+00 -1.150242e+01 -1.679757e+01 -5.562967e+00 1.729733e+01 -9.504503e+00 5.837333e+00 -7.020304e+00 -1.714719e+00 7.441300e-01 2.303045e-02 6.061330e-01 7.970409e-01 1.501348e+00 -1.802599e+00 -1.130974e+00 -1.886088e+00 -3.440189e+00 1.797112e+00 -2.647934e+00 1.734371e+00 -1.210544e+00 -4.010897e-02 
9.496861e+00 -5.552320e+00 7.267183e+00 -4.661262e+00 -1.387641e+01 -1.657298e+01 -4.669225e+00 1.326250e+01 -6.959579e+00 3.612140e+00 -6.602701e+00 -3.157044e+00 6.845357e-01 4.119324e-01 7.479072e-01 1.700388e-01 4.032699e+00 -1.001353e+00 3.959246e-01 -3.650106e-01 -6.093760e+00 3.762514e+00 -3.321340e+00 1.232472e+00 -8.259991e-01 -6.347658e-02 
7.216297e+00 -6.361200e+00 9.568903e+00 -2.823045e+00 -1.692110e+01 -1.882216e+01 -3.705333e+00 -6.120245e-01 -1.806279e+00 -4.088396e+00 -3.874974e+00 -7.641451e+00 6.517903e-01 7.851940e-01 1.484503e+00 5.365356e-01 4.647923e+00 1.257832e+00 1.486904e+00 -8.875289e-01 -6.235363e+00 2.653848e+00 -2.001130e+00 7.227271e-01 -8.669159e-01 -9.504493e-02 
1.036388e+01 -3.297956e+00 5.704848e+00 5.558606e+00 -1.267924e+01 -1.486678e+01 -4.187903e+00 -5.146641e+00 3.080882e+00 -4.609464e+00 -4.658795e+00 -4.596102e+00 5.166855e-01 9.773240e-02 3.874356e+00 9.040128e-01 4.097128e+00 3.459515e+00 2.258200e+00 -2.204033e+00 -4.808211e+00 1.073471e+00 3.979812e-02 1.215699e+00 5.912738e-02 -1.233442e-01 
1.164385e+01 1.372040e+00 1.031195e+01 8.187710e+00 -5.811846e+00 -1.021615e+01 -1.024127e+01 -4.674919e+00 -1.255495e+00 -5.751693e-02 -4.378621e+00 -5.329769e+00 3.528305e-01 -1.096937e+00 4.894743e+00 1.572152e+00 3.637594e+00 5.159180e+00 3.075650e+00 -1.544049e+00 -2.579511e+00 -1.944893e+00 -4.664150e-01 9.722099e-02 1.298347e+00 -1.272544e-01 
7.771748e+00 9.952842e+00 1.141572e+01 1.031900e+01 -2.133466e+00 -9.584980e+00 -1.242142e+01 -8.747109e+00 -1.867615e+00 1.795691e+00 -2.723839e-01 -4.017248e+00 2.172946e-01 -3.933153e+00 3.238570e+00 1.322518e+00 2.932539e+00 4.751356e+00 2.855867e+00 2.655648e-01 -1.188772e+00 -3.078775e+00 -3.147963e+00 -2.042318e+00 4.695383e-01 -7.983537e-02 
3.027677e+00 1.148712e+01 1.457423e+01 1.298473e+01 3.601908e+00 -6.084810e+00 -7.308816e+00 -1.170935e+01 -9.056494e+00 -9.623049e+00 -5.582075e+00 -1.439143e+00 1.652136e-01 -5.357501e+00 4.628655e-01 -1.297716e+00 1.257528e+00 1.179701e+00 2.401740e+00 3.033928e+00 9.438967e-01 -1.382316e+00 -2.861438e+00 -1.384934e+00 5.591015e-01 -5.402589e-03 
-4.993802e+00 7.837355e+00 1.018630e+01 1.782279e+01 6.370661e+00 -2.653121e+00 -4.326307e+00 -7.573287e+00 -8.412493e+00 -1.556652e+01 -1.426866e+01 -4.193724e+00 2.113171e-01 -5.218373e+00 -2.786946e+00 -3.688917e+00 -1.528930e+00 -1.362500e+00 2.533308e+00 3.564795e+00 3.474492e+00 2.296780e+00 2.021110e-01 5.587557e-01 1.937297e+00 5.208918e-02 
-8.760881e+00 4.744111e+00 4.438080e+00 1.072345e+01 -4.165402e+00 -1.673383e+00 8.808100e-01 -5.423470e-01 -4.894637e+00 -5.683605e+00 -4.305155e+00 -2.446023e+00 3.288063e-01 -3.851481e+00 -3.248115e+00 -4.709107e+00 -3.316386e+00 -3.640381e+00 4.284538e-01 2.091510e+00 4.196692e+00 4.330773e+00 2.871311e+00 3.724030e+00 2.058082e+00 5.468140e-02 
-1.242584e+01 -6.103830e-01 -1.960787e+00 3.804988e+00 -5.062311e+00 8.758457e-01 1.307741e+00 3.041849e+00 7.535355e+00 8.365241e-01 1.882934e+00 6.172676e+00 3.959442e-01 -1.907206e+00 -2.031327e+00 -3.583176e+00 -3.480983e+00 -2.330569e+00 1.597261e-01 1.115096e+00 2.921772e+00 4.249850e+00 4.295830e+00 4.982000e+00 1.899179e+00 2.916461e-02 
-1.251371e+01 -5.295897e-01 -2.897767e+00 3.411700e+00 -8.883511e+00 -5.707025e+00 3.317118e-01 3.966543e+00 4.623446e+00 -3.468015e+00 4.962278e+00 3.668067e+00 3.463071e-01 -8.815491e-01 -1.279121e+00 -2.207966e+00 -1.964729e+00 -5.320497e-01 -2.146866e-01 8.688340e-01 1.624336e+00 2.615433e+00 1.595692e+00 2.036003e+00 -1.891560e-01 2.403617e-04 
-1.265342e+01 3.175712e-01 -4.061652e+00 4.073754e+00 -2.923127e+00 1.623302e-01 1.523720e+00 4.781129e+00 8.077716e+00 4.804838e+00 6.007627e+00 2.245124e+00 3.483897e-01 7.070503e-02 -2.398942e-01 1.091714e-01 4.393945e-01 6.935048e-01 1.428539e-01 8.014190e-01 1.068648e+00 6.151534e-01 1.369848e-01 4.024025e-01 -1.078034e+00 -8.831656e-03 
-1.305484e+01 -2.115471e+00 -5.551319e+00 7.654229e-01 -7.895243e+00 -2.390058e+00 5.116991e+00 6.709692e+00 7.911346e+00 3.106977e-01 3.812512e+00 -1.428028e+00 3.537853e-01 2.009499e+00 1.971325e+00 2.218840e+00 1.064610e+00 9.510109e-01 -5.855156e-01 -4.435940e-01 1.860869e-02 -1.277072e-01 8.916082e-02 4.938260e-01 5.738293e-01 1.909441e-03 
-1.180175e+01 -1.016913e+00 -8.815432e-02 7.325099e+00 -2.088921e+00 -6.836817e-02 2.922196e+00 7.013515e+00 8.967173e+00 -3.679084e-01 4.469830e+00 3.330552e+00 3.480468e-01 2.795903e+00 2.480101e+00 3.599393e+00 1.863076e+00 -7.903623e-03 -1.819080e+00 -1.994445e+00 -1.865737e+00 7.924013e-01 7.506510e-01 1.198776e+00 1.721297e+00 -1.284404e-02 
-2.892050e+00 9.994278e+00 6.209686e+00 7.109076e+00 -4.545559e+00 -8.519254e+00 -2.585496e+00 2.943393e+00 3.540182e+00 -4.358374e-01 8.200307e+00 5.994500e+00 3.560258e-01 2.003957e+00 1.149268e+00 2.172460e+00 1.558078e+00 1.581130e+00 -1.127276e+00 -3.222345e+00 -2.355548e+00 1.270634e+00 1.193779e+00 1.840433e+00 1.862986e+00 -3.786561e-02 
-3.755296e+00 6.663201e+00 8.054810e+00 1.021731e+01 -4.637487e+00 -5.868474e+00 -4.597264e+00 -2.664406e+00 1.422530e+01 8.931360e+00 9.807612e+00 7.140344e+00 2.830493e-01 2.391678e+00 3.867322e-01 3.719507e-01 -3.762117e-01 1.379362e+00 3.845217e-01 -2.097743e+00 -2.763326e+00 -7.340347e-01 -8.845892e-01 -7.839500e-01 -6.814052e-01 -6.812248e-02 
-7.058281e+00 -2.091875e-01 1.239501e+00 7.109706e+00 1.284690e+00 -5.126386e+00 -7.235003e+00 -2.290902e-01 1.163545e+01 1.629959e+00 1.034579e+01 5.982004e+00 1.969560e-01 1.549312e+00 -1.107048e+00 -1.153012e+00 -5.004864e-02 2.067954e+00 1.478865e+00 -2.791393e-01 -1.379663e+00 -9.658559e-01 -1.807818e+00 -2.661340e+00 -1.523190e+00 -9.834594e-02 
2.239755e+00 6.018480e+00 4.256691e+00 5.443725e+00 1.892763e+00 1.578066e-01 -5.241767e+00 -5.216874e+00 1.249363e+00 -5.823753e+00 -5.226605e-01 -7.022655e-02 8.696926e-02 2.124070e+00 2.505302e-01 -1.796629e+00 -1.080626e+00 9.417311e-01 1.533764e+00 1.316381e+00 -1.865151e+00 -3.740528e+00 -2.322119e+00 -3.691815e+00 -2.363401e+00 -9.840269e-02 
1.856987e+00 4.781399e+00 2.343688e+00 9.245625e+00 2.529087e+00 -4.138069e+00 -3.658941e+00 -2.678689e+00 5.198873e+00 -2.097370e+00 5.874276e-02 1.983835e+00 -3.766394e-02 1.513756e+00 8.029356e-01 -1.183853e+00 -1.529371e+00 -1.294965e+00 8.979645e-01 9.673595e-01 -2.615259e+00 -3.941044e+00 -1.509121e+00 -3.877388e+00 -2.324418e+00 -7.890759e-02 
2.407423e+00 5.420559e+00 -1.480427e+00 3.746222e+00 -5.510304e-01 1.306185e+00 1.966081e-01 -1.076536e+01 -1.259043e+00 -8.155678e-01 -3.507941e+00 -2.677577e+00 -9.165418e-02 -1.376626e-01 3.599077e-01 -1.017859e+00 -1.447050e+00 -1.287269e+00 7.076233e-01 7.554907e-01 -1.286791e+00 -2.952243e+00 -1.307217e+00 -1.668442e+00 6.266956e-02 -4.841535e-02 
4.266663e-01 4.104451e+00 -1.811203e+00 3.116051e-01 -3.968239e+00 -1.210753e+00 -5.117393e+00 -1.053114e+01 -6.815562e+00 -8.419740e+00 -7.548515e+00 -4.336408e+00 -1.082702e-01 -1.699967e-02 4.617741e-01 -6.053797e-01 -1.286757e+00 -1.359963e-01 2.228577e+00 1.495200e-01 -8.651455e-01 -2.379856e+00 -1.693377e+00 -5.556456e-01 1.116230e+00 -1.584071e-02 
2.266602e+00 8.156493e+00 1.244842e+00 2.675486e+00 -1.294917e+00 2.232265e+00 -7.350883e-01 -7.724603e+00 -7.504636e+00 -9.198653e+00 -5.061240e+00 3.403243e+00 -1.198044e-01 -4.225197e-01 -2.937627e-01 1.657237e-01 7.895156e-01 1.955557e+00 1.709639e+00 -1.500192e-01 4.789034e-01 8.623802e-01 -9.401962e-01 1.464929e+00 2.908168e+00 -3.840053e-03 
1.842399e+00 5.722302e+00 -2.045846e+00 3.347209e+00 2.221049e+00 6.541778e+00 -2.445493e+00 -8.524796e+00 -3.577612e+00 -6.372710e+00 -1.942836e+00 4.524574e+00 -1.027924e-01 -2.119127e-01 -5.212892e-01 -2.805281e-01 1.214295e+00 3.276803e+00 1.670248e+00 5.585498e-01 6.361750e-01 2.016222e+00 9.036539e-01 2.999038e+00 4.005003e+00 6.725025e-03 
-4.130421e-01 3.142820e+00 -5.344872e-01 6.175998e+00 6.132110e+00 5.978115e+00 -1.889438e+00 -9.374018e+00 1.433883e+00 -6.540064e+00 1.013862e+00 7.432770e+00 -1.135933e-01 -5.260886e-01 -9.972885e-01 -5.627126e-01 1.061514e+00 2.739760e+00 2.164357e-01 -3.311120e-01 5.129610e-01 2.453365e+00 1.092717e+00 1.196311e+00 1.631387e+00 1.061003e-02 
7.069244e-01 4.004841e+00 -2.324179e+00 4.632823e+00 8.702262e+00 5.267562e+00 -1.747469e+00 -6.525558e+00 -1.203709e+00 -5.230764e+00 4.409127e+00 1.367384e+01 -7.775056e-02 -1.918530e-01 -2.269969e-01 -3.413964e-01 3.643526e-01 1.490167e+00 -2.668682e-01 9.282834e-01 2.023551e+00 3.387175e+00 2.026897e+00 5.498177e-01 1.111328e+00 3.270960e-03 
2.038956e-01 4.028781e+00 -1.429554e+00 7.340251e+00 9.163276e+00 3.951552e+00 -2.739660e+00 -6.159416e+00 3.575236e+00 -4.306042e+00 -2.255665e+00 6.985543e+00 -7.927513e-02 1.308403e-02 -3.055525e-03 -7.495005e-01 3.941252e-01 -5.105715e-01 2.065027e-01 1.665664e+00 1.832319e+00 8.563732e-01 1.605956e+00 -3.105837e-01 -1.118564e+00 -3.286898e-03 
5.746651e-01 4.144338e+00 -3.305294e+00 4.586845e+00 8.156303e+00 6.220719e+00 2.621035e+00 -1.434016e-02 1.228759e+01 2.644765e+00 2.441016e+00 1.030483e+01 -1.035967e-01 -3.454584e-01 -1.184833e-01 -5.997370e-01 -1.789237e-01 -1.328801e+00 -1.980181e-01 1.354920e+00 9.753319e-01 -1.130194e+00 -3.883981e-01 -2.722739e-01 -2.612220e+00 -1.595953e-02 
-2.814922e-01 3.057794e+00 -3.791432e+00 8.169613e+00 3.852231e+00 6.534050e+00 4.254629e+00 -3.468034e+00 -1.029899e+00 -2.448046e+00 4.449987e-01 3.524458e+00 -1.171048e-01 -2.559528e-01 2.473092e-02 -6.863977e-01 -1.232647e+00 -1.712803e+00 -1.383996e+00 7.537686e-01 8.734267e-01 -2.209990e+00 -1.798609e+00 4.647994e-01 -1.235981e+00 -1.558729e-02 
-7.776737e-01 3.897918e+00 -4.141925e+00 3.323524e+00 4.713781e+00 2.986222e+00 1.529984e+00 -2.994591e+00 -4.552114e+00 -8.101753e+00 1.697426e+00 2.343285e+00 -1.386334e-01 1.406402e-01 2.646669e-01 6.959214e-01 -1.142125e-01 -1.539389e-01 -1.829734e+00 -1.040969e+00 1.425463e-01 -2.361167e+00 -2.611590e+00 1.262660e-01 -1.469761e+00 2.427435e-03 
-3.996992e-01 4.275645e+00 -4.443227e+00 1.808678e+00 2.320522e+00 -1.351178e+00 1.574708e+00 -3.021576e-01 9.451365e-01 -7.925828e+00 4.401270e-01 4.786410e+00 -1.396933e-01 4.829353e-01 6.249390e-01 5.552375e-01 -3.182316e-01 3.874724e-01 -1.482021e+00 -1.874192e+00 6.785890e-01 6.371235e-01 -6.597217e-01 8.713142e-01 4.567282e-01 1.749229e-03 
1.336969e+00 4.858747e+00 5.002103e-01 7.196250e+00 8.152463e+00 1.014660e+00 -1.243848e+00 -8.845468e-01 -5.057673e-01 -7.674293e+00 3.074782e+00 2.325049e+00 -8.016527e-02 1.407073e-01 2.751337e-01 9.631195e-02 7.559592e-01 1.333740e+00 -4.407357e-01 -1.289088e-01 7.743827e-01 4.462783e-01 4.010360e-01 5.947876e-01 1.126791e-01 1.057517e-03 
1.075863e+00 5.702075e+00 -3.336312e+00 4.642091e+00 4.070252e+00 1.097281e-01 -3.729417e+00 -1.130111e+00 1.325455e-01 -5.960385e+00 4.112892e+00 5.817217e+00 -1.375927e-01 -1.412003e-01 3.066790e-01 -4.366657e-01 6.352242e-01 9.948872e-01 4.941624e-01 8.685433e-01 9.890655e-01 2.775065e-01 1.395619e+00 9.819589e-01 -4.233515e-01 -6.035125e-03 
-8.119183e-01 4.560372e+00 -4.213822e+00 5.686613e+00 1.050762e+01 5.209064e-02 3.537503e+00 1.291299e+00 -1.914426e+00 -7.079295e+00 2.834981e+00 2.391277e+00 -1.343961e-01 -4.463815e-01 3.542654e-01 -5.130485e-01 2.174890e-01 9.490904e-01 4.525528e-01 8.916329e-01 1.049618e+00 2.182091e-01 1.171158e+00 9.201793e-02 -2.368504e-01 -1.441140e-02 
-3.125668e-02 5.958227e+00 -4.269539e+00 5.739617e+00 6.117380e+00 1.600919e+00 3.526749e+00 3.555247e+00 3.036999e+00 -1.245231e+00 5.469822e+00 2.636538e+00 -1.427535e-01 -7.085805e-01 -6.538957e-02 -9.010792e-04 3.646267e-01 1.132066e+00 7.384018e-01 2.130898e-01 -3.781220e-01 5.564314e-01 7.943457e-01 -3.860021e-01 -1.305021e-01 -4.264581e-03 
-3.413782e-01 6.501997e+00 -1.598419e+00 7.734932e+00 1.187435e+01 2.531828e+00 -4.137664e-01 2.020867e+00 -8.669481e-01 -4.176081e+00 2.856407e+00 2.731136e+00 -1.496419e-01 -5.028648e-01 -1.099055e-02 -3.699621e-01 2.306679e-01 -1.083364e+00 -1.439523e-01 -8.162628e-01 -5.676981e-01 1.100697e+00 2.884276e-01 -1.317482e+00 5.372478e-01 -2.973819e-03 
-2.702310e+00 4.404314e+00 -4.648520e+00 5.441065e+00 9.047215e+00 2.561868e+00 -6.883340e-01 -3.385505e+00 2.390963e+00 -3.440263e+00 2.172169e+00 4.994777e+00 -1.512927e-01 -2.581957e-01 -1.235509e+00 -1.530668e+00 -1.459476e+00 -1.019670e+00 2.381947e-01 1.940986e-01 -9.295000e-01 7.765931e-01 3.842999e-01 -9.489403e-01 -1.077736e+00 1.070523e-02 
-1.990716e+00 5.282375e+00 -5.874143e+00 6.989228e+00 3.625881e+00 -1.148145e+00 1.563730e+00 1.923184e+00 3.912076e+00 -4.539641e+00 -2.103602e+00 3.898397e+00 -1.449956e-01 5.036216e-01 -5.753059e-01 -1.092531e+00 -1.826928e+00 -2.135499e+00 -4.504058e-01 6.460567e-02 -5.776968e-01 1.923067e+00 1.988492e+00 1.555816e-01 -1.860607e+00 1.676357e-02 
-4.975662e-01 3.904910e-01 -9.785019e+00 -1.184909e+00 5.143268e+00 4.631879e+00 3.508493e+00 -1.043411e+00 4.530452e+00 8.580481e-01 3.205124e+00 -3.335774e+00 -9.155047e-02 2.969914e-01 3.611107e-01 1.190111e+00 -8.267636e-01 -4.003303e-01 -3.272426e-01 4.967961e-02 -5.063802e-01 6.300856e-01 2.879554e+00 9.144715e-01 -1.484614e+00 4.930043e-03 
1.074358e+00 5.632379e+00 -4.492823e+00 1.913282e+00 3.148826e+00 -7.552063e-01 -2.189152e+00 -2.038664e+00 7.678643e+00 3.617221e+00 3.117837e+00 -2.406625e+00 -9.569514e-02 -2.205658e-02 1.318311e+00 1.653376e+00 -8.191801e-01 5.477350e-01 4.443205e-01 -2.753410e-01 -7.495846e-01 5.401540e-01 2.068532e+00 1.264911e+00 1.206893e+00 -7.233643e-03 
-2.749889e+00 6.034866e+00 6.113777e-01 3.845221e+00 7.284090e+00 7.291855e-01 1.436505e+00 -3.936482e+00 3.658108e+00 6.879076e+00 4.133807e+00 7.242188e-01 -1.512927e-01 -7.713968e-01 1.710475e+00 1.587250e+00 1.975869e-01 2.484389e-01 3.822476e-01 3.157415e-01 4.642088e-01 -1.038292e-01 -4.658999e-01 -6.846951e-01 2.860858e+00 -1.750820e-02 
-9.748373e-01 9.051745e+00 -2.805460e+00 3.782626e-01 5.294145e+00 3.024804e+00 1.223019e+00 -3.782034e-01 7.049018e+00 2.792502e+00 3.756611e+00 7.902865e+00 -1.512927e-01 -1.161466e+00 2.309407e-01 2.912490e-01 -3.818573e-01 -2.947385e-01 5.003015e-01 1.925519e+00 1.000663e+00 -5.767997e-01 -2.859037e+00 -8.448979e-01 1.586220e+00 -1.111951e-02 
-3.329952e+00 7.233181e+00 -2.692452e+00 5.705349e-01 5.312803e+00 4.653112e+00 3.381115e+00 4.474022e-01 4.326119e+00 -1.059092e+00 -5.377383e-01 5.813773e+00 -1.512927e-01 -6.854212e-01 -2.557703e-01 -2.571283e-01 -3.144690e-01 -1.187999e+00 -5.130160e-01 1.530239e+00 1.056930e+00 -9.833162e-02 -3.667729e+00 -8.336865e-01 -4.122157e-02 0.000000e+00 
-4.442943e+00 6.187925e+00 -1.384663e+00 1.641338e+00 2.660777e+00 -2.156618e-01 6.466139e+00 7.727103e-01 4.460639e+00 -6.708879e+00 1.229120e+00 2.979696e+00 -1.512927e-01 -8.049201e-01 -6.772898e-01 4.149385e-01 3.596953e-01 -7.918760e-01 -1.134970e+00 1.357126e+00 2.627136e-01 -5.042238e-01 -2.465255e+00 -3.288123e-01 -1.268042e+00 0.000000e+00 
