-9.887920e+00 5.672918e+00 -7.968283e-01 -2.538314e-01 4.706013e+00 1.125138e+00 3.778331e+00 4.805263e+00 9.724530e+00 7.789366e+00 5.696585e+00 1.195518e+00 -1.402689e-01 4.019093e-01 2.990667e-01 -4.595533e-01 -1.721660e-01 4.814658e-01 1.172768e+00 1.756854e-02 -1.243352e+00 -2.137805e-01 -1.772155e+00 -9.621493e-01 8.948749e-01 3.506518e-03 
-8.134995e+00 8.645245e+00 -2.596239e+00 2.018405e+00 6.718891e+00 4.496088e+00 5.971122e+00 3.423942e+00 8.993676e+00 3.401631e+00 3.368213e+00 4.574152e+00 -8.315623e-02 5.118286e-01 2.845248e-01 -4.500373e-01 -2.959734e-01 5.074742e-01 1.069217e+00 2.292886e-01 -1.066702e+00 2.581791e-01 -1.066984e+00 -8.620151e-01 5.389412e-01 -3.307128e-03 
-8.754837e+00 5.682088e+00 -2.194890e+00 -2.250780e+00 6.106902e+00 5.303500e+00 2.769778e+00 -7.208388e-01 9.021054e+00 1.122460e+00 2.050024e+00 3.980575e+00 -1.512927e-01 4.869600e-01 1.978180e-01 6.126090e-02 7.504030e-01 5.240716e-01 2.534949e-01 1.247305e+00 3.279336e-01 8.596928e-01 -1.204861e+00 -3.768245e-01 1.306783e-01 -9.018397e-03 
-7.895319e+00 7.090957e+00 -2.347984e+00 -7.352244e-01 6.542939e+00 4.382042e+00 5.429050e+00 2.234801e+00 1.136716e+01 5.787898e+00 3.209790e+00 2.497695e+00 -1.512927e-01 -8.023147e-02 3.759370e-02 1.336462e+00 1.097940e+00 -2.100936e-01 -1.454529e+00 5.930068e-01 5.855693e-01 5.141684e-01 -1.143893e-01 3.328781e-01 1.803918e-02 -1.362729e-02 
-7.572958e+00 7.439152e+00 -6.146510e-01 4.874999e+00 7.414347e+00 2.449635e+00 1.028589e+01 7.039501e+00 1.283625e+01 5.719256e-01 3.891674e+00 2.887138e+00 -1.512927e-01 -1.023908e-01 6.282218e-01 1.871184e+00 1.111937e+00 -4.508508e-01 -2.512168e+00 -1.551636e-01 1.156131e+00 4.653408e-01 -3.425326e-01 -1.315246e-01 1.511369e-01 1.760411e-03 
-9.127090e+00 7.954681e+00 3.295952e+00 3.945218e+00 5.014700e+00 -1.349622e+00 5.178099e+00 2.471618e+00 9.656920e+00 3.104952e+00 4.111778e+00 5.211067e+00 -1.512927e-01 1.443463e-01 3.103433e-01 8.490213e-01 -3.019526e-01 -5.275480e-01 -1.078677e+00 -1.753845e+00 -1.993589e-01 -1.029210e+00 4.361362e-01 6.308746e-01 1.080088e+00 1.098965e-02 
-8.650904e+00 8.391335e+00 4.339064e+00 9.686832e-01 4.616768e+00 -4.391507e+00 2.119436e+00 4.941408e+00 1.220288e+01 7.512708e-01 9.414064e-01 3.379573e+00 -1.424906e-01 -2.362820e-01 -2.587770e-01 -6.692997e-01 -1.754760e+00 -5.551165e-02 1.547732e-02 -1.741208e+00 -2.751831e-01 -9.877234e-01 2.174416e+00 5.496559e-01 8.253457e-01 8.111608e-03 
-6.634614e+00 8.166582e+00 -5.797345e-01 -2.918297e-01 5.303989e+00 2.409231e+00 7.430553e-01 2.287053e+00 6.537800e+00 7.878907e+00 7.839296e+00 7.651918e+00 -1.007454e-01 -1.314837e-01 -3.996930e-01 -1.473840e+00 -8.455752e-01 7.698354e-01 7.914270e-01 2.181548e-02 -4.856172e-01 -4.046923e-01 9.121278e-01 6.403742e-01 3.825267e-01 5.337834e-03 
-1.000061e+01 6.039317e+00 -2.023306e+00 -1.780279e+00 6.992144e+00 6.475953e-01 3.797377e+00 5.755868e+00 9.457193e+00 9.057028e+00 4.776195e+00 5.793441e+00 -1.360083e-01 -7.823585e-01 -4.895029e-01 4.231380e-01 -2.825021e-02 3.080950e-01 2.063478e+00 -9.461069e-02 -9.330913e-01 5.017844e-01 1.374691e-01 9.805073e-01 1.286438e+00 1.498367e-02 
-9.109659e+00 7.132225e+00 -8.920635e-01 1.091823e+00 7.676189e+00 8.796175e-02 4.448206e+00 -3.636975e-01 9.006302e+00 3.512712e+00 5.396255e+00 5.916767e+00 -1.278447e-01 -7.487053e-01 -4.510609e-01 1.457465e+00 -1.171645e-02 -8.793538e-01 1.613201e+00 -4.545763e-01 -5.392558e-01 1.900548e+00 -1.613175e+00 1.409251e-01 1.034941e+00 1.767677e-02 
-1.132517e+01 6.460999e+00 6.610918e+00 1.356061e-01 4.971142e+00 7.086517e+00 -2.061925e-01 1.601327e+00 1.347755e+01 3.621713e+00 7.065463e+00 1.067934e+01 -5.402267e-02 -1.007145e-01 -4.662433e-01 5.890302e-01 -1.463336e-01 -1.409101e+00 -1.241553e-01 -5.123014e-01 -4.972530e-01 1.407065e+00 -9.958977e-01 1.582062e-01 -2.122795e-01 6.359124e-03 
-9.715857e+00 5.700437e+00 2.390478e+00 -1.308354e+00 1.917721e+00 7.255776e+00 4.719586e-01 1.668044e+00 1.403036e+01 2.530689e+00 7.399287e+00 1.038367e+01 -5.335438e-02 -2.041430e-01 -3.753804e-01 -4.365054e-01 -1.383051e-01 -5.330988e-01 -1.267777e+00 1.705426e-01 9.172087e-01 1.294731e+00 1.444419e+00 1.605983e-01 -5.824018e-01 -1.080323e-02 
-1.020108e+01 4.423995e+00 -7.194260e-01 -1.311858e+00 2.825871e+00 -3.557088e+00 3.223993e+00 2.253732e+00 1.398049e+01 4.568551e+00 4.565710e+00 2.498590e+00 -1.414578e-01 1.142134e-01 2.232088e-02 -1.460710e+00 1.482647e-01 6.181086e-01 -2.392938e+00 1.093988e+00 7.147728e-01 -8.746608e-02 1.032720e+00 -9.436407e-02 -1.703199e+00 -2.526981e-02 
-1.069242e+01 6.273825e+00 5.905815e-01 1.124029e+00 6.083331e+00 -9.291211e-01 3.585826e+00 3.896143e+00 1.522849e+01 1.026139e+01 7.449123e+00 7.095133e+00 -1.381433e-01 -1.510042e-01 -1.084789e-01 -8.145223e-01 -4.349803e-02 4.917740e-01 -1.031941e+00 4.156937e-01 -4.746950e-01 -1.140432e+00 5.299340e-01 6.411166e-02 -1.323203e+00 -1.409880e-02 
-1.026583e+01 6.285909e+00 2.073138e-01 -3.392621e-01 5.978880e+00 -7.857227e-01 3.706814e+00 4.061141e+00 1.244116e+01 4.919965e+00 6.568725e+00 3.807616e+00 -1.379772e-01 5.048267e-01 -5.681878e-01 -2.457954e-01 2.832364e-01 5.597212e-01 1.646540e+00 -3.309417e-01 -1.049952e-01 -4.756137e-01 7.897787e-02 5.874127e-01 -6.766563e-01 -4.360914e-04 
-1.043851e+01 4.227085e+00 -2.145504e+00 -2.012142e+00 2.800086e+00 7.103888e-01 2.309017e+00 -1.609135e+00 9.097866e+00 5.004652e+00 6.718338e+00 3.113144e+00 -1.255887e-01 6.201634e-01 -6.390837e-01 -4.237262e-01 -1.222944e-01 1.942352e-01 5.804110e-01 -7.450555e-01 -8.541895e-01 5.207967e-01 6.416181e-01 -5.258236e-02 -2.542515e-01 -2.290845e-03 
-7.803904e+00 2.606425e+00 -5.803607e-01 1.672410e+00 7.266099e+00 3.855856e+00 2.207689e+00 4.481395e+00 1.466773e+01 7.591809e+00 7.868166e+00 1.106303e+00 -1.499156e-01 -3.349028e-02 -2.572909e-01 2.124646e-01 4.962895e-01 3.603873e-02 -2.862442e-01 3.570156e-01 -1.864397e-01 4.265942e-01 3.665617e-01 -3.909501e-01 1.094400e+00 -1.120043e-03 
-8.822563e+00 4.918148e+00 -1.134212e+00 -4.932784e-01 6.410897e+00 -3.478555e-01 6.101108e-01 -5.849311e-01 1.671918e+01 1.213356e+01 6.536491e+00 7.174531e+00 -1.436284e-01 -1.421641e-01 4.811727e-01 6.969311e-01 1.013441e+00 4.063919e-01 -1.018729e+00 6.266357e-01 2.343819e-01 4.331214e-01 2.100182e-01 -1.416206e+00 7.914072e-01 -2.791286e-03 
-1.124125e+01 4.653923e+00 7.639910e-01 1.382753e+00 4.353669e+00 -1.687821e+00 6.341345e+00 2.616841e+00 1.076347e+01 3.188321e+00 4.704897e+00 7.248923e+00 -1.345576e-01 -7.830485e-01 -6.717066e-01 2.246913e-01 1.258630e+00 -9.693881e-01 -1.722123e+00 8.907160e-01 1.084653e+00 -9.841479e-01 -1.201606e+00 -2.765743e-01 -7.460030e-01 2.635616e-02 
-9.430655e+00 5.609200e+00 6.669763e-01 3.199889e+00 6.288261e+00 -1.611419e+00 3.375367e+00 4.950517e-01 1.321560e+01 8.256487e+00 1.218941e+00 3.998871e+00 -1.472241e-01 -1.424455e+00 -4.774672e+00 -4.407308e-01 1.004265e+00 6.320459e-01 -5.751683e-01 1.847708e+00 2.243288e+00 -1.693530e+00 -2.375167e+00 1.405779e+00 -3.137139e+00 1.151556e-01 
-1.141510e+01 -1.097633e+00 -3.574983e-01 6.118976e+00 2.480477e+00 -4.122976e+00 5.278641e+00 9.364666e+00 1.149878e+01 3.522312e+00 9.144070e+00 -1.035882e+00 -1.633692e-02 -1.075146e+00 -5.890109e+00 -9.163114e-01 3.100781e-01 1.501942e+00 -2.978372e-01 6.966959e-01 8.077289e-01 -1.794909e+00 -1.643199e+00 2.336509e+00 -3.348391e+00 1.161957e-01 
-1.585791e+01 -1.607943e+01 -2.777121e+00 2.159934e+00 1.050772e+01 -2.006119e+00 1.038000e+01 7.257594e+00 7.883878e+00 9.072447e-02 1.134580e+01 -4.368761e+00 3.730391e-01 2.967834e-01 -1.466712e+00 -1.683618e+00 -1.840356e+00 7.081277e-01 1.210359e+00 1.235811e+00 5.290810e-01 -2.145109e+00 -2.731964e+00 5.009612e-01 -1.010478e+00 1.989993e-02 
-1.340335e+01 -1.395231e+01 -2.095517e+00 3.453121e+00 9.753649e+00 -2.979657e+00 6.322506e+00 3.274214e+00 4.454790e+00 -9.447913e-01 1.132401e+01 -5.309215e+00 1.862892e-01 1.678367e+00 3.061977e+00 -2.187131e+00 -2.602701e+00 -4.008684e-02 1.991993e+00 6.202907e-01 -2.157519e+00 -4.391669e-01 -7.313470e-01 -1.674818e+00 2.583362e+00 -7.653348e-02 
-6.952612e+00 4.702979e+00 -6.882106e+00 -4.668962e+00 6.192314e+00 3.868715e+00 9.032487e+00 6.185683e+00 6.012056e+00 -3.169780e+00 2.633774e+00 1.083149e+00 -1.490375e-01 2.377663e+00 5.042442e+00 -2.447488e+00 -2.085415e+00 -1.182435e+00 1.715519e+00 1.704448e-01 -5.861182e-01 6.275917e-01 1.033400e+00 -2.542723e+00 2.199241e+00 -1.322539e-01 
-7.475914e+00 3.821048e+00 -9.240659e+00 -3.480080e+00 4.437747e+00 2.899571e+00 9.053853e+00 -8.869727e-01 1.023886e+01 1.495830e+00 5.125991e+00 9.154971e+00 -1.379660e-01 1.413270e+00 2.148617e+00 -2.169465e+00 -1.472403e+00 -4.582437e-01 1.681132e+00 1.042876e+00 3.329637e-01 9.719141e-01 8.619868e-01 -2.750309e+00 6.825745e-01 -5.174553e-02 
-6.933313e+00 2.461033e-01 -1.144199e+01 -4.800541e+00 7.253498e+00 3.631860e+00 9.866554e+00 6.407596e+00 8.129803e+00 4.037415e+00 1.731199e+00 -6.046486e-01 -1.261030e-01 4.993483e-01 -2.000495e+00 -1.436380e+00 2.212980e-02 1.178808e-02 3.891343e-01 5.001416e-01 1.529312e-01 5.491348e-01 3.043857e-02 -1.257005e+00 -9.964620e-01 1.964086e-02 
-6.346652e+00 -9.807854e-01 -1.066290e+01 -3.843106e+00 6.931839e+00 5.544431e+00 1.111985e+01 4.828076e+00 8.255487e+00 -2.384543e-01 -1.976245e+00 -1.052444e+00 -8.390570e-02 5.715451e-01 -2.312589e+00 -1.386675e+00 2.542278e-01 3.040752e-01 2.751827e-01 5.817214e-01 1.308891e+00 -6.455358e-01 -1.241532e+00 -1.147955e+00 -1.997980e+00 2.627916e-02 
-5.020503e+00 -2.898581e+00 -1.335289e+01 -4.376800e+00 5.004209e+00 4.491956e+00 1.050020e+01 4.092814e+00 9.749415e+00 -2.150445e+00 -1.001348e-01 1.204546e+00 -7.786334e-02 1.871774e-01 -2.195710e+00 -9.684969e-01 6.006528e-01 -3.949125e-01 -9.781974e-01 9.747944e-01 -6.010912e-01 -9.562456e-01 -7.911993e-01 8.409441e-02 -2.726406e-02 3.272409e-02 
-5.574594e+00 -6.169556e+00 -1.521859e+01 -2.420811e+00 7.082767e+00 3.845436e+00 1.164564e+01 6.814876e+00 6.201373e+00 -1.617900e+00 3.018842e-01 -1.739524e+00 -3.069007e-02 -1.662272e+00 -4.727609e-01 2.466647e-01 -1.608488e-01 9.566307e-01 -3.062692e+00 6.598868e-02 -3.818777e-01 -1.750477e+00 -1.976685e+00 -1.972195e-01 -9.620146e-01 7.814820e-02 
-6.383455e+00 -8.138062e+00 -1.400663e+01 -2.508425e+00 5.203471e+00 -4.096295e-01 1.447763e+01 2.408740e+00 4.375631e+00 7.711411e-01 1.012607e+00 -3.974285e-01 1.090962e-02 -2.279224e+00 1.118568e+00 1.837032e+00 -6.602870e-01 1.255737e+00 -2.694688e+00 9.762536e-01 4.138787e-01 -1.312624e+00 -2.154572e+00 -8.125763e-01 -1.579783e+00 8.821873e-02 
-1.397654e+01 -7.248487e-01 -9.102703e+00 -5.581537e+00 1.161536e+01 -7.318233e+00 9.461077e+00 3.760725e+00 2.189997e+00 -1.158267e+01 -3.518713e+00 -5.061529e+00 2.624488e-01 -4.057259e-01 1.160998e+00 1.850484e+00 2.581983e-01 -2.827374e-01 -1.867405e-01 8.676022e-01 -4.918829e-01 5.506513e-01 -1.797930e-01 -7.855999e-01 -4.379556e-01 2.236744e-02 
-1.221565e+01 -2.809167e-02 -7.225672e+00 -6.097872e+00 9.016594e+00 -3.399650e+00 1.647375e+01 7.689283e+00 5.191984e+00 -7.940920e+00 -2.252718e+00 -5.033367e+00 2.166609e-01 1.457878e+00 1.106263e+00 2.555511e+00 2.053204e+00 -1.754324e+00 1.666766e+00 -2.527157e-01 -6.299273e-01 2.603250e-01 1.230417e+00 -2.689735e-01 1.816548e+00 -4.045386e-02 
-4.687125e+00 -4.419549e+00 -9.356647e+00 6.649039e-01 3.762519e+00 4.406744e+00 1.498559e+01 1.715189e+00 8.546453e+00 1.839165e+00 -1.993453e+00 -1.611333e+00 -2.172852e-02 2.818815e+00 8.134168e-01 2.487268e+00 3.692502e+00 -1.768121e+00 2.476082e+00 -7.381897e-01 -1.154956e+00 8.631946e-01 4.022283e+00 7.736450e-01 2.917610e+00 -9.586567e-02 
-3.738769e+00 -7.593985e-01 -1.102101e+00 4.634376e+00 3.582697e-01 2.061711e+00 1.045179e+01 2.818714e-01 2.499028e+00 2.123070e-01 -1.094891e+00 6.960215e+00 -4.927099e-02 2.052696e+00 2.879908e+00 2.426455e+00 2.061159e+00 -1.473541e+00 -7.763343e-02 -2.988286e+00 -8.067707e-01 8.021687e-01 2.462705e+00 1.394871e+00 1.849549e+00 -7.189722e-02 
-4.120903e+00 3.707889e+00 2.718494e-01 7.514847e+00 7.103916e+00 2.331496e+00 8.781103e+00 1.689652e+00 7.852448e+00 4.452127e+00 -2.294011e-01 3.529728e+00 -8.391356e-02 4.119954e-01 3.675843e+00 1.925541e+00 7.826588e-02 -8.617894e-01 -2.532191e+00 -2.489207e+00 5.275053e-01 1.318190e-01 -4.439918e-01 2.310022e+00 -3.186798e-01 -2.419707e-02 
-2.235285e+00 1.030773e+01 9.235287e-02 7.829494e-01 -2.181053e-02 -2.750193e+00 4.634561e+00 3.668198e+00 9.549829e+00 3.066123e+00 3.839610e+00 1.643848e+00 -1.117327e-01 2.114505e-01 1.706747e+00 2.405652e-01 -1.025863e+00 -1.127587e+00 -1.858537e+00 -6.134348e-01 2.794555e-01 -1.262395e+00 -1.411591e+00 1.756953e+00 -2.088793e+00 -1.192185e-02 
-3.378890e+00 8.426100e+00 -3.261710e-01 2.981946e+00 -3.563881e-01 -5.848259e+00 5.448176e+00 2.659553e+00 5.680147e+00 -1.807702e+00 7.089406e+00 -5.465486e-01 -1.114830e-01 4.668369e-02 1.430873e-01 4.476214e-02 -1.994828e+00 -2.840029e+00 -7.384629e-01 1.128523e+00 -3.021704e-01 -3.704253e+00 -1.923309e+00 1.805633e-01 -1.161263e+00 2.445447e-03 
-3.052523e+00 5.415230e+00 3.997346e-01 1.771513e+00 -1.549512e+00 -3.141098e+00 9.051085e+00 1.194199e+00 -2.726797e+00 -3.715734e+00 4.030471e+00 -1.445610e+00 -9.509552e-02 2.613519e-01 -1.232813e+00 1.911311e-01 3.117886e-02 -1.745067e+00 3.989187e-01 2.253130e+00 -1.402805e+00 -3.907630e+00 -1.384712e+00 -1.091573e+00 -4.219238e-01 2.163757e-02 
-3.478865e+00 6.869576e+00 3.419692e-01 -2.953573e+00 -6.332378e+00 -1.165366e+00 1.221546e+01 1.415800e+00 -4.530506e+00 -1.773491e+00 5.779848e-01 -7.318575e-01 -8.000493e-02 6.887381e-01 -1.239653e+00 2.901860e-01 4.223490e-01 -9.809558e-01 -2.475762e-01 1.395684e+00 -1.294560e+00 -2.291316e+00 -6.950917e-02 -2.112441e+00 -5.866997e-01 3.044211e-02 
-8.785381e-01 4.921928e+00 7.139382e-01 3.906603e+00 -5.759150e+00 -3.097045e+00 1.251657e+01 -2.723948e+00 -4.882997e+00 -3.874544e+00 1.637458e+00 -3.731168e-01 -1.928389e-02 1.341693e-01 -1.481939e+00 4.700101e-01 1.768026e+00 -7.968600e-01 -4.470835e-01 9.604359e-03 -2.145078e+00 -5.056297e-01 1.739398e+00 2.619087e-01 1.807813e-01 4.390976e-02 
-1.022192e+00 2.474485e+00 9.676576e-01 4.026146e+00 -3.156348e+00 -7.108167e+00 1.069385e+01 -1.854173e+00 -4.698334e+00 -2.075843e+00 -2.276294e+00 -4.016293e+00 2.821743e-03 -1.237390e-01 -1.210528e+00 1.116824e+00 2.373099e+00 5.070346e-01 8.971708e-02 -1.970873e+00 -3.253257e+00 -8.965071e-01 1.084859e+00 -6.811439e-01 -4.632308e-01 3.864350e-02 
-3.610013e+00 2.030797e-01 2.436941e+00 7.121781e+00 -7.121827e+00 -2.405116e+00 9.859907e+00 -7.896204e+00 -5.171032e+00 5.132433e+00 6.767154e+00 1.100515e+00 8.303994e-02 4.295368e-01 1.578229e+00 2.471282e+00 1.332629e+00 -6.518537e-01 4.892282e-01 -2.262321e+00 -2.242297e+00 -1.599563e+00 6.664072e-01 -7.143328e-01 -1.080524e+00 4.945580e-02 
-2.731822e+00 3.176359e+00 5.064588e+00 7.304334e+00 -3.115867e+00 -1.062746e+00 3.689423e+00 -1.226436e+01 -8.869024e+00 -8.526831e-01 -5.392583e+00 -3.784827e+00 6.205064e-02 3.121397e+00 2.955057e+00 1.019505e+00 3.740031e-01 -2.638033e+00 1.015860e+00 -3.058996e+00 -1.961454e+00 -1.189320e+00 2.765666e-01 -1.063382e+00 -8.882078e-01 1.169947e-01 
2.123961e+00 1.246214e+01 1.102188e+01 8.930655e+00 -9.038659e+00 -3.673615e+00 4.707185e+00 -8.730338e+00 -1.079547e+01 -1.154088e+00 -3.760619e-01 -5.891472e+00 1.983806e-01 4.532891e+00 2.007108e+00 6.212359e-02 -9.555664e-01 -3.390448e+00 -1.445850e-02 -3.722109e+00 6.472616e-02 -4.174982e-01 -4.521978e-01 -1.614068e+00 -8.539068e-01 1.533138e-01 
1.171781e+01 1.112024e+01 1.772712e+00 4.991725e+00 -1.538810e+01 -1.394619e+00 -2.024764e+00 -1.124438e+01 -7.832718e+00 2.450251e+00 -4.021595e+00 -4.961339e+00 5.301247e-01 3.815816e+00 -8.136716e-02 -3.327073e-01 -1.437218e+00 -4.020468e+00 -6.705814e-01 -2.646877e+00 8.172735e-01 8.059906e-01 8.214583e-01 3.349541e-01 6.196491e-01 1.565568e-01 
1.182963e+01 6.266680e+00 4.393497e+00 3.500253e+00 -1.793795e+01 -2.311472e+00 -5.893544e+00 -8.082564e+00 -7.776676e+00 1.219977e+00 -1.988680e+00 -2.580763e+00 6.155719e-01 1.990201e+00 -1.839615e+00 -5.689249e-01 -1.036399e+00 -2.668658e+00 -9.607787e-01 -2.071826e+00 8.389055e-01 1.054419e+00 6.438879e-01 -6.680452e-01 1.238891e+00 1.010381e-01 
1.149443e+01 5.867250e+00 6.715243e+00 2.833441e+00 -1.876856e+01 -5.096725e+00 -4.244596e+00 -8.501878e+00 -6.348467e+00 2.067576e+00 -2.911503e+00 -2.341936e+00 6.362388e-01 8.018289e-02 -1.396877e+00 9.668005e-01 6.088752e-01 -1.659254e+00 -1.581582e+00 -2.676188e-01 1.613907e+00 3.265305e-01 2.892241e-01 1.166439e-01 1.014957e+00 2.959572e-02 
1.218666e+01 5.890555e+00 5.705991e+00 4.827802e+00 -2.069172e+01 -6.626456e+00 -4.542032e+00 -5.907060e+00 -6.265499e+00 2.256689e+00 -4.271334e+00 -1.006717e+00 6.505139e-01 -3.931746e-01 -7.216719e-01 -7.211437e-02 1.209898e+00 -3.159935e-01 -1.503869e+00 -6.705183e-01 1.885830e+00 1.587815e+00 -1.525101e-01 -4.442900e-01 3.684289e-01 1.445675e-02 
1.194021e+01 4.323916e+00 5.950468e+00 7.372327e+00 -2.230749e+01 -7.145039e+00 -4.038614e+00 -4.262593e+00 -6.955654e+00 3.378016e+00 -2.297049e+00 -6.735774e-01 6.606323e-01 -5.047063e-01 -2.841168e+00 -1.772389e+00 -2.247757e-01 5.822487e-01 7.797109e-01 -3.355464e+00 2.500779e+00 2.949187e+00 -1.916191e+00 -6.514049e-01 1.473899e+00 3.950303e-02 
9.640865e+00 3.429988e+00 4.415312e+00 7.280302e+00 -1.774846e+01 -8.806660e+00 -9.349127e+00 -7.730591e-01 4.659929e-01 -1.977932e-01 -4.517357e+00 -1.572798e+00 6.756589e-01 -1.131278e+00 -4.443427e+00 -2.817658e+00 -1.531106e+00 1.510400e+00 2.990350e+00 -4.393502e+00 2.459923e+00 2.192559e+00 -2.408396e+00 -1.627137e+00 1.432628e+00 6.243942e-02 
1.024379e+01 -7.108306e+00 -1.501364e+00 4.833131e-01 -1.732895e+01 -1.080676e-01 -1.861837e+01 1.435015e+00 5.031722e+00 -6.286139e+00 -6.045516e+00 5.310600e+00 8.211815e-01 -1.384307e+00 -4.722756e+00 -3.346781e+00 -2.279314e+00 3.114994e+00 3.870873e+00 -3.165265e+00 1.877592e+00 1.607552e-01 -1.764863e+00 -2.140487e+00 -2.560515e-01 7.194109e-02 
7.378475e+00 -1.061047e+01 -4.656384e+00 6.167784e-01 -1.562899e+01 4.806808e+00 -1.921967e+01 3.543754e+00 -1.296394e+00 -4.953212e+00 -1.053278e+01 3.164335e+00 8.824364e-01 -1.061326e+00 -3.967709e+00 -2.492893e+00 -2.448283e+00 4.014351e+00 3.741641e+00 -3.340723e-01 2.051905e-01 -2.175781e+00 -4.916973e-02 -1.259042e+00 -1.560462e+00 6.162781e-02 
6.149866e+00 -1.226964e+01 -6.247589e+00 -6.924821e-01 -7.792254e+00 5.402591e+00 -1.492967e+01 2.966964e+00 -5.270684e+00 -3.068591e+00 -9.991771e+00 -4.322402e+00 9.169489e-01 -9.966978e-01 -1.845492e+00 -1.079004e+00 -2.294931e+00 4.744764e+00 2.736524e+00 6.160204e-01 -8.493013e-01 -3.096551e+00 1.621425e+00 -3.415858e-01 -3.160707e+00 3.305309e-02 
6.381197e+00 -1.382789e+01 -5.676043e+00 -4.373215e+00 -2.445048e+00 7.146213e+00 -1.286384e+01 -5.130811e-01 -5.261710e+00 -2.052416e+00 -8.839437e+00 -4.558606e+00 9.359142e-01 -1.037557e-02 -1.125040e+00 -6.785011e-02 -3.139585e+00 5.071720e+00 2.507211e+00 -1.416090e-01 -9.981016e-01 -1.643441e+00 1.981280e+00 8.670001e-01 -1.548761e+00 2.365827e-02 
5.758942e+00 -1.472706e+01 -6.386552e+00 -8.496345e+00 -1.970973e-01 1.240485e+01 -1.871618e+01 -7.830751e-01 -8.468374e+00 3.705868e-01 -8.600119e+00 -6.631464e+00 9.597080e-01 3.025811e-01 -6.891201e-01 1.400815e-01 -3.306963e+00 3.869025e+00 1.775903e+00 -9.842612e-01 -1.237101e+00 -8.449962e-01 1.363383e+00 7.519514e-01 3.722139e-01 1.868094e-02 
7.522059e+00 -1.500696e+01 -4.926153e+00 -1.117922e+01 5.932036e+00 1.384174e+01 -1.803446e+01 4.282652e-01 -7.914757e+00 3.233600e+00 -6.893610e+00 -3.424939e+00 9.793482e-01 5.462404e-01 -7.543246e-01 4.597288e-01 -3.049031e+00 3.095901e+00 2.908953e-01 -7.144195e-01 -1.097930e+00 -6.122801e-01 8.164070e-01 2.238274e-03 1.198859e+00 1.399630e-02 
7.092340e+00 -1.512570e+01 -5.922127e+00 -1.382430e+01 7.364330e+00 1.093434e+01 -1.726567e+01 -3.689216e+00 -8.169142e+00 1.105318e+00 -7.204927e+00 -3.028166e+00 9.886366e-01 6.140255e-01 -6.022099e-01 5.444036e-01 -2.369130e+00 2.319892e+00 -1.168189e+00 5.177538e-01 -1.502540e+00 1.215723e-01 -2.204821e-02 -4.730822e-01 1.829282e+00 5.335861e-03 
8.445701e+00 -1.740019e+01 -3.609612e+00 -1.695440e+01 9.253743e+00 9.335942e+00 -1.716119e+01 -4.549659e+00 -8.472727e+00 1.662254e+00 -9.525842e+00 -3.659587e-01 9.914314e-01 3.759986e-02 -2.972788e-01 2.729053e-01 -1.392051e+00 3.446276e-01 -1.857962e-01 -6.266018e-01 -8.185819e-01 2.355837e-01 -6.799682e-01 -4.785017e-01 1.328542e+00 -5.156398e-04 
8.367249e+00 -1.654149e+01 -4.322805e+00 -1.745440e+01 9.741508e+00 8.816802e+00 -1.656404e+01 -5.806813e+00 -7.581528e+00 1.046019e+00 -9.649414e+00 9.854546e-01 9.803457e-01 -2.064611e-01 3.346191e-01 -1.944153e-02 -2.871016e-01 -3.032969e-01 1.178484e+00 -1.424942e+00 3.147776e-01 6.715425e-01 -4.677436e-01 3.212911e-01 8.702163e-01 -2.529794e-03 
7.072604e+00 -1.578546e+01 -4.361287e+00 -1.632442e+01 6.466585e+00 1.397153e+01 -2.151828e+01 -2.605846e+00 -7.030645e+00 -1.365914e-01 -8.063875e+00 1.210959e+00 9.809154e-01 -6.150097e-01 6.314329e-01 -5.085985e-01 3.309328e-01 -5.906674e-01 1.278648e+00 -1.704437e+00 3.492974e-01 8.168790e-01 -7.773511e-01 8.480439e-01 -2.928539e-01 5.771637e-04 
6.746583e+00 -1.425997e+01 -5.643497e+00 -1.557479e+01 7.241425e+00 1.450897e+01 -2.221184e+01 -3.087234e+00 -5.532470e+00 -3.339779e-01 -6.329455e+00 5.344564e-01 9.812456e-01 -4.704123e-01 3.101915e-01 -1.731958e-02 2.211200e-01 1.304557e-01 9.134185e-01 -1.450636e+00 7.253140e-01 7.047003e-01 -3.207646e-01 7.386205e-01 -5.866353e-01 5.226040e-03 
6.180985e+00 -1.538379e+01 -5.492258e+00 -1.623954e+01 7.550448e+00 1.288310e+01 -2.285948e+01 -4.162961e+00 -5.412861e+00 -1.534503e+00 -6.945601e+00 -1.604729e+00 9.938673e-01 -2.410470e-01 2.944433e-01 -2.453494e-02 1.436066e-01 1.194410e+00 -5.641416e-01 -6.136551e-02 2.206987e-01 9.105958e-01 -2.313190e-01 5.028610e-01 -7.459892e-01 4.333520e-03 
6.460997e+00 -1.519137e+01 -3.843918e+00 -1.639124e+01 9.851856e+00 1.392811e+01 -2.314662e+01 -1.401685e+00 -4.866919e+00 1.411517e-01 -6.515449e+00 -5.398777e-01 1.000000e+00 -4.006647e-02 -1.104475e-01 1.814005e-01 3.950491e-01 6.609859e-01 -9.158233e-01 2.607208e-01 1.653047e-01 6.609686e-01 -2.831919e-01 -1.531077e-01 -4.110410e-01 -1.588207e-03 
6.010162e+00 -1.384754e+01 -5.383751e+00 -1.519816e+01 1.113342e+01 1.144125e+01 -2.135771e+01 -2.345127e+00 -2.810442e+00 -1.530751e+00 -5.456573e+00 -1.981820e+00 9.932058e-01 -7.458381e-02 -1.941340e-01 1.367764e-01 7.956454e-01 3.292559e-02 -1.201156e+00 6.130276e-01 -1.890495e-02 6.652606e-01 -4.611415e-01 -2.502513e-01 -3.777478e-01 -6.395280e-03 
6.631662e+00 -1.558033e+01 -4.790747e+00 -1.412024e+01 8.754869e+00 1.065078e+01 -2.165912e+01 -3.169628e+00 -3.528836e+00 -1.751813e+00 -7.839508e+00 -1.332204e+00 9.736353e-01 -8.860694e-02 -7.991447e-01 2.181389e-01 1.282537e+00 -1.338340e+00 -1.218555e+00 3.907797e-01 3.844657e-02 1.872619e-01 -9.308394e-01 -2.496193e-01 -1.222141e+00 -7.196063e-03 
5.722733e+00 -1.615998e+01 -4.334961e+00 -1.339681e+01 8.263569e+00 8.515982e+00 -2.053810e+01 -3.373515e+00 -2.755599e+00 -2.893728e+00 -7.534828e+00 -3.097305e+00 9.750732e-01 1.437607e-01 -1.210277e+00 7.480968e-01 1.535924e+00 -1.965384e+00 -1.251930e+00 5.613731e-01 7.980108e-01 -4.719148e-01 -8.258474e-01 -3.732076e-01 -8.543806e-01 -9.581566e-03 
6.161676e+00 -1.803088e+01 -3.277618e+00 -1.087923e+01 4.595081e+00 9.297969e+00 -2.160253e+01 -6.952586e-01 -3.958031e+00 -3.831557e+00 -6.724418e+00 -6.092840e+00 9.730860e-01 2.266237e-01 -9.820717e-01 7.539088e-01 2.154122e+00 -2.538867e+00 -1.498303e+00 1.347285e+00 1.156710e+00 -1.991093e-01 -1.279962e+00 2.705336e-02 -3.447016e-01 -1.129513e-02 
6.963959e+00 -1.867366e+01 -2.399832e+00 -9.139043e+00 3.386390e+00 5.858006e+00 -1.857914e+01 4.077424e-01 -4.955419e+00 -4.620117e+00 -7.880157e+00 -3.873404e+00 9.455727e-01 5.138521e-01 -6.827242e-01 7.422589e-01 2.385468e+00 -3.084042e+00 -1.674285e+00 2.125736e+00 1.208665e+00 -6.246241e-01 -1.132012e+00 -5.848747e-01 9.738022e-01 -1.528051e-02 
7.144168e+00 -1.923385e+01 -1.988768e+00 -5.478510e+00 -1.500878e+00 4.488251e+00 -1.590217e+01 7.232913e-01 -3.424473e+00 -7.288430e+00 -7.531577e+00 -2.667662e+00 9.319099e-01 1.560183e-01 1.025568e-01 8.256493e-01 1.552649e+00 -2.999854e+00 -2.282961e+00 2.929671e+00 1.109808e+00 -1.337354e+00 -3.900773e-01 -7.619888e-01 1.812174e+00 -1.566603e-02 
7.800748e+00 -1.897211e+01 -1.268092e+00 -4.169835e+00 -4.108662e+00 2.549416e+00 -1.275959e+01 1.960535e+00 -6.145498e+00 -6.825353e+00 -1.005562e+01 5.911618e-02 9.192587e-01 -3.828950e-01 9.733890e-01 1.055631e+00 5.571328e-01 -2.649033e+00 -2.397125e+00 3.074968e+00 1.148574e+00 -2.013592e+00 3.063713e-01 -6.489591e-02 1.129627e+00 -1.151463e-02 
6.523373e+00 -1.736887e+01 2.847578e-01 -5.600589e+00 -6.656660e+00 -4.625414e-01 -9.863947e+00 4.077384e+00 -1.004976e+01 -4.679325e+00 -9.446629e+00 1.001770e+00 9.079129e-01 -6.662511e-01 1.704924e+00 1.720085e+00 -5.176349e-01 -1.885109e+00 -1.670930e+00 2.392684e+00 1.631823e+00 -2.642908e+00 1.267877e+00 7.370526e-01 5.802754e-01 -1.218828e-02 
5.359881e+00 -1.473920e+01 1.741561e+00 -6.292339e+00 -7.280884e+00 -3.652222e+00 -6.223412e+00 4.473567e+00 -1.171074e+01 -4.392813e+00 -7.247110e+00 -5.998373e-02 8.999981e-01 -8.930615e-01 2.015465e+00 2.087679e+00 -1.305410e+00 -1.809031e+00 -1.140259e+00 1.259301e+00 1.101854e+00 -2.200068e+00 1.088721e+00 1.562332e+00 -9.398926e-02 -1.276653e-02 
5.033347e+00 -1.282568e+01 5.106829e+00 -7.005432e+00 -9.340312e+00 -7.655810e-01 -7.206843e+00 7.625890e+00 -1.385639e+01 -2.165315e+00 -5.250570e+00 2.932647e-01 8.805988e-01 -6.569234e-01 2.373385e+00 1.929473e+00 -1.082385e+00 -1.931739e+00 -3.354182e-01 7.131225e-01 1.836875e-01 -1.703947e+00 1.262916e+00 1.840059e+00 -2.497973e-02 -1.329063e-02 
4.080454e+00 -1.116638e+01 6.759270e+00 -9.994462e+00 -1.181199e+01 -3.000358e+00 -7.791643e+00 5.695553e+00 -1.524252e+01 -2.638753e+00 -4.341993e+00 -5.657744e-02 8.690830e-01 -4.337372e-01 2.430570e+00 1.302936e+00 -7.816725e-01 -2.600606e+00 2.442420e-02 -4.766140e-02 -9.706146e-01 -1.354851e+00 1.097562e+00 1.903180e+00 -2.432444e-01 -1.376922e-02 
3.878470e+00 -7.288354e+00 7.423269e+00 -9.161454e+00 -1.404980e+01 -2.465564e+00 -5.514220e+00 4.384828e+00 -1.680360e+01 7.582259e-01 -1.698891e+00 8.751682e-01 8.569172e-01 -2.194253e-01 2.474826e+00 7.000438e-01 -7.611697e-01 -2.582237e+00 -5.597275e-01 -1.567217e-01 -2.228474e+00 -8.210735e-01 5.448660e-01 1.750782e+00 -4.278207e-01 -1.312943e-02 
3.768633e+00 -5.355017e+00 7.098022e+00 -9.122690e+00 -1.792917e+01 -2.680110e+00 -7.308031e+00 1.241025e+00 -1.701138e+01 -3.667712e-01 4.929478e-01 -1.567158e+00 8.429928e-01 -2.413746e-01 2.589572e+00 5.685891e-01 -1.210525e+00 -1.672657e+00 -1.190114e+00 3.176608e-01 -3.338197e+00 -4.337202e-01 2.955584e-01 1.198571e+00 9.810589e-02 -1.484173e-02 
4.092130e+00 -3.357232e+00 8.437672e+00 -1.124717e+01 -1.919291e+01 -3.724343e+00 -8.232258e+00 -1.289217e+00 -1.707733e+01 -5.769758e-01 1.085872e+00 -1.090549e+00 8.279969e-01 -5.451193e-01 2.604885e+00 7.210087e-01 -2.444513e+00 -1.234623e-01 -2.385946e+00 7.279478e-01 -4.607677e+00 3.465370e-01 -5.338870e-01 4.524600e-01 3.412441e-01 -1.661486e-02 
2.766751e+00 -1.840754e-01 9.095014e+00 -1.500423e+01 -1.760372e+01 -8.321536e+00 -4.844320e+00 -8.158408e+00 -1.727426e+01 -4.933605e-01 2.584801e-01 1.416810e+00 8.093346e-01 4.355230e-01 2.558664e+00 9.047011e-01 -1.216864e+00 -4.891907e-01 -2.461867e-01 -4.713640e-01 -1.536660e+00 -4.838842e-01 -3.707687e-01 1.349456e+00 3.796479e-01 -2.438821e-02 
1.653815e+00 3.150600e+00 1.002982e+01 -1.844325e+01 -1.482984e+01 -1.157458e+01 -3.106336e+00 -1.395384e+01 -1.493948e+01 -1.847914e+00 6.806426e-01 1.089405e+00 7.906720e-01 1.491891e+00 2.513896e+00 -5.445720e-01 8.020177e-01 -5.718001e-01 1.118009e+00 -1.660363e+00 1.237634e+00 -2.680081e-01 -6.340804e-01 1.409569e+00 -8.064460e-01 -4.365607e-02 
7.165406e+00 4.184386e+00 1.082545e+01 -1.160897e+01 -2.255666e+01 1.407447e-02 -1.222781e+01 -1.099632e-01 -2.049973e+01 -1.585146e+00 7.442841e+00 -7.588946e-01 7.397141e-01 2.342620e+00 2.621556e+00 -2.435023e+00 3.910127e+00 -1.813744e-01 1.465279e+00 1.200332e-01 2.244536e+00 -6.518229e-01 1.412493e+00 2.054534e-01 -2.478026e+00 -5.509563e-02 
9.352257e+00 7.028019e+00 4.849591e+00 -8.934708e+00 -1.957544e+01 -2.302104e+00 -1.284233e+01 8.747317e-01 -1.680464e+01 -3.201485e+00 4.541535e+00 -4.034926e+00 6.445267e-01 1.897908e+00 2.054652e+00 -2.432555e+00 4.991743e+00 9.826752e-01 2.299879e-01 1.428791e+00 1.139603e+00 -5.340239e-01 1.996703e+00 -1.084929e+00 -3.021018e+00 -5.724379e-02 
1.063063e+01 1.098499e+01 -4.899898e-01 -2.078639e-01 -1.613779e+01 -5.631381e+00 6.238413e-01 -4.350013e+00 -1.960080e+01 7.245888e+00 -6.446993e-01 -8.411154e+00 6.069291e-01 2.194446e-01 1.806700e+00 -1.333189e+00 4.408870e+00 3.104836e+00 -2.026900e+00 2.194120e+00 -2.527519e+00 4.086208e-01 1.714166e+00 -2.165000e+00 -1.639261e+00 -5.078944e-02 
9.410744e+00 1.002356e+01 3.524761e+00 8.149083e-01 -1.312590e+01 -7.601912e+00 -2.388206e+00 -6.135798e+00 -1.805906e+01 3.720086e+00 -7.002332e-01 -1.018955e+01 5.708456e-01 -3.371419e-01 1.004073e+00 5.702791e-01 3.166965e+00 2.880343e+00 -1.329965e-01 1.487675e+00 -2.969800e+00 2.551211e-01 -3.076934e-01 -1.453717e+00 2.184358e-01 -4.140326e-02 
8.233385e+00 1.172012e+01 4.821924e+00 5.560571e+00 -1.025725e+01 -7.470521e+00 -6.484273e+00 -9.242291e+00 -1.782941e+01 3.524898e+00 -7.612762e-01 -5.877887e+00 5.226075e-01 -3.705701e-01 7.238128e-01 1.131894e+00 1.397023e+00 1.823965e+00 3.569714e-01 5.522667e-01 -1.174742e+00 5.322071e-01 -3.069078e+00 -4.832777e-01 1.045166e+00 -4.058935e-02 
8.865170e+00 1.168082e+01 5.045030e+00 4.015902e+00 -8.113991e+00 -2.047516e+00 -1.849894e+00 -1.152813e+01 -1.641472e+01 -2.879457e+00 -2.668762e+00 -4.209381e+00 4.796712e-01 -3.938251e-01 8.501579e-01 8.013933e-01 1.172376e+00 3.242350e-01 -1.503101e-01 2.250034e+00 -9.450604e-01 6.221058e-01 -2.349511e+00 -7.537996e-01 6.706482e-01 -3.747401e-02 
9.050568e+00 1.377542e+01 4.409344e+00 5.176753e+00 -9.523915e+00 -6.623722e+00 3.116019e+00 -7.527560e+00 -1.776193e+01 -4.799731e+00 -2.076824e+00 -6.175412e+00 4.495695e-01 -5.431703e-01 8.459191e-02 6.784724e-01 5.951635e-01 4.872481e-01 -6.913635e-01 3.013352e+00 -2.437288e-01 1.316650e+00 -1.756800e+00 -7.771763e-01 -4.056271e-01 -3.607032e-02 
7.033027e+00 1.324669e+01 7.738018e+00 6.868697e+00 -1.187139e+01 -8.776862e+00 4.061817e+00 -1.171847e+01 -1.498228e+01 -3.865156e+00 -3.811458e+00 -6.687551e+00 4.199945e-01 -8.747082e-01 -2.881849e-01 1.149711e-01 9.602258e-01 1.084766e+00 -6.565617e-01 2.559547e+00 3.384450e-01 1.044183e+00 -4.733989e-01 -3.643068e-01 -1.070004e+00 -3.982764e-02 
6.433605e+00 1.136014e+01 6.867792e+00 7.109991e+00 -5.942311e+00 -7.562666e+00 5.626633e+00 -1.036577e+01 -1.196239e+01 -4.766253e+00 -4.075809e+00 -6.666937e+00 3.720942e-01 -9.976215e-01 -7.968350e-01 -3.850351e-01 1.006587e+00 3.001656e+00 1.361266e+00 1.687329e+00 6.727875e-01 2.264043e+00 -4.656692e-01 -6.342748e-01 -4.318715e-01 -4.791988e-02 
5.800111e+00 1.144754e+01 4.390662e+00 7.850411e+00 -4.480965e+00 -4.860853e+00 9.692533e+00 -8.416800e+00 -1.409358e+01 -5.263191e+00 -3.490803e+00 -9.313636e+00 3.192706e-01 -8.688182e-01 -1.178957e+00 -1.487918e+00 8.420412e-01 3.961639e+00 2.155697e+00 1.477012e+00 1.512018e+00 1.273392e+00 -2.541833e+00 -8.276308e-01 1.058649e+00 -5.174296e-02 
4.678919e+00 1.069083e+01 4.157847e+00 9.718832e+00 1.789151e+00 -1.775395e+00 8.737305e+00 -5.814456e+00 -6.886063e+00 -6.429060e+00 -5.408525e+00 -7.021727e+00 2.603321e-01 -9.308389e-01 -1.201150e+00 -1.269124e+00 7.184920e-01 1.940664e+00 1.398363e+00 1.292780e+00 1.321476e+00 8.578054e-01 -2.548693e+00 -1.187302e+00 1.323114e+00 -5.062285e-02 
3.566279e+00 7.686565e+00 1.653399e+00 9.774483e+00 4.071077e+00 -8.920143e-01 9.891540e+00 -6.434031e+00 -1.115347e+01 -1.574292e+01 -7.283254e+00 -1.216913e+00 2.171608e-01 -9.806012e-01 -1.180825e+00 -2.061725e-01 5.560463e-01 1.203472e+00 3.762422e-01 6.993537e-01 7.317216e-01 9.717790e-01 -1.669132e+00 -9.989872e-02 1.605872e+00 -4.505413e-02 
2.896327e+00 7.234879e+00 1.890805e+00 9.740416e+00 -5.150146e-01 -2.555269e+00 1.199103e+01 -4.749770e+00 -9.143412e+00 -1.226986e+01 -8.116095e+00 -4.099727e+00 1.700349e-01 -6.290845e-01 -9.532213e-01 -4.469970e-01 -1.602778e-01 -3.098643e-02 -8.274967e-01 -1.206364e-01 6.081442e-01 -2.875698e-01 -3.944475e-01 1.274287e+00 1.111089e+00 -4.046169e-02 
1.788401e+00 7.271391e+00 4.493320e+00 1.061985e+01 2.688479e+00 -2.589704e+00 1.156244e+01 -5.290534e+00 -8.106012e+00 -1.068845e+01 -2.636512e+00 -2.745276e+00 1.391486e-01 -4.963558e-01 -6.937135e-01 -2.916895e-01 -3.555899e-01 5.538988e-02 -3.131674e-01 -7.584304e-01 5.408828e-01 2.164319e+00 1.781047e+00 8.843365e-01 3.134527e-01 -4.097204e-02 
2.422435e+00 6.132307e+00 5.029012e-01 8.494759e+00 2.325518e+00 -5.064034e+00 7.298673e+00 -3.345483e+00 -9.847643e+00 -1.092853e+01 -1.360462e+00 -7.020992e-01 9.702975e-02 -3.424892e-01 -9.652265e-01 -2.542526e-01 -1.416099e-01 5.881464e-01 -7.228033e-01 -7.467523e-01 1.573511e+00 3.653165e+00 1.828613e+00 1.204016e+00 2.083938e+00 -2.975108e-02 
1.321446e+00 4.769284e+00 8.889036e-01 8.619362e+00 2.927760e+00 -1.203469e+00 8.445566e+00 -4.431761e+00 2.023602e-02 -7.508346e+00 -6.239388e+00 -1.348463e+00 4.880315e-02 -3.107751e-01 -9.267256e-01 2.716317e-01 5.601310e-01 4.472052e-01 -1.019055e+00 -9.325061e-01 1.940333e+00 4.784220e+00 2.637384e+00 4.549583e-01 1.181779e+00 -2.001132e-02 
1.417358e+00 3.659800e+00 2.421750e+00 1.003261e+01 2.306077e+00 -6.862404e+00 9.815706e+00 2.688398e+00 5.059290e+00 -4.716844e+00 -2.945774e-01 5.621558e+00 6.645221e-02 -4.227710e-01 -4.031450e-01 8.199933e-01 1.974707e-02 1.150072e+00 1.674371e-02 -7.463320e-01 1.487293e+00 4.720569e+00 3.237389e+00 7.846292e-01 7.023053e-01 -1.674930e-02 
7.370644e-01 3.874017e+00 4.892054e+00 1.265158e+01 4.934226e+00 -6.785794e+00 5.641392e+00 1.394188e+00 8.361622e+00 -6.073730e-01 -8.946624e-01 1.791567e-03 5.438077e-02 -5.575476e-01 -9.912707e-01 -5.331631e-01 -3.771546e-01 1.517451e+00 1.231706e+00 -4.422621e-01 1.943601e+00 2.159070e+00 2.338639e+00 1.662832e+00 6.650028e-02 -1.293302e-02 
6.007710e-01 4.564216e+00 2.601293e+00 6.577385e+00 7.072648e+00 -2.189153e+00 4.969100e+00 1.178010e+00 9.584507e+00 1.807927e+00 -1.096780e-01 2.134300e+00 1.049441e-02 -7.483541e-01 -7.327334e-01 -1.621992e+00 -1.238821e+00 1.210430e+00 6.298312e-01 -1.347287e+00 8.794680e-01 1.317243e+00 4.814720e-01 1.106587e+00 -6.003529e-01 -1.401142e-02 
-1.057999e+00 -6.392775e-01 -1.866683e+00 8.461202e+00 8.131729e+00 2.618436e+00 8.657558e+00 6.041438e+00 8.552979e+00 9.224620e-01 1.982321e+00 7.276673e-01 1.211697e-02 -6.240292e-01 -4.705285e-01 -1.090132e+00 -5.113143e-01 3.303982e-02 -6.902208e-01 -1.206806e+00 5.701761e-01 9.368162e-01 4.508989e-01 1.141262e+00 -2.616547e-01 -7.517987e-03 
-1.426881e+00 2.252779e+00 -2.308843e+00 5.933694e+00 6.759475e+00 -8.415362e+00 1.571188e+00 4.762114e+00 1.154983e+01 -3.074401e+00 3.799866e+00 2.256855e+00 1.752698e-02 -6.358532e-01 -6.518945e-01 -9.670053e-02 7.351691e-01 -8.598650e-01 -1.363627e+00 -8.954021e-01 -8.978212e-01 -1.224565e-01 6.084906e-01 1.957911e+00 9.384489e-03 1.976603e-03 
-1.369256e+00 2.677092e+00 1.896462e+00 1.041685e+01 5.256011e+00 -7.123794e+00 1.306320e+00 2.453017e+00 1.206304e+01 4.088285e+00 2.856876e+00 -1.367760e+00 1.327455e-02 -2.568917e-01 6.228527e-01 8.297230e-01 -5.212622e-02 -5.327126e-01 5.592060e-03 8.256878e-01 -7.013391e-01 7.809342e-01 3.971003e-01 1.621136e+00 1.439696e+00 -3.675830e-03 
-2.422866e+00 -3.534412e-01 2.362175e-01 9.275404e+00 4.211183e+00 -4.136175e+00 4.167709e+00 -1.516886e+00 7.217193e+00 3.267469e+00 9.242599e+00 3.228936e+00 1.979864e-02 -6.682310e-02 -3.241699e-02 5.400469e-01 2.261267e-01 5.474159e-01 2.123814e+00 1.950963e+00 4.668823e-01 5.095654e-02 4.236843e-01 4.398804e-01 7.338489e-01 -8.253217e-03 
-1.844465e+00 3.778096e+00 1.009402e+00 6.529716e+00 6.742313e+00 5.068023e-01 1.148774e+01 5.674242e+00 1.462397e+01 -2.629716e-01 7.366635e+00 7.440107e+00 -7.398009e-03 9.930620e-02 2.784269e-02 2.049614e-01 3.895741e-02 1.080730e+00 1.404701e+00 1.975469e+00 1.099520e+00 9.002364e-01 -4.835588e-01 -1.917744e-01 2.415080e-01 -4.996395e-03 
-1.523392e+00 1.540193e+00 8.349215e-01 9.007896e+00 8.753404e+00 -1.611589e+00 6.235294e+00 5.485912e+00 1.052415e+01 1.219649e+00 3.744388e+00 1.522166e+00 -1.340282e-02 2.706053e-01 3.164358e-01 2.182540e-01 1.547083e-01 2.730740e-01 -4.206787e-01 3.453638e-01 1.212029e-02 -4.126386e-01 1.618456e+00 5.970247e-01 -3.584149e-01 -4.827010e-03 
-1.322462e+00 1.869489e+00 2.621917e+00 1.074539e+01 8.388548e+00 -1.362581e+00 1.014987e+01 4.449216e+00 1.491075e+01 2.694401e+00 4.647109e+00 6.931651e-01 4.893303e-03 2.795556e-01 3.276580e-02 -4.010099e-01 -6.218081e-02 -4.578163e-01 8.420880e-02 -5.327517e-02 -7.786359e-01 -1.167868e+00 2.084613e+00 6.570234e-01 -1.087273e+00 -1.485765e-03 
-1.330842e+00 2.183041e+00 5.212297e-01 7.941106e+00 4.753435e+00 -5.304877e+00 6.563460e+00 -8.437715e-01 5.010609e+00 9.881060e+00 1.358749e+01 4.810332e+00 -1.048207e-02 3.336288e-01 6.337769e-01 -1.547704e-01 -4.994914e-01 -8.392723e-01 5.209934e-01 1.350128e+00 1.857470e-01 -1.344802e+00 3.184993e-01 3.088459e-01 -5.089372e-01 -2.559221e-03 
-5.429621e-01 3.620501e+00 -8.388019e-01 6.752207e+00 6.453216e+00 2.774490e+00 1.105728e+01 4.945905e+00 1.154140e+01 5.829386e+00 5.730204e+00 3.596565e-01 -1.628721e-02 1.702226e-01 5.710899e-01 5.599863e-02 7.637329e-02 3.669609e-02 2.939050e-01 -6.997353e-01 5.947884e-01 -6.567038e-01 -2.989982e-01 3.384080e-01 5.224676e-01 -5.345762e-03 
-2.449980e-01 3.833571e+00 1.791429e+00 8.507033e+00 5.524708e+00 -1.075158e+00 1.253223e+01 6.166303e+00 5.484810e+00 1.244653e+00 4.747070e+00 -8.557661e-01 -1.560867e-02 -2.171835e-01 -2.062218e-01 -1.130501e-01 7.904946e-01 4.922991e-02 -1.308151e+00 -2.231426e+00 1.780339e-01 2.460878e-01 -2.990664e+00 -1.355310e+00 4.094023e-01 1.936352e-03 
-1.014270e+00 3.899673e+00 2.266811e+00 1.084430e+01 8.186392e+00 -2.007915e+00 3.666811e+00 3.918121e+00 1.139013e+01 5.517614e+00 1.075936e+01 6.138552e+00 -1.927221e-02 -3.365073e-01 -6.401024e-02 4.535045e-01 9.142450e-01 1.922100e-01 -1.220193e+00 -1.292390e+00 -5.812808e-01 -5.892063e-01 -1.053438e+00 5.355058e-01 8.432374e-01 2.499646e-03 
-2.181105e+00 1.012346e+00 -1.596827e+00 9.847533e+00 4.132996e+00 -9.454432e+00 -8.984332e-01 5.602902e-01 6.316683e+00 -4.916371e+00 4.296361e+00 3.967896e+00 6.921887e-04 -1.916175e-01 1.802100e-01 8.548001e-01 8.301286e-01 6.525224e-01 1.383558e-01 -1.088544e+00 1.769402e-01 1.296369e+00 8.800006e-01 -5.507791e-02 -2.587786e-01 1.230264e-03 
-1.257445e+00 4.711062e+00 3.122849e+00 1.065318e+01 8.110122e+00 8.631613e-01 1.131066e+01 4.842507e+00 8.179429e+00 3.642707e+00 8.633087e+00 2.164013e+00 -1.193941e-02 1.301868e-01 5.641902e-01 6.480175e-01 -7.213306e-02 9.358892e-01 7.527776e-01 1.311601e+00 1.435888e+00 -2.276246e-01 1.098596e-01 -7.143406e-01 -1.160176e+00 -3.439981e-03 
-1.081498e+00 4.328926e+00 5.637411e+00 1.275323e+01 8.825456e+00 -1.818917e+00 3.267586e+00 6.588811e+00 1.357201e+01 6.582110e+00 5.534816e+00 -1.623895e-01 -1.312375e-02 2.880236e-01 8.451247e-01 5.740145e-01 -3.255903e-01 1.518271e+00 1.186035e+00 1.491163e+00 1.828682e+00 -9.397642e-02 7.143048e-01 2.479470e-01 -2.891360e-01 -7.813740e-03 
-9.131398e-01 5.062334e+00 1.889780e+00 9.030782e+00 1.051961e+01 -2.061784e+00 8.141809e+00 8.083302e+00 6.624343e+00 3.176708e-01 6.568427e+00 2.402815e+00 -2.956414e-02 8.569684e-02 1.435951e-01 -6.213770e-01 -6.967252e-01 6.513127e-01 -6.092758e-01 -1.463486e-01 7.976078e-01 -1.005783e+00 -1.291451e+00 -3.095710e-01 3.042808e-01 -5.168987e-03 
