-3.418806e+00 7.721856e-01 5.098209e-01 3.957254e+00 1.316024e+01 8.834660e+00 -3.437715e+00 -6.442664e+00 2.429221e+00 1.780713e+01 4.986561e+00 1.898830e+00 -1.316904e-01 -7.487468e-02 6.800022e-01 2.042269e-01 2.738182e-01 -1.621361e+00 -2.467316e+00 2.812494e+00 2.061463e+00 5.499952e-01 -4.774877e-01 8.736491e-01 1.154376e+00 -5.880690e-03 
-3.438662e+00 4.734575e+00 3.575550e+00 5.842445e+00 1.051130e+01 3.943511e+00 4.585013e+00 -3.135244e-01 2.705917e+00 1.794546e+01 9.561401e+00 6.410005e+00 -1.512927e-01 -2.433700e-01 1.444508e+00 2.821283e-02 -8.578064e-01 -2.283031e+00 -2.888062e+00 2.236044e+00 1.876457e+00 6.546256e-01 -1.576826e+00 8.604671e-01 1.775024e+00 -5.880690e-03 
-3.783252e+00 2.191002e+00 -1.909256e-03 4.383749e+00 6.377912e+00 -1.056345e+00 6.613390e+00 8.000796e-01 5.040850e+00 1.535053e+01 7.067386e+00 5.415122e+00 -1.512927e-01 -2.563308e-01 1.325705e+00 1.629109e-01 -8.692657e-01 -2.241150e+00 -1.832280e+00 2.098788e+00 2.130932e+00 2.050087e-01 -2.292912e+00 5.440745e-01 1.675605e+00 -3.920460e-03 
-4.453433e+00 7.285317e+00 9.067502e-01 -5.450253e-01 5.136252e+00 -6.601479e-01 2.716954e+00 -6.817492e-01 4.396535e+00 1.115130e+01 8.248484e+00 9.015804e+00 -1.512927e-01 -3.699676e-01 6.875933e-01 1.009900e-01 -1.018928e+00 -1.725805e+00 3.539791e-01 7.509829e-01 7.170665e-01 -3.130829e-01 -1.941981e+00 2.474996e-01 7.830759e-01 0.000000e+00 
-4.193074e+00 6.125340e+00 2.658775e+00 2.804660e+00 4.642015e+00 1.975092e+00 7.990257e+00 4.396107e+00 2.608956e+00 9.739644e+00 8.363392e+00 8.973953e+00 -1.512927e-01 -6.191749e-02 7.983295e-01 6.210890e-01 -3.786877e-01 -1.545417e+00 7.902033e-01 9.137551e-01 4.378273e-01 -6.085764e-01 -1.783950e+00 -7.455859e-02 3.139897e-01 0.000000e+00 
-5.083589e+00 6.205374e+00 2.750157e+00 1.537348e+00 2.750221e+00 4.197688e+00 7.651494e+00 1.473795e+00 2.356449e+00 1.104099e+01 1.015090e+01 8.545968e+00 -1.512927e-01 4.993501e-01 1.162553e-01 5.444594e-02 1.576194e-01 -1.101895e+00 -9.297009e-01 6.012858e-01 -3.476134e-01 -7.818713e-01 -1.584798e+00 -8.279734e-01 -2.310246e-01 0.000000e+00 
-3.777761e+00 6.722620e+00 2.181832e+00 1.449124e+00 -1.561589e-01 4.657536e-01 8.714895e+00 1.911444e+00 3.018011e+00 6.485929e+00 5.743387e+00 7.219988e+00 -1.512927e-01 7.057637e-01 5.069908e-01 2.159963e-01 9.413059e-02 -2.219118e-01 -1.872890e+00 -7.034041e-01 -6.579522e-01 -2.947871e-01 -1.298723e+00 -1.556045e+00 -1.679002e-01 0.000000e+00 
-2.164339e+00 7.567953e+00 1.417452e+00 9.208398e-01 2.025863e+00 -4.553983e+00 5.361064e+00 -1.177485e+00 2.826512e-01 4.854165e+00 5.418620e+00 8.737663e+00 -1.512927e-01 5.477440e-01 9.144399e-01 1.141380e+00 7.546505e-01 3.531961e-01 -1.796636e+00 -7.807487e-01 -1.366879e-01 2.090275e-01 -1.061639e+00 -1.917196e+00 -7.783415e-01 0.000000e+00 
-2.123880e+00 7.979004e+00 4.405110e+00 3.583567e+00 3.894634e+00 -3.013520e+00 5.618452e+00 2.431986e+00 2.171919e+00 6.339444e+00 2.949306e+00 8.038605e+00 -1.512927e-01 -1.313114e-03 7.482821e-01 1.601864e+00 9.893025e-01 7.825083e-01 -3.768219e-01 -1.195914e+00 4.509265e-01 9.337167e-01 6.577997e-01 -1.266183e+00 -1.197821e+00 0.000000e+00 
-3.171809e+00 1.014938e+01 7.345421e+00 4.243379e+00 2.490805e+00 -3.045854e+00 5.295973e+00 5.300846e-01 3.824632e+00 5.806038e+00 1.961956e+00 4.244952e+00 -1.512927e-01 -5.274771e-01 -1.868794e-01 7.115850e-01 2.373248e-01 1.171126e-02 8.840942e-01 1.781940e-02 4.923620e-01 6.782501e-01 1.682230e+00 -2.477806e-01 -8.591142e-01 0.000000e+00 
-3.280592e+00 9.173317e+00 7.227166e+00 4.734367e+00 3.523912e+00 -2.172421e+00 2.767870e+00 3.312292e+00 5.915604e+00 9.298990e+00 1.140803e+00 3.477238e+00 -1.512927e-01 -3.612719e-01 -6.901120e-01 -3.420449e-01 4.384863e-02 2.434341e-01 1.098410e+00 7.430185e-01 -2.626992e-01 -5.976648e-02 5.419184e-01 5.976681e-01 2.243853e-01 0.000000e+00 
-4.223369e+00 6.036399e+00 3.564349e+00 1.532064e+00 2.269781e+00 -5.540614e-01 6.875452e+00 8.441719e-01 1.802059e+00 1.178554e+01 5.083968e+00 6.722776e+00 -1.512927e-01 -1.474399e-01 -1.002611e+00 -6.590877e-01 -2.140852e-01 4.679222e-01 1.369707e+00 7.225288e-01 7.976171e-01 -1.683100e-01 -3.305365e-01 1.052905e+00 1.932787e+00 0.000000e+00 
-3.404460e+00 6.584935e+00 4.585421e+00 5.158468e+00 5.222316e+00 1.232634e+00 8.543805e+00 9.614463e-01 2.884373e+00 6.059283e+00 4.376640e+00 7.921619e+00 -1.512927e-01 -2.260949e-01 -4.098503e-01 -5.017978e-01 1.116876e-01 5.129578e-01 1.629705e+00 1.163525e+00 4.027581e-01 -8.749445e-02 3.652780e-01 1.439422e+00 2.240367e+00 4.669475e-03 
-3.847075e+00 6.430519e+00 5.370855e+00 2.960902e+00 3.981214e+00 2.100152e+00 6.020649e+00 5.693593e+00 4.498697e+00 5.773209e+00 5.608561e+00 1.168670e+01 -1.512927e-01 1.911194e-01 7.075374e-01 3.001365e-01 -1.670464e-02 5.028602e-01 8.313798e-01 1.012387e+00 1.210076e+00 2.627532e-01 1.921132e-01 6.991264e-01 1.360764e+00 2.334738e-03 
-4.599214e+00 6.927006e+00 3.814924e+00 4.578386e+00 5.232984e+00 4.648997e+00 9.012897e+00 2.901372e+00 4.129812e+00 1.413155e+01 8.075617e+00 1.219711e+01 -1.279453e-01 3.391094e-02 2.278357e-01 -4.738560e-01 -5.736892e-01 -1.091402e-01 9.483626e-02 2.920046e-02 -1.222316e-01 1.069012e-01 8.634488e-01 -1.325167e-01 -3.614434e-01 0.000000e+00 
-2.670395e+00 9.403050e+00 5.450280e+00 1.738582e+00 4.778748e+00 1.894656e+00 1.170284e+01 5.924588e+00 2.493105e+00 8.709977e+00 6.730112e+00 1.138885e+01 -1.512927e-01 2.236044e-01 2.141504e-02 -3.648181e-01 4.431383e-01 3.129345e-01 -1.092066e-01 2.983547e-01 -2.240184e-01 -3.613621e-01 7.251648e-01 -4.602806e-01 -1.046732e+00 -2.334738e-03 
-3.823245e+00 6.237848e+00 2.176429e+00 2.901182e+00 4.277848e+00 1.809563e+00 5.848711e+00 2.347912e-01 4.421675e+00 8.908143e+00 3.153281e+00 6.263325e+00 -1.512927e-01 6.266975e-02 -2.409110e-01 7.712857e-02 -2.109119e-01 -3.257817e-01 -5.024264e-01 -1.166126e+00 -3.835110e-01 3.522092e-01 -6.432505e-02 -6.868309e-01 -1.874506e+00 -4.669475e-03 
-3.117037e+00 6.882173e+00 4.366012e+00 6.015195e+00 6.023454e+00 2.973835e+00 9.094516e+00 5.906792e+00 2.545956e+00 1.201073e+01 5.768326e+00 9.419931e+00 -1.512927e-01 -2.561126e-01 -8.685428e-01 -1.149943e+00 -5.348701e-01 -6.616208e-01 -3.244900e-01 -1.797534e+00 -1.339768e+00 8.293381e-01 7.251322e-01 1.263583e+00 -1.324609e+00 1.072240e-02 
-4.062544e+00 6.982890e+00 4.742701e+00 1.385520e+00 2.981722e+00 1.597275e+00 4.486432e+00 9.927149e-01 5.864433e+00 1.215954e+01 5.122355e+00 3.809045e+00 -1.512927e-01 3.094583e-01 -1.779469e+00 -1.714638e+00 -1.031427e+00 -1.233421e+00 -1.357702e+00 -3.259797e-01 5.413408e-02 -4.478401e-01 -1.213154e+00 1.417349e+00 -1.795947e-01 2.560170e-02 
-3.831308e+00 4.687816e+00 -1.582573e+00 -1.779380e-01 2.118707e+00 3.783498e-01 3.396311e+00 -1.153214e+00 5.918417e+00 1.070994e+01 1.206349e+01 5.992946e+00 -9.768069e-02 -1.606983e+00 -2.551794e+00 -2.689728e+00 4.394055e-01 -8.712664e-01 -2.855561e+00 -5.110819e-02 7.111863e-01 -7.994808e-01 -2.904071e+00 1.111237e+00 6.200336e-01 1.119758e-01 
-1.918818e+00 -1.562319e+00 -3.422471e+00 8.406115e-01 6.311607e-02 -3.681207e+00 7.067915e+00 4.035464e+00 4.962442e-01 3.492774e+00 7.092444e+00 7.078845e+00 -5.009019e-02 -3.678535e+00 -2.159959e+00 -1.933758e+00 2.166100e+00 -7.635951e-01 -1.894704e+00 1.943962e+00 1.812258e+00 -1.256288e+00 -3.026522e+00 4.354455e-01 1.921405e+00 1.977757e-01 
-1.222381e+01 -1.604192e+00 -5.000043e+00 8.484676e+00 3.126426e+00 -8.664728e+00 7.548234e+00 7.941349e+00 1.232646e+00 1.823767e+00 1.033947e+01 1.088520e+01 3.579851e-01 -4.940646e+00 -2.823758e-01 -4.777055e-01 1.792628e+00 -8.670472e-01 -3.849793e-01 2.053767e+00 1.340143e+00 1.162865e-01 -9.778740e-01 -1.838080e+00 4.405722e-01 2.347124e-01 
-1.825897e+01 -6.709020e-01 -3.217357e+00 7.884709e+00 -1.340113e+00 -3.354704e+00 1.213028e+01 5.506723e+00 1.925879e+00 1.470021e+00 8.161595e+00 1.096994e+01 6.097530e-01 -4.196187e+00 2.065960e+00 -7.123187e-01 -4.481743e-01 -9.459389e-01 1.209427e+00 -1.192591e-02 -7.308847e-01 8.263636e-01 9.042207e-01 -8.302118e-01 -7.858668e-02 2.104865e-01 
-2.036446e+01 2.830229e+00 -4.073658e+00 5.263152e+00 -1.514915e+00 -1.709798e+00 1.113396e+01 4.811870e+00 5.785032e+00 6.831944e+00 2.338515e+00 6.250258e+00 7.459598e-01 -1.710936e+00 2.388948e+00 -1.072621e+00 -2.227960e+00 -1.501239e+00 1.225097e+00 -1.102610e+00 -1.428063e+00 3.680367e-01 1.104976e+00 -6.523873e-01 -4.236764e-01 1.223810e-01 
-1.882943e+01 6.550271e+00 -7.447257e+00 2.105024e-01 -2.345908e+00 -1.111537e+00 5.215422e+00 1.945780e+00 2.351869e+00 5.509789e+00 6.941861e+00 9.003382e+00 8.083550e-01 -3.637409e-01 1.797179e+00 -1.720348e+00 -7.574714e-01 4.287767e-01 3.616763e-01 -1.546152e+00 -1.520321e+00 -5.251876e-01 9.780645e-03 -3.064233e-01 -2.720051e-02 7.168205e-02 
-2.049326e+01 6.729959e+00 -8.248197e+00 1.181980e+00 -3.876873e+00 -3.660827e+00 5.492611e+00 2.581507e+00 2.859835e+00 5.328764e+00 7.687397e+00 9.750097e+00 8.705893e-01 -2.593754e-01 6.631100e-01 -2.056615e+00 -1.304261e-01 4.259373e-01 8.320577e-02 -6.855227e-01 -1.704172e+00 -1.966477e+00 -1.610399e+00 -6.175327e-02 2.956869e-01 4.546707e-02 
-2.001328e+01 6.365129e+00 -9.731829e+00 6.137938e+00 1.984750e+00 -5.708082e-01 7.220197e+00 -9.797009e-01 7.625396e-01 2.270514e+00 3.955038e+00 9.084019e+00 9.058485e-01 2.301945e-01 9.193205e-01 3.141108e-01 2.184977e+00 1.893506e+00 1.152186e+00 1.082089e+00 -3.989611e-01 -1.428031e+00 -6.946908e-01 -1.426397e+00 -1.795645e-01 3.344854e-02 
-2.106942e+01 6.238349e+00 -1.321445e+01 1.647304e+00 -1.550558e+00 -1.564134e+00 6.703960e+00 -2.246251e+00 -3.252688e+00 3.995838e-01 3.523160e+00 7.688374e+00 9.245483e-01 1.652092e-01 4.747859e-01 -3.336774e-01 8.720748e-01 1.006074e+00 8.181112e-01 6.240197e-01 5.440913e-01 -9.056386e-01 -2.683915e-01 -8.631737e-01 -1.052365e+00 2.450405e-02 
-1.739038e+01 1.139268e+01 -3.393577e+00 1.090273e+01 5.958466e+00 3.601047e+00 1.002019e+01 2.364854e+00 -1.732027e+00 4.500925e+00 1.891994e+00 9.136421e+00 9.486181e-01 -3.235393e-01 1.496007e-01 -8.410435e-01 -1.372705e+00 9.401188e-02 8.374419e-02 -3.634619e-01 1.907028e+00 7.195570e-02 1.071839e+00 1.647646e-01 -5.177009e-01 2.354794e-02 
-2.097866e+01 6.590114e+00 -1.308571e+01 3.159961e+00 -8.333588e-01 -1.656199e+00 7.212712e+00 3.629687e+00 -4.210745e-01 2.871601e+00 4.403051e+00 4.462070e+00 9.717247e-01 -1.720461e-01 6.641019e-01 4.856194e-01 -1.913424e-01 7.713434e-01 1.158073e+00 -8.774805e-02 1.899072e+00 9.358701e-01 4.712007e-01 3.469838e-01 -2.375108e-01 2.010534e-02 
-2.167635e+01 6.937251e+00 -1.400142e+01 -1.481912e+00 2.096210e+00 -1.060548e-01 5.148512e+00 5.617468e+00 -2.934884e-01 6.393702e+00 4.338916e+00 8.108667e+00 1.000000e+00 -2.817808e-01 -1.981919e-01 -1.856097e-01 -7.802306e-01 -7.958531e-01 2.827264e-01 -1.130181e+00 1.037074e+00 1.478471e+00 9.795173e-02 -1.858181e-01 6.200556e-01 1.090407e-04 
-1.978667e+01 1.178657e+01 -5.482433e+00 6.882911e+00 4.237288e+00 6.079783e+00 8.701061e+00 5.622800e+00 7.073933e-01 1.809199e+00 4.034618e+00 7.014697e+00 9.993841e-01 1.404241e+00 8.204994e-01 2.596469e+00 1.009559e+00 -4.729502e-01 -1.526582e-01 -6.840155e-01 -9.590496e-01 3.210160e-01 2.094567e-01 -1.464204e+00 3.719094e-01 -3.175922e-02 
-1.939528e+01 7.803490e+00 -8.123263e+00 5.140098e+00 -5.561233e-01 1.146688e+00 3.625113e+00 6.553668e+00 5.096095e+00 5.521884e+00 1.147120e+00 1.096039e+01 9.353336e-01 4.634882e+00 5.529513e-01 2.137441e+00 4.818889e-01 -2.144783e+00 -2.905100e+00 -3.013909e+00 -3.705861e+00 -1.055232e+00 1.632321e-01 -1.968920e+00 -1.847877e+00 -8.344118e-02 
-1.509799e+01 1.025949e+01 -3.042439e+00 4.896751e+00 -1.871943e+00 -3.045861e+00 4.554334e+00 -1.633660e+00 -1.510786e+00 4.354793e+00 -1.322069e+00 4.895757e+00 8.452618e-01 7.217060e+00 -2.685176e+00 7.773014e-01 -1.746882e+00 -2.552474e+00 -4.773303e+00 -5.348663e+00 -5.527228e+00 -1.096536e+00 3.162307e-01 -2.415077e+00 -2.175842e+00 -9.863879e-02 
-8.462763e-01 1.046555e+01 -4.534207e+00 1.920613e+00 -5.573093e+00 -1.006873e+01 -7.847671e+00 -9.283607e+00 -4.460560e+00 5.937065e+00 -2.827342e+00 -7.124758e-02 6.598552e-01 7.225049e+00 -4.496531e+00 1.183560e+00 -3.502685e+00 -3.295570e+00 -3.550938e+00 -5.196786e+00 -4.610809e+00 -3.919100e-02 -3.754366e+00 -9.944809e-01 -4.423815e+00 -6.090770e-02 
7.024131e+00 -2.970336e+00 -3.390454e+00 -2.417569e-01 -6.016600e+00 -1.217902e+01 -1.230587e+01 -1.409470e+01 3.039956e-03 3.182762e+00 -6.053535e+00 1.651303e+00 6.439294e-01 4.639347e+00 -5.489542e+00 1.008944e+00 -4.004293e+00 -3.019674e+00 1.397016e-01 -3.215188e+00 2.955519e-01 2.845775e+00 -4.812964e+00 3.248629e-01 -3.828414e+00 1.440406e-04 
5.668901e+00 -8.064252e+00 -2.031456e+00 -9.804071e+00 -1.496165e+01 -1.204142e+01 -1.392872e+01 -1.026986e+01 4.143228e+00 -1.266393e+01 -1.459552e+00 -9.536462e+00 7.314613e-01 8.141069e-01 -4.921751e+00 1.041680e+00 -3.944691e+00 -2.135871e+00 2.349177e+00 -2.419415e-01 3.710742e+00 2.593215e+00 -5.325166e+00 1.560458e-01 -3.863681e+00 5.514150e-02 
4.841154e+00 -7.923320e+00 7.509053e-01 -9.262372e+00 -1.227604e+01 -1.361008e+00 -8.481082e+00 3.372235e-01 8.416198e+00 -1.040953e+01 -3.816497e-01 -9.513706e+00 8.101789e-01 2.109432e-03 -2.594882e+00 9.279802e-01 -2.346664e+00 -1.530388e-01 3.974403e+00 1.632553e+00 6.040528e+00 1.249262e+00 -2.418972e+00 4.190055e-01 -2.155078e+00 6.344291e-02 
4.315747e+00 -1.166672e+01 -1.396489e+00 -1.329253e+01 -1.312273e+01 -3.731854e+00 -1.096977e+01 2.054143e+00 4.298938e+00 -1.389262e+01 -4.883056e+00 -1.380715e+01 8.524380e-01 4.337134e-01 -2.521473e+00 1.719188e-01 -7.322778e-01 1.959161e+00 3.122037e+00 1.795517e+00 3.899590e+00 -7.726019e-01 -4.605093e-02 -4.617986e-01 1.644342e-01 4.581640e-02 
7.711255e+00 -1.414351e+01 9.319639e-01 -1.023085e+01 -7.701251e+00 3.538208e+00 -5.622577e+00 9.945938e+00 6.171493e+00 -8.297752e+00 -2.246756e+00 -6.988745e+00 9.006556e-01 7.201852e-01 -2.798661e+00 -6.366458e-02 -7.227828e-01 1.934395e+00 1.601013e+00 7.969206e-01 1.506373e+00 -2.187611e+00 -4.134016e-01 -2.325809e-01 6.550743e-01 2.626999e-02 
6.402418e+00 -1.756152e+01 -1.262391e+00 -1.298122e+01 -7.453234e+00 1.119153e+00 -6.380385e+00 4.423734e+00 1.402570e+00 -1.395008e+01 -2.835992e+00 -9.976771e+00 9.153050e-01 6.501444e-01 -1.864893e+00 2.725125e-01 3.407736e-02 2.267806e+00 1.870152e+00 1.301074e+00 6.529452e-01 -1.679024e+00 1.105336e-01 8.226150e-01 1.503952e+00 1.191845e-02 
7.398745e+00 -1.896922e+01 3.655331e-01 -1.303194e+01 -5.438807e+00 4.218554e+00 -6.791171e+00 6.684295e+00 -1.073673e+00 -1.244781e+01 -2.568086e+00 -8.153524e+00 9.100954e-01 -5.408285e-02 -9.839914e-01 -7.012600e-01 -3.185734e-01 8.573740e-01 4.524459e-01 9.357624e-02 -9.117631e-01 -2.273471e+00 -7.011879e-01 -3.065850e-01 -1.319090e-01 -1.280534e-03 
7.722724e+00 -1.857833e+01 2.492886e-01 -1.172160e+01 -2.914925e+00 5.278735e+00 -3.880103e+00 6.949691e+00 -4.736007e-01 -1.126492e+01 -6.093156e-01 -5.704999e+00 9.073103e-01 5.953560e-02 3.514303e-01 -5.882557e-01 4.228258e-01 1.046054e+00 6.742516e-01 1.035892e+00 -2.662081e-01 -6.603280e-01 8.369514e-01 -7.294810e-01 4.842218e-01 -5.263227e-03 
6.780687e+00 -1.855507e+01 -3.330175e+00 -1.245353e+01 -5.683536e+00 3.720647e+00 -6.404837e+00 4.124144e+00 -4.257776e+00 -1.314627e+01 -4.893020e+00 -9.784176e+00 8.982502e-01 -1.856147e-01 6.610605e-01 -1.160809e+00 4.711652e-01 -7.434940e-03 3.330439e-01 9.175113e-01 -1.370509e+00 -1.039376e-02 1.517273e-01 -9.015541e-01 -5.259998e-01 -6.298715e-03 
7.009124e+00 -1.601145e+01 -2.355815e+00 -1.115630e+01 -2.100600e+00 4.739365e+00 -1.394094e+00 4.372769e+00 -3.070177e-01 -9.416088e+00 -5.320930e+00 -6.740336e+00 8.949114e-01 -3.617377e-02 4.263186e-01 -1.147984e+00 3.015866e-01 -7.039436e-01 1.844524e-01 4.049364e-01 -1.765539e+00 -3.572299e-01 9.674644e-02 -8.742870e-01 -1.173102e+00 -1.013904e-02 
6.827471e+00 -1.694736e+01 -4.135962e+00 -1.095877e+01 -5.883144e+00 6.153459e+00 -3.446619e+00 1.120211e+00 -1.208933e+00 -1.261359e+01 -4.720050e+00 -1.026585e+01 8.848013e-01 3.968790e-01 -7.556534e-03 -6.265038e-01 -2.719803e-02 -5.997017e-01 1.515706e-01 1.204446e-01 -1.765210e+00 -3.129109e-01 5.579670e-01 -2.609438e-01 -1.233813e+00 -1.438189e-02 
7.518464e+00 -1.725059e+01 -5.087740e+00 -1.096105e+01 -6.334838e+00 4.984591e+00 -3.334530e+00 -3.760365e-01 -3.784172e+00 -1.104753e+01 -5.067236e+00 -1.132967e+01 8.633396e-01 8.202764e-01 -1.530067e-01 -7.287539e-01 -2.745056e-03 -1.012724e+00 -2.147713e-01 -3.043848e-01 -2.062834e+00 -3.056282e-01 6.015657e-01 4.068591e-01 -1.902425e+00 -2.066912e-02 
8.510413e+00 -1.797328e+01 -5.096732e+00 -1.268714e+01 -6.564925e+00 4.355886e+00 -4.832396e+00 -2.327503e+00 -4.083754e+00 -9.540716e+00 -6.324586e+00 -1.365857e+01 8.421267e-01 1.439686e+00 4.072096e-01 -2.650461e-01 3.941446e-01 -1.481746e-01 -7.983473e-01 3.604193e-01 -1.482836e+00 8.737506e-01 1.840049e+00 9.978644e-01 -1.346959e+00 -2.895678e-02 
1.026904e+01 -1.626352e+01 -5.519199e+00 -1.030584e+01 -6.823330e+00 4.564295e+00 -2.223129e+00 -4.217543e+00 -3.977484e-01 -7.944696e+00 -2.484367e+00 -1.455610e+01 8.129031e-01 1.471969e+00 1.199890e+00 -2.036875e-01 1.106935e+00 -3.607010e-01 -1.562690e+00 -2.550330e-01 -2.190266e+00 1.028349e+00 1.668444e+00 1.463600e+00 -1.317881e+00 -5.569055e-02 
1.265061e+01 -1.540485e+01 -5.245463e+00 -9.315647e+00 -6.379771e+00 2.371871e+00 -2.200223e+00 -4.373216e+00 1.466608e+00 -4.964759e+00 -1.022162e+00 -1.538743e+01 7.652356e-01 9.210869e-01 2.946288e+00 5.559635e-01 2.535936e+00 4.499095e-01 -1.900728e+00 -1.034928e+00 -3.050458e+00 -5.394006e-01 2.008638e+00 1.467645e+00 8.245329e-01 -1.037389e-01 
1.280821e+01 -1.253535e+01 -6.031812e+00 -7.112119e+00 -8.230920e+00 -1.836851e+00 -5.925781e+00 -1.030451e+01 -1.417606e+00 -4.993284e+00 -4.004476e-01 -1.705465e+01 6.233324e-01 -1.208495e-01 3.868717e+00 1.448469e+00 2.842033e+00 1.171847e+00 -1.934024e+00 -1.478657e+00 -3.119517e+00 -2.006423e+00 2.426061e+00 -7.530077e-02 2.607333e+00 -1.228518e-01 
1.184626e+01 -5.105924e+00 -2.060608e+00 -1.604322e+00 -3.611583e+00 -1.947181e+00 -8.155709e+00 -1.453631e+01 -6.270828e+00 -9.732318e-01 -2.831793e-02 -8.286636e+00 4.182172e-01 -9.491209e-01 3.779393e+00 1.416346e+00 2.048373e+00 1.406653e+00 -2.043603e+00 -1.268889e+00 -2.774750e+00 -2.188247e+00 1.986035e+00 -1.195021e+00 2.751162e+00 -1.013073e-01 
1.006697e+01 -2.069398e+00 1.307178e-01 4.866576e-02 -2.348189e+00 -2.946299e+00 -6.638673e+00 -1.473358e+01 -6.561144e+00 2.189845e+00 -3.357793e+00 -5.069836e+00 3.721535e-01 -6.799077e-01 2.036778e+00 1.039331e+00 7.107136e-01 3.744631e-01 -9.524086e-01 -4.871853e-01 -9.019373e-01 4.972854e-02 1.365585e+00 -1.517636e+00 1.634594e+00 -3.694522e-02 
9.275632e+00 -1.740859e+00 -1.244997e+00 -2.654172e+00 -2.287873e+00 -7.291421e+00 -8.188220e+00 -1.603243e+01 -6.902857e+00 1.373853e+00 -5.518595e+00 -7.624025e+00 3.842886e-01 7.982164e-02 -9.928228e-01 2.109288e-01 -6.223251e-01 -2.406581e+00 8.349698e-01 -3.144188e-01 1.347858e+00 2.783952e+00 -6.094514e-01 -1.530459e+00 -1.167152e+00 3.814951e-02 
1.069399e+01 -4.033996e+00 -1.242961e+00 -3.033626e+00 -7.020459e+00 -3.926775e+00 -8.345452e+00 -1.406614e+01 -8.529487e-01 6.611004e-01 -5.243489e+00 -9.212984e+00 4.555706e-01 4.211147e-01 -2.208554e+00 -9.957814e-02 -8.887450e-01 -3.182760e+00 2.470052e+00 -5.415571e-01 3.262230e+00 3.582608e+00 -2.299431e+00 -1.081024e+00 -2.900432e+00 7.260232e-02 
1.193186e+01 -9.087739e+00 -3.191247e-01 -3.174801e+00 -1.330835e+01 2.717906e+00 -8.874413e+00 -8.130743e+00 4.794833e+00 -3.256116e+00 -6.737766e+00 -1.205082e+01 5.672562e-01 2.144671e-01 -2.061458e+00 -2.407513e-01 -4.256599e-01 -2.514472e+00 2.947135e+00 -2.645325e-01 4.120833e+00 2.830349e+00 -3.022801e+00 -1.511871e+00 -2.724083e+00 7.548916e-02 
1.084443e+01 -9.438726e+00 -8.301091e-01 -4.134744e+00 -1.275175e+01 4.399300e+00 -9.003362e+00 -2.373273e+00 5.503050e+00 -6.992324e+00 -8.153328e+00 -1.735860e+01 6.436813e-01 -2.337779e-01 -9.667042e-01 -8.146372e-02 -4.228670e-01 -7.715465e-01 2.149502e+00 -5.357769e-01 3.885511e+00 1.364682e+00 -3.292559e+00 -1.504856e+00 -2.119493e+00 5.266968e-02 
1.027275e+01 -9.345782e+00 -2.655180e+00 -4.231913e+00 -1.199459e+01 3.281216e+00 -9.181928e+00 -1.274701e+00 4.070888e+00 -9.913443e+00 -1.162303e+01 -1.717163e+01 6.676791e-01 -7.316659e-01 6.101389e-01 -3.377908e-01 -5.053661e-01 6.231825e-01 4.369192e-01 -8.743446e-01 2.278808e+00 3.657553e-01 -3.073025e+00 -1.218874e+00 -9.393231e-01 1.967222e-02 
1.035465e+01 -8.738495e+00 -4.822526e-01 -4.619405e+00 -1.153507e+01 6.539083e+00 -1.087058e+01 1.933397e+00 6.332437e+00 -1.247303e+01 -1.032514e+01 -1.725005e+01 6.687075e-01 -6.595703e-01 9.156523e-01 -1.098282e-01 -4.537872e-01 7.058436e-01 -1.434765e-01 -1.164453e+00 1.026240e+00 2.011416e-01 -2.586589e+00 -1.157926e+00 5.453819e-01 -2.162445e-03 
8.518414e+00 -6.387160e+00 -2.182007e+00 -5.459301e+00 -1.080078e+01 3.832611e+00 -1.231253e+01 1.109962e+00 6.208916e+00 -1.588089e+01 -1.174623e+01 -1.680171e+01 6.531042e-01 -4.291321e-01 1.059576e+00 4.853111e-01 -4.550166e-02 6.462874e-01 -1.867357e-01 -9.354013e-01 5.808684e-01 9.171656e-01 -2.366126e+00 -4.362320e-01 9.777088e-01 -1.137667e-02 
8.423740e+00 -6.339776e+00 -1.615837e+00 -5.789986e+00 -9.819438e+00 3.406220e+00 -1.326033e+01 1.565596e+00 5.439744e+00 -1.694155e+01 -1.388136e+01 -1.481665e+01 6.401565e-01 1.922875e-02 9.098102e-01 4.969293e-01 1.459165e-01 1.103688e+00 -7.579254e-01 -9.492853e-01 2.074525e-01 5.977104e-01 -1.561633e+00 -1.046729e+00 2.010673e+00 -1.618697e-02 
9.092543e+00 -5.247261e+00 3.381679e-01 -3.874131e+00 -9.620970e+00 3.913969e+00 -1.266406e+01 1.813542e+00 9.103062e+00 -1.950982e+01 -1.202608e+01 -1.349979e+01 6.250712e-01 9.238899e-01 5.881778e-01 1.568547e+00 5.888218e-01 2.064121e+00 -2.710328e-01 -6.056833e-01 9.002303e-01 7.217307e-01 -7.516317e-01 3.346653e-01 2.457435e+00 -2.117651e-02 
1.016373e+01 -4.759394e+00 7.423062e-01 -4.682408e+00 -6.606542e+00 2.708776e+00 -1.544124e+01 2.618870e+00 7.873916e+00 -1.846673e+01 -1.541886e+01 -8.847643e+00 6.017892e-01 1.263415e+00 5.653493e-01 1.672315e+00 5.826169e-01 2.434060e+00 -1.876928e+00 -1.174625e+00 7.172869e-01 -2.304190e+00 -8.239746e-02 1.522191e+00 1.245907e+00 -3.066098e-02 
1.226787e+01 -4.236463e+00 4.481658e+00 -3.068981e+00 -2.086622e+00 2.826169e+00 -1.425049e+01 5.084476e+00 8.600484e+00 -1.887645e+01 -9.304152e+00 -7.499042e+00 5.664053e-01 1.609255e+00 5.983703e-01 1.244286e+00 1.265589e+00 2.536546e+00 -3.375499e+00 -5.213053e-01 -7.507216e-01 -4.869327e+00 1.832552e+00 2.185943e+00 7.307723e-01 -3.000631e-02 
1.315315e+01 -4.018429e+00 4.673993e+00 -3.279476e+00 -1.416315e+00 -5.434520e+00 -1.834024e+01 3.516563e+00 -5.829916e+00 -1.767021e+01 -7.631366e+00 -1.158749e+01 5.161846e-01 1.433133e+00 8.390837e-01 3.314879e-01 1.573037e+00 1.931467e+00 -2.944841e+00 7.457067e-01 -2.230994e+00 -5.184721e+00 2.411956e+00 2.110700e+00 -7.425881e-03 -2.361369e-02 
1.564411e+01 -2.625892e+00 4.593756e+00 1.752346e+00 4.666467e-01 -8.891877e+00 -1.382109e+01 -2.388913e+00 -8.391658e+00 -1.074532e+01 -4.990112e+00 -8.476003e+00 5.178420e-01 9.874073e-01 1.119586e+00 -7.215776e-01 1.685636e+00 1.649340e+00 -1.661502e+00 1.528907e+00 -2.545869e+00 -4.333232e+00 2.805520e+00 5.964693e-01 4.152816e-01 -1.339530e-02 
1.564128e+01 -1.369261e+00 2.343697e+00 7.721127e-01 1.774159e+00 -6.156407e+00 -1.192741e+01 -4.799403e+00 -9.553619e+00 -1.047252e+01 -7.022382e+00 -8.396292e+00 5.080024e-01 3.976283e-01 1.415402e+00 -7.016209e-01 1.261238e+00 1.514003e+00 9.040672e-01 1.298669e+00 -2.035106e+00 -1.304633e+00 1.943139e+00 2.819204e-02 1.178387e+00 -6.011933e-03 
1.596084e+01 3.688455e-02 2.038917e+00 3.333405e+00 4.564840e+00 -5.120399e+00 -9.812367e+00 -3.486884e+00 -1.120382e+01 -8.447701e+00 -6.626298e+00 -7.018230e+00 5.035199e-01 -2.812837e-01 1.379193e+00 3.621880e-02 5.942319e-01 1.120941e+00 1.645120e+00 4.662632e-01 -4.895992e-01 -1.754693e+00 1.287450e+00 -7.122536e-02 3.587012e-01 -9.857017e-03 
1.498293e+01 1.727190e+00 2.443307e+00 2.236186e+00 4.104602e+00 -2.799922e+00 -1.385125e+01 -6.109982e+00 -1.094700e+01 -9.103327e+00 -6.672313e+00 -6.424438e+00 4.932860e-01 -6.371921e-01 1.485150e+00 1.375007e+00 4.732442e-01 7.407992e-01 6.033605e-01 2.362011e-01 -2.068854e-01 -2.132338e+00 3.840562e-01 6.434294e-01 8.097655e-01 -1.597938e-02 
1.456686e+01 2.721848e+00 4.725044e+00 3.991469e+00 4.906130e+00 -2.344518e+00 -1.052785e+01 -4.181620e+00 -1.646843e+01 -4.992660e+00 -5.521274e+00 -7.668424e+00 4.759151e-01 -1.353494e+00 1.825534e+00 2.596208e+00 8.909111e-01 2.475343e-01 1.426864e-01 1.024123e+00 -6.985421e-01 -1.310702e+00 -8.366150e-01 -5.751377e-01 8.164639e-01 -3.637156e-02 
1.315231e+01 4.714008e+00 7.875669e+00 2.809301e+00 5.307509e+00 -4.527546e+00 -1.038866e+01 -5.486462e+00 -1.758300e+01 -1.027976e+01 -4.357747e+00 -4.022367e+00 4.419079e-01 -2.029321e+00 1.145046e+00 2.120323e+00 1.946027e+00 4.274281e-01 9.228563e-02 3.926326e+00 -4.479236e-01 -3.600160e-01 -1.940103e+00 -2.729022e+00 1.707992e-01 -7.589008e-02 
1.010868e+01 7.671144e+00 1.230378e+01 7.501402e+00 5.201058e+00 -3.543156e+00 -6.423048e+00 -7.291354e+00 -1.443933e+01 -1.204256e+01 -1.065927e+01 -4.136946e+00 3.473511e-01 -2.698545e+00 1.867259e-01 3.125740e-01 1.505845e+00 8.258861e-01 1.892786e+00 4.528020e+00 -2.754473e-01 9.090611e-01 -1.379462e+00 -2.781288e+00 3.059001e-01 -1.207362e-01 
7.065410e+00 4.977770e+00 9.255554e+00 1.021135e+01 6.094279e+00 -1.739175e+00 3.727977e+00 -6.794732e+00 -1.376163e+01 -1.527889e+01 -1.774842e+01 -7.336181e+00 1.781176e-01 -3.010889e+00 -1.460319e+00 -1.900129e+00 3.593661e-01 9.149908e-01 2.277858e+00 3.610023e+00 2.409936e-01 5.348531e-01 4.760742e-01 -1.340370e-02 6.072274e-01 -1.344525e-01 
4.117589e+00 3.523597e+00 5.597972e+00 7.819666e+00 8.642176e+00 5.725225e+00 5.053935e+00 -4.904721e+00 -1.383382e+01 -9.390404e+00 -1.273238e+01 -4.482017e+00 4.129410e-03 -2.702032e+00 -2.590158e+00 -3.515875e+00 -1.895211e+00 4.395971e-01 1.362761e+00 1.265683e+00 2.352061e+00 1.522032e+00 1.787827e+00 3.840797e+00 1.980837e+00 -1.075211e-01 
1.093408e+00 -5.138113e-01 1.727929e+00 4.447000e+00 8.161905e+00 2.227552e+00 1.922966e+00 -5.474811e+00 -1.521150e+01 -9.225466e+00 -3.388212e+00 -8.136950e-01 -5.874372e-02 -1.821915e+00 -1.764909e+00 -2.230006e+00 -2.665240e+00 -5.684286e-01 3.657564e-01 4.214491e-01 3.131975e+00 4.260227e+00 4.488814e+00 4.953233e+00 2.867869e+00 -6.028409e-02 
-4.154730e-01 -2.533856e+00 -1.511786e+00 9.075233e-01 6.365231e+00 1.287283e+00 8.078737e-01 3.808989e+00 -6.104235e+00 -6.130140e+00 1.364609e+00 2.505996e+00 -7.182372e-02 -1.485759e+00 -1.728075e+00 -8.048422e-01 -1.229726e+00 -4.470713e-01 -1.006363e+00 6.586310e-01 3.508598e+00 5.036504e+00 4.210741e+00 3.490634e+00 2.945971e+00 -1.873657e-02 
2.223644e-01 -8.180478e-01 1.660403e+00 3.412253e-01 4.390609e+00 2.308578e+00 7.958253e+00 4.508288e+00 3.674716e+00 5.535052e+00 -3.075147e-02 3.509156e+00 -8.532631e-02 -8.581116e-01 -8.894047e-01 3.170420e-01 9.775007e-01 5.490559e-01 7.152807e-01 8.645328e-01 2.884122e+00 4.329301e+00 2.456141e+00 2.915502e-01 1.643176e+00 3.597021e-04 
-2.875686e+00 -4.964660e+00 1.607524e+00 3.723922e+00 8.292467e+00 6.528990e-01 5.329447e+00 7.646721e+00 1.905601e+00 4.283043e+00 3.042064e+00 8.086414e+00 -7.626212e-02 -2.517301e-01 1.776916e-01 5.333044e-01 1.388728e+00 4.562207e-01 1.889532e-02 6.483269e-01 -5.938691e-01 1.287209e-02 -1.954796e-01 -1.447685e+00 3.067202e-01 -4.306102e-03 
-1.967044e+00 -3.745433e+00 1.753484e+00 7.926304e+00 9.943565e+00 6.121147e+00 3.984843e+00 7.026935e+00 2.430093e+00 -2.151353e+00 -2.769189e+00 4.611976e+00 -5.472600e-02 -7.969914e-02 5.996304e-01 -1.191850e-01 8.353776e-01 2.645343e-01 -5.490435e-01 -1.240592e+00 -1.108165e+00 -1.139340e+00 -1.952296e+00 1.019361e-01 -4.249090e-01 -1.072805e-02 
-5.794191e-01 -1.817052e-01 1.108196e+00 4.058622e+00 5.869856e+00 -5.245247e-01 6.036213e+00 -4.196800e-01 -5.417562e+00 -3.264335e+00 -4.504597e+00 3.488187e+00 -1.086544e-01 2.187352e-01 1.099987e+00 -5.881599e-01 -9.813096e-02 -9.690474e-01 -9.645123e-01 -1.761658e-01 -1.613011e+00 -7.623460e-01 -1.133708e+00 4.291439e-02 -3.273031e-01 -1.836140e-02 
-1.324265e+00 -2.113731e-01 1.314142e+00 4.350763e+00 6.924586e+00 1.520724e-01 1.401911e+00 3.000665e+00 1.639597e+00 -4.527407e-01 4.252259e+00 3.683725e+00 -1.227704e-01 -3.626250e-01 7.186068e-01 -5.962118e-01 -1.535619e+00 -2.279697e+00 -1.877625e+00 -5.642392e-01 -7.087390e-01 3.588079e-01 1.227115e+00 1.404775e+00 7.121636e-01 -2.103510e-02 
-2.103399e+00 -1.231754e+00 -1.113604e+00 5.021038e+00 4.956720e+00 -1.185125e+00 5.740084e+00 1.594802e+00 -1.510881e+00 -2.234806e+00 -2.540882e-01 6.914024e+00 -1.340469e-01 -2.425001e-01 7.376072e-01 -5.892279e-01 -1.637918e+00 -2.533979e+00 -9.941918e-01 -1.103300e+00 5.538425e-01 1.478997e+00 1.712665e+00 5.628759e-01 -6.852945e-01 -1.097114e-02 
-3.018179e+00 3.726261e-01 -1.166749e-01 -2.330010e-01 -9.983525e-01 -2.936679e+00 1.311712e+00 2.475998e+00 2.270792e+00 3.469455e+00 2.129434e+00 6.459875e+00 -1.472052e-01 9.751634e-02 1.146696e+00 -4.577599e-01 -1.905221e+00 -1.876285e+00 4.411142e-02 3.449440e-02 -8.709077e-01 -3.547239e-03 1.467490e+00 -2.328843e-01 -5.194459e-01 -7.429027e-03 
-9.449625e-01 3.214331e+00 -1.122535e+00 -1.839083e+00 -2.838573e+00 -3.951108e+00 5.648136e-01 2.611866e+00 1.661822e+00 3.337892e+00 -6.288044e-01 -1.326360e+00 -1.512927e-01 7.559357e-02 1.266566e+00 5.913579e-01 -4.722427e-01 -8.583875e-02 1.023667e+00 5.544424e-01 2.633053e-01 1.301934e-01 2.458996e+00 1.150808e+00 -6.452860e-01 -3.857899e-03 
-1.415901e+00 3.299064e+00 -9.701915e-01 -1.745282e+00 1.440807e+00 1.755621e+00 4.162018e+00 -1.862406e+00 3.550899e-02 4.098360e+00 3.275196e+00 5.206688e+00 -1.512927e-01 -1.561316e-01 4.482845e-01 3.045017e-01 1.094600e+00 1.650877e+00 7.813333e-01 9.366745e-01 4.747687e-01 -2.095675e-01 7.507536e-01 1.579433e-01 9.784449e-01 -8.174896e-04 
-2.526570e+00 3.637857e+00 2.269944e+00 3.415965e+00 3.307947e+00 1.587059e+00 7.087143e+00 5.080530e+00 2.577268e-01 9.745724e+00 4.927072e+00 4.314188e+00 -1.512927e-01 -4.296016e-01 1.699612e-01 4.756578e-01 9.480964e-01 1.739292e+00 1.680360e-01 2.677650e-01 4.562487e-01 3.429085e-02 9.336846e-01 2.412488e-01 2.161685e+00 0.000000e+00 
-3.008033e+00 2.402285e+00 -2.904058e-01 2.612475e+00 4.182774e+00 -1.799096e+00 2.733920e+00 3.615510e+00 1.925002e+00 4.019307e+00 1.412132e-01 8.531825e+00 -1.512927e-01 -4.007297e-01 1.884659e-01 1.469874e-01 4.563798e-01 8.718239e-01 -1.318563e-01 4.924188e-02 9.646683e-01 -3.070754e-01 1.037736e+00 1.383876e-01 4.429218e-01 0.000000e+00 
-2.296905e+00 4.512527e+00 9.158609e-01 7.225204e-01 4.486905e+00 -1.333570e+00 2.617688e+00 2.154152e+00 8.885297e-01 8.045842e+00 2.144431e+00 7.819499e+00 -1.512927e-01 -2.595522e-01 5.886730e-01 2.087976e-01 -3.491879e-01 -4.141101e-01 -1.767860e-01 -1.199137e-01 -1.336534e+00 -5.381185e-01 1.537526e-01 -1.408076e-02 -3.387963e-01 0.000000e+00 
-3.534383e+00 3.804059e+00 4.417872e-01 1.883340e+00 5.210447e+00 2.556653e+00 6.642955e+00 4.424125e+00 -1.815269e+00 1.013698e+01 5.358454e+00 5.668642e+00 -1.512927e-01 -1.857880e-01 9.583668e-01 5.463154e-01 4.133028e-02 -4.662177e-01 4.850941e-01 1.642995e+00 -4.436137e-01 -2.067050e-01 8.006881e-01 1.372194e+00 -4.130085e-01 0.000000e+00 
-3.561156e+00 5.880336e+00 2.947836e+00 2.034593e+00 7.235594e-01 -1.474745e+00 4.533056e+00 -2.006447e+00 -5.627298e-01 7.455649e+00 2.248047e+00 4.051797e+00 -1.512927e-01 -3.620504e-01 8.271281e-01 9.659870e-01 3.955484e-01 -5.150295e-01 1.049368e+00 1.737341e+00 1.497644e-01 3.861282e-01 -6.529450e-03 1.143755e+00 -9.580660e-03 0.000000e+00 
-3.304847e+00 6.510215e+00 1.425184e+00 2.163090e+00 3.733358e+00 6.969628e-01 9.991213e+00 3.477741e+00 1.617107e+00 8.317844e+00 6.950377e+00 8.350634e+00 -1.512927e-01 -5.559616e-02 1.226525e+00 1.179666e+00 1.055184e-01 -5.853868e-01 4.812219e-01 5.684677e-01 -9.455051e-02 3.535499e-01 -3.722652e-01 1.061710e+00 4.749157e-01 0.000000e+00 
-4.221925e+00 7.295089e+00 5.254097e+00 2.560387e+00 2.650302e+00 4.843117e+00 9.630264e+00 3.376166e+00 1.102983e+00 8.922764e+00 7.067247e+00 6.430600e+00 -1.512927e-01 -8.076849e-02 9.263595e-01 4.965504e-01 -3.174057e-01 4.865481e-01 5.844103e-01 -3.949091e-01 2.029645e-01 9.323446e-01 1.343780e+00 6.312895e-02 -1.215956e+00 0.000000e+00 
-3.481979e+00 9.229309e+00 5.186985e+00 2.148034e+00 1.320142e+00 1.803831e+00 6.936689e+00 1.260065e+00 -8.803763e-01 7.542099e+00 8.257401e+00 6.853819e+00 -1.512927e-01 -8.182383e-02 3.214473e-01 -2.164574e-01 -5.315642e-01 -2.662098e-01 -1.185418e+00 -2.073565e+00 -1.581797e+00 -3.182394e-01 6.768335e-01 -8.531095e-01 -1.617485e+00 0.000000e+00 
-3.876432e+00 9.152587e+00 3.549687e+00 4.550921e-01 4.362908e+00 8.938720e-01 4.085773e+00 1.172125e-01 5.347734e+00 1.456242e+01 1.910179e+00 -1.279576e+00 -1.512927e-01 -1.353669e-01 -4.359871e-01 -9.866358e-01 1.955537e-02 -1.511799e-01 -1.690654e+00 -1.805146e+00 -1.267508e+00 -1.594893e-01 -2.782860e-01 -4.048461e-01 3.685655e-01 0.000000e+00 
-3.886712e+00 7.188702e+00 1.195102e+00 5.579164e-01 1.546006e+00 -3.255507e+00 2.395631e+00 -2.801769e+00 -2.096466e+00 8.882183e+00 5.263363e+00 4.118296e+00 -1.512927e-01 -2.892133e-01 -9.849865e-01 -6.016736e-01 2.351715e-01 3.121249e-01 -2.610650e-01 -8.685331e-01 -4.778228e-01 2.460794e-01 -1.024707e-01 -1.781806e-01 7.283756e-01 0.000000e+00 
-4.696393e+00 6.135457e+00 2.316861e+00 3.453223e+00 1.781471e+00 -1.080483e+00 2.875063e+00 -9.304572e-01 9.135807e-01 6.861291e+00 6.540036e+00 9.641190e+00 -1.512927e-01 -1.983009e-01 -6.573597e-01 -1.732520e-01 3.919744e-01 -5.000019e-02 2.881152e-01 6.398702e-01 -2.424854e-01 -1.472257e-01 2.166866e-02 9.905456e-01 2.624647e+00 0.000000e+00 
-4.518065e+00 5.812942e+00 2.795031e+00 1.824826e+00 4.171485e+00 1.485684e+00 3.199378e+00 -6.052135e-01 2.567098e+00 1.088031e+01 5.051570e+00 5.035315e+00 -1.512927e-01 -1.186964e-01 -8.518557e-02 9.433220e-02 7.754719e-02 3.527020e-01 7.483054e-01 1.298342e+00 -4.648161e-03 1.011882e+00 1.638945e+00 3.839647e-01 1.627767e+00 0.000000e+00 
-4.552260e+00 6.553668e+00 1.883462e+00 1.781509e+00 2.800167e+00 -3.614759e-02 6.883250e+00 -2.193492e+00 2.279824e+00 1.367170e+01 6.968803e+00 1.138515e+01 -1.512927e-01 2.540703e-02 1.577150e-01 -1.778365e-01 -3.386745e-01 6.660755e-02 5.668395e-02 1.170025e+00 -4.114349e-01 2.445213e-01 1.641221e+00 2.774766e-01 9.837757e-01 0.000000e+00 
