-5.480934e+00 3.513762e+00 -2.888498e+00 -2.743255e+00 4.697895e+00 -6.330770e-01 -6.897195e+00 -9.506214e+00 2.230570e+00 -4.776394e+00 -6.586897e+00 -3.798825e+00 -2.226830e-03 -1.600225e-01 6.076360e-03 3.800105e-01 -2.533164e-02 -7.615856e-01 -2.865555e-01 2.016070e+00 2.219372e+00 2.069720e+00 1.340143e+00 2.887176e+00 2.339321e+00 -4.629719e-03 
-6.507488e+00 2.718920e+00 -2.789438e+00 -3.801750e+00 3.195477e-02 -3.060619e+00 -1.863651e+00 4.688740e-02 9.742699e+00 -1.623440e+00 4.575861e+00 5.806652e+00 -5.005240e-03 -3.178393e-01 -2.396205e-01 2.941586e-01 1.873903e-01 1.407044e-02 7.881120e-01 2.233305e+00 2.267023e+00 4.368931e-01 7.854679e-01 1.855610e+00 1.352909e+00 -1.761401e-03 
-5.767770e+00 3.941565e+00 -1.037976e+00 -2.340666e+00 3.222937e+00 -8.520833e-01 6.663843e-01 -3.185906e+00 8.823107e+00 3.478427e-01 2.267601e+00 3.095042e+00 -2.398622e-02 -9.075479e-02 2.464006e-01 4.481888e-02 3.344059e-01 2.935171e-01 -1.918627e-01 1.259226e+00 1.275831e+00 2.999129e-01 5.844877e-01 -1.574091e-01 4.277710e-01 2.087891e-03 
-6.926713e+00 2.101758e+00 -2.342966e+00 -2.007598e+00 5.505726e+00 3.416986e+00 4.875421e-01 -1.331253e+00 1.118767e+00 -3.411172e+00 -1.736098e+00 -4.812109e-01 -1.541376e-04 -1.845837e-03 2.256264e-01 -3.248992e-02 -5.927703e-03 5.321678e-01 4.017465e-02 -6.229731e-01 -6.277943e-01 -4.028837e-01 -2.522938e-01 -1.797688e+00 -6.592563e-01 1.535684e-03 
-5.725096e+00 5.054346e+00 -2.887640e+00 -1.968302e+00 3.428595e+00 -4.831193e+00 -1.776660e+00 -2.437991e+00 8.042101e+00 -9.600892e-01 -4.217963e+00 1.483961e+00 5.787075e-03 -3.080587e-01 1.985413e-01 2.352783e-01 8.861156e-02 -7.448198e-01 -1.364436e+00 -1.562853e+00 -4.005464e-01 1.718092e-01 1.564292e-01 -6.389436e-01 -5.713115e-01 3.840160e-03 
-6.538054e+00 3.290661e+00 -2.027056e+00 -4.017570e+00 2.589965e+00 -8.701907e-01 -3.756995e+00 -3.466041e+00 8.118783e+00 -2.230943e+00 -1.169798e+00 3.315910e+00 -1.221347e-02 -1.517619e-01 6.471975e-01 1.067986e+00 1.608009e-01 -1.231691e+00 -1.050321e+00 -2.008045e+00 -4.038447e-01 9.948519e-01 -9.930067e-02 3.521601e-01 4.479269e-01 2.015698e-03 
-7.502393e+00 4.339820e+00 -1.953945e-02 -8.926220e-01 9.567184e-01 -5.530676e+00 -5.025613e+00 -4.121243e+00 6.182145e+00 5.398741e-01 -1.210267e+00 -1.660076e+00 1.244247e-03 8.894577e-02 3.271854e-01 7.673694e-01 5.918079e-01 -1.145539e+00 6.647891e-01 -7.335450e-01 4.768101e-01 1.160270e+00 1.010113e+00 1.513543e+00 6.577402e-01 4.711169e-03 
-6.796874e+00 5.695008e+00 1.562916e+00 -1.741434e+00 5.832095e-01 -1.484877e+00 -7.928207e+00 -2.508850e+00 7.023005e+00 -4.657658e+00 -1.479146e+00 3.330442e+00 1.219577e-02 5.250844e-01 6.810843e-01 -1.782323e-01 2.468863e-01 -4.028564e-01 7.166476e-01 1.801515e-01 7.847186e-01 -1.010783e-01 6.789201e-01 8.332152e-01 3.324259e-01 1.228740e-02 
-5.150957e+00 5.488099e+00 -8.457786e-01 -1.473305e-01 -1.295722e+00 -1.199905e+00 -3.358779e+00 -5.325363e-01 1.439134e+01 5.303832e+00 3.504425e+00 4.765396e+00 1.713830e-02 7.450793e-01 4.727344e-01 -9.079010e-01 -5.447267e-01 -1.231212e-01 7.333120e-01 1.946694e-01 1.216197e+00 -3.211616e-01 1.548276e-01 2.620486e-01 1.154828e+00 1.400324e-02 
-5.088350e+00 6.121943e+00 -2.505097e+00 -3.155785e+00 1.701903e+00 5.476617e-01 -3.689654e+00 -1.336802e+00 3.508793e+00 -1.218322e+00 6.389325e-01 1.765303e+00 4.127651e-02 5.444633e-01 3.857334e-01 -3.892076e-01 8.567174e-01 1.006770e+00 3.045502e-01 2.922006e-01 3.230738e-01 -9.804887e-01 -5.578047e-01 -7.570384e-01 2.466248e-01 8.641219e-03 
-4.631258e+00 6.490025e+00 -2.525038e+00 -2.909080e+00 -2.182341e-01 -2.880385e+00 -6.171542e+00 1.373718e+00 6.333443e+00 -4.056561e-01 -9.590630e-01 4.896635e+00 5.672008e-02 -3.023173e-01 -3.409459e-01 -1.579941e-01 5.138320e-01 1.057347e+00 4.772924e-01 5.534927e-01 -2.049548e-01 -1.001792e+00 -1.431316e+00 -1.608378e+00 -4.078717e-01 -5.148470e-03 
-4.334407e+00 7.122713e+00 4.565074e-01 3.923028e+00 5.078315e+00 8.781148e-01 -5.060822e+00 -1.846608e+00 6.149511e+00 -4.591937e+00 -3.032594e+00 4.497947e+00 3.561097e-02 -5.601689e-01 -4.895437e-01 5.907281e-01 6.742107e-01 2.699388e-01 -3.380767e-01 9.022953e-01 -1.758749e-01 1.901336e+00 2.228340e-01 -9.272951e-01 -1.104816e+00 -1.467760e-02 
-7.039515e+00 3.282985e+00 -3.116552e+00 -1.117577e+00 2.302805e+00 1.021331e+00 9.426856e-02 -1.302407e+00 8.062022e+00 -1.659400e-01 -2.701703e+00 1.359716e+00 -5.771279e-03 -2.888044e-01 -7.598163e-01 -3.227902e-01 -8.736343e-01 -1.201107e+00 -1.758474e+00 6.658214e-01 2.794049e-02 3.739704e-01 1.776638e-01 1.768992e+00 -1.184151e+00 -8.183795e-03 
-6.685066e+00 5.277744e+00 7.442998e-01 -6.804836e-01 1.791077e+00 -3.093580e+00 -2.311083e+00 -8.781137e-01 1.215119e+01 -2.240098e-01 -3.126223e+00 -1.990315e+00 -8.658171e-04 7.851209e-02 -6.442436e-01 -1.499558e+00 -2.199447e+00 -2.163760e+00 -2.695417e+00 -7.194996e-02 3.706906e-02 -4.482312e-01 6.360269e-01 3.234198e+00 2.286147e-01 2.783370e-03 
-4.899950e+00 3.613428e+00 -4.282885e+00 -4.975495e+00 -4.580151e+00 -9.686907e+00 -4.217304e+00 1.029173e+00 5.202458e+00 -1.701301e+00 7.932714e+00 2.220010e+00 3.403950e-02 6.951262e-01 -1.453516e-01 -9.485693e-01 -6.136965e-01 -1.207392e+00 -2.359389e+00 -9.267996e-01 1.068769e-01 -1.171991e+00 2.331073e-02 3.127125e+00 1.788589e+00 8.225906e-03 
-5.011629e+00 3.736274e+00 -6.458116e+00 -5.145250e+00 -2.299009e+00 -7.244853e+00 -3.264786e+00 -2.827053e+00 5.338137e+00 -6.441221e-01 7.821186e+00 5.210874e+00 2.962244e-02 -1.743312e-01 -5.807503e-01 -5.842980e-01 -2.954164e-02 5.279593e-01 4.730468e-01 7.453380e-02 3.682110e-01 8.145320e-03 1.561059e-01 -1.020174e-01 6.787094e-01 -2.280217e-03 
-4.400603e+00 3.326962e+00 -4.258190e+00 -1.953676e+00 -1.689110e+00 -8.699975e+00 -4.062878e+00 2.064471e-01 5.608593e+00 1.606698e-01 7.460219e+00 6.702069e+00 2.011412e-02 -1.090986e+00 6.358133e-02 1.065883e+00 9.884726e-01 1.910893e+00 2.078354e+00 8.529773e-02 -1.221540e+00 1.133989e+00 2.097525e-01 -1.684510e+00 -4.453531e-01 -6.280923e-03 
-7.806396e+00 2.517226e+00 -2.189538e+00 -2.339101e+00 2.985353e+00 -1.221812e+00 -2.015627e+00 1.374304e+00 1.198884e+01 -3.744655e-01 -3.400062e+00 -8.377970e-01 -5.304217e-03 -5.965214e-01 -7.591259e-02 6.377406e-01 6.762592e-01 1.204107e+00 1.857673e+00 -6.552372e-02 -1.040460e+00 3.314021e-01 -6.338495e-01 -5.961529e-01 3.489282e-01 -4.882270e-03 
-8.957500e+00 4.540858e+00 -1.087758e+00 -1.436207e+00 2.332133e+00 -2.306659e+00 -4.415395e+00 -7.179206e+00 7.547050e+00 -7.873669e-01 5.120787e+00 3.017580e+00 2.009821e-02 -1.259051e-01 -2.146673e-01 -2.358766e-01 -6.163827e-01 7.534502e-02 7.427928e-01 -8.664721e-01 -1.513970e+00 -8.583991e-01 -5.914711e-01 1.251128e+00 1.481061e+00 -7.078999e-03 
-5.715788e+00 2.749762e+00 -4.854629e+00 -2.022688e+00 1.710907e+00 -1.153145e+00 -3.416146e+00 -4.336526e+00 6.025919e+00 -3.339351e+00 6.010137e+00 8.797759e+00 5.219042e-03 1.572952e+00 -3.425687e+00 -1.569477e+00 -2.615679e+00 -3.312762e+00 4.895092e-01 -4.821560e-01 -1.504075e+00 -3.576618e+00 6.492136e-02 2.631494e+00 4.682965e-01 6.779686e-02 
-6.075433e+00 2.137357e+00 -4.105027e+00 -5.193796e+00 -6.751614e-01 -5.020344e+00 -7.694979e+00 -4.507987e+00 4.298060e+00 -1.314243e+00 9.010761e+00 9.289598e+00 -2.054250e-02 1.330859e+00 -4.192572e+00 -2.636768e+00 -3.372610e+00 -4.221042e+00 1.285125e-01 1.496817e+00 -2.116560e+00 -2.884352e+00 1.407517e-01 1.175962e+00 -1.617553e+00 1.310654e-01 
-1.382668e+00 -1.340946e+01 -8.528291e+00 -1.353870e+01 -1.207481e+01 2.582577e+00 -2.786615e+00 -7.481681e+00 -4.269751e+00 2.135792e-01 7.812421e+00 -1.632324e+00 3.540004e-01 -1.518764e+00 -1.336146e+00 -9.394749e-01 -7.805258e-01 -2.294869e+00 -9.469062e-01 2.695968e+00 -2.913951e+00 -5.868794e-01 1.133166e+00 1.925543e+00 -8.627591e-01 1.432259e-01 
-4.469764e+00 -8.342394e+00 -1.243477e+01 -1.254125e+01 -1.188022e+01 -3.531957e+00 2.753923e+00 -1.618943e+01 -1.726872e+00 -1.860074e+00 1.009946e+01 1.448586e-01 5.010345e-01 -4.257514e+00 1.949014e+00 1.979541e+00 7.166494e-01 1.928788e+00 1.800374e+00 1.556237e+00 2.383188e-01 2.254807e+00 -5.784914e-01 8.435855e-01 -6.479816e-01 1.096160e-01 
-1.411244e+01 1.308909e+00 -5.387132e+00 -2.251590e+00 -4.160909e+00 -6.631870e+00 4.839241e+00 -1.306556e+01 6.103989e+00 2.599396e+00 1.509350e+01 9.056334e+00 4.605599e-01 -3.681293e+00 4.571257e+00 3.610005e+00 2.904427e+00 5.304038e+00 1.725762e+00 -1.204651e+00 3.743836e+00 3.936475e+00 -1.985260e+00 -3.253078e-01 1.159192e+00 -4.647342e-02 
-2.099812e+01 4.523244e+00 4.222097e+00 -7.254105e+00 5.011827e+00 8.588749e+00 -3.726720e+00 -5.244524e-01 1.038522e+01 -5.399608e+00 9.588148e+00 7.053615e-01 4.742580e-01 -5.581349e-01 2.269131e+00 2.787216e+00 2.325029e+00 4.083074e+00 1.598304e+00 -2.087698e+00 3.941275e+00 1.713589e+00 -1.272470e+00 -2.797061e+00 1.229175e+00 -1.298974e-01 
-1.152496e+01 3.014010e+00 1.193302e+00 -1.660138e+00 5.999354e+00 5.151033e+00 -5.569551e+00 3.405011e+00 9.356575e+00 -7.942952e+00 6.441537e+00 3.883387e+00 1.350216e-01 3.025893e+00 3.976116e-02 3.712204e-01 1.968159e+00 1.506834e-01 8.299463e-01 -5.668638e-01 1.383437e+00 -1.503861e+00 -1.851216e-01 -3.180391e+00 -7.618839e-01 -1.236605e-01 
-8.554179e+00 2.150711e+00 -1.788907e+00 -1.211832e+00 3.455017e+00 -1.431889e+00 -2.480171e+00 -4.718341e+00 5.214779e+00 -2.951250e+00 4.401357e-01 8.877207e+00 1.431644e-02 3.374489e+00 -1.529464e+00 -8.781452e-01 3.301401e+00 -2.443538e+00 -2.484280e+00 2.130325e+00 -2.426831e-01 -2.557359e+00 1.879345e+00 -1.058446e+00 8.363662e-01 -7.983970e-02 
-5.204946e+00 2.693982e+00 -5.255277e-01 4.568070e+00 -2.629087e+00 2.528181e+00 1.381648e+00 -4.051434e+00 1.169909e+00 4.496088e-01 3.765557e+00 1.160991e+00 7.222801e-02 9.332043e-01 -2.123936e+00 -7.678579e-01 2.798427e+00 -2.660650e+00 -2.230214e+00 1.406418e+00 1.662436e+00 3.085397e-01 8.432366e-01 -1.356151e+00 2.263150e-01 4.043341e-02 
-7.285678e+00 -2.964064e+00 6.907862e-01 6.138797e+00 -2.891643e+00 -2.521224e+00 3.449306e+00 1.990355e+00 1.691761e+00 -1.991658e-01 5.633909e+00 6.248391e+00 1.064563e-01 -5.076437e-01 -1.674042e+00 -9.045269e-01 9.873036e-01 -1.865838e+00 -1.393879e+00 -9.749615e-01 2.806758e+00 8.128961e-01 -6.931653e-01 -1.622723e+00 -4.091684e-01 9.086756e-02 
-7.493190e+00 -5.048283e+00 -3.885834e+00 8.656681e+00 -4.130563e+00 -5.455367e+00 -1.502200e+00 8.362841e+00 1.266078e+01 -5.102811e+00 -2.936104e+00 6.329370e+00 2.911187e-01 -8.912972e-01 -1.896059e+00 -2.751125e+00 -1.409386e-01 5.340155e+00 1.585137e+00 -4.041509e+00 -1.395798e+00 9.485478e-01 -1.004370e+00 1.111150e-01 1.117487e-01 1.088532e-01 
-9.948276e+00 -2.348365e+00 -4.631389e+00 1.680381e+00 -5.123435e+00 -4.409513e+00 -5.913055e+00 3.108315e+00 3.533822e+00 -3.640867e+00 -4.322646e+00 4.247176e+00 3.592089e-01 -2.417849e-01 -2.289471e+00 -3.036243e+00 5.683425e-01 5.861538e+00 4.636456e+00 -3.882531e+00 -3.404917e+00 -2.247751e+00 1.251505e+00 2.979398e+00 -5.486677e-01 1.120359e-01 
-8.330132e+00 -7.094162e+00 -1.162006e+01 6.092586e+00 2.518758e+01 1.139801e+01 -1.414472e+01 -1.158941e+01 4.991617e+00 -2.851390e+00 9.299410e+00 2.720342e+00 4.901179e-01 2.515905e-01 -2.925692e+00 -1.998418e+00 7.929224e-01 3.244517e+00 4.072769e+00 -1.544102e+00 -3.123233e+00 -6.268370e+00 1.798333e+00 5.332809e+00 -2.511407e-01 3.749631e-02 
-8.076131e+00 -1.338848e+01 -1.062331e+01 1.026256e+01 1.175698e+01 1.223437e+01 -9.642090e+00 -5.058107e+00 -5.712409e+00 4.932650e+00 1.441314e+01 5.309566e+00 5.671363e-01 9.456249e-01 -3.637321e-01 -5.026075e-01 -6.925408e-01 -6.068630e-01 3.998145e-01 2.657557e+00 -3.962559e-01 -2.546931e+00 3.020558e-02 2.268587e+00 1.336823e+00 -8.069706e-02 
-7.171309e+00 -1.415668e+01 -1.088196e+01 8.330205e+00 3.651819e+00 6.586536e+00 -7.358191e+00 -3.170116e+00 -1.405795e+01 -3.979061e-01 1.436005e+01 4.542471e+00 3.746365e-01 9.949447e-01 2.811968e+00 1.551210e+00 -3.220486e+00 -6.417592e+00 -3.301780e+00 3.486550e+00 1.764463e+00 -5.178916e-01 -6.686929e-01 -2.007655e+00 1.299785e+00 -1.474196e-01 
-5.799562e+00 -6.357646e-01 -7.513477e+00 -2.901133e+00 2.610132e+00 -4.703816e-03 3.981468e+00 -3.082610e+00 3.239489e-01 -4.716581e+00 4.489968e+00 1.002022e+01 1.346433e-02 8.240417e-01 4.653344e+00 1.667283e+00 -3.498111e+00 -3.453456e+00 -3.261398e+00 2.335259e+00 7.436884e-01 3.155507e+00 -5.250198e-01 -2.704168e+00 9.079878e-02 -1.367036e-01 
-4.493693e+00 5.893205e-01 -5.418930e+00 -3.428001e+00 -2.326957e+00 1.008643e+00 -3.523747e+00 -3.754842e+00 -6.160202e-01 -1.370239e+00 4.222722e+00 6.863940e+00 2.985609e-02 9.513057e-01 3.980901e+00 1.451584e+00 -2.160474e+00 -1.486640e+00 -1.449598e+00 1.136839e+00 -4.150530e-01 2.020957e+00 1.466234e-01 -2.168888e+00 -7.801126e-01 -6.089970e-02 
-5.294730e+00 2.505238e+00 -5.018412e+00 -1.348894e+00 -2.520919e+00 -1.283673e+00 1.169844e-01 -1.047302e+00 3.344162e+00 2.793718e+00 5.960966e+00 4.602826e+00 5.600870e-02 5.225563e-01 1.305183e+00 6.871290e-01 -8.296641e-01 -1.403001e+00 -5.762375e-01 -9.679131e-02 -1.826059e-01 -1.637672e+00 -2.017977e-01 -2.858960e-01 -1.967822e+00 1.575575e-02 
-2.667197e+00 4.177320e+00 -4.871576e+00 -3.248282e+00 -1.215853e+00 -2.196768e-02 2.582436e-01 -6.263034e+00 -5.463272e+00 -3.419938e+00 2.780112e+00 3.350608e+00 4.886585e-02 2.410747e-01 6.271814e-01 4.676026e-01 -1.462284e+00 -5.662027e-01 -6.392306e-01 3.165570e-01 5.935359e-01 -2.472353e+00 -1.957729e+00 -2.418566e-01 -1.574909e+00 9.914619e-03 
-4.100029e+00 4.096150e+00 -4.351510e+00 -7.139313e+00 -4.960425e+00 -2.370586e+00 1.606516e+00 -2.741544e+00 -5.440787e+00 -4.700719e+00 3.781793e+00 1.937781e+00 8.273822e-02 1.259417e-01 -6.656731e-01 6.892376e-01 -9.149011e-01 4.663425e-02 1.758910e-01 -3.308040e-01 4.344110e-01 -2.793740e+00 -2.443553e+00 -4.084054e-01 -1.792221e+00 1.157547e-02 
-3.885671e+00 2.929771e+00 -3.414367e+00 -7.844213e+00 -3.938217e+00 -1.644053e+00 -2.685728e+00 5.995798e-02 -8.585314e+00 -7.411663e+00 4.103025e+00 3.219182e-01 6.606442e-02 -4.783163e-02 -5.718521e-01 8.035585e-01 2.998194e-01 6.134613e-01 4.665583e-01 -5.940639e-01 1.419549e+00 -6.746017e-01 -1.117552e+00 8.850546e-02 -1.622292e+00 1.501809e-02 
-4.055785e+00 -1.993529e-01 -2.300828e+00 -3.625434e+00 -9.265661e-01 4.068252e-01 -6.504974e-02 -2.036744e+00 -9.063519e+00 -7.428185e+00 3.257483e+00 -2.843933e+00 1.052868e-01 4.748991e-01 -3.233654e-01 8.531550e-01 3.590334e-01 1.052106e-01 9.439954e-01 -4.313239e-01 8.928769e-01 1.815495e-01 6.188165e-02 -1.259711e+00 -1.516198e+00 1.809707e-02 
-2.928477e+00 3.465812e+00 -1.879124e+00 -3.506125e+00 -1.654763e-01 9.221182e-01 -1.876293e+00 4.823127e-01 -7.024914e+00 -7.643967e+00 3.484795e+00 -2.369996e+00 1.126820e-01 9.391843e-01 1.374565e+00 2.033945e+00 1.253043e+00 6.906023e-01 2.284434e+00 1.931311e+00 1.685888e+00 8.053646e-02 4.593089e-01 -1.866509e+00 -1.803138e+00 2.951419e-02 
-2.204130e+00 2.211303e+00 -8.533564e-01 -7.513190e+00 -6.320743e+00 1.066305e+00 -9.548213e-01 1.511663e+00 -5.313239e+00 -4.275159e+00 -2.207648e+00 -4.297251e+00 1.499147e-01 2.745961e+00 3.211779e+00 2.644675e+00 1.788789e+00 7.406092e-01 2.281748e+00 1.994386e+00 2.398384e+00 -8.014663e-01 1.406457e+00 -1.612732e+00 -1.941501e+00 6.608610e-02 
-1.155767e-01 8.597267e+00 6.031620e+00 3.648818e-01 2.211883e+00 9.448378e+00 7.415714e+00 6.715195e+00 -1.005777e+01 -6.691631e+00 -2.496953e+00 -7.967112e+00 1.913214e-01 4.330024e+00 1.337235e+00 2.866994e+00 2.139083e+00 -9.995930e-01 2.180866e+00 2.414433e+00 3.919415e-01 -1.212702e+00 1.575557e+00 -5.948030e-01 -1.066686e+00 1.137530e-01 
8.267570e+00 1.329382e+01 6.967174e+00 3.383007e+00 1.587800e+00 7.552435e+00 5.260876e+00 6.838737e+00 -1.155442e+01 -8.720694e-01 -1.815305e+00 -9.752880e+00 3.963976e-01 4.316932e+00 -3.229346e-01 2.643083e+00 1.697560e+00 -1.695418e+00 2.174771e+00 1.466639e+00 -8.869509e-01 -8.076711e-01 4.592007e-01 5.587545e-01 -6.459726e-01 1.321004e-01 
1.348579e+01 4.610730e+00 8.545583e+00 1.741190e+00 -9.117713e+00 8.583381e+00 7.088024e+00 -2.215164e-01 -9.967833e+00 -1.467726e+00 3.146086e-01 -4.975611e+00 5.582057e-01 2.862950e+00 -2.382885e+00 1.342479e+00 -5.450066e-01 -3.510516e+00 1.117100e+00 -5.424237e-02 -1.898799e+00 -1.148358e-01 6.659842e-01 -2.665943e-01 3.672259e-01 1.206136e-01 
1.257985e+01 2.589899e+00 1.110508e+01 2.864532e-01 -9.133033e+00 1.237266e+01 6.542220e+00 5.452650e-01 -9.396563e+00 -4.591109e+00 -8.196565e-01 -9.022865e+00 6.269748e-01 6.545638e-01 -2.717348e+00 1.179196e+00 -1.216799e+00 -2.755191e+00 1.028090e+00 -7.568331e-02 -1.279006e+00 -1.495409e-02 1.974707e-01 -1.136520e+00 5.209732e-01 7.589273e-02 
1.204303e+01 2.034800e+00 1.067506e+01 -8.118745e-01 -9.980279e+00 1.262377e+01 6.503830e+00 3.679354e-01 -1.171088e+01 -1.502190e+00 -4.327749e+00 -6.495990e+00 6.791007e-01 -4.209248e-01 -7.960981e-01 8.407966e-01 -1.647961e+00 -2.587078e-01 -2.001060e-01 -1.365634e+00 4.285532e-01 -1.022466e+00 1.100584e+00 -1.181888e+00 -2.188405e-01 4.638071e-02 
1.226177e+01 9.950424e-01 1.179841e+01 -1.424454e+00 -1.175687e+01 1.067269e+01 5.174557e+00 1.489809e-01 -1.075767e+01 1.325164e-01 -5.176728e+00 -6.387824e+00 7.154137e-01 7.163227e-02 -3.285308e-01 4.080345e-01 -1.796916e+00 -7.557721e-01 -1.811118e+00 -2.231970e+00 3.087736e-01 -1.295924e+00 1.884433e+00 -1.164928e-02 1.205482e+00 3.707468e-02 
1.154021e+01 1.427667e+00 1.240290e+01 -5.643164e+00 -9.099333e+00 8.432833e+00 9.436859e-01 2.119391e+00 -1.439961e+01 1.673384e+00 -3.416298e+00 -7.387333e+00 7.458898e-01 3.650705e-01 -1.318663e-01 2.177381e-01 -2.670844e+00 -1.100247e+00 -2.804431e+00 -2.331395e+00 5.109465e-01 -6.648146e-01 1.802400e+00 1.484831e+00 1.238686e+00 4.228100e-02 
1.318942e+01 1.250811e+00 1.228133e+01 -6.282484e+00 -1.335237e+01 5.412537e+00 -1.837556e+00 1.213405e+00 -1.453182e+01 3.243269e+00 -1.333629e+00 -2.549784e+00 7.789537e-01 5.912843e-01 -1.829916e-02 -5.280169e-01 -3.324397e+00 -2.273895e+00 -2.625587e+00 -1.295520e+00 1.616606e+00 1.207412e+00 1.306602e+00 1.566169e+00 1.223625e+00 5.026453e-02 
1.340456e+01 1.247585e+00 1.152229e+01 -1.173708e+01 -1.468376e+01 1.231689e+00 -1.647086e+00 2.390456e+00 -1.314788e+01 5.954432e+00 1.174855e+00 -2.221578e+00 8.587357e-01 7.022346e-01 -5.770296e-01 -1.753128e+00 -2.352164e+00 -2.790699e+00 -5.447980e-01 1.165252e+00 1.466631e+00 3.685556e+00 -5.242869e-01 1.117012e+00 5.205255e-01 4.771721e-02 
1.428601e+01 9.935880e-01 9.598632e+00 -1.499948e+01 -2.033413e+01 1.145330e+00 -7.655203e-03 8.096478e+00 -5.346475e+00 4.525000e+00 3.585401e-01 -2.852575e+00 9.103134e-01 2.667125e-01 -1.329312e+00 -2.317659e+00 -1.873800e+00 -9.598137e-01 1.368766e+00 2.781309e+00 1.383428e+00 3.474067e+00 -2.240062e+00 5.882492e-01 -2.389802e-01 3.980052e-02 
1.450308e+01 -1.328869e+00 4.978610e+00 -1.304549e+01 -1.956195e+01 7.842446e+00 5.854998e+00 6.011008e+00 -5.645022e-01 -1.588916e+00 1.322678e+00 -4.633310e+00 9.187959e-01 -2.319035e-02 -1.729582e+00 -2.959141e+00 -2.850137e-01 6.278440e-01 3.153500e+00 3.145564e+00 6.396607e-01 1.768451e+00 -3.052459e+00 -8.827040e-01 4.678082e-01 2.914118e-02 
1.397372e+01 -4.107523e+00 3.964879e+00 -1.499728e+01 -1.571234e+01 8.950986e+00 8.317947e+00 6.320269e+00 -3.453172e+00 -4.185367e+00 1.533706e+00 -2.538819e+00 9.479262e-01 -4.668654e-01 -1.898054e+00 -2.024517e+00 5.423775e-02 2.782697e+00 2.380133e+00 2.469137e+00 -3.243640e-01 -6.600898e-01 -1.486567e+00 -1.986919e+00 8.153820e-01 1.981267e-02 
1.344475e+01 -4.849768e+00 -4.565346e-01 -1.316325e+01 -1.385544e+01 1.309636e+01 9.917933e+00 6.476864e+00 -5.252276e+00 -4.952679e+00 -3.826247e+00 -3.941560e-02 9.856353e-01 -5.964509e-01 -1.435840e+00 -1.620852e+00 7.459928e-01 2.354987e+00 1.421549e+00 1.159654e+00 -1.033269e+00 -1.076066e+00 4.359054e-01 -1.765749e+00 4.711913e-01 1.274801e-02 
1.248085e+01 -6.736230e+00 2.193618e+00 -1.466941e+01 -9.273901e+00 1.041903e+01 1.030656e+01 6.241730e+00 -6.303037e+00 -1.225953e+00 -7.001591e+00 -1.072612e+00 9.759571e-01 -5.311887e-01 -1.126514e+00 -1.412009e+00 1.026554e+00 2.400429e+00 6.393665e-01 1.185472e+00 -1.682041e+00 -1.359132e+00 1.704617e+00 -7.609631e-01 -1.514905e-01 8.703291e-03 
1.226726e+01 -7.193715e+00 -2.240020e+00 -9.479456e+00 -1.100624e+01 1.421617e+01 1.065896e+01 8.839326e-01 -4.519899e+00 -8.890960e-01 -3.238416e+00 -3.010457e+00 9.685205e-01 -2.374714e-01 -1.399116e+00 -9.049824e-01 1.289650e+00 2.362381e+00 7.422018e-02 5.837973e-01 -1.754081e+00 -1.380383e+00 2.018782e+00 9.097646e-01 -1.087286e-01 -8.915066e-05 
1.190652e+01 -8.568121e+00 -2.203425e+00 -1.170641e+01 -5.134795e+00 1.158792e+01 1.387479e+01 7.065287e-01 -1.061502e+01 2.305925e+00 -2.565025e+00 -1.810751e+00 1.000000e+00 2.035029e-01 -1.418788e+00 -1.112944e+00 1.729923e+00 2.517870e+00 -4.185804e-01 2.019538e-01 -1.727335e+00 -1.094193e+00 2.770998e+00 5.163354e-01 8.973837e-01 -6.094104e-03 
1.254456e+01 -1.092940e+01 -2.782925e+00 -8.196496e+00 -4.113088e+00 1.288302e+01 1.105280e+01 4.740608e-01 -9.998198e+00 3.375290e+00 -1.495706e+00 -2.139891e-01 9.731681e-01 2.070729e-01 -1.181533e+00 -4.750541e-01 1.018420e+00 3.619777e+00 -2.211428e+00 -5.671791e-01 -5.362311e-01 -6.231962e-01 3.470445e+00 -1.006196e+00 9.935849e-01 -1.238400e-02 
1.335972e+01 -1.196233e+01 -3.099652e+00 -6.661276e+00 -1.311235e-01 8.992705e+00 1.111941e+01 -2.190008e+00 -9.034853e+00 1.049685e+01 -5.291269e+00 2.016072e+00 9.431628e-01 1.819077e-01 -5.258497e-01 -7.704329e-01 2.176590e+00 2.374963e+00 -2.880258e+00 -1.754428e+00 2.794917e-01 1.207593e+00 3.170224e+00 -1.655359e+00 7.884991e-03 -2.251156e-02 
1.257603e+01 -1.140427e+01 -4.167177e+00 -6.909924e+00 4.590814e+00 4.456635e+00 9.200759e+00 -3.489547e-01 -8.425964e+00 1.236767e+01 -6.906274e+00 4.405570e-02 9.350191e-01 -2.478637e-01 2.280149e-02 -6.060819e-01 1.825292e+00 2.217945e+00 -3.834589e+00 -1.611480e+00 5.442804e-01 1.523254e+00 2.568213e+00 -1.063352e+00 -1.474244e+00 -1.179959e-02 
1.280033e+01 -1.095993e+01 -5.363463e+00 -1.466741e+00 2.388069e+00 1.399821e+00 6.028678e+00 2.515495e+00 -5.363173e+00 1.366086e+01 -8.136538e+00 -1.900348e+00 9.065167e-01 -6.618369e-01 1.238660e-01 -2.314519e-01 1.846999e+00 1.360646e+00 -3.187441e+00 -1.974883e+00 1.041157e+00 1.634839e+00 1.465528e+00 -1.082620e+00 -1.582597e+00 -1.907110e-04 
1.158494e+01 -1.131659e+01 -4.681429e+00 -1.667304e+00 5.717042e+00 -2.493481e+00 5.540769e+00 8.427114e-01 -4.217768e+00 1.463435e+01 -5.389833e+00 -5.627001e+00 9.324932e-01 -8.945389e-01 -2.161575e-01 9.054980e-01 9.392031e-01 9.446859e-01 -2.048264e+00 -1.994963e+00 1.466317e-02 2.306780e+00 6.020567e-01 -1.129605e+00 -8.146846e-01 4.650134e-03 
1.054608e+01 -1.138684e+01 -3.999785e+00 -4.758859e-02 6.108993e+00 -3.469442e+00 3.074993e+00 2.419944e+00 -2.964754e+00 1.669114e+01 -1.146259e+01 -3.061386e+00 9.434722e-01 -8.934121e-01 -7.836437e-02 1.913153e+00 -4.564039e-01 1.216851e+00 -1.547813e+00 -1.682830e+00 -1.480579e-01 2.240743e+00 -7.977676e-02 -1.821737e+00 3.114423e-01 3.042972e-03 
9.230459e+00 -1.227161e+01 -3.215261e-01 -2.923483e+00 7.453782e+00 -3.350050e+00 7.027850e-01 -2.278633e-01 1.908727e+00 1.386281e+01 -1.089127e+01 -3.448848e+00 9.397920e-01 -3.678803e-01 2.890844e-02 1.993124e+00 6.557007e-02 -2.277521e-01 -9.255059e-01 -1.814640e+00 1.142944e-01 2.331982e+00 -3.862276e-01 -2.622267e+00 2.400884e+00 -7.327658e-03 
9.510506e+00 -1.087425e+01 2.022354e+00 -3.120671e+00 7.603954e+00 -5.910959e+00 3.351855e-02 2.310493e+00 2.777296e+00 1.364774e+01 -1.449450e+01 -1.432213e+00 9.180821e-01 2.578971e-01 8.924085e-01 1.633953e+00 9.516245e-01 -5.962237e-01 -1.048532e+00 -1.276062e+00 -5.427396e-01 7.327704e-01 -1.943855e+00 -1.409809e-01 3.086620e+00 -3.683258e-02 
1.026332e+01 -1.142835e+01 2.273122e+00 1.970873e-01 3.830801e+00 -5.900253e+00 -2.011696e+00 1.468909e+00 4.571116e+00 1.422491e+01 -1.698521e+01 5.562833e+00 9.085500e-01 7.707718e-01 2.295226e+00 1.015743e+00 2.922155e+00 -3.171192e-01 -1.550081e+00 -1.630183e+00 1.539404e-01 -2.476972e+00 -2.062794e+00 2.490275e+00 1.446971e+00 -7.480194e-02 
1.131913e+01 -7.346429e+00 2.872656e+00 3.150249e+00 4.939364e+00 -7.437001e+00 -1.948075e+00 -1.142141e+00 -6.320958e-01 6.790822e+00 -9.120523e+00 7.865874e+00 7.749304e-01 1.724108e-01 4.006406e+00 5.815043e-01 3.225786e+00 1.556048e-01 -1.734226e+00 -1.279716e+00 1.813678e+00 -5.053474e+00 -1.453444e+00 3.301433e+00 -1.457585e+00 -1.062156e-01 
1.218001e+01 -2.559386e+00 4.332035e+00 8.551830e+00 7.200480e+00 -1.033743e+01 -6.457332e+00 2.268155e+00 -8.771435e+00 6.977299e+00 -1.126887e+00 -8.630382e-01 6.373582e-01 -8.095545e-01 4.111706e+00 1.214928e+00 3.139967e+00 5.752996e-01 -8.797200e-01 2.820513e-01 2.820539e+00 -4.831103e+00 -7.329143e-01 1.988899e+00 -4.853433e+00 -1.143396e-01 
9.414219e+00 4.723304e+00 3.900419e+00 8.830888e+00 6.697138e+00 -1.236350e+01 -4.142246e+00 1.097926e+01 -1.581880e+01 1.000433e+01 -5.916502e+00 -5.507200e+00 5.225999e-01 -1.783284e+00 2.442174e+00 1.488081e+00 3.366899e+00 -1.168619e-01 9.229722e-02 1.535580e+00 3.619047e+00 -1.785992e+00 4.482048e-01 -4.373122e-01 -3.684784e+00 -8.519460e-02 
7.168009e+00 3.095316e+00 7.833880e+00 1.305660e+01 5.828413e+00 -7.835605e+00 4.956461e-01 9.510906e+00 -1.199105e+01 8.953585e+00 -8.642729e+00 -1.201779e+01 4.630170e-01 -2.148793e+00 5.735078e-01 1.521308e+00 2.536142e+00 -1.040851e+00 9.709374e-01 2.873485e+00 2.417674e+00 8.383014e-01 3.024340e-01 -2.712071e-01 -1.031298e+00 -5.669608e-02 
4.908710e+00 2.037089e+00 8.562136e+00 1.773236e+01 5.041089e+00 -8.226430e+00 2.253337e+00 1.333172e+01 -7.952248e+00 8.043703e+00 -7.549164e+00 -4.980669e+00 4.361280e-01 -1.347479e+00 -6.155169e-01 1.589047e+00 1.640873e+00 5.049098e-02 1.630004e+00 1.800233e+00 -4.218125e-01 2.722084e+00 -1.755427e+00 6.548545e-01 5.261349e-01 -4.384228e-02 
3.688794e+00 1.651260e+00 9.607716e+00 1.678180e+01 2.824248e+00 -7.551281e+00 4.712301e+00 1.318029e+01 -8.513205e+00 9.469782e+00 -1.666591e+00 -6.282793e+00 3.971138e-01 -5.256615e-01 -1.695590e-01 4.623860e-01 6.549378e-02 1.081951e+00 1.300412e+00 -4.131664e-01 -1.596660e+00 2.728645e+00 -2.315917e+00 2.490773e-01 -1.646913e-01 -4.199610e-02 
4.416430e+00 2.367747e+00 1.095874e+01 1.517265e+01 8.451675e+00 -4.355639e+00 2.750590e+00 7.035501e+00 -3.947300e+00 9.690971e-01 -6.130298e+00 -5.744025e+00 3.363401e-01 -9.027024e-02 -4.286091e-01 -1.342539e-01 -9.909891e-01 4.847917e-01 1.221238e+00 -7.976580e-01 -3.124575e+00 2.925527e+00 -2.729005e+00 -1.106286e-01 -2.063253e+00 -4.479717e-02 
4.785842e+00 2.082192e+00 8.947510e+00 1.466393e+01 9.532874e+00 -3.268939e+00 -1.818812e+00 4.675713e+00 -3.502951e-01 9.113007e-01 -8.106775e+00 -1.245957e+01 3.029304e-01 -4.726940e-01 -6.543616e-01 -5.303809e-01 -1.247377e+00 -2.633504e-01 6.715414e-01 -1.534767e+00 -3.363604e+00 1.150872e+00 -3.454127e+00 7.208600e-01 4.016130e-01 -4.489392e-02 
3.908835e+00 -3.214227e-01 8.220969e+00 1.383635e+01 4.110734e+00 -4.261408e+00 1.530603e+00 1.961138e+00 2.593932e+00 -1.322082e+00 -4.882215e+00 -1.220854e+01 2.592338e-01 -1.111840e+00 -1.299299e+00 -1.626002e+00 -1.427233e+00 -1.971995e+00 -1.372865e-01 -1.938186e-01 -2.535758e+00 -1.079422e+00 -2.667394e+00 2.000792e+00 6.602964e-01 -3.089682e-02 
1.579122e+00 -2.759627e-01 8.324695e+00 1.121307e+01 3.677967e+00 -4.240689e+00 -2.351543e+00 -1.100541e+00 -6.029460e+00 -6.655264e+00 1.313667e+00 -1.042469e+00 2.111974e-01 -1.187041e+00 -1.154539e+00 -2.203186e+00 -9.718876e-01 -1.968390e+00 -8.406994e-01 2.174743e+00 -5.258797e-01 -1.601170e+00 -1.974864e+00 1.738895e+00 1.803627e+00 -2.353780e-02 
4.605894e-01 -2.949670e+00 3.140134e+00 9.761918e+00 1.519155e+00 -4.556197e+00 2.047862e+00 -2.755159e+00 -6.504829e+00 -8.584589e+00 -8.365580e-01 -8.151094e+00 2.277225e-01 -8.356854e-01 -6.634528e-01 -2.032618e+00 -4.539336e-01 -5.125329e-01 -6.775813e-01 9.748381e-01 7.133914e-01 2.153477e-01 2.021734e-01 8.735367e-01 8.150734e-01 -2.261763e-02 
5.747623e-01 -2.376382e+00 4.719966e-01 1.184171e+01 9.867148e-01 -7.325042e+00 8.796273e+00 4.404462e+00 -3.806766e+00 -5.331763e+00 -1.435131e+00 -5.470160e+00 2.009971e-01 -5.653613e-01 -5.875368e-01 -2.562776e+00 -5.350456e-01 -9.143318e-01 -5.591489e-01 9.954569e-01 8.444666e-01 2.279159e+00 4.509600e-01 -5.321991e-01 -1.847777e+00 -1.790160e-02 
2.325878e-01 -2.588477e+00 1.984229e+00 1.125236e+01 2.893695e+00 -6.107138e+00 8.308859e-01 2.775593e+00 2.559324e+00 -9.729652e-01 8.598669e-01 -5.919331e+00 1.512458e-01 -5.228626e-01 -1.320608e-01 -1.755430e+00 -1.017216e+00 -3.068880e-01 -4.906141e-01 -1.559684e+00 -6.490439e-01 2.161795e+00 1.431511e+00 1.130249e-01 -6.496115e-02 -2.102483e-02 
-1.133684e+00 -3.394243e+00 -3.911235e+00 7.792614e+00 -1.580962e+00 -6.260963e+00 3.234229e+00 3.564155e-01 8.342590e-01 -8.206276e+00 -2.195541e+00 -1.139724e+01 1.599277e-01 -3.908154e-01 3.022131e-01 -8.877613e-01 -1.365067e+00 6.893083e-01 5.675939e-01 -2.118152e+00 -1.378141e+00 1.213901e+00 9.237666e-02 1.735702e-01 1.315951e+00 -2.263556e-02 
-1.299500e+00 -3.101043e+00 -3.445400e+00 6.700385e+00 1.268554e+00 -7.541307e+00 -2.969536e+00 -3.976355e+00 1.983634e+00 1.022148e-02 1.087716e-01 -5.512361e+00 1.431330e-01 -1.369597e-01 1.143264e+00 8.406532e-02 -4.369844e-01 7.172377e-01 1.631902e-01 8.650291e-02 3.149907e-01 9.806424e-01 -4.384718e-01 3.608496e-01 2.122658e+00 -2.170511e-02 
-6.132708e-01 -6.090329e-01 -1.251996e+00 7.292357e+00 5.245827e+00 -3.769988e+00 1.057211e-01 8.897314e-01 2.550585e+00 -5.361473e+00 -1.917320e-01 9.061079e-01 9.187561e-02 -9.605036e-02 1.008645e+00 1.094607e+00 1.576128e-01 7.491559e-01 -7.357017e-01 -3.579933e-01 2.622963e-01 4.524377e-01 -1.234970e-01 7.016987e-01 2.878150e+00 -2.390963e-02 
-7.124176e-01 1.735237e+00 1.074936e+00 9.317571e+00 3.066489e+00 -6.536674e+00 2.827655e+00 4.083889e+00 6.604373e+00 -4.587726e+00 1.662210e+00 -1.457711e+00 7.674628e-02 -2.121237e-01 4.937777e-01 3.583224e-01 1.549956e-01 -4.054163e-01 -4.517018e-01 8.957239e-01 1.336556e+00 -9.312539e-01 -2.052810e+00 -3.813173e-01 8.195234e-02 -1.603874e-02 
-1.907477e+00 -7.691567e-01 -6.983669e-01 7.272085e+00 1.265850e+00 -1.044179e+01 -1.454332e+00 -2.362225e+00 7.860785e-01 -6.524787e+00 5.362334e-01 9.661852e-01 7.357293e-02 -3.419965e-01 1.305431e-01 -5.387186e-01 -8.504068e-01 -1.569610e+00 1.466362e-01 -5.606835e-01 -6.226760e-01 -3.253141e-01 -1.614593e-01 -5.494617e-01 -4.105041e-01 -1.254106e-02 
-1.713016e+00 -5.520930e-01 -1.930603e+00 7.485499e+00 1.231461e+00 -6.463916e+00 2.289110e+00 4.332403e+00 -1.790382e+00 -9.672171e+00 -2.161798e+00 -5.132638e+00 7.209069e-02 -6.629268e-01 4.000467e-01 -1.601917e-01 -1.245344e+00 -4.064372e-01 1.510977e+00 -7.580121e-01 -5.667089e-01 7.927003e-01 9.001837e-01 -9.959253e-01 1.919216e-01 -1.650406e-02 
-1.822954e+00 1.187348e+00 -2.442820e+00 3.956360e+00 -1.684708e+00 -3.073186e+00 -2.428425e+00 -2.347906e+00 5.121391e+00 -3.626547e+00 -1.027037e+00 6.910509e-01 3.149813e-02 -7.826314e-01 1.589856e+00 -2.099879e-02 -1.411134e+00 1.149621e+00 3.501694e+00 1.649688e-01 -1.927347e-02 2.195274e+00 1.765569e+00 2.265417e-01 9.005886e-01 -1.740309e-02 
-4.069313e+00 2.757219e+00 1.146204e+00 4.748713e+00 2.509582e+00 -2.666088e+00 -4.753594e-01 1.243185e+00 8.400218e+00 -1.535927e+00 -2.535781e+00 -3.605360e-01 1.526338e-02 -1.451295e+00 1.374231e+00 -5.514770e-02 -1.661376e+00 2.179568e+00 3.053306e+00 -3.027572e-01 -9.107772e-01 2.747363e+00 2.878716e+00 1.754486e+00 2.910303e+00 -1.620778e-02 
-4.642486e+00 5.525467e+00 -2.341764e+00 1.584807e+00 6.374896e+00 5.167768e+00 7.527472e-01 -9.139829e-01 6.667149e+00 -1.765063e+00 1.855934e+00 3.083077e+00 1.497114e-02 -1.423211e+00 1.109295e+00 2.877529e-01 -1.536503e+00 1.509987e+00 1.268873e+00 -7.376944e-01 -9.142133e-01 4.950473e-01 1.914043e+00 1.011677e+00 1.081943e+00 -2.781027e-03 
-7.559726e+00 4.150002e+00 -2.256869e+00 3.643985e-01 8.099499e+00 4.682137e+00 -8.152615e-01 -9.384444e-01 1.117355e+01 3.790669e+00 5.169149e+00 8.222862e+00 -6.847382e-04 -8.617945e-01 5.068620e-01 -7.491195e-02 -9.326946e-01 -9.472569e-01 -6.027238e-01 -6.923236e-01 -5.297632e-01 3.630485e-01 1.314296e+00 1.265607e+00 7.272536e-01 2.333701e-03 
-7.193805e+00 6.037429e+00 6.974813e-01 -1.533996e+00 3.070271e+00 -4.029356e-01 -5.946946e+00 -5.828157e+00 6.209960e+00 3.280370e+00 1.788838e-01 1.809069e+00 2.556705e-02 -2.447683e-01 4.189663e-01 3.359986e-01 4.070060e-01 -1.878326e+00 -1.767277e+00 -1.692575e+00 1.969550e-01 9.235547e-01 8.867121e-02 -2.818921e-01 -3.642133e-01 1.680089e-02 
-7.102626e+00 5.035547e+00 -7.479789e-01 1.644642e+00 -5.743899e-01 -2.894356e+00 -5.871309e-01 1.051456e+00 1.044406e+01 2.512837e+00 4.630779e+00 3.912736e+00 2.163392e-02 2.144315e-01 3.913312e-02 -5.443307e-01 6.202646e-01 -1.242332e+00 -4.494105e-01 -8.648113e-01 5.340433e-01 -3.772175e-01 -1.497073e+00 -7.073054e-02 1.230644e-01 1.574997e-02 
-6.094877e+00 7.177526e+00 -1.416216e+00 2.979715e+00 1.320208e+00 1.196307e-01 -7.824193e+00 -9.241581e-01 1.164967e+01 -6.827915e-01 7.156579e-01 3.417073e+00 8.781624e-02 2.889738e-01 -4.923899e-02 -4.005384e-01 8.359612e-01 5.569409e-01 1.476556e+00 1.763770e-01 8.459234e-01 -7.054380e-01 -2.800979e+00 6.162389e-01 1.665855e+00 4.330313e-03 
-7.037032e+00 3.775620e+00 -3.921674e+00 1.208866e+00 2.762870e+00 2.173802e+00 -4.200695e+00 -7.202275e-01 6.567610e+00 -1.713117e+00 4.547109e+00 8.034182e+00 4.694051e-02 1.700405e-01 -5.072418e-01 1.579502e-01 -4.089653e-01 9.197851e-01 1.195086e+00 4.525516e-01 -6.749637e-01 -1.811072e+00 -1.363326e+00 -3.928544e-02 2.364449e-01 -1.320512e-02 
-5.781733e+00 6.421198e+00 2.816367e-01 2.863698e+00 4.186345e+00 4.445765e+00 -3.258279e+00 -7.126985e-01 4.620992e+00 -8.611547e+00 3.301913e+00 8.077619e+00 3.456533e-02 -3.251123e-01 -6.819100e-01 7.857282e-01 -2.057332e-01 8.866676e-01 1.262502e-01 1.368111e+00 -5.913290e-01 -1.681711e+00 -1.121366e-02 2.015112e-01 -1.553446e-01 -2.207567e-02 
-6.408996e+00 2.877502e+00 -8.071538e-01 -3.421763e-01 2.591467e+00 9.180063e-01 -6.073300e-01 -2.429092e+00 4.903034e+00 -3.394151e-01 3.141224e+00 2.764688e+00 -1.776624e-02 -1.021041e-01 4.963434e-02 1.270765e+00 -5.100336e-02 7.103559e-01 -8.265306e-01 4.578879e-01 -4.660126e-01 8.921139e-01 8.159054e-01 -7.650843e-01 -1.828014e+00 -1.320108e-02 
-8.034457e+00 4.217035e+00 9.551656e-01 2.726570e+00 5.839248e+00 1.378780e+00 -2.780318e+00 -3.026371e+00 4.073403e+00 -1.425711e+00 2.426157e+00 5.275097e+00 9.791255e-03 -1.291110e-01 -3.422802e-02 6.530043e-01 -2.317981e-01 5.500437e-01 -1.108561e+00 6.731810e-02 -1.825873e-01 1.976090e+00 1.388299e+00 -6.266353e-01 -1.803381e+00 -7.139802e-03 
-6.421190e+00 5.125873e+00 2.095387e+00 1.022413e+00 5.488198e+00 -4.253579e-01 -2.150235e+00 -1.893454e+00 1.130197e+01 -1.226509e+00 1.159566e+00 2.953719e-01 -6.677866e-03 1.588878e-01 5.405579e-01 6.945305e-01 1.025021e-01 5.442411e-01 -4.490866e-01 -2.455728e-01 2.204193e-01 2.002645e+00 -1.574986e-01 -5.229908e-01 -9.918358e-01 5.707621e-04 
