-3.367492e+00 2.027844e+00 -4.507536e+00 -5.174500e+00 -3.169287e+00 -5.331585e+00 -6.320320e+00 -3.960334e+00 -3.043390e+00 1.912998e+00 1.204732e+00 5.424107e+00 -1.119850e-01 3.299182e-01 6.068964e-01 1.199939e+00 1.768831e+00 8.599874e-01 4.016032e-01 1.154439e+00 2.299259e+00 1.058624e+00 -6.924543e-01 -1.095838e+00 -1.229258e+00 1.204699e-02 
-1.858360e+00 2.864959e+00 -4.162195e-01 -2.698872e+00 1.997519e-01 -4.759176e+00 -3.493325e-01 3.143598e+00 1.656691e+00 3.363688e+00 1.453992e+00 3.024234e+00 -1.107050e-01 -2.670040e-01 -5.439427e-01 1.848934e+00 1.821606e+00 -3.891539e-01 4.907258e-01 3.571592e+00 1.385810e+00 1.340006e+00 -5.673631e-01 -1.757687e+00 -1.383587e+00 2.801353e-02 
-2.472466e+00 4.643768e+00 -5.535015e-01 2.431843e+00 -5.538692e-01 -3.609774e+00 -3.533619e+00 3.983994e+00 -1.003104e-01 -2.274619e+00 -4.399088e+00 4.777515e-01 -5.238998e-02 -6.568176e-01 -1.052481e+00 1.771668e+00 1.095505e+00 -1.285912e+00 4.222588e-01 3.841822e+00 -8.974334e-01 -8.421742e-01 -9.204114e-01 -1.582134e+00 -1.002276e+00 2.484209e-02 
-5.150024e+00 -1.999832e+00 2.760116e+00 1.303582e-01 -6.422766e+00 -3.738863e+00 1.014429e+01 -1.003450e+00 2.185102e+00 1.169990e+00 -4.781794e+00 9.793527e-01 -1.714826e-03 -1.094589e+00 -1.644601e+00 6.119221e-01 -9.693930e-01 -1.444654e+00 -3.217355e-01 2.265309e+00 -1.269842e+00 -3.041881e+00 -1.192729e+00 -1.407370e+00 -2.055838e+00 1.683312e-02 
-5.005748e+00 -8.021668e-01 2.762635e+00 -1.111589e+00 -6.287589e+00 -3.730448e+00 7.641977e+00 -6.373978e+00 -7.518467e+00 -1.592210e+00 -3.588048e+00 1.435168e+00 -4.226959e-02 -7.332581e-01 -1.430647e+00 5.750202e-01 -1.533601e+00 2.717035e-01 2.772185e-01 1.264099e+00 -8.078611e-02 -3.635731e+00 -4.987786e-01 3.885722e-01 -1.465049e+00 1.359987e-03 
-6.064665e+00 -2.635081e+00 9.853226e-01 -5.774120e+00 -4.156656e+00 -6.307516e+00 5.389413e+00 1.973375e+00 -9.843635e+00 -2.941163e+00 -5.988378e+00 -7.733666e+00 -3.159964e-02 3.238792e-01 8.356964e-01 -1.449675e+00 -6.002589e-02 3.466187e+00 1.632419e-01 -2.774571e+00 2.032829e+00 -8.477192e-02 4.725528e-01 9.879061e-01 -2.175580e-01 -1.898294e-02 
-5.681437e+00 -2.191841e+00 3.208996e+00 -2.283923e+00 -3.284066e-01 -9.393547e-01 5.164314e+00 2.091651e+00 -1.226460e+01 -2.712936e+00 -1.852935e+00 -2.490985e+00 -3.064764e-02 1.008668e+00 3.410065e-01 -1.294955e+00 1.232181e+00 1.826063e+00 -5.246800e-01 -3.010153e+00 1.715439e+00 4.391783e+00 2.606281e+00 1.595547e+00 1.375456e+00 -1.111021e-02 
-3.192784e+00 2.873487e+00 -4.711439e+00 4.163961e-01 7.928576e+00 -4.318200e+00 -2.489731e+00 4.927881e+00 4.134309e+00 4.093117e+00 -7.098203e-01 1.854639e+00 -1.024405e-01 1.935187e+00 -1.474214e+00 -2.876697e+00 1.295691e+00 1.895131e-01 -2.930434e-01 -2.758452e+00 -3.242013e-01 4.763299e+00 3.028425e+00 1.991398e+00 3.262450e+00 1.128596e-02 
-1.398347e+00 -1.851418e+00 -8.637590e-01 1.954058e+00 -3.199891e+00 -7.348506e+00 -3.469215e+00 7.259643e-01 7.451477e+00 7.922052e+00 1.750410e+00 3.518297e+00 -6.240022e-02 1.937917e+00 -1.919940e+00 -2.790114e+00 2.305842e-01 -1.014241e+00 -1.639304e+00 -2.964768e+00 -2.019363e+00 3.188491e+00 1.710322e+00 8.187152e-01 1.111161e+00 1.521804e-02 
1.469724e+00 -1.017636e+01 -1.136179e+01 -1.414655e+00 -1.773348e+00 -4.568157e+00 -4.086084e+00 1.035212e+00 4.114822e+00 6.883469e+00 2.166941e+00 5.573942e+00 4.070646e-02 1.078739e+00 -7.458726e-01 -1.237871e+00 -1.418092e+00 -1.616254e+00 5.034815e-01 -3.270349e-01 -1.488379e+00 -4.094856e-01 -1.269653e+00 -3.795310e-01 -5.200812e-01 1.322216e-02 
1.676894e+00 -5.266614e+00 -7.416403e+00 -2.154768e-01 -5.486484e-01 -9.010897e+00 -8.861349e+00 -6.058828e+00 3.687598e+00 4.443497e+00 8.022602e-01 1.205167e+00 -2.613091e-02 1.396014e+00 4.652983e-01 -2.954223e+00 -1.823552e+00 3.703517e-01 1.595966e+00 1.738296e+00 -1.324430e-01 -1.892259e+00 -2.897254e+00 -6.155471e-01 -2.246710e+00 1.460504e-02 
6.632919e-01 8.517220e-01 -7.624470e+00 -5.589297e+00 -1.478314e+00 -9.695969e-01 -1.428839e+00 8.783842e-01 3.968821e+00 -5.158713e-01 -2.133400e+00 4.107984e-01 -5.446434e-02 2.644981e-01 1.993983e+00 -6.093750e-01 -9.548125e-01 1.432253e+00 2.001191e+00 2.776911e+00 1.574921e+00 -1.169456e+00 -2.340925e+00 -5.541993e-01 -7.312688e-01 -1.423627e-02 
5.984938e+00 -5.038970e+00 -1.750353e+01 -5.076383e+00 -1.495649e+00 -1.167958e+00 3.893642e+00 1.421628e-01 -1.936818e+00 -2.864547e+00 8.228455e-01 -5.133679e+00 5.821037e-02 -6.114861e-01 1.341048e+00 7.597888e-01 -1.557833e-01 1.254745e+00 1.496585e+00 2.160975e+00 2.290236e+00 -1.167059e+00 -1.367572e+00 -1.286403e+00 -4.950348e-01 -1.232158e-02 
6.381922e-01 -3.202714e-01 -9.365095e+00 -3.758265e+00 5.861420e+00 1.516328e+00 3.420976e+00 5.809321e+00 1.079753e+00 -1.167137e+00 -6.143479e-01 5.087021e+00 -7.264555e-02 -9.858770e-01 2.643854e-01 2.036541e+00 1.531909e+00 6.947883e-01 -9.423037e-02 -2.705742e-01 1.641643e-01 -7.083801e-01 -6.843655e-01 -6.714362e-01 -3.276978e-01 -1.616434e-02 
-1.367987e+00 2.024622e+00 -2.747147e+00 -1.909909e+00 2.055209e+00 -2.770932e+00 -4.813816e-01 2.926881e+00 -7.031626e-01 -2.068730e+00 -6.389280e+00 -3.608119e+00 -7.864821e-02 -1.568652e+00 7.155012e-01 3.465050e+00 1.231284e+00 1.957953e-01 -5.991806e-01 -1.592138e+00 -9.127287e-01 -6.589753e-01 -1.401103e+00 -1.721935e+00 -6.707708e-01 -2.564704e-02 
-5.896311e-01 -1.358147e+00 -4.819959e+00 4.870088e-01 2.201989e-01 -6.392620e-01 -5.941978e-01 3.068465e-01 -1.899074e-01 -4.335608e+00 -1.884519e+00 -1.990471e+00 -6.685674e-02 -5.702372e-01 -1.125291e+00 1.824234e+00 8.947759e-01 -3.345861e-01 -1.182466e+00 -2.038510e+00 -2.071981e+00 -2.654626e+00 -2.115551e+00 -6.451584e-01 -1.836518e+00 7.646203e-03 
-1.244410e+00 -9.425254e-01 -2.450853e+00 -1.042600e+00 2.303937e+00 -3.086067e+00 -2.059459e+00 -1.670243e+00 -4.596864e+00 -8.285826e+00 -7.151745e+00 -4.948787e+00 -7.291925e-02 -1.816731e-01 -1.562650e+00 1.456957e-01 -3.237258e-02 2.708902e-01 -5.880033e-01 -1.149194e+00 -1.812125e+00 -2.622873e+00 -1.138484e+00 -4.033593e-02 -2.087971e-01 1.080778e-02 
-2.274782e+00 -4.463150e+00 -3.920693e-01 2.819598e-01 4.064125e+00 -4.238434e+00 -5.982535e+00 -2.252023e+00 -1.024653e+01 -8.636341e+00 -3.458908e+00 -3.425233e+00 -3.727901e-02 2.669258e-01 -8.545927e-01 3.611341e-01 2.551183e-01 7.537631e-02 -4.826081e-01 -4.472180e-01 -3.542842e-01 -7.254624e-01 6.851348e-01 1.601444e-01 3.527478e-02 8.471501e-03 
-1.433777e+00 -4.236125e+00 -4.232614e+00 -1.969248e+00 1.487697e+00 -3.911363e+00 -3.533185e+00 -4.854307e+00 -8.789216e+00 -5.610781e+00 -5.803765e+00 -3.934723e+00 -3.939819e-02 6.237707e-01 -2.261967e-01 -9.063069e-01 2.227989e-01 -1.326678e+00 -7.722514e-01 -2.918922e-01 -5.439735e-01 7.950791e-01 3.006575e+00 1.069268e+00 1.650288e-01 3.190458e-03 
8.396816e-01 -3.984311e+00 -2.123408e+00 2.225924e+00 1.005201e+00 -2.639654e+00 -2.093425e+00 1.274577e-01 -1.721044e+00 -2.247456e+00 -1.757786e+00 -2.321129e+00 -4.125977e-02 4.394464e-01 -6.173629e-01 -1.477647e+00 -1.154313e+00 -6.464605e-01 1.473728e+00 -1.150525e+00 -1.620664e+00 -5.475510e-01 1.969790e+00 1.336325e+00 -1.371809e+00 2.400656e-02 
3.172121e-01 -2.312928e+00 -6.116717e+00 -9.005874e-01 -2.799990e+00 -7.746713e+00 -5.463475e+00 -5.579851e+00 -4.884210e+00 3.552604e+00 -2.655968e+00 -4.675695e+00 -5.497658e-02 -1.070454e-01 -2.006886e+00 -1.125428e+00 -1.737816e+00 1.940848e+00 4.365082e+00 -8.431996e-01 -9.036000e-01 -1.449000e+00 2.053820e+00 3.346390e+00 -1.793369e+00 6.129835e-02 
-9.530449e-01 -8.511562e+00 -6.838252e+00 -6.023937e+00 2.975665e+00 5.047880e+00 -1.077002e+01 -9.992573e+00 -1.493678e+01 -3.369087e+00 1.648820e+00 -9.913794e+00 9.054297e-02 -5.184271e-01 -2.307264e-01 -4.441400e-01 -8.994102e-02 1.914972e+00 3.272105e+00 6.294660e-02 -4.140460e-01 -8.543768e-01 1.332588e+00 2.076682e+00 4.406404e-01 3.283116e-02 
-1.072640e+00 -1.200693e+01 -7.502334e+00 -6.533399e+00 1.020670e+01 1.407028e+01 -3.410887e+00 -4.312292e+00 -9.426348e+00 5.219133e+00 9.224881e+00 -9.105234e+00 2.011922e-01 -4.292528e-01 2.207930e+00 1.402666e+00 1.531313e+00 1.217417e+00 7.933097e-01 1.826370e+00 3.489393e+00 2.631150e+00 3.346547e-01 1.250632e+00 2.694796e+00 -1.198171e-02 
-1.057528e+00 -2.909422e-01 -3.651300e+00 4.592625e+00 4.076714e+00 2.812375e+00 -2.804986e+00 -2.576552e+00 -3.721859e+00 3.582222e+00 2.685198e+00 2.096843e+00 -5.188346e-03 4.587326e-02 4.074875e+00 1.763881e+00 9.242536e-01 -8.113415e-01 -2.017885e+00 2.583802e+00 4.134601e+00 2.828797e+00 1.475671e+00 9.337174e-01 4.036502e+00 -5.630593e-02 
-1.776811e+00 4.616410e+00 -6.968616e-01 1.447699e+00 2.736568e+00 -2.662412e+00 -3.141428e-01 8.159102e+00 2.664076e+00 1.750223e+00 3.079001e+00 2.792968e+00 -6.701946e-02 -1.626511e-02 3.874282e+00 1.360738e+00 2.652946e-01 -1.835407e+00 -2.811964e+00 9.597715e-01 2.728950e+00 1.511583e+00 5.855155e-02 -4.026561e-02 2.011182e+00 -6.133822e-02 
-3.715935e-01 3.551141e+00 -1.421584e+00 -5.393217e+00 2.654025e+00 3.324800e+00 6.006208e-01 4.444733e+00 -6.838009e+00 5.743723e+00 9.390347e+00 4.319618e+00 -5.688083e-02 -8.344316e-02 1.084601e+00 5.981761e-01 -8.974339e-01 -9.177106e-02 4.505539e-03 1.068458e+00 1.744904e+00 1.360186e+00 -2.721227e-01 -1.843210e-01 -5.141124e-01 -2.112531e-02 
-1.496933e+00 5.443438e+00 -1.813504e+00 -2.140050e-01 1.741014e+00 -2.457497e-01 -3.148335e-01 5.821815e+00 -3.103574e-01 4.431140e+00 5.670979e+00 -1.607118e-01 -7.965267e-02 -3.443025e-01 3.262179e-01 4.618902e-01 4.602185e-01 5.093059e-01 7.213784e-01 1.862836e+00 7.149987e-01 9.876822e-01 -1.294076e+00 -1.800132e+00 -6.489381e-01 -1.009495e-02 
-1.614682e+00 4.718548e+00 -1.020992e-01 9.363074e-01 4.115636e+00 1.626571e+00 2.537649e+00 7.316612e+00 4.566288e+00 8.811498e-01 4.676044e-01 1.003120e+00 -1.044983e-01 -1.050760e+00 3.109386e-01 1.153278e+00 1.813791e+00 5.799549e-01 -1.094076e+00 1.205532e+00 8.345488e-01 2.762619e+00 -1.244856e+00 -2.416878e+00 -1.451251e+00 -1.133800e-02 
-2.876779e+00 5.663796e+00 9.528468e-01 5.840285e-01 4.552292e+00 1.793595e+00 8.031522e+00 1.029816e+01 1.900339e+00 -2.288869e+00 -1.460290e+00 1.206526e+00 -9.368551e-02 -4.319494e-01 -2.828073e-03 7.832606e-01 1.181874e+00 9.141710e-01 -6.439867e-01 5.187274e-01 3.511806e-01 8.815996e-02 -1.473313e+00 -1.910597e+00 -2.281222e-02 -1.919246e-03 
-4.935472e+00 4.995655e+00 2.961631e+00 3.276722e+00 4.148160e+00 -3.165253e+00 2.455104e+00 6.379307e+00 5.869737e+00 2.879445e+00 8.715930e-01 -3.620255e+00 -1.065544e-01 1.565975e-01 1.549678e-01 -7.782482e-02 2.955910e-01 -3.759003e-03 -5.542220e-01 -1.465390e+00 -7.488047e-01 -9.645811e-01 -9.045655e-01 -1.508465e+00 -6.309948e-01 3.728306e-03 
-1.996285e+00 5.290744e+00 5.709338e-01 4.525158e+00 6.295607e+00 -1.069771e+00 2.320076e+00 8.046371e+00 -5.212822e-01 -3.934574e+00 -4.084001e+00 2.036915e+00 -8.822083e-02 7.176590e-03 -4.665737e-02 -1.141219e-01 -7.997205e-01 -5.863681e-01 -2.283803e-01 -2.032395e+00 -9.974024e-01 -8.246789e-01 3.949398e-01 -1.632988e-01 -4.989184e-01 -5.550385e-04 
-1.271941e+00 5.679913e+00 -3.002668e-01 4.436975e-01 3.225183e+00 2.871442e-01 -1.933578e+00 4.698482e+00 9.541928e-01 -2.818825e+00 -5.762863e+00 -2.567048e+00 -8.858907e-02 -3.783292e-01 -5.873988e-01 -5.759333e-01 -1.305664e+00 -1.027357e+00 4.468614e-03 -1.002991e+00 -1.131229e-02 3.244316e-02 1.078621e+00 1.558571e+00 1.466775e+00 -1.458752e-03 
-4.672661e+00 5.088380e+00 2.013186e+00 -1.998061e+00 2.081940e+00 -1.074505e+00 6.388545e-02 6.151558e+00 2.347166e-01 2.534966e+00 1.040445e+00 -1.814670e+00 -1.054434e-01 -1.056332e+00 -6.826917e-01 1.299159e-01 1.887008e-01 -2.573320e-01 -3.940395e-01 -9.564294e-01 -7.758858e-02 4.310619e-01 1.412600e+00 2.472903e+00 2.001961e+00 3.202057e-03 
-5.488930e+00 2.159843e+00 -6.391618e-01 1.001453e-02 1.118210e+00 -3.140543e+00 -1.431758e+00 7.270152e+00 5.653954e+00 5.037781e+00 6.102225e+00 5.639413e+00 -1.052369e-01 -5.252360e-01 -3.399949e-01 -1.243315e-01 5.964738e-01 1.040413e-02 -1.950430e-01 8.754970e-01 -4.584778e-01 -1.648000e-01 -3.970223e-01 1.874005e+00 2.613069e+00 1.424348e-03 
-5.169453e+00 3.637321e+00 1.389961e+00 5.685504e+00 6.062433e+00 -1.326126e+00 -2.712981e+00 6.372593e+00 -7.158529e-01 -7.998767e-01 2.347968e+00 7.943487e+00 -6.388664e-02 2.897129e-02 -3.689027e-03 -4.846295e-01 5.626914e-01 3.621718e-01 -2.328690e-01 7.728546e-01 -8.480721e-01 1.956760e-01 -7.836244e-01 -2.192723e-01 2.817946e-01 -2.334547e-03 
-3.649725e+00 4.705468e+00 -6.103115e-01 -4.157159e-01 1.286957e+00 -5.622604e-01 3.832341e+00 2.295575e+00 6.054773e-01 -3.136516e+00 2.953398e+00 5.619220e+00 -1.022457e-01 -2.192028e-01 -1.787336e-01 -7.103456e-01 -1.722125e+00 4.894752e-02 -5.573813e-01 4.259512e-01 -2.417368e-01 -2.947397e-01 1.537187e-01 -4.855048e-01 -1.908377e+00 -5.231678e-03 
-5.447407e+00 3.797122e+00 -4.243858e-01 1.028261e+00 3.808425e+00 -3.527991e+00 1.296109e+00 4.398486e+00 3.737335e+00 2.703992e+00 1.518496e+00 -3.956002e-01 -1.186117e-01 -1.038423e+00 -7.745770e-01 -7.099379e-01 -2.325139e+00 -1.985021e+00 1.271246e+00 -5.791856e-01 -3.293007e-01 1.680645e+00 4.554793e-01 -8.442314e-01 -1.665922e+00 3.513497e-02 
-6.445967e+00 1.186274e+00 -3.283716e+00 -6.271991e+00 2.489952e+00 -4.826516e+00 -1.306547e+00 7.048521e+00 1.953661e+00 4.054440e+00 4.089437e+00 2.670730e-01 -1.040328e-01 -1.035590e+00 -1.277808e+00 -4.207214e-01 -6.925469e-01 -9.812707e-01 2.323560e+00 -1.311502e+00 -2.369787e-01 7.122466e-01 -3.777974e-01 -1.718054e+00 -1.179476e+00 3.868997e-02 
-8.963446e+00 1.524033e+00 -8.230259e-01 -3.012055e+00 -4.464171e+00 7.162233e+00 -3.039465e+00 2.349616e+00 7.013281e+00 -2.117958e+00 -2.441208e+00 2.289948e+00 1.126817e-01 5.251366e-01 -3.354973e+00 9.035328e-01 5.875034e-01 -1.700220e+00 2.371930e+00 -1.525585e+00 -3.919973e+00 -3.877709e-01 -1.025576e+00 -2.260661e+00 4.590970e-01 1.408877e-01 
-7.069654e+00 -5.470271e-01 -2.514598e+00 -1.858293e+00 5.169022e-01 5.710426e+00 -5.573819e-01 2.135116e+00 2.528737e+00 -2.614528e+00 -3.657020e+00 -1.620934e+00 -2.444255e-02 9.881531e-01 -3.478894e+00 8.584291e-01 1.284199e+00 -2.040698e+00 3.149398e-01 -8.008865e-01 -4.449988e+00 -7.194859e-01 -8.245624e-01 -2.785362e+00 8.969027e-01 2.511451e-01 
-2.509880e+00 -1.211109e+01 3.708719e+00 1.758929e+00 -3.706148e+00 3.063185e+00 -6.706401e+00 -1.274468e+01 1.510942e+00 9.105942e-01 -5.911581e+00 2.843888e+00 5.460317e-01 4.769021e-01 -6.584077e-01 7.606894e-01 -1.558991e-01 -8.250329e-01 -2.986736e+00 -7.614088e-02 -1.285605e+00 -6.464345e-01 -2.464450e-01 -8.241903e-01 1.064797e+00 2.598634e-01 
-4.731984e+00 -9.390633e+00 -1.257444e+00 -2.236490e+00 -8.092548e+00 -1.202293e+00 -3.477512e+00 -7.654270e+00 1.107401e+00 -1.582648e+00 -8.102187e+00 4.474617e+00 9.350179e-01 -1.191839e+00 1.213891e+00 1.159926e+00 6.268278e-01 -8.189758e-01 -3.457841e+00 -4.056701e-01 1.361994e+00 1.752558e+00 -1.695175e+00 -9.738234e-01 7.063481e-01 2.302554e-01 
-7.747770e+00 2.653798e+00 2.351844e+00 -3.602451e+00 -4.284610e+00 -4.315086e+00 -1.960105e+00 8.162854e-01 4.491777e+00 -3.866123e+00 -4.339576e+00 4.566158e+00 9.322687e-01 -1.370174e+00 2.687671e+00 -2.331119e-01 8.039330e-01 1.807348e+00 -2.852961e+00 6.741797e-01 4.706210e+00 2.529318e+00 -2.747464e+00 -3.284152e-01 -8.803226e-01 6.519298e-02 
-1.040990e+01 -1.860015e+00 3.963471e+00 3.956537e+00 -3.288745e+00 -7.889641e+00 -4.958881e+00 2.164603e+00 9.801107e+00 -8.702044e+00 -9.312140e+00 1.049672e+00 9.337158e-01 1.526752e-01 3.928170e-01 3.204786e-01 1.662580e+00 2.547482e+00 -9.087149e-01 -1.538586e-01 2.179621e+00 2.594965e+00 -2.527018e-01 1.715518e-01 -1.816424e+00 -3.970131e-02 
-6.521790e+00 -2.438042e+00 -6.729782e-02 2.682080e+00 2.928692e+00 -7.857948e+00 -2.594819e+00 5.876934e+00 9.810680e+00 -9.267027e+00 -6.948680e+00 1.547471e-01 8.726476e-01 1.626483e+00 -1.955292e+00 -8.961709e-01 1.394140e+00 7.659072e-01 -3.343375e-01 -8.605601e-01 -2.739948e-01 3.064403e+00 2.274380e+00 8.984689e-01 1.744252e-01 -6.988864e-02 
-4.581598e+00 -4.880628e+00 1.554520e+00 2.934142e+00 1.038212e+00 -3.974437e+00 -3.929448e+00 7.135109e-01 1.142277e+01 -1.457055e-01 -5.939877e+00 -2.401796e+00 7.663220e-01 2.709110e+00 2.431924e-01 -9.665359e-01 1.191651e+00 -1.465892e-01 6.661060e-01 -1.136241e+00 -1.983411e+00 1.177045e+00 3.352507e+00 1.455925e+00 1.001922e+00 -7.728259e-02 
-2.529510e+00 -5.612358e+00 -9.245352e-01 3.879447e+00 -2.618553e+00 -7.944376e+00 -6.777622e+00 1.718576e-01 1.900296e+01 3.227609e+00 -1.533363e+00 7.164018e+00 6.665225e-01 4.190871e+00 1.435622e+00 -1.180337e+00 2.517962e+00 -2.607758e+00 9.339076e-03 -1.857953e+00 -3.572524e+00 -6.322054e-01 1.727891e+00 6.564309e-01 1.313951e+00 -2.355543e-02 
1.139506e+00 9.431045e-01 -4.405900e-01 9.316106e+00 -1.248069e+00 -4.515897e+00 -8.548685e+00 -4.899915e+00 1.109019e+01 1.813174e+00 -4.740174e+00 2.554648e+00 6.503655e-01 4.941798e+00 7.567245e-01 -1.484741e+00 3.314816e+00 -4.150458e+00 8.658974e-02 -1.802841e+00 -3.862404e+00 -2.574387e+00 -1.586642e-01 -6.272292e-03 1.509074e+00 5.353688e-02 
1.157201e+01 1.828202e+00 -4.971426e+00 1.208091e+01 -8.966955e+00 -7.540523e+00 -9.574966e+00 -9.178973e+00 6.815943e+00 -1.607011e+00 -4.266376e+00 4.246278e+00 8.128487e-01 4.117778e+00 -8.670858e-01 -4.939032e-01 2.369460e+00 -4.129721e+00 8.290906e-01 -7.940839e-01 -4.189194e+00 -3.713296e+00 -2.898800e-02 -9.886972e-01 2.994706e-01 9.692388e-02 
1.307663e+01 -4.817286e+00 -3.845740e+00 1.540750e+01 -1.653988e+01 -3.743415e+00 -1.154498e+01 -1.392309e+01 4.644344e+00 1.478284e+00 -4.604731e+00 6.602446e+00 9.608433e-01 2.183112e+00 -2.514622e+00 2.143014e-01 6.171033e-01 -3.574749e+00 7.533227e-01 2.655604e-01 -3.780607e+00 -1.186398e+00 3.272650e-01 2.324870e-02 1.044402e+00 8.693140e-02 
1.209082e+01 -7.067591e+00 -1.691477e+00 1.268105e+01 -1.562125e+01 -4.185163e+00 -9.249893e+00 -1.626252e+01 3.659402e+00 3.250114e+00 -6.544571e+00 6.637472e+00 9.959030e-01 -2.148456e-01 -1.849659e+00 1.184207e+00 -1.224223e-01 -1.991599e+00 2.240439e+00 -1.736486e-01 -2.499193e+00 -1.374064e-01 4.903742e-01 8.508819e-01 2.491593e-02 4.069546e-02 
1.179566e+01 -7.182110e+00 -1.009057e+00 1.210155e+01 -1.579466e+01 -2.426963e+00 -7.383420e+00 -2.026117e+01 6.736473e+00 1.020936e+00 -3.484833e+00 6.581059e+00 9.934953e-01 -7.193633e-01 6.855325e-02 9.739085e-01 -6.864116e-01 -3.968933e-01 1.476774e+00 -2.696458e-01 -1.105205e+00 -2.442026e-03 -7.326541e-02 1.277164e+00 -6.060096e-01 5.092812e-03 
1.113827e+01 -6.237680e+00 -4.687324e-01 1.312177e+01 -1.929756e+01 3.003445e+00 -1.252399e+01 -1.850590e+01 5.082847e+00 1.073534e+00 -5.719159e-01 4.381551e+00 1.000000e+00 -3.012443e-01 6.372811e-01 8.246621e-01 -9.255633e-01 8.122406e-02 1.045922e+00 -2.258257e-01 -6.373882e-01 -2.877308e-01 -2.050237e-01 1.178715e+00 8.412461e-02 -9.774059e-03 
9.956086e+00 -4.889475e+00 4.124310e-01 1.175508e+01 -1.668619e+01 4.614902e-02 -1.125616e+01 -1.832743e+01 3.920412e+00 2.200247e+00 -1.205239e+00 4.700358e+00 9.842588e-01 -6.019229e-02 1.015129e+00 3.217971e-01 -9.472191e-01 -7.884197e-02 1.425483e+00 -1.655045e-01 -7.046131e-01 -7.010309e-01 -6.564659e-01 1.727114e+00 -2.197285e-01 -1.727954e-02 
1.150438e+01 -5.027503e+00 1.721090e+00 8.226469e+00 -1.476937e+01 -1.921115e-01 -8.442650e+00 -2.041633e+01 3.628779e+00 1.635341e+00 -1.790795e+00 7.998446e+00 9.516510e-01 5.895467e-02 1.131208e+00 2.389592e-02 -1.250743e+00 2.295811e-01 1.472191e+00 6.910311e-01 -1.041835e+00 -6.817778e-01 -1.603165e+00 2.393539e+00 -3.682822e-01 -2.190515e-02 
1.131164e+01 -2.711555e+00 -4.949828e-01 9.813104e+00 -1.845297e+01 6.298230e+00 -1.025161e+01 -2.282902e+01 3.958352e+00 -2.542297e+00 5.760177e+00 3.673969e+00 9.312721e-01 2.936881e-01 8.440607e-01 -2.023562e-01 -9.678693e-01 -5.195587e-01 2.639382e+00 6.448067e-01 -9.417263e-01 -1.230007e+00 -2.346667e+00 3.134303e+00 -3.060488e-01 -1.951055e-02 
1.075526e+01 -1.670599e+00 1.044541e-01 7.839042e+00 -1.726627e+01 7.238360e+00 -9.571110e+00 -2.146428e+01 1.654987e+00 -4.571020e+00 7.913073e+00 3.053334e+00 9.169676e-01 2.939629e-01 4.895545e-01 -2.133543e-01 -8.014525e-01 -2.720877e-01 2.389570e+00 8.439447e-01 -7.813421e-01 -2.168983e+00 -1.398382e+00 1.939917e+00 5.204209e-01 -1.680911e-02 
1.179909e+01 -2.347623e+00 2.089677e-01 7.109447e+00 -1.803554e+01 9.527824e+00 -7.467897e+00 -2.251209e+01 -1.242729e+00 -6.429909e+00 9.614343e+00 5.642670e+00 9.040478e-01 5.426079e-01 3.766588e-01 1.672114e-01 -1.315826e+00 5.658453e-01 1.003726e+00 1.567817e+00 4.050541e-02 -2.783673e+00 -8.473548e-01 4.688474e-01 1.016873e+00 -2.384470e-02 
1.273048e+01 -2.761696e+00 3.023428e-01 5.571035e+00 -1.633852e+01 1.014094e+01 -5.614784e+00 -2.448151e+01 -4.615595e+00 -3.412764e+00 5.981708e+00 9.616199e+00 8.812176e-01 5.253235e-01 9.697596e-01 -7.409881e-02 -1.104207e+00 8.132118e-01 -2.358768e-01 1.972218e+00 7.903128e-01 -2.705217e+00 -6.046509e-01 -7.174101e-01 5.150815e-01 -3.573330e-02 
1.303708e+01 -2.827119e-01 2.421297e-01 4.367975e+00 -1.608762e+01 9.865566e+00 -4.390692e+00 -2.111788e+01 -6.824723e+00 -7.358198e+00 9.070096e+00 5.476900e+00 8.299236e-01 6.820276e-01 2.028434e+00 -6.946663e-01 -8.256806e-01 7.706682e-01 -1.018922e+00 2.058896e+00 2.241226e+00 -2.170470e+00 -1.438114e+00 -1.007667e+00 -1.058239e+00 -4.930125e-02 
1.276289e+01 2.145743e+00 -2.826209e-01 3.688744e+00 -1.417417e+01 5.890105e+00 -1.248624e+00 -1.820982e+01 -9.080100e+00 -7.130130e+00 4.598145e+00 5.711627e+00 7.753631e-01 7.934650e-01 3.482918e+00 -1.863661e+00 -5.016396e-01 1.616070e+00 -2.422272e+00 4.206471e+00 1.422828e+00 -1.312953e+00 -2.038072e+00 -1.240162e+00 -1.646707e+00 -6.012819e-02 
1.519302e+01 5.340827e+00 -2.971882e+00 3.922190e+00 -1.526437e+01 6.558633e+00 6.435041e-01 -1.444181e+01 -9.862827e+00 -1.176180e+01 5.267787e+00 2.303760e+00 7.104688e-01 6.026967e-01 3.942494e+00 -8.119911e-01 -9.759246e-01 1.800272e+00 -2.289731e+00 5.150388e+00 -6.664467e-02 -4.027658e-01 -1.031013e+00 -2.805811e+00 -9.636259e-01 -7.220506e-02 
1.561983e+01 1.184112e+01 -7.408954e+00 3.285730e+00 -8.669793e+00 -3.169479e-01 1.290047e+01 -2.070541e+01 -9.661306e+00 -1.140133e+01 1.682050e+00 2.969234e+00 6.403041e-01 -6.640911e-02 3.028301e+00 1.353230e+00 -2.290290e+00 3.720555e+00 -1.970462e+00 3.145350e+00 1.893354e+00 3.288246e-01 -4.019746e-01 -2.574952e+00 -1.128533e+00 -1.001151e-01 
1.462209e+01 1.458207e+01 -2.546591e-01 -3.101413e-01 -9.838445e+00 1.520437e+00 1.428670e+01 -2.020331e+01 -8.547949e+00 -1.037766e+01 -3.500910e+00 2.029967e+00 5.364279e-01 -1.377373e+00 -2.047237e-01 1.605999e+00 -3.777506e+00 4.745287e+00 4.823075e-01 1.676935e+00 3.711025e+00 2.169621e+00 9.552969e-01 -3.029431e+00 7.790504e-02 -1.130760e-01 
1.271631e+01 1.266663e+01 5.124917e+00 -5.646539e+00 1.715643e+00 -1.443108e+00 7.656530e+00 -5.862300e+00 -8.093416e+00 -9.832069e+00 -3.892265e+00 2.058563e-01 3.618080e-01 -2.037952e+00 -4.448589e+00 1.616153e+00 -5.001369e+00 3.543216e+00 1.399352e+00 -1.797029e+00 5.540605e+00 2.498996e+00 2.949078e+00 -5.526854e-01 -1.001580e+00 -6.726578e-02 
9.757917e+00 3.904455e+00 -1.208820e+00 -1.049920e+01 3.269343e+00 9.533251e+00 1.165015e+01 -3.308233e+00 2.013315e-01 -7.769939e+00 -7.092212e+00 4.074974e+00 2.843366e-01 -1.794424e+00 -5.463408e+00 4.987636e-01 -2.606392e+00 1.752191e+00 1.216867e-01 -2.468189e+00 4.091243e+00 7.567704e-01 3.320400e+00 2.438807e+00 -1.229131e+00 -3.959873e-02 
7.862156e+00 -5.063014e+00 1.148889e+00 -1.662658e+01 2.492392e+00 2.673405e+00 5.233603e+00 -1.449920e+00 -1.540969e+00 2.040199e+00 7.142737e-01 -3.061172e+00 4.300208e-01 -1.537679e+00 -3.895012e+00 -3.077841e-03 4.514695e-01 -1.449304e+00 -8.023481e-02 -1.349270e+00 1.391274e+00 -5.093342e-01 2.415127e+00 2.358246e+00 -2.590276e+00 -3.218303e-02 
8.077043e+00 -3.870148e+00 4.227172e+00 -7.852080e+00 -1.465862e+00 7.061338e-02 3.157218e+00 -1.953281e+00 -8.040320e+00 2.882006e-01 6.389854e+00 -2.482174e+00 3.043278e-01 -9.762905e-01 -4.746594e-01 5.309364e-01 3.172885e+00 -1.155110e+00 -1.971075e+00 -2.260521e+00 5.522941e-01 -2.236925e+00 1.043385e+00 2.337934e+00 -2.456776e+00 -5.631735e-02 
5.868349e+00 -2.921130e+00 2.391531e+00 -4.712754e+00 -3.163275e+00 2.887036e+00 5.156649e+00 4.165950e-01 -6.519261e+00 -1.785502e+00 1.157931e+00 -9.466948e+00 1.908973e-01 -4.977762e-01 1.468919e+00 -4.072013e-01 3.603040e+00 -8.529792e-02 4.278792e-01 1.976391e-01 1.051181e+00 6.446566e-01 -6.917269e-01 6.042671e-03 2.726066e-01 -7.653204e-02 
5.873369e+00 4.602157e-01 8.245405e-01 -5.916934e-01 3.216281e-01 -4.289401e-01 3.860226e-01 -1.480020e+00 -8.494147e+00 -6.401643e-01 4.375628e+00 -5.006017e+00 1.223117e-01 -4.430626e-01 9.700038e-01 -4.632168e-01 1.866791e+00 6.471441e-01 6.737728e-02 -2.785500e-01 8.156493e-01 3.264282e+00 1.174602e+00 -5.765032e-01 1.235323e+00 -4.045520e-02 
6.475112e+00 1.163966e-01 8.141980e-01 -2.241573e+00 1.172157e+00 5.062578e+00 7.607396e+00 3.569356e+00 1.909228e+00 -9.542533e-01 1.751601e+00 -4.362170e-01 1.383687e-01 -2.013061e-01 8.862092e-01 6.541184e-01 2.338629e+00 1.586174e+00 -1.626344e-02 -3.845086e-01 1.466810e-01 3.415171e+00 2.121972e+00 -2.053817e-01 2.473415e+00 -1.299535e-02 
5.558348e+00 -5.388925e-01 2.699755e+00 2.462850e-01 -3.978577e-01 -6.802709e-01 5.390940e-01 5.485848e-01 4.066845e+00 5.745586e+00 3.210503e+00 -8.209248e-01 1.283161e-01 5.372047e-04 6.717910e-01 8.546610e-01 9.767281e-01 7.683361e-01 -2.217364e-02 4.570651e-02 -5.736737e-01 2.404082e+00 2.429020e+00 -5.227970e-01 -2.409581e-01 -1.865661e-03 
5.019328e+00 2.009471e+00 4.724516e+00 6.561400e+00 5.127338e+00 2.931385e+00 3.157570e+00 1.356972e-01 4.276098e+00 5.631484e+00 7.135847e-01 8.075811e-01 1.229183e-01 -5.473237e-02 1.272977e+00 3.789772e-01 5.909927e-01 5.259710e-01 -9.102880e-01 -6.753846e-01 -7.637225e-01 9.982319e-02 1.638080e+00 1.814937e-01 -1.050401e+00 -5.658448e-03 
6.603947e+00 2.872634e+00 3.142686e+00 -1.095397e-01 2.185718e+00 5.257883e-01 2.839468e+00 -2.631559e+00 2.342826e+00 8.212070e+00 2.280650e+00 -6.832707e+00 1.207085e-01 -9.255943e-02 4.684274e-01 -1.395227e+00 -2.731169e-01 6.972550e-01 3.621712e-01 5.081697e-02 4.614063e-01 -1.019393e+00 -3.246956e-02 -8.495914e-01 -1.028454e+00 -6.517291e-03 
5.678651e+00 4.775519e+00 2.487618e+00 8.913028e-01 2.510224e+00 -9.189224e-02 3.080286e+00 1.340816e+00 3.270354e+00 6.002905e+00 3.123996e+00 -2.682333e+00 1.138802e-01 9.501505e-03 -1.600575e-01 -1.513506e+00 -1.466722e+00 -9.123765e-01 -4.031331e-01 -7.095917e-01 1.263041e+00 2.390436e-01 5.234689e-01 1.829613e-01 -2.350097e-01 -9.260112e-03 
4.765890e+00 4.202203e-01 -3.157931e+00 1.715749e+00 4.396975e+00 2.642223e+00 8.318210e-01 2.253057e+00 -5.272449e-01 5.397528e+00 -2.242659e+00 -4.218239e+00 1.002487e-01 -3.763816e-01 -7.298195e-01 -8.848506e-01 6.000686e-02 9.896936e-02 1.044996e+00 -3.177872e-01 8.729540e-01 6.083614e-01 -6.400108e-01 7.582322e-01 2.114672e+00 -1.177722e-02 
5.985864e+00 2.435390e+00 3.072947e-01 -1.684852e+00 -5.401723e-01 -1.424983e-01 6.134350e-01 4.008594e+00 6.906352e+00 9.656099e+00 3.890046e+00 -1.674701e+00 8.684766e-02 -4.085409e-01 -6.240374e-01 -6.482773e-01 -9.156499e-02 1.047268e+00 1.308868e+00 -2.132211e-02 -6.884729e-01 1.277499e-01 -7.923588e-01 1.132630e-01 9.784518e-01 -1.905569e-02 
4.568432e+00 3.936010e-01 -1.914052e-01 1.478572e+00 4.205763e+00 5.776070e+00 2.483957e+00 3.993218e-01 3.566634e+00 3.185418e+00 5.688787e+00 3.236836e+00 7.533872e-02 -3.287723e-01 6.695382e-02 1.671227e-01 3.343941e-01 9.040805e-01 1.837384e-01 1.407905e+00 -3.200082e-01 -8.497059e-01 -1.496178e+00 8.384703e-01 8.686039e-01 -1.963028e-02 
3.734675e+00 1.668642e+00 -2.237031e+00 5.520666e-01 7.842171e+00 4.885522e+00 2.147607e+00 -1.174680e+00 1.862164e+00 3.147166e+00 -2.754121e-01 -1.517612e+00 3.105676e-02 -2.854304e-01 2.925461e-01 3.531817e-01 1.252307e+00 7.928690e-01 -2.177835e-01 8.784589e-01 -1.974310e-01 -1.635481e+00 -1.521301e+00 -9.664148e-01 1.858730e-02 -1.336158e-02 
4.247622e+00 1.138364e+00 -1.050155e+00 2.269260e+00 4.726205e+00 1.046905e+00 7.104259e+00 3.244653e+00 -2.253681e+00 1.171105e+00 4.032422e+00 4.623544e-02 2.999276e-02 -1.222281e-02 8.191621e-01 8.611940e-01 6.521916e-01 -9.331500e-01 -1.895166e+00 -1.063950e+00 -1.076124e+00 -1.402955e+00 -1.693635e-02 -1.736775e+00 -2.976818e-01 -1.267232e-02 
4.719117e+00 3.525739e+00 2.502578e+00 4.181337e+00 3.163951e+00 1.133167e+00 2.695578e+00 1.598773e+00 1.639103e+00 3.056750e+00 -1.138461e-01 1.353550e-02 4.271275e-02 3.349687e-01 1.066413e+00 7.566859e-01 9.591927e-02 -1.817362e+00 -1.590581e+00 -1.334840e+00 -5.990136e-01 7.967680e-01 2.322963e-01 -3.137259e-01 4.254834e-01 -7.301092e-03 
4.015097e+00 3.560863e+00 1.744760e+00 2.924895e+00 1.879122e+00 -1.823585e+00 -3.109780e+00 -6.368027e+00 -3.336611e+00 3.145945e+00 -3.075870e+00 9.828532e-01 6.149113e-03 -1.004922e-01 1.141319e+00 2.788477e-01 -5.246044e-01 -7.632145e-01 -1.390813e+00 -2.379788e+00 -4.850405e-01 1.788056e+00 -2.012046e-01 -6.891598e-01 1.754709e-01 -1.434385e-02 
5.525782e+00 5.789458e+00 1.489409e-01 7.038457e-01 1.789026e-01 -1.632136e+00 5.804265e-01 6.365913e-01 6.387469e+00 3.321228e+00 1.710104e+00 1.414961e-01 6.473124e-03 -2.402833e-01 5.835563e-01 -5.758231e-01 -1.719730e+00 -7.236472e-01 -9.682254e-01 -5.992217e-01 7.809088e-01 1.035049e+00 -3.079304e-01 4.181842e-01 -4.984972e-01 -2.405515e-02 
3.341829e+00 5.713098e+00 1.520902e+00 1.384984e+00 2.402657e+00 -4.524508e+00 -3.737103e+00 1.300542e+00 4.312418e+00 3.284311e-02 -3.253520e-01 8.596096e-01 -2.360666e-02 2.208538e-01 8.364730e-02 -9.378694e-01 -1.088578e+00 -5.849156e-01 -5.025002e-01 1.239445e-01 2.251514e+00 9.524552e-01 -4.010945e-01 -1.971624e-01 -6.384798e-01 -1.644478e-02 
3.854334e+00 5.367403e+00 -2.646080e-01 -3.647358e+00 -7.160521e-01 -2.357498e+00 1.313147e-02 1.669032e+00 2.989831e+00 3.073648e+00 6.018159e-01 -2.417329e+00 -6.268513e-02 -3.758977e-01 1.399618e-01 -2.725244e-01 -4.536256e-01 6.340343e-01 -3.306037e-01 -6.804342e-01 8.133890e-01 -6.610709e-01 -1.307082e-01 -1.683854e+00 -5.231031e-01 -1.854149e-02 
5.955090e+00 4.190127e+00 -2.737813e+00 -3.423944e-01 -5.979786e-01 -3.973404e+00 -2.206410e+00 4.373322e+00 3.124484e+00 1.264262e+00 -3.507538e+00 -9.301332e-01 -4.149568e-02 -3.879896e-01 8.347761e-01 1.150312e-02 -2.528931e-01 5.819473e-01 1.278947e-01 2.260223e-01 1.527277e+00 -1.098951e+00 -3.843440e-01 -4.421012e-01 1.909591e-01 -1.174887e-02 
2.339663e+00 7.250752e+00 9.156762e-01 -7.005930e-01 4.849392e+00 -3.560706e+00 -3.587091e+00 3.167145e+00 3.676081e+00 2.051978e+00 -5.118074e+00 -1.579148e+00 -7.728982e-02 -9.375727e-01 7.398344e-01 1.043280e+00 5.832489e-01 1.703568e+00 5.357474e-01 5.173618e-01 2.201696e+00 -2.999101e-01 -1.375917e-01 6.709186e-01 1.664969e+00 -5.915916e-03 
2.159217e+00 8.945303e+00 9.882755e-01 -1.352864e+00 2.529672e+00 -3.283431e+00 -8.068804e-01 8.187869e+00 -1.525461e+00 -1.378042e+00 3.240874e-01 1.395314e+00 -7.504869e-02 -1.025227e+00 5.642231e-01 1.552173e+00 7.202296e-01 8.895477e-01 9.491795e-01 1.127161e+00 2.005810e-01 -5.166953e-02 5.276514e-01 1.750444e+00 1.035891e+00 -6.655037e-03 
1.064407e+00 6.688987e+00 3.088748e+00 -2.258792e-01 6.237964e+00 -2.374768e-02 1.900175e+00 1.077024e+01 3.815253e+00 3.706841e+00 2.040596e+00 4.744794e+00 -7.548821e-02 -8.483378e-01 -1.992209e-01 9.253143e-01 1.614869e+00 5.669129e-01 6.782343e-01 7.526885e-01 -5.804687e-02 7.092939e-01 1.678767e+00 2.056817e+00 2.654352e-01 -4.157376e-03 
1.466583e+00 7.292125e+00 3.936519e+00 3.021397e+00 3.155475e+00 -9.959860e-01 6.857605e-01 1.574682e+00 2.796550e+00 3.075087e+00 1.665345e+00 1.087352e+00 -7.567167e-02 -8.955549e-01 -4.209689e-01 5.614402e-01 1.030792e+00 4.466087e-01 4.999660e-01 1.734448e-01 -1.270361e+00 3.339300e-01 9.778202e-01 5.193309e-01 5.977170e-01 -8.142936e-03 
-1.555710e+00 7.081237e+00 4.068127e+00 5.186620e+00 7.371056e+00 -1.313257e+00 -5.699690e-01 6.183505e+00 5.061545e+00 8.219246e+00 4.495379e+00 -9.799111e-02 -9.776521e-02 -7.499267e-01 1.022033e-01 -7.709933e-03 3.429573e-01 -5.419247e-01 4.758183e-01 -4.550068e-02 -9.151158e-01 -9.349513e-01 -7.492698e-01 4.927862e-01 5.629545e-01 -2.344883e-03 
-1.008499e+00 6.644333e+00 3.305788e+00 1.094848e+00 4.196169e+00 -1.388466e-01 1.295416e+00 4.129433e+00 -4.789566e-01 1.254857e+00 1.693350e+00 6.805293e+00 -1.046249e-01 -4.989653e-01 -5.426012e-01 -1.460823e+00 -1.556491e+00 -3.611754e-01 1.400890e-01 3.645172e-01 1.170537e+00 -1.389932e-01 -1.224419e+00 -7.555938e-01 1.158588e+00 -5.177736e-04 
-1.447685e+00 7.523899e+00 3.365564e+00 2.452182e+00 3.007993e+00 1.926775e+00 1.367844e+00 4.917283e+00 7.782502e-01 8.706079e-01 4.490525e+00 4.700597e+00 -7.273602e-02 1.150802e+00 -2.265694e+00 -2.375005e+00 -1.808248e+00 -9.612328e-01 -1.657066e+00 -7.162935e-01 7.445582e-01 -1.881351e-01 -3.609856e+00 -5.177283e-01 1.131172e+00 2.349969e-02 
-1.082255e+00 4.357788e+00 -3.016316e+00 -3.393842e+00 3.531129e+00 -1.915557e+00 1.539440e+00 8.060475e+00 4.243231e+00 6.273098e-01 -2.110196e+00 4.480999e+00 -9.077513e-02 1.512368e+00 -2.361694e+00 -1.329834e+00 -3.843390e-01 -1.092971e+00 -1.137431e+00 -4.195283e-01 9.183477e-01 7.554103e-01 -1.701587e+00 -3.957039e-01 -1.182423e+00 2.457903e-02 
4.235177e+00 -3.103960e+00 -4.645849e+00 -1.610277e+00 2.897412e+00 -8.710234e+00 -4.273448e+00 7.940775e+00 1.759775e+00 -9.516257e+00 3.808511e+00 6.720017e+00 1.280838e-02 1.258940e+00 -7.753283e-01 8.453226e-02 3.944817e-01 3.713906e-01 6.665837e-01 8.308018e-01 1.751705e-01 -5.098897e-01 -1.282847e+00 -2.552459e+00 -2.667679e+00 1.148722e-02 
3.711908e+00 1.497948e-01 6.623237e-01 1.204382e+00 -1.213395e+00 -5.074995e-01 2.018421e+00 7.209426e+00 2.807332e+00 -2.059646e+00 5.583787e-02 -1.165317e-01 -2.450192e-02 2.740931e-01 -5.608489e-01 6.176800e-01 2.096130e+00 1.025702e+00 8.400891e-01 5.115615e-01 -8.774126e-01 6.769893e-02 1.527331e+00 1.344942e-01 -1.881551e+00 2.895099e-03 
2.449931e+00 5.751254e+00 1.948906e+00 2.125478e+00 7.237208e+00 4.555664e+00 5.282363e+00 6.218660e+00 -1.053249e+00 -4.200151e+00 -9.354790e+00 -6.339032e+00 -4.843652e-02 -8.274049e-01 7.361127e-01 1.326871e-03 1.475712e+00 1.472944e+00 5.392486e-01 1.144664e-01 -1.600052e+00 1.545038e-01 3.003950e+00 -1.147421e+00 -1.912048e+00 -2.104197e-02 
1.180833e+00 -2.874063e+00 -3.225293e+00 5.218932e+00 6.489741e+00 -4.348060e+00 -6.806588e-01 4.534470e+00 5.988238e+00 5.605911e+00 5.143926e+00 1.602767e+00 -4.567719e-02 -5.521059e-01 9.933594e-01 -1.971843e-01 -2.084295e-01 2.532275e-01 -1.596323e+00 -1.046671e+00 -7.397467e-01 6.996931e-01 1.336260e+00 -8.841243e-02 5.635465e-01 -1.360732e-02 
1.363690e+00 2.088532e+00 -2.695406e+00 3.761007e+00 6.410566e+00 -4.093710e+00 -2.351577e+00 1.277992e+00 9.418414e-01 1.670712e+00 -4.472637e+00 -3.699873e+00 -8.181381e-02 -4.705342e-01 8.827356e-01 -6.371398e-02 -1.108024e+00 -2.056102e+00 -1.102724e+00 -6.962375e-01 -1.017210e-01 1.011804e+00 1.065635e+00 1.362459e+00 1.602258e+00 -9.283150e-03 
1.494499e+00 6.947953e+00 1.998558e+00 -6.555293e-01 4.660635e-01 -4.164429e+00 6.020358e-01 5.981026e+00 5.308253e+00 1.686222e+00 -2.827301e+00 1.381621e+00 -7.584989e-02 1.366266e-01 -8.338253e-01 1.186507e+00 -2.586347e+00 -2.497822e+00 2.416056e+00 -4.505437e-01 -5.382153e-01 -1.851872e-01 -1.152892e+00 -6.669458e-01 4.758607e-01 2.944856e-02 
-5.957317e-02 5.253924e+00 -9.815899e-01 -4.774115e-01 -3.146434e-02 -1.049773e+00 1.159828e+00 4.986777e+00 4.345762e+00 3.087870e+00 1.443116e+00 1.782832e+00 -7.976592e-02 3.130558e-01 -5.297295e+00 1.203489e+00 -3.175810e+00 -3.434479e+00 2.190036e+00 -1.880055e+00 -1.788792e+00 -3.959053e-01 -1.815015e+00 1.597547e+00 4.369573e-01 1.136883e-01 
2.575598e+00 -8.625885e+00 1.850333e+00 -5.593595e+00 -2.778354e+00 6.210249e+00 -4.689080e+00 -1.099920e-02 3.360341e+00 -8.671260e-01 -1.148680e+00 1.240719e+00 1.005417e-01 -2.029271e-01 -5.694188e+00 6.678286e-01 -6.363302e-01 -2.057658e+00 1.004611e+00 -1.032648e+00 -1.586290e+00 -1.168041e+00 -2.197990e-01 1.978215e+00 2.425220e-01 9.057175e-02 
2.388420e+00 -1.661102e+01 3.396152e+00 -9.649014e+00 -9.139623e+00 1.669130e+00 -9.106293e+00 -4.669957e+00 -6.372935e-02 -6.127688e+00 2.675790e+00 -1.444635e+00 3.984318e-01 -6.040077e-01 -3.212363e+00 3.695508e-02 1.822146e+00 -2.290285e-01 -8.405816e-01 -2.250007e-01 -8.613150e-01 -7.140049e-01 1.071330e+00 8.022985e-01 -4.161032e-01 3.033969e-02 
-7.441330e-01 -1.059051e+01 3.148830e+00 7.486203e-01 -5.268149e+00 -5.008266e-01 5.718560e-01 2.877944e+00 1.672796e+00 5.195006e+00 6.447439e+00 4.207965e+00 1.379099e-01 -6.348104e-01 1.028358e+00 -1.811565e+00 4.825841e+00 4.605020e+00 -1.245323e+00 6.616360e-01 8.915445e-01 -8.512284e-01 1.791139e+00 2.830198e-01 -2.694237e-01 -4.730741e-02 
-1.419746e+00 -9.825575e+00 -1.446063e+00 5.462211e+00 6.829071e-02 -1.897143e+00 -2.595643e+00 -7.642689e-01 1.619510e+00 5.413455e+00 1.656549e+00 -1.781307e+00 5.324841e-02 2.364440e-01 3.002672e+00 -9.504296e-01 6.028119e+00 6.746300e+00 6.302342e-01 3.674267e-01 2.784740e-01 -2.173208e-01 1.642169e+00 -2.573925e+00 -9.961981e-01 -8.675278e-02 
1.305629e+00 -6.876818e+00 -4.786383e+00 1.098000e+01 1.564279e+01 1.766771e+00 -4.636225e+00 2.493880e+00 -1.737420e+00 2.317997e+00 7.760391e-01 6.193578e-02 3.659630e-02 7.912067e-01 4.181511e+00 1.257924e+00 2.084791e+00 3.977292e+00 6.519262e-01 -1.069058e-01 -8.265319e-01 -8.694839e-01 -1.531586e+00 -3.158095e+00 -1.981851e+00 -4.726173e-02 
2.545759e+00 -3.454506e+00 2.611611e+00 1.537589e+01 1.413641e+01 3.686502e+00 -4.665119e+00 -3.085555e+00 5.547747e-01 3.521663e+00 -7.358135e+00 -4.352612e+00 1.532477e-02 5.174160e-01 5.510363e+00 2.818413e+00 -4.124480e-01 1.045125e+00 1.258808e+00 9.311487e-01 -2.626910e-01 6.725778e-02 -2.066841e+00 -1.222765e+00 -1.335452e+00 -3.494607e-02 
1.229148e+00 7.131505e+00 7.409615e+00 6.215736e+00 7.584254e+00 -3.301811e-02 1.072065e+00 -9.407234e-02 -2.142256e+00 -1.517030e+00 -4.835694e+00 -4.415637e+00 -7.943690e-02 -6.019064e-01 4.500205e+00 2.322937e+00 -2.039283e+00 -2.099149e+00 2.961884e-01 1.601528e+00 -5.838970e-01 -2.819405e-01 -2.173369e+00 -1.333446e+00 -2.404786e+00 -3.135931e-02 
1.205574e+00 1.072208e+01 6.548004e+00 5.782104e+00 9.323183e+00 5.296791e+00 -7.940447e-01 -7.837477e-01 2.158217e+00 -3.003236e+00 -1.651410e+00 -6.219780e+00 -6.346536e-02 -9.790659e-01 2.436005e+00 5.191758e-01 -1.838182e+00 -2.019916e+00 -5.717391e-01 1.604502e+00 9.117166e-01 -1.145364e+00 -1.161400e+00 2.900242e-01 -1.095132e+00 -1.981453e-02 
-1.033811e+00 8.535913e+00 4.860104e+00 5.580480e+00 7.553655e+00 2.442569e+00 1.435876e+00 -1.576509e+00 -3.948843e+00 -5.286398e+00 -8.744554e+00 -1.102841e+01 -8.080518e-02 -6.113425e-01 -9.110832e-02 -8.282781e-01 1.988016e-01 -1.527148e+00 -1.213665e+00 8.157547e-01 1.340069e+00 -1.110081e-01 1.061005e+00 8.201940e-02 5.159068e-02 1.825535e-03 
-1.218091e+00 8.023315e+00 6.482246e+00 6.502610e+00 4.052130e+00 -4.099865e-01 3.175484e+00 2.214247e+00 -4.268754e+00 -4.006549e-01 -3.953585e+00 -6.521885e+00 -8.306372e-02 -4.411420e-01 -1.049921e+00 -9.060583e-01 -2.230926e-01 -1.574938e+00 -1.409672e+00 6.430586e-01 2.431250e+00 5.764469e-01 8.323356e-01 -3.852797e-03 1.891803e+00 -4.075980e-03 
-6.157322e-01 8.025345e+00 3.301104e+00 6.849491e+00 2.584040e+00 -3.247953e+00 3.166074e+00 5.107275e+00 5.161888e-01 2.486707e+00 -3.274510e+00 -4.006631e+00 -6.051004e-02 -3.197969e-01 -6.346022e-01 -4.279327e-01 -4.695920e-01 1.333586e-01 -6.809520e-01 -1.863625e-01 2.789542e+00 1.938777e+00 1.055543e+00 1.898789e+00 2.263708e+00 -7.915258e-03 
-1.209175e+00 5.727758e+00 2.797212e+00 4.032135e+00 3.933301e+00 1.093689e+00 1.556149e+00 8.030608e+00 2.807935e+00 -2.728110e+00 -4.405696e+00 -2.716514e-01 -9.399283e-02 -3.913006e-01 -5.731591e-01 -6.856015e-01 -9.246374e-01 7.823278e-01 6.826963e-01 -3.945315e-01 1.388366e+00 7.597102e-01 -5.187193e-01 8.389872e-01 1.407818e+00 -1.251366e-02 
-2.637253e+00 6.510680e+00 4.562957e+00 4.467757e+00 8.279862e+00 -1.714029e+00 1.313731e+00 9.463022e+00 2.206695e+00 1.155044e+00 9.754496e-01 -2.834985e+00 -1.149169e-01 -7.043902e-01 -7.544340e-01 -4.454742e-02 -7.060171e-01 8.229494e-01 2.405905e+00 4.344209e-01 -1.193202e-01 -1.642938e-01 -8.033093e-01 1.025556e+00 1.007906e+00 -1.250608e-02 
-2.163834e+00 5.914852e+00 2.423312e+00 3.070290e+00 5.115857e+00 2.236533e+00 2.128998e+00 6.978202e+00 -1.315456e+00 -2.328420e+00 -1.883628e+00 -6.861830e-02 -1.184286e-01 -4.411401e-01 -1.151875e-01 1.485081e-01 -2.475253e-01 -5.074806e-01 1.045215e+00 7.109482e-01 -1.116144e+00 -4.026371e-02 3.914043e-01 -1.679761e-01 2.448598e-01 -6.323957e-03 
-3.660354e+00 4.159628e+00 3.265316e+00 3.800328e+00 6.107509e+00 8.210154e+00 5.051754e+00 5.036877e+00 1.756416e+00 -1.729685e+00 5.922372e-01 9.313807e-01 -1.108226e-01 1.187079e+00 -2.036232e+00 -2.815882e+00 -2.498978e+00 -1.887007e+00 3.664334e-02 1.837074e-01 -1.550384e+00 -1.063099e+00 -1.092080e-01 -6.196146e-01 2.064811e-01 1.772779e-02 
-2.903325e+00 6.327346e+00 4.188572e+00 3.128223e+00 2.482075e+00 1.357676e+00 3.241879e+00 4.662959e+00 2.831757e+00 6.712751e-01 -5.053971e+00 -9.305354e-01 -1.276598e-01 3.004922e+00 -4.230048e+00 -3.708547e+00 -4.394515e+00 -2.003653e+00 -2.043460e+00 -1.389701e+00 -6.173852e-01 -3.047212e+00 5.365173e-01 6.930505e-01 -1.463554e+00 9.471527e-02 
3.667889e+00 -3.876729e+00 -1.039908e+01 -8.056100e+00 1.617179e-01 -1.091383e+00 1.675828e+00 2.868722e+00 -5.182408e+00 -8.908439e-01 -5.374522e-01 -1.371621e+00 -2.166235e-02 3.109930e+00 -3.081975e+00 -4.341235e+00 -3.904970e+00 -1.723544e+00 -2.272472e+00 -1.858860e+00 -1.544811e+00 -3.964275e+00 -7.897598e-02 1.208342e+00 -9.573193e-01 8.042627e-02 
9.196658e+00 -1.121721e+01 -9.287224e+00 -1.297407e+01 -1.929512e+00 -3.330000e+00 -3.131545e+00 4.975353e+00 -1.308210e+01 -6.525373e-02 2.146468e+00 -6.234889e+00 3.105677e-01 4.090870e-01 -1.453741e+00 -1.126848e+00 -2.168736e+00 1.850493e+00 1.206149e+00 -1.686720e+00 -2.245813e-01 -2.241442e+00 -6.513571e-01 2.342662e+00 -6.834701e-02 4.070657e-02 
5.839306e+00 -2.477969e+00 -1.170296e+01 -7.673377e+00 -3.044171e-01 -8.083689e-01 -1.055831e+00 -2.843373e+00 -1.010803e+01 -1.756300e+00 3.033726e+00 -1.203038e+00 7.219505e-02 -2.199205e+00 -4.504737e-01 2.538477e+00 -2.498183e+00 4.276911e+00 3.265695e+00 -2.971464e+00 1.017569e+00 -9.806643e-01 8.201122e-03 1.030867e+00 8.956510e-01 5.431631e-02 
-1.943599e+00 -1.640737e+00 -7.937309e-01 -7.906820e+00 1.196761e+01 7.246915e+00 -3.825890e+00 6.396099e+00 -5.912646e+00 -2.152782e+00 4.873750e+00 -1.356562e+00 2.894437e-02 -3.055287e+00 -1.949124e+00 3.114223e+00 -8.148133e-01 3.925868e+00 3.493305e+00 -1.087396e+00 6.076380e-01 -1.750183e-03 1.350826e+00 1.007203e+00 1.707864e+00 2.913885e-02 
-1.758008e+00 -1.091734e+01 -1.953441e+00 -2.308064e+01 1.459771e+01 9.948635e+00 -1.283432e+01 7.246194e+00 -1.367046e+01 1.939261e-01 3.253242e+00 6.674708e-01 3.907309e-01 -1.839696e+00 -4.186749e+00 3.799052e+00 -1.493377e+00 1.530264e+00 2.989119e+00 -3.414419e-01 9.400257e-01 -8.759340e-01 1.564727e+00 3.883656e-01 9.303520e-01 7.781006e-02 
-2.281120e+00 -1.674315e+01 1.409131e+00 -9.344503e+00 1.024876e+01 8.758024e+00 -2.679282e+00 2.968760e+00 -1.130964e+01 5.713763e+00 7.072725e+00 1.369175e+00 2.969940e-01 -8.855330e-01 -2.950993e+00 3.774334e+00 1.481445e-01 -1.579540e+00 1.448677e+00 1.132611e+00 -4.650928e-01 -1.582494e+00 8.374656e-01 -8.327492e-01 2.076508e-01 5.697780e-02 
-3.190413e+00 -1.586051e+01 6.190867e+00 -1.442142e+01 8.206324e+00 1.338167e+01 -3.336344e+00 3.570426e+00 -1.178920e+01 2.134061e+00 3.876066e+00 2.085854e+00 3.272205e-01 -1.745176e-01 3.739681e+00 2.647297e+00 5.624190e+00 -2.135917e+00 -1.294464e+00 2.472221e+00 -6.541308e-01 1.251824e+00 -1.173677e+00 -2.418737e+00 -1.789066e+00 -9.109983e-02 
-5.655062e+00 -1.392411e+01 1.400578e+01 -1.149571e+01 7.265600e+00 1.277378e+01 -2.911820e+00 5.908519e+00 -1.476575e+01 1.064478e+00 3.985922e-01 -1.027499e+00 3.455886e-01 4.982688e-01 6.863527e+00 5.447001e-02 4.232864e+00 -1.879928e+00 -3.030854e+00 8.442618e-01 -7.320866e-01 2.757942e+00 -2.125016e+00 -3.905415e+00 -3.255331e+00 -1.185086e-01 
-9.436255e-01 6.371555e+00 4.984716e+00 6.115911e+00 5.409708e+00 1.468434e+00 -3.569446e-01 2.505661e+00 -5.683288e+00 -3.349816e+00 -5.503374e+00 -7.079520e+00 -8.906555e-02 8.638130e-01 6.166028e+00 -1.152245e+00 4.169969e+00 -2.097291e-01 -2.204639e+00 7.942684e-01 -9.109553e-01 3.220675e+00 -1.514496e+00 -2.321094e+00 -3.266053e+00 -1.225773e-01 
-9.131699e-01 6.458456e+00 2.284556e+00 1.551150e+00 2.247429e+00 -4.396296e-01 5.232672e-02 -1.592910e-01 -5.728874e-01 -2.169378e+00 -7.764628e+00 -1.032479e+01 -8.740580e-02 5.508894e-01 2.927083e+00 -8.286924e-01 1.556777e+00 4.856802e-01 1.986746e-01 5.054027e-01 -9.691758e-01 1.819215e+00 -1.500113e+00 6.912664e-01 -1.690404e+00 -6.704712e-02 
-1.242293e+00 4.778345e+00 6.290258e+00 -9.500504e-02 9.666764e+00 8.965181e+00 -8.470756e-01 2.049555e+00 -2.782256e+00 -3.821489e+00 -3.647794e+00 -9.595762e+00 -6.916904e-02 -3.158000e-01 -1.530287e+00 1.166042e+00 -6.465561e-01 -3.410465e-01 1.560817e+00 7.955772e-01 -9.875007e-02 -8.721722e-01 7.498980e-02 3.068537e+00 6.337637e-01 1.565132e-02 
-2.751281e+00 1.507904e+00 9.209552e+00 -6.063635e-01 7.565473e+00 1.001878e+01 -1.397412e-01 1.290693e+00 -7.120188e+00 -6.200253e+00 2.927134e+00 -8.221399e+00 4.047155e-04 -5.547112e-01 -7.362466e-01 5.242528e-01 1.698790e-01 -1.154408e+00 5.253745e-01 1.481447e+00 1.338500e+00 -9.655519e-02 1.520890e-01 1.875431e+00 1.841079e-01 1.711249e-02 
-1.603570e+00 1.195397e+00 7.352430e+00 3.961888e+00 1.045454e+00 4.043314e+00 3.716976e+00 1.286918e+00 -6.770498e+00 -9.594297e-01 4.493427e+00 -4.962399e+00 -5.471420e-02 -4.443131e-02 -5.894786e-01 -2.528069e+00 5.632742e-01 -2.416123e+00 -2.629241e+00 1.932160e+00 1.726880e+00 8.506427e-01 2.284785e-01 -1.659786e-01 2.450728e+00 -7.602549e-03 
-3.506087e+00 4.568696e+00 4.374734e+00 3.720987e-01 7.860425e-01 4.648177e+00 5.177533e+00 6.914528e+00 9.384580e-01 -2.839963e+00 -2.458085e+00 -1.172094e+01 -9.070754e-03 4.870249e-01 -5.389709e-01 -3.795482e+00 -3.838014e-01 -2.068705e+00 -2.865712e+00 8.121022e-01 1.406067e+00 9.924067e-01 6.253312e-01 -1.641930e+00 1.244017e+00 -1.870974e-02 
-1.087047e+00 3.005556e-01 -3.932678e+00 2.232135e+00 9.758627e-01 -1.495722e+00 6.155089e+00 7.872039e+00 -2.558365e+00 -4.359241e+00 -1.785077e+00 4.407645e+00 -1.024441e-01 3.094608e-01 -5.968548e-01 -2.691603e+00 -1.346459e+00 -9.370962e-01 -1.316441e+00 -1.912733e-01 -5.702869e-01 8.661612e-01 1.630132e-01 -1.353456e+00 1.311133e+00 -1.743841e-03 
-5.744181e-01 -7.395297e-01 -4.125305e+00 -1.660494e+00 -2.743257e+00 -1.540260e+00 2.701713e+00 5.028469e+00 -4.264221e+00 -1.373691e+00 -2.143263e+00 -6.686335e+00 -6.927907e-02 -1.238429e-01 -1.277884e+00 -4.752966e-01 1.205214e-01 -3.642803e-01 -8.851194e-01 -4.678353e-01 -2.840672e+00 -4.382138e-01 7.101141e-01 1.087343e+00 2.581061e+00 3.765762e-03 
-1.522100e+00 8.652359e-01 -1.855567e+00 -1.754112e+00 -1.875377e+00 5.553284e-01 3.998519e+00 -6.214867e-01 1.616475e-01 -8.774995e-01 -2.431263e+00 -9.240333e-01 -3.332925e-02 -3.349529e-01 -6.692387e-01 1.093606e+00 5.394740e-01 2.302593e-01 1.512000e-01 -1.049773e+00 -1.893888e+00 2.861470e-01 3.705279e-01 1.908181e+00 6.130036e-01 6.864774e-03 
-3.907775e+00 -2.103063e+00 9.596957e-01 2.967829e+00 3.902612e-01 -8.029451e-01 3.916641e+00 -3.042067e+00 -2.612617e+00 -1.030263e+00 3.301721e+00 3.850210e+00 -2.479935e-02 -1.305387e-01 -1.074896e+00 4.169332e-01 2.913775e-01 1.568953e-01 -5.862037e-01 -1.606123e-01 -4.009221e-02 5.538180e-01 -1.559003e-01 7.833701e-01 1.611129e+00 -9.599805e-04 
-1.095133e+00 -2.363871e+00 -1.007150e+00 2.615344e+00 5.604002e-01 -1.108379e+00 2.987609e-01 2.437867e+00 -1.953431e+00 -2.678316e+00 5.033335e+00 2.204390e+00 -9.036005e-02 3.204980e-01 -8.170131e-01 -6.488696e-01 -1.065853e+00 -6.031827e-01 -1.232134e+00 -7.538417e-01 5.871680e-01 -8.565509e-01 -6.087447e-01 -7.567801e-01 -1.045949e+00 -7.532346e-03 
-1.440596e+00 -4.499455e+00 -2.464848e+00 -2.388334e+00 -3.176669e+00 -3.639424e+00 3.748531e+00 3.298331e+00 -4.375912e-01 -1.252784e+00 -1.958712e+00 -1.949018e-01 -4.556358e-02 3.100315e-01 8.084797e-01 -8.015670e-01 -1.694704e+00 -5.754974e-01 -3.786255e-01 -3.862135e-01 9.461121e-02 2.228330e-01 7.210425e-01 -1.088327e+00 -1.244006e+00 -1.048979e-02 
-1.153200e+00 -2.021633e+00 -3.387643e+00 -4.405293e+00 -3.107825e+00 -4.187103e+00 3.133658e-01 -8.558457e-01 -5.208620e+00 -3.809962e+00 -3.584948e+00 -4.131220e+00 -6.060886e-02 -1.441485e+00 -2.167210e+00 1.428152e+00 -1.412024e+00 -1.968685e-01 2.059695e+00 1.452169e+00 -2.436981e+00 -8.448056e-02 3.810751e-01 -1.297921e-01 1.054252e-01 8.739895e-02 
-2.328584e+00 1.768217e+00 -1.857892e+00 -1.995371e+00 -6.531131e-01 -1.156711e+00 1.978271e+00 -9.221544e-01 1.291421e-01 3.140772e+00 2.169226e+00 7.979844e-01 -9.212387e-02 -2.525560e+00 -3.722729e+00 2.072413e+00 -5.699242e-01 4.996750e-01 2.795669e+00 2.664032e+00 -1.900449e+00 9.977558e-01 5.146487e-01 1.426881e+00 4.866625e-01 1.398621e-01 
-7.858564e+00 -1.633376e+01 5.830133e+00 -4.641260e+00 -1.685720e+00 7.948740e+00 8.444738e+00 -7.636797e+00 -2.659201e+00 -2.969719e+00 2.320405e+00 2.235073e+00 3.699148e-01 -2.440380e+00 -3.077883e+00 9.013596e-01 -4.517421e-01 6.308655e-01 2.282906e+00 4.012452e+00 -2.522842e-01 1.452164e+00 3.275043e-01 6.876982e-01 7.487073e-02 1.155972e-01 
-1.071571e+01 -1.595704e+01 3.288330e+00 -5.119972e+00 -1.389346e+00 4.271000e+00 1.300301e+01 -2.813438e+00 3.276478e+00 9.003372e-01 2.223016e+00 -9.447356e-01 4.384851e-01 -1.699033e+00 -1.531786e+00 -1.937840e-01 -9.767752e-01 2.845437e-01 1.769817e+00 3.364503e+00 1.100590e+00 3.857911e-01 -1.113606e+00 -5.823115e-01 -7.578157e-01 5.099012e-02 
-9.161535e+00 -8.548424e+00 -1.453956e+00 -5.101704e+00 4.146185e-01 4.513574e+00 1.486326e+01 -1.171625e+00 4.785300e-01 -1.052223e+00 -1.733510e-01 -2.885506e+00 2.520725e-01 -3.842123e-01 1.655299e+00 -7.396687e-01 -6.080487e-01 -2.101209e-02 -3.108518e-01 1.025678e-01 2.294207e+00 5.412675e-01 4.212337e-02 -4.909674e-01 -3.289691e-01 -6.005021e-02 
-1.017227e+01 -9.783377e+00 8.152323e-01 -6.649025e+00 -2.805643e-01 9.409958e+00 1.559152e+01 1.348210e+00 4.892321e-01 -3.386007e+00 5.045469e-01 -4.308046e-01 2.217479e-01 1.123213e-01 1.288083e+00 8.766449e-01 9.904156e-02 -9.180824e-01 1.032758e-01 -2.422625e+00 9.515921e-01 -1.816943e-01 3.351075e-01 5.042887e-01 1.331803e+00 -7.002309e-02 
-1.005135e+01 -1.114409e+01 3.368339e+00 -6.916977e+00 -2.345172e+00 3.825002e+00 7.663317e+00 1.753412e+00 1.440759e+00 -6.159298e-01 7.248023e-01 3.332623e-01 1.780324e-01 3.657826e-01 6.905698e-01 2.200746e+00 1.844149e+00 -1.924525e+00 -8.063936e-01 -1.960100e+00 4.705615e-01 9.337095e-01 4.218608e-01 8.844417e-01 1.171995e+00 -4.076896e-02 
-9.709200e+00 -8.218790e+00 5.260407e+00 -3.717128e+00 -4.599863e+00 5.131665e+00 4.489851e+00 4.820038e-01 1.886892e+00 2.357728e+00 4.295382e+00 4.104893e+00 1.253898e-01 7.303944e-01 1.877044e+00 1.065226e+00 3.175029e+00 -1.231930e+00 -2.502535e+00 -1.506343e+00 1.256583e-01 7.848107e-01 6.105602e-01 3.007475e-01 8.383195e-01 -5.984501e-02 
-7.564156e+00 -5.877869e+00 7.327184e+00 2.653092e+00 -7.048357e+00 2.620753e+00 1.061359e+01 1.614286e+00 4.448247e+00 -1.814786e+00 2.353440e+00 7.066193e-01 9.640676e-02 9.357758e-01 2.876538e+00 -8.210995e-01 2.264400e+00 4.797328e-01 -2.316895e+00 -1.503442e+00 3.208333e-01 6.309741e-01 9.403896e-01 6.159053e-01 3.623928e-01 -7.389048e-02 
-7.763891e+00 -3.031269e+00 4.161938e+00 4.441083e+00 -4.088622e+00 -2.500591e+00 6.584669e+00 2.046064e+00 2.909541e+00 2.662227e-01 1.193965e+00 3.574114e+00 -3.666437e-02 9.514177e-01 2.328227e+00 -1.643100e+00 1.536193e+00 1.293186e+00 -3.170182e+00 -1.633621e+00 3.893131e-01 -6.919887e-01 2.645707e-01 -2.408514e-02 1.082731e-01 -6.441272e-02 
-6.345125e+00 6.448402e-01 -1.879245e-01 3.259170e-01 -2.021284e-01 -3.943344e+00 -9.013004e-01 2.575549e+00 4.084305e+00 5.131771e+00 5.355038e+00 2.410615e+00 -1.103929e-01 4.666376e-01 9.155756e-01 -1.106929e+00 -1.039479e+00 2.363502e+00 -1.420286e+00 -2.898196e+00 7.020364e-01 -3.932703e-01 2.247206e+00 2.896000e-01 1.236738e-01 -3.620175e-02 
-5.561626e+00 1.609909e-01 8.024604e-01 5.127423e+00 -1.557048e+00 -7.437198e+00 2.079193e+00 1.947938e+00 -1.391080e+00 2.073026e-01 2.674158e+00 3.794260e+00 -9.327400e-02 2.018564e-01 3.495025e-01 4.515839e-02 -1.663814e+00 1.741014e+00 7.579894e-01 -9.782206e-01 4.269056e-01 -3.714969e-01 6.052073e-01 -8.781241e-01 -6.942746e-01 -5.696702e-03 
-6.332100e+00 -2.896121e+00 3.472278e+00 -2.887475e+00 3.503365e+00 -2.012372e+00 -1.624648e+00 5.173531e+00 4.632206e+00 9.450703e+00 3.061343e+00 1.214915e+00 -5.629718e-02 -3.919050e-01 -4.381365e-01 8.720808e-01 -1.258133e+00 7.696457e-02 1.506627e+00 -4.987015e-01 -5.642921e-01 -2.464716e-01 -3.649650e-02 -1.924590e+00 -1.621499e+00 1.561724e-02 
-6.761122e+00 4.867244e-01 2.557629e+00 -2.271292e+00 2.763705e+00 3.238704e-01 2.055240e+00 2.881601e+00 7.781061e-01 1.132793e+00 -2.049809e+00 7.005910e-01 -9.219575e-02 -8.004463e-01 -4.532714e-01 1.018495e+00 -2.264439e-01 -1.483293e-01 1.771336e+00 -9.886584e-01 -9.997746e-01 2.748951e-01 1.204914e+00 -1.953897e-01 -1.812009e+00 2.449273e-02 
-7.704903e+00 -1.708709e+00 3.294895e+00 -2.265392e+00 -1.977682e+00 -2.907422e-01 -3.382831e+00 -7.127433e-01 1.767354e+00 4.486543e+00 -1.905926e+00 -4.150044e+00 -3.284585e-02 -4.945227e-01 7.186103e-03 7.334454e-01 5.806765e-01 -2.290943e+00 -3.049243e-01 7.787358e-01 -8.398592e-02 -7.990963e-01 -3.265734e-02 1.581466e-01 -9.735521e-01 1.534939e-02 
-8.877457e+00 -2.699072e+00 5.983625e+00 3.684162e+00 4.418287e-01 5.586665e-01 -1.985007e+00 -1.077976e-01 1.415822e+00 8.713954e+00 4.180844e+00 -2.583303e+00 1.746398e-02 5.672932e-02 8.218716e-02 -2.908179e-01 1.168709e-02 -9.698485e-01 -5.364652e-01 1.133913e+00 1.169953e+00 5.186697e-01 8.394432e-03 8.651501e-01 3.912577e-01 -6.520844e-03 
-7.746546e+00 -1.267292e+00 5.426507e+00 -2.961820e+00 -6.790411e+00 -3.654391e+00 4.289155e+00 6.248301e+00 3.178670e-01 5.496836e+00 7.367499e-01 -2.010898e+00 -3.438008e-02 6.093174e-01 8.350753e-01 -1.632799e+00 -7.317065e-01 1.366071e-01 -1.265253e+00 9.678485e-01 3.332866e-01 3.227580e-01 -1.359344e+00 1.101657e+00 1.936373e+00 -2.952174e-02 
-6.456654e+00 6.769518e-01 3.773391e-02 -1.864643e+00 3.208270e-01 -6.766310e-01 3.888814e+00 5.250842e+00 4.096198e+00 6.696193e-01 9.546039e-01 1.587306e+00 -1.240329e-01 7.044584e-01 1.008269e+00 -1.741948e+00 -1.579197e+00 9.533577e-02 -7.275718e-01 3.720985e-01 -6.582202e-01 1.120652e-01 -1.512154e+00 -3.375847e-01 1.781219e+00 -3.011665e-02 
-5.868717e+00 7.786556e-01 -1.896153e+00 -3.149522e+00 -1.234145e+00 -5.999357e+00 -1.480499e+00 -1.725630e+00 2.040956e+00 1.711991e+00 5.215481e+00 3.446516e+00 -1.097062e-01 6.645813e-01 7.555098e-01 -1.135269e+00 -5.668486e-01 4.288516e-01 -3.462906e-01 -1.066212e+00 -4.399727e-01 1.038272e-01 4.142434e-01 5.135553e-01 1.015739e+00 -1.212215e-02 
-6.294079e+00 1.319300e+00 9.352118e-01 -4.117973e+00 -1.859625e+00 -1.906710e+00 2.760313e+00 5.880671e-01 1.114603e+00 3.045608e+00 2.535553e-01 3.594083e+00 -9.545624e-02 4.327625e-01 4.231111e-01 -6.282094e-01 1.334785e-01 -1.648820e-01 -6.111495e-01 -8.153517e-01 6.566142e-01 7.357643e-02 9.464132e-01 6.551968e-01 5.574665e-02 7.176352e-03 
-4.504927e+00 2.189083e+00 -6.985789e-01 -4.669398e+00 -3.555927e+00 -4.770805e+00 -4.776550e-01 6.379825e+00 2.327800e+00 6.380058e+00 3.655051e+00 2.064410e+00 -1.092792e-01 6.005001e-03 -2.551687e-03 -6.610580e-02 1.175471e+00 6.746038e-01 -1.283620e-01 6.800672e-01 1.756146e+00 1.465473e+00 1.262593e-02 -9.760717e-01 -4.860029e-01 -1.154387e-03 
-4.974736e+00 2.087293e+00 -3.702100e+00 -4.373126e-01 6.573076e-01 -4.346655e+00 -6.893667e-01 4.481185e+00 4.320658e+00 3.067652e+00 5.010803e+00 2.557092e+00 -8.836460e-02 -2.106134e-01 -2.395926e-01 -8.859126e-01 7.032477e-01 1.623075e-01 -7.744609e-01 -1.289536e+00 -4.021681e-01 3.467297e-01 -7.057389e-01 -6.323762e-02 -8.539346e-01 -5.230629e-03 
-6.498363e+00 3.819005e-01 9.197432e-02 8.875003e-01 8.804071e-01 -5.421194e+00 3.644677e+00 5.108541e+00 7.765292e+00 1.764099e+00 -2.043502e+00 1.534997e+00 -1.190239e-01 -8.666413e-01 -5.101271e-01 -4.109016e-01 -2.722960e-01 -2.032135e-01 -1.121488e-02 -1.373282e+00 -1.208934e+00 1.204367e-02 -4.586891e-01 -3.000664e-01 -8.137666e-01 -3.204548e-03 
-6.350428e+00 1.024929e+00 -3.889628e+00 -3.380184e+00 -3.266254e+00 -5.453819e+00 -5.748534e+00 -7.871313e-01 1.295061e-01 1.824893e+00 2.786644e+00 -4.108831e-01 -1.167370e-01 -1.888891e-01 1.591181e-01 -1.444625e-01 -6.061099e-01 -2.808678e-02 7.632549e-01 -3.594572e-01 1.737893e-01 -4.726849e-01 -2.749011e-01 -2.498386e-01 -6.157266e-01 -5.892527e-03 
-8.150288e+00 1.696300e-01 -2.659323e+00 -4.559442e+00 -2.610213e+00 -4.273297e+00 -4.814480e+00 2.969311e+00 4.483594e+00 4.707992e+00 3.266799e+00 -5.204352e-01 -1.111157e-01 6.738051e-01 1.159277e+00 6.618106e-02 -1.084168e-01 9.364471e-01 8.419456e-01 -2.029399e-01 1.002413e+00 -8.305492e-01 -2.266121e-03 8.766942e-02 -2.309417e-01 1.246631e-03 
-5.093220e+00 2.989019e+00 -3.048764e+00 -7.443910e-01 2.262184e+00 -1.104329e+00 1.742926e+00 6.419746e+00 3.598082e+00 2.211995e-01 1.106459e+00 5.061750e-01 -1.217813e-01 4.447948e-01 5.779585e-01 1.290355e+00 1.043095e+00 7.658287e-01 8.243206e-01 1.989579e+00 1.665017e+00 3.340173e-01 -8.918986e-01 -1.333433e+00 2.929078e-01 4.713440e-03 
-3.757942e+00 5.196239e+00 2.447546e-03 -9.724804e-01 2.798424e+00 -3.386211e+00 -1.115753e+00 6.517168e+00 1.878257e+00 2.554615e+00 -7.650628e-01 -7.824111e-02 -1.102686e-01 3.389338e-01 6.339160e-01 1.614049e+00 9.675337e-01 1.039321e+00 3.029919e-01 4.128027e-01 1.579166e-01 1.157219e-01 -7.103211e-01 -4.363329e-01 1.920035e-01 4.555059e-03 
-6.322626e+00 1.401417e+00 1.231261e+00 4.180861e-02 -2.141429e+00 -1.775759e+00 2.350000e+00 5.764023e+00 3.102261e+00 -1.557911e+00 -1.864588e+00 8.325589e-01 -9.359336e-02 -2.075691e-01 2.646330e-01 6.446209e-01 -3.399952e-01 7.450510e-01 6.475076e-02 -4.970036e-01 3.142013e-01 7.357424e-01 1.000419e+00 1.180262e+00 2.476944e-01 4.059481e-03 
-5.840916e+00 4.133011e+00 3.270911e+00 -1.148736e-01 4.788198e+00 -2.422622e+00 -3.054004e+00 4.086756e+00 5.310114e+00 2.045942e+00 2.570658e+00 2.763902e-01 -1.024344e-01 1.171012e+00 2.793661e-01 -1.030182e+00 -7.296767e-01 3.606475e-01 9.081717e-01 9.648169e-01 -3.665159e-01 -1.411892e+00 -1.074577e+00 -2.130565e-01 -1.071162e+00 3.170776e-03 
-5.089579e+00 4.843798e+00 -1.459891e+00 -2.873171e+00 4.992552e+00 -1.262369e+00 2.270331e-01 9.205958e+00 5.560866e+00 5.477632e+00 5.339911e+00 1.567332e+00 -1.054010e-01 3.085304e+00 1.367344e+00 -2.241582e+00 -2.335079e+00 -4.798951e-01 -5.772692e-01 6.636316e-01 -1.447489e+00 -3.519548e+00 -1.576252e+00 -1.303282e+00 -1.937317e+00 1.366762e-02 
1.480596e+00 4.871878e+00 -3.802885e+00 -3.163375e+00 1.034671e+00 8.979526e-01 4.769815e+00 2.963621e+00 -6.410504e+00 -6.336041e+00 -5.432595e+00 -5.801440e+00 -8.851087e-02 3.302846e+00 8.060526e-01 -1.904472e+00 -2.091772e+00 -2.093740e+00 -2.873302e-01 3.298261e-02 -2.754673e+00 -3.417747e+00 -3.169892e+00 -3.275752e+00 -1.351624e+00 1.798396e-02 
5.443141e+00 7.868703e+00 -6.439753e+00 -1.010934e+01 -2.664141e+00 -6.322392e+00 1.756248e+00 -9.118531e-01 -8.635173e+00 -5.248181e+00 -4.379372e+00 -5.815111e+00 -3.221703e-02 2.491943e+00 5.392991e-01 -4.561895e-01 -1.195724e+00 -1.657625e+00 -2.361001e-01 -1.618498e+00 -3.525864e+00 -1.875304e+00 -2.994105e+00 -3.209260e+00 -5.704746e-01 1.519932e-02 
5.406958e+00 6.650822e+00 -3.761520e+00 -6.955651e+00 -1.852159e+00 -1.329262e+00 -3.653698e+00 -4.627700e+00 -4.680604e+00 -8.440609e+00 -8.948459e+00 -2.790508e+00 -4.910660e-02 7.816541e-01 2.340005e-01 2.760960e-01 -4.430868e-01 -4.961676e-01 5.386996e-02 -2.225697e+00 -1.889849e+00 7.414368e-01 -7.401563e-01 -1.160082e+00 9.046468e-01 6.191897e-03 
