-3.285469e+00 2.014505e+00 -3.775578e+00 1.410441e-01 9.038207e+00 2.607385e-01 -3.357806e+00 1.803453e+00 3.088689e+00 -2.761066e+00 -5.346942e-02 -1.320923e+00 -1.170772e-01 -2.183318e-01 2.888961e-02 -2.401906e-02 -9.072722e-01 -1.929619e+00 -5.796216e-01 1.223340e-01 -1.621484e-01 3.286024e-01 1.348431e+00 3.151222e-01 6.691769e-01 -1.128530e-03 
-3.367234e+00 3.081077e+00 -4.944498e+00 -6.012640e-01 6.248895e+00 5.394355e-01 -1.975073e+00 8.355912e-01 5.983945e+00 2.478577e+00 4.473740e+00 3.639347e+00 -1.185819e-01 -1.352056e-01 -1.339057e-01 4.701676e-01 -1.137130e-01 -1.129215e+00 6.630559e-01 6.580457e-01 3.991020e-01 3.518834e-01 1.307656e+00 3.385378e-01 5.984210e-01 2.864158e-03 
-4.336246e+00 1.625667e+00 -3.311213e+00 -4.024162e+00 7.847662e-01 -2.776718e+00 -3.437503e+00 1.476642e+00 3.284073e+00 1.361267e+00 -7.414631e-01 -4.551740e-01 -1.219676e-01 -8.507366e-02 -5.679753e-01 2.766703e-01 6.511841e-02 -8.226233e-01 5.477055e-01 2.774489e-01 8.626139e-01 1.139956e+00 1.329753e+00 4.242855e-01 1.813372e-01 4.411137e-03 
-3.436109e+00 1.539395e+00 -1.656922e+00 1.655082e+00 7.518855e+00 5.094746e+00 -2.772951e-02 3.962369e+00 4.750414e+00 1.716048e+00 1.983217e+00 1.238307e+00 -1.003113e-01 -2.614765e-02 -6.371955e-01 1.623318e-01 2.139796e-01 1.541835e-01 -1.916604e-01 -1.450536e-01 1.667199e+00 2.972547e-01 1.639779e-01 -6.198658e-01 -4.199753e-01 7.478106e-03 
-3.676400e+00 -5.453110e-02 -4.036015e+00 -6.615369e-01 4.290111e+00 7.216107e-01 -2.944234e+00 4.553134e+00 9.405232e+00 4.268964e+00 3.313220e+00 7.862823e-01 -1.041569e-01 1.107000e-01 7.986297e-02 -8.282589e-01 -7.613405e-01 7.881858e-01 6.871780e-01 3.501530e-01 6.596821e-01 3.817285e-02 -3.411684e-02 -8.984041e-02 -6.327359e-02 3.734636e-03 
-3.827895e+00 7.351983e-01 -3.770439e+00 -1.212679e+00 5.267140e+00 -2.168031e+00 -2.946976e+00 7.633341e+00 4.409639e+00 1.844619e+00 -6.529304e-01 9.187422e-01 -9.009671e-02 1.295143e-01 5.014371e-01 -1.075236e+00 -1.463184e+00 9.921519e-02 7.889767e-02 3.082116e-01 1.951883e-01 -1.001138e+00 -5.662950e-01 -3.025914e-01 1.121663e-02 1.351762e-03 
-3.586852e+00 2.427080e+00 -6.395750e+00 -6.396985e+00 5.851552e+00 4.290560e+00 -2.271148e-01 2.939567e+00 3.645325e+00 1.126397e+00 1.274084e-01 -6.117595e-01 -1.084017e-01 5.229751e-01 8.217325e-01 -4.255891e-01 -8.965782e-02 2.939807e-01 1.225165e+00 4.131990e-02 -7.537666e-01 -1.080284e+00 -1.225160e-01 6.689282e-02 -2.912187e-01 8.299124e-03 
-2.833311e+00 2.805775e+00 -5.853234e+00 -2.793112e+00 7.234210e+00 3.704760e+00 1.547691e-01 5.745094e+00 2.624680e+00 4.558556e-01 2.063166e+00 1.993411e+00 -9.143007e-02 4.330091e-01 5.828778e-01 1.632372e-01 8.794527e-01 4.191636e-02 8.124743e-01 -1.537039e-01 -8.236685e-01 2.886158e-01 9.600922e-01 1.141953e+00 2.779481e-01 9.817231e-03 
-1.558817e+00 3.018843e+00 -5.122562e+00 -3.196092e-01 4.776479e+00 3.911041e+00 -4.288507e+00 1.728425e+00 4.896294e+00 4.350765e+00 2.289636e+00 -1.207146e+00 -6.199455e-02 -2.001847e-01 -1.729183e-01 5.590296e-03 1.464026e+00 -9.306464e-01 -4.182041e-02 -1.046327e+00 -2.153955e-01 -1.245814e-01 9.342211e-01 8.493258e-01 4.966757e-01 2.229865e-02 
-2.676867e+00 3.353705e+00 -3.590846e+00 1.458974e-01 6.014259e+00 2.084101e+00 -1.684799e+00 4.120570e+00 5.227233e+00 5.032896e+00 3.975720e+00 2.606176e+00 -6.421411e-02 -7.435471e-01 -7.370904e-01 -3.809572e-01 3.284923e-01 -1.227020e+00 -4.293198e-01 -7.712067e-01 -2.529211e-01 4.326122e-02 -1.128500e-01 -6.439928e-01 -7.438163e-01 7.730198e-03 
-4.665998e+00 1.288523e+00 -7.498992e+00 -5.463598e-01 1.808296e+00 4.891788e+00 -4.538967e+00 2.674851e+00 1.721141e+00 3.508983e+00 3.417760e+00 1.565237e+00 -1.051641e-02 -8.655106e-01 -1.000176e+00 -4.074203e-01 -1.413581e+00 -8.253080e-01 -1.644270e+00 -6.192561e-01 2.622914e-01 -8.235381e-02 -1.060997e+00 -7.529186e-01 -5.142794e-01 -1.258208e-02 
-4.997457e+00 -1.451731e-02 -6.569805e+00 -1.037276e+00 2.583203e+00 1.067788e+00 -3.576034e+00 4.007276e+00 4.428562e+00 3.124964e-01 -1.720861e+00 -3.111862e+00 -7.851815e-02 -4.437347e-01 -9.231023e-01 -4.201698e-01 -1.845626e+00 -4.215906e-01 -1.044069e+00 -1.134005e-01 1.185231e-01 3.845945e-01 -1.213617e+00 -1.186053e+00 -6.567009e-01 -2.371899e-02 
-4.726075e+00 -2.979255e-01 -5.670184e+00 -6.795929e+00 2.365467e+00 -3.802151e+00 -6.439170e+00 3.096529e+00 4.883861e+00 1.405982e+00 1.373333e+00 -9.195240e-01 -1.177529e-01 9.371529e-02 -1.908393e-01 9.206097e-01 -8.557614e-01 4.316740e-02 -1.518435e+00 9.929064e-01 7.304492e-01 7.397372e-01 -2.661674e-02 2.264316e-01 6.612139e-01 -2.990237e-02 
-4.865502e+00 -4.685816e-01 -6.606099e+00 -5.957448e+00 3.627721e+00 1.210725e+00 -1.301700e+00 4.502347e+00 5.568846e+00 1.631308e-02 -9.323304e-01 5.650518e-01 -1.291908e-01 5.436439e-02 -2.969095e-02 7.279181e-01 -2.478631e-01 -1.481308e-01 -5.754043e-01 1.007890e+00 4.106620e-01 -9.016663e-01 3.337014e-01 6.340013e-01 4.945375e-01 -7.328546e-03 
-4.263398e+00 5.613592e-01 -2.877797e+00 -2.365081e+00 1.501874e+00 -2.771856e+00 -7.116016e-01 6.079561e+00 4.849685e+00 3.523991e+00 4.155653e+00 3.032849e+00 -1.346920e-01 -1.210386e-01 7.361764e-03 1.104083e-02 8.655691e-01 -9.075995e-02 -2.173746e-01 2.909989e-01 1.643534e-02 5.660486e-03 4.891782e-01 9.608331e-02 -3.884825e-01 5.969322e-03 
-4.956973e+00 -5.926144e-01 -4.326408e+00 -4.492016e+00 2.274345e+00 -2.324382e+00 -1.400370e+00 4.569069e+00 -6.268191e-02 9.219992e-01 5.798602e-02 -2.615360e+00 -1.066914e-01 2.078762e-02 -1.444618e-01 9.898577e-02 3.127176e-03 -1.097172e+00 -1.909724e-01 3.163585e-01 -3.739421e-01 6.516010e-01 -1.092570e-01 7.515647e-02 -7.767541e-01 8.406269e-03 
-5.285533e+00 -1.991003e-01 -6.754826e+00 -3.200800e+00 2.588355e+00 -3.121471e+00 -4.934840e+00 3.145344e+00 7.727927e+00 3.399030e+00 1.358592e+00 -1.271731e+00 -9.915602e-02 -1.184874e-01 7.034862e-03 -1.048306e-01 -1.083482e+00 -1.041719e+00 9.292173e-01 1.289026e-01 -1.386309e+00 9.580755e-01 -4.459624e-01 -2.200149e-01 -4.232205e-01 8.539450e-03 
-4.250497e+00 -8.106607e-01 -4.172656e+00 -5.523952e+00 -2.401378e+00 4.306705e-01 2.391712e+00 4.099745e+00 7.387731e+00 -4.674914e-01 8.419825e-01 -1.166429e+00 -1.049274e-01 -8.742046e-02 4.812349e-01 6.897995e-01 -2.024417e-01 -1.475078e-01 9.090756e-01 2.851504e-01 -4.144661e-01 5.868734e-01 4.964997e-01 8.091289e-01 3.313433e-01 2.830851e-03 
-5.209073e+00 7.055566e-01 -3.478826e+00 -7.266523e+00 -1.368857e+00 4.967052e-01 -1.963129e+00 -6.173236e-01 5.914857e+00 1.988924e+00 2.663580e+00 1.922812e-01 -9.287667e-02 -6.876259e-02 6.462010e-01 7.472851e-01 -4.563598e-01 9.737225e-01 1.276082e+00 1.873489e-01 -6.554035e-02 -1.482893e+00 -5.192853e-01 1.777291e-01 2.115934e-01 1.685286e-03 
-5.432305e+00 1.361232e+00 -2.515411e+00 -3.471363e+00 3.515412e+00 4.119077e-01 -1.460474e+00 4.378073e+00 3.778220e+00 4.109550e+00 3.451137e+00 -1.690650e+00 -9.567678e-02 1.074592e+00 -1.838269e+00 -1.814057e+00 -1.363488e+00 -5.192332e-01 2.334328e+00 1.942738e-01 -4.608017e-01 -2.467668e+00 2.866158e+00 7.125161e-01 -1.426401e-01 5.804747e-02 
-5.038442e+00 1.945958e+00 -3.847023e+00 -6.508893e+00 4.498572e+00 3.268322e+00 -2.072003e+00 2.678479e+00 2.118220e+00 -1.485918e+00 9.426602e-01 4.834700e-02 -9.535491e-02 1.904522e+00 -3.737373e+00 -3.430733e+00 -2.568045e+00 -2.868397e+00 2.344870e+00 5.891351e-01 -1.249226e+00 -3.089616e+00 3.794900e+00 1.254794e+00 -7.419273e-01 1.273416e-01 
1.037148e+00 -1.062220e+01 -1.305884e+01 -1.272021e+01 -7.931259e+00 1.071650e+01 3.417517e+00 1.478354e-01 -3.052290e+00 1.560072e+01 5.265023e+00 -1.807662e+00 1.865491e-01 2.037427e-01 -1.268362e+00 -4.069222e+00 -1.416594e+00 -2.008808e+00 9.118584e-01 8.923017e-01 -5.138051e+00 -7.624225e-02 2.066228e+00 2.735323e+00 9.197488e-02 1.505621e-01 
1.078812e+00 -1.198959e+01 -1.536077e+01 -1.548233e+01 -9.987507e+00 7.068757e+00 -1.456450e+00 -4.748334e+00 -6.117970e+00 1.521784e+01 8.030605e+00 -3.458849e+00 4.027184e-01 -1.793279e+00 1.128198e+00 -6.736638e-01 1.350671e+00 6.649655e-01 -1.390434e+00 1.384713e+00 -3.385426e+00 2.817948e+00 -1.219755e-01 5.773436e-01 3.386440e-01 7.320685e-02 
-7.472219e+00 1.987195e+00 -1.710464e+01 -6.067614e+00 7.144127e-01 3.070982e+00 2.693258e+00 -1.759878e+01 7.515103e+00 6.088810e+00 1.358378e+01 5.228226e-01 4.080968e-01 -2.716538e+00 3.548552e+00 2.866722e+00 3.274889e+00 3.912716e+00 -2.366627e+00 8.181570e-01 -9.204912e-03 3.065350e+00 -3.974379e+00 -9.902273e-01 1.500346e+00 -5.094624e-02 
-9.750154e+00 1.282249e+00 -5.192441e+00 -3.081834e+00 3.500563e+00 1.389127e-01 5.213694e+00 -5.375346e+00 1.092426e+01 2.660160e+00 -3.299991e-01 5.763247e-01 1.599054e-01 -8.314711e-01 1.787567e+00 4.002296e+00 2.973260e+00 2.578380e+00 -5.701559e-01 4.812213e-01 3.634103e+00 7.665902e-01 -2.324209e+00 -1.990083e+00 1.008825e+00 -1.197148e-01 
-7.131059e+00 4.846364e-01 -3.809400e+00 -2.546008e+00 4.888285e+00 2.348289e+00 4.173231e+00 4.153167e-01 3.753342e+00 2.007667e+00 4.494189e+00 3.676483e+00 5.322438e-02 1.582839e+00 -6.520607e-01 2.866290e+00 1.147879e+00 -1.533774e-01 9.462482e-01 -1.061220e+00 6.027971e+00 -1.714284e+00 1.129834e-01 -1.963508e+00 -7.929506e-01 -1.091144e-01 
-3.249124e+00 -2.300477e+00 -1.996913e+00 -2.376831e+00 8.174558e-01 4.579324e+00 2.096704e-01 4.415134e+00 -4.041388e-01 5.637369e+00 2.624987e+00 8.446693e-03 -1.841950e-02 1.474179e+00 2.123509e-01 8.675975e-02 2.577220e-01 1.929055e-01 9.671836e-01 -1.129265e+00 1.836481e+00 -1.299849e+00 -1.032542e+00 2.854858e-01 -9.716566e-01 -5.832943e-02 
-2.808540e+00 5.182543e-01 -4.370961e+00 -6.807213e-01 1.289080e+00 5.582018e+00 -1.108289e-01 7.645837e+00 4.607884e+00 5.165122e+00 2.288746e+00 -3.157991e+00 -4.831254e-02 6.980003e-01 5.756755e-01 2.240653e-01 -1.080880e-01 3.134043e-01 8.091464e-02 -1.448809e+00 -6.367342e-01 5.417615e-01 -1.126935e+00 -4.146080e-01 -1.866560e-01 -3.184075e-02 
-4.540519e+00 2.327194e+00 -4.477861e+00 -2.725867e+00 6.264693e+00 3.357966e+00 1.709399e+00 1.917981e-01 3.997748e+00 -4.081275e+00 2.200151e+00 -8.647214e-01 -8.097327e-02 -3.732988e-01 4.981508e-01 5.323741e-01 -8.804299e-01 1.154488e+00 -9.537648e-01 -2.047413e+00 -1.171039e+00 2.251896e-02 -2.852995e+00 -6.012363e-01 1.915098e+00 -7.244504e-03 
-2.995359e+00 1.049178e+00 -1.448599e+00 -2.911930e+00 3.731687e+00 3.363541e+00 -3.820679e+00 -6.566863e-01 4.261207e+00 1.232313e+00 2.633566e+00 3.179787e+00 -7.470250e-02 -4.533434e-01 -2.774321e-01 9.028656e-01 -4.756684e-01 1.007919e+00 -1.187382e+00 -1.892619e+00 -1.139410e+00 -1.982492e-01 -8.131604e-02 -5.379261e-01 1.932360e+00 -2.971911e-03 
-5.022208e+00 -7.518470e-02 -7.962234e-01 -5.663376e+00 5.368591e+00 9.197382e-01 -8.172471e+00 2.711203e+00 -1.182051e-01 -6.661202e+00 -5.536051e-01 6.415046e+00 -4.144704e-02 -2.365291e-01 -4.291008e-01 5.646475e-02 6.529416e-01 8.448908e-02 -1.412656e-01 -9.292015e-01 8.504532e-01 1.154526e+00 2.071599e+00 -3.822494e-01 2.966715e-01 -1.598537e-03 
-4.834413e+00 3.322833e-01 -1.697452e+00 -1.590309e+00 6.776726e+00 8.642218e-01 -4.632987e+00 6.890841e-01 5.674615e+00 6.048506e+00 9.759942e-01 2.863923e+00 -8.293521e-02 -4.517550e-01 3.116838e-02 -2.588195e-01 5.532366e-01 4.550067e-01 8.190268e-01 1.179041e+00 6.594502e-01 1.318880e+00 1.780191e-01 -4.764928e-01 3.743897e-02 -3.689349e-03 
-4.803638e+00 5.401380e-01 -4.071112e+00 -1.219697e-01 5.164619e+00 3.901298e+00 -2.530455e+00 3.771179e+00 9.063673e+00 3.868626e+00 1.117690e+00 7.765679e-01 -8.484960e-02 1.398727e-01 1.614828e-01 -6.367378e-01 9.546921e-01 5.921644e-03 -6.779232e-02 1.672201e+00 6.077459e-01 1.298808e+00 3.379498e-01 6.813337e-01 -7.086405e-01 -6.261325e-03 
-5.363420e+00 8.973587e-01 -1.105253e+00 -2.916450e+00 6.108706e+00 5.967896e+00 -7.464818e-01 2.110576e+00 6.264666e+00 -3.142505e+00 -5.845457e-01 6.186221e+00 -7.144797e-02 2.923103e-01 2.714242e-02 -3.960012e-01 3.859645e-01 -4.629647e-01 -1.019419e+00 3.643182e-01 4.528190e-01 -5.585341e-01 -1.399144e+00 1.454451e+00 3.647457e-01 -3.306306e-03 
-4.058341e+00 4.496914e-01 -4.276011e+00 -2.268453e-01 5.732209e+00 -1.971060e+00 -1.754722e+00 5.039186e+00 6.080811e+00 -3.759477e-01 3.633333e+00 1.210695e+00 -7.849729e-02 1.456358e-01 -1.564722e-01 -9.927007e-02 3.344609e-01 1.851655e-01 -7.171616e-01 -2.272669e-01 -1.666368e-01 -8.177921e-01 4.900941e-01 1.270166e+00 4.769197e-01 -7.764244e-03 
-3.745509e+00 5.132186e-01 -3.575008e+00 3.919516e-01 4.178108e+00 -1.296695e+00 -3.199263e+00 2.319175e+00 4.373375e+00 1.175071e+00 6.990428e+00 4.470588e+00 -1.026429e-01 5.938111e-02 -8.589602e-01 -3.017731e-02 8.333634e-01 -5.435950e-01 -1.019291e+00 -1.433456e+00 -7.780790e-03 6.123783e-02 1.863051e+00 5.709772e-01 -4.476214e-01 -7.842636e-03 
-4.884414e+00 -5.015314e-02 -3.332584e+00 -1.038656e-01 7.055746e+00 3.947785e+00 -2.440399e+00 2.833695e+00 5.920358e+00 4.160308e+00 3.681035e+00 4.018983e+00 -1.080734e-01 -1.592295e-01 -1.992147e+00 1.911264e+00 5.414430e-01 -2.201310e+00 1.368626e+00 2.889152e-01 -6.137629e-01 2.953591e-01 5.498344e-01 -1.320143e+00 -3.489532e-01 3.384414e-02 
-4.653478e+00 -3.147520e+00 -1.727853e+00 1.188877e+00 2.728963e+00 -2.087981e+00 -7.570925e+00 3.174418e+00 6.651081e+00 3.904622e+00 2.246490e+00 2.543970e+00 -9.587312e-02 -1.010188e+00 -3.327161e+00 2.491192e+00 1.095269e+00 -2.675785e+00 1.807626e+00 1.718876e+00 -2.606531e-01 1.998148e-01 -2.882209e-01 -1.308849e+00 -5.481437e-01 8.088143e-02 
-4.400504e+00 -7.680676e+00 4.356733e+00 2.081907e+00 -4.549768e+00 5.267713e+00 1.875685e+00 1.542751e+00 6.418754e+00 1.008449e+00 -5.954146e-01 4.292383e-01 8.733851e-02 -6.311989e-01 -1.265950e+00 4.546181e-01 1.869592e-01 -2.123741e+00 -5.174518e-01 1.107105e+00 2.590708e-01 -1.424654e+00 -6.282871e-01 -1.948650e-01 -5.745945e-01 4.136409e-02 
-9.038404e+00 -1.230733e+01 5.036296e+00 4.775412e+00 -3.398058e+00 7.081470e+00 3.237075e+00 1.661382e+00 5.123252e+00 1.309896e+00 2.584410e+00 3.524741e+00 2.040583e-01 9.138604e-02 1.416325e+00 -1.200459e+00 -7.839782e-01 4.700934e-01 -5.142299e-01 2.529510e-01 -1.289515e-01 -1.908525e+00 -6.646008e-01 1.478870e-01 -7.642583e-01 -1.097519e-02 
-5.847945e+00 -1.800001e+00 -4.441568e+00 -9.623370e-01 -4.994493e-01 -3.224198e+00 -2.308873e+00 4.885567e+00 -4.389985e-01 2.316235e+00 2.537750e+00 6.556246e-01 -5.121863e-02 6.975824e-01 3.094657e+00 -2.623513e+00 -1.696689e+00 2.443339e+00 -7.489812e-01 -2.287453e+00 3.977710e-01 -7.309577e-01 -1.918472e-01 8.860744e-01 9.180236e-02 -6.201606e-02 
-3.472827e+00 9.937654e-01 -3.330997e+00 -1.208892e+00 3.054271e+00 -4.131749e-01 -4.213890e+00 8.582528e-01 5.373340e-01 -7.227564e-02 1.419342e+00 -1.390515e+00 -8.147049e-02 1.454861e+00 3.105519e+00 -1.836556e+00 -1.157124e+00 1.532970e+00 -5.393912e-01 -2.939061e+00 -1.416653e-01 -4.332078e-01 1.379815e-01 3.951107e-01 3.524001e-02 -4.930068e-02 
-3.695380e+00 1.142061e+00 -4.577183e+00 -3.409385e+00 4.440763e+00 5.270129e+00 -5.836096e+00 3.933171e+00 5.056924e+00 7.402990e-01 4.417491e+00 3.345878e+00 -7.997739e-02 6.275708e-01 8.711752e-01 -4.033836e-01 -5.067427e-01 8.804334e-01 1.255985e+00 4.970826e-01 2.112027e-01 5.061075e-01 3.757131e-01 -5.866346e-01 -5.006533e-02 2.503943e-03 
-2.840380e+00 1.749236e+00 -4.078677e+00 2.133141e-01 1.796688e+00 1.373497e-01 -9.694617e+00 1.429254e+00 2.092516e-01 2.787771e+00 3.620093e+00 2.355814e+00 -2.806568e-02 -6.032232e-01 8.296320e-01 -1.032049e+00 -3.198398e-01 -6.237429e-01 -1.390575e+00 2.079620e+00 -8.710392e-01 2.843027e-01 2.176988e-01 -1.595707e+00 -3.524312e-01 3.002814e-02 
-3.026315e+00 2.178140e+00 -6.084646e+00 -4.207153e+00 4.531510e+00 2.780466e+00 2.916903e+00 5.656080e+00 2.255580e+00 2.764777e+00 -1.495799e+00 -1.467867e+00 -6.540132e-02 -1.461664e+00 2.600311e+00 -6.519777e-01 8.214121e-01 -2.781186e+00 -5.016561e+00 3.976032e+00 -1.712172e+00 9.322438e-01 -3.034856e-02 -2.212210e+00 1.816934e-01 1.256838e-01 
-6.823476e+00 4.623886e+00 -7.737510e+00 -2.409207e+00 -1.098170e-01 -6.121221e+00 1.807708e+00 -4.358397e+00 3.359519e+00 3.979206e-03 -3.602547e+00 -7.457987e-01 6.138217e-02 8.281069e-01 -8.320866e-02 -8.268231e-01 1.514514e+00 -3.161682e+00 -5.538228e+00 3.961948e+00 -1.165123e+00 6.844100e-01 -8.161824e-01 -2.485631e+00 9.155478e-01 1.548227e-01 
-9.012155e+00 1.270629e+01 -6.007655e+00 2.008936e+00 -8.511913e+00 -1.668339e+01 8.292898e+00 -1.733863e+00 8.143009e+00 1.980452e+00 -3.032240e+00 5.805151e+00 5.037176e-01 2.701254e+00 -2.148036e+00 -1.576597e-01 2.442664e+00 -3.553694e+00 -5.526496e+00 1.177506e+00 -5.104777e-01 -1.713506e+00 2.714152e-01 -1.707775e+00 2.270532e+00 2.204806e-01 
4.293075e+00 -3.930882e+00 -8.251287e+00 4.677838e+00 -7.490009e+00 -1.782186e+01 7.427124e+00 -7.013888e-01 6.875870e-01 -9.009781e-01 -8.039841e+00 3.297045e+00 4.614881e-01 3.840770e+00 -3.969595e+00 1.987391e+00 1.396191e+00 -1.685976e+00 -1.181424e+00 -8.340651e-01 1.489791e+00 -2.358656e+00 8.560821e-01 -1.528628e+00 2.380034e+00 1.870722e-01 
4.921682e+00 -4.284656e+00 -6.616055e+00 4.462646e+00 -9.546865e+00 -1.900170e+01 5.994726e+00 1.275187e+00 -4.975986e+00 4.574332e+00 -7.816028e+00 7.863374e+00 8.369485e-01 3.550821e+00 -4.862789e+00 3.447058e+00 4.176622e-02 -9.763758e-01 1.523895e+00 -2.734966e+00 1.036043e+00 -6.842279e-03 2.605986e-01 -7.658449e-01 2.183740e+00 1.190143e-01 
5.413457e+00 -6.728618e+00 2.503643e+00 3.344893e+00 -8.022223e+00 -1.086918e+01 -1.213531e+00 1.586031e+00 -1.874262e+00 2.987450e+00 -8.853791e+00 1.012526e+01 8.301276e-01 1.139556e+00 -1.375650e+00 4.212192e+00 -4.250418e-01 -1.005870e+00 1.514095e+00 -1.592456e+00 5.511909e-01 2.696976e+00 2.387019e-01 -1.769204e-01 2.395467e+00 8.623593e-02 
8.181758e+00 -1.020879e+01 5.850169e+00 2.884240e+00 -1.312769e+01 -1.254025e+01 -1.061606e+00 2.302642e+00 9.389722e+00 1.339231e+00 -6.454490e+00 1.330975e+01 9.144695e-01 8.087856e-01 -7.092108e-01 3.269451e+00 -4.610314e-01 -7.268241e-01 1.004949e+00 -2.590833e-01 -2.141471e-02 3.318974e+00 -7.451037e-01 1.176743e-01 9.073930e-01 1.392066e-02 
8.360815e+00 -7.847064e+00 6.576560e+00 3.341832e+00 -1.072895e+01 -1.348211e+01 2.993013e+00 1.540838e+00 6.989614e+00 1.910082e+00 -9.605212e+00 1.255119e+01 8.539072e-01 4.488410e-01 -3.576140e-01 1.616723e+00 -2.708731e-01 -7.340673e-01 -2.153473e-02 1.311459e+00 -3.676045e-01 1.230492e+00 -5.962821e-01 7.815428e-02 7.412036e-01 2.227945e-02 
7.491931e+00 -7.271486e+00 7.694739e+00 2.159019e+00 -1.182762e+01 -1.267049e+01 2.596038e+00 1.190710e+00 7.186947e+00 1.387498e+00 -6.851946e+00 1.118737e+01 8.946620e-01 -1.446999e-01 -4.843144e-02 1.198096e+00 4.121359e-01 -9.959465e-01 1.336832e+00 4.960772e-01 -5.959222e-01 -1.032392e+00 -6.381375e-01 2.134438e-01 1.695670e-01 2.443158e-02 
8.002576e+00 -9.985338e+00 9.664974e+00 2.353138e+00 -1.234259e+01 -1.091174e+01 3.514941e+00 3.039747e-01 5.379585e+00 -1.809359e-02 -8.264292e+00 1.489246e+01 9.514286e-01 -3.389911e-01 -1.527443e-01 1.363881e+00 8.471369e-01 -1.852312e+00 1.641491e+00 -5.262207e-01 -9.411519e-01 -9.111557e-01 -8.526434e-01 9.657051e-01 2.465947e-01 3.853903e-02 
7.637378e+00 -9.381807e+00 1.029644e+01 5.439266e+00 -1.730060e+01 -7.141275e+00 1.157816e+00 -5.853736e-02 5.032776e+00 -8.873684e-01 -6.057731e+00 1.298694e+01 9.878668e-01 -6.710325e-01 6.687689e-01 1.434183e+00 1.105106e+00 -1.078603e+00 1.204882e+00 -5.619587e-01 -2.003856e+00 -1.230023e+00 -9.615959e-01 1.357578e+00 -5.551861e-01 2.312650e-02 
6.593136e+00 -7.555625e+00 1.209512e+01 5.937393e+00 -1.725402e+01 -8.039259e+00 1.081020e+00 -2.540298e+00 3.510920e+00 -1.215702e+00 -5.173794e+00 1.288438e+01 1.000000e+00 -1.130201e+00 1.781006e+00 1.510780e+00 7.624391e-01 -3.535572e-01 1.170300e+00 -3.630484e-01 -2.500890e+00 -1.629284e+00 -1.365112e+00 1.985392e+00 -1.729747e+00 4.667157e-03 
4.841489e+00 -5.142498e+00 1.365058e+01 5.892421e+00 -1.476492e+01 -8.082319e+00 1.003204e+00 -7.406434e+00 1.971165e+00 -2.821678e+00 -1.609304e+00 9.415485e+00 9.860088e-01 -1.344663e+00 2.247655e+00 1.547602e+00 2.805324e-01 5.078907e-02 1.580682e+00 -1.640258e-01 -2.293858e+00 -2.373554e+00 -2.380210e+00 2.193839e+00 -2.213302e+00 -8.252311e-03 
3.749514e+00 -3.199962e+00 1.554180e+01 5.938756e+00 -1.537821e+01 -4.589720e+00 1.777004e+00 -8.526525e+00 -1.236028e+00 -5.876500e+00 -5.615457e-01 8.029457e+00 9.756933e-01 -1.088590e+00 1.979518e+00 1.694791e+00 5.909386e-02 1.023924e-01 1.745017e+00 -6.603938e-01 -7.718922e-01 -3.061227e+00 -2.416861e+00 2.167693e+00 -3.213196e+00 -1.902840e-02 
2.335875e+00 -3.213655e-01 1.631111e+01 6.841247e+00 -1.798456e+01 -9.626350e-01 -1.030487e-02 -8.534714e+00 -4.461521e+00 -1.045802e+01 2.605337e+00 4.347896e+00 9.587585e-01 -7.809464e-01 1.670739e+00 2.098018e+00 -7.739347e-01 7.295578e-01 1.041709e+00 -5.022765e-01 1.639155e-01 -2.838261e+00 -1.382696e+00 9.462244e-01 -3.055954e+00 -2.854710e-02 
2.402995e+00 -6.860018e-02 1.923881e+01 5.758450e+00 -1.513224e+01 -2.874017e+00 -1.714194e+00 -5.835619e+00 -8.578872e+00 -9.481835e+00 3.557353e+00 -6.478075e-01 9.184831e-01 -7.309303e-01 1.766570e+00 2.167032e+00 -1.282877e+00 1.920102e+00 -1.543006e-01 -2.676346e-01 -7.322111e-02 -2.098432e+00 1.065765e-01 -2.557896e-01 -2.562156e+00 -3.959173e-02 
1.610016e+00 1.645518e+00 2.229217e+01 2.112900e+00 -1.124012e+01 -3.731627e+00 2.374215e-01 -7.932309e+00 -8.548718e+00 -7.932492e+00 1.062369e+00 -1.525653e+00 8.718784e-01 -5.706013e-01 1.716462e+00 2.194102e+00 -1.013600e+00 2.344425e+00 -5.087930e-01 6.416500e-01 -9.109415e-01 -1.752268e+00 1.334337e+00 -1.523100e+00 -1.457308e+00 -4.568370e-02 
4.577913e-01 4.649446e+00 2.338643e+01 1.888543e+00 -9.149923e+00 -3.976727e+00 3.149678e-01 -9.193832e+00 -9.684588e+00 -6.606380e+00 -1.069009e+00 -1.844549e+00 8.211747e-01 -3.227201e-01 1.619632e+00 1.610558e+00 -2.112665e-02 1.178808e+00 3.579283e-01 8.454971e-01 -1.229846e+00 -1.691928e+00 1.253227e+00 -1.241060e+00 -9.052395e-01 -4.904470e-02 
4.554701e-01 5.901920e+00 2.520781e+01 3.708200e+00 -9.253590e+00 -2.955245e+00 2.183364e+00 -1.141031e+01 -1.267000e+01 -5.224059e+00 -2.696983e+00 -2.340272e+00 7.789942e-01 3.208275e-01 7.243180e-01 1.242943e+00 1.041107e+00 3.419535e-01 2.574762e-01 3.016368e-01 -5.227532e-01 -9.656566e-01 8.897254e-01 -5.289197e-01 -1.206934e+00 -5.718543e-02 
1.366668e+00 5.901361e+00 2.583378e+01 4.855166e+00 -1.023147e+01 -1.472567e+00 1.540320e+00 -1.024585e+01 -1.497787e+01 -4.569918e+00 -7.682742e-01 -4.766695e+00 7.197018e-01 1.069596e+00 -1.336265e-02 4.679344e-01 1.235628e+00 1.552532e-01 -7.925563e-02 2.824885e-01 7.915581e-01 -1.299551e-01 2.751277e-01 -2.048573e-01 -1.059422e+00 -7.962134e-02 
2.759715e+00 4.641150e+00 2.728321e+01 5.835122e+00 -8.989580e+00 -3.696326e+00 1.132929e+00 -1.002007e+01 -1.073036e+01 -4.502097e+00 -1.732597e+00 -6.099249e+00 6.366878e-01 1.929993e+00 -2.305789e-01 -2.047141e+00 8.652941e-01 2.765545e+00 -7.663039e-01 -3.024680e-01 2.706076e+00 1.308313e+00 -4.390547e-01 -9.750617e-02 -6.088735e-01 -1.261882e-01 
4.653651e+00 5.213018e+00 2.468840e+01 7.003220e+00 -8.505663e+00 -4.002464e+00 2.252628e+00 -5.931166e+00 -1.130418e+01 -5.591723e+00 -2.575489e+00 -5.262170e+00 4.942213e-01 1.455498e+00 1.079024e+00 -4.606673e+00 2.082456e-01 5.632650e+00 7.259903e-01 -1.974620e-01 3.110750e+00 2.530880e+00 -3.464505e-01 -7.819542e-01 3.668317e-01 -1.784199e-01 
8.461946e+00 5.093196e+00 1.554479e+01 6.960644e+00 3.711234e+00 -5.521816e+00 3.148701e-01 -3.727579e-02 -7.965281e+00 -6.908430e+00 -2.280906e+00 -5.136902e+00 2.607934e-01 5.532749e-01 2.010608e+00 -5.525739e+00 2.779043e-01 6.087695e+00 2.480325e+00 1.898497e-01 2.419844e+00 2.906377e+00 -7.854945e-01 -3.620287e-01 1.835790e+00 -1.719285e-01 
5.793041e+00 1.107046e+01 8.669628e+00 5.333633e+00 1.158138e+01 3.070130e+00 9.620397e-01 3.165083e-01 -3.706006e+00 -5.099004e+00 -4.403891e+00 -3.413710e+00 1.554924e-02 -5.868894e-01 1.815431e+00 -3.695230e+00 3.078270e-03 4.340817e+00 3.991420e+00 -6.317561e-01 -7.125629e-01 3.527503e+00 3.802006e-01 -7.052268e-01 1.677377e+00 -1.224911e-01 
4.956394e+00 1.176547e+01 7.663899e+00 8.059437e+00 1.140538e+01 5.169003e+00 2.727472e+00 -1.044686e+00 2.431870e-03 -8.675929e+00 -2.628540e+00 2.155470e+00 1.638108e-02 -1.794340e+00 -1.900777e-01 -4.971813e-01 -6.525546e-01 -1.026147e-01 5.413122e+00 -2.535264e-01 -2.764529e+00 3.415377e+00 1.617920e+00 -1.112906e+00 7.937415e-01 -4.878551e-02 
3.471979e+00 1.095404e+01 1.015270e+01 6.469214e+00 9.351355e+00 1.060923e+01 -2.112453e+00 -8.990274e+00 2.349476e+00 -2.806971e+00 -5.927806e+00 -5.214725e-01 3.971756e-03 -1.670302e+00 -1.831151e+00 -6.586543e-01 -7.117341e-01 -7.924079e-01 2.544167e+00 -2.411938e-01 -1.098726e+00 1.862593e+00 1.708068e+00 1.895278e-01 -6.810443e-01 -2.263275e-02 
6.507778e-01 4.201018e+00 1.231735e+01 3.130080e+00 4.313171e+00 1.777424e+01 5.844849e-01 -9.206532e+00 6.083863e+00 3.515100e-02 -7.083478e+00 -2.614313e+00 2.265459e-02 -1.711726e+00 -1.951095e+00 -2.880836e+00 -2.294983e+00 -7.345015e-01 1.140593e-01 -6.913739e-01 1.147170e-01 -7.138532e-01 1.627133e+00 -9.877715e-02 -7.136861e-01 -2.604834e-02 
-4.056625e-01 5.696928e+00 3.049631e+00 4.239641e+00 1.116544e+01 9.488342e+00 8.275641e-01 -1.096198e+00 2.566243e+00 -9.142015e-01 -1.228782e+00 -4.434040e+00 -1.007513e-01 5.224466e-01 -1.416661e+00 -4.491157e+00 -4.224768e+00 -1.847481e+00 -2.514451e+00 -1.274441e+00 1.677378e+00 -2.524469e+00 9.513004e-01 1.993478e+00 -1.263252e-01 -4.920179e-03 
-1.663416e+00 4.638552e+00 -3.188746e+00 -2.300694e+00 6.825826e+00 6.299742e+00 -2.199406e+00 -4.418139e+00 -3.675218e+00 -1.486650e+00 -5.471937e+00 5.433233e-01 -6.149912e-02 2.562945e+00 -2.279540e-01 -3.530488e+00 -5.197644e+00 -2.534158e+00 -3.076849e+00 -2.333495e+00 -1.114902e-01 -3.789547e+00 1.664781e+00 3.309305e+00 3.700273e-02 3.720937e-02 
7.241309e+00 3.651967e+00 -4.550037e+00 -1.193924e+01 -1.142376e+00 3.774221e+00 -7.092715e+00 -2.997578e+00 -5.393327e+00 2.710432e+00 3.233815e+00 -2.731916e+00 2.144772e-02 2.478020e+00 6.947193e-01 -1.750983e-01 -2.254539e+00 -2.240683e+00 -2.398300e+00 -3.111126e+00 -1.894429e+00 -2.262250e+00 -4.532242e-02 1.393635e+00 -1.982983e-01 4.067501e-02 
9.642018e+00 4.083728e+00 -1.535255e+00 -1.476870e+01 -2.203710e+00 5.247060e+00 -7.122849e+00 -8.813293e+00 -8.884086e+00 6.546740e+00 7.231747e+00 -3.280361e+00 1.476020e-01 5.503858e-01 8.302405e-01 1.343420e+00 1.994475e+00 4.867334e-01 -2.201883e+00 -2.488703e+00 -7.753037e-01 -1.133991e+00 -1.516391e+00 5.696741e-01 -1.055032e+00 -3.645605e-03 
6.331721e+00 9.447936e+00 1.347394e+00 -7.990489e-01 4.476791e+00 -1.976817e+00 -1.226635e+01 -8.370765e+00 -6.140574e+00 -5.157509e+00 -6.124488e-01 -3.513689e+00 -1.926780e-03 -1.457885e+00 7.774172e-01 1.665959e-01 3.316226e+00 1.164353e+00 -1.068383e+00 5.915874e-01 9.101839e-01 4.241848e-03 -2.290780e+00 -1.829288e+00 2.002832e-01 -3.483655e-02 
1.543307e+00 5.891770e+00 5.796399e-01 2.101587e+00 6.449910e+00 -1.834157e+00 -1.205611e+01 -5.608065e+00 -8.971552e+00 -5.134637e+00 -7.004347e-01 -4.340950e+00 -6.803989e-02 4.753928e-01 -5.441961e-01 -9.456976e-01 2.893301e+00 -6.797485e-01 -1.642315e-01 3.438728e+00 1.993788e+00 -1.107359e+00 -1.137174e+00 -8.464259e-01 -5.705302e-01 6.622076e-05 
4.001238e+00 6.635032e+00 -4.774505e+00 -3.793254e+00 3.525772e-01 1.972916e+00 -1.668148e+00 -4.927218e-02 -5.328384e+00 -2.902777e+00 -1.946532e+00 -1.200206e+00 -4.491413e-02 1.449658e+00 -2.078108e+00 -4.422507e-01 1.486158e+00 -1.476461e+00 2.171901e-01 4.942056e+00 1.313180e+00 -2.195440e+00 1.133274e+00 8.512058e-01 -8.291642e-01 3.917830e-02 
1.318422e+01 2.769200e+00 -3.202793e+00 1.194904e+00 -3.540346e+00 2.451035e+00 4.771694e+00 -3.005098e+00 -1.482697e+01 -2.664951e-01 3.666659e+00 -7.289754e+00 1.694267e-01 3.629846e-01 -3.204313e+00 -7.366755e-01 1.733549e+00 -7.147552e-01 7.602285e-01 4.359203e+00 8.898495e-01 -5.097567e-01 9.567650e-01 -5.528504e-01 -2.181867e+00 3.687104e-02 
7.759553e+00 6.186818e-01 1.027357e+00 7.085080e+00 2.089616e+00 -3.033463e+00 4.030034e+00 -3.106347e+00 -1.419006e+01 -1.925209e+00 1.460033e+00 -6.185109e+00 7.523143e-02 -1.275726e+00 -4.013770e+00 -1.066750e+00 1.238451e+00 -6.329147e-01 5.623507e-03 7.979382e-01 -2.784514e-01 -6.067079e-01 -1.032756e+00 -1.108596e+00 -1.342090e+00 8.052814e-03 
1.479073e+00 -7.121621e+00 -6.004669e+00 5.330164e+00 2.007614e+00 4.470175e+00 6.890818e+00 3.697203e-01 -7.089497e+00 -8.395960e-01 -5.167969e+00 -1.275784e+01 5.624253e-02 -9.808077e-01 -2.131548e+00 -1.756002e+00 -3.302515e-01 5.987168e-01 -4.309759e-02 1.417089e-01 1.280463e+00 1.249603e+00 -1.566176e+00 -1.283442e+00 5.180176e-01 -1.689312e-02 
3.475185e+00 -8.488409e+00 -8.707315e+00 3.313713e-01 -5.585976e+00 9.914637e-01 1.261981e+00 -3.128938e+00 -1.223066e+01 -7.780005e+00 -3.072197e+00 -5.176614e+00 5.194205e-02 1.941623e+00 -1.489307e-01 -1.648508e+00 -6.387130e-01 5.899254e-01 1.198670e+00 7.227219e-01 1.612120e+00 9.713880e-01 -1.355336e+00 -3.695388e-01 5.529368e-01 2.014044e-02 
1.042237e+01 -3.334995e+00 -7.115467e+00 2.920501e+00 3.291034e+00 2.230844e-01 6.864265e+00 3.408511e+00 -9.558658e+00 -5.169978e+00 -4.844344e-01 -5.203914e+00 9.660584e-02 1.711385e+00 1.569480e+00 5.591538e-01 -1.145172e-01 1.049610e+00 -2.481430e-01 2.261136e-01 1.177866e+00 3.044595e-01 5.268532e-01 1.997754e+00 1.443387e+00 -1.002097e-03 
1.299602e+01 -2.019285e+00 -6.659785e+00 5.096347e+00 4.397532e+00 5.083430e+00 7.656919e+00 3.434859e+00 -8.098542e+00 -6.536696e+00 -2.729429e+00 -7.197386e+00 1.557520e-01 -8.026198e-01 9.345196e-01 5.436184e-01 -4.750862e-01 1.243538e+00 -9.487649e-02 -7.048766e-02 1.391862e+00 1.068180e+00 2.204290e+00 2.477747e+00 6.610404e-01 -2.677713e-02 
5.275578e+00 -2.508782e+00 -4.232666e+00 2.375090e+00 2.263911e+00 1.183477e+00 4.823916e+00 2.977150e+00 -7.633260e+00 1.173016e+00 4.649416e+00 -4.530514e+00 -6.729364e-04 -2.958580e+00 -5.152870e-01 2.526810e-01 -9.568025e-01 -4.873137e-01 3.360757e-01 -1.159816e+00 4.505665e-01 1.023394e+00 1.393241e+00 1.097851e+00 -9.615140e-02 -4.405360e-02 
2.035482e+00 -4.228917e+00 -7.430625e+00 -1.771354e+00 1.145275e+00 3.688514e-02 1.929717e+00 4.046053e+00 -7.852463e+00 6.995034e-02 6.749613e+00 -2.208111e+00 -3.330421e-02 -2.730174e+00 -5.117764e-01 -1.701758e-01 -1.486735e-01 -5.917368e-01 3.432159e-02 -1.228068e+00 5.413120e-01 7.523025e-01 1.027352e+00 -8.548854e-02 -9.702921e-03 -2.887416e-02 
1.109739e+00 -4.806614e+00 -5.466642e+00 1.570339e+00 2.480594e+00 4.426735e+00 3.928785e+00 5.355746e+00 -4.564729e+00 -1.507098e+00 2.652994e-01 -8.179308e+00 -2.913404e-02 -2.788542e-01 1.344984e-01 -1.878661e-01 8.973122e-02 -6.228442e-02 1.803658e-01 -3.046251e-01 2.391566e-01 9.172802e-01 -6.110743e-01 -2.296925e+00 -1.072506e+00 -8.696914e-04 
1.428068e+00 -3.429251e+00 -6.893676e+00 4.755355e+00 1.330507e+00 3.633408e+00 1.964145e+00 4.952121e+00 -5.871295e+00 -5.987835e-02 -9.648126e-01 -5.421503e+00 2.561176e-02 4.880503e-01 4.393418e-01 7.943169e-01 7.953540e-01 4.217416e-01 -3.926112e-01 7.771975e-01 3.027563e-01 2.404127e+00 9.198861e-01 -2.288033e+00 -2.106449e+00 3.890753e-04 
4.185015e+00 -2.236124e+00 -5.440471e+00 -4.396086e-01 1.859873e+00 2.870438e-01 3.283578e+00 3.719899e+00 -4.037442e+00 -1.817441e+00 -2.977997e+00 -8.286349e+00 -3.447938e-02 1.055205e-01 7.319613e-01 4.263350e-01 -1.918139e-01 4.314155e-01 -1.532634e+00 7.655352e-01 5.923474e-01 1.448356e+00 7.303357e-01 4.416241e-01 -7.254630e-01 -6.470752e-03 
2.938096e+00 -3.317453e+00 -3.472127e+00 3.210389e+00 3.564343e+00 1.436750e-01 6.138309e+00 6.377758e+00 3.904529e+00 4.824553e+00 -3.068902e+00 -1.268684e+01 -2.868617e-02 -3.440233e-01 7.090465e-01 7.349617e-01 -5.078711e-02 1.342532e+00 9.298196e-02 1.123024e+00 -7.573473e-01 -1.846529e-01 -4.840975e-01 1.117907e+00 -1.454830e-03 -1.793300e-02 
8.823280e-01 -1.202707e+00 -5.045742e+00 1.383752e+00 3.520754e+00 -1.491569e+00 5.669379e+00 7.604665e+00 -2.210860e+00 -2.976350e-01 3.525465e+00 -8.173956e+00 -3.433883e-02 -4.905147e-01 1.540554e-01 -6.001960e-01 -6.986332e-02 1.678279e+00 1.750721e+00 3.732111e-01 -1.512523e+00 -1.910208e+00 -1.076741e+00 7.553997e-02 6.538705e-01 -6.562161e-03 
1.359295e+00 -4.007270e-01 -3.416231e+00 3.589739e+00 7.212728e+00 4.987625e+00 6.386363e+00 -7.769983e-01 -7.707850e+00 -3.240269e+00 1.372991e+00 -5.484974e+00 -6.412351e-02 -2.187102e-01 4.209029e-01 -1.038423e+00 -1.037384e+00 1.047075e+00 1.732452e+00 9.853182e-02 -1.238981e+00 -9.351485e-01 -8.981056e-01 -6.642329e-01 1.612222e+00 -1.239103e-02 
2.521842e+00 -2.924210e+00 -8.469398e+00 -9.786000e-01 8.427077e+00 6.618676e+00 5.025606e+00 -2.653365e-01 -7.782296e+00 -3.168735e+00 -4.821244e+00 -8.617929e+00 -4.957151e-02 -4.958725e-03 1.749580e-01 -7.349522e-01 -8.743303e-01 4.785439e-01 1.224795e+00 3.133442e-01 -2.078771e-01 1.817308e+00 9.144263e-01 -1.507406e+00 8.621663e-01 -1.162738e-02 
1.024788e+00 -3.521868e-01 -6.952413e+00 -7.953534e-01 6.346558e+00 4.750811e+00 6.952854e+00 4.117853e+00 2.014504e+00 1.769575e+00 -2.216712e+00 -4.403741e+00 -8.302498e-02 -2.166068e-01 2.669103e-01 -5.555376e-01 -8.586938e-01 -3.812858e-01 -2.341493e-01 3.060231e-01 1.417289e+00 2.924151e+00 1.495800e+00 -4.574874e-01 6.376653e-01 -7.125640e-03 
