-1.156239e+01 2.725018e+00 -2.434716e+00 -7.039008e+00 5.394823e+00 8.748999e+00 1.321379e+00 -4.595313e+00 1.703014e+00 4.320864e+00 5.687111e+00 9.059803e+00 -1.512927e-01 3.638847e-01 7.104549e-01 1.046296e+00 5.116550e-01 -3.724197e-01 9.419417e-01 4.780526e-01 1.146488e+00 3.873436e-01 -1.445501e+00 -9.447731e-01 -1.170991e+00 4.001379e-04 
-9.978788e+00 3.321806e+00 -1.328253e+00 -5.397376e+00 4.513952e+00 1.106977e+01 3.840143e+00 -7.920126e-01 4.356760e+00 2.147442e+00 1.678849e+00 5.136525e+00 -1.512927e-01 2.057239e-01 5.130442e-01 7.911664e-01 4.024961e-01 -8.833107e-01 -4.352527e-01 -1.934760e-02 1.371937e+00 2.335110e-01 -1.380537e+00 6.247027e-02 2.707956e-01 2.000690e-04 
-1.053477e+01 5.978899e+00 2.243530e+00 -5.301548e+00 3.973160e+00 1.229832e+01 2.452260e+00 -7.645206e-01 2.312859e+00 -1.819930e+00 2.967376e+00 5.166486e+00 -1.492920e-01 8.925151e-01 -8.365729e-01 -7.955707e-01 4.714827e-01 -2.045592e+00 -2.245463e+00 -1.091547e+00 -6.470172e-01 -2.349724e-01 -1.023338e+00 -1.285102e+00 8.606510e-01 1.677287e-02 
-1.104758e+01 3.663299e+00 -8.180075e-01 -5.895257e+00 1.689101e+00 4.798074e+00 6.592009e-01 3.489754e-01 2.565647e+00 4.885753e-01 7.359330e+00 1.236044e+01 -1.512927e-01 4.298390e-01 -5.414170e-01 -9.107308e-01 2.064600e-01 -2.100167e+00 -3.126895e+00 -2.428931e+00 -1.403467e+00 -1.693581e+00 -9.698736e-01 -1.331628e+00 5.335108e-01 1.300910e-02 
-6.565417e+00 -1.628593e+00 -6.667693e+00 -4.432653e+00 -3.420713e+00 6.575346e-01 -2.545885e+00 -8.400892e+00 1.423708e+00 3.360580e-02 -3.578640e+00 9.751101e+00 -6.742835e-02 -2.684550e-01 -1.834921e-01 -1.303719e+00 -4.451898e-01 -9.428622e-01 -1.743141e+00 -1.522983e+00 -7.435956e-01 -1.567006e+00 -2.106752e-01 -1.161836e+00 -2.737958e-01 5.586958e-03 
-9.814268e+00 4.418467e+00 -1.426296e+00 -4.799522e+00 -2.289946e+00 1.255688e+00 -5.805440e+00 -3.991164e+00 -3.666568e+00 -3.628694e+00 -1.706281e+00 5.511771e+00 -1.271790e-01 -1.004875e+00 5.003513e-01 -3.455501e-01 -1.054432e+00 7.975902e-02 1.127451e-01 1.549294e-01 6.073453e-01 1.012999e-01 3.221557e-01 1.020844e+00 -9.840860e-01 -5.044842e-03 
-1.249370e+01 4.683855e+00 -3.970920e+00 -8.075364e+00 1.248373e+00 5.353806e+00 -1.930332e+00 -2.312429e+00 -2.406062e+00 -8.146718e-01 1.691002e+00 7.221840e+00 -1.334140e-01 -1.215989e+00 8.746281e-01 7.429976e-01 -7.274216e-01 1.553211e+00 1.318094e+00 1.667470e+00 2.823776e+00 1.320655e+00 1.144073e+00 3.341085e+00 -1.745718e-02 -1.840737e-02 
-1.310782e+01 3.008831e+00 -3.894144e+00 -9.346063e+00 -2.466466e-01 3.013664e+00 1.126072e+00 3.414699e-01 4.987031e+00 2.523493e+00 9.828728e+00 8.704639e+00 -1.435241e-01 -5.740701e-01 -1.592754e-01 6.306588e-01 -6.651421e-02 2.323606e+00 1.564498e+00 1.968889e+00 2.297075e+00 3.382142e+00 2.658271e+00 2.687669e+00 1.137307e+00 -5.101192e-03 
-1.099859e+01 3.449365e+00 -1.718780e+00 -5.796492e+00 3.323694e+00 6.369016e+00 2.325708e+00 3.551670e+00 3.700185e+00 2.677876e+00 7.359280e+00 8.067381e+00 -1.512927e-01 6.312847e-02 8.324833e-02 1.330960e+00 1.363582e+00 1.954671e+00 9.225048e-01 3.732758e-01 1.085854e+00 2.462489e+00 2.116756e+00 1.303377e+00 5.321261e-01 3.171909e-03 
-1.343217e+01 4.239335e+00 6.009283e-01 -6.271530e+00 8.290422e+00 8.570575e+00 1.910984e+00 4.562159e+00 1.019102e+01 7.916388e+00 8.897924e+00 1.077554e+01 -1.437457e-01 2.086053e-01 2.190186e-01 9.129322e-01 1.286345e+00 5.252826e-01 7.261893e-01 -4.857387e-01 -8.422724e-01 7.234718e-01 1.695179e+00 -2.959557e-01 -2.645348e-01 7.877874e-03 
-1.201588e+01 4.484844e+00 4.363420e-01 -2.794721e+00 6.753195e+00 7.187875e+00 -4.564092e-01 1.006497e+00 7.304387e+00 7.072662e+00 8.673290e+00 8.847022e+00 -1.174437e-01 1.098205e-01 1.369407e-01 4.052141e-01 2.049917e-01 -1.274977e+00 1.370133e+00 -5.995381e-01 -2.253987e+00 9.187452e-01 6.165580e-01 -1.437985e+00 3.187160e-01 1.436889e-02 
-1.155615e+01 3.586184e+00 -4.070442e-01 -4.415225e+00 6.650153e-01 6.235180e+00 8.843732e-02 -2.597305e+00 6.802289e+00 8.801994e+00 7.691944e+00 6.992145e+00 -1.210592e-01 6.806102e-01 4.203711e-01 -8.020744e-02 4.955228e-01 -1.654247e+00 8.294464e-01 -3.452241e-01 -2.402128e+00 -1.000004e+00 -2.432089e+00 -2.812817e+00 -1.828673e+00 1.845872e-03 
-1.138750e+01 4.460644e+00 8.112767e-01 -5.699686e+00 7.615132e-01 1.438738e+01 2.392907e-01 -4.138534e+00 9.988276e+00 5.317863e+00 7.723446e-01 1.155266e+01 -9.079146e-02 2.924262e-01 2.022358e-01 2.007564e-02 -1.549970e-01 -7.068658e-01 -1.885235e-01 1.301848e-01 -6.271221e-01 -6.411060e-01 -1.677615e+00 -2.650749e+00 -1.279737e+00 -9.448123e-03 
-1.034331e+01 6.353291e+00 1.242369e-02 -2.341434e+00 3.015028e+00 9.118054e+00 -1.629865e-01 -4.875964e+00 3.849056e+00 -3.366659e+00 -1.215686e+00 2.793531e-01 -1.478424e-01 5.052474e-01 7.579908e-01 5.891856e-01 6.011425e-01 1.000190e+00 -1.280072e+00 -9.633841e-02 5.342914e-01 -2.048689e+00 -2.885490e+00 -1.543142e+00 -3.740297e-01 -1.041709e-02 
-1.116017e+01 4.112471e+00 3.269862e-01 -4.606602e+00 2.043860e+00 4.803821e+00 3.202267e-01 -9.897845e-01 5.575473e+00 4.768914e+00 -1.266410e-01 5.804735e+00 -1.512927e-01 8.192951e-01 3.137961e-01 3.772804e-01 1.338256e+00 8.926045e-01 -2.259700e+00 -1.465755e+00 -2.242341e-01 -1.866969e+00 -1.721414e+00 1.418501e-01 -5.458654e-01 -9.402990e-03 
-9.143578e+00 7.550225e+00 2.781029e+00 -1.956055e+00 5.024791e+00 4.626601e+00 -4.337227e-01 -1.500223e+00 -1.234757e+00 -5.350978e+00 4.257264e-01 7.995957e+00 -1.428940e-01 8.022693e-01 -2.396930e-01 1.858354e-01 1.376181e+00 3.834193e-01 -1.729104e+00 -1.139824e+00 8.953595e-02 -3.542303e-01 2.167693e-01 -6.078714e-01 -1.542589e-01 7.195115e-03 
-7.890891e+00 5.431157e+00 1.313376e+00 7.989049e-01 4.219655e+00 5.334605e+00 -6.954119e+00 -6.947575e+00 3.195337e+00 -2.297047e+00 6.608887e-01 4.965028e+00 -1.402806e-01 8.685972e-01 -5.115057e-01 3.868032e-03 1.567443e+00 -3.865482e-01 -2.043623e+00 -1.789128e+00 -1.050247e-01 -6.774934e-01 -8.862559e-01 -8.650688e-01 -2.662104e+00 1.364809e-02 
-7.966602e+00 4.495482e+00 4.484055e-01 1.836721e+00 3.844227e+00 2.071400e-01 -2.224933e+00 -1.449389e+00 3.267973e+00 1.250168e+00 -4.648808e+00 -7.208824e-02 -1.173729e-01 3.446676e-01 -1.198720e+00 -2.184663e-01 7.906283e-01 -6.722213e-01 -2.614594e+00 -1.441737e+00 1.816746e+00 1.220914e+00 1.603210e+00 2.228374e-01 -2.027221e+00 1.893252e-02 
-7.405667e+00 3.082314e+00 1.512638e+00 1.334223e+00 7.014006e-01 -3.204563e+00 -7.729808e+00 -1.540324e+00 -6.335855e-02 -2.962939e+00 -1.914718e+00 -3.471761e+00 -9.581280e-02 1.093116e+00 1.203138e-02 9.466959e-01 1.489080e+00 9.006113e-01 -1.907455e+00 -7.827073e-01 2.588970e+00 4.938451e-01 7.282363e-01 1.517449e+00 -1.401991e-01 3.225569e-02 
-7.662851e+00 2.731046e+00 1.589067e+00 1.729428e+00 3.422811e+00 -4.176785e+00 -7.254564e+00 4.879882e+00 6.499161e+00 2.998018e+00 2.827717e+00 2.078246e+00 -7.046533e-02 3.138946e+00 1.207924e+00 2.301741e+00 3.352192e+00 2.005727e+00 -1.861552e+00 -1.016604e+00 1.949561e+00 8.918333e-03 -5.702416e-01 2.510454e+00 2.092309e-02 9.430901e-02 
-2.577188e+00 6.373532e+00 5.476525e+00 8.297949e+00 8.933419e+00 -2.010707e+00 -8.352839e+00 2.832640e+00 4.048969e+00 4.702098e-01 4.509870e+00 3.188865e+00 -2.455950e-03 4.983751e+00 1.083437e+00 2.534364e+00 4.642266e+00 1.449461e+00 -2.892328e+00 -7.066340e-01 5.992808e-01 -7.998337e-01 -3.519681e-01 1.742780e+00 -8.751575e-01 1.682678e-01 
5.313888e+00 8.889490e+00 9.975166e+00 1.511582e+01 9.756855e+00 -9.697546e+00 -6.996436e+00 6.111935e+00 1.256401e+00 -3.317614e+00 4.691170e+00 -3.297786e+00 3.074937e-01 5.200008e+00 -9.157270e-01 2.492227e+00 4.681781e+00 -1.486243e+00 -2.813338e+00 -7.079415e-01 -1.159728e+00 -2.471499e+00 -1.223878e+00 5.577961e-01 -2.326829e+00 2.024391e-01 
1.102472e+01 5.420279e+00 9.991406e+00 1.785236e+01 4.781685e+00 -1.490582e+01 -1.139204e+01 8.400532e-01 -1.441147e+00 -1.564963e+00 5.867455e+00 -5.159533e+00 5.565467e-01 3.153803e+00 -2.602065e+00 5.206720e-01 3.711870e-01 -5.169647e+00 4.929128e-01 -7.028492e-01 -1.051551e+00 -9.097996e-01 -3.357043e-01 2.824951e-01 -1.779881e+00 1.816894e-01 
1.153624e+01 -1.370963e+00 1.179276e+01 2.036113e+01 -1.932538e+00 -1.179591e+01 -9.274671e+00 7.753399e-02 -3.113275e+00 -2.103784e+00 4.937904e+00 -5.381699e+00 6.622288e-01 1.244081e+00 -3.218168e+00 -2.255204e+00 -3.353461e+00 -5.915252e+00 3.287989e+00 1.490782e+00 -1.385331e+00 -2.337434e-02 1.875315e+00 -1.132787e+00 6.511442e-01 1.025134e-01 
1.008065e+01 -1.506564e+00 7.171088e+00 7.531229e+00 -1.107012e+01 1.503041e+00 -1.072797e+01 5.920843e-01 1.684808e+00 -1.815226e+00 5.798978e+00 -4.668586e+00 7.286235e-01 1.008243e-01 -2.369847e+00 -4.166322e+00 -5.078706e+00 -3.709129e+00 4.995116e+00 4.512472e+00 -9.946175e-02 -3.474411e-01 2.542599e+00 -1.933154e+00 1.047947e+00 4.771048e-02 
1.200632e+01 -3.737930e+00 1.093061e-01 3.509079e+00 -1.189350e+01 -1.462031e+00 1.254380e-01 -6.907364e-01 -4.234490e-01 6.184094e+00 -9.385266e-01 -2.875381e-01 7.340224e-01 3.335532e-01 -1.867142e+00 -5.550866e+00 -4.980799e+00 1.203742e+00 1.900720e+00 5.976359e+00 -3.410965e-01 -4.333423e-01 2.493041e+00 -2.393436e+00 8.028997e-01 3.686021e-02 
1.129380e+01 -5.245473e+00 -4.998476e+00 8.848519e-01 -8.783474e+00 4.902814e+00 6.470262e+00 7.268797e-01 -4.523266e+00 7.004091e+00 -8.600993e-01 -2.466876e+00 7.592023e-01 4.288489e-01 -2.394321e+00 -4.736540e+00 -1.832338e+00 4.183937e+00 -3.161138e-01 4.793237e+00 -2.031516e-01 -1.639837e+00 2.442804e+00 -2.932869e+00 2.805033e-01 4.274413e-02 
1.259743e+01 -8.837219e+00 -9.876789e+00 -1.219676e+00 2.942849e+00 -3.992202e+00 1.200801e+01 -1.695346e+00 -2.175949e+00 5.951762e+00 -3.699734e+00 -2.468055e+00 8.312405e-01 2.932544e-01 -2.491568e+00 -2.741837e+00 -1.179538e+00 4.596786e+00 4.971614e-02 1.952311e+00 -5.571467e-01 -7.844113e-01 9.011091e-01 -1.726929e+00 -4.095874e-01 5.490705e-02 
1.192934e+01 -1.092852e+01 -1.151856e+01 7.339191e-01 2.431388e+00 1.187558e+00 7.296929e+00 7.863109e-02 -5.638124e+00 1.051496e+01 -7.484766e+00 -2.175811e+00 8.937351e-01 3.008313e-01 -2.638631e+00 -5.371904e-01 -1.018575e+00 2.993465e+00 1.822712e-01 2.514267e-02 -1.257674e+00 4.185963e-01 2.125659e-02 -5.437654e-01 -2.912539e-01 5.572559e-02 
1.315482e+01 -1.335424e+01 -1.033983e+01 -2.313147e+00 5.482996e+00 6.441779e-01 9.473658e+00 -3.152346e+00 -3.788076e+00 8.934206e+00 -6.260840e+00 -2.481008e+00 9.412912e-01 2.078442e-01 -2.070021e+00 3.483984e-01 -1.436563e-01 1.649619e-01 1.745934e+00 -6.600503e-01 -1.147088e+00 -2.505865e-02 -3.086202e-01 4.842714e-01 -1.157616e-01 4.164078e-02 
1.251926e+01 -1.618011e+01 -7.452906e+00 -3.661286e+00 4.913779e+00 3.495980e+00 7.863151e+00 -4.832990e+00 -1.624221e+00 5.619152e+00 -2.298373e+00 -3.916669e+00 9.828049e-01 3.831664e-01 -1.358296e+00 2.836943e-02 2.784167e-01 -2.209135e-01 5.287724e-01 2.163214e-01 -9.748205e-01 -2.182844e-01 -9.890547e-01 1.450724e+00 -6.069703e-01 2.661480e-02 
1.334170e+01 -1.656153e+01 -1.016763e+01 2.596445e-01 2.526463e+00 3.583260e+00 8.424646e+00 -4.974978e+00 -4.308194e+00 6.856564e+00 -3.871573e+00 -2.176434e+00 9.949095e-01 2.235875e-01 -3.695303e-01 -5.731562e-01 6.147627e-01 -3.287119e-01 3.419907e-01 -1.714825e-01 -1.118573e-01 -9.108434e-01 -3.195040e-01 6.216753e-01 -5.022635e-01 1.247647e-02 
1.375174e+01 -1.611636e+01 -1.146282e+01 8.396068e-01 2.805088e+00 2.361879e+00 8.903042e+00 -3.884155e+00 -6.469487e+00 6.608506e+00 -1.425777e+00 -5.362949e+00 1.000000e+00 2.995136e-01 2.298122e-01 -4.649405e-01 -6.768179e-02 6.139946e-02 1.625974e-02 -3.613805e-01 2.651110e-01 -1.152357e+00 4.640432e-01 -5.156709e-01 -4.120105e-01 1.863730e-03 
1.365652e+01 -1.523377e+01 -1.120066e+01 -1.489780e+00 4.893783e+00 2.921182e+00 8.096298e+00 -4.186050e+00 -5.919660e+00 6.842009e+00 -3.588762e+00 -4.269185e+00 9.950760e-01 1.181262e-01 3.817989e-01 2.247257e-01 -9.293741e-01 7.436306e-01 -4.041733e-01 -3.167148e-01 1.454108e-02 -5.452191e-01 4.033907e-01 -5.129133e-01 -8.108524e-01 -2.490425e-03 
1.385942e+01 -1.569493e+01 -9.261092e+00 -3.124983e+00 4.037117e+00 3.908317e+00 6.220422e+00 -3.901899e+00 -6.580274e+00 7.946645e+00 -5.018134e+00 -4.930346e+00 9.920403e-01 -2.730576e-01 6.716345e-01 1.738131e-01 -7.334080e-01 5.564600e-01 -2.284117e-01 -4.499858e-01 -4.296045e-01 2.383003e-02 3.241569e-01 -9.045766e-01 -2.381584e-01 -3.241509e-03 
1.387849e+01 -1.486325e+01 -1.014486e+01 -2.404932e+00 5.628602e+00 7.891741e-01 8.182383e+00 -4.893401e+00 -6.978896e+00 8.204448e+00 -4.639962e+00 -6.446998e+00 9.864372e-01 -3.515527e-01 5.133932e-01 -5.554056e-02 1.867868e-01 1.337157e-01 -7.844288e-01 -5.536027e-02 -4.794117e-01 8.228102e-02 -1.772763e-01 -2.166370e-01 -4.219096e-01 -1.734614e-04 
1.227547e+01 -1.294345e+01 -1.112165e+01 -2.369858e+00 5.219978e+00 2.285824e+00 6.610071e+00 -5.678503e+00 -5.820719e+00 7.548071e+00 -5.423060e+00 -5.464835e+00 9.881119e-01 -3.781873e-01 4.110510e-01 -5.643854e-02 1.945887e-01 3.551144e-01 -8.714523e-01 -1.537387e-01 -3.409134e-01 5.354252e-01 -9.637077e-01 3.375356e-01 -5.822247e-01 7.924080e-04 
1.269073e+01 -1.404255e+01 -1.054808e+01 -9.334087e-01 4.970930e+00 -1.897154e-01 7.624672e+00 -5.694807e+00 -5.888032e+00 6.154915e+00 -4.469484e+00 -6.111488e+00 9.961729e-01 -3.491222e-01 9.539566e-02 4.349012e-01 8.603854e-02 -2.526616e-01 -2.323662e-01 -6.302087e-01 -3.294379e-01 1.137377e+00 -1.513757e+00 2.216793e-01 -5.811915e-01 1.065630e-03 
1.256236e+01 -1.405003e+01 -9.341675e+00 -2.887801e+00 6.141524e+00 4.050016e-02 5.730583e+00 -5.205763e+00 -4.448580e+00 4.152873e+00 -3.415695e+00 -8.009224e+00 9.911345e-01 2.968836e-02 -2.307859e-01 6.015029e-01 5.152295e-01 -6.355868e-01 -8.288983e-01 3.013594e-01 -6.300070e-01 8.292837e-01 -8.121357e-01 -6.854476e-01 -4.332428e-01 1.883745e-04 
1.198943e+01 -1.383298e+01 -8.860343e+00 -1.715767e+00 3.904520e+00 7.500052e-01 5.471083e+00 -6.776960e+00 -1.978083e+00 2.333261e+00 -4.535248e+00 -8.080761e+00 9.902540e-01 -2.027939e-01 3.185291e-02 7.884647e-01 2.293775e-01 -5.721726e-01 -8.314101e-01 -8.767128e-02 1.831343e-01 1.058151e-01 -2.058832e-01 -1.195522e+00 -3.736489e-01 -3.205323e-03 
1.277456e+01 -1.420216e+01 -8.958007e+00 5.974689e-01 2.575249e+00 -2.328527e+00 9.193663e+00 -8.287460e+00 -3.629275e+00 5.398219e+00 -8.817415e+00 -6.646413e+00 9.920132e-01 -5.048258e-01 5.214197e-01 5.130545e-01 1.059742e+00 -1.305459e+00 -1.048639e+00 -5.583057e-01 1.423234e+00 -7.781705e-01 -4.489066e-01 -1.301805e+00 4.277592e-02 -8.371383e-03 
1.157066e+01 -1.380721e+01 -6.797592e+00 -1.529156e+00 3.893205e+00 -3.162251e+00 5.454776e+00 -3.238286e+00 -5.768609e+00 4.502826e+00 -7.746233e+00 -8.661139e+00 9.797069e-01 -8.136819e-01 1.458398e+00 4.163024e-01 7.593542e-01 -1.225670e+00 -9.248407e-01 -1.676381e+00 2.726045e+00 -9.906015e-01 -1.665516e+00 -5.558316e-01 2.406491e-01 -1.970931e-02 
1.024761e+01 -1.145581e+01 -7.807779e+00 2.317602e+00 -3.801141e-01 -3.246564e+00 2.947208e+00 1.410720e-01 -6.444169e+00 8.235579e-01 -8.319227e+00 -7.505156e+00 9.545511e-01 -7.689037e-01 2.355587e+00 7.781381e-01 -6.552438e-01 -5.819397e-01 -6.144120e-01 -2.711524e+00 2.966711e+00 -1.956568e-01 -3.505163e+00 2.570234e-01 9.565858e-01 -3.112839e-02 
9.184494e+00 -7.914167e+00 -7.353946e+00 1.220937e+00 -7.461472e-01 -3.415180e+00 2.124069e-01 2.638999e+00 -5.523643e+00 -3.706987e+00 -7.563500e+00 -6.448144e+00 9.104385e-01 -3.973044e-01 2.654995e+00 1.260991e+00 -8.248276e-01 -1.970639e+00 -1.594555e-01 -8.420358e-01 9.531889e-01 -5.975636e-01 -2.663483e+00 7.685105e-01 1.276052e+00 -3.442784e-02 
1.012312e+01 -5.370751e+00 -4.789140e+00 -4.053797e+00 1.985226e+00 -5.274123e+00 -1.742773e+00 3.607450e+00 -4.730042e+00 -8.022688e+00 -7.623665e+00 -2.969981e+00 8.710054e-01 -3.888583e-01 2.443640e+00 1.835341e+00 -8.792845e-01 -3.382759e+00 5.121746e-01 3.592488e-01 -7.720588e-01 -1.215781e+00 -9.540970e-01 1.426493e+00 1.218756e+00 -2.626448e-02 
9.646385e+00 -3.574768e+00 -2.001956e+00 -2.467595e+00 -7.142661e+00 -2.945749e+00 3.589588e+00 -2.055306e-01 -9.613491e+00 -4.391466e+00 -4.251462e+00 -4.548468e+00 8.493406e-01 -6.299113e-01 1.536939e+00 2.699274e+00 -2.980684e-01 -4.842873e+00 3.175023e-01 1.804359e+00 -1.621605e+00 -1.944892e+00 6.698163e-01 1.471676e+00 1.645319e+00 -8.889562e-03 
8.072378e+00 -1.407312e+00 -1.307069e+00 -2.345548e-01 -1.409565e+01 -9.204063e-01 3.054862e+00 -2.296957e+00 -1.047815e+01 -3.604687e+00 -2.842781e+00 -2.361212e+00 8.537777e-01 -7.966500e-01 6.246807e-01 3.127354e+00 5.292228e-01 -5.243805e+00 -6.839885e-01 2.195602e+00 -1.000854e+00 -1.367558e+00 6.562809e-01 1.279306e+00 2.077523e+00 2.388585e-03 
7.060309e+00 -2.211190e+00 4.401388e+00 -2.179026e+00 -1.692007e+01 -4.004527e+00 6.835384e+00 -2.516821e+00 -1.237405e+01 -2.566906e+00 -2.595564e+00 1.474065e+00 8.746046e-01 -6.680851e-01 -1.960544e-01 3.593811e+00 1.667833e-01 -3.186518e+00 -2.003129e+00 7.884269e-01 6.509885e-01 1.687804e-01 -2.790153e-02 1.666301e-01 2.748217e+00 4.224909e-03 
7.432911e+00 -2.929136e+00 7.645959e+00 -1.551967e+00 -1.934510e+01 -8.164677e+00 7.612337e+00 -2.411748e-01 -1.018755e+01 -5.653563e+00 -2.055083e+00 4.406368e+00 8.703163e-01 -4.194075e-01 -7.303942e-01 3.821948e+00 6.921198e-01 -2.048872e+00 -2.386161e+00 -6.640325e-01 2.595669e+00 1.489048e+00 -4.686672e-01 -4.509035e-01 1.932599e+00 -2.329058e-03 
6.625692e+00 -3.794128e+00 1.149058e+01 -9.749718e-01 -2.045053e+01 -9.339256e+00 5.252985e+00 2.021521e+00 -8.914886e+00 -3.506536e+00 -3.812161e+00 5.808825e+00 8.621958e-01 -8.131750e-02 -3.333679e-01 2.845346e+00 1.258733e+00 -1.113930e+00 -1.669829e+00 -1.703280e+00 2.755854e+00 2.823372e+00 -9.605252e-01 -7.034503e-01 1.628823e+00 -2.020164e-02 
6.192649e+00 -4.267814e+00 1.425807e+01 2.624017e+00 -2.257478e+01 -1.018384e+01 5.258994e-01 8.412216e+00 -4.762492e+00 -5.478209e+00 -4.489000e+00 5.134405e+00 8.483368e-01 5.115531e-01 -6.601109e-02 1.462711e+00 1.470926e+00 6.281254e-01 -6.887261e-01 -2.326327e+00 1.330160e+00 3.055598e+00 7.691119e-02 -8.165890e-01 1.056550e+00 -3.770020e-02 
7.273853e+00 -3.208691e+00 1.532206e+01 2.026649e+00 -2.087488e+01 -1.134409e+01 1.862201e+00 6.935753e+00 -9.697165e-01 -7.457209e+00 -4.895857e+00 9.254162e+00 7.845861e-01 1.279214e+00 7.848595e-01 -1.793153e-01 2.033006e+00 2.243755e+00 -3.863798e-01 -2.118828e+00 -1.874315e-01 1.533197e+00 -6.734535e-01 2.135689e+00 -1.129130e+00 -4.701497e-02 
9.666596e+00 -3.551910e+00 1.304377e+01 4.301853e+00 -1.599230e+01 -1.060589e+01 -2.323908e+00 3.952511e+00 1.117852e+00 -3.293671e+00 -5.596179e+00 7.966452e+00 7.206202e-01 1.427925e+00 1.594568e+00 -1.827557e+00 1.977487e+00 4.028243e+00 -1.138382e+00 -1.872211e+00 -7.553666e-01 -1.627907e-01 -5.445790e-02 4.394395e+00 -3.542270e+00 -4.483559e-02 
1.128479e+01 -2.277825e-01 1.120116e+01 8.351141e+00 -1.252300e+01 -1.106013e+01 -3.916251e+00 3.314216e+00 -4.189075e+00 -7.966072e+00 7.419874e+00 -1.252846e+00 6.909792e-01 8.184423e-01 1.356813e+00 -2.177161e+00 2.361053e+00 4.189176e+00 -1.554550e+00 -2.271631e+00 3.839408e-01 -8.635992e-01 4.330222e-01 4.810575e+00 -5.193477e+00 -3.077441e-02 
1.132681e+01 2.214571e+00 7.180743e+00 9.349205e+00 -6.609507e+00 -1.601773e+01 -5.945929e+00 6.446151e+00 -3.966767e+00 -5.496067e+00 1.132511e+01 -7.323442e+00 6.709623e-01 5.815234e-02 1.974553e+00 -1.557131e+00 1.136297e+00 2.814436e+00 -1.202846e+00 -8.279295e-01 1.042073e+00 -3.293849e-01 -1.575668e-01 3.475379e+00 -4.418922e+00 -2.238563e-02 
1.053596e+01 6.921320e-01 7.367771e+00 1.130824e+01 -4.620395e+00 -1.641092e+01 -7.684946e+00 7.608637e+00 -2.745403e+00 -4.190900e+00 1.069637e+01 -9.068273e+00 6.555430e-01 -1.476891e-01 1.317510e+00 -9.468975e-01 1.719144e-01 1.548440e+00 -2.720253e-01 2.654471e-01 1.014045e+00 9.047610e-01 5.547118e-01 -2.053068e-01 -2.400169e+00 -1.962533e-02 
1.033177e+01 5.860897e+00 7.174813e+00 8.504789e+00 -5.871415e+00 -1.394473e+01 -4.579208e+00 7.015664e+00 -1.250908e+00 -5.969091e+00 1.014246e+01 -1.022045e+01 6.264101e-01 -1.611712e-01 6.651452e-01 -1.510174e-01 -8.903961e-02 4.241411e-01 1.550970e+00 3.810984e-01 7.918540e-01 7.355711e-01 -2.540380e-01 -8.495687e-01 -1.068998e+00 -1.686618e-02 
1.104386e+01 4.536603e+00 6.469634e+00 9.632921e+00 -5.149845e+00 -1.345676e+01 -3.272376e+00 8.099687e+00 -1.023199e+00 -4.956001e+00 6.984664e+00 -1.180519e+01 6.151287e-01 -1.570268e-01 2.614405e-02 -3.205934e-01 9.431257e-02 1.080122e+00 1.793377e+00 -1.055868e-01 8.778898e-01 1.919500e-01 3.616053e-01 -7.428185e-01 -8.471146e-01 -1.597800e-02 
1.026700e+01 3.618061e+00 6.874724e+00 9.741665e+00 -4.224076e+00 -9.739959e+00 -6.246721e+00 1.015990e+01 -1.150013e+00 -6.383707e+00 8.933125e+00 -1.129997e+01 6.068386e-01 -3.509573e-01 -1.091290e+00 -4.659634e-02 8.637222e-01 2.045711e+00 2.194763e+00 -8.069139e-01 6.248752e-01 -1.612676e-01 5.525771e-01 -1.879471e-01 -7.922903e-01 -1.576580e-02 
9.783209e+00 1.944270e+00 5.914848e+00 1.116136e+01 -4.345369e-02 -9.546415e+00 -7.379124e+00 1.042597e+01 -1.836100e+00 -2.175566e+00 7.586952e+00 -1.276408e+01 5.854387e-01 -5.608634e-01 2.354815e-02 7.524677e-01 8.650896e-01 1.588696e+00 2.287664e+00 -9.497608e-01 -6.732818e-01 -7.820122e-01 -1.125228e-01 -4.111368e-01 -4.935799e-02 -2.198682e-02 
9.207311e+00 1.700613e+00 7.219224e+00 1.205918e+01 1.803943e+00 -4.926088e+00 -6.560404e+00 8.976899e+00 -1.650795e+00 -4.596423e+00 8.901585e+00 -1.370245e+01 5.624261e-01 -7.240387e-01 1.466049e+00 5.994431e-01 -9.301567e-02 1.515306e+00 2.433732e+00 3.869750e-01 -1.876175e+00 1.018686e-02 -3.537365e-01 -2.356701e+00 1.578901e-01 -4.029578e-02 
8.769388e+00 5.613068e+00 1.005972e+01 1.279961e+01 -2.203763e-01 -4.425372e+00 -7.864339e+00 5.324776e+00 -4.682869e+00 -6.412257e+00 4.944750e+00 -1.085074e+01 5.274009e-01 -1.414293e+00 1.815020e+00 2.637134e-01 -4.380893e-01 1.914206e+00 1.604173e+00 8.449799e-01 -1.534880e+00 1.276540e+00 -4.934332e-01 -3.369382e+00 5.668205e-01 -7.283683e-02 
7.153719e+00 9.113909e+00 7.799503e+00 8.457462e+00 3.440917e+00 -1.318212e-01 -4.069239e+00 3.329620e+00 3.243058e-01 -6.034044e+00 -1.529281e+00 -1.146720e+01 4.343786e-01 -2.536754e+00 9.874797e-01 -1.011295e+00 -1.127905e-01 2.870017e+00 1.032312e+00 1.243464e+00 -1.244032e+00 1.018834e+00 -1.884112e-02 -3.783640e+00 1.218829e+00 -1.184192e-01 
3.738542e+00 7.312722e+00 6.943276e+00 1.077177e+01 8.709089e+00 -3.922685e+00 -4.399807e+00 5.575209e+00 3.559051e+00 -3.923922e+00 -4.044523e+00 -1.104761e+01 2.852783e-01 -3.513932e+00 -5.982377e-01 -2.053483e+00 -1.185506e+00 1.989174e+00 1.664242e+00 2.133935e+00 -2.189440e-01 1.534198e+00 -1.088579e-01 -2.665363e+00 1.472459e+00 -1.506944e-01 
-9.610381e-01 5.788184e+00 3.720971e+00 1.250915e+01 1.168930e+01 -1.587105e-02 -2.075351e+00 2.631523e+00 -6.775851e-01 -5.934796e+00 -5.521978e+00 -7.509873e+00 9.139144e-02 -3.640711e+00 -1.834031e+00 -2.316839e+00 -1.636043e+00 1.591777e-01 1.375825e+00 9.539158e-01 -7.835931e-01 1.338184e-01 8.254975e-01 -7.479777e-01 2.343105e+00 -1.396802e-01 
-4.742894e+00 4.284742e+00 1.831572e+00 4.846240e+00 5.601304e+00 3.837863e+00 1.808394e+00 4.579104e+00 3.489066e+00 -7.006170e+00 -6.385717e+00 -5.467104e+00 -5.457771e-02 -2.601149e+00 -1.506378e+00 -2.816008e+00 -3.898099e+00 -2.231521e+00 6.302576e-01 -8.370296e-01 -2.390520e+00 1.072754e-01 1.344498e+00 8.026930e-01 2.398699e+00 -9.905001e-02 
-6.809120e+00 1.457744e+00 -1.228838e+00 3.240015e+00 5.790697e+00 2.867029e+00 -2.403760e+00 -9.029396e-02 1.028390e+00 -3.654316e-01 -4.098573e+00 -2.541922e+00 -9.409451e-02 -1.400477e+00 -6.180417e-01 -2.503450e+00 -3.651840e+00 -2.268651e+00 -1.141860e+00 -1.851985e+00 -1.803573e+00 7.500853e-01 7.845733e-01 1.954346e-01 1.663988e+00 -4.842321e-02 
-6.343163e+00 1.946050e+00 -4.661859e+00 -4.084158e+00 5.007844e-01 -2.212847e+00 -8.420751e+00 -5.016482e+00 3.242440e+00 1.388686e-02 -7.427607e-01 -1.538087e+00 -1.172287e-01 -8.199550e-01 8.034492e-03 -1.431095e+00 -2.535260e+00 -8.711681e-01 -1.316589e+00 -1.643265e+00 -1.765011e+00 5.946022e-01 1.167558e+00 -7.064595e-02 1.155844e+00 -2.187345e-02 
-7.163291e+00 3.867321e+00 -5.549566e+00 -1.284855e+00 2.896305e+00 -2.699816e+00 -6.220706e+00 -1.588548e+00 3.196155e+00 -5.521958e+00 -7.366283e+00 -1.154443e+00 -1.193991e-01 -6.484746e-01 6.814013e-01 -1.598841e-01 -2.147172e+00 -6.060029e-01 5.690539e-01 1.219579e+00 6.056497e-01 1.257530e+00 4.004646e-01 -2.329237e-01 1.648322e+00 -1.412991e-02 
-8.665584e+00 3.120126e+00 -3.163539e+00 -5.567627e+00 2.692660e+00 3.833818e-02 -4.499456e+00 -3.496822e+00 5.378195e+00 1.409884e+00 -5.105092e+00 -3.816209e-01 -1.512927e-01 -7.892401e-01 7.089849e-01 8.470699e-01 -1.074558e+00 -8.501627e-02 2.485095e+00 3.026979e+00 1.911755e+00 -4.552802e-01 -2.841931e-01 5.902878e-01 1.761922e+00 -7.464707e-03 
-8.890283e+00 4.277713e+00 -2.777419e+00 -6.754109e+00 1.664745e+00 4.586706e+00 1.733487e+00 2.178125e+00 6.248160e+00 9.388931e-01 -3.082026e+00 5.121457e+00 -1.477121e-01 -9.786380e-01 5.810629e-01 1.447030e+00 -8.950239e-01 -6.670026e-01 2.712519e+00 2.415561e+00 1.190656e+00 -8.034690e-01 1.114236e+00 2.700381e+00 1.835884e+00 -9.402990e-04 
-9.425867e+00 5.285779e+00 -1.812583e+00 -6.722319e+00 6.914829e-01 6.569366e+00 2.737048e+00 2.658956e+00 -5.599642e-01 -4.637504e+00 6.654978e-02 4.133576e+00 -1.403958e-01 -8.741638e-01 9.199915e-01 1.052178e+00 2.580067e-01 1.268979e-02 1.137983e+00 8.737189e-01 6.866996e-01 -2.802363e-01 1.987412e-01 1.471792e+00 1.584351e+00 5.986703e-03 
-1.167634e+01 5.689809e+00 1.010105e+00 -5.182629e+00 5.618804e-01 7.597266e+00 2.238847e+00 1.286842e+00 2.147889e+00 3.072916e+00 3.549802e+00 5.767377e+00 -1.295490e-01 -8.860908e-01 2.382278e-01 3.203894e-01 2.414536e-01 1.532137e-01 -3.824955e-01 -2.095489e-01 -1.208968e+00 -4.075320e-01 1.575030e-01 7.965628e-01 3.506373e-01 4.021323e-03 
-1.164337e+01 7.014035e+00 2.035920e-01 -5.063334e+00 3.307541e+00 4.222973e+00 -3.835411e-01 3.823172e-01 6.027150e+00 1.336578e+00 -1.062047e+00 7.217175e+00 -1.304407e-01 -3.719068e-01 4.855187e-02 3.278465e-01 1.702802e-01 4.324144e-01 -1.010992e+00 -8.549314e-01 -1.574357e+00 6.464953e-01 1.835479e-01 2.173143e-02 3.555967e-01 -2.163112e-03 
-1.221198e+01 4.604724e+00 -2.183559e+00 -6.376334e+00 1.122784e+00 3.847425e+00 2.246038e+00 -2.728397e+00 9.169436e-01 -1.260633e+00 1.465086e+00 5.332844e+00 -1.325830e-01 4.674759e-02 -2.274147e-01 -1.241467e-01 3.290991e-01 3.104599e-01 -5.020056e-01 -6.291301e-01 -4.285961e-01 -5.140927e-02 -8.875296e-01 -6.459411e-01 -2.619402e-02 -4.754698e-03 
-1.101758e+01 6.071081e+00 1.423482e+00 -5.274065e+00 2.573102e+00 3.389324e+00 -1.541204e+00 -3.205211e+00 3.287985e+00 -1.552990e+00 1.217565e+00 6.128826e+00 -1.496943e-01 1.313902e-01 -2.274111e-01 2.760984e-01 8.631959e-02 -4.873344e-01 -8.695952e-01 -4.846844e-01 5.139717e-01 -5.167633e-01 -6.491603e-01 -1.825702e-01 -2.890397e-02 -5.281663e-03 
-1.175550e+01 5.024213e+00 -2.205739e-01 -3.431767e+00 2.481399e+00 5.504062e+00 -3.279724e-01 9.376256e-01 3.260425e+00 8.005299e-02 -8.197093e-01 6.180581e+00 -1.436957e-01 1.902090e-01 6.753866e-02 2.387255e-01 4.279065e-01 -3.340587e-01 -1.082999e+00 -6.679125e-01 5.111108e-01 7.839235e-01 4.480349e-01 9.185865e-02 4.622305e-01 -3.901768e-03 
-1.121467e+01 5.667235e+00 6.025914e-01 -6.104020e+00 1.915617e-01 -9.533210e-01 -1.519958e+00 1.119164e+00 2.271592e+00 -2.579566e+00 -8.325000e-01 6.648787e+00 -1.512927e-01 2.113240e-01 -1.387687e-01 -2.572748e-01 3.177651e-01 2.970676e-01 -7.373436e-01 -2.096139e-01 1.631786e-01 1.272861e+00 1.048796e+00 1.638004e-01 2.317897e-01 -1.079369e-03 
-1.116239e+01 5.144340e+00 -5.794867e-01 -3.821824e+00 6.432614e-01 6.037512e-01 -1.104148e+00 -2.335031e+00 5.344758e+00 1.492830e+00 2.949412e+00 7.384016e+00 -1.512927e-01 2.438418e-01 -2.354496e-01 8.159039e-03 -2.112114e-01 -1.269526e-01 -1.674443e-01 4.696974e-01 4.486263e-01 8.236712e-01 9.865737e-01 6.764187e-01 1.356295e-02 -4.293203e-04 
-1.025751e+01 5.317173e+00 3.165638e-01 -3.490212e+00 4.977509e+00 2.152761e+00 -2.201186e+00 -7.529903e-01 8.610126e+00 2.984599e+00 1.520066e-01 6.686057e+00 -1.512927e-01 2.708025e-01 -1.041782e-02 -1.741193e-01 -3.241847e-01 -3.949887e-01 1.254539e+00 4.169274e-01 -5.335351e-01 -6.554083e-02 6.718118e-01 8.513194e-01 -1.617265e-01 1.165593e-03 
-1.101487e+01 4.021996e+00 -3.676492e-02 -5.794728e+00 -5.463378e-01 3.113799e+00 2.361129e+00 4.116834e+00 4.209515e+00 2.230839e+00 2.070131e+00 6.229761e+00 -1.458423e-01 1.135791e-01 -4.731989e-03 1.380252e-01 -1.042304e-01 -8.496517e-01 5.355581e-01 3.829185e-01 -7.086881e-01 -1.169575e+00 -1.347613e+00 -5.506800e-01 -4.454267e-01 2.636767e-03 
-9.934417e+00 6.176318e+00 -5.393659e-01 -6.738491e+00 -1.188582e+00 4.064349e+00 -1.167959e+00 -4.774444e+00 2.511509e+00 4.104885e-01 3.863738e+00 6.417282e+00 -1.481899e-01 1.000749e-01 -1.231817e-01 -4.806845e-01 -3.383800e-01 -6.310269e-01 5.995800e-01 4.694145e-01 -3.779897e-01 -6.294544e-01 -1.176755e+00 6.611892e-01 -6.794522e-01 9.511829e-04 
-1.075605e+01 4.691108e+00 5.386043e-01 -2.718837e+00 -5.219514e-01 2.325748e+00 2.938316e-01 -3.867745e+00 2.546189e+00 -3.958181e+00 -1.659854e+00 5.291270e+00 -1.396602e-01 4.661986e-01 -6.010919e-02 -7.423792e-01 -6.219349e-02 7.205216e-01 1.408456e-01 -7.498136e-01 -1.618283e+00 -2.530271e-01 -1.121940e+00 -8.137884e-01 -1.879331e+00 -1.233864e-03 
-9.886547e+00 4.366709e+00 -2.374543e+00 -6.720057e+00 1.810182e+00 5.544687e+00 1.179535e+00 1.349351e+00 6.294517e+00 1.953357e-01 5.322946e+00 3.758041e+00 -1.496278e-01 2.670743e-01 -2.183059e-01 -3.296392e-02 -3.974152e-03 3.631400e-01 -8.273674e-01 -1.785828e+00 -2.973832e-01 -2.670589e-01 -6.719184e-01 -4.087652e-01 -2.255769e+00 -1.783800e-03 
-8.707808e+00 4.626254e+00 -2.831073e+00 -6.114913e+00 1.556888e+00 3.077858e+00 -2.561687e+00 -7.036477e+00 1.052876e+00 -3.271287e+00 -2.728415e+00 -1.837273e+00 -1.512927e-01 3.520537e-01 2.817460e-01 4.314620e-01 3.879190e-01 5.996233e-01 1.093907e+00 -3.120790e-01 5.141181e-01 -4.823031e-02 -8.180835e-02 1.809167e-01 -9.708052e-01 -2.492976e-03 
-9.623164e+00 5.117215e+00 9.806528e-01 -5.060324e+00 -4.123025e-01 -4.485431e-01 -8.669338e+00 -4.676994e+00 1.922872e+00 -3.292551e+00 2.354192e+00 -1.297290e+00 -1.512927e-01 2.309254e-01 4.465724e-01 1.266343e+00 1.532995e+00 8.596929e-01 1.471478e+00 2.161159e-01 1.196711e+00 3.616776e-01 -6.386586e-02 -8.357921e-01 1.804140e-01 3.139567e-03 
-9.127469e+00 5.724585e+00 1.018316e+00 -1.609108e+00 3.587408e+00 1.079190e+01 3.657873e+00 1.716018e+00 4.490860e+00 -2.623280e+00 7.291057e-01 2.964910e+00 -1.512927e-01 -1.268568e-01 5.645806e-01 1.328014e+00 6.612798e-01 2.134504e-01 1.247190e+00 1.509536e+00 2.277726e+00 7.742678e-01 5.126360e-01 -5.844413e-01 7.311276e-01 4.283178e-03 
-8.522090e+00 6.050406e+00 2.032479e+00 -1.307987e+00 5.093387e+00 9.045059e+00 -8.496652e-01 2.956660e+00 6.383913e+00 -4.479972e-01 -5.847754e-01 2.259020e+00 -1.339300e-01 1.031135e-01 4.357971e-01 4.332188e-01 -3.939264e-02 -2.648916e-01 6.924743e-01 2.178869e+00 9.042336e-01 1.305741e+00 1.283133e+00 -1.267603e+00 6.279902e-01 2.229726e-03 
-9.892630e+00 6.982562e+00 3.283082e+00 -4.684682e+00 -1.287043e-01 4.567006e+00 1.076155e+00 5.353281e-01 2.693694e+00 -2.130384e+00 -4.181138e+00 4.021072e-02 -1.385581e-01 6.019783e-02 2.502061e-01 1.973980e-01 -6.632298e-01 -1.190432e+00 -1.225003e+00 4.081522e-01 -5.085139e-01 1.268484e+00 1.432456e+00 -5.459546e-01 1.726193e-01 -3.018618e-04 
-8.725017e+00 6.667212e+00 2.014364e+00 -3.719500e+00 1.212955e-01 6.126274e+00 3.515867e+00 4.345189e-01 9.350158e+00 2.876668e+00 -1.528703e+00 3.305011e+00 -1.465113e-01 7.617597e-02 9.182625e-02 -1.304949e-01 -3.857845e-01 -9.694183e-01 -4.278302e-01 1.117078e+00 -5.145091e-01 1.258896e+00 1.165638e+00 7.645788e-02 5.356782e-01 -3.311586e-03 
