2.837202e+00 3.169144e+00 -4.883664e+00 4.750318e+00 5.356960e+00 -6.395928e+00 1.636698e+00 3.694751e+00 -7.804585e-01 -8.923020e+00 -1.641855e+00 8.953797e+00 -1.512927e-01 -8.094215e-01 -2.716600e-01 -4.444579e-01 -8.724741e-01 -5.789161e-02 1.960756e+00 3.238960e-01 -1.486384e+00 1.111847e+00 1.984795e+00 1.509631e-02 -2.808869e+00 0.000000e+00 
2.392193e+00 2.968024e+00 -4.881176e+00 3.448470e+00 5.317958e+00 -1.764274e-02 5.088511e+00 2.826897e+00 -1.669883e+00 -8.410330e+00 -2.446844e+00 2.671590e+00 -1.512927e-01 -1.290559e+00 -4.462023e-01 -1.127216e+00 -1.612734e+00 -2.233546e-02 2.272602e+00 3.520283e-01 -1.957119e+00 1.209285e+00 2.514352e+00 7.511292e-02 -1.796167e+00 0.000000e+00 
-9.874010e-01 1.911404e+00 -7.107197e+00 1.038871e+00 5.087004e+00 2.187093e-01 1.530272e+00 -3.303242e+00 5.223489e+00 7.446095e-01 -1.163879e+00 -1.949443e+00 -1.512927e-01 -1.593480e+00 2.956150e-01 -7.170173e-01 -1.072797e+00 -1.239915e-01 2.014786e+00 1.023963e+00 1.212507e-01 2.462388e+00 2.723535e+00 5.076240e-01 -8.246870e-01 0.000000e+00 
-1.703293e+00 1.567002e+00 -9.407976e+00 -1.457628e+00 5.380261e+00 1.659765e+00 3.450053e+00 -2.591846e+00 2.263991e+00 -1.185076e+00 -1.505279e+00 5.424581e+00 -1.512927e-01 -1.110528e+00 7.056670e-01 -7.191896e-05 -4.209073e-01 5.290974e-01 8.268560e-01 1.038652e-01 1.180489e+00 2.404849e+00 2.421082e+00 1.086243e+00 9.665684e-02 0.000000e+00 
-3.082454e+00 5.347730e+00 -6.205350e+00 1.839383e+00 4.705851e+00 2.839298e+00 7.575742e+00 7.010375e+00 9.564544e+00 1.082027e+00 4.254817e-01 3.453867e+00 -1.512927e-01 -1.741951e-01 6.579088e-01 6.984752e-01 9.726750e-01 1.167964e+00 1.216047e+00 -4.019333e-01 1.024633e+00 7.083190e-01 7.892315e-01 1.396155e+00 8.939876e-02 0.000000e+00 
-2.112921e+00 4.778196e+00 -5.332459e+00 9.436769e-01 8.154021e+00 2.806343e+00 2.585102e+00 3.572535e+00 8.183834e+00 3.526372e+00 2.189689e+00 4.532193e-01 -1.512927e-01 1.460687e-01 2.429045e-01 1.118573e+00 1.863896e+00 1.704990e+00 2.041137e+00 4.685695e-01 8.282788e-01 1.529918e+00 1.670982e+00 1.387843e+00 -1.012072e+00 0.000000e+00 
-1.653563e+00 3.595351e+00 -5.652580e+00 4.701593e+00 9.539943e+00 5.725657e+00 -4.691839e-02 -1.262267e+00 5.805162e+00 2.335043e+00 3.969410e+00 9.832314e-01 -1.512927e-01 3.118944e-01 -3.964250e-01 6.240728e-01 1.164440e+00 1.594822e+00 1.259953e+00 1.227536e+00 -3.477325e-01 -5.413389e-02 1.226242e+00 1.106005e+00 -1.092780e+00 0.000000e+00 
-1.687395e+00 3.657714e+00 -4.091494e+00 6.430747e+00 1.148816e+01 1.042227e+01 9.604231e+00 5.685870e+00 1.179327e+01 6.543325e+00 3.661972e+00 1.599539e+00 -1.512927e-01 1.955586e-02 -1.312443e-01 6.316986e-01 1.617870e+00 -5.308321e-01 -3.629012e-01 1.451648e+00 -3.124577e-01 -8.654451e-01 2.008694e-01 1.091864e+00 1.879861e-02 0.000000e+00 
-1.735744e+00 3.925846e+00 -3.705468e+00 4.918046e+00 1.101289e+01 5.331099e+00 1.020386e+01 4.215045e+00 7.489155e+00 5.704762e+00 5.219367e+00 -2.583196e+00 -1.512927e-01 -5.126938e-01 -5.005814e-01 -1.459266e-01 -3.781551e-01 -1.838612e+00 -2.048213e+00 5.828619e-02 -6.871066e-01 -1.284663e+00 3.795685e-01 5.950713e-01 4.922950e-01 0.000000e+00 
-1.974051e+00 3.956727e+00 -3.147522e+00 8.924800e+00 4.763387e+00 1.189116e+00 4.717953e+00 -7.284102e-01 3.014612e+00 2.845860e+00 7.024031e+00 2.330426e+00 -1.512927e-01 -8.520159e-01 -9.166698e-01 -8.191606e-01 -1.116901e+00 -2.428968e+00 -2.275628e+00 -2.128686e+00 -2.198720e+00 -2.218418e+00 -8.040466e-01 3.658862e-01 1.481876e-01 0.000000e+00 
-4.073704e+00 9.429380e-01 -6.854198e+00 1.563791e+00 3.709272e+00 1.011672e-01 2.687652e+00 -1.490660e+00 3.771179e+00 6.081618e+00 5.263737e+00 3.079263e+00 -1.512927e-01 -1.411338e+00 -7.647991e-01 -3.849985e-01 -1.248603e-01 -1.984841e+00 -1.380673e+00 -1.764219e+00 -6.916436e-01 -1.263894e+00 -7.920750e-01 -9.581439e-01 1.006740e+00 2.231433e-02 
-4.778495e+00 5.658184e-01 -6.612932e+00 2.523371e+00 2.995132e+00 1.659096e+00 2.718903e+00 -2.454878e+00 2.560173e+00 2.334664e+00 5.469218e+00 -4.907516e-01 -1.512927e-01 -1.516915e+00 -8.883469e-01 -2.844860e-01 -1.660066e-01 6.793557e-01 -1.791800e+00 7.051004e-01 7.772093e-01 2.153188e+00 -9.732647e-01 -1.740199e+00 -1.058428e+00 2.561194e-02 
-7.390214e+00 1.797305e+00 -3.897756e+00 7.494459e+00 1.972814e+00 -1.807257e+00 2.382291e+00 1.620061e+00 1.396903e+00 1.999985e+00 1.206054e+00 3.861094e+00 -3.972101e-02 -9.573566e-01 -1.255253e-01 6.439043e-01 -5.181783e-01 8.904214e-01 -1.318201e+00 1.097094e+00 -3.858991e-02 1.414651e+00 -1.418531e+00 -1.169389e+00 7.493213e-01 7.227385e-03 
-7.900373e+00 -9.121903e-01 -6.048173e+00 5.129433e+00 9.028394e+00 -6.815675e+00 8.396135e+00 1.602276e+00 1.496769e+01 2.035266e-02 3.518755e-01 -3.352629e+00 -7.901883e-02 1.665592e-02 9.884036e-02 8.527604e-02 -1.790048e+00 5.397347e-01 -4.471957e-01 2.534600e-01 -1.293664e-01 1.471672e+00 -7.671142e-02 -1.211871e+00 8.489227e-01 -1.115717e-02 
-7.299548e+00 1.054316e+00 -3.917056e+00 -2.330131e+00 5.144748e+00 -2.252450e+00 5.334506e+00 -3.712186e+00 4.640673e+00 1.461198e-01 1.975463e+00 8.256808e+00 -1.512927e-01 9.377891e-01 2.239335e-01 -3.431431e-01 -1.699274e+00 -1.115645e-01 1.119953e+00 -7.223708e-01 -4.715764e-01 9.862305e-01 5.538782e-01 -4.618785e-01 3.351660e-01 -2.954172e-02 
-4.740548e+00 1.431515e+00 -6.176902e+00 -1.514574e+00 4.107839e+00 -3.542862e-01 2.510095e+00 -4.355857e-01 8.296646e+00 2.878040e+00 -9.748402e-01 1.556005e+00 -1.512927e-01 8.261662e-01 4.801631e-01 -1.352377e-01 -9.605647e-01 -1.234766e+00 1.490328e+00 -2.817952e+00 -5.567973e-01 -1.950359e-01 9.372058e-01 -4.045949e-01 5.213227e-01 -1.445477e-02 
-4.281180e+00 1.745120e+00 -5.549108e+00 2.320091e+00 3.875269e+00 5.618138e-01 1.713457e+00 2.811096e-01 9.663578e+00 3.340533e+00 -4.399805e-01 3.082607e+00 -1.512927e-01 3.468784e-01 3.273653e-02 -4.176544e-01 8.539238e-02 -4.581263e-02 -1.684891e-02 -1.513060e+00 -2.543092e-01 1.272635e+00 7.554509e-01 4.753435e-01 -4.638855e-01 0.000000e+00 
-5.278726e+00 1.143223e+00 -5.908336e+00 -1.998501e+00 3.489301e+00 -7.711655e-01 -3.883100e+00 -3.178359e+00 1.148106e+01 3.109175e+00 -4.633772e-01 1.841085e+00 -1.512927e-01 -2.488909e-01 -6.802173e-02 6.225827e-01 2.981640e-01 8.055191e-01 -8.227180e-01 1.735273e-01 1.907547e-01 -1.296823e-01 5.636939e-01 1.686206e+00 1.336785e+00 0.000000e+00 
-5.296067e+00 1.362144e+00 -6.139611e+00 -1.661206e+00 5.224954e+00 -2.128255e+00 9.658031e-01 -3.612346e+00 9.411638e+00 3.807807e+00 4.096448e+00 5.794841e+00 -1.512927e-01 9.076378e-01 -2.596678e+00 3.572304e+00 -4.804557e-01 -2.284113e+00 1.283316e-01 1.385965e+00 2.135291e+00 -2.012384e+00 -1.074292e-01 5.940722e-01 -1.491508e+00 7.443229e-02 
-5.477559e+00 1.282894e+00 -2.768736e+00 1.966894e+00 7.460591e+00 -3.122842e+00 3.751558e+00 2.464915e+00 7.774205e+00 5.462873e+00 5.187978e+00 6.883812e+00 -1.512927e-01 3.095046e+00 -4.145752e+00 5.043574e+00 -1.105512e+00 -5.345993e+00 6.037864e-01 8.719893e-01 3.438790e+00 -4.858737e+00 -5.260149e-01 -9.487184e-01 -3.116525e+00 2.215946e-01 
3.564253e-01 -1.130811e+01 1.074261e+01 -2.064886e+00 -9.530941e+00 2.379310e+00 4.825955e+00 8.135927e+00 1.455088e+00 1.626538e+00 -2.952969e-01 -6.896294e+00 2.208688e-01 4.406335e+00 -5.554060e+00 4.073575e+00 -2.879599e+00 -8.444265e+00 2.638451e-01 -2.653484e+00 3.451963e+00 -6.028816e+00 -1.794893e+00 -2.238990e+00 -4.605211e+00 3.119146e-01 
7.370258e+00 -1.325041e+01 1.086843e+01 -7.324221e+00 -1.586271e+01 -6.016135e-03 -1.453229e+00 8.141453e+00 -8.834349e+00 1.569735e+00 -3.011097e+00 -7.395971e+00 7.705997e-01 3.981864e+00 -4.766642e+00 2.448547e+00 -3.259210e+00 -8.390694e+00 7.373632e-01 -4.880679e+00 1.647650e+00 -5.492209e+00 -1.564685e+00 -1.882193e+00 -3.488967e+00 3.000808e-01 
1.031170e+01 -1.914150e+01 7.409684e+00 -1.141364e+01 -2.533472e+01 -2.367443e+00 -9.699223e+00 1.080920e+01 -1.242817e+01 -3.220090e+00 -2.998965e+00 -1.009132e+01 9.473339e-01 2.017946e+00 -1.936399e+00 -2.493699e-01 -1.829512e+00 -4.885299e+00 -3.203266e-01 -5.361365e+00 -4.473537e-01 -3.678701e+00 -1.206384e-01 -1.202028e+00 -3.187597e-01 1.685548e-01 
9.454126e+00 -1.863362e+01 1.114046e+01 -9.654778e+00 -2.659099e+01 2.937350e+00 -1.338925e+01 9.366529e+00 -1.274522e+01 6.276411e-02 -2.871156e+00 -8.963511e+00 9.858789e-01 2.915237e-01 -3.968126e-01 -2.362318e-02 -2.749961e-01 -2.228863e+00 6.262126e-02 -3.591016e+00 -1.370278e+00 -2.059572e+00 6.913359e-01 -1.063574e+00 1.080734e+00 3.745767e-02 
9.404222e+00 -1.829850e+01 9.359745e+00 -1.004717e+01 -2.859330e+01 -6.940061e-01 -1.601286e+01 5.286621e+00 -1.498298e+01 1.776832e+00 -6.375405e+00 -7.706323e+00 9.560030e-01 -6.579000e-01 7.349036e-01 3.697306e-01 2.545978e-01 -5.748451e-01 -3.535317e-01 -2.350821e+00 -3.126400e+00 -2.432319e+00 5.537237e-01 -1.180043e+00 1.613245e+00 7.300675e-03 
9.281616e+00 -1.565598e+01 9.775278e+00 -9.382437e+00 -2.537774e+01 -5.296282e-01 -1.625149e+01 4.051355e+00 -1.785480e+01 2.527954e+00 -6.640749e+00 -3.184803e+00 9.535536e-01 -3.261631e-01 1.193027e+00 -3.169298e-02 2.419812e-01 -2.774361e-01 -6.204544e-01 -1.568751e+00 -3.049906e+00 -2.204715e+00 2.824337e-02 -5.775536e-01 1.708699e+00 4.488045e-03 
7.108456e+00 -1.695580e+01 9.940929e+00 -1.027682e+01 -2.881557e+01 -2.401612e+00 -2.002221e+01 -2.165210e+00 -2.203497e+01 -1.684066e+00 -7.014386e+00 -4.914451e+00 1.000000e+00 -2.520845e-01 1.386427e+00 5.560390e-01 1.932325e-01 9.602127e-02 -2.096681e-01 -1.531124e+00 -2.942846e+00 -1.956042e+00 -1.837626e-01 2.011335e-01 1.240134e+00 5.062216e-03 
8.971193e+00 -1.333983e+01 1.069141e+01 -8.330046e+00 -2.786703e+01 6.888810e-01 -1.922833e+01 -2.157083e+00 -2.024280e+01 1.934430e+00 -5.439434e+00 -1.815949e+00 9.863207e-01 -4.138986e-01 1.377009e+00 2.892829e-01 -2.042263e-01 -3.399979e-01 -1.265622e+00 -1.915267e+00 -3.563258e+00 -1.650571e+00 -5.512850e-01 -1.503600e-01 -2.736259e-01 -8.846069e-03 
8.299010e+00 -1.252443e+01 1.168188e+01 -9.607203e+00 -2.686855e+01 -2.351601e+00 -2.218006e+01 -6.323389e+00 -2.356919e+01 1.154781e+00 -5.970395e+00 -2.190078e+00 9.649305e-01 -5.220877e-01 1.963660e+00 9.316517e-01 3.069870e-01 3.065491e-01 -3.430899e-01 -1.044713e+00 -2.242084e+00 1.011388e+00 -1.804209e-03 -1.530360e-01 -4.984909e-01 -2.616706e-02 
6.616846e+00 -1.098662e+01 1.035122e+01 -1.073838e+01 -2.805124e+01 -6.882742e+00 -2.474890e+01 -1.168585e+01 -2.534054e+01 -1.647895e+00 -7.914544e+00 -5.915118e+00 9.268579e-01 -8.575174e-01 1.826334e+00 1.764852e+00 3.996496e-01 8.231613e-01 7.967767e-01 -5.242521e-01 -6.042444e-01 2.378735e+00 1.955090e-01 -4.561944e-01 -5.461802e-01 -2.969378e-02 
5.675191e+00 -8.314108e+00 1.476928e+01 -7.537722e+00 -2.719072e+01 -3.312495e-01 -2.248549e+01 -8.611249e+00 -1.442916e+01 9.807551e-02 -6.542010e+00 -5.357321e+00 8.988960e-01 -6.251988e-01 1.584439e+00 2.131068e+00 3.369340e-01 1.092809e+00 1.361119e+00 -2.742102e-01 9.607244e-01 3.038934e+00 1.211128e+00 -8.914865e-01 -2.842501e-01 -3.260481e-02 
5.995516e+00 -6.313326e+00 1.797196e+01 -7.366538e+00 -2.359014e+01 3.662589e+00 -2.169688e+01 -4.034375e+00 -1.291914e+01 3.440328e+00 -7.434598e+00 -2.963229e+00 8.708690e-01 1.658640e-02 1.830040e+00 2.260915e+00 -6.155596e-02 2.035225e+00 1.379589e+00 -8.132038e-02 2.675852e+00 2.744272e+00 2.476702e+00 -3.729518e-01 3.341904e-01 -4.374708e-02 
5.483681e+00 -6.938886e+00 1.852684e+01 -9.608453e+00 -2.363505e+01 -8.186725e-01 -2.507712e+01 -5.345504e+00 -1.458522e+01 4.666310e+00 -1.066780e+01 -5.087273e+00 8.299009e-01 2.153805e-01 2.441118e+00 1.491287e+00 -2.065825e-01 2.507472e+00 1.368878e+00 -2.095266e-01 1.345312e+00 -1.251907e-02 1.577924e+00 -9.500234e-01 1.017974e+00 -6.230135e-02 
6.795533e+00 -2.524033e+00 1.977702e+01 -1.001079e+01 -1.965295e+01 2.589130e-01 -2.385968e+01 6.053686e-02 -1.154115e+01 8.451501e+00 -7.716408e+00 -4.379190e+00 7.426201e-01 1.867096e-01 3.130761e+00 1.037564e+00 6.240167e-02 2.178001e+00 2.044533e-01 1.575888e+00 -3.360465e-01 9.006830e-01 7.666417e-01 -3.290945e-01 2.809962e-01 -1.014138e-01 
6.352086e+00 1.996834e+00 2.132319e+01 -7.248507e+00 -1.662196e+01 8.214978e+00 -2.245172e+01 -3.932146e+00 -1.518075e+01 5.482109e+00 -1.115122e+01 4.405286e-01 6.515138e-01 -1.988770e-01 3.081325e+00 -1.807662e+00 1.703418e+00 4.084699e+00 3.833061e-01 4.454443e+00 -1.949907e+00 1.850869e+00 -7.682279e-01 1.597118e+00 5.104461e-01 -1.968094e-01 
6.494862e+00 4.872621e+00 2.176161e+01 -8.234503e+00 -1.620668e+01 1.680295e-01 -1.513014e+01 -6.421286e+00 -8.117964e+00 6.865637e+00 -8.838360e+00 -4.322149e+00 4.529938e-01 -1.545120e+00 1.522983e+00 -5.991105e-01 2.731851e+00 2.393993e+00 -5.087022e-01 3.099422e+00 -1.091170e+00 2.702021e-01 -4.824929e-01 1.724791e+00 -5.399141e-02 -1.449145e-01 
4.639632e+00 4.769410e+00 8.496233e+00 -1.979507e+00 -4.934690e+00 1.143300e+00 -7.169680e+00 -1.185413e+01 -7.042470e+00 1.618102e+00 -2.121236e+00 -2.563563e+00 -9.333014e-03 -1.215522e+00 5.523280e-01 -5.514072e-01 2.418213e+00 1.924737e+00 -6.812842e-01 2.133211e+00 1.958552e-01 -2.544880e-01 7.984586e-02 2.041893e+00 -9.613739e-01 -1.124893e-01 
-7.383823e-02 3.704597e+00 2.319494e+01 1.013962e+00 -1.352662e+01 1.251241e+00 -1.600359e+01 -1.434321e+00 -1.425928e+01 7.971040e+00 -3.607446e+00 -3.147101e+00 3.484712e-01 -7.266223e-01 8.562771e-01 -3.380488e+00 3.538566e+00 3.827190e+00 -7.353359e-01 1.641525e+00 3.324924e-01 1.555028e+00 -1.489364e+00 7.410743e-01 1.237898e-01 -1.057911e-01 
3.558827e+00 5.342486e+00 1.784949e+01 2.183274e-01 -8.338306e+00 4.266951e+00 -1.134894e+01 -5.446352e+00 -1.338253e+01 5.328637e+00 -3.557216e+00 -4.953865e+00 1.413285e-01 -1.274509e-01 1.268383e+00 -3.502188e+00 1.732653e+00 4.550571e+00 -9.450651e-01 3.858900e-02 9.229611e-01 2.946871e+00 -2.381739e+00 6.733769e-01 -2.195790e-01 -7.836832e-02 
3.402152e+00 8.867468e+00 1.825418e-01 8.359412e+00 4.631079e+00 -5.070476e+00 -4.832882e+00 -7.962711e+00 2.827208e+00 -2.436449e+00 -4.414998e+00 -2.508049e+00 -1.512927e-01 -5.029104e-01 5.938342e-01 -6.574754e+00 1.183741e+00 5.844674e+00 1.583045e-01 1.962027e+00 -8.903780e-01 2.570639e+00 -3.724253e+00 1.619244e+00 -1.371191e-01 -1.292149e-01 
2.264382e+00 8.529888e+00 2.491492e+00 3.011031e+00 8.739317e+00 -4.211673e-01 -1.256209e+01 -3.975125e+00 -8.513598e-01 -5.086847e+00 1.649424e+00 -3.980985e+00 -1.512927e-01 -2.180805e+00 -1.170624e+00 -4.432202e+00 1.881752e-01 2.744365e+00 2.593191e-01 2.664971e+00 1.343750e+00 2.076446e+00 -1.456320e+00 1.575981e+00 5.602350e-01 -5.852424e-02 
-1.941168e+00 5.080067e+00 -1.999827e+00 5.536318e+00 7.157940e+00 4.386823e+00 -5.586881e+00 -6.621824e+00 -7.671669e+00 -5.442483e+00 1.885454e+00 -4.319137e+00 -1.512927e-01 -2.266472e+00 -2.852228e+00 -6.336339e-01 -1.222862e-01 -8.550779e-01 6.338876e-01 4.073709e+00 1.611333e+00 2.230254e-01 1.256994e+00 1.090515e+00 2.361352e-01 0.000000e+00 
-4.673537e+00 1.383068e+00 -3.220338e+00 2.570751e+00 4.120086e+00 8.348969e-01 2.352913e+00 6.019535e-01 2.249140e+00 -4.499456e-01 1.172460e+00 -1.247146e+00 -1.512927e-01 -1.672110e+00 -2.171427e+00 -1.108573e+00 7.309340e-01 -3.103598e-01 -6.841047e-01 3.880660e+00 8.082666e-02 2.579909e+00 2.845942e+00 1.298570e+00 1.537812e+00 0.000000e+00 
-4.461247e+00 -1.820262e+00 -1.297126e-01 7.968122e+00 2.665305e+00 -2.529070e+00 8.078163e+00 -2.194582e+00 2.392085e+00 1.530071e+00 1.276062e+00 -2.694292e+00 -1.512927e-01 -5.481743e-01 -7.855272e-01 -7.190830e-01 -3.577828e-01 4.843584e-01 -1.518747e+00 1.457458e+00 3.142412e-01 3.847275e+00 2.062748e+00 4.023164e-01 2.097642e+00 0.000000e+00 
-4.836129e+00 1.122914e+00 -3.986428e+00 5.449800e+00 9.433836e+00 -3.837445e-01 8.689880e-03 -5.784613e+00 7.016310e+00 5.656585e+00 8.446972e+00 2.895653e+00 -1.512927e-01 5.387640e-01 -7.937615e-01 -1.446789e+00 -1.692729e+00 7.538754e-01 -7.837764e-01 -8.154600e-01 -5.768957e-01 2.354760e-01 -5.919812e-02 -4.390604e-01 4.240233e-01 8.425492e-02 
-4.600743e+00 1.282508e+00 -5.212197e+00 2.307879e+00 6.922858e+00 -2.597593e+00 2.872519e+00 -1.857335e+00 9.181120e+00 1.817994e+00 2.597803e-01 4.097676e+00 -1.512927e-01 -3.875709e-01 3.567653e-02 -2.415633e+00 -3.238503e+00 1.519197e-01 -7.133305e-01 -1.279871e+00 -7.273622e-02 -1.234408e+00 -1.128689e+00 -1.043575e+00 -7.395267e-02 2.397215e-01 
-1.909969e+00 -4.137124e+00 -7.913041e+00 -3.062772e+00 5.760686e+00 -3.049724e+00 8.784351e-01 -2.451149e+00 3.200197e-02 -8.898973e-01 -5.147004e-01 -2.523013e+00 2.699819e-01 -1.920487e+00 8.401628e-01 -1.281883e+00 -2.514607e+00 -1.436243e+00 -1.714688e+00 3.459248e-01 4.837250e-01 -1.564728e+00 -2.281839e+00 -9.186087e-01 -3.610359e-01 3.185531e-01 
-7.862182e+00 9.881400e-01 -1.024457e+01 -3.968107e+00 5.261477e+00 -4.762733e+00 1.243937e+00 -4.224995e+00 -2.878013e-01 -8.401318e-01 5.390253e-01 -3.547220e-01 8.366774e-01 -3.607867e+00 1.136651e+00 2.240705e-02 -6.835201e-01 -9.575189e-01 -1.398867e+00 1.710271e+00 3.623561e-01 -1.253329e+00 -1.404414e+00 1.525470e+00 -7.930596e-01 2.731615e-01 
-1.280785e+01 5.470912e+00 -7.879656e+00 -3.985244e+00 3.083311e+00 -7.874614e+00 2.552605e+00 -2.182158e+00 3.927129e+00 -4.423550e+00 3.714306e+00 3.316673e+00 9.474880e-01 -3.648604e+00 7.248540e-01 1.206823e+00 -3.304080e-01 -1.152383e+00 -7.654952e-01 2.827494e+00 1.943593e+00 1.205605e+00 -2.305163e-01 1.973411e+00 6.887021e-02 1.182333e-01 
-1.719114e+01 2.161744e+00 -5.116854e+00 -6.484848e-01 3.473951e+00 -7.179482e+00 1.058679e+01 -1.800498e-01 9.669142e-01 -3.437250e+00 5.772627e+00 -2.787466e+00 8.757616e-01 -1.530344e+00 -1.447097e+00 1.347199e+00 -6.654935e-01 -5.754926e-01 2.625284e-01 2.272472e+00 2.889830e+00 7.137633e-01 5.693917e-02 1.176334e+00 -7.134292e-01 -1.686350e-02 
-1.548851e+01 -1.099656e+00 -4.442785e+00 -6.374623e+00 8.925333e-01 -5.668826e+00 1.034448e+01 5.244342e+00 5.432669e+00 -7.439197e-01 6.735553e+00 -9.622904e-01 8.416063e-01 4.938942e-01 -2.652773e+00 9.554094e-01 -5.790229e-02 -2.520393e-01 1.901872e-01 8.777712e-02 1.351890e+00 -6.103436e-01 1.096467e+00 8.174812e-01 2.600830e-01 -5.560223e-02 
-1.417357e+01 -2.962063e+00 -5.227012e+00 -6.100885e+00 3.479403e+00 -4.552985e+00 8.710360e+00 6.510905e+00 2.528245e+00 -2.395251e+00 4.910073e+00 -1.782386e+00 8.053007e-01 2.155303e+00 -1.666848e+00 3.739629e-01 -5.455237e-02 -1.350920e-01 -7.248492e-01 -1.720220e+00 1.504743e-01 -1.351148e+00 -3.841240e-01 1.763882e-01 1.281814e+00 -6.099579e-02 
-1.184716e+01 -5.231050e+00 -3.047530e+00 -1.548555e+00 1.820388e+00 -8.236926e+00 3.929705e+00 1.231816e+00 9.474516e-02 5.377862e-01 8.232989e+00 4.114549e+00 7.047073e-01 2.725584e+00 -1.121614e+00 2.946036e-01 8.431953e-01 -1.875462e-01 -1.058879e+00 -1.321709e+00 -1.816466e+00 -1.199395e+00 -4.059648e-01 -4.795979e-01 1.664092e+00 -8.121790e-02 
-8.235301e+00 -4.106797e+00 -3.944667e+00 -3.334281e+00 2.334564e+00 -9.519677e+00 5.193076e+00 2.578584e+00 -3.119862e+00 -5.998723e+00 5.905850e+00 1.083187e+00 6.392322e-01 3.331984e+00 -5.104853e-01 1.732492e-01 4.446462e-01 5.400462e-01 -1.359495e-01 -4.155545e-01 -1.013808e+00 4.006757e-01 4.418719e-02 -1.619498e-01 1.615918e+00 -1.001842e-01 
-4.829726e+00 -6.135356e+00 -3.610940e+00 -3.541949e+00 5.272222e-01 -8.479876e+00 5.494577e+00 -1.871829e+00 2.259745e+00 -9.720075e-01 3.839675e+00 5.925382e+00 5.185511e-01 3.145044e+00 -5.312141e-01 -2.762009e-01 -1.227731e-01 5.566324e-01 1.157638e+00 7.718023e-01 8.716853e-01 9.261814e-01 -6.220334e-01 -1.375546e+00 9.584705e-01 -9.788544e-02 
-1.022364e+00 -5.062336e+00 -4.079061e+00 -2.880958e+00 6.826217e+00 -5.111258e+00 5.850151e+00 2.993689e+00 3.449124e+00 -1.419418e+00 6.296981e+00 5.391788e+00 3.974577e-01 2.509461e+00 -9.399006e-01 -1.030542e-01 -4.632554e-02 9.744884e-01 1.306864e+00 1.073206e+00 2.013635e+00 1.675479e+00 -1.668363e+00 -7.927108e-01 1.438557e+00 -8.442432e-02 
2.715893e-01 -7.409351e+00 -4.361338e+00 -2.389082e+00 2.357723e+00 -4.652944e+00 7.460178e+00 5.382690e+00 1.441159e+00 -4.862033e+00 1.159693e+00 6.752600e+00 3.361673e-01 1.962926e+00 -3.476277e-01 1.461305e-01 -4.636126e-01 1.455261e-01 -2.145365e-01 1.241767e+00 1.205059e+00 -3.219563e-01 -9.370188e-01 -4.564453e-01 -1.070947e-01 -7.444800e-02 
1.761346e+00 -8.169304e+00 -4.084739e+00 -4.142342e+00 6.291756e+00 -4.898824e+00 9.576304e+00 9.019499e+00 5.666827e+00 -1.239552e+01 3.282287e+00 7.862363e+00 3.083025e-01 1.606363e+00 4.222453e-01 3.152673e-01 -3.512889e-01 -1.272859e+00 -1.334365e+00 2.897041e-01 3.849367e-01 -4.597620e-01 5.991940e-01 -4.121016e-02 -8.162095e-01 -6.839935e-02 
3.593049e+00 -6.320012e+00 -2.877449e+00 -5.229321e+00 1.522084e+00 -9.658775e+00 9.840337e+00 1.140562e+00 -4.588881e-01 -1.690483e-01 3.064796e+00 4.154621e+00 1.908887e-01 1.311693e+00 1.255127e+00 1.788038e-01 4.908163e-01 -1.103869e+00 -1.029462e+00 -3.746491e-01 3.600997e-01 1.472535e-01 1.596045e+00 5.174607e-01 -9.042214e-01 -6.717990e-02 
5.348722e+00 -3.495780e+00 -3.244669e+00 -3.217283e+00 8.797407e-01 -9.280168e+00 6.108593e+00 7.039437e+00 2.100338e+00 -7.699398e-01 5.138379e+00 2.609731e+00 1.281002e-01 6.432913e-01 1.259245e+00 -8.845078e-01 4.014859e-01 -6.000196e-01 1.162931e+00 -5.432385e-01 1.729566e-01 9.414216e-01 2.485586e+00 1.134604e+00 4.974218e-01 -7.679620e-02 
5.036368e+00 -3.470477e+00 -3.887353e+00 -3.975300e-01 -4.556141e-01 -7.609581e+00 7.320788e+00 8.173220e+00 3.960671e+00 -2.694600e+00 2.818951e+00 4.857809e+00 9.036893e-02 1.694198e-01 1.351451e+00 -2.109066e+00 4.761774e-01 6.665649e-01 3.275112e+00 5.785284e-01 1.469963e+00 2.492761e+00 1.228249e-01 2.020547e-01 3.061643e-01 -8.378816e-02 
4.256143e+00 -3.297848e+00 -8.002325e+00 -4.550808e+00 4.280507e+00 -1.087668e-01 8.119886e+00 6.367953e+00 8.164155e+00 1.295180e+00 9.078230e+00 9.997878e+00 -2.541864e-02 -4.607916e-01 1.933589e+00 -1.185310e+00 -2.706527e-02 2.161506e-01 3.031773e+00 4.417987e-01 -8.846503e-01 6.395377e-01 -5.094597e-01 -8.738257e-01 -1.205483e+00 -8.004474e-02 
4.986437e+00 3.382792e-01 -1.104395e+01 -2.181671e+00 3.154525e+00 2.131082e+00 1.172733e+01 8.826120e+00 8.973009e+00 -5.874841e-01 2.105145e+00 1.991369e+00 -1.512927e-01 -6.417308e-01 2.735545e+00 1.344512e-01 6.877899e-01 5.163928e-01 1.507236e+00 -1.037260e+00 -2.709543e+00 -3.921713e-01 -9.883209e-02 -1.450307e+00 -2.145297e+00 -6.091972e-02 
3.069729e+00 4.267787e+00 -5.592920e+00 -2.460539e+00 1.554241e-01 1.008367e+00 6.114314e+00 2.289735e+00 2.791857e+00 -4.370796e+00 1.126154e+00 -1.984466e+00 -1.512927e-01 -8.127401e-01 2.592695e+00 1.810217e+00 2.023452e+00 1.840509e-01 -2.502111e-01 -1.390820e+00 -2.496798e+00 -8.151970e-01 -1.589353e-01 -2.263604e+00 -2.774531e+00 -2.517481e-02 
2.420921e+00 6.424428e+00 -4.419800e+00 1.996285e+00 4.188891e+00 -6.319653e-01 3.137276e+00 -3.335385e+00 4.685964e+00 -3.557718e-01 -4.565435e-01 1.224958e-01 -1.512927e-01 -1.259312e+00 1.124781e+00 1.203268e+00 1.340104e+00 1.012394e+00 2.619599e-01 -1.948469e+00 -3.161382e+00 -1.034983e+00 1.672429e-01 -1.024350e+00 -1.915399e+00 0.000000e+00 
1.475200e+00 6.622550e+00 -2.263315e+00 3.477474e+00 4.683578e+00 2.170157e-02 5.460815e+00 -3.528595e-02 6.231693e+00 3.846477e-01 -9.589443e-01 -2.940341e+00 -1.512927e-01 -1.336437e+00 -5.668501e-01 -7.348806e-01 8.183610e-01 1.320822e+00 5.281681e-01 -2.914043e-01 -3.361351e-01 -1.269366e-01 9.029077e-01 1.871181e-02 -9.473292e-01 0.000000e+00 
-5.128603e-01 4.784805e+00 -6.692415e+00 1.549845e+00 5.952417e+00 3.934214e+00 2.311735e+00 -5.818278e+00 2.078175e+00 -2.128991e+00 -1.974055e+00 -7.107690e+00 -1.512927e-01 -1.127455e+00 -1.189275e+00 -6.869981e-01 1.297037e-01 5.404326e-01 5.684678e-01 1.740747e-01 1.661362e+00 1.066165e-01 -5.002050e-02 4.831332e-01 -5.887241e-01 0.000000e+00 
-2.145567e+00 2.253347e+00 -8.131016e+00 1.854486e+00 5.877769e+00 1.366118e+00 5.070063e+00 1.850506e+00 3.461069e+00 1.030353e+00 1.978468e+00 -3.106019e+00 -1.512927e-01 -5.664347e-01 -6.200266e-01 -2.017000e-01 -2.644366e-01 1.014914e-01 4.625868e-01 1.447312e-01 1.100577e+00 -4.129600e-01 -5.500094e-01 -3.891201e-02 6.254939e-01 0.000000e+00 
-1.405971e+00 2.662656e+00 -4.920940e+00 3.456298e+00 6.293958e+00 1.538165e+00 4.203026e+00 4.028529e+00 6.604359e+00 -9.287270e-01 4.904161e-01 -2.738286e+00 -1.512927e-01 -1.466472e-01 -2.399268e-01 1.323828e+00 1.667355e+00 3.361631e-01 -1.219809e+00 7.732476e-01 1.496392e+00 4.118265e-01 -2.798119e-01 -3.785639e-01 1.805206e+00 0.000000e+00 
-9.104185e-01 4.583492e+00 -4.157553e+00 1.202064e+00 5.020265e+00 3.532660e+00 5.238826e+00 5.441959e-01 1.903801e+00 -2.965532e+00 -2.385740e+00 -1.997573e+00 -1.512927e-01 4.728507e-01 2.077124e-01 8.715866e-01 1.080689e+00 8.006589e-01 2.163104e-01 9.852581e-01 -1.517659e-01 7.774346e-02 -2.427575e-01 1.975407e-01 1.891764e+00 0.000000e+00 
-1.863670e+00 2.420099e+00 -2.060010e+00 1.021283e+01 8.061985e+00 -3.248101e+00 6.093592e+00 2.316834e+00 4.915941e+00 -1.530108e+00 -1.684771e+00 1.364115e+00 -1.512927e-01 2.956069e-01 3.618749e-01 3.642589e-01 1.077029e+00 1.120539e+00 9.560595e-01 8.900675e-01 -5.556414e-01 -6.854296e-03 -1.896203e-01 5.388438e-01 1.944238e+00 0.000000e+00 
4.475365e-01 3.413188e+00 -5.203547e+00 3.879664e+00 8.997050e+00 4.840803e+00 9.051071e+00 1.947524e+00 4.693995e+00 1.172563e-01 4.053765e+00 4.301599e+00 -1.512927e-01 3.802121e-01 9.956169e-01 1.087678e+00 1.127175e+00 1.197041e+00 4.304911e-01 -7.035586e-01 -1.576996e+00 6.493672e-01 4.180949e-01 7.306477e-02 3.209092e-01 0.000000e+00 
-6.069136e-01 5.057182e+00 -2.576648e+00 7.502645e+00 9.908260e+00 5.664391e+00 6.747241e+00 5.486579e-01 5.174990e+00 -3.418223e+00 -3.511757e-02 3.833317e+00 -1.512927e-01 5.851571e-01 1.842531e+00 1.934705e+00 2.031579e-01 2.832643e-01 1.127179e+00 -1.289177e+00 -1.760072e+00 -1.222298e+00 -9.549859e-01 2.279388e-01 -2.918518e-01 0.000000e+00 
3.622637e-01 8.243034e+00 1.539155e+00 8.193030e+00 1.008233e+01 1.228869e+00 1.394208e+00 -6.456696e+00 5.021113e+00 6.900012e-02 -2.845243e+00 -1.627628e+00 -1.512927e-01 1.302938e-01 1.119717e+00 1.643142e+00 1.011089e+00 2.748579e-01 3.513480e-01 -1.740442e-01 -6.670545e-01 -7.850895e-01 -1.667373e+00 -1.067220e+00 -4.433782e-01 0.000000e+00 
1.104752e+00 9.217829e+00 4.242166e+00 9.071936e+00 8.935665e+00 4.193758e+00 3.476139e+00 -2.281416e+00 -1.359107e+00 -6.280910e+00 2.904427e+00 2.869469e+00 -1.512927e-01 5.368067e-01 2.528478e-01 3.827817e-02 -2.222585e-01 2.562720e-01 1.136779e+00 1.030207e+00 8.119928e-01 7.005829e-01 -4.882816e-01 -4.606923e-01 -3.276817e-01 0.000000e+00 
2.431726e-01 6.931451e+00 -3.972471e-01 8.150462e+00 1.085764e+01 7.332859e+00 9.816401e+00 2.728844e-02 4.035595e+00 -6.788266e+00 -2.752109e+00 2.566632e+00 -1.512927e-01 4.301458e-01 -5.109186e-01 -8.970625e-01 -8.051395e-01 2.605606e-02 6.895968e-01 1.643948e+00 1.007555e+00 1.265566e-01 4.777405e-01 -1.667091e-01 -1.328720e-01 0.000000e+00 
2.136665e+00 6.977213e+00 -1.417056e+00 6.412637e+00 1.080197e+01 8.296293e+00 7.687180e+00 1.366630e+00 9.170664e+00 -2.430998e+00 -2.385146e+00 9.777819e-02 -1.512927e-01 2.879741e-01 -4.802453e-01 -1.395013e+00 -7.753359e-01 8.520504e-01 -3.608703e-01 1.360761e-01 -4.054426e-01 1.024380e+00 1.608534e+00 -2.704246e-01 -3.615890e-01 0.000000e+00 
1.997036e+00 6.808750e+00 -1.165462e-01 5.496983e+00 9.279463e+00 2.625586e+00 7.508430e+00 -3.242941e+00 3.890109e-01 5.327465e-01 -1.034002e+00 -9.061427e-01 -1.512927e-01 2.810974e-02 -2.665149e-01 -3.161988e-01 1.852169e-02 7.836116e-01 2.132015e-01 -8.790936e-01 -9.429908e-01 -4.070400e-01 1.255128e+00 1.002158e+00 1.241850e+00 0.000000e+00 
1.667690e+00 6.877954e+00 -2.873250e+00 6.521996e+00 1.398500e+01 4.743043e+00 5.310505e+00 -2.673514e+00 5.586084e+00 -1.898749e+00 6.932503e-01 2.797912e+00 -1.512927e-01 -5.271845e-02 5.171790e-02 -3.096794e-01 4.001278e-01 1.402761e+00 1.398876e+00 -1.809550e-01 -3.034013e-01 -1.452093e+00 8.341073e-01 1.284641e+00 1.581486e+00 0.000000e+00 
6.182089e-01 5.648507e+00 -1.250144e+00 8.188391e+00 1.318418e+01 1.017549e+01 6.609269e+00 -2.667593e+00 3.792686e+00 -7.787521e-01 7.194805e-01 7.425816e+00 -1.512927e-01 5.514951e-01 2.940276e-01 -5.658545e-01 -2.187316e-01 -1.044301e-01 2.578498e-01 -6.361033e-01 8.493062e-01 3.251053e-01 8.735711e-01 9.965094e-01 5.974814e-01 0.000000e+00 
2.562487e+00 7.815924e+00 -2.398654e+00 7.067572e+00 1.586342e+01 1.151572e+01 7.231985e+00 -4.380502e-01 2.083597e-01 2.395288e+00 3.161318e+00 3.839226e+00 -1.512927e-01 1.059937e+00 7.408847e-01 5.363027e-01 -5.640193e-01 -2.085563e+00 -1.162078e+00 -1.101585e+00 7.121309e-02 -6.816995e-02 6.836847e-01 -1.687237e-01 -1.373132e+00 0.000000e+00 
4.307113e+00 7.809903e+00 -3.183117e+00 4.130537e+00 7.818105e+00 5.284967e-01 3.367174e+00 -1.141419e-01 4.703400e+00 2.753584e+00 2.714512e+00 1.560607e+00 -1.512927e-01 9.825649e-01 8.357550e-01 7.866186e-01 -8.839098e-01 -2.465749e+00 -1.307153e+00 1.428693e+00 1.219135e+00 1.033945e-01 -7.785373e-01 -1.122008e+00 -2.446295e+00 0.000000e+00 
5.122923e+00 9.501678e+00 7.747502e-01 5.730826e+00 6.240227e+00 3.756148e+00 1.423629e+00 -3.594174e+00 4.789877e+00 -2.464933e-01 -1.147884e+00 -1.135145e+00 -1.512927e-01 4.314320e-01 2.333138e-01 4.156179e-01 -1.497574e-02 -1.035866e+00 -2.210686e-01 1.390319e-01 2.560852e-01 9.241004e-02 -2.309588e+00 -2.584960e+00 -2.606106e+00 0.000000e+00 
4.250815e+00 8.984404e+00 1.096247e+00 4.437214e+00 5.667027e+00 7.519512e+00 1.665691e+01 5.006142e+00 2.018899e+00 -3.350548e+00 -2.735958e+00 -2.318472e+00 -1.512927e-01 5.062375e-02 6.424236e-03 -1.789256e-01 6.526163e-01 1.340244e+00 1.593147e+00 -4.311155e-01 -1.330840e-01 -8.158695e-01 -2.356244e+00 -2.539587e+00 -2.374135e+00 0.000000e+00 
4.747796e+00 8.395243e+00 -2.460247e+00 6.839355e+00 1.175963e+01 6.914870e+00 1.282274e+00 -1.717766e+00 2.012660e+00 -6.100587e+00 -7.038244e+00 -7.251761e+00 -1.512927e-01 -2.532744e-02 -2.802035e-01 -1.002649e+00 4.619196e-01 1.713140e+00 5.712801e-01 -1.565735e+00 -2.971092e-01 -5.560672e-01 -1.445823e+00 -1.608301e+00 -1.716652e+00 0.000000e+00 
