-4.597267e+00 4.191284e-01 -1.223196e+00 -3.599264e+00 1.024223e+00 -1.681542e+00 7.246971e-03 3.291074e+00 6.741493e-01 3.487792e+00 2.450256e+00 1.704505e+00 -3.277576e-02 5.259869e-01 4.226665e-01 -3.396261e-01 7.693110e-01 -7.743855e-02 -2.586805e-01 -5.168794e-01 -9.304171e-01 -1.649824e-01 -1.263497e+00 -1.914206e+00 -5.568371e-01 2.795553e-03 
-4.085548e+00 -1.034043e-01 -3.306177e+00 -2.750144e+00 1.528751e+00 -1.354872e+00 -1.971477e+00 -1.579827e+00 2.167439e-02 1.396030e+00 -2.005031e+00 2.179752e+00 -2.390754e-02 5.885023e-01 9.007107e-01 -6.062977e-02 3.564131e-01 1.447184e-01 -6.797413e-01 -1.401496e+00 -2.825382e-01 4.719947e-02 -1.577055e+00 -2.090510e+00 -1.144468e+00 3.147817e-03 
-2.223192e+00 2.793728e+00 -1.879836e+00 -1.772695e-01 3.847666e-01 -3.138279e+00 -1.587788e+00 1.074439e+00 1.754746e-01 -1.783810e+00 -4.893131e+00 -1.317303e+00 -2.323210e-02 3.530994e-01 6.995219e-01 6.569952e-01 1.085695e+00 2.808504e-01 -1.124553e+00 -1.107563e+00 -5.793219e-01 2.335957e-01 -3.742269e-01 -1.187231e+00 -8.433294e-01 8.218765e-04 
-2.841793e+00 3.735382e+00 -1.198025e+00 -3.528196e+00 2.067544e+00 -4.351880e+00 -6.202717e+00 2.986700e+00 1.159484e+00 -1.761681e+00 -4.330603e+00 -2.506931e+00 -2.180851e-02 3.095571e-01 4.169440e-01 8.168381e-01 8.746473e-01 -2.198729e-02 -1.281032e+00 -7.856584e-01 7.764168e-02 4.271689e-01 5.981700e-01 3.553303e-01 -4.850725e-02 1.090097e-03 
-3.453648e+00 1.997345e+00 1.007705e+00 2.218235e+00 2.159079e+00 -5.805804e+00 -3.414949e+00 -1.888799e+00 1.273223e+00 3.195513e+00 -2.323113e+00 -1.688007e-01 -2.971590e-02 1.921780e-01 -8.707533e-02 5.852958e-01 3.367565e-01 1.416584e-01 -6.800944e-01 -8.980230e-01 -6.964936e-01 -1.331706e-01 1.520740e+00 1.564192e+00 1.165146e-01 -9.070516e-04 
-1.922535e+00 2.379507e+00 -6.657559e-01 4.253414e-01 5.316584e-01 -6.426268e+00 -4.986189e+00 2.900004e-01 1.608645e+00 1.897218e+00 -1.513388e+00 1.362964e+00 -1.521516e-02 -9.820671e-02 -2.213940e-01 4.104875e-01 6.099892e-01 -1.663965e-01 8.415583e-01 8.233724e-01 -6.708791e-01 -1.208326e+00 2.145646e-01 3.104656e-01 4.348088e-01 5.494237e-04 
-1.721931e+00 3.036288e+00 7.805091e-01 -4.702556e-01 1.861001e+00 -5.501557e+00 -6.686168e+00 -1.059679e+00 -7.149589e-01 3.990442e+00 1.519222e+00 -2.669678e+00 -3.106403e-02 -2.122066e-01 1.930304e-01 -2.293381e-01 -4.919839e-01 -2.230789e-01 1.722247e+00 7.665510e-01 1.610981e-01 -1.175104e+00 -1.376155e+00 -4.528898e-01 -3.526286e-01 5.626440e-04 
-4.198685e+00 2.108940e+00 9.680103e-01 8.659945e-01 1.384600e+00 -2.962118e-01 -4.502456e-01 -7.822554e-01 -3.888053e+00 -1.086322e+00 -4.699442e+00 9.175516e-01 -1.838732e-02 -2.802868e-01 -6.273880e-02 -2.618810e-02 2.722878e-02 -3.888140e-01 1.267485e+00 8.470867e-01 -1.253194e+00 -1.905844e+00 -1.876874e+00 -4.042784e-01 -1.745021e-01 -1.959026e-03 
-3.376606e+00 3.097780e+00 -9.558688e-01 -4.620116e-01 6.172136e-01 -2.595986e-01 -1.850166e+00 -5.471804e-01 -1.853948e+00 -2.193492e+00 -2.994535e+00 -1.709237e+00 -2.531660e-02 4.531097e-02 1.085267e-01 1.144264e-01 -4.251802e-02 -8.273109e-01 1.613876e-01 -3.725018e-01 -8.355507e-01 -1.142680e+00 -2.039528e+00 2.551975e-02 6.668901e-01 1.910138e-03 
-2.496632e+00 2.035067e+00 7.149255e-02 5.573633e-01 -7.905178e-01 -2.709824e+00 -3.168756e+00 -6.232221e+00 -7.351082e+00 -4.395182e+00 -1.277902e+00 1.023334e-02 -2.788401e-02 1.957529e-01 1.763049e-01 5.584073e-01 1.957772e-02 1.372089e-01 -1.695609e-01 -9.368343e-01 -9.449558e-01 -1.625450e-01 -8.030690e-01 5.388027e-01 7.205099e-01 5.950928e-05 
-2.346403e+00 3.615858e+00 1.800900e+00 -5.285301e-01 -1.187994e+00 -3.487813e+00 -7.189422e+00 -2.512450e+00 -4.696844e+00 -4.552766e+00 -6.394964e-02 1.118432e+00 -1.676500e-02 -3.269958e-02 -3.639201e-01 3.990222e-01 5.412287e-01 4.552750e-01 4.480886e-01 -6.707940e-01 -1.260916e-01 1.448697e-01 -2.895557e-01 -8.006486e-01 -2.317417e-01 -7.943630e-04 
-3.735022e+00 2.731426e+00 2.381662e+00 9.971423e-01 2.973248e+00 4.700907e-01 -2.464790e+00 -4.524400e+00 -3.279330e+00 -3.922030e+00 -3.470721e+00 3.106266e+00 -2.236557e-02 -5.285403e-01 -3.062279e-01 -8.663124e-02 2.854981e-01 8.682733e-01 9.355422e-01 7.719032e-01 1.899076e+00 1.475005e+00 1.834497e-02 -1.358538e+00 -1.465184e+00 -3.561664e-03 
-2.920909e+00 9.300005e-01 -1.158428e-01 2.024242e+00 1.011706e+00 3.908873e-01 -5.556119e+00 -2.031549e+00 -3.165476e+00 -3.877847e+00 -5.901368e+00 -4.415962e+00 -3.204763e-02 -8.236884e-01 -7.428161e-01 -7.121944e-01 -3.037201e-01 5.445111e-01 1.105663e+00 2.122793e+00 1.473485e+00 6.627651e-01 -3.033619e-02 -6.871506e-01 -9.537554e-01 -1.366794e-03 
-4.852080e+00 1.846857e+00 5.967078e-01 7.084677e-01 2.450998e+00 2.853703e-02 -1.258910e-01 3.022708e+00 -7.417397e-01 -4.640917e+00 -5.151883e+00 -4.548491e+00 -3.805101e-02 -6.089665e-01 -6.430190e-01 -1.141546e+00 -9.425508e-01 -9.468463e-02 1.440382e-01 1.367683e+00 2.189757e+00 2.233949e+00 6.838559e-01 6.381585e-01 3.788425e-01 -3.084230e-03 
-5.906316e+00 3.440623e-01 -8.675945e-01 -1.902793e+00 1.795686e+00 2.261279e+00 2.255095e+00 1.081421e+00 -2.651813e+00 -4.345004e+00 -2.659122e+00 1.770338e-01 -1.575625e-02 -8.637615e-01 -9.509889e-01 -1.024268e+00 -8.707865e-01 8.904103e-01 4.621246e-01 1.338438e+00 1.752541e+00 2.686658e+00 9.577134e-01 1.566852e+00 2.928969e+00 7.889986e-04 
-5.287150e+00 -1.906999e-01 -2.950194e+00 -1.752094e+00 2.107835e+00 2.550857e-01 4.680169e-01 4.867897e+00 7.633587e+00 -2.691727e-01 -1.901052e+00 2.703981e+00 -4.593241e-02 -4.589190e-01 -1.279301e+00 -6.974322e-01 -3.793028e-01 6.602477e-01 5.685335e-01 1.097499e+00 9.169599e-01 1.301448e+00 1.653818e+00 7.955211e-01 1.993531e+00 6.151199e-04 
-7.022182e+00 -2.806166e+00 -3.463734e+00 -1.099410e+00 5.635339e+00 2.588236e+00 8.391179e-01 5.808560e+00 6.080151e+00 -1.275152e+00 3.074763e-01 6.602648e+00 -2.416193e-02 -1.909399e-01 -9.688761e-01 -5.642761e-01 -1.023530e-01 1.950828e-01 2.262034e-02 3.748221e-01 1.340893e+00 1.532785e+00 1.735355e+00 1.022243e-01 -1.829244e-01 -3.517199e-03 
-6.588742e+00 -2.974534e+00 -1.592384e+00 -1.589738e+00 3.832410e+00 2.707726e+00 6.069594e+00 5.243938e+00 1.399517e+00 2.093247e+00 -2.657577e+00 2.206354e+00 -3.077257e-02 -8.021965e-02 -3.280260e-01 -4.080468e-01 1.439521e-01 6.286975e-01 5.729235e-01 -9.386197e-02 5.372528e-01 -7.253221e-01 5.903010e-01 6.509904e-01 -3.036312e-01 6.445766e-04 
-6.210219e+00 -3.108401e+00 -4.367880e+00 -2.495736e+00 1.908812e+00 1.148061e+00 1.328416e+00 7.597866e+00 8.129149e+00 3.150563e+00 -1.769738e+00 -4.887747e-01 -4.092216e-02 1.928540e+00 -8.936940e-01 -1.741237e+00 -2.681989e+00 -2.639776e+00 -1.192420e+00 9.695606e-01 1.426666e+00 -5.276115e-01 -2.663782e-01 7.868897e-01 -1.967148e+00 6.372833e-02 
-6.094230e+00 -1.679712e+00 -4.538354e+00 -3.341701e-01 7.114585e+00 3.839791e+00 -2.459421e-01 6.659508e+00 2.982476e+00 4.694753e-01 2.392507e+00 4.731536e+00 -3.432941e-02 2.808305e+00 -1.387719e+00 -2.507216e+00 -4.133277e+00 -3.975787e+00 -1.653480e+00 2.100995e+00 2.815677e+00 -9.087434e-02 -1.412235e+00 1.069119e+00 -2.051925e+00 1.182925e-01 
2.373262e+00 -7.922047e+00 -1.069694e+01 -1.513714e+01 -9.204627e+00 -3.939896e+00 8.844689e+00 1.223410e+01 2.650613e+00 -1.795157e+00 1.716883e+00 -4.495682e+00 2.962582e-01 2.194359e+00 2.039797e-01 -1.520838e+00 -3.261843e+00 -3.007749e+00 -8.408138e-01 2.213120e+00 1.756133e+00 -1.481054e+00 -2.684124e+00 -2.072885e+00 -2.243989e+00 5.682110e-02 
3.161039e+00 -7.506307e+00 -1.096393e+01 -1.593542e+01 -1.048981e+01 -3.015693e+00 1.281643e+01 1.700421e+01 3.684413e+00 -2.495067e+00 9.447096e-01 -6.049820e+00 3.920997e-01 8.292877e-01 1.562756e+00 4.977731e-01 1.283817e-01 -9.088287e-01 -2.012320e-01 -6.916449e-02 -1.098726e+00 -5.467346e-02 -1.338560e+00 -1.984549e+00 -1.069008e+00 -1.847632e-02 
1.339397e-01 8.247945e-01 -8.759281e+00 -1.100432e+01 -4.327738e+00 3.717341e-01 5.862831e+00 1.120618e+01 3.729100e-01 -8.787786e+00 -1.141026e+01 -6.318039e+00 2.996880e-02 -8.637998e-01 2.746665e+00 2.232151e+00 4.034770e+00 2.653923e+00 9.768466e-01 -2.807630e+00 -4.811061e+00 -1.241982e+00 1.733695e-01 -9.850160e-01 1.830781e+00 -9.846072e-02 
-8.281298e-01 1.760648e+00 -3.018316e+00 -1.758670e+00 1.319976e-01 6.778158e-01 8.991646e-01 1.679840e+00 3.847961e+00 -2.727012e+00 -9.666635e-01 2.976731e-01 6.433666e-03 -8.678611e-01 -1.579561e-01 1.815118e+00 3.301800e+00 4.255089e+00 3.663974e+00 -3.221338e+00 -5.462580e+00 -1.194667e+00 7.583727e-01 -4.504368e-01 1.542282e+00 -5.921189e-02 
4.884815e-02 1.177798e+00 -3.508991e+00 -2.051668e+00 -1.245916e+00 -9.024178e-01 7.651713e-01 -4.159021e+00 -3.641071e+00 -8.123369e-01 -2.252511e+00 1.484477e+00 -3.212452e-03 -7.493004e-01 -1.528942e+00 4.692478e-01 1.476882e+00 3.391896e+00 3.438733e+00 2.372748e-01 -2.866370e+00 -8.022645e-01 1.416705e+00 9.948026e-01 1.580349e+00 5.676335e-03 
-1.135720e+00 -8.472589e+00 -4.513490e+00 -3.902749e+00 9.244728e+00 1.594125e+01 -7.414298e-01 -2.626091e+00 -2.819328e-01 -2.690928e+00 -5.886352e+00 -2.239665e+00 1.126308e-01 -1.280925e+00 -6.525071e-01 -2.676713e-01 -2.624362e-01 1.050793e+00 1.043361e+00 1.525741e+00 3.943181e-01 -4.339684e-01 7.134869e-01 2.190272e-01 5.117031e-01 -6.120265e-03 
-3.458767e+00 -1.703297e+00 -5.665456e+00 -2.547870e+00 8.075376e+00 9.933680e+00 7.869503e+00 -9.727018e-01 -1.573466e+00 -1.722303e+00 -3.976408e+00 2.852376e+00 5.251884e-03 -6.391516e-01 6.111403e-01 1.291350e+00 2.305121e+00 1.253398e+00 -1.181337e+00 1.092821e+00 2.417205e+00 2.261938e-01 4.769311e-01 2.099412e+00 8.181278e-01 -1.833812e-02 
-5.478946e+00 -6.134045e-02 -3.278441e+00 -2.822750e+00 7.253178e-01 4.765745e-01 4.975702e+00 2.058271e+00 6.443160e-01 1.295405e+00 9.904212e-01 2.172239e+00 -2.839983e-02 1.413684e-01 1.684863e+00 3.065930e+00 3.117848e+00 -5.100678e-01 -4.035135e+00 5.764562e-01 2.754579e+00 -4.422870e-02 1.412032e+00 3.586538e+00 -1.355671e-01 -2.121102e-02 
-9.752970e-01 2.787495e-02 2.330237e+00 8.933937e+00 9.280778e+00 9.232360e-01 3.370708e+00 5.584822e+00 -2.973226e+00 -4.208481e-01 4.806163e+00 3.369164e+00 -2.438772e-02 1.066921e-01 -1.392534e-01 2.245019e+00 1.815255e+00 -9.290654e-01 -1.860941e+00 -1.082183e+00 7.700338e-01 3.126738e-01 8.182848e-01 1.743592e+00 -2.049267e+00 -1.298857e-03 
-1.670613e+00 -9.138575e-01 6.818313e+00 5.945587e+00 6.091688e+00 2.708015e-01 4.390249e+00 7.868039e+00 1.968040e-01 3.718505e+00 7.655055e+00 -3.175895e+00 2.139556e-02 -3.476162e-01 -4.011595e-01 -8.083856e-03 6.258660e-01 3.077582e-01 -1.566099e-01 -1.013526e+00 -2.300373e-01 1.191005e+00 2.171411e+00 -3.439105e-01 -1.174351e+00 -2.032089e-03 
-4.829473e+00 -1.973305e+00 5.112624e-01 2.144239e+00 7.468636e-01 7.318605e-01 2.751316e+00 -2.741694e-02 2.136595e-01 1.157571e+00 1.409234e+00 -4.719893e+00 -2.614009e-02 -1.606341e+00 -3.956625e-01 -2.127433e+00 -2.241758e+00 -8.791510e-01 2.147516e-01 -1.745547e-01 5.339943e-01 1.385359e+00 1.635882e+00 -9.455417e-01 9.442552e-01 -7.052541e-03 
-5.289939e+00 -1.066548e+00 -2.409373e+00 3.701428e+00 6.531066e+00 -2.107872e-01 2.177693e-01 3.714204e+00 5.005898e+00 1.136325e+01 9.693335e-01 3.450133e-01 -3.768408e-02 -1.317965e+00 -3.311749e-01 -2.722662e+00 -1.566551e+00 3.397501e-01 7.463362e-01 7.169515e-01 4.594142e-01 -1.257389e-01 1.162218e-01 -3.330550e-01 2.963245e+00 -5.872452e-03 
-7.197339e+00 -1.874092e+00 -3.693084e+00 -1.152773e+00 4.665334e+00 2.237788e+00 4.584175e+00 1.033171e+01 1.549021e+00 3.936190e+00 3.421315e+00 6.329987e+00 -3.011060e-02 -7.162502e-01 -7.689683e-02 -7.856277e-01 -7.013614e-01 7.671437e-01 1.090325e+00 1.529295e+00 2.126099e+00 1.717294e-01 -6.369787e-01 7.334023e-01 2.316871e+00 6.414926e-03 
-7.076503e+00 -2.619339e+00 -4.692824e+00 -2.386642e-01 5.831203e+00 3.249518e+00 7.058578e+00 4.985546e+00 -1.099571e+00 2.910305e+00 4.983739e+00 6.115389e+00 -5.981445e-03 -1.199940e-01 1.905803e-01 -1.468519e-01 3.560033e-02 3.020796e-01 8.376826e-01 4.186242e-01 9.113058e-01 6.262142e-01 -2.323782e+00 4.434340e-01 -1.098812e-01 4.746365e-03 
-7.517442e+00 -1.581394e+00 -2.275151e+00 6.074789e-01 4.932513e+00 4.453330e+00 6.977388e+00 9.967409e+00 4.125041e+00 2.199151e+00 3.069042e+00 3.979274e+00 -9.916782e-03 2.750023e-01 4.116641e-01 -1.285637e-01 2.521088e-01 2.682906e-01 -1.500484e+00 -1.389487e+00 1.348324e-02 1.372954e+00 -1.110817e+00 -2.076829e-01 -9.263626e-01 8.466840e-04 
-5.729857e+00 -2.599956e-01 -3.852599e+00 2.999304e+00 7.907875e+00 2.869855e+00 1.114284e+00 8.452884e+00 6.848959e+00 6.128600e-01 3.362640e+00 9.709631e-01 -2.404916e-02 2.100670e+00 -1.866250e+00 -2.459389e-01 -1.330938e+00 -2.055357e+00 -1.626417e+00 -2.755231e+00 -3.418398e-01 3.444384e-01 -6.258589e-01 -9.366419e-01 -1.419070e+00 4.143130e-02 
-6.495650e+00 -9.954433e-01 -4.756014e+00 -1.511213e+00 4.968451e+00 -5.074802e+00 6.088876e-01 8.665459e+00 4.439527e+00 -4.691718e-01 3.193450e+00 4.270386e+00 -1.684332e-02 2.267893e+00 -3.848201e+00 3.404713e-01 -2.727662e+00 -4.645899e+00 -2.009004e+00 -1.140896e+00 -1.301690e+00 -4.465351e-01 1.024003e+00 -2.166670e+00 -6.901692e-01 1.911949e-01 
2.915951e+00 -1.224356e+01 -4.682086e+00 -5.834007e+00 -4.463549e+00 -1.185008e-01 -3.533329e+00 3.927322e+00 4.653776e-01 1.115172e+00 2.383260e-01 -1.125517e+00 2.046383e-01 6.622207e-01 -3.202176e+00 1.089271e+00 -3.276822e+00 -5.490659e+00 -2.674814e+00 1.032276e-02 -5.430991e-01 2.347783e-01 1.309527e+00 -1.195669e+00 1.401405e+00 2.608406e-01 
-5.008812e-01 -1.483061e+01 -1.580504e-01 -8.614176e+00 -1.211127e+01 -4.097514e+00 3.596714e+00 5.721738e+00 5.084156e+00 7.068009e+00 -6.202151e+00 1.576668e+00 8.317139e-01 -1.780101e+00 -8.006727e-01 2.692324e+00 4.419128e-01 -2.415736e+00 -1.796196e+00 -6.111521e-01 1.812304e-01 3.609777e+00 1.023348e+00 -1.816855e+00 1.534398e+00 2.357393e-01 
-5.416139e+00 -9.353291e+00 -7.052249e-01 -9.833324e+00 -1.100556e+01 -1.099286e+01 -3.280158e-01 7.209249e+00 7.700536e+00 3.391905e+00 2.082095e+00 9.324848e+00 8.558750e-01 -2.459723e+00 2.265741e+00 3.127936e+00 3.709954e+00 2.733906e+00 -1.751455e+00 -4.217385e-01 2.740502e-03 3.703504e+00 -4.847055e-01 -2.167602e+00 -6.561947e-03 9.147733e-02 
-1.123011e+01 -6.443944e+00 6.717176e+00 2.698010e+00 -3.839226e+00 -8.618604e+00 -4.049530e+00 7.930648e+00 1.887083e+01 3.509202e+00 -6.812709e+00 6.717193e+00 8.362347e-01 2.406519e+00 2.681150e+00 1.324896e+00 4.349967e+00 4.282763e+00 -1.930557e+00 -2.691284e+00 -3.686264e-01 4.425235e-02 -1.963957e+00 9.460939e-01 -3.236624e+00 -3.523580e-02 
-4.018050e+00 -5.108194e+00 7.519979e+00 7.059670e+00 5.069958e+00 -6.615231e+00 -1.818900e+00 2.836570e+00 1.208956e+01 4.710476e-01 -1.029440e+01 -3.728589e+00 6.597645e-01 4.738814e+00 6.748717e-01 1.150704e+00 2.574860e+00 1.673446e+00 -4.796610e-01 -2.621169e+00 -2.152461e+00 -1.685819e+00 -1.329962e+00 1.106706e+00 -4.236082e+00 1.501756e-02 
1.083267e+01 -3.547413e+00 2.353828e+00 4.689161e+00 1.264788e+00 -1.593911e+01 -9.114265e+00 6.064946e+00 3.110905e+00 -1.291347e+00 4.716568e+00 -8.079733e+00 7.535901e-01 4.566382e+00 -1.987623e-01 3.075581e-02 -6.292474e-01 -1.277817e+00 -5.191223e-01 -2.484549e+00 -3.229301e+00 -2.823932e+00 -6.251569e-01 3.207730e+00 -2.087082e+00 6.400511e-02 
7.246542e+00 -7.427197e+00 7.229970e+00 2.045400e+00 -5.190336e+00 -9.730906e+00 -1.090149e+01 -2.620205e+00 7.151402e+00 -8.576272e-01 1.850985e+00 -4.457099e+00 9.722852e-01 1.348231e+00 9.129367e-02 8.207150e-02 -1.115040e+00 -2.920660e+00 1.876619e-01 -2.241051e+00 -3.482246e+00 -3.581915e-01 8.109557e-01 2.549756e+00 7.273735e-01 8.874048e-02 
5.969503e+00 -6.278254e+00 7.015959e+00 2.058908e+00 -5.098166e+00 -9.656377e+00 -1.193098e+01 -5.487468e+00 7.220251e+00 1.047755e+00 3.153245e+00 -3.353965e+00 1.000000e+00 -1.307319e+00 7.968742e-01 1.954035e-01 -2.781979e-01 -2.008918e+00 2.144824e+00 -3.914474e-01 -4.039794e+00 9.127363e-01 1.488963e+00 -1.976332e-01 1.628958e+00 4.234122e-02 
5.154687e+00 -3.286306e+00 5.599271e+00 2.799597e+00 -6.351866e+00 -8.818288e+00 -1.161580e+01 -8.798454e+00 8.243930e+00 3.356275e+00 3.236036e+00 -2.454605e+00 9.802620e-01 -2.440592e-01 1.607691e+00 -1.010191e+00 3.459916e-02 -5.147598e-01 1.347192e+00 2.791527e-01 -2.931407e+00 -1.399407e-01 1.329859e+00 3.602399e-01 1.149056e+00 -9.901887e-03 
5.342003e+00 -1.633488e+00 4.146195e+00 2.921073e+00 -8.199038e+00 -5.671303e+00 -1.071435e+01 -1.104490e+01 7.128324e+00 4.046518e+00 3.035876e+00 -9.361863e-01 9.613078e-01 2.848946e-01 1.229340e+00 -1.188218e+00 -2.959979e-01 -1.719588e-01 1.669271e+00 7.871392e-01 -2.863252e+00 -5.434982e-01 8.227587e-01 4.421625e-01 1.018071e+00 -1.629368e-02 
6.339996e+00 -1.711124e+00 3.613900e+00 1.787313e+00 -6.213699e+00 -4.987485e+00 -1.011404e+01 -1.449852e+01 6.497663e+00 4.292288e+00 3.710869e+00 7.929301e-02 9.421218e-01 6.420538e-01 4.722067e-01 -1.024756e+00 -2.936371e-01 -1.533952e-01 1.777493e+00 8.775681e-01 -2.356654e+00 -1.006594e+00 2.675678e-01 8.598858e-01 9.082698e-01 -1.293666e-02 
6.801322e+00 -9.191423e-01 2.067554e+00 1.085061e+00 -6.027043e+00 -3.225425e+00 -8.746160e+00 -1.695370e+01 5.375894e+00 4.693542e+00 5.126641e+00 4.694396e-01 9.376017e-01 5.816777e-01 2.684153e-01 -4.446343e-01 -6.323389e-01 -2.204869e-01 1.438710e+00 9.794854e-01 -1.489596e+00 -9.503840e-01 -2.394486e-01 9.720604e-01 9.606215e-01 -1.024268e-02 
7.635297e+00 -1.282445e+00 1.514810e+00 2.249418e+00 -8.204839e+00 -1.153761e+00 -8.212052e+00 -1.762733e+01 4.087174e+00 4.370602e+00 6.490083e+00 1.383930e+00 9.274318e-01 3.002487e-01 3.479337e-01 -1.550443e-01 -7.902209e-01 -5.980641e-01 1.516029e+00 1.066714e+00 -5.584446e-01 -1.187655e+00 -2.859323e-01 6.722517e-01 1.020285e+00 -7.377708e-03 
7.602741e+00 -5.057507e-01 2.972569e+00 -4.716733e-01 -8.305902e+00 -3.946167e-01 -6.767917e+00 -1.692848e+01 3.581648e+00 2.810118e+00 6.506571e+00 3.214602e+00 9.174395e-01 1.517606e-01 2.788298e-01 1.891792e-01 -8.932411e-01 -6.373092e-01 1.406744e+00 1.251460e+00 -2.005446e-01 -1.143449e+00 -5.992481e-01 2.530788e-01 1.132397e+00 -4.943681e-03 
7.440530e+00 -1.781514e-01 2.386170e+00 -1.385424e+00 -8.064590e+00 1.177257e+00 -5.769592e+00 -1.730335e+01 1.456510e+00 3.804338e+00 6.382162e+00 3.808136e+00 9.153144e-01 9.462433e-02 2.375133e-01 3.217387e-01 -1.077307e+00 -3.963653e-01 1.003020e+00 1.647006e+00 -2.030783e-01 -1.174864e+00 -1.017553e+00 -3.711629e-02 1.079069e+00 -2.736020e-03 
7.657508e+00 -7.714033e-02 2.577769e+00 -1.563724e+00 -9.283713e+00 2.642785e+00 -3.710087e+00 -1.811841e+01 9.739807e-01 1.980433e+00 6.445995e+00 4.919321e+00 9.189420e-01 5.727662e-01 -1.567132e-01 1.914324e-01 -7.069472e-01 -3.445263e-01 8.174516e-01 1.567880e+00 -3.875309e-01 -1.353775e+00 -9.796980e-01 -3.900852e-02 8.895256e-01 -4.755056e-03 
8.081036e+00 -3.091835e-01 3.320903e+00 -2.591090e+00 -9.697760e+00 2.342640e+00 -1.505937e+00 -1.804775e+01 -4.833109e-01 -3.023214e-01 6.334789e+00 5.926916e+00 9.130004e-01 1.119753e+00 -5.893139e-01 7.233657e-01 -9.614307e-01 -1.524450e-01 2.513506e-01 1.355317e+00 -5.895729e-02 -1.471784e+00 -8.886620e-01 -6.077948e-01 1.035670e+00 -8.500278e-03 
1.014632e+01 -1.223801e+00 3.462365e+00 -3.403576e+00 -9.211949e+00 3.109950e+00 -1.060347e+00 -1.849393e+01 -2.217316e+00 -3.504229e-02 6.335215e+00 6.602840e+00 8.948212e-01 1.286062e+00 -4.643153e-01 4.249737e-01 -4.146106e-01 -9.400454e-01 8.852478e-01 2.493472e-01 7.001821e-01 -1.841330e+00 -5.860199e-01 -8.023421e-01 6.296731e-01 -1.101194e-02 
1.179489e+01 -2.551391e+00 5.560700e+00 -5.272651e+00 -8.862698e+00 2.200428e+00 -3.178792e-01 -1.741038e+01 -4.306760e+00 3.687665e-01 3.398578e+00 8.144726e+00 8.848734e-01 1.152784e+00 1.783082e-01 -5.260724e-01 7.676827e-01 -2.144907e+00 1.903392e+00 -2.278550e-01 5.035082e-01 -1.451331e+00 -1.099085e+00 -3.060335e-01 3.202104e-03 -9.096598e-03 
1.223089e+01 -1.277613e+00 3.582739e+00 -2.295996e+00 -1.440147e+01 7.140131e+00 -3.057379e+00 -1.493618e+01 -6.320944e+00 -1.285210e+00 3.902390e+00 6.958781e+00 8.779458e-01 6.417127e-01 9.889833e-01 -1.321086e+00 1.905716e+00 -2.834531e+00 2.088680e+00 -1.187911e-01 2.089140e-01 -7.557114e-01 -2.153034e+00 2.732844e-01 -7.221132e-01 -5.268490e-03 
1.280267e+01 6.092639e-01 6.303543e-01 6.935334e-01 -1.782753e+01 9.844508e+00 -1.646695e+00 -1.730909e+01 -5.688153e+00 -5.172662e+00 6.021034e+00 5.764956e+00 8.759551e-01 2.744860e-01 1.721400e+00 -1.894843e+00 1.897759e+00 -2.337740e+00 1.231461e+00 5.807433e-01 3.027348e-01 -8.143136e-01 -1.656100e+00 3.848302e-01 -1.598225e+00 -5.455035e-03 
1.285099e+01 2.140788e+00 -6.778927e-01 3.141912e+00 -1.890219e+01 9.731307e+00 -9.898942e-01 -1.750001e+01 -5.305176e+00 -8.029499e+00 6.390409e+00 4.182159e+00 8.729379e-01 3.241329e-01 2.037955e+00 -2.278324e+00 3.713065e-01 3.088734e-01 -9.100234e-01 1.033017e+00 1.242524e+00 -8.507106e-01 -1.602131e-01 -5.748122e-02 -1.494252e+00 -1.340461e-02 
1.285727e+01 4.346411e+00 -1.783199e+00 1.497191e+00 -1.830104e+01 7.062147e+00 1.552095e+00 -1.461479e+01 -8.886211e+00 -4.539590e+00 4.078720e+00 1.541911e+00 8.601022e-01 4.817755e-01 1.086262e+00 -2.357021e+00 -5.209783e-01 3.716142e+00 -2.545693e+00 1.152195e+00 3.155502e+00 -3.103905e-01 6.123942e-01 -6.758801e-01 -4.616303e-01 -3.511275e-02 
1.382425e+01 7.043588e+00 -6.602105e+00 -8.412927e-01 -1.262035e+01 3.981194e+00 5.083094e-01 -1.007071e+01 -8.975468e+00 -2.402812e+00 4.586141e+00 1.599043e+00 8.188492e-01 -1.399220e-02 1.042279e+00 -7.862822e-01 -1.113886e+00 5.178999e+00 -2.210709e+00 2.081172e+00 3.687678e+00 -4.331004e-01 1.397866e+00 -1.327346e+00 -5.216489e-01 -5.617831e-02 
1.472491e+01 3.589174e+00 -8.192643e+00 8.024406e-02 -2.387740e+00 -8.901119e-03 3.365179e+00 -5.246222e+00 -5.404960e+00 -4.924035e+00 3.543768e+00 4.748363e+00 7.274357e-01 -8.220533e-01 6.733964e-01 1.434756e+00 -2.462224e-01 5.258704e+00 -1.063691e+00 1.880332e+00 4.442313e+00 -1.314726e-01 1.095870e+00 -1.449923e+00 -2.350317e+00 -7.241204e-02 
1.184721e+01 7.730802e+00 -1.404581e+00 -1.719045e+00 -9.638410e-01 2.213287e+00 8.509421e+00 -3.745901e+00 -9.211304e+00 -8.479483e-01 2.115309e-02 -2.931076e-02 6.583796e-01 -1.341704e+00 1.960758e-01 3.541806e+00 5.154190e-01 5.069446e+00 3.502282e-01 1.907018e+00 4.674587e+00 -3.396475e-01 7.434384e-01 -1.602987e+00 -4.235581e+00 -8.564895e-02 
9.735524e+00 7.369786e+00 2.791821e+00 7.049551e-01 2.164224e+00 2.627646e+00 6.953197e+00 4.434367e+00 -9.425656e+00 1.623271e-01 -8.884031e-01 -9.395495e+00 5.782768e-01 -1.505114e+00 3.839043e-01 3.730602e+00 2.442611e-01 3.638240e+00 2.062408e+00 1.471878e+00 5.257514e+00 -5.154656e-01 8.096160e-01 -8.564065e-01 -4.558716e+00 -9.881359e-02 
9.610429e+00 6.133660e+00 5.614692e+00 1.423447e+00 1.045090e+01 4.414061e+00 8.249392e+00 8.461930e+00 -8.663357e+00 -1.228801e+00 -1.212709e+00 -1.250694e+01 4.651839e-01 -1.371974e+00 -5.438207e-01 1.797560e+00 8.189473e-01 2.591526e+00 1.725573e+00 5.351681e-01 5.337612e+00 2.289427e+00 -7.184847e-02 -2.861234e-01 -1.890079e+00 -1.159315e-01 
8.317734e+00 6.307266e+00 6.950729e+00 -2.696965e-01 1.009609e+01 9.202754e+00 1.085459e+01 1.493743e+01 -8.256261e+00 -6.855288e-01 -1.213339e-01 -1.180641e+01 3.299656e-01 -1.681360e+00 -6.462408e-01 -1.955317e-01 6.436869e-01 7.101445e-01 1.282002e+00 -7.057840e-01 2.050506e+00 4.042137e+00 4.876791e-01 -1.696316e+00 5.865105e-01 -1.156400e-01 
5.696236e+00 5.542958e+00 5.503767e+00 2.863017e+00 8.027853e+00 7.553597e+00 9.234567e+00 1.769062e+01 1.651134e+00 -7.832627e-01 -1.792999e+00 -8.274249e+00 2.028776e-01 -2.119629e+00 -4.454952e-01 -8.425174e-01 6.030792e-01 -1.277066e+00 1.860092e-01 -2.039389e+00 -1.577301e+00 3.907584e+00 1.408572e+00 -1.010406e+00 2.227406e+00 -1.004472e-01 
3.285821e+00 4.433933e+00 1.869625e+00 3.203604e+00 6.926468e+00 7.467888e+00 2.931690e+00 1.007255e+01 5.627783e+00 2.377953e+00 -9.079838e+00 -8.579286e+00 1.312298e-01 -2.238409e+00 -7.874223e-01 -7.246943e-01 1.148027e+00 -1.308709e+00 -1.170106e+00 -2.187367e+00 -3.075632e+00 1.870607e+00 1.559829e+00 6.228909e-01 2.993106e+00 -7.985021e-02 
1.528239e+00 4.842851e+00 3.942657e+00 2.702192e+00 5.650376e+00 6.211540e+00 2.013894e+00 3.007869e+00 3.932543e+00 4.282320e+00 -1.785488e+00 -2.983465e+00 6.231594e-02 -1.956507e+00 -1.020332e+00 -5.672778e-01 8.338043e-01 -6.414976e-01 -1.694627e+00 -1.135786e+00 -2.476273e+00 -8.489992e-01 1.201264e+00 1.447094e+00 3.394993e+00 -5.756669e-02 
-7.903099e-01 2.720208e+00 4.107812e+00 5.550851e+00 4.741284e+00 4.023250e+00 3.528087e+00 6.900648e+00 -4.393291e-02 4.580824e+00 2.989365e+00 5.137315e-01 9.953380e-04 -9.928791e-01 7.169485e-04 -4.585130e-02 1.227669e+00 -6.210491e-01 -2.386885e+00 -3.657418e-01 -3.271435e-01 -1.653301e+00 -2.893134e-01 2.207546e+00 2.614006e+00 -3.376476e-02 
-2.048234e+00 1.298162e+00 1.548283e+00 5.858415e+00 5.912956e+00 8.027836e-01 3.257437e+00 6.895211e+00 2.419956e-01 4.121621e+00 -5.921318e-01 4.154208e+00 -1.983869e-02 -9.865317e-01 -2.698793e-02 -4.012648e-01 5.992730e-01 -4.846670e-01 -1.606972e+00 3.430346e-01 2.795307e-01 -6.519343e-01 -1.564283e+00 -8.747859e-01 1.057142e+00 -1.619489e-02 
1.096621e-01 6.209863e+00 2.837555e+00 7.763838e+00 3.689933e+00 -1.762161e+00 4.812084e-01 6.493159e+00 -7.934494e-01 1.011736e+00 1.361212e+00 9.219087e-01 3.483295e-03 -8.926729e-01 7.002761e-02 -3.834793e-01 -6.274019e-01 -2.558056e-01 -6.090034e-01 -5.111241e-01 -2.038597e+00 -1.198845e+00 -1.900683e+00 -1.099678e+00 3.555672e-01 -3.660440e-03 
-3.854405e+00 2.963084e+00 2.571462e+00 4.592064e+00 3.752717e+00 1.069384e+00 5.252506e+00 4.609266e+00 1.047630e+00 -1.754550e+00 -5.345340e+00 2.098155e+00 -1.990247e-02 -7.273973e-01 -9.697046e-02 -1.403959e-01 -9.574174e-01 9.686954e-02 -5.067440e-01 -1.452323e+00 -1.693463e+00 -1.808596e+00 -8.449599e-01 -4.198009e-01 -8.704982e-01 -1.542962e-03 
-4.350589e+00 2.237885e+00 1.678827e+00 3.047018e+00 4.542376e+00 8.449332e-01 -2.506828e-02 -2.149364e+00 -6.440974e+00 -1.984504e+00 -1.324209e-01 3.319594e+00 -1.727498e-02 -8.194104e-01 -1.062690e+00 -9.887791e-01 -1.483885e+00 5.515659e-01 -2.699424e-01 -1.888965e+00 -7.025992e-01 -8.728483e-01 -8.127031e-01 -2.260381e+00 -2.069026e+00 -3.206313e-03 
-3.455095e+00 2.799298e+00 1.425668e+00 3.429739e+00 5.971082e+00 -3.034483e+00 -3.751040e+00 2.749159e+00 -5.977223e+00 1.394941e+00 -1.944320e+00 -1.397125e+00 -1.717436e-02 -3.054134e-01 -8.484840e-01 -1.207653e+00 -1.028995e+00 -2.738535e-01 -1.514676e+00 -2.937937e+00 -7.570089e-01 4.646607e-01 5.951781e-02 -1.044030e+00 -3.070234e+00 1.034212e-03 
-4.187045e+00 9.783065e-01 -1.533443e+00 9.255755e-01 5.338580e+00 -1.059939e+00 -4.461845e+00 3.910217e+00 -1.645264e+00 -4.626525e+00 -1.164120e+01 -7.675583e+00 -1.391232e-02 -8.414392e-02 -6.387905e-01 -5.734195e-01 -1.069775e+00 -9.391300e-01 -1.048830e+00 -8.848366e-01 -2.234323e-01 1.804993e+00 8.656648e-01 7.072178e-01 -8.900681e-01 -3.136551e-03 
-5.463244e+00 -6.495467e-01 -1.860667e+00 5.078089e-01 1.985348e+00 -5.551562e+00 -7.218793e+00 -2.205568e+00 9.730785e-01 -1.359510e-01 -4.811100e+00 -7.755428e+00 -1.641273e-02 1.831322e-02 2.634513e-02 4.333898e-01 -3.603244e-01 -2.902275e-01 1.019279e+00 1.169943e+00 -8.113739e-01 6.238576e-01 6.981789e-01 2.393675e+00 1.071101e+00 -6.862998e-04 
-3.767234e+00 7.683549e-01 4.548973e-01 -8.408923e-01 1.839593e+00 -3.140676e+00 -2.715375e+00 -7.891619e-01 -8.911579e-01 3.109266e+00 4.837059e+00 2.048405e+00 -3.333855e-02 3.661433e-01 7.323557e-01 4.819216e-01 3.704385e-01 -3.123226e-02 1.588115e+00 3.218258e+00 4.088069e-01 -1.260579e+00 2.853187e-01 2.099243e+00 2.007226e+00 6.706810e-03 
-3.573435e+00 3.036000e+00 2.598446e+00 2.511350e+00 6.269438e+00 3.102281e+00 1.225439e+00 1.041978e+00 -3.234989e+00 1.017940e+00 1.784925e+00 -9.036143e-01 -1.089275e-02 5.600154e-01 5.921382e-01 1.554298e-01 5.686153e-01 6.847068e-01 1.198800e+00 2.598315e+00 1.674713e+00 -1.287539e+00 -1.750982e+00 -1.036274e+00 7.214422e-01 -3.724754e-04 
-3.301233e+00 2.797312e+00 -1.353392e+00 1.775997e+00 3.040374e+00 2.553715e+00 7.407329e+00 4.330479e+00 -5.844128e+00 -3.776877e+00 -4.442998e+00 -1.065362e+00 1.686174e-02 -1.005632e-01 5.819688e-02 -5.497541e-01 3.772684e-01 7.724117e-01 -1.997582e-01 9.044937e-01 -1.448584e-02 3.018696e-01 -1.453006e+00 -2.945083e+00 -1.343940e+00 -1.018250e-03 
-2.896168e+00 1.296666e+00 -1.793731e-01 2.042441e+00 4.808492e+00 -2.404755e+00 7.114304e-01 3.608178e+00 -2.988132e+00 -5.447786e+00 -5.352441e+00 -2.591333e+00 -4.337525e-02 -1.152953e-01 -4.573143e-01 -6.843867e-02 -4.102888e-02 -5.994700e-01 -1.601722e+00 -6.236739e-01 -8.251668e-01 8.932734e-01 1.429921e+00 -4.810176e-01 -3.685816e-01 -8.642000e-03 
-4.608684e+00 1.929006e+00 -9.049635e-01 1.279904e+00 6.432125e+00 -1.385950e+00 2.064098e+00 -2.144691e+00 4.947617e-01 -9.229002e-01 -6.319675e+00 -3.827436e+00 -2.218854e-02 -3.649821e-01 -3.173200e-01 5.862920e-01 -4.027452e-02 -7.720655e-01 -7.931374e-01 -1.548313e+00 -1.133710e+00 4.451818e-01 2.551104e+00 1.425356e+00 -6.072812e-01 -1.679826e-03 
-3.496186e+00 1.183581e+00 2.032039e+00 2.554252e+00 1.576213e+00 -2.936495e+00 7.786844e-01 1.537290e-01 -1.938067e+00 6.740559e+00 3.181750e-01 -1.365485e+00 -3.457761e-02 -1.550394e-01 2.151979e-01 2.923100e-01 -2.794658e-01 -1.338193e+00 4.925191e-01 1.492333e-03 1.199631e-01 -6.779585e-01 7.523458e-01 1.451092e+00 3.805862e-01 6.076890e-03 
-4.826135e+00 1.267254e+00 4.723622e-01 1.318719e+00 7.961857e-01 -1.146102e+00 -3.678613e-01 3.891518e-01 -4.143251e+00 2.884471e+00 -1.515269e-01 -4.714692e+00 4.063785e-03 -1.355153e-01 -1.757828e-01 4.808549e-01 1.298372e-01 -1.036014e+00 -5.634387e-01 -5.067931e-01 6.664799e-01 -7.776254e-01 -8.341423e-01 1.526874e+00 1.139079e+00 -4.609811e-03 
-3.562639e+00 2.703532e+00 5.935140e-01 6.257045e-01 9.354950e-01 -6.208301e-02 1.934872e+00 2.941072e+00 -4.058918e+00 -3.589743e+00 -1.181059e+00 -2.447737e-01 -2.611697e-02 -2.542351e-01 -3.712294e-01 -6.906081e-01 -7.101335e-01 4.223340e-01 7.207253e-01 -6.009638e-02 8.975445e-01 -1.928182e-01 -3.534227e+00 -8.739605e-01 9.744413e-01 -4.612476e-03 
-5.253034e+00 2.901168e-01 2.218574e+00 2.893364e+00 1.572412e+00 -5.640349e+00 -1.047961e+00 -2.059624e-01 -2.332940e+00 7.153916e-02 2.064312e+00 1.307601e+00 -4.946792e-02 -1.896127e-01 -4.854446e-01 -7.870287e-01 -4.690261e-01 1.065202e+00 1.457858e+00 1.075633e+00 1.104312e+00 1.660274e-01 -2.361242e+00 -5.594960e-01 1.119081e+00 -8.221805e-03 
-4.553912e+00 -1.839974e-01 -2.294108e+00 -1.783738e+00 3.299769e+00 2.914255e+00 8.182524e-01 4.939009e+00 -3.807314e+00 -9.524113e+00 -5.159547e+00 4.955748e-01 -3.087413e-02 -3.515760e-01 -7.117988e-01 -1.199546e+00 -5.931997e-01 1.316959e+00 2.007055e+00 1.560045e+00 5.420800e-01 -6.503978e-02 -2.136899e-01 4.265569e-01 -2.826832e-01 -1.445866e-03 
-5.278562e+00 2.837951e-01 -2.018970e+00 1.783094e-01 4.940060e+00 4.655020e+00 5.568611e+00 4.911742e+00 -3.438916e+00 -5.954553e+00 -9.597628e-01 5.105391e-01 -3.466666e-02 -3.027973e-02 -2.817015e-02 -7.118927e-01 -1.183689e-01 9.414226e-01 1.661532e+00 1.565115e+00 6.292049e-01 -3.313938e-01 1.302515e+00 7.740218e-01 -4.807802e-01 1.369178e-03 
-5.307755e+00 -8.523013e-01 -3.285445e+00 -9.827667e-01 5.836465e+00 4.825506e+00 6.426808e+00 3.092619e+00 -3.831128e+00 -1.645146e+00 2.463763e+00 -1.259659e+00 -4.074693e-02 -2.178347e-01 -4.573572e-02 3.638673e-01 5.024341e-01 -3.895238e-01 -1.865662e+00 -9.505480e-01 -2.140101e-01 4.518448e-01 2.799281e+00 1.261691e+00 6.705924e-01 -2.905905e-03 
-5.027511e+00 4.834180e-01 -8.452210e-01 1.901034e+00 5.011178e+00 1.711686e+00 3.973337e+00 3.863256e+00 -3.978001e+00 2.644634e+00 2.122766e+00 -2.186829e-01 -3.768563e-02 -1.440954e-01 -1.252751e-01 4.138449e-01 2.273577e-02 -1.176681e+00 -2.896271e+00 -2.697458e+00 2.634989e-02 6.873320e-01 1.407235e+00 -1.721310e-01 1.287802e+00 -2.160227e-03 
-5.768611e+00 -5.124874e-01 -1.061646e+00 -1.329300e-01 1.316591e+00 -4.942389e+00 -3.136850e+00 4.393201e+00 -1.278547e+00 1.727004e-01 -3.923574e-01 4.213148e+00 -4.389417e-02 -1.662811e-01 -3.162776e-02 4.231175e-01 -3.342910e-02 -1.273434e+00 -2.618987e+00 -2.623750e+00 3.131106e-01 7.804617e-01 1.163760e-01 -8.227364e-01 1.537744e+00 -1.250303e-03 
