1.034913e+00 -8.028725e+00 -1.207249e+00 -1.335583e+00 -7.349041e+00 -8.235423e+00 -7.600176e+00 2.146919e+00 -4.521054e+00 -2.803375e+00 5.000772e+00 -3.715394e+00 2.042184e-01 -2.631974e-01 -4.287736e-01 -6.869532e-01 -4.365833e-01 2.204864e-01 -4.719205e-01 1.122473e+00 -8.786942e-01 -7.729177e-01 3.356778e-01 -1.184198e+00 7.529334e-01 -4.434037e-03 
-7.541542e-01 -9.273535e+00 -2.948337e-01 -1.495519e-01 -3.778573e+00 -9.618076e+00 -3.740408e+00 -2.155236e+00 -4.995409e+00 1.764302e+00 5.310913e+00 3.692282e-01 2.086467e-01 -6.206837e-02 -1.023978e+00 -8.056043e-01 -4.541391e-01 9.376202e-02 -1.266632e-01 9.144300e-01 -2.560230e-01 7.249615e-01 6.989542e-01 -1.404517e+00 1.390802e+00 1.251251e-03 
6.134596e-01 -9.550188e+00 -5.098223e+00 -4.111515e+00 -8.031843e+00 -9.903699e+00 -3.917696e+00 -9.547448e-02 -8.148464e+00 -3.408824e+00 -1.075287e+00 -1.993039e+00 1.798341e-01 2.172728e-01 -1.257087e+00 2.790458e-02 5.182486e-02 3.536522e-01 1.084023e-01 5.437986e-01 8.494111e-01 2.427803e+00 6.142936e-01 -1.249848e+00 1.552500e+00 3.544794e-02 
9.352980e-01 -1.238789e+01 -3.289785e+00 -2.218312e+00 -6.538830e+00 -8.034601e+00 -4.869266e+00 1.988001e+00 9.174592e-01 9.941210e-01 1.016218e+00 2.377440e+00 2.226668e-01 5.194044e-01 7.807801e-01 2.114098e-01 1.509928e+00 7.510015e-01 -2.271681e-02 -2.005976e-01 1.228834e+00 1.639805e+00 -1.591208e+00 -2.184280e+00 5.613899e-01 -3.188193e-03 
1.276551e+00 -1.275699e+01 4.297490e-01 -4.207826e-02 -4.200652e+00 -8.485149e+00 -4.316754e+00 4.322357e+00 4.661525e+00 6.531839e-01 8.988821e-01 3.043000e+00 3.744480e-01 4.390497e-02 2.553024e+00 4.624267e-01 1.888073e+00 1.853077e+00 1.253883e-01 -3.406287e-01 4.483793e-02 6.945042e-01 -1.404753e+00 -1.483605e+00 -3.257890e-01 -5.083436e-02 
1.511322e+00 -3.766235e+00 -2.001771e+00 5.365368e+00 -1.939161e+00 -1.044094e+01 -4.543867e+00 1.780020e+00 -3.201380e+00 -8.222740e+00 -6.597571e+00 6.581582e-01 9.539872e-02 -6.111969e-01 3.501355e+00 -6.264135e-01 8.965691e-01 1.771415e+00 6.357893e-01 7.836100e-01 1.627144e-01 -9.231294e-01 -9.357007e-01 -1.987812e+00 -1.390086e+00 -9.352998e-02 
5.449724e-01 -1.095895e+00 -3.430096e+00 1.537009e+00 -1.066295e+00 -8.073590e+00 -5.783539e+00 2.327054e-01 -2.616524e+00 -5.824158e+00 -4.686417e+00 -2.762343e+00 -1.070368e-02 -1.468078e+00 2.823049e+00 -1.378803e+00 -1.542525e-02 1.549822e+00 1.137269e+00 5.432170e-01 1.296861e-01 -7.229799e-01 6.882175e-01 -1.066096e+00 -1.754626e+00 -1.037030e-01 
-1.754897e+00 -7.116529e-01 -4.491929e+00 1.474990e+00 7.510679e-01 -5.061434e+00 -2.178237e-01 4.846398e+00 -5.916303e-02 -4.457116e-01 -6.130195e+00 -1.670321e+00 -5.240726e-02 -1.850678e+00 8.919366e-01 -1.186541e+00 -1.302791e+00 1.001055e+00 2.303120e+00 1.647916e+00 7.803321e-01 4.966217e-01 1.908380e+00 9.918846e-01 -6.570896e-01 -4.426732e-02 
-4.430729e+00 -1.690321e-01 -5.219184e+00 1.825984e+00 2.203343e+00 -5.488556e+00 -3.763690e+00 3.437598e+00 -5.244826e-01 2.057568e-01 -4.665287e+00 -4.565892e+00 -7.016397e-02 -2.020403e+00 4.237215e-01 -4.897846e-01 -1.031524e+00 1.366553e+00 3.454641e+00 2.424615e+00 9.020314e-01 4.291892e-01 1.686016e+00 1.418355e+00 2.269258e-01 -1.755518e-02 
-5.254219e+00 2.300162e-01 -7.039930e+00 -1.293073e+00 1.431296e+00 -2.178509e-01 2.685790e+00 4.079234e+00 -1.764292e+00 -1.695798e+00 -1.648713e+00 -1.725516e+00 -9.620774e-02 -6.598953e-01 1.543274e+00 8.338246e-01 -1.029308e+00 3.714263e-01 2.257161e+00 8.036281e-01 -1.766778e-01 8.903643e-01 2.444270e+00 2.670477e+00 6.747779e-01 -5.990767e-03 
-7.807381e+00 5.518777e-01 -4.605019e+00 -2.236580e+00 5.426358e+00 6.777822e+00 4.887732e+00 5.126445e+00 3.819863e-01 3.230966e+00 1.646193e-01 -1.600117e+00 -7.657933e-02 5.856301e-01 2.074409e+00 1.989590e+00 -5.071902e-01 -9.379514e-01 1.215101e+00 9.914442e-01 -9.013854e-02 8.980513e-03 2.802903e-01 2.047903e+00 1.653667e+00 -4.132032e-04 
-3.366048e+00 6.644260e+00 -6.298885e-01 -1.640268e+00 9.966919e-01 9.118089e-02 -5.253940e-01 3.118586e+00 3.939424e+00 1.026303e+01 4.807236e+00 2.206812e-01 -7.915342e-02 6.142787e-01 1.270778e+00 1.873655e+00 1.352339e+00 -2.864428e-01 6.927767e-02 -3.902529e-01 -1.275321e-01 -1.034429e+00 -1.094805e+00 8.650102e-02 5.160336e-01 4.180598e-03 
-2.446664e+00 6.995893e+00 1.523743e+00 -5.363688e-01 -2.269111e+00 4.324322e-01 2.799122e+00 3.467230e+00 -3.331438e+00 -4.372208e+00 2.346253e+00 2.729346e+00 -8.075714e-02 -8.804636e-02 -5.525340e-01 1.569748e-01 1.002258e+00 7.082579e-02 -6.099542e-01 3.093114e-01 3.988808e-01 -8.558024e-01 -1.110342e+00 -5.774515e-01 1.157368e-02 -3.926849e-03 
-4.863184e+00 3.361897e+00 -7.360384e-01 4.618518e+00 3.846817e+00 3.301233e+00 1.778830e+00 4.271181e+00 -5.079725e+00 -3.368238e+00 -2.307025e+00 -1.310079e+00 -7.321584e-02 -1.300985e+00 -2.110439e+00 -1.490901e+00 -1.741978e-01 8.143816e-01 2.501549e-01 1.151055e+00 4.188722e-01 -1.081582e+00 -1.148269e+00 -1.911130e-02 7.255138e-01 -5.618310e-03 
-7.499044e+00 -5.696107e-01 -3.767070e+00 -3.546820e-01 4.355425e+00 2.123026e+00 5.282177e+00 6.544551e+00 6.125487e-01 4.494890e+00 8.344926e-01 -7.768683e-01 -9.918237e-02 -1.580676e+00 -2.297730e+00 -1.795476e+00 -1.058457e+00 7.129092e-01 9.353932e-01 3.292437e-01 7.206091e-01 1.842160e+00 2.846888e+00 1.352564e+00 -1.300612e-02 -6.562400e-03 
-7.344782e+00 -1.251812e-01 -5.438987e+00 -2.602100e+00 1.756332e+00 4.966584e-01 3.988353e+00 3.674286e+00 -3.440479e+00 8.813715e-02 5.467560e+00 5.601357e+00 -9.803236e-02 -7.256823e-01 -1.048055e+00 -6.001042e-01 -1.250064e+00 -3.598274e-01 8.555613e-01 2.107975e-01 -1.196563e+00 9.428263e-01 6.599957e-01 -1.001771e+00 -2.906335e-01 -9.852648e-05 
-9.109245e+00 -2.749216e+00 -5.102162e+00 -2.218347e+00 2.340677e+00 6.511685e+00 3.340580e+00 7.368722e+00 5.059737e+00 8.134045e+00 5.221781e+00 -7.914026e-01 -1.011609e-01 -1.692928e-01 -2.657492e-01 4.239976e-01 4.365548e-02 -3.495917e-01 4.763302e-01 -4.333764e-03 -8.694029e-01 5.196465e-01 3.710000e-01 -1.447874e+00 -3.955108e-01 5.177617e-03 
-7.686495e+00 -7.885740e-01 -3.069013e+00 -6.999724e-01 3.055054e+00 5.384709e+00 3.803616e+00 -2.123719e+00 -2.589188e+00 -1.887837e+00 -9.509523e+00 -2.755979e+00 -7.271922e-02 -2.972027e-01 -4.915252e-02 8.106624e-01 5.593813e-01 1.335476e-01 3.258880e-01 6.645406e-01 4.513310e-01 1.333086e+00 7.386341e-01 -9.896997e-01 -6.867564e-01 2.989542e-03 
-8.174652e+00 -1.566660e+00 -2.832069e+00 -1.087469e+00 1.958105e+00 2.060651e+00 5.352877e+00 5.096539e+00 2.785136e+00 7.337877e+00 1.083664e+00 1.424246e+00 -8.595085e-02 2.187557e+00 -3.971535e-01 1.543232e+00 -1.958954e+00 -2.622272e+00 -4.469159e-01 6.695639e-01 -1.033391e+00 -1.320383e+00 -1.060367e-01 7.383779e-01 -4.000254e-02 5.159370e-02 
-9.298092e+00 -9.622216e-01 -2.520722e+00 -3.706329e-01 2.615356e+00 4.351615e+00 6.304908e+00 7.067033e+00 4.362250e+00 4.179392e+00 2.588120e+00 1.059752e+00 -9.068966e-02 2.617478e+00 -9.939903e-01 1.287361e+00 -2.998944e+00 -3.834070e+00 -1.593454e+00 5.154176e-01 3.402090e-02 3.748493e-02 3.451076e-01 2.125330e+00 1.260461e+00 1.836026e-01 
2.634337e+00 -4.648160e+00 2.339851e+00 -1.217779e+01 -1.055083e+01 4.793653e+00 5.437754e+00 -2.393607e+00 -5.017899e+00 4.570247e+00 2.864850e+00 -2.899281e+00 1.657928e-01 1.556197e+00 -3.436704e-01 1.569636e+00 -2.378942e+00 -3.766396e+00 -2.735715e+00 -2.745615e-01 -1.085855e+00 4.317438e-01 -2.341770e+00 -3.047130e-01 2.529367e+00 2.586612e-01 
-3.597260e-03 -4.217776e+00 7.818339e-01 -1.014953e+01 -9.860827e+00 -3.949060e+00 6.338265e+00 1.791459e+00 1.499754e+00 1.221516e+00 2.265357e-01 5.708090e+00 7.194220e-01 -3.014094e-01 -4.195600e-01 1.668711e+00 -3.335743e-02 -1.298573e+00 -4.039250e+00 -2.096368e+00 -2.329843e-01 2.268912e+00 -1.941492e+00 -1.120572e+00 2.142904e+00 2.193092e-01 
-5.040916e+00 -1.657235e+00 3.364833e+00 -8.092731e+00 -1.063579e+01 -7.467587e+00 3.963390e+00 2.305050e+00 6.375103e+00 -2.892034e+00 7.408913e-01 1.174691e+01 8.022990e-01 3.146117e-01 4.335600e-01 1.333744e+00 3.261099e+00 2.491843e+00 -3.769517e+00 -2.588937e+00 1.752944e-01 2.272740e+00 -1.021798e+00 -7.986975e-01 5.045907e-01 8.323671e-02 
-6.967512e+00 -4.555484e+00 5.310342e+00 -2.579948e+00 -3.835033e+00 -9.714016e+00 -3.439751e+00 3.552783e+00 1.001031e+01 -1.796928e+00 -1.952761e+00 4.451176e+00 6.876032e-01 2.049132e+00 -4.844375e-01 2.112098e+00 2.902371e+00 2.080379e+00 -2.303213e+00 -3.099941e+00 -1.003964e+00 8.093299e-01 -8.741671e-01 -1.355210e-01 -1.966695e+00 2.387881e-02 
7.689353e+00 -2.311506e+00 6.744319e+00 3.429148e-01 -1.104517e+00 -1.117146e+01 -2.617924e+00 -2.397797e+00 2.090527e+00 9.704763e-01 -3.898942e-02 2.521300e-01 5.978858e-01 2.623220e+00 -1.315931e+00 1.255295e+00 2.007354e+00 9.721826e-01 -1.783731e+00 -2.273126e+00 -1.008391e+00 3.303217e-01 -3.818418e-01 2.713407e-01 -1.714756e+00 6.488214e-02 
3.876927e+00 -6.312828e+00 9.652583e+00 1.444993e-01 -4.224566e+00 -1.361319e+01 -5.870785e+00 -8.769391e-01 7.688692e+00 -5.080575e+00 -6.112885e-02 1.622006e+00 9.410227e-01 1.486652e+00 -9.270287e-01 3.947586e-01 9.262182e-01 -1.031204e+00 -1.229118e+00 -1.194026e+00 -6.466385e-01 5.882530e-01 -6.023359e-01 9.859888e-01 3.390223e-01 1.007618e-01 
2.652964e+00 -7.358220e+00 7.470185e+00 5.818174e-01 -5.580105e+00 -1.443666e+01 -6.186724e+00 -5.220430e-01 9.187519e+00 -3.159420e+00 1.151779e+00 4.587716e+00 1.000000e+00 -5.570389e-01 -9.649397e-01 2.328844e-02 3.017983e-01 -1.572339e+00 -5.547519e-01 -1.075878e+00 1.592451e-01 1.847362e+00 -4.686605e-01 8.443567e-01 1.115060e+00 7.164501e-02 
2.983941e+00 -6.667270e+00 6.921202e+00 1.931692e+00 -6.753260e+00 -1.422701e+01 -7.625480e+00 -6.182864e-01 9.403076e+00 -2.743659e+00 2.381799e+00 3.978495e+00 9.903549e-01 1.101977e+00 -3.860742e-01 1.373930e-02 1.053707e-01 -6.705285e-01 3.329814e-01 -1.955103e-01 -5.677482e-01 8.796719e-01 1.908888e-01 1.081421e+00 1.766739e-01 -2.085587e-02 
5.350652e+00 -6.958983e+00 8.226452e+00 9.583101e-01 -7.701865e+00 -1.363831e+01 -7.119967e+00 -1.730898e+00 1.047014e+01 -2.541284e+00 2.961330e+00 4.649184e+00 9.314448e-01 1.730591e+00 5.382805e-02 2.074328e-02 2.662458e-01 -4.407761e-01 1.303798e+00 -2.197931e-01 -7.661331e-01 2.381823e-01 -6.977119e-02 6.672403e-01 -7.168670e-01 -4.981855e-02 
8.037967e+00 -8.442818e+00 9.343146e+00 4.831066e-01 -6.516329e+00 -1.234746e+01 -6.381715e+00 -3.111253e+00 1.144574e+01 -4.435198e+00 4.441203e+00 2.474642e+00 8.710210e-01 1.694549e+00 5.559416e-02 -3.487977e-01 4.765713e-01 -3.724759e-01 1.825424e+00 -3.801851e-01 -8.079609e-01 -4.035560e-01 5.123433e-01 1.801912e-02 -5.065166e-01 -5.004657e-02 
8.778905e+00 -6.201306e+00 6.362929e+00 2.637339e+00 -7.902451e+00 -8.857441e+00 -7.907572e+00 -3.106225e+00 9.357100e+00 -2.662506e+00 3.458278e+00 1.755308e+00 8.105742e-01 8.289211e-01 6.712798e-01 -1.132337e+00 7.287256e-01 -1.652088e-02 1.702229e+00 -5.943664e-01 -1.110416e+00 -6.241146e-01 1.033913e+00 -5.598471e-01 -3.882229e-01 -3.548881e-02 
9.742558e+00 -6.768138e+00 6.108974e+00 3.475034e+00 -8.515347e+00 -7.490323e+00 -9.132603e+00 -3.970427e+00 7.941818e+00 -1.213319e-01 2.223421e+00 2.892850e+00 8.005573e-01 2.869145e-01 1.069792e+00 -1.302722e+00 6.142685e-01 -2.410136e-01 1.576102e+00 -5.950930e-01 -1.540406e+00 -5.139200e-01 1.147255e+00 -5.812756e-01 1.626451e-01 -2.171577e-02 
8.642962e+00 -4.439923e+00 4.181851e+00 3.105974e+00 -6.784961e+00 -7.555730e+00 -8.716354e+00 -6.853393e+00 9.101532e+00 4.713467e-01 1.270985e+00 2.498966e+00 7.892326e-01 1.100959e-01 1.025516e+00 -1.007010e+00 -1.753062e-01 5.466499e-01 8.680429e-01 3.369207e-02 -2.248933e+00 1.516428e-01 3.947742e-01 3.562215e-01 -1.727130e-01 -1.264567e-02 
9.540511e+00 -3.974550e+00 3.920073e+00 3.320132e+00 -8.280142e+00 -5.117798e+00 -8.952788e+00 -8.939701e+00 9.003923e+00 -2.658496e-01 2.628472e+00 2.916038e+00 7.731130e-01 1.196580e-01 1.091372e+00 -8.994360e-01 -6.708202e-01 1.047456e+00 5.628961e-01 4.837306e-01 -2.382185e+00 3.626194e-02 -8.382956e-02 7.190388e-01 -1.481006e-01 -1.175219e-02 
9.430408e+00 -2.470518e+00 2.422328e+00 1.838259e+00 -5.286803e+00 -5.703488e+00 -7.829019e+00 -1.186625e+01 9.584261e+00 -6.163762e-01 5.036860e+00 8.801488e-01 7.610680e-01 2.129153e-01 8.420307e-01 -7.983857e-01 -7.637433e-01 9.567264e-01 8.414110e-01 6.255578e-01 -2.142818e+00 -9.652432e-01 2.225346e-01 8.714984e-01 1.305916e-01 -8.954847e-03 
9.947125e+00 -2.295978e+00 2.491556e+00 7.547903e-01 -4.027144e+00 -5.601964e+00 -7.157618e+00 -1.337492e+01 7.881763e+00 3.381729e-03 3.935677e+00 2.961756e+00 7.558786e-01 -2.918978e-01 9.072765e-01 -5.829610e-01 -1.018084e+00 7.376181e-01 1.283781e+00 6.132226e-01 -1.541963e+00 -1.798038e+00 4.731590e-01 5.923621e-01 5.441028e-01 -4.478914e-03 
9.504230e+00 -1.069056e+00 9.041810e-01 5.699284e-01 -4.127828e+00 -3.106592e+00 -6.486151e+00 -1.534987e+01 4.836396e+00 1.449404e+00 4.974875e+00 3.129065e+00 7.530755e-01 -5.841213e-01 6.401350e-01 -9.329386e-02 -1.097968e+00 -2.105657e-01 2.348907e+00 2.749014e-01 -7.552149e-01 -2.606782e+00 6.891464e-01 6.032290e-01 8.713605e-01 -4.607677e-04 
8.044111e+00 -1.388984e-01 1.764341e+00 -1.136123e+00 -5.171539e+00 2.660215e-03 -6.558109e+00 -1.490771e+01 2.387665e+00 1.067055e+00 5.621275e+00 4.512094e+00 7.547147e-01 -2.799928e-01 1.161008e-01 3.844081e-01 -1.350911e+00 -6.918911e-01 2.772505e+00 4.838467e-03 2.296104e-02 -2.722441e+00 5.274073e-01 1.022143e+00 4.261422e-01 -2.257854e-03 
7.461308e+00 -3.483831e-01 2.319466e+00 -2.706123e+00 -5.767434e+00 3.238736e+00 -6.754266e+00 -1.487593e+01 -7.026011e-01 2.297519e+00 7.210207e+00 4.461782e+00 7.593462e-01 7.243272e-01 -2.200322e-01 8.578129e-02 -6.395137e-01 -1.345181e+00 2.910510e+00 -5.080112e-01 1.150093e+00 -2.599541e+00 2.398074e-01 1.253258e+00 -4.053633e-01 -1.105536e-02 
9.568622e+00 -2.075811e+00 3.705954e+00 -4.361742e+00 -6.666797e+00 5.087898e+00 -6.999368e+00 -1.349709e+01 -2.960942e+00 2.216361e+00 7.928724e+00 4.426108e+00 7.414540e-01 1.629229e+00 4.022613e-01 -6.456806e-01 3.028978e-01 -1.782250e+00 2.845434e+00 -4.761116e-01 1.303366e+00 -2.230816e+00 4.368684e-01 1.051937e+00 -1.755421e+00 -2.297247e-02 
1.236361e+01 -1.200760e+00 3.622811e-01 -1.014831e+00 -1.010610e+01 8.903339e+00 -8.805577e+00 -1.030472e+01 -5.487005e+00 2.073788e+00 1.008744e+01 1.145242e+00 7.044290e-01 1.780774e+00 1.852494e+00 -2.665966e-01 8.092472e-01 -2.503276e+00 2.934366e+00 1.355515e-01 7.087579e-01 -1.760533e+00 4.426730e-01 2.704863e-01 -2.100110e+00 -4.022415e-02 
1.373911e+01 2.298596e+00 -4.854696e-01 -4.672797e-01 -1.191345e+01 1.139753e+01 -7.913012e+00 -1.067649e+01 -6.374214e+00 3.363263e+00 9.442345e+00 -2.606740e+00 6.673109e-01 7.204089e-01 3.271479e+00 -4.143949e-01 8.944790e-01 5.608921e-01 9.396774e-01 1.759172e+00 9.245432e-01 -2.255702e+00 -3.738721e-01 -5.151373e-01 -8.325647e-01 -6.529293e-02 
1.427994e+01 6.726886e+00 3.082194e+00 -6.071174e-01 -1.566049e+01 1.475575e+01 -5.619686e+00 -1.274244e+01 -7.798630e+00 3.937433e+00 7.805828e+00 -2.522344e+00 5.952970e-01 -8.955804e-01 3.176994e+00 1.586123e-01 4.854456e-01 4.102420e+00 -1.985162e+00 3.837138e+00 2.102299e+00 -1.484660e+00 -1.099899e+00 -1.188843e+00 -7.994767e-02 -9.085692e-02 
1.221250e+01 1.031776e+01 2.740228e-01 -9.320331e-02 -1.085144e+00 6.860080e+00 2.035489e-01 -7.655506e+00 -1.308364e+01 -5.848222e-01 6.493845e+00 2.097077e+00 4.695554e-01 -1.595902e+00 2.052103e+00 -2.403350e-01 6.855046e-01 6.692308e+00 -3.122512e+00 4.878017e+00 3.264925e+00 -7.065777e-01 -7.262072e-01 -1.272991e+00 3.969881e-01 -1.005892e-01 
8.649010e+00 1.067463e+01 7.755964e-01 1.225359e+00 4.991844e+00 1.246253e+00 6.321836e+00 -1.303709e+00 -9.555593e+00 -1.451661e+00 5.617476e+00 -1.606405e+00 3.490222e-01 -1.829787e+00 8.535944e-01 3.115973e-01 6.132571e-01 7.419981e+00 -1.205293e+00 4.350350e+00 5.043408e+00 8.312502e-01 -7.571119e-01 -3.318927e+00 -1.430599e+00 -8.517189e-02 
8.575059e+00 1.058524e+01 -5.338454e-01 2.044005e+00 1.122192e+01 2.539716e+00 1.050632e+01 -7.122707e-02 -9.028622e+00 2.426774e+00 4.171564e+00 -1.079769e+00 2.875023e-01 -1.901943e+00 -2.430994e-01 1.511731e+00 4.711809e-01 4.074338e+00 1.541472e+00 3.412072e+00 4.969202e+00 2.440039e+00 7.811678e-01 -3.898221e+00 -3.587280e+00 -6.712724e-02 
6.949721e+00 1.086112e+01 5.044115e+00 1.390563e+00 1.528589e+01 1.088947e+01 1.098068e+01 8.682458e+00 -5.669888e+00 -1.353925e+00 -7.627667e+00 -8.086916e+00 2.604641e-01 -1.577203e+00 -9.188838e-01 3.785561e-01 -7.821035e-02 1.280378e+00 1.797170e+00 8.430229e-01 3.707277e+00 9.715778e-01 8.764728e-01 -3.088797e+00 -3.814964e+00 -7.613391e-02 
3.552434e+00 9.009017e+00 5.698417e+00 2.180099e+00 1.413952e+01 9.745831e+00 1.493449e+01 1.219742e+01 -2.826296e+00 3.272149e+00 -6.374690e+00 -1.259907e+01 1.781982e-01 -2.086844e+00 -1.850227e+00 -1.393055e+00 -2.300452e-01 -5.343853e-01 8.129265e-01 -1.114118e+00 2.255382e+00 1.273950e+00 1.688952e-01 -2.342781e-01 -6.566037e-01 -9.077354e-02 
3.274309e+00 6.868318e+00 -4.477544e-01 7.662604e-01 9.934935e+00 6.629045e+00 8.322865e+00 1.109836e+01 -7.798867e+00 2.508015e+00 -4.553382e+00 -1.492158e+01 2.300471e-02 -2.055254e+00 -1.884914e+00 -2.964147e+00 -2.355234e-01 -1.783223e+00 -4.392806e-01 -1.409916e+00 1.734309e-01 1.469048e+00 2.809628e-01 1.519861e+00 3.165294e+00 -8.580653e-02 
-2.145481e-02 3.330503e+00 -4.753186e+00 1.205931e+00 1.122547e+01 8.734559e+00 6.264633e+00 9.997732e+00 -1.594384e+00 1.340280e+00 1.463031e+00 -9.454561e-01 -4.763567e-02 -1.548123e+00 -9.995493e-01 -2.080971e+00 -1.782785e-01 -1.589412e+00 -5.268307e-01 -2.980078e+00 -1.499875e+00 1.814788e+00 -1.144075e+00 8.281374e-01 5.078108e+00 -5.194714e-02 
-1.539605e+00 4.275806e+00 -4.550819e+00 7.000306e-01 7.826800e+00 9.198700e+00 8.266031e+00 1.064946e+01 1.059395e+00 1.016823e+00 -3.947226e+00 1.912750e+00 -5.565166e-02 -1.846172e+00 -3.411572e-01 3.625570e-01 4.855896e-01 -4.437170e-01 -2.242464e-01 -1.502472e+00 -2.628096e+00 1.265846e+00 -2.155744e+00 -3.325871e-01 3.305844e+00 -1.837655e-02 
-1.781223e+00 5.307527e+00 -2.654906e+00 1.321821e+00 7.246531e+00 5.826849e+00 6.251335e-02 4.922492e+00 1.818513e+00 -1.702629e+00 -2.537081e+00 4.374311e+00 -4.220927e-02 -1.191620e+00 1.613852e-01 1.119471e+00 -4.048753e-03 -5.763649e-01 -8.964809e-01 -5.671406e-01 -1.315033e+00 7.850811e-01 -5.389940e-01 -9.579709e-01 -9.289850e-01 -8.862412e-03 
-5.076664e+00 4.174020e+00 3.158908e-01 3.136263e+00 9.705819e+00 6.961668e+00 3.911567e+00 4.954979e-01 -3.176086e+00 -6.749250e+00 -4.216262e+00 -1.052242e+00 -7.159126e-02 -7.724058e-01 -1.605003e-01 7.997054e-01 -1.960062e-01 -1.516723e+00 -1.489360e+00 1.008314e-01 -1.883180e+00 -5.208995e-01 -2.409118e-01 -7.170901e-01 -1.670315e+00 -6.755030e-03 
-4.211027e+00 4.188322e+00 -1.589188e+00 -3.242898e-02 7.404137e+00 5.370672e+00 5.606162e+00 8.499548e+00 4.448762e+00 2.528347e+00 -3.192306e+00 -4.107885e+00 -8.397794e-02 -6.050544e-01 -1.344877e+00 9.235680e-01 -2.999709e-02 -2.707299e+00 -5.413221e-01 2.178131e-01 -3.374062e+00 -1.710109e+00 4.115888e-01 -1.322369e+00 -3.371053e-01 3.968942e-03 
-4.186732e+00 4.032907e+00 -1.085151e+00 3.971245e-01 1.643801e-01 1.979989e+00 5.998363e+00 -5.549719e-01 -2.860227e+00 -2.303224e+00 -7.205064e+00 -2.197728e+00 -6.854248e-02 -2.181559e-01 -9.618786e-01 4.388918e-01 -1.084425e-02 -1.971666e+00 -2.884993e-01 -9.743422e-01 -2.681458e+00 -1.633001e+00 9.406624e-02 -9.937474e-01 7.877938e-01 3.458846e-03 
-5.251461e+00 -1.346304e+00 2.663455e+00 2.541405e+00 -1.519245e+00 5.611078e+00 1.081805e-01 -1.142258e+01 -6.889960e+00 -1.867698e+00 -7.654525e+00 3.261528e+00 -2.388895e-02 -5.832183e-01 -4.750771e-01 2.468738e-01 1.325429e-01 3.913207e-02 -1.177906e-01 -1.040904e+00 -1.803284e+00 -1.721371e+00 -1.093316e+00 -9.061890e-01 -1.686122e-01 -3.274155e-03 
-5.647226e+00 2.131940e+00 3.840287e-01 1.795125e+00 4.309182e+00 5.398968e+00 1.788847e+00 -2.950726e+00 -5.671727e+00 -4.080897e+00 -6.953889e+00 -7.979794e-01 -8.434153e-02 -3.411016e-01 4.087298e-01 -4.116623e-01 -3.108737e-01 1.729748e-01 -7.071519e-01 -1.872995e-01 1.818691e+00 9.858263e-01 7.513477e-01 1.324585e+00 -5.239493e-01 -7.974923e-03 
-6.396872e+00 2.763420e+00 -1.089409e+00 -6.871462e-02 5.527396e+00 3.072229e+00 2.506401e+00 6.810043e-01 -2.752342e+00 -2.049395e+00 -7.848838e+00 -5.650820e+00 -9.244919e-02 1.028280e-02 1.008786e+00 -1.448146e+00 -9.550189e-01 -2.708677e-01 -1.025841e+00 3.621411e-01 3.244086e+00 1.858796e+00 8.735751e-01 2.148725e+00 -5.962901e-01 -1.086667e-02 
-5.319535e+00 4.021694e+00 -1.267031e+00 1.478157e-01 -2.494066e+00 -2.863465e-01 3.862756e+00 2.486689e+00 9.572506e-05 1.544362e+00 -4.849814e-01 -3.612999e-01 -7.413697e-02 -6.871023e-02 3.630581e-02 -7.864119e-01 -9.009231e-01 -5.926617e-01 -5.392724e-01 4.827587e-02 6.372869e-02 -7.732606e-02 8.866230e-01 1.505321e+00 6.469684e-01 2.980232e-07 
-5.363893e+00 2.752748e+00 -3.751748e+00 -1.410035e+00 5.280409e-01 3.324530e+00 8.819315e-01 2.079139e+00 -4.318917e-01 -3.124523e-01 -1.453538e-01 6.173803e-02 -8.332455e-02 8.110714e-03 3.430488e-01 -6.646053e-02 -1.352569e-01 5.015151e-01 4.340907e-01 -6.410048e-01 7.275390e-03 -5.734051e-01 -7.870899e-01 9.528477e-01 7.824692e-01 2.310955e-03 
-6.507267e+00 2.318805e+00 -2.216861e+00 -2.038831e+00 3.845551e+00 2.576455e+00 2.842461e+00 -3.331150e+00 -7.218583e+00 -5.162532e-01 -3.279027e+00 -4.194167e-01 -8.890235e-02 -3.774847e-01 -2.451216e-01 -3.248890e-01 1.259178e-01 2.667866e+00 1.392929e+00 -7.944250e-01 -1.183368e+00 -1.694207e+00 -1.869906e+00 8.391343e-02 6.299157e-01 2.736616e-03 
-5.762452e+00 5.330109e+00 -9.467962e-01 3.483238e-01 4.865163e+00 3.811282e+00 -1.884754e-01 3.626301e+00 -2.010028e+00 -4.954537e+00 -1.687577e+00 -1.709416e+00 -7.351172e-02 -1.574783e-01 -2.405485e-01 -4.871180e-02 4.404734e-01 1.289258e+00 3.171212e-01 -4.661754e-01 -1.121564e-01 -4.295526e-01 -1.187919e+00 -4.853640e-01 -5.941214e-02 8.067250e-04 
-7.007679e+00 1.507406e+00 -4.293952e+00 -1.017745e-01 8.676705e+00 6.434925e+00 4.258342e-01 -4.203731e+00 -7.681873e+00 -5.484125e+00 7.056974e-01 3.673856e+00 -6.536031e-02 7.691459e-02 -5.907558e-01 -4.314509e-01 8.463644e-01 1.869247e-01 3.827153e-01 2.200121e-01 1.190012e+00 7.113088e-01 3.105493e-01 7.647868e-02 -8.265217e-01 -1.468635e-03 
-5.901078e+00 1.955705e+00 -2.956762e+00 -1.761959e-01 4.558754e+00 2.980901e+00 -2.406316e-01 1.954647e+00 -2.348010e+00 -3.768112e+00 -4.564536e+00 -2.281959e+00 -9.106195e-02 -1.675068e-01 -6.386324e-01 1.077050e-01 4.839846e-01 -8.730650e-04 1.676520e-01 1.286696e+00 1.014047e+00 1.364786e+00 1.930641e+00 -1.177650e+00 -1.382843e+00 -4.752862e-03 
-6.053381e+00 1.052228e+00 -3.369133e+00 2.455252e+00 4.933378e+00 4.905222e+00 3.968600e+00 3.454738e+00 -3.493048e+00 4.432807e-01 -1.458154e+00 -4.265754e+00 -8.747041e-02 -2.448632e-01 8.505209e-02 2.274795e-01 -1.240927e-01 -6.710179e-01 -6.462457e-01 1.044705e+00 1.587033e+00 1.663226e+00 1.727448e+00 -1.103251e+00 -6.006104e-01 -5.046404e-03 
-7.077135e+00 2.364536e+00 -8.706808e-01 1.489734e+00 6.732461e+00 5.414393e+00 4.473621e+00 4.867302e+00 2.719490e+00 1.734966e+00 -6.493904e+00 -4.653827e+00 -8.622098e-02 1.489792e-02 2.074564e-01 -3.901184e-01 4.884400e-02 3.671604e-01 2.859538e-01 8.786049e-01 7.211221e-01 3.879728e-01 1.577814e+00 -5.872179e-01 1.278825e+00 -2.221465e-04 
-7.643967e+00 1.728251e+00 -4.199595e+00 -1.555203e+00 4.234763e+00 1.986950e+00 3.292233e+00 2.275108e+00 -1.899494e+00 4.015735e-01 -3.845873e+00 1.856737e+00 -9.301281e-02 2.052898e-02 4.449542e-01 -4.248595e-01 -3.869497e-01 -6.133572e-01 -1.113922e+00 -5.196115e-01 3.561893e-01 5.035056e-01 3.472616e-01 -2.579223e-01 1.522962e+00 -1.875901e-03 
-5.031296e+00 2.654975e+00 -4.492123e+00 2.073252e+00 6.743864e+00 5.869807e+00 4.490576e+00 6.150073e+00 -1.204922e+00 4.141809e+00 -6.306766e+00 1.050919e+00 -8.940148e-02 1.946075e-01 -2.317710e-02 2.985749e-02 2.973699e-01 -4.665442e-01 -7.486143e-01 1.888982e-01 1.100612e+00 5.369627e-01 -5.151467e-01 4.998679e-01 3.317823e-01 -2.355075e-03 
-6.973656e+00 3.131779e+00 -3.682710e+00 2.287445e-01 1.860891e+00 -8.920954e-01 1.362065e+00 4.594299e+00 9.866869e-01 9.761668e-01 -2.841334e+00 4.966824e-01 -9.525967e-02 1.247770e-01 -3.803359e-02 1.090304e+00 1.163530e+00 3.105946e-01 4.525129e-01 5.557299e-03 -1.441632e-01 8.778113e-01 1.758639e-01 3.181246e-01 -1.273273e+00 1.534569e-03 
-6.439253e+00 1.546886e+00 -9.798362e-01 2.084610e+00 5.586676e+00 3.110845e+00 6.383197e+00 9.210767e+00 3.961213e+00 -1.128065e+00 -4.496834e+00 -2.314888e+00 -9.687293e-02 -1.456943e-01 -2.000999e-01 5.373250e-01 5.705464e-01 8.203011e-01 6.131568e-02 -4.610762e-01 -9.230566e-01 1.174315e-01 5.482497e-01 1.222161e+00 -1.291339e+00 3.256488e-03 
-6.316103e+00 2.092127e+00 -5.042186e-01 4.256768e+00 6.366330e+00 5.628995e+00 2.373709e+00 2.394557e-02 -9.350520e-02 3.915830e+00 -3.160216e+00 -2.826725e+00 -8.160424e-02 2.120933e-01 -1.287540e-01 -1.838974e-01 6.193817e-01 1.646949e+00 7.420865e-01 -4.069208e-01 -6.939464e-01 -6.167592e-01 1.541541e+00 1.006994e+00 -9.910695e-01 4.755199e-03 
-6.088544e+00 2.174302e+00 -3.394743e+00 2.911972e+00 8.592649e+00 2.915840e+00 1.679373e+00 3.819967e+00 -7.766867e-02 5.413226e+00 -3.651989e-02 -3.744073e+00 -7.994676e-02 9.289770e-02 1.337005e-01 -7.720338e-01 3.099284e-02 8.238268e-01 -3.103165e-01 -1.010198e+00 -6.985579e-01 -8.061926e-01 1.457998e+00 1.204432e+00 -3.775718e-01 3.550983e-03 
