-4.631786e+00 1.364830e+00 -8.216823e-01 1.512336e+00 3.178359e+00 -9.294450e-01 -3.754390e+00 -3.552240e+00 -7.556176e+00 -3.478985e+00 -3.765642e+00 2.585232e+00 -3.323567e-02 1.454535e-01 2.852219e-01 9.297919e-01 5.334034e-01 -8.665251e-01 -5.973857e-01 -1.609211e+00 -1.198306e+00 -9.001287e-01 -1.071048e+00 2.481628e-01 -1.227937e+00 4.804182e-03 
-3.369403e+00 2.018043e+00 -8.198696e-01 1.190630e+00 9.324925e-01 -2.041592e+00 -1.147957e+01 -4.517106e+00 -5.509616e+00 -6.234188e+00 -2.810547e+00 -1.823337e+00 -1.505673e-02 1.496871e-01 2.054517e-01 9.074089e-01 8.622974e-01 -1.015660e+00 -7.631170e-01 -7.883508e-01 -8.053665e-01 -3.552643e-01 -8.259430e-02 1.920080e-02 -9.854404e-01 -4.511118e-04 
-4.535710e+00 2.464334e+00 3.826371e+00 4.340207e+00 -3.133392e-02 -3.360300e+00 -7.937854e+00 -9.061337e+00 -1.308010e+01 -7.456625e+00 -3.002376e+00 -1.350169e+00 -1.830423e-02 1.109818e-01 3.948450e-02 7.274483e-01 1.581829e+00 -4.368357e-01 -1.436251e+00 3.714449e-01 6.005673e-02 6.689249e-01 1.336136e+00 6.659966e-01 -8.449593e-01 -1.288724e-03 
-3.931389e+00 1.842337e+00 1.391335e+00 4.409888e+00 -2.950940e-01 -3.529603e+00 -5.604413e+00 -4.824524e+00 -6.570536e+00 -1.903137e+00 -4.051271e+00 -3.742692e-01 -4.295695e-02 -1.399651e-02 1.183321e-01 6.354096e-02 1.160955e+00 6.509823e-01 -1.100885e+00 1.490652e+00 9.599514e-01 7.881645e-01 1.698134e+00 6.434027e-01 -7.587464e-01 3.081572e-03 
-3.795884e+00 1.650106e+00 1.709957e+00 7.811852e+00 1.607973e+00 -7.366693e+00 -4.834745e+00 -3.098248e+00 -3.681092e+00 1.036170e+00 1.847029e-01 -2.364098e+00 -2.572918e-02 1.116681e-01 2.245865e-01 -9.376959e-01 5.521070e-01 5.107291e-01 -2.390226e-01 1.752929e-01 5.075499e-01 1.755171e+00 1.743361e+00 1.843630e-01 -6.327753e-01 1.520170e-02 
-3.809299e+00 3.016817e+00 5.560423e-01 5.259584e+00 3.367750e+00 -5.542818e+00 -5.577867e+00 -2.698894e+00 -6.268297e+00 -1.989917e+00 -1.187073e+00 -5.110105e+00 4.063606e-03 -1.318230e-01 6.146327e-01 5.330205e-03 -1.501484e-01 7.071311e-01 9.448575e-01 -2.495942e-02 -8.083572e-01 2.236102e-01 3.082919e-01 -1.039064e+00 -4.255101e-01 1.403375e-02 
-4.038415e+00 3.000026e+00 -4.444621e-01 6.675894e+00 6.908896e-01 -3.548805e+00 -7.074662e+00 -7.586402e+00 -4.455365e+00 1.303570e+00 -3.512660e+00 -2.146128e+00 3.419399e-02 -3.906436e-01 -1.734597e-01 7.232790e-02 -1.200443e+00 -5.523531e-01 1.183076e+00 1.255573e-01 -5.941296e-01 -7.369832e-01 -8.468871e-02 -1.362207e+00 -7.525682e-04 8.504748e-04 
-4.469238e+00 4.240541e+00 2.495196e+00 4.227125e+00 3.699104e+00 -7.142591e-01 -4.609251e+00 -6.622233e+00 -5.065348e+00 -4.953775e-01 -7.397912e+00 -2.610805e+00 -2.749801e-03 -2.081742e-01 -4.073353e-01 3.333991e-01 -7.803324e-01 -8.266878e-01 7.461100e-01 7.504496e-01 2.471154e-01 5.795059e-02 4.482080e-01 -3.992625e-01 4.636640e-01 -1.023914e-02 
-5.419132e+00 1.709459e-01 1.102019e+00 2.325868e+00 -1.319469e+00 -3.865594e+00 -4.691266e+00 -4.107226e+00 -7.967483e+00 -1.345434e-01 -3.520912e+00 -3.617511e+00 -1.807010e-02 -1.908278e-01 -4.969334e-01 2.101793e-01 5.941559e-01 2.357354e-01 2.618567e-02 1.045423e+00 8.681536e-01 1.193924e+00 6.859091e-01 4.014547e-01 -1.495660e-01 -1.267004e-02 
-4.159811e+00 2.394681e+00 1.449797e+00 3.532935e+00 2.394905e-01 -1.653874e+00 -3.017317e+00 -3.202905e+00 -4.222486e+00 9.701796e-01 -3.179259e+00 -2.056093e+00 -2.100003e-02 1.517722e-01 -5.636990e-02 -3.997381e-01 1.081681e+00 3.963515e-01 -1.206916e-01 7.962202e-01 2.937732e-01 1.290120e+00 2.552176e-02 7.892781e-01 2.220456e-01 -2.737260e-03 
-5.147267e+00 1.438289e+00 1.129134e+00 9.993769e+00 3.599373e+00 -2.948070e+00 -2.643515e+00 -4.955299e+00 1.092822e+00 4.000337e+00 -3.614713e+00 -3.171314e+00 -2.003109e-02 2.414749e-01 8.005280e-01 -3.647033e-01 3.516759e-01 7.603889e-01 3.270880e-01 -1.244759e-01 -8.004322e-01 7.775223e-01 -3.067841e-01 -4.374067e-01 -3.400429e-01 3.465033e-03 
-3.846310e+00 3.325019e+00 4.829479e-01 5.801581e+00 3.221440e+00 -1.776479e+00 -1.652025e+00 -4.729331e+00 -3.144899e+00 -2.435209e+00 -3.404620e+00 -1.723676e+00 -1.545560e-02 -9.659062e-02 2.487679e-01 -1.013768e-03 -1.710780e-01 2.132338e-01 7.187927e-02 -2.369716e-01 4.901010e-01 -3.485557e-01 -5.685708e-01 -1.347874e+00 -1.054155e+00 2.912772e-03 
-4.368508e+00 3.708417e+00 -2.380726e-01 2.949924e+00 9.915004e-01 -2.168851e+00 -5.996291e+00 -7.346174e+00 -4.618664e+00 3.423023e-02 -5.595265e+00 -5.483934e+00 -3.517151e-03 -2.615981e-01 -9.294095e-02 3.957626e-01 -6.266562e-01 6.766325e-01 7.866609e-01 4.916486e-01 1.742122e+00 -2.121220e-01 1.531925e+00 6.806363e-01 2.957638e-01 -4.226446e-04 
-5.032144e+00 2.503457e+00 2.128331e+00 6.199468e+00 2.609596e+00 -1.684087e+00 -2.525787e+00 4.430372e-01 -3.109521e+00 1.103787e-01 -8.928356e+00 -6.170559e+00 -1.469314e-02 -3.299804e-01 -5.370730e-01 6.230605e-01 5.528609e-01 6.311662e-01 2.159631e-01 4.455191e-01 1.256304e+00 4.499288e-01 1.393848e+00 1.478840e+00 1.731631e+00 -6.369472e-03 
-5.862341e+00 1.384366e+00 2.285255e+00 6.661544e+00 7.288458e+00 9.390386e-01 2.516086e-01 1.169128e+00 1.452231e-02 1.038717e+01 2.550336e+00 5.309469e-01 -2.252555e-02 -6.443901e-02 -4.101202e-01 2.274979e-01 4.041564e-01 5.181100e-02 -9.263432e-03 7.331783e-01 4.361595e-01 1.630821e-02 2.316116e-01 1.925044e+00 1.925935e+00 -4.857636e-03 
-4.749295e+00 1.801680e+00 2.336586e+00 6.710075e+00 3.228792e+00 -2.250608e+00 -2.548380e+00 -2.705463e+00 -3.211848e+00 -6.424389e-01 -8.322102e-02 3.927037e+00 -3.779876e-02 -3.115209e-01 -4.305911e-01 -2.173751e-01 -4.465923e-01 -8.163320e-01 -2.621550e-01 1.176709e-01 -1.433715e+00 -1.277161e-02 2.276245e-01 1.389202e+00 1.584939e+00 -1.166821e-03 
-4.832128e+00 2.008704e+00 7.952892e-01 4.715403e+00 9.409571e-01 -1.931908e+00 -2.319103e+00 -3.591126e+00 -4.485959e+00 1.568697e+00 -3.926134e-01 -9.030571e-01 -1.625252e-02 7.933154e-01 2.972422e-01 -7.753518e-01 -1.642310e+00 -2.561186e+00 -1.995853e+00 -1.557222e+00 -8.071399e-01 -7.890146e-01 -1.591351e+00 -1.010848e+00 -3.536887e-01 4.945552e-03 
-7.104855e+00 3.833199e-02 1.786439e+00 4.939576e+00 1.701686e+00 -1.559389e+00 -6.520767e-01 -4.345412e+00 -9.231379e-01 5.657738e+00 -5.108727e-01 2.471139e+00 -2.366376e-02 5.648623e-01 1.851207e-01 -7.873585e-01 -1.010336e+00 -6.027755e-01 -1.195328e+00 -2.262098e+00 -7.141267e-01 -5.364664e-01 6.414360e-01 1.787232e-02 -1.195076e+00 8.517516e-03 
-7.179842e-01 3.752250e+00 -1.316429e+00 -6.647573e-01 -4.753921e+00 -9.385837e+00 -8.482652e+00 -2.046597e+00 -5.074905e+00 -7.196732e-01 -2.290077e+00 -5.095476e-01 -4.865289e-03 1.843960e-01 -7.712423e-01 -1.689234e+00 -2.405582e+00 -7.052900e-01 -5.607867e-03 -1.763944e+00 1.269711e+00 1.086235e+00 7.851386e-01 -2.409499e-01 -5.413287e-01 9.276976e-02 
-3.982056e+00 1.855510e+00 -5.443467e-01 4.348475e+00 3.062354e+00 -4.500285e+00 -1.077709e+01 -7.048361e+00 -5.599707e+00 3.708926e+00 9.548723e-01 -2.245100e+00 -9.047985e-04 -1.457155e-01 -1.214113e+00 -2.068320e+00 -2.845969e+00 -1.363849e+00 7.630789e-01 -6.412593e-01 2.404712e+00 1.672196e+00 1.014390e+00 -1.486379e-01 -7.988116e-01 1.774130e-01 
-5.471547e+00 -2.756097e+00 -6.485488e+00 -7.016958e+00 -3.265827e+00 -4.894988e-01 -6.076317e+00 4.108904e+00 3.283502e+00 6.468796e+00 -2.330235e+00 -1.251581e+00 4.362168e-01 -5.022300e-01 -2.722642e+00 -1.985392e+00 -8.328804e-01 -5.575799e-01 2.293920e+00 1.885688e+00 1.165800e+00 6.991574e-01 5.291492e-01 4.434025e-02 9.985113e-01 1.498699e-01 
-5.456651e+00 -2.778060e+00 -5.970631e+00 -6.114169e+00 -5.861604e+00 -2.192163e+00 -5.061541e+00 4.600399e+00 3.258637e+00 7.135453e+00 -1.233983e+00 -1.151902e+00 6.428601e-01 7.516721e-01 -2.667361e+00 -1.425707e+00 1.066528e+00 8.796421e-01 1.157018e+00 1.285790e+00 -9.580873e-01 -1.508414e+00 -4.945100e-01 2.718292e-01 2.415095e-01 3.172190e-02 
-2.491837e+00 -7.544173e+00 -8.530250e+00 4.021628e-01 -3.079841e+00 9.297035e-01 -1.911990e+00 -2.041977e+00 -6.008290e+00 2.128091e-01 -9.739481e-01 3.936410e+00 4.226018e-01 7.179295e-01 -1.982170e-01 4.778825e-01 3.831139e+00 3.214246e+00 1.505187e-01 3.706099e-01 -3.752412e+00 -1.836323e+00 -5.251590e-01 6.387630e-01 -5.578339e-01 -1.341124e-01 
-1.713551e+00 -9.087258e+00 -6.650500e+00 5.971553e+00 7.367572e+00 5.752037e-01 -6.430305e+00 -8.763356e+00 -8.495881e+00 4.364370e+00 1.635875e+00 -3.631548e+00 1.645122e-01 -3.427550e-01 6.697108e-01 1.369584e+00 2.719634e+00 3.307495e+00 1.805994e-01 6.447779e-01 -1.218508e+00 1.024647e+00 5.799823e-02 2.213085e-01 -1.126704e+00 -1.670139e-01 
-3.753449e+00 -5.925822e-01 -3.756141e+00 6.095877e+00 6.190816e+00 -1.120589e+00 -3.538885e+00 -7.971280e+00 -2.085662e-02 5.228543e+00 -5.713493e-01 -2.800927e+00 4.828632e-03 -7.190544e-01 2.184706e+00 1.189248e+00 -7.422650e-01 1.290012e+00 1.514766e-01 1.306343e+00 2.021832e+00 2.760693e+00 1.357061e+00 5.372157e-01 -1.052114e+00 -1.036941e-01 
-6.539619e+00 -2.905302e+00 -1.509766e+00 4.637145e+00 6.040542e+00 -2.640203e-01 -1.024204e+00 1.472508e+00 5.388157e+00 4.917578e+00 -3.287397e-01 -3.416752e+00 1.667708e-02 -6.721982e-01 1.510130e+00 2.618236e-01 -2.581735e+00 -1.556862e-01 7.576903e-01 2.064338e+00 4.617564e+00 2.099984e+00 -2.210856e-01 6.506063e-01 -5.790870e-01 -2.981653e-02 
-3.674074e+00 2.883768e-01 -5.154377e+00 -2.641959e+00 4.033731e+00 2.106699e+00 1.916677e+00 2.949250e+00 8.531578e-01 6.721510e+00 2.694438e+00 -1.431560e+00 -2.195108e-02 -2.502596e-01 -6.416458e-01 -9.338599e-01 -2.999458e+00 -2.771728e-02 2.369039e+00 2.622040e+00 4.170698e+00 -2.681599e-01 8.144820e-02 2.052431e+00 -3.151663e-01 1.703169e-02 
-5.114229e+00 -1.977087e+00 -4.642264e+00 -2.568203e+00 7.667684e+00 2.750012e+00 1.163602e+00 8.864202e+00 1.567031e+00 2.512459e+00 3.256013e+00 -7.211667e+00 2.881944e-02 2.478511e-01 -7.880203e-01 -1.367739e+00 -2.566366e+00 7.088728e-02 1.998860e+00 2.139169e+00 1.623771e+00 -1.540445e+00 -6.391664e-01 2.080878e+00 9.670395e-01 4.073486e-02 
-5.717443e+00 -4.264919e+00 -6.859191e+00 -5.298737e+00 5.238659e+00 9.217588e+00 8.477409e+00 9.186364e+00 5.489072e-01 6.838344e+00 7.898427e+00 -2.479301e+00 8.391589e-02 1.954365e+00 -3.049672e-01 -3.553553e-02 -1.164089e+00 -2.207422e+00 6.711692e-01 1.317325e+00 -1.225416e+00 -2.179700e-01 -3.552766e-01 4.497935e-01 2.369055e+00 9.455679e-02 
-4.278680e+00 -4.568756e+00 -7.496053e+00 -6.866296e+00 5.792515e+00 6.174833e+00 6.391273e+00 6.472808e+00 -2.161942e+00 1.663329e+00 7.473654e+00 1.942316e+00 1.674179e-01 4.607989e+00 2.621972e-01 4.671766e-01 -1.853657e+00 -3.392577e+00 -4.547591e-01 -2.001592e-01 -3.048027e+00 1.786356e+00 -1.550994e+00 2.281334e-01 4.456951e+00 1.709139e-01 
5.679977e+00 5.937529e-02 -3.905160e+00 -6.313357e+00 -6.065796e+00 3.750134e+00 5.889464e+00 -1.982135e+00 1.627794e+00 5.369691e+00 2.834585e+00 5.836724e+00 3.815336e-01 4.743562e+00 -2.834104e-01 1.311176e+00 -1.869893e+00 -2.532960e+00 -1.861591e+00 -1.981088e+00 -2.285689e+00 3.351956e+00 -3.992617e+00 -8.751826e-02 4.161347e+00 2.190447e-01 
1.222701e+01 -2.828248e+00 -3.783396e+00 -1.132918e+01 -3.642975e+00 3.209944e+00 1.456779e+00 -7.916812e-01 9.959365e+00 -4.508185e+00 6.928601e+00 1.091508e+01 7.345799e-01 3.256789e+00 -1.212271e+00 1.266587e+00 -1.902452e+00 -1.528280e+00 -1.542600e+00 -1.350666e+00 -5.725856e-01 3.544769e+00 -3.783381e+00 4.100099e-01 3.325563e+00 2.063899e-01 
9.747520e+00 -6.552225e+00 -2.159638e+00 -1.241676e+01 -2.708396e+00 1.392080e+00 1.039215e+00 1.390166e+00 1.124803e+01 -1.003898e+01 7.733362e+00 1.384105e+01 8.955585e-01 8.660679e-01 -1.999880e+00 4.282416e-01 -1.454243e+00 -8.152990e-02 -8.249100e-01 -8.674909e-01 1.235639e+00 1.454983e+00 -3.557966e+00 1.031816e+00 2.080043e+00 1.378993e-01 
9.971497e+00 -7.324311e+00 -2.035879e+00 -1.332686e+01 -3.527583e+00 -3.591398e-01 2.063065e+00 1.923729e+00 1.075178e+01 -9.549238e+00 7.074315e+00 1.456797e+01 9.423548e-01 3.154557e-02 -1.027670e+00 1.265470e-01 -7.266569e-02 -1.427709e+00 -5.038161e-01 5.526749e-01 3.282498e-01 -2.348862e-01 -9.888602e-01 3.245422e-01 8.862225e-01 5.547287e-02 
1.113807e+01 -7.691995e+00 -2.637711e+00 -1.258573e+01 -6.531141e+00 1.410125e+00 1.248867e+00 2.838354e+00 8.506500e+00 -9.899612e+00 7.920806e+00 1.441049e+01 9.671428e-01 5.285288e-01 -9.151287e-02 -3.819239e-01 3.296383e-01 -1.959281e+00 -1.755774e-03 7.289904e-01 -1.847319e-01 -4.309432e-01 1.861820e-01 3.467162e-01 1.687866e-01 2.253953e-02 
1.168946e+01 -7.396710e+00 -2.911625e+00 -1.160802e+01 -8.870150e+00 6.818400e-01 4.115327e+00 1.254734e-01 1.015570e+01 -9.522171e+00 8.457589e+00 1.506147e+01 9.761521e-01 3.793735e-01 2.047364e-01 -2.674896e-01 3.044549e-01 -1.637085e+00 -1.298819e-01 1.008477e+00 -1.930310e-01 -5.220991e-01 4.148592e-01 5.153649e-01 -2.478786e-01 1.395051e-02 
1.153118e+01 -6.973590e+00 -3.631384e+00 -1.162799e+01 -9.833518e+00 8.628115e-01 3.658036e+00 1.365634e+00 9.391358e+00 -9.121607e+00 8.775305e+00 1.443824e+01 9.913574e-01 1.336630e-01 4.233672e-01 4.510672e-02 -1.440639e-01 -9.114504e-01 -7.110467e-01 1.472083e+00 -1.654152e-01 -6.922917e-01 7.261259e-01 4.025982e-01 -1.891841e-01 8.404178e-03 
1.167181e+01 -6.659831e+00 -2.876490e+00 -1.228345e+01 -1.006182e+01 -7.348925e-01 5.900867e+00 1.694934e+00 7.698855e+00 -7.863945e+00 9.223889e+00 1.331470e+01 1.000000e+00 7.882588e-02 6.303892e-01 2.379057e-01 -5.302418e-01 -6.587294e-01 -6.700985e-01 1.366843e+00 5.912344e-02 -1.027844e+00 5.223638e-01 5.390752e-01 -9.952946e-02 1.675189e-03 
1.181521e+01 -5.943598e+00 -2.429745e+00 -1.296834e+01 -1.049256e+01 -1.436742e+00 7.716512e+00 1.226547e+00 6.273464e+00 -7.098095e+00 9.550647e+00 1.433795e+01 9.972397e-01 5.585177e-02 8.194586e-01 5.239869e-01 -6.732769e-01 -7.942349e-01 -7.458996e-01 1.681138e+00 -1.812164e-01 -7.493348e-01 2.703390e-01 5.921537e-01 -5.298815e-02 -7.531428e-03 
1.194157e+01 -4.759760e+00 -2.322917e+00 -1.358905e+01 -1.183428e+01 -1.518876e+00 8.920306e+00 4.906340e-01 6.575428e+00 -7.922108e+00 1.076529e+01 1.461396e+01 9.815869e-01 -1.174991e-01 1.154503e+00 6.109825e-01 -7.087852e-01 -9.923824e-01 -6.360556e-01 1.137996e+00 -7.239751e-02 -6.874588e-01 -2.247997e-01 6.367455e-02 -4.869375e-01 -1.563567e-02 
1.167556e+01 -3.826332e+00 -1.288236e+00 -1.434157e+01 -1.291846e+01 -2.474695e+00 1.055401e+01 1.061702e+00 6.206398e+00 -7.740830e+00 1.096537e+01 1.352366e+01 9.629068e-01 -1.712626e-01 1.407175e+00 9.418423e-01 -9.806350e-01 -8.837112e-01 -7.159277e-01 4.413312e-01 -2.770413e-01 -4.620461e-01 -5.134172e-01 -4.705237e-01 -1.394882e+00 -2.286213e-02 
1.115414e+01 -1.945949e+00 -3.923314e-01 -1.514076e+01 -1.381078e+01 -3.396194e+00 1.017210e+01 1.415370e+00 4.295094e+00 -8.666576e+00 8.834900e+00 1.128716e+01 9.389881e-01 -1.775630e-01 1.487396e+00 1.571530e+00 -1.301233e+00 -5.491043e-01 -6.420704e-01 -4.141390e-01 -1.231017e-01 -4.448400e-01 5.421638e-04 -1.193145e+00 -2.079527e+00 -3.016033e-02 
1.135262e+01 -3.146293e-01 1.314174e+00 -1.709566e+01 -1.392286e+01 -4.077721e+00 9.297270e+00 -6.210271e-01 5.103400e+00 -9.292948e+00 8.163226e+00 9.026947e+00 9.042285e-01 5.058434e-01 1.614414e+00 1.484055e+00 -8.351822e-01 -1.332212e+00 5.389837e-01 -1.300560e+00 3.724158e-01 -2.838675e-01 8.034354e-01 -1.162411e+00 -2.963893e+00 -4.333549e-02 
1.121523e+01 9.213700e-01 4.233529e+00 -1.871818e+01 -1.407760e+01 -3.927715e+00 7.477980e+00 7.164901e-01 4.902726e+00 -7.143339e+00 6.200644e+00 6.464686e+00 8.601245e-01 8.895672e-01 1.715413e+00 1.093382e+00 -6.981436e-01 -1.553838e+00 7.110578e-01 -1.702921e+00 1.135906e+00 -4.021668e-01 1.654896e+00 -7.566791e-01 -3.209054e+00 -5.573867e-02 
1.417423e+01 2.812077e+00 3.819108e+00 -1.672878e+01 -1.944611e+01 4.859843e-01 5.398269e+00 3.273221e+00 4.483245e+00 -4.485272e+00 6.470446e+00 1.115434e+00 7.856612e-01 9.879557e-01 1.835658e+00 1.267644e-01 -5.153681e-01 -1.106500e+00 2.690822e-01 -2.246769e+00 1.753440e+00 -2.148033e-01 1.003298e+00 -1.374529e-01 -3.333194e+00 -5.595483e-02 
1.419117e+01 5.067761e+00 3.822112e+00 -1.881492e+01 -1.881834e+01 -2.122758e+00 3.606997e+00 5.147776e+00 2.594338e+00 -2.795934e+00 5.897895e+00 -8.023540e-01 7.195784e-01 1.203116e+00 1.975271e+00 -7.038879e-02 8.331722e-01 -7.774561e-01 -1.464258e+00 -1.435580e+00 2.124331e+00 -1.365662e+00 1.841297e+00 -8.606039e-01 -3.178533e+00 -4.866693e-02 
1.480443e+01 6.790463e+00 2.153705e+00 -1.962413e+01 -1.708499e+01 -3.634789e+00 -1.085579e-03 5.930529e+00 5.183578e+00 -6.450158e+00 7.627336e+00 -4.005504e+00 6.947274e-01 -2.999558e-01 1.773922e+00 -6.478476e-01 2.090274e+00 7.614355e-01 -1.822339e+00 -3.178677e-01 1.569871e+00 -1.506705e-02 2.404372e+00 -2.295877e+00 -2.752509e+00 -8.464290e-02 
1.691571e+01 8.808531e+00 4.714287e+00 -1.310464e+01 -1.914544e+01 -9.188618e+00 2.999757e+00 1.000949e+01 -2.275749e+00 3.045589e+00 1.319180e+00 -6.867512e+00 6.622567e-01 -2.175982e+00 -2.716087e-01 -6.513853e-01 6.443660e+00 4.493406e+00 6.065019e-01 8.966873e-01 9.006401e-01 4.214931e-01 2.304292e+00 -3.388012e+00 -1.039685e+00 -1.226144e-01 
1.131218e+01 9.811301e+00 1.337827e-01 -9.132547e+00 -1.547539e+01 -5.092780e+00 4.112550e+00 8.691720e+00 6.842954e+00 4.615826e+00 -2.719582e+00 -9.614532e+00 3.911076e-01 -3.263451e+00 -2.343953e+00 -9.136181e-01 7.301340e+00 5.928034e+00 2.014598e+00 1.019591e+00 -1.013936e+00 1.162826e-01 2.815339e+00 -2.079964e+00 3.859380e-01 -1.305760e-01 
5.057382e+00 2.199300e+00 1.575147e+00 8.157591e+00 2.843884e+00 1.638748e+00 6.033615e+00 8.270381e+00 3.872116e+00 3.192536e+00 -5.868704e+00 -3.196262e+00 2.583164e-01 -3.217245e+00 -2.950417e+00 1.243722e-01 4.654532e+00 6.546412e+00 2.299284e+00 -1.801787e+00 -2.978130e+00 -1.430572e-01 3.511874e-01 5.129365e-01 1.178523e+00 -9.419822e-02 
4.416334e+00 -1.624687e+00 -8.448156e-01 6.251452e+00 1.560520e+00 1.024517e+00 3.579942e+00 1.730403e+00 2.691058e+00 7.553062e+00 8.214599e-01 -3.911438e+00 2.438176e-01 -1.068750e+00 -1.808722e+00 7.184033e-01 2.143734e+00 4.378496e+00 5.240862e-01 -1.777831e+00 -2.372568e+00 -1.889706e+00 8.191309e-01 1.636198e+00 1.299426e+00 -4.395019e-02 
4.277411e+00 -2.255580e-01 5.825447e+00 2.476021e+00 5.068671e+00 -7.508466e-01 -5.742874e+00 -1.400498e+00 -9.150875e-01 3.332908e+00 2.113342e+00 -3.826446e+00 2.649106e-01 -2.484973e-01 4.097518e-01 7.234970e-01 -1.273166e+00 3.429723e-01 -8.331694e-02 -1.088784e+00 -7.532320e-01 -1.788534e+00 1.051923e+00 1.217351e+00 2.663291e-01 -4.207040e-02 
6.358418e+00 1.980119e+00 1.600649e+00 4.426910e+00 5.304698e+00 -1.277552e+00 1.111638e+00 1.664320e+00 -2.119725e-01 8.641294e+00 1.470384e+00 -2.802312e+00 1.680595e-01 -6.726048e-01 9.274103e-01 7.533840e-01 3.068221e-01 9.853703e-01 1.592369e+00 3.262416e-01 8.943497e-01 -1.249737e+00 -9.732767e-01 -8.208057e-01 6.129156e-01 -5.190822e-02 
2.843853e+00 2.445656e+00 3.969899e+00 2.704031e+00 2.686656e+00 2.373197e+00 1.823846e+00 4.537263e+00 -3.619040e+00 7.908035e+00 -1.064132e-01 -2.419180e+00 8.584344e-02 -1.602289e+00 -7.103992e-02 -7.074593e-01 1.268175e+00 1.155405e+00 3.146363e+00 1.387114e+00 9.333516e-01 6.802806e-01 -1.134381e+00 -1.507909e+00 -3.099572e-02 -5.773047e-02 
1.770089e+00 1.676758e+00 3.849878e+00 7.671558e+00 7.678378e+00 7.424340e+00 1.427790e+00 3.233271e+00 -2.205648e+00 3.991146e-01 -2.172691e+00 -1.550493e+00 7.381010e-02 -2.068469e+00 -7.604849e-01 -5.200760e-02 9.912044e-01 6.809195e-01 2.438319e+00 3.154258e-01 -1.519673e-01 1.266367e+00 -1.461351e+00 -1.466543e+00 -6.172057e-01 -3.947290e-02 
-1.439868e+00 -4.290769e-01 1.163536e+00 7.194573e+00 9.658855e+00 1.063002e+01 1.034621e+00 2.481785e+00 3.483153e+00 1.782095e+00 -3.604664e+00 -4.607334e+00 2.338296e-02 -1.913864e+00 -1.013895e+00 -1.034487e+00 6.471081e-01 -3.816009e-01 -9.071649e-01 -5.114264e-01 -1.031175e+00 1.502914e-01 -1.704789e+00 -2.042984e+00 -3.914183e-01 -2.610871e-02 
-1.842064e+00 -3.849390e-01 2.743793e+00 7.137661e+00 5.223196e+00 6.785631e+00 3.083380e+00 1.932222e+00 2.568766e+00 4.397510e+00 -4.113206e+00 -4.794264e+00 1.925290e-03 -1.267617e+00 -2.765808e-01 -7.048885e-01 -9.985740e-02 -2.049975e+00 -2.342218e+00 -8.476045e-01 -1.786462e+00 -1.061949e+00 -1.083793e+00 -1.537307e+00 -1.141457e+00 -1.534639e-02 
-4.919389e+00 -1.592972e+00 -6.494955e-01 6.206520e+00 2.006243e+00 -1.843273e+00 -1.561080e+00 3.191078e-02 -5.254790e+00 -2.615106e+00 -9.351078e+00 -2.754386e+00 -8.757710e-03 -9.510714e-01 1.294657e-01 1.722887e-01 6.846306e-01 -1.158804e+00 -2.421398e+00 -4.086493e-01 -1.392941e+00 -1.976905e+00 -1.139420e+00 -4.847168e-01 -7.188464e-01 -7.720733e-03 
-2.828238e+00 8.758018e-01 1.231952e+00 7.666298e+00 1.254810e+00 1.949898e+00 -1.512381e+00 -4.474104e+00 -3.146423e+00 -2.821251e+00 -6.986020e+00 -8.184253e+00 1.314849e-02 -1.069264e+00 6.594940e-02 3.778232e-01 6.787230e-01 5.311685e-01 -3.154123e-01 -1.052510e-01 5.125014e-01 5.214860e-01 6.238015e-01 5.866114e-01 3.475050e-01 -5.712628e-03 
-5.702138e+00 -4.121189e-01 2.780900e+00 1.035341e+01 5.849030e+00 9.408982e-01 1.289255e+00 -1.279756e+00 -3.543776e+00 -3.056245e-01 -4.591841e+00 -6.506572e+00 -2.083230e-02 -8.172172e-01 3.083318e-01 6.979283e-01 -7.823505e-02 6.804992e-01 4.300846e-01 3.664946e-01 1.193639e+00 1.829110e+00 2.562568e+00 8.883449e-01 -1.062511e+00 -8.635086e-03 
-6.797009e+00 -6.456187e-01 2.917711e+00 8.457832e+00 5.957644e+00 3.816484e+00 1.131957e+00 5.150562e+00 4.320689e+00 6.361776e+00 -3.559767e+00 -1.180645e+00 -2.060056e-02 -9.756805e-01 -4.493177e-02 -4.529935e-01 -9.955770e-01 1.499083e+00 4.439607e-01 -6.273677e-01 1.118272e+00 8.787907e-01 1.185172e+00 -1.287920e-01 5.830951e-01 -7.355666e-03 
-7.021090e+00 7.093971e-01 1.997267e+00 5.419578e+00 3.057322e+00 -6.261424e-01 -1.050776e+00 1.187774e+00 1.572027e-01 5.606224e+00 -6.622479e+00 -1.156874e+01 -3.505862e-02 -4.753385e-01 1.163911e-01 -6.982168e-01 -1.436711e+00 1.139161e+00 5.422485e-01 -8.558059e-01 7.463434e-01 1.510178e+00 8.395180e-01 5.731264e-01 1.508410e+00 -9.553194e-04 
-7.047165e+00 9.038496e-02 -6.411988e-01 5.155328e+00 1.014608e+01 4.953222e+00 -3.479204e+00 -1.165087e-01 -6.029584e-01 1.486874e-01 -6.614661e+00 -2.737692e+00 -1.651669e-02 -1.710052e-01 -7.654238e-02 -3.252476e-01 -5.427058e-01 7.800260e-01 7.568060e-01 5.480875e-01 -3.060321e-01 3.023737e-01 3.836506e-01 1.678897e+00 1.341269e+00 7.511377e-05 
-7.953753e+00 -1.981654e-01 1.069271e+00 4.821104e+00 9.450621e+00 3.083772e+00 -6.841940e-01 5.085496e+00 6.468937e+00 6.998510e+00 -1.987627e-01 1.814004e+00 -2.765083e-02 1.754118e-01 3.795737e-02 5.774652e-01 7.079577e-01 3.325040e-01 6.648844e-01 1.167423e+00 3.588909e-01 6.028851e-01 2.269261e-01 1.649929e+00 1.784101e+00 -1.614642e-03 
-7.185703e+00 -5.745493e-01 1.755471e+00 6.043540e+00 6.661126e+00 5.745557e+00 3.689103e+00 1.671541e+00 2.676691e+00 7.583886e+00 1.622859e+00 -1.165672e+00 -2.392888e-02 4.733464e-01 4.561952e-01 7.569307e-01 5.034488e-01 -1.710951e+00 -1.006282e+00 -6.473549e-02 -5.843598e-01 -1.190194e+00 -4.329680e-01 -4.594861e-01 -1.228899e+00 -3.032768e-03 
-6.074761e+00 1.231651e+00 3.686258e+00 8.515261e+00 6.462317e+00 2.302112e+00 1.202185e+00 2.088204e+00 1.531803e+00 3.023255e+00 -2.491591e+00 -3.434247e+00 -3.942573e-02 5.325842e-01 3.113519e-01 -1.890825e-01 6.078173e-01 -9.005848e-01 -5.250292e-01 -4.356421e-01 -1.734332e+00 -3.246104e+00 -2.132974e+00 -1.798191e+00 -1.595464e+00 2.548695e-04 
-5.619928e+00 1.656452e+00 1.834961e+00 5.825494e+00 3.085472e+00 3.126423e-01 -4.746071e+00 -1.539661e+00 -4.085362e+00 -2.852488e-02 -7.765677e+00 -6.258062e+00 -2.579308e-02 2.109849e-01 1.466692e-01 -6.664920e-01 1.054884e-01 -5.217392e-01 -8.793344e-01 -6.218845e-01 -1.298030e+00 -1.758972e+00 -3.885036e-01 -3.047144e-01 -3.097562e-01 2.146196e-03 
-6.073719e+00 2.430930e-01 8.411275e-02 7.969213e+00 6.735523e+00 3.175083e+00 1.355183e+00 -1.980565e+00 -6.380557e+00 1.398449e-01 -4.495448e+00 -3.617123e+00 -2.544439e-02 -6.192265e-02 -4.867373e-01 -1.040118e+00 -1.871945e-01 4.473183e-01 5.691131e-02 9.860468e-01 -1.002306e+00 -8.879095e-01 -3.540082e-01 -4.661193e-01 1.806953e-01 3.295422e-03 
-6.131300e+00 6.530759e-01 2.240831e-01 6.844005e+00 3.915827e+00 9.123994e-01 5.031816e-01 -2.784226e+00 -2.161990e+00 7.083073e+00 1.101215e+00 -2.623015e+00 -2.018857e-02 1.110672e-01 -4.189444e-03 -2.939662e-01 -1.480071e-01 1.797911e+00 2.771631e-01 3.864967e-01 8.293171e-01 1.142844e+00 -7.199915e-01 -1.247990e-01 3.240155e-01 -1.828969e-03 
-6.128689e+00 -7.003469e-01 -7.088918e-01 7.070032e+00 8.283731e+00 2.286790e+00 3.507793e+00 -2.301046e+00 -3.869430e+00 -2.302586e+00 -9.255634e+00 -4.348293e+00 -2.575088e-02 1.719841e-01 6.775727e-01 6.117581e-01 -5.676187e-01 4.834871e-01 -2.047428e-01 -1.134000e-01 1.029561e+00 9.854568e-01 -1.391570e+00 -7.000934e-01 -3.149992e-01 -5.850911e-04 
-5.037107e+00 2.107225e+00 7.616326e-01 5.535049e+00 1.130092e+01 2.142604e+00 -3.889893e+00 2.767165e+00 3.732932e-01 -2.407267e+00 -6.009579e+00 -4.272399e+00 -3.478467e-02 8.332996e-02 5.252965e-01 6.511639e-01 1.319324e-01 4.657972e-01 1.097970e+00 4.314312e-02 7.962307e-01 -5.938727e-01 -1.541131e+00 -1.640120e-01 4.136762e-01 2.704823e-03 
-5.760895e+00 2.903882e+00 2.874128e+00 5.785598e+00 5.460411e+00 1.536267e+00 2.984720e+00 3.915437e-01 -2.720915e+00 -2.072836e+00 -4.440518e+00 -4.367426e+00 -2.107179e-02 1.526012e-01 5.051670e-01 5.993335e-01 3.145397e-01 -1.097873e+00 4.826327e-01 -9.106514e-01 -8.245916e-01 -1.068792e+00 6.787241e-01 9.444931e-01 1.223345e-01 1.820231e-03 
-5.898547e+00 1.477444e+00 1.688393e+00 8.145885e+00 7.656473e+00 6.777511e+00 9.804339e-01 -1.493673e-01 -5.705612e+00 -7.374582e-01 -2.126403e+00 -5.450680e-01 -9.003997e-03 -3.483421e-01 -1.380210e-01 5.887960e-01 1.450765e+00 -1.038079e+00 -6.302164e-01 -1.888133e-01 -1.582215e+00 -7.963016e-01 7.412074e-01 1.296754e+00 -6.600316e-02 3.860724e-03 
-4.934963e+00 2.140379e+00 1.824396e+00 7.337313e+00 4.616591e+00 2.382500e+00 -3.480627e+00 -4.965738e+00 -6.173936e+00 2.561302e-01 -6.474757e+00 -5.600286e+00 -2.954006e-02 -4.313402e-02 1.768708e-03 -9.988239e-02 4.343665e-01 -5.926654e-02 -7.203828e-01 -9.742386e-01 2.650734e-01 9.338933e-01 1.949071e-01 -3.015565e-01 -1.466420e-01 9.471178e-05 
-7.191784e+00 1.798872e+00 4.230478e+00 1.201302e+01 6.532437e+00 -1.431595e+00 -1.601285e+00 -2.465267e+00 -1.881704e+00 1.342864e-01 1.491308e+00 -3.985985e+00 -1.124692e-02 7.422180e-02 3.160768e-01 -1.890161e-01 -5.557491e-01 -2.751249e-01 -9.820806e-01 -2.670813e-02 1.388906e+00 1.769495e+00 -3.383733e-01 -1.254390e+00 -3.450112e-01 -1.088226e-03 
-5.329947e+00 2.752012e+00 1.103673e+00 6.023864e+00 5.726096e+00 2.038905e+00 -5.956135e-01 2.874861e+00 3.659797e-02 -1.534173e+00 -7.757156e+00 -3.380178e+00 -1.947677e-02 1.071871e-01 2.176405e-01 -4.568250e-01 -8.616052e-01 1.412669e-01 2.783310e-01 6.775699e-01 2.102132e+00 1.433937e+00 -5.249066e-01 -1.181326e+00 5.046023e-01 1.189673e-03 
