-5.504724e+00 1.742071e+00 1.276802e+00 -2.335359e+00 4.124094e+00 2.005719e+00 -5.835366e-01 6.974452e+00 5.334096e-01 4.941556e+00 2.729123e+00 4.974565e+00 -1.512927e-01 -8.429088e-02 3.012965e-01 2.402620e-01 -2.141805e-01 -7.211014e-01 9.761332e-01 1.610594e+00 -8.936802e-01 3.139403e-01 3.482079e-01 3.272253e-01 2.217996e-02 0.000000e+00 
-5.306357e+00 3.357147e+00 9.303262e-01 -2.294041e+00 1.861719e+00 1.261688e+00 3.884809e+00 2.885942e+00 -3.192867e+00 7.072860e+00 3.522341e+00 4.301471e+00 -1.512927e-01 2.687710e-01 6.955315e-01 1.376327e-01 1.904894e-01 -6.781963e-01 1.309951e+00 1.267312e+00 -4.632753e-01 5.771639e-01 2.551368e-01 6.675708e-02 1.044948e+00 0.000000e+00 
-6.025361e+00 2.441016e+00 2.651349e+00 -3.426920e+00 1.649773e+00 7.258401e+00 5.235259e+00 4.550306e+00 3.966249e+00 5.616943e+00 3.968640e+00 5.422011e+00 -1.512927e-01 7.295023e-01 6.950617e-01 -2.759070e-01 4.265738e-01 -5.405933e-01 1.118002e+00 4.030171e-01 3.068747e-01 3.863328e-01 3.248459e-01 -2.548658e-01 9.005626e-01 0.000000e+00 
-3.900550e+00 4.870256e+00 1.277691e+00 -8.371314e-01 1.970272e+00 5.929133e+00 2.843626e+00 5.870149e+00 1.702809e+00 5.879546e+00 2.443150e+00 9.975580e+00 -1.512927e-01 5.517081e-01 4.164115e-01 -2.815726e-02 1.006477e+00 -2.668320e-01 5.496726e-01 -6.048449e-01 1.111234e+00 3.066794e-01 1.739161e-02 -1.572193e+00 1.790180e-01 6.892920e-04 
-2.560116e+00 4.460824e+00 -2.764156e-01 -9.309454e-01 1.366850e+00 5.262007e+00 1.952141e+00 7.016723e+00 1.723540e-02 7.162442e+00 1.994390e+00 6.640324e+00 -1.512927e-01 3.760957e-01 4.423458e-01 3.739964e-01 1.190704e+00 5.401236e-01 -2.282854e-01 1.340784e-01 7.490381e-01 -1.158122e+00 5.352077e-01 -5.352592e-01 2.943742e-01 3.446460e-04 
-4.280439e+00 4.429299e+00 2.253422e+00 1.490357e+00 6.690211e-01 5.008248e+00 2.502144e+00 7.208904e+00 3.150370e-01 6.387069e+00 -3.351497e+00 4.587404e+00 -1.478462e-01 2.052946e-02 3.887545e-01 1.408423e+00 6.630774e-01 1.923852e+00 1.120865e+00 1.159884e+00 -5.610520e-01 -1.997093e-01 4.757128e-01 6.766988e-01 -6.191670e-01 0.000000e+00 
-3.954938e+00 4.873223e+00 4.033465e+00 1.362856e+00 5.001017e+00 6.577416e+00 6.076392e+00 7.626120e+00 -1.130473e+00 8.039220e+00 4.189667e+00 9.587970e+00 -1.512927e-01 1.954862e-01 2.912448e-01 1.249316e+00 5.460354e-01 2.025170e+00 2.562897e-01 7.397500e-01 -1.589188e-01 2.837007e-01 -3.753526e-01 1.327287e+00 1.660958e-01 -3.446460e-04 
-3.100492e+00 6.607830e+00 6.164865e+00 1.331355e+00 9.772448e+00 1.087576e+01 6.580920e+00 2.760191e+00 1.278117e+00 7.819721e+00 4.729005e+00 5.405921e+00 -1.512927e-01 -5.686369e-02 -2.687151e-01 1.431815e-01 -6.843876e-01 1.179696e+00 -5.062755e-01 -3.739462e-01 -2.142592e-01 3.488246e-01 2.866486e-01 1.404589e+00 1.358616e-01 -6.892920e-04 
-2.172659e+00 4.827784e+00 4.014441e+00 1.878733e+00 6.940988e+00 3.609702e+00 3.611503e+00 8.446486e+00 9.541991e-01 4.569353e+00 4.590573e+00 7.061544e+00 -1.512927e-01 -5.132576e-01 -8.004586e-01 -4.564683e-01 -1.113312e+00 -5.071214e-01 -1.121710e+00 -1.415953e+00 -5.731351e-01 3.430253e-01 4.565219e-01 -5.776718e-01 -2.937195e-01 0.000000e+00 
-5.455897e+00 3.108443e+00 2.978842e+00 -2.189520e+00 5.597516e+00 3.960728e+00 1.864858e+00 5.727425e+00 1.016824e+00 9.555245e+00 3.470996e+00 6.529925e+00 -1.512927e-01 -7.293282e-01 -8.979367e-01 -9.458851e-01 -1.094040e+00 -8.235701e-01 -1.226261e+00 -1.610225e+00 2.518076e-01 5.888195e-01 -1.466664e-01 -3.669730e-01 1.252252e+00 0.000000e+00 
-5.343523e+00 2.620624e+00 3.344135e+00 -2.443267e+00 4.552876e+00 4.426379e+00 1.354658e+00 3.276827e+00 7.153000e-01 9.454067e+00 1.930312e+00 7.557370e+00 -1.512927e-01 -6.301613e-02 1.667208e-01 -4.839862e-01 -3.373279e-01 1.911075e-01 5.074751e-01 -2.963448e-01 3.673580e-01 1.150787e+00 -3.433879e-01 1.057400e-01 8.376305e-01 0.000000e+00 
-5.161700e+00 3.221726e+00 1.770592e+00 -1.977847e+00 6.848653e+00 4.336110e+00 -3.417854e-01 6.604058e+00 4.341664e+00 4.644032e+00 4.224271e+00 1.141927e+01 -1.512927e-01 7.843687e-01 8.504311e-01 4.920862e-01 1.211193e+00 7.398009e-02 7.792851e-01 9.344890e-02 9.787531e-01 8.184174e-01 -8.697876e-01 6.436998e-01 8.231744e-01 0.000000e+00 
-2.634838e+00 5.604746e+00 2.198635e+00 8.625698e-02 7.270957e+00 5.959386e+00 3.233100e+00 9.844959e+00 5.045712e+00 5.308021e+00 4.742636e+00 8.805023e+00 -1.512927e-01 5.357615e-01 6.055244e-01 5.174879e-01 1.542764e+00 -4.049543e-01 3.735345e-01 -5.525868e-01 6.055358e-01 -4.119244e-01 -2.025944e-01 9.640933e-01 3.913372e-01 0.000000e+00 
-2.888396e+00 5.868538e+00 6.012023e+00 2.601684e+00 4.608376e+00 7.090650e+00 1.392881e+00 7.337125e+00 2.943705e+00 7.279330e+00 5.283333e+00 1.002197e+01 -1.512927e-01 1.643546e-01 3.447796e-01 8.204160e-01 1.518260e+00 -1.093180e+00 -2.408781e-01 -3.710038e-01 8.426452e-02 -1.981742e+00 1.680894e+00 3.115851e-01 -6.998578e-01 0.000000e+00 
-3.801368e+00 4.324840e+00 3.810859e+00 2.980789e+00 3.648242e+00 4.916781e+00 -2.275609e+00 5.937973e+00 -6.453424e-01 7.123446e+00 6.221248e+00 1.021271e+01 -1.512927e-01 -4.988261e-01 3.857470e-03 4.298203e-01 2.271651e-01 -7.210553e-01 -5.860403e-01 1.108158e+00 -2.291510e-01 -1.643295e+00 6.820540e-01 -3.994341e-01 -8.512191e-01 0.000000e+00 
-3.756662e+00 5.585577e+00 5.066559e+00 4.166188e+00 3.194111e+00 3.653022e+00 5.575501e-01 8.978874e+00 -2.721519e+00 1.214079e+01 5.042891e+00 7.216140e+00 -1.512927e-01 -4.523827e-01 -2.511284e-01 -7.660953e-01 -9.206036e-01 -2.346651e-01 -5.028118e-01 1.514745e+00 -7.217916e-01 -7.727823e-01 -1.539001e-01 -4.380763e-01 -8.706877e-01 0.000000e+00 
-4.694836e+00 5.765514e+00 4.820468e+00 4.398301e-01 4.372813e+00 4.747999e+00 9.191556e+00 7.878329e+00 -3.381510e-01 6.287561e+00 2.865687e+00 5.951844e+00 -1.512927e-01 -1.543424e-01 -3.324403e-01 -5.797998e-01 -8.514057e-01 1.063207e-01 1.892410e-01 3.797253e-01 -5.215575e-01 7.480223e-01 -6.124107e-01 -1.113656e+00 -1.194095e+00 0.000000e+00 
-4.703576e+00 3.892559e+00 1.676742e+00 -7.308552e-01 3.072765e+00 4.660982e+00 3.233025e+00 2.757988e+00 -1.073802e+00 6.927773e+00 4.770732e+00 7.798964e+00 -1.512927e-01 6.779385e-02 -5.612361e-01 -1.398544e+00 -4.884410e-01 8.858015e-02 3.179834e-01 -2.010363e+00 -1.475278e+00 1.236489e+00 -5.111526e-01 1.189814e-02 -5.580314e-01 5.215168e-04 
-4.099623e+00 3.509147e+00 2.606769e+00 1.172282e+00 4.240519e+00 5.359006e+00 -1.714720e+00 6.440628e+00 2.270911e+00 6.667901e+00 7.890467e-01 3.950821e+00 -1.512927e-01 8.124361e-02 -1.856915e-01 -1.137357e+00 -3.924410e-01 3.581600e-01 -6.843702e-01 -1.744104e+00 -5.356780e-01 1.036703e+00 -5.290462e-01 9.213009e-02 4.883300e-01 2.403021e-03 
-3.715300e+00 3.907580e+00 -8.193126e-01 1.357757e+00 3.703159e+00 4.937435e+00 -4.041127e+00 2.321333e+00 2.156396e+00 9.394855e+00 6.140701e+00 5.426494e+00 -1.486851e-01 -1.112166e+00 4.945312e-02 -2.334303e-01 -9.718885e-01 7.617476e-01 -3.423996e+00 2.746125e-01 3.555061e-01 6.972758e-01 -2.220114e+00 -6.836183e-01 3.547904e-01 5.947698e-02 
-4.782756e+00 4.829545e+00 3.817127e-01 -2.566681e+00 5.848416e+00 1.187922e+00 4.108110e+00 5.418267e+00 3.230268e+00 2.408788e+00 2.641353e+00 9.579729e+00 -1.405814e-01 -7.987294e-01 -1.368245e-01 9.200104e-01 -8.600042e-01 2.973407e-01 -2.326205e+00 9.985407e-01 -2.029000e-01 -2.378555e-01 -2.643286e+00 -1.149656e-01 1.406140e+00 3.750168e-02 
-9.922839e+00 3.479625e+00 1.622119e+00 -3.720817e+00 6.077554e+00 -1.037346e+01 1.694672e+00 5.046700e+00 1.932898e+00 -2.043240e+00 4.264877e-01 6.758462e+00 1.407366e-01 -1.436833e-01 -3.694274e-01 1.176665e+00 -5.252798e-01 -8.494267e-01 -1.422555e+00 8.668752e-02 -4.247174e-01 -1.930277e+00 -2.268544e+00 -9.943819e-01 -2.605329e-01 2.687108e-03 
-4.989500e+00 3.039002e+00 5.986105e+00 -5.884526e-01 4.540024e+00 1.383423e+00 4.100844e-01 4.063445e+00 1.193383e+00 -8.294799e-01 3.071326e+00 1.031554e+01 -1.084951e-01 5.921413e-01 -6.442973e-01 -3.886636e-01 6.768739e-03 -1.263008e+00 1.533037e+00 -1.826643e+00 -1.178325e+00 -2.547238e+00 -5.419177e-01 -1.043061e+00 -1.873486e+00 -3.134519e-02 
-4.330344e+00 2.955715e+00 2.261817e+00 -2.257756e+00 1.102209e-01 -2.273089e+00 -1.758677e+00 8.751571e-01 -6.476546e+00 -3.287306e-01 9.538055e-01 3.755925e+00 -1.512927e-01 1.077026e+00 -4.048055e-01 -8.860369e-01 -4.741931e-02 -1.288214e+00 2.296836e+00 -1.750539e+00 -1.789743e+00 -2.088765e+00 8.656697e-01 -5.897428e-01 -1.505527e+00 -6.268561e-02 
-4.618297e+00 1.870014e+00 -1.881454e+00 -3.264368e+00 2.517045e+00 4.802925e+00 -3.298430e+00 1.612412e+00 -5.301202e+00 -1.158055e+00 -2.837611e+00 1.713568e+00 -1.512927e-01 -6.136598e-02 -1.181045e-01 -8.681820e-01 -5.069289e-01 -8.335898e-02 5.610531e-01 -9.449472e-01 -8.647420e-01 -1.188900e+00 -2.426379e-02 -6.769286e-01 -2.612984e-01 -8.559513e-03 
-4.723312e+00 2.040092e+00 1.125714e+00 -2.619956e+00 6.479750e-01 -5.990248e-01 -5.203764e+00 -2.676501e+00 -5.263636e+00 2.449396e+00 4.322420e-01 3.531814e+00 -1.512927e-01 -1.215987e-01 -3.857853e-01 8.188963e-02 8.122208e-01 1.163715e+00 -2.031214e-01 -6.082870e-01 3.175764e-01 1.341888e+00 1.515358e-01 -3.375297e-01 1.576311e+00 0.000000e+00 
-5.099846e+00 2.906291e+00 2.213247e+00 -2.941997e+00 3.854352e+00 3.351656e+00 -2.592108e+00 1.515564e+00 -5.357573e+00 -2.339862e+00 -5.253588e-02 9.121101e+00 -1.512927e-01 6.225472e-02 -9.375503e-02 5.588734e-01 1.885418e+00 1.424028e+00 -1.524041e+00 -1.109918e+00 1.260837e+00 2.226433e+00 4.794562e-01 7.810630e-01 2.187188e+00 0.000000e+00 
-4.697563e+00 5.086493e-01 6.239147e-01 1.642163e+00 5.260140e+00 -2.563062e+00 -5.153273e+00 2.511463e+00 2.610816e-01 1.019852e+00 -2.126380e+00 7.933715e+00 -1.512927e-01 1.203834e-01 5.515635e-02 -1.103640e-02 1.051255e+00 1.249457e+00 -2.756212e-01 6.925446e-01 2.117873e+00 2.122650e+00 2.254796e-01 4.014160e-01 7.010675e-01 0.000000e+00 
-4.319898e+00 2.166960e+00 1.163812e+00 4.031661e+00 7.331103e+00 -1.835264e+00 -8.873268e+00 5.322616e+00 3.068603e+00 1.953998e+00 2.347015e+00 1.044856e+01 -1.512927e-01 5.273914e-02 -1.720273e-01 -6.495495e-01 1.433073e-01 6.116673e-01 7.581270e-01 1.380640e+00 4.721348e-01 2.224487e+00 1.632499e+00 1.257719e+00 3.952885e-01 0.000000e+00 
-4.511370e+00 2.685539e+00 1.595250e+00 -8.505077e-01 5.156886e+00 6.163292e-01 1.399538e+00 6.009337e+00 1.136528e+00 1.429864e+00 1.239547e+00 6.373424e+00 -1.512927e-01 6.802988e-02 -1.431960e-01 -8.719835e-02 -1.373600e+00 -3.418804e-01 1.919630e-01 2.726707e+00 1.284423e+00 -8.960812e-02 8.124851e-01 -3.373752e-02 1.156704e+00 2.675741e-02 
-4.929247e+00 9.577095e-01 -1.520168e+00 -9.791259e-01 6.964316e+00 5.552596e+00 1.034685e+00 2.127301e+00 5.327140e+00 5.617624e+00 4.553095e+00 1.187769e+01 -1.512927e-01 -2.386886e-01 -1.242282e-01 7.672617e-01 -1.149447e+00 -1.026596e+00 -1.844923e+00 2.250713e+00 8.524176e-01 -1.395000e+00 3.877102e-01 -1.331209e+00 1.289301e+00 3.028918e-02 
-4.052739e+00 3.972944e-01 1.529913e+00 -2.720446e+00 3.734133e+00 -5.297177e+00 3.526284e+00 1.053123e+01 -1.316228e+00 3.250464e+00 -3.398108e+00 1.300267e+01 -1.750565e-02 1.504785e-01 3.864163e-01 2.318403e-01 5.654158e-01 -4.304192e-01 2.043815e-01 -4.135872e-01 3.816152e-01 -1.281811e+00 1.217327e+00 -4.663408e-01 7.360426e-01 1.214186e-02 
-5.742656e+00 2.689941e+00 5.032789e+00 -7.806029e-01 2.909503e+00 -8.103125e+00 1.316922e+00 7.323755e+00 -2.680020e+00 2.982249e+00 -1.990204e+00 1.358044e+01 -6.674027e-02 -1.210665e-01 4.778956e-01 1.060324e-01 4.902133e-01 -5.954627e-01 1.248139e+00 -5.945042e-01 -6.933945e-01 -1.268918e+00 1.352704e-01 1.445200e+00 -9.397135e-01 -1.153539e-02 
-3.352273e+00 3.751505e+00 -5.220273e-01 1.877310e+00 5.032197e+00 8.466097e+00 -8.095155e-01 5.319186e+00 -1.268945e+00 8.834186e+00 2.179492e+00 9.202263e+00 -1.328596e-01 -5.119991e-02 6.228434e-01 -7.993149e-01 -1.573746e-01 -3.996434e-01 3.432513e+00 -1.082528e+00 -1.955587e+00 1.085387e+00 1.139388e+00 1.802220e+00 -2.070523e+00 -3.521265e-02 
-5.884812e+00 1.670082e+00 3.596449e-02 -8.269373e-01 3.337970e+00 4.911652e+00 2.300637e-01 1.266353e+00 -1.041091e+00 3.502115e+00 8.990295e+00 9.079324e+00 -1.512927e-01 -7.784843e-02 -2.377151e-01 -1.106520e+00 -1.148652e+00 -5.012361e-01 1.488762e+00 -2.745996e-01 -8.202127e-01 6.084898e-01 9.396368e-01 9.364036e-01 -1.479781e+00 -1.875379e-02 
-4.237660e+00 4.021441e+00 3.175092e-02 -3.484152e+00 1.521682e+00 5.357999e+00 -1.342925e+00 3.782000e+00 3.291245e+00 8.687470e+00 1.227406e-01 4.900609e+00 -1.512927e-01 -8.632383e-01 -5.137669e-01 -7.067639e-01 -1.252243e-01 -1.939857e+00 -1.419253e+00 1.453379e-01 9.536256e-01 -1.413976e-01 4.728299e-01 -5.520164e-01 -1.466748e+00 2.356329e-02 
-5.689204e+00 1.366397e+00 -7.767022e-01 -3.843130e+00 2.158579e+00 8.947332e-01 2.106290e-01 3.991285e+00 -1.917666e+00 7.753791e+00 3.720190e+00 8.332357e+00 -1.512927e-01 -6.731768e-01 -5.823611e-01 -1.881732e-01 -1.708899e-02 4.171314e-02 -3.784158e-01 8.937656e-01 5.933050e-01 -2.269339e-01 1.494359e+00 -1.343258e+00 -1.579902e+00 3.973715e-02 
-7.766269e+00 1.334513e+00 -3.649514e+00 2.759285e+00 -4.077395e+00 3.378290e+00 -7.310843e-02 8.724848e+00 -1.537646e+00 9.072497e+00 2.054463e+00 2.242007e+00 -1.504314e-02 -2.090826e+00 -1.720890e-01 -1.162243e-02 -6.960605e-01 6.049089e-01 -1.374743e+00 1.724957e+00 -6.513168e-01 9.222616e-01 4.457199e-01 3.760706e-01 -5.639981e-01 8.713536e-02 
-7.486392e+00 1.017403e-01 9.357307e-01 -4.034101e+00 6.346074e+00 4.009427e+00 4.063984e+00 1.761453e+00 2.386845e-01 1.078139e+01 1.308146e+00 2.509113e+00 -2.073169e-02 -2.986149e+00 1.535599e+00 -2.707139e-01 -8.420893e-01 1.220486e+00 -1.853687e+00 1.719778e+00 -2.117058e+00 1.882317e+00 -5.558501e-01 3.955469e-01 3.385989e-01 1.668894e-01 
-1.379319e+01 3.793325e+00 -8.825777e-01 -6.868969e+00 2.452479e+00 -3.073064e+00 5.355182e+00 1.640332e+00 6.824378e+00 9.402267e+00 3.209116e+00 4.992241e+00 2.191036e-01 -3.678472e+00 2.278474e+00 -1.745533e+00 -1.849554e+00 1.613323e+00 -2.612014e+00 1.454906e+00 -3.462754e+00 1.235862e+00 -1.313223e+00 8.217160e-01 1.906843e+00 2.166019e-01 
-1.760649e+01 7.814988e+00 -3.513740e+00 -3.239450e+00 4.996071e+00 -5.148023e+00 6.095375e+00 -3.051747e+00 3.312909e+00 4.809655e+00 5.120598e+00 8.650235e+00 5.660808e-01 -3.428590e+00 2.341999e+00 -3.927665e+00 2.990410e-02 1.504493e-01 -1.334966e+00 1.252181e+00 -1.453164e+00 -3.328450e-01 -2.449853e+00 5.860860e-01 1.796280e+00 2.326238e-01 
-2.109858e+01 8.870259e+00 -1.015244e+01 -6.885812e+00 4.664222e+00 -5.103055e+00 6.185725e+00 -6.182322e+00 3.104555e+00 5.492251e+00 4.256816e+00 8.705660e+00 7.745602e-01 -1.553473e+00 1.688038e+00 -3.048721e+00 1.531657e+00 8.907946e-01 -2.537725e-01 6.647879e-01 -5.403390e-02 -1.566806e+00 -1.984118e+00 -2.362816e-01 2.300978e-01 1.603365e-01 
-2.097665e+01 9.273270e+00 -1.406766e+01 -3.876159e+00 5.992449e+00 -1.650406e+00 9.909619e+00 -1.593038e+00 4.343709e-01 4.871359e-01 3.714725e+00 9.633801e+00 8.646591e-01 -5.619486e-01 9.891124e-01 -1.667283e+00 1.613132e+00 4.305716e-01 1.679882e-01 -1.158731e+00 8.582259e-01 -6.569151e-01 -1.807683e-01 -3.078660e-01 -2.150497e+00 7.090223e-02 
-1.987548e+01 1.150438e+01 -1.084922e+01 1.107668e+00 6.408263e+00 -6.090735e+00 6.771999e+00 6.408076e-01 4.296176e-01 1.642940e+00 2.730644e+00 5.650947e+00 8.714970e-01 3.874111e-02 1.166763e+00 -8.085412e-01 1.709538e+00 -7.842316e-02 3.460337e-01 -1.103649e+00 6.182477e-01 -3.713557e-01 3.646617e-01 -3.187136e-01 -2.286308e+00 3.497381e-02 
-2.102778e+01 1.144349e+01 -1.150177e+01 8.294716e-01 6.276908e+00 -3.814242e+00 8.584976e-03 -2.172183e+00 1.365802e+00 5.830469e+00 4.344354e+00 -5.748954e-01 8.721235e-01 -4.088268e-02 5.816244e-01 -9.121027e-01 8.371385e-01 -6.749175e-01 3.141009e-01 -8.518089e-01 -3.142377e-01 -4.422576e-01 4.367458e-01 2.918241e-01 -2.474164e-01 2.719131e-02 
-2.087931e+01 1.361896e+01 -1.547809e+01 -6.909376e-01 4.129876e+00 -2.290969e+00 5.617998e+00 -2.801511e+00 7.820607e-01 4.643893e+00 2.348434e+00 2.378470e+00 9.456970e-01 4.676248e-01 9.057602e-01 -9.224982e-01 7.552749e-01 -5.426806e-01 1.459813e+00 1.026745e+00 -1.554249e+00 9.647293e-02 -1.286898e-02 -7.314165e-02 1.083777e+00 3.071696e-02 
-2.067915e+01 1.112410e+01 -1.631374e+01 1.208837e+00 3.757055e+00 -1.979784e+00 6.227575e+00 -1.443067e+00 -1.953139e+00 1.170389e+00 5.364951e+00 1.003296e+01 9.635156e-01 8.385493e-01 1.407002e+00 -4.625109e-01 1.408071e+00 -3.675389e-01 1.344566e+00 1.971318e+00 -9.432642e-01 -3.141897e-01 -7.494505e-01 -7.816805e-01 2.186343e+00 2.894416e-02 
-1.771167e+01 1.619287e+01 -1.305573e+01 4.694360e+00 4.954786e+00 2.911007e-01 8.796230e+00 -7.494994e+00 2.571453e+00 3.908635e+00 1.854637e+00 5.765904e+00 9.793857e-01 -2.752113e-03 3.520198e-01 -1.561867e-01 3.058463e-01 -2.422296e-01 1.541448e-01 4.071221e-01 -5.790648e-01 -8.136458e-01 6.194973e-03 -4.139839e-01 9.336755e-01 4.502666e-03 
-1.841885e+01 1.719155e+01 -1.502551e+01 5.177180e+00 4.026759e+00 1.617554e+00 8.276059e+00 -4.541762e+00 -1.099842e+00 2.450845e+00 6.828499e-01 8.663105e+00 1.000000e+00 -3.281139e-01 -2.035832e-01 -2.709854e-01 -7.328200e-01 5.894167e-02 -7.842725e-01 -1.401065e-01 6.237053e-01 -3.843183e-01 -7.430514e-02 -1.940587e+00 -1.026805e+00 -1.487752e-02 
-2.202322e+01 1.234534e+01 -1.690314e+01 -1.145878e+00 2.783877e+00 -3.318914e+00 6.629366e+00 -4.147487e+00 -3.712816e+00 4.034640e+00 2.619565e+00 7.731774e+00 9.499682e-01 -8.150366e-01 -2.100735e+00 -4.175978e-01 -1.401226e+00 -9.188930e-02 -4.669474e-01 6.942882e-02 2.192087e+00 -1.176461e+00 -5.951158e-01 -2.143065e+00 -8.195241e-01 -2.881095e-02 
-2.016394e+01 1.202995e+01 -1.574496e+01 4.648557e-01 5.137218e+00 -4.096139e+00 6.610475e+00 1.706839e-03 -7.325952e-01 7.358607e-01 -4.720448e+00 3.915999e+00 9.038368e-01 -2.851711e-01 -2.514707e+00 8.682407e-01 -1.286419e+00 4.232268e-01 3.049817e-01 3.080831e-01 2.231447e+00 5.284960e-01 -2.491655e-01 -1.104577e+00 -1.422138e+00 -3.467482e-02 
-2.091431e+01 8.269993e+00 -1.478399e+01 4.439235e-02 3.940110e+00 8.132105e-01 9.976166e+00 1.193708e+00 -3.494477e+00 1.790548e+00 -6.159039e+00 4.041836e+00 8.834125e-01 3.751680e-01 -2.064457e+00 2.380047e+00 -8.893523e-02 3.212818e-01 4.444733e-01 -2.508447e-01 1.601705e+00 1.450142e+00 1.654876e-02 1.052922e+00 -1.259062e+00 -2.901467e-02 
-2.039916e+01 6.655683e+00 -1.174388e+01 -1.850049e+00 5.564776e+00 1.076400e+00 8.143075e+00 3.944878e+00 1.433468e+00 2.327064e+00 -4.507329e-01 3.397385e+00 8.599037e-01 2.500904e+00 -1.364053e+00 3.670936e+00 -3.902094e-02 -1.201458e+00 -1.696017e+00 -2.047220e+00 -1.960552e+00 -1.269260e+00 -3.706136e-01 9.496263e-01 -1.771398e+00 -6.602828e-02 
-2.002977e+01 4.710186e+00 -7.003449e+00 -4.331017e-01 4.176507e+00 -3.682817e+00 4.608843e+00 1.889450e+00 2.454859e+00 3.321782e+00 5.749317e+00 1.695771e+00 8.268614e-01 7.231467e+00 -2.603965e+00 4.706918e+00 4.493493e-01 -3.140504e+00 -3.691861e+00 -4.499974e+00 -3.705608e+00 -1.119072e+00 -1.186445e-01 -8.665155e-01 -2.522588e+00 -9.003220e-02 
-8.101695e+00 6.989586e+00 -1.280546e+00 5.084980e-01 -9.882679e-01 -1.032821e+01 -9.419653e-01 -1.014892e+01 -1.005356e+01 -1.882824e+00 -5.926495e+00 -3.767956e+00 6.019710e-01 9.062188e+00 -5.149816e+00 4.357116e+00 4.109240e-01 -4.976522e+00 -2.438482e+00 -4.487973e+00 -3.462321e+00 8.241792e-02 -6.124047e-01 -1.873011e+00 -3.174993e+00 -5.848724e-02 
9.094290e+00 -4.916784e+00 3.518931e+00 1.111865e+00 -8.485888e+00 -1.194379e+01 -7.981182e+00 -1.028743e+01 -3.346319e+00 3.302270e+00 -7.753736e+00 -4.988435e+00 5.622179e-01 7.924779e+00 -6.209923e+00 2.848901e+00 -7.741429e-01 -4.779655e+00 -5.439445e-01 -1.716579e+00 -1.573190e+00 3.261970e+00 -5.885818e-01 -1.131826e+00 -2.563116e+00 -1.332647e-03 
1.034975e+01 -1.427991e+01 4.780510e+00 -5.679121e-01 -1.298664e+01 -6.985525e+00 -8.001777e+00 -7.278287e+00 4.746147e+00 -7.252038e-01 -3.064260e+00 -9.135477e+00 6.997892e-01 3.014787e+00 -4.944565e+00 1.181111e-01 -1.544008e+00 -2.915009e+00 4.816634e-01 1.236249e+00 1.997176e+00 4.907629e+00 1.187102e+00 1.713425e-01 -1.054384e+00 5.998614e-02 
1.036840e+01 -1.570468e+01 4.210528e+00 -3.765611e+00 -1.372258e+01 -8.073883e+00 -4.441452e-01 -7.411817e+00 1.136485e+01 -1.999371e-01 -1.340928e+00 -8.436049e+00 7.712891e-01 -5.493699e-01 -1.537909e+00 -1.402606e+00 -1.369008e+00 -4.642727e-01 8.605738e-01 3.307695e+00 2.031409e+00 3.003801e+00 -1.491977e-01 -1.902057e-01 -6.182221e-01 5.193741e-02 
6.335181e+00 -1.233929e+01 -1.035789e+00 -4.772802e+00 -1.294496e+01 -9.854847e+00 1.470764e+00 -1.600851e+00 7.128997e+00 5.803787e+00 -8.276186e+00 -7.316068e+00 7.973661e-01 -1.184250e-01 -4.093025e-01 -1.369631e+00 -6.223035e-01 8.090728e-01 4.122306e-01 3.405312e+00 7.107812e-01 2.159214e+00 -1.289058e+00 -8.509172e-01 -3.977871e-01 1.383716e-02 
8.354724e+00 -1.357664e+01 -5.859470e-01 -3.630730e+00 -1.082809e+01 -6.206259e+00 3.821022e+00 -2.969105e+00 1.048126e+01 -7.082138e-01 -6.098801e+00 -8.989250e+00 7.731165e-01 6.837224e-01 -1.138763e+00 -6.639301e-01 -6.627512e-02 1.112518e+00 6.966502e-01 2.123542e+00 3.933220e-02 2.045220e+00 -2.367346e+00 -4.795088e-01 -8.893194e-01 -1.615375e-03 
1.076446e+01 -1.739044e+01 3.305938e-01 -3.746871e+00 -1.038852e+01 -5.858183e+00 6.892201e+00 -5.945737e+00 1.598401e+01 -6.916353e+00 -4.939909e+00 -1.084781e+01 7.680613e-01 1.519247e+00 -1.844109e+00 3.880427e-02 1.180270e-01 7.618769e-01 9.417461e-01 1.173955e+00 -5.155712e-01 2.507437e+00 -2.414070e+00 5.343407e-01 -6.243011e-01 -2.128220e-03 
1.157238e+01 -1.887292e+01 2.076857e-01 -4.609953e+00 -9.438217e+00 -6.588963e+00 7.462847e+00 -5.042713e+00 1.716344e+01 -5.676598e+00 -5.406610e+00 -1.111677e+01 7.778646e-01 1.108873e+00 -1.408597e+00 -1.433256e-01 -1.121440e-01 4.806075e-01 3.968397e-01 1.644314e-01 1.545079e-01 1.202890e+00 -2.843255e-01 2.163489e-01 4.698934e-02 9.300053e-04 
1.232259e+01 -1.891169e+01 -1.238585e+00 -3.693056e+00 -9.830514e+00 -4.954764e+00 5.519626e+00 -3.141902e+00 1.632509e+01 -3.782371e+00 -5.950578e+00 -9.373812e+00 7.843510e-01 6.572956e-01 -2.633511e-01 -4.502800e-01 9.145180e-02 4.790087e-01 5.667542e-01 -8.172570e-01 9.256390e-01 -7.304479e-01 1.585502e+00 1.914375e-01 5.909762e-01 -3.983086e-03 
1.312003e+01 -1.985900e+01 -5.179858e-01 -4.218357e+00 -8.704054e+00 -4.673770e+00 5.329467e+00 -3.598483e+00 1.632517e+01 -3.696832e+00 -4.511722e+00 -9.491304e+00 7.696217e-01 5.396574e-01 3.375223e-01 -5.570883e-01 3.690477e-01 -7.275190e-02 9.497586e-01 -1.178775e+00 3.507167e-01 -9.598448e-01 9.180070e-01 1.265022e+00 7.508068e-02 -1.366681e-02 
1.327711e+01 -1.821416e+01 -1.557971e+00 -3.485410e+00 -8.360559e+00 -3.982008e+00 3.872606e+00 -2.039658e+00 1.275091e+01 2.127361e-02 -4.430166e+00 -8.705666e+00 7.522674e-01 5.612503e-01 7.060577e-01 -4.652013e-01 2.076590e-01 -1.688495e-01 8.125523e-01 -1.198208e+00 -4.990382e-01 -9.455614e-01 6.454641e-01 1.459323e+00 -3.649665e-01 -2.327822e-02 
1.379340e+01 -1.753407e+01 -2.418063e+00 -2.868537e+00 -1.053695e+01 -2.326548e+00 2.392482e+00 -3.840251e+00 1.415131e+01 -2.988385e+00 1.582941e-01 -1.107544e+01 7.255723e-01 6.326238e-01 1.236451e+00 -5.551248e-01 4.537983e-01 -5.481435e-01 1.485799e+00 -2.214175e+00 -4.741686e-01 -1.912767e+00 9.478838e-01 1.701776e+00 -7.424833e-01 -3.532542e-02 
1.479216e+01 -1.654387e+01 -2.614552e+00 -3.329670e+00 -9.758311e+00 -2.065614e+00 9.970782e-01 -5.516209e+00 1.268421e+01 -9.092743e-01 -9.889713e-01 -1.040657e+01 6.899846e-01 6.026174e-01 1.846044e+00 -4.033298e-01 2.765278e-01 -1.060972e-02 1.091434e+00 -2.205276e+00 -7.085429e-01 -2.748971e+00 4.918511e-01 2.245032e+00 -1.217232e-02 -4.823928e-02 
1.552563e+01 -1.451189e+01 -2.765319e+00 -2.027235e+00 -1.074590e+01 1.797027e+00 -4.303646e+00 -4.231050e+00 6.794686e+00 1.507860e+00 2.276559e+00 -1.235327e+01 6.241360e-01 6.748236e-01 2.141314e+00 -4.708672e-02 4.678807e-01 7.334779e-01 6.097376e-01 -1.753064e+00 -1.055643e+00 -3.569269e+00 7.811197e-01 2.101129e+00 1.184585e+00 -5.785520e-02 
1.542409e+01 -1.049503e+01 -3.400991e+00 -2.523422e+00 -8.309137e+00 -5.866280e-01 -3.805710e+00 -5.386973e+00 2.684370e+00 2.324064e-01 5.735862e+00 -8.127617e+00 5.617892e-01 3.309024e-01 2.626333e+00 1.040681e-01 1.237105e+00 1.597317e+00 5.641066e-01 -1.026189e+00 -6.996392e-01 -3.687383e+00 1.031886e-01 2.732448e+00 1.563213e+00 -7.685126e-02 
1.685155e+01 -9.851922e+00 -2.260277e+00 -9.322582e-01 -7.594151e+00 -1.735258e-02 -3.971441e+00 -9.183084e+00 1.304889e+00 3.463732e-01 7.301520e+00 -6.291998e+00 5.003940e-01 -5.179920e-01 3.127904e+00 4.795604e-01 1.075491e+00 3.541623e+00 4.250787e-01 -1.388531e-01 -1.894324e-01 -3.268180e+00 -3.180711e-01 1.309406e+00 1.994384e+00 -9.446563e-02 
1.578370e+01 -5.742184e+00 -2.346733e+00 2.308365e+00 -3.347600e+00 1.662109e+00 -4.299970e+00 -6.538388e+00 -3.007803e+00 1.874123e-01 1.016079e+01 -5.621143e+00 3.675992e-01 -1.108177e+00 2.886165e+00 9.021177e-01 9.995745e-01 3.630410e+00 1.071980e+00 6.704798e-02 4.843243e-01 -2.668394e+00 6.825625e-01 -3.740990e-01 1.069775e+00 -9.335966e-02 
1.275586e+01 -1.248793e+00 -8.946462e-01 9.343266e-01 4.481449e+00 2.798052e+00 -4.750781e+00 -4.602505e+00 -6.700128e+00 -5.999780e-02 6.611128e+00 -3.634585e+00 2.489028e-01 -1.500180e+00 2.303432e+00 1.378125e-01 8.402671e-01 2.171644e+00 5.592450e-01 -1.188829e-01 1.398599e+00 -2.045795e+00 4.276584e-01 -6.101276e-01 -2.008844e-01 -6.032184e-02 
1.193105e+01 -3.657705e-01 4.267821e-01 1.541159e+00 3.805114e+00 3.365570e+00 -3.080800e+00 -5.255641e+00 -6.655091e+00 3.848405e+00 4.210564e+00 -4.107446e+00 2.207365e-01 -5.047913e-01 5.296715e-02 -1.485192e-01 -5.915942e-02 -3.643804e-01 7.662587e-02 -7.688655e-01 1.171272e+00 -3.013185e-01 -1.554158e-01 -3.654172e-01 -7.010719e-01 -1.095176e-04 
1.127698e+01 -1.022969e+00 -2.957972e+00 3.652680e+00 -3.122883e-01 1.927142e+00 -5.175441e+00 -2.831464e+00 -7.100444e+00 6.541687e-01 7.225994e+00 -8.053268e+00 2.722162e-01 1.653523e-01 -1.428292e+00 -8.872731e-01 -2.435362e-01 -2.616313e+00 -1.066178e+00 -8.341074e-02 -8.616605e-02 1.925215e+00 -4.020571e-01 5.732916e-01 -1.451173e+00 5.155189e-02 
1.399919e+01 -5.590261e+00 -2.057666e+00 6.533909e-01 -2.772634e+00 2.480693e+00 -7.931968e+00 -1.567548e+00 -4.314238e+00 -9.467499e-01 8.026267e+00 -6.917161e+00 3.553949e-01 6.143211e-01 -2.315128e+00 -7.130265e-01 -7.845970e-01 -2.958951e+00 -1.387712e+00 5.086792e-01 -8.952406e-01 3.506221e+00 -6.558759e-01 3.503110e-01 -1.220283e+00 7.411720e-02 
1.254855e+01 -5.778005e+00 -4.088788e+00 1.605294e-01 -5.311242e+00 -2.090398e+00 -2.742251e+00 -6.877382e+00 1.755520e+00 3.272941e-01 7.569734e+00 -9.485592e+00 4.393330e-01 5.838606e-01 -2.614174e+00 5.037334e-01 -1.630876e+00 -2.192544e+00 -8.056048e-01 1.059065e+00 -1.032099e+00 4.050602e+00 4.422938e-02 -6.940941e-01 -1.134246e+00 7.008336e-02 
1.436687e+01 -9.563892e+00 -2.572943e+00 -6.357510e-01 -8.490166e+00 -1.564219e+00 -1.753999e+00 -7.708886e+00 6.448033e+00 7.324625e-01 5.790248e+00 -9.492699e+00 5.077641e-01 8.874239e-02 -2.161426e+00 8.296261e-01 -1.230244e+00 -1.387051e+00 -5.597314e-01 1.237422e+00 -4.377470e-01 3.344742e+00 -1.593200e-01 -1.680606e+00 -1.411639e+00 4.978665e-02 
1.401244e+01 -1.210702e+01 -1.816669e-01 -3.857127e+00 -8.416245e+00 -7.842541e-02 -2.969101e+00 -4.921290e+00 7.771431e+00 3.570938e-02 4.873532e+00 -1.243673e+01 5.464484e-01 -3.000166e-02 -1.554803e+00 7.557929e-01 -2.195956e-01 -1.039155e+00 6.490137e-01 3.333462e-01 7.055821e-01 2.501023e+00 -1.065330e+00 -2.342376e+00 -6.207768e-01 2.411740e-02 
1.371095e+01 -1.323288e+01 1.369035e-01 -3.489000e+00 -8.155389e+00 -1.323950e+00 -1.631431e+00 -4.734329e+00 9.401518e+00 -1.597557e+00 9.713354e-01 -1.249979e+01 5.507705e-01 -6.490914e-01 -6.530316e-01 4.919423e-01 2.939043e-02 -3.861485e-01 4.349101e-01 1.271159e-01 6.334692e-01 2.001233e+00 -2.144316e+00 -2.978356e+00 -1.503658e-02 3.743702e-03 
1.272650e+01 -1.171753e+01 -1.664746e+00 4.891758e-01 -1.067441e+01 1.034536e+00 -1.136804e+00 -4.836750e+00 1.278389e+01 -3.834346e+00 -1.732689e+00 -1.108593e+01 5.384169e-01 -7.140763e-01 -2.604275e-02 3.176734e-01 4.025539e-01 -7.230173e-01 5.139250e-01 -1.744260e-01 4.123391e-01 1.801838e+00 -2.392217e+00 -3.559860e+00 1.011933e+00 -7.336348e-03 
1.176438e+01 -1.302380e+01 6.283083e-01 -2.661950e+00 -9.291827e+00 5.385113e-02 -2.034568e+00 -4.583810e+00 1.394797e+01 -8.054092e+00 -5.798422e+00 -1.024328e+01 5.304984e-01 -6.107532e-01 2.613626e-01 5.680468e-01 -1.541728e-01 -7.941837e-01 6.120712e-01 -9.049255e-01 1.380803e+00 4.199483e-01 -1.898337e+00 -3.099111e+00 8.021803e-01 -1.145977e-02 
1.141534e+01 -1.234178e+01 1.160998e+00 -2.257882e+00 -1.146311e+01 1.802299e+00 -3.639663e+00 -2.934854e+00 1.450739e+01 -8.697108e+00 -9.540888e+00 -8.505316e+00 5.199027e-01 -2.753066e-01 3.705128e-01 1.020579e+00 -7.236713e-01 -8.064540e-01 6.211318e-01 -1.492365e+00 2.265903e+00 -1.297099e+00 -1.015586e+00 -2.675844e+00 5.497139e-01 -1.733308e-02 
1.131277e+01 -1.161394e+01 1.564265e+00 -2.886335e+00 -1.173195e+01 1.352524e+00 -4.904629e+00 1.218740e+00 1.063951e+01 -8.657860e+00 -1.062012e+01 -9.779194e+00 5.027287e-01 1.899411e-02 1.125044e+00 6.732381e-01 1.841833e-01 -6.681949e-01 5.847143e-01 -1.331651e+00 2.183968e+00 -1.622526e+00 -1.127917e+00 -1.385976e+00 6.032435e-01 -2.724140e-02 
1.157578e+01 -1.056989e+01 2.970172e+00 -3.016988e+00 -1.348661e+01 3.490859e+00 -7.163601e+00 3.591493e+00 7.952626e+00 -8.610393e+00 -1.270106e+01 -8.569407e+00 4.656363e-01 1.130385e-01 1.601992e+00 8.298920e-01 8.747839e-01 1.768776e-01 -3.381843e-01 -5.654659e-01 5.787469e-01 -3.826770e+00 -1.590474e+00 1.053623e+00 -3.700202e-01 -4.000221e-02 
1.177914e+01 -8.284520e+00 3.089912e+00 -1.361481e+00 -1.162105e+01 2.133143e+00 -6.930855e+00 3.072858e+00 9.112720e+00 -1.373703e+01 -1.114821e+01 -7.195017e+00 4.214246e-01 1.218960e-01 1.865263e+00 7.076886e-01 1.463311e+00 8.015931e-01 -1.088363e+00 1.647474e+00 -1.935693e+00 -6.248951e+00 -7.548443e-01 2.073059e+00 -1.162192e+00 -3.746720e-02 
1.174735e+01 -5.996530e+00 4.547636e+00 1.353610e+00 -1.063418e+01 -2.789321e-01 -5.453879e+00 -9.681787e-01 -3.863062e+00 -1.410989e+01 -4.008727e+00 -1.164750e+01 3.605437e-01 -1.460161e-02 1.452619e+00 3.686411e-01 1.480641e+00 8.471127e-01 -2.218587e+00 2.348569e+00 -3.380954e+00 -6.778666e+00 -9.538307e-02 1.853229e+00 -2.358318e+00 -2.341688e-02 
1.183646e+01 -4.574310e+00 4.313977e+00 2.244919e+00 -9.150208e+00 -2.204398e+00 2.477877e+00 -6.179890e+00 -1.469740e+01 -9.682332e+00 -4.600993e+00 -1.405111e+01 3.679390e-01 -2.760901e-01 9.639179e-01 3.890880e-01 4.518967e-01 1.765725e-01 -2.537359e+00 6.026006e-01 -2.614494e+00 -5.426297e+00 3.224564e-01 1.088290e-01 -3.297564e+00 -7.093000e-03 
1.147411e+01 -5.161900e+00 4.201345e+00 2.583015e+00 -1.048647e+01 -5.433305e+00 -1.251221e-01 -8.686907e+00 -1.403564e+01 -1.111466e+01 -6.708529e+00 -1.693295e+01 3.752947e-01 -2.769382e-01 1.463321e+00 2.564605e-01 -1.498714e-01 2.194159e-01 -1.703731e+00 -4.211689e-01 -1.928686e-01 -1.202668e+00 -9.431347e-01 -9.496037e-01 -1.791831e+00 7.837755e-03 
1.053531e+01 -3.882246e+00 5.208497e+00 2.832999e-01 -1.081204e+01 -7.976463e+00 -6.582231e+00 -6.140251e+00 -1.293248e+01 -1.362237e+01 -9.254169e+00 -2.104011e+01 3.785841e-01 -1.445328e-01 2.255556e+00 3.480332e-01 -1.501747e-01 2.792397e-02 -9.329548e-02 -1.310392e+00 1.196911e+00 3.919129e-01 -2.319239e+00 -4.010071e-01 1.478806e-01 9.349817e-03 
1.101323e+01 9.740444e-01 5.382678e+00 1.585063e+00 -8.706179e+00 -5.911557e+00 -3.029670e+00 -1.952342e+00 -1.075887e+01 -1.685555e+01 -6.430158e+00 -1.711216e+01 3.944100e-01 -2.824211e-01 2.683057e+00 5.992676e-01 -2.269912e-02 1.178829e+00 1.158577e+00 -1.846185e-01 7.584249e-01 -8.371667e-01 -2.942292e+00 -6.490999e-01 2.395272e+00 7.802534e-03 
1.134423e+01 3.635499e+00 5.463476e+00 1.993022e+00 -9.900734e+00 -2.431750e+00 -2.621809e+00 -3.562616e+00 -1.437623e+01 -1.840809e+01 -6.745214e+00 -1.322210e+01 4.051304e-01 -3.883299e-01 1.923231e+00 -6.321738e-02 6.963910e-01 1.670686e+00 7.775981e-01 1.784801e-01 -1.906471e+00 -2.691515e+00 -2.909178e+00 -1.284070e+00 2.603271e+00 2.296412e-03 
9.657541e+00 4.494511e+00 7.070193e+00 1.614658e+00 -5.047977e+00 -2.412776e+00 -3.028426e+00 -6.183599e+00 -1.749960e+01 -2.343326e+01 -1.120851e+01 -8.865601e+00 4.010342e-01 -3.819874e-01 6.959668e-01 -6.273245e-01 4.349509e-01 1.784441e+00 -6.832550e-01 -1.876783e+00 -3.399496e+00 -2.670462e+00 -1.080058e+00 -1.460821e+00 2.044211e+00 -8.370119e-03 
9.271507e+00 3.973677e+00 4.048652e+00 3.750457e+00 -4.287714e+00 -5.837862e+00 -5.690452e+00 -1.355698e+01 -2.301969e+01 -2.487940e+01 -1.328535e+01 -1.214703e+01 3.867540e-01 -4.319561e-01 2.648570e-01 -6.723981e-01 3.776507e-02 1.670507e+00 -1.840884e+00 -2.858825e+00 -2.931180e+00 -8.213545e-01 3.243488e-01 -1.110077e-03 1.269078e+00 -2.437587e-02 
1.013966e+01 4.284790e+00 2.953468e+00 2.881099e+00 -2.590484e+00 -7.624775e+00 -1.087926e+01 -1.395264e+01 -1.978945e+01 -1.902018e+01 -1.046420e+01 -7.428637e+00 3.617476e-01 -4.920725e-01 3.101280e-01 -1.028212e+00 -3.891067e-01 6.417898e-01 -2.376798e+00 -2.938385e+00 -1.722675e+00 5.851944e-01 1.935058e+00 1.419676e+00 7.338843e-01 -4.445071e-02 
8.943392e+00 5.064644e+00 4.159849e+00 1.548627e+00 -2.776947e+00 -9.030170e+00 -1.299051e+01 -1.433399e+01 -1.733808e+01 -1.899288e+01 -7.122918e+00 -7.595191e+00 3.028944e-01 -8.504297e-01 5.084735e-01 -3.401062e-01 -5.566975e-01 2.353645e-01 -1.041381e+00 -1.544768e+00 1.583082e-01 1.989679e+00 3.456705e+00 1.827798e+00 1.199855e+00 -6.651115e-02 
7.361237e+00 5.499667e+00 1.873537e+00 7.700403e-01 -2.594412e+00 -1.270061e+01 -1.407032e+01 -1.440846e+01 -1.741443e+01 -1.670123e+01 -7.191339e+00 -7.472099e+00 2.207105e-01 -1.626736e+00 -1.602762e-01 -3.221924e-01 -8.018736e-01 2.778695e-01 -8.053236e-02 2.211069e-01 7.479717e-01 1.402138e+00 3.218219e+00 3.440363e-01 6.068536e-01 -8.928798e-02 
6.408571e+00 5.908606e+00 2.888087e+00 2.022499e+00 -3.108928e+00 -8.506847e+00 -1.181876e+01 -1.253753e+01 -1.425880e+01 -8.755352e+00 -5.782783e+00 -6.126029e+00 1.247168e-01 -2.089575e+00 -1.049203e+00 -2.210120e-01 -6.445618e-01 1.026996e+00 2.147816e+00 1.580030e+00 3.098304e+00 2.105978e+00 2.285197e+00 2.349650e-01 1.227120e+00 -1.013654e-01 
3.273391e+00 3.061428e+00 1.978387e+00 -1.365205e+00 -1.035146e+00 -8.289099e+00 -1.035960e+01 -1.111102e+01 -1.431839e+01 -8.047845e+00 -9.414085e+00 -5.128951e+00 4.396439e-03 -2.242020e+00 -2.059877e+00 2.432290e-01 6.913547e-02 1.549625e+00 4.020313e+00 2.872090e+00 5.189644e+00 2.542825e+00 1.027571e+00 1.046512e+00 1.947159e+00 -8.433397e-02 
5.394411e-01 1.037748e+00 3.002364e+00 -6.065594e-01 1.578400e+00 -4.968457e-01 -6.945722e+00 -4.911990e-01 -8.356207e+00 -1.189359e+01 -4.836720e+00 -2.631166e+00 -9.577549e-02 -1.806539e+00 -2.308226e+00 3.317767e-01 8.418573e-01 2.425253e+00 3.314790e+00 1.441361e+00 4.678645e+00 3.439786e+00 1.104151e+00 8.058231e-01 1.750963e+00 -5.290066e-02 
-9.143009e-01 -2.364289e+00 3.032544e+00 2.430247e+00 2.810050e+00 3.395950e+00 -2.146392e+00 5.516593e+00 -7.651599e+00 -9.994254e+00 -2.431808e+00 5.162625e-01 -9.071326e-02 -1.016076e+00 -1.623482e+00 3.383037e-02 1.562664e+00 1.715560e+00 2.594651e+00 8.060067e-01 3.439574e+00 3.614375e+00 1.989648e+00 1.718201e+00 1.315934e+00 -2.703853e-02 
-5.302773e-01 -2.919665e+00 4.019892e+00 4.334060e+00 7.094740e+00 2.224581e+00 -8.718568e+00 2.541894e+00 -3.932636e-01 -2.261391e+00 -5.244805e+00 -1.938214e-01 -9.223163e-02 -1.974207e-01 -4.844397e-01 -5.114050e-01 1.060279e+00 1.323488e+00 1.114550e+00 5.433393e-01 1.253789e+00 2.187951e+00 1.289095e+00 1.217111e+00 1.514800e+00 -1.276114e-02 
-1.272131e+00 -3.077274e+00 1.638775e+00 3.977804e+00 4.784485e+00 3.323445e+00 -5.443148e+00 4.570307e+00 -2.279889e-01 -2.915704e+00 -6.190369e-01 2.320471e-01 -1.325681e-01 -2.869955e-01 4.524373e-01 -5.831578e-01 8.565834e-01 7.986062e-01 -5.273014e-01 4.461276e-01 5.392780e-01 1.096081e+00 4.814031e-01 1.542752e+00 3.203331e-01 -7.811105e-03 
-2.687473e-01 -1.027958e+00 1.142223e+00 3.921055e+00 7.208626e+00 5.112156e+00 -2.580647e+00 6.250891e+00 -1.128259e+00 -8.987394e+00 3.424479e-01 5.084941e+00 -1.386538e-01 -2.614006e-01 1.032902e+00 -3.046371e-01 6.436669e-01 4.976935e-01 3.005304e-01 2.439815e+00 5.223735e-01 -1.052826e+00 4.202619e-01 1.367224e+00 1.161194e+00 -9.168779e-03 
-2.480043e+00 -1.047957e+00 1.555589e+00 6.919667e+00 6.746138e+00 -6.843452e-01 -2.984715e+00 6.358484e+00 -1.803699e+00 -4.224237e+00 2.488326e+00 -5.214534e-01 -1.065577e-01 -2.131517e-01 9.952534e-01 -6.837382e-02 5.552784e-01 8.809420e-01 5.553148e-01 2.567031e+00 1.204936e+00 -2.420932e-01 2.693451e+00 2.370516e-01 5.916029e-01 -4.790223e-03 
-1.233324e+00 1.230184e+00 2.538299e+00 6.081463e+00 8.602381e+00 5.731129e+00 2.251289e+00 4.259673e+00 -4.869536e+00 4.941854e-01 3.763229e-02 5.988901e+00 -1.510807e-01 1.129836e-01 1.006339e+00 7.813537e-01 5.808619e-01 1.692854e+00 4.646831e-01 2.488743e+00 8.531621e-01 1.707613e-01 3.778349e+00 9.776443e-01 -1.426142e-01 -6.902588e-03 
-1.855601e+00 7.699218e-01 5.988679e-01 5.673992e+00 8.492317e+00 5.790533e+00 4.976041e+00 1.159060e+01 4.321840e-01 5.810761e+00 7.186291e-01 2.738082e+00 -1.503057e-01 8.493496e-01 1.719284e+00 1.446277e+00 -4.457005e-01 6.509567e-01 1.632457e+00 2.774384e+00 9.541019e-01 7.635757e-01 2.026120e+00 6.906639e-01 5.063154e-01 -8.968187e-03 
-1.605034e-02 3.094798e+00 5.527352e+00 7.448202e+00 1.479981e+01 4.198133e+00 5.882689e+00 7.900645e+00 -1.392394e+00 4.886852e+00 6.115518e+00 2.742102e+00 -1.512927e-01 6.650168e-01 1.643296e+00 1.615084e+00 -3.143876e-01 -2.656287e-01 6.396038e-01 6.876295e-01 -6.837346e-02 8.157992e-01 7.404443e-01 8.422810e-01 2.000201e-01 -1.410842e-04 
1.158068e+00 6.616157e+00 7.292447e+00 4.007795e+00 6.902207e+00 8.244436e+00 9.071505e+00 9.308508e+00 2.756082e-01 3.710032e+00 2.902703e+00 3.633523e+00 -1.512927e-01 3.699418e-01 1.575838e+00 1.418134e+00 -2.927658e-01 -7.202113e-01 -2.967353e-01 -9.316626e-01 -1.922118e+00 -6.220042e-01 -9.531782e-02 -3.054347e-02 1.204831e+00 -1.973867e-04 
5.849257e-01 6.523546e+00 7.266930e+00 5.342623e+00 8.069292e+00 7.702196e+00 3.641705e+00 5.058850e+00 -7.122525e-01 5.246772e+00 3.157000e+00 6.541281e+00 -1.512927e-01 -2.171691e-01 1.112852e+00 8.068670e-01 1.993209e-01 -9.333239e-01 7.475209e-02 -1.768172e+00 -2.377833e+00 -9.152398e-02 9.516975e-01 -1.044621e+00 1.686127e-01 0.000000e+00 
-3.063803e-01 6.934739e+00 6.819748e+00 5.262952e+00 8.256518e+00 2.554824e+00 1.438220e+00 3.400904e+00 -3.017908e+00 5.154212e+00 2.045170e+00 6.862650e+00 -1.512927e-01 -3.273697e-01 3.956426e-01 1.280317e-02 -6.913576e-02 2.011808e-01 8.172224e-02 -1.507405e+00 -1.242826e+00 7.979757e-01 1.750269e+00 4.866346e-01 3.170357e-02 0.000000e+00 
-3.696718e-01 8.499765e+00 9.798037e+00 7.817228e+00 9.456033e+00 7.416699e+00 8.584709e-01 -1.034719e+00 -2.032557e-01 8.923249e+00 1.321180e+00 1.970602e+00 -1.512927e-01 -2.961041e-01 4.823337e-02 -7.183723e-01 -1.030755e+00 -4.124188e-01 -3.803641e-01 -3.549208e-01 9.583770e-01 6.277417e-01 7.710788e-01 7.267572e-01 -1.885001e-01 0.000000e+00 
-1.482010e-03 7.606260e+00 6.090910e+00 2.424814e+00 7.214742e+00 8.795795e+00 2.926097e+00 6.141161e+00 4.010988e+00 1.062314e+01 6.253786e+00 6.077380e+00 -1.512927e-01 -2.161700e-01 -3.082387e-01 -1.131907e+00 -1.351938e+00 -6.384810e-01 -4.486678e-01 -3.654219e-02 1.967473e+00 2.975095e-01 -1.285625e-02 8.647915e-01 2.278344e-01 0.000000e+00 
-1.048044e+00 6.428952e+00 4.039488e+00 1.607916e+00 6.528087e+00 2.679890e+00 1.123163e+00 8.480606e+00 -1.087992e+00 6.367703e+00 4.686479e+00 5.991416e+00 -1.512927e-01 -2.403307e-01 -5.318936e-01 -1.356852e+00 -1.323552e+00 -6.542548e-01 -1.558952e+00 -1.273549e-01 2.137010e+00 -6.868452e-01 -9.366524e-01 5.163289e-01 7.955662e-01 0.000000e+00 
