-6.188375e+00 1.265634e+01 -1.839650e+00 3.467220e+00 1.234956e+01 2.821570e+00 2.250072e+00 3.758431e+00 8.734974e+00 3.483031e+00 1.418407e+01 7.921971e+00 -1.512927e-01 2.142600e-01 -5.945635e-02 4.155499e-01 1.119812e-01 -1.703458e-01 -7.514453e-02 8.308061e-01 2.890921e-01 -6.771469e-01 -8.223487e-01 -1.201098e+00 -1.144517e+00 1.390731e-03 
-5.658508e+00 1.438796e+01 -1.160903e+00 3.232903e+00 1.444837e+01 5.634591e+00 1.990228e+00 5.516094e+00 9.675250e+00 2.872394e+00 1.066273e+01 5.174702e+00 -1.373854e-01 7.684622e-02 -2.300639e-01 1.017308e-01 -9.589417e-02 -7.761060e-01 -5.303988e-01 1.223117e+00 -1.232873e-01 -5.269572e-01 -7.547370e-01 -5.925316e-01 -1.222031e+00 0.000000e+00 
-5.382008e+00 1.149325e+01 -1.012741e-01 4.144285e+00 1.044843e+01 1.039338e+00 6.534025e+00 4.325060e+00 4.879101e+00 -3.233946e-01 9.939245e+00 3.573020e+00 -1.512927e-01 1.226707e-01 -4.227305e-01 5.099522e-01 7.120599e-01 -2.581123e-01 8.958196e-03 8.407937e-01 -1.046540e+00 3.517112e-01 -4.818215e-02 -1.225726e+00 -1.236344e+00 -1.390731e-03 
-6.207327e+00 1.208757e+01 -2.200184e+00 2.649217e+00 9.419600e+00 1.060693e+00 6.223680e+00 2.858680e+00 8.028124e+00 1.612558e+00 1.334382e+01 3.986293e+00 -1.512927e-01 2.238228e-01 -3.141879e-01 -1.741742e-01 3.975436e-01 -8.096853e-01 -4.189883e-01 4.882849e-01 -3.337618e-01 1.176406e+00 -1.581511e-02 -1.151642e+00 -6.049652e-01 -1.503062e-03 
-5.300611e+00 1.169289e+01 1.229751e+00 7.319363e+00 1.357339e+01 5.153311e+00 4.337315e+00 -1.455594e-01 1.131709e+01 3.872038e+00 6.714890e+00 2.334454e+00 -1.512927e-01 1.973743e-01 7.218428e-02 -1.445000e-01 3.541516e-01 2.121365e-01 7.790945e-01 -9.390962e-01 4.972058e-01 1.779238e+00 8.039564e-01 -4.056745e-01 5.570423e-01 4.176378e-03 
-4.580092e+00 1.271721e+01 -2.697287e+00 3.633082e+00 8.837465e+00 1.482663e+00 5.530008e+00 6.082595e+00 1.233828e+01 6.956023e-01 6.516699e+00 2.769159e+00 -1.449007e-01 1.287367e-01 -4.833879e-02 4.409739e-02 9.069111e-02 1.258254e-01 2.355115e-01 -5.648788e-01 6.780864e-01 1.575487e-02 -3.508677e-01 -4.580995e-01 1.432077e+00 2.606392e-03 
-5.208754e+00 1.153936e+01 -5.752228e-01 5.423110e+00 1.180018e+01 4.723825e+00 2.185380e+00 5.199132e+00 1.162021e+01 4.154866e+00 1.132444e+01 6.966799e+00 -1.336068e-01 -2.744669e-01 -2.722747e-01 -6.464152e-01 -6.705610e-01 -2.941202e-01 -9.833991e-01 -4.797546e-01 3.023185e-01 -1.018775e-01 4.177603e-01 2.550287e+00 5.930351e-01 -2.202988e-04 
-5.609572e+00 1.192264e+01 -1.077210e+00 4.050799e+00 1.093533e+01 2.452993e+00 4.475253e+00 3.576766e+00 7.955339e+00 -2.831938e-01 8.748552e+00 8.830507e+00 -1.471037e-01 -6.967608e-01 -4.602943e-01 2.908099e-01 -1.733543e-01 4.309357e-01 -2.917195e-01 -3.139812e-01 -1.657761e+00 -1.463354e-01 8.551266e-01 2.107769e+00 6.840932e-01 -3.046989e-03 
-6.158206e+00 1.072880e+01 -2.812363e+00 3.757699e+00 1.105385e+01 -2.488503e-01 2.465919e+00 2.618948e+00 1.299918e+01 6.450237e+00 1.835040e+01 2.268955e+00 -1.512927e-01 -5.995170e-01 -3.367739e-01 -6.092698e-02 -7.126943e-01 -4.461762e-01 -1.015597e-02 -7.836870e-02 -1.091794e+00 -1.446603e-01 -1.895040e-01 9.889559e-02 -1.219917e-01 -1.480770e-03 
-7.589170e+00 1.082101e+01 -1.246672e-01 3.599016e+00 1.136531e+01 2.510403e+00 3.819832e+00 -9.161186e-01 1.091712e+01 3.823549e+00 1.354256e+01 8.538548e+00 -1.512927e-01 -7.802896e-02 3.047249e-02 2.323763e-02 -3.730163e-01 -6.113499e-02 3.824471e-01 3.140172e-01 3.320525e-02 9.600973e-02 -3.657207e-01 -5.619509e-01 6.556682e-02 3.998518e-04 
-7.216539e+00 1.040630e+01 -1.356129e+00 2.085531e+00 9.354311e+00 4.644340e+00 2.121247e+00 1.986606e+00 9.416018e+00 1.153974e+00 9.421910e+00 6.502820e+00 -1.389161e-01 2.123358e-01 3.725729e-02 2.306097e-01 -1.563147e-01 9.744641e-02 6.746033e-01 6.477917e-01 9.208902e-01 -4.347383e-01 -1.006073e+00 -2.738220e+00 -3.034946e-01 0.000000e+00 
-5.470551e+00 1.223625e+01 -1.689139e+00 3.021802e+00 1.147943e+01 1.918633e+00 6.217675e+00 4.058963e+00 1.022697e+01 5.363341e-01 1.040304e+01 7.041409e+00 -1.512927e-01 4.324163e-01 -5.742084e-02 -5.649189e-01 -9.700227e-02 -5.465638e-01 -2.939275e-01 7.367377e-02 3.752189e-01 -7.957896e-01 -8.514847e-01 -2.665867e+00 -1.443514e+00 1.078153e-03 
-6.155837e+00 1.020746e+01 -8.770789e-01 3.264733e+00 1.148403e+01 3.420051e+00 4.505956e+00 4.735857e+00 1.117056e+01 3.063478e+00 6.229057e+00 1.500051e+00 -1.512927e-01 1.065233e+00 -1.205104e-01 -2.914621e-01 3.493367e-01 -7.247760e-01 -3.323092e-01 7.499583e-02 -6.160105e-01 -1.996365e+00 -1.058143e+00 -1.920100e+00 -1.398936e+00 9.993792e-04 
-5.957440e+00 1.063333e+01 -3.188787e+00 2.524403e+00 7.567630e+00 1.652910e+00 2.995847e+00 -4.146495e-01 6.060902e+00 -1.388626e+00 1.809649e+00 3.822364e+00 -1.397136e-01 1.045416e+00 -3.956687e-01 -1.099616e-01 1.632550e-01 -1.650606e+00 -8.980904e-02 7.442799e-01 -5.417395e-01 -1.477634e+00 -5.345950e-02 -1.096141e+00 -1.571223e+00 1.102158e-02 
-1.646929e+00 1.060521e+01 -2.063616e+00 4.080914e+00 7.686329e+00 3.115655e+00 4.107141e+00 1.143360e+00 1.517223e+00 -3.174263e+00 4.118107e+00 1.117665e+00 -1.397088e-01 1.192792e+00 -5.580161e-01 -1.797557e-01 -1.812543e-01 -1.734070e+00 -2.016614e-01 1.771807e+00 -7.937139e-01 -1.908002e+00 -4.185810e-02 2.560281e-01 -3.160743e-01 1.155922e-02 
-2.497923e+00 1.005903e+01 -1.645678e+00 3.429987e+00 5.125246e+00 1.621786e+00 1.013848e+01 3.146514e+00 7.665466e+00 3.387907e+00 5.977815e+00 -6.235154e-01 -1.019768e-01 5.848243e-01 -1.161645e+00 1.433554e+00 -3.188853e-02 -4.710531e-03 -1.445221e-01 -2.231770e-02 -7.723345e-01 -2.780372e+00 1.046235e-01 1.237424e+00 -1.024060e+00 3.140857e-02 
-1.921634e+00 7.704529e+00 -2.547411e+00 1.905669e+00 4.034869e+00 2.427306e+00 9.793676e+00 -1.013294e+00 8.282681e-01 4.659210e-01 5.425114e+00 2.142619e+00 -1.123650e-01 -5.839963e-01 -9.497091e-01 1.893057e+00 -5.596887e-01 7.088780e-01 -9.673665e-02 -1.652651e+00 -3.983763e-01 -1.013381e+00 5.341082e-01 9.838970e-01 -6.999901e-01 3.943198e-02 
-2.895967e+00 6.275445e+00 4.220882e+00 3.452582e+00 9.369808e+00 1.274474e+00 4.099035e-02 -3.197995e+00 -7.496478e+00 -2.685600e+00 7.343266e+00 -1.810416e+00 3.657341e-03 -7.340032e-01 -1.292101e-01 9.036474e-01 1.581062e-01 1.279182e+00 3.091473e-01 -2.148689e+00 4.960982e-01 5.708953e-01 -3.287385e-01 1.847434e-01 -3.875071e-01 1.055989e-02 
-4.367888e+00 7.748460e+00 4.468386e+00 1.271172e+00 9.108438e+00 2.805628e+00 8.926330e-01 2.323733e+00 4.031288e+00 2.533031e+00 8.354866e+00 -1.788835e+00 4.634082e-03 -5.194719e-01 7.849311e-01 -1.243812e+00 3.204992e-01 1.220991e+00 -9.711649e-02 -3.190407e-01 1.546832e+00 2.160839e+00 4.107044e-01 2.441079e-01 9.642534e-02 -1.643861e-02 
-4.944812e+00 9.391019e+00 -6.353399e-01 4.537766e+00 8.984371e+00 2.978362e+00 3.845557e+00 3.958492e+00 8.918432e+00 7.106589e-01 5.436656e+00 -5.953238e-01 -1.076769e-01 -3.656097e-01 -1.494646e+00 -3.358380e+00 2.809559e-01 -3.082916e-01 -2.815111e-02 1.749792e+00 6.215609e-01 4.259659e+00 3.664153e-01 -2.484206e-01 1.761126e+00 3.695397e-02 
-3.494571e+00 1.007140e+01 -6.338361e+00 2.965573e+00 1.033254e+01 1.089780e+00 6.296190e+00 3.142624e+00 3.425007e+00 8.213132e-01 7.598959e+00 2.017200e+00 -1.388910e-01 -2.209034e-02 -3.105254e+00 -3.047996e+00 3.649166e-01 -1.064849e+00 -5.842037e-01 6.464003e-01 -1.605256e+00 2.402453e+00 -1.096896e-01 -3.729653e-02 2.321812e+00 1.382273e-01 
-5.160674e+00 -2.359257e+00 -7.167644e+00 4.010161e+00 7.216297e+00 1.991642e+00 6.088171e+00 -4.996357e-01 1.410496e+01 2.335370e-03 6.479116e+00 5.092196e+00 2.601897e-01 1.177815e+00 -2.154261e+00 -1.273240e+00 -5.535838e-01 -2.455025e+00 -1.886584e+00 -1.162471e+00 -2.477322e+00 9.887037e-01 2.954750e-01 -3.535166e-01 7.726526e-01 1.926700e-01 
-4.370409e+00 -1.902672e+00 -7.505442e+00 3.359558e+00 4.668228e+00 3.779693e-01 3.003328e+00 -3.473483e+00 1.345029e+01 2.338745e+00 7.647153e+00 6.976463e+00 5.118371e-01 2.822184e+00 -2.585773e+00 1.075084e+00 -2.931105e+00 -3.324251e+00 -3.912839e+00 -4.036484e+00 -1.420359e-01 -7.785079e-01 1.258264e-01 -3.008922e+00 -1.577493e+00 2.113995e-01 
1.382180e+00 4.606747e+00 -6.418001e+00 1.572855e+00 -4.585981e-01 -6.098654e+00 -3.203678e-01 -5.120064e+00 8.849309e+00 1.429318e+00 3.644976e+00 7.883078e-01 5.303091e-01 3.481446e+00 -2.425047e+00 1.587114e+00 -4.356873e+00 -2.246514e+00 -3.931557e+00 -4.756032e+00 2.432019e+00 -3.953990e+00 7.165464e-01 -4.627614e+00 -2.449758e+00 1.448350e-01 
7.344922e+00 -6.340468e+00 -1.337763e+00 -1.047130e+01 -2.451262e+00 -1.442927e+01 -1.068196e+01 4.742658e+00 2.160292e+00 7.369537e-01 -6.028579e+00 -3.718323e+00 7.830466e-01 2.821528e+00 -4.916117e+00 1.303019e+00 -3.982001e+00 -2.341300e+00 -1.605815e+00 -5.006524e+00 2.614540e+00 -3.401027e+00 -5.502533e-01 -4.193548e+00 -3.052115e+00 1.047842e-01 
6.388890e+00 -1.226559e+01 -2.315914e+00 -1.085877e+01 -4.565296e-01 -1.026253e+01 -1.084934e+01 7.552389e+00 -1.999187e-02 4.385963e+00 -9.821089e+00 -1.809199e+00 8.487599e-01 1.945740e+00 -5.680468e+00 6.217274e-01 -4.066688e-01 -2.131095e+00 1.432846e+00 -3.544593e+00 1.657394e+00 -1.820473e+00 1.039104e-01 -1.184783e+00 -1.554068e+00 7.489999e-02 
7.233876e+00 -1.804709e+01 -3.041392e+00 -1.033463e+01 -7.039304e+00 -5.569169e+00 -1.676480e+01 3.262990e+00 8.798051e-01 -1.890844e+00 -6.587553e+00 -6.985359e+00 8.765327e-01 1.791727e+00 -3.025094e+00 -1.610198e+00 3.975701e+00 -1.897640e+00 1.844675e+00 -1.260807e+00 -5.184295e-01 -5.680397e-01 7.447452e-01 2.087955e+00 -1.569198e+00 2.085326e-02 
1.116640e+01 -1.794228e+01 -2.457549e+00 -5.288236e-01 -8.820054e+00 -3.364471e+00 -1.500191e+01 3.906738e+00 3.871870e-01 3.262769e+00 -1.999452e+00 -5.348514e+00 8.580660e-01 2.236307e+00 -1.021251e+00 -2.390095e+00 4.574461e+00 -8.079195e-01 1.036902e+00 1.122189e-02 3.729529e-01 6.060824e-01 1.720555e+00 2.274217e+00 -1.247608e+00 1.670290e-02 
1.391480e+01 -1.862759e+01 -9.317936e+00 4.242230e+00 -7.757701e+00 -8.654920e+00 -1.490971e+01 3.973336e+00 -8.834963e-01 5.022277e+00 5.003753e-01 -9.794654e+00 8.826599e-01 1.626109e+00 4.966722e-01 -3.009216e+00 2.998477e+00 1.119639e+00 7.085080e-01 1.270198e+00 1.028533e+00 1.080823e+00 2.605157e+00 -1.537514e-02 -1.651642e-01 1.831196e-02 
1.422996e+01 -1.708160e+01 -1.112812e+01 4.725102e+00 -4.136929e+00 -3.535139e+00 -1.172078e+01 9.061981e+00 3.892071e+00 9.532177e+00 -1.993968e+00 -6.642591e+00 9.292108e-01 5.170130e-01 2.767076e-01 -2.644586e+00 -3.586785e-01 1.289433e+00 8.516962e-01 4.307600e-01 4.432470e-01 9.488190e-01 9.964657e-01 -2.350542e+00 -6.889820e-02 2.100001e-02 
1.383264e+01 -1.599407e+01 -1.375219e+01 2.030795e+00 -3.782670e+00 -1.941295e+00 -1.205438e+01 5.828032e+00 4.531477e+00 8.000240e+00 -6.667171e+00 -7.164142e+00 9.325201e-01 -1.836963e-01 -7.658215e-02 -1.309151e+00 -1.954565e+00 3.469788e-01 9.118984e-01 -7.171301e-01 -1.680526e-01 3.843384e-02 -8.265141e-01 -3.287747e+00 4.773048e-01 1.335391e-02 
1.379255e+01 -1.787551e+01 -1.346336e+01 -1.216499e+00 -4.360404e+00 -2.462803e+00 -1.427578e+01 5.195624e+00 2.423796e+00 6.756116e+00 -1.016839e+01 -7.008261e+00 9.381359e-01 -4.341212e-01 -9.587631e-02 -7.090806e-01 -1.940605e+00 -1.595829e-01 -5.260645e-01 -1.263369e+00 -6.994401e-01 -7.626443e-01 -2.273174e+00 -2.126312e+00 1.492527e-01 4.840189e-03 
1.321503e+01 -1.861355e+01 -1.469607e+01 -2.559796e+00 -5.911069e+00 -4.631596e+00 -1.721786e+01 5.066252e+00 4.281044e-02 2.277737e+00 -1.185115e+01 -7.225295e+00 9.449669e-01 -5.421786e-01 2.372818e-01 -2.241267e-01 -8.823601e-01 -2.491086e-01 -5.834330e-01 -1.035187e+00 6.481866e-01 -8.188862e-01 -1.993748e+00 -6.402609e-01 3.197951e-01 5.128688e-03 
1.236817e+01 -1.625124e+01 -1.420158e+01 -2.682626e+00 -3.870644e+00 -4.820312e+00 -1.545588e+01 5.945671e+00 2.323183e+00 1.027558e+00 -1.003354e+01 -5.865750e+00 9.471884e-01 -6.405020e-01 -1.543694e-02 -1.786124e-01 -5.732892e-01 -9.502417e-01 -8.695594e-01 -9.843588e-01 7.951065e-01 -1.154362e+00 -2.005500e+00 -6.359982e-01 1.870194e-01 6.574696e-03 
1.183394e+01 -1.561979e+01 -1.450371e+01 -1.647941e+00 -5.273093e+00 -3.679706e+00 -1.664026e+01 8.693942e+00 4.873524e-01 8.957767e-01 -9.935899e+00 -6.136421e+00 9.536373e-01 -5.431334e-01 -3.157646e-01 9.587208e-01 -2.025050e-01 -8.700120e-01 -5.774813e-02 -2.761582e-01 1.730347e+00 -9.105476e-01 -9.340099e-01 -5.430859e-01 9.967791e-01 9.878302e-03 
1.128058e+01 -1.944957e+01 -1.445260e+01 -4.538872e+00 -9.430600e+00 -7.286545e+00 -1.948637e+01 7.357311e+00 -3.570284e+00 -2.580404e+00 -1.430600e+01 -6.617600e+00 9.666742e-01 -6.412807e-01 -9.676878e-01 1.598386e+00 -2.074353e-01 -1.504459e+00 1.976900e-02 -2.217310e-01 1.721953e+00 -1.303119e+00 -9.439869e-01 -8.344073e-01 1.061749e+00 1.287867e-02 
1.104315e+01 -1.859321e+01 -9.776957e+00 -2.644198e+00 -7.481151e+00 -3.687220e+00 -1.658341e+01 1.301217e+01 -1.563194e+00 -5.883319e-01 -1.243035e+01 -1.865475e+00 9.846155e-01 -7.507356e-01 -8.582983e-01 1.957604e+00 -6.871785e-01 -1.517238e+00 -1.824198e-02 7.156830e-02 1.105768e+00 -9.696071e-01 -1.431134e+00 -4.148474e-01 6.162795e-01 1.155208e-02 
9.557156e+00 -1.960297e+01 -8.573023e+00 -3.221675e+00 -1.028891e+01 -4.717710e+00 -1.659296e+01 1.239632e+01 -3.167138e+00 -2.950322e+00 -1.295835e+01 -2.692477e+00 9.960926e-01 -7.230547e-01 1.280600e-01 2.219697e+00 -5.940296e-01 -5.992368e-01 4.493234e-01 8.323532e-01 1.264497e+00 -2.594780e-01 -1.041840e+00 8.234358e-01 6.668454e-01 7.853955e-03 
8.941976e+00 -1.983459e+01 -7.655477e+00 -5.742433e+00 -1.243013e+01 -5.055333e+00 -1.772913e+01 1.170328e+01 -4.562256e+00 -6.074931e+00 -1.268396e+01 -5.017585e+00 9.966885e-01 -8.904297e-01 7.710266e-02 1.703431e+00 -1.688855e+00 -6.662527e-01 -7.172235e-01 4.963470e-01 6.305065e-02 -7.696967e-01 -1.188933e+00 7.232334e-01 -4.464308e-01 3.458387e-03 
8.715897e+00 -1.818858e+01 -4.414855e+00 -5.959903e+00 -9.952294e+00 -4.355871e+00 -1.475175e+01 1.433424e+01 -3.368143e+00 -5.046302e+00 -1.006202e+01 -1.707318e+00 9.999075e-01 -7.142225e-01 5.245622e-01 2.359135e+00 -1.560889e+00 -6.180954e-02 -3.144282e-01 1.419811e+00 3.027771e-01 -3.018901e-01 8.049444e-01 1.085466e+00 3.162452e-01 -7.817865e-04 
7.011635e+00 -1.891489e+01 -3.338886e+00 -9.719360e+00 -1.098072e+01 -7.454256e+00 -1.502229e+01 1.235846e+01 -5.311175e+00 -5.485007e+00 -1.026235e+01 -4.590208e+00 1.000000e+00 -7.363626e-01 8.508641e-01 2.696988e+00 -1.336261e+00 -3.872625e-01 -3.414097e-01 1.848340e+00 1.208661e-01 -2.894154e-01 2.303282e+00 1.511010e+00 4.866973e-01 -6.243366e-03 
6.951214e+00 -1.744001e+01 1.064356e+00 -9.037658e+00 -1.132266e+01 -5.090389e+00 -1.084733e+01 1.358261e+01 -4.302129e+00 7.794374e-01 -8.741831e+00 -1.324940e+00 9.905279e-01 -6.834744e-01 9.547833e-01 2.839485e+00 -1.610860e+00 -1.020310e+00 -8.428585e-01 1.607858e+00 -4.903753e-01 -4.236870e-01 2.656692e+00 1.803140e+00 -5.854611e-02 -9.877848e-03 
6.142504e+00 -1.595455e+01 3.089856e+00 -1.088486e+01 -1.368126e+01 -6.395123e+00 -1.043963e+01 1.268342e+01 -5.542340e+00 2.528611e+00 -5.789006e+00 -2.775288e+00 9.701614e-01 -9.410540e-01 1.325500e+00 2.287213e+00 -1.773218e+00 -1.741793e+00 -1.972654e+00 7.382154e-01 -1.796034e+00 -1.018053e+00 1.784284e+00 1.599786e+00 -6.460779e-01 -1.220836e-02 
5.733090e+00 -1.489483e+01 6.568201e+00 -1.343145e+01 -1.370357e+01 -9.099730e+00 -9.003784e+00 1.171988e+01 -5.370996e+00 4.230349e+00 -3.282986e+00 -2.907509e+00 9.654375e-01 -8.641096e-01 1.406150e+00 2.333678e+00 -1.508782e+00 -1.310078e+00 -2.160573e+00 1.865856e-01 -2.568000e+00 -1.005352e+00 1.519379e+00 1.156126e+00 -5.234236e-01 -1.231110e-02 
2.915427e+00 -1.355998e+01 5.345258e+00 -1.638855e+01 -1.849923e+01 -1.531285e+01 -1.225298e+01 4.309662e+00 -9.867007e+00 1.710957e+00 -4.992841e+00 -7.029313e+00 9.515034e-01 -6.678059e-01 1.697536e+00 2.462063e+00 -5.648336e-01 2.685488e-01 -7.197310e-01 9.183558e-01 -2.886607e+00 -5.105009e-02 1.618338e+00 4.942376e-01 5.525618e-02 -1.150550e-02 
4.244205e+00 -1.160654e+01 1.160505e+01 -1.382972e+01 -1.546407e+01 -1.143439e+01 -9.007728e+00 4.929494e+00 -7.166557e+00 8.785162e+00 -3.359282e+00 -1.815045e+00 9.383014e-01 -7.591906e-01 1.599865e+00 1.788986e+00 1.530119e-01 6.463572e-01 5.676053e-01 6.538094e-01 -3.051359e+00 -6.758350e-01 7.371408e-01 -5.456543e-01 -2.105003e-01 -1.314485e-02 
3.547917e+00 -9.111017e+00 1.288175e+01 -1.350989e+01 -1.145827e+01 -8.826449e+00 -5.845881e+00 1.645584e+00 -4.899810e+00 8.342894e+00 -3.279670e+00 -3.045239e+00 9.262020e-01 -6.461283e-01 1.465038e+00 1.378020e+00 6.653818e-01 1.055130e+00 1.147990e+00 6.897221e-01 -2.648926e+00 -1.094764e+00 5.667539e-02 -7.963459e-01 -2.973609e-01 -1.142839e-02 
1.620892e+00 -9.119987e+00 1.174488e+01 -1.410572e+01 -1.399227e+01 -9.504907e+00 -8.938287e+00 -2.204874e+00 -1.123377e+01 4.600085e+00 -6.867843e+00 -5.952047e+00 9.123640e-01 -9.353598e-01 1.457601e+00 1.162770e-01 5.752961e-01 -2.884045e-02 3.165503e-01 6.013947e-02 -3.148455e+00 -2.349435e+00 -1.136672e+00 -1.331617e+00 -1.227695e+00 -1.044961e-02 
9.964418e-01 -7.478067e+00 1.216544e+01 -1.292364e+01 -1.395948e+01 -1.053764e+01 -8.839091e+00 -5.367783e+00 -1.330722e+01 4.086873e+00 -7.220290e+00 -6.447617e+00 9.073302e-01 -4.126005e-01 1.717451e+00 3.604641e-01 1.479029e+00 -1.169033e-01 9.468972e-01 8.191586e-02 -1.801820e+00 -2.267426e+00 1.526961e-02 -5.833963e-01 -5.651851e-01 -1.556632e-02 
8.431435e-01 -5.135015e+00 1.254459e+01 -1.124636e+01 -1.435766e+01 -8.996038e+00 -7.210425e+00 -7.306101e+00 -1.471002e+01 5.229811e+00 -8.047058e+00 -6.252332e+00 8.954893e-01 1.213031e-01 2.158229e+00 7.456042e-01 2.211971e+00 1.546482e-01 1.977049e+00 5.415562e-01 -7.828199e-01 -7.653672e-01 6.941308e-01 4.171497e-01 -1.053874e-01 -2.356056e-02 
1.873789e+00 -2.516248e+00 1.428422e+01 -7.544425e+00 -1.186009e+01 -4.346397e+00 -6.300233e+00 -4.812901e+00 -1.449881e+01 8.104379e+00 -5.607043e+00 -5.721022e+00 8.568077e-01 2.003202e-01 2.158452e+00 5.316682e-01 1.757194e+00 -1.741947e-01 2.224974e+00 -7.230743e-01 -3.774437e-01 -5.541220e-01 -1.597196e-01 -1.119666e-01 -5.461385e-01 -3.830322e-02 
1.788733e+00 -8.097534e-01 1.441352e+01 -5.735477e+00 -1.426872e+01 -2.715284e+00 -7.499935e+00 -6.396414e+00 -1.446481e+01 6.061986e+00 -5.588717e+00 -6.842281e+00 8.198224e-01 2.625642e-02 2.174649e+00 3.130719e-01 1.100793e+00 -5.669460e-01 1.284113e+00 -1.398257e+00 -8.726088e-01 -8.041647e-01 -9.899594e-01 -1.430530e+00 -5.001358e-01 -5.385557e-02 
1.525248e+00 1.151561e+00 1.388931e+01 -6.893116e+00 -1.487492e+01 -2.553153e+00 -1.230971e+01 -7.709845e+00 -1.620044e+01 2.872187e+00 -9.009294e+00 -8.883334e+00 7.536475e-01 -3.112116e-01 2.944951e+00 -1.040813e-01 7.376504e-01 -1.222419e+00 1.595857e-01 -1.778226e+00 -1.858086e+00 -6.326380e-01 -1.895341e+00 -3.003530e+00 -3.802000e-01 -6.670791e-02 
1.148696e+00 3.904327e+00 1.430740e+01 -6.068052e+00 -1.568498e+01 -3.472097e+00 -1.119697e+01 -1.022067e+01 -1.788004e+01 2.896109e+00 -1.349858e+01 -7.171855e+00 6.777916e-01 -7.070766e-01 4.041074e+00 9.239851e-01 1.207525e+00 5.476424e-01 3.611844e-01 -1.688606e-01 -2.884269e+00 1.001338e+00 -1.373264e+00 -3.652612e-01 1.128444e+00 -8.050351e-02 
6.377497e-01 9.851467e+00 1.381687e+01 -3.689885e+00 -1.726406e+01 -3.170062e+00 -1.334284e+01 -1.219120e+01 -1.595439e+01 2.106130e-01 -1.666976e+01 -7.457235e+00 5.942836e-01 -2.256726e+00 2.893232e+00 5.684015e-01 2.399724e+00 2.516522e+00 1.478511e+00 2.599201e+00 -3.392314e+00 2.855129e+00 -1.856514e+00 1.279579e+00 1.527207e+00 -7.336392e-02 
-1.302900e+00 1.504566e+01 1.906966e+01 -1.299467e+00 -1.033594e+01 -6.009073e-01 -7.827671e+00 -1.857708e+01 -9.581147e+00 5.264519e-01 -3.584789e+00 -1.913109e+00 4.969869e-01 -3.196304e+00 2.795453e-01 -1.252938e+00 2.350125e+00 4.413370e+00 2.624429e+00 4.434761e+00 -9.185730e-01 4.884248e+00 -2.002042e+00 3.595260e+00 2.111249e+00 -4.571638e-02 
-8.532583e+00 1.004706e+01 1.435019e+01 2.721214e+00 -4.966828e+00 3.403810e+00 -9.983530e-01 -2.049321e+01 -6.074240e+00 -5.225554e+00 -7.568296e+00 -3.876672e+00 4.772303e-01 -2.101724e+00 -1.026993e+00 -1.835846e+00 1.939614e+00 4.735826e+00 2.226310e+00 4.693955e+00 1.068498e+00 4.685405e+00 -6.699399e-01 2.860728e+00 1.883114e+00 -3.102254e-02 
-1.024766e+01 5.204260e+00 7.776050e+00 2.477022e+00 2.332573e-01 6.363112e+00 4.804587e+00 -1.066253e+01 1.601131e+00 -4.396016e+00 -7.301521e-02 1.594112e+00 5.077364e-01 -4.785781e-01 -1.464631e+00 -2.058481e+00 7.210073e-01 2.422886e+00 1.909331e+00 2.960847e+00 2.390050e+00 2.764225e+00 7.855687e-02 2.854665e-01 9.515384e-01 -4.002928e-02 
-5.398494e+00 9.637203e+00 1.028445e+01 4.119939e+00 1.130471e+00 4.479481e+00 3.810804e+00 -1.080599e+01 1.881497e+00 -6.778525e-01 -4.122010e+00 2.047266e-01 4.337961e-01 1.361763e+00 -8.337314e-02 -5.476882e-01 -2.148857e-01 -8.960781e-02 1.473055e+00 1.940614e+00 1.500273e+00 1.387121e+00 2.464847e+00 1.590545e+00 5.726785e-01 -5.623960e-02 
-5.262836e+00 7.927433e+00 1.081013e+01 1.606207e+00 -1.270163e+00 8.407911e+00 4.571987e+00 -1.147044e+01 2.621078e-01 -1.354615e+00 -3.880600e+00 8.038846e-01 3.185576e-01 1.183768e+00 3.685443e-01 -4.012777e-01 -9.202331e-01 -2.179147e+00 1.255212e+00 1.650543e+00 -6.448355e-02 -7.050930e-01 1.822890e+00 1.356184e-01 -1.282385e+00 -6.509434e-02 
-4.216178e+00 8.268603e+00 1.009471e+01 2.082193e+00 -4.663157e+00 9.746687e+00 8.821018e+00 -1.258789e+01 1.530876e+00 5.577981e+00 2.288219e+00 -6.181657e-01 2.906216e-01 2.506075e-02 -8.985779e-01 -1.732002e+00 -1.149899e+00 -2.534686e+00 1.155311e+00 2.413375e+00 -6.468552e-01 -1.939109e+00 4.668599e-01 4.815993e-01 -1.152545e+00 -4.121118e-02 
-4.919977e+00 7.731282e+00 5.864530e+00 -1.105271e+00 -7.765666e+00 1.000557e+01 1.055219e+01 -1.009400e+01 -1.749023e+00 1.590518e+00 -2.600038e+00 -4.406366e+00 2.538520e-01 2.991512e-01 -1.474609e+00 -2.421582e+00 -1.594171e-01 2.868538e-02 -1.120907e-01 1.510416e+00 9.289762e-01 -1.528111e+00 -5.900193e-01 -6.771225e-01 -1.001857e+00 -2.237337e-02 
-5.444619e+00 5.242390e+00 4.097239e+00 -2.738144e-01 -8.295209e+00 9.457207e+00 1.288758e+01 -1.472848e+01 -6.808480e+00 1.838807e-01 -2.354295e+00 -2.952871e+00 2.600930e-01 1.594858e-01 -1.654210e+00 -1.606645e+00 1.747299e-01 2.258198e+00 -5.049545e-01 3.717083e-01 2.308991e+00 -1.454252e+00 -2.022999e+00 -1.197343e+00 -3.502579e-01 -1.929474e-02 
-3.152859e+00 2.067493e+00 1.700956e+00 1.987125e+00 6.892900e-01 7.992197e+00 1.009079e+01 -5.755264e+00 -3.208771e+00 -1.607661e+00 -4.944956e+00 -3.038046e+00 2.219550e-01 2.014690e-01 -1.248600e+00 -3.439547e-01 9.853388e-01 2.096188e+00 -2.508685e-01 1.070350e+00 3.002097e+00 2.066807e-01 -2.517230e-01 7.394008e-01 4.772048e-01 -8.080447e-03 
-4.302308e+00 2.829447e+00 4.143272e+00 1.409644e+00 2.400353e+00 8.228601e+00 1.091026e+01 -3.212303e+00 -5.010510e+00 -2.937924e+00 -2.526037e+00 -3.053615e+00 2.100964e-01 2.191837e-01 -6.526374e-01 -4.478722e-01 2.500777e-01 1.029128e+00 -6.467571e-01 5.855024e-01 2.040291e+00 5.584877e-01 5.084744e-01 2.058099e+00 1.376126e+00 -7.307631e-03 
-4.483788e+00 2.694754e+00 4.121739e+00 2.979694e+00 -2.632507e+00 9.365532e+00 1.689260e+01 -8.416035e-01 -1.614605e+00 1.892806e+00 1.182837e+00 -1.969970e+00 2.384480e-01 2.026772e-01 -5.589554e-01 -5.724851e-01 1.153332e-01 -1.474124e+00 -4.367173e-01 4.003391e-01 -3.288913e-02 -7.495213e-02 3.776914e-01 1.642857e+00 1.421899e+00 1.197827e-03 
-3.683236e+00 1.665573e+00 6.474860e-01 4.802895e-01 -1.488669e+00 5.536755e+00 1.241418e+01 -6.983858e+00 -4.813125e+00 9.760191e-01 4.872303e+00 3.393723e+00 2.153084e-01 6.218601e-01 -5.178913e-01 -5.786747e-01 6.285243e-01 -8.748986e-01 -4.048723e-01 -3.279726e-01 1.212796e-01 -8.020230e-02 3.933112e-01 1.109524e+00 1.018549e+00 -1.332825e-03 
-2.449009e+00 -1.453466e-01 5.864235e-01 3.028468e+00 -4.736817e+00 7.154534e+00 1.134052e+01 -4.033933e+00 -3.682224e+00 -1.676175e+00 -4.298391e-01 8.477787e-01 2.253382e-01 4.308104e-01 -2.380005e-01 -7.416462e-01 6.768188e-01 1.008584e+00 -1.160384e+00 -2.474747e+00 -9.911332e-02 3.723812e-03 -5.963624e-01 8.230833e-01 1.013749e+00 -2.326977e-02 
-2.210397e+00 1.660040e+00 3.017557e+00 4.527878e+00 -9.219847e-01 7.309739e+00 1.204644e+01 -1.009741e+00 -4.377712e+00 8.131226e-01 3.827922e+00 6.302552e-01 2.099872e-01 -3.508472e-03 2.145171e-01 -6.706535e-01 4.362391e-01 1.957208e+00 -1.878975e-01 -9.500364e-01 1.083289e+00 1.444365e+00 -1.095604e+00 -3.960430e-01 6.117361e-01 -3.040016e-02 
-3.066155e+00 1.507518e+00 -7.715267e-01 4.339993e+00 2.127069e+00 2.677119e+00 4.702735e+00 -4.324228e+00 -1.813692e+00 -1.007558e+00 5.820445e+00 4.480512e+00 1.247597e-01 -2.588480e-01 5.709590e-01 -4.910387e-01 5.896446e-01 2.908464e+00 7.248200e-01 -5.674914e-01 -5.001308e-01 9.239758e-01 -1.369559e+00 -8.694295e-01 -4.936454e-01 -3.045992e-02 
-3.392205e+00 1.911726e+00 -2.026806e+00 2.005723e+00 4.865428e+00 6.835975e+00 1.098289e+01 -1.422266e+00 1.474435e+00 -4.836308e+00 -2.330537e-01 4.636037e+00 1.135968e-01 -1.211424e-01 1.940137e-01 -3.829301e-01 1.865859e-02 1.601194e+00 3.041770e-01 8.087621e-02 -9.138691e-01 1.042756e+00 -1.312808e+00 -1.616139e+00 -7.057167e-01 -1.915710e-02 
-3.152345e+00 2.583606e+00 6.534116e-01 7.237769e+00 6.911796e+00 1.101552e+01 9.034840e+00 -6.328324e+00 -1.988419e+00 -5.699256e+00 -2.746499e+00 -3.623339e+00 1.212338e-01 3.491078e-01 6.401272e-02 1.143812e-01 8.292108e-01 9.381450e-01 -8.971858e-03 1.407869e+00 1.116620e-01 4.421814e-01 -8.233514e-02 -1.327819e+00 -1.021306e+00 -4.580599e-03 
-2.773014e+00 2.092065e+00 3.904369e-01 3.172283e+00 4.691623e+00 4.661425e+00 1.028477e+01 -4.577039e+00 9.234290e-01 -3.405070e+00 3.069830e-02 1.153597e+00 1.159647e-01 3.161352e-01 5.193281e-03 -5.112804e-01 4.230900e-01 2.230823e-01 -9.589193e-01 -6.000555e-02 -4.578199e-02 -1.085026e-01 -2.492769e-01 -1.781656e-01 -2.235465e-02 -1.157727e-02 
-1.630212e+00 1.737412e+00 -1.408242e+00 7.902767e+00 6.904696e+00 3.719534e+00 1.209114e+01 -2.188532e+00 6.727180e-01 -2.134853e+00 -9.505243e-01 1.115199e+00 1.006728e-01 4.640570e-01 4.553281e-01 -9.274930e-01 -6.656300e-01 1.908913e-02 -1.524068e+00 -4.213535e-01 1.292345e+00 1.030622e+00 -4.760973e-01 3.323766e-01 1.769687e+00 -2.174001e-02 
-2.572596e+00 2.360789e+00 -3.552381e+00 3.788674e+00 5.984389e+00 5.689369e+00 9.154713e+00 -3.721072e+00 -3.986464e-01 -7.864894e+00 -2.021869e+00 2.154994e+00 6.599092e-02 2.491173e-01 5.054111e-01 -6.560478e-01 -1.021975e-01 -1.539932e-01 -1.282655e+00 -1.345825e+00 1.281550e+00 1.065531e+00 4.894911e-01 3.802465e-01 3.047161e-01 -2.363582e-02 
-9.322691e-01 4.725884e+00 -2.012644e+00 3.601424e+00 6.360858e+00 2.881204e+00 7.493099e+00 -2.945840e-01 3.825730e+00 -5.849831e+00 -5.833197e-02 4.724399e+00 3.752059e-02 5.595694e-02 8.011655e-01 1.731903e-01 1.585402e-01 4.958356e-01 -1.049946e+00 -7.534890e-01 1.231150e+00 6.027303e-01 -1.408089e-01 8.715210e-01 -1.469232e-01 -2.037938e-02 
-1.876399e+00 3.124885e+00 -2.587601e+00 4.811967e+00 4.193575e+00 -1.332686e+00 5.854667e+00 8.837383e-01 4.674579e+00 8.998749e-01 1.485835e+00 8.725777e-01 2.936172e-02 2.802015e-01 9.328760e-01 -5.539431e-02 5.153309e-01 3.986443e-01 -7.627343e-01 -5.810164e-01 1.892168e-01 2.691391e-01 6.732292e-01 1.674529e+00 2.424407e-01 -1.642818e-02 
-1.698525e+00 5.361192e+00 -1.024681e+00 8.183821e+00 1.027928e+01 1.980833e+00 9.973721e+00 1.664812e+00 1.149757e+00 -7.221282e+00 1.653229e+00 1.021792e+00 1.709050e-02 2.619557e-01 1.103770e+00 -3.270675e-01 2.320788e-01 4.000048e-01 3.590343e-01 -2.523483e-01 -1.079157e+00 -9.136327e-01 -1.020188e+00 1.680500e+00 5.598845e-01 -1.050472e-02 
-7.884598e-01 6.707515e+00 -4.323335e+00 4.074130e+00 6.018399e+00 2.325883e+00 5.009320e+00 -3.754686e+00 2.285036e+00 -3.813024e+00 5.494997e+00 5.218501e+00 -5.934954e-03 2.113973e-01 1.110600e+00 -3.937128e-01 -4.277994e-01 4.258746e-01 9.674538e-01 1.723247e-01 -1.948120e+00 -2.643577e+00 -1.902318e+00 1.245908e+00 1.899090e+00 -1.046358e-02 
-1.664600e-01 8.453419e+00 -2.780115e+00 5.130737e+00 7.448471e+00 2.847091e+00 6.654031e+00 -3.371159e+00 4.523382e-01 -8.594319e+00 6.339589e+00 5.350860e+00 2.645314e-03 -3.611155e-01 -1.086081e-01 -4.145118e-01 -4.371890e-01 -9.219623e-01 -6.004540e-01 2.631214e-01 -1.094072e+00 -8.356746e-01 3.017197e-01 6.216543e-01 1.329702e+00 -7.968902e-04 
-1.585445e+00 7.131770e+00 -3.678448e+00 4.199512e+00 7.738354e+00 3.071454e+00 8.376135e+00 -6.338876e+00 -8.194596e+00 -7.925199e+00 5.372193e+00 8.203494e+00 -1.573360e-02 -6.210138e-01 -1.068409e+00 1.228498e-01 5.600598e-01 -2.188147e-01 -8.504847e-01 1.264949e+00 6.869919e-01 2.202658e-01 6.662618e-01 8.309268e-01 7.279371e-01 1.206988e-02 
-3.105610e+00 4.606024e+00 -3.419683e+00 5.935185e+00 4.809493e+00 -1.394222e+00 9.605920e+00 -2.513453e+00 2.211200e+00 -3.656596e+00 4.822903e+00 6.177808e+00 1.800537e-02 -7.007445e-01 -1.417469e+00 -7.467518e-02 -3.901428e-01 -4.213580e-01 -1.376473e+00 4.392135e-01 4.254982e-01 8.924147e-01 6.529772e-01 1.306649e+00 1.812996e+00 1.310726e-02 
-2.423954e+00 3.289165e+00 -3.389302e+00 6.472205e+00 6.243815e+00 1.941161e-01 9.858122e+00 -7.485793e-01 2.506934e+00 -2.950576e+00 1.040797e+01 8.444714e+00 4.673439e-02 -5.094308e-01 -8.191184e-01 -1.320986e-01 -4.166175e-01 6.079718e-01 3.461722e-01 1.255905e+00 1.144757e+00 1.779979e+00 -4.968314e-02 9.529398e-01 9.568264e-01 6.924641e-03 
-3.250928e+00 3.287374e+00 -3.298064e+00 2.043677e+00 6.088950e+00 -2.596606e+00 8.109105e+00 -4.038816e+00 -4.363537e-01 -7.816745e+00 1.035494e+01 1.429523e+01 3.694761e-02 9.258270e-04 1.211509e-01 -2.870329e-01 2.758760e-02 1.486218e+00 8.546831e-01 1.306108e+00 6.827623e-01 1.111117e-01 -1.308322e+00 -7.228698e-01 6.660892e-01 -2.485806e-03 
-4.059940e+00 3.695503e+00 -4.399750e+00 4.062179e+00 1.013848e+01 5.403507e+00 1.540407e+01 1.475914e-01 2.029074e+00 -6.093540e+00 7.370872e+00 8.928915e+00 9.418488e-03 -1.145658e-02 1.017804e-01 -3.357068e-01 1.108065e+00 2.031555e+00 5.466315e-01 8.221081e-01 3.058120e-01 -3.708855e-01 -1.670874e+00 -2.389695e+00 -1.503648e+00 -7.707870e-03 
-2.282988e+00 5.008610e+00 -4.349624e+00 7.278136e+00 1.029325e+01 2.744975e-01 1.336349e+01 4.522732e-01 3.005688e+00 -8.626722e+00 2.727104e+00 9.266153e+00 2.423429e-02 3.777713e-01 4.333513e-01 -4.016046e-01 1.180878e+00 1.569611e+00 3.113945e-01 2.967230e-01 1.144751e+00 -1.391522e-01 -8.097353e-01 -1.021688e+00 -1.856099e+00 -5.360621e-03 
-2.965207e+00 2.937449e+00 -4.542056e+00 9.395300e+00 1.429944e+01 1.491722e+00 1.134147e+01 -1.465064e+00 -1.068515e+00 -1.089996e+01 2.273420e+00 3.441010e+00 1.455170e-02 4.674554e-01 5.099854e-01 -2.555679e-01 4.420209e-02 4.999368e-01 -8.332735e-01 -9.299570e-01 6.726337e-01 -5.813798e-01 -7.572836e-01 5.916830e-01 -3.847912e-01 -2.033758e-03 
-1.909438e+00 5.833157e+00 -5.234934e+00 5.281505e+00 1.185653e+01 9.162591e-01 1.162402e+01 2.491264e+00 4.166794e-01 -9.462213e+00 7.795226e+00 7.758690e+00 7.577896e-03 1.802868e-01 4.544801e-01 -2.463500e-01 -8.107058e-01 6.836486e-02 7.080605e-02 -3.196388e-01 8.034310e-01 -3.692823e-01 -2.332354e-02 1.565805e+00 1.302756e-01 -4.028660e-03 
