-6.636143e+00 1.265461e+01 4.877269e+00 4.958488e+00 6.634541e-01 1.458559e+00 3.781382e+00 4.618896e+00 3.548864e+00 8.837815e+00 1.065172e+01 6.456680e+00 4.985332e-03 -2.000818e-02 -3.094076e-01 -1.910879e-01 -4.447384e-01 -2.593037e-01 2.896627e-01 1.336430e-01 -2.868638e-01 3.176787e-01 -3.230356e-01 -6.705385e-01 -4.491718e-01 -1.878440e-03 
-7.302009e+00 1.084009e+01 3.941500e+00 1.802832e+00 1.589212e+00 3.255472e+00 4.010399e+00 6.243577e-01 3.509144e+00 8.531196e+00 8.291964e+00 4.363165e+00 5.280972e-05 5.845928e-03 -2.289837e-01 -7.579561e-02 -3.879011e-01 -7.589570e-01 6.096419e-01 9.946432e-01 6.158759e-01 7.676212e-02 -8.543229e-02 -1.125703e+00 -5.130636e-01 -2.527225e-03 
-6.403251e+00 1.201483e+01 4.389714e+00 4.312625e+00 -1.095944e+00 2.008417e+00 4.335088e+00 5.181846e+00 5.157118e+00 7.375948e+00 8.478904e+00 5.257579e+00 -1.940608e-03 1.876804e-01 7.094426e-02 -2.538747e-01 1.436312e-02 -3.650992e-01 7.201284e-01 1.335968e+00 -5.833006e-02 -7.830943e-01 -1.369224e+00 -9.100849e-01 -2.516713e-01 4.713059e-04 
-6.723359e+00 1.182958e+01 4.742069e+00 3.341915e+00 -2.251632e+00 4.231841e+00 8.477745e+00 7.416800e+00 3.128548e+00 9.141588e+00 6.109609e+00 4.490913e+00 -4.187822e-03 1.580032e-01 2.857871e-02 -2.387972e-01 1.462518e-01 -6.354042e-01 -1.583223e-01 1.379955e+00 5.792451e-01 -1.624645e-01 -1.285786e+00 5.596710e-01 1.649419e+00 2.059513e-03 
-5.987065e+00 1.251459e+01 3.207612e+00 4.260763e+00 7.583801e-01 4.571016e+00 8.227551e+00 9.310241e-01 -1.763091e-01 1.686497e+00 7.192472e+00 5.134450e+00 9.462178e-03 -1.313966e-01 -1.528580e-01 4.247937e-01 -7.954954e-01 -5.288199e-01 -1.272320e-01 1.438892e-02 -1.081173e+00 -8.657349e-01 -1.527882e+00 5.954178e-01 1.306508e+00 1.623017e-03 
-6.720085e+00 1.073311e+01 3.338565e+00 2.560022e+00 -2.514971e+00 1.182560e+00 8.963942e+00 5.645994e+00 5.363535e+00 4.946990e+00 1.173353e+01 1.267183e+01 4.648983e-03 -7.011213e-02 -1.212017e-01 5.592957e-01 -4.733317e-02 -1.740621e-01 -9.792480e-01 -1.048176e+00 -1.175553e+00 2.476455e-01 -1.664490e+00 -3.715031e-01 1.238121e+00 2.288824e-03 
-7.061871e+00 1.179878e+01 7.215434e+00 7.260942e-01 -3.608373e+00 2.896897e+00 4.163934e+00 6.613822e-01 -2.890499e-01 1.833838e+00 8.644030e+00 7.699663e+00 1.756072e-03 -1.910665e-01 1.105046e-01 7.444748e-01 2.803927e-01 5.483539e-02 -1.734247e-01 -1.193649e+00 -2.732081e-01 9.894897e-01 1.248592e+00 -1.401796e+00 -4.591056e-01 1.437444e-03 
-6.536517e+00 1.158148e+01 5.534636e+00 4.872583e+00 -9.385651e-01 1.726604e-01 5.268673e+00 1.673857e+00 4.423146e+00 7.454698e-01 3.526314e+00 9.398912e+00 1.110935e-02 -8.025627e-02 3.644825e-01 -2.454192e-01 8.051515e-03 -1.021513e-01 -8.821198e-01 -1.756850e+00 -7.677652e-01 -2.568552e-01 1.083825e+00 -2.352228e+00 -2.964261e+00 2.994841e-03 
-7.034182e+00 1.264293e+01 5.831951e+00 4.506445e+00 2.443541e-01 4.208843e+00 4.106942e+00 1.551052e+00 5.241335e+00 1.003022e+01 4.287101e+00 4.475379e+00 1.341921e-02 -2.055733e-01 -1.858208e-01 -1.137073e+00 -3.197437e-01 2.274651e-02 -1.410471e+00 -1.117830e+00 -7.837842e-02 5.490159e-01 8.176911e-01 -9.881572e-01 -9.316543e-01 1.206952e-03 
-7.135211e+00 1.213345e+01 2.803211e+00 7.101042e-01 -4.952091e+00 -3.884012e+00 2.081900e-01 1.362333e+00 1.314067e+00 6.267926e+00 2.150858e+00 -5.373337e-01 1.379162e-02 -2.515782e-01 -2.147017e-01 -9.490349e-01 -3.274702e-01 1.067563e-01 -6.310779e-01 -4.548801e-01 -3.356555e-01 -9.515365e-01 -4.607962e-01 1.788186e-01 -7.205316e-01 -9.543300e-05 
-7.790390e+00 1.059369e+01 2.895783e+00 1.208616e+00 -1.487878e+00 -2.127121e+00 1.105025e+00 4.252520e-01 4.010569e+00 3.161065e+00 4.390972e+00 8.009515e+00 6.449699e-03 1.071103e-01 -1.220830e-01 -2.659945e-01 1.553502e-01 9.890332e-02 -2.238228e-01 4.930737e-01 -3.798191e-01 -4.597508e-01 -1.679380e+00 3.560467e-02 5.457051e-01 -6.314754e-03 
-7.416304e+00 1.153259e+01 2.257545e+00 4.884147e+00 4.613321e-01 1.852524e-01 4.495231e+00 5.584795e-01 2.808464e-01 1.876065e+00 4.368472e+00 4.029186e+00 1.411694e-02 2.137312e-01 -2.623174e-02 5.525178e-01 5.104257e-01 -4.164383e-01 1.347990e+00 1.278891e+00 1.076275e-01 1.830978e-01 -6.523492e-01 1.213653e+00 9.805190e-01 -5.173373e-03 
-6.358084e+00 1.233294e+01 4.774811e+00 3.196175e+00 -1.967841e+00 1.055097e+00 4.428790e+00 5.388308e-02 3.459191e+00 3.829251e+00 3.356318e+00 4.920645e+00 -1.831722e-02 3.695680e-01 2.634329e-01 4.336916e-01 -1.548131e-02 -1.121821e+00 8.713849e-01 1.085298e+00 1.378186e+00 8.385047e-01 5.175380e-01 2.371686e-01 -4.813738e-01 1.306081e-03 
-6.782708e+00 1.113266e+01 4.626287e+00 2.268453e+00 -6.794301e+00 1.264830e+00 4.940763e+00 2.086155e+00 2.505245e+00 2.672087e+00 8.736449e+00 5.909696e+00 3.082156e-04 4.463577e-03 -1.043108e-01 1.193184e-02 -1.322396e+00 -6.910287e-01 1.676433e-01 -6.123400e-03 6.767978e-01 2.269482e-01 8.707845e-01 1.506312e-01 -3.146523e-01 -1.673937e-03 
-6.259348e+00 1.211082e+01 3.879870e+00 2.439056e+00 -3.469166e+00 1.690014e+00 6.308752e+00 6.552343e+00 7.090894e+00 5.350745e+00 3.392826e+00 4.662392e+00 1.988447e-02 -1.577208e-01 -6.737072e-01 -7.880753e-01 -9.389660e-01 3.230825e-01 -8.599259e-01 -4.221130e-01 -8.370485e-02 -1.134145e+00 7.217015e-01 3.893429e-01 -1.053305e+00 1.094872e-03 
-7.443354e+00 1.112210e+01 2.764674e+00 -1.349272e+00 -2.243149e+00 7.060101e-01 3.524633e+00 6.932383e-01 -4.002640e-01 5.469241e+00 5.103374e+00 2.585052e+00 -1.335359e-02 -1.778890e-01 -3.724475e-01 -9.197513e-02 -4.849601e-02 1.454990e-01 -1.069524e+00 -1.147304e+00 -6.028626e-01 -9.536974e-01 -2.221195e-01 -1.383244e-01 -1.007163e+00 -5.404138e-03 
-6.816365e+00 8.969687e+00 1.765241e+00 3.102076e-01 -2.628004e+00 -2.965122e+00 3.026289e+00 3.318174e-01 -7.587824e-01 6.039182e+00 7.119570e+00 1.316440e+00 -6.011963e-03 -3.479172e-01 -5.156659e-01 -9.606691e-02 -7.578345e-02 1.894341e-01 -1.106560e+00 -1.478642e+00 -1.645121e+00 -1.634837e+00 -8.146655e-01 1.667698e-01 -4.484110e-01 -8.163691e-04 
-7.393644e+00 1.084099e+01 5.223726e+00 3.090397e+00 -6.487387e+00 -1.755219e+00 8.454757e-01 2.182106e+00 1.661596e+00 1.217271e+00 6.181455e+00 2.546858e+00 -1.376426e-02 -3.232966e-02 -3.046129e-01 6.440489e-01 1.172559e+00 1.994493e-01 -1.264978e+00 -4.797435e-01 2.291274e-01 7.886521e-01 5.331049e-01 -3.680216e-01 -9.969427e-02 6.761283e-03 
-8.023788e+00 9.673040e+00 2.170010e+00 -1.596954e-01 -3.998772e-01 -2.612171e+00 2.551217e-01 -2.417696e+00 -2.114220e+00 3.403402e+00 3.687634e+00 2.439433e+00 1.600796e-02 -1.384848e+00 -1.008603e+00 2.725252e+00 5.200472e-01 -5.864693e-01 1.418815e+00 -1.770895e+00 -1.260128e+00 1.803305e+00 2.626180e-01 -1.098780e+00 -4.511967e-01 6.897794e-02 
-7.001290e+00 9.247355e+00 5.782534e+00 4.748475e+00 -2.359966e+00 -5.795355e+00 2.511499e+00 3.213632e+00 4.220715e+00 9.452656e+00 4.979233e+00 1.525084e+00 9.442866e-03 -1.668967e+00 -1.883586e+00 2.541279e+00 -9.988268e-01 -1.666227e+00 3.571195e+00 -8.910692e-01 -2.106368e+00 2.253640e+00 -8.154198e-02 -1.139080e+00 -4.485478e-01 1.245442e-01 
-1.393678e+01 4.723487e+00 1.511210e+01 2.081404e+00 -7.624061e+00 6.149021e+00 -6.661200e+00 -6.484588e+00 6.978184e+00 3.234580e+00 2.226779e+00 -4.286563e-01 3.272741e-01 -5.611706e-03 -1.383430e+00 1.982643e+00 -1.420698e+00 -1.963619e+00 3.480390e+00 -9.192570e-01 -5.139930e-01 1.189442e+00 -2.249600e+00 -4.351898e-01 -2.905212e-01 1.007031e-01 
-1.278198e+01 3.897837e+00 1.145908e+01 -3.024287e+00 -1.120643e+01 1.172016e+01 -1.517096e-01 -6.316289e+00 8.383595e+00 8.939724e-01 1.216485e+00 1.738163e+00 4.533237e-01 1.201839e+00 7.585082e-01 -3.258884e-01 -7.422360e-01 4.107288e-01 1.032514e+00 -2.450157e-01 1.016140e-01 -9.848431e-01 -2.348405e+00 -3.195947e-01 -1.704574e-04 3.173685e-03 
-5.161500e+00 5.430649e+00 9.244953e+00 -3.376803e+00 -5.794742e+00 6.032023e+00 -3.009559e+00 -2.226999e-01 1.751550e+00 -3.565258e+00 3.393059e+00 8.802874e-01 2.975833e-01 2.089226e+00 1.692211e+00 -3.121036e+00 1.140060e+00 2.363958e+00 -2.996105e+00 2.248941e+00 2.339271e+00 -6.523446e-01 2.259078e-01 1.979415e+00 6.962593e-02 -9.593695e-02 
-5.379737e+00 1.268632e+01 7.086663e+00 3.766399e+00 -1.220981e+00 -5.742877e-01 -5.393996e-01 5.907578e-01 1.909816e+00 1.110547e+00 2.798120e+00 8.697594e-01 4.015672e-02 1.349167e+00 1.716694e+00 -3.180929e+00 1.194182e+00 1.475183e+00 -3.856999e+00 1.191796e+00 2.076988e+00 1.649192e-01 2.069191e+00 1.398487e+00 2.323557e-02 -1.113170e-01 
-7.191775e+00 8.790303e+00 1.693124e+00 4.386361e+00 -7.969939e-01 -2.684279e+00 4.777352e+00 1.758245e+00 6.953350e+00 4.255832e+00 1.133304e+01 3.536752e-01 5.417287e-02 4.979749e-01 1.291803e+00 -2.104201e+00 -9.773330e-02 -7.258654e-02 -1.607877e+00 1.315799e+00 1.226053e+00 1.576115e+00 2.399240e+00 6.413041e-02 -8.873113e-01 -6.071346e-02 
-5.021013e+00 1.080148e+01 -6.696525e-01 -9.349577e-01 -6.329389e+00 -3.206683e+00 1.913815e+00 3.078180e+00 6.607291e+00 7.329385e+00 4.238932e+00 2.117647e+00 1.844388e-02 6.767055e-01 -8.366976e-02 -4.580339e-01 -7.229649e-01 -4.832411e-01 7.793085e-01 1.580832e+00 2.081165e+00 7.404521e-01 1.323220e+00 -4.932378e-01 -5.032526e-01 -9.691685e-03 
-2.850987e+00 1.283208e+01 2.602106e+00 -1.514791e+00 -3.603471e+00 -6.911643e-01 2.342828e+00 4.663854e+00 7.283386e+00 5.321523e+00 2.993305e+00 -4.180213e+00 4.872382e-03 4.180183e-01 -3.004242e-01 1.114642e+00 7.358867e-01 -6.544684e-01 1.551087e+00 6.019662e-01 2.087809e+00 -3.107112e-01 5.881860e-01 -5.829504e-01 -1.396975e+00 2.569127e-03 
-4.166603e+00 1.024708e+01 4.342003e+00 3.102151e+00 -2.233948e+00 2.325697e+00 8.582023e+00 9.543776e+00 5.447059e+00 7.193799e+00 4.501796e+00 6.204405e-01 1.634854e-02 -7.335429e-01 -1.337808e+00 2.095234e+00 1.762569e+00 7.049981e-01 9.312645e-01 -1.347017e-01 1.387307e+00 -1.939079e+00 -6.068741e-01 1.113382e+00 -7.969084e-01 1.942065e-02 
-5.528889e+00 7.565383e+00 4.760507e+00 6.047240e+00 -6.117056e+00 2.304967e+00 4.453079e+00 8.964495e+00 5.979910e+00 7.264555e+00 8.286853e+00 -5.882597e+00 6.806618e-02 -1.084101e+00 -8.334707e-01 1.544392e+00 2.173726e+00 1.076438e+00 -1.168173e-01 -1.038397e+00 8.811132e-01 -1.792278e+00 -6.961120e-01 7.539308e-01 8.579210e-01 1.761648e-02 
-7.349777e+00 6.745789e+00 8.727320e+00 4.096870e+00 -1.547606e+00 -4.842567e-02 1.851802e-01 7.864395e+00 -2.436368e+00 3.323498e+00 7.159067e+00 -1.015703e+00 8.395022e-02 -1.060570e+00 1.307486e-01 1.175874e-01 7.751955e-01 1.036788e+00 -1.568592e-01 -1.971855e+00 -8.949209e-01 4.239507e-02 -7.779606e-01 -6.696883e-01 1.106172e+00 1.492524e-02 
-6.679908e+00 1.041537e+01 8.131407e+00 8.856479e+00 1.435550e+00 -8.818913e-02 1.349264e+00 9.909110e+00 2.263711e+00 3.776113e+00 5.434324e+00 9.274639e-01 5.915391e-02 -1.044359e+00 4.358586e-01 -6.409780e-01 1.330647e+00 1.148018e+00 -3.830444e-01 -3.781195e-01 -1.033534e+00 8.109703e-01 -2.651858e-03 2.465510e-01 2.919163e+00 1.858562e-02 
-8.893942e+00 9.475828e+00 3.244490e+00 5.573509e+00 -8.263115e-01 2.737979e+00 2.746568e-01 4.596863e+00 7.517133e+00 5.048217e+00 2.579619e+00 2.746272e+00 9.543085e-02 -1.207908e+00 3.985909e-01 -5.581993e-01 1.754258e+00 -1.632573e+00 8.997440e-02 1.537943e+00 -1.675092e+00 2.486960e+00 1.132967e+00 1.056181e+00 1.988956e+00 3.354540e-02 
-9.978601e+00 8.379656e+00 4.297032e+00 1.196215e+01 -7.376122e-01 -1.003458e+00 2.517743e+00 5.430589e+00 5.058011e+00 6.388936e+00 1.180933e+01 6.832232e+00 1.552539e-01 -9.811586e-01 1.533765e-01 -2.435014e-01 1.141602e-01 -2.400753e+00 -5.701784e-01 2.309677e+00 -1.001561e+00 1.869012e+00 3.085913e-01 -1.736351e-01 1.150616e+00 4.726408e-02 
-1.173997e+01 9.756599e+00 7.853510e+00 1.131532e+01 -8.623890e+00 8.590807e-01 7.290655e+00 1.728194e+00 8.601284e+00 7.681920e+00 9.252466e+00 5.976695e+00 2.036272e-01 1.373985e+00 -1.350771e+00 -1.720486e+00 -2.621801e+00 -1.616098e+00 -1.964574e+00 2.740454e-01 -1.980765e-01 3.727264e-01 -1.239990e+00 -1.269751e+00 6.642203e-02 1.026877e-01 
-1.016269e+01 1.104187e+01 4.609389e+00 6.556373e+00 -6.669424e+00 -1.999632e+00 9.389649e+00 6.335639e+00 1.106669e+01 4.002218e+00 1.229725e+00 5.065331e+00 2.413761e-01 2.742450e+00 -2.157581e+00 -2.843781e+00 -4.657008e+00 -9.099269e-01 -1.775004e+00 -1.938048e+00 -4.188422e-01 3.250007e-01 -1.796652e+00 -2.712097e+00 -8.061914e-01 9.533874e-02 
-1.931974e+00 1.390871e+00 -5.514118e+00 -4.832603e+00 -5.940894e+00 -6.586802e+00 -1.791069e+00 3.153956e+00 6.376423e+00 4.162645e-02 1.520666e+00 3.961833e+00 5.658081e-01 4.475194e+00 -2.439651e+00 -2.780512e+00 -3.869602e+00 7.950509e-01 -1.217584e+00 -3.556709e+00 -1.579394e+00 -2.356154e+00 -2.663877e+00 -2.567800e+00 -2.044227e+00 7.166958e-02 
-1.170348e+00 1.774616e+00 -3.238059e+00 -3.248921e+00 -6.628745e+00 -6.155537e+00 -2.631637e+00 2.623497e+00 7.795445e+00 1.225824e+00 2.114747e+00 3.808706e+00 4.508572e-01 5.579804e+00 -3.513238e+00 -1.733572e+00 -3.819449e+00 1.927634e+00 -1.311415e+00 -3.576782e+00 -1.086652e+00 -4.590625e+00 -2.298530e+00 -2.533108e+00 -2.281818e+00 1.056307e-01 
6.139832e+00 2.191968e+00 -2.125325e+00 -3.130042e+00 -4.668974e+00 -3.150890e+00 -4.482244e+00 -4.312706e+00 -1.543861e+00 -4.249270e+00 -4.029042e+00 -3.616127e+00 4.572346e-01 4.261935e+00 -3.761992e+00 3.428893e-01 -2.729031e+00 2.816953e+00 6.881455e-01 -1.473131e+00 2.776549e-01 -3.427348e+00 -1.768485e+00 -2.421094e+00 -1.831054e+00 1.103499e-01 
1.370043e+01 -6.924874e+00 -5.752866e+00 -1.339215e+01 2.332784e+00 -1.027466e+01 -7.148670e+00 4.635711e+00 -7.926288e+00 -5.344984e+00 -8.660963e+00 -2.554780e+00 8.238162e-01 2.680233e+00 -4.646809e+00 -2.302524e-01 -2.693933e+00 1.787909e+00 1.278682e+00 -1.538323e+00 -1.281224e-01 -2.483209e+00 -2.384283e+00 -1.672356e+00 -1.531682e+00 1.483559e-01 
1.194231e+01 -1.306934e+01 -2.542267e+00 -1.340614e+01 3.663108e+00 -1.086512e+00 -6.898210e+00 3.536124e+00 -2.899453e+00 -5.515397e+00 -5.196950e+00 -2.011696e+00 9.310780e-01 1.814373e-01 -4.511916e+00 3.837755e-01 -1.837763e+00 7.488451e-01 1.284445e+00 -9.401554e-01 -3.986742e-01 -4.328877e-01 -1.054095e+00 -3.762475e-01 -1.239686e-01 1.193335e-01 
9.329576e+00 -1.382877e+01 -4.180850e+00 -1.158054e+01 -1.855243e+00 -7.943144e-01 -9.115271e+00 -1.941530e+00 -3.942805e+00 -1.006253e+01 -5.663079e+00 -4.651919e+00 9.557148e-01 -1.151979e+00 -2.268688e+00 9.683554e-01 2.782738e-01 -2.003389e-01 2.174917e+00 -8.581499e-01 -2.171897e+00 -1.474257e-02 -4.859014e-01 3.495990e-01 -2.383629e-01 4.092426e-02 
9.232445e+00 -1.691566e+01 -9.924560e-01 -1.322467e+01 1.169265e+00 -1.468840e+00 -8.199721e+00 -3.017457e+00 -5.700041e+00 -7.160976e+00 -7.409222e+00 -3.187400e+00 9.879529e-01 -2.268962e-01 -7.785496e-01 3.479177e-01 6.525920e-01 5.126476e-01 7.493657e-01 -7.840956e-01 -1.511210e+00 -8.455535e-01 -1.332508e-01 3.565838e-01 2.208721e-01 1.662099e-02 
9.295471e+00 -1.634515e+01 -1.685995e+00 -1.209152e+01 2.578011e+00 7.910831e-01 -1.078866e+01 -2.946985e+00 -6.599707e+00 -6.951701e+00 -5.806832e+00 -3.158743e+00 1.000000e+00 7.809681e-01 -2.708418e-01 -5.086579e-02 1.401558e+00 1.074226e+00 6.110853e-01 3.462362e-02 -6.704339e-01 -8.345774e-01 3.220878e-01 7.860644e-01 7.494435e-01 3.680754e-03 
1.082489e+01 -1.570390e+01 -2.050106e+00 -9.887690e+00 4.009718e+00 1.867618e+00 -9.981991e+00 -3.517197e+00 -5.798770e+00 -7.737063e+00 -3.342155e+00 -1.653924e+00 9.920403e-01 1.202625e+00 6.317741e-01 -1.217418e+00 2.430545e+00 2.513169e-01 -1.421719e-01 9.763096e-01 -9.169609e-01 -9.408342e-01 -1.366393e-01 9.961009e-01 1.166475e-01 -1.029348e-02 
1.243820e+01 -1.578887e+01 -3.906353e+00 -6.241239e+00 2.095662e+00 5.928829e-01 -8.051018e+00 -5.043829e+00 -8.066328e+00 -8.164043e+00 -3.766291e+00 -1.671440e+00 9.720749e-01 1.296748e+00 8.694689e-01 -9.530796e-01 2.764143e+00 9.504353e-02 -5.772127e-01 2.150162e+00 -5.811754e-01 -7.307695e-01 6.052316e-01 6.173350e-01 2.502320e-01 -1.667216e-02 
1.367421e+01 -1.403494e+01 -5.969368e+00 -3.997081e+00 2.667024e+00 -2.080600e+00 -4.686996e+00 -6.553839e+00 -9.670901e+00 -7.238002e+00 -3.448988e+00 -3.347814e+00 9.504480e-01 8.397936e-01 1.268076e+00 -9.874876e-01 2.135570e+00 3.238129e-01 -8.749674e-01 2.069024e+00 -2.038111e-01 -1.105122e+00 1.778545e+00 -3.652922e-01 -1.470836e-01 -1.835545e-02 
1.435455e+01 -1.283229e+01 -4.491762e+00 -1.216113e+00 3.724576e+00 -1.208713e-01 -2.685353e+00 -4.334541e+00 -8.317489e+00 -4.175074e+00 -2.666741e+00 -1.060637e+00 9.374353e-01 3.238760e-01 1.036937e+00 -7.942335e-01 1.204457e+00 8.013797e-02 -9.140700e-01 1.474393e+00 -2.358164e-01 -1.248835e+00 1.744793e+00 -7.699310e-01 -6.310831e-01 -1.572342e-02 
1.406568e+01 -1.084181e+01 -6.694840e+00 -1.722403e+00 4.814326e+00 -2.150341e+00 -2.319702e+00 -4.890896e+00 -1.119880e+01 -8.388250e-01 -5.718390e+00 -2.694743e+00 9.175829e-01 -2.559603e-01 2.974648e-01 -3.722313e-01 1.234840e-01 6.983812e-02 -6.409362e-01 3.306258e-01 -4.399169e-01 -7.648164e-01 8.355654e-01 -1.052635e+00 -5.255913e-01 -6.752265e-03 
1.386184e+01 -1.220075e+01 -7.514785e+00 -1.356291e+00 1.422701e+00 -3.942596e+00 -1.862700e+00 -7.054383e+00 -1.354656e+01 -2.639666e+00 -6.481244e+00 -5.153391e+00 9.098904e-01 -2.690703e-01 -6.166954e-02 -3.265858e-03 -4.567606e-01 -5.624843e-03 5.212564e-02 -2.148462e-01 -4.285193e-01 5.778933e-02 1.681910e-02 -4.330002e-01 -4.186462e-01 -1.235765e-03 
1.264076e+01 -1.286339e+01 -6.319013e+00 -3.309572e+00 4.167152e+00 -3.374418e+00 -3.445194e+00 -7.393503e+00 -1.088045e+01 -3.827878e+00 -6.804911e+00 -3.929394e+00 9.304592e-01 -1.776157e-01 -6.058270e-01 8.941795e-01 -5.142516e-01 2.197463e-01 1.151799e+00 -2.349733e-01 1.332035e-01 9.504601e-01 -3.023983e-01 6.557018e-01 -1.419568e-02 4.454458e-03 
1.372166e+01 -1.212985e+01 -4.696004e+00 -2.706332e+00 4.020039e+00 7.517953e-01 -3.196838e+00 -5.225834e+00 -8.187716e+00 -2.596452e+00 -4.288482e+00 -2.536543e+00 9.248183e-01 -3.757644e-01 -3.198746e-01 7.870789e-01 -1.205403e+00 3.733109e-01 1.131787e+00 -6.998865e-01 2.678252e-01 5.743345e-01 -3.802937e-01 5.272999e-01 -1.182253e-01 4.133516e-03 
1.324769e+01 -1.390639e+01 -3.633333e+00 -3.618641e+00 4.614388e+00 1.261460e+00 -2.827499e+00 -5.139153e+00 -9.125917e+00 -2.372424e+00 -3.536263e+00 -4.074145e+00 9.323912e-01 -4.892946e-01 -4.186384e-01 1.976095e-01 -1.494333e+00 -7.885467e-02 -4.100170e-01 -5.632240e-01 -5.476255e-02 -1.179672e+00 -2.182748e-01 -2.334348e-01 -8.477743e-01 2.982080e-03 
1.167955e+01 -1.327862e+01 -4.922231e+00 -7.228769e+00 3.065637e+00 -6.016014e-01 -5.670979e+00 -6.842432e+00 -1.155215e+01 -5.268862e+00 -5.479069e+00 -5.672141e+00 9.295920e-01 -8.178123e-01 -7.343622e-01 -2.974367e-02 -1.448058e+00 -3.201664e-01 -1.466676e+00 -6.657453e-01 -2.437580e-01 -1.817604e+00 -4.944206e-01 -8.603565e-01 -1.244685e+00 7.127118e-03 
1.121534e+01 -1.438220e+01 -5.217852e+00 -8.520019e+00 4.250080e+00 -4.747805e+00 -5.024243e+00 -6.859017e+00 -1.509659e+01 -3.583047e+00 -7.376791e+00 -6.600466e+00 9.429828e-01 -4.630089e-01 -5.496815e-01 2.553542e-01 -6.142817e-01 7.123852e-02 -8.909733e-01 1.607709e-01 3.406594e-01 -8.148637e-01 2.613629e-01 -7.344843e-01 5.216856e-02 8.142978e-03 
1.064877e+01 -1.556376e+01 -4.052463e+00 -7.495934e+00 2.601361e+00 -3.576954e+00 -5.427193e+00 -5.584692e+00 -1.429040e+01 -4.463243e+00 -6.670000e+00 -7.496806e+00 9.551581e-01 -2.116121e-01 -5.304024e-01 5.315683e-01 1.223584e-01 7.594261e-02 -2.476082e-01 8.895099e-01 1.570163e-01 2.017690e-01 7.162657e-01 -5.942348e-01 5.502784e-01 7.795536e-03 
1.144804e+01 -1.551223e+01 -2.791446e+00 -6.556467e+00 5.202719e+00 -1.705730e+00 -2.145538e+00 -4.064725e+00 -1.183111e+01 -1.468418e+00 -6.613218e+00 -2.900970e+00 9.603230e-01 -3.827709e-02 -2.991476e-01 3.003278e-01 3.011578e-01 -4.955874e-01 2.741291e-01 2.937019e-01 -9.045343e-02 6.490511e-01 1.803057e-01 -4.357544e-01 1.622993e-01 1.738179e-03 
1.050514e+01 -1.536561e+01 -3.477593e+00 -7.598753e+00 2.969030e+00 -3.360680e+00 -2.662783e+00 -7.454496e+00 -1.217604e+01 -2.744847e+00 -8.832029e+00 -4.770497e+00 9.598995e-01 1.411370e-01 1.396332e-01 5.186401e-02 4.814148e-02 -6.002019e-02 -5.268893e-02 4.199434e-01 -3.426771e-01 8.796180e-01 1.147083e-01 -3.468248e-01 -1.554317e-02 -2.746433e-03 
1.109577e+01 -1.597701e+01 -4.003648e+00 -6.962820e+00 1.588308e+00 -3.485296e+00 -4.937939e+00 -6.376382e+00 -1.290851e+01 -3.540716e+00 -8.474548e+00 -7.152123e+00 9.493030e-01 2.252021e-01 5.723881e-01 2.097634e-01 -1.319681e-01 2.238465e-01 2.152377e-01 4.001462e-01 2.383206e-01 1.132695e+00 1.479230e-01 6.611137e-02 -2.800986e-01 -7.196027e-03 
1.153059e+01 -1.463320e+01 -3.187042e+00 -7.052050e+00 4.108465e+00 -2.950616e+00 -1.931275e+00 -6.142250e+00 -9.353609e+00 -2.853553e+00 -7.473459e+00 -5.448945e+00 9.469360e-01 1.478815e-01 8.747376e-01 9.409814e-02 -3.947724e-01 3.070101e-01 3.751195e-01 5.293049e-01 2.214468e-01 1.326441e+00 -1.288962e-01 1.021063e-01 -5.100551e-02 -1.093971e-02 
1.206132e+01 -1.301649e+01 -1.887904e+00 -7.489659e+00 5.752234e+00 -8.345737e-01 -5.105610e-01 -3.529245e+00 -7.578854e+00 -6.744506e-01 -6.961946e+00 -3.962239e+00 9.308246e-01 -2.093493e-01 7.493475e-01 -2.997722e-01 -9.505006e-01 -2.530966e-01 -3.653547e-01 -9.070969e-02 -4.481745e-02 3.332129e-01 -5.966859e-01 -1.032134e+00 -1.406675e-01 -1.169382e-02 
1.076177e+01 -1.247218e+01 -4.064974e+00 -9.309196e+00 2.422117e+00 -2.810444e+00 -2.229947e+00 -7.770831e+00 -8.208669e+00 -4.822461e+00 -9.077799e+00 -6.620467e+00 9.144402e-01 -3.325633e-01 4.179689e-01 -6.716748e-01 -8.750184e-01 -1.153777e+00 -9.032146e-01 -7.426370e-01 -2.792206e-01 -5.447818e-01 -9.761489e-01 -1.577713e+00 -8.186241e-01 -1.288101e-02 
1.043343e+01 -1.331078e+01 -5.063543e+00 -1.058675e+01 1.165999e+00 -5.382156e+00 -5.242151e+00 -5.786179e+00 -1.181492e+01 -5.539692e+00 -1.283305e+01 -7.269700e+00 9.070818e-01 1.163681e-01 7.687002e-01 -3.686332e-01 2.960777e-02 -9.150454e-01 -1.478287e-01 -1.803389e-02 5.642187e-01 1.917174e-01 -7.839737e-02 -6.964846e-01 -6.024736e-01 -1.366872e-02 
1.068172e+01 -1.239621e+01 -4.957596e+00 -9.878596e+00 6.327000e-01 -5.192898e+00 -3.278666e+00 -6.409886e+00 -9.959486e+00 -5.301677e+00 -1.242648e+01 -7.888335e+00 8.944023e-01 3.382542e-01 8.947941e-01 5.349983e-01 3.929452e-01 -2.151810e-01 3.224595e-01 8.438698e-01 1.788329e+00 5.986922e-01 7.786509e-01 3.967283e-01 -3.270523e-01 -1.443507e-02 
1.268319e+01 -9.210975e+00 -3.284759e+00 -7.056920e+00 2.071716e+00 -3.824904e-01 -7.637119e-02 -1.388624e+00 -5.744858e+00 -8.268297e-01 -8.770031e+00 -6.340672e+00 8.724999e-01 4.664772e-02 8.415133e-01 1.090381e+00 -1.638791e-01 -2.420708e-01 3.854465e-01 6.054431e-01 1.495986e+00 8.858798e-01 4.963733e-01 5.914942e-01 -2.721865e-01 -1.689319e-02 
1.132816e+01 -1.004811e+01 -2.279375e+00 -9.109385e+00 8.933538e-01 -3.697979e+00 -5.934882e-01 -1.027966e+00 -8.250237e+00 -3.285638e+00 -9.125666e+00 -8.720243e+00 8.595557e-01 -3.876911e-01 4.481697e-01 1.204395e+00 -8.253574e-01 -6.657456e-01 -3.005424e-01 -7.365360e-01 1.164549e+00 1.902823e-01 -3.142633e-01 2.574553e-01 -3.967178e-01 -1.951233e-02 
1.034345e+01 -1.027726e+01 -9.507494e-01 -1.179075e+01 -1.746820e-01 -4.202383e+00 -3.557525e+00 -9.972095e-01 -8.240143e+00 -4.065845e+00 -1.152598e+01 -8.214679e+00 8.400391e-01 -7.083563e-01 2.045002e-01 9.150038e-01 -1.158842e+00 -8.593695e-01 -1.320792e+00 -1.523939e+00 -1.295407e-01 -5.921078e-02 -7.344190e-01 -3.434051e-01 -5.702543e-02 -2.214429e-02 
9.913137e+00 -9.622222e+00 -1.026263e-01 -1.163847e+01 -1.572829e+00 -4.785664e+00 -5.220769e+00 -7.828479e-01 -7.760432e+00 -5.253486e+00 -9.761224e+00 -8.934921e+00 8.130711e-01 -3.546709e-01 1.034685e+00 4.278976e-01 -3.014768e-01 -7.244779e-01 -7.690977e-01 -1.248426e+00 -3.556442e-01 8.329138e-01 2.449799e-01 1.240307e-01 4.756481e-01 -2.889911e-02 
9.848920e+00 -8.401420e+00 2.018857e-01 -1.158659e+01 -9.920403e-01 -6.442609e+00 -5.382426e+00 -2.158886e+00 -6.285814e+00 -3.515001e+00 -1.016928e+01 -6.518460e+00 7.850208e-01 3.361261e-03 1.989168e+00 4.297712e-01 1.223428e+00 -3.472158e-01 -5.695730e-01 -2.386808e-01 -3.088106e-01 1.727311e+00 9.965334e-01 1.159722e+00 8.052295e-01 -4.357018e-02 
9.802073e+00 -5.812609e+00 -7.162042e-01 -1.071885e+01 -2.320356e+00 -6.423355e+00 -5.923168e+00 -2.225348e+00 -5.062833e+00 -2.336160e+00 -9.183865e+00 -7.190111e+00 7.425693e-01 1.354557e-01 2.852365e+00 2.797315e-01 2.091943e+00 -1.630252e-01 -3.784443e-01 -7.956372e-01 -7.816132e-01 9.920694e-01 8.088821e-01 9.918477e-01 5.594071e-01 -6.994865e-02 
1.041579e+01 -2.236230e+00 1.504896e+00 -6.133421e+00 -1.536997e+00 -6.231402e+00 -4.399729e+00 -1.820013e+00 -9.523871e-01 -5.418408e-01 -6.016049e+00 -5.060936e+00 6.574391e-01 -3.653567e-01 3.997413e+00 6.670732e-01 3.240158e+00 -1.401074e-01 4.657222e-01 -1.562535e+00 -2.226306e+00 -4.187535e-01 7.739162e-01 1.416066e+00 -3.116255e-01 -9.400123e-02 
1.030698e+01 1.557009e+00 6.445260e-01 -3.905335e+00 -2.115476e+00 -6.783488e+00 -9.690304e+00 -4.860351e+00 -5.466799e+00 -2.695655e+00 -6.878599e+00 -6.866648e+00 5.271187e-01 -1.425571e+00 3.905776e+00 8.126422e-01 4.160602e+00 -1.690621e-01 1.545145e+00 -1.326167e+00 -1.577207e+00 -6.839796e-01 -8.093500e-01 1.005425e+00 2.603354e-01 -1.073378e-01 
7.769681e+00 7.900837e+00 2.856887e+00 1.207442e+00 -1.795018e+00 -3.933931e+00 -1.131153e+01 -1.197291e+01 -8.177599e+00 5.343285e-01 -4.241579e+00 -8.238319e+00 4.227400e-01 -3.321409e+00 1.754444e+00 2.091240e-01 4.048038e+00 7.415544e-01 3.732089e+00 4.802514e-01 -1.194469e+00 2.065740e-02 -1.582958e+00 4.105511e-01 -4.530381e-01 -8.692396e-02 
3.997268e+00 8.647735e+00 2.671011e+00 6.413728e+00 -3.036657e+00 1.536360e-01 -9.098100e+00 -5.034931e+00 -4.870125e+00 -6.920995e+00 -5.043976e+00 -4.299743e+00 3.232301e-01 -4.659448e+00 -7.169746e-01 -9.924830e-01 2.973401e+00 1.701098e+00 4.671151e+00 4.122713e+00 9.360098e-01 1.887395e+00 -7.513010e-01 1.605820e+00 6.481115e-01 -4.609496e-02 
-3.036402e+00 2.990628e+00 1.537273e+00 8.947237e+00 2.631365e+00 8.960482e+00 -2.294574e+00 -7.705069e+00 -1.147437e+00 -6.343961e+00 -4.880606e+00 -8.609579e+00 3.247636e-01 -4.552812e+00 -2.012527e+00 -1.627714e+00 9.125466e-01 1.568809e+00 2.303448e+00 3.800663e+00 3.342175e+00 3.842656e+00 1.772961e-01 1.504931e+00 1.047657e+00 -1.810330e-02 
-7.587212e+00 4.272404e-01 -3.658082e+00 7.091771e+00 4.176823e+00 1.012506e+01 6.414779e+00 -2.314225e+00 4.550960e-01 -3.013016e+00 1.470016e+00 -3.440460e+00 3.456321e-01 -3.648412e+00 -9.886042e-01 -1.688585e+00 -8.531529e-01 2.176733e-01 1.980766e-01 2.501071e+00 2.503662e+00 3.879302e+00 2.546233e+00 2.892849e+00 2.130025e+00 3.832406e-03 
-9.202137e+00 1.948450e+00 -2.117135e+00 5.431154e+00 2.442285e+00 2.597598e+00 -6.465769e-02 3.377605e+00 8.373073e+00 -5.331805e-01 2.607822e-02 -3.429674e+00 3.210225e-01 -2.698345e+00 1.727414e-01 -1.689319e+00 -1.155794e+00 -1.226764e+00 -2.529412e+00 1.690553e+00 1.550344e+00 2.572463e+00 2.364240e+00 3.595781e+00 3.991735e+00 3.184262e-02 
-1.116193e+01 4.225802e+00 -3.944707e+00 3.906005e+00 -1.853750e+00 4.325460e+00 2.292297e+00 1.942043e+00 9.766130e+00 2.904782e+00 6.966928e+00 3.760428e+00 3.442627e-01 -1.217829e+00 -7.706346e-02 -7.136580e-01 -8.423564e-01 -1.321458e+00 -2.151546e+00 7.422976e-02 8.156776e-02 5.941191e-01 1.182859e+00 2.332089e+00 3.216121e+00 2.928528e-02 
-1.474077e+01 1.955054e+00 -6.766012e+00 4.761152e+00 -4.871678e-01 -7.867801e-01 8.219433e+00 -2.081483e+00 7.059361e+00 2.518342e+00 1.034984e+01 7.748652e+00 4.846614e-01 -2.040329e-02 -8.578448e-01 -2.662088e-01 -5.514419e-02 -9.631195e-01 5.221600e-02 -6.007259e-01 -1.694301e+00 -1.275914e+00 1.697745e+00 6.489064e-01 4.617355e-01 1.528672e-02 
-1.090704e+01 3.862095e-02 -4.901934e+00 3.214990e+00 -9.657415e-01 1.059520e+00 2.643883e+00 8.231583e-01 4.082548e+00 1.375517e+00 7.968580e+00 7.050981e+00 4.102390e-01 6.993786e-01 -1.160120e+00 7.964622e-01 1.032363e+00 7.886005e-01 1.197920e+00 -2.292491e+00 -1.346174e-01 1.098463e+00 1.059641e+00 -2.282423e+00 -3.305874e+00 -7.578981e-03 
-9.431597e+00 -2.471838e-01 -2.969566e+00 5.500940e+00 -2.817317e+00 4.491649e+00 -3.244081e+00 -4.534457e+00 4.835295e+00 8.720178e+00 2.769785e+00 -2.766273e+00 3.644679e-01 8.920538e-01 -7.262502e-01 1.291581e+00 6.434306e-01 1.598603e+00 2.177566e+00 -2.401414e+00 1.159417e+00 3.507335e+00 1.521665e+00 -2.460150e+00 -3.225181e+00 -3.363745e-02 
-1.031962e+01 -4.736795e-01 -1.860619e+00 8.697926e+00 3.254327e+00 7.675849e+00 -3.438403e+00 2.495443e+00 1.637048e+01 5.102067e+00 -6.551561e-01 -7.511478e+00 3.664645e-01 4.930113e-01 4.093049e-01 1.226351e+00 5.456619e-01 2.318997e+00 1.389008e+00 -1.725447e-01 1.157007e+00 3.095002e+00 8.328164e-02 -1.092321e+00 -1.594427e+00 -2.606078e-02 
-1.057421e+01 -1.420047e+00 -1.828763e+00 5.236837e+00 5.395814e+00 6.792885e+00 -7.464967e-01 2.879458e+00 1.845207e+01 8.263394e+00 2.360960e+00 -1.096023e+00 3.383614e-01 7.749413e-01 5.830175e-01 7.993276e-01 -1.331035e+00 8.259764e-01 1.370350e-01 1.712614e+00 2.074429e+00 8.343830e-02 -2.844636e+00 1.484116e+00 1.867322e+00 -3.309532e-02 
-7.870676e+00 2.671577e+00 6.594214e-01 6.075352e+00 6.522676e+00 6.853942e+00 5.323677e-01 2.901237e+00 1.274917e+01 2.020317e+00 2.711388e+00 -1.756278e+00 2.929884e-01 1.715073e+00 4.269825e-01 7.291405e-01 -9.981926e-01 -1.385155e+00 -8.297586e-01 2.523020e+00 7.591544e-01 -2.811088e+00 -1.467256e+00 1.516326e+00 2.808552e+00 -4.794136e-02 
-6.781363e+00 1.095275e+00 -2.329483e-01 1.570508e-01 -3.216102e-01 5.587777e+00 3.333606e+00 5.634789e+00 7.063139e+00 -3.962128e+00 8.507093e+00 3.692735e+00 2.357294e-01 2.163373e+00 3.052639e-01 4.394271e-01 2.318944e-01 -1.928733e+00 -1.367169e+00 1.681438e+00 -6.794856e-01 -4.351964e+00 -1.573889e+00 3.520401e-01 1.581136e+00 -4.821218e-02 
-3.640680e+00 4.035716e-01 9.871759e-01 6.246856e+00 -8.127381e-01 4.129610e+00 7.136644e+00 4.913549e+00 8.009501e+00 3.878549e+00 3.853408e+00 4.136904e+00 1.780737e-01 1.496371e+00 -2.669798e-01 1.770350e-01 9.433106e-01 -7.067717e-01 -7.124625e-01 7.764887e-01 -1.142982e+00 -3.183203e+00 -2.687668e-01 -2.454866e-01 1.489398e+00 -3.971446e-02 
-1.872346e+00 1.240275e+00 2.044954e-01 6.310556e+00 -5.801454e-01 1.319205e+00 4.358556e+00 -1.524127e+00 -9.379191e-01 -5.351636e-01 3.550150e+00 3.863064e+00 1.547579e-01 9.758285e-01 7.445216e-02 -2.439360e-01 1.228866e+00 2.952983e-01 -4.904147e-01 -6.098709e-02 -6.515055e-01 -8.912147e-01 5.375281e-01 -5.147015e-01 4.946564e-01 -2.532593e-02 
-2.843330e+00 1.264178e+00 1.325875e+00 7.715152e+00 3.118084e+00 5.425915e+00 3.902336e+00 7.657840e-01 8.336856e-01 -1.036999e+00 3.962427e+00 5.605548e+00 1.349018e-01 9.216880e-03 -1.577658e-01 -9.770053e-01 -8.726217e-01 -7.123091e-01 -8.560145e-01 -1.802155e-01 -2.473156e-01 1.110622e-01 -4.920238e-01 -8.650444e-01 -2.374359e-01 -7.446933e-03 
-2.300895e+00 1.037233e+00 -1.621978e+00 5.567233e+00 -8.105301e-01 2.487550e+00 4.645825e+00 4.451144e+00 6.194973e+00 1.183286e+00 5.879076e+00 5.431695e+00 1.306857e-01 -8.204880e-02 -2.547302e-01 -1.109985e+00 -8.571955e-01 -5.945911e-02 -1.224908e-01 2.441965e-01 8.065929e-01 1.883865e+00 -7.002629e-01 -3.406478e+00 -1.012055e+00 9.443700e-03 
-3.380322e+00 -2.837362e-01 -2.984614e+00 2.255410e+00 -4.259091e+00 -7.346361e-01 6.091933e+00 6.893361e-01 4.998365e+00 5.592053e-01 -1.636277e+00 2.165409e+00 1.528751e-01 3.774174e-01 -3.776147e-01 -9.165282e-01 -7.235129e-01 2.704639e-01 -7.586235e-01 -4.024244e-01 -7.635034e-01 -5.029726e-02 -1.466605e+00 -2.968031e+00 -4.611718e-01 2.315826e-02 
-2.014094e+00 7.405815e-01 -3.190183e+00 4.754450e+00 2.811147e+00 3.787026e+00 4.484741e+00 2.547062e+00 6.399065e+00 -4.834580e+00 -1.068289e+01 5.228603e-01 1.929897e-01 -8.194732e-03 -4.929879e-01 -4.848750e-01 4.715215e-01 2.215120e+00 -1.428411e-02 -1.269994e+00 -6.462021e-01 -2.378436e-01 -9.348160e-01 -1.771684e+00 2.158344e-01 2.352287e-02 
-1.099644e+00 -4.755697e-01 -2.472664e+00 4.503979e+00 2.659565e+00 9.830596e-01 1.970756e+00 -2.099692e+00 4.801531e-01 -5.361094e+00 -2.596746e+00 5.754106e+00 2.195411e-01 -2.220612e-02 -2.126098e-01 -3.820877e-01 1.201844e+00 1.582150e+00 -7.918882e-02 -1.526902e+00 5.527401e-01 9.527829e-02 -1.711549e-01 1.748510e+00 1.002264e+00 8.598375e-03 
-3.482207e+00 -1.331790e+00 -4.302328e+00 6.800556e+00 6.805740e+00 1.557282e+00 3.564453e-01 2.614648e+00 7.264861e+00 -5.306447e-01 -2.499112e+00 4.716518e+00 2.149670e-01 -2.740404e-01 -9.890651e-03 -3.049069e-01 2.955737e-02 5.916885e-02 -6.177929e-01 -6.792994e-02 2.003713e-01 8.674860e-03 8.706047e-01 2.811339e+00 2.901193e-01 -5.124467e-03 
-2.757296e+00 -3.105993e-01 -4.338980e+00 7.241578e+00 1.654365e+00 -1.570797e-02 5.215726e-01 3.419243e+00 5.041859e+00 -2.448537e+00 3.014383e+00 5.079903e+00 1.848783e-01 -2.189734e-01 1.630168e-02 -6.312561e-03 -2.130433e-01 1.785270e-01 -1.284982e-01 4.378041e-01 8.827388e-01 1.523283e-01 1.578196e-01 9.341561e-01 -3.863480e-01 -9.043032e-03 
-2.555470e+00 6.086431e-01 -3.781559e+00 3.533437e+00 3.609591e+00 1.197446e+00 4.869683e+00 7.894506e-01 4.161587e+00 -1.937835e+00 5.682414e-01 2.310559e+00 1.846988e-01 1.959820e-02 -3.525783e-01 1.440512e-01 -1.055383e-01 -1.442806e-01 2.755406e-01 1.370957e+00 9.491617e-01 -7.149401e-02 -8.109520e-01 2.197028e-01 8.297651e-01 -3.258878e-03 
-2.657879e+00 -1.364278e+00 -2.764611e+00 5.072322e+00 5.150275e+00 5.204871e-01 1.903158e+00 3.226601e+00 2.793432e+00 -3.868400e+00 5.403581e-01 5.025346e+00 1.894601e-01 -6.863041e-02 -2.029042e-01 5.883150e-01 8.240876e-01 8.213581e-01 4.110385e-01 9.121908e-01 1.438127e+00 -1.852414e-01 -4.315435e-01 9.439580e-01 1.301862e+00 -5.430019e-03 
-3.433925e+00 -2.567842e+00 -4.369256e+00 7.357492e+00 4.336382e+00 2.666888e+00 6.520440e+00 7.456778e+00 8.031605e+00 -3.875473e+00 -1.635857e-01 8.892622e+00 1.963817e-01 4.633856e-01 5.855309e-01 5.235028e-01 1.120900e+00 2.676130e-01 -8.495085e-02 2.171187e-01 1.723211e+00 -2.614621e-01 -5.648771e-01 5.291457e-01 2.342319e-02 -1.277299e-02 
-2.661221e+00 2.631226e-01 -1.103557e+00 9.449988e+00 5.397760e+00 1.304763e+00 4.257148e+00 7.276212e+00 2.180643e+00 -3.637435e+00 8.100086e+00 8.298180e+00 1.518868e-01 5.234723e-01 1.040477e+00 6.272416e-02 4.645199e-01 -1.548627e-01 -5.275705e-01 -6.984528e-01 6.269379e-01 -3.252671e-01 -9.431175e-01 -8.753940e-01 -1.117958e+00 -1.072137e-02 
-2.368717e-01 2.722597e+00 -1.994573e+00 6.949102e+00 4.823913e+00 3.805532e-01 4.778281e+00 7.380698e+00 3.160671e+00 -4.877703e+00 -5.658946e-01 7.912574e-01 1.396205e-01 4.611939e-01 8.451229e-01 -1.072926e-01 -1.367626e-01 -1.673937e-01 -9.561135e-01 -1.945211e+00 -2.991779e-01 -7.436164e-01 -1.286024e+00 -1.867929e+00 -1.562471e+00 -5.194867e-03 
-1.639044e+00 1.192889e+00 -3.638332e+00 7.599116e+00 4.132196e+00 -9.741983e-01 -7.180271e-01 6.399330e+00 3.602563e+00 -8.082873e+00 -3.635458e+00 3.486238e+00 1.642339e-01 6.421814e-02 3.298240e-02 -6.713310e-01 -3.051732e-01 -3.222846e-01 -5.912675e-01 -1.544666e+00 -2.735133e-01 3.285733e-01 -1.209605e+00 -2.654065e+00 -6.928904e-01 4.930758e-03 
